AIC = 3016076.2969019445591

y0 0.88224368144833309469
y0_prime 0
y1 1.0034867136586369529
y1_prime 0
y2 1.0429738356403790434
y2_prime 0
y3 1.4967111053031503243
y3_prime 0
rho 0.00095176605498764968189
theta 0.0049839974439910535511
