LogLikelihood = -171317.01160734216683

y0 1.1307344247676578419
y0_prime 0
y1 0.96244655292266145796
y1_prime 0
y2 0.93930180429003196085
y2_prime 0
y3 1.7532948764736242531
y3_prime 0
rho 0.0007429025065630678968
theta 0.0025400520512142981018
