LogLikelihood = -37229.626586633821717

y0 0.031977756281257666005
y0_prime 0
y1 1.0509473237755546648
y1_prime 0
y2 1.5966912440129796824
y2_prime 0
y3 1.6205589281942680557
y3_prime 0
rho 1.6033498128312094244e-05
theta 7.1359304705031530039e-05
