time_index	left_time_boundary	right_time_boundary	lambda
0	0	8.93867e-06	420952
1	8.93867e-06	1.93947e-05	420952
2	1.93947e-05	3.16256e-05	1.89905
3	3.16256e-05	4.59327e-05	1.89906
4	4.59327e-05	6.26685e-05	813.211
5	6.26685e-05	8.22451e-05	2468.98
6	8.22451e-05	0.000105145	3266.1
7	0.000105145	0.000131932	3576.54
8	0.000131932	0.000163266	1003.48
9	0.000163266	0.000199919	148.411
10	0.000199919	0.000242794	27.9265
11	0.000242794	0.000292947	10.7704
12	0.000292947	0.000351613	9.11605
13	0.000351613	0.000420238	16.0945
14	0.000420238	0.000500513	46.8275
15	0.000500513	0.000594413	135.601
16	0.000594413	0.000704253	260.386
17	0.000704253	0.000832739	320.268
18	0.000832739	0.000983035	329.24
19	0.000983035	0.00115884	352.798
20	0.00115884	0.0013645	399.884
21	0.0013645	0.00160506	436.888
22	0.00160506	0.00188646	410.254
23	0.00188646	0.00221562	387.355
24	0.00221562	0.00260066	434.134
25	0.00260066	0.00305106	550.566
26	0.00305106	0.00357792	658.45
27	0.00357792	0.00419421	1294.58
28	0.00419421	0.00491511	1294.58
29	0.00491511	0.00575839	267.573
30	0.00575839	0.00674481	267.573
31	0.00674481	inf	267.573
