0.000590427	-12180743.13	0,3.59833e-06,9.84195e-06,2.06755e-05,3.94734e-05,7.20903e-05,0.000128685,0.000226886,0.000397278,0.000692933,0.00120594,0.00209607,0.00364059,0.00632054,0.0109706,0.0190392,inf	4962.92,4962.92,179.372,230.725,210.311,266.243,304.092,314.851,325.376,351.237,409.608,499.48,528.931,446.342,446.342,446.342
0.000628743	-12177311.54	0,3.59833e-06,9.84195e-06,2.06755e-05,3.94734e-05,7.20903e-05,0.000128685,0.000226886,0.000397278,0.000692933,0.00120594,0.00209607,0.00364059,0.00632054,0.0109706,0.0190392,inf	5798.12,5798.12,70.926,186.479,150.988,225.88,280.789,288.85,293.167,318.299,389.419,521.245,586.168,426.621,426.621,426.621
0.000662278	-12176471.37	0,3.59833e-06,9.84195e-06,2.06755e-05,3.94734e-05,7.20903e-05,0.000128685,0.000226886,0.000397278,0.000692933,0.00120594,0.00209607,0.00364059,0.00632054,0.0109706,0.0190392,inf	5825.46,5825.46,30.438,179.368,127.368,213.98,282.854,287.795,285.099,304.843,376.972,529.228,630.484,402.306,402.306,402.306
0.000691995	-12176090.26	0,3.59833e-06,9.84195e-06,2.06755e-05,3.94734e-05,7.20903e-05,0.000128685,0.000226886,0.000397278,0.000692933,0.00120594,0.00209607,0.00364059,0.00632054,0.0109706,0.0190392,inf	5696.49,5696.49,13.5766,181.166,114.166,208.748,289.54,292.673,284.923,299.085,368.436,529.812,666.102,378.001,378.001,378.001
0.000718886	-12175829.33	0,3.59833e-06,9.84195e-06,2.06755e-05,3.94734e-05,7.20903e-05,0.000128685,0.000226886,0.000397278,0.000692933,0.00120594,0.00209607,0.00364059,0.00632054,0.0109706,0.0190392,inf	5544.61,5544.61,6.16971,184.864,105.257,205.201,295.586,298.036,287.448,296.964,362.352,526.433,695.813,355.81,355.81,355.81
0.000743637	-12175619.25	0,3.59833e-06,9.84195e-06,2.06755e-05,3.94734e-05,7.20903e-05,0.000128685,0.000226886,0.000397278,0.000692933,0.00120594,0.00209607,0.00364059,0.00632054,0.0109706,0.0190392,inf	5399.5,5399.5,2.83934,188.636,98.7404,202.368,300.029,302.371,290.76,296.764,357.971,520.911,721.37,336.437,336.437,336.437
0.000766689	-12175443.59	0,3.59833e-06,9.84195e-06,2.06755e-05,3.94734e-05,7.20903e-05,0.000128685,0.000226886,0.000397278,0.000692933,0.00120594,0.00209607,0.00364059,0.00632054,0.0109706,0.0190392,inf	5269.2,5269.2,1.31741,192.027,93.7943,200.184,303.105,305.447,294.107,297.647,354.835,514.218,743.867,319.905,319.905,319.905
0.000788329	-12175296.32	0,3.59833e-06,9.84195e-06,2.06755e-05,3.94734e-05,7.20903e-05,0.000128685,0.000226886,0.000397278,0.000692933,0.00120594,0.00209607,0.00364059,0.00632054,0.0109706,0.0190392,inf	5151.8,5151.8,0.611435,194.948,89.9619,198.688,305.253,307.418,297.196,299.162,352.637,506.894,763.994,305.95,305.95,305.95
0.000808754	-12175173.08	0,3.59833e-06,9.84195e-06,2.06755e-05,3.94734e-05,7.20903e-05,0.000128685,0.000226886,0.000397278,0.000692933,0.00120594,0.00209607,0.00364059,0.00632054,0.0109706,0.0190392,inf	5046.23,5046.23,0.454003,197.413,86.94,197.874,306.85,308.526,299.924,301.043,351.164,499.251,782.201,294.218,294.218,294.218
0.000828105	-12175069.76	0,3.59833e-06,9.84195e-06,2.06755e-05,3.94734e-05,7.20903e-05,0.000128685,0.000226886,0.000397278,0.000692933,0.00120594,0.00209607,0.00364059,0.00632054,0.0109706,0.0190392,inf	4951.36,4951.36,0.454003,199.441,84.49,197.668,308.154,308.995,302.27,303.129,350.262,491.475,798.793,284.355,284.355,284.355
0.000846489	-12174982.60	0,3.59833e-06,9.84195e-06,2.06755e-05,3.94734e-05,7.20903e-05,0.000128685,0.000226886,0.000397278,0.000692933,0.00120594,0.00209607,0.00364059,0.00632054,0.0109706,0.0190392,inf	4863.83,4863.83,0.454003,201.082,82.4474,197.973,309.326,309.008,304.248,305.316,349.819,483.685,813.991,276.042,276.042,276.042
0.000863994	-12174908.35	0,3.59833e-06,9.84195e-06,2.06755e-05,3.94734e-05,7.20903e-05,0.000128685,0.000226886,0.000397278,0.000692933,0.00120594,0.00209607,0.00364059,0.00632054,0.0109706,0.0190392,inf	4784.98,4784.98,0.454003,202.394,80.6967,198.69,310.461,308.709,305.889,307.537,349.75,475.959,827.964,269.005,269.005,269.005
0.000880691	-12174844.35	0,3.59833e-06,9.84195e-06,2.06755e-05,3.94734e-05,7.20903e-05,0.000128685,0.000226886,0.000397278,0.000692933,0.00120594,0.00209607,0.00364059,0.00632054,0.0109706,0.0190392,inf	4711.18,4711.18,0.454003,203.43,79.1718,199.72,311.609,308.206,307.225,309.748,349.991,468.347,840.849,263.018,263.018,263.018
0.000896645	-12174788.49	0,3.59833e-06,9.84195e-06,2.06755e-05,3.94734e-05,7.20903e-05,0.000128685,0.000226886,0.000397278,0.000692933,0.00120594,0.00209607,0.00364059,0.00632054,0.0109706,0.0190392,inf	4644.01,4644.01,0.454003,204.234,77.8021,200.982,312.792,307.577,308.291,311.916,350.492,460.885,852.76,257.895,257.895,257.895
0.000911909	-12174739.18	0,3.59833e-06,9.84195e-06,2.06755e-05,3.94734e-05,7.20903e-05,0.000128685,0.000226886,0.000397278,0.000692933,0.00120594,0.00209607,0.00364059,0.00632054,0.0109706,0.0190392,inf	4580.95,4580.95,0.454003,204.854,76.5484,202.402,314.017,306.882,309.119,314.021,351.213,453.593,863.798,253.485,253.485,253.485
0.000926533	-12174695.19	0,3.59833e-06,9.84195e-06,2.06755e-05,3.94734e-05,7.20903e-05,0.000128685,0.000226886,0.000397278,0.000692933,0.00120594,0.00209607,0.00364059,0.00632054,0.0109706,0.0190392,inf	4523.14,4523.14,0.454003,205.329,75.3966,203.923,315.282,306.164,309.737,316.048,352.122,446.486,874.051,249.664,249.664,249.664
0.000940559	-12174655.60	0,3.59833e-06,9.84195e-06,2.06755e-05,3.94734e-05,7.20903e-05,0.000128685,0.000226886,0.000397278,0.000692933,0.00120594,0.00209607,0.00364059,0.00632054,0.0109706,0.0190392,inf	4468.33,4468.33,0.454003,205.687,74.3173,205.507,316.578,305.455,310.172,317.988,353.191,439.571,883.598,246.333,246.333,246.333
0.000954026	-12174619.74	0,3.59833e-06,9.84195e-06,2.06755e-05,3.94734e-05,7.20903e-05,0.000128685,0.000226886,0.000397278,0.000692933,0.00120594,0.00209607,0.00364059,0.00632054,0.0109706,0.0190392,inf	4418.2,4418.2,0.454003,205.95,73.305,207.118,317.9,304.776,310.446,319.835,354.4,432.85,892.509,243.41,243.41,243.41
0.00096697	-12174587.10	0,3.59833e-06,9.84195e-06,2.06755e-05,3.94734e-05,7.20903e-05,0.000128685,0.000226886,0.000397278,0.000692933,0.00120594,0.00209607,0.00364059,0.00632054,0.0109706,0.0190392,inf	4370.43,4370.43,0.454003,206.145,72.3543,208.725,319.236,304.145,310.581,321.585,355.729,426.324,900.849,240.829,240.829,240.829
0.00097942	-12174557.30	0,3.59833e-06,9.84195e-06,2.06755e-05,3.94734e-05,7.20903e-05,0.000128685,0.000226886,0.000397278,0.000692933,0.00120594,0.00209607,0.00364059,0.00632054,0.0109706,0.0190392,inf	4325.57,4325.57,0.454003,206.278,71.4637,210.313,320.578,303.574,310.595,323.236,357.162,419.989,908.674,238.536,238.536,238.536
