0.000715797	-8643777.51	0,6.06009e-06,1.6268e-05,3.34629e-05,6.24268e-05,0.000111215,0.000193397,0.000331829,0.000565012,0.000957797,0.00161943,0.00273391,0.00461121,0.00777344,0.0131001,0.0220726,inf	460.371,460.371,267.384,238.179,231.879,223.68,221.01,238.393,282.209,367.505,502.308,495.164,449.436,492.427,492.427,492.427
0.000807658	-8635055.25	0,6.06009e-06,1.6268e-05,3.34629e-05,6.24268e-05,0.000111215,0.000193397,0.000331829,0.000565012,0.000957797,0.00161943,0.00273391,0.00461121,0.00777344,0.0131001,0.0220726,inf	612.863,612.863,265.362,226.848,215.932,194.048,177.514,189.994,238.97,346.144,547.919,545.47,472.318,590.368,590.368,590.368
0.000891369	-8631489.44	0,6.06009e-06,1.6268e-05,3.34629e-05,6.24268e-05,0.000111215,0.000193397,0.000331829,0.000565012,0.000957797,0.00161943,0.00273391,0.00461121,0.00777344,0.0131001,0.0220726,inf	708.088,708.088,267.132,234.994,227.166,194.367,164.916,171.52,219.696,333.618,568.66,571.493,481.145,707.733,707.733,707.733
0.000968508	-8629458.39	0,6.06009e-06,1.6268e-05,3.34629e-05,6.24268e-05,0.000111215,0.000193397,0.000331829,0.000565012,0.000957797,0.00161943,0.00273391,0.00461121,0.00777344,0.0131001,0.0220726,inf	735.329,735.329,257.497,240.509,242.031,202.15,162.045,164.123,210.662,326.557,578.119,584.054,482.113,869.488,869.488,869.488
0.00104059	-8628060.26	0,6.06009e-06,1.6268e-05,3.34629e-05,6.24268e-05,0.000111215,0.000193397,0.000331829,0.000565012,0.000957797,0.00161943,0.00273391,0.00461121,0.00777344,0.0131001,0.0220726,inf	726.292,726.292,240.083,239.891,254.034,210.755,162.524,161.588,206.724,322.883,582.254,588.94,478.708,1154.86,1154.86,1154.86
0.00110854	-8627016.34	0,6.06009e-06,1.6268e-05,3.34629e-05,6.24268e-05,0.000111215,0.000193397,0.000331829,0.000565012,0.000957797,0.00161943,0.00273391,0.00461121,0.00777344,0.0131001,0.0220726,inf	706.958,706.958,220.359,234.636,262.006,218.137,164.097,161.448,205.621,321.393,583.697,589.069,472.767,2046.23,2046.23,2046.23
0.00117274	-8626254.74	0,6.06009e-06,1.6268e-05,3.34629e-05,6.24268e-05,0.000111215,0.000193397,0.000331829,0.000565012,0.000957797,0.00161943,0.00273391,0.00461121,0.00777344,0.0131001,0.0220726,inf	689.171,689.171,201.56,226.871,266.428,223.761,165.827,162.491,206.108,321.257,583.484,585.695,465.26,18265.4,18265.4,18265.4
0.00117274	-8625730.35	0,6.06009e-06,1.6268e-05,3.34629e-05,6.24268e-05,0.000111215,0.000193397,0.000331829,0.000565012,0.000957797,0.00161943,0.00273391,0.00461121,0.00777344,0.0131001,0.0220726,inf	672.569,672.569,184.047,217.072,266.643,226.183,166.295,163.118,206.24,319.195,569.911,571.943,453.358,50631.9,50631.9,50631.9
0.00117274	-8625766.34	0,6.06009e-06,1.6268e-05,3.34629e-05,6.24268e-05,0.000111215,0.000193397,0.000331829,0.000565012,0.000957797,0.00161943,0.00273391,0.00461121,0.00777344,0.0131001,0.0220726,inf	672.578,672.578,171.006,208.874,266.549,228.199,166.756,164.134,206.24,319.195,563.221,562.754,443.402,50635.9,50635.9,50635.9
0.00117274	-8625784.12	0,6.06009e-06,1.6268e-05,3.34629e-05,6.24268e-05,0.000111215,0.000193397,0.000331829,0.000565012,0.000957797,0.00161943,0.00273391,0.00461121,0.00777344,0.0131001,0.0220726,inf	672.579,672.579,160.87,202.073,266.34,229.667,166.934,164.134,206.841,319.195,560.364,556.502,434.759,50638.8,50638.8,50638.8
0.00117274	-8625796.97	0,6.06009e-06,1.6268e-05,3.34629e-05,6.24268e-05,0.000111215,0.000193397,0.000331829,0.000565012,0.000957797,0.00161943,0.00273391,0.00461121,0.00777344,0.0131001,0.0220726,inf	672.58,672.58,153.005,196.554,266.31,230.893,166.959,164.959,206.841,319.195,559.664,552.158,427.051,50641.1,50641.1,50641.1
0.00117274	-8625802.25	0,6.06009e-06,1.6268e-05,3.34629e-05,6.24268e-05,0.000111215,0.000193397,0.000331829,0.000565012,0.000957797,0.00161943,0.00273391,0.00461121,0.00777344,0.0131001,0.0220726,inf	672.586,672.586,146.821,191.997,266.335,231.81,166.761,165.77,206.841,319.195,559.664,549.137,420.043,50643.1,50643.1,50643.1
0.00117274	-8625803.43	0,6.06009e-06,1.6268e-05,3.34629e-05,6.24268e-05,0.000111215,0.000193397,0.000331829,0.000565012,0.000957797,0.00161943,0.00273391,0.00461121,0.00777344,0.0131001,0.0220726,inf	672.594,672.594,141.939,188.24,266.465,232.511,166.384,166.546,206.841,319.195,559.664,547.114,413.593,50644.8,50644.8,50644.8
0.00117274	-8625803.23	0,6.06009e-06,1.6268e-05,3.34629e-05,6.24268e-05,0.000111215,0.000193397,0.000331829,0.000565012,0.000957797,0.00161943,0.00273391,0.00461121,0.00777344,0.0131001,0.0220726,inf	672.596,672.596,138.061,185.133,266.711,233.066,165.876,167.273,206.841,319.195,559.664,545.87,407.607,50646.3,50646.3,50646.3
0.00117274	-8625801.48	0,6.06009e-06,1.6268e-05,3.34629e-05,6.24268e-05,0.000111215,0.000193397,0.000331829,0.000565012,0.000957797,0.00161943,0.00273391,0.00461121,0.00777344,0.0131001,0.0220726,inf	672.598,672.598,134.966,182.544,267.07,233.525,165.271,167.945,206.841,319.195,559.664,545.236,402.01,50647.6,50647.6,50647.6
0.00117274	-8625798.25	0,6.06009e-06,1.6268e-05,3.34629e-05,6.24268e-05,0.000111215,0.000193397,0.000331829,0.000565012,0.000957797,0.00161943,0.00273391,0.00461121,0.00777344,0.0131001,0.0220726,inf	672.603,672.603,132.479,180.369,267.53,233.925,164.599,168.561,206.841,319.195,559.664,545.077,396.744,50648.8,50648.8,50648.8
0.00117274	-8625793.69	0,6.06009e-06,1.6268e-05,3.34629e-05,6.24268e-05,0.000111215,0.000193397,0.000331829,0.000565012,0.000957797,0.00161943,0.00273391,0.00461121,0.00777344,0.0131001,0.0220726,inf	672.607,672.607,130.466,178.525,268.075,233.925,163.877,169.252,206.842,319.195,559.664,545.077,391.771,50649.9,50649.9,50649.9
0.00117274	-8625789.05	0,6.06009e-06,1.6268e-05,3.34629e-05,6.24268e-05,0.000111215,0.000193397,0.000331829,0.000565012,0.000957797,0.00161943,0.00273391,0.00461121,0.00777344,0.0131001,0.0220726,inf	672.611,672.611,128.856,176.975,268.758,234.308,163.132,169.728,206.842,319.195,559.664,545.077,387.065,50650.9,50650.9,50650.9
0.00117274	-8625785.18	0,6.06009e-06,1.6268e-05,3.34629e-05,6.24268e-05,0.000111215,0.000193397,0.000331829,0.000565012,0.000957797,0.00161943,0.00273391,0.00461121,0.00777344,0.0131001,0.0220726,inf	672.613,672.613,127.524,175.6,269.465,234.652,162.373,170.179,206.842,319.195,559.664,545.077,382.611,50651.9,50651.9,50651.9
0.00117274	-8625781.89	0,6.06009e-06,1.6268e-05,3.34629e-05,6.24268e-05,0.000111215,0.000193397,0.000331829,0.000565012,0.000957797,0.00161943,0.00273391,0.00461121,0.00777344,0.0131001,0.0220726,inf	672.615,672.615,126.419,174.366,270.192,234.886,161.607,170.634,206.842,319.195,559.664,545.077,378.391,50652.8,50652.8,50652.8
