0.000691821	-13892021.71	0,1.74772e-06,4.04989e-06,7.08243e-06,1.1077e-05,1.63389e-05,2.32702e-05,3.24003e-05,4.4427e-05,6.02691e-05,8.11371e-05,0.000108625,0.000144834,0.000192531,0.000255358,0.000338118,0.000447133,0.000590734,0.000779891,0.00102906,0.00135727,0.00178961,0.00235911,0.00310929,0.00409745,0.00539911,0.00711372,0.00937228,0.0123474,0.0162663,0.0214285,0.0282284,inf	254.055,254.055,423.224,425.732,330.466,266.249,243.374,236.711,235.562,234.381,231.086,226.448,222.646,222.143,226.748,237.791,255.61,281.322,317.846,368.333,431.637,490.426,512.26,496.215,469.434,446.306,432.048,424.557,424.557,396.066,396.066,396.066
0.000764648	-13879181.27	0,1.74772e-06,4.04989e-06,7.08243e-06,1.1077e-05,1.63389e-05,2.32702e-05,3.24003e-05,4.4427e-05,6.02691e-05,8.11371e-05,0.000108625,0.000144834,0.000192531,0.000255358,0.000338118,0.000447133,0.000590734,0.000779891,0.00102906,0.00135727,0.00178961,0.00235911,0.00310929,0.00409745,0.00539911,0.00711372,0.00937228,0.0123474,0.0162663,0.0214285,0.0282284,inf	204.26,204.26,569.604,589.217,381.29,267.852,233.664,225.557,224.581,220.99,211.522,198.415,185.961,178.19,177.734,186.398,204.462,233.72,279.079,346.591,438.377,534.318,578.479,556.042,511.57,471.897,448.43,437.422,437.422,378.937,378.937,378.937
0.000833688	-13873467.58	0,1.74772e-06,4.04989e-06,7.08243e-06,1.1077e-05,1.63389e-05,2.32702e-05,3.24003e-05,4.4427e-05,6.02691e-05,8.11371e-05,0.000108625,0.000144834,0.000192531,0.000255358,0.000338118,0.000447133,0.000590734,0.000779891,0.00102906,0.00135727,0.00178961,0.00235911,0.00310929,0.00409745,0.00539911,0.00711372,0.00937228,0.0123474,0.0162663,0.0214285,0.0282284,inf	144.328,144.328,672.474,728.326,416.968,272.404,236.675,233.497,237.526,234.959,221.388,200.962,180.604,166.028,160.522,165.856,181.807,210.472,258.055,332.386,438.119,556.355,617.786,593.239,537.096,485.691,456.565,444.745,444.745,358.47,358.47,358.47
0.000899103	-13870044.34	0,1.74772e-06,4.04989e-06,7.08243e-06,1.1077e-05,1.63389e-05,2.32702e-05,3.24003e-05,4.4427e-05,6.02691e-05,8.11371e-05,0.000108625,0.000144834,0.000192531,0.000255358,0.000338118,0.000447133,0.000590734,0.000779891,0.00102906,0.00135727,0.00178961,0.00235911,0.00310929,0.00409745,0.00539911,0.00711372,0.00937228,0.0123474,0.0162663,0.0214285,0.0282284,inf	91.7136,91.7136,708.944,806.224,419.398,262.633,232.01,237.489,249.94,251.675,236.762,211.045,184.297,164.109,154.53,157.098,170.888,198.137,245.938,323.158,436.033,567.574,641.21,616.122,551.979,492.113,459.618,448.718,448.718,338.343,338.343,338.343
0.000961572	-13867579.35	0,1.74772e-06,4.04989e-06,7.08243e-06,1.1077e-05,1.63389e-05,2.32702e-05,3.24003e-05,4.4427e-05,6.02691e-05,8.11371e-05,0.000108625,0.000144834,0.000192531,0.000255358,0.000338118,0.000447133,0.000590734,0.000779891,0.00102906,0.00135727,0.00178961,0.00235911,0.00310929,0.00409745,0.00539911,0.00711372,0.00937228,0.0123474,0.0162663,0.0214285,0.0282284,inf	55.8283,55.8283,708.776,840.676,400.397,242.957,219.619,234.305,256.202,264.202,250.387,221.597,190.224,165.76,153.148,153.669,165.665,191.477,238.861,317.26,433.812,573.273,655.209,630.048,560.172,494.069,459.644,450.756,450.756,320.053,320.053,320.053
0.00102169	-13865606.47	0,1.74772e-06,4.04989e-06,7.08243e-06,1.1077e-05,1.63389e-05,2.32702e-05,3.24003e-05,4.4427e-05,6.02691e-05,8.11371e-05,0.000108625,0.000144834,0.000192531,0.000255358,0.000338118,0.000447133,0.000590734,0.000779891,0.00102906,0.00135727,0.00178961,0.00235911,0.00310929,0.00409745,0.00539911,0.00711372,0.00937228,0.0123474,0.0162663,0.0214285,0.0282284,inf	33.8949,33.8949,699.249,856.371,373.471,220.108,203.525,226.05,256.615,271.386,260.276,230.309,195.972,168.493,153.789,152.902,163.497,188.051,234.849,313.62,431.96,576.044,663.485,638.315,564.17,493.371,457.92,451.719,451.719,303.982,303.982,303.982
0.00107988	-13863931.85	0,1.74772e-06,4.04989e-06,7.08243e-06,1.1077e-05,1.63389e-05,2.32702e-05,3.24003e-05,4.4427e-05,6.02691e-05,8.11371e-05,0.000108625,0.000144834,0.000192531,0.000255358,0.000338118,0.000447133,0.000590734,0.000779891,0.00102906,0.00135727,0.00178961,0.00235911,0.00310929,0.00409745,0.00539911,0.00711372,0.00937228,0.0123474,0.0162663,0.0214285,0.0282284,inf	20.885,20.885,693.147,868.094,346.318,198.253,187.023,215.463,253.092,274.131,266.475,236.681,200.742,171.326,155.314,153.546,163.079,186.582,232.793,311.53,430.569,577.207,668.192,642.954,565.531,491.131,455.222,452.116,452.116,290.047,290.047,290.047
0.00113647	-13862462.26	0,1.74772e-06,4.04989e-06,7.08243e-06,1.1077e-05,1.63389e-05,2.32702e-05,3.24003e-05,4.4427e-05,6.02691e-05,8.11371e-05,0.000108625,0.000144834,0.000192531,0.000255358,0.000338118,0.000447133,0.000590734,0.000779891,0.00102906,0.00135727,0.00178961,0.00235911,0.00310929,0.00409745,0.00539911,0.00711372,0.00937228,0.0123474,0.0162663,0.0214285,0.0282284,inf	13.1148,13.1148,693.648,881.527,321.928,179.084,171.886,204.527,247.507,273.808,269.714,240.916,204.382,173.883,157.192,154.957,163.703,186.348,232.025,310.516,429.599,577.457,670.618,645.231,565.231,488.029,452.022,452.244,452.244,278.005,278.005,278.005
0.00119166	-13861146.79	0,1.74772e-06,4.04989e-06,7.08243e-06,1.1077e-05,1.63389e-05,2.32702e-05,3.24003e-05,4.4427e-05,6.02691e-05,8.11371e-05,0.000108625,0.000144834,0.000192531,0.000255358,0.000338118,0.000447133,0.000590734,0.000779891,0.00102906,0.00135727,0.00178961,0.00235911,0.00310929,0.00409745,0.00539911,0.00711372,0.00937228,0.0123474,0.0162663,0.0214285,0.0282284,inf	8.36417,8.36417,699.857,897.677,300.904,162.938,158.801,194.373,241.219,271.643,270.826,243.426,206.988,176.049,159.162,156.783,164.962,186.913,232.123,310.254,428.975,577.176,671.553,645.949,563.887,484.479,448.604,452.273,452.273,267.587,267.587,267.587
0.00124563	-13859954.44	0,1.74772e-06,4.04989e-06,7.08243e-06,1.1077e-05,1.63389e-05,2.32702e-05,3.24003e-05,4.4427e-05,6.02691e-05,8.11371e-05,0.000108625,0.000144834,0.000192531,0.000255358,0.000338118,0.000447133,0.000590734,0.000779891,0.00102906,0.00135727,0.00178961,0.00235911,0.00310929,0.00409745,0.00539911,0.00711372,0.00937228,0.0123474,0.0162663,0.0214285,0.0282284,inf	5.4019,5.4019,709.762,915.388,282.919,149.57,147.855,185.523,235.072,268.554,270.53,244.649,208.737,177.822,161.102,158.823,166.607,188.001,232.812,310.519,428.62,576.578,671.497,645.629,561.895,480.734,445.135,452.298,452.298,258.542,258.542,258.542
0.0012985	-13858864.54	0,1.74772e-06,4.04989e-06,7.08243e-06,1.1077e-05,1.63389e-05,2.32702e-05,3.24003e-05,4.4427e-05,6.02691e-05,8.11371e-05,0.000108625,0.000144834,0.000192531,0.000255358,0.000338118,0.000447133,0.000590734,0.000779891,0.00102906,0.00135727,0.00178961,0.00235911,0.00310929,0.00409745,0.00539911,0.00711372,0.00937228,0.0123474,0.0162663,0.0214285,0.0282284,inf	3.51314,3.51314,721.373,933.377,267.425,138.547,138.887,178.123,229.53,265.149,269.379,244.952,209.812,179.243,162.954,160.958,168.482,189.434,233.906,311.155,428.469,575.79,670.775,644.611,559.51,476.944,441.714,452.367,452.367,250.652,250.652,250.652
0.00135034	-13857862.22	0,1.74772e-06,4.04989e-06,7.08243e-06,1.1077e-05,1.63389e-05,2.32702e-05,3.24003e-05,4.4427e-05,6.02691e-05,8.11371e-05,0.000108625,0.000144834,0.000192531,0.000255358,0.000338118,0.000447133,0.000590734,0.000779891,0.00102906,0.00135727,0.00178961,0.00235911,0.00310929,0.00409745,0.00539911,0.00711372,0.00937228,0.0123474,0.0162663,0.0214285,0.0282284,inf	2.29794,2.29794,733.294,950.364,253.905,129.432,131.625,172.149,224.803,261.806,267.76,244.629,210.376,180.366,164.698,163.117,170.488,191.094,235.277,312.048,428.468,574.887,669.599,643.125,556.898,473.2,438.395,452.502,452.502,243.733,243.733,243.733
0.00140124	-13856936.20	0,1.74772e-06,4.04989e-06,7.08243e-06,1.1077e-05,1.63389e-05,2.32702e-05,3.24003e-05,4.4427e-05,6.02691e-05,8.11371e-05,0.000108625,0.000144834,0.000192531,0.000255358,0.000338118,0.000447133,0.000590734,0.000779891,0.00102906,0.00135727,0.00178961,0.00235911,0.00310929,0.00409745,0.00539911,0.00711372,0.00937228,0.0123474,0.0162663,0.0214285,0.0282284,inf	1.50897,1.50897,744.634,965.399,241.924,121.862,125.807,167.467,220.952,258.741,265.939,243.899,210.563,181.245,166.33,165.259,172.561,192.897,236.837,313.121,428.579,573.916,668.117,641.327,554.166,469.554,435.207,452.712,452.712,237.637,237.637,237.637
0.00145124	-13856077.51	0,1.74772e-06,4.04989e-06,7.08243e-06,1.1077e-05,1.63389e-05,2.32702e-05,3.24003e-05,4.4427e-05,6.02691e-05,8.11371e-05,0.000108625,0.000144834,0.000192531,0.000255358,0.000338118,0.000447133,0.000590734,0.000779891,0.00102906,0.00135727,0.00178961,0.00235911,0.00310929,0.00409745,0.00539911,0.00711372,0.00937228,0.0123474,0.0162663,0.0214285,0.0282284,inf	0.993363,0.993363,754.944,977.954,231.183,115.536,121.196,163.933,217.959,256.061,264.087,242.923,210.48,181.932,167.855,167.359,174.656,194.79,238.522,314.313,428.769,572.905,666.427,639.323,551.385,466.034,432.162,452.994,452.994,232.239,232.239,232.239
0.00150039	-13855278.83	0,1.74772e-06,4.04989e-06,7.08243e-06,1.1077e-05,1.63389e-05,2.32702e-05,3.24003e-05,4.4427e-05,6.02691e-05,8.11371e-05,0.000108625,0.000144834,0.000192531,0.000255358,0.000338118,0.000447133,0.000590734,0.000779891,0.00102906,0.00135727,0.00178961,0.00235911,0.00310929,0.00409745,0.00539911,0.00711372,0.00937228,0.0123474,0.0162663,0.0214285,0.0282284,inf	0.535303,0.535303,764.105,987.815,221.414,110.208,117.576,161.396,215.753,253.802,262.309,241.814,210.21,182.468,169.282,169.403,176.747,196.732,240.286,315.584,429.014,571.875,664.601,637.189,548.601,462.651,429.262,453.344,453.344,227.436,227.436,227.436
0.00154874	-13854534.01	0,1.74772e-06,4.04989e-06,7.08243e-06,1.1077e-05,1.63389e-05,2.32702e-05,3.24003e-05,4.4427e-05,6.02691e-05,8.11371e-05,0.000108625,0.000144834,0.000192531,0.000255358,0.000338118,0.000447133,0.000590734,0.000779891,0.00102906,0.00135727,0.00178961,0.00235911,0.00310929,0.00409745,0.00539911,0.00711372,0.00937228,0.0123474,0.0162663,0.0214285,0.0282284,inf	0.403385,0.403385,772.268,994.905,212.454,105.687,114.777,159.704,214.253,251.965,260.666,240.653,209.814,182.89,170.622,171.385,178.814,198.697,242.098,316.903,429.298,570.839,662.688,634.976,545.846,459.411,426.505,453.752,453.752,223.144,223.144,223.144
0.00159631	-13853837.83	0,1.74772e-06,4.04989e-06,7.08243e-06,1.1077e-05,1.63389e-05,2.32702e-05,3.24003e-05,4.4427e-05,6.02691e-05,8.11371e-05,0.000108625,0.000144834,0.000192531,0.000255358,0.000338118,0.000447133,0.000590734,0.000779891,0.00102906,0.00135727,0.00178961,0.00235911,0.00310929,0.00409745,0.00539911,0.00711372,0.00937228,0.0123474,0.0162663,0.0214285,0.0282284,inf	0.403385,0.403385,779.529,999.269,204.15,101.824,112.652,158.732,213.364,250.529,259.188,239.492,209.342,183.227,171.886,173.3,180.847,200.666,243.933,318.247,429.606,569.803,660.724,632.722,543.137,456.311,423.886,454.209,454.209,219.293,219.293,219.293
0.00164314	-13853185.80	0,1.74772e-06,4.04989e-06,7.08243e-06,1.1077e-05,1.63389e-05,2.32702e-05,3.24003e-05,4.4427e-05,6.02691e-05,8.11371e-05,0.000108625,0.000144834,0.000192531,0.000255358,0.000338118,0.000447133,0.000590734,0.000779891,0.00102906,0.00135727,0.00178961,0.00235911,0.00310929,0.00409745,0.00539911,0.00711372,0.00937228,0.0123474,0.0162663,0.0214285,0.0282284,inf	0.403385,0.403385,786.253,1001.06,196.4,98.4961,111.096,158.37,213.002,249.455,257.886,238.369,208.829,183.5,173.085,175.15,182.837,202.624,245.775,319.601,429.93,568.776,658.734,630.453,540.486,453.348,421.395,454.709,454.709,215.822,215.822,215.822
0.00168924	-13852573.97	0,1.74772e-06,4.04989e-06,7.08243e-06,1.1077e-05,1.63389e-05,2.32702e-05,3.24003e-05,4.4427e-05,6.02691e-05,8.11371e-05,0.000108625,0.000144834,0.000192531,0.000255358,0.000338118,0.000447133,0.000590734,0.000779891,0.00102906,0.00135727,0.00178961,0.00235911,0.00310929,0.00409745,0.00539911,0.00711372,0.00937228,0.0123474,0.0162663,0.0214285,0.0282284,inf	0.403385,0.403385,792.701,1000.5,189.114,95.5997,110.005,158.524,213.086,248.7,256.759,237.305,208.3,183.729,174.226,176.937,184.78,204.563,247.61,320.952,430.261,567.761,656.738,628.189,537.901,450.514,419.026,455.24,455.24,212.684,212.684,212.684
0.00173465	-13851998.89	0,1.74772e-06,4.04989e-06,7.08243e-06,1.1077e-05,1.63389e-05,2.32702e-05,3.24003e-05,4.4427e-05,6.02691e-05,8.11371e-05,0.000108625,0.000144834,0.000192531,0.000255358,0.000338118,0.000447133,0.000590734,0.000779891,0.00102906,0.00135727,0.00178961,0.00235911,0.00310929,0.00409745,0.00539911,0.00711372,0.00937228,0.0123474,0.0162663,0.0214285,0.0282284,inf	0.403385,0.403385,799.161,997.801,182.241,93.0655,109.3,159.105,213.539,248.225,255.801,236.315,207.775,183.929,175.318,178.661,186.675,206.476,249.429,322.292,430.594,566.76,654.75,625.941,535.385,447.804,416.77,455.798,455.798,209.835,209.835,209.835
