0.000685572	-311147.42	0,4.24293e-05,9.20609e-05,0.000150118,0.000218029,0.000297469,0.000390394,0.000499092,0.000626242,0.000774976,0.000948958,0.00115247,0.00139053,0.00166901,0.00199475,0.00237579,0.00282151,0.00334289,0.00395277,0.00466618,0.0055007,0.00647687,0.00761874,0.00895446,0.0105169,0.0123446,0.0144825,0.0169833,0.0199087,0.0233306,0.0273334,0.0320157,inf	263.233,263.233,232.735,229.054,233.256,239.997,247.675,261.514,283.601,312.69,348.184,388.668,431.119,470.376,498.367,509.685,505.631,492.294,476.782,462.071,447.924,434.797,423.392,413.006,404.755,403.145,410.789,430.607,430.607,458.076,458.076,458.076
0.000747792	-310869.73	0,4.24293e-05,9.20609e-05,0.000150118,0.000218029,0.000297469,0.000390394,0.000499092,0.000626242,0.000774976,0.000948958,0.00115247,0.00139053,0.00166901,0.00199475,0.00237579,0.00282151,0.00334289,0.00395277,0.00466618,0.0055007,0.00647687,0.00761874,0.00895446,0.0105169,0.0123446,0.0144825,0.0169833,0.0199087,0.0233306,0.0273334,0.0320157,inf	269.087,269.087,204.339,191.198,190.44,192.512,195.097,207.638,233.231,270.041,317.791,375.236,439.039,502.696,553.204,578.138,575.467,554.542,528.774,503.663,478.655,455.068,434.511,415.623,401.155,399.996,416.993,459.607,459.607,523.405,523.405,523.405
0.000807121	-310747.10	0,4.24293e-05,9.20609e-05,0.000150118,0.000218029,0.000297469,0.000390394,0.000499092,0.000626242,0.000774976,0.000948958,0.00115247,0.00139053,0.00166901,0.00199475,0.00237579,0.00282151,0.00334289,0.00395277,0.00466618,0.0055007,0.00647687,0.00761874,0.00895446,0.0105169,0.0123446,0.0144825,0.0169833,0.0199087,0.0233306,0.0273334,0.0320157,inf	295.258,295.258,202.972,183.084,178.326,175.175,171.511,180.868,206.378,245.568,298.467,364.039,439.134,517.376,583.578,620.006,620.272,595.088,562.715,530.37,497.101,465.345,437.695,412.263,393.632,394.33,421.037,487.317,487.317,597.071,597.071,597.071
0.000863447	-310674.99	0,4.24293e-05,9.20609e-05,0.000150118,0.000218029,0.000297469,0.000390394,0.000499092,0.000626242,0.000774976,0.000948958,0.00115247,0.00139053,0.00166901,0.00199475,0.00237579,0.00282151,0.00334289,0.00395277,0.00466618,0.0055007,0.00647687,0.00761874,0.00895446,0.0105169,0.0123446,0.0144825,0.0169833,0.0199087,0.0233306,0.0273334,0.0320157,inf	316.166,316.166,206.931,183.695,176.784,169.018,159.527,165.927,190.68,230.619,285.978,355.769,437.047,523.998,600.69,645.795,648.917,621.202,584.49,547.005,507.369,469.265,436.245,406.019,384.918,388.254,424.291,513.98,513.98,681.432,681.432,681.432
0.000917254	-310623.80	0,4.24293e-05,9.20609e-05,0.000150118,0.000218029,0.000297469,0.000390394,0.000499092,0.000626242,0.000774976,0.000948958,0.00115247,0.00139053,0.00166901,0.00199475,0.00237579,0.00282151,0.00334289,0.00395277,0.00466618,0.0055007,0.00647687,0.00761874,0.00895446,0.0105169,0.0123446,0.0144825,0.0169833,0.0199087,0.0233306,0.0273334,0.0320157,inf	326.696,326.696,210.351,186.776,179.416,167.707,153.046,157.048,181.075,221.26,277.939,350.03,434.722,526.857,610.449,661.816,667.233,637.882,598.229,556.981,512.354,469.328,432.331,398.749,376.44,382.765,427.439,539.747,539.747,780.483,780.483,780.483
0.000969021	-310583.04	0,4.24293e-05,9.20609e-05,0.000150118,0.000218029,0.000297469,0.000390394,0.000499092,0.000626242,0.000774976,0.000948958,0.00115247,0.00139053,0.00166901,0.00199475,0.00237579,0.00282151,0.00334289,0.00395277,0.00466618,0.0055007,0.00647687,0.00761874,0.00895446,0.0105169,0.0123446,0.0144825,0.0169833,0.0199087,0.0233306,0.0273334,0.0320157,inf	328.605,328.605,211.853,190.178,183.719,168.649,149.467,151.614,175.106,215.415,272.896,346.263,432.779,527.921,615.988,671.765,678.87,648.374,606.671,562.586,513.991,467.161,427.288,391.471,368.84,378.243,430.779,564.706,564.706,901.74,901.74,901.74
0.00101912	-310548.38	0,4.24293e-05,9.20609e-05,0.000150118,0.000218029,0.000297469,0.000390394,0.000499092,0.000626242,0.000774976,0.000948958,0.00115247,0.00139053,0.00166901,0.00199475,0.00237579,0.00282151,0.00334289,0.00395277,0.00466618,0.0055007,0.00647687,0.00761874,0.00895446,0.0105169,0.0123446,0.0144825,0.0169833,0.0199087,0.0233306,0.0273334,0.0320157,inf	325.103,325.103,211.466,193.146,188.58,170.629,147.519,148.273,171.438,211.886,269.922,343.981,431.357,528.123,619.016,677.836,686.112,654.765,611.604,565.33,513.547,463.789,421.895,384.692,362.336,374.767,434.409,588.897,588.897,1060.51,1060.51,1060.51
0.00106783	-310517.78	0,4.24293e-05,9.20609e-05,0.000150118,0.000218029,0.000297469,0.000390394,0.000499092,0.000626242,0.000774976,0.000948958,0.00115247,0.00139053,0.00166901,0.00199475,0.00237579,0.00282151,0.00334289,0.00395277,0.00466618,0.0055007,0.00647687,0.00761874,0.00895446,0.0105169,0.0123446,0.0144825,0.0169833,0.0199087,0.0233306,0.0273334,0.0320157,inf	318.872,318.872,209.589,195.451,193.458,173.023,146.524,146.264,169.289,209.937,268.403,342.8,430.429,527.915,620.499,681.365,690.408,658.407,614.196,566.205,511.842,459.847,416.59,378.628,356.938,372.274,438.331,612.342,612.342,1296.64,1296.64,1296.64
0.00111536	-310490.16	0,4.24293e-05,9.20609e-05,0.000150118,0.000218029,0.000297469,0.000390394,0.000499092,0.000626242,0.000774976,0.000948958,0.00115247,0.00139053,0.00166901,0.00199475,0.00237579,0.00282151,0.00334289,0.00395277,0.00466618,0.0055007,0.00647687,0.00761874,0.00895446,0.0105169,0.0123446,0.0144825,0.0169833,0.0199087,0.0233306,0.0273334,0.0320157,inf	311.696,311.696,206.666,197.085,198.096,175.498,146.095,145.131,168.175,209.091,267.925,342.434,429.918,527.519,621.003,683.188,692.695,660.182,615.218,565.863,509.402,455.715,411.599,373.338,352.565,370.651,442.513,635.037,635.037,1771.73,1771.73,1771.73
0.00116184	-310464.90	0,4.24293e-05,9.20609e-05,0.000150118,0.000218029,0.000297469,0.000390394,0.000499092,0.000626242,0.000774976,0.000948958,0.00115247,0.00139053,0.00166901,0.00199475,0.00237579,0.00282151,0.00334289,0.00395277,0.00466618,0.0055007,0.00647687,0.00761874,0.00895446,0.0105169,0.0123446,0.0144825,0.0169833,0.0199087,0.0233306,0.0273334,0.0320157,inf	304.607,304.607,203.06,198.118,202.376,177.877,146.003,144.59,167.784,209.035,268.2,342.668,429.743,527.044,620.869,683.841,693.59,660.678,615.181,564.734,506.563,451.619,407.027,368.801,349.099,369.774,446.898,656.954,656.954,4108.49,4108.49,4108.49
0.00120513	-310441.59	0,4.24293e-05,9.20609e-05,0.000150118,0.000218029,0.000297469,0.000390394,0.000499092,0.000626242,0.000774976,0.000948958,0.00115247,0.00139053,0.00166901,0.00199475,0.00237579,0.00282151,0.00334289,0.00395277,0.00466618,0.0055007,0.00647687,0.00761874,0.00895446,0.0105169,0.0123446,0.0144825,0.0169833,0.0199087,0.0233306,0.0273334,0.0320157,inf	298,298,198.763,198.285,205.9,179.777,145.885,144.248,167.687,209.303,268.753,343.069,429.574,526.27,620.006,683.379,693.25,660.077,614.251,562.955,503.415,447.578,402.817,364.883,346.354,369.462,451.367,677.931,677.931,82581.2,82581.2,82581.2
0.00120513	-310420.96	0,4.24293e-05,9.20609e-05,0.000150118,0.000218029,0.000297469,0.000390394,0.000499092,0.000626242,0.000774976,0.000948958,0.00115247,0.00139053,0.00166901,0.00199475,0.00237579,0.00282151,0.00334289,0.00395277,0.00466618,0.0055007,0.00647687,0.00761874,0.00895446,0.0105169,0.0123446,0.0144825,0.0169833,0.0199087,0.0233306,0.0273334,0.0320157,inf	289.763,289.763,192.833,196.604,207.423,180.027,144.72,143.02,166.561,208.183,267.3,340.619,425.539,520.579,613.353,676.895,687.51,655.047,609.593,558.103,497.888,441.81,397.352,360.156,343.074,368.523,454.791,685.854,685.854,82581.2,82581.2,82581.2
0.00120513	-310420.16	0,4.24293e-05,9.20609e-05,0.000150118,0.000218029,0.000297469,0.000390394,0.000499092,0.000626242,0.000774976,0.000948958,0.00115247,0.00139053,0.00166901,0.00199475,0.00237579,0.00282151,0.00334289,0.00395277,0.00466618,0.0055007,0.00647687,0.00761874,0.00895446,0.0105169,0.0123446,0.0144825,0.0169833,0.0199087,0.0233306,0.0273334,0.0320157,inf	286.731,286.731,188.968,196.395,210.263,181.343,144.407,142.628,166.381,208.192,267.219,339.814,423.445,517.133,609.196,672.997,684.19,652.259,607.02,555.046,493.958,437.41,393.109,356.469,340.608,368.152,458.572,690.497,690.497,82581.2,82581.2,82581.2
0.00120513	-310419.90	0,4.24293e-05,9.20609e-05,0.000150118,0.000218029,0.000297469,0.000390394,0.000499092,0.000626242,0.000774976,0.000948958,0.00115247,0.00139053,0.00166901,0.00199475,0.00237579,0.00282151,0.00334289,0.00395277,0.00466618,0.0055007,0.00647687,0.00761874,0.00895446,0.0105169,0.0123446,0.0144825,0.0169833,0.0199087,0.0233306,0.0273334,0.0320157,inf	285.402,285.402,185.546,196.241,213.16,182.678,144.246,142.454,166.507,208.311,267.219,339.769,422.314,514.871,606.41,670.538,682.351,650.788,605.633,553.12,491.029,433.92,389.682,353.484,338.687,368.163,462.601,693.202,693.202,82581.2,82581.2,82581.2
0.00120513	-310419.81	0,4.24293e-05,9.20609e-05,0.000150118,0.000218029,0.000297469,0.000390394,0.000499092,0.000626242,0.000774976,0.000948958,0.00115247,0.00139053,0.00166901,0.00199475,0.00237579,0.00282151,0.00334289,0.00395277,0.00466618,0.0055007,0.00647687,0.00761874,0.00895446,0.0105169,0.0123446,0.0144825,0.0169833,0.0199087,0.0233306,0.0273334,0.0320157,inf	284.882,284.882,182.253,196.023,215.896,183.537,144.064,142.324,166.743,208.318,267.219,339.769,421.714,513.284,604.437,668.992,681.426,650.18,605.046,551.935,488.778,431.053,386.824,350.996,337.153,368.439,466.811,694.659,694.659,82581.2,82581.2,82581.2
0.00120513	-310419.81	0,4.24293e-05,9.20609e-05,0.000150118,0.000218029,0.000297469,0.000390394,0.000499092,0.000626242,0.000774976,0.000948958,0.00115247,0.00139053,0.00166901,0.00199475,0.00237579,0.00282151,0.00334289,0.00395277,0.00466618,0.0055007,0.00647687,0.00761874,0.00895446,0.0105169,0.0123446,0.0144825,0.0169833,0.0199087,0.0233306,0.0273334,0.0320157,inf	284.902,284.902,179.077,195.704,218.481,184.483,143.848,142.208,167.001,208.318,267.219,339.769,421.446,512.129,602.982,668.017,681.077,650.12,604.979,551.242,486.989,428.621,384.375,348.87,335.9,368.904,471.158,695.261,695.261,82581.2,82581.2,82581.2
0.00120513	-310419.83	0,4.24293e-05,9.20609e-05,0.000150118,0.000218029,0.000297469,0.000390394,0.000499092,0.000626242,0.000774976,0.000948958,0.00115247,0.00139053,0.00166901,0.00199475,0.00237579,0.00282151,0.00334289,0.00395277,0.00466618,0.0055007,0.00647687,0.00761874,0.00895446,0.0105169,0.0123446,0.0144825,0.0169833,0.0199087,0.0233306,0.0273334,0.0320157,inf	284.902,284.902,175.943,195.275,220.903,185.546,143.581,142.083,167.271,208.318,267.442,339.769,421.384,511.239,601.843,667.394,681.081,650.408,605.255,550.879,485.518,426.499,382.226,347.016,334.858,369.507,475.613,695.269,695.269,82581.2,82581.2,82581.2
0.00120513	-310419.86	0,4.24293e-05,9.20609e-05,0.000150118,0.000218029,0.000297469,0.000390394,0.000499092,0.000626242,0.000774976,0.000948958,0.00115247,0.00139053,0.00166901,0.00199475,0.00237579,0.00282151,0.00334289,0.00395277,0.00466618,0.0055007,0.00647687,0.00761874,0.00895446,0.0105169,0.0123446,0.0144825,0.0169833,0.0199087,0.0233306,0.0273334,0.0320157,inf	285.419,285.419,172.914,194.692,223.138,185.954,143.235,141.915,167.577,208.318,267.507,339.769,421.384,510.497,600.89,666.977,681.297,650.907,605.754,550.741,484.27,424.605,380.305,345.371,333.979,370.223,479.101,695.269,695.269,82581.2,82581.2,82581.2
0.00120513	-310419.89	0,4.24293e-05,9.20609e-05,0.000150118,0.000218029,0.000297469,0.000390394,0.000499092,0.000626242,0.000774976,0.000948958,0.00115247,0.00139053,0.00166901,0.00199475,0.00237579,0.00282151,0.00334289,0.00395277,0.00466618,0.0055007,0.00647687,0.00761874,0.00895446,0.0105169,0.0123446,0.0144825,0.0169833,0.0199087,0.0233306,0.0273334,0.0320157,inf	286.377,286.377,170.042,194.112,225.315,185.954,142.857,141.734,167.886,208.612,267.507,339.769,421.384,509.863,600.064,666.694,681.65,651.548,605.844,550.741,483.187,422.892,378.565,343.895,333.232,371.029,482.018,695.269,695.269,82581.2,82581.2,82581.2
0.00120513	-310419.93	0,4.24293e-05,9.20609e-05,0.000150118,0.000218029,0.000297469,0.000390394,0.000499092,0.000626242,0.000774976,0.000948958,0.00115247,0.00139053,0.00166901,0.00199475,0.00237579,0.00282151,0.00334289,0.00395277,0.00466618,0.0055007,0.00647687,0.00761874,0.00895446,0.0105169,0.0123446,0.0144825,0.0169833,0.0199087,0.0233306,0.0273334,0.0320157,inf	286.388,286.388,167.334,193.595,227.461,186.621,142.461,141.545,168.196,208.734,267.507,339.769,421.384,509.305,599.332,666.515,681.656,652.302,605.954,550.741,482.246,421.323,376.982,342.567,332.6,371.912,484.483,695.269,695.269,82581.2,82581.2,82581.2
