time_index	left_time_boundary	right_time_boundary	lambda
0	0	9.20609e-05	209.796
1	9.20609e-05	0.000218029	209.796
2	0.000218029	0.000390394	201.632
3	0.000390394	0.000626242	152.995
4	0.000626242	0.000948958	213.844
5	0.000948958	0.00139053	321.337
6	0.00139053	0.00199475	458.002
7	0.00199475	0.00282151	665.036
8	0.00282151	0.00395277	641.473
9	0.00395277	0.0055007	589.747
10	0.0055007	0.00761874	527.598
11	0.00761874	0.0105169	301.581
12	0.0105169	0.0144825	241.359
13	0.0144825	0.0199087	610.989
14	0.0199087	0.0273334	610.989
15	0.0273334	inf	610.989
