0.000690374	-8644375.25	0,2.63727e-06,6.06009e-06,1.05024e-05,1.6268e-05,2.3751e-05,3.34629e-05,4.60676e-05,6.24268e-05,8.36589e-05,0.000111215,0.00014698,0.000193397,0.000253641,0.000331829,0.000433307,0.000565012,0.000735946,0.000957797,0.00124573,0.00161943,0.00210444,0.00273391,0.00355089,0.00461121,0.00598737,0.00777344,0.0100915,0.0131001,0.0170048,0.0220726,0.0286499,inf	427.276,427.276,566.239,402.068,292.693,257.4,243.073,236.68,234.05,231.557,227.674,223.865,222.602,225.607,234.895,250.602,273.564,305.83,349.936,406.94,467.55,505.665,505.211,483.501,460.067,442.942,435.678,440.039,440.039,486.946,486.946,486.946
0.000762362	-8636400.91	0,2.63727e-06,6.06009e-06,1.05024e-05,1.6268e-05,2.3751e-05,3.34629e-05,4.60676e-05,6.24268e-05,8.36589e-05,0.000111215,0.00014698,0.000193397,0.000253641,0.000331829,0.000433307,0.000565012,0.000735946,0.000957797,0.00124573,0.00161943,0.00210444,0.00273391,0.00355089,0.00461121,0.00598737,0.00777344,0.0100915,0.0131001,0.0170048,0.0220726,0.0286499,inf	494.058,494.058,880.74,497.18,302.852,251.514,232.303,223.536,218.568,211.525,200.357,188.297,179.594,176.996,183.527,198.971,224.685,264.088,321.895,402.227,496.183,564.372,569.864,535.501,495.94,467.086,457.03,471.693,471.693,606.048,606.048,606.048
0.000830855	-8632840.18	0,2.63727e-06,6.06009e-06,1.05024e-05,1.6268e-05,2.3751e-05,3.34629e-05,4.60676e-05,6.24268e-05,8.36589e-05,0.000111215,0.00014698,0.000193397,0.000253641,0.000331829,0.000433307,0.000565012,0.000735946,0.000957797,0.00124573,0.00161943,0.00210444,0.00273391,0.00355089,0.00461121,0.00598737,0.00777344,0.0100915,0.0131001,0.0170048,0.0220726,0.0286499,inf	472.606,472.606,1143.31,554.344,308.766,255.424,239.235,233.572,230.148,221.036,203.779,184.073,168.205,160.08,163.157,176.387,201.312,242.177,305.076,396.261,508.717,597.479,609.548,567.815,517.204,480.514,470.627,500.047,500.047,806.984,806.984,806.984
0.000895858	-8630706.38	0,2.63727e-06,6.06009e-06,1.05024e-05,1.6268e-05,2.3751e-05,3.34629e-05,4.60676e-05,6.24268e-05,8.36589e-05,0.000111215,0.00014698,0.000193397,0.000253641,0.000331829,0.000433307,0.000565012,0.000735946,0.000957797,0.00124573,0.00161943,0.00210444,0.00273391,0.00355089,0.00461121,0.00598737,0.00777344,0.0100915,0.0131001,0.0170048,0.0220726,0.0286499,inf	398.412,398.412,1301.69,560.209,296.773,250.437,242.039,243.281,244.806,236.45,214.991,188.944,166.891,154.202,154.459,165.575,189.109,229.82,294.673,391.215,514.093,616.282,633.723,587.404,528.984,487.047,479.107,526.64,526.64,1295.26,1295.26,1295.26
0.000957971	-8629173.11	0,2.63727e-06,6.06009e-06,1.05024e-05,1.6268e-05,2.3751e-05,3.34629e-05,4.60676e-05,6.24268e-05,8.36589e-05,0.000111215,0.00014698,0.000193397,0.000253641,0.000331829,0.000433307,0.000565012,0.000735946,0.000957797,0.00124573,0.00161943,0.00210444,0.00273391,0.00355089,0.00461121,0.00598737,0.00777344,0.0100915,0.0131001,0.0170048,0.0220726,0.0286499,inf	318.731,318.731,1387.79,535.131,273.604,237.242,237.793,247.336,255.781,250.5,226.83,196.02,168.974,152.787,150.981,160.417,182.63,222.731,288.248,387.459,516.217,626.971,648.313,598.882,534.722,489.237,484.251,552.603,552.603,4407.56,4407.56,4407.56
0.000957971	-8627948.86	0,2.63727e-06,6.06009e-06,1.05024e-05,1.6268e-05,2.3751e-05,3.34629e-05,4.60676e-05,6.24268e-05,8.36589e-05,0.000111215,0.00014698,0.000193397,0.000253641,0.000331829,0.000433307,0.000565012,0.000735946,0.000957797,0.00124573,0.00161943,0.00210444,0.00273391,0.00355089,0.00461121,0.00598737,0.00777344,0.0100915,0.0131001,0.0170048,0.0220726,0.0286499,inf	249.129,249.129,1422.49,491.806,243.837,217.205,225.516,242.659,258.299,257.492,233.6,200.026,169.613,151.178,148.023,156.094,176.894,215.72,280.287,378.944,508.182,622.327,647.898,598.576,531.67,484.764,483.794,575.638,575.638,61605.3,61605.3,61605.3
0.000957971	-8627943.52	0,2.63727e-06,6.06009e-06,1.05024e-05,1.6268e-05,2.3751e-05,3.34629e-05,4.60676e-05,6.24268e-05,8.36589e-05,0.000111215,0.00014698,0.000193397,0.000253641,0.000331829,0.000433307,0.000565012,0.000735946,0.000957797,0.00124573,0.00161943,0.00210444,0.00273391,0.00355089,0.00461121,0.00598737,0.00777344,0.0100915,0.0131001,0.0170048,0.0220726,0.0286499,inf	200.944,200.944,1478.75,464.627,222.128,201.93,215.883,239.245,261.527,265.36,241.656,201.563,169.613,151.178,147.562,154.545,174.208,212.039,275.937,374.262,503.905,620.633,649.311,599.363,529.216,480.739,483.834,577.974,577.974,61605.3,61605.3,61605.3
0.000957971	-8627943.28	0,2.63727e-06,6.06009e-06,1.05024e-05,1.6268e-05,2.3751e-05,3.34629e-05,4.60676e-05,6.24268e-05,8.36589e-05,0.000111215,0.00014698,0.000193397,0.000253641,0.000331829,0.000433307,0.000565012,0.000735946,0.000957797,0.00124573,0.00161943,0.00210444,0.00273391,0.00355089,0.00461121,0.00598737,0.00777344,0.0100915,0.0131001,0.0170048,0.0220726,0.0286499,inf	164.034,164.034,1522.2,444.786,204.588,189.021,207.201,235.666,264.07,272.674,241.804,207.439,169.703,151.178,147.562,154.238,172.944,209.958,273.346,371.446,501.416,620.265,651.489,600.622,527.229,477.027,484.148,577.977,577.977,61606.1,61606.1,61606.1
0.000957971	-8627941.68	0,2.63727e-06,6.06009e-06,1.05024e-05,1.6268e-05,2.3751e-05,3.34629e-05,4.60676e-05,6.24268e-05,8.36589e-05,0.000111215,0.00014698,0.000193397,0.000253641,0.000331829,0.000433307,0.000565012,0.000735946,0.000957797,0.00124573,0.00161943,0.00210444,0.00273391,0.00355089,0.00461121,0.00598737,0.00777344,0.0100915,0.0131001,0.0170048,0.0220726,0.0286499,inf	135.169,135.169,1555.86,430.778,190.352,178.133,199.445,232.061,265.959,279.338,241.83,212.288,169.703,151.178,147.562,154.238,172.385,208.697,271.668,369.587,499.803,620.469,653.962,600.672,525.456,473.516,484.636,579.093,579.093,61606.1,61606.1,61606.1
0.000957971	-8627940.59	0,2.63727e-06,6.06009e-06,1.05024e-05,1.6268e-05,2.3751e-05,3.34629e-05,4.60676e-05,6.24268e-05,8.36589e-05,0.000111215,0.00014698,0.000193397,0.000253641,0.000331829,0.000433307,0.000565012,0.000735946,0.000957797,0.00124573,0.00161943,0.00210444,0.00273391,0.00355089,0.00461121,0.00598737,0.00777344,0.0100915,0.0131001,0.0170048,0.0220726,0.0286499,inf	112.275,112.275,1582.87,421.404,178.677,168.88,192.509,228.395,267.287,285.358,246.991,212.288,169.703,151.178,147.562,154.238,172.219,207.904,270.518,368.279,498.685,620.999,655.471,600.672,523.775,470.191,485.302,580.057,580.057,61606.1,61606.1,61606.1
0.000957971	-8627940.35	0,2.63727e-06,6.06009e-06,1.05024e-05,1.6268e-05,2.3751e-05,3.34629e-05,4.60676e-05,6.24268e-05,8.36589e-05,0.000111215,0.00014698,0.000193397,0.000253641,0.000331829,0.000433307,0.000565012,0.000735946,0.000957797,0.00124573,0.00161943,0.00210444,0.00273391,0.00355089,0.00461121,0.00598737,0.00777344,0.0100915,0.0131001,0.0170048,0.0220726,0.0286499,inf	93.8706,93.8706,1604.63,415.579,168.923,160.875,186.185,224.665,268.008,290.695,251.54,212.288,169.703,151.178,147.562,154.238,172.219,207.406,269.704,367.325,497.888,621.744,656.228,600.672,522.277,467.05,486.143,580.877,580.877,61606.1,61606.1,61606.1
0.000957971	-8627940.57	0,2.63727e-06,6.06009e-06,1.05024e-05,1.6268e-05,2.3751e-05,3.34629e-05,4.60676e-05,6.24268e-05,8.36589e-05,0.000111215,0.00014698,0.000193397,0.000253641,0.000331829,0.000433307,0.000565012,0.000735946,0.000957797,0.00124573,0.00161943,0.00210444,0.00273391,0.00355089,0.00461121,0.00598737,0.00777344,0.0100915,0.0131001,0.0170048,0.0220726,0.0286499,inf	78.8961,78.8961,1622.79,412.722,160.741,153.942,180.43,220.939,268.256,295.429,255.533,212.288,169.703,151.178,147.562,154.238,172.219,207.096,269.108,366.604,497.303,622.642,656.508,600.672,520.959,464.085,487.154,581.566,581.566,61606.1,61606.1,61606.1
0.000957971	-8627941.00	0,2.63727e-06,6.06009e-06,1.05024e-05,1.6268e-05,2.3751e-05,3.34629e-05,4.60676e-05,6.24268e-05,8.36589e-05,0.000111215,0.00014698,0.000193397,0.000253641,0.000331829,0.000433307,0.000565012,0.000735946,0.000957797,0.00124573,0.00161943,0.00210444,0.00273391,0.00355089,0.00461121,0.00598737,0.00777344,0.0100915,0.0131001,0.0170048,0.0220726,0.0286499,inf	66.5805,66.5805,1637.46,412.334,153.832,147.925,175.202,217.317,268.144,299.651,258.987,212.288,169.703,151.178,147.562,154.238,172.219,206.911,268.659,366.039,496.863,623.587,656.508,600.672,519.812,461.283,488.328,581.566,581.566,61606.4,61606.4,61606.4
0.000957971	-8627941.45	0,2.63727e-06,6.06009e-06,1.05024e-05,1.6268e-05,2.3751e-05,3.34629e-05,4.60676e-05,6.24268e-05,8.36589e-05,0.000111215,0.00014698,0.000193397,0.000253641,0.000331829,0.000433307,0.000565012,0.000735946,0.000957797,0.00124573,0.00161943,0.00210444,0.00273391,0.00355089,0.00461121,0.00598737,0.00777344,0.0100915,0.0131001,0.0170048,0.0220726,0.0286499,inf	56.3724,56.3724,1650,412.334,147.969,142.697,170.487,213.797,267.764,303.442,262.21,212.288,169.703,151.178,147.562,154.238,172.219,206.813,268.313,365.584,496.524,624.277,656.533,600.672,518.823,458.659,488.328,582.441,582.441,61606.4,61606.4,61606.4
0.000957971	-8627941.87	0,2.63727e-06,6.06009e-06,1.05024e-05,1.6268e-05,2.3751e-05,3.34629e-05,4.60676e-05,6.24268e-05,8.36589e-05,0.000111215,0.00014698,0.000193397,0.000253641,0.000331829,0.000433307,0.000565012,0.000735946,0.000957797,0.00124573,0.00161943,0.00210444,0.00273391,0.00355089,0.00461121,0.00598737,0.00777344,0.0100915,0.0131001,0.0170048,0.0220726,0.0286499,inf	47.8669,47.8669,1660.2,412.334,142.996,138.154,166.239,210.421,267.165,306.848,265.257,212.288,169.703,151.178,147.562,154.238,172.219,206.781,268.047,365.22,496.279,624.295,656.935,600.672,517.995,456.163,489.792,582.751,582.751,61606.4,61606.4,61606.4
0.000957971	-8627942.61	0,2.63727e-06,6.06009e-06,1.05024e-05,1.6268e-05,2.3751e-05,3.34629e-05,4.60676e-05,6.24268e-05,8.36589e-05,0.000111215,0.00014698,0.000193397,0.000253641,0.000331829,0.000433307,0.000565012,0.000735946,0.000957797,0.00124573,0.00161943,0.00210444,0.00273391,0.00355089,0.00461121,0.00598737,0.00777344,0.0100915,0.0131001,0.0170048,0.0220726,0.0286499,inf	40.7506,40.7506,1668.68,412.334,138.793,134.212,162.422,207.189,266.388,309.903,268.138,212.288,169.703,151.178,147.562,154.238,172.219,206.781,267.851,364.94,496.124,624.303,657.218,600.672,517.291,453.78,491.379,582.975,582.975,61606.4,61606.4,61606.4
0.000957971	-8627943.35	0,2.63727e-06,6.06009e-06,1.05024e-05,1.6268e-05,2.3751e-05,3.34629e-05,4.60676e-05,6.24268e-05,8.36589e-05,0.000111215,0.00014698,0.000193397,0.000253641,0.000331829,0.000433307,0.000565012,0.000735946,0.000957797,0.00124573,0.00161943,0.00210444,0.00273391,0.00355089,0.00461121,0.00598737,0.00777344,0.0100915,0.0131001,0.0170048,0.0220726,0.0286499,inf	34.7789,34.7789,1676.43,412.334,135.248,130.807,159.002,204.112,265.461,312.633,270.864,212.288,169.703,151.178,147.562,154.238,172.219,206.781,267.704,364.719,496.034,624.571,657.218,600.672,516.699,451.498,493.082,583.112,583.112,61606.4,61606.4,61606.4
0.000957971	-8627944.07	0,2.63727e-06,6.06009e-06,1.05024e-05,1.6268e-05,2.3751e-05,3.34629e-05,4.60676e-05,6.24268e-05,8.36589e-05,0.000111215,0.00014698,0.000193397,0.000253641,0.000331829,0.000433307,0.000565012,0.000735946,0.000957797,0.00124573,0.00161943,0.00210444,0.00273391,0.00355089,0.00461121,0.00598737,0.00777344,0.0100915,0.0131001,0.0170048,0.0220726,0.0286499,inf	29.7486,29.7486,1682.48,412.334,132.274,127.868,155.933,201.186,264.415,315.081,273.439,212.288,169.703,151.178,147.562,154.238,172.219,206.781,267.585,364.533,495.983,624.774,657.218,600.672,516.208,449.307,494.894,583.168,583.168,61606.4,61606.4,61606.4
0.000957971	-8627944.76	0,2.63727e-06,6.06009e-06,1.05024e-05,1.6268e-05,2.3751e-05,3.34629e-05,4.60676e-05,6.24268e-05,8.36589e-05,0.000111215,0.00014698,0.000193397,0.000253641,0.000331829,0.000433307,0.000565012,0.000735946,0.000957797,0.00124573,0.00161943,0.00210444,0.00273391,0.00355089,0.00461121,0.00598737,0.00777344,0.0100915,0.0131001,0.0170048,0.0220726,0.0286499,inf	25.4972,25.4972,1687.71,412.334,129.811,125.346,153.196,198.416,263.283,317.274,275.853,212.288,169.703,151.178,147.562,154.238,172.219,206.781,267.49,364.376,495.965,624.925,657.218,600.672,515.809,447.198,496.756,583.168,583.168,61606.4,61606.4,61606.4
0.000957971	-8627945.44	0,2.63727e-06,6.06009e-06,1.05024e-05,1.6268e-05,2.3751e-05,3.34629e-05,4.60676e-05,6.24268e-05,8.36589e-05,0.000111215,0.00014698,0.000193397,0.000253641,0.000331829,0.000433307,0.000565012,0.000735946,0.000957797,0.00124573,0.00161943,0.00210444,0.00273391,0.00355089,0.00461121,0.00598737,0.00777344,0.0100915,0.0131001,0.0170048,0.0220726,0.0286499,inf	21.896,21.896,1692.1,412.334,127.787,123.192,150.751,195.798,262.081,319.238,278.121,212.288,169.703,151.178,147.562,154.238,172.219,206.781,267.413,364.242,495.974,625.033,657.218,600.672,515.49,445.164,498.484,583.177,583.177,61606.4,61606.4,61606.4
