LogLikelihood = -161422.89140069764107

y0 0.85317433579618107142
y0_prime 0
y1 1.064713446530292984
y1_prime 0
y2 0.9160422063765615297
y2_prime 0
y3 1.5169584980804766694
y3_prime 0
rho 0.00047392688861125136998
rho.alpha 0.63389825692950385605
r_ii 0.9999999933856835721
theta 0.0024088531378700117104
