AIC = 3086963.7168554947712

y0 0.96963713683037922042
y0_prime 0
y1 1.1075792314859316257
y1_prime 0
y2 0.88719699210691771452
y2_prime 0
y3 1.5968995714199416547
y3_prime 0
rho 0.0040771082103985651843
rho.alpha 0.39545417089887557882
r_ii 0.99999995819386811036
theta 0.0049665024439405694445
