time_index	left_time_boundary	right_time_boundary	lambda
0	0	2.25002e-05	119.149
1	2.25002e-05	5.69238e-05	119.149
2	5.69238e-05	0.000109589	390.825
3	0.000109589	0.000190164	365.903
4	0.000190164	0.000313436	368.438
5	0.000313436	0.000502035	411.828
6	0.000502035	0.000790576	386.611
7	0.000790576	0.00123202	381.714
8	0.00123202	0.0019074	417.838
9	0.0019074	0.00294068	424.217
10	0.00294068	0.00452153	258.247
11	0.00452153	0.0069401	351.983
12	0.0069401	0.0106403	470.084
13	0.0106403	0.0163014	92.3544
14	0.0163014	0.0249625	92.3544
15	0.0249625	inf	92.3544
