0.000542298	-8499673.07	0,6.21839e-06,1.6693e-05,3.4337e-05,6.40575e-05,0.00011412,0.000198449,0.000340497,0.00057977,0.000982816,0.00166173,0.00280533,0.00473166,0.0079765,0.0134423,0.0226491,inf	216.716,216.716,225.749,265.681,321.252,380.508,380.874,380.587,399.295,409.321,401.138,367.545,368.874,357.835,357.835,357.835
0.000466978	-8496375.81	0,6.21839e-06,1.6693e-05,3.4337e-05,6.40575e-05,0.00011412,0.000198449,0.000340497,0.00057977,0.000982816,0.00166173,0.00280533,0.00473166,0.0079765,0.0134423,0.0226491,inf	211.467,211.467,201.463,230.598,297.879,393.309,382.873,370.299,400.093,420.033,411.322,352.175,358.224,338.084,338.084,338.084
0.000405756	-8493863.49	0,6.21839e-06,1.6693e-05,3.4337e-05,6.40575e-05,0.00011412,0.000198449,0.000340497,0.00057977,0.000982816,0.00166173,0.00280533,0.00473166,0.0079765,0.0134423,0.0226491,inf	225.495,225.495,207.666,222.086,289.114,414.696,392.576,362.762,397.89,424.511,419.755,341.447,355.018,325.852,325.852,325.852
0.000356509	-8491923.55	0,6.21839e-06,1.6693e-05,3.4337e-05,6.40575e-05,0.00011412,0.000198449,0.000340497,0.00057977,0.000982816,0.00166173,0.00280533,0.00473166,0.0079765,0.0134423,0.0226491,inf	237.155,237.155,222.432,223.615,285.268,438.078,406.96,358.426,395.268,424.582,425.254,332.742,355.974,317.262,317.262,317.262
0.00031761	-8490486.21	0,6.21839e-06,1.6693e-05,3.4337e-05,6.40575e-05,0.00011412,0.000198449,0.000340497,0.00057977,0.000982816,0.00166173,0.00280533,0.00473166,0.0079765,0.0134423,0.0226491,inf	242.995,242.995,238.521,228.935,282.356,458.997,422.867,356.408,393.311,422.175,427.948,324.969,359.177,310.276,310.276,310.276
0.000287524	-8489484.86	0,6.21839e-06,1.6693e-05,3.4337e-05,6.40575e-05,0.00011412,0.000198449,0.000340497,0.00057977,0.000982816,0.00166173,0.00280533,0.00473166,0.0079765,0.0134423,0.0226491,inf	244.768,244.768,253.686,236.064,279.756,476.23,438.588,355.951,392.344,418.796,428.669,317.809,363.545,303.971,303.971,303.971
0.000264703	-8488833.27	0,6.21839e-06,1.6693e-05,3.4337e-05,6.40575e-05,0.00011412,0.000198449,0.000340497,0.00057977,0.000982816,0.00166173,0.00280533,0.00473166,0.0079765,0.0134423,0.0226491,inf	244.192,244.192,266.816,243.9,277.352,489.525,452.935,356.301,392.181,415.296,428.303,311.268,368.389,298.044,298.044,298.044
0.000247681	-8488438.51	0,6.21839e-06,1.6693e-05,3.4337e-05,6.40575e-05,0.00011412,0.000198449,0.000340497,0.00057977,0.000982816,0.00166173,0.00280533,0.00473166,0.0079765,0.0134423,0.0226491,inf	242.554,242.554,277.421,251.752,275.164,499.262,465.297,356.917,392.515,412.079,427.532,305.446,373.235,292.513,292.513,292.513
0.000235153	-8488216.96	0,6.21839e-06,1.6693e-05,3.4337e-05,6.40575e-05,0.00011412,0.000198449,0.000340497,0.00057977,0.000982816,0.00166173,0.00280533,0.00473166,0.0079765,0.0134423,0.0226491,inf	240.627,240.627,285.45,259.185,273.206,506.088,475.516,357.499,393.097,409.288,426.765,300.42,377.762,287.504,287.504,287.504
0.000226027	-8488103.39	0,6.21839e-06,1.6693e-05,3.4337e-05,6.40575e-05,0.00011412,0.000198449,0.000340497,0.00057977,0.000982816,0.00166173,0.00280533,0.00473166,0.0079765,0.0134423,0.0226491,inf	238.897,238.897,291.16,265.947,271.49,510.695,483.726,357.916,393.767,406.942,426.185,296.208,381.777,283.124,283.124,283.124
0.000219429	-8488052.36	0,6.21839e-06,1.6693e-05,3.4337e-05,6.40575e-05,0.00011412,0.000198449,0.000340497,0.00057977,0.000982816,0.00166173,0.00280533,0.00473166,0.0079765,0.0134423,0.0226491,inf	237.533,237.533,294.941,271.921,270.016,513.697,490.201,358.141,394.441,405,425.832,292.768,385.197,279.419,279.419,279.419
0.000214685	-8488034.95	0,6.21839e-06,1.6693e-05,3.4337e-05,6.40575e-05,0.00011412,0.000198449,0.000340497,0.00057977,0.000982816,0.00166173,0.00280533,0.00473166,0.0079765,0.0134423,0.0226491,inf	236.578,236.578,297.219,277.08,268.752,515.582,495.251,358.194,395.08,403.41,425.675,290.018,388.018,276.372,276.372,276.372
0.000211286	-8488034.07	0,6.21839e-06,1.6693e-05,3.4337e-05,6.40575e-05,0.00011412,0.000198449,0.000340497,0.00057977,0.000982816,0.00166173,0.00280533,0.00473166,0.0079765,0.0134423,0.0226491,inf	236.019,236.019,298.4,281.474,267.677,516.706,499.164,358.114,395.67,402.115,425.66,287.858,390.287,273.921,273.921,273.921
0.000208857	-8488040.28	0,6.21839e-06,1.6693e-05,3.4337e-05,6.40575e-05,0.00011412,0.000198449,0.000340497,0.00057977,0.000982816,0.00166173,0.00280533,0.00473166,0.0079765,0.0134423,0.0226491,inf	235.75,235.75,298.817,285.162,266.769,517.334,502.195,357.941,396.206,401.066,425.735,286.184,392.078,271.986,271.986,271.986
0.000207131	-8488048.70	0,6.21839e-06,1.6693e-05,3.4337e-05,6.40575e-05,0.00011412,0.000198449,0.000340497,0.00057977,0.000982816,0.00166173,0.00280533,0.00473166,0.0079765,0.0134423,0.0226491,inf	235.811,235.811,298.86,288.337,266.117,517.868,504.743,357.823,396.767,400.213,425.908,284.902,393.523,270.512,270.512,270.512
0.000205896	-8488056.64	0,6.21839e-06,1.6693e-05,3.4337e-05,6.40575e-05,0.00011412,0.000198449,0.000340497,0.00057977,0.000982816,0.00166173,0.00280533,0.00473166,0.0079765,0.0134423,0.0226491,inf	235.907,235.907,298.436,290.826,265.455,517.943,506.545,357.55,397.201,399.506,426.055,283.919,394.595,269.359,269.359,269.359
0.000205016	-8488063.93	0,6.21839e-06,1.6693e-05,3.4337e-05,6.40575e-05,0.00011412,0.000198449,0.000340497,0.00057977,0.000982816,0.00166173,0.00280533,0.00473166,0.0079765,0.0134423,0.0226491,inf	236.082,236.082,297.851,292.894,264.895,517.874,507.928,357.243,397.578,398.945,426.194,283.179,395.399,268.474,268.474,268.474
0.000204389	-8488070.00	0,6.21839e-06,1.6693e-05,3.4337e-05,6.40575e-05,0.00011412,0.000198449,0.000340497,0.00057977,0.000982816,0.00166173,0.00280533,0.00473166,0.0079765,0.0134423,0.0226491,inf	236.398,236.398,297.188,294.586,264.428,517.749,509.014,356.938,397.908,398.501,426.32,282.627,396.004,267.801,267.801,267.801
0.000203977	-8488074.83	0,6.21839e-06,1.6693e-05,3.4337e-05,6.40575e-05,0.00011412,0.000198449,0.000340497,0.00057977,0.000982816,0.00166173,0.00280533,0.00473166,0.0079765,0.0134423,0.0226491,inf	236.728,236.728,296.571,296.063,264.097,517.731,510.106,356.787,398.44,398.419,426.751,282.381,396.628,267.39,267.39,267.39
0.000203663	-8488076.20	0,6.21839e-06,1.6693e-05,3.4337e-05,6.40575e-05,0.00011412,0.000198449,0.000340497,0.00057977,0.000982816,0.00166173,0.00280533,0.00473166,0.0079765,0.0134423,0.0226491,inf	237.04,237.04,295.919,297.207,263.768,517.534,510.801,356.48,398.676,398.101,426.819,282.069,396.969,267.027,267.027,267.027
