time_index	left_time_boundary	right_time_boundary	lambda
0	0	1.00586e-05	0.392539
1	1.00586e-05	2.25002e-05	0.392539
2	2.25002e-05	3.78891e-05	222.231
3	3.78891e-05	5.69238e-05	69.5633
4	5.69238e-05	8.04677e-05	365.21
5	8.04677e-05	0.000109589	459.436
6	0.000109589	0.00014561	391.771
7	0.00014561	0.000190164	268.231
8	0.000190164	0.000245272	424.374
9	0.000245272	0.000313436	298.477
10	0.000313436	0.000397749	438.157
11	0.000397749	0.000502035	378.188
12	0.000502035	0.000631026	382.736
13	0.000631026	0.000790576	358.429
14	0.000790576	0.000987923	363.197
15	0.000987923	0.00123202	434.403
16	0.00123202	0.00153395	402.176
17	0.00153395	0.0019074	409.453
18	0.0019074	0.00236933	465.305
19	0.00236933	0.00294068	434.659
20	0.00294068	0.0036474	333.881
21	0.0036474	0.00452153	311.287
22	0.00452153	0.00560274	369.916
23	0.00560274	0.0069401	375.547
24	0.0069401	0.00859428	388.719
25	0.00859428	0.0106403	347.541
26	0.0106403	0.0131711	508.061
27	0.0131711	0.0163014	184.292
28	0.0163014	0.0201733	184.292
29	0.0201733	0.0249625	104.332
30	0.0249625	0.0308862	104.332
31	0.0308862	inf	104.332
