0.000552218	-290948.14	0,4.40035e-05,9.60175e-05,0.0001575,0.000230175,0.00031608,0.000417623,0.000537651,0.000679529,0.000847235,0.00104547,0.00127979,0.00155677,0.00188417,0.00227117,0.00272862,0.00326934,0.0039085,0.00466401,0.00555706,0.00661267,0.00786046,0.00933539,0.0110788,0.0131396,0.0155756,0.018455,0.0218585,0.0258817,0.0306372,inf	417.56,417.56,417.56,417.56,417.56,417.56,417.56,417.56,417.56,417.56,417.56,417.56,417.56,417.56,417.56,417.56,417.56,417.56,417.56,417.56,417.56,417.56,417.56,417.56,417.56,417.56,417.56,417.56,417.56,417.56
0.000506324	-290896.13	0,4.40035e-05,9.60175e-05,0.0001575,0.000230175,0.00031608,0.000417623,0.000537651,0.000679529,0.000847235,0.00104547,0.00127979,0.00155677,0.00188417,0.00227117,0.00272862,0.00326934,0.0039085,0.00466401,0.00555706,0.00661267,0.00786046,0.00933539,0.0110788,0.0131396,0.0155756,0.018455,0.0218585,0.0258817,0.0306372,inf	419.647,419.647,419.647,419.647,419.647,419.647,419.647,419.647,419.647,419.647,419.647,419.647,419.647,419.647,419.647,419.647,419.647,419.647,419.647,419.647,419.647,419.647,419.647,419.647,419.647,419.647,419.647,419.647,419.647,419.647
0.000466515	-290853.33	0,4.40035e-05,9.60175e-05,0.0001575,0.000230175,0.00031608,0.000417623,0.000537651,0.000679529,0.000847235,0.00104547,0.00127979,0.00155677,0.00188417,0.00227117,0.00272862,0.00326934,0.0039085,0.00466401,0.00555706,0.00661267,0.00786046,0.00933539,0.0110788,0.0131396,0.0155756,0.018455,0.0218585,0.0258817,0.0306372,inf	420.72,420.72,420.72,420.72,420.72,420.72,420.72,420.72,420.72,420.72,420.72,420.72,420.72,420.72,420.72,420.72,420.72,420.72,420.72,420.72,420.72,420.72,420.72,420.72,420.72,420.72,420.72,420.72,420.72,420.72
0.000432418	-290819.01	0,4.40035e-05,9.60175e-05,0.0001575,0.000230175,0.00031608,0.000417623,0.000537651,0.000679529,0.000847235,0.00104547,0.00127979,0.00155677,0.00188417,0.00227117,0.00272862,0.00326934,0.0039085,0.00466401,0.00555706,0.00661267,0.00786046,0.00933539,0.0110788,0.0131396,0.0155756,0.018455,0.0218585,0.0258817,0.0306372,inf	421.188,421.188,421.188,421.188,421.188,421.188,421.188,421.188,421.188,421.188,421.188,421.188,421.188,421.188,421.188,421.188,421.188,421.188,421.188,421.188,421.188,421.188,421.188,421.188,421.188,421.188,421.188,421.188,421.188,421.188
0.000403523	-290792.22	0,4.40035e-05,9.60175e-05,0.0001575,0.000230175,0.00031608,0.000417623,0.000537651,0.000679529,0.000847235,0.00104547,0.00127979,0.00155677,0.00188417,0.00227117,0.00272862,0.00326934,0.0039085,0.00466401,0.00555706,0.00661267,0.00786046,0.00933539,0.0110788,0.0131396,0.0155756,0.018455,0.0218585,0.0258817,0.0306372,inf	421.279,421.279,421.279,421.279,421.279,421.279,421.279,421.279,421.279,421.279,421.279,421.279,421.279,421.279,421.279,421.279,421.279,421.279,421.279,421.279,421.279,421.279,421.279,421.279,421.279,421.279,421.279,421.279,421.279,421.279
0.00037926	-290771.87	0,4.40035e-05,9.60175e-05,0.0001575,0.000230175,0.00031608,0.000417623,0.000537651,0.000679529,0.000847235,0.00104547,0.00127979,0.00155677,0.00188417,0.00227117,0.00272862,0.00326934,0.0039085,0.00466401,0.00555706,0.00661267,0.00786046,0.00933539,0.0110788,0.0131396,0.0155756,0.018455,0.0218585,0.0258817,0.0306372,inf	421.13,421.13,421.13,421.13,421.13,421.13,421.13,421.13,421.13,421.13,421.13,421.13,421.13,421.13,421.13,421.13,421.13,421.13,421.13,421.13,421.13,421.13,421.13,421.13,421.13,421.13,421.13,421.13,421.13,421.13
0.000359049	-290756.82	0,4.40035e-05,9.60175e-05,0.0001575,0.000230175,0.00031608,0.000417623,0.000537651,0.000679529,0.000847235,0.00104547,0.00127979,0.00155677,0.00188417,0.00227117,0.00272862,0.00326934,0.0039085,0.00466401,0.00555706,0.00661267,0.00786046,0.00933539,0.0110788,0.0131396,0.0155756,0.018455,0.0218585,0.0258817,0.0306372,inf	420.831,420.831,420.831,420.831,420.831,420.831,420.831,420.831,420.831,420.831,420.831,420.831,420.831,420.831,420.831,420.831,420.831,420.831,420.831,420.831,420.831,420.831,420.831,420.831,420.831,420.831,420.831,420.831,420.831,420.831
0.000342328	-290745.96	0,4.40035e-05,9.60175e-05,0.0001575,0.000230175,0.00031608,0.000417623,0.000537651,0.000679529,0.000847235,0.00104547,0.00127979,0.00155677,0.00188417,0.00227117,0.00272862,0.00326934,0.0039085,0.00466401,0.00555706,0.00661267,0.00786046,0.00933539,0.0110788,0.0131396,0.0155756,0.018455,0.0218585,0.0258817,0.0306372,inf	420.445,420.445,420.445,420.445,420.445,420.445,420.445,420.445,420.445,420.445,420.445,420.445,420.445,420.445,420.445,420.445,420.445,420.445,420.445,420.445,420.445,420.445,420.445,420.445,420.445,420.445,420.445,420.445,420.445,420.445
0.000328575	-290738.32	0,4.40035e-05,9.60175e-05,0.0001575,0.000230175,0.00031608,0.000417623,0.000537651,0.000679529,0.000847235,0.00104547,0.00127979,0.00155677,0.00188417,0.00227117,0.00272862,0.00326934,0.0039085,0.00466401,0.00555706,0.00661267,0.00786046,0.00933539,0.0110788,0.0131396,0.0155756,0.018455,0.0218585,0.0258817,0.0306372,inf	420.021,420.021,420.021,420.021,420.021,420.021,420.021,420.021,420.021,420.021,420.021,420.021,420.021,420.021,420.021,420.021,420.021,420.021,420.021,420.021,420.021,420.021,420.021,420.021,420.021,420.021,420.021,420.021,420.021,420.021
0.000317319	-290733.07	0,4.40035e-05,9.60175e-05,0.0001575,0.000230175,0.00031608,0.000417623,0.000537651,0.000679529,0.000847235,0.00104547,0.00127979,0.00155677,0.00188417,0.00227117,0.00272862,0.00326934,0.0039085,0.00466401,0.00555706,0.00661267,0.00786046,0.00933539,0.0110788,0.0131396,0.0155756,0.018455,0.0218585,0.0258817,0.0306372,inf	419.592,419.592,419.592,419.592,419.592,419.592,419.592,419.592,419.592,419.592,419.592,419.592,419.592,419.592,419.592,419.592,419.592,419.592,419.592,419.592,419.592,419.592,419.592,419.592,419.592,419.592,419.592,419.592,419.592,419.592
0.000308145	-290729.54	0,4.40035e-05,9.60175e-05,0.0001575,0.000230175,0.00031608,0.000417623,0.000537651,0.000679529,0.000847235,0.00104547,0.00127979,0.00155677,0.00188417,0.00227117,0.00272862,0.00326934,0.0039085,0.00466401,0.00555706,0.00661267,0.00786046,0.00933539,0.0110788,0.0131396,0.0155756,0.018455,0.0218585,0.0258817,0.0306372,inf	419.181,419.181,419.181,419.181,419.181,419.181,419.181,419.181,419.181,419.181,419.181,419.181,419.181,419.181,419.181,419.181,419.181,419.181,419.181,419.181,419.181,419.181,419.181,419.181,419.181,419.181,419.181,419.181,419.181,419.181
0.000300694	-290727.23	0,4.40035e-05,9.60175e-05,0.0001575,0.000230175,0.00031608,0.000417623,0.000537651,0.000679529,0.000847235,0.00104547,0.00127979,0.00155677,0.00188417,0.00227117,0.00272862,0.00326934,0.0039085,0.00466401,0.00555706,0.00661267,0.00786046,0.00933539,0.0110788,0.0131396,0.0155756,0.018455,0.0218585,0.0258817,0.0306372,inf	418.804,418.804,418.804,418.804,418.804,418.804,418.804,418.804,418.804,418.804,418.804,418.804,418.804,418.804,418.804,418.804,418.804,418.804,418.804,418.804,418.804,418.804,418.804,418.804,418.804,418.804,418.804,418.804,418.804,418.804
0.000294659	-290725.74	0,4.40035e-05,9.60175e-05,0.0001575,0.000230175,0.00031608,0.000417623,0.000537651,0.000679529,0.000847235,0.00104547,0.00127979,0.00155677,0.00188417,0.00227117,0.00272862,0.00326934,0.0039085,0.00466401,0.00555706,0.00661267,0.00786046,0.00933539,0.0110788,0.0131396,0.0155756,0.018455,0.0218585,0.0258817,0.0306372,inf	418.466,418.466,418.466,418.466,418.466,418.466,418.466,418.466,418.466,418.466,418.466,418.466,418.466,418.466,418.466,418.466,418.466,418.466,418.466,418.466,418.466,418.466,418.466,418.466,418.466,418.466,418.466,418.466,418.466,418.466
0.000289782	-290724.82	0,4.40035e-05,9.60175e-05,0.0001575,0.000230175,0.00031608,0.000417623,0.000537651,0.000679529,0.000847235,0.00104547,0.00127979,0.00155677,0.00188417,0.00227117,0.00272862,0.00326934,0.0039085,0.00466401,0.00555706,0.00661267,0.00786046,0.00933539,0.0110788,0.0131396,0.0155756,0.018455,0.0218585,0.0258817,0.0306372,inf	418.17,418.17,418.17,418.17,418.17,418.17,418.17,418.17,418.17,418.17,418.17,418.17,418.17,418.17,418.17,418.17,418.17,418.17,418.17,418.17,418.17,418.17,418.17,418.17,418.17,418.17,418.17,418.17,418.17,418.17
0.000285849	-290724.27	0,4.40035e-05,9.60175e-05,0.0001575,0.000230175,0.00031608,0.000417623,0.000537651,0.000679529,0.000847235,0.00104547,0.00127979,0.00155677,0.00188417,0.00227117,0.00272862,0.00326934,0.0039085,0.00466401,0.00555706,0.00661267,0.00786046,0.00933539,0.0110788,0.0131396,0.0155756,0.018455,0.0218585,0.0258817,0.0306372,inf	417.917,417.917,417.917,417.917,417.917,417.917,417.917,417.917,417.917,417.917,417.917,417.917,417.917,417.917,417.917,417.917,417.917,417.917,417.917,417.917,417.917,417.917,417.917,417.917,417.917,417.917,417.917,417.917,417.917,417.917
0.000282688	-290723.95	0,4.40035e-05,9.60175e-05,0.0001575,0.000230175,0.00031608,0.000417623,0.000537651,0.000679529,0.000847235,0.00104547,0.00127979,0.00155677,0.00188417,0.00227117,0.00272862,0.00326934,0.0039085,0.00466401,0.00555706,0.00661267,0.00786046,0.00933539,0.0110788,0.0131396,0.0155756,0.018455,0.0218585,0.0258817,0.0306372,inf	417.75,417.75,417.75,417.75,417.75,417.75,417.75,417.75,417.75,417.75,417.75,417.75,417.75,417.75,417.75,417.75,417.75,417.75,417.75,417.75,417.75,417.75,417.75,417.75,417.75,417.75,417.75,417.75,417.75,417.75
0.000280142	-290723.79	0,4.40035e-05,9.60175e-05,0.0001575,0.000230175,0.00031608,0.000417623,0.000537651,0.000679529,0.000847235,0.00104547,0.00127979,0.00155677,0.00188417,0.00227117,0.00272862,0.00326934,0.0039085,0.00466401,0.00555706,0.00661267,0.00786046,0.00933539,0.0110788,0.0131396,0.0155756,0.018455,0.0218585,0.0258817,0.0306372,inf	417.579,417.579,417.579,417.579,417.579,417.579,417.579,417.579,417.579,417.579,417.579,417.579,417.579,417.579,417.579,417.579,417.579,417.579,417.579,417.579,417.579,417.579,417.579,417.579,417.579,417.579,417.579,417.579,417.579,417.579
0.000278094	-290723.71	0,4.40035e-05,9.60175e-05,0.0001575,0.000230175,0.00031608,0.000417623,0.000537651,0.000679529,0.000847235,0.00104547,0.00127979,0.00155677,0.00188417,0.00227117,0.00272862,0.00326934,0.0039085,0.00466401,0.00555706,0.00661267,0.00786046,0.00933539,0.0110788,0.0131396,0.0155756,0.018455,0.0218585,0.0258817,0.0306372,inf	417.425,417.425,417.425,417.425,417.425,417.425,417.425,417.425,417.425,417.425,417.425,417.425,417.425,417.425,417.425,417.425,417.425,417.425,417.425,417.425,417.425,417.425,417.425,417.425,417.425,417.425,417.425,417.425,417.425,417.425
0.00027645	-290723.68	0,4.40035e-05,9.60175e-05,0.0001575,0.000230175,0.00031608,0.000417623,0.000537651,0.000679529,0.000847235,0.00104547,0.00127979,0.00155677,0.00188417,0.00227117,0.00272862,0.00326934,0.0039085,0.00466401,0.00555706,0.00661267,0.00786046,0.00933539,0.0110788,0.0131396,0.0155756,0.018455,0.0218585,0.0258817,0.0306372,inf	417.295,417.295,417.295,417.295,417.295,417.295,417.295,417.295,417.295,417.295,417.295,417.295,417.295,417.295,417.295,417.295,417.295,417.295,417.295,417.295,417.295,417.295,417.295,417.295,417.295,417.295,417.295,417.295,417.295,417.295
0.00027513	-290723.69	0,4.40035e-05,9.60175e-05,0.0001575,0.000230175,0.00031608,0.000417623,0.000537651,0.000679529,0.000847235,0.00104547,0.00127979,0.00155677,0.00188417,0.00227117,0.00272862,0.00326934,0.0039085,0.00466401,0.00555706,0.00661267,0.00786046,0.00933539,0.0110788,0.0131396,0.0155756,0.018455,0.0218585,0.0258817,0.0306372,inf	417.187,417.187,417.187,417.187,417.187,417.187,417.187,417.187,417.187,417.187,417.187,417.187,417.187,417.187,417.187,417.187,417.187,417.187,417.187,417.187,417.187,417.187,417.187,417.187,417.187,417.187,417.187,417.187,417.187,417.187
