0.000546593	-8270789.49	0,6.02047e-06,1.61617e-05,3.32441e-05,6.20187e-05,0.000110488,0.000192133,0.00032966,0.000561318,0.000951535,0.00160884,0.00271604,0.00458107,0.00772262,0.0130144,0.0219283,inf	129.789,129.789,250.286,333.66,339.413,372.341,408.773,417.298,417.109,415.49,419.968,394.332,376.436,358.774,358.774,358.774
0.000491948	-8268885.96	0,6.02047e-06,1.61617e-05,3.32441e-05,6.20187e-05,0.000110488,0.000192133,0.00032966,0.000561318,0.000951535,0.00160884,0.00271604,0.00458107,0.00772262,0.0130144,0.0219283,inf	53.9929,53.9929,210.213,331.773,318.836,356.402,412.346,422.88,420.866,418.727,434.509,389.137,361.752,332.36,332.36,332.36
0.000448008	-8267651.53	0,6.02047e-06,1.61617e-05,3.32441e-05,6.20187e-05,0.000110488,0.000192133,0.00032966,0.000561318,0.000951535,0.00160884,0.00271604,0.00458107,0.00772262,0.0130144,0.0219283,inf	23.323,23.323,196.268,348.861,314.614,347.913,416.531,426.438,421.394,417.492,447.207,386.075,355.309,316.469,316.469,316.469
0.000412663	-8266789.04	0,6.02047e-06,1.61617e-05,3.32441e-05,6.20187e-05,0.000110488,0.000192133,0.00032966,0.000561318,0.000951535,0.00160884,0.00271604,0.00458107,0.00772262,0.0130144,0.0219283,inf	9.77182,9.77182,188.685,369.376,316.727,342.685,420.921,429.575,421.219,413.883,457.493,383.22,353.366,306.36,306.36,306.36
0.000384431	-8266185.12	0,6.02047e-06,1.61617e-05,3.32441e-05,6.20187e-05,0.000110488,0.000192133,0.00032966,0.000561318,0.000951535,0.00160884,0.00271604,0.00458107,0.00772262,0.0130144,0.0219283,inf	3.92637,3.92637,182.639,388.133,321.401,338.903,425.017,432.617,421.405,409.373,465.637,379.994,353.756,299.617,299.617,299.617
0.000362094	-8265774.35	0,6.02047e-06,1.61617e-05,3.32441e-05,6.20187e-05,0.000110488,0.000192133,0.00032966,0.000561318,0.000951535,0.00160884,0.00271604,0.00458107,0.00772262,0.0130144,0.0219283,inf	1.5199,1.5199,177.273,403.665,327.079,335.812,428.512,435.423,422.191,404.775,472.129,376.435,355.217,294.935,294.935,294.935
0.000344593	-8265506.05	0,6.02047e-06,1.61617e-05,3.32441e-05,6.20187e-05,0.000110488,0.000192133,0.00032966,0.000561318,0.000951535,0.00160884,0.00271604,0.00458107,0.00772262,0.0130144,0.0219283,inf	0.570499,0.570499,172.598,415.871,333.047,333.128,431.318,437.81,423.483,400.454,477.407,372.782,357.041,291.583,291.583,291.583
0.000330998	-8265338.55	0,6.02047e-06,1.61617e-05,3.32441e-05,6.20187e-05,0.000110488,0.000192133,0.00032966,0.000561318,0.000951535,0.00160884,0.00271604,0.00458107,0.00772262,0.0130144,0.0219283,inf	0.406029,0.406029,168.705,425.09,338.924,330.749,433.503,439.679,425.103,396.536,481.788,369.269,358.852,289.13,289.13,289.13
0.000320516	-8265238.99	0,6.02047e-06,1.61617e-05,3.32441e-05,6.20187e-05,0.000110488,0.000192133,0.00032966,0.000561318,0.000951535,0.00160884,0.00271604,0.00458107,0.00772262,0.0130144,0.0219283,inf	0.406029,0.406029,165.586,431.781,344.495,328.632,435.189,441.022,426.891,393.037,485.481,366.057,360.478,287.311,287.311,287.311
0.000312482	-8265183.09	0,6.02047e-06,1.61617e-05,3.32441e-05,6.20187e-05,0.000110488,0.000192133,0.00032966,0.000561318,0.000951535,0.00160884,0.00271604,0.00458107,0.00772262,0.0130144,0.0219283,inf	0.406029,0.406029,163.168,436.437,349.643,326.752,436.514,441.888,428.734,389.934,488.624,363.228,361.859,285.953,285.953,285.953
0.000306355	-8265154.00	0,6.02047e-06,1.61617e-05,3.32441e-05,6.20187e-05,0.000110488,0.000192133,0.00032966,0.000561318,0.000951535,0.00160884,0.00271604,0.00458107,0.00772262,0.0130144,0.0219283,inf	0.406029,0.406029,161.367,439.491,354.293,325.081,437.585,442.35,430.558,387.19,491.307,360.804,362.996,284.936,284.936,284.936
0.000301699	-8265140.62	0,6.02047e-06,1.61617e-05,3.32441e-05,6.20187e-05,0.000110488,0.000192133,0.00032966,0.000561318,0.000951535,0.00160884,0.00271604,0.00458107,0.00772262,0.0130144,0.0219283,inf	0.406029,0.406029,160.071,441.353,358.418,323.59,438.487,442.486,432.317,384.766,493.6,358.767,363.912,284.173,284.173,284.173
0.000298172	-8265135.98	0,6.02047e-06,1.61617e-05,3.32441e-05,6.20187e-05,0.000110488,0.000192133,0.00032966,0.000561318,0.000951535,0.00160884,0.00271604,0.00458107,0.00772262,0.0130144,0.0219283,inf	0.406029,0.406029,159.161,442.347,362.043,322.258,439.281,442.372,433.988,382.628,495.556,357.078,364.644,283.601,283.601,283.601
0.000295515	-8265135.91	0,6.02047e-06,1.61617e-05,3.32441e-05,6.20187e-05,0.000110488,0.000192133,0.00032966,0.000561318,0.000951535,0.00160884,0.00271604,0.00458107,0.00772262,0.0130144,0.0219283,inf	0.406029,0.406029,158.623,442.957,365.387,321.227,440.22,442.253,435.663,380.74,497.268,355.707,365.276,283.206,283.206,283.206
0.000293505	-8265137.65	0,6.02047e-06,1.61617e-05,3.32441e-05,6.20187e-05,0.000110488,0.000192133,0.00032966,0.000561318,0.000951535,0.00160884,0.00271604,0.00458107,0.00772262,0.0130144,0.0219283,inf	0.406029,0.406029,158.217,442.871,368.084,320.138,440.895,441.823,437.134,379.056,498.693,354.567,365.743,282.89,282.89,282.89
0.000291989	-8265140.49	0,6.02047e-06,1.61617e-05,3.32441e-05,6.20187e-05,0.000110488,0.000192133,0.00032966,0.000561318,0.000951535,0.00160884,0.00271604,0.00458107,0.00772262,0.0130144,0.0219283,inf	0.406029,0.406029,157.966,442.498,370.381,319.123,441.496,441.26,438.478,377.583,499.898,353.637,366.102,282.645,282.645,282.645
0.000290848	-8265143.55	0,6.02047e-06,1.61617e-05,3.32441e-05,6.20187e-05,0.000110488,0.000192133,0.00032966,0.000561318,0.000951535,0.00160884,0.00271604,0.00458107,0.00772262,0.0130144,0.0219283,inf	0.406029,0.406029,157.842,441.986,372.36,318.201,442.077,440.628,439.713,376.298,500.918,352.883,366.381,282.456,282.456,282.456
0.000289991	-8265146.43	0,6.02047e-06,1.61617e-05,3.32441e-05,6.20187e-05,0.000110488,0.000192133,0.00032966,0.000561318,0.000951535,0.00160884,0.00271604,0.00458107,0.00772262,0.0130144,0.0219283,inf	0.406029,0.406029,157.792,441.392,374.062,317.363,442.648,439.963,440.845,375.176,501.783,352.272,366.602,282.311,282.311,282.311
0.000289397	-8265148.98	0,6.02047e-06,1.61617e-05,3.32441e-05,6.20187e-05,0.000110488,0.000192133,0.00032966,0.000561318,0.000951535,0.00160884,0.00271604,0.00458107,0.00772262,0.0130144,0.0219283,inf	0.406029,0.406029,157.844,440.902,375.677,316.701,443.425,439.46,442.21,374.431,502.894,351.987,366.957,282.302,282.302,282.302
0.000288918	-8265150.25	0,6.02047e-06,1.61617e-05,3.32441e-05,6.20187e-05,0.000110488,0.000192133,0.00032966,0.000561318,0.000951535,0.00160884,0.00271604,0.00458107,0.00772262,0.0130144,0.0219283,inf	0.406029,0.406029,157.891,440.271,376.956,315.993,444.012,438.745,443.186,373.546,503.514,351.585,367.115,282.237,282.237,282.237
