time_index	left_time_boundary	right_time_boundary	lambda
0	0	4.04024e-06	438.133
1	4.04024e-06	1.10506e-05	438.133
2	1.10506e-05	2.32147e-05	358.008
3	2.32147e-05	4.43211e-05	151.836
4	4.43211e-05	8.09437e-05	537.536
5	8.09437e-05	0.000144489	267.513
6	0.000144489	0.00025475	407.414
7	0.00025475	0.000446068	448.079
8	0.000446068	0.000778032	425.94
9	0.000778032	0.00135404	397.902
10	0.00135404	0.00235349	456.149
11	0.00235349	0.00408769	405.615
12	0.00408769	0.00709676	337.28
13	0.00709676	0.0123179	282.308
14	0.0123179	0.0213775	282.308
15	0.0213775	inf	282.308
