0.000562003	-4422895.02	0,4.47284e-06,1.01659e-05,1.7412e-05,2.66349e-05,3.83739e-05,5.33153e-05,7.23328e-05,9.65384e-05,0.000127347,0.000166561,0.000216473,0.00028,0.000360858,0.000463775,0.000594768,0.000761496,0.000973708,0.00124381,0.0015876,0.00202518,0.00258213,0.00329103,0.0041933,0.00534173,0.00680345,0.00866394,0.011032,0.014046,0.0178823,0.0227652,0.0289801,inf	79.2528,79.2528,215.477,309.723,331.155,361.68,331.855,317.294,327.084,347.53,372.992,395.112,410.656,413.751,411.08,410.303,410.901,412.406,414.731,417.329,418.496,415.165,408.282,403.111,399.121,396.224,401.28,386.065,386.065,376.511,376.511,376.511
0.00051614	-4422122.03	0,4.47284e-06,1.01659e-05,1.7412e-05,2.66349e-05,3.83739e-05,5.33153e-05,7.23328e-05,9.65384e-05,0.000127347,0.000166561,0.000216473,0.00028,0.000360858,0.000463775,0.000594768,0.000761496,0.000973708,0.00124381,0.0015876,0.00202518,0.00258213,0.00329103,0.0041933,0.00534173,0.00680345,0.00866394,0.011032,0.014046,0.0178823,0.0227652,0.0289801,inf	19.2187,19.2187,139.864,306.841,326.777,385.928,322.302,284.267,291.883,318.361,355.496,389.648,416.001,420.175,412.95,410.152,410.49,412.927,417.499,423.395,427.182,421.861,409.07,400.353,393.868,389.003,400.78,370.71,370.71,350.967,350.967,350.967
0.000476788	-4421512.14	0,4.47284e-06,1.01659e-05,1.7412e-05,2.66349e-05,3.83739e-05,5.33153e-05,7.23328e-05,9.65384e-05,0.000127347,0.000166561,0.000216473,0.00028,0.000360858,0.000463775,0.000594768,0.000761496,0.000973708,0.00124381,0.0015876,0.00202518,0.00258213,0.00329103,0.0041933,0.00534173,0.00680345,0.00866394,0.011032,0.014046,0.0178823,0.0227652,0.0289801,inf	4.83537,4.83537,90.3071,323.804,333.343,428.886,333.228,270.745,274.294,302.424,345.61,386.705,421.727,426.81,414.401,409.046,408.516,411.163,417.404,426.577,433.753,427.306,409.166,398.145,390.285,384.028,404.316,358.985,358.985,328.991,328.991,328.991
0.000443335	-4421034.27	0,4.47284e-06,1.01659e-05,1.7412e-05,2.66349e-05,3.83739e-05,5.33153e-05,7.23328e-05,9.65384e-05,0.000127347,0.000166561,0.000216473,0.00028,0.000360858,0.000463775,0.000594768,0.000761496,0.000973708,0.00124381,0.0015876,0.00202518,0.00258213,0.00329103,0.0041933,0.00534173,0.00680345,0.00866394,0.011032,0.014046,0.0178823,0.0227652,0.0289801,inf	1.19656,1.19656,54.9444,341.098,335.349,473.547,350.45,264.431,264.279,292.593,339.082,384.023,426.529,433.216,415.738,407.803,406.138,408.417,415.666,427.775,438.724,431.742,408.566,396.203,387.8,380.46,411.185,349.671,349.671,309.849,309.849,309.849
0.000415161	-4420667.30	0,4.47284e-06,1.01659e-05,1.7412e-05,2.66349e-05,3.83739e-05,5.33153e-05,7.23328e-05,9.65384e-05,0.000127347,0.000166561,0.000216473,0.00028,0.000360858,0.000463775,0.000594768,0.000761496,0.000973708,0.00124381,0.0015876,0.00202518,0.00258213,0.00329103,0.0041933,0.00534173,0.00680345,0.00866394,0.011032,0.014046,0.0178823,0.0227652,0.0289801,inf	0.40662,0.40662,31.5017,354.418,330.893,514.936,369.721,261.335,258.321,286.334,334.6,381.203,430.258,439.47,417.302,406.963,404.079,405.533,413.136,427.675,442.519,435.406,407.346,394.37,386.008,377.667,420.853,341.878,341.878,293.059,293.059,293.059
0.000391628	-4420392.19	0,4.47284e-06,1.01659e-05,1.7412e-05,2.66349e-05,3.83739e-05,5.33153e-05,7.23328e-05,9.65384e-05,0.000127347,0.000166561,0.000216473,0.00028,0.000360858,0.000463775,0.000594768,0.000761496,0.000973708,0.00124381,0.0015876,0.00202518,0.00258213,0.00329103,0.0041933,0.00534173,0.00680345,0.00866394,0.011032,0.014046,0.0178823,0.0227652,0.0289801,inf	0.406609,0.406609,17.2,363.646,321.222,551.574,389.32,259.753,254.714,282.354,331.504,378.118,432.831,445.462,419.081,406.621,402.573,402.895,410.293,426.717,445.436,438.49,405.617,392.576,384.626,375.177,432.888,334.94,334.94,278.293,278.293,278.293
0.000372118	-4420191.14	0,4.47284e-06,1.01659e-05,1.7412e-05,2.66349e-05,3.83739e-05,5.33153e-05,7.23328e-05,9.65384e-05,0.000127347,0.000166561,0.000216473,0.00028,0.000360858,0.000463775,0.000594768,0.000761496,0.000973708,0.00124381,0.0015876,0.00202518,0.00258213,0.00329103,0.0041933,0.00534173,0.00680345,0.00866394,0.011032,0.014046,0.0178823,0.0227652,0.0289801,inf	0.406609,0.406609,9.03722,369.877,308.06,583.328,408.439,258.809,252.536,279.926,329.444,374.797,434.273,451.071,420.956,406.694,401.639,400.654,407.41,425.206,447.697,441.161,403.514,390.821,383.482,372.658,446.945,328.386,328.386,265.313,265.313,265.313
0.000356047	-4420048.07	0,4.47284e-06,1.01659e-05,1.7412e-05,2.66349e-05,3.83739e-05,5.33153e-05,7.23328e-05,9.65384e-05,0.000127347,0.000166561,0.000216473,0.00028,0.000360858,0.000463775,0.000594768,0.000761496,0.000973708,0.00124381,0.0015876,0.00202518,0.00258213,0.00329103,0.0041933,0.00534173,0.00680345,0.00866394,0.011032,0.014046,0.0178823,0.0227652,0.0289801,inf	0.406609,0.406609,4.60974,374.155,292.91,610.454,426.641,258.051,251.245,278.594,328.226,371.345,434.695,456.224,422.802,407.05,401.199,398.842,404.643,423.351,449.473,443.554,401.172,389.142,382.477,369.89,462.749,321.897,321.897,253.924,253.924,253.924
0.000342883	-4419949.11	0,4.47284e-06,1.01659e-05,1.7412e-05,2.66349e-05,3.83739e-05,5.33153e-05,7.23328e-05,9.65384e-05,0.000127347,0.000166561,0.000216473,0.00028,0.000360858,0.000463775,0.000594768,0.000761496,0.000973708,0.00124381,0.0015876,0.00202518,0.00258213,0.00329103,0.0041933,0.00534173,0.00680345,0.00866394,0.011032,0.014046,0.0178823,0.0227652,0.0289801,inf	0.406609,0.406609,2.29913,377.34,276.855,633.519,443.69,257.207,250.484,278.043,327.715,367.874,434.255,460.902,424.525,407.56,401.154,397.439,402.076,421.302,450.891,445.774,398.713,387.587,381.565,366.739,480.072,315.276,315.276,243.952,243.952,243.952
0.000332153	-4419882.82	0,4.47284e-06,1.01659e-05,1.7412e-05,2.66349e-05,3.83739e-05,5.33153e-05,7.23328e-05,9.65384e-05,0.000127347,0.000166561,0.000216473,0.00028,0.000360858,0.000463775,0.000594768,0.000761496,0.000973708,0.00124381,0.0015876,0.00202518,0.00258213,0.00329103,0.0041933,0.00534173,0.00680345,0.00866394,0.011032,0.014046,0.0178823,0.0227652,0.0289801,inf	0.406609,0.406609,1.12869,379.949,260.664,652.982,459.399,256.14,250.017,278.054,327.803,364.486,433.14,465.124,426.064,408.121,401.403,396.402,399.75,419.162,452.043,447.894,396.228,386.2,380.728,363.132,498.728,308.425,308.425,235.233,235.233,235.233
0.000323442	-4419840.17	0,4.47284e-06,1.01659e-05,1.7412e-05,2.66349e-05,3.83739e-05,5.33153e-05,7.23328e-05,9.65384e-05,0.000127347,0.000166561,0.000216473,0.00028,0.000360858,0.000463775,0.000594768,0.000761496,0.000973708,0.00124381,0.0015876,0.00202518,0.00258213,0.00329103,0.0041933,0.00534173,0.00680345,0.00866394,0.011032,0.014046,0.0178823,0.0227652,0.0289801,inf	0.406609,0.406609,0.547247,382.283,244.819,669.422,473.776,254.787,249.69,278.451,328.394,361.253,431.512,468.936,427.386,408.655,401.859,395.679,397.677,417.004,452.994,449.958,393.782,385.015,379.963,359.04,518.555,301.312,301.312,227.609,227.609,227.609
0.000316395	-4419814.27	0,4.47284e-06,1.01659e-05,1.7412e-05,2.66349e-05,3.83739e-05,5.33153e-05,7.23328e-05,9.65384e-05,0.000127347,0.000166561,0.000216473,0.00028,0.000360858,0.000463775,0.000594768,0.000761496,0.000973708,0.00124381,0.0015876,0.00202518,0.00258213,0.00329103,0.0041933,0.00534173,0.00680345,0.00866394,0.011032,0.014046,0.0178823,0.0227652,0.0289801,inf	0.406609,0.406609,0.40661,384.483,229.621,683.309,486.795,253.147,249.401,279.105,329.4,358.22,429.522,472.394,428.486,409.113,402.45,395.219,395.857,414.874,453.789,451.989,391.414,384.049,379.273,354.462,539.41,293.95,293.95,220.934,220.934,220.934
0.00031071	-4419800.09	0,4.47284e-06,1.01659e-05,1.7412e-05,2.66349e-05,3.83739e-05,5.33153e-05,7.23328e-05,9.65384e-05,0.000127347,0.000166561,0.000216473,0.00028,0.000360858,0.000463775,0.000594768,0.000761496,0.000973708,0.00124381,0.0015876,0.00202518,0.00258213,0.00329103,0.0041933,0.00534173,0.00680345,0.00866394,0.011032,0.014046,0.0178823,0.0227652,0.0289801,inf	0.406609,0.406609,0.40661,386.631,215.226,695.055,498.532,251.208,249.087,279.914,330.742,355.411,427.29,475.558,429.368,409.467,403.122,394.978,394.279,412.803,454.459,453.998,389.147,383.307,378.664,349.417,561.162,286.383,286.383,215.074,215.074,215.074
0.000306135	-4419793.98	0,4.47284e-06,1.01659e-05,1.7412e-05,2.66349e-05,3.83739e-05,5.33153e-05,7.23328e-05,9.65384e-05,0.000127347,0.000166561,0.000216473,0.00028,0.000360858,0.000463775,0.000594768,0.000761496,0.000973708,0.00124381,0.0015876,0.00202518,0.00258213,0.00329103,0.0041933,0.00534173,0.00680345,0.00866394,0.011032,0.014046,0.0178823,0.0227652,0.0289801,inf	0.406609,0.406609,0.40661,388.733,201.739,705.084,509.108,249.041,248.717,280.799,332.348,352.831,424.912,478.484,430.048,409.7,403.834,394.915,392.926,410.809,455.026,455.985,386.985,382.783,378.137,343.939,583.688,278.665,278.665,209.914,209.914,209.914
0.00030246	-4419793.41	0,4.47284e-06,1.01659e-05,1.7412e-05,2.66349e-05,3.83739e-05,5.33153e-05,7.23328e-05,9.65384e-05,0.000127347,0.000166561,0.000216473,0.00028,0.000360858,0.000463775,0.000594768,0.000761496,0.000973708,0.00124381,0.0015876,0.00202518,0.00258213,0.00329103,0.0041933,0.00534173,0.00680345,0.00866394,0.011032,0.014046,0.0178823,0.0227652,0.0289801,inf	0.406609,0.406609,0.406609,390.779,189.168,713.658,518.596,246.666,248.274,281.701,334.151,350.474,422.46,481.221,430.547,409.808,404.557,394.997,391.779,408.902,455.504,457.946,384.93,382.466,377.694,338.068,606.868,270.86,270.86,205.352,205.352,205.352
0.000299525	-4419796.63	0,4.47284e-06,1.01659e-05,1.7412e-05,2.66349e-05,3.83739e-05,5.33153e-05,7.23328e-05,9.65384e-05,0.000127347,0.000166561,0.000216473,0.00028,0.000360858,0.000463775,0.000594768,0.000761496,0.000973708,0.00124381,0.0015876,0.00202518,0.00258213,0.00329103,0.0041933,0.00534173,0.00680345,0.00866394,0.011032,0.014046,0.0178823,0.0227652,0.0289801,inf	0.406609,0.406609,0.406609,393.086,177.634,721.596,527.509,244.33,247.931,282.781,336.334,348.555,420.254,484.102,431.127,410.002,405.447,395.335,390.927,407.168,455.972,459.927,382.995,382.357,377.351,331.852,630.624,263.041,263.041,201.314,201.314,201.314
0.000297168	-4419802.43	0,4.47284e-06,1.01659e-05,1.7412e-05,2.66349e-05,3.83739e-05,5.33153e-05,7.23328e-05,9.65384e-05,0.000127347,0.000166561,0.000216473,0.00028,0.000360858,0.000463775,0.000594768,0.000761496,0.000973708,0.00124381,0.0015876,0.00202518,0.00258213,0.00329103,0.0041933,0.00534173,0.00680345,0.00866394,0.011032,0.014046,0.0178823,0.0227652,0.0289801,inf	0.406609,0.406609,0.406609,394.995,166.802,727.993,535.169,241.702,247.336,283.613,338.389,346.608,417.811,486.594,431.347,409.896,406.154,395.636,390.143,405.449,456.309,461.823,381.124,382.402,377.079,325.328,654.771,255.234,255.234,197.714,197.714,197.714
0.000295283	-4419810.00	0,4.47284e-06,1.01659e-05,1.7412e-05,2.66349e-05,3.83739e-05,5.33153e-05,7.23328e-05,9.65384e-05,0.000127347,0.000166561,0.000216473,0.00028,0.000360858,0.000463775,0.000594768,0.000761496,0.000973708,0.00124381,0.0015876,0.00202518,0.00258213,0.00329103,0.0041933,0.00534173,0.00680345,0.00866394,0.011032,0.014046,0.0178823,0.0227652,0.0289801,inf	0.406609,0.406609,0.406609,396.807,156.784,733.584,542.019,239,246.664,284.342,340.465,344.79,415.353,488.938,431.398,409.645,406.788,395.976,389.485,403.806,456.574,463.667,379.33,382.598,376.887,318.553,679.2,247.5,247.5,194.493,194.493,194.493
0.000293778	-4419818.80	0,4.47284e-06,1.01659e-05,1.7412e-05,2.66349e-05,3.83739e-05,5.33153e-05,7.23328e-05,9.65384e-05,0.000127347,0.000166561,0.000216473,0.00028,0.000360858,0.000463775,0.000594768,0.000761496,0.000973708,0.00124381,0.0015876,0.00202518,0.00258213,0.00329103,0.0041933,0.00534173,0.00680345,0.00866394,0.011032,0.014046,0.0178823,0.0227652,0.0289801,inf	0.406609,0.406609,0.406609,398.507,147.531,738.59,548.223,236.292,245.949,284.995,342.575,343.12,412.94,491.21,431.345,409.3,407.379,396.365,388.955,402.247,456.783,465.463,377.606,382.929,376.776,311.577,703.795,239.887,239.887,191.603,191.603,191.603
0.000292579	-4419828.43	0,4.47284e-06,1.01659e-05,1.7412e-05,2.66349e-05,3.83739e-05,5.33153e-05,7.23328e-05,9.65384e-05,0.000127347,0.000166561,0.000216473,0.00028,0.000360858,0.000463775,0.000594768,0.000761496,0.000973708,0.00124381,0.0015876,0.00202518,0.00258213,0.00329103,0.0041933,0.00534173,0.00680345,0.00866394,0.011032,0.014046,0.0178823,0.0227652,0.0289801,inf	0.406609,0.406609,0.406609,400.128,138.968,743.107,553.881,233.596,245.213,285.569,344.7,341.592,410.594,493.435,431.215,408.88,407.929,396.794,388.543,400.774,456.946,467.21,375.946,383.377,376.744,304.447,728.436,232.434,232.434,189.002,189.002,189.002
