LogLikelihood = -281091.42876487888861

y0 0.67954195966761810066
y0_prime 0
y1 0.6423812082801846346
y1_prime 0
y2 1.3211963462315230444
y2_prime 0
y3 1.6389311878456958027
y3_prime 0
rho 0.0004465325645786391291
theta 0.0045647985378243736976
