time_index	left_time_boundary	right_time_boundary	lambda
0	0	5.16271e-05	366.423
1	5.16271e-05	0.000122269	366.423
2	0.000122269	0.00021893	841.895
3	0.00021893	0.000351192	940.347
4	0.000351192	0.000532169	727.373
5	0.000532169	0.000779801	758.883
6	0.000779801	0.00111864	735.18
7	0.00111864	0.00158228	820.417
8	0.00158228	0.00221668	762.387
9	0.00221668	0.00308475	546.887
10	0.00308475	0.00427254	940.109
11	0.00427254	0.0058978	677.707
12	0.0058978	0.00812168	750.97
13	0.00812168	0.0111646	100270
14	0.0111646	0.0153284	100270
15	0.0153284	inf	100270
