0.000294855	-7728635.53	0,9.10478e-07,2.1098e-06,3.68962e-06,5.77062e-06,8.51182e-06,1.21227e-05,1.6879e-05,2.31444e-05,3.13974e-05,4.22686e-05,5.65888e-05,7.54519e-05,0.000100299,0.00013303,0.000176144,0.000232936,0.000307745,0.000406287,0.000536091,0.000707076,0.000932305,0.00122899,0.00161979,0.00213458,0.00281268,0.00370591,0.00488252,0.0064324,0.00847399,0.0111633,0.0147057,inf	25.7418,25.7418,61.739,166.496,331.959,458.498,524.587,474.758,525.054,575.677,617.247,674.861,716.607,747.992,788.203,811.388,821.682,815.453,802.953,795.006,786.816,780.76,777.55,778,792.875,818.264,838.211,850.272,850.272,939.335,939.335,939.335
0.000269746	-7727398.62	0,9.10478e-07,2.1098e-06,3.68962e-06,5.77062e-06,8.51182e-06,1.21227e-05,1.6879e-05,2.31444e-05,3.13974e-05,4.22686e-05,5.65888e-05,7.54519e-05,0.000100299,0.00013303,0.000176144,0.000232936,0.000307745,0.000406287,0.000536091,0.000707076,0.000932305,0.00122899,0.00161979,0.00213458,0.00281268,0.00370591,0.00488252,0.0064324,0.00847399,0.0111633,0.0147057,inf	1.00014,1.00014,6.33795,54.6371,230.131,416.618,524.448,393.465,447.936,511.992,552.476,631.706,687.588,724.608,788.014,826.176,845.251,835.22,813.438,802.191,789.492,779.929,774.585,773.773,801.497,853.773,897.227,917.611,917.611,1199.69,1199.69,1199.69
0.000247936	-7726464.19	0,9.10478e-07,2.1098e-06,3.68962e-06,5.77062e-06,8.51182e-06,1.21227e-05,1.6879e-05,2.31444e-05,3.13974e-05,4.22686e-05,5.65888e-05,7.54519e-05,0.000100299,0.00013303,0.000176144,0.000232936,0.000307745,0.000406287,0.000536091,0.000707076,0.000932305,0.00122899,0.00161979,0.00213458,0.00281268,0.00370591,0.00488252,0.0064324,0.00847399,0.0111633,0.0147057,inf	0.774315,0.774315,0.774555,19.8593,181.99,424.271,587.537,365.492,421.988,497.448,524.943,615.262,676.164,706.557,783.717,831.426,857.82,845.395,815.908,804.316,789.269,777.685,770.725,766.505,804.236,883.871,954.144,975.774,975.774,1745.07,1745.07,1745.07
0.000229376	-7725766.87	0,9.10478e-07,2.1098e-06,3.68962e-06,5.77062e-06,8.51182e-06,1.21227e-05,1.6879e-05,2.31444e-05,3.13974e-05,4.22686e-05,5.65888e-05,7.54519e-05,0.000100299,0.00013303,0.000176144,0.000232936,0.000307745,0.000406287,0.000536091,0.000707076,0.000932305,0.00122899,0.00161979,0.00213458,0.00281268,0.00370591,0.00488252,0.0064324,0.00847399,0.0111633,0.0147057,inf	0.774315,0.774315,0.774316,7.16349,145.99,435.663,668.267,351.891,413.037,504.098,514.143,612.689,676.454,694.069,779.676,833.367,865.716,851.618,814.849,804.716,788.546,775.941,767.921,758.32,803.147,910.242,1010.91,1024.15,1024.15,3825.44,3825.44,3825.44
0.000213803	-7725270.66	0,9.10478e-07,2.1098e-06,3.68962e-06,5.77062e-06,8.51182e-06,1.21227e-05,1.6879e-05,2.31444e-05,3.13974e-05,4.22686e-05,5.65888e-05,7.54519e-05,0.000100299,0.00013303,0.000176144,0.000232936,0.000307745,0.000406287,0.000536091,0.000707076,0.000932305,0.00122899,0.00161979,0.00213458,0.00281268,0.00370591,0.00488252,0.0064324,0.00847399,0.0111633,0.0147057,inf	0.774315,0.774315,0.774316,2.50014,115.315,439.055,749.644,340.824,408.114,519.221,509.542,615.618,682.824,684.649,775.708,833.209,870.564,855.499,811.491,804.098,787.59,774.825,766.583,750.02,799.255,933.745,1068.87,1062.92,1062.92,66773,66773,66773
0.000213801	-7724935.06	0,9.10478e-07,2.1098e-06,3.68962e-06,5.77062e-06,8.51182e-06,1.21227e-05,1.6879e-05,2.31444e-05,3.13974e-05,4.22686e-05,5.65888e-05,7.54519e-05,0.000100299,0.00013303,0.000176144,0.000232936,0.000307745,0.000406287,0.000536091,0.000707076,0.000932305,0.00122899,0.00161979,0.00213458,0.00281268,0.00370591,0.00488252,0.0064324,0.00847399,0.0111633,0.0147057,inf	0.774315,0.774315,0.774316,0.860154,91.4255,442.415,843.152,335.915,410.907,548.319,516.678,632.601,706.663,690.761,787.777,849.272,892.236,876.656,823.251,819.154,801.738,788.36,779.512,752.407,802.695,965.025,1138.76,1100.54,1100.54,114906,114906,114906
