LogLikelihood = -156326.3607975623454

y0 0.003130857855257459816
y0_prime 0
y1 2.9374221186631102043
y1_prime 0
y2 0.49795990909068249541
y2_prime 0
y3 0.4518521446270623021
y3_prime 0
rho 0.0051749691951801747233
theta 0.002284005261394269487
