time_index	left_time_boundary	right_time_boundary	lambda
0	0	4.32983e-05	884.775
1	4.32983e-05	9.39466e-05	884.775
2	9.39466e-05	0.000153192	516.783
3	0.000153192	0.000222495	275.218
4	0.000222495	0.000303562	172.243
5	0.000303562	0.00039839	255.839
6	0.00039839	0.000509315	375.996
7	0.000509315	0.000639069	382.687
8	0.000639069	0.00079085	384.761
9	0.00079085	0.000968395	408.154
10	0.000968395	0.00117608	405.325
11	0.00117608	0.00141902	403.886
12	0.00141902	0.00170319	393.267
13	0.00170319	0.00203561	379.291
14	0.00203561	0.00242445	379.157
15	0.00242445	0.0028793	397.773
16	0.0028793	0.00341136	418.783
17	0.00341136	0.00403373	432.021
18	0.00403373	0.00476176	444.566
19	0.00476176	0.00561336	458.922
20	0.00561336	0.00660953	474.245
21	0.00660953	0.00777479	487.373
22	0.00777479	0.00913786	506.752
23	0.00913786	0.0107323	535.783
24	0.0107323	0.0125974	587.699
25	0.0125974	0.0147791	634.136
26	0.0147791	0.0173312	534.83
27	0.0173312	0.0203165	43.1967
28	0.0203165	0.0238085	43.1967
29	0.0238085	0.0278932	81172.4
30	0.0278932	0.0326714	81172.4
31	0.0326714	inf	81172.4
