0.000658697	-8519069.33	0,6.16798e-06,1.65577e-05,3.40586e-05,6.35382e-05,0.000113195,0.00019684,0.000337737,0.00057507,0.000974848,0.00164826,0.00278258,0.00469331,0.00791183,0.0133333,0.0224655,inf	359.218,359.218,525.592,545.161,452.1,419.784,388.779,375.671,377.362,391.98,409.741,423.54,424.285,439.268,439.268,439.268
0.000678372	-8519061.49	0,6.16798e-06,1.65577e-05,3.40586e-05,6.35382e-05,0.000113195,0.00019684,0.000337737,0.00057507,0.000974848,0.00164826,0.00278258,0.00469331,0.00791183,0.0133333,0.0224655,inf	292.198,292.198,562.587,625.833,472.594,433.888,386.793,366.46,367.364,387.257,412.257,436.132,439.544,473.542,473.542,473.542
0.000693127	-8519225.77	0,6.16798e-06,1.65577e-05,3.40586e-05,6.35382e-05,0.000113195,0.00019684,0.000337737,0.00057507,0.000974848,0.00164826,0.00278258,0.00469331,0.00791183,0.0133333,0.0224655,inf	246.122,246.122,559.941,669.264,476.244,443.008,387.14,362.896,362.712,384.309,411.322,441.812,447.593,501.79,501.79,501.79
0.000704716	-8519381.07	0,6.16798e-06,1.65577e-05,3.40586e-05,6.35382e-05,0.000113195,0.00019684,0.000337737,0.00057507,0.000974848,0.00164826,0.00278258,0.00469331,0.00791183,0.0133333,0.0224655,inf	219.958,219.958,544.575,694.691,472.016,448.937,387.94,361.76,360.824,382.859,409.463,444.186,451.453,525.8,525.8,525.8
0.000714126	-8519504.97	0,6.16798e-06,1.65577e-05,3.40586e-05,6.35382e-05,0.000113195,0.00019684,0.000337737,0.00057507,0.000974848,0.00164826,0.00278258,0.00469331,0.00791183,0.0133333,0.0224655,inf	206.312,206.312,526.973,711.956,464.425,452.87,388.502,361.54,360.275,382.395,407.541,444.987,452.804,546.786,546.786,546.786
0.000721946	-8519602.71	0,6.16798e-06,1.65577e-05,3.40586e-05,6.35382e-05,0.000113195,0.00019684,0.000337737,0.00057507,0.000974848,0.00164826,0.00278258,0.00469331,0.00791183,0.0133333,0.0224655,inf	199.727,199.727,510.484,725.648,455.689,455.652,388.69,361.584,360.327,382.524,405.827,445.07,452.609,565.593,565.593,565.593
0.000728552	-8519682.06	0,6.16798e-06,1.65577e-05,3.40586e-05,6.35382e-05,0.000113195,0.00019684,0.000337737,0.00057507,0.000974848,0.00164826,0.00278258,0.00469331,0.00791183,0.0133333,0.0224655,inf	196.927,196.927,495.826,737.721,446.838,457.828,388.566,361.641,360.609,382.987,404.377,444.868,451.433,582.824,582.824,582.824
0.000734196	-8519749.09	0,6.16798e-06,1.65577e-05,3.40586e-05,6.35382e-05,0.000113195,0.00019684,0.000337737,0.00057507,0.000974848,0.00164826,0.00278258,0.00469331,0.00791183,0.0133333,0.0224655,inf	196.107,196.107,482.846,748.946,438.313,459.728,388.234,361.635,360.942,383.619,403.172,444.6,449.619,598.925,598.925,598.925
0.000739046	-8519807.98	0,6.16798e-06,1.65577e-05,3.40586e-05,6.35382e-05,0.000113195,0.00019684,0.000337737,0.00057507,0.000974848,0.00164826,0.00278258,0.00469331,0.00791183,0.0133333,0.0224655,inf	196.192,196.192,471.048,759.301,430.107,461.367,387.66,361.467,361.191,384.311,402.195,444.337,447.341,614.21,614.21,614.21
0.000743255	-8519860.99	0,6.16798e-06,1.65577e-05,3.40586e-05,6.35382e-05,0.000113195,0.00019684,0.000337737,0.00057507,0.000974848,0.00164826,0.00278258,0.00469331,0.00791183,0.0133333,0.0224655,inf	196.801,196.801,460.529,769.458,422.566,463.146,387.135,361.317,361.421,385.027,401.383,444.184,444.787,628.986,628.986,628.986
0.000746919	-8519910.95	0,6.16798e-06,1.65577e-05,3.40586e-05,6.35382e-05,0.000113195,0.00019684,0.000337737,0.00057507,0.000974848,0.00164826,0.00278258,0.00469331,0.00791183,0.0133333,0.0224655,inf	197.614,197.614,450.897,779.167,415.526,464.985,386.626,361.159,361.596,385.721,400.691,444.154,442.038,643.463,643.463,643.463
0.000750115	-8519959.10	0,6.16798e-06,1.65577e-05,3.40586e-05,6.35382e-05,0.000113195,0.00019684,0.000337737,0.00057507,0.000974848,0.00164826,0.00278258,0.00469331,0.00791183,0.0133333,0.0224655,inf	198.513,198.513,441.976,788.347,408.909,466.858,386.132,360.997,361.717,386.371,400.087,444.252,439.146,657.817,657.817,657.817
0.000752908	-8520006.37	0,6.16798e-06,1.65577e-05,3.40586e-05,6.35382e-05,0.000113195,0.00019684,0.000337737,0.00057507,0.000974848,0.00164826,0.00278258,0.00469331,0.00791183,0.0133333,0.0224655,inf	199.389,199.389,433.676,797.042,402.669,468.756,385.657,360.841,361.788,386.971,399.545,444.472,436.146,672.203,672.203,672.203
0.000755351	-8520053.48	0,6.16798e-06,1.65577e-05,3.40586e-05,6.35382e-05,0.000113195,0.00019684,0.000337737,0.00057507,0.000974848,0.00164826,0.00278258,0.00469331,0.00791183,0.0133333,0.0224655,inf	200.246,200.246,425.908,805.273,396.763,470.659,385.203,360.699,361.819,387.52,399.049,444.808,433.06,686.764,686.764,686.764
0.000757489	-8520101.00	0,6.16798e-06,1.65577e-05,3.40586e-05,6.35382e-05,0.000113195,0.00019684,0.000337737,0.00057507,0.000974848,0.00164826,0.00278258,0.00469331,0.00791183,0.0133333,0.0224655,inf	201.078,201.078,418.63,813.049,391.158,472.557,384.768,360.575,361.818,388.02,398.584,445.251,429.902,701.633,701.633,701.633
0.000759359	-8520149.43	0,6.16798e-06,1.65577e-05,3.40586e-05,6.35382e-05,0.000113195,0.00019684,0.000337737,0.00057507,0.000974848,0.00164826,0.00278258,0.00469331,0.00791183,0.0133333,0.0224655,inf	201.913,201.913,411.803,820.419,385.828,474.438,384.349,360.473,361.795,388.475,398.137,445.791,426.682,716.938,716.938,716.938
0.000760995	-8520199.17	0,6.16798e-06,1.65577e-05,3.40586e-05,6.35382e-05,0.000113195,0.00019684,0.000337737,0.00057507,0.000974848,0.00164826,0.00278258,0.00469331,0.00791183,0.0133333,0.0224655,inf	202.705,202.705,405.38,827.413,380.748,476.294,383.943,360.393,361.753,388.89,397.702,446.419,423.402,732.812,732.812,732.812
0.000762423	-8520250.63	0,6.16798e-06,1.65577e-05,3.40586e-05,6.35382e-05,0.000113195,0.00019684,0.000337737,0.00057507,0.000974848,0.00164826,0.00278258,0.00469331,0.00791183,0.0133333,0.0224655,inf	203.427,203.427,399.336,834.064,375.901,478.119,383.546,360.335,361.7,389.27,397.271,447.126,420.065,749.395,749.395,749.395
0.000763667	-8520304.18	0,6.16798e-06,1.65577e-05,3.40586e-05,6.35382e-05,0.000113195,0.00019684,0.000337737,0.00057507,0.000974848,0.00164826,0.00278258,0.00469331,0.00791183,0.0133333,0.0224655,inf	204.106,204.106,393.635,840.387,371.272,479.906,383.154,360.297,361.638,389.618,396.839,447.905,416.671,766.836,766.836,766.836
0.000764749	-8520360.22	0,6.16798e-06,1.65577e-05,3.40586e-05,6.35382e-05,0.000113195,0.00019684,0.000337737,0.00057507,0.000974848,0.00164826,0.00278258,0.00469331,0.00791183,0.0133333,0.0224655,inf	204.761,204.761,388.244,846.419,366.843,481.652,382.766,360.278,361.57,389.941,396.403,448.748,413.216,785.306,785.306,785.306
