0.00066093	-307755.42	0,4.32983e-05,9.39466e-05,0.000153192,0.000222495,0.000303562,0.00039839,0.000509315,0.000639069,0.00079085,0.000968395,0.00117608,0.00141902,0.00170319,0.00203561,0.00242445,0.0028793,0.00341136,0.00403373,0.00476176,0.00561336,0.00660953,0.00777479,0.00913786,0.0107323,0.0125974,0.0147791,0.0173312,0.0203165,0.0238085,0.0278932,0.0326714,inf	654.503,654.503,459.634,366.961,341.607,351.017,367.733,376.707,383.755,391.068,395.603,398.212,399.546,400.917,403.62,407.69,411.75,414.83,417.366,419.765,422.55,425.761,428.771,432.052,436.962,439.834,430.041,404.076,404.076,494.749,494.749,494.749
0.000679646	-307745.58	0,4.32983e-05,9.39466e-05,0.000153192,0.000222495,0.000303562,0.00039839,0.000509315,0.000639069,0.00079085,0.000968395,0.00117608,0.00141902,0.00170319,0.00203561,0.00242445,0.0028793,0.00341136,0.00403373,0.00476176,0.00561336,0.00660953,0.00777479,0.00913786,0.0107323,0.0125974,0.0147791,0.0173312,0.0203165,0.0238085,0.0278932,0.0326714,inf	790.957,790.957,484.242,341.358,306.044,325.329,355.174,369.349,379.839,391.021,397.171,399.983,400.692,401.795,405.76,412.696,420.01,425.837,430.909,435.911,441.928,449.207,456.576,465.05,478.009,486.936,464.341,406.072,406.072,688.368,688.368,688.368
0.000695311	-307744.60	0,4.32983e-05,9.39466e-05,0.000153192,0.000222495,0.000303562,0.00039839,0.000509315,0.000639069,0.00079085,0.000968395,0.00117608,0.00141902,0.00170319,0.00203561,0.00242445,0.0028793,0.00341136,0.00403373,0.00476176,0.00561336,0.00660953,0.00777479,0.00913786,0.0107323,0.0125974,0.0147791,0.0173312,0.0203165,0.0238085,0.0278932,0.0326714,inf	853.471,853.471,497.547,322.066,281.51,309.488,350.125,367.289,379.314,392.65,399.023,400.908,400.064,400.051,404.383,413.229,422.935,430.86,438,445.253,454.274,465.672,477.912,492.718,516.352,534.453,494.418,399.502,399.502,1216.32,1216.32,1216.32
0.000708779	-307745.55	0,4.32983e-05,9.39466e-05,0.000153192,0.000222495,0.000303562,0.00039839,0.000509315,0.000639069,0.00079085,0.000968395,0.00117608,0.00141902,0.00170319,0.00203561,0.00242445,0.0028793,0.00341136,0.00403373,0.00476176,0.00561336,0.00660953,0.00777479,0.00913786,0.0107323,0.0125974,0.0147791,0.0173312,0.0203165,0.0238085,0.0278932,0.0326714,inf	880.138,880.138,508.678,307.97,263.72,299.207,349.11,367.937,380.518,395.218,401.249,401.794,399.065,397.597,401.83,411.968,423.406,432.837,441.521,450.543,462.115,477.328,494.503,516.311,552.962,583.466,519.121,387.645,387.645,4032.08,4032.08,4032.08
0.000708779	-307746.84	0,4.32983e-05,9.39466e-05,0.000153192,0.000222495,0.000303562,0.00039839,0.000509315,0.000639069,0.00079085,0.000968395,0.00117608,0.00141902,0.00170319,0.00203561,0.00242445,0.0028793,0.00341136,0.00403373,0.00476176,0.00561336,0.00660953,0.00777479,0.00913786,0.0107323,0.0125974,0.0147791,0.0173312,0.0203165,0.0238085,0.0278932,0.0326714,inf	884.619,884.619,516.75,295.624,248.585,290.377,348.106,367.634,380.213,395.88,401.451,400.683,396.163,393.288,397.306,408.426,421.205,431.786,441.676,452.121,465.85,484.515,506.525,535.783,587.699,634.136,535.746,372.214,372.214,80932,80932,80932
0.000708779	-307749.27	0,4.32983e-05,9.39466e-05,0.000153192,0.000222495,0.000303562,0.00039839,0.000509315,0.000639069,0.00079085,0.000968395,0.00117608,0.00141902,0.00170319,0.00203561,0.00242445,0.0028793,0.00341136,0.00403373,0.00476176,0.00561336,0.00660953,0.00777479,0.00913786,0.0107323,0.0125974,0.0147791,0.0173312,0.0203165,0.0238085,0.0278932,0.0326714,inf	884.641,884.641,516.761,287.187,237.056,284.403,349.371,369.028,381.241,397.807,402.962,400.956,394.681,390.365,394.023,405.862,419.623,430.925,441.561,452.962,468.427,486.738,506.752,535.783,587.699,634.136,535.746,352.088,352.088,80946.7,80946.7,80946.7
0.000708779	-307749.01	0,4.32983e-05,9.39466e-05,0.000153192,0.000222495,0.000303562,0.00039839,0.000509315,0.000639069,0.00079085,0.000968395,0.00117608,0.00141902,0.00170319,0.00203561,0.00242445,0.0028793,0.00341136,0.00403373,0.00476176,0.00561336,0.00660953,0.00777479,0.00913786,0.0107323,0.0125974,0.0147791,0.0173312,0.0203165,0.0238085,0.0278932,0.0326714,inf	884.643,884.643,516.772,281.726,227.836,279.915,351.416,370.702,382.352,399.833,403.008,401.692,393.846,388.201,391.522,404.009,418.609,430.445,441.635,453.829,470.941,487.341,506.752,535.783,587.699,634.136,535.746,329.3,329.3,80963.3,80963.3,80963.3
0.000708779	-307748.77	0,4.32983e-05,9.39466e-05,0.000153192,0.000222495,0.000303562,0.00039839,0.000509315,0.000639069,0.00079085,0.000968395,0.00117608,0.00141902,0.00170319,0.00203561,0.00242445,0.0028793,0.00341136,0.00403373,0.00476176,0.00561336,0.00660953,0.00777479,0.00913786,0.0107323,0.0125974,0.0147791,0.0173312,0.0203165,0.0238085,0.0278932,0.0326714,inf	884.657,884.657,516.783,278.287,220.164,276.206,353.878,372.426,383.38,401.85,403.976,401.692,393.433,386.546,389.547,402.632,417.966,430.203,441.813,454.695,472.636,487.341,506.752,535.783,587.699,634.136,535.746,304.119,304.119,80981.7,80981.7,80981.7
0.000708779	-307748.50	0,4.32983e-05,9.39466e-05,0.000153192,0.000222495,0.000303562,0.00039839,0.000509315,0.000639069,0.00079085,0.000968395,0.00117608,0.00141902,0.00170319,0.00203561,0.00242445,0.0028793,0.00341136,0.00403373,0.00476176,0.00561336,0.00660953,0.00777479,0.00913786,0.0107323,0.0125974,0.0147791,0.0173312,0.0203165,0.0238085,0.0278932,0.0326714,inf	884.664,884.664,516.783,276.232,213.527,273.146,356.374,373.981,384.138,401.855,403.976,402.82,393.267,385.224,387.932,401.582,417.578,430.122,442.057,455.557,473.68,487.341,506.752,535.783,587.699,634.136,535.746,277.016,277.016,81001.5,81001.5,81001.5
0.000708779	-307748.24	0,4.32983e-05,9.39466e-05,0.000153192,0.000222495,0.000303562,0.00039839,0.000509315,0.000639069,0.00079085,0.000968395,0.00117608,0.00141902,0.00170319,0.00203561,0.00242445,0.0028793,0.00341136,0.00403373,0.00476176,0.00561336,0.00660953,0.00777479,0.00913786,0.0107323,0.0125974,0.0147791,0.0173312,0.0203165,0.0238085,0.0278932,0.0326714,inf	884.679,884.679,516.783,275.231,207.707,270.524,356.403,375.432,384.764,403.589,404.917,402.82,393.267,384.145,386.572,400.76,417.362,430.14,442.333,456.402,474.088,487.373,506.752,535.783,587.699,634.136,535.746,248.639,248.639,81022.2,81022.2,81022.2
0.000708779	-307747.93	0,4.32983e-05,9.39466e-05,0.000153192,0.000222495,0.000303562,0.00039839,0.000509315,0.000639069,0.00079085,0.000968395,0.00117608,0.00141902,0.00170319,0.00203561,0.00242445,0.0028793,0.00341136,0.00403373,0.00476176,0.00561336,0.00660953,0.00777479,0.00913786,0.0107323,0.0125974,0.0147791,0.0173312,0.0203165,0.0238085,0.0278932,0.0326714,inf	884.694,884.694,516.783,275.218,202.647,268.321,359.265,376.905,385.254,403.797,404.917,402.82,393.267,383.212,385.384,400.098,417.267,430.226,442.628,457.235,474.234,487.373,506.752,535.783,587.699,634.136,535.746,219.774,219.774,81043.2,81043.2,81043.2
0.000708779	-307747.62	0,4.32983e-05,9.39466e-05,0.000153192,0.000222495,0.000303562,0.00039839,0.000509315,0.000639069,0.00079085,0.000968395,0.00117608,0.00141902,0.00170319,0.00203561,0.00242445,0.0028793,0.00341136,0.00403373,0.00476176,0.00561336,0.00660953,0.00777479,0.00913786,0.0107323,0.0125974,0.0147791,0.0173312,0.0203165,0.0238085,0.0278932,0.0326714,inf	884.719,884.719,516.783,275.218,197.989,266.277,362.058,378.223,385.612,404.002,404.917,402.82,393.267,382.457,384.373,399.584,417.275,430.366,442.933,457.898,474.234,487.373,506.752,535.783,587.699,634.136,535.746,191.26,191.26,81064,81064,81064
0.000708779	-307747.30	0,4.32983e-05,9.39466e-05,0.000153192,0.000222495,0.000303562,0.00039839,0.000509315,0.000639069,0.00079085,0.000968395,0.00117608,0.00141902,0.00170319,0.00203561,0.00242445,0.0028793,0.00341136,0.00403373,0.00476176,0.00561336,0.00660953,0.00777479,0.00913786,0.0107323,0.0125974,0.0147791,0.0173312,0.0203165,0.0238085,0.0278932,0.0326714,inf	884.728,884.728,516.783,275.218,193.7,264.373,362.058,379.325,385.805,405.41,404.917,403.256,393.267,381.849,383.5,399.181,417.357,430.54,443.241,458.308,474.234,487.373,506.752,535.783,587.699,634.136,535.746,163.925,163.925,81084,81084,81084
0.000708779	-307746.98	0,4.32983e-05,9.39466e-05,0.000153192,0.000222495,0.000303562,0.00039839,0.000509315,0.000639069,0.00079085,0.000968395,0.00117608,0.00141902,0.00170319,0.00203561,0.00242445,0.0028793,0.00341136,0.00403373,0.00476176,0.00561336,0.00660953,0.00777479,0.00913786,0.0107323,0.0125974,0.0147791,0.0173312,0.0203165,0.0238085,0.0278932,0.0326714,inf	884.731,884.731,516.783,275.218,189.884,262.807,364.956,380.376,385.805,405.41,404.917,403.256,393.267,381.292,382.695,398.839,417.479,430.729,443.543,458.59,474.245,487.373,506.752,535.783,587.699,634.136,535.746,138.507,138.507,81102.5,81102.5,81102.5
0.000708779	-307746.67	0,4.32983e-05,9.39466e-05,0.000153192,0.000222495,0.000303562,0.00039839,0.000509315,0.000639069,0.00079085,0.000968395,0.00117608,0.00141902,0.00170319,0.00203561,0.00242445,0.0028793,0.00341136,0.00403373,0.00476176,0.00561336,0.00660953,0.00777479,0.00913786,0.0107323,0.0125974,0.0147791,0.0173312,0.0203165,0.0238085,0.0278932,0.0326714,inf	884.736,884.736,516.783,275.218,186.32,261.314,364.956,381.334,385.801,406.661,405.325,403.256,393.267,380.841,381.986,398.572,417.646,430.936,443.844,458.719,474.245,487.373,506.752,535.783,587.699,634.136,535.746,115.589,115.589,81119.3,81119.3,81119.3
0.000708779	-307746.39	0,4.32983e-05,9.39466e-05,0.000153192,0.000222495,0.000303562,0.00039839,0.000509315,0.000639069,0.00079085,0.000968395,0.00117608,0.00141902,0.00170319,0.00203561,0.00242445,0.0028793,0.00341136,0.00403373,0.00476176,0.00561336,0.00660953,0.00777479,0.00913786,0.0107323,0.0125974,0.0147791,0.0173312,0.0203165,0.0238085,0.0278932,0.0326714,inf	884.748,884.748,516.783,275.218,183.129,260.09,367.893,381.712,385.73,406.722,405.325,403.256,393.267,380.423,381.321,398.341,417.836,431.148,444.137,458.786,474.245,487.373,506.752,535.783,587.699,634.136,535.746,95.5422,95.5422,81133.9,81133.9,81133.9
0.000708779	-307746.14	0,4.32983e-05,9.39466e-05,0.000153192,0.000222495,0.000303562,0.00039839,0.000509315,0.000639069,0.00079085,0.000968395,0.00117608,0.00141902,0.00170319,0.00203561,0.00242445,0.0028793,0.00341136,0.00403373,0.00476176,0.00561336,0.00660953,0.00777479,0.00913786,0.0107323,0.0125974,0.0147791,0.0173312,0.0203165,0.0238085,0.0278932,0.0326714,inf	884.757,884.757,516.783,275.218,180.125,258.91,370.745,382.012,385.586,406.841,405.325,403.259,393.267,380.075,380.719,398.157,418.052,431.365,444.388,458.786,474.245,487.373,506.752,535.783,587.699,634.136,535.746,78.481,78.481,81146.3,81146.3,81146.3
0.000708779	-307745.93	0,4.32983e-05,9.39466e-05,0.000153192,0.000222495,0.000303562,0.00039839,0.000509315,0.000639069,0.00079085,0.000968395,0.00117608,0.00141902,0.00170319,0.00203561,0.00242445,0.0028793,0.00341136,0.00403373,0.00476176,0.00561336,0.00660953,0.00777479,0.00913786,0.0107323,0.0125974,0.0147791,0.0173312,0.0203165,0.0238085,0.0278932,0.0326714,inf	884.76,884.76,516.783,275.218,177.295,257.774,373.511,382.017,385.368,406.842,405.325,403.516,393.267,379.786,380.17,398.009,418.286,431.585,444.388,458.922,474.245,487.373,506.752,535.783,587.699,634.136,535.477,64.2788,64.2788,81156.8,81156.8,81156.8
0.000708779	-307745.74	0,4.32983e-05,9.39466e-05,0.000153192,0.000222495,0.000303562,0.00039839,0.000509315,0.000639069,0.00079085,0.000968395,0.00117608,0.00141902,0.00170319,0.00203561,0.00242445,0.0028793,0.00341136,0.00403373,0.00476176,0.00561336,0.00660953,0.00777479,0.00913786,0.0107323,0.0125974,0.0147791,0.0173312,0.0203165,0.0238085,0.0278932,0.0326714,inf	884.769,884.769,516.783,275.218,174.636,256.701,373.511,382.687,385.078,407.883,405.325,403.886,393.267,379.541,379.661,397.887,418.535,431.806,444.477,458.922,474.245,487.373,506.752,535.783,587.699,634.136,535.121,52.6435,52.6435,81165.4,81165.4,81165.4
0.000708779	-307745.59	0,4.32983e-05,9.39466e-05,0.000153192,0.000222495,0.000303562,0.00039839,0.000509315,0.000639069,0.00079085,0.000968395,0.00117608,0.00141902,0.00170319,0.00203561,0.00242445,0.0028793,0.00341136,0.00403373,0.00476176,0.00561336,0.00660953,0.00777479,0.00913786,0.0107323,0.0125974,0.0147791,0.0173312,0.0203165,0.0238085,0.0278932,0.0326714,inf	884.775,884.775,516.783,275.218,172.243,255.839,375.996,382.687,384.761,408.154,405.325,403.886,393.267,379.291,379.157,397.773,418.783,432.021,444.566,458.922,474.245,487.373,506.752,535.783,587.699,634.136,534.83,43.1967,43.1967,81172.4,81172.4,81172.4
