0.000670016	-4562895.27	0,4.52995e-06,1.02957e-05,1.76344e-05,2.6975e-05,3.88639e-05,5.39961e-05,7.32564e-05,9.77711e-05,0.000128973,0.000168688,0.000219237,0.000283575,0.000365466,0.000469697,0.000602362,0.000771219,0.000986142,0.0012597,0.00160788,0.00205104,0.00261511,0.00333305,0.00424685,0.00540994,0.00689033,0.00877457,0.0111728,0.0142254,0.0181106,0.0230558,0.0293501,inf	349.957,349.957,452.836,448.373,375.563,338.406,331.589,324.371,318.132,310.531,306.15,312.295,321.337,328.741,334.642,341.925,352.709,367.327,385.301,403.827,418.902,427.621,428.89,423.732,417.534,412.172,408.293,398.971,398.971,339.764,339.764,339.764
0.00071598	-4561955.71	0,4.52995e-06,1.02957e-05,1.76344e-05,2.6975e-05,3.88639e-05,5.39961e-05,7.32564e-05,9.77711e-05,0.000128973,0.000168688,0.000219237,0.000283575,0.000365466,0.000469697,0.000602362,0.000771219,0.000986142,0.0012597,0.00160788,0.00205104,0.00261511,0.00333305,0.00424685,0.00540994,0.00689033,0.00877457,0.0111728,0.0142254,0.0181106,0.0230558,0.0293501,inf	318.242,318.242,516.831,523.581,388.427,332.822,327.313,316.53,305.303,289.48,279.462,288.257,301.038,309.677,314.625,321.527,334.239,353.539,378.996,406.353,429.405,443.328,445.471,436.743,426.597,417.951,411.792,394.329,394.329,286.205,286.205,286.205
0.000759258	-4561380.88	0,4.52995e-06,1.02957e-05,1.76344e-05,2.6975e-05,3.88639e-05,5.39961e-05,7.32564e-05,9.77711e-05,0.000128973,0.000168688,0.000219237,0.000283575,0.000365466,0.000469697,0.000602362,0.000771219,0.000986142,0.0012597,0.00160788,0.00205104,0.00261511,0.00333305,0.00424685,0.00540994,0.00689033,0.00877457,0.0111728,0.0142254,0.0181106,0.0230558,0.0293501,inf	286.943,286.943,550.016,576.667,392.198,330.447,331.412,320.45,306.5,283.612,269.346,281.282,297.364,306.198,308.735,313.385,325.53,346.336,375.437,407.574,435.24,452.475,455.225,443.924,431.233,420.641,413.248,388.571,388.571,235.864,235.864,235.864
0.000800001	-4560943.49	0,4.52995e-06,1.02957e-05,1.76344e-05,2.6975e-05,3.88639e-05,5.39961e-05,7.32564e-05,9.77711e-05,0.000128973,0.000168688,0.000219237,0.000283575,0.000365466,0.000469697,0.000602362,0.000771219,0.000986142,0.0012597,0.00160788,0.00205104,0.00261511,0.00333305,0.00424685,0.00540994,0.00689033,0.00877457,0.0111728,0.0142254,0.0181106,0.0230558,0.0293501,inf	263.171,263.171,559.748,607.703,385.171,324.376,334.016,324.889,309.782,280.908,263.818,279.623,299.248,308.23,308.141,310.128,320.934,342.044,373.078,407.965,438.396,457.777,460.883,447.605,433.224,421.537,413.593,382.487,382.487,182.422,182.422,182.422
0.000838475	-4560585.44	0,4.52995e-06,1.02957e-05,1.76344e-05,2.6975e-05,3.88639e-05,5.39961e-05,7.32564e-05,9.77711e-05,0.000128973,0.000168688,0.000219237,0.000283575,0.000365466,0.000469697,0.000602362,0.000771219,0.000986142,0.0012597,0.00160788,0.00205104,0.00261511,0.00333305,0.00424685,0.00540994,0.00689033,0.00877457,0.0111728,0.0142254,0.0181106,0.0230558,0.0293501,inf	248.479,248.479,558.363,625.565,372.258,315.792,334.442,328.007,312.539,278.39,259.542,279.663,303.042,312.306,309.721,309.081,318.369,339.313,371.436,407.957,440.061,460.839,464.092,449.207,433.675,421.466,413.467,376.876,376.876,106.954,106.954,106.954
0.000874872	-4560291.83	0,4.52995e-06,1.02957e-05,1.76344e-05,2.6975e-05,3.88639e-05,5.39961e-05,7.32564e-05,9.77711e-05,0.000128973,0.000168688,0.000219237,0.000283575,0.000365466,0.000469697,0.000602362,0.000771219,0.000986142,0.0012597,0.00160788,0.00205104,0.00261511,0.00333305,0.00424685,0.00540994,0.00689033,0.00877457,0.0111728,0.0142254,0.0181106,0.0230558,0.0293501,inf	240.937,240.937,553.025,636.912,357.183,306.456,333.625,330.057,314.491,275.469,255.589,280.196,307.403,317.068,312.193,309.103,316.906,337.518,370.286,407.787,440.892,462.574,465.827,449.606,433.333,421.131,413.798,374.371,374.371,11.8218,11.8218,11.8218
0.000908481	-4560301.30	0,4.52995e-06,1.02957e-05,1.76344e-05,2.6975e-05,3.88639e-05,5.39961e-05,7.32564e-05,9.77711e-05,0.000128973,0.000168688,0.000219237,0.000283575,0.000365466,0.000469697,0.000602362,0.000771219,0.000986142,0.0012597,0.00160788,0.00205104,0.00261511,0.00333305,0.00424685,0.00540994,0.00689033,0.00877457,0.0111728,0.0142254,0.0181106,0.0230558,0.0293501,inf	238.405,238.405,546.977,645.492,342.02,297.508,332.428,331.567,315.851,272.141,251.702,280.774,311.767,321.921,314.986,309.678,316.123,336.38,369.564,407.677,441.421,463.816,467.23,450.382,434.759,425.613,426.772,438.803,438.803,3.37323,3.37323,3.37323
0.000940244	-4560069.77	0,4.52995e-06,1.02957e-05,1.76344e-05,2.6975e-05,3.88639e-05,5.39961e-05,7.32564e-05,9.77711e-05,0.000128973,0.000168688,0.000219237,0.000283575,0.000365466,0.000469697,0.000602362,0.000771219,0.000986142,0.0012597,0.00160788,0.00205104,0.00261511,0.00333305,0.00424685,0.00540994,0.00689033,0.00877457,0.0111728,0.0142254,0.0181106,0.0230558,0.0293501,inf	238.792,238.792,540.798,652.55,327.426,289.264,331.212,332.834,316.821,268.539,247.872,281.296,315.949,326.606,317.786,310.455,315.67,335.573,368.996,407.39,441.368,464.038,467.213,449.431,433.94,426.914,434.765,513.211,513.211,4.01606,4.01606,4.01606
0.000970691	-4559772.51	0,4.52995e-06,1.02957e-05,1.76344e-05,2.6975e-05,3.88639e-05,5.39961e-05,7.32564e-05,9.77711e-05,0.000128973,0.000168688,0.000219237,0.000283575,0.000365466,0.000469697,0.000602362,0.000771219,0.000986142,0.0012597,0.00160788,0.00205104,0.00261511,0.00333305,0.00424685,0.00540994,0.00689033,0.00877457,0.0111728,0.0142254,0.0181106,0.0230558,0.0293501,inf	240.983,240.983,534.818,658.911,313.782,281.939,330.272,334.135,317.611,264.8,244.126,281.721,319.868,331.018,320.478,311.324,315.458,335.064,368.645,407.131,441.084,463.718,466.311,447.233,431.181,424.832,435.813,562.34,562.34,3.54261,3.54261,3.54261
0.00099991	-4559565.06	0,4.52995e-06,1.02957e-05,1.76344e-05,2.6975e-05,3.88639e-05,5.39961e-05,7.32564e-05,9.77711e-05,0.000128973,0.000168688,0.000219237,0.000283575,0.000365466,0.000469697,0.000602362,0.000771219,0.000986142,0.0012597,0.00160788,0.00205104,0.00261511,0.00333305,0.00424685,0.00540994,0.00689033,0.00877457,0.0111728,0.0142254,0.0181106,0.0230558,0.0293501,inf	244.292,244.292,529.023,664.747,301.137,275.531,329.735,335.638,318.384,261.067,240.54,282.111,323.559,335.163,323.039,312.239,315.44,334.832,368.56,407.066,440.894,463.376,465.272,444.8,427.938,421.702,434.391,599.518,599.518,3.89648,3.89648,3.89648
0.001028	-4559388.25	0,4.52995e-06,1.02957e-05,1.76344e-05,2.6975e-05,3.88639e-05,5.39961e-05,7.32564e-05,9.77711e-05,0.000128973,0.000168688,0.000219237,0.000283575,0.000365466,0.000469697,0.000602362,0.000771219,0.000986142,0.0012597,0.00160788,0.00205104,0.00261511,0.00333305,0.00424685,0.00540994,0.00689033,0.00877457,0.0111728,0.0142254,0.0181106,0.0230558,0.0293501,inf	248.209,248.209,523.267,670.075,289.385,269.941,329.587,337.374,319.193,257.395,237.142,282.485,327.026,339.019,325.413,313.116,315.515,334.771,368.653,407.146,440.811,463.1,464.267,442.393,424.599,418.146,431.668,626.607,626.607,3.63544,3.63544,3.63544
0.00105501	-4559238.79	0,4.52995e-06,1.02957e-05,1.76344e-05,2.6975e-05,3.88639e-05,5.39961e-05,7.32564e-05,9.77711e-05,0.000128973,0.000168688,0.000219237,0.000283575,0.000365466,0.000469697,0.000602362,0.000771219,0.000986142,0.0012597,0.00160788,0.00205104,0.00261511,0.00333305,0.00424685,0.00540994,0.00689033,0.00877457,0.0111728,0.0142254,0.0181106,0.0230558,0.0293501,inf	252.394,252.394,517.534,674.914,278.445,265.051,329.779,339.342,320.06,253.826,233.954,282.875,330.3,342.6,327.586,313.915,315.621,334.807,368.852,407.317,440.813,462.909,463.366,440.133,421.376,414.547,428.443,648.284,648.284,3.83461,3.83461,3.83461
0.001081	-4559105.15	0,4.52995e-06,1.02957e-05,1.76344e-05,2.6975e-05,3.88639e-05,5.39961e-05,7.32564e-05,9.77711e-05,0.000128973,0.000168688,0.000219237,0.000283575,0.000365466,0.000469697,0.000602362,0.000771219,0.000986142,0.0012597,0.00160788,0.00205104,0.00261511,0.00333305,0.00424685,0.00540994,0.00689033,0.00877457,0.0111728,0.0142254,0.0181106,0.0230558,0.0293501,inf	256.691,256.691,511.873,679.243,268.24,260.753,330.264,341.528,320.988,250.384,230.99,283.31,333.417,345.936,329.568,314.622,315.723,334.892,369.106,407.536,440.863,462.784,462.567,438.038,418.317,411.007,424.943,665.077,665.077,3.69107,3.69107,3.69107
0.001106	-4558987.43	0,4.52995e-06,1.02957e-05,1.76344e-05,2.6975e-05,3.88639e-05,5.39961e-05,7.32564e-05,9.77711e-05,0.000128973,0.000168688,0.000219237,0.000283575,0.000365466,0.000469697,0.000602362,0.000771219,0.000986142,0.0012597,0.00160788,0.00205104,0.00261511,0.00333305,0.00424685,0.00540994,0.00689033,0.00877457,0.0111728,0.0142254,0.0181106,0.0230558,0.0293501,inf	260.853,260.853,506.271,683.061,258.676,256.954,330.973,343.892,321.968,247.077,228.251,283.808,336.409,349.056,331.376,315.238,315.809,335.001,369.386,407.773,440.941,462.711,461.868,436.115,415.457,407.616,421.393,679.029,679.029,3.80414,3.80414,3.80414
0.00113006	-4558881.01	0,4.52995e-06,1.02957e-05,1.76344e-05,2.6975e-05,3.88639e-05,5.39961e-05,7.32564e-05,9.77711e-05,0.000128973,0.000168688,0.000219237,0.000283575,0.000365466,0.000469697,0.000602362,0.000771219,0.000986142,0.0012597,0.00160788,0.00205104,0.00261511,0.00333305,0.00424685,0.00540994,0.00689033,0.00877457,0.0111728,0.0142254,0.0181106,0.0230558,0.0293501,inf	264.93,264.93,500.773,686.462,249.696,253.573,331.85,346.39,322.979,243.902,225.729,284.382,339.303,351.992,333.03,315.768,315.871,335.119,369.673,408.011,441.028,462.671,461.252,434.35,412.788,404.383,417.846,690.338,690.338,3.72632,3.72632,3.72632
0.00115323	-4558785.77	0,4.52995e-06,1.02957e-05,1.76344e-05,2.6975e-05,3.88639e-05,5.39961e-05,7.32564e-05,9.77711e-05,0.000128973,0.000168688,0.000219237,0.000283575,0.000365466,0.000469697,0.000602362,0.000771219,0.000986142,0.0012597,0.00160788,0.00205104,0.00261511,0.00333305,0.00424685,0.00540994,0.00689033,0.00877457,0.0111728,0.0142254,0.0181106,0.0230558,0.0293501,inf	268.794,268.794,495.46,689.466,241.246,250.54,332.846,348.99,323.999,240.854,223.413,285.033,342.117,354.766,334.549,316.223,315.91,335.239,369.958,408.239,441.115,462.657,460.71,432.734,410.308,401.329,414.376,700.006,700.006,3.7911,3.7911,3.7911
0.00117554	-4558699.22	0,4.52995e-06,1.02957e-05,1.76344e-05,2.6975e-05,3.88639e-05,5.39961e-05,7.32564e-05,9.77711e-05,0.000128973,0.000168688,0.000219237,0.000283575,0.000365466,0.000469697,0.000602362,0.000771219,0.000986142,0.0012597,0.00160788,0.00205104,0.00261511,0.00333305,0.00424685,0.00540994,0.00689033,0.00877457,0.0111728,0.0142254,0.0181106,0.0230558,0.0293501,inf	272.402,272.402,490.428,692.105,233.28,247.803,333.92,351.653,325.007,237.921,221.287,285.76,344.863,357.398,335.946,316.609,315.926,335.356,370.235,408.452,441.195,462.657,460.23,431.248,408.001,398.442,410.993,708.132,708.132,3.75005,3.75005,3.75005
0.00119703	-4558621.08	0,4.52995e-06,1.02957e-05,1.76344e-05,2.6975e-05,3.88639e-05,5.39961e-05,7.32564e-05,9.77711e-05,0.000128973,0.000168688,0.000219237,0.000283575,0.000365466,0.000469697,0.000602362,0.000771219,0.000986142,0.0012597,0.00160788,0.00205104,0.00261511,0.00333305,0.00424685,0.00540994,0.00689033,0.00877457,0.0111728,0.0142254,0.0181106,0.0230558,0.0293501,inf	275.759,275.759,485.71,694.438,225.76,245.326,335.041,354.36,325.99,235.096,219.337,286.559,347.55,359.904,337.235,316.935,315.924,335.471,370.501,408.648,441.263,462.666,459.802,429.884,405.856,395.723,407.722,715.242,715.242,3.78778,3.78778,3.78778
0.00121774	-4558549.82	0,4.52995e-06,1.02957e-05,1.76344e-05,2.6975e-05,3.88639e-05,5.39961e-05,7.32564e-05,9.77711e-05,0.000128973,0.000168688,0.000219237,0.000283575,0.000365466,0.000469697,0.000602362,0.000771219,0.000986142,0.0012597,0.00160788,0.00205104,0.00261511,0.00333305,0.00424685,0.00540994,0.00689033,0.00877457,0.0111728,0.0142254,0.0181106,0.0230558,0.0293501,inf	278.842,278.842,481.316,696.535,218.656,243.064,336.188,357.086,326.932,232.369,217.548,287.423,350.182,362.294,338.428,317.208,315.904,335.582,370.756,408.826,441.318,462.68,459.42,428.625,403.86,393.158,404.559,721.397,721.397,3.76722,3.76722,3.76722
0.0012377	-4558485.08	0,4.52995e-06,1.02957e-05,1.76344e-05,2.6975e-05,3.88639e-05,5.39961e-05,7.32564e-05,9.77711e-05,0.000128973,0.000168688,0.000219237,0.000283575,0.000365466,0.000469697,0.000602362,0.000771219,0.000986142,0.0012597,0.00160788,0.00205104,0.00261511,0.00333305,0.00424685,0.00540994,0.00689033,0.00877457,0.0111728,0.0142254,0.0181106,0.0230558,0.0293501,inf	281.713,281.713,477.319,698.364,211.929,240.993,337.345,359.814,327.822,229.734,215.903,288.346,352.762,364.578,339.534,317.434,315.87,335.689,371,408.984,441.36,462.696,459.076,427.464,402.001,390.74,401.512,726.886,726.886,3.78981,3.78981,3.78981
