time_index	left_time_boundary	right_time_boundary	lambda
0	0	6.09576e-06	284.796
1	6.09576e-06	1.63638e-05	284.796
2	1.63638e-05	3.36598e-05	409.806
3	3.36598e-05	6.27943e-05	116.387
4	6.27943e-05	0.00011187	301.514
5	0.00011187	0.000194536	272.666
6	0.000194536	0.000333782	356.097
7	0.000333782	0.000568337	336.349
8	0.000568337	0.000963435	337.832
9	0.000963435	0.00162896	371.517
10	0.00162896	0.00275	414.797
11	0.00275	0.00463835	440.914
12	0.00463835	0.0078192	432.574
13	0.0078192	0.0131772	227.431
14	0.0131772	0.0222025	227.431
15	0.0222025	inf	227.431
