time_index	left_time_boundary	right_time_boundary	lambda
0	0	4.38219e-05	1920.35
1	4.38219e-05	9.50825e-05	1920.35
2	9.50825e-05	0.000155045	8.27271
3	0.000155045	0.000225185	173.589
4	0.000225185	0.000307232	143.136
5	0.000307232	0.000403207	685.61
6	0.000403207	0.000515473	803.808
7	0.000515473	0.000646796	447.458
8	0.000646796	0.000800412	262.837
9	0.000800412	0.000980104	240.315
10	0.000980104	0.0011903	269.525
11	0.0011903	0.00143617	389.785
12	0.00143617	0.00172379	411.229
13	0.00172379	0.00206022	423.61
14	0.00206022	0.00245376	384.401
15	0.00245376	0.00291411	379.469
16	0.00291411	0.0034526	368.977
17	0.0034526	0.0040825	319.331
18	0.0040825	0.00481933	352.178
19	0.00481933	0.00568123	460.239
20	0.00568123	0.00668945	489.231
21	0.00668945	0.0078688	454.744
22	0.0078688	0.00924835	251.833
23	0.00924835	0.0108621	193.979
24	0.0108621	0.0127497	174.956
25	0.0127497	0.0149578	122.655
26	0.0149578	0.0175407	109.611
27	0.0175407	0.0205621	164.185
28	0.0205621	0.0240963	164.185
29	0.0240963	0.0282305	80422.3
30	0.0282305	0.0330665	80422.3
31	0.0330665	inf	80422.3
