LogLikelihood = -756460.22857206966728

y0 6.6096865311080340342e-08
y0_prime 0
y1 0.20084210602514135369
y1_prime 0
y2 8.308442814169586299
y2_prime 0
y3 7.7781596004201212224
y3_prime 0
rho 9.9999999999999997989e-13
rho.alpha 0.050000000000000002776
r_ii 1
theta 0.0021270665771838661792
