LogLikelihood = -168430.80384462911752

y0 6.8030361347674738635e-08
y0_prime 0
y1 1.3240946535643689508
y1_prime 0
y2 2.474838154486912245
y2_prime 0
y3 14.324214732556553642
y3_prime 0
rho 4.0960327198622543676
theta 0.0023949828664071776997
