LogLikelihood = -1473593.1136282964144

y0 1.4581104921202171936e-05
y0_prime 0
y1 2.4009120040524010165
y1_prime 0
y2 0.14558891753116265377
y2_prime 0
y3 2.3452739500337642653
y3_prime 0
rho 0.0027123338264751608098
rho.alpha 0.25816563980309814585
r_ii 0.99999237283844699675
theta 0.0047859948638767323137
