LogLikelihood = -318418.2609781055362

y0 0.00036024121715796643623
y0_prime 0
y1 1.8493893682647883914
y1_prime 0
y2 0.67714189848061601129
y2_prime 0
y3 1.8140586483837313203
y3_prime 0
rho 0.0038576555873434856779
rho.alpha 2.6388992101094670417
r_ii 1
theta 0.0051497559428703605644
