0.000568928	-4435854.87	0,4.46433e-06,1.01466e-05,1.73789e-05,2.65843e-05,3.83009e-05,5.32139e-05,7.21953e-05,9.63548e-05,0.000127105,0.000166244,0.000216061,0.000279468,0.000360172,0.000462893,0.000593637,0.000760048,0.000971857,0.00124145,0.00158458,0.00202133,0.00257722,0.00328477,0.00418533,0.00533157,0.00679051,0.00864746,0.011011,0.0140193,0.0178483,0.0227219,0.028925,inf	1650.9,1650.9,375.124,465.785,486.668,480.694,463.337,462.454,451.808,422.138,405.414,388.631,385.758,385.849,383.744,387.634,397.911,407.097,411.872,412.122,411.172,410.326,409.403,410.434,414.94,415.095,408.826,407.457,407.457,479.82,479.82,479.82
0.000529031	-4435230.19	0,4.46433e-06,1.01466e-05,1.73789e-05,2.65843e-05,3.83009e-05,5.32139e-05,7.21953e-05,9.63548e-05,0.000127105,0.000166244,0.000216061,0.000279468,0.000360172,0.000462893,0.000593637,0.000760048,0.000971857,0.00124145,0.00158458,0.00202133,0.00257722,0.00328477,0.00418533,0.00533157,0.00679051,0.00864746,0.011011,0.0140193,0.0178483,0.0227219,0.028925,inf	2127.47,2127.47,290.302,463.47,518.76,517.994,491.483,499.607,490.401,438.183,411.237,380.994,376.406,376.517,369.908,374.18,391.652,407.906,416.27,415.982,413.696,411.959,409.951,411.979,421.77,422.211,408.642,405.325,405.325,583.324,583.324,583.324
0.000493708	-4434704.72	0,4.46433e-06,1.01466e-05,1.73789e-05,2.65843e-05,3.83009e-05,5.32139e-05,7.21953e-05,9.63548e-05,0.000127105,0.000166244,0.000216061,0.000279468,0.000360172,0.000462893,0.000593637,0.000760048,0.000971857,0.00124145,0.00158458,0.00202133,0.00257722,0.00328477,0.00418533,0.00533157,0.00679051,0.00864746,0.011011,0.0140193,0.0178483,0.0227219,0.028925,inf	2335.85,2335.85,216.05,446.644,534.408,539.767,505.089,524.849,524.382,453.608,420.37,378.558,373.057,373.801,361.406,363.908,386.702,408.735,420.101,418.946,415.251,412.773,409.549,412.442,428.193,428.98,407.088,401.483,401.483,758.636,758.636,758.636
0.000462688	-4434265.73	0,4.46433e-06,1.01466e-05,1.73789e-05,2.65843e-05,3.83009e-05,5.32139e-05,7.21953e-05,9.63548e-05,0.000127105,0.000166244,0.000216061,0.000279468,0.000360172,0.000462893,0.000593637,0.000760048,0.000971857,0.00124145,0.00158458,0.00202133,0.00257722,0.00328477,0.00418533,0.00533157,0.00679051,0.00864746,0.011011,0.0140193,0.0178483,0.0227219,0.028925,inf	2471.09,2471.09,159.697,428.867,545.164,554.729,510.483,541.395,554.291,467.529,430.664,378.561,372.712,375.037,356.173,355.477,382.34,409.25,423.296,421.163,416.127,413.155,408.572,412.1,434.396,435.536,404.354,396.441,396.441,1167.49,1167.49,1167.49
0.000435659	-4433904.66	0,4.46433e-06,1.01466e-05,1.73789e-05,2.65843e-05,3.83009e-05,5.32139e-05,7.21953e-05,9.63548e-05,0.000127105,0.000166244,0.000216061,0.000279468,0.000360172,0.000462893,0.000593637,0.000760048,0.000971857,0.00124145,0.00158458,0.00202133,0.00257722,0.00328477,0.00418533,0.00533157,0.00679051,0.00864746,0.011011,0.0140193,0.0178483,0.0227219,0.028925,inf	2582.68,2582.68,118.05,413.234,555.245,566.848,511.128,551.498,580.699,479.717,441.099,379.651,373.806,378.804,353.147,348.265,378.313,409.389,425.904,422.791,416.538,413.37,407.271,411.131,440.469,441.928,400.57,390.744,390.744,3174.44,3174.44,3174.44
0.000435651	-4433612.80	0,4.46433e-06,1.01466e-05,1.73789e-05,2.65843e-05,3.83009e-05,5.32139e-05,7.21953e-05,9.63548e-05,0.000127105,0.000166244,0.000216061,0.000279468,0.000360172,0.000462893,0.000593637,0.000760048,0.000971857,0.00124145,0.00158458,0.00202133,0.00257722,0.00328477,0.00418533,0.00533157,0.00679051,0.00864746,0.011011,0.0140193,0.0178483,0.0227219,0.028925,inf	2715.41,2715.41,88.3945,404.668,573.247,585.585,515.843,564.669,613.647,498.19,458.907,387.738,382.152,391.465,358.22,347.957,381.095,416.431,435.596,431.138,423.149,419.448,410.82,414.038,450.966,452.127,398.82,387.198,387.198,64883.4,64883.4,64883.4
0.000435651	-4433594.33	0,4.46433e-06,1.01466e-05,1.73789e-05,2.65843e-05,3.83009e-05,5.32139e-05,7.21953e-05,9.63548e-05,0.000127105,0.000166244,0.000216061,0.000279468,0.000360172,0.000462893,0.000593637,0.000760048,0.000971857,0.00124145,0.00158458,0.00202133,0.00257722,0.00328477,0.00418533,0.00533157,0.00679051,0.00864746,0.011011,0.0140193,0.0178483,0.0227219,0.028925,inf	2715.41,2715.41,65.3004,390.329,580.501,591.933,508.711,563.765,622.648,498.19,458.907,387.738,382.152,391.465,358.22,344.268,380.087,419.017,435.976,431.138,423.149,419.448,410.82,414.038,450.966,452.127,395.338,383.36,383.36,64886.5,64886.5,64886.5
0.000435651	-4433594.50	0,4.46433e-06,1.01466e-05,1.73789e-05,2.65843e-05,3.83009e-05,5.32139e-05,7.21953e-05,9.63548e-05,0.000127105,0.000166244,0.000216061,0.000279468,0.000360172,0.000462893,0.000593637,0.000760048,0.000971857,0.00124145,0.00158458,0.00202133,0.00257722,0.00328477,0.00418533,0.00533157,0.00679051,0.00864746,0.011011,0.0140193,0.0178483,0.0227219,0.028925,inf	2715.41,2715.41,48.5435,378.221,588.639,598.033,501.127,561.884,630.321,498.19,458.907,387.738,382.152,391.465,358.22,340.924,379.184,421.507,436.198,431.138,423.149,419.448,410.82,414.038,450.966,452.127,392.466,380.114,380.114,64889.1,64889.1,64889.1
0.000435651	-4433594.73	0,4.46433e-06,1.01466e-05,1.73789e-05,2.65843e-05,3.83009e-05,5.32139e-05,7.21953e-05,9.63548e-05,0.000127105,0.000166244,0.000216061,0.000279468,0.000360172,0.000462893,0.000593637,0.000760048,0.000971857,0.00124145,0.00158458,0.00202133,0.00257722,0.00328477,0.00418533,0.00533157,0.00679051,0.00864746,0.011011,0.0140193,0.0178483,0.0227219,0.028925,inf	2715.41,2715.41,36.2488,367.66,597.374,603.681,493.351,559.391,637.08,498.19,458.907,387.738,382.152,391.465,358.22,337.88,378.369,423.904,436.294,431.138,423.149,419.448,410.82,414.038,450.966,452.127,390.101,377.358,377.358,64891.3,64891.3,64891.3
0.000435651	-4433594.96	0,4.46433e-06,1.01466e-05,1.73789e-05,2.65843e-05,3.83009e-05,5.32139e-05,7.21953e-05,9.63548e-05,0.000127105,0.000166244,0.000216061,0.000279468,0.000360172,0.000462893,0.000593637,0.000760048,0.000971857,0.00124145,0.00158458,0.00202133,0.00257722,0.00328477,0.00418533,0.00533157,0.00679051,0.00864746,0.011011,0.0140193,0.0178483,0.0227219,0.028925,inf	2715.41,2715.41,27.1443,358.108,606.523,606.821,485.559,556.516,644.149,498.19,458.907,387.738,382.152,391.465,358.22,335.101,377.627,426.203,436.294,431.138,423.149,419.448,410.82,414.038,450.966,452.127,388.158,375.007,375.007,64893.2,64893.2,64893.2
0.000435651	-4433595.19	0,4.46433e-06,1.01466e-05,1.73789e-05,2.65843e-05,3.83009e-05,5.32139e-05,7.21953e-05,9.63548e-05,0.000127105,0.000166244,0.000216061,0.000279468,0.000360172,0.000462893,0.000593637,0.000760048,0.000971857,0.00124145,0.00158458,0.00202133,0.00257722,0.00328477,0.00418533,0.00533157,0.00679051,0.00864746,0.011011,0.0140193,0.0178483,0.0227219,0.028925,inf	2715.41,2715.41,20.3889,349.469,616.25,607.819,477.929,553.373,651.328,498.19,458.907,387.738,382.152,391.465,358.22,332.556,376.943,428.311,436.294,431.138,423.149,419.448,410.82,414.038,450.966,452.127,386.568,372.992,372.992,64894.8,64894.8,64894.8
0.000435651	-4433595.39	0,4.46433e-06,1.01466e-05,1.73789e-05,2.65843e-05,3.83009e-05,5.32139e-05,7.21953e-05,9.63548e-05,0.000127105,0.000166244,0.000216061,0.000279468,0.000360172,0.000462893,0.000593637,0.000760048,0.000971857,0.00124145,0.00158458,0.00202133,0.00257722,0.00328477,0.00418533,0.00533157,0.00679051,0.00864746,0.011011,0.0140193,0.0178483,0.0227219,0.028925,inf	2715.41,2715.41,15.3429,341.602,625.566,607.819,470.579,550.059,658.468,498.19,458.907,387.738,382.152,391.465,358.22,330.221,376.314,430.247,436.294,431.138,423.149,419.448,410.82,414.038,450.966,452.127,385.273,371.256,371.256,64896.1,64896.1,64896.1
0.000435651	-4433595.56	0,4.46433e-06,1.01466e-05,1.73789e-05,2.65843e-05,3.83009e-05,5.32139e-05,7.21953e-05,9.63548e-05,0.000127105,0.000166244,0.000216061,0.000279468,0.000360172,0.000462893,0.000593637,0.000760048,0.000971857,0.00124145,0.00158458,0.00202133,0.00257722,0.00328477,0.00418533,0.00533157,0.00679051,0.00864746,0.011011,0.0140193,0.0178483,0.0227219,0.028925,inf	2715.41,2715.41,11.5674,334.433,633.542,607.819,463.584,546.633,665.478,498.19,458.907,387.738,382.152,391.465,358.22,328.076,375.737,432.024,436.294,431.138,423.149,419.448,410.82,414.038,450.966,452.127,384.223,369.753,369.753,64897.2,64897.2,64897.2
0.000435651	-4433595.70	0,4.46433e-06,1.01466e-05,1.73789e-05,2.65843e-05,3.83009e-05,5.32139e-05,7.21953e-05,9.63548e-05,0.000127105,0.000166244,0.000216061,0.000279468,0.000360172,0.000462893,0.000593637,0.000760048,0.000971857,0.00124145,0.00158458,0.00202133,0.00257722,0.00328477,0.00418533,0.00533157,0.00679051,0.00864746,0.011011,0.0140193,0.0178483,0.0227219,0.028925,inf	2715.41,2715.41,8.736,327.914,640.515,607.819,456.954,543.124,672.328,498.19,458.907,387.738,382.152,391.465,358.22,326.106,375.206,433.658,436.294,431.138,423.149,419.448,410.82,414.038,450.966,452.127,383.379,368.445,368.445,64898.2,64898.2,64898.2
0.000435651	-4433595.82	0,4.46433e-06,1.01466e-05,1.73789e-05,2.65843e-05,3.83009e-05,5.32139e-05,7.21953e-05,9.63548e-05,0.000127105,0.000166244,0.000216061,0.000279468,0.000360172,0.000462893,0.000593637,0.000760048,0.000971857,0.00124145,0.00158458,0.00202133,0.00257722,0.00328477,0.00418533,0.00533157,0.00679051,0.00864746,0.011011,0.0140193,0.0178483,0.0227219,0.028925,inf	2715.41,2715.41,6.61022,322.024,646.468,607.819,450.69,539.56,678.994,498.19,458.907,387.738,382.152,391.465,358.22,324.293,374.718,435.16,436.294,431.138,423.149,419.448,410.82,414.038,450.966,452.127,382.706,367.299,367.299,64899.1,64899.1,64899.1
0.000435651	-4433595.91	0,4.46433e-06,1.01466e-05,1.73789e-05,2.65843e-05,3.83009e-05,5.32139e-05,7.21953e-05,9.63548e-05,0.000127105,0.000166244,0.000216061,0.000279468,0.000360172,0.000462893,0.000593637,0.000760048,0.000971857,0.00124145,0.00158458,0.00202133,0.00257722,0.00328477,0.00418533,0.00533157,0.00679051,0.00864746,0.011011,0.0140193,0.0178483,0.0227219,0.028925,inf	2715.41,2715.41,5.00901,316.693,651.658,607.819,444.801,535.965,685.453,498.19,458.907,387.738,382.152,391.465,358.22,322.625,374.269,436.542,436.294,431.138,423.149,419.448,410.82,414.038,450.966,452.127,382.177,366.29,366.29,64899.8,64899.8,64899.8
0.000435651	-4433595.98	0,4.46433e-06,1.01466e-05,1.73789e-05,2.65843e-05,3.83009e-05,5.32139e-05,7.21953e-05,9.63548e-05,0.000127105,0.000166244,0.000216061,0.000279468,0.000360172,0.000462893,0.000593637,0.000760048,0.000971857,0.00124145,0.00158458,0.00202133,0.00257722,0.00328477,0.00418533,0.00533157,0.00679051,0.00864746,0.011011,0.0140193,0.0178483,0.0227219,0.028925,inf	2715.41,2715.41,3.80302,311.895,656.195,607.819,439.279,532.35,691.703,498.19,458.907,387.738,382.152,391.465,358.22,321.088,373.858,437.815,436.294,431.138,423.149,419.448,410.82,414.038,450.966,452.127,381.767,365.395,365.395,64900.5,64900.5,64900.5
0.000435651	-4433596.03	0,4.46433e-06,1.01466e-05,1.73789e-05,2.65843e-05,3.83009e-05,5.32139e-05,7.21953e-05,9.63548e-05,0.000127105,0.000166244,0.000216061,0.000279468,0.000360172,0.000462893,0.000593637,0.000760048,0.000971857,0.00124145,0.00158458,0.00202133,0.00257722,0.00328477,0.00418533,0.00533157,0.00679051,0.00864746,0.011011,0.0140193,0.0178483,0.0227219,0.028925,inf	2715.41,2715.41,2.88978,307.581,660.178,607.819,434.113,528.735,697.731,498.19,458.907,387.738,382.152,391.465,358.22,319.671,373.479,438.986,436.294,431.138,423.149,419.448,410.82,414.038,450.966,452.127,381.458,364.595,364.595,64901,64901,64901
0.000435651	-4433596.06	0,4.46433e-06,1.01466e-05,1.73789e-05,2.65843e-05,3.83009e-05,5.32139e-05,7.21953e-05,9.63548e-05,0.000127105,0.000166244,0.000216061,0.000279468,0.000360172,0.000462893,0.000593637,0.000760048,0.000971857,0.00124145,0.00158458,0.00202133,0.00257722,0.00328477,0.00418533,0.00533157,0.00679051,0.00864746,0.011011,0.0140193,0.0178483,0.0227219,0.028925,inf	2715.41,2715.41,2.19889,303.724,663.643,607.819,429.297,525.127,703.539,498.19,458.907,387.738,382.152,391.465,358.22,318.364,373.132,440.066,436.294,431.138,423.149,419.448,410.82,414.038,450.966,452.127,381.232,363.877,363.877,64901.5,64901.5,64901.5
0.000435651	-4433596.07	0,4.46433e-06,1.01466e-05,1.73789e-05,2.65843e-05,3.83009e-05,5.32139e-05,7.21953e-05,9.63548e-05,0.000127105,0.000166244,0.000216061,0.000279468,0.000360172,0.000462893,0.000593637,0.000760048,0.000971857,0.00124145,0.00158458,0.00202133,0.00257722,0.00328477,0.00418533,0.00533157,0.00679051,0.00864746,0.011011,0.0140193,0.0178483,0.0227219,0.028925,inf	2715.41,2715.41,1.67471,300.286,666.695,607.819,424.812,521.536,709.129,498.19,458.907,387.738,382.152,391.465,358.22,317.157,372.813,440.066,437.076,431.138,423.149,419.448,410.82,414.038,450.966,452.127,381.076,363.227,363.227,64901.9,64901.9,64901.9
