AIC = 2891120.114305395633

y0 0.96070387090953823783
y0_prime 0
y1 1.153871810978962964
y1_prime 0
y2 0.83666389370165350492
y2_prime 0
y3 1.7424689017807066804
y3_prime 0
rho 0.00020221679055131461353
theta 0.004807953373712621839
