AIC = 564528.37693561415654

y0 1.0150535019171000872
y0_prime 0
y1 1.1006578245456217768
y1_prime 0
y2 0.75343240736961347714
y2_prime 0
y3 1.7600816033801807148
y3_prime 0
rho 0.00025356415503367905071
rho.alpha 0.84887791076859042683
r_ii 0.99993920273608560834
theta 0.0046859850964113079069
