LogLikelihood = -56261.421652243421704

y0 3.1660830861574625413e-10
y0_prime 0
y1 1.4651355415098825663
y1_prime 0
y2 1.688752827837630921
y2_prime 0
y3 2.2779141587668663149
y3_prime 0
rho 0.48064685021088754402
theta 0.00067907302927931875117
