LogLikelihood = -334143.24781904218253

y0 8.316085313039756433e-12
y0_prime 0
y1 7.865372712119570231
y1_prime 0
y2 4.3982683726679169161e-05
y2_prime 0
y3 2.8676124785293657382
y3_prime 0
rho 7.1126886711323322578e-08
theta 0.00085961894073801540898
