AIC = 2529799.9614314180799

y0 0.00013177863785004473914
y0_prime 0
y1 0.9512816215210992965
y1_prime 0
y2 0.78091507551537142628
y2_prime 0
y3 2.5718622703923919026
y3_prime 0
rho 0.0021129926537391983607
rho.alpha 0.16869677589263826212
r_ii 0.9999965844017594252
theta 0.0039139771440663039329
