8.51765e-06	-295692.60	0,5.08198e-08,1.38999e-07,2.92004e-07,5.57489e-07,1.01814e-06,1.81744e-06,3.20435e-06,5.61082e-06,9.78641e-06,1.70316e-05,2.96032e-05,5.14166e-05,8.9266e-05,0.00015494,0.000268894,inf	619.385,619.385,1171.19,2055.22,3583.55,5817.56,8468.41,13428.1,23143.8,39493,46377.4,40896.4,37459.6,56097.6,56097.6,56097.6
8.99305e-06	-295535.80	0,5.08198e-08,1.38999e-07,2.92004e-07,5.57489e-07,1.01814e-06,1.81744e-06,3.20435e-06,5.61082e-06,9.78641e-06,1.70316e-05,2.96032e-05,5.14166e-05,8.9266e-05,0.00015494,0.000268894,inf	32.1468,32.1468,87.7184,280.476,861.689,2116.42,3513.62,7073.92,17892.7,40851.4,52895.6,45204.4,39523.7,128578,128578,128578
9.2555e-06	-295518.27	0,5.08198e-08,1.38999e-07,2.92004e-07,5.57489e-07,1.01814e-06,1.81744e-06,3.20435e-06,5.61082e-06,9.78641e-06,1.70316e-05,2.96032e-05,5.14166e-05,8.9266e-05,0.00015494,0.000268894,inf	32.146,32.146,32.146,55.6152,386.854,1372.02,2125.19,4323.54,14778.2,41125.6,55774.2,47090.8,39894.5,1.33254e+06,1.33254e+06,1.33254e+06
9.2555e-06	-295523.19	0,5.08198e-08,1.38999e-07,2.92004e-07,5.57489e-07,1.01814e-06,1.81744e-06,3.20435e-06,5.61082e-06,9.78641e-06,1.70316e-05,2.96032e-05,5.14166e-05,8.9266e-05,0.00015494,0.000268894,inf	32.146,32.146,32.146,32.146,262.943,1314.99,1692.74,2923.73,12759.6,41236.4,56743.3,47557.3,39589.6,4.00099e+06,4.00099e+06,4.00099e+06
