0.0006801	-48226357.91	0,1.0861e-05,2.84561e-05,5.69607e-05,0.000103139,0.000177949,0.000299145,0.000495485,0.000813562,0.00132886,0.00216365,0.00351604,0.00570696,0.00925632,0.0150064,0.0243217,inf	38.4836,38.4836,92.5049,171.238,242.374,226.227,237.241,293.669,343.066,348.132,419.446,476.651,446.191,411.693,411.693,411.693
0.000700497	-48203020.81	0,1.0861e-05,2.84561e-05,5.69607e-05,0.000103139,0.000177949,0.000299145,0.000495485,0.000813562,0.00132886,0.00216365,0.00351604,0.00570696,0.00925632,0.0150064,0.0243217,inf	6.1275,6.1275,34.6546,116.858,229.175,185.615,188.033,268.652,338.096,323.721,428.331,548.443,498.37,425.523,425.523,425.523
0.00071637	-48194690.10	0,1.0861e-05,2.84561e-05,5.69607e-05,0.000103139,0.000177949,0.000299145,0.000495485,0.000813562,0.00132886,0.00216365,0.00351604,0.00570696,0.00925632,0.0150064,0.0243217,inf	1.15794,1.15794,15.1799,91.4063,244.213,171.387,164.122,261.75,344.636,304.511,424.295,602.667,539.022,424.921,424.921,424.921
0.00072897	-48190731.57	0,1.0861e-05,2.84561e-05,5.69607e-05,0.000103139,0.000177949,0.000299145,0.000495485,0.000813562,0.00132886,0.00216365,0.00351604,0.00570696,0.00925632,0.0150064,0.0243217,inf	0.380588,0.380588,7.00482,74.063,266.053,164.856,149.361,261.107,356.052,288.946,415.258,644.897,570.408,414.138,414.138,414.138
0.000739346	-48188460.60	0,1.0861e-05,2.84561e-05,5.69607e-05,0.000103139,0.000177949,0.000299145,0.000495485,0.000813562,0.00132886,0.00216365,0.00351604,0.00570696,0.00925632,0.0150064,0.0243217,inf	0.380588,0.380588,3.28482,60.1887,287.673,160.671,138.569,262.346,369.493,276.002,404.703,678.858,594.385,397.249,397.249,397.249
0.000748177	-48186995.51	0,1.0861e-05,2.84561e-05,5.69607e-05,0.000103139,0.000177949,0.000299145,0.000495485,0.000813562,0.00132886,0.00216365,0.00351604,0.00570696,0.00925632,0.0150064,0.0243217,inf	0.380588,0.380588,1.54918,48.6671,306.847,157.254,129.852,263.706,383.576,265.009,394.134,706.96,612.415,377.458,377.458,377.458
0.000755886	-48185980.14	0,1.0861e-05,2.84561e-05,5.69607e-05,0.000103139,0.000177949,0.000299145,0.000495485,0.000813562,0.00132886,0.00216365,0.00351604,0.00570696,0.00925632,0.0150064,0.0243217,inf	0.380588,0.380588,0.732418,39.1308,323.192,154.211,122.468,264.512,397.597,255.513,384.173,730.781,625.662,356.981,356.981,356.981
0.000762742	-48185244.29	0,1.0861e-05,2.84561e-05,5.69607e-05,0.000103139,0.000177949,0.000299145,0.000495485,0.000813562,0.00132886,0.00216365,0.00351604,0.00570696,0.00925632,0.0150064,0.0243217,inf	0.380588,0.380588,0.380587,31.324,336.964,151.493,116.091,264.568,411.193,247.2,375.037,751.38,635.071,337.197,337.197,337.197
0.000768922	-48184695.57	0,1.0861e-05,2.84561e-05,5.69607e-05,0.000103139,0.000177949,0.000299145,0.000495485,0.000813562,0.00132886,0.00216365,0.00351604,0.00570696,0.00925632,0.0150064,0.0243217,inf	0.380588,0.380588,0.380587,24.99,348.486,149.097,110.536,263.87,424.157,239.847,366.85,769.438,641.403,318.873,318.873,318.873
0.000774543	-48184280.52	0,1.0861e-05,2.84561e-05,5.69607e-05,0.000103139,0.000177949,0.000299145,0.000495485,0.000813562,0.00132886,0.00216365,0.00351604,0.00570696,0.00925632,0.0150064,0.0243217,inf	0.380588,0.380588,0.380587,19.893,358.264,147.095,105.728,262.539,436.437,233.269,359.46,785.517,645.317,302.391,302.391,302.391
0.000779692	-48183961.41	0,1.0861e-05,2.84561e-05,5.69607e-05,0.000103139,0.000177949,0.000299145,0.000495485,0.000813562,0.00132886,0.00216365,0.00351604,0.00570696,0.00925632,0.0150064,0.0243217,inf	0.380588,0.380588,0.380587,15.8098,366.56,145.47,101.575,260.685,448.01,227.338,352.801,799.992,647.337,287.864,287.864,287.864
0.000784433	-48183714.68	0,1.0861e-05,2.84561e-05,5.69607e-05,0.000103139,0.000177949,0.000299145,0.000495485,0.000813562,0.00132886,0.00216365,0.00351604,0.00570696,0.00925632,0.0150064,0.0243217,inf	0.380588,0.380588,0.380587,12.5494,373.595,144.195,98.0033,258.422,458.883,221.954,346.798,813.142,647.883,275.249,275.249,275.249
0.000788813	-48183523.64	0,1.0861e-05,2.84561e-05,5.69607e-05,0.000103139,0.000177949,0.000299145,0.000495485,0.000813562,0.00132886,0.00216365,0.00351604,0.00570696,0.00925632,0.0150064,0.0243217,inf	0.380588,0.380588,0.380587,9.95164,379.548,143.237,94.9463,255.85,469.081,217.035,341.377,825.172,647.289,264.422,264.422,264.422
0.00079287	-48183375.97	0,1.0861e-05,2.84561e-05,5.69607e-05,0.000103139,0.000177949,0.000299145,0.000495485,0.000813562,0.00132886,0.00216365,0.00351604,0.00570696,0.00925632,0.0150064,0.0243217,inf	0.380588,0.380588,0.380587,7.88587,384.569,142.56,92.3456,253.053,478.642,212.519,336.47,836.242,645.817,255.217,255.217,255.217
0.000796635	-48183262.31	0,1.0861e-05,2.84561e-05,5.69607e-05,0.000103139,0.000177949,0.000299145,0.000495485,0.000813562,0.00132886,0.00216365,0.00351604,0.00570696,0.00925632,0.0150064,0.0243217,inf	0.380588,0.380588,0.380587,6.24565,388.785,142.125,90.1486,250.1,487.604,208.353,332.016,846.475,643.67,247.454,247.454,247.454
0.000800132	-48183175.41	0,1.0861e-05,2.84561e-05,5.69607e-05,0.000103139,0.000177949,0.000299145,0.000495485,0.000813562,0.00132886,0.00216365,0.00351604,0.00570696,0.00925632,0.0150064,0.0243217,inf	0.380588,0.380588,0.380587,4.94517,392.301,141.895,88.3084,247.047,496.01,204.495,327.961,855.972,641.004,240.956,240.956,240.956
0.000803383	-48183109.57	0,1.0861e-05,2.84561e-05,5.69607e-05,0.000103139,0.000177949,0.000299145,0.000495485,0.000813562,0.00132886,0.00216365,0.00351604,0.00570696,0.00925632,0.0150064,0.0243217,inf	0.380588,0.380588,0.380587,3.91469,395.217,141.837,86.7834,243.936,503.9,200.908,324.261,864.81,637.939,235.558,235.558,235.558
0.000806409	-48183060.29	0,1.0861e-05,2.84561e-05,5.69607e-05,0.000103139,0.000177949,0.000299145,0.000495485,0.000813562,0.00132886,0.00216365,0.00351604,0.00570696,0.00925632,0.0150064,0.0243217,inf	0.380588,0.380588,0.380587,3.09909,397.611,141.92,85.537,240.799,511.313,197.563,320.875,873.059,634.567,231.108,231.108,231.108
0.000809226	-48183023.99	0,1.0861e-05,2.84561e-05,5.69607e-05,0.000103139,0.000177949,0.000299145,0.000495485,0.000813562,0.00132886,0.00216365,0.00351604,0.00570696,0.00925632,0.0150064,0.0243217,inf	0.380588,0.380588,0.380587,2.45387,399.563,142.115,84.5374,237.663,518.285,194.434,317.769,880.775,630.959,227.471,227.471,227.471
0.00081185	-48182997.86	0,1.0861e-05,2.84561e-05,5.69607e-05,0.000103139,0.000177949,0.000299145,0.000495485,0.000813562,0.00132886,0.00216365,0.00351604,0.00570696,0.00925632,0.0150064,0.0243217,inf	0.380588,0.380588,0.380587,1.94342,401.133,142.397,83.7562,234.544,524.851,191.501,314.915,888.007,627.172,224.53,224.53,224.53
