time_index	left_time_boundary	right_time_boundary	lambda
0	0	6.35668e-06	0.384554
1	6.35668e-06	1.70642e-05	0.384554
2	1.70642e-05	3.51006e-05	0.384554
3	3.51006e-05	6.54821e-05	0.384554
4	6.54821e-05	0.000116658	198.215
5	0.000116658	0.000202862	322.701
6	0.000202862	0.000348069	34.3033
7	0.000348069	0.000592664	150.119
8	0.000592664	0.00100467	321.834
9	0.00100467	0.00169868	302.301
10	0.00169868	0.00286771	273.356
11	0.00286771	0.00483689	715.297
12	0.00483689	0.00815389	750.531
13	0.00815389	0.0137412	279.451
14	0.0137412	0.0231528	279.451
15	0.0231528	inf	279.451
