LogLikelihood = -184886.48821394311381

y0 0.84654413342862178116
y0_prime 0
y1 1.2043414960113512091
y1_prime 0
y2 0.92846335186694395336
y2_prime 0
y3 1.860586927633887333
y3_prime 0
rho 0.00016618116415072277272
theta 0.0028033213838159192627
