AIC = 615077.02809581928886

y0 0.94123385549158999908
y0_prime 0
y1 1.1156901415171658343
y1_prime 0
y2 0.80861325497871860968
y2_prime 0
y3 1.8660818514627335318
y3_prime 0
rho 0.0015839671534428403921
rho.alpha 0.70064308007632714048
r_ii 0.99992865529596941521
theta 0.0051013260167626856348
