AIC = 3053870.6851799446158

y0 0.90091477660155616647
y0_prime 0
y1 1.0490935084862360593
y1_prime 0
y2 0.95698248438335253852
y2_prime 0
y3 1.7438236780140865534
y3_prime 0
rho 0.00083646169568612203146
theta 0.0050618658155156589368
