0.000685176	-8491290.04	0,6.08397e-06,1.63321e-05,3.35947e-05,6.26728e-05,0.000111653,0.000194159,0.000333137,0.000567238,0.000961571,0.00162581,0.00274468,0.00462938,0.00780407,0.0131517,0.0221595,inf	484.187,484.187,418.882,412.04,383.888,353.354,346.073,357.784,373.585,401.064,433.151,426.972,418.522,434.505,434.505,434.505
0.00073869	-8489797.04	0,6.08397e-06,1.63321e-05,3.35947e-05,6.26728e-05,0.000111653,0.000194159,0.000333137,0.000567238,0.000961571,0.00162581,0.00274468,0.00462938,0.00780407,0.0131517,0.0221595,inf	523.528,523.528,432.132,436.082,392.351,341.099,327.629,342.916,360.839,397.646,447.23,436.409,424.393,457.792,457.792,457.792
0.000785358	-8488945.16	0,6.08397e-06,1.63321e-05,3.35947e-05,6.26728e-05,0.000111653,0.000194159,0.000333137,0.000567238,0.000961571,0.00162581,0.00274468,0.00462938,0.00780407,0.0131517,0.0221595,inf	528.62,528.62,429.887,452.855,402.255,337.69,321.118,338.767,354.939,394.466,454.08,438.82,424.95,475.621,475.621,475.621
0.000826915	-8488342.52	0,6.08397e-06,1.63321e-05,3.35947e-05,6.26728e-05,0.000111653,0.000194159,0.000333137,0.000567238,0.000961571,0.00162581,0.00274468,0.00462938,0.00780407,0.0131517,0.0221595,inf	519.873,519.873,418.513,461.655,408.955,336.064,318.856,339.025,352.36,391.992,457.798,438.131,422.902,490.269,490.269,490.269
0.000864443	-8487880.36	0,6.08397e-06,1.63321e-05,3.35947e-05,6.26728e-05,0.000111653,0.000194159,0.000333137,0.000567238,0.000961571,0.00162581,0.00274468,0.00462938,0.00780407,0.0131517,0.0221595,inf	509.052,509.052,404.136,465.434,412.58,334.399,318.143,341.144,351.46,390.138,460.101,436.12,419.572,503.027,503.027,503.027
0.000898645	-8487514.86	0,6.08397e-06,1.63321e-05,3.35947e-05,6.26728e-05,0.000111653,0.000194159,0.000333137,0.000567238,0.000961571,0.00162581,0.00274468,0.00462938,0.00780407,0.0131517,0.0221595,inf	500.363,500.363,389.972,466.707,414.121,332.377,317.972,344.005,351.414,388.734,461.741,433.609,415.623,514.641,514.641,514.641
0.00093001	-8487221.95	0,6.08397e-06,1.63321e-05,3.35947e-05,6.26728e-05,0.000111653,0.000194159,0.000333137,0.000567238,0.000961571,0.00162581,0.00274468,0.00462938,0.00780407,0.0131517,0.0221595,inf	494.457,494.457,377.245,466.996,414.441,330.078,317.971,347.095,351.793,387.637,463.054,430.984,411.395,525.564,525.564,525.564
0.0009589	-8486985.74	0,6.08397e-06,1.63321e-05,3.35947e-05,6.26728e-05,0.000111653,0.000194159,0.000333137,0.000567238,0.000961571,0.00162581,0.00274468,0.00462938,0.00780407,0.0131517,0.0221595,inf	490.833,490.833,366.203,467.081,414.116,327.646,318.009,350.181,352.369,386.742,464.201,428.426,407.065,536.082,536.082,536.082
0.000985594	-8486794.75	0,6.08397e-06,1.63321e-05,3.35947e-05,6.26728e-05,0.000111653,0.000194159,0.000333137,0.000567238,0.000961571,0.00162581,0.00274468,0.00462938,0.00780407,0.0131517,0.0221595,inf	488.745,488.745,356.708,467.304,413.495,325.202,318.051,353.156,353.018,385.979,465.259,426.014,402.728,546.385,546.385,546.385
0.00101032	-8486640.33	0,6.08397e-06,1.63321e-05,3.35947e-05,6.26728e-05,0.000111653,0.000194159,0.000333137,0.000567238,0.000961571,0.00162581,0.00274468,0.00462938,0.00780407,0.0131517,0.0221595,inf	487.606,487.606,348.515,467.783,412.772,322.825,318.091,355.98,353.675,385.301,466.263,423.781,398.432,556.606,556.606,556.606
0.00103327	-8486515.79	0,6.08397e-06,1.63321e-05,3.35947e-05,6.26728e-05,0.000111653,0.000194159,0.000333137,0.000567238,0.000961571,0.00162581,0.00274468,0.00462938,0.00780407,0.0131517,0.0221595,inf	486.969,486.969,341.378,468.522,412.046,320.562,318.135,358.639,354.305,384.677,467.233,421.733,394.201,566.847,566.847,566.847
0.00105461	-8486415.90	0,6.08397e-06,1.63321e-05,3.35947e-05,6.26728e-05,0.000111653,0.000194159,0.000333137,0.000567238,0.000961571,0.00162581,0.00274468,0.00462938,0.00780407,0.0131517,0.0221595,inf	486.613,486.613,335.078,469.485,411.367,318.438,318.192,361.136,354.892,384.087,468.179,419.866,390.045,577.184,577.184,577.184
0.00107447	-8486336.51	0,6.08397e-06,1.63321e-05,3.35947e-05,6.26728e-05,0.000111653,0.000194159,0.000333137,0.000567238,0.000961571,0.00162581,0.00274468,0.00462938,0.00780407,0.0131517,0.0221595,inf	486.37,486.37,329.459,470.623,410.75,316.458,318.264,363.48,355.431,383.517,469.105,418.169,385.968,587.684,587.684,587.684
0.00109298	-8486274.32	0,6.08397e-06,1.63321e-05,3.35947e-05,6.26728e-05,0.000111653,0.000194159,0.000333137,0.000567238,0.000961571,0.00162581,0.00274468,0.00462938,0.00780407,0.0131517,0.0221595,inf	486.174,486.174,324.405,471.881,410.199,314.623,318.356,365.68,355.919,382.959,470.013,416.631,381.969,598.404,598.404,598.404
0.00111026	-8486226.66	0,6.08397e-06,1.63321e-05,3.35947e-05,6.26728e-05,0.000111653,0.000194159,0.000333137,0.000567238,0.000961571,0.00162581,0.00274468,0.00462938,0.00780407,0.0131517,0.0221595,inf	485.992,485.992,319.801,473.22,409.711,312.927,318.467,367.749,356.359,382.407,470.905,415.239,378.042,609.397,609.397,609.397
0.00112639	-8486191.36	0,6.08397e-06,1.63321e-05,3.35947e-05,6.26728e-05,0.000111653,0.000194159,0.000333137,0.000567238,0.000961571,0.00162581,0.00274468,0.00462938,0.00780407,0.0131517,0.0221595,inf	485.837,485.837,315.583,474.603,409.277,311.361,318.597,369.697,356.754,381.859,471.781,413.979,374.184,620.714,620.714,620.714
0.00114148	-8486166.68	0,6.08397e-06,1.63321e-05,3.35947e-05,6.26728e-05,0.000111653,0.000194159,0.000333137,0.000567238,0.000961571,0.00162581,0.00274468,0.00462938,0.00780407,0.0131517,0.0221595,inf	485.693,485.693,311.691,476.001,408.893,309.914,318.742,371.533,357.107,381.312,472.641,412.84,370.388,632.408,632.408,632.408
0.00115559	-8486151.19	0,6.08397e-06,1.63321e-05,3.35947e-05,6.26728e-05,0.000111653,0.000194159,0.000333137,0.000567238,0.000961571,0.00162581,0.00274468,0.00462938,0.00780407,0.0131517,0.0221595,inf	485.578,485.578,308.09,477.402,408.552,308.576,318.903,373.266,357.423,380.765,473.485,411.811,366.648,644.531,644.531,644.531
0.0011688	-8486143.72	0,6.08397e-06,1.63321e-05,3.35947e-05,6.26728e-05,0.000111653,0.000194159,0.000333137,0.000567238,0.000961571,0.00162581,0.00274468,0.00462938,0.00780407,0.0131517,0.0221595,inf	485.468,485.468,304.74,478.783,408.244,307.336,319.075,374.906,357.707,380.217,474.315,410.88,362.959,657.139,657.139,657.139
0.00118117	-8486143.30	0,6.08397e-06,1.63321e-05,3.35947e-05,6.26728e-05,0.000111653,0.000194159,0.000333137,0.000567238,0.000961571,0.00162581,0.00274468,0.00462938,0.00780407,0.0131517,0.0221595,inf	485.402,485.402,301.62,480.139,407.967,306.185,319.256,376.458,357.962,379.669,475.129,410.039,359.313,670.293,670.293,670.293
