time_index	left_time_boundary	right_time_boundary	lambda
0	0	3.94717e-06	538.287
1	3.94717e-06	1.07961e-05	538.287
2	1.07961e-05	2.26799e-05	313.684
3	2.26799e-05	4.33001e-05	688.65
4	4.33001e-05	7.9079e-05	411.564
5	7.9079e-05	0.000141161	520.315
6	0.000141161	0.000248881	413.816
7	0.000248881	0.000435792	379.063
8	0.000435792	0.000760109	394.361
9	0.000760109	0.00132285	316.981
10	0.00132285	0.00229927	361.94
11	0.00229927	0.00399352	431.695
12	0.00399352	0.00693328	255.555
13	0.00693328	0.0120342	1177.1
14	0.0120342	0.020885	1177.1
15	0.020885	inf	1177.1
