AIC = 590444.67263890709728

y0 3.2129414609513240464
y0_prime 0
y1 1.2059436818249844592
y1_prime 0
y2 1.2507831848627002369
y2_prime 0
y3 2.6270909482151001413
y3_prime 0
rho 0.00060986016671933543191
rho.alpha 0.540967506601396253
r_ii 0.99999883873972206239
theta 0.0050009365442985455677
