AIC = 590443.10142259101849

y0 2.7066662192291963684
y0_prime 0
y1 1.1675616376265929297
y1_prime 0
y2 1.2466601966729267126
y2_prime 0
y3 2.5882852576219397278
y3_prime 0
rho 1.9369985134111310834e-05
theta 0.0050009365442985455677
