time_index	left_time_boundary	right_time_boundary	lambda
0	0	2.03667e-06	165.497
1	2.03667e-06	5.57059e-06	165.497
2	5.57059e-06	1.17024e-05	73.9719
3	1.17024e-05	2.23421e-05	182.005
4	2.23421e-05	4.08034e-05	414.57
5	4.08034e-05	7.28365e-05	464.049
6	7.28365e-05	0.000128418	510.595
7	0.000128418	0.000224861	528.346
8	0.000224861	0.000392203	468.736
9	0.000392203	0.000682566	540.606
10	0.000682566	0.00118639	1010.28
11	0.00118639	0.00206059	1248.05
12	0.00206059	0.00357745	1015.48
13	0.00357745	0.00620943	678.622
14	0.00620943	0.0107763	678.622
15	0.0107763	inf	678.622
