time_index	left_time_boundary	right_time_boundary	lambda
0	0	5.05028e-06	0.323478
1	5.05028e-06	1.38132e-05	0.323478
2	1.38132e-05	2.90182e-05	482.574
3	2.90182e-05	5.54011e-05	292.379
4	5.54011e-05	0.000101179	3.13454
5	0.000101179	0.000180611	104.646
6	0.000180611	0.000318436	14.2578
7	0.000318436	0.000557582	110.01
8	0.000557582	0.000972535	162.315
9	0.000972535	0.00169254	127.217
10	0.00169254	0.00294185	306.329
11	0.00294185	0.00510958	604.944
12	0.00510958	0.00887091	483.569
13	0.00887091	0.0153974	380.239
14	0.0153974	0.0267217	380.239
15	0.0267217	inf	380.239
