0.00020381	-123589.04	0,3.13057e-05,7.41417e-05,0.000132755,0.000212956,0.000322697,0.000472856,0.000678322,0.000959464,0.00134415,0.00187053,0.00259078,0.00357631,0.00492483,0.00677002,0.00929482,inf	493.076,493.076,356.16,500.697,675.283,850.911,1124.8,1486.68,1684.36,1672.91,1580.26,1415.59,1253.35,1112.09,1112.09,1112.09
0.000198753	-123413.58	0,3.13057e-05,7.41417e-05,0.000132755,0.000212956,0.000322697,0.000472856,0.000678322,0.000959464,0.00134415,0.00187053,0.00259078,0.00357631,0.00492483,0.00677002,0.00929482,inf	425.982,425.982,168.766,316.612,503.798,694.67,1036.8,1618.71,2053.93,2156.44,2047.88,1663.3,1308.03,1052.18,1052.18,1052.18
0.000192882	-123354.42	0,3.13057e-05,7.41417e-05,0.000132755,0.000212956,0.000322697,0.000472856,0.000678322,0.000959464,0.00134415,0.00187053,0.00259078,0.00357631,0.00492483,0.00677002,0.00929482,inf	440.121,440.121,99.3372,247.979,429.63,605.825,956.814,1662.02,2301.63,2621.32,2641.54,1955.04,1367.74,1017.58,1017.58,1017.58
0.000186008	-123329.06	0,3.13057e-05,7.41417e-05,0.000132755,0.000212956,0.000322697,0.000472856,0.000678322,0.000959464,0.00134415,0.00187053,0.00259078,0.00357631,0.00492483,0.00677002,0.00929482,inf	464.428,464.428,64.638,219.624,397.333,552.57,892.124,1666.46,2461.47,3087.97,3551.13,2376.76,1458.39,1014.65,1014.65,1014.65
0.000178387	-123316.02	0,3.13057e-05,7.41417e-05,0.000132755,0.000212956,0.000322697,0.000472856,0.000678322,0.000959464,0.00134415,0.00187053,0.00259078,0.00357631,0.00492483,0.00677002,0.00929482,inf	487.127,487.127,43.7812,207.775,385.737,519.975,840.997,1655.22,2558.83,3591.21,5473.42,3182.37,1613.56,1049.49,1049.49,1049.49
0.000170249	-123308.56	0,3.13057e-05,7.41417e-05,0.000132755,0.000212956,0.000322697,0.000472856,0.000678322,0.000959464,0.00134415,0.00187053,0.00259078,0.00357631,0.00492483,0.00677002,0.00929482,inf	507.505,507.505,29.8946,202.832,384.749,500.048,800.545,1638.95,2609.86,4191.63,12680,5718.95,1905.15,1136.93,1136.93,1136.93
0.000161943	-123304.46	0,3.13057e-05,7.41417e-05,0.000132755,0.000212956,0.000322697,0.000472856,0.000678322,0.000959464,0.00134415,0.00187053,0.00259078,0.00357631,0.00492483,0.00677002,0.00929482,inf	527.171,527.171,20.2295,200.383,388.907,488.233,768.389,1622.95,2625.61,5026.51,189353,27186.8,2529.04,1303.51,1303.51,1303.51
0.000153676	-123302.01	0,3.13057e-05,7.41417e-05,0.000132755,0.000212956,0.000322697,0.000472856,0.000678322,0.000959464,0.00134415,0.00187053,0.00259078,0.00357631,0.00492483,0.00677002,0.00929482,inf	547.361,547.361,13.4589,198.402,394.98,481.627,742.529,1609.44,2615.12,6447.82,998525,211.957,270.299,258.471,258.471,258.471
0.000152092	-123300.23	0,3.13057e-05,7.41417e-05,0.000132755,0.000212956,0.000322697,0.000472856,0.000678322,0.000959464,0.00134415,0.00187053,0.00259078,0.00357631,0.00492483,0.00677002,0.00929482,inf	575.61,575.61,8.84628,197.755,404.267,481.488,724.655,1614.43,2607.83,9580.25,1.0057e+06,146.58,145.733,152.463,152.463,152.463
