time_index	left_time_boundary	right_time_boundary	lambda
0	0	4.03697e-06	0.404673
1	4.03697e-06	1.10417e-05	0.404673
2	1.10417e-05	2.31959e-05	1138.87
3	2.31959e-05	4.42852e-05	456.906
4	4.42852e-05	8.08781e-05	376.841
5	8.08781e-05	0.000144372	472.102
6	0.000144372	0.000254543	435.655
7	0.000254543	0.000445707	335.474
8	0.000445707	0.000777402	358.401
9	0.000777402	0.00135294	286.836
10	0.00135294	0.00235159	389.74
11	0.00235159	0.00408438	474.742
12	0.00408438	0.00709102	456.947
13	0.00709102	0.012308	279.992
14	0.012308	0.0213601	279.992
15	0.0213601	inf	279.992
