0.000230229	-134412.49	0,1.55834e-05,3.3812e-05,5.5135e-05,8.00775e-05,0.000109254,0.000143383,0.000183306,0.000230006,0.000284632,0.000348532,0.000423279,0.000510714,0.000612991,0.000732629,0.000872576,0.00103628,0.00122777,0.00145177,0.00171379,0.00202029,0.00237882,0.0027982,0.00328878,0.00386263,0.0045339,0.00531911,0.00623761,0.00731203,0.00856883,0.010039,0.0117587,inf	259.344,259.344,209.572,212.676,240.505,280.913,334.422,403.03,490.26,602.682,748.821,936.539,1167.18,1421.58,1640.83,1751.38,1744.43,1676.15,1596.82,1525.02,1461.42,1405.26,1357.16,1317.21,1285.46,1261.89,1245.2,1231.16,1231.16,1222.45,1222.45,1222.45
0.000239062	-134070.17	0,1.55834e-05,3.3812e-05,5.5135e-05,8.00775e-05,0.000109254,0.000143383,0.000183306,0.000230006,0.000284632,0.000348532,0.000423279,0.000510714,0.000612991,0.000732629,0.000872576,0.00103628,0.00122777,0.00145177,0.00171379,0.00202029,0.00237882,0.0027982,0.00328878,0.00386263,0.0045339,0.00531911,0.00623761,0.00731203,0.00856883,0.010039,0.0117587,inf	232.677,232.677,110.144,87.8844,94.5702,114.034,148.436,201.971,280.284,393.811,557.837,790.698,1110.18,1517.98,1950.37,2247.26,2309.07,2215.38,2079.66,1950.69,1831.79,1723.39,1629.6,1551.61,1490.09,1445.73,1415.82,1391.49,1391.49,1378.48,1378.48,1378.48
0.000248442	-133946.33	0,1.55834e-05,3.3812e-05,5.5135e-05,8.00775e-05,0.000109254,0.000143383,0.000183306,0.000230006,0.000284632,0.000348532,0.000423279,0.000510714,0.000612991,0.000732629,0.000872576,0.00103628,0.00122777,0.00145177,0.00171379,0.00202029,0.00237882,0.0027982,0.00328878,0.00386263,0.0045339,0.00531911,0.00623761,0.00731203,0.00856883,0.010039,0.0117587,inf	288.16,288.16,90.4222,57.8542,54.8791,62.1886,82.4067,120.444,183.095,283.218,440.666,680.848,1033.8,1524.54,2115.45,2600.29,2764.44,2677.76,2511.37,2346.17,2186.74,2035.49,1902.59,1791.26,1703.43,1641.89,1602.86,1572.73,1572.73,1562.61,1562.61,1562.61
0.000257144	-133890.21	0,1.55834e-05,3.3812e-05,5.5135e-05,8.00775e-05,0.000109254,0.000143383,0.000183306,0.000230006,0.000284632,0.000348532,0.000423279,0.000510714,0.000612991,0.000732629,0.000872576,0.00103628,0.00122777,0.00145177,0.00171379,0.00202029,0.00237882,0.0027982,0.00328878,0.00386263,0.0045339,0.00531911,0.00623761,0.00731203,0.00856883,0.010039,0.0117587,inf	356.109,356.109,90.3423,49.4624,40.5643,41.4252,53.7767,81.7241,132.052,218.792,364.842,600.528,964.447,1500.47,2205.06,2858.73,3133.34,3070.74,2892.52,2709.89,2525.29,2342.21,2178.56,2039.76,1929.49,1854.43,1810.76,1780.28,1780.28,1785.37,1785.37,1785.37
0.000265012	-133860.91	0,1.55834e-05,3.3812e-05,5.5135e-05,8.00775e-05,0.000109254,0.000143383,0.000183306,0.000230006,0.000284632,0.000348532,0.000423279,0.000510714,0.000612991,0.000732629,0.000872576,0.00103628,0.00122777,0.00145177,0.00171379,0.00202029,0.00237882,0.0027982,0.00328878,0.00386263,0.0045339,0.00531911,0.00623761,0.00731203,0.00856883,0.010039,0.0117587,inf	417.116,417.116,98.0745,47.9938,34.2007,31.3112,39.4056,61.1983,102.842,178.679,313.489,541.019,906.003,1466.89,2254.02,3056.03,3439.12,3408.08,3230.4,3045.64,2850.18,2646.8,2461.93,2302.49,2173.92,2089.26,2046.22,2022.52,2022.52,2067,2067,2067
0.00027212	-133844.02	0,1.55834e-05,3.3812e-05,5.5135e-05,8.00775e-05,0.000109254,0.000143383,0.000183306,0.000230006,0.000284632,0.000348532,0.000423279,0.000510714,0.000612991,0.000732629,0.000872576,0.00103628,0.00122777,0.00145177,0.00171379,0.00202029,0.00237882,0.0027982,0.00328878,0.00386263,0.0045339,0.00531911,0.00623761,0.00731203,0.00856883,0.010039,0.0117587,inf	462.927,462.927,109.409,49.2953,30.9866,25.7116,31.4541,49.4801,85.1028,152.469,277.418,496.008,857.443,1431.53,2279.77,3212.6,3699.04,3701.98,3532.8,3358.35,3165.35,2953.65,2758.36,2586.38,2444.32,2354.61,2319.1,2313.25,2313.25,2442.71,2442.71,2442.71
0.000278576	-133833.57	0,1.55834e-05,3.3812e-05,5.5135e-05,8.00775e-05,0.000109254,0.000143383,0.000183306,0.000230006,0.000284632,0.000348532,0.000423279,0.000510714,0.000612991,0.000732629,0.000872576,0.00103628,0.00122777,0.00145177,0.00171379,0.00202029,0.00237882,0.0027982,0.00328878,0.00386263,0.0045339,0.00531911,0.00623761,0.00731203,0.00856883,0.010039,0.0117587,inf	492.46,492.46,122.689,52.0024,29.3282,22.3962,26.8088,42.5024,73.9117,134.745,251.353,461.268,816.962,1397.22,2291.47,3340.94,3925.06,3961.89,3806.44,3652.8,3475.07,3267.88,3074.97,2900.49,2751.08,2662.5,2645.43,2677.03,2677.03,3010.67,3010.67,3010.67
0.000284484	-133826.74	0,1.55834e-05,3.3812e-05,5.5135e-05,8.00775e-05,0.000109254,0.000143383,0.000183306,0.000230006,0.000284632,0.000348532,0.000423279,0.000510714,0.000612991,0.000732629,0.000872576,0.00103628,0.00122777,0.00145177,0.00171379,0.00202029,0.00237882,0.0027982,0.00328878,0.00386263,0.0045339,0.00531911,0.00623761,0.00731203,0.00856883,0.010039,0.0117587,inf	508.009,508.009,137.165,55.5871,28.5794,20.388,24.0506,38.307,66.7244,122.485,232.104,433.966,782.911,1364.9,2294.22,3448.96,4125.51,4194.92,4056.79,3933.29,3783.77,3595.59,3420.93,3257.6,3109.49,3032.07,3052.42,3161.88,3161.88,4146.82,4146.82,4146.82
0.000289931	-133822.08	0,1.55834e-05,3.3812e-05,5.5135e-05,8.00775e-05,0.000109254,0.000143383,0.000183306,0.000230006,0.000284632,0.000348532,0.000423279,0.000510714,0.000612991,0.000732629,0.000872576,0.00103628,0.00122777,0.00145177,0.00171379,0.00202029,0.00237882,0.0027982,0.00328878,0.00386263,0.0045339,0.00531911,0.00623761,0.00731203,0.00856883,0.010039,0.0117587,inf	512.618,512.618,152.354,59.7763,28.416,19.1923,22.4606,35.8684,62.1314,113.9,217.657,412.169,753.955,1334.79,2291.01,3541.84,4306.25,4406.4,4288.22,4203.64,4096.13,3944.19,3808.82,3676.61,3544.01,3495.57,3593.67,3888.69,3888.69,8411.42,8411.42,8411.42
0.000294987	-133818.80	0,1.55834e-05,3.3812e-05,5.5135e-05,8.00775e-05,0.000109254,0.000143383,0.000183306,0.000230006,0.000284632,0.000348532,0.000423279,0.000510714,0.000612991,0.000732629,0.000872576,0.00103628,0.00122777,0.00145177,0.00171379,0.00202029,0.00237882,0.0027982,0.00328878,0.00386263,0.0045339,0.00531911,0.00623761,0.00731203,0.00856883,0.010039,0.0117587,inf	509.059,509.059,167.801,64.3689,28.6455,18.5338,21.6444,34.6119,59.3046,107.881,206.689,394.529,729.055,1306.79,2283.68,3623.1,4471.55,4600.39,4504.25,4467.29,4417.22,4323.17,4256.95,4187.93,4097.69,4116.06,4392.98,5234.7,5234.7,168948,168948,168948
0.000299711	-133816.42	0,1.55834e-05,3.3812e-05,5.5135e-05,8.00775e-05,0.000109254,0.000143383,0.000183306,0.000230006,0.000284632,0.000348532,0.000423279,0.000510714,0.000612991,0.000732629,0.000872576,0.00103628,0.00122777,0.00145177,0.00171379,0.00202029,0.00237882,0.0027982,0.00328878,0.00386263,0.0045339,0.00531911,0.00623761,0.00731203,0.00856883,0.010039,0.0117587,inf	499.716,499.716,183.064,69.1929,29.139,18.2451,21.3695,34.1988,57.7337,103.714,198.304,380.079,707.409,1280.71,2273.39,3695.25,4624.6,4780.03,4707.73,4727.45,4752.78,4745.29,4793.61,4845.75,4856.14,5039.59,5858.67,9819.64,9819.64,18056.8,18056.8,18056.8
0.00030415	-133814.65	0,1.55834e-05,3.3812e-05,5.5135e-05,8.00775e-05,0.000109254,0.000143383,0.000183306,0.000230006,0.000284632,0.000348532,0.000423279,0.000510714,0.000612991,0.000732629,0.000872576,0.00103628,0.00122777,0.00145177,0.00171379,0.00202029,0.00237882,0.0027982,0.00328878,0.00386263,0.0045339,0.00531911,0.00623761,0.00731203,0.00856883,0.010039,0.0117587,inf	486.518,486.518,197.719,74.0872,29.8012,18.2171,21.4937,34.4163,57.0893,100.916,191.875,368.118,688.398,1256.33,2260.92,3760.1,4767.79,4947.79,4901.04,4987.16,5109.64,5228.53,5466.71,5760.15,6028.68,6761.04,10923,125654,125654,115310,115310,115310
0.000308342	-133813.30	0,1.55834e-05,3.3812e-05,5.5135e-05,8.00775e-05,0.000109254,0.000143383,0.000183306,0.000230006,0.000284632,0.000348532,0.000423279,0.000510714,0.000612991,0.000732629,0.000872576,0.00103628,0.00122777,0.00145177,0.00171379,0.00202029,0.00237882,0.0027982,0.00328878,0.00386263,0.0045339,0.00531911,0.00623761,0.00731203,0.00856883,0.010039,0.0117587,inf	471.035,471.035,211.388,78.9076,30.5627,18.377,21.9241,35.1266,57.1508,99.1584,186.955,358.123,671.54,1233.45,2246.81,3818.98,4903,5105.63,5086.17,5249.45,5496.26,5800.11,6367.35,7212.23,8372.58,12515.9,128535,24915.8,24915.8,62152.5,62152.5,62152.5
0.000312321	-133812.27	0,1.55834e-05,3.3812e-05,5.5135e-05,8.00775e-05,0.000109254,0.000143383,0.000183306,0.000230006,0.000284632,0.000348532,0.000423279,0.000510714,0.000612991,0.000732629,0.000872576,0.00103628,0.00122777,0.00145177,0.00171379,0.00202029,0.00237882,0.0027982,0.00328878,0.00386263,0.0045339,0.00531911,0.00623761,0.00731203,0.00856883,0.010039,0.0117587,inf	454.469,454.469,223.76,83.5191,31.3665,18.6711,22.5949,36.235,57.7654,98.2015,183.211,349.697,656.47,1211.97,2231.69,3872.89,5031.59,5255.05,5264.75,5517.37,5923.59,6504.03,7701.66,10274.8,17695.7,130781,128535,125654,125654,12324.1,12324.1,12324.1
0.000316111	-133811.46	0,1.55834e-05,3.3812e-05,5.5135e-05,8.00775e-05,0.000109254,0.000143383,0.000183306,0.000230006,0.000284632,0.000348532,0.000423279,0.000510714,0.000612991,0.000732629,0.000872576,0.00103628,0.00122777,0.00145177,0.00171379,0.00202029,0.00237882,0.0027982,0.00328878,0.00386263,0.0045339,0.00531911,0.00623761,0.00731203,0.00856883,0.010039,0.0117587,inf	437.774,437.774,234.632,87.8204,32.1701,19.0595,23.4595,37.6765,58.8265,97.8768,180.401,342.538,642.865,1191.62,2215.55,3922.65,5154.89,5397.48,5438.4,5794.41,6406.65,7419.75,10098.2,24163.6,334991,13977.6,5053.78,4940.5,4940.5,22864.6,22864.6,22864.6
0.000319737	-133810.82	0,1.55834e-05,3.3812e-05,5.5135e-05,8.00775e-05,0.000109254,0.000143383,0.000183306,0.000230006,0.000284632,0.000348532,0.000423279,0.000510714,0.000612991,0.000732629,0.000872576,0.00103628,0.00122777,0.00145177,0.00171379,0.00202029,0.00237882,0.0027982,0.00328878,0.00386263,0.0045339,0.00531911,0.00623761,0.00731203,0.00856883,0.010039,0.0117587,inf	421.615,421.615,243.883,91.728,32.9377,19.5115,24.4825,39.4016,60.2514,98.0575,178.342,336.414,630.488,1172.26,2198.62,3968.9,5273.9,5534.03,5608.48,6084.33,6966.93,8711.46,17081.1,486524,52457.5,37995.1,69281,13429.7,13429.7,62152.5,62152.5,62152.5
0.000323216	-133810.30	0,1.55834e-05,3.3812e-05,5.5135e-05,8.00775e-05,0.000109254,0.000143383,0.000183306,0.000230006,0.000284632,0.000348532,0.000423279,0.000510714,0.000612991,0.000732629,0.000872576,0.00103628,0.00122777,0.00145177,0.00171379,0.00202029,0.00237882,0.0027982,0.00328878,0.00386263,0.0045339,0.00531911,0.00623761,0.00731203,0.00856883,0.010039,0.0117587,inf	406.41,406.41,251.472,95.1848,33.6454,20.0023,25.6343,41.3702,61.981,98.6481,176.89,331.141,619.148,1153.78,2181.03,4012.16,5389.48,5665.66,5776.27,6391.52,7637.07,10809.2,95931.8,992198,2062.53,1493.9,2724,2662.95,2662.95,2443.72,2443.72,2443.72
0.000326565	-133809.88	0,1.55834e-05,3.3812e-05,5.5135e-05,8.00775e-05,0.000109254,0.000143383,0.000183306,0.000230006,0.000284632,0.000348532,0.000423279,0.000510714,0.000612991,0.000732629,0.000872576,0.00103628,0.00122777,0.00145177,0.00171379,0.00202029,0.00237882,0.0027982,0.00328878,0.00386263,0.0045339,0.00531911,0.00623761,0.00731203,0.00856883,0.010039,0.0117587,inf	392.438,392.438,257.445,98.162,34.274,20.5123,26.8894,43.5517,63.9669,99.5746,175.935,326.573,608.689,1136.06,2162.92,4052.85,5502.34,5793.19,5942.98,6721.23,8470.69,15483.4,690289,39011.4,76858.7,20479.5,7404.61,7238.64,7238.64,6642.73,6642.73,6642.73
0.000329798	-133809.55	0,1.55834e-05,3.3812e-05,5.5135e-05,8.00775e-05,0.000109254,0.000143383,0.000183306,0.000230006,0.000284632,0.000348532,0.000423279,0.000510714,0.000612991,0.000732629,0.000872576,0.00103628,0.00122777,0.00145177,0.00171379,0.00202029,0.00237882,0.0027982,0.00328878,0.00386263,0.0045339,0.00531911,0.00623761,0.00731203,0.00856883,0.010039,0.0117587,inf	379.84,379.84,261.884,100.643,34.81,21.0243,28.2294,45.9197,66.1718,100.779,175.389,322.593,598.981,1119.04,2144.36,4091.31,5613.1,5917.34,6109.78,7079.92,9564.91,40235.5,1.25679e+06,1533.86,3021.95,4060.84,10849,19676.7,19676.7,3580.45,3580.45,3580.45
0.000332927	-133809.27	0,1.55834e-05,3.3812e-05,5.5135e-05,8.00775e-05,0.000109254,0.000143383,0.000183306,0.000230006,0.000284632,0.000348532,0.000423279,0.000510714,0.000612991,0.000732629,0.000872576,0.00103628,0.00122777,0.00145177,0.00171379,0.00202029,0.00237882,0.0027982,0.00328878,0.00386263,0.0045339,0.00531911,0.00623761,0.00731203,0.00856883,0.010039,0.0117587,inf	368.633,368.633,264.916,102.638,35.2455,21.5266,29.6332,48.451,68.5656,102.216,175.182,319.105,589.919,1102.62,2125.45,4127.84,5722.3,6038.76,6277.85,7475.86,11124.1,194378,783823,155372,8214.5,11038.5,29490.5,28829.5,28829.5,1929.88,1929.88,1929.88
