0.000513214	-13812250.49	0,4.26602e-06,1.16682e-05,2.4512e-05,4.67978e-05,8.54669e-05,0.000152563,0.000268986,0.000470995,0.000821509,0.0014297,0.00248501,0.00431611,0.00749334,0.0130063,0.022572,inf	346.39,346.39,404.154,332.708,364.959,318.296,348.33,382.944,402.74,405.709,384.528,369.803,355.205,278.266,278.266,278.266
0.000407151	-13801043.31	0,4.26602e-06,1.16682e-05,2.4512e-05,4.67978e-05,8.54669e-05,0.000152563,0.000268986,0.000470995,0.000821509,0.0014297,0.00248501,0.00431611,0.00749334,0.0130063,0.022572,inf	399.348,399.348,477.759,340.598,425.527,307.712,335.601,384.155,410.355,424.008,390.215,371.72,352.082,230.342,230.342,230.342
0.000323294	-13793171.21	0,4.26602e-06,1.16682e-05,2.4512e-05,4.67978e-05,8.54669e-05,0.000152563,0.000268986,0.000470995,0.000821509,0.0014297,0.00248501,0.00431611,0.00749334,0.0130063,0.022572,inf	461.87,461.87,549.355,358.766,519.31,320.228,337.132,390.591,409.423,435.178,394.188,378.508,360.019,204.106,204.106,204.106
0.000258005	-13786814.85	0,4.26602e-06,1.16682e-05,2.4512e-05,4.67978e-05,8.54669e-05,0.000152563,0.000268986,0.000470995,0.000821509,0.0014297,0.00248501,0.00431611,0.00749334,0.0130063,0.022572,inf	525.287,525.287,608.419,379.987,625.746,342.754,348.038,404.162,404.597,440.461,395.932,385.078,370.185,188.263,188.263,188.263
0.000209298	-13781949.37	0,4.26602e-06,1.16682e-05,2.4512e-05,4.67978e-05,8.54669e-05,0.000152563,0.000268986,0.000470995,0.000821509,0.0014297,0.00248501,0.00431611,0.00749334,0.0130063,0.022572,inf	586.458,586.458,652.042,404.707,731.26,368.621,363.85,424.292,399.046,441.685,396.801,389.374,377.755,178.271,178.271,178.271
0.000174743	-13778629.17	0,4.26602e-06,1.16682e-05,2.4512e-05,4.67978e-05,8.54669e-05,0.000152563,0.000268986,0.000470995,0.000821509,0.0014297,0.00248501,0.00431611,0.00749334,0.0130063,0.022572,inf	641.647,641.647,677.986,431.719,825.464,393.175,380.149,448.147,394.215,440.321,397.949,390.983,381.734,171.846,171.846,171.846
0.000151336	-13776644.67	0,4.26602e-06,1.16682e-05,2.4512e-05,4.67978e-05,8.54669e-05,0.000152563,0.000268986,0.000470995,0.000821509,0.0014297,0.00248501,0.00431611,0.00749334,0.0130063,0.022572,inf	689.309,689.309,687.897,459.266,903.463,413.971,394.093,472.35,390.515,437.592,399.73,390.46,383.306,167.647,167.647,167.647
0.000136031	-13775607.61	0,4.26602e-06,1.16682e-05,2.4512e-05,4.67978e-05,8.54669e-05,0.000152563,0.000268986,0.000470995,0.000821509,0.0014297,0.00248501,0.00431611,0.00749334,0.0130063,0.022572,inf	725.116,725.116,682.37,483.542,960.46,428.768,403.369,493.322,387.526,434.244,401.811,388.736,383.739,164.831,164.831,164.831
0.000126273	-13775131.96	0,4.26602e-06,1.16682e-05,2.4512e-05,4.67978e-05,8.54669e-05,0.000152563,0.000268986,0.000470995,0.000821509,0.0014297,0.00248501,0.00431611,0.00749334,0.0130063,0.022572,inf	752.125,752.125,668.056,504.699,1000.26,438.797,408.644,510.082,385.234,431.037,403.869,386.687,383.754,162.956,162.956,162.956
0.000120151	-13774939.50	0,4.26602e-06,1.16682e-05,2.4512e-05,4.67978e-05,8.54669e-05,0.000152563,0.000268986,0.000470995,0.000821509,0.0014297,0.00248501,0.00431611,0.00749334,0.0130063,0.022572,inf	772.152,772.152,649.539,522.751,1026.89,445.413,411.044,522.7,383.536,428.345,405.668,384.829,383.639,161.734,161.734,161.734
0.00011635	-13774872.14	0,4.26602e-06,1.16682e-05,2.4512e-05,4.67978e-05,8.54669e-05,0.000152563,0.000268986,0.000470995,0.000821509,0.0014297,0.00248501,0.00431611,0.00749334,0.0130063,0.022572,inf	786.357,786.357,629.781,537.83,1044.12,449.808,411.648,531.832,382.314,426.273,407.111,383.36,383.5,160.955,160.955,160.955
0.000114003	-13774853.86	0,4.26602e-06,1.16682e-05,2.4512e-05,4.67978e-05,8.54669e-05,0.000152563,0.000268986,0.000470995,0.000821509,0.0014297,0.00248501,0.00431611,0.00749334,0.0130063,0.022572,inf	796.747,796.747,610.709,550.303,1054.9,452.823,411.279,538.273,381.453,424.77,408.2,382.288,383.381,160.466,160.466,160.466
0.000112565	-13774852.39	0,4.26602e-06,1.16682e-05,2.4512e-05,4.67978e-05,8.54669e-05,0.000152563,0.000268986,0.000470995,0.000821509,0.0014297,0.00248501,0.00431611,0.00749334,0.0130063,0.022572,inf	804.8,804.8,593.622,560.888,1062.05,455.278,410.736,543.04,380.99,423.816,408.982,381.562,383.341,160.197,160.197,160.197
0.00011168	-13774854.46	0,4.26602e-06,1.16682e-05,2.4512e-05,4.67978e-05,8.54669e-05,0.000152563,0.000268986,0.000470995,0.000821509,0.0014297,0.00248501,0.00431611,0.00749334,0.0130063,0.022572,inf	810.36,810.36,578.104,569.157,1065.52,456.836,409.734,546.054,380.541,423.09,409.516,381.058,383.273,160.005,160.005,160.005
0.000111138	-13774858.05	0,4.26602e-06,1.16682e-05,2.4512e-05,4.67978e-05,8.54669e-05,0.000152563,0.000268986,0.000470995,0.000821509,0.0014297,0.00248501,0.00431611,0.00749334,0.0130063,0.022572,inf	814.602,814.602,564.66,575.928,1067.29,458.063,408.746,548.085,380.211,422.598,409.885,380.724,383.221,159.882,159.882,159.882
0.00011083	-13774861.04	0,4.26602e-06,1.16682e-05,2.4512e-05,4.67978e-05,8.54669e-05,0.000152563,0.000268986,0.000470995,0.000821509,0.0014297,0.00248501,0.00431611,0.00749334,0.0130063,0.022572,inf	817.796,817.796,553.199,581.629,1068.3,459.235,407.983,549.83,380.213,422.639,410.477,380.808,383.432,159.899,159.899,159.899
0.000110625	-13774861.26	0,4.26602e-06,1.16682e-05,2.4512e-05,4.67978e-05,8.54669e-05,0.000152563,0.000268986,0.000470995,0.000821509,0.0014297,0.00248501,0.00431611,0.00749334,0.0130063,0.022572,inf	820.247,820.247,543.485,586.207,1068.35,460.083,407.193,550.738,379.993,422.367,410.543,380.622,383.378,159.837,159.837,159.837
0.000110495	-13774862.88	0,4.26602e-06,1.16682e-05,2.4512e-05,4.67978e-05,8.54669e-05,0.000152563,0.000268986,0.000470995,0.000821509,0.0014297,0.00248501,0.00431611,0.00749334,0.0130063,0.022572,inf	822.167,822.167,535.375,589.995,1068.03,460.792,406.545,551.314,379.807,422.147,410.548,380.455,383.3,159.783,159.783,159.783
0.000110414	-13774864.29	0,4.26602e-06,1.16682e-05,2.4512e-05,4.67978e-05,8.54669e-05,0.000152563,0.000268986,0.000470995,0.000821509,0.0014297,0.00248501,0.00431611,0.00749334,0.0130063,0.022572,inf	823.703,823.703,528.599,593.185,1067.55,461.4,406.038,551.707,379.676,421.998,410.553,380.338,383.24,159.746,159.746,159.746
0.000110363	-13774865.26	0,4.26602e-06,1.16682e-05,2.4512e-05,4.67978e-05,8.54669e-05,0.000152563,0.000268986,0.000470995,0.000821509,0.0014297,0.00248501,0.00431611,0.00749334,0.0130063,0.022572,inf	824.855,824.855,522.903,595.821,1067.03,461.915,405.646,551.984,379.585,421.903,410.561,380.262,383.199,159.723,159.723,159.723
