0.000663105	-300997.72	0,9.1092e-05,0.000215734,0.000386285,0.000619651,0.00093897,0.0013759,0.00197375,0.00279181,0.00391117,0.0054428,0.00753855,0.0104062,0.0143301,0.0196991,0.0270457,inf	403.9,403.9,353.815,366.762,371.721,386.702,410.968,426.925,431.572,420.118,404.763,409.922,436.458,528.679,528.679,528.679
0.00070361	-300953.91	0,9.1092e-05,0.000215734,0.000386285,0.000619651,0.00093897,0.0013759,0.00197375,0.00279181,0.00391117,0.0054428,0.00753855,0.0104062,0.0143301,0.0196991,0.0270457,inf	418.599,418.599,333.299,354.713,356.681,376.497,413.524,439.06,448.084,427.711,400.796,410.953,466.576,751.715,751.715,751.715
0.000740262	-300926.50	0,9.1092e-05,0.000215734,0.000386285,0.000619651,0.00093897,0.0013759,0.00197375,0.00279181,0.00391117,0.0054428,0.00753855,0.0104062,0.0143301,0.0196991,0.0270457,inf	430.94,430.94,322.496,352.068,348.59,369.682,414.062,445.546,458.592,431.019,395.074,409.272,496.004,1364,1364,1364
0.000773731	-300906.69	0,9.1092e-05,0.000215734,0.000386285,0.000619651,0.00093897,0.0013759,0.00197375,0.00279181,0.00391117,0.0054428,0.00753855,0.0104062,0.0143301,0.0196991,0.0270457,inf	438.522,438.522,315.596,353.586,343.856,364.881,413.743,448.978,465.722,432.138,388.858,405.924,526.096,6958.97,6958.97,6958.97
0.000773731	-300891.27	0,9.1092e-05,0.000215734,0.000386285,0.000619651,0.00093897,0.0013759,0.00197375,0.00279181,0.00391117,0.0054428,0.00753855,0.0104062,0.0143301,0.0196991,0.0270457,inf	437.406,437.406,307.151,353.001,337.057,357.323,408.299,445.716,466.184,428.465,379.945,399.257,555.979,56885.2,56885.2,56885.2
0.000773731	-300891.56	0,9.1092e-05,0.000215734,0.000386285,0.000619651,0.00093897,0.0013759,0.00197375,0.00279181,0.00391117,0.0054428,0.00753855,0.0104062,0.0143301,0.0196991,0.0270457,inf	437.406,437.406,302.407,356.468,334.305,353.517,406.036,444.756,468.3,426.293,372.867,393.535,565.378,56885.2,56885.2,56885.2
0.000773731	-300891.93	0,9.1092e-05,0.000215734,0.000386285,0.000619651,0.00093897,0.0013759,0.00197375,0.00279181,0.00391117,0.0054428,0.00753855,0.0104062,0.0143301,0.0196991,0.0270457,inf	437.407,437.407,298.57,359.271,332.828,351.078,404.953,444.644,470.335,425.239,367.231,388.669,572.356,56885.2,56885.2,56885.2
0.000773731	-300892.31	0,9.1092e-05,0.000215734,0.000386285,0.000619651,0.00093897,0.0013759,0.00197375,0.00279181,0.00391117,0.0054428,0.00753855,0.0104062,0.0143301,0.0196991,0.0270457,inf	437.407,437.407,295.301,361.661,332.004,349.328,404.411,444.889,471.363,424.925,362.67,384.474,577.98,56885.2,56885.2,56885.2
0.000773731	-300892.66	0,9.1092e-05,0.000215734,0.000386285,0.000619651,0.00093897,0.0013759,0.00197375,0.00279181,0.00391117,0.0054428,0.00753855,0.0104062,0.0143301,0.0196991,0.0270457,inf	437.407,437.407,292.433,363.757,331.541,347.973,404.173,445.344,471.818,424.925,358.973,380.832,582.617,56885.2,56885.2,56885.2
0.000773731	-300892.96	0,9.1092e-05,0.000215734,0.000386285,0.000619651,0.00093897,0.0013759,0.00197375,0.00279181,0.00391117,0.0054428,0.00753855,0.0104062,0.0143301,0.0196991,0.0270457,inf	437.407,437.407,289.872,365.629,331.28,346.848,404.103,445.926,471.944,424.925,355.982,377.653,586.537,56885.2,56885.2,56885.2
0.000773731	-300893.24	0,9.1092e-05,0.000215734,0.000386285,0.000619651,0.00093897,0.0013759,0.00197375,0.00279181,0.00391117,0.0054428,0.00753855,0.0104062,0.0143301,0.0196991,0.0270457,inf	437.407,437.407,287.557,367.32,331.133,345.863,404.128,446.491,471.944,424.925,353.577,374.896,586.537,56886.2,56886.2,56886.2
0.000773731	-300893.45	0,9.1092e-05,0.000215734,0.000386285,0.000619651,0.00093897,0.0013759,0.00197375,0.00279181,0.00391117,0.0054428,0.00753855,0.0104062,0.0143301,0.0196991,0.0270457,inf	437.408,437.408,285.422,367.34,331.003,344.949,404.203,447.207,472.096,424.925,351.678,372.49,589.309,56886.2,56886.2,56886.2
0.000773731	-300893.65	0,9.1092e-05,0.000215734,0.000386285,0.000619651,0.00093897,0.0013759,0.00197375,0.00279181,0.00391117,0.0054428,0.00753855,0.0104062,0.0143301,0.0196991,0.0270457,inf	437.409,437.409,283.767,367.35,331.101,344.164,404.301,447.227,472.557,424.925,350.152,370.359,591.682,56886.2,56886.2,56886.2
0.000773731	-300893.80	0,9.1092e-05,0.000215734,0.000386285,0.000619651,0.00093897,0.0013759,0.00197375,0.00279181,0.00391117,0.0054428,0.00753855,0.0104062,0.0143301,0.0196991,0.0270457,inf	437.409,437.409,282.467,368.3,331.101,343.505,404.473,447.454,472.557,424.925,348.933,368.462,593.72,56886.2,56886.2,56886.2
0.000773731	-300893.95	0,9.1092e-05,0.000215734,0.000386285,0.000619651,0.00093897,0.0013759,0.00197375,0.00279181,0.00391117,0.0054428,0.00753855,0.0104062,0.0143301,0.0196991,0.0270457,inf	437.409,437.409,281.272,369.174,331.101,342.889,404.67,447.454,472.692,424.925,347.978,366.774,595.463,56886.2,56886.2,56886.2
0.000773731	-300894.07	0,9.1092e-05,0.000215734,0.000386285,0.000619651,0.00093897,0.0013759,0.00197375,0.00279181,0.00391117,0.0054428,0.00753855,0.0104062,0.0143301,0.0196991,0.0270457,inf	437.41,437.41,280.173,369.174,331.439,342.328,404.904,447.672,472.698,424.925,347.24,365.263,596.962,56886.2,56886.2,56886.2
0.000773731	-300894.17	0,9.1092e-05,0.000215734,0.000386285,0.000619651,0.00093897,0.0013759,0.00197375,0.00279181,0.00391117,0.0054428,0.00753855,0.0104062,0.0143301,0.0196991,0.0270457,inf	437.41,437.41,279.267,369.836,331.439,341.78,405.129,447.8,472.698,424.925,346.677,363.907,598.253,56886.2,56886.2,56886.2
0.000773731	-300894.26	0,9.1092e-05,0.000215734,0.000386285,0.000619651,0.00093897,0.0013759,0.00197375,0.00279181,0.00391117,0.0054428,0.00753855,0.0104062,0.0143301,0.0196991,0.0270457,inf	437.41,437.41,278.437,370.443,331.439,341.261,405.129,448.077,472.698,424.925,346.259,362.687,599.368,56886.2,56886.2,56886.2
0.000773731	-300894.33	0,9.1092e-05,0.000215734,0.000386285,0.000619651,0.00093897,0.0013759,0.00197375,0.00279181,0.00391117,0.0054428,0.00753855,0.0104062,0.0143301,0.0196991,0.0270457,inf	437.412,437.412,277.679,370.997,331.439,340.792,405.393,448.134,472.698,424.925,345.958,361.583,600.336,56886.2,56886.2,56886.2
0.000773731	-300894.39	0,9.1092e-05,0.000215734,0.000386285,0.000619651,0.00093897,0.0013759,0.00197375,0.00279181,0.00391117,0.0054428,0.00753855,0.0104062,0.0143301,0.0196991,0.0270457,inf	437.412,437.412,276.983,371.506,331.439,340.344,405.66,448.179,472.698,424.925,345.753,360.583,601.176,56886.2,56886.2,56886.2
