0.000664147	-296892.74	0,8.95039e-05,0.000211973,0.00037955,0.000608848,0.0009226,0.00135191,0.00193934,0.00274314,0.00384298,0.00534791,0.00740713,0.0102248,0.0140802,0.0193557,0.0265742,inf	315.7,315.7,334.432,356.467,369.755,384.564,412.963,448.006,466.088,466.335,462.608,456.462,437.276,376.992,376.992,376.992
0.000714069	-296825.40	0,8.95039e-05,0.000211973,0.00037955,0.000608848,0.0009226,0.00135191,0.00193934,0.00274314,0.00384298,0.00534791,0.00740713,0.0102248,0.0140802,0.0193557,0.0265742,inf	294.012,294.012,312.492,341.134,353.223,367.825,406.93,462.117,494.721,499.067,497.792,490.484,451.362,342.427,342.427,342.427
0.000758373	-296793.73	0,8.95039e-05,0.000211973,0.00037955,0.000608848,0.0009226,0.00135191,0.00193934,0.00274314,0.00384298,0.00534791,0.00740713,0.0102248,0.0140802,0.0193557,0.0265742,inf	289.159,289.159,306.163,339.069,346.622,356.821,399.854,466.746,509.488,518.32,522.15,516.418,456.96,311.832,311.832,311.832
0.000798376	-296772.32	0,8.95039e-05,0.000211973,0.00037955,0.000608848,0.0009226,0.00135191,0.00193934,0.00274314,0.00384298,0.00534791,0.00740713,0.0102248,0.0140802,0.0193557,0.0265742,inf	287.781,287.781,304.672,342.069,344.607,349.35,393.506,467.396,516.84,529.451,539.29,536.508,456.746,285.778,285.778,285.778
0.000835019	-296755.09	0,8.95039e-05,0.000211973,0.00037955,0.000608848,0.0009226,0.00135191,0.00193934,0.00274314,0.00384298,0.00534791,0.00740713,0.0102248,0.0140802,0.0193557,0.0265742,inf	286.55,286.55,304.515,346.979,344.852,344.145,388.237,466.433,520.139,535.62,551.589,552.372,452.697,263.832,263.832,263.832
0.00086894	-296740.22	0,8.95039e-05,0.000211973,0.00037955,0.000608848,0.0009226,0.00135191,0.00193934,0.00274314,0.00384298,0.00534791,0.00740713,0.0102248,0.0140802,0.0193557,0.0265742,inf	284.893,284.893,304.523,352.455,346.219,340.433,383.984,464.895,521.176,538.697,560.594,565.162,446.202,245.388,245.388,245.388
0.000900577	-296727.04	0,8.95039e-05,0.000211973,0.00037955,0.000608848,0.0009226,0.00135191,0.00193934,0.00274314,0.00384298,0.00534791,0.00740713,0.0102248,0.0140802,0.0193557,0.0265742,inf	282.963,282.963,304.346,357.902,348.11,337.723,380.584,463.242,520.931,539.813,567.324,575.698,438.218,229.891,229.891,229.891
0.000930244	-296715.23	0,8.95039e-05,0.000211973,0.00037955,0.000608848,0.0009226,0.00135191,0.00193934,0.00274314,0.00384298,0.00534791,0.00740713,0.0102248,0.0140802,0.0193557,0.0265742,inf	280.981,280.981,303.924,363.064,350.202,335.698,377.87,461.671,519.956,539.663,572.46,584.572,429.396,216.875,216.875,216.875
0.000958172	-296704.59	0,8.95039e-05,0.000211973,0.00037955,0.000608848,0.0009226,0.00135191,0.00193934,0.00274314,0.00384298,0.00534791,0.00740713,0.0102248,0.0140802,0.0193557,0.0265742,inf	279.118,279.118,303.295,367.846,352.316,334.146,375.7,460.261,518.572,538.688,576.463,592.213,420.171,205.962,205.962,205.962
0.000984541	-296695.00	0,8.95039e-05,0.000211973,0.00037955,0.000608848,0.0009226,0.00135191,0.00193934,0.00274314,0.00384298,0.00534791,0.00740713,0.0102248,0.0140802,0.0193557,0.0265742,inf	277.453,277.453,302.518,372.229,354.356,332.927,373.962,459.031,516.967,537.172,579.65,598.935,410.828,196.834,196.834,196.834
0.00100949	-296686.32	0,8.95039e-05,0.000211973,0.00037955,0.000608848,0.0009226,0.00135191,0.00193934,0.00274314,0.00384298,0.00534791,0.00740713,0.0102248,0.0140802,0.0193557,0.0265742,inf	276.034,276.034,301.651,376.235,356.276,331.945,372.565,457.98,515.253,535.3,582.241,604.968,401.547,189.224,189.224,189.224
0.00103315	-296678.47	0,8.95039e-05,0.000211973,0.00037955,0.000608848,0.0009226,0.00135191,0.00193934,0.00274314,0.00384298,0.00534791,0.00740713,0.0102248,0.0140802,0.0193557,0.0265742,inf	274.859,274.859,300.739,379.893,358.051,331.131,371.442,457.094,513.499,533.196,584.395,610.48,392.439,182.905,182.905,182.905
0.0010556	-296671.35	0,8.95039e-05,0.000211973,0.00037955,0.000608848,0.0009226,0.00135191,0.00193934,0.00274314,0.00384298,0.00534791,0.00740713,0.0102248,0.0140802,0.0193557,0.0265742,inf	273.921,273.921,299.818,383.245,359.676,330.441,370.538,456.355,511.745,530.943,586.222,615.596,383.564,177.678,177.678,177.678
0.00107694	-296664.89	0,8.95039e-05,0.000211973,0.00037955,0.000608848,0.0009226,0.00135191,0.00193934,0.00274314,0.00384298,0.00534791,0.00740713,0.0102248,0.0140802,0.0193557,0.0265742,inf	273.18,273.18,298.909,386.325,361.152,329.84,369.811,455.748,510.015,528.598,587.803,620.407,374.95,173.371,173.371,173.371
0.00109723	-296659.01	0,8.95039e-05,0.000211973,0.00037955,0.000608848,0.0009226,0.00135191,0.00193934,0.00274314,0.00384298,0.00534791,0.00740713,0.0102248,0.0140802,0.0193557,0.0265742,inf	272.615,272.615,298.032,389.169,362.487,329.305,369.228,455.255,508.325,526.2,589.197,624.983,366.608,169.837,169.837,169.837
0.00111655	-296653.66	0,8.95039e-05,0.000211973,0.00037955,0.000608848,0.0009226,0.00135191,0.00193934,0.00274314,0.00384298,0.00534791,0.00740713,0.0102248,0.0140802,0.0193557,0.0265742,inf	272.199,272.199,297.197,391.808,363.689,328.82,368.765,454.864,506.683,523.775,590.448,629.375,358.533,166.948,166.948,166.948
0.00113494	-296648.77	0,8.95039e-05,0.000211973,0.00037955,0.000608848,0.0009226,0.00135191,0.00193934,0.00274314,0.00384298,0.00534791,0.00740713,0.0102248,0.0140802,0.0193557,0.0265742,inf	271.914,271.914,296.409,394.267,364.768,328.371,368.401,454.561,505.093,521.343,591.59,633.621,350.715,164.593,164.593,164.593
0.00115248	-296644.31	0,8.95039e-05,0.000211973,0.00037955,0.000608848,0.0009226,0.00135191,0.00193934,0.00274314,0.00384298,0.00534791,0.00740713,0.0102248,0.0140802,0.0193557,0.0265742,inf	271.729,271.729,295.67,396.569,365.733,327.949,368.119,454.336,503.556,518.917,592.648,637.751,343.142,162.68,162.68,162.68
0.0011692	-296640.22	0,8.95039e-05,0.000211973,0.00037955,0.000608848,0.0009226,0.00135191,0.00193934,0.00274314,0.00384298,0.00534791,0.00740713,0.0102248,0.0140802,0.0193557,0.0265742,inf	271.63,271.63,294.983,398.734,366.594,327.548,367.906,454.181,502.074,516.506,593.64,641.789,335.797,161.131,161.131,161.131
0.00118515	-296636.47	0,8.95039e-05,0.000211973,0.00037955,0.000608848,0.0009226,0.00135191,0.00193934,0.00274314,0.00384298,0.00534791,0.00740713,0.0102248,0.0140802,0.0193557,0.0265742,inf	271.589,271.589,294.347,400.777,367.36,327.162,367.752,454.087,500.646,514.116,594.583,645.754,328.668,159.88,159.88,159.88
