0.000690462	-1828118.05	0,2.20073e-05,5.56767e-05,0.000107189,0.000185998,0.00030657,0.000491037,0.000773257,0.00120503,0.00186562,0.00287626,0.00442247,0.00678806,0.0104072,0.0159443,0.0244156,inf	245.45,245.45,331.572,319.88,334.143,337.705,349.621,371.025,400.761,439.944,461.125,447.28,443.537,459.205,459.205,459.205
0.000749006	-1827641.07	0,2.20073e-05,5.56767e-05,0.000107189,0.000185998,0.00030657,0.000491037,0.000773257,0.00120503,0.00186562,0.00287626,0.00442247,0.00678806,0.0104072,0.0159443,0.0244156,inf	195.563,195.563,331.501,301.424,320.896,319.11,330.332,355.892,394.404,453.457,493.15,472.712,471.988,512.714,512.714,512.714
0.000800526	-1827418.66	0,2.20073e-05,5.56767e-05,0.000107189,0.000185998,0.00030657,0.000491037,0.000773257,0.00120503,0.00186562,0.00287626,0.00442247,0.00678806,0.0104072,0.0159443,0.0244156,inf	170.108,170.108,344.002,297.106,321.974,314.681,323.03,348.177,388.199,457.063,510.35,485.97,491.317,565.486,565.486,565.486
0.00084681	-1827270.17	0,2.20073e-05,5.56767e-05,0.000107189,0.000185998,0.00030657,0.000491037,0.000773257,0.00120503,0.00186562,0.00287626,0.00442247,0.00678806,0.0104072,0.0159443,0.0244156,inf	153.599,153.599,356.002,295.227,326.591,315.17,320.819,344.415,383.245,456.809,519.603,492.076,504.658,621.121,621.121,621.121
0.000889047	-1827153.22	0,2.20073e-05,5.56767e-05,0.000107189,0.000185998,0.00030657,0.000491037,0.000773257,0.00120503,0.00186562,0.00287626,0.00442247,0.00678806,0.0104072,0.0159443,0.0244156,inf	142.031,142.031,365.022,292.982,331.44,317.269,320.89,342.869,379.522,455.142,524.478,493.923,514.014,683.787,683.787,683.787
0.000928012	-1827055.30	0,2.20073e-05,5.56767e-05,0.000107189,0.000185998,0.00030657,0.000491037,0.000773257,0.00120503,0.00186562,0.00287626,0.00442247,0.00678806,0.0104072,0.0159443,0.0244156,inf	133.864,133.864,371.412,290.042,335.616,319.723,321.978,342.596,376.787,453.071,526.872,493.183,520.673,759.611,759.611,759.611
0.000964225	-1826971.72	0,2.20073e-05,5.56767e-05,0.000107189,0.000185998,0.00030657,0.000491037,0.000773257,0.00120503,0.00186562,0.00287626,0.00442247,0.00678806,0.0104072,0.0159443,0.0244156,inf	128.21,128.21,376.034,286.683,339.01,322.059,323.475,343.057,374.795,451.011,527.825,490.837,525.474,859.974,859.974,859.974
0.000998046	-1826900.37	0,2.20073e-05,5.56767e-05,0.000107189,0.000185998,0.00030657,0.000491037,0.000773257,0.00120503,0.00186562,0.00287626,0.00442247,0.00678806,0.0104072,0.0159443,0.0244156,inf	124.386,124.386,379.562,283.215,341.742,324.123,325.081,343.934,373.35,449.121,527.921,487.465,528.976,1012.36,1012.36,1012.36
0.00102973	-1826840.49	0,2.20073e-05,5.56767e-05,0.000107189,0.000185998,0.00030657,0.000491037,0.000773257,0.00120503,0.00186562,0.00287626,0.00442247,0.00678806,0.0104072,0.0159443,0.0244156,inf	121.892,121.892,382.46,279.865,343.982,325.887,326.647,345.034,372.301,447.448,527.486,483.394,531.565,1316.55,1316.55,1316.55
0.00105943	-1826793.33	0,2.20073e-05,5.56767e-05,0.000107189,0.000185998,0.00030657,0.000491037,0.000773257,0.00120503,0.00186562,0.00287626,0.00442247,0.00678806,0.0104072,0.0159443,0.0244156,inf	120.356,120.356,384.978,276.762,345.872,327.374,328.105,346.238,371.538,445.985,526.68,478.758,533.523,2565.05,2565.05,2565.05
0.00105943	-1826765.81	0,2.20073e-05,5.56767e-05,0.000107189,0.000185998,0.00030657,0.000491037,0.000773257,0.00120503,0.00186562,0.00287626,0.00442247,0.00678806,0.0104072,0.0159443,0.0244156,inf	118.665,118.665,384.562,272.112,345.085,326.373,327.21,345.166,368.616,441.209,521.508,471.166,533.18,51666.7,51666.7,51666.7
0.00105943	-1826773.96	0,2.20073e-05,5.56767e-05,0.000107189,0.000185998,0.00030657,0.000491037,0.000773257,0.00120503,0.00186562,0.00287626,0.00442247,0.00678806,0.0104072,0.0159443,0.0244156,inf	117.692,117.692,385.421,268.667,345.472,326.451,327.6,345.399,367.46,438.766,518.236,464.407,533.949,51668.2,51668.2,51668.2
0.00105943	-1826757.75	0,2.20073e-05,5.56767e-05,0.000107189,0.000185998,0.00030657,0.000491037,0.000773257,0.00120503,0.00186562,0.00287626,0.00442247,0.00678806,0.0104072,0.0159443,0.0244156,inf	117.014,117.014,385.421,265.557,345.935,326.529,328.172,345.544,367.218,437.73,516.505,458.775,535.415,51669,51669,51669
0.00105943	-1826747.79	0,2.20073e-05,5.56767e-05,0.000107189,0.000185998,0.00030657,0.000491037,0.000773257,0.00120503,0.00186562,0.00287626,0.00442247,0.00678806,0.0104072,0.0159443,0.0244156,inf	116.662,116.662,385.73,262.817,346.442,326.511,328.712,345.544,367.226,437.438,515.726,453.9,537.398,51669.4,51669.4,51669.4
0.00105943	-1826741.32	0,2.20073e-05,5.56767e-05,0.000107189,0.000185998,0.00030657,0.000491037,0.000773257,0.00120503,0.00186562,0.00287626,0.00442247,0.00678806,0.0104072,0.0159443,0.0244156,inf	116.479,116.479,385.73,260.394,346.997,326.404,329.179,345.592,367.226,437.438,515.567,449.557,539.789,51669.6,51669.6,51669.6
0.00105943	-1826736.94	0,2.20073e-05,5.56767e-05,0.000107189,0.000185998,0.00030657,0.000491037,0.000773257,0.00120503,0.00186562,0.00287626,0.00442247,0.00678806,0.0104072,0.0159443,0.0244156,inf	116.437,116.437,385.774,258.254,346.997,326.206,329.555,345.821,367.226,437.438,515.567,445.622,542.328,51669.6,51669.6,51669.6
0.00105943	-1826733.51	0,2.20073e-05,5.56767e-05,0.000107189,0.000185998,0.00030657,0.000491037,0.000773257,0.00120503,0.00186562,0.00287626,0.00442247,0.00678806,0.0104072,0.0159443,0.0244156,inf	116.439,116.439,385.779,256.458,347.772,326.005,329.857,345.821,367.226,437.438,515.567,442.086,542.328,51670.2,51670.2,51670.2
0.00105943	-1826728.80	0,2.20073e-05,5.56767e-05,0.000107189,0.000185998,0.00030657,0.000491037,0.000773257,0.00120503,0.00186562,0.00287626,0.00442247,0.00678806,0.0104072,0.0159443,0.0244156,inf	116.439,116.439,385.78,254.823,348.547,325.747,330.115,345.845,367.226,437.438,515.567,438.885,544.394,51670.2,51670.2,51670.2
0.00105943	-1826726.08	0,2.20073e-05,5.56767e-05,0.000107189,0.000185998,0.00030657,0.000491037,0.000773257,0.00120503,0.00186562,0.00287626,0.00442247,0.00678806,0.0104072,0.0159443,0.0244156,inf	116.442,116.442,385.78,253.331,349.328,325.448,330.333,345.845,367.226,437.438,515.578,436.002,544.394,51670.7,51670.7,51670.7
0.00105943	-1826722.35	0,2.20073e-05,5.56767e-05,0.000107189,0.000185998,0.00030657,0.000491037,0.000773257,0.00120503,0.00186562,0.00287626,0.00442247,0.00678806,0.0104072,0.0159443,0.0244156,inf	116.442,116.442,385.78,251.964,350.104,325.123,330.333,345.847,367.337,437.438,515.578,433.387,546.104,51670.7,51670.7,51670.7
