LogLikelihood = -163375.76375432024361

y0 1.0506682214241309659
y0_prime 0
y1 1.0532054703511375404
y1_prime 0
y2 0.86579795023456473935
y2_prime 0
y3 1.6574379113368693517
y3_prime 0
rho 0.0007546381508452219139
rho.alpha 2.490915164384607916
r_ii 0.99981147610850262808
theta 0.0024110619594714345279
