LogLikelihood = -834915.05747553193942

y0 0.961569733464810672
y0_prime 0
y1 1.0697354985615108447
y1_prime 0
y2 0.90694229815894022995
y2_prime 0
y3 1.7004652746235933147
y3_prime 0
rho 0.0007229708518716172717
rho.alpha 4.4130514353397858329
r_ii 0.99980338106400901133
theta 0.0024639672615118751557
