AIC = 1326742.1114345635287

y0 0.18534217245067946545
y0_prime 0
y1 0.60324064467270521739
y1_prime 0
y2 1.4725589130047567199
y2_prime 0
y3 44.936833696851472553
y3_prime 0
rho 0.012663394345008942982
rho.alpha 0.52647147969544416668
r_ii 0.99994135684189888735
theta 0.0018190714601501989899
