LogLikelihood = -663386.21598364482634

y0 0.11432050327309593862
y0_prime 0
y1 0.20322492994088844909
y1_prime 0
y2 2.4562069707988247735
y2_prime 0
y3 36.03671575881578093
y3_prime 0
rho 0.0011253018735239146524
theta 0.0018190714601501989899
