0.000660473	-304927.42	0,9.21031e-05,0.000218129,0.000390572,0.000626529,0.000949392,0.00139117,0.00199566,0.0028228,0.00395458,0.00550321,0.00762223,0.0105217,0.0144891,0.0199178,0.0273459,inf	273.775,273.775,290.275,299.285,343.806,388.435,414.645,423.995,423.491,425.866,428.235,411.582,392.49,361.963,361.963,361.963
0.000694124	-304884.59	0,9.21031e-05,0.000218129,0.000390572,0.000626529,0.000949392,0.00139117,0.00199566,0.0028228,0.00395458,0.00550321,0.00762223,0.0105217,0.0144891,0.0199178,0.0273459,inf	248.931,248.931,261.065,258.753,321.785,387.844,424.551,436.155,433.777,440.812,449.271,417.683,382.131,328.952,328.952,328.952
0.000725019	-304867.32	0,9.21031e-05,0.000218129,0.000390572,0.000626529,0.000949392,0.00139117,0.00199566,0.0028228,0.00395458,0.00550321,0.00762223,0.0105217,0.0144891,0.0199178,0.0273459,inf	246.397,246.397,253.569,236.969,311.173,390.077,430.731,441.524,436.732,449.131,465.45,420.215,370.827,301.311,301.311,301.311
0.000753641	-304856.39	0,9.21031e-05,0.000218129,0.000390572,0.000626529,0.000949392,0.00139117,0.00199566,0.0028228,0.00395458,0.00550321,0.00762223,0.0105217,0.0144891,0.0199178,0.0273459,inf	248.689,248.689,253.427,223.082,305.764,393.401,434.808,443.372,435.921,453.627,478.531,420.622,359.749,278.548,278.548,278.548
0.000780468	-304847.93	0,9.21031e-05,0.000218129,0.000390572,0.000626529,0.000949392,0.00139117,0.00199566,0.0028228,0.00395458,0.00550321,0.00762223,0.0105217,0.0144891,0.0199178,0.0273459,inf	251.054,251.054,255.954,213.168,303.136,397.226,437.726,443.442,433.247,455.905,489.609,419.797,349.45,259.876,259.876,259.876
0.000805834	-304840.88	0,9.21031e-05,0.000218129,0.000390572,0.000626529,0.000949392,0.00139117,0.00199566,0.0028228,0.00395458,0.00550321,0.00762223,0.0105217,0.0144891,0.0199178,0.0273459,inf	252.421,252.421,259.4,205.519,302.134,401.257,439.972,442.634,429.7,456.873,499.352,418.271,340.14,244.525,244.525,244.525
0.000829962	-304834.84	0,9.21031e-05,0.000218129,0.000390572,0.000626529,0.000949392,0.00139117,0.00199566,0.0028228,0.00395458,0.00550321,0.00762223,0.0105217,0.0144891,0.0199178,0.0273459,inf	252.823,252.823,263.059,199.288,302.135,405.322,441.794,441.408,425.792,457.045,508.171,416.357,331.854,231.833,231.833,231.833
0.000853004	-304829.63	0,9.21031e-05,0.000218129,0.000390572,0.000626529,0.000949392,0.00139117,0.00199566,0.0028228,0.00395458,0.00550321,0.00762223,0.0105217,0.0144891,0.0199178,0.0273459,inf	252.546,252.546,266.639,194.012,302.774,409.312,443.324,440.003,421.791,456.721,516.322,414.239,324.546,221.267,221.267,221.267
0.000875066	-304825.12	0,9.21031e-05,0.000218129,0.000390572,0.000626529,0.000949392,0.00139117,0.00199566,0.0028228,0.00395458,0.00550321,0.00762223,0.0105217,0.0144891,0.0199178,0.0273459,inf	251.865,251.865,270.016,189.419,303.829,413.163,444.634,438.545,417.831,456.077,523.969,412.021,318.133,212.403,212.403,212.403
0.000896226	-304821.21	0,9.21031e-05,0.000218129,0.000390572,0.000626529,0.000949392,0.00139117,0.00199566,0.0028228,0.00395458,0.00550321,0.00762223,0.0105217,0.0144891,0.0199178,0.0273459,inf	250.987,250.987,273.146,185.34,305.156,416.841,445.772,437.1,413.981,455.221,531.221,409.761,312.521,204.907,204.907,204.907
0.000916546	-304817.83	0,9.21031e-05,0.000218129,0.000390572,0.000626529,0.000949392,0.00139117,0.00199566,0.0028228,0.00395458,0.00550321,0.00762223,0.0105217,0.0144891,0.0199178,0.0273459,inf	250.05,250.05,276.023,181.662,306.666,420.328,446.768,435.702,410.273,454.22,538.149,407.491,307.617,198.519,198.519,198.519
0.000936077	-304814.91	0,9.21031e-05,0.000218129,0.000390572,0.000626529,0.000949392,0.00139117,0.00199566,0.0028228,0.00395458,0.00550321,0.00762223,0.0105217,0.0144891,0.0199178,0.0273459,inf	249.135,249.135,278.65,178.31,308.296,423.617,447.645,434.368,406.718,453.117,544.805,405.222,303.333,193.031,193.031,193.031
0.000954861	-304812.39	0,9.21031e-05,0.000218129,0.000390572,0.000626529,0.000949392,0.00139117,0.00199566,0.0028228,0.00395458,0.00550321,0.00762223,0.0105217,0.0144891,0.0199178,0.0273459,inf	248.288,248.288,281.047,175.228,310.006,426.713,448.422,433.106,403.317,451.939,551.227,402.961,299.59,188.281,188.281,188.281
0.000972937	-304810.22	0,9.21031e-05,0.000218129,0.000390572,0.000626529,0.000949392,0.00139117,0.00199566,0.0028228,0.00395458,0.00550321,0.00762223,0.0105217,0.0144891,0.0199178,0.0273459,inf	247.533,247.533,283.231,172.376,311.767,429.619,449.113,431.918,400.066,450.706,557.442,400.706,296.319,184.14,184.14,184.14
0.000990338	-304808.35	0,9.21031e-05,0.000218129,0.000390572,0.000626529,0.000949392,0.00139117,0.00199566,0.0028228,0.00395458,0.00550321,0.00762223,0.0105217,0.0144891,0.0199178,0.0273459,inf	246.879,246.879,285.222,169.722,313.559,432.346,449.731,430.805,396.958,449.43,563.473,398.454,293.461,180.503,180.503,180.503
0.0010071	-304806.75	0,9.21031e-05,0.000218129,0.000390572,0.000626529,0.000949392,0.00139117,0.00199566,0.0028228,0.00395458,0.00550321,0.00762223,0.0105217,0.0144891,0.0199178,0.0273459,inf	246.324,246.324,287.038,167.243,315.367,434.903,450.287,429.764,393.985,448.123,569.338,396.2,290.962,177.287,177.287,177.287
0.00102324	-304805.38	0,9.21031e-05,0.000218129,0.000390572,0.000626529,0.000949392,0.00139117,0.00199566,0.0028228,0.00395458,0.00550321,0.00762223,0.0105217,0.0144891,0.0199178,0.0273459,inf	245.864,245.864,288.697,164.918,317.181,437.298,450.787,428.792,391.14,446.791,575.051,393.941,288.779,174.424,174.424,174.424
0.0010388	-304804.21	0,9.21031e-05,0.000218129,0.000390572,0.000626529,0.000949392,0.00139117,0.00199566,0.0028228,0.00395458,0.00550321,0.00762223,0.0105217,0.0144891,0.0199178,0.0273459,inf	245.492,245.492,290.216,162.73,318.993,439.542,451.241,427.888,388.415,445.439,580.628,391.672,286.872,171.861,171.861,171.861
0.00105379	-304803.22	0,9.21031e-05,0.000218129,0.000390572,0.000626529,0.000949392,0.00139117,0.00199566,0.0028228,0.00395458,0.00550321,0.00762223,0.0105217,0.0144891,0.0199178,0.0273459,inf	245.199,245.199,291.61,160.665,320.796,441.645,451.654,427.047,385.801,444.072,586.079,389.389,285.208,169.551,169.551,169.551
0.00106825	-304802.39	0,9.21031e-05,0.000218129,0.000390572,0.000626529,0.000949392,0.00139117,0.00199566,0.0028228,0.00395458,0.00550321,0.00762223,0.0105217,0.0144891,0.0199178,0.0273459,inf	244.974,244.974,292.891,158.712,322.585,443.614,452.032,426.266,383.291,442.693,591.415,387.089,283.761,167.458,167.458,167.458
