0.000680264	-315327.82	0,9.54192e-05,0.000225983,0.000404635,0.000649087,0.000983575,0.00144126,0.00206752,0.00292443,0.00409696,0.00570136,0.00789667,0.0109006,0.0150108,0.0206349,0.0283305,inf	276.267,276.267,303.029,291.241,307.969,338.324,374.514,403.006,417.13,432.868,438.032,431.36,412.821,241.717,241.717,241.717
0.000712413	-315252.17	0,9.54192e-05,0.000225983,0.000404635,0.000649087,0.000983575,0.00144126,0.00206752,0.00292443,0.00409696,0.00570136,0.00789667,0.0109006,0.0150108,0.0206349,0.0283305,inf	252.279,252.279,291.506,259.312,278.283,318.95,370.075,410.959,431.497,463.786,480.832,472.253,439.559,150.817,150.817,150.817
0.000741589	-315222.36	0,9.54192e-05,0.000225983,0.000404635,0.000649087,0.000983575,0.00144126,0.00206752,0.00292443,0.00409696,0.00570136,0.00789667,0.0109006,0.0150108,0.0206349,0.0283305,inf	246.491,246.491,298.45,245.538,264.419,309.489,367.874,413.857,436.306,483.586,516.131,509.431,467.281,56.5944,56.5944,56.5944
0.000768404	-315210.08	0,9.54192e-05,0.000225983,0.000404635,0.000649087,0.000983575,0.00144126,0.00206752,0.00292443,0.00409696,0.00570136,0.00789667,0.0109006,0.0150108,0.0206349,0.0283305,inf	244.326,244.326,309.835,238.172,257.343,304.682,366.965,414.35,436.046,496.11,546.346,546.725,493.929,22.5352,22.5352,22.5352
0.000792138	-315208.67	0,9.54192e-05,0.000225983,0.000404635,0.000649087,0.000983575,0.00144126,0.00206752,0.00292443,0.00409696,0.00570136,0.00789667,0.0109006,0.0150108,0.0206349,0.0283305,inf	242.394,242.394,321.597,233.469,253.633,302.298,366.747,413.511,432.957,503.62,573.123,589.171,506.119,29.895,29.895,29.895
0.000814442	-315197.20	0,9.54192e-05,0.000225983,0.000404635,0.000649087,0.000983575,0.00144126,0.00206752,0.00292443,0.00409696,0.00570136,0.00789667,0.0109006,0.0150108,0.0206349,0.0283305,inf	240.053,240.053,332.773,230.067,251.802,301.429,367.236,412.298,428.479,507.247,594.702,623.959,491.118,23.96,23.96,23.96
0.000835042	-315194.05	0,9.54192e-05,0.000225983,0.000404635,0.000649087,0.000983575,0.00144126,0.00206752,0.00292443,0.00409696,0.00570136,0.00789667,0.0109006,0.0150108,0.0206349,0.0283305,inf	237.465,237.465,342.561,227.132,250.993,301.426,368.18,411.023,423.526,508.701,614.072,661.471,469.479,26.3536,26.3536,26.3536
0.00085449	-315188.67	0,9.54192e-05,0.000225983,0.000404635,0.000649087,0.000983575,0.00144126,0.00206752,0.00292443,0.00409696,0.00570136,0.00789667,0.0109006,0.0150108,0.0206349,0.0283305,inf	234.905,234.905,351.041,224.402,250.782,301.961,369.47,409.85,418.449,508.496,630.983,697.924,444.316,23.8219,23.8219,23.8219
0.000872702	-315186.38	0,9.54192e-05,0.000225983,0.000404635,0.000649087,0.000983575,0.00144126,0.00206752,0.00292443,0.00409696,0.00570136,0.00789667,0.0109006,0.0150108,0.0206349,0.0283305,inf	232.569,232.569,358.306,221.742,250.915,302.79,370.956,408.792,413.453,507.196,646.421,737.945,418.647,24.275,24.275,24.275
0.000889925	-315183.38	0,9.54192e-05,0.000225983,0.000404635,0.000649087,0.000983575,0.00144126,0.00206752,0.00292443,0.00409696,0.00570136,0.00789667,0.0109006,0.0150108,0.0206349,0.0283305,inf	230.539,230.539,364.584,219.126,251.257,303.791,372.576,407.877,408.625,505.028,660.281,779.861,392.334,22.8158,22.8158,22.8158
0.00090615	-315181.87	0,9.54192e-05,0.000225983,0.000404635,0.000649087,0.000983575,0.00144126,0.00206752,0.00292443,0.00409696,0.00570136,0.00789667,0.0109006,0.0150108,0.0206349,0.0283305,inf	228.84,228.84,370.038,216.544,251.723,304.869,374.257,407.088,404.015,502.241,672.993,826.692,365.445,22.2655,22.2655,22.2655
0.000921493	-315180.39	0,9.54192e-05,0.000225983,0.000404635,0.000649087,0.000983575,0.00144126,0.00206752,0.00292443,0.00409696,0.00570136,0.00789667,0.0109006,0.0150108,0.0206349,0.0283305,inf	227.453,227.453,374.833,214.005,252.263,305.972,375.969,406.423,399.637,498.957,684.56,878.649,337.288,20.9631,20.9631,20.9631
0.000935972	-315179.77	0,9.54192e-05,0.000225983,0.000404635,0.000649087,0.000983575,0.00144126,0.00206752,0.00292443,0.00409696,0.00570136,0.00789667,0.0109006,0.0150108,0.0206349,0.0283305,inf	226.339,226.339,379.094,211.518,252.844,307.061,377.676,405.865,395.494,495.294,695.175,938.781,307.216,19.6841,19.6841,19.6841
0.000949638	-315179.59	0,9.54192e-05,0.000225983,0.000404635,0.000649087,0.000983575,0.00144126,0.00206752,0.00292443,0.00409696,0.00570136,0.00789667,0.0109006,0.0150108,0.0206349,0.0283305,inf	225.454,225.454,382.932,209.092,253.449,308.112,379.359,405.403,391.573,491.315,704.875,1009.97,274.229,17.9079,17.9079,17.9079
0.0009625	-315180.20	0,9.54192e-05,0.000225983,0.000404635,0.000649087,0.000983575,0.00144126,0.00206752,0.00292443,0.00409696,0.00570136,0.00789667,0.0109006,0.0150108,0.0206349,0.0283305,inf	224.758,224.758,386.441,206.737,254.064,309.11,380.998,405.017,387.857,487.065,713.725,1098.17,236.974,15.605,15.605,15.605
0.000974559	-315181.67	0,9.54192e-05,0.000225983,0.000404635,0.000649087,0.000983575,0.00144126,0.00206752,0.00292443,0.00409696,0.00570136,0.00789667,0.0109006,0.0150108,0.0206349,0.0283305,inf	224.209,224.209,389.715,204.464,254.679,310.039,382.577,404.688,384.316,482.554,721.709,1213.41,193.5,12.4159,12.4159,12.4159
0.000985799	-315184.23	0,9.54192e-05,0.000225983,0.000404635,0.000649087,0.000983575,0.00144126,0.00206752,0.00292443,0.00409696,0.00570136,0.00789667,0.0109006,0.0150108,0.0206349,0.0283305,inf	223.765,223.765,392.874,202.286,255.288,310.888,384.074,404.383,380.904,477.746,728.693,1374.22,141.359,8.09827,8.09827,8.09827
0.00099629	-315187.26	0,9.54192e-05,0.000225983,0.000404635,0.000649087,0.000983575,0.00144126,0.00206752,0.00292443,0.00409696,0.00570136,0.00789667,0.0109006,0.0150108,0.0206349,0.0283305,inf	223.38,223.38,396.053,200.222,255.894,311.663,385.498,404.103,377.596,472.604,734.433,1599.54,81.8313,3.8036,3.8036,3.8036
0.00100633	-315189.16	0,9.54192e-05,0.000225983,0.000404635,0.000649087,0.000983575,0.00144126,0.00206752,0.00292443,0.00409696,0.00570136,0.00789667,0.0109006,0.0150108,0.0206349,0.0283305,inf	222.998,222.998,399.045,198.215,256.487,312.392,386.917,403.924,374.436,467.199,738.771,1758.75,35.8485,2.40917,2.40917,2.40917
0.0010161	-315189.12	0,9.54192e-05,0.000225983,0.000404635,0.000649087,0.000983575,0.00144126,0.00206752,0.00292443,0.00409696,0.00570136,0.00789667,0.0109006,0.0150108,0.0206349,0.0283305,inf	222.638,222.638,401.695,196.225,257.068,313.099,388.396,403.963,371.588,461.895,742.426,1641.43,22.3678,2.44183,2.44183,2.44183
