AIC = 2451636.5232117972337

y0 0.88806254739090839667
y0_prime 0
y1 1.0966268006701860305
y1_prime 0
y2 0.90596352405993463286
y2_prime 0
y3 1.690763881830636306
y3_prime 0
rho 0.0014430397375165332149
theta 0.0050592425841392892755
