AIC = 3063581.303318219725

y0 0.89999261143739839319
y0_prime 0
y1 1.0796661198100723222
y1_prime 0
y2 0.91669028213333503263
y2_prime 0
y3 1.6733145508864177842
y3_prime 0
rho 0.0014379787770087116248
theta 0.0050579933827563259771
