0.000710524	-18337394.84	0,9.84323e-06,2.20183e-05,3.70777e-05,5.57048e-05,7.87445e-05,0.000107242,0.000142492,0.000186091,0.00024002,0.000306724,0.000389231,0.000491284,0.000617513,0.000773646,0.000966767,0.00120564,0.0015011,0.00186656,0.00231859,0.00287771,0.00356929,0.0044247,0.00548276,0.00679148,0.00841023,0.0104125,0.0128891,0.0159523,0.0197413,0.0244279,0.0302247,inf	414.142,414.142,388.099,378.815,370.143,357.745,347.28,340.736,337.849,338.043,340.849,345.784,352.295,360.196,369.779,381.086,393.495,405.794,416.333,423.507,426.403,425.36,421.723,416.718,411.167,405.671,400.349,396.066,396.066,407.132,407.132,407.132
0.000793533	-18328887.22	0,9.84323e-06,2.20183e-05,3.70777e-05,5.57048e-05,7.87445e-05,0.000107242,0.000142492,0.000186091,0.00024002,0.000306724,0.000389231,0.000491284,0.000617513,0.000773646,0.000966767,0.00120564,0.0015011,0.00186656,0.00231859,0.00287771,0.00356929,0.0044247,0.00548276,0.00679148,0.00841023,0.0104125,0.0128891,0.0159523,0.0197413,0.0244279,0.0302247,inf	435.366,435.366,401.452,391.884,379.47,357.945,339.477,327.577,321.556,320.356,323.159,329.089,337.137,347.031,359.411,374.515,391.551,408.866,424.142,434.98,439.753,438.563,433.169,425.254,416.087,406.761,397.578,390.421,390.421,412.305,412.305,412.305
0.000871704	-18322691.77	0,9.84323e-06,2.20183e-05,3.70777e-05,5.57048e-05,7.87445e-05,0.000107242,0.000142492,0.000186091,0.00024002,0.000306724,0.000389231,0.000491284,0.000617513,0.000773646,0.000966767,0.00120564,0.0015011,0.00186656,0.00231859,0.00287771,0.00356929,0.0044247,0.00548276,0.00679148,0.00841023,0.0104125,0.0128891,0.0159523,0.0197413,0.0244279,0.0302247,inf	438.503,438.503,406.959,403.078,390.975,363.691,340.114,324.958,317.095,315.079,317.813,324.069,332.437,342.638,355.681,372.017,390.799,410.198,427.636,440.378,446.364,445.377,439.203,429.587,418.027,405.992,393.977,384.908,384.908,417.001,417.001,417.001
0.000945404	-18317821.67	0,9.84323e-06,2.20183e-05,3.70777e-05,5.57048e-05,7.87445e-05,0.000107242,0.000142492,0.000186091,0.00024002,0.000306724,0.000389231,0.000491284,0.000617513,0.000773646,0.000966767,0.00120564,0.0015011,0.00186656,0.00231859,0.00287771,0.00356929,0.0044247,0.00548276,0.00679148,0.00841023,0.0104125,0.0128891,0.0159523,0.0197413,0.0244279,0.0302247,inf	431.405,431.405,404.673,408.771,399.095,368.38,341.837,325.042,316.446,314.295,317.26,323.783,332.099,341.99,354.843,371.317,390.545,410.627,428.908,442.559,449.282,448.582,442.111,431.49,418.312,404.326,390.199,379.866,379.866,421.456,421.456,421.456
0.00101505	-18313862.34	0,9.84323e-06,2.20183e-05,3.70777e-05,5.57048e-05,7.87445e-05,0.000107242,0.000142492,0.000186091,0.00024002,0.000306724,0.000389231,0.000491284,0.000617513,0.000773646,0.000966767,0.00120564,0.0015011,0.00186656,0.00231859,0.00287771,0.00356929,0.0044247,0.00548276,0.00679148,0.00841023,0.0104125,0.0128891,0.0159523,0.0197413,0.0244279,0.0302247,inf	421.498,421.498,398.184,410.351,403.759,370.968,342.854,325.508,316.959,315.196,318.684,325.547,333.707,343.059,355.372,371.492,390.547,410.603,429.028,443.01,450.147,449.717,443.191,431.977,417.688,402.274,386.548,375.394,375.394,425.794,425.794,425.794
0.00108102	-18310578.55	0,9.84323e-06,2.20183e-05,3.70777e-05,5.57048e-05,7.87445e-05,0.000107242,0.000142492,0.000186091,0.00024002,0.000306724,0.000389231,0.000491284,0.000617513,0.000773646,0.000966767,0.00120564,0.0015011,0.00186656,0.00231859,0.00287771,0.00356929,0.0044247,0.00548276,0.00679148,0.00841023,0.0104125,0.0128891,0.0159523,0.0197413,0.0244279,0.0302247,inf	412.581,412.581,390.383,409.801,406.115,371.915,343.05,325.812,317.795,316.758,320.97,328.245,336.222,344.953,356.584,372.129,390.705,410.371,428.556,442.531,449.862,449.656,443.193,431.638,416.579,400.109,383.155,371.489,371.489,430.08,430.08,430.08
0.00114364	-18307816.88	0,9.84323e-06,2.20183e-05,3.70777e-05,5.57048e-05,7.87445e-05,0.000107242,0.000142492,0.000186091,0.00024002,0.000306724,0.000389231,0.000491284,0.000617513,0.000773646,0.000966767,0.00120564,0.0015011,0.00186656,0.00231859,0.00287771,0.00356929,0.0044247,0.00548276,0.00679148,0.00841023,0.0104125,0.0128891,0.0159523,0.0197413,0.0244279,0.0302247,inf	405.868,405.868,382.815,408.473,407.176,371.827,342.656,325.899,318.688,318.571,323.625,331.352,339.139,347.227,358.132,373.009,390.963,410.051,427.787,441.555,448.934,448.903,442.559,430.821,415.23,397.973,380.066,368.105,368.105,434.347,434.347,434.347
0.00120319	-18305469.37	0,9.84323e-06,2.20183e-05,3.70777e-05,5.57048e-05,7.87445e-05,0.000107242,0.000142492,0.000186091,0.00024002,0.000306724,0.000389231,0.000491284,0.000617513,0.000773646,0.000966767,0.00120564,0.0015011,0.00186656,0.00231859,0.00287771,0.00356929,0.0044247,0.00548276,0.00679148,0.00841023,0.0104125,0.0128891,0.0159523,0.0197413,0.0244279,0.0302247,inf	401.328,401.328,376.116,407.132,407.613,371.166,341.918,325.831,319.566,320.466,326.413,334.602,342.195,349.647,359.825,374.009,391.279,409.7,426.878,440.324,447.653,447.753,441.553,429.734,413.779,395.934,377.281,365.183,365.183,438.605,438.605,438.605
0.0012599	-18303456.46	0,9.84323e-06,2.20183e-05,3.70777e-05,5.57048e-05,7.87445e-05,0.000107242,0.000142492,0.000186091,0.00024002,0.000306724,0.000389231,0.000491284,0.000617513,0.000773646,0.000966767,0.00120564,0.0015011,0.00186656,0.00231859,0.00287771,0.00356929,0.0044247,0.00548276,0.00679148,0.00841023,0.0104125,0.0128891,0.0159523,0.0197413,0.0244279,0.0302247,inf	398.515,398.515,370.441,406.132,407.811,370.234,341.017,325.684,320.421,322.369,329.219,337.857,345.25,352.082,361.555,375.054,391.626,409.345,425.913,438.972,446.19,446.384,440.335,428.503,412.306,394.023,374.783,362.662,362.662,442.859,442.859,442.859
0.00131398	-18301717.73	0,9.84323e-06,2.20183e-05,3.70777e-05,5.57048e-05,7.87445e-05,0.000107242,0.000142492,0.000186091,0.00024002,0.000306724,0.000389231,0.000491284,0.000617513,0.000773646,0.000966767,0.00120564,0.0015011,0.00186656,0.00231859,0.00287771,0.00356929,0.0044247,0.00548276,0.00679148,0.00841023,0.0104125,0.0128891,0.0159523,0.0197413,0.0244279,0.0302247,inf	396.94,396.94,365.747,405.606,407.983,369.215,340.074,325.519,321.262,324.25,331.984,341.044,348.225,354.458,363.261,376.099,391.984,408.998,424.938,437.578,444.643,444.903,439.005,427.204,410.857,392.25,372.544,360.487,360.487,447.109,447.109,447.109
0.00136562	-18300206.26	0,9.84323e-06,2.20183e-05,3.70777e-05,5.57048e-05,7.87445e-05,0.000107242,0.000142492,0.000186091,0.00024002,0.000306724,0.000389231,0.000491284,0.000617513,0.000773646,0.000966767,0.00120564,0.0015011,0.00186656,0.00231859,0.00287771,0.00356929,0.0044247,0.00548276,0.00679148,0.00841023,0.0104125,0.0128891,0.0159523,0.0197413,0.0244279,0.0302247,inf	396.199,396.199,361.907,405.572,408.233,368.215,339.165,325.38,322.102,326.1,334.68,344.124,351.082,356.738,364.908,377.119,392.341,408.663,423.979,436.186,443.075,443.377,437.623,425.885,409.454,390.615,370.537,358.607,358.607,451.352,451.352,451.352
0.00141497	-18298884.96	0,9.84323e-06,2.20183e-05,3.70777e-05,5.57048e-05,7.87445e-05,0.000107242,0.000142492,0.000186091,0.00024002,0.000306724,0.000389231,0.000491284,0.000617513,0.000773646,0.000966767,0.00120564,0.0015011,0.00186656,0.00231859,0.00287771,0.00356929,0.0044247,0.00548276,0.00679148,0.00841023,0.0104125,0.0128891,0.0159523,0.0197413,0.0244279,0.0302247,inf	395.987,395.987,358.788,405.999,408.595,367.287,338.333,325.291,322.953,327.915,337.294,347.079,353.801,358.902,366.476,378.098,392.687,408.343,423.048,434.822,441.519,441.845,436.229,424.575,408.113,389.109,368.736,356.981,356.981,455.586,455.586,455.586
0.00146219	-18297724.16	0,9.84323e-06,2.20183e-05,3.70777e-05,5.57048e-05,7.87445e-05,0.000107242,0.000142492,0.000186091,0.00024002,0.000306724,0.000389231,0.000491284,0.000617513,0.000773646,0.000966767,0.00120564,0.0015011,0.00186656,0.00231859,0.00287771,0.00356929,0.0044247,0.00548276,0.00679148,0.00841023,0.0104125,0.0128891,0.0159523,0.0197413,0.0244279,0.0302247,inf	396.052,396.052,356.237,406.82,409.078,366.457,337.599,325.267,323.823,329.696,339.82,349.902,356.373,360.943,367.959,379.029,393.019,408.036,422.153,433.501,439.998,440.333,434.846,423.29,406.837,387.723,367.117,355.573,355.573,459.805,459.805,459.805
0.00150741	-18296699.81	0,9.84323e-06,2.20183e-05,3.70777e-05,5.57048e-05,7.87445e-05,0.000107242,0.000142492,0.000186091,0.00024002,0.000306724,0.000389231,0.000491284,0.000617513,0.000773646,0.000966767,0.00120564,0.0015011,0.00186656,0.00231859,0.00287771,0.00356929,0.0044247,0.00548276,0.00679148,0.00841023,0.0104125,0.0128891,0.0159523,0.0197413,0.0244279,0.0302247,inf	396.28,396.28,354.164,407.979,409.67,365.737,336.972,325.318,324.715,331.443,342.257,352.591,358.799,362.858,369.353,379.909,393.334,407.744,421.295,432.229,438.523,438.857,433.49,422.042,405.628,386.449,365.657,354.353,354.353,464.009,464.009,464.009
0.00155074	-18295792.21	0,9.84323e-06,2.20183e-05,3.70777e-05,5.57048e-05,7.87445e-05,0.000107242,0.000142492,0.000186091,0.00024002,0.000306724,0.000389231,0.000491284,0.000617513,0.000773646,0.000966767,0.00120564,0.0015011,0.00186656,0.00231859,0.00287771,0.00356929,0.0044247,0.00548276,0.00679148,0.00841023,0.0104125,0.0128891,0.0159523,0.0197413,0.0244279,0.0302247,inf	396.584,396.584,352.467,409.408,410.351,365.119,336.452,325.443,325.632,333.158,344.607,355.149,361.082,364.65,370.66,380.736,393.63,407.464,420.477,431.01,437.101,437.424,432.17,420.836,404.484,385.275,364.337,353.295,353.295,468.193,468.193,468.193
0.00159231	-18294985.12	0,9.84323e-06,2.20183e-05,3.70777e-05,5.57048e-05,7.87445e-05,0.000107242,0.000142492,0.000186091,0.00024002,0.000306724,0.000389231,0.000491284,0.000617513,0.000773646,0.000966767,0.00120564,0.0015011,0.00186656,0.00231859,0.00287771,0.00356929,0.0044247,0.00548276,0.00679148,0.00841023,0.0104125,0.0128891,0.0159523,0.0197413,0.0244279,0.0302247,inf	396.915,396.915,351.078,411.056,411.103,364.597,336.037,325.641,326.571,334.843,346.873,357.581,363.227,366.325,371.881,381.512,393.908,407.198,419.697,429.845,435.735,436.04,430.891,419.674,403.404,384.192,363.141,352.376,352.376,472.358,472.358,472.358
0.0016322	-18294265.01	0,9.84323e-06,2.20183e-05,3.70777e-05,5.57048e-05,7.87445e-05,0.000107242,0.000142492,0.000186091,0.00024002,0.000306724,0.000389231,0.000491284,0.000617513,0.000773646,0.000966767,0.00120564,0.0015011,0.00186656,0.00231859,0.00287771,0.00356929,0.0044247,0.00548276,0.00679148,0.00841023,0.0104125,0.0128891,0.0159523,0.0197413,0.0244279,0.0302247,inf	397.239,397.239,349.929,412.872,411.898,364.163,335.717,325.907,327.532,336.498,349.057,359.891,365.243,367.889,373.022,382.239,394.168,406.943,418.954,428.733,434.426,434.707,429.656,418.558,402.383,383.192,362.054,351.58,351.58,476.498,476.498,476.498
0.00167052	-18293620.55	0,9.84323e-06,2.20183e-05,3.70777e-05,5.57048e-05,7.87445e-05,0.000107242,0.000142492,0.000186091,0.00024002,0.000306724,0.000389231,0.000491284,0.000617513,0.000773646,0.000966767,0.00120564,0.0015011,0.00186656,0.00231859,0.00287771,0.00356929,0.0044247,0.00548276,0.00679148,0.00841023,0.0104125,0.0128891,0.0159523,0.0197413,0.0244279,0.0302247,inf	397.554,397.554,348.975,414.811,412.722,363.801,335.487,326.236,328.514,338.124,351.165,362.088,367.136,369.349,374.087,382.92,394.411,406.699,418.247,427.673,433.173,433.425,428.465,417.487,401.419,382.266,361.064,350.889,350.889,480.618,480.618,480.618
0.00170735	-18293042.17	0,9.84323e-06,2.20183e-05,3.70777e-05,5.57048e-05,7.87445e-05,0.000107242,0.000142492,0.000186091,0.00024002,0.000306724,0.000389231,0.000491284,0.000617513,0.000773646,0.000966767,0.00120564,0.0015011,0.00186656,0.00231859,0.00287771,0.00356929,0.0044247,0.00548276,0.00679148,0.00841023,0.0104125,0.0128891,0.0159523,0.0197413,0.0244279,0.0302247,inf	397.835,397.835,348.186,416.845,413.558,363.506,335.338,326.624,329.513,339.722,353.198,364.176,368.914,370.711,375.081,383.557,394.637,406.466,417.575,426.663,431.974,432.194,427.318,416.461,400.507,381.408,360.159,350.291,350.291,484.712,484.712,484.712
0.00174276	-18292521.76	0,9.84323e-06,2.20183e-05,3.70777e-05,5.57048e-05,7.87445e-05,0.000107242,0.000142492,0.000186091,0.00024002,0.000306724,0.000389231,0.000491284,0.000617513,0.000773646,0.000966767,0.00120564,0.0015011,0.00186656,0.00231859,0.00287771,0.00356929,0.0044247,0.00548276,0.00679148,0.00841023,0.0104125,0.0128891,0.0159523,0.0197413,0.0244279,0.0302247,inf	398.106,398.106,347.526,418.944,414.395,363.263,335.258,327.062,330.527,341.291,355.159,366.162,370.584,371.982,376.009,384.154,394.848,406.242,416.935,425.7,430.828,431.012,426.216,415.477,399.645,380.612,359.33,349.773,349.773,488.783,488.783,488.783
