time_index	left_time_boundary	right_time_boundary	lambda
0	0	4.04825e-06	1161.83
1	4.04825e-06	1.10726e-05	1161.83
2	1.10726e-05	2.32607e-05	127.327
3	2.32607e-05	4.4409e-05	585.478
4	4.4409e-05	8.11042e-05	472.968
5	8.11042e-05	0.000144776	391.401
6	0.000144776	0.000255255	331.791
7	0.000255255	0.000446952	415.536
8	0.000446952	0.000779575	373.422
9	0.000779575	0.00135672	357.223
10	0.00135672	0.00235816	478.556
11	0.00235816	0.00409579	411.653
12	0.00409579	0.00711084	261.626
13	0.00711084	0.0123424	13983.2
14	0.0123424	0.0214198	13983.2
15	0.0214198	inf	13983.2
