time_index	left_time_boundary	right_time_boundary	lambda
0	0	1.02722e-05	603.929
1	1.02722e-05	2.69135e-05	603.929
2	2.69135e-05	5.38729e-05	391.533
3	5.38729e-05	9.75479e-05	464.253
4	9.75479e-05	0.000168303	409.669
5	0.000168303	0.000282928	384.137
6	0.000282928	0.000468625	377.719
7	0.000468625	0.000769459	352.023
8	0.000769459	0.00125682	359.541
9	0.00125682	0.00204636	441.27
10	0.00204636	0.00332544	479.701
11	0.00332544	0.00539759	345.431
12	0.00539759	0.00875454	417.845
13	0.00875454	0.0141929	50823.9
14	0.0141929	0.0230032	50823.9
15	0.0230032	inf	50823.9
