0.000637306	-295552.85	0,8.95273e-05,0.000212029,0.000379649,0.000609007,0.000922841,0.00135226,0.00193985,0.00274385,0.00384398,0.00534931,0.00740906,0.0102275,0.0140839,0.0193608,0.0265811,inf	367.077,367.077,350.613,366.971,389.892,400.668,422.282,442.469,436.065,420.708,400.478,362.541,331.306,378.568,378.568,378.568
0.00066492	-295524.66	0,8.95273e-05,0.000212029,0.000379649,0.000609007,0.000922841,0.00135226,0.00193985,0.00274385,0.00384398,0.00534931,0.00740906,0.0102275,0.0140839,0.0193608,0.0265811,inf	364.26,364.26,329.509,349.626,382.38,392.853,426.565,462.984,452.548,427.181,393.011,329.597,284.187,363.37,363.37,363.37
0.000690217	-295510.06	0,8.95273e-05,0.000212029,0.000379649,0.000609007,0.000922841,0.00135226,0.00193985,0.00274385,0.00384398,0.00534931,0.00740906,0.0102275,0.0140839,0.0193608,0.0265811,inf	368.859,368.859,321.143,342.124,380.361,386.085,427.123,476.77,463.728,432.116,388.477,306.783,253.371,354.914,354.914,354.914
0.000713376	-295501.11	0,8.95273e-05,0.000212029,0.000379649,0.000609007,0.000922841,0.00135226,0.00193985,0.00274385,0.00384398,0.00534931,0.00740906,0.0102275,0.0140839,0.0193608,0.0265811,inf	372.982,372.982,317.713,339.026,381.136,380.123,425.832,486.325,471.416,436.132,386.198,290.572,231.716,349.761,349.761,349.761
0.000734614	-295494.98	0,8.95273e-05,0.000212029,0.000379649,0.000609007,0.000922841,0.00135226,0.00193985,0.00274385,0.00384398,0.00534931,0.00740906,0.0102275,0.0140839,0.0193608,0.0265811,inf	375.211,375.211,316.402,338.105,383.519,374.873,423.704,493.161,476.706,439.496,385.546,278.773,215.668,346.423,346.423,346.423
0.000754124	-295490.44	0,8.95273e-05,0.000212029,0.000379649,0.000609007,0.000922841,0.00135226,0.00193985,0.00274385,0.00384398,0.00534931,0.00740906,0.0102275,0.0140839,0.0193608,0.0265811,inf	375.798,375.798,316.042,338.289,386.868,370.231,421.263,498.204,480.288,442.327,386.023,269.997,203.274,344.142,344.142,344.142
0.000772074	-295486.89	0,8.95273e-05,0.000212029,0.000379649,0.000609007,0.000922841,0.00135226,0.00193985,0.00274385,0.00384398,0.00534931,0.00740906,0.0102275,0.0140839,0.0193608,0.0265811,inf	375.281,375.281,316.094,339.001,390.795,366.094,418.777,502.042,482.622,444.697,387.259,263.344,193.383,342.5,342.5,342.5
0.00078861	-295484.02	0,8.95273e-05,0.000212029,0.000379649,0.000609007,0.000922841,0.00135226,0.00193985,0.00274385,0.00384398,0.00534931,0.00740906,0.0102275,0.0140839,0.0193608,0.0265811,inf	374.127,374.127,316.299,339.915,395.052,362.372,416.385,505.058,484.028,446.658,388.991,258.216,185.277,341.253,341.253,341.253
0.000803864	-295481.65	0,8.95273e-05,0.000212029,0.000379649,0.000609007,0.000922841,0.00135226,0.00193985,0.00274385,0.00384398,0.00534931,0.00740906,0.0102275,0.0140839,0.0193608,0.0265811,inf	372.661,372.661,316.532,340.846,399.48,358.986,414.152,507.508,484.736,448.259,391.035,254.206,178.488,340.253,340.253,340.253
0.000817949	-295479.67	0,8.95273e-05,0.000212029,0.000379649,0.000609007,0.000922841,0.00135226,0.00193985,0.00274385,0.00384398,0.00534931,0.00740906,0.0102275,0.0140839,0.0193608,0.0265811,inf	371.092,371.092,316.738,341.687,403.973,355.875,412.105,509.57,484.918,449.545,393.263,251.033,172.7,339.412,339.412,339.412
0.000830967	-295477.99	0,8.95273e-05,0.000212029,0.000379649,0.000609007,0.000922841,0.00135226,0.00193985,0.00274385,0.00384398,0.00534931,0.00740906,0.0102275,0.0140839,0.0193608,0.0265811,inf	369.54,369.54,316.895,342.384,408.461,352.987,410.25,511.363,484.701,450.559,395.587,248.496,167.689,338.673,338.673,338.673
0.000843012	-295476.58	0,8.95273e-05,0.000212029,0.000379649,0.000609007,0.000922841,0.00135226,0.00193985,0.00274385,0.00384398,0.00534931,0.00740906,0.0102275,0.0140839,0.0193608,0.0265811,inf	368.077,368.077,317.003,342.908,412.903,350.283,408.58,512.974,484.18,451.338,397.948,246.45,163.297,338.001,338.001,338.001
0.000854164	-295475.39	0,8.95273e-05,0.000212029,0.000379649,0.000609007,0.000922841,0.00135226,0.00193985,0.00274385,0.00384398,0.00534931,0.00740906,0.0102275,0.0140839,0.0193608,0.0265811,inf	366.733,366.733,317.07,343.253,417.27,347.728,407.084,514.461,483.429,451.917,400.303,244.789,159.407,337.376,337.376,337.376
0.000864497	-295474.37	0,8.95273e-05,0.000212029,0.000379649,0.000609007,0.000922841,0.00135226,0.00193985,0.00274385,0.00384398,0.00534931,0.00740906,0.0102275,0.0140839,0.0193608,0.0265811,inf	365.522,365.522,317.108,343.42,421.545,345.297,405.748,515.867,482.504,452.325,402.626,243.434,155.929,336.782,336.782,336.782
0.000874079	-295473.51	0,8.95273e-05,0.000212029,0.000379649,0.000609007,0.000922841,0.00135226,0.00193985,0.00274385,0.00384398,0.00534931,0.00740906,0.0102275,0.0140839,0.0193608,0.0265811,inf	364.439,364.439,317.128,343.418,425.72,342.967,404.557,517.221,481.447,452.588,404.898,242.323,152.795,336.214,336.214,336.214
0.000882968	-295472.78	0,8.95273e-05,0.000212029,0.000379649,0.000609007,0.000922841,0.00135226,0.00193985,0.00274385,0.00384398,0.00534931,0.00740906,0.0102275,0.0140839,0.0193608,0.0265811,inf	363.481,363.481,317.142,343.258,429.79,340.721,403.494,518.543,480.291,452.73,407.108,241.41,149.953,335.665,335.665,335.665
0.00089122	-295472.16	0,8.95273e-05,0.000212029,0.000379649,0.000609007,0.000922841,0.00135226,0.00193985,0.00274385,0.00384398,0.00534931,0.00740906,0.0102275,0.0140839,0.0193608,0.0265811,inf	362.631,362.631,317.16,342.954,433.755,338.545,402.548,519.849,479.062,452.77,409.249,240.66,147.36,335.133,335.133,335.133
0.000898884	-295471.63	0,8.95273e-05,0.000212029,0.000379649,0.000609007,0.000922841,0.00135226,0.00193985,0.00274385,0.00384398,0.00534931,0.00740906,0.0102275,0.0140839,0.0193608,0.0265811,inf	361.882,361.882,317.19,342.518,437.618,336.427,401.703,521.148,477.78,452.724,411.316,240.044,144.982,334.616,334.616,334.616
0.000906006	-295471.19	0,8.95273e-05,0.000212029,0.000379649,0.000609007,0.000922841,0.00135226,0.00193985,0.00274385,0.00384398,0.00534931,0.00740906,0.0102275,0.0140839,0.0193608,0.0265811,inf	361.221,361.221,317.238,341.962,441.382,334.356,400.949,522.448,476.46,452.606,413.308,239.538,142.791,334.115,334.115,334.115
0.000912627	-295470.81	0,8.95273e-05,0.000212029,0.000379649,0.000609007,0.000922841,0.00135226,0.00193985,0.00274385,0.00384398,0.00534931,0.00740906,0.0102275,0.0140839,0.0193608,0.0265811,inf	360.634,360.634,317.31,341.299,445.052,332.326,400.274,523.753,475.115,452.429,415.225,239.125,140.765,333.627,333.627,333.627
