0.000572426	-266413.52	0,3.69422e-05,8.01553e-05,0.000130704,0.000189833,0.000258999,0.000339907,0.000434548,0.000545254,0.000674754,0.000826235,0.00100343,0.00121071,0.00145316,0.00173678,0.00206854,0.00245662,0.00291057,0.00344158,0.00406273,0.00478932,0.00563925,0.00663346,0.00779643,0.00915682,0.0107481,0.0126096,0.014787,0.017334,0.0203134,0.0237985,0.0278753,inf	569.55,569.55,422.568,397.88,374.921,362.006,358.606,364.205,376.248,391.077,406.323,419.537,429.807,438.666,446.946,453.156,456.271,458.326,461.016,463.889,466.256,469.11,474.676,482.514,488.849,493.821,501.422,509.368,509.368,557.371,557.371,557.371
0.000601779	-266372.46	0,3.69422e-05,8.01553e-05,0.000130704,0.000189833,0.000258999,0.000339907,0.000434548,0.000545254,0.000674754,0.000826235,0.00100343,0.00121071,0.00145316,0.00173678,0.00206854,0.00245662,0.00291057,0.00344158,0.00406273,0.00478932,0.00563925,0.00663346,0.00779643,0.00915682,0.0107481,0.0126096,0.014787,0.017334,0.0203134,0.0237985,0.0278753,inf	644.943,644.943,427.671,393.189,353.859,330.854,322.858,329.647,347.239,369.328,391.834,410.397,423.646,434.738,445.424,453.125,456.041,457.846,461.502,465.957,469.793,474.895,485.561,501.091,514.149,525.049,542.279,562.183,562.183,700.135,700.135,700.135
0.000629616	-266349.65	0,3.69422e-05,8.01553e-05,0.000130704,0.000189833,0.000258999,0.000339907,0.000434548,0.000545254,0.000674754,0.000826235,0.00100343,0.00121071,0.00145316,0.00173678,0.00206854,0.00245662,0.00291057,0.00344158,0.00406273,0.00478932,0.00563925,0.00663346,0.00779643,0.00915682,0.0107481,0.0126096,0.014787,0.017334,0.0203134,0.0237985,0.0278753,inf	680.909,680.909,435.915,399.943,348.616,317.865,305.845,313.023,334.338,361.295,388.423,409.696,423.532,434.742,445.94,453.615,455.356,456.277,460.34,465.848,470.713,477.681,493.008,515.912,535.835,553.442,582.346,620.047,620.047,959.918,959.918,959.918
0.000655601	-266332.16	0,3.69422e-05,8.01553e-05,0.000130704,0.000189833,0.000258999,0.000339907,0.000434548,0.000545254,0.000674754,0.000826235,0.00100343,0.00121071,0.00145316,0.00173678,0.00206854,0.00245662,0.00291057,0.00344158,0.00406273,0.00478932,0.00563925,0.00663346,0.00779643,0.00915682,0.0107481,0.0126096,0.014787,0.017334,0.0203134,0.0237985,0.0278753,inf	693.354,693.354,440.886,408.387,348.153,311.333,295.96,303.411,327.684,358.402,388.904,411.673,425.097,435.608,446.593,453.678,453.96,453.842,458.084,464.343,469.931,478.443,497.975,527.816,554.568,579.509,622.242,686.506,686.506,1645.27,1645.27,1645.27
0.000679819	-266317.67	0,3.69422e-05,8.01553e-05,0.000130704,0.000189833,0.000258999,0.000339907,0.000434548,0.000545254,0.000674754,0.000826235,0.00100343,0.00121071,0.00145316,0.00173678,0.00206854,0.00245662,0.00291057,0.00344158,0.00406273,0.00478932,0.00563925,0.00663346,0.00779643,0.00915682,0.0107481,0.0126096,0.014787,0.017334,0.0203134,0.0237985,0.0278753,inf	694.748,694.748,442.391,416.224,349.266,307.542,289.359,297.111,323.92,357.748,390.902,414.511,427.061,436.552,447.041,453.332,452.113,450.955,455.262,462.056,468.124,477.892,501.184,537.476,570.912,603.713,662.699,766.929,766.929,5791.51,5791.51,5791.51
0.000679819	-266305.34	0,3.69422e-05,8.01553e-05,0.000130704,0.000189833,0.000258999,0.000339907,0.000434548,0.000545254,0.000674754,0.000826235,0.00100343,0.00121071,0.00145316,0.00173678,0.00206854,0.00245662,0.00291057,0.00344158,0.00406273,0.00478932,0.00563925,0.00663346,0.00779643,0.00915682,0.0107481,0.0126096,0.014787,0.017334,0.0203134,0.0237985,0.0278753,inf	685.452,685.452,436.578,418.424,347.028,301.76,281.45,289.502,318.262,354.368,389.322,413.173,424.648,433.115,443.135,448.799,446.491,444.707,449.293,456.699,463.302,474.304,501.072,543.394,583.439,624.702,702.864,867.806,867.806,94656.8,94656.8,94656.8
0.000679819	-266304.89	0,3.69422e-05,8.01553e-05,0.000130704,0.000189833,0.000258999,0.000339907,0.000434548,0.000545254,0.000674754,0.000826235,0.00100343,0.00121071,0.00145316,0.00173678,0.00206854,0.00245662,0.00291057,0.00344158,0.00406273,0.00478932,0.00563925,0.00663346,0.00779643,0.00915682,0.0107481,0.0126096,0.014787,0.017334,0.0203134,0.0237985,0.0278753,inf	683.349,683.349,434.537,422.47,347.028,299.242,276.596,284.781,315.384,353.702,390.422,414.471,424.811,432.224,441.759,446.734,443.193,440.582,445.189,452.888,459.652,471.464,501.259,549.385,589.24,624.702,702.864,867.806,867.806,94656.8,94656.8,94656.8
0.000679819	-266304.42	0,3.69422e-05,8.01553e-05,0.000130704,0.000189833,0.000258999,0.000339907,0.000434548,0.000545254,0.000674754,0.000826235,0.00100343,0.00121071,0.00145316,0.00173678,0.00206854,0.00245662,0.00291057,0.00344158,0.00406273,0.00478932,0.00563925,0.00663346,0.00779643,0.00915682,0.0107481,0.0126096,0.014787,0.017334,0.0203134,0.0237985,0.0278753,inf	682.531,682.531,433.123,425.16,347.028,297.905,272.883,281.093,313.408,353.782,392.193,416.51,425.789,432.266,441.458,445.856,441.129,437.679,442.236,450.095,456.829,469.218,501.807,555.73,590.668,624.702,702.864,867.806,867.806,94656.8,94656.8,94656.8
0.000679819	-266304.17	0,3.69422e-05,8.01553e-05,0.000130704,0.000189833,0.000258999,0.000339907,0.000434548,0.000545254,0.000674754,0.000826235,0.00100343,0.00121071,0.00145316,0.00173678,0.00206854,0.00245662,0.00291057,0.00344158,0.00406273,0.00478932,0.00563925,0.00663346,0.00779643,0.00915682,0.0107481,0.0126096,0.014787,0.017334,0.0203134,0.0237985,0.0278753,inf	682.25,682.25,432.072,426.661,347.028,297.251,269.785,277.896,311.668,353.972,394.113,418.622,426.277,432.266,441.458,445.567,439.757,435.518,440.023,447.953,454.563,467.378,502.619,561.207,590.777,624.702,702.864,867.806,867.806,94656.8,94656.8,94656.8
0.000679819	-266304.03	0,3.69422e-05,8.01553e-05,0.000130704,0.000189833,0.000258999,0.000339907,0.000434548,0.000545254,0.000674754,0.000826235,0.00100343,0.00121071,0.00145316,0.00173678,0.00206854,0.00245662,0.00291057,0.00344158,0.00406273,0.00478932,0.00563925,0.00663346,0.00779643,0.00915682,0.0107481,0.0126096,0.014787,0.017334,0.0203134,0.0237985,0.0278753,inf	682.307,682.307,431.371,427.292,347.028,297.14,267.155,275.053,310.219,354.242,395.948,420.526,426.277,432.266,441.458,445.567,438.846,433.872,438.333,446.304,452.696,465.836,503.639,565.227,590.777,624.702,702.864,867.806,867.806,94656.8,94656.8,94656.8
0.000679819	-266303.93	0,3.69422e-05,8.01553e-05,0.000130704,0.000189833,0.000258999,0.000339907,0.000434548,0.000545254,0.000674754,0.000826235,0.00100343,0.00121071,0.00145316,0.00173678,0.00206854,0.00245662,0.00291057,0.00344158,0.00406273,0.00478932,0.00563925,0.00663346,0.00779643,0.00915682,0.0107481,0.0126096,0.014787,0.017334,0.0203134,0.0237985,0.0278753,inf	682.32,682.32,430.973,427.656,347.028,297.14,264.893,272.465,308.881,354.545,397.746,422.018,426.277,432.266,441.458,445.567,438.266,432.603,437.023,445.031,451.138,464.531,504.873,565.249,593.185,624.702,702.864,867.806,867.806,94656.8,94656.8,94656.8
0.000679819	-266303.85	0,3.69422e-05,8.01553e-05,0.000130704,0.000189833,0.000258999,0.000339907,0.000434548,0.000545254,0.000674754,0.000826235,0.00100343,0.00121071,0.00145316,0.00173678,0.00206854,0.00245662,0.00291057,0.00344158,0.00406273,0.00478932,0.00563925,0.00663346,0.00779643,0.00915682,0.0107481,0.0126096,0.014787,0.017334,0.0203134,0.0237985,0.0278753,inf	682.356,682.356,430.841,427.776,347.028,297.14,262.95,270.14,307.658,354.882,399.507,423.16,426.277,432.266,441.458,445.567,437.94,431.626,436.024,444.049,449.845,463.415,506.217,567.194,593.185,624.702,702.864,867.806,867.806,94656.8,94656.8,94656.8
0.000679819	-266303.82	0,3.69422e-05,8.01553e-05,0.000130704,0.000189833,0.000258999,0.000339907,0.000434548,0.000545254,0.000674754,0.000826235,0.00100343,0.00121071,0.00145316,0.00173678,0.00206854,0.00245662,0.00291057,0.00344158,0.00406273,0.00478932,0.00563925,0.00663346,0.00779643,0.00915682,0.0107481,0.0126096,0.014787,0.017334,0.0203134,0.0237985,0.0278753,inf	682.556,682.556,430.855,427.791,347.028,297.14,261.285,268.004,306.545,355.264,401.228,424.005,426.277,432.266,441.458,445.567,437.795,430.859,435.254,443.281,448.729,462.431,507.664,568.483,593.185,624.702,702.864,867.806,867.806,94656.8,94656.8,94656.8
0.000679819	-266303.80	0,3.69422e-05,8.01553e-05,0.000130704,0.000189833,0.000258999,0.000339907,0.000434548,0.000545254,0.000674754,0.000826235,0.00100343,0.00121071,0.00145316,0.00173678,0.00206854,0.00245662,0.00291057,0.00344158,0.00406273,0.00478932,0.00563925,0.00663346,0.00779643,0.00915682,0.0107481,0.0126096,0.014787,0.017334,0.0203134,0.0237985,0.0278753,inf	682.803,682.803,430.901,427.797,347.028,297.14,259.865,266.05,305.555,355.644,402.909,424.602,426.277,432.266,441.458,445.567,437.783,430.251,434.656,442.679,447.752,461.552,509.206,568.505,593.826,624.702,702.864,867.806,867.806,94656.8,94656.8,94656.8
0.000679819	-266303.79	0,3.69422e-05,8.01553e-05,0.000130704,0.000189833,0.000258999,0.000339907,0.000434548,0.000545254,0.000674754,0.000826235,0.00100343,0.00121071,0.00145316,0.00173678,0.00206854,0.00245662,0.00291057,0.00344158,0.00406273,0.00478932,0.00563925,0.00663346,0.00779643,0.00915682,0.0107481,0.0126096,0.014787,0.017334,0.0203134,0.0237985,0.0278753,inf	682.854,682.854,430.915,427.798,347.028,297.14,258.655,264.254,304.649,356.034,404.549,424.992,426.277,432.266,441.458,445.567,437.783,429.763,434.186,442.21,446.891,460.759,510.817,568.526,594.146,624.702,702.864,867.806,867.806,94656.8,94656.8,94656.8
0.000679819	-266303.79	0,3.69422e-05,8.01553e-05,0.000130704,0.000189833,0.000258999,0.000339907,0.000434548,0.000545254,0.000674754,0.000826235,0.00100343,0.00121071,0.00145316,0.00173678,0.00206854,0.00245662,0.00291057,0.00344158,0.00406273,0.00478932,0.00563925,0.00663346,0.00779643,0.00915682,0.0107481,0.0126096,0.014787,0.017334,0.0203134,0.0237985,0.0278753,inf	682.92,682.92,430.948,427.798,347.028,297.14,257.63,262.594,303.815,356.433,406.15,425.207,426.277,432.266,441.458,445.567,437.783,429.371,433.824,441.844,446.118,460.029,512.481,568.634,594.146,624.702,702.864,867.806,867.806,94656.8,94656.8,94656.8
0.000679819	-266303.80	0,3.69422e-05,8.01553e-05,0.000130704,0.000189833,0.000258999,0.000339907,0.000434548,0.000545254,0.000674754,0.000826235,0.00100343,0.00121071,0.00145316,0.00173678,0.00206854,0.00245662,0.00291057,0.00344158,0.00406273,0.00478932,0.00563925,0.00663346,0.00779643,0.00915682,0.0107481,0.0126096,0.014787,0.017334,0.0203134,0.0237985,0.0278753,inf	682.992,682.992,430.96,427.798,347.028,297.14,256.788,261.054,303.028,356.836,407.716,425.273,426.277,432.266,441.458,445.567,437.783,429.053,433.545,441.561,445.416,459.381,514.019,568.634,594.146,624.702,702.864,867.806,867.806,94656.8,94656.8,94656.8
0.000679819	-266303.80	0,3.69422e-05,8.01553e-05,0.000130704,0.000189833,0.000258999,0.000339907,0.000434548,0.000545254,0.000674754,0.000826235,0.00100343,0.00121071,0.00145316,0.00173678,0.00206854,0.00245662,0.00291057,0.00344158,0.00406273,0.00478932,0.00563925,0.00663346,0.00779643,0.00915682,0.0107481,0.0126096,0.014787,0.017334,0.0203134,0.0237985,0.0278753,inf	683.07,683.07,430.965,427.798,347.028,297.14,256.085,259.616,302.295,357.242,409.178,425.273,426.277,432.266,441.458,445.567,437.783,428.797,433.335,441.346,444.771,458.772,515.375,568.634,594.146,624.702,702.864,867.806,867.806,94656.8,94656.8,94656.8
0.000679819	-266303.81	0,3.69422e-05,8.01553e-05,0.000130704,0.000189833,0.000258999,0.000339907,0.000434548,0.000545254,0.000674754,0.000826235,0.00100343,0.00121071,0.00145316,0.00173678,0.00206854,0.00245662,0.00291057,0.00344158,0.00406273,0.00478932,0.00563925,0.00663346,0.00779643,0.00915682,0.0107481,0.0126096,0.014787,0.017334,0.0203134,0.0237985,0.0278753,inf	683.07,683.07,431.23,427.798,347.028,297.14,255.506,258.272,301.611,357.65,410.479,425.273,426.277,432.266,441.458,445.567,437.783,428.59,433.183,441.187,444.175,458.199,516.575,568.634,594.146,624.702,702.864,867.806,867.806,94656.8,94656.8,94656.8
0.000679819	-266303.82	0,3.69422e-05,8.01553e-05,0.000130704,0.000189833,0.000258999,0.000339907,0.000434548,0.000545254,0.000674754,0.000826235,0.00100343,0.00121071,0.00145316,0.00173678,0.00206854,0.00245662,0.00291057,0.00344158,0.00406273,0.00478932,0.00563925,0.00663346,0.00779643,0.00915682,0.0107481,0.0126096,0.014787,0.017334,0.0203134,0.0237985,0.0278753,inf	683.07,683.07,431.492,427.798,347.028,297.14,255.036,257.01,300.97,358.059,411.637,425.273,426.277,432.266,441.458,445.567,437.783,428.426,433.078,441.077,443.621,457.655,517.645,568.634,594.146,624.702,702.864,867.806,867.806,94656.8,94656.8,94656.8
