time_index	left_time_boundary	right_time_boundary	lambda
0	0	4.56478e-05	462.013
1	4.56478e-05	9.96054e-05	462.013
2	9.96054e-05	0.000163386	462.013
3	0.000163386	0.000238776	462.013
4	0.000238776	0.000327891	462.013
5	0.000327891	0.000433229	462.013
6	0.000433229	0.000557742	462.013
7	0.000557742	0.000704922	462.013
8	0.000704922	0.000878894	462.013
9	0.000878894	0.00108454	462.013
10	0.00108454	0.00132761	462.013
11	0.00132761	0.00161494	462.013
12	0.00161494	0.00195458	462.013
13	0.00195458	0.00235604	462.013
14	0.00235604	0.00283058	462.013
15	0.00283058	0.00339151	462.013
16	0.00339151	0.00405455	462.013
17	0.00405455	0.0048383	462.013
18	0.0048383	0.00576471	462.013
19	0.00576471	0.00685978	462.013
20	0.00685978	0.00815418	462.013
21	0.00815418	0.00968423	462.013
22	0.00968423	0.0114928	462.013
23	0.0114928	0.0136306	462.013
24	0.0136306	0.0161576	462.013
25	0.0161576	0.0191446	462.013
26	0.0191446	0.0226753	462.013
27	0.0226753	0.0268488	462.013
28	0.0268488	0.0317821	462.013
29	0.0317821	inf	462.013
