0.000698238	-1873010.77	0,9.84661e-06,2.20259e-05,3.70905e-05,5.57239e-05,7.87716e-05,0.000107279,0.000142541,0.000186155,0.000240102,0.000306829,0.000389364,0.000491452,0.000617725,0.000773911,0.000967099,0.00120605,0.00150161,0.0018672,0.00231938,0.0028787,0.00357051,0.00442622,0.00548464,0.00679381,0.00841312,0.010416,0.0128935,0.0159578,0.0197481,0.0244363,0.0302351,inf	200.106,200.106,178.89,156.356,154.342,160.383,167.008,173.247,180.578,190.098,202.237,217.598,237.454,263.749,298.467,342.682,395.751,452.434,499.262,521.588,518.057,500.008,478.915,461.166,448.478,439.366,432.111,428.404,428.404,446.134,446.134,446.134
0.000777604	-1870673.79	0,9.84661e-06,2.20259e-05,3.70905e-05,5.57239e-05,7.87716e-05,0.000107279,0.000142541,0.000186155,0.000240102,0.000306829,0.000389364,0.000491452,0.000617725,0.000773911,0.000967099,0.00120605,0.00150161,0.0018672,0.00231938,0.0028787,0.00357051,0.00442622,0.00548464,0.00679381,0.00841312,0.010416,0.0128935,0.0159578,0.0197481,0.0244363,0.0302351,inf	221.417,221.417,169.602,124.423,116.487,120.285,123.711,125.651,128.973,135.487,145.676,160.288,181.208,211.479,254.424,312.432,386.268,471.257,549.31,593.767,594.99,568.368,534.021,504.413,483.256,467.941,455.557,451.021,451.021,496.366,496.366,496.366
0.000854586	-1869621.88	0,9.84661e-06,2.20259e-05,3.70905e-05,5.57239e-05,7.87716e-05,0.000107279,0.000142541,0.000186155,0.000240102,0.000306829,0.000389364,0.000491452,0.000617725,0.000773911,0.000967099,0.00120605,0.00150161,0.0018672,0.00231938,0.0028787,0.00357051,0.00442622,0.00548464,0.00679381,0.00841312,0.010416,0.0128935,0.0159578,0.0197481,0.0244363,0.0302351,inf	267.874,267.874,187.011,122.444,112.113,115.572,116.507,114.335,113.648,116.796,124.112,136.343,155.744,186.03,231.287,294.629,377.786,477.315,574.279,635.333,643.223,613.481,571.529,534.61,508.218,488.893,473.059,469.937,469.937,553.797,553.797,553.797
0.000928706	-1868981.52	0,9.84661e-06,2.20259e-05,3.70905e-05,5.57239e-05,7.87716e-05,0.000107279,0.000142541,0.000186155,0.000240102,0.000306829,0.000389364,0.000491452,0.000617725,0.000773911,0.000967099,0.00120605,0.00150161,0.0018672,0.00231938,0.0028787,0.00357051,0.00442622,0.00548464,0.00679381,0.00841312,0.010416,0.0128935,0.0159578,0.0197481,0.0244363,0.0302351,inf	301.261,301.261,203.046,125.3,115.699,120.695,120.142,114.47,110.344,110.611,115.377,125.35,143.035,172.559,218.4,283.971,371.511,478.57,586.588,658.924,672.86,642.625,596.609,555.482,526.099,504.291,486.239,486.186,486.186,622.233,622.233,622.233
0.00100039	-1868512.80	0,9.84661e-06,2.20259e-05,3.70905e-05,5.57239e-05,7.87716e-05,0.000107279,0.000142541,0.000186155,0.000240102,0.000306829,0.000389364,0.000491452,0.000617725,0.000773911,0.000967099,0.00120605,0.00150161,0.0018672,0.00231938,0.0028787,0.00357051,0.00442622,0.00548464,0.00679381,0.00841312,0.010416,0.0128935,0.0159578,0.0197481,0.0244363,0.0302351,inf	314.266,314.266,210.91,126.611,120.18,128.284,127.273,118.79,111.802,109.673,112.3,120.37,136.584,165.325,211.223,277.719,367.254,478.068,592.3,671.9,690.598,661.009,613.063,569.771,538.902,515.649,496.273,500.5,500.5,708.161,708.161,708.161
0.00107013	-1868130.90	0,9.84661e-06,2.20259e-05,3.70905e-05,5.57239e-05,7.87716e-05,0.000107279,0.000142541,0.000186155,0.000240102,0.000306829,0.000389364,0.000491452,0.000617725,0.000773911,0.000967099,0.00120605,0.00150161,0.0018672,0.00231938,0.0028787,0.00357051,0.00442622,0.00548464,0.00679381,0.00841312,0.010416,0.0128935,0.0159578,0.0197481,0.0244363,0.0302351,inf	312.69,312.69,210.893,124.991,123.2,135.517,135.014,124.464,115.192,111.117,111.983,118.498,133.546,161.664,207.483,274.307,364.584,477.01,594.448,678.462,700.648,672.124,623.523,579.393,548.03,524.035,503.981,513.387,513.387,824.377,824.377,824.377
0.0011383	-1867800.39	0,9.84661e-06,2.20259e-05,3.70905e-05,5.57239e-05,7.87716e-05,0.000107279,0.000142541,0.000186155,0.000240102,0.000306829,0.000389364,0.000491452,0.000617725,0.000773911,0.000967099,0.00120605,0.00150161,0.0018672,0.00231938,0.0028787,0.00357051,0.00442622,0.00548464,0.00679381,0.00841312,0.010416,0.0128935,0.0159578,0.0197481,0.0244363,0.0302351,inf	304.411,304.411,205.517,120.841,124.203,141.316,142.108,130.222,119.238,113.638,113.081,118.352,132.51,160.19,205.928,272.788,363.106,475.873,594.613,681.062,705.662,678.285,629.787,585.674,554.465,530.201,509.943,525.207,525.207,1002.52,1002.52,1002.52
0.00120517	-1867504.40	0,9.84661e-06,2.20259e-05,3.70905e-05,5.57239e-05,7.87716e-05,0.000107279,0.000142541,0.000186155,0.000240102,0.000306829,0.000389364,0.000491452,0.000617725,0.000773911,0.000967099,0.00120605,0.00150161,0.0018672,0.00231938,0.0028787,0.00357051,0.00442622,0.00548464,0.00679381,0.00841312,0.010416,0.0128935,0.0159578,0.0197481,0.0244363,0.0302351,inf	294.944,294.944,197.278,115.035,123.401,145.422,148.062,135.493,123.33,116.593,114.917,119.211,132.714,160.123,205.818,272.559,362.508,474.839,593.654,681.167,707.329,681.036,633.09,589.539,558.901,534.685,514.57,536.224,536.224,1360.52,1360.52,1360.52
0.00127096	-1867233.91	0,9.84661e-06,2.20259e-05,3.70905e-05,5.57239e-05,7.87716e-05,0.000107279,0.000142541,0.000186155,0.000240102,0.000306829,0.000389364,0.000491452,0.000617725,0.000773911,0.000967099,0.00120605,0.00150161,0.0018672,0.00231938,0.0028787,0.00357051,0.00442622,0.00548464,0.00679381,0.00841312,0.010416,0.0128935,0.0159578,0.0197481,0.0244363,0.0302351,inf	287.106,287.106,187.947,108.416,121.259,147.968,152.776,140.055,127.183,119.656,117.127,120.673,133.716,160.992,206.688,273.226,362.554,473.964,592.058,679.684,706.754,681.425,634.29,591.642,561.833,537.873,518.163,546.645,546.645,2899.1,2899.1,2899.1
0.00127096	-1866983.60	0,9.84661e-06,2.20259e-05,3.70905e-05,5.57239e-05,7.87716e-05,0.000107279,0.000142541,0.000186155,0.000240102,0.000306829,0.000389364,0.000491452,0.000617725,0.000773911,0.000967099,0.00120605,0.00150161,0.0018672,0.00231938,0.0028787,0.00357051,0.00442622,0.00548464,0.00679381,0.00841312,0.010416,0.0128935,0.0159578,0.0197481,0.0244363,0.0302351,inf	278.523,278.523,176.428,100.396,116.849,147.447,154.444,142.122,129.09,121.165,118.052,121.004,133.585,160.488,205.616,270.985,358.265,466.826,581.801,668.823,697.356,674.406,629.402,588.68,560.436,537.355,518.679,554.674,554.674,68379.6,68379.6,68379.6
0.00127096	-1866973.69	0,9.84661e-06,2.20259e-05,3.70905e-05,5.57239e-05,7.87716e-05,0.000107279,0.000142541,0.000186155,0.000240102,0.000306829,0.000389364,0.000491452,0.000617725,0.000773911,0.000967099,0.00120605,0.00150161,0.0018672,0.00231938,0.0028787,0.00357051,0.00442622,0.00548464,0.00679381,0.00841312,0.010416,0.0128935,0.0159578,0.0197481,0.0244363,0.0302351,inf	277.706,277.706,168.224,93.6493,112.924,147.03,156.095,144.196,131.11,121.203,118.052,121.908,133.755,160.488,205.616,270.589,356.346,462.548,575.161,661.349,691.097,669.841,626.315,586.997,559.944,537.498,519.77,554.678,554.678,68381.5,68381.5,68381.5
0.00127096	-1866969.77	0,9.84661e-06,2.20259e-05,3.70905e-05,5.57239e-05,7.87716e-05,0.000107279,0.000142541,0.000186155,0.000240102,0.000306829,0.000389364,0.000491452,0.000617725,0.000773911,0.000967099,0.00120605,0.00150161,0.0018672,0.00231938,0.0028787,0.00357051,0.00442622,0.00548464,0.00679381,0.00841312,0.010416,0.0128935,0.0159578,0.0197481,0.0244363,0.0302351,inf	277.836,277.836,161.869,87.7287,109.25,146.515,157.539,146.093,133.052,122.207,118.052,121.908,133.755,160.488,205.616,270.589,355.735,460.015,570.622,656.116,686.81,666.833,624.373,586.125,559.945,538.058,521.161,556.166,556.166,68381.5,68381.5,68381.5
0.00127096	-1866968.25	0,9.84661e-06,2.20259e-05,3.70905e-05,5.57239e-05,7.87716e-05,0.000107279,0.000142541,0.000186155,0.000240102,0.000306829,0.000389364,0.000491452,0.000617725,0.000773911,0.000967099,0.00120605,0.00150161,0.0018672,0.00231938,0.0028787,0.00357051,0.00442622,0.00548464,0.00679381,0.00841312,0.010416,0.0128935,0.0159578,0.0197481,0.0244363,0.0302351,inf	279.889,279.889,156.906,82.4828,105.801,145.923,158.779,147.786,134.853,123.018,118.052,121.908,133.755,160.488,205.616,270.589,355.735,458.564,567.448,652.331,683.806,664.836,623.172,585.764,560.383,538.876,522.765,556.176,556.176,68381.8,68381.8,68381.8
0.00127096	-1866967.67	0,9.84661e-06,2.20259e-05,3.70905e-05,5.57239e-05,7.87716e-05,0.000107279,0.000142541,0.000186155,0.000240102,0.000306829,0.000389364,0.000491452,0.000617725,0.000773911,0.000967099,0.00120605,0.00150161,0.0018672,0.00231938,0.0028787,0.00357051,0.00442622,0.00548464,0.00679381,0.00841312,0.010416,0.0128935,0.0159578,0.0197481,0.0244363,0.0302351,inf	279.976,279.976,152.93,77.7812,102.559,145.271,159.836,149.281,136.506,123.755,118.052,121.908,133.755,160.488,205.616,270.589,355.735,457.806,565.165,649.506,681.657,663.509,622.453,585.731,561.062,538.886,524.52,556.3,556.3,68381.8,68381.8,68381.8
0.00127096	-1866967.46	0,9.84661e-06,2.20259e-05,3.70905e-05,5.57239e-05,7.87716e-05,0.000107279,0.000142541,0.000186155,0.000240102,0.000306829,0.000389364,0.000491452,0.000617725,0.000773911,0.000967099,0.00120605,0.00150161,0.0018672,0.00231938,0.0028787,0.00357051,0.00442622,0.00548464,0.00679381,0.00841312,0.010416,0.0128935,0.0159578,0.0197481,0.0244363,0.0302351,inf	280.009,280.009,149.978,73.5933,99.5388,144.599,160.746,150.603,138.019,124.353,118.052,121.908,133.755,160.488,205.616,270.589,355.735,457.522,563.496,647.344,680.096,662.64,622.054,585.914,561.873,539.981,524.749,556.3,556.3,68381.8,68381.8,68381.8
0.00127096	-1866967.42	0,9.84661e-06,2.20259e-05,3.70905e-05,5.57239e-05,7.87716e-05,0.000107279,0.000142541,0.000186155,0.000240102,0.000306829,0.000389364,0.000491452,0.000617725,0.000773911,0.000967099,0.00120605,0.00150161,0.0018672,0.00231938,0.0028787,0.00357051,0.00442622,0.00548464,0.00679381,0.00841312,0.010416,0.0128935,0.0159578,0.0197481,0.0244363,0.0302351,inf	280.403,280.403,147.891,69.8473,96.7265,143.929,161.538,151.772,139.405,124.825,118.052,121.908,133.755,160.488,205.616,270.589,355.735,457.522,562.249,645.642,678.94,662.078,621.864,586.232,562.779,540.537,524.749,556.3,556.3,68381.8,68381.8,68381.8
0.00127096	-1866967.42	0,9.84661e-06,2.20259e-05,3.70905e-05,5.57239e-05,7.87716e-05,0.000107279,0.000142541,0.000186155,0.000240102,0.000306829,0.000389364,0.000491452,0.000617725,0.000773911,0.000967099,0.00120605,0.00150161,0.0018672,0.00231938,0.0028787,0.00357051,0.00442622,0.00548464,0.00679381,0.00841312,0.010416,0.0128935,0.0159578,0.0197481,0.0244363,0.0302351,inf	281.296,281.296,146.504,66.474,94.1035,143.271,162.234,152.811,140.676,125.193,118.052,121.908,133.755,160.488,205.616,270.589,355.735,457.522,561.298,644.265,678.07,661.729,621.818,586.654,562.786,541.329,524.749,556.3,556.3,68381.8,68381.8,68381.8
0.00127096	-1866967.43	0,9.84661e-06,2.20259e-05,3.70905e-05,5.57239e-05,7.87716e-05,0.000107279,0.000142541,0.000186155,0.000240102,0.000306829,0.000389364,0.000491452,0.000617725,0.000773911,0.000967099,0.00120605,0.00150161,0.0018672,0.00231938,0.0028787,0.00357051,0.00442622,0.00548464,0.00679381,0.00841312,0.010416,0.0128935,0.0159578,0.0197481,0.0244363,0.0302351,inf	281.302,281.302,145.655,63.4113,91.6475,142.632,162.85,152.811,141.84,126.095,118.052,121.908,133.755,160.488,205.616,270.589,355.735,457.522,560.573,643.137,677.414,661.541,621.887,587.144,563.317,541.329,524.749,556.3,556.3,68381.8,68381.8,68381.8
0.00127096	-1866967.43	0,9.84661e-06,2.20259e-05,3.70905e-05,5.57239e-05,7.87716e-05,0.000107279,0.000142541,0.000186155,0.000240102,0.000306829,0.000389364,0.000491452,0.000617725,0.000773911,0.000967099,0.00120605,0.00150161,0.0018672,0.00231938,0.0028787,0.00357051,0.00442622,0.00548464,0.00679381,0.00841312,0.010416,0.0128935,0.0159578,0.0197481,0.0244363,0.0302351,inf	281.346,281.346,145.39,60.6507,89.3828,142.057,163.43,153.645,142.922,126.226,118.052,121.908,133.755,160.488,205.616,270.589,355.735,457.522,560.017,642.193,676.915,661.463,622.024,587.67,563.317,541.507,524.749,556.3,556.3,68381.8,68381.8,68381.8
0.00127096	-1866967.43	0,9.84661e-06,2.20259e-05,3.70905e-05,5.57239e-05,7.87716e-05,0.000107279,0.000142541,0.000186155,0.000240102,0.000306829,0.000389364,0.000491452,0.000617725,0.000773911,0.000967099,0.00120605,0.00150161,0.0018672,0.00231938,0.0028787,0.00357051,0.00442622,0.00548464,0.00679381,0.00841312,0.010416,0.0128935,0.0159578,0.0197481,0.0244363,0.0302351,inf	281.459,281.459,145.39,58.1262,87.2581,141.513,163.964,154.399,143.932,126.307,118.052,121.908,133.755,160.488,205.616,270.589,355.735,457.522,559.594,641.393,676.535,661.466,622.209,588.207,563.317,541.507,524.749,556.3,556.3,68381.8,68381.8,68381.8
