time_index	left_time_boundary	right_time_boundary	lambda
0	0	9.84661e-06	281.459
1	9.84661e-06	2.20259e-05	281.459
2	2.20259e-05	3.70905e-05	145.39
3	3.70905e-05	5.57239e-05	58.1262
4	5.57239e-05	7.87716e-05	87.2581
5	7.87716e-05	0.000107279	141.513
6	0.000107279	0.000142541	163.964
7	0.000142541	0.000186155	154.399
8	0.000186155	0.000240102	143.932
9	0.000240102	0.000306829	126.307
10	0.000306829	0.000389364	118.052
11	0.000389364	0.000491452	121.908
12	0.000491452	0.000617725	133.755
13	0.000617725	0.000773911	160.488
14	0.000773911	0.000967099	205.616
15	0.000967099	0.00120605	270.589
16	0.00120605	0.00150161	355.735
17	0.00150161	0.0018672	457.522
18	0.0018672	0.00231938	559.594
19	0.00231938	0.0028787	641.393
20	0.0028787	0.00357051	676.535
21	0.00357051	0.00442622	661.466
22	0.00442622	0.00548464	622.209
23	0.00548464	0.00679381	588.207
24	0.00679381	0.00841312	563.317
25	0.00841312	0.010416	541.507
26	0.010416	0.0128935	524.749
27	0.0128935	0.0159578	556.3
28	0.0159578	0.0197481	556.3
29	0.0197481	0.0244363	68381.8
30	0.0244363	0.0302351	68381.8
31	0.0302351	inf	68381.8
