0.000709578	-14055364.91	0,1.75935e-06,4.07686e-06,7.12959e-06,1.11508e-05,1.64477e-05,2.34251e-05,3.2616e-05,4.47228e-05,6.06704e-05,8.16774e-05,0.000109349,0.000145799,0.000193813,0.000257059,0.00034037,0.000450111,0.000594667,0.000785084,0.00103591,0.00136631,0.00180153,0.00237482,0.00312999,0.00412474,0.00543506,0.00716109,0.00943469,0.0124296,0.0163746,0.0215712,0.0284164,inf	216.938,216.938,93.462,126.512,152.944,170.062,177.549,177.544,173.836,170.198,168.997,170.95,176,184.181,195.778,211.584,233.391,264.035,306.992,365.338,437.451,504.69,532.538,517.54,487.49,460.351,440.778,420.786,420.786,396.544,396.544,396.544
0.000798338	-14036748.70	0,1.75935e-06,4.07686e-06,7.12959e-06,1.11508e-05,1.64477e-05,2.34251e-05,3.2616e-05,4.47228e-05,6.06704e-05,8.16774e-05,0.000109349,0.000145799,0.000193813,0.000257059,0.00034037,0.000450111,0.000594667,0.000785084,0.00103591,0.00136631,0.00180153,0.00237482,0.00312999,0.00412474,0.00543506,0.00716109,0.00943469,0.0124296,0.0163746,0.0215712,0.0284164,inf	209.105,209.105,50.1183,90.9335,130.938,158.789,168.902,163.877,151.408,138.923,130.327,126.335,126.563,130.952,139.847,154.325,177.006,212.179,265.305,342.223,445.129,554.218,611.561,595.355,547.855,501.827,467.741,430.987,430.987,387.047,387.047,387.047
0.000883582	-14028456.98	0,1.75935e-06,4.07686e-06,7.12959e-06,1.11508e-05,1.64477e-05,2.34251e-05,3.2616e-05,4.47228e-05,6.06704e-05,8.16774e-05,0.000109349,0.000145799,0.000193813,0.000257059,0.00034037,0.000450111,0.000594667,0.000785084,0.00103591,0.00136631,0.00180153,0.00237482,0.00312999,0.00412474,0.00543506,0.00716109,0.00943469,0.0124296,0.0163746,0.0215712,0.0284164,inf	203.068,203.068,31.5483,76.9119,132.357,176.162,192.8,183.89,162.68,141.639,126.338,117.157,113.126,113.874,119.578,131.367,152.319,187.545,243.518,327.468,444.346,577.246,657.015,644.811,588.068,529.509,484.961,434.412,434.412,374.815,374.815,374.815
0.000965221	-14023434.48	0,1.75935e-06,4.07686e-06,7.12959e-06,1.11508e-05,1.64477e-05,2.34251e-05,3.2616e-05,4.47228e-05,6.06704e-05,8.16774e-05,0.000109349,0.000145799,0.000193813,0.000257059,0.00034037,0.000450111,0.000594667,0.000785084,0.00103591,0.00136631,0.00180153,0.00237482,0.00312999,0.00412474,0.00543506,0.00716109,0.00943469,0.0124296,0.0163746,0.0215712,0.0284164,inf	187.498,187.498,19.1731,62.9306,129.954,191.263,218.085,208.13,180.13,152.132,131.505,118.294,110.98,108.897,112.017,121.456,140.602,175.038,231.686,318.343,441.577,587.628,682.768,675.624,614.257,547.53,495.455,433.558,433.558,361.505,361.505,361.505
0.00104396	-14019757.97	0,1.75935e-06,4.07686e-06,7.12959e-06,1.11508e-05,1.64477e-05,2.34251e-05,3.2616e-05,4.47228e-05,6.06704e-05,8.16774e-05,0.000109349,0.000145799,0.000193813,0.000257059,0.00034037,0.000450111,0.000594667,0.000785084,0.00103591,0.00136631,0.00180153,0.00237482,0.00312999,0.00412474,0.00543506,0.00716109,0.00943469,0.0124296,0.0163746,0.0215712,0.0284164,inf	170.27,170.27,10.9747,48.4495,120.08,196.039,234.537,226.635,194.955,162.544,138.46,122.554,112.947,108.796,109.935,117.512,135.182,168.808,225.422,312.918,438.748,591.746,696.908,694.367,630.888,558.905,501.388,430.114,430.114,348.07,348.07,348.07
0.00112046	-14016756.83	0,1.75935e-06,4.07686e-06,7.12959e-06,1.11508e-05,1.64477e-05,2.34251e-05,3.2616e-05,4.47228e-05,6.06704e-05,8.16774e-05,0.000109349,0.000145799,0.000193813,0.000257059,0.00034037,0.000450111,0.000594667,0.000785084,0.00103591,0.00136631,0.00180153,0.00237482,0.00312999,0.00412474,0.00543506,0.00716109,0.00943469,0.0124296,0.0163746,0.0215712,0.0284164,inf	155.664,155.664,6.0425,35.7719,106.032,191.665,240.941,237.019,204.502,170.233,144.577,127.3,116.337,110.799,110.474,116.621,133.167,166.145,222.498,309.946,436.381,592.646,704.054,705.24,641.005,565.722,504.248,425.183,425.183,335.031,335.031,335.031
0.00119522	-14014153.92	0,1.75935e-06,4.07686e-06,7.12959e-06,1.11508e-05,1.64477e-05,2.34251e-05,3.2616e-05,4.47228e-05,6.06704e-05,8.16774e-05,0.000109349,0.000145799,0.000193813,0.000257059,0.00034037,0.000450111,0.000594667,0.000785084,0.00103591,0.00136631,0.00180153,0.00237482,0.00312999,0.00412474,0.00543506,0.00716109,0.00943469,0.0124296,0.0163746,0.0215712,0.0284164,inf	145.476,145.476,3.29453,25.9751,91.5138,182.188,239.951,240.442,208.905,174.709,149.022,131.505,120.01,113.676,112.33,117.405,133.128,165.642,221.674,308.622,434.554,591.851,706.892,710.918,646.664,569.407,505.052,419.472,419.472,322.661,322.661,322.661
0.0012686	-14011818.06	0,1.75935e-06,4.07686e-06,7.12959e-06,1.11508e-05,1.64477e-05,2.34251e-05,3.2616e-05,4.47228e-05,6.06704e-05,8.16774e-05,0.000109349,0.000145799,0.000193813,0.000257059,0.00034037,0.000450111,0.000594667,0.000785084,0.00103591,0.00136631,0.00180153,0.00237482,0.00312999,0.00412474,0.00543506,0.00716109,0.00943469,0.0124296,0.0163746,0.0215712,0.0284164,inf	138.118,138.118,1.81219,18.9306,78.6429,171.159,234.889,239.139,209.337,176.385,151.729,134.83,123.469,116.839,114.844,119.147,134.295,166.504,222.212,308.418,433.213,590.159,707.031,713.129,649.254,570.937,504.49,413.435,413.435,311.086,311.086,311.086
0.00134084	-14009679.78	0,1.75935e-06,4.07686e-06,7.12959e-06,1.11508e-05,1.64477e-05,2.34251e-05,3.2616e-05,4.47228e-05,6.06704e-05,8.16774e-05,0.000109349,0.000145799,0.000193813,0.000257059,0.00034037,0.000450111,0.000594667,0.000785084,0.00103591,0.00136631,0.00180153,0.00237482,0.00312999,0.00412474,0.00543506,0.00716109,0.00943469,0.0124296,0.0163746,0.0215712,0.0284164,inf	132.728,132.728,1.02402,14.0343,68.1466,160.796,228.349,235.194,207.123,175.943,152.936,137.24,126.517,119.998,117.664,121.445,136.218,168.251,223.651,308.981,432.27,588.001,705.461,713.006,649.725,570.987,503.038,407.356,407.356,300.346,300.346,300.346
0.00141212	-14007698.51	0,1.75935e-06,4.07686e-06,7.12959e-06,1.11508e-05,1.64477e-05,2.34251e-05,3.2616e-05,4.47228e-05,6.06704e-05,8.16774e-05,0.000109349,0.000145799,0.000193813,0.000257059,0.00034037,0.000450111,0.000594667,0.000785084,0.00103591,0.00136631,0.00180153,0.00237482,0.00312999,0.00412474,0.00543506,0.00716109,0.00943469,0.0124296,0.0163746,0.0215712,0.0284164,inf	128.722,128.722,0.591051,10.6666,60.02,152.18,221.983,230.136,203.358,174.048,152.974,138.83,129.105,123.012,120.597,124.062,138.623,170.582,225.692,310.071,431.642,585.619,702.808,711.305,648.732,570.025,501.02,401.414,401.414,290.43,290.43,290.43
0.00148256	-14005848.44	0,1.75935e-06,4.07686e-06,7.12959e-06,1.11508e-05,1.64477e-05,2.34251e-05,3.2616e-05,4.47228e-05,6.06704e-05,8.16774e-05,0.000109349,0.000145799,0.000193813,0.000257059,0.00034037,0.000450111,0.000594667,0.000785084,0.00103591,0.00136631,0.00180153,0.00237482,0.00312999,0.00412474,0.00543506,0.00716109,0.00943469,0.0124296,0.0163746,0.0215712,0.0284164,inf	125.743,125.743,0.400817,8.34399,53.9161,145.67,216.678,224.937,198.846,171.246,152.159,139.742,131.252,125.824,123.535,126.856,141.336,173.299,228.132,311.519,431.255,583.148,699.474,708.539,646.731,568.379,498.659,395.713,395.713,281.305,281.305,281.305
0.00155226	-14004111.80	0,1.75935e-06,4.07686e-06,7.12959e-06,1.11508e-05,1.64477e-05,2.34251e-05,3.2616e-05,4.47228e-05,6.06704e-05,8.16774e-05,0.000109349,0.000145799,0.000193813,0.000257059,0.00034037,0.000450111,0.000594667,0.000785084,0.00103591,0.00136631,0.00180153,0.00237482,0.00312999,0.00412474,0.00543506,0.00716109,0.00943469,0.0124296,0.0163746,0.0215712,0.0284164,inf	123.382,123.382,0.400817,6.71345,49.4456,141.246,212.796,220.129,194.107,167.94,150.761,140.121,133.009,128.418,126.42,129.736,144.242,176.268,230.835,313.209,431.053,580.666,695.723,705.063,644.043,566.279,496.11,390.315,390.315,272.921,272.921,272.921
0.00162127	-14002475.59	0,1.75935e-06,4.07686e-06,7.12959e-06,1.11508e-05,1.64477e-05,2.34251e-05,3.2616e-05,4.47228e-05,6.06704e-05,8.16774e-05,0.000109349,0.000145799,0.000193813,0.000257059,0.00034037,0.000450111,0.000594667,0.000785084,0.00103591,0.00136631,0.00180153,0.00237482,0.00312999,0.00412474,0.00543506,0.00716109,0.00943469,0.0124296,0.0163746,0.0215712,0.0284164,inf	121.385,121.385,0.400817,5.55252,46.2579,138.711,210.41,215.969,189.45,164.419,148.993,140.104,134.438,130.804,129.222,132.647,147.264,179.396,233.704,315.056,430.99,578.217,691.731,701.121,640.898,563.886,493.476,385.25,385.25,265.223,265.223,265.223
0.00168964	-14000929.73	0,1.75935e-06,4.07686e-06,7.12959e-06,1.11508e-05,1.64477e-05,2.34251e-05,3.2616e-05,4.47228e-05,6.06704e-05,8.16774e-05,0.000109349,0.000145799,0.000193813,0.000257059,0.00034037,0.000450111,0.000594667,0.000785084,0.00103591,0.00136631,0.00180153,0.00237482,0.00312999,0.00412474,0.00543506,0.00716109,0.00943469,0.0124296,0.0163746,0.0215712,0.0284164,inf	119.612,119.612,0.400817,4.70651,44.0621,137.832,209.442,212.541,185.06,160.872,147.017,139.801,135.601,132.999,131.929,135.554,150.349,182.62,236.67,316.999,431.03,575.825,687.616,696.885,637.455,561.316,490.829,380.527,380.527,258.154,258.154,258.154
0.00175739	-13999466.10	0,1.75935e-06,4.07686e-06,7.12959e-06,1.11508e-05,1.64477e-05,2.34251e-05,3.2616e-05,4.47228e-05,6.06704e-05,8.16774e-05,0.000109349,0.000145799,0.000193813,0.000257059,0.00034037,0.000450111,0.000594667,0.000785084,0.00103591,0.00136631,0.00180153,0.00237482,0.00312999,0.00412474,0.00543506,0.00716109,0.00943469,0.0124296,0.0163746,0.0215712,0.0284164,inf	117.927,117.927,0.400721,4.07878,42.6249,138.357,209.709,209.818,181.011,157.42,144.953,139.307,136.555,135.028,134.539,138.435,153.46,185.891,239.685,318.997,431.146,573.503,683.457,692.478,633.833,558.648,488.217,376.145,376.145,251.659,251.659,251.659
0.00182455	-13998077.91	0,1.75935e-06,4.07686e-06,7.12959e-06,1.11508e-05,1.64477e-05,2.34251e-05,3.2616e-05,4.47228e-05,6.06704e-05,8.16774e-05,0.000109349,0.000145799,0.000193813,0.000257059,0.00034037,0.000450111,0.000594667,0.000785084,0.00103591,0.00136631,0.00180153,0.00237482,0.00312999,0.00412474,0.00543506,0.00716109,0.00943469,0.0124296,0.0163746,0.0215712,0.0284164,inf	116.242,116.242,0.400721,3.59603,41.7707,140.061,211.034,207.724,177.329,154.134,142.882,138.696,137.352,136.915,137.054,141.276,156.572,189.178,242.714,321.016,431.316,571.257,679.307,687.985,630.113,555.941,485.669,372.093,372.093,245.686,245.686,245.686
0.00189113	-13996759.34	0,1.75935e-06,4.07686e-06,7.12959e-06,1.11508e-05,1.64477e-05,2.34251e-05,3.2616e-05,4.47228e-05,6.06704e-05,8.16774e-05,0.000109349,0.000145799,0.000193813,0.000257059,0.00034037,0.000450111,0.000594667,0.000785084,0.00103591,0.00136631,0.00180153,0.00237482,0.00312999,0.00412474,0.00543506,0.00716109,0.00943469,0.0124296,0.0163746,0.0215712,0.0284164,inf	114.722,114.722,0.400721,3.21944,41.3678,142.736,213.222,206.166,174.01,151.051,140.864,138.024,138.034,138.684,139.48,144.07,159.667,192.455,245.73,323.034,431.525,569.088,675.202,683.468,626.355,553.233,483.205,368.358,368.358,240.186,240.186,240.186
0.00195714	-13995505.33	0,1.75935e-06,4.07686e-06,7.12959e-06,1.11508e-05,1.64477e-05,2.34251e-05,3.2616e-05,4.47228e-05,6.06704e-05,8.16774e-05,0.000109349,0.000145799,0.000193813,0.000257059,0.00034037,0.000450111,0.000594667,0.000785084,0.00103591,0.00136631,0.00180153,0.00237482,0.00312999,0.00412474,0.00543506,0.00716109,0.00943469,0.0124296,0.0163746,0.0215712,0.0284164,inf	113.016,113.016,0.40072,2.91512,41.3126,146.195,216.092,205.052,171.027,148.193,138.94,137.336,138.636,140.357,141.826,146.811,162.731,195.706,248.716,325.035,431.759,566.996,671.166,678.97,622.602,550.552,480.837,364.92,364.92,235.114,235.114,235.114
0.00202259	-13994311.38	0,1.75935e-06,4.07686e-06,7.12959e-06,1.11508e-05,1.64477e-05,2.34251e-05,3.2616e-05,4.47228e-05,6.06704e-05,8.16774e-05,0.000109349,0.000145799,0.000193813,0.000257059,0.00034037,0.000450111,0.000594667,0.000785084,0.00103591,0.00136631,0.00180153,0.00237482,0.00312999,0.00412474,0.00543506,0.00716109,0.00943469,0.0124296,0.0163746,0.0215712,0.0284164,inf	111.351,111.351,0.40072,2.66609,41.52,150.295,219.482,204.29,168.353,145.565,137.134,136.663,139.188,141.952,144.096,149.497,165.756,198.918,251.658,327.007,432.01,564.977,667.215,674.521,618.883,547.916,478.568,361.762,361.762,230.431,230.431,230.431
0.00208748	-13993173.46	0,1.75935e-06,4.07686e-06,7.12959e-06,1.11508e-05,1.64477e-05,2.34251e-05,3.2616e-05,4.47228e-05,6.06704e-05,8.16774e-05,0.000109349,0.000145799,0.000193813,0.000257059,0.00034037,0.000450111,0.000594667,0.000785084,0.00103591,0.00136631,0.00180153,0.00237482,0.00312999,0.00412474,0.00543506,0.00716109,0.00943469,0.0124296,0.0163746,0.0215712,0.0284164,inf	109.637,109.637,0.40072,2.45467,41.9274,154.897,223.243,203.799,165.953,143.162,135.46,136.03,139.712,143.484,146.299,152.129,168.735,202.081,254.548,328.941,432.269,563.03,663.358,670.143,615.221,545.338,476.401,358.864,358.864,226.098,226.098,226.098
0.00215181	-13992087.93	0,1.75935e-06,4.07686e-06,7.12959e-06,1.11508e-05,1.64477e-05,2.34251e-05,3.2616e-05,4.47228e-05,6.06704e-05,8.16774e-05,0.000109349,0.000145799,0.000193813,0.000257059,0.00034037,0.000450111,0.000594667,0.000785084,0.00103591,0.00136631,0.00180153,0.00237482,0.00312999,0.00412474,0.00543506,0.00716109,0.00943469,0.0124296,0.0163746,0.0215712,0.0284164,inf	107.993,107.993,0.40072,2.27796,42.4816,159.879,227.258,203.514,163.802,140.98,133.927,135.455,140.226,144.968,148.442,154.705,171.664,205.188,257.378,330.831,432.532,561.15,659.6,665.85,611.627,542.824,474.334,356.208,356.208,222.083,222.083,222.083
0.00221559	-13991051.49	0,1.75935e-06,4.07686e-06,7.12959e-06,1.11508e-05,1.64477e-05,2.34251e-05,3.2616e-05,4.47228e-05,6.06704e-05,8.16774e-05,0.000109349,0.000145799,0.000193813,0.000257059,0.00034037,0.000450111,0.000594667,0.000785084,0.00103591,0.00136631,0.00180153,0.00237482,0.00312999,0.00412474,0.00543506,0.00716109,0.00943469,0.0124296,0.0163746,0.0215712,0.0284164,inf	106.288,106.288,0.400719,2.12357,43.1481,165.146,231.43,203.379,161.874,139.006,132.539,134.947,140.746,146.414,150.529,157.227,174.54,208.236,260.144,332.675,432.794,559.334,655.943,661.651,608.113,540.38,472.364,353.775,353.775,218.356,218.356,218.356
0.00227881	-13990061.10	0,1.75935e-06,4.07686e-06,7.12959e-06,1.11508e-05,1.64477e-05,2.34251e-05,3.2616e-05,4.47228e-05,6.06704e-05,8.16774e-05,0.000109349,0.000145799,0.000193813,0.000257059,0.00034037,0.000450111,0.000594667,0.000785084,0.00103591,0.00136631,0.00180153,0.00237482,0.00312999,0.00412474,0.00543506,0.00716109,0.00943469,0.0124296,0.0163746,0.0215712,0.0284164,inf	104.517,104.517,0.400719,1.98848,43.8975,170.615,235.667,203.348,160.137,137.226,131.295,134.516,141.281,147.832,152.567,159.695,177.36,211.221,262.844,334.468,433.053,557.579,652.389,657.553,604.684,538.006,470.488,351.548,351.548,214.889,214.889,214.889
0.00234149	-13989114.00	0,1.75935e-06,4.07686e-06,7.12959e-06,1.11508e-05,1.64477e-05,2.34251e-05,3.2616e-05,4.47228e-05,6.06704e-05,8.16774e-05,0.000109349,0.000145799,0.000193813,0.000257059,0.00034037,0.000450111,0.000594667,0.000785084,0.00103591,0.00136631,0.00180153,0.00237482,0.00312999,0.00412474,0.00543506,0.00716109,0.00943469,0.0124296,0.0163746,0.0215712,0.0284164,inf	102.913,102.913,0.400719,1.86746,44.7036,176.226,239.914,203.391,158.575,135.631,130.19,134.166,141.84,149.228,154.559,162.11,180.123,214.141,265.477,336.212,433.305,555.881,648.937,653.558,601.344,535.704,468.7,349.511,349.511,211.659,211.659,211.659
0.00240361	-13988207.61	0,1.75935e-06,4.07686e-06,7.12959e-06,1.11508e-05,1.64477e-05,2.34251e-05,3.2616e-05,4.47228e-05,6.06704e-05,8.16774e-05,0.000109349,0.000145799,0.000193813,0.000257059,0.00034037,0.000450111,0.000594667,0.000785084,0.00103591,0.00136631,0.00180153,0.00237482,0.00312999,0.00412474,0.00543506,0.00716109,0.00943469,0.0124296,0.0163746,0.0215712,0.0284164,inf	101.365,101.365,0.400719,1.75773,45.5527,181.906,244.107,203.473,157.169,134.207,129.221,133.899,142.429,150.608,156.509,164.475,182.829,216.996,268.041,337.904,433.55,554.238,645.584,649.669,598.093,533.472,466.995,347.648,347.648,208.642,208.642,208.642
0.00246518	-13987339.57	0,1.75935e-06,4.07686e-06,7.12959e-06,1.11508e-05,1.64477e-05,2.34251e-05,3.2616e-05,4.47228e-05,6.06704e-05,8.16774e-05,0.000109349,0.000145799,0.000193813,0.000257059,0.00034037,0.000450111,0.000594667,0.000785084,0.00103591,0.00136631,0.00180153,0.00237482,0.00312999,0.00412474,0.00543506,0.00716109,0.00943469,0.0124296,0.0163746,0.0215712,0.0284164,inf	99.7709,99.7709,0.400718,1.65948,46.4298,187.624,248.197,203.579,155.904,132.941,128.38,133.716,143.05,151.978,158.42,166.789,185.478,219.784,270.537,339.544,433.786,552.646,642.329,645.884,594.932,531.308,465.368,345.946,345.946,205.82,205.82,205.82
0.00252621	-13986507.70	0,1.75935e-06,4.07686e-06,7.12959e-06,1.11508e-05,1.64477e-05,2.34251e-05,3.2616e-05,4.47228e-05,6.06704e-05,8.16774e-05,0.000109349,0.000145799,0.000193813,0.000257059,0.00034037,0.000450111,0.000594667,0.000785084,0.00103591,0.00136631,0.00180153,0.00237482,0.00312999,0.00412474,0.00543506,0.00716109,0.00943469,0.0124296,0.0163746,0.0215712,0.0284164,inf	98.352,98.352,0.400718,1.56839,47.3285,193.334,252.168,203.693,154.766,131.824,127.665,133.616,143.708,153.34,160.296,169.054,188.07,222.507,272.966,341.135,434.012,551.103,639.169,642.203,591.86,529.21,463.815,344.391,344.391,203.176,203.176,203.176
0.00258669	-13985709.96	0,1.75935e-06,4.07686e-06,7.12959e-06,1.11508e-05,1.64477e-05,2.34251e-05,3.2616e-05,4.47228e-05,6.06704e-05,8.16774e-05,0.000109349,0.000145799,0.000193813,0.000257059,0.00034037,0.000450111,0.000594667,0.000785084,0.00103591,0.00136631,0.00180153,0.00237482,0.00312999,0.00412474,0.00543506,0.00716109,0.00943469,0.0124296,0.0163746,0.0215712,0.0284164,inf	96.9337,96.9337,0.400718,1.48328,48.242,199.018,255.987,203.8,153.742,130.845,127.069,133.597,144.403,154.697,162.136,171.272,190.605,225.164,275.329,342.677,434.228,549.605,636.1,638.625,588.875,527.177,462.329,342.971,342.971,200.693,200.693,200.693
0.00264663	-13984944.48	0,1.75935e-06,4.07686e-06,7.12959e-06,1.11508e-05,1.64477e-05,2.34251e-05,3.2616e-05,4.47228e-05,6.06704e-05,8.16774e-05,0.000109349,0.000145799,0.000193813,0.000257059,0.00034037,0.000450111,0.000594667,0.000785084,0.00103591,0.00136631,0.00180153,0.00237482,0.00312999,0.00412474,0.00543506,0.00716109,0.00943469,0.0124296,0.0163746,0.0215712,0.0284164,inf	95.6149,95.6149,0.400718,1.40899,49.1679,204.65,259.64,203.895,152.819,129.994,126.583,133.658,145.137,156.05,163.945,173.442,193.084,227.757,277.627,344.17,434.435,548.152,633.121,635.146,585.976,525.205,460.907,341.675,341.675,198.356,198.356,198.356
0.00270603	-13984209.48	0,1.75935e-06,4.07686e-06,7.12959e-06,1.11508e-05,1.64477e-05,2.34251e-05,3.2616e-05,4.47228e-05,6.06704e-05,8.16774e-05,0.000109349,0.000145799,0.000193813,0.000257059,0.00034037,0.000450111,0.000594667,0.000785084,0.00103591,0.00136631,0.00180153,0.00237482,0.00312999,0.00412474,0.00543506,0.00716109,0.00943469,0.0124296,0.0163746,0.0215712,0.0284164,inf	94.3832,94.3832,0.400718,1.34352,50.1115,210.2,263.107,203.974,151.991,129.261,126.201,133.795,145.909,157.401,165.722,175.568,195.508,230.287,279.861,345.617,434.631,546.74,630.227,631.764,583.159,523.291,459.545,340.494,340.494,196.155,196.155,196.155
0.00276489	-13983503.34	0,1.75935e-06,4.07686e-06,7.12959e-06,1.11508e-05,1.64477e-05,2.34251e-05,3.2616e-05,4.47228e-05,6.06704e-05,8.16774e-05,0.000109349,0.000145799,0.000193813,0.000257059,0.00034037,0.000450111,0.000594667,0.000785084,0.00103591,0.00136631,0.00180153,0.00237482,0.00312999,0.00412474,0.00543506,0.00716109,0.00943469,0.0124296,0.0163746,0.0215712,0.0284164,inf	93.1374,93.1374,0.400718,1.28065,51.0597,215.675,266.388,204.025,151.248,128.635,125.918,134.004,146.717,158.751,167.47,177.648,197.878,232.755,282.035,347.019,434.817,545.368,627.415,628.477,580.423,521.434,458.237,339.416,339.416,194.076,194.076,194.076
0.00282322	-13982824.52	0,1.75935e-06,4.07686e-06,7.12959e-06,1.11508e-05,1.64477e-05,2.34251e-05,3.2616e-05,4.47228e-05,6.06704e-05,8.16774e-05,0.000109349,0.000145799,0.000193813,0.000257059,0.00034037,0.000450111,0.000594667,0.000785084,0.00103591,0.00136631,0.00180153,0.00237482,0.00312999,0.00412474,0.00543506,0.00716109,0.00943469,0.0124296,0.0163746,0.0215712,0.0284164,inf	92.147,92.147,0.400718,1.22569,52.0255,221.07,269.486,204.052,150.585,128.11,125.727,134.285,147.563,160.1,169.19,179.685,200.194,235.162,284.148,348.376,434.993,544.034,624.682,625.282,577.763,519.629,456.979,338.435,338.435,192.109,192.109,192.109
0.00288102	-13982171.61	0,1.75935e-06,4.07686e-06,7.12959e-06,1.11508e-05,1.64477e-05,2.34251e-05,3.2616e-05,4.47228e-05,6.06704e-05,8.16774e-05,0.000109349,0.000145799,0.000193813,0.000257059,0.00034037,0.000450111,0.000594667,0.000785084,0.00103591,0.00136631,0.00180153,0.00237482,0.00312999,0.00412474,0.00543506,0.00716109,0.00943469,0.0124296,0.0163746,0.0215712,0.0284164,inf	91.142,91.142,0.400718,1.174,53.0119,226.377,272.393,204.051,149.995,127.679,125.623,134.63,148.444,161.448,170.881,181.68,202.458,237.51,286.204,349.692,435.16,542.735,622.025,622.175,575.179,517.876,455.77,337.543,337.543,190.246,190.246,190.246
0.00293829	-13981543.27	0,1.75935e-06,4.07686e-06,7.12959e-06,1.11508e-05,1.64477e-05,2.34251e-05,3.2616e-05,4.47228e-05,6.06704e-05,8.16774e-05,0.000109349,0.000145799,0.000193813,0.000257059,0.00034037,0.000450111,0.000594667,0.000785084,0.00103591,0.00136631,0.00180153,0.00237482,0.00312999,0.00412474,0.00543506,0.00716109,0.00943469,0.0124296,0.0163746,0.0215712,0.0284164,inf	90.1083,90.1083,0.400718,1.1273,54.0124,231.593,275.112,204.02,149.469,127.333,125.601,135.039,149.358,162.796,172.546,183.633,204.671,239.8,288.203,350.968,435.318,541.471,619.442,619.153,572.666,516.171,454.605,336.732,336.732,188.478,188.478,188.478
0.00299504	-13980938.26	0,1.75935e-06,4.07686e-06,7.12959e-06,1.11508e-05,1.64477e-05,2.34251e-05,3.2616e-05,4.47228e-05,6.06704e-05,8.16774e-05,0.000109349,0.000145799,0.000193813,0.000257059,0.00034037,0.000450111,0.000594667,0.000785084,0.00103591,0.00136631,0.00180153,0.00237482,0.00312999,0.00412474,0.00543506,0.00716109,0.00943469,0.0124296,0.0163746,0.0215712,0.0284164,inf	89.3098,89.3098,0.400718,1.08183,55.0402,236.716,277.651,203.962,149.004,127.068,125.653,135.508,150.304,164.142,174.184,185.545,206.834,242.035,290.15,352.205,435.467,540.24,616.929,616.214,570.222,514.511,453.481,335.995,335.995,186.796,186.796,186.796
0.00305127	-13980355.40	0,1.75935e-06,4.07686e-06,7.12959e-06,1.11508e-05,1.64477e-05,2.34251e-05,3.2616e-05,4.47228e-05,6.06704e-05,8.16774e-05,0.000109349,0.000145799,0.000193813,0.000257059,0.00034037,0.000450111,0.000594667,0.000785084,0.00103591,0.00136631,0.00180153,0.00237482,0.00312999,0.00412474,0.00543506,0.00716109,0.00943469,0.0124296,0.0163746,0.0215712,0.0284164,inf	88.4879,88.4879,0.400718,1.04261,56.0924,241.745,280.01,203.877,148.593,126.876,125.777,136.033,151.28,165.486,175.796,187.418,208.949,244.216,292.043,353.404,435.607,539.04,614.484,613.354,567.845,512.896,452.395,335.327,335.327,185.195,185.195,185.195
0.00310699	-13979793.60	0,1.75935e-06,4.07686e-06,7.12959e-06,1.11508e-05,1.64477e-05,2.34251e-05,3.2616e-05,4.47228e-05,6.06704e-05,8.16774e-05,0.000109349,0.000145799,0.000193813,0.000257059,0.00034037,0.000450111,0.000594667,0.000785084,0.00103591,0.00136631,0.00180153,0.00237482,0.00312999,0.00412474,0.00543506,0.00716109,0.00943469,0.0124296,0.0163746,0.0215712,0.0284164,inf	87.775,87.775,0.400718,1.00668,57.1723,246.681,282.189,203.763,148.233,126.753,125.967,136.611,152.285,166.827,177.383,189.252,211.016,246.343,293.887,354.568,435.74,537.87,612.103,610.571,565.532,511.322,451.345,334.723,334.723,183.667,183.667,183.667
0.0031622	-13979251.83	0,1.75935e-06,4.07686e-06,7.12959e-06,1.11508e-05,1.64477e-05,2.34251e-05,3.2616e-05,4.47228e-05,6.06704e-05,8.16774e-05,0.000109349,0.000145799,0.000193813,0.000257059,0.00034037,0.000450111,0.000594667,0.000785084,0.00103591,0.00136631,0.00180153,0.00237482,0.00312999,0.00412474,0.00543506,0.00716109,0.00943469,0.0124296,0.0163746,0.0215712,0.0284164,inf	87.1106,87.1106,0.400718,0.975037,58.2899,251.533,284.193,203.621,147.922,126.694,126.217,137.24,153.316,168.167,178.944,191.049,213.038,248.42,295.682,355.697,435.864,536.729,609.785,607.862,563.28,509.787,450.329,334.177,334.177,182.209,182.209,182.209
0.00321691	-13978729.13	0,1.75935e-06,4.07686e-06,7.12959e-06,1.11508e-05,1.64477e-05,2.34251e-05,3.2616e-05,4.47228e-05,6.06704e-05,8.16774e-05,0.000109349,0.000145799,0.000193813,0.000257059,0.00034037,0.000450111,0.000594667,0.000785084,0.00103591,0.00136631,0.00180153,0.00237482,0.00312999,0.00412474,0.00543506,0.00716109,0.00943469,0.0124296,0.0163746,0.0215712,0.0284164,inf	86.4863,86.4863,0.400718,0.946999,59.4407,256.292,286.025,203.453,147.652,126.694,126.527,137.916,154.373,169.503,180.481,192.808,215.014,250.447,297.431,356.794,435.982,535.616,607.527,605.224,561.087,508.291,449.344,333.685,333.685,180.813,180.813,180.813
0.00327111	-13978224.59	0,1.75935e-06,4.07686e-06,7.12959e-06,1.11508e-05,1.64477e-05,2.34251e-05,3.2616e-05,4.47228e-05,6.06704e-05,8.16774e-05,0.000109349,0.000145799,0.000193813,0.000257059,0.00034037,0.000450111,0.000594667,0.000785084,0.00103591,0.00136631,0.00180153,0.00237482,0.00312999,0.00412474,0.00543506,0.00716109,0.00943469,0.0124296,0.0163746,0.0215712,0.0284164,inf	85.8392,85.8392,0.400718,0.92071,60.6342,260.98,287.7,203.254,147.421,126.748,126.891,138.636,155.454,170.836,181.994,194.532,216.947,252.426,299.134,357.859,436.092,534.529,605.327,602.655,558.951,506.831,448.388,333.243,333.243,179.475,179.475,179.475
