0.000664577	-8625266.85	0,2.67784e-06,6.15331e-06,1.0664e-05,1.65183e-05,2.41164e-05,3.39776e-05,4.67763e-05,6.33872e-05,8.49459e-05,0.000112926,0.000149241,0.000196372,0.000257543,0.000336934,0.000439973,0.000573703,0.000747268,0.000972531,0.00126489,0.00164434,0.00213681,0.00277597,0.00360551,0.00468215,0.00607948,0.00789303,0.0102468,0.0133016,0.0172664,0.0224121,0.0290906,inf	50.5257,50.5257,144.745,192.6,199.451,231.438,232.667,223.784,229.805,247.211,269.511,281.158,283.486,285.966,292.78,302.991,315.828,333.507,355.893,379.916,403.586,424.593,437.454,438.252,431.574,425.882,423.201,423.117,423.117,423.568,423.568,423.568
0.000699519	-8623247.13	0,2.67784e-06,6.15331e-06,1.0664e-05,1.65183e-05,2.41164e-05,3.39776e-05,4.67763e-05,6.33872e-05,8.49459e-05,0.000112926,0.000149241,0.000196372,0.000257543,0.000336934,0.000439973,0.000573703,0.000747268,0.000972531,0.00126489,0.00164434,0.00213681,0.00277597,0.00360551,0.00468215,0.00607948,0.00789303,0.0102468,0.0133016,0.0172664,0.0224121,0.0290906,inf	10.7826,10.7826,93.2285,157.445,167.76,221.466,213.139,186.273,188.641,211.347,245.528,260.722,258.56,256.451,261.719,272.146,286.306,308.587,338.881,372.363,406.693,439.295,461.206,463.768,453.506,445.423,442.89,445.938,445.938,452.008,452.008,452.008
0.000732142	-8622382.32	0,2.67784e-06,6.15331e-06,1.0664e-05,1.65183e-05,2.41164e-05,3.39776e-05,4.67763e-05,6.33872e-05,8.49459e-05,0.000112926,0.000149241,0.000196372,0.000257543,0.000336934,0.000439973,0.000573703,0.000747268,0.000972531,0.00126489,0.00164434,0.00213681,0.00277597,0.00360551,0.00468215,0.00607948,0.00789303,0.0102468,0.0133016,0.0172664,0.0224121,0.0290906,inf	2.76412,2.76412,70.8418,144.464,158.45,236.399,216.699,172.743,171.806,199.049,244.572,262.907,255.864,248.818,251.742,260.635,273.483,296.793,330.358,367.957,407.388,446.623,474.777,479.122,466.974,458.485,457.968,466.778,466.778,485.413,485.413,485.413
0.000762626	-8621853.25	0,2.67784e-06,6.15331e-06,1.0664e-05,1.65183e-05,2.41164e-05,3.39776e-05,4.67763e-05,6.33872e-05,8.49459e-05,0.000112926,0.000149241,0.000196372,0.000257543,0.000336934,0.000439973,0.000573703,0.000747268,0.000972531,0.00126489,0.00164434,0.00213681,0.00277597,0.00360551,0.00468215,0.00607948,0.00789303,0.0102468,0.0133016,0.0172664,0.0224121,0.0290906,inf	0.775073,0.775073,58.0655,135.568,151.612,254.206,222.676,164.171,160.775,192.342,248.943,270.649,259.33,248.16,249.315,256.632,267.613,290.826,325.837,365.182,406.971,449.987,482.35,488.106,474.918,467.121,469.787,486.573,486.573,527.869,527.869,527.869
0.000791345	-8621460.56	0,2.67784e-06,6.15331e-06,1.0664e-05,1.65183e-05,2.41164e-05,3.39776e-05,4.67763e-05,6.33872e-05,8.49459e-05,0.000112926,0.000149241,0.000196372,0.000257543,0.000336934,0.000439973,0.000573703,0.000747268,0.000972531,0.00126489,0.00164434,0.00213681,0.00277597,0.00360551,0.00468215,0.00607948,0.00789303,0.0102468,0.0133016,0.0172664,0.0224121,0.0290906,inf	0.397281,0.397281,50.4931,128.093,144.349,270.547,227.218,156.8,151.523,186.912,253.809,278.842,263.931,249.596,249.764,255.861,265.03,287.835,323.515,363.467,406.17,451.271,486.406,493.111,479.27,472.728,479.287,506.047,506.047,586.193,586.193,586.193
0.000818606	-8621138.83	0,2.67784e-06,6.15331e-06,1.0664e-05,1.65183e-05,2.41164e-05,3.39776e-05,4.67763e-05,6.33872e-05,8.49459e-05,0.000112926,0.000149241,0.000196372,0.000257543,0.000336934,0.000439973,0.000573703,0.000747268,0.000972531,0.00126489,0.00164434,0.00213681,0.00277597,0.00360551,0.00468215,0.00607948,0.00789303,0.0102468,0.0133016,0.0172664,0.0224121,0.0290906,inf	0.397264,0.397264,46.244,121.802,136.808,285.096,230.165,150.103,143.299,181.897,258.013,286.04,268.058,251.391,251.262,256.534,264.113,286.491,322.509,362.5,405.333,451.485,488.386,495.611,481.267,476.232,487.109,525.778,525.778,673.981,673.981,673.981
0.000844631	-8620861.97	0,2.67784e-06,6.15331e-06,1.0664e-05,1.65183e-05,2.41164e-05,3.39776e-05,4.67763e-05,6.33872e-05,8.49459e-05,0.000112926,0.000149241,0.000196372,0.000257543,0.000336934,0.000439973,0.000573703,0.000747268,0.000972531,0.00126489,0.00164434,0.00213681,0.00277597,0.00360551,0.00468215,0.00607948,0.00789303,0.0102468,0.0133016,0.0172664,0.0224121,0.0290906,inf	0.397264,0.397264,44.6269,116.594,129.396,298.173,231.992,144.125,136.023,177.275,261.52,292.025,271.315,252.954,253.057,257.833,264.068,286.099,322.322,362.07,404.603,451.168,489.129,496.515,481.7,478.249,493.695,546.266,546.266,825.666,825.666,825.666
0.00086958	-8620617.74	0,2.67784e-06,6.15331e-06,1.0664e-05,1.65183e-05,2.41164e-05,3.39776e-05,4.67763e-05,6.33872e-05,8.49459e-05,0.000112926,0.000149241,0.000196372,0.000257543,0.000336934,0.000439973,0.000573703,0.000747268,0.000972531,0.00126489,0.00164434,0.00213681,0.00277597,0.00360551,0.00468215,0.00607948,0.00789303,0.0102468,0.0133016,0.0172664,0.0224121,0.0290906,inf	0.397264,0.397264,44.8909,112.252,122.288,310.178,233.046,138.894,129.672,173.15,264.56,296.963,273.717,254.133,254.844,259.372,264.479,286.271,322.655,362.026,404.028,450.607,489.134,496.391,481.085,479.196,499.35,567.976,567.976,1172.28,1172.28,1172.28
0.000893568	-8620399.55	0,2.67784e-06,6.15331e-06,1.0664e-05,1.65183e-05,2.41164e-05,3.39776e-05,4.67763e-05,6.33872e-05,8.49459e-05,0.000112926,0.000149241,0.000196372,0.000257543,0.000336934,0.000439973,0.000573703,0.000747268,0.000972531,0.00126489,0.00164434,0.00213681,0.00277597,0.00360551,0.00468215,0.00607948,0.00789303,0.0102468,0.0133016,0.0172664,0.0224121,0.0290906,inf	0.397264,0.397264,46.7533,108.534,115.567,321.222,233.543,134.371,124.191,169.595,267.364,301.095,275.41,254.937,256.512,260.96,265.12,286.774,323.316,362.254,403.61,449.955,488.699,495.602,479.756,479.352,504.296,591.389,591.389,2807.09,2807.09,2807.09
0.000893568	-8620203.30	0,2.67784e-06,6.15331e-06,1.0664e-05,1.65183e-05,2.41164e-05,3.39776e-05,4.67763e-05,6.33872e-05,8.49459e-05,0.000112926,0.000149241,0.000196372,0.000257543,0.000336934,0.000439973,0.000573703,0.000747268,0.000972531,0.00126489,0.00164434,0.00213681,0.00277597,0.00360551,0.00468215,0.00607948,0.00789303,0.0102468,0.0133016,0.0172664,0.0224121,0.0290906,inf	0.397264,0.397264,49.628,104.25,108.289,328.448,231.521,129.338,118.443,165.158,267.733,301.964,274.18,253.288,255.909,260.394,263.781,285.265,321.725,359.98,400.44,446.228,484.963,491.653,475.803,477.147,507.157,615.755,615.755,60663.5,60663.5,60663.5
