0.000682608	-13853598.14	0,4.11013e-06,1.12418e-05,2.36163e-05,4.50878e-05,8.23439e-05,0.000146989,0.000259157,0.000453784,0.000791491,0.00137746,0.0023942,0.0041584,0.00721953,0.012531,0.0217472,inf	286.545,286.545,243.04,244.203,228.273,265.488,289.55,289.183,308.673,349.249,402.483,454.815,444.169,489.376,489.376,489.376
0.000728742	-13850002.66	0,4.11013e-06,1.12418e-05,2.36163e-05,4.50878e-05,8.23439e-05,0.000146989,0.000259157,0.000453784,0.000791491,0.00137746,0.0023942,0.0041584,0.00721953,0.012531,0.0217472,inf	296.121,296.121,226.758,228.07,186.319,239.738,273.528,261.027,280.337,331.308,400.122,482.888,469.556,596.443,596.443,596.443
0.000767597	-13849075.99	0,4.11013e-06,1.12418e-05,2.36163e-05,4.50878e-05,8.23439e-05,0.000146989,0.000259157,0.000453784,0.000791491,0.00137746,0.0023942,0.0041584,0.00721953,0.012531,0.0217472,inf	313.781,313.781,225.747,232.297,167.652,235.295,277.95,253.524,270.022,324.076,395.939,495.622,481.835,738.882,738.882,738.882
0.000800748	-13848856.89	0,4.11013e-06,1.12418e-05,2.36163e-05,4.50878e-05,8.23439e-05,0.000146989,0.000259157,0.000453784,0.000791491,0.00137746,0.0023942,0.0041584,0.00721953,0.012531,0.0217472,inf	324.622,324.622,223.499,238.642,154.81,235.129,286.497,252.317,266.522,321.705,391.871,500.251,486.194,975.123,975.123,975.123
0.000829157	-13848976.85	0,4.11013e-06,1.12418e-05,2.36163e-05,4.50878e-05,8.23439e-05,0.000146989,0.000259157,0.000453784,0.000791491,0.00137746,0.0023942,0.0041584,0.00721953,0.012531,0.0217472,inf	329.976,329.976,219.14,244.308,144.269,235.256,294.583,252.878,265.838,321.817,388.456,500.21,485.591,1594.71,1594.71,1594.71
0.000853315	-13849450.63	0,4.11013e-06,1.12418e-05,2.36163e-05,4.50878e-05,8.23439e-05,0.000146989,0.000259157,0.000453784,0.000791491,0.00137746,0.0023942,0.0041584,0.00721953,0.012531,0.0217472,inf	332.723,332.723,213.895,249.477,135.329,235.067,301.198,253.734,266.38,323.34,385.781,496.787,481.635,7254.09,7254.09,7254.09
0.000853315	-13850407.09	0,4.11013e-06,1.12418e-05,2.36163e-05,4.50878e-05,8.23439e-05,0.000146989,0.000259157,0.000453784,0.000791491,0.00137746,0.0023942,0.0041584,0.00721953,0.012531,0.0217472,inf	332.723,332.723,207.432,253.144,127.112,233.252,304.653,253.056,265.93,323.705,380.537,486.308,473.946,49817.1,49817.1,49817.1
0.000853315	-13850563.69	0,4.11013e-06,1.12418e-05,2.36163e-05,4.50878e-05,8.23439e-05,0.000146989,0.000259157,0.000453784,0.000791491,0.00137746,0.0023942,0.0041584,0.00721953,0.012531,0.0217472,inf	332.723,332.723,202.156,256.185,120.378,231.524,307.351,252.31,266.105,323.954,378.701,478.86,467.703,49819.5,49819.5,49819.5
0.000853315	-13850422.48	0,4.11013e-06,1.12418e-05,2.36163e-05,4.50878e-05,8.23439e-05,0.000146989,0.000259157,0.000453784,0.000791491,0.00137746,0.0023942,0.0041584,0.00721953,0.012531,0.0217472,inf	332.723,332.723,197.826,258.68,114.935,230.009,309.506,251.38,266.393,324.197,378.701,473.97,462.478,49821.2,49821.2,49821.2
0.000853315	-13850324.56	0,4.11013e-06,1.12418e-05,2.36163e-05,4.50878e-05,8.23439e-05,0.000146989,0.000259157,0.000453784,0.000791491,0.00137746,0.0023942,0.0041584,0.00721953,0.012531,0.0217472,inf	332.725,332.725,194.305,260.71,110.552,228.786,311.348,250.328,266.619,324.478,378.701,470.744,457.947,49822.5,49822.5,49822.5
0.000853315	-13850250.96	0,4.11013e-06,1.12418e-05,2.36163e-05,4.50878e-05,8.23439e-05,0.000146989,0.000259157,0.000453784,0.000791491,0.00137746,0.0023942,0.0041584,0.00721953,0.012531,0.0217472,inf	332.726,332.726,191.384,260.71,106.987,227.824,311.352,249.207,266.782,325.15,378.701,468.695,453.919,49823.6,49823.6,49823.6
0.000853315	-13850192.62	0,4.11013e-06,1.12418e-05,2.36163e-05,4.50878e-05,8.23439e-05,0.000146989,0.000259157,0.000453784,0.000791491,0.00137746,0.0023942,0.0041584,0.00721953,0.012531,0.0217472,inf	332.728,332.728,189.539,260.722,104.244,227.441,312.685,248.221,266.874,325.424,378.701,467.485,450.26,49824.5,49824.5,49824.5
0.000853315	-13850145.00	0,4.11013e-06,1.12418e-05,2.36163e-05,4.50878e-05,8.23439e-05,0.000146989,0.000259157,0.000453784,0.000791491,0.00137746,0.0023942,0.0041584,0.00721953,0.012531,0.0217472,inf	332.728,332.728,188.346,261.409,102.001,227.157,313.594,247.265,266.941,325.424,378.862,466.878,446.875,49825.3,49825.3,49825.3
0.000853315	-13850104.58	0,4.11013e-06,1.12418e-05,2.36163e-05,4.50878e-05,8.23439e-05,0.000146989,0.000259157,0.000453784,0.000791491,0.00137746,0.0023942,0.0041584,0.00721953,0.012531,0.0217472,inf	332.73,332.73,187.427,261.94,100.136,226.998,314.305,246.407,267.035,325.654,378.862,466.701,443.696,49826,49826,49826
0.000853315	-13850069.04	0,4.11013e-06,1.12418e-05,2.36163e-05,4.50878e-05,8.23439e-05,0.000146989,0.000259157,0.000453784,0.000791491,0.00137746,0.0023942,0.0041584,0.00721953,0.012531,0.0217472,inf	332.733,332.733,186.723,262.346,98.5731,226.93,314.864,245.618,267.109,325.654,378.862,466.774,440.68,49826.6,49826.6,49826.6
0.000853315	-13850037.08	0,4.11013e-06,1.12418e-05,2.36163e-05,4.50878e-05,8.23439e-05,0.000146989,0.000259157,0.000453784,0.000791491,0.00137746,0.0023942,0.0041584,0.00721953,0.012531,0.0217472,inf	332.733,332.733,186.204,262.645,97.2624,226.959,315.282,244.927,267.212,325.824,378.862,466.774,437.813,49827.2,49827.2,49827.2
0.000853315	-13850006.51	0,4.11013e-06,1.12418e-05,2.36163e-05,4.50878e-05,8.23439e-05,0.000146989,0.000259157,0.000453784,0.000791491,0.00137746,0.0023942,0.0041584,0.00721953,0.012531,0.0217472,inf	332.735,332.735,185.814,262.869,96.1469,227.037,315.292,244.29,267.292,326.05,378.862,466.774,435.089,49827.8,49827.8,49827.8
0.000853315	-13849977.70	0,4.11013e-06,1.12418e-05,2.36163e-05,4.50878e-05,8.23439e-05,0.000146989,0.000259157,0.000453784,0.000791491,0.00137746,0.0023942,0.0041584,0.00721953,0.012531,0.0217472,inf	332.737,332.737,185.55,263.022,95.2109,227.039,315.602,243.738,267.353,326.05,378.948,466.774,432.499,49828.3,49828.3,49828.3
0.000853315	-13849950.68	0,4.11013e-06,1.12418e-05,2.36163e-05,4.50878e-05,8.23439e-05,0.000146989,0.000259157,0.000453784,0.000791491,0.00137746,0.0023942,0.0041584,0.00721953,0.012531,0.0217472,inf	332.738,332.738,185.374,263.123,94.4176,227.292,315.719,243.249,267.422,326.05,379.018,466.774,430.035,49828.9,49828.9,49828.9
0.000853315	-13849925.23	0,4.11013e-06,1.12418e-05,2.36163e-05,4.50878e-05,8.23439e-05,0.000146989,0.000259157,0.000453784,0.000791491,0.00137746,0.0023942,0.0041584,0.00721953,0.012531,0.0217472,inf	332.738,332.738,185.259,263.19,93.7225,227.565,315.793,242.823,267.498,326.148,379.018,466.774,427.69,49829.4,49829.4,49829.4
