0.000670549	-313198.65	0,4.66586e-05,0.000101811,0.000167003,0.000244063,0.000335152,0.000442822,0.000570092,0.000720531,0.000898356,0.00110855,0.00135701,0.0016507,0.00199786,0.00240821,0.00289326,0.00346661,0.00414433,0.00494543,0.00589236,0.00701167,0.00833474,0.00989867,0.0117473,0.0139324,0.0165154,0.0195685,0.0231774,0.0274433,0.0324858,inf	408.88,408.88,408.88,408.88,408.88,408.88,408.88,408.88,408.88,408.88,408.88,408.88,408.88,408.88,408.88,408.88,408.88,408.88,408.88,408.88,408.88,408.88,408.88,408.88,408.88,408.88,408.88,408.88,408.88,408.88
0.000696389	-313175.37	0,4.66586e-05,0.000101811,0.000167003,0.000244063,0.000335152,0.000442822,0.000570092,0.000720531,0.000898356,0.00110855,0.00135701,0.0016507,0.00199786,0.00240821,0.00289326,0.00346661,0.00414433,0.00494543,0.00589236,0.00701167,0.00833474,0.00989867,0.0117473,0.0139324,0.0165154,0.0195685,0.0231774,0.0274433,0.0324858,inf	417.369,417.369,417.369,417.369,417.369,417.369,417.369,417.369,417.369,417.369,417.369,417.369,417.369,417.369,417.369,417.369,417.369,417.369,417.369,417.369,417.369,417.369,417.369,417.369,417.369,417.369,417.369,417.369,417.369,417.369
0.000719815	-313161.85	0,4.66586e-05,0.000101811,0.000167003,0.000244063,0.000335152,0.000442822,0.000570092,0.000720531,0.000898356,0.00110855,0.00135701,0.0016507,0.00199786,0.00240821,0.00289326,0.00346661,0.00414433,0.00494543,0.00589236,0.00701167,0.00833474,0.00989867,0.0117473,0.0139324,0.0165154,0.0195685,0.0231774,0.0274433,0.0324858,inf	421.133,421.133,421.133,421.133,421.133,421.133,421.133,421.133,421.133,421.133,421.133,421.133,421.133,421.133,421.133,421.133,421.133,421.133,421.133,421.133,421.133,421.133,421.133,421.133,421.133,421.133,421.133,421.133,421.133,421.133
0.000741694	-313151.00	0,4.66586e-05,0.000101811,0.000167003,0.000244063,0.000335152,0.000442822,0.000570092,0.000720531,0.000898356,0.00110855,0.00135701,0.0016507,0.00199786,0.00240821,0.00289326,0.00346661,0.00414433,0.00494543,0.00589236,0.00701167,0.00833474,0.00989867,0.0117473,0.0139324,0.0165154,0.0195685,0.0231774,0.0274433,0.0324858,inf	422.762,422.762,422.762,422.762,422.762,422.762,422.762,422.762,422.762,422.762,422.762,422.762,422.762,422.762,422.762,422.762,422.762,422.762,422.762,422.762,422.762,422.762,422.762,422.762,422.762,422.762,422.762,422.762,422.762,422.762
0.000762473	-313141.33	0,4.66586e-05,0.000101811,0.000167003,0.000244063,0.000335152,0.000442822,0.000570092,0.000720531,0.000898356,0.00110855,0.00135701,0.0016507,0.00199786,0.00240821,0.00289326,0.00346661,0.00414433,0.00494543,0.00589236,0.00701167,0.00833474,0.00989867,0.0117473,0.0139324,0.0165154,0.0195685,0.0231774,0.0274433,0.0324858,inf	423.43,423.43,423.43,423.43,423.43,423.43,423.43,423.43,423.43,423.43,423.43,423.43,423.43,423.43,423.43,423.43,423.43,423.43,423.43,423.43,423.43,423.43,423.43,423.43,423.43,423.43,423.43,423.43,423.43,423.43
0.000782378	-313132.49	0,4.66586e-05,0.000101811,0.000167003,0.000244063,0.000335152,0.000442822,0.000570092,0.000720531,0.000898356,0.00110855,0.00135701,0.0016507,0.00199786,0.00240821,0.00289326,0.00346661,0.00414433,0.00494543,0.00589236,0.00701167,0.00833474,0.00989867,0.0117473,0.0139324,0.0165154,0.0195685,0.0231774,0.0274433,0.0324858,inf	423.662,423.662,423.662,423.662,423.662,423.662,423.662,423.662,423.662,423.662,423.662,423.662,423.662,423.662,423.662,423.662,423.662,423.662,423.662,423.662,423.662,423.662,423.662,423.662,423.662,423.662,423.662,423.662,423.662,423.662
0.000801529	-313124.34	0,4.66586e-05,0.000101811,0.000167003,0.000244063,0.000335152,0.000442822,0.000570092,0.000720531,0.000898356,0.00110855,0.00135701,0.0016507,0.00199786,0.00240821,0.00289326,0.00346661,0.00414433,0.00494543,0.00589236,0.00701167,0.00833474,0.00989867,0.0117473,0.0139324,0.0165154,0.0195685,0.0231774,0.0274433,0.0324858,inf	423.696,423.696,423.696,423.696,423.696,423.696,423.696,423.696,423.696,423.696,423.696,423.696,423.696,423.696,423.696,423.696,423.696,423.696,423.696,423.696,423.696,423.696,423.696,423.696,423.696,423.696,423.696,423.696,423.696,423.696
0.000819997	-313116.80	0,4.66586e-05,0.000101811,0.000167003,0.000244063,0.000335152,0.000442822,0.000570092,0.000720531,0.000898356,0.00110855,0.00135701,0.0016507,0.00199786,0.00240821,0.00289326,0.00346661,0.00414433,0.00494543,0.00589236,0.00701167,0.00833474,0.00989867,0.0117473,0.0139324,0.0165154,0.0195685,0.0231774,0.0274433,0.0324858,inf	423.638,423.638,423.638,423.638,423.638,423.638,423.638,423.638,423.638,423.638,423.638,423.638,423.638,423.638,423.638,423.638,423.638,423.638,423.638,423.638,423.638,423.638,423.638,423.638,423.638,423.638,423.638,423.638,423.638,423.638
0.000837826	-313109.83	0,4.66586e-05,0.000101811,0.000167003,0.000244063,0.000335152,0.000442822,0.000570092,0.000720531,0.000898356,0.00110855,0.00135701,0.0016507,0.00199786,0.00240821,0.00289326,0.00346661,0.00414433,0.00494543,0.00589236,0.00701167,0.00833474,0.00989867,0.0117473,0.0139324,0.0165154,0.0195685,0.0231774,0.0274433,0.0324858,inf	423.537,423.537,423.537,423.537,423.537,423.537,423.537,423.537,423.537,423.537,423.537,423.537,423.537,423.537,423.537,423.537,423.537,423.537,423.537,423.537,423.537,423.537,423.537,423.537,423.537,423.537,423.537,423.537,423.537,423.537
0.000855052	-313103.36	0,4.66586e-05,0.000101811,0.000167003,0.000244063,0.000335152,0.000442822,0.000570092,0.000720531,0.000898356,0.00110855,0.00135701,0.0016507,0.00199786,0.00240821,0.00289326,0.00346661,0.00414433,0.00494543,0.00589236,0.00701167,0.00833474,0.00989867,0.0117473,0.0139324,0.0165154,0.0195685,0.0231774,0.0274433,0.0324858,inf	423.415,423.415,423.415,423.415,423.415,423.415,423.415,423.415,423.415,423.415,423.415,423.415,423.415,423.415,423.415,423.415,423.415,423.415,423.415,423.415,423.415,423.415,423.415,423.415,423.415,423.415,423.415,423.415,423.415,423.415
0.0008717	-313097.36	0,4.66586e-05,0.000101811,0.000167003,0.000244063,0.000335152,0.000442822,0.000570092,0.000720531,0.000898356,0.00110855,0.00135701,0.0016507,0.00199786,0.00240821,0.00289326,0.00346661,0.00414433,0.00494543,0.00589236,0.00701167,0.00833474,0.00989867,0.0117473,0.0139324,0.0165154,0.0195685,0.0231774,0.0274433,0.0324858,inf	423.284,423.284,423.284,423.284,423.284,423.284,423.284,423.284,423.284,423.284,423.284,423.284,423.284,423.284,423.284,423.284,423.284,423.284,423.284,423.284,423.284,423.284,423.284,423.284,423.284,423.284,423.284,423.284,423.284,423.284
0.000887795	-313091.77	0,4.66586e-05,0.000101811,0.000167003,0.000244063,0.000335152,0.000442822,0.000570092,0.000720531,0.000898356,0.00110855,0.00135701,0.0016507,0.00199786,0.00240821,0.00289326,0.00346661,0.00414433,0.00494543,0.00589236,0.00701167,0.00833474,0.00989867,0.0117473,0.0139324,0.0165154,0.0195685,0.0231774,0.0274433,0.0324858,inf	423.148,423.148,423.148,423.148,423.148,423.148,423.148,423.148,423.148,423.148,423.148,423.148,423.148,423.148,423.148,423.148,423.148,423.148,423.148,423.148,423.148,423.148,423.148,423.148,423.148,423.148,423.148,423.148,423.148,423.148
0.00090336	-313086.57	0,4.66586e-05,0.000101811,0.000167003,0.000244063,0.000335152,0.000442822,0.000570092,0.000720531,0.000898356,0.00110855,0.00135701,0.0016507,0.00199786,0.00240821,0.00289326,0.00346661,0.00414433,0.00494543,0.00589236,0.00701167,0.00833474,0.00989867,0.0117473,0.0139324,0.0165154,0.0195685,0.0231774,0.0274433,0.0324858,inf	423.011,423.011,423.011,423.011,423.011,423.011,423.011,423.011,423.011,423.011,423.011,423.011,423.011,423.011,423.011,423.011,423.011,423.011,423.011,423.011,423.011,423.011,423.011,423.011,423.011,423.011,423.011,423.011,423.011,423.011
0.000918414	-313081.72	0,4.66586e-05,0.000101811,0.000167003,0.000244063,0.000335152,0.000442822,0.000570092,0.000720531,0.000898356,0.00110855,0.00135701,0.0016507,0.00199786,0.00240821,0.00289326,0.00346661,0.00414433,0.00494543,0.00589236,0.00701167,0.00833474,0.00989867,0.0117473,0.0139324,0.0165154,0.0195685,0.0231774,0.0274433,0.0324858,inf	422.873,422.873,422.873,422.873,422.873,422.873,422.873,422.873,422.873,422.873,422.873,422.873,422.873,422.873,422.873,422.873,422.873,422.873,422.873,422.873,422.873,422.873,422.873,422.873,422.873,422.873,422.873,422.873,422.873,422.873
0.000932976	-313077.18	0,4.66586e-05,0.000101811,0.000167003,0.000244063,0.000335152,0.000442822,0.000570092,0.000720531,0.000898356,0.00110855,0.00135701,0.0016507,0.00199786,0.00240821,0.00289326,0.00346661,0.00414433,0.00494543,0.00589236,0.00701167,0.00833474,0.00989867,0.0117473,0.0139324,0.0165154,0.0195685,0.0231774,0.0274433,0.0324858,inf	422.736,422.736,422.736,422.736,422.736,422.736,422.736,422.736,422.736,422.736,422.736,422.736,422.736,422.736,422.736,422.736,422.736,422.736,422.736,422.736,422.736,422.736,422.736,422.736,422.736,422.736,422.736,422.736,422.736,422.736
0.000947065	-313072.94	0,4.66586e-05,0.000101811,0.000167003,0.000244063,0.000335152,0.000442822,0.000570092,0.000720531,0.000898356,0.00110855,0.00135701,0.0016507,0.00199786,0.00240821,0.00289326,0.00346661,0.00414433,0.00494543,0.00589236,0.00701167,0.00833474,0.00989867,0.0117473,0.0139324,0.0165154,0.0195685,0.0231774,0.0274433,0.0324858,inf	422.601,422.601,422.601,422.601,422.601,422.601,422.601,422.601,422.601,422.601,422.601,422.601,422.601,422.601,422.601,422.601,422.601,422.601,422.601,422.601,422.601,422.601,422.601,422.601,422.601,422.601,422.601,422.601,422.601,422.601
0.000960698	-313068.97	0,4.66586e-05,0.000101811,0.000167003,0.000244063,0.000335152,0.000442822,0.000570092,0.000720531,0.000898356,0.00110855,0.00135701,0.0016507,0.00199786,0.00240821,0.00289326,0.00346661,0.00414433,0.00494543,0.00589236,0.00701167,0.00833474,0.00989867,0.0117473,0.0139324,0.0165154,0.0195685,0.0231774,0.0274433,0.0324858,inf	422.467,422.467,422.467,422.467,422.467,422.467,422.467,422.467,422.467,422.467,422.467,422.467,422.467,422.467,422.467,422.467,422.467,422.467,422.467,422.467,422.467,422.467,422.467,422.467,422.467,422.467,422.467,422.467,422.467,422.467
0.000973892	-313065.25	0,4.66586e-05,0.000101811,0.000167003,0.000244063,0.000335152,0.000442822,0.000570092,0.000720531,0.000898356,0.00110855,0.00135701,0.0016507,0.00199786,0.00240821,0.00289326,0.00346661,0.00414433,0.00494543,0.00589236,0.00701167,0.00833474,0.00989867,0.0117473,0.0139324,0.0165154,0.0195685,0.0231774,0.0274433,0.0324858,inf	422.335,422.335,422.335,422.335,422.335,422.335,422.335,422.335,422.335,422.335,422.335,422.335,422.335,422.335,422.335,422.335,422.335,422.335,422.335,422.335,422.335,422.335,422.335,422.335,422.335,422.335,422.335,422.335,422.335,422.335
0.000986663	-313061.75	0,4.66586e-05,0.000101811,0.000167003,0.000244063,0.000335152,0.000442822,0.000570092,0.000720531,0.000898356,0.00110855,0.00135701,0.0016507,0.00199786,0.00240821,0.00289326,0.00346661,0.00414433,0.00494543,0.00589236,0.00701167,0.00833474,0.00989867,0.0117473,0.0139324,0.0165154,0.0195685,0.0231774,0.0274433,0.0324858,inf	422.206,422.206,422.206,422.206,422.206,422.206,422.206,422.206,422.206,422.206,422.206,422.206,422.206,422.206,422.206,422.206,422.206,422.206,422.206,422.206,422.206,422.206,422.206,422.206,422.206,422.206,422.206,422.206,422.206,422.206
0.000999026	-313058.47	0,4.66586e-05,0.000101811,0.000167003,0.000244063,0.000335152,0.000442822,0.000570092,0.000720531,0.000898356,0.00110855,0.00135701,0.0016507,0.00199786,0.00240821,0.00289326,0.00346661,0.00414433,0.00494543,0.00589236,0.00701167,0.00833474,0.00989867,0.0117473,0.0139324,0.0165154,0.0195685,0.0231774,0.0274433,0.0324858,inf	422.079,422.079,422.079,422.079,422.079,422.079,422.079,422.079,422.079,422.079,422.079,422.079,422.079,422.079,422.079,422.079,422.079,422.079,422.079,422.079,422.079,422.079,422.079,422.079,422.079,422.079,422.079,422.079,422.079,422.079
