0.000667873	-313198.97	0,4.35083e-05,9.44021e-05,0.000153935,0.000223574,0.000305034,0.000400322,0.000511785,0.000642168,0.000794685,0.000973091,0.00118178,0.0014259,0.00171145,0.00204548,0.00243621,0.00289326,0.0034279,0.00405329,0.00478485,0.00564058,0.00664158,0.00781249,0.00918217,0.0107844,0.0126585,0.0148508,0.0174152,0.020415,0.0239239,0.0280285,0.0328299,inf	121.22,121.22,183.299,239.353,280.82,303.243,312.677,317.529,322.667,333.89,350.258,368.509,386.108,402.213,415.856,425.556,431.012,433.691,433.974,431.343,427.219,422.467,416.017,406.675,394.795,382.814,374.937,376.4,376.4,390.685,390.685,390.685
0.000694527	-313134.32	0,4.35083e-05,9.44021e-05,0.000153935,0.000223574,0.000305034,0.000400322,0.000511785,0.000642168,0.000794685,0.000973091,0.00118178,0.0014259,0.00171145,0.00204548,0.00243621,0.00289326,0.0034279,0.00405329,0.00478485,0.00564058,0.00664158,0.00781249,0.00918217,0.0107844,0.0126585,0.0148508,0.0174152,0.020415,0.0239239,0.0280285,0.0328299,inf	68.2738,68.2738,125.682,199.587,259.026,287.401,294.035,293.604,294.913,308.137,330.796,357.134,383.069,407.482,428.949,444.873,454.502,460.247,462.331,459.172,453.174,445.613,434.028,416.151,393.332,371.093,357.436,361.581,361.581,389.848,389.848,389.848
0.00071905	-313109.37	0,4.35083e-05,9.44021e-05,0.000153935,0.000223574,0.000305034,0.000400322,0.000511785,0.000642168,0.000794685,0.000973091,0.00118178,0.0014259,0.00171145,0.00204548,0.00243621,0.00289326,0.0034279,0.00405329,0.00478485,0.00564058,0.00664158,0.00781249,0.00918217,0.0107844,0.0126585,0.0148508,0.0174152,0.020415,0.0239239,0.0280285,0.0328299,inf	52.0792,52.0792,101.111,186.214,259.571,290.818,292.339,284.576,280.369,293.379,319.169,349.847,380.236,409.224,435.264,455.048,467.576,476.08,480.45,477.858,471.36,462.284,446.551,420.97,388.415,357.767,340.085,347.355,347.355,388.083,388.083,388.083
0.000741697	-313094.66	0,4.35083e-05,9.44021e-05,0.000153935,0.000223574,0.000305034,0.000400322,0.000511785,0.000642168,0.000794685,0.000973091,0.00118178,0.0014259,0.00171145,0.00204548,0.00243621,0.00289326,0.0034279,0.00405329,0.00478485,0.00564058,0.00664158,0.00781249,0.00918217,0.0107844,0.0126585,0.0148508,0.0174152,0.020415,0.0239239,0.0280285,0.0328299,inf	46.2416,46.2416,87.145,180.762,266.435,299.958,296.351,281.209,271.586,283.949,311.699,345.047,377.976,409.528,438.204,460.261,474.659,485.42,492.08,490.557,484.353,474.594,455.45,422.957,381.89,344.487,324.081,334.469,334.469,385.731,385.731,385.731
0.000762828	-313083.71	0,4.35083e-05,9.44021e-05,0.000153935,0.000223574,0.000305034,0.000400322,0.000511785,0.000642168,0.000794685,0.000973091,0.00118178,0.0014259,0.00171145,0.00204548,0.00243621,0.00289326,0.0034279,0.00405329,0.00478485,0.00564058,0.00664158,0.00781249,0.00918217,0.0107844,0.0126585,0.0148508,0.0174152,0.020415,0.0239239,0.0280285,0.0328299,inf	44.3346,44.3346,77.4861,177.748,274.367,310.158,302.104,280.147,265.704,277.523,306.779,341.976,376.418,409.379,439.498,462.778,478.285,490.823,499.593,499.337,493.877,483.976,461.991,423.316,374.866,332.07,309.858,323.154,323.154,383.029,383.029,383.029
0.000782718	-313074.61	0,4.35083e-05,9.44021e-05,0.000153935,0.000223574,0.000305034,0.000400322,0.000511785,0.000642168,0.000794685,0.000973091,0.00118178,0.0014259,0.00171145,0.00204548,0.00243621,0.00289326,0.0034279,0.00405329,0.00478485,0.00564058,0.00664158,0.00781249,0.00918217,0.0107844,0.0126585,0.0148508,0.0174152,0.020415,0.0239239,0.0280285,0.0328299,inf	44.1888,44.1888,69.9851,175.463,281.62,319.744,308.074,280.014,261.432,272.953,303.543,340.152,375.519,409.196,440.004,463.806,479.883,493.8,504.456,505.516,501.055,491.374,466.999,422.801,367.962,320.852,297.464,313.386,313.386,380.141,380.141,380.141
0.000801555	-313066.67	0,4.35083e-05,9.44021e-05,0.000153935,0.000223574,0.000305034,0.000400322,0.000511785,0.000642168,0.000794685,0.000973091,0.00118178,0.0014259,0.00171145,0.00204548,0.00243621,0.00289326,0.0034279,0.00405329,0.00478485,0.00564058,0.00664158,0.00781249,0.00918217,0.0107844,0.0126585,0.0148508,0.0174152,0.020415,0.0239239,0.0280285,0.0328299,inf	44.8862,44.8862,63.8009,173.441,287.75,328.197,313.682,280.204,258.122,269.601,301.463,339.236,375.174,409.131,440.14,464,480.271,495.255,507.576,509.935,506.612,497.399,471.007,421.874,361.494,310.911,286.776,305.037,305.037,377.181,377.181,377.181
0.000819472	-313059.56	0,4.35083e-05,9.44021e-05,0.000153935,0.000223574,0.000305034,0.000400322,0.000511785,0.000642168,0.000794685,0.000973091,0.00118178,0.0014259,0.00171145,0.00204548,0.00243621,0.00289326,0.0034279,0.00405329,0.00478485,0.00564058,0.00664158,0.00781249,0.00918217,0.0107844,0.0126585,0.0148508,0.0174152,0.020415,0.0239239,0.0280285,0.0328299,inf	45.97,45.97,58.5486,171.626,292.793,335.46,318.747,280.448,255.417,267.08,300.196,338.979,375.265,409.222,440.111,463.716,479.923,495.737,509.53,513.137,511.026,502.454,474.354,420.805,355.601,302.196,277.607,297.942,297.942,374.229,374.229,374.229
0.000836563	-313053.12	0,4.35083e-05,9.44021e-05,0.000153935,0.000223574,0.000305034,0.000400322,0.000511785,0.000642168,0.000794685,0.000973091,0.00118178,0.0014259,0.00171145,0.00204548,0.00243621,0.00289326,0.0034279,0.00405329,0.00478485,0.00564058,0.00664158,0.00781249,0.00918217,0.0107844,0.0126585,0.0148508,0.0174152,0.020415,0.0239239,0.0280285,0.0328299,inf	47.192,47.192,54.024,170.069,296.927,341.642,323.245,280.628,253.11,265.142,299.507,339.199,375.686,409.46,440.012,463.155,479.123,495.587,510.685,515.479,514.611,506.804,477.255,419.747,350.322,294.597,269.753,291.934,291.934,371.338,371.338,371.338
0.000852901	-313047.24	0,4.35083e-05,9.44021e-05,0.000153935,0.000223574,0.000305034,0.000400322,0.000511785,0.000642168,0.000794685,0.000973091,0.00118178,0.0014259,0.00171145,0.00204548,0.00243621,0.00289326,0.0034279,0.00405329,0.00478485,0.00564058,0.00664158,0.00781249,0.00918217,0.0107844,0.0126585,0.0148508,0.0174152,0.020415,0.0239239,0.0280285,0.0328299,inf	48.4156,48.4156,50.0934,168.827,300.35,346.898,327.216,280.695,251.076,263.624,299.234,339.763,376.35,409.816,439.89,462.432,478.045,495.025,511.286,517.201,517.582,510.625,479.849,418.779,345.64,287.989,263.027,286.858,286.858,368.546,368.546,368.546
0.000868541	-313041.84	0,4.35083e-05,9.44021e-05,0.000153935,0.000223574,0.000305034,0.000400322,0.000511785,0.000642168,0.000794685,0.000973091,0.00118178,0.0014259,0.00171145,0.00204548,0.00243621,0.00289326,0.0034279,0.00405329,0.00478485,0.00564058,0.00664158,0.00781249,0.00918217,0.0107844,0.0126585,0.0148508,0.0174152,0.020415,0.0239239,0.0280285,0.0328299,inf	49.568,49.568,46.6602,167.929,303.229,351.38,330.718,280.635,249.235,262.413,299.263,340.572,377.189,410.264,439.763,461.616,476.798,494.19,511.495,518.466,520.086,514.037,482.22,417.94,341.513,282.244,257.261,282.578,282.578,365.871,365.871,365.871
0.000883531	-313036.87	0,4.35083e-05,9.44021e-05,0.000153935,0.000223574,0.000305034,0.000400322,0.000511785,0.000642168,0.000794685,0.000973091,0.00118178,0.0014259,0.00171145,0.00204548,0.00243621,0.00289326,0.0034279,0.00405329,0.00478485,0.00564058,0.00664158,0.00781249,0.00918217,0.0107844,0.0126585,0.0148508,0.0174152,0.020415,0.0239239,0.0280285,0.0328299,inf	50.6089,50.6089,43.648,167.389,305.696,355.225,333.814,280.449,247.536,261.43,299.51,341.555,378.151,410.778,439.639,460.747,475.452,493.179,511.426,519.389,522.225,517.122,484.422,417.238,337.885,277.245,252.308,278.976,278.976,363.326,363.326,363.326
0.00089791	-313032.28	0,4.35083e-05,9.44021e-05,0.000153935,0.000223574,0.000305034,0.000400322,0.000511785,0.000642168,0.000794685,0.000973091,0.00118178,0.0014259,0.00171145,0.00204548,0.00243621,0.00289326,0.0034279,0.00405329,0.00478485,0.00564058,0.00664158,0.00781249,0.00918217,0.0107844,0.0126585,0.0148508,0.0174152,0.020415,0.0239239,0.0280285,0.0328299,inf	51.529,51.529,40.9936,167.198,307.847,358.543,336.565,280.148,245.945,260.62,299.916,342.659,379.195,411.337,439.52,459.851,474.053,492.056,511.157,520.052,524.073,519.938,486.488,416.669,334.7,272.888,248.044,275.95,275.95,360.914,360.914,360.914
0.000911712	-313028.03	0,4.35083e-05,9.44021e-05,0.000153935,0.000223574,0.000305034,0.000400322,0.000511785,0.000642168,0.000794685,0.000973091,0.00118178,0.0014259,0.00171145,0.00204548,0.00243621,0.00289326,0.0034279,0.00405329,0.00478485,0.00564058,0.00664158,0.00781249,0.00918217,0.0107844,0.0126585,0.0148508,0.0174152,0.020415,0.0239239,0.0280285,0.0328299,inf	52.3294,52.3294,38.6443,167.339,309.751,361.428,339.02,279.744,244.439,259.944,300.439,343.845,380.293,411.925,439.407,458.946,472.632,490.865,510.744,520.515,525.686,522.525,488.438,416.223,331.904,269.08,244.366,273.413,273.413,358.635,358.635,358.635
0.00092497	-313024.09	0,4.35083e-05,9.44021e-05,0.000153935,0.000223574,0.000305034,0.000400322,0.000511785,0.000642168,0.000794685,0.000973091,0.00118178,0.0014259,0.00171145,0.00204548,0.00243621,0.00289326,0.0034279,0.00405329,0.00478485,0.00564058,0.00664158,0.00781249,0.00918217,0.0107844,0.0126585,0.0148508,0.0174152,0.020415,0.0239239,0.0280285,0.0328299,inf	53.0169,53.0169,36.5547,167.786,311.456,363.953,341.224,279.251,243.003,259.372,301.047,345.085,381.422,412.529,439.298,458.042,471.211,489.639,510.229,520.821,527.104,524.916,490.286,415.884,329.444,265.745,241.185,271.295,271.295,356.485,356.485,356.485
0.000937709	-313020.43	0,4.35083e-05,9.44021e-05,0.000153935,0.000223574,0.000305034,0.000400322,0.000511785,0.000642168,0.000794685,0.000973091,0.00118178,0.0014259,0.00171145,0.00204548,0.00243621,0.00289326,0.0034279,0.00405329,0.00478485,0.00564058,0.00664158,0.00781249,0.00918217,0.0107844,0.0126585,0.0148508,0.0174152,0.020415,0.0239239,0.0280285,0.0328299,inf	53.6029,53.6029,34.6864,168.508,312.994,366.178,343.215,278.68,241.625,258.882,301.716,346.357,382.566,413.139,439.191,457.147,469.803,488.399,509.641,521.004,528.358,527.133,492.04,415.636,327.275,262.813,238.428,269.534,269.534,354.46,354.46,354.46
0.000949957	-313017.02	0,4.35083e-05,9.44021e-05,0.000153935,0.000223574,0.000305034,0.000400322,0.000511785,0.000642168,0.000794685,0.000973091,0.00118178,0.0014259,0.00171145,0.00204548,0.00243621,0.00289326,0.0034279,0.00405329,0.00478485,0.00564058,0.00664158,0.00781249,0.00918217,0.0107844,0.0126585,0.0148508,0.0174152,0.020415,0.0239239,0.0280285,0.0328299,inf	54.098,54.098,33.0073,169.477,314.389,368.151,345.025,278.046,240.297,258.459,302.428,347.647,383.713,413.748,439.086,456.264,468.419,487.16,509.004,521.09,529.473,529.194,493.704,415.463,325.357,260.228,236.032,268.078,268.078,352.554,352.554,352.554
0.000961736	-313013.84	0,4.35083e-05,9.44021e-05,0.000153935,0.000223574,0.000305034,0.000400322,0.000511785,0.000642168,0.000794685,0.000973091,0.00118178,0.0014259,0.00171145,0.00204548,0.00243621,0.00289326,0.0034279,0.00405329,0.00478485,0.00564058,0.00664158,0.00781249,0.00918217,0.0107844,0.0126585,0.0148508,0.0174152,0.020415,0.0239239,0.0280285,0.0328299,inf	54.5142,54.5142,31.4894,170.663,315.654,369.914,346.681,277.358,239.013,258.09,303.171,348.941,384.854,414.35,438.982,455.398,467.065,485.936,508.335,521.099,530.468,531.116,495.283,415.351,323.656,257.941,233.947,266.884,266.884,350.761,350.761,350.761
0.000973069	-313010.87	0,4.35083e-05,9.44021e-05,0.000153935,0.000223574,0.000305034,0.000400322,0.000511785,0.000642168,0.000794685,0.000973091,0.00118178,0.0014259,0.00171145,0.00204548,0.00243621,0.00289326,0.0034279,0.00405329,0.00478485,0.00564058,0.00664158,0.00781249,0.00918217,0.0107844,0.0126585,0.0148508,0.0174152,0.020415,0.0239239,0.0280285,0.0328299,inf	54.863,54.863,30.1114,172.038,316.801,371.497,348.206,276.625,237.77,257.765,303.935,350.233,385.982,414.943,438.878,454.551,465.746,484.733,507.645,521.046,531.36,532.91,496.781,415.288,322.141,255.912,232.129,265.914,265.914,349.073,349.073,349.073
0.000983976	-313008.09	0,4.35083e-05,9.44021e-05,0.000153935,0.000223574,0.000305034,0.000400322,0.000511785,0.000642168,0.000794685,0.000973091,0.00118178,0.0014259,0.00171145,0.00204548,0.00243621,0.00289326,0.0034279,0.00405329,0.00478485,0.00564058,0.00664158,0.00781249,0.00918217,0.0107844,0.0126585,0.0148508,0.0174152,0.020415,0.0239239,0.0280285,0.0328299,inf	55.1495,55.1495,28.8527,173.577,317.838,372.927,349.619,275.856,236.564,257.477,304.711,351.515,387.093,415.521,438.773,453.723,464.464,483.557,506.947,520.944,532.162,534.587,498.2,415.262,320.786,254.106,230.54,265.137,265.137,347.484,347.484,347.484
