time_index	left_time_boundary	right_time_boundary	lambda
0	0	1.84832e-07	121533
1	1.84832e-07	4.28302e-07	121533
2	4.28302e-07	7.49013e-07	3.81439
3	7.49013e-07	1.17147e-06	3.81428
4	1.17147e-06	1.72795e-06	3.81435
5	1.72795e-06	2.46097e-06	194.107
6	2.46097e-06	3.42654e-06	2913.87
7	3.42654e-06	4.69844e-06	3.81446
8	4.69844e-06	6.37384e-06	3.81426
9	6.37384e-06	8.58076e-06	566.133
10	8.58076e-06	1.14878e-05	10176.9
11	1.14878e-05	1.53172e-05	3089
12	1.53172e-05	2.03613e-05	2927.31
13	2.03613e-05	2.70058e-05	2092.37
14	2.70058e-05	3.57582e-05	3011.09
15	3.57582e-05	4.72872e-05	4356.84
16	4.72872e-05	6.24739e-05	3586.71
17	6.24739e-05	8.24784e-05	2317.61
18	8.24784e-05	0.000108829	3152.52
19	0.000108829	0.00014354	3574.49
20	0.00014354	0.000189263	3221.4
21	0.000189263	0.000249491	3719.48
22	0.000249491	0.000328827	3762.22
23	0.000328827	0.000433332	3370.65
24	0.000433332	0.00057099	4013.48
25	0.00057099	0.000752321	8989.55
26	0.000752321	0.000991179	2064.37
27	0.000991179	0.00130581	1985.72
28	0.00130581	0.00172027	1985.72
29	0.00172027	0.0022662	616.767
30	0.0022662	0.00298534	616.767
31	0.00298534	inf	616.767
