5.65065e-05	-1952140.38	0,4.28302e-07,1.17147e-06,2.46097e-06,4.69844e-06,8.58076e-06,1.53172e-05,2.70058e-05,4.72872e-05,8.24784e-05,0.00014354,0.000249491,0.000433332,0.000752321,0.00130581,0.0022662,inf	8579.27,8579.27,1250.1,1449.53,3027.74,3040.86,2997.85,3300.58,3320.25,3388.19,3462.41,3635.88,3769.56,2574.15,2574.15,2574.15
4.96806e-05	-1951993.28	0,4.28302e-07,1.17147e-06,2.46097e-06,4.69844e-06,8.58076e-06,1.53172e-05,2.70058e-05,4.72872e-05,8.24784e-05,0.00014354,0.000249491,0.000433332,0.000752321,0.00130581,0.0022662,inf	10213,10213,881.828,880.425,3014.73,3055.59,2760.47,3241.49,3185.48,3263.76,3315.38,3588.54,3933.65,2018.18,2018.18,2018.18
4.3912e-05	-1951877.02	0,4.28302e-07,1.17147e-06,2.46097e-06,4.69844e-06,8.58076e-06,1.53172e-05,2.70058e-05,4.72872e-05,8.24784e-05,0.00014354,0.000249491,0.000433332,0.000752321,0.00130581,0.0022662,inf	11381.1,11381.1,878.592,704.338,3048.4,3267.6,2662.29,3293.04,3135.69,3220.27,3207.58,3544.9,4195.41,1656.07,1656.07,1656.07
3.89406e-05	-1951761.25	0,4.28302e-07,1.17147e-06,2.46097e-06,4.69844e-06,8.58076e-06,1.53172e-05,2.70058e-05,4.72872e-05,8.24784e-05,0.00014354,0.000249491,0.000433332,0.000752321,0.00130581,0.0022662,inf	12432.5,12432.5,963.552,649.642,2993.24,3548.41,2605.05,3371.37,3104.09,3204.72,3105.58,3477.35,4515.86,1363.82,1363.82,1363.82
3.46807e-05	-1951686.32	0,4.28302e-07,1.17147e-06,2.46097e-06,4.69844e-06,8.58076e-06,1.53172e-05,2.70058e-05,4.72872e-05,8.24784e-05,0.00014354,0.000249491,0.000433332,0.000752321,0.00130581,0.0022662,inf	13437.9,13437.9,1049.6,643.986,2842.06,3864.49,2565.26,3455.47,3074.31,3202.4,3005.31,3388.17,4889.17,1100.85,1100.85,1100.85
3.10674e-05	-1951674.50	0,4.28302e-07,1.17147e-06,2.46097e-06,4.69844e-06,8.58076e-06,1.53172e-05,2.70058e-05,4.72872e-05,8.24784e-05,0.00014354,0.000249491,0.000433332,0.000752321,0.00130581,0.0022662,inf	14401.5,14401.5,1100.39,665.87,2614.61,4199.89,2535.74,3539.64,3043.43,3207.58,2907.74,3285.44,5326.84,858.799,858.799,858.799
2.80459e-05	-1951731.15	0,4.28302e-07,1.17147e-06,2.46097e-06,4.69844e-06,8.58076e-06,1.53172e-05,2.70058e-05,4.72872e-05,8.24784e-05,0.00014354,0.000249491,0.000433332,0.000752321,0.00130581,0.0022662,inf	15307.2,15307.2,1103.56,708.857,2335.29,4541.39,2513.29,3621.91,3012.58,3217.71,2814.8,3176,5845.51,654.979,654.979,654.979
2.56034e-05	-1951833.70	0,4.28302e-07,1.17147e-06,2.46097e-06,4.69844e-06,8.58076e-06,1.53172e-05,2.70058e-05,4.72872e-05,8.24784e-05,0.00014354,0.000249491,0.000433332,0.000752321,0.00130581,0.0022662,inf	16144.1,16144.1,1057.67,768.979,2028.84,4876.76,2496.32,3701.38,2984.24,3232.26,2729.22,3064.59,6433.73,524.866,524.866,524.866
2.37506e-05	-1951919.04	0,4.28302e-07,1.17147e-06,2.46097e-06,4.69844e-06,8.58076e-06,1.53172e-05,2.70058e-05,4.72872e-05,8.24784e-05,0.00014354,0.000249491,0.000433332,0.000752321,0.00130581,0.0022662,inf	16881.4,16881.4,970.18,842.555,1718.06,5192.68,2482.74,3776.54,2959.88,3250.86,2653.96,2955.57,6991.38,472.762,472.762,472.762
2.24378e-05	-1951953.75	0,4.28302e-07,1.17147e-06,2.46097e-06,4.69844e-06,8.58076e-06,1.53172e-05,2.70058e-05,4.72872e-05,8.24784e-05,0.00014354,0.000249491,0.000433332,0.000752321,0.00130581,0.0022662,inf	17484.6,17484.6,852.803,923.531,1423.4,5474.05,2468.69,3844.16,2938.94,3271.71,2591.93,2858.15,7391.5,456.497,456.497,456.497
2.15404e-05	-1951972.78	0,4.28302e-07,1.17147e-06,2.46097e-06,4.69844e-06,8.58076e-06,1.53172e-05,2.70058e-05,4.72872e-05,8.24784e-05,0.00014354,0.000249491,0.000433332,0.000752321,0.00130581,0.0022662,inf	17944.8,17944.8,720.214,1005.45,1160.36,5712.44,2451.66,3902.31,2920.59,3292.7,2544.73,2783.31,7632.02,450.028,450.028,450.028
2.09345e-05	-1951990.20	0,4.28302e-07,1.17147e-06,2.46097e-06,4.69844e-06,8.58076e-06,1.53172e-05,2.70058e-05,4.72872e-05,8.24784e-05,0.00014354,0.000249491,0.000433332,0.000752321,0.00130581,0.0022662,inf	18272.2,18272.2,586.629,1081.74,935.701,5907.77,2431.47,3950.91,2904.17,3311.62,2510.41,2732.5,7770.58,447.412,447.412,447.412
2.05287e-05	-1952003.60	0,4.28302e-07,1.17147e-06,2.46097e-06,4.69844e-06,8.58076e-06,1.53172e-05,2.70058e-05,4.72872e-05,8.24784e-05,0.00014354,0.000249491,0.000433332,0.000752321,0.00130581,0.0022662,inf	18519.5,18519.5,464.108,1150.64,750.032,6070.48,2411.24,3993.52,2890.79,3327.9,2485.82,2700.26,7850.71,446.635,446.635,446.635
2.02572e-05	-1952012.73	0,4.28302e-07,1.17147e-06,2.46097e-06,4.69844e-06,8.58076e-06,1.53172e-05,2.70058e-05,4.72872e-05,8.24784e-05,0.00014354,0.000249491,0.000433332,0.000752321,0.00130581,0.0022662,inf	18670.6,18670.6,357.54,1208.02,598.054,6195.38,2387.86,4025.86,2877.84,3340.4,2467.88,2680.96,7896.04,446.44,446.44,446.44
2.00762e-05	-1952018.94	0,4.28302e-07,1.17147e-06,2.46097e-06,4.69844e-06,8.58076e-06,1.53172e-05,2.70058e-05,4.72872e-05,8.24784e-05,0.00014354,0.000249491,0.000433332,0.000752321,0.00130581,0.0022662,inf	18773.5,18773.5,269.491,1254.4,475.665,6294.6,2364.64,4051.78,2866.5,3350.17,2454.92,2669.94,7921.91,446.56,446.56,446.56
1.99558e-05	-1952022.91	0,4.28302e-07,1.17147e-06,2.46097e-06,4.69844e-06,8.58076e-06,1.53172e-05,2.70058e-05,4.72872e-05,8.24784e-05,0.00014354,0.000249491,0.000433332,0.000752321,0.00130581,0.0022662,inf	18844.6,18844.6,200.208,1291.54,377.766,6374.29,2342.65,4073.01,2856.88,3357.72,2445.54,2663.91,7936.59,446.785,446.785,446.785
1.98759e-05	-1952025.41	0,4.28302e-07,1.17147e-06,2.46097e-06,4.69844e-06,8.58076e-06,1.53172e-05,2.70058e-05,4.72872e-05,8.24784e-05,0.00014354,0.000249491,0.000433332,0.000752321,0.00130581,0.0022662,inf	18890.1,18890.1,146.771,1320.89,299.876,6438.69,2322.35,4090.5,2848.84,3363.57,2438.77,2660.8,7944.83,447.019,447.019,447.019
1.98253e-05	-1952026.95	0,4.28302e-07,1.17147e-06,2.46097e-06,4.69844e-06,8.58076e-06,1.53172e-05,2.70058e-05,4.72872e-05,8.24784e-05,0.00014354,0.000249491,0.000433332,0.000752321,0.00130581,0.0022662,inf	18927.4,18927.4,106.569,1343.41,237.929,6494.69,2304.44,4107.63,2843.6,3370.55,2435.48,2660.34,7952.31,447.553,447.553,447.553
1.9791e-05	-1952027.16	0,4.28302e-07,1.17147e-06,2.46097e-06,4.69844e-06,8.58076e-06,1.53172e-05,2.70058e-05,4.72872e-05,8.24784e-05,0.00014354,0.000249491,0.000433332,0.000752321,0.00130581,0.0022662,inf	18944.4,18944.4,76.7329,1359.97,188.701,6537.23,2287.33,4119.5,2837.6,3373.56,2431.76,2659.51,7954.2,447.564,447.564,447.564
1.97678e-05	-1952027.99	0,4.28302e-07,1.17147e-06,2.46097e-06,4.69844e-06,8.58076e-06,1.53172e-05,2.70058e-05,4.72872e-05,8.24784e-05,0.00014354,0.000249491,0.000433332,0.000752321,0.00130581,0.0022662,inf	18955.3,18955.3,55.0342,1372.26,149.591,6571.71,2272.29,4128.98,2832.58,3375.61,2428.98,2659.09,7954.89,447.615,447.615,447.615
