LogLikelihood = -5683.5191975812476812

y0 0.018266217994468307573
y0_prime 0
y1 1.7223765584113259752
y1_prime 0
y2 0.66495726549554035056
y2_prime 0
y3 2.9964020603181924507
y3_prime 0
rho 2.0646908208366817537e-05
theta 5.3534663997394041238e-05
