time_index	left_time_boundary	right_time_boundary	lambda
0	0	4.31251e-05	93.8644
1	4.31251e-05	9.35707e-05	93.8644
2	9.35707e-05	0.000152579	597.557
3	0.000152579	0.000221605	99.3167
4	0.000221605	0.000302347	309.979
5	0.000302347	0.000396796	294.916
6	0.000396796	0.000507277	775.928
7	0.000507277	0.000636512	254.219
8	0.000636512	0.000787685	318.117
9	0.000787685	0.00096452	421.056
10	0.00096452	0.00117137	412.795
11	0.00117137	0.00141334	467.522
12	0.00141334	0.00169638	423.021
13	0.00169638	0.00202746	399.402
14	0.00202746	0.00241475	389.526
15	0.00241475	0.00286778	388.428
16	0.00286778	0.00339771	415.611
17	0.00339771	0.00401759	497.513
18	0.00401759	0.0047427	468.946
19	0.0047427	0.0055909	363.173
20	0.0055909	0.00658308	325.072
21	0.00658308	0.00774368	342.066
22	0.00774368	0.0091013	316.541
23	0.0091013	0.0106894	306.162
24	0.0106894	0.012547	249.158
25	0.012547	0.01472	279.211
26	0.01472	0.0172618	1802.38
27	0.0172618	0.0202352	2.93731
28	0.0202352	0.0237132	2.93731
29	0.0237132	0.0277816	141.066
30	0.0277816	0.0325407	141.066
31	0.0325407	inf	141.066
