time_index	left_time_boundary	right_time_boundary	lambda
0	0	4.16773e-06	757.217
1	4.16773e-06	1.13993e-05	757.217
2	1.13993e-05	2.39472e-05	72.155
3	2.39472e-05	4.57196e-05	1133.34
4	4.57196e-05	8.34979e-05	719.527
5	8.34979e-05	0.000149049	606.438
6	0.000149049	0.000262788	405.437
7	0.000262788	0.000460144	499.357
8	0.000460144	0.000802583	392.747
9	0.000802583	0.00139676	395.507
10	0.00139676	0.00242776	386.524
11	0.00242776	0.00421667	485.792
12	0.00421667	0.0073207	604.681
13	0.0073207	0.0127066	1255.15
14	0.0127066	0.022052	1255.15
15	0.022052	inf	1255.15
