LogLikelihood = -868239.12603518669493

y0 0.84192929637066626913
y0_prime 0
y1 1.0926473067357651558
y1_prime 0
y2 0.83432649339992015491
y2_prime 0
y3 2.0866371653809148157
y3_prime 0
rho 0.0017128145535781718039
rho.alpha 0.58936193050136587157
r_ii 0.99991004616349377088
theta 0.0025616947451435946072
