time_index	left_time_boundary	right_time_boundary	lambda
0	0	1.5558e-05	1.09108
1	1.5558e-05	3.3757e-05	1.09108
2	3.3757e-05	5.50452e-05	2.93075
3	5.50452e-05	7.99471e-05	141.35
4	7.99471e-05	0.000109076	279.46
5	0.000109076	0.00014315	285.421
6	0.00014315	0.000183007	260.475
7	0.000183007	0.000229631	251.732
8	0.000229631	0.000284169	288.349
9	0.000284169	0.000347964	389.235
10	0.000347964	0.000422589	546.932
11	0.000422589	0.000509882	732.167
12	0.000509882	0.000611992	947.457
13	0.000611992	0.000731436	1219.27
14	0.000731436	0.000871155	1568.7
15	0.000871155	0.00103459	2011.22
16	0.00103459	0.00122577	2578.38
17	0.00122577	0.0014494	3249.64
18	0.0014494	0.001711	3810.9
19	0.001711	0.002017	3845.55
20	0.002017	0.00237494	3334.38
21	0.00237494	0.00279365	2713.76
22	0.00279365	0.00328342	2151.09
23	0.00328342	0.00385634	1686.21
24	0.00385634	0.00452652	1334.11
25	0.00452652	0.00531045	1081.61
26	0.00531045	0.00622746	893.222
27	0.00622746	0.00730012	926.721
28	0.00730012	0.00855488	926.721
29	0.00855488	0.0100226	81.3672
30	0.0100226	0.0117395	81.3672
31	0.0117395	inf	81.3672
