0.000282869	-7482097.74	0,8.77375e-07,2.0331e-06,3.55547e-06,5.56081e-06,8.20235e-06,1.16819e-05,1.62654e-05,2.23029e-05,3.02558e-05,4.07318e-05,5.45313e-05,7.27087e-05,9.66528e-05,0.000128193,0.00016974,0.000224467,0.000296556,0.000391515,0.0005166,0.000681368,0.000898408,0.0011843,0.0015609,0.00205697,0.00271042,0.00357117,0.004705,0.00619854,0.00816589,0.0107574,0.014171,inf	37.7126,37.7126,145.157,435.2,780.331,718.872,616.909,595.869,600.451,637.412,717.173,774.44,796.655,772.596,770.474,775.481,788.566,804.857,817.963,835.52,849.522,852.67,841.497,825.036,808.385,797.99,789.304,768.816,768.816,669.721,669.721,669.721
0.000257961	-7480738.42	0,8.77375e-07,2.0331e-06,3.55547e-06,5.56081e-06,8.20235e-06,1.16819e-05,1.62654e-05,2.23029e-05,3.02558e-05,4.07318e-05,5.45313e-05,7.27087e-05,9.66528e-05,0.000128193,0.00016974,0.000224467,0.000296556,0.000391515,0.0005166,0.000681368,0.000898408,0.0011843,0.0015609,0.00205697,0.00271042,0.00357117,0.004705,0.00619854,0.00816589,0.0107574,0.014171,inf	1.89799,1.89799,29.2996,272.384,903.609,790.715,587.475,539.917,526.946,563.4,689.617,782.993,822.188,765.884,753.708,755.944,772.52,797.397,815.869,846.404,874.423,884.586,866.398,838.025,810.142,795.153,780.464,743.509,743.509,588.033,588.033,588.033
0.000236532	-7479683.02	0,8.77375e-07,2.0331e-06,3.55547e-06,5.56081e-06,8.20235e-06,1.16819e-05,1.62654e-05,2.23029e-05,3.02558e-05,4.07318e-05,5.45313e-05,7.27087e-05,9.66528e-05,0.000128193,0.00016974,0.000224467,0.000296556,0.000391515,0.0005166,0.000681368,0.000898408,0.0011843,0.0015609,0.00205697,0.00271042,0.00357117,0.004705,0.00619854,0.00816589,0.0107574,0.014171,inf	0.803534,0.803534,5.67413,162.799,1025.29,894.266,596.433,530.523,497.939,521.414,681.806,803.065,862.241,772.167,748.122,745.711,761.256,790.858,808.933,847.636,887.602,906.207,883.182,845.799,810.68,795.633,776.291,725.151,725.151,533.703,533.703,533.703
0.000218381	-7478864.00	0,8.77375e-07,2.0331e-06,3.55547e-06,5.56081e-06,8.20235e-06,1.16819e-05,1.62654e-05,2.23029e-05,3.02558e-05,4.07318e-05,5.45313e-05,7.27087e-05,9.66528e-05,0.000128193,0.00016974,0.000224467,0.000296556,0.000391515,0.0005166,0.000681368,0.000898408,0.0011843,0.0015609,0.00205697,0.00271042,0.00357117,0.004705,0.00619854,0.00816589,0.0107574,0.014171,inf	0.803534,0.803534,1.03307,90.4255,1103.88,995.649,613.772,537.972,487.053,491.273,678.155,821.623,905.515,783.083,747.623,741.28,753.98,787.121,801.144,844.233,893.755,921.211,894.446,849.882,810.444,798.988,775.419,711.351,711.351,495.207,495.207,495.207
0.000203207	-7478241.66	0,8.77375e-07,2.0331e-06,3.55547e-06,5.56081e-06,8.20235e-06,1.16819e-05,1.62654e-05,2.23029e-05,3.02558e-05,4.07318e-05,5.45313e-05,7.27087e-05,9.66528e-05,0.000128193,0.00016974,0.000224467,0.000296556,0.000391515,0.0005166,0.000681368,0.000898408,0.0011843,0.0015609,0.00205697,0.00271042,0.00357117,0.004705,0.00619854,0.00816589,0.0107574,0.014171,inf	0.80353,0.80353,0.803533,47.2958,1138.67,1089.25,632.465,553.496,486.052,467.307,674.927,835.35,948.014,795.496,749.464,740.638,749.752,786.605,794.311,838.944,895.759,931.992,901.924,851.266,809.536,804.611,776.601,700.359,700.359,466.571,466.571,466.571
0.000190657	-7477781.82	0,8.77375e-07,2.0331e-06,3.55547e-06,5.56081e-06,8.20235e-06,1.16819e-05,1.62654e-05,2.23029e-05,3.02558e-05,4.07318e-05,5.45313e-05,7.27087e-05,9.66528e-05,0.000128193,0.00016974,0.000224467,0.000296556,0.000391515,0.0005166,0.000681368,0.000898408,0.0011843,0.0015609,0.00205697,0.00271042,0.00357117,0.004705,0.00619854,0.00816589,0.0107574,0.014171,inf	0.80353,0.80353,0.803533,23.6529,1139.27,1175.62,649.959,573.133,491.284,447.249,671.278,843.649,987.898,807.772,751.933,742.16,747.379,788.815,788.92,833.08,895.265,940.047,906.786,850.66,807.954,811.92,778.833,691.036,691.036,444.497,444.497,444.497
0.000180374	-7477452.14	0,8.77375e-07,2.0331e-06,3.55547e-06,5.56081e-06,8.20235e-06,1.16819e-05,1.62654e-05,2.23029e-05,3.02558e-05,4.07318e-05,5.45313e-05,7.27087e-05,9.66528e-05,0.000128193,0.00016974,0.000224467,0.000296556,0.000391515,0.0005166,0.000681368,0.000898408,0.0011843,0.0015609,0.00205697,0.00271042,0.00357117,0.004705,0.00619854,0.00816589,0.0107574,0.014171,inf	0.80353,0.80353,0.803533,11.4626,1115.79,1255.82,664.898,594.524,500.621,430.079,667.34,847.09,1024.49,819.182,754.104,744.742,745.88,793.044,784.935,827.263,893.26,946.357,909.871,848.646,805.716,820.439,781.39,682.749,682.749,427.104,427.104,427.104
0.000172015	-7477222.97	0,8.77375e-07,2.0331e-06,3.55547e-06,5.56081e-06,8.20235e-06,1.16819e-05,1.62654e-05,2.23029e-05,3.02558e-05,4.07318e-05,5.45313e-05,7.27087e-05,9.66528e-05,0.000128193,0.00016974,0.000224467,0.000296556,0.000391515,0.0005166,0.000681368,0.000898408,0.0011843,0.0015609,0.00205697,0.00271042,0.00357117,0.004705,0.00619854,0.00816589,0.0107574,0.014171,inf	0.80353,0.80353,0.803533,5.41594,1076.55,1330.97,676.459,616.007,512.691,415.148,663.48,846.562,1057.7,829.453,755.557,747.71,744.573,798.643,782.145,821.78,890.36,951.57,911.799,845.712,802.878,829.806,783.784,675.211,675.211,413.265,413.265,413.265
0.000165266	-7477068.58	0,8.77375e-07,2.0331e-06,3.55547e-06,5.56081e-06,8.20235e-06,1.16819e-05,1.62654e-05,2.23029e-05,3.02558e-05,4.07318e-05,5.45313e-05,7.27087e-05,9.66528e-05,0.000128193,0.00016974,0.000224467,0.000296556,0.000391515,0.0005166,0.000681368,0.000898408,0.0011843,0.0015609,0.00205697,0.00271042,0.00357117,0.004705,0.00619854,0.00816589,0.0107574,0.014171,inf	0.80353,0.80353,0.803533,2.5169,1027.7,1401.97,684.189,636.449,526.446,401.96,659.991,842.977,1087.68,838.56,756.178,750.704,743.043,805.076,780.303,816.747,886.949,956.11,913.011,842.259,799.523,839.745,785.709,668.333,668.333,402.245,402.245,402.245
0.000159847	-7476967.95	0,8.77375e-07,2.0331e-06,3.55547e-06,5.56081e-06,8.20235e-06,1.16819e-05,1.62654e-05,2.23029e-05,3.02558e-05,4.07318e-05,5.45313e-05,7.27087e-05,9.66528e-05,0.000128193,0.00016974,0.000224467,0.000296556,0.000391515,0.0005166,0.000681368,0.000898408,0.0011843,0.0015609,0.00205697,0.00271042,0.00357117,0.004705,0.00619854,0.00816589,0.0107574,0.014171,inf	0.803529,0.803529,0.803533,1.15776,973.556,1468.91,687.987,655.056,541.161,390.157,657.072,837.086,1114.71,846.56,755.999,753.556,741.063,811.949,779.179,812.199,883.269,960.243,913.815,838.593,795.741,850.05,786.993,662.112,662.112,393.508,393.508,393.508
0.000155518	-7476904.73	0,8.77375e-07,2.0331e-06,3.55547e-06,5.56081e-06,8.20235e-06,1.16819e-05,1.62654e-05,2.23029e-05,3.02558e-05,4.07318e-05,5.45313e-05,7.27087e-05,9.66528e-05,0.000128193,0.00016974,0.000224467,0.000296556,0.000391515,0.0005166,0.000681368,0.000898408,0.0011843,0.0015609,0.00205697,0.00271042,0.00357117,0.004705,0.00619854,0.00816589,0.0107574,0.014171,inf	0.803529,0.803529,0.803533,0.80353,917.253,1532.75,687.972,671.354,556.291,379.466,654.844,829.507,1139.05,853.553,755.14,756.219,738.551,818.981,778.579,808.126,879.475,964.127,914.408,834.942,791.614,860.567,787.554,656.567,656.567,386.631,386.631,386.631
0.000152072	-7476866.81	0,8.77375e-07,2.0331e-06,3.55547e-06,5.56081e-06,8.20235e-06,1.16819e-05,1.62654e-05,2.23029e-05,3.02558e-05,4.07318e-05,5.45313e-05,7.27087e-05,9.66528e-05,0.000128193,0.00016974,0.000224467,0.000296556,0.000391515,0.0005166,0.000681368,0.000898408,0.0011843,0.0015609,0.00205697,0.00271042,0.00357117,0.004705,0.00619854,0.00816589,0.0107574,0.014171,inf	0.803529,0.803529,0.803533,0.80353,860.722,1593.8,684.499,685.171,571.454,369.684,653.368,820.715,1160.99,859.647,753.726,758.71,735.505,825.98,778.355,804.504,875.663,967.849,914.913,831.458,787.215,871.182,787.371,651.705,651.705,381.259,381.259,381.259
0.000149338	-7476845.54	0,8.77375e-07,2.0331e-06,3.55547e-06,5.56081e-06,8.20235e-06,1.16819e-05,1.62654e-05,2.23029e-05,3.02558e-05,4.07318e-05,5.45313e-05,7.27087e-05,9.66528e-05,0.000128193,0.00016974,0.000224467,0.000296556,0.000391515,0.0005166,0.000681368,0.000898408,0.0011843,0.0015609,0.00205697,0.00271042,0.00357117,0.004705,0.00619854,0.00816589,0.0107574,0.014171,inf	0.803529,0.803529,0.803533,0.80353,805.293,1652.18,677.995,696.506,586.416,360.627,652.654,811.065,1180.78,864.929,751.892,761.078,731.971,832.821,778.388,801.304,871.889,971.451,915.396,828.24,782.603,881.813,786.468,647.517,647.517,377.096,377.096,377.096
0.000147174	-7476834.95	0,8.77375e-07,2.0331e-06,3.55547e-06,5.56081e-06,8.20235e-06,1.16819e-05,1.62654e-05,2.23029e-05,3.02558e-05,4.07318e-05,5.45313e-05,7.27087e-05,9.66528e-05,0.000128193,0.00016974,0.000224467,0.000296556,0.000391515,0.0005166,0.000681368,0.000898408,0.0011843,0.0015609,0.00205697,0.00271042,0.00357117,0.004705,0.00619854,0.00816589,0.0107574,0.014171,inf	0.803529,0.803529,0.803533,0.80353,751.746,1708.32,669.023,705.478,600.993,352.185,652.705,800.85,1198.66,869.498,749.746,763.377,728.015,839.437,778.594,798.488,868.191,974.949,915.888,825.343,777.825,892.404,784.891,643.969,643.969,373.888,373.888,373.888
0.000145466	-7476831.03	0,8.77375e-07,2.0331e-06,3.55547e-06,5.56081e-06,8.20235e-06,1.16819e-05,1.62654e-05,2.23029e-05,3.02558e-05,4.07318e-05,5.45313e-05,7.27087e-05,9.66528e-05,0.000128193,0.00016974,0.000224467,0.000296556,0.000391515,0.0005166,0.000681368,0.000898408,0.0011843,0.0015609,0.00205697,0.00271042,0.00357117,0.004705,0.00619854,0.00816589,0.0107574,0.014171,inf	0.803529,0.803529,0.803533,0.80353,700.346,1762.38,658.003,712.326,615.157,344.263,653.475,790.282,1214.85,873.435,747.387,765.662,723.714,845.786,778.908,796.027,864.587,978.346,916.398,822.797,772.917,902.915,782.705,641.017,641.017,371.429,371.429,371.429
0.000144126	-7476831.18	0,8.77375e-07,2.0331e-06,3.55547e-06,5.56081e-06,8.20235e-06,1.16819e-05,1.62654e-05,2.23029e-05,3.02558e-05,4.07318e-05,5.45313e-05,7.27087e-05,9.66528e-05,0.000128193,0.00016974,0.000224467,0.000296556,0.000391515,0.0005166,0.000681368,0.000898408,0.0011843,0.0015609,0.00205697,0.00271042,0.00357117,0.004705,0.00619854,0.00816589,0.0107574,0.014171,inf	0.803529,0.803529,0.803533,0.80353,651.95,1815.87,645.857,717.662,629.221,336.99,655.344,780.009,1230.32,877.333,745.311,768.38,719.495,852.224,779.563,794.107,861.259,981.787,917.016,820.652,767.919,913.365,780.024,638.649,638.649,369.571,369.571,369.571
0.000143068	-7476833.90	0,8.77375e-07,2.0331e-06,3.55547e-06,5.56081e-06,8.20235e-06,1.16819e-05,1.62654e-05,2.23029e-05,3.02558e-05,4.07318e-05,5.45313e-05,7.27087e-05,9.66528e-05,0.000128193,0.00016974,0.000224467,0.000296556,0.000391515,0.0005166,0.000681368,0.000898408,0.0011843,0.0015609,0.00205697,0.00271042,0.00357117,0.004705,0.00619854,0.00816589,0.0107574,0.014171,inf	0.803529,0.803529,0.803533,0.80353,605.813,1865.91,632.057,720.767,642.307,329.869,657.399,769.147,1243.7,880.2,742.732,770.763,714.729,858.03,779.982,792.271,857.873,984.975,917.546,818.808,762.81,923.666,776.83,636.725,636.725,368.13,368.13,368.13
0.000142237	-7476837.79	0,8.77375e-07,2.0331e-06,3.55547e-06,5.56081e-06,8.20235e-06,1.16819e-05,1.62654e-05,2.23029e-05,3.02558e-05,4.07318e-05,5.45313e-05,7.27087e-05,9.66528e-05,0.000128193,0.00016974,0.000224467,0.000296556,0.000391515,0.0005166,0.000681368,0.000898408,0.0011843,0.0015609,0.00205697,0.00271042,0.00357117,0.004705,0.00619854,0.00816589,0.0107574,0.014171,inf	0.803529,0.803529,0.803533,0.80353,562.229,1914.09,617.386,722.462,654.847,323.027,659.992,758.226,1255.82,882.546,740.039,773.157,709.735,863.473,780.341,790.658,854.566,988.018,918.047,817.291,757.634,933.84,773.219,635.213,635.213,367.02,367.02,367.02
0.000141586	-7476842.35	0,8.77375e-07,2.0331e-06,3.55547e-06,5.56081e-06,8.20235e-06,1.16819e-05,1.62654e-05,2.23029e-05,3.02558e-05,4.07318e-05,5.45313e-05,7.27087e-05,9.66528e-05,0.000128193,0.00016974,0.000224467,0.000296556,0.000391515,0.0005166,0.000681368,0.000898408,0.0011843,0.0015609,0.00205697,0.00271042,0.00357117,0.004705,0.00619854,0.00816589,0.0107574,0.014171,inf	0.803529,0.803529,0.803533,0.80353,521.169,1960.57,602.187,722.917,666.881,316.458,663.103,747.394,1266.94,884.513,737.337,775.649,704.621,868.633,780.67,789.287,851.365,990.937,918.522,816.095,752.405,943.893,769.263,634.068,634.068,366.162,366.162,366.162
0.000141076	-7476847.25	0,8.77375e-07,2.0331e-06,3.55547e-06,5.56081e-06,8.20235e-06,1.16819e-05,1.62654e-05,2.23029e-05,3.02558e-05,4.07318e-05,5.45313e-05,7.27087e-05,9.66528e-05,0.000128193,0.00016974,0.000224467,0.000296556,0.000391515,0.0005166,0.000681368,0.000898408,0.0011843,0.0015609,0.00205697,0.00271042,0.00357117,0.004705,0.00619854,0.00816589,0.0107574,0.014171,inf	0.803529,0.803529,0.803533,0.80353,482.692,2005.32,586.707,722.392,678.451,310.139,666.722,736.706,1277.21,886.152,734.661,778.266,699.44,873.54,780.97,788.14,848.278,993.738,918.961,815.201,747.131,953.83,765.02,633.24,633.24,365.492,365.492,365.492
