time_index	left_time_boundary	right_time_boundary	lambda
0	0	4.66732e-05	547.675
1	4.66732e-05	0.000110537	547.675
2	0.000110537	0.000197923	495.454
3	0.000197923	0.000317494	862.869
4	0.000317494	0.000481104	864.704
5	0.000481104	0.000704976	854.272
6	0.000704976	0.0010113	852.683
7	0.0010113	0.00143045	816.63
8	0.00143045	0.00200398	914.859
9	0.00200398	0.00278875	784.071
10	0.00278875	0.00386257	872.257
11	0.00386257	0.00533188	341.005
12	0.00533188	0.00734236	3486.38
13	0.00734236	0.0100933	110156
14	0.0100933	0.0138575	110156
15	0.0138575	inf	110156
