0.000713548	-325656.01	0,9.81592e-05,0.000232472,0.000416254,0.000667726,0.00101182,0.00148265,0.00212689,0.00300841,0.00421461,0.00586507,0.00812343,0.0112136,0.0154418,0.0212275,0.029144,inf	182.896,182.896,229.902,277.161,319.061,347.744,381.117,413.92,430.621,428.702,423.46,423.034,436.897,471.647,471.647,471.647
0.000759419	-325530.25	0,9.81592e-05,0.000232472,0.000416254,0.000667726,0.00101182,0.00148265,0.00212689,0.00300841,0.00421461,0.00586507,0.00812343,0.0112136,0.0154418,0.0212275,0.029144,inf	138.246,138.246,187.685,248.104,302.357,335.529,380.457,430.47,461.396,463.321,460.273,467.712,513.261,645.109,645.109,645.109
0.000801626	-325482.86	0,9.81592e-05,0.000232472,0.000416254,0.000667726,0.00101182,0.00148265,0.00212689,0.00300841,0.00421461,0.00586507,0.00812343,0.0112136,0.0154418,0.0212275,0.029144,inf	125.333,125.333,171.878,239.199,298.247,328.808,377.395,436.264,477.644,485.16,488.693,512.076,619.892,1102.62,1102.62,1102.62
0.000840792	-325458.03	0,9.81592e-05,0.000232472,0.000416254,0.000667726,0.00101182,0.00148265,0.00212689,0.00300841,0.00421461,0.00586507,0.00812343,0.0112136,0.0154418,0.0212275,0.029144,inf	122.109,122.109,165.2,238.022,299.315,324.873,373.931,437.111,485.639,498.646,511.17,559.033,793.657,4258.47,4258.47,4258.47
0.000840792	-325442.07	0,9.81592e-05,0.000232472,0.000416254,0.000667726,0.00101182,0.00148265,0.00212689,0.00300841,0.00421461,0.00586507,0.00812343,0.0112136,0.0154418,0.0212275,0.029144,inf	120.658,120.658,160.056,237.022,298.743,318.64,366.388,430.559,483.679,502.428,526.131,609.261,1160.3,52505.4,52505.4,52505.4
0.000840792	-325442.55	0,9.81592e-05,0.000232472,0.000416254,0.000667726,0.00101182,0.00148265,0.00212689,0.00300841,0.00421461,0.00586507,0.00812343,0.0112136,0.0154418,0.0212275,0.029144,inf	120.689,120.689,156.793,238.183,299.637,315.654,362.117,426.394,482.216,505.457,528.166,609.261,1160.3,52505.4,52505.4,52505.4
0.000840792	-325442.60	0,9.81592e-05,0.000232472,0.000416254,0.000667726,0.00101182,0.00148265,0.00212689,0.00300841,0.00421461,0.00586507,0.00812343,0.0112136,0.0154418,0.0212275,0.029144,inf	120.694,120.694,154.113,239.871,299.835,314.147,359.584,423.734,481.569,505.466,530.58,609.261,1160.3,52505.4,52505.4,52505.4
0.000840792	-325442.76	0,9.81592e-05,0.000232472,0.000416254,0.000667726,0.00101182,0.00148265,0.00212689,0.00300841,0.00421461,0.00586507,0.00812343,0.0112136,0.0154418,0.0212275,0.029144,inf	120.706,120.706,151.799,241.562,299.835,313.483,358.072,422.018,481.342,507.328,530.58,609.261,1160.3,52505.4,52505.4,52505.4
0.000840792	-325442.79	0,9.81592e-05,0.000232472,0.000416254,0.000667726,0.00101182,0.00148265,0.00212689,0.00300841,0.00421461,0.00586507,0.00812343,0.0112136,0.0154418,0.0212275,0.029144,inf	120.71,120.71,149.765,243.049,299.837,313.276,357.12,420.786,481.315,508.437,530.58,609.261,1160.3,52505.4,52505.4,52505.4
0.000840792	-325442.81	0,9.81592e-05,0.000232472,0.000416254,0.000667726,0.00101182,0.00148265,0.00212689,0.00300841,0.00421461,0.00586507,0.00812343,0.0112136,0.0154418,0.0212275,0.029144,inf	120.721,120.721,147.962,244.366,299.837,313.276,356.497,419.859,481.414,509.102,530.58,609.261,1160.3,52505.4,52505.4,52505.4
0.000840792	-325442.83	0,9.81592e-05,0.000232472,0.000416254,0.000667726,0.00101182,0.00148265,0.00212689,0.00300841,0.00421461,0.00586507,0.00812343,0.0112136,0.0154418,0.0212275,0.029144,inf	120.725,120.725,146.366,245.541,299.837,313.276,356.081,419.135,481.615,509.109,530.869,609.261,1160.3,52505.4,52505.4,52505.4
0.000840792	-325442.87	0,9.81592e-05,0.000232472,0.000416254,0.000667726,0.00101182,0.00148265,0.00212689,0.00300841,0.00421461,0.00586507,0.00812343,0.0112136,0.0154418,0.0212275,0.029144,inf	120.747,120.747,144.93,246.59,299.837,313.276,355.812,418.562,481.885,509.116,531.02,609.261,1160.3,52505.4,52505.4,52505.4
0.000840792	-325442.88	0,9.81592e-05,0.000232472,0.000416254,0.000667726,0.00101182,0.00148265,0.00212689,0.00300841,0.00421461,0.00586507,0.00812343,0.0112136,0.0154418,0.0212275,0.029144,inf	120.748,120.748,143.645,247.529,299.837,313.276,355.64,418.101,482.192,509.205,531.02,609.261,1160.3,52505.4,52505.4,52505.4
0.000840792	-325442.88	0,9.81592e-05,0.000232472,0.000416254,0.000667726,0.00101182,0.00148265,0.00212689,0.00300841,0.00421461,0.00586507,0.00812343,0.0112136,0.0154418,0.0212275,0.029144,inf	120.762,120.762,142.496,248.369,299.837,313.276,355.529,417.7,482.508,509.231,531.02,609.261,1160.3,52505.4,52505.4,52505.4
0.000840792	-325442.88	0,9.81592e-05,0.000232472,0.000416254,0.000667726,0.00101182,0.00148265,0.00212689,0.00300841,0.00421461,0.00586507,0.00812343,0.0112136,0.0154418,0.0212275,0.029144,inf	120.77,120.77,141.467,249.121,299.837,313.276,355.461,417.343,482.508,509.231,531.179,609.261,1160.3,52505.4,52505.4,52505.4
0.000840792	-325442.91	0,9.81592e-05,0.000232472,0.000416254,0.000667726,0.00101182,0.00148265,0.00212689,0.00300841,0.00421461,0.00586507,0.00812343,0.0112136,0.0154418,0.0212275,0.029144,inf	120.772,120.772,140.543,249.796,299.837,313.276,355.447,417.054,482.727,509.231,531.179,609.261,1160.3,52505.4,52505.4,52505.4
0.000840792	-325442.91	0,9.81592e-05,0.000232472,0.000416254,0.000667726,0.00101182,0.00148265,0.00212689,0.00300841,0.00421461,0.00586507,0.00812343,0.0112136,0.0154418,0.0212275,0.029144,inf	120.782,120.782,139.714,250.402,299.837,313.276,355.447,416.789,482.92,509.231,531.179,609.261,1160.3,52505.4,52505.4,52505.4
0.000840792	-325442.91	0,9.81592e-05,0.000232472,0.000416254,0.000667726,0.00101182,0.00148265,0.00212689,0.00300841,0.00421461,0.00586507,0.00812343,0.0112136,0.0154418,0.0212275,0.029144,inf	120.81,120.81,138.969,250.947,299.837,313.276,355.447,416.547,483.098,509.231,531.179,609.261,1160.3,52505.4,52505.4,52505.4
0.000840792	-325442.91	0,9.81592e-05,0.000232472,0.000416254,0.000667726,0.00101182,0.00148265,0.00212689,0.00300841,0.00421461,0.00586507,0.00812343,0.0112136,0.0154418,0.0212275,0.029144,inf	120.82,120.82,138.296,251.438,299.837,313.276,355.447,416.324,483.261,509.231,531.179,609.261,1160.3,52505.4,52505.4,52505.4
0.000840792	-325442.91	0,9.81592e-05,0.000232472,0.000416254,0.000667726,0.00101182,0.00148265,0.00212689,0.00300841,0.00421461,0.00586507,0.00812343,0.0112136,0.0154418,0.0212275,0.029144,inf	120.848,120.848,137.691,251.88,299.837,313.276,355.447,416.119,483.41,509.231,531.179,609.261,1160.3,52505.4,52505.4,52505.4
