LogLikelihood = -35532.579884098704497

y0 0.026931099726643654979
y0_prime 0
y1 0.59315722320027020054
y1_prime 0
y2 1.8564107442139696769
y2_prime 0
y3 2.0165823869442149885
y3_prime 0
rho 1.0000000007892237864e-12
theta 6.8230876704682973956e-05
