LogLikelihood = -1369955.6572443277109

y0 0.40546107304340400779
y0_prime 0
y1 0.93374234498338337662
y1_prime 0
y2 0.70029959459787494147
y2_prime 0
y3 1.6041737160648348315
y3_prime 0
rho 0.0038386687275411717803
rho.alpha 0.33001182274092283331
r_ii 0.99987403377158323714
theta 0.0044788451145817125693
