AIC = 622315.89266640669666

y0 0.82642785840209986858
y0_prime 0
y1 1.021928766430290958
y1_prime 0
y2 0.97439715210338018192
y2_prime 0
y3 1.8340095420422566352
y3_prime 0
rho 0.0012464587257559822057
theta 0.0051457257286286429629
