time_index	left_time_boundary	right_time_boundary	lambda
0	0	3.64433e-06	4229.17
1	3.64433e-06	9.96777e-06	4229.17
2	9.96777e-06	2.09398e-05	34.522
3	2.09398e-05	3.9978e-05	385.483
4	3.9978e-05	7.30119e-05	267.111
5	7.30119e-05	0.00013033	187.142
6	0.00013033	0.000229786	304.758
7	0.000229786	0.000402357	309.089
8	0.000402357	0.000701791	322.48
9	0.000701791	0.00122135	335.889
10	0.00122135	0.00212287	355.593
11	0.00212287	0.00368713	409.569
12	0.00368713	0.00640134	536.065
13	0.00640134	0.0111109	471.811
14	0.0111109	0.0192826	471.811
15	0.0192826	inf	471.811
