time_index	left_time_boundary	right_time_boundary	lambda
0	0	3.00739e-05	223.469
1	3.00739e-05	6.52528e-05	223.469
2	6.52528e-05	0.000106403	8.31801
3	0.000106403	0.000154539	402.389
4	0.000154539	0.000210846	568.574
5	0.000210846	0.000276711	354.459
6	0.000276711	0.000353757	297.612
7	0.000353757	0.000443881	289.858
8	0.000443881	0.000549304	322.988
9	0.000549304	0.000672622	335.158
10	0.000672622	0.000816873	338.136
11	0.000816873	0.000985611	336.653
12	0.000985611	0.00118299	318.141
13	0.00118299	0.00141388	301.218
14	0.00141388	0.00168396	304.344
15	0.00168396	0.00199989	331.179
16	0.00199989	0.00236944	380.389
17	0.00236944	0.00280173	452.383
18	0.00280173	0.00330739	539.123
19	0.00330739	0.0038989	608.728
20	0.0038989	0.00459081	639.221
21	0.00459081	0.00540017	648.314
22	0.00540017	0.00634692	652.446
23	0.00634692	0.00745439	612.401
24	0.00745439	0.00874984	500.024
25	0.00874984	0.0102652	374.46
26	0.0102652	0.0120378	292.8
27	0.0120378	0.0141113	286.56
28	0.0141113	0.0165367	286.56
29	0.0165367	0.0193739	687.598
30	0.0193739	0.0226927	687.598
31	0.0226927	inf	687.598
