time_index	left_time_boundary	right_time_boundary	lambda
0	0	1.5727e-06	4828.8
1	1.5727e-06	3.64433e-06	4828.8
2	3.64433e-06	6.37319e-06	6814.73
3	6.37319e-06	9.96777e-06	3370.51
4	9.96777e-06	1.47027e-05	143.286
5	1.47027e-05	2.09398e-05	40.8401
6	2.09398e-05	2.91557e-05	173.835
7	2.91557e-05	3.9978e-05	481.273
8	3.9978e-05	5.42336e-05	378.153
9	5.42336e-05	7.30119e-05	222.104
10	7.30119e-05	9.77475e-05	156.361
11	9.77475e-05	0.00013033	195.334
12	0.00013033	0.00017325	228.577
13	0.00017325	0.000229786	294.816
14	0.000229786	0.000304259	330.783
15	0.000304259	0.000402357	288.522
16	0.000402357	0.000531577	291.291
17	0.000531577	0.000701791	314.508
18	0.000701791	0.000926007	315.485
19	0.000926007	0.00122135	315.689
20	0.00122135	0.0016104	334.423
21	0.0016104	0.00212287	370.929
22	0.00212287	0.00279792	418.111
23	0.00279792	0.00368713	475.84
24	0.00368713	0.00485844	531.25
25	0.00485844	0.00640134	561.061
26	0.00640134	0.00843373	523.688
27	0.00843373	0.0111109	477.926
28	0.0111109	0.0146374	477.926
29	0.0146374	0.0192826	66772
30	0.0192826	0.0254016	66772
31	0.0254016	inf	66772
