5.23073e-05	-38544.62	0,3.90966e-06,8.48298e-06,1.38326e-05,2.00904e-05,2.74104e-05,3.59729e-05,4.5989e-05,5.77053e-05,7.14104e-05,8.7442e-05,0.000106195,0.000128131,0.000153791,0.000183807,0.000218918,0.000259989,0.000308031,0.000364229,0.000429967,0.000506863,0.000596813,0.000702031,0.000825111,0.000969083,0.00113749,0.00133449,0.00156493,0.00183449,0.0021498,0.00251864,0.00295009,inf	3286.6,3286.6,6766.14,5631.85,5116.63,4879,4194.91,3784.39,3712.76,3781.22,3960.82,4210.82,4405.75,4497.73,4539.1,4580.08,4618.65,4608.7,4511.74,4375.81,4264.4,4222.82,4293.53,4346.67,4355.72,4549.73,4770.09,4788.72,4788.72,4876.14,4876.14,4876.14
4.76155e-05	-38536.98	0,3.90966e-06,8.48298e-06,1.38326e-05,2.00904e-05,2.74104e-05,3.59729e-05,4.5989e-05,5.77053e-05,7.14104e-05,8.7442e-05,0.000106195,0.000128131,0.000153791,0.000183807,0.000218918,0.000259989,0.000308031,0.000364229,0.000429967,0.000506863,0.000596813,0.000702031,0.000825111,0.000969083,0.00113749,0.00133449,0.00156493,0.00183449,0.0021498,0.00251864,0.00295009,inf	2011.96,2011.96,8753.97,6399.43,5575.82,5399.43,4133.26,3390.8,3277.66,3381.22,3668.49,4108.44,4464.67,4622.68,4683.46,4760.42,4855.01,4851.13,4649.23,4371.06,4154.09,4077.78,4231.6,4357.75,4372.13,4815.3,5370.28,5434.74,5434.74,5599.38,5599.38,5599.38
4.34919e-05	-38530.92	0,3.90966e-06,8.48298e-06,1.38326e-05,2.00904e-05,2.74104e-05,3.59729e-05,4.5989e-05,5.77053e-05,7.14104e-05,8.7442e-05,0.000106195,0.000128131,0.000153791,0.000183807,0.000218918,0.000259989,0.000308031,0.000364229,0.000429967,0.000506863,0.000596813,0.000702031,0.000825111,0.000969083,0.00113749,0.00133449,0.00156493,0.00183449,0.0021498,0.00251864,0.00295009,inf	1083.26,1083.26,10248,6797.63,5821.6,5960.88,4161.71,3111.44,2974.76,3094.28,3439.49,4026.54,4520,4722.59,4781.96,4888.32,5057.28,5077.71,4761.89,4338.33,4025.57,3921.32,4163.27,4380.69,4394.94,5165.35,6264.74,6438.64,6438.64,6695.04,6695.04,6695.04
3.99041e-05	-38526.09	0,3.90966e-06,8.48298e-06,1.38326e-05,2.00904e-05,2.74104e-05,3.59729e-05,4.5989e-05,5.77053e-05,7.14104e-05,8.7442e-05,0.000106195,0.000128131,0.000153791,0.000183807,0.000218918,0.000259989,0.000308031,0.000364229,0.000429967,0.000506863,0.000596813,0.000702031,0.000825111,0.000969083,0.00113749,0.00133449,0.00156493,0.00183449,0.0021498,0.00251864,0.00295009,inf	530.137,530.137,11266.3,6951.38,5907.44,6563.5,4259.3,2901.74,2757.74,2885.87,3254.25,3956.81,4570.76,4801.23,4840.53,4968.41,5229.97,5294.03,4853.65,4284.83,3888.85,3763.18,4092.01,4417.26,4426.16,5645.15,7733.32,8191.89,8191.89,8652.11,8652.11,8652.11
3.68133e-05	-38522.28	0,3.90966e-06,8.48298e-06,1.38326e-05,2.00904e-05,2.74104e-05,3.59729e-05,4.5989e-05,5.77053e-05,7.14104e-05,8.7442e-05,0.000106195,0.000128131,0.000153791,0.000183807,0.000218918,0.000259989,0.000308031,0.000364229,0.000429967,0.000506863,0.000596813,0.000702031,0.000825111,0.000969083,0.00113749,0.00133449,0.00156493,0.00183449,0.0021498,0.00251864,0.00295009,inf	241.51,241.51,11930.2,6975.24,5882.83,7199.96,4410.26,2734.61,2598.93,2736.17,3102.64,3896.08,4619.13,4864.78,4867.37,5007.24,5377.98,5504.49,4926.88,4216.28,3751.18,3609.89,4019.71,4467.59,4468.69,6344.22,10586.2,11966,11966,13313.7,13313.7,13313.7
3.41715e-05	-38519.32	0,3.90966e-06,8.48298e-06,1.38326e-05,2.00904e-05,2.74104e-05,3.59729e-05,4.5989e-05,5.77053e-05,7.14104e-05,8.7442e-05,0.000106195,0.000128131,0.000153791,0.000183807,0.000218918,0.000259989,0.000308031,0.000364229,0.000429967,0.000506863,0.000596813,0.000702031,0.000825111,0.000969083,0.00113749,0.00133449,0.00156493,0.00183449,0.0021498,0.00251864,0.00295009,inf	104.141,104.141,12357.4,6940.94,5779.52,7849.44,4597.87,2590.98,2479.16,2631.41,2977.45,3841.85,4666.52,4918.52,4870.03,5011.02,5505.1,5711.28,4982.15,4136.73,3617.2,3465.02,3946.79,4530.47,4527.98,7462.68,18069.6,23713.7,23713.7,33695.4,33695.4,33695.4
3.19301e-05	-38517.10	0,3.90966e-06,8.48298e-06,1.38326e-05,2.00904e-05,2.74104e-05,3.59729e-05,4.5989e-05,5.77053e-05,7.14104e-05,8.7442e-05,0.000106195,0.000128131,0.000153791,0.000183807,0.000218918,0.000259989,0.000308031,0.000364229,0.000429967,0.000506863,0.000596813,0.000702031,0.000825111,0.000969083,0.00113749,0.00133449,0.00156493,0.00183449,0.0021498,0.00251864,0.00295009,inf	43.0174,43.0174,12639.1,6890.41,5620.34,8488.18,4807.63,2458.78,2385.37,2561.86,2873.52,3792.18,4713.85,4966.84,4855.29,4985.73,5614.51,5915.02,5019.27,4049.38,3489.78,3329.97,3872.65,4603.67,4614.49,9512.29,50573.3,125133,125133,775713,775713,775713
3.00431e-05	-38515.49	0,3.90966e-06,8.48298e-06,1.38326e-05,2.00904e-05,2.74104e-05,3.59729e-05,4.5989e-05,5.77053e-05,7.14104e-05,8.7442e-05,0.000106195,0.000128131,0.000153791,0.000183807,0.000218918,0.000259989,0.000308031,0.000364229,0.000429967,0.000506863,0.000596813,0.000702031,0.000825111,0.000969083,0.00113749,0.00133449,0.00156493,0.00183449,0.0021498,0.00251864,0.00295009,inf	17.1657,17.1657,12834.8,6846.77,5423.15,9096.13,5028.37,2331.09,2308.81,2520.6,2786.99,3745.49,4761.5,5013.27,4828.96,4936.89,5708.86,6115.35,5038.17,3957.1,3370.75,3204.95,3796.37,4684.9,4748.29,14122.5,2.26324e+06,299158,299158,6047.72,6047.72,6047.72
2.84527e-05	-38514.38	0,3.90966e-06,8.48298e-06,1.38326e-05,2.00904e-05,2.74104e-05,3.59729e-05,4.5989e-05,5.77053e-05,7.14104e-05,8.7442e-05,0.000106195,0.000128131,0.000153791,0.000183807,0.000218918,0.000259989,0.000308031,0.000364229,0.000429967,0.000506863,0.000596813,0.000702031,0.000825111,0.000969083,0.00113749,0.00133449,0.00156493,0.00183449,0.0021498,0.00251864,0.00295009,inf	6.65802,6.65802,12977.8,6820.15,5201.03,9656.27,5251.05,2204.21,2243.27,2502.16,2714.4,3699.95,4808.56,5059.6,4795.11,4868.98,5790.02,6310.77,5039.11,3862.38,3261.08,3089.16,3716.62,4772.7,4976.15,28485,3.03156e+06,2332.34,2332.34,3259.74,3259.74,3259.74
2.71167e-05	-38513.73	0,3.90966e-06,8.48298e-06,1.38326e-05,2.00904e-05,2.74104e-05,3.59729e-05,4.5989e-05,5.77053e-05,7.14104e-05,8.7442e-05,0.000106195,0.000128131,0.000153791,0.000183807,0.000218918,0.000259989,0.000308031,0.000364229,0.000429967,0.000506863,0.000596813,0.000702031,0.000825111,0.000969083,0.00113749,0.00133449,0.00156493,0.00183449,0.0021498,0.00251864,0.00295009,inf	4.34181,4.34181,13089.5,6817.25,4965.86,10162.2,5471.57,2077.45,2185.17,2503.15,2653.63,3654.95,4855.18,5108.15,4757.95,4786.84,5860.82,6500.86,5024,3767.85,3161.12,2980.47,3629.95,4862.27,5376.54,125774,3.03156e+06,437.407,437.407,646.368,646.368,646.368
