0.000611821	-12005593.55	0,3.55665e-06,9.72794e-06,2.0436e-05,3.90161e-05,7.12552e-05,0.000127195,0.000224258,0.000392676,0.000684906,0.00119197,0.00207179,0.00359841,0.00624732,0.0108436,0.0188187,inf	8098.57,8098.57,1243.65,471.298,393.173,377.41,345.772,341.371,346.384,365.224,400.822,461.428,469.839,462.687,462.687,462.687
0.000680701	-11999990.16	0,3.55665e-06,9.72794e-06,2.0436e-05,3.90161e-05,7.12552e-05,0.000127195,0.000224258,0.000392676,0.000684906,0.00119197,0.00207179,0.00359841,0.00624732,0.0108436,0.0188187,inf	11407,11407,1153.29,393.979,376.111,374.263,325.599,319.514,322.658,343.702,384.68,466.096,475.792,460.956,460.956,460.956
0.000745352	-11996907.92	0,3.55665e-06,9.72794e-06,2.0436e-05,3.90161e-05,7.12552e-05,0.000127195,0.000224258,0.000392676,0.000684906,0.00119197,0.00207179,0.00359841,0.00624732,0.0108436,0.0188187,inf	11832.7,11832.7,965.202,330.257,369.844,383.623,321.768,316.66,317.907,338.2,377.959,468.347,478.026,455.644,455.644,455.644
0.000805651	-11994557.36	0,3.55665e-06,9.72794e-06,2.0436e-05,3.90161e-05,7.12552e-05,0.000127195,0.000224258,0.000392676,0.000684906,0.00119197,0.00207179,0.00359841,0.00624732,0.0108436,0.0188187,inf	11630.1,11630.1,808.145,281.33,366.047,392.875,320.23,318.124,318.419,337.565,374.305,468.721,478.212,448.469,448.469,448.469
0.000862056	-11992657.49	0,3.55665e-06,9.72794e-06,2.0436e-05,3.90161e-05,7.12552e-05,0.000127195,0.000224258,0.000392676,0.000684906,0.00119197,0.00207179,0.00359841,0.00624732,0.0108436,0.0188187,inf	11334.9,11334.9,686.692,243.746,363.452,400.013,318.297,320.38,320.528,338.674,371.996,468.015,477.399,440.526,440.526,440.526
0.000915029	-11991086.95	0,3.55665e-06,9.72794e-06,2.0436e-05,3.90161e-05,7.12552e-05,0.000127195,0.000224258,0.000392676,0.000684906,0.00119197,0.00207179,0.00359841,0.00624732,0.0108436,0.0188187,inf	11050.1,11050.1,591.942,214.625,362.172,405.361,315.783,322.593,323.093,340.45,370.421,466.745,476.17,432.448,432.448,432.448
0.000964955	-11989770.32	0,3.55665e-06,9.72794e-06,2.0436e-05,3.90161e-05,7.12552e-05,0.000127195,0.000224258,0.000392676,0.000684906,0.00119197,0.00207179,0.00359841,0.00624732,0.0108436,0.0188187,inf	10790.2,10790.2,516.231,191.793,362.332,409.51,312.951,324.619,325.719,342.459,369.303,465.203,474.832,424.58,424.58,424.58
0.00101215	-11988655.06	0,3.55665e-06,9.72794e-06,2.0436e-05,3.90161e-05,7.12552e-05,0.000127195,0.000224258,0.000392676,0.000684906,0.00119197,0.00207179,0.00359841,0.00624732,0.0108436,0.0188187,inf	10554.3,10554.3,454.272,173.64,363.876,412.881,310.047,326.478,328.26,344.502,368.489,463.546,473.542,417.096,417.096,417.096
0.00105686	-11987702.53	0,3.55665e-06,9.72794e-06,2.0436e-05,3.90161e-05,7.12552e-05,0.000127195,0.000224258,0.000392676,0.000684906,0.00119197,0.00207179,0.00359841,0.00624732,0.0108436,0.0188187,inf	10339,10339,402.482,158.983,366.638,415.72,307.229,328.217,330.665,346.486,367.884,461.858,472.374,410.076,410.076,410.076
0.0010993	-11986883.32	0,3.55665e-06,9.72794e-06,2.0436e-05,3.90161e-05,7.12552e-05,0.000127195,0.000224258,0.000392676,0.000684906,0.00119197,0.00207179,0.00359841,0.00624732,0.0108436,0.0188187,inf	10141.6,10141.6,358.429,146.976,370.407,418.157,304.588,329.879,332.918,348.366,367.427,460.18,471.357,403.543,403.543,403.543
0.00113966	-11986174.54	0,3.55665e-06,9.72794e-06,2.0436e-05,3.90161e-05,7.12552e-05,0.000127195,0.000224258,0.000392676,0.000684906,0.00119197,0.00207179,0.00359841,0.00624732,0.0108436,0.0188187,inf	9960.2,9960.2,320.424,136.995,374.982,420.26,302.166,331.495,335.019,350.123,367.079,458.534,470.498,397.49,397.49,397.49
0.00117809	-11985558.07	0,3.55665e-06,9.72794e-06,2.0436e-05,3.90161e-05,7.12552e-05,0.000127195,0.000224258,0.000392676,0.000684906,0.00119197,0.00207179,0.00359841,0.00624732,0.0108436,0.0188187,inf	9792.69,9792.69,287.254,128.59,380.176,422.061,299.981,333.085,336.976,351.752,366.809,456.929,469.792,391.893,391.893,391.893
0.00121473	-11985019.37	0,3.55665e-06,9.72794e-06,2.0436e-05,3.90161e-05,7.12552e-05,0.000127195,0.000224258,0.000392676,0.000684906,0.00119197,0.00207179,0.00359841,0.00624732,0.0108436,0.0188187,inf	9637.21,9637.21,258.069,121.422,385.829,423.577,298.032,334.66,338.798,353.256,366.599,455.367,469.227,386.722,386.722,386.722
0.00124969	-11984546.64	0,3.55665e-06,9.72794e-06,2.0436e-05,3.90161e-05,7.12552e-05,0.000127195,0.000224258,0.000392676,0.000684906,0.00119197,0.00207179,0.00359841,0.00624732,0.0108436,0.0188187,inf	9493.2,9493.2,232.222,115.247,391.816,424.823,296.31,336.229,340.495,354.64,366.435,453.849,468.791,381.944,381.944,381.944
0.0012831	-11984130.19	0,3.55665e-06,9.72794e-06,2.0436e-05,3.90161e-05,7.12552e-05,0.000127195,0.000224258,0.000392676,0.000684906,0.00119197,0.00207179,0.00359841,0.00624732,0.0108436,0.0188187,inf	9358.97,9358.97,209.22,109.873,398.032,425.809,294.803,337.794,342.077,355.914,366.308,452.373,468.469,377.527,377.527,377.527
0.00131504	-11983762.06	0,3.55665e-06,9.72794e-06,2.0436e-05,3.90161e-05,7.12552e-05,0.000127195,0.000224258,0.000392676,0.000684906,0.00119197,0.00207179,0.00359841,0.00624732,0.0108436,0.0188187,inf	9233.67,9233.67,188.679,105.158,404.392,426.547,293.494,339.356,343.553,357.085,366.21,450.938,468.248,373.438,373.438,373.438
0.00134561	-11983435.60	0,3.55665e-06,9.72794e-06,2.0436e-05,3.90161e-05,7.12552e-05,0.000127195,0.000224258,0.000392676,0.000684906,0.00119197,0.00207179,0.00359841,0.00624732,0.0108436,0.0188187,inf	9116.31,9116.31,170.286,100.992,410.831,427.051,292.37,340.914,344.931,358.162,366.137,449.54,468.116,369.647,369.647,369.647
0.00137488	-11983145.25	0,3.55665e-06,9.72794e-06,2.0436e-05,3.90161e-05,7.12552e-05,0.000127195,0.000224258,0.000392676,0.000684906,0.00119197,0.00207179,0.00359841,0.00624732,0.0108436,0.0188187,inf	9006.85,9006.85,153.783,97.2824,417.299,427.335,291.413,342.467,346.218,359.154,366.084,448.177,468.062,366.128,366.128,366.128
0.00140293	-11982886.32	0,3.55665e-06,9.72794e-06,2.0436e-05,3.90161e-05,7.12552e-05,0.000127195,0.000224258,0.000392676,0.000684906,0.00119197,0.00207179,0.00359841,0.00624732,0.0108436,0.0188187,inf	8903.5,8903.5,138.952,93.9589,423.755,427.415,290.61,344.012,347.421,360.069,366.05,446.847,468.076,362.855,362.855,362.855
0.00142983	-11982654.83	0,3.55665e-06,9.72794e-06,2.0436e-05,3.90161e-05,7.12552e-05,0.000127195,0.000224258,0.000392676,0.000684906,0.00119197,0.00207179,0.00359841,0.00624732,0.0108436,0.0188187,inf	8806.65,8806.65,125.616,90.9641,430.167,427.306,289.947,345.546,348.546,360.914,366.033,445.548,468.149,359.806,359.806,359.806
