time_index	left_time_boundary	right_time_boundary	lambda
0	0	9.38805e-05	165.153
1	9.38805e-05	0.000222339	165.153
2	0.000222339	0.00039811	236.122
3	0.00039811	0.00063862	289.951
4	0.00063862	0.000967713	302.078
5	0.000967713	0.00141802	332.741
6	0.00141802	0.00203417	378.083
7	0.00203417	0.00287727	425.782
8	0.00287727	0.00403089	461.343
9	0.00403089	0.00560941	495.21
10	0.00560941	0.00776932	487.865
11	0.00776932	0.0107248	405.385
12	0.0107248	0.0147687	437.505
13	0.0147687	0.0203022	55218.6
14	0.0203022	0.0278736	55218.6
15	0.0278736	inf	55218.6
