AIC = 577899.6139237168245

y0 1.1493796349039511195
y0_prime 0
y1 1.1739148774757335314
y1_prime 0
y2 0.78896341918787848968
y2_prime 0
y3 1.8286553603087050135
y3_prime 0
rho 0.00040027160842299710011
rho.alpha 1.0628498136797019935
r_ii 0.99998115639291618173
theta 0.0048229675215453017903
