AIC = 578133.23663110856432

y0 1.1550997829152056529
y0_prime 0
y1 1.1818766970084786383
y1_prime 0
y2 0.80229563617385779573
y2_prime 0
y3 1.8303772867837246885
y3_prime 0
rho 0.00027049526759498809716
theta 0.0048229675215453017903
