LogLikelihood = -670950.50180053722579

y0 0.26164322425598995903
y0_prime 0
y1 0.33841742028215027194
y1_prime 0
y2 2.0009274336058604504
y2_prime 0
y3 21.053986438827578809
y3_prime 0
rho 0.0015517646792079975351
rho.alpha 0.050000000000000002776
r_ii 0.99094031053548881083
theta 0.001846585070690522426
