LogLikelihood = -132689.17825559378252

y0 0.29330884358673892098
y0_prime 0
y1 0.37040006129944624824
y1_prime 0
y2 2.0714554279387771274
y2_prime 0
y3 10.179004158831835625
y3_prime 0
rho 0.0012926385713512944346
rho.alpha 0.068773329834140736749
r_ii 0.91777160187767892197
theta 0.0018223360850251465667
