LogLikelihood = -670952.11074303474743

y0 0.19908770565506891947
y0_prime 0
y1 0.43376418570233543637
y1_prime 0
y2 1.7541380117163862806
y2_prime 0
y3 34.405728681128259439
y3_prime 0
rho 0.0010690680386117605485
theta 0.001846585070690522426
