0.000212958	-5972226.46	0,1.49161e-06,4.07978e-06,8.57062e-06,1.63629e-05,2.98836e-05,5.33439e-05,9.40509e-05,0.000164684,0.000287241,0.000499897,0.000868884,0.00150913,0.00262005,0.00454766,0.00789233,inf	6.87861,6.87861,17.4779,45.266,61.3744,116.801,183.09,279.08,420.885,677.241,1048.72,1752.27,1591.59,1537.41,1537.41,1537.41
0.000201521	-5958045.30	0,1.49161e-06,4.07978e-06,8.57062e-06,1.63629e-05,2.98836e-05,5.33439e-05,9.40509e-05,0.000164684,0.000287241,0.000499897,0.000868884,0.00150913,0.00262005,0.00454766,0.00789233,inf	1.09522,1.09522,1.09523,4.24066,5.53773,19.0908,39.0869,99.4578,233.379,519.384,922.728,2196.37,2158.65,2302.23,2302.23,2302.23
0.000186769	-5953130.77	0,1.49161e-06,4.07978e-06,8.57062e-06,1.63629e-05,2.98836e-05,5.33439e-05,9.40509e-05,0.000164684,0.000287241,0.000499897,0.000868884,0.00150913,0.00262005,0.00454766,0.00789233,inf	1.09522,1.09522,1.09522,1.09522,1.09522,4.98279,8.83612,41.0821,155.513,448.437,819.858,2458.09,2855.87,4688.09,4688.09,4688.09
0.000168693	-5950708.64	0,1.49161e-06,4.07978e-06,8.57062e-06,1.63629e-05,2.98836e-05,5.33439e-05,9.40509e-05,0.000164684,0.000287241,0.000499897,0.000868884,0.00150913,0.00262005,0.00454766,0.00789233,inf	1.09522,1.09522,1.09522,1.09522,1.09522,1.11705,1.82513,18.1721,113.541,417.19,745.291,2590.57,3894.9,50842.2,50842.2,50842.2
0.00016869	-5949025.27	0,1.49161e-06,4.07978e-06,8.57062e-06,1.63629e-05,2.98836e-05,5.33439e-05,9.40509e-05,0.000164684,0.000287241,0.000499897,0.000868884,0.00150913,0.00262005,0.00454766,0.00789233,inf	1.09522,1.09522,1.09522,1.09522,1.09522,1.09697,1.09522,8.04988,83.7542,398.062,659.982,2750.01,6230.32,135840,135840,135840
