0.000693511	-304140.32	0,9.02123e-05,0.000213651,0.000382554,0.000613667,0.000929902,0.00136261,0.00195469,0.00276485,0.0038734,0.00539024,0.00746576,0.0103057,0.0141917,0.0195089,0.0267845,inf	223.508,223.508,242.268,270.71,302.846,357.466,437.403,501.281,503.736,476.587,453.72,454.834,458.3,460.004,460.004,460.004
0.000773477	-303890.91	0,9.02123e-05,0.000213651,0.000382554,0.000613667,0.000929902,0.00136261,0.00195469,0.00276485,0.0038734,0.00539024,0.00746576,0.0103057,0.0141917,0.0195089,0.0267845,inf	188.435,188.435,198.389,228.687,262.225,330.94,444.534,549.632,560.578,518.331,480.936,490.564,506.218,523.999,523.999,523.999
0.000848344	-303780.48	0,9.02123e-05,0.000213651,0.000382554,0.000613667,0.000929902,0.00136261,0.00195469,0.00276485,0.0038734,0.00539024,0.00746576,0.0103057,0.0141917,0.0195089,0.0267845,inf	183.697,183.697,185.252,213.705,242.698,315.058,444.579,574.477,593.225,542.442,495.987,517.837,553.607,610.475,610.475,610.475
0.00091866	-303712.93	0,9.02123e-05,0.000213651,0.000382554,0.000613667,0.000929902,0.00136261,0.00195469,0.00276485,0.0038734,0.00539024,0.00746576,0.0103057,0.0141917,0.0195089,0.0267845,inf	186.254,186.254,182.973,209.294,232.465,305.089,442.755,587.335,611.659,555.636,503.472,538.888,602.578,742.821,742.821,742.821
0.0009853	-303663.36	0,9.02123e-05,0.000213651,0.000382554,0.000613667,0.000929902,0.00136261,0.00195469,0.00276485,0.0038734,0.00539024,0.00746576,0.0103057,0.0141917,0.0195089,0.0267845,inf	189.481,189.481,185.035,209.609,226.933,298.699,440.766,593.941,621.738,562.139,506.295,555.34,655.58,997.259,997.259,997.259
0.00104895	-303623.42	0,9.02123e-05,0.000213651,0.000382554,0.000613667,0.000929902,0.00136261,0.00195469,0.00276485,0.0038734,0.00539024,0.00746576,0.0103057,0.0141917,0.0195089,0.0267845,inf	191.499,191.499,188.867,212.156,223.987,294.592,439.126,597.183,626.823,564.517,506.225,568.334,715.869,1849.06,1849.06,1849.06
0.00111012	-303589.67	0,9.02123e-05,0.000213651,0.000382554,0.000613667,0.000929902,0.00136261,0.00195469,0.00276485,0.0038734,0.00539024,0.00746576,0.0103057,0.0141917,0.0195089,0.0267845,inf	192.078,192.078,193.364,215.754,222.541,291.998,437.939,598.561,628.864,564.33,504.334,578.691,788.571,17629.7,17629.7,17629.7
0.00111012	-303560.33	0,9.02123e-05,0.000213651,0.000382554,0.000613667,0.000929902,0.00136261,0.00195469,0.00276485,0.0038734,0.00539024,0.00746576,0.0103057,0.0141917,0.0195089,0.0267845,inf	189.319,189.319,195.786,217.295,219.602,287.231,431.02,588.868,620.987,557.075,497.447,583.21,877.72,57287.1,57287.1,57287.1
0.00111012	-303559.83	0,9.02123e-05,0.000213651,0.000382554,0.000613667,0.000929902,0.00136261,0.00195469,0.00276485,0.0038734,0.00539024,0.00746576,0.0103057,0.0141917,0.0195089,0.0267845,inf	187.11,187.11,198.004,217.295,218.475,284.985,427.742,583.704,616.574,552.137,491.904,588.664,881.798,57287.1,57287.1,57287.1
0.00111012	-303559.61	0,9.02123e-05,0.000213651,0.000382554,0.000613667,0.000929902,0.00136261,0.00195469,0.00276485,0.0038734,0.00539024,0.00746576,0.0103057,0.0141917,0.0195089,0.0267845,inf	185.363,185.363,199.751,217.295,218.259,283.988,426.453,580.98,614.152,548.641,487.276,594.598,882.882,57287.1,57287.1,57287.1
0.00111012	-303559.60	0,9.02123e-05,0.000213651,0.000382554,0.000613667,0.000929902,0.00136261,0.00195469,0.00276485,0.0038734,0.00539024,0.00746576,0.0103057,0.0141917,0.0195089,0.0267845,inf	183.948,183.948,201.653,217.295,218.259,283.566,426.11,579.541,612.869,546.031,483.25,599.982,882.882,57287.1,57287.1,57287.1
0.00111012	-303559.58	0,9.02123e-05,0.000213651,0.000382554,0.000613667,0.000929902,0.00136261,0.00195469,0.00276485,0.0038734,0.00539024,0.00746576,0.0103057,0.0141917,0.0195089,0.0267845,inf	182.715,182.715,202.888,217.295,218.259,283.375,426.215,578.794,612.269,544.004,479.66,604.093,882.918,57287.1,57287.1,57287.1
0.00111012	-303559.53	0,9.02123e-05,0.000213651,0.000382554,0.000613667,0.000929902,0.00136261,0.00195469,0.00276485,0.0038734,0.00539024,0.00746576,0.0103057,0.0141917,0.0195089,0.0267845,inf	181.716,181.716,203.892,217.295,218.259,283.276,426.288,578.436,612.103,542.395,476.404,607.499,882.918,57287.1,57287.1,57287.1
0.00111012	-303559.47	0,9.02123e-05,0.000213651,0.000382554,0.000613667,0.000929902,0.00136261,0.00195469,0.00276485,0.0038734,0.00539024,0.00746576,0.0103057,0.0141917,0.0195089,0.0267845,inf	180.921,180.921,204.699,217.295,218.259,283.219,426.33,578.316,612.103,541.106,473.414,610.406,882.918,57287.1,57287.1,57287.1
0.00111012	-303559.40	0,9.02123e-05,0.000213651,0.000382554,0.000613667,0.000929902,0.00136261,0.00195469,0.00276485,0.0038734,0.00539024,0.00746576,0.0103057,0.0141917,0.0195089,0.0267845,inf	180.269,180.269,205.359,217.295,218.259,283.18,426.358,578.316,612.103,540.077,470.649,612.977,882.918,57287.1,57287.1,57287.1
0.00111012	-303559.34	0,9.02123e-05,0.000213651,0.000382554,0.000613667,0.000929902,0.00136261,0.00195469,0.00276485,0.0038734,0.00539024,0.00746576,0.0103057,0.0141917,0.0195089,0.0267845,inf	179.746,179.746,205.888,217.295,218.259,283.151,426.379,578.316,612.103,539.267,468.115,612.977,884.587,57287.1,57287.1,57287.1
0.00111012	-303559.21	0,9.02123e-05,0.000213651,0.000382554,0.000613667,0.000929902,0.00136261,0.00195469,0.00276485,0.0038734,0.00539024,0.00746576,0.0103057,0.0141917,0.0195089,0.0267845,inf	178.999,178.999,206.875,217.295,218.259,283.11,426.409,578.316,612.103,538.091,463.468,617.017,884.587,57287.1,57287.1,57287.1
0.00111012	-303559.12	0,9.02123e-05,0.000213651,0.000382554,0.000613667,0.000929902,0.00136261,0.00195469,0.00276485,0.0038734,0.00539024,0.00746576,0.0103057,0.0141917,0.0195089,0.0267845,inf	178.682,178.682,207.194,217.295,218.259,283.099,426.417,578.316,612.103,537.819,461.4,618.674,884.587,57287.1,57287.1,57287.1
0.00111012	-303559.07	0,9.02123e-05,0.000213651,0.000382554,0.000613667,0.000929902,0.00136261,0.00195469,0.00276485,0.0038734,0.00539024,0.00746576,0.0103057,0.0141917,0.0195089,0.0267845,inf	178.425,178.425,207.457,217.295,218.259,283.092,426.422,578.316,612.103,537.664,459.474,618.674,885.676,57287.1,57287.1,57287.1
0.00111012	-303559.00	0,9.02123e-05,0.000213651,0.000382554,0.000613667,0.000929902,0.00136261,0.00195469,0.00276485,0.0038734,0.00539024,0.00746576,0.0103057,0.0141917,0.0195089,0.0267845,inf	178.225,178.225,207.674,217.295,218.259,283.088,426.422,578.318,612.103,537.631,457.652,620.022,885.676,57287.1,57287.1,57287.1
