LogLikelihood = -178508.41515507156146

y0 0.37460177791025045524
y0_prime 0
y1 0.9636932404647053918
y1_prime 0
y2 1.0946278457841323029
y2_prime 0
y3 2.758261159912089866
y3_prime 0
rho 0.0002625276778554491014
theta 0.0026375302945367200096
