LogLikelihood = -186607.33056467227289

y0 0.81758257785156851494
y0_prime 0
y1 1.1063345192489990598
y1_prime 0
y2 1.0273115991278909398
y2_prime 0
y3 1.959562055576043349
y3_prime 0
rho 0.0012832612663948870027
rho.alpha 1.1094311259185640761
r_ii 0.9999999916773569808
theta 0.0028293624054020701832
