AIC = 265205.23384825064568

y0 0.17521946517314343494
y0_prime 0
y1 0.55154279496917513192
y1_prime 0
y2 1.5358287336948410751
y2_prime 0
y3 73.58712679147339486
y3_prime 0
rho 0.0019913743212069423029
rho.alpha 0.45708829718443122481
r_ii 0.99992859585588989013
theta 0.0018220628924225826077
