0.000640748	-8437811.34	0,2.64411e-06,6.0758e-06,1.05297e-05,1.63102e-05,2.38126e-05,3.35496e-05,4.6187e-05,6.25887e-05,8.38758e-05,0.000111504,0.000147361,0.000193899,0.000254299,0.00033269,0.00043443,0.000566477,0.000737855,0.00096028,0.00124896,0.00162363,0.00210989,0.002741,0.00356009,0.00462317,0.0060029,0.0077936,0.0101177,0.013134,0.0170489,0.0221298,0.0287241,inf	80.3216,80.3216,215.037,339.804,409.061,412.655,378.962,362.622,359.376,361.147,370.413,374.257,369.773,365.592,367.015,371.573,380.274,391.723,404.181,412.779,416.547,419.165,420.076,416.07,409.602,405.27,399.036,372.782,372.782,330.563,330.563,330.563
0.000657521	-8437553.17	0,2.64411e-06,6.0758e-06,1.05297e-05,1.63102e-05,2.38126e-05,3.35496e-05,4.6187e-05,6.25887e-05,8.38758e-05,0.000111504,0.000147361,0.000193899,0.000254299,0.00033269,0.00043443,0.000566477,0.000737855,0.00096028,0.00124896,0.00162363,0.00210989,0.002741,0.00356009,0.00462317,0.0060029,0.0077936,0.0101177,0.013134,0.0170489,0.0221298,0.0287241,inf	17.8825,17.8825,126.079,310.536,444.277,450.002,381.663,352.382,346.539,349.515,366.777,373.077,362.401,352.012,351.66,356.325,368.282,385.379,404.952,418.088,423.203,427.646,430.183,423.818,412.961,406.442,395.868,349.645,349.645,288.413,288.413,288.413
0.000672279	-8437430.57	0,2.64411e-06,6.0758e-06,1.05297e-05,1.63102e-05,2.38126e-05,3.35496e-05,4.6187e-05,6.25887e-05,8.38758e-05,0.000111504,0.000147361,0.000193899,0.000254299,0.00033269,0.00043443,0.000566477,0.000737855,0.00096028,0.00124896,0.00162363,0.00210989,0.002741,0.00356009,0.00462317,0.0060029,0.0077936,0.0101177,0.013134,0.0170489,0.0221298,0.0287241,inf	4.03516,4.03516,74.2528,282.568,477.25,485.949,384.517,346.348,339.466,344.445,370.272,379.655,363.152,346.885,344.357,347.875,361.085,381.362,405.508,421.058,426.14,431.794,436.166,428.336,414.384,407.061,393.486,331.729,331.729,261.089,261.089,261.089
0.000685451	-8437357.56	0,2.64411e-06,6.0758e-06,1.05297e-05,1.63102e-05,2.38126e-05,3.35496e-05,4.6187e-05,6.25887e-05,8.38758e-05,0.000111504,0.000147361,0.000193899,0.000254299,0.00033269,0.00043443,0.000566477,0.000737855,0.00096028,0.00124896,0.00162363,0.00210989,0.002741,0.00356009,0.00462317,0.0060029,0.0077936,0.0101177,0.013134,0.0170489,0.0221298,0.0287241,inf	0.910913,0.910913,43.4905,253.899,503.474,515.766,383.656,339.781,332.796,340.122,374.811,387.975,366.39,345.092,340.713,342.821,356.491,378.79,406.193,422.983,427.237,433.67,439.884,431.077,414.851,407.645,392.046,317.881,317.881,242.357,242.357,242.357
0.00069732	-8437308.96	0,2.64411e-06,6.0758e-06,1.05297e-05,1.63102e-05,2.38126e-05,3.35496e-05,4.6187e-05,6.25887e-05,8.38758e-05,0.000111504,0.000147361,0.000193899,0.000254299,0.00033269,0.00043443,0.000566477,0.000737855,0.00096028,0.00124896,0.00162363,0.00210989,0.002741,0.00356009,0.00462317,0.0060029,0.0077936,0.0101177,0.013134,0.0170489,0.0221298,0.0287241,inf	0.402334,0.402334,25.3872,226.333,524.371,540.458,379.93,332.58,325.798,335.328,378.702,396.052,370.072,344.609,338.854,339.604,353.411,377.146,407.084,424.438,427.406,434.325,442.311,432.797,414.828,408.365,391.473,307.141,307.141,229.057,229.057,229.057
0.000708073	-8437274.46	0,2.64411e-06,6.0758e-06,1.05297e-05,1.63102e-05,2.38126e-05,3.35496e-05,4.6187e-05,6.25887e-05,8.38758e-05,0.000111504,0.000147361,0.000193899,0.000254299,0.00033269,0.00043443,0.000566477,0.000737855,0.00096028,0.00124896,0.00162363,0.00210989,0.002741,0.00356009,0.00462317,0.0060029,0.0077936,0.0101177,0.013134,0.0170489,0.0221298,0.0287241,inf	0.402334,0.402334,14.8477,201.015,541.779,561.705,374.679,325.387,318.76,330.077,381.653,403.311,373.469,344.592,337.904,337.437,351.25,376.102,408.156,425.676,427.094,434.303,443.973,433.897,414.532,409.243,391.612,298.753,298.753,219.391,219.391,219.391
0.00071785	-8437248.74	0,2.64411e-06,6.0758e-06,1.05297e-05,1.63102e-05,2.38126e-05,3.35496e-05,4.6187e-05,6.25887e-05,8.38758e-05,0.000111504,0.000147361,0.000193899,0.000254299,0.00033269,0.00043443,0.000566477,0.000737855,0.00096028,0.00124896,0.00162363,0.00210989,0.002741,0.00356009,0.00462317,0.0060029,0.0077936,0.0101177,0.013134,0.0170489,0.0221298,0.0287241,inf	0.402334,0.402334,8.69902,178.274,556.935,580.737,368.798,318.692,312.031,324.626,383.788,409.682,376.364,344.686,337.438,335.899,349.661,375.446,409.36,426.806,426.531,433.901,445.163,434.597,414.064,410.243,392.292,292.143,292.143,212.25,212.25,212.25
0.000726759	-8437228.76	0,2.64411e-06,6.0758e-06,1.05297e-05,1.63102e-05,2.38126e-05,3.35496e-05,4.6187e-05,6.25887e-05,8.38758e-05,0.000111504,0.000147361,0.000193899,0.000254299,0.00033269,0.00043443,0.000566477,0.000737855,0.00096028,0.00124896,0.00162363,0.00210989,0.002741,0.00356009,0.00462317,0.0060029,0.0077936,0.0101177,0.013134,0.0170489,0.0221298,0.0287241,inf	0.402334,0.402334,5.11525,158.016,570.413,598.219,362.787,312.757,305.826,319.201,385.303,415.259,378.733,344.75,337.236,334.752,348.437,375.037,410.65,427.879,425.838,433.286,446.055,435.027,413.472,411.317,393.364,286.875,286.875,206.915,206.915,206.915
0.00073489	-8437212.72	0,2.64411e-06,6.0758e-06,1.05297e-05,1.63102e-05,2.38126e-05,3.35496e-05,4.6187e-05,6.25887e-05,8.38758e-05,0.000111504,0.000147361,0.000193899,0.000254299,0.00033269,0.00043443,0.000566477,0.000737855,0.00096028,0.00124896,0.00162363,0.00210989,0.002741,0.00356009,0.00462317,0.0060029,0.0077936,0.0101177,0.013134,0.0170489,0.0221298,0.0287241,inf	0.402334,0.402334,3.01451,140.004,582.435,614.458,356.857,307.647,300.242,313.955,386.388,420.172,380.628,344.734,337.187,333.858,347.448,374.785,411.988,428.914,425.082,432.554,446.757,435.27,412.783,412.423,394.703,282.626,282.626,202.896,202.896,202.896
0.000742318	-8437199.52	0,2.64411e-06,6.0758e-06,1.05297e-05,1.63102e-05,2.38126e-05,3.35496e-05,4.6187e-05,6.25887e-05,8.38758e-05,0.000111504,0.000147361,0.000193899,0.000254299,0.00033269,0.00043443,0.000566477,0.000737855,0.00096028,0.00124896,0.00162363,0.00210989,0.002741,0.00356009,0.00462317,0.0060029,0.0077936,0.0101177,0.013134,0.0170489,0.0221298,0.0287241,inf	0.402333,0.402333,1.77921,124.002,593.116,629.596,351.121,303.348,295.3,308.973,387.188,424.55,382.116,344.632,337.232,333.133,346.614,374.626,413.346,429.92,424.298,431.766,447.338,435.38,412.014,413.525,396.212,279.152,279.152,199.854,199.854,199.854
0.000749113	-8437188.48	0,2.64411e-06,6.0758e-06,1.05297e-05,1.63102e-05,2.38126e-05,3.35496e-05,4.6187e-05,6.25887e-05,8.38758e-05,0.000111504,0.000147361,0.000193899,0.000254299,0.00033269,0.00043443,0.000566477,0.000737855,0.00096028,0.00124896,0.00162363,0.00210989,0.002741,0.00356009,0.00462317,0.0060029,0.0077936,0.0101177,0.013134,0.0170489,0.0221298,0.0287241,inf	0.402333,0.402333,1.0504,109.797,602.535,643.715,345.601,299.812,290.966,304.289,387.801,428.495,383.265,344.452,337.339,332.527,345.881,374.519,414.702,430.901,423.509,430.958,447.845,435.394,411.178,414.601,397.821,276.273,276.273,197.543,197.543,197.543
0.000755332	-8437179.15	0,2.64411e-06,6.0758e-06,1.05297e-05,1.63102e-05,2.38126e-05,3.35496e-05,4.6187e-05,6.25887e-05,8.38758e-05,0.000111504,0.000147361,0.000193899,0.000254299,0.00033269,0.00043443,0.000566477,0.000737855,0.00096028,0.00124896,0.00162363,0.00210989,0.002741,0.00356009,0.00462317,0.0060029,0.0077936,0.0101177,0.013134,0.0170489,0.0221298,0.0287241,inf	0.402333,0.402333,0.566161,97.1797,610.707,656.843,340.268,296.949,287.187,299.91,388.294,432.089,384.132,344.209,337.494,332.009,345.216,374.438,416.043,431.856,422.726,430.152,448.31,435.342,410.285,415.636,399.475,273.852,273.852,195.787,195.787,195.787
0.000761028	-8437171.23	0,2.64411e-06,6.0758e-06,1.05297e-05,1.63102e-05,2.38126e-05,3.35496e-05,4.6187e-05,6.25887e-05,8.38758e-05,0.000111504,0.000147361,0.000193899,0.000254299,0.00033269,0.00043443,0.000566477,0.000737855,0.00096028,0.00124896,0.00162363,0.00210989,0.002741,0.00356009,0.00462317,0.0060029,0.0077936,0.0101177,0.013134,0.0170489,0.0221298,0.0287241,inf	0.402333,0.402333,0.402334,85.9893,617.749,669.076,335.121,294.69,283.919,295.824,388.715,435.395,384.768,343.916,337.686,331.558,344.598,374.364,417.358,432.787,421.954,429.362,448.755,435.244,409.347,416.622,401.139,271.789,271.789,194.456,194.456,194.456
0.000766233	-8437164.50	0,2.64411e-06,6.0758e-06,1.05297e-05,1.63102e-05,2.38126e-05,3.35496e-05,4.6187e-05,6.25887e-05,8.38758e-05,0.000111504,0.000147361,0.000193899,0.000254299,0.00033269,0.00043443,0.000566477,0.000737855,0.00096028,0.00124896,0.00162363,0.00210989,0.002741,0.00356009,0.00462317,0.0060029,0.0077936,0.0101177,0.013134,0.0170489,0.0221298,0.0287241,inf	0.402333,0.402333,0.402333,76.0244,623.387,680.063,329.973,292.811,280.953,291.868,388.909,438.265,385.043,343.443,337.779,331.039,343.897,374.181,418.546,433.616,421.149,428.568,449.175,435.099,408.363,417.545,402.769,269.993,269.993,193.443,193.443,193.443
0.000771018	-8437158.78	0,2.64411e-06,6.0758e-06,1.05297e-05,1.63102e-05,2.38126e-05,3.35496e-05,4.6187e-05,6.25887e-05,8.38758e-05,0.000111504,0.000147361,0.000193899,0.000254299,0.00033269,0.00043443,0.000566477,0.000737855,0.00096028,0.00124896,0.00162363,0.00210989,0.002741,0.00356009,0.00462317,0.0060029,0.0077936,0.0101177,0.013134,0.0170489,0.0221298,0.0287241,inf	0.402333,0.402333,0.402333,67.2348,628.379,690.594,325.132,291.535,278.502,288.287,389.237,441.109,385.303,343.064,338.008,330.656,343.299,374.061,419.765,434.473,420.397,427.828,449.619,434.949,407.357,418.423,404.374,268.425,268.425,192.686,192.686,192.686
0.000775413	-8437153.95	0,2.64411e-06,6.0758e-06,1.05297e-05,1.63102e-05,2.38126e-05,3.35496e-05,4.6187e-05,6.25887e-05,8.38758e-05,0.000111504,0.000147361,0.000193899,0.000254299,0.00033269,0.00043443,0.000566477,0.000737855,0.00096028,0.00124896,0.00162363,0.00210989,0.002741,0.00356009,0.00462317,0.0060029,0.0077936,0.0101177,0.013134,0.0170489,0.0221298,0.0287241,inf	0.402333,0.402333,0.402333,59.4605,632.529,700.384,320.444,290.672,276.414,284.952,389.581,443.824,385.463,342.701,338.3,330.341,342.744,373.948,420.968,435.321,419.671,427.124,450.081,434.792,406.331,419.254,405.939,267.038,267.038,192.128,192.128,192.128
0.00077945	-8437149.85	0,2.64411e-06,6.0758e-06,1.05297e-05,1.63102e-05,2.38126e-05,3.35496e-05,4.6187e-05,6.25887e-05,8.38758e-05,0.000111504,0.000147361,0.000193899,0.000254299,0.00033269,0.00043443,0.000566477,0.000737855,0.00096028,0.00124896,0.00162363,0.00210989,0.002741,0.00356009,0.00462317,0.0060029,0.0077936,0.0101177,0.013134,0.0170489,0.0221298,0.0287241,inf	0.402333,0.402333,0.402333,52.5897,635.928,709.482,315.871,290.158,274.624,281.821,389.92,446.398,385.518,342.335,338.628,330.067,342.207,373.823,422.139,436.147,418.962,426.452,450.56,434.634,405.29,420.038,407.456,265.796,265.796,191.723,191.723,191.723
0.000783158	-8437146.40	0,2.64411e-06,6.0758e-06,1.05297e-05,1.63102e-05,2.38126e-05,3.35496e-05,4.6187e-05,6.25887e-05,8.38758e-05,0.000111504,0.000147361,0.000193899,0.000254299,0.00033269,0.00043443,0.000566477,0.000737855,0.00096028,0.00124896,0.00162363,0.00210989,0.002741,0.00356009,0.00462317,0.0060029,0.0077936,0.0101177,0.013134,0.0170489,0.0221298,0.0287241,inf	0.402333,0.402333,0.402333,46.5192,638.65,717.955,311.397,289.949,273.085,278.863,390.246,448.839,385.474,341.964,338.987,329.828,341.681,373.681,423.273,436.949,418.266,425.807,451.059,434.477,404.236,420.779,408.921,264.673,264.673,191.439,191.439,191.439
0.000786567	-8437143.49	0,2.64411e-06,6.0758e-06,1.05297e-05,1.63102e-05,2.38126e-05,3.35496e-05,4.6187e-05,6.25887e-05,8.38758e-05,0.000111504,0.000147361,0.000193899,0.000254299,0.00033269,0.00043443,0.000566477,0.000737855,0.00096028,0.00124896,0.00162363,0.00210989,0.002741,0.00356009,0.00462317,0.0060029,0.0077936,0.0101177,0.013134,0.0170489,0.0221298,0.0287241,inf	0.402333,0.402333,0.402333,41.1598,640.788,725.842,307.018,289.993,271.767,276.063,390.561,451.162,385.345,341.591,339.372,329.616,341.163,373.518,424.369,437.725,417.58,425.189,451.578,434.326,403.174,421.48,410.332,263.648,263.648,191.248,191.248,191.248
0.0007897	-8437141.06	0,2.64411e-06,6.0758e-06,1.05297e-05,1.63102e-05,2.38126e-05,3.35496e-05,4.6187e-05,6.25887e-05,8.38758e-05,0.000111504,0.000147361,0.000193899,0.000254299,0.00033269,0.00043443,0.000566477,0.000737855,0.00096028,0.00124896,0.00162363,0.00210989,0.002741,0.00356009,0.00462317,0.0060029,0.0077936,0.0101177,0.013134,0.0170489,0.0221298,0.0287241,inf	0.402333,0.402333,0.402333,36.4324,642.455,733.233,302.727,290.269,270.641,273.399,390.869,453.377,385.141,341.216,339.782,329.43,340.65,373.335,425.428,438.476,416.904,424.595,452.12,434.183,402.107,422.145,411.69,262.706,262.706,191.131,191.131,191.131
