0.000660881	-309128.68	0,9.45113e-05,0.000223833,0.000400785,0.000642911,0.000974216,0.00142755,0.00204784,0.00289661,0.00405798,0.00564711,0.00782153,0.0107968,0.014868,0.0204386,0.0280609,inf	459.158,459.158,362.295,343.577,364.36,378.508,390.598,401.017,403.348,392.734,385.434,376.334,316.763,289.434,289.434,289.434
0.000678724	-309117.35	0,9.45113e-05,0.000223833,0.000400785,0.000642911,0.000974216,0.00142755,0.00204784,0.00289661,0.00405798,0.00564711,0.00782153,0.0107968,0.014868,0.0204386,0.0280609,inf	501.83,501.83,347.213,318.254,353.375,374.077,391.566,408.435,412.965,394.034,382.708,368.071,273.407,242.425,242.425,242.425
0.000694839	-309114.10	0,9.45113e-05,0.000223833,0.000400785,0.000642911,0.000974216,0.00142755,0.00204784,0.00289661,0.00405798,0.00564711,0.00782153,0.0107968,0.014868,0.0204386,0.0280609,inf	525.792,525.792,338.021,302.629,348.878,372.361,391.843,413.009,419.827,394.326,381.332,363.904,245.816,215.91,215.91,215.91
0.000709348	-309113.79	0,9.45113e-05,0.000223833,0.000400785,0.000642911,0.000974216,0.00142755,0.00204784,0.00289661,0.00405798,0.00564711,0.00782153,0.0107968,0.014868,0.0204386,0.0280609,inf	538.77,538.77,332.267,292.233,347.753,371.923,391.526,415.699,424.852,393.996,380.955,362.779,227.377,199.538,199.538,199.538
0.000722419	-309114.37	0,9.45113e-05,0.000223833,0.000400785,0.000642911,0.000974216,0.00142755,0.00204784,0.00289661,0.00405798,0.00564711,0.00782153,0.0107968,0.014868,0.0204386,0.0280609,inf	545.591,545.591,328.624,284.867,348.491,372.136,390.812,417.182,428.644,393.234,381.207,363.77,214.537,188.854,188.854,188.854
0.000734214	-309115.03	0,9.45113e-05,0.000223833,0.000400785,0.000642911,0.000974216,0.00142755,0.00204784,0.00289661,0.00405798,0.00564711,0.00782153,0.0107968,0.014868,0.0204386,0.0280609,inf	548.991,548.991,326.293,279.33,350.277,372.686,389.864,417.907,431.6,392.143,381.787,366.16,205.253,181.603,181.603,181.603
0.000744881	-309115.54	0,9.45113e-05,0.000223833,0.000400785,0.000642911,0.000974216,0.00142755,0.00204784,0.00289661,0.00405798,0.00564711,0.00782153,0.0107968,0.014868,0.0204386,0.0280609,inf	550.483,550.483,324.777,274.932,352.646,373.408,388.793,418.17,433.989,390.794,382.484,369.424,198.297,176.527,176.527,176.527
0.000754549	-309115.87	0,9.45113e-05,0.000223833,0.000400785,0.000642911,0.000974216,0.00142755,0.00204784,0.00289661,0.00405798,0.00564711,0.00782153,0.0107968,0.014868,0.0204386,0.0280609,inf	550.919,550.919,323.775,271.26,355.324,374.203,387.671,418.163,435.996,389.244,383.166,373.198,192.906,172.879,172.879,172.879
0.000763329	-309116.05	0,9.45113e-05,0.000223833,0.000400785,0.000642911,0.000974216,0.00142755,0.00204784,0.00289661,0.00405798,0.00564711,0.00782153,0.0107968,0.014868,0.0204386,0.0280609,inf	550.785,550.785,323.098,268.066,358.143,375.016,386.541,418.006,437.749,387.542,383.756,377.238,188.593,170.192,170.192,170.192
0.000771318	-309116.12	0,9.45113e-05,0.000223833,0.000400785,0.000642911,0.000974216,0.00142755,0.00204784,0.00289661,0.00405798,0.00564711,0.00782153,0.0107968,0.014868,0.0204386,0.0280609,inf	550.353,550.353,322.636,265.195,361.005,375.812,385.428,417.776,439.337,385.73,384.216,381.385,185.041,168.166,168.166,168.166
0.0007786	-309116.14	0,9.45113e-05,0.000223833,0.000400785,0.000642911,0.000974216,0.00142755,0.00204784,0.00289661,0.00405798,0.00564711,0.00782153,0.0107968,0.014868,0.0204386,0.0280609,inf	549.782,549.782,322.32,262.551,363.848,376.568,384.341,417.519,440.823,383.845,384.532,385.539,182.041,166.605,166.605,166.605
0.000785248	-309116.14	0,9.45113e-05,0.000223833,0.000400785,0.000642911,0.000974216,0.00142755,0.00204784,0.00289661,0.00405798,0.00564711,0.00782153,0.0107968,0.014868,0.0204386,0.0280609,inf	549.161,549.161,322.11,260.075,366.639,377.275,383.286,417.262,442.248,381.913,384.705,389.638,179.45,165.375,165.375,165.375
0.000791323	-309116.12	0,9.45113e-05,0.000223833,0.000400785,0.000642911,0.000974216,0.00142755,0.00204784,0.00289661,0.00405798,0.00564711,0.00782153,0.0107968,0.014868,0.0204386,0.0280609,inf	548.538,548.538,321.982,257.726,369.358,377.923,382.263,417.02,443.642,379.958,384.743,393.647,177.17,164.385,164.385,164.385
0.000796883	-309116.10	0,9.45113e-05,0.000223833,0.000400785,0.000642911,0.000974216,0.00142755,0.00204784,0.00289661,0.00405798,0.00564711,0.00782153,0.0107968,0.014868,0.0204386,0.0280609,inf	547.939,547.939,321.921,255.479,371.995,378.511,381.269,416.799,445.023,377.997,384.657,397.546,175.132,163.571,163.571,163.571
0.000801961	-309116.09	0,9.45113e-05,0.000223833,0.000400785,0.000642911,0.000974216,0.00142755,0.00204784,0.00289661,0.00405798,0.00564711,0.00782153,0.0107968,0.014868,0.0204386,0.0280609,inf	547.145,547.145,321.798,253.241,374.458,378.978,380.276,416.595,446.377,376.027,384.448,401.302,173.28,162.879,162.879,162.879
0.000806627	-309116.10	0,9.45113e-05,0.000223833,0.000400785,0.000642911,0.000974216,0.00142755,0.00204784,0.00289661,0.00405798,0.00564711,0.00782153,0.0107968,0.014868,0.0204386,0.0280609,inf	546.61,546.61,321.827,251.135,376.9,379.429,379.335,416.431,447.754,374.083,384.152,404.951,171.59,162.29,162.29,162.29
0.000810911	-309116.11	0,9.45113e-05,0.000223833,0.000400785,0.000642911,0.000974216,0.00142755,0.00204784,0.00289661,0.00405798,0.00564711,0.00782153,0.0107968,0.014868,0.0204386,0.0280609,inf	546.148,546.148,321.928,249.111,379.281,379.835,378.42,416.29,449.146,372.167,383.773,408.49,170.033,161.777,161.777,161.777
0.000814844	-309116.13	0,9.45113e-05,0.000223833,0.000400785,0.000642911,0.000974216,0.00142755,0.00204784,0.00289661,0.00405798,0.00564711,0.00782153,0.0107968,0.014868,0.0204386,0.0280609,inf	545.722,545.722,322.079,247.152,381.593,380.191,377.525,416.166,450.555,370.28,383.321,411.92,168.586,161.323,161.323,161.323
0.000818458	-309116.16	0,9.45113e-05,0.000223833,0.000400785,0.000642911,0.000974216,0.00142755,0.00204784,0.00289661,0.00405798,0.00564711,0.00782153,0.0107968,0.014868,0.0204386,0.0280609,inf	545.322,545.322,322.27,245.248,383.838,380.497,376.646,416.054,451.979,368.426,382.804,415.247,167.233,160.914,160.914,160.914
0.00082178	-309116.19	0,9.45113e-05,0.000223833,0.000400785,0.000642911,0.000974216,0.00142755,0.00204784,0.00289661,0.00405798,0.00564711,0.00782153,0.0107968,0.014868,0.0204386,0.0280609,inf	544.947,544.947,322.498,243.394,386.018,380.758,375.781,415.952,453.42,366.606,382.232,418.476,165.96,160.538,160.538,160.538
