0.000220532	-5999847.63	0,1.49182e-06,4.08033e-06,8.57178e-06,1.63651e-05,2.98876e-05,5.33511e-05,9.40637e-05,0.000164706,0.00028728,0.000499964,0.000869002,0.00150933,0.0026204,0.00454827,0.0078934,inf	4.20216,4.20216,10.5177,20.9203,39.5841,73.7185,138.473,268.108,468.462,712.168,1308.2,1924.26,1725.66,1677.67,1677.67,1677.67
0.000214861	-5984231.82	0,1.49182e-06,4.08033e-06,8.57178e-06,1.63651e-05,2.98876e-05,5.33511e-05,9.40637e-05,0.000164706,0.00028728,0.000499964,0.000869002,0.00150933,0.0026204,0.00454827,0.0078934,inf	1.09508,1.09508,1.09508,1.09508,1.88704,6.71802,24.4792,98.6173,289.797,522.022,1237.86,2625.61,2609.02,3020.9,3020.9,3020.9
0.000205204	-5979379.46	0,1.49182e-06,4.08033e-06,8.57178e-06,1.63651e-05,2.98876e-05,5.33511e-05,9.40637e-05,0.000164706,0.00028728,0.000499964,0.000869002,0.00150933,0.0026204,0.00454827,0.0078934,inf	1.09508,1.09508,1.09508,1.09508,1.09508,1.09508,4.81602,43.0249,217.32,414.982,1118.61,3228.89,4244.83,11739,11739,11739
0.0002052	-5977340.39	0,1.49182e-06,4.08033e-06,8.57178e-06,1.63651e-05,2.98876e-05,5.33511e-05,9.40637e-05,0.000164706,0.00028728,0.000499964,0.000869002,0.00150933,0.0026204,0.00454827,0.0078934,inf	1.09508,1.09508,1.09508,1.09508,1.09508,1.09508,1.09508,20.2569,181.87,347.759,999.09,3852.97,10297.8,134845,134845,134845
