time_index	left_time_boundary	right_time_boundary	lambda
0	0	1.43828e-05	1.18023
1	1.43828e-05	3.1207e-05	1.18023
2	3.1207e-05	5.08872e-05	1.18023
3	5.08872e-05	7.39081e-05	1.18023
4	7.39081e-05	0.000100837	1.18023
5	0.000100837	0.000132337	1.18023
6	0.000132337	0.000169183	1.18023
7	0.000169183	0.000212285	1.18023
8	0.000212285	0.000262703	1.18023
9	0.000262703	0.00032168	1.18023
10	0.00032168	0.000390668	3.14855
11	0.000390668	0.000471367	37.1412
12	0.000471367	0.000565764	247.119
13	0.000565764	0.000676185	1006.95
14	0.000676185	0.00080535	3011.13
15	0.00080535	0.000956441	5916.5
16	0.000956441	0.00113318	7451.68
17	0.00113318	0.00133992	8548.8
18	0.00133992	0.00158175	8950.51
19	0.00158175	0.00186464	8917.13
20	0.00186464	0.00219554	8823.89
21	0.00219554	0.00258262	8761.01
22	0.00258262	0.0030354	8105.39
23	0.0030354	0.00356504	6090.84
24	0.00356504	0.00418459	3946.6
25	0.00418459	0.00490931	2311.81
26	0.00490931	0.00575705	1529.25
27	0.00575705	0.00674869	1380.36
28	0.00674869	0.00790866	1380.36
29	0.00790866	0.00926554	1.18023
30	0.00926554	0.0108527	1.18023
31	0.0108527	inf	1.18023
