time_index	left_time_boundary	right_time_boundary	lambda
0	0	4.21184e-05	716.844
1	4.21184e-05	9.13864e-05	716.844
2	9.13864e-05	0.000149018	315.431
3	0.000149018	0.000216432	310.064
4	0.000216432	0.000295289	414.627
5	0.000295289	0.000387533	418.367
6	0.000387533	0.000495435	358.532
7	0.000495435	0.000621654	340.863
8	0.000621654	0.000769298	341.097
9	0.000769298	0.000942005	352.177
10	0.000942005	0.00114403	360.21
11	0.00114403	0.00138035	363.205
12	0.00138035	0.00165678	381.365
13	0.00165678	0.00198013	419.885
14	0.00198013	0.00235838	466.791
15	0.00235838	0.00280083	494.01
16	0.00280083	0.00331839	486.999
17	0.00331839	0.00392381	473.328
18	0.00392381	0.00463199	458.034
19	0.00463199	0.00546039	444.956
20	0.00546039	0.00642941	429.824
21	0.00642941	0.00756292	409.429
22	0.00756292	0.00888884	386.024
23	0.00888884	0.0104398	361.434
24	0.0104398	0.0122541	332.41
25	0.0122541	0.0143764	352.277
26	0.0143764	0.0168589	513.028
27	0.0168589	0.0197628	733.633
28	0.0197628	0.0231597	733.633
29	0.0231597	0.0271331	83175.4
30	0.0271331	0.0317811	83175.4
31	0.0317811	inf	83175.4
