LogLikelihood = -40413.000693785208568

y0 1.0905538145402213779
y0_prime 0
y1 0.94127563446209572273
y1_prime 0
y2 1.0864559307539360944
y2_prime 0
y3 1.6197952187977020522
y3_prime 0
rho 0.00013698902895218018419
rho.alpha 0.43525808803816595782
r_ii 0.99993111486232744145
theta 0.00047868217325911774146
