LogLikelihood = -209275.42890905373497

y0 0.85288503235211832187
y0_prime 0
y1 1.0622384806319766781
y1_prime 0
y2 1.019255060142518321
y2_prime 0
y3 2.013312083375046857
y3_prime 0
rho 8.469375228798433177e-05
theta 0.00049829743542146459363
