6.92413e-06	-286095.91	0,4.88843e-08,1.33705e-07,2.80883e-07,5.36256e-07,9.79365e-07,1.74822e-06,3.0823e-06,5.39713e-06,9.41368e-06,1.6383e-05,2.84757e-05,4.94583e-05,8.58662e-05,0.000149039,0.000258653,inf	1664.73,1664.73,3624.17,5606.48,6696.34,7015.23,9740.68,14681.8,24225.8,36653.8,37015.9,34750.6,40241.7,68608.7,68608.7,68608.7
6.37753e-06	-285969.27	0,4.88843e-08,1.33705e-07,2.80883e-07,5.36256e-07,9.79365e-07,1.74822e-06,3.0823e-06,5.39713e-06,9.41368e-06,1.6383e-05,2.84757e-05,4.94583e-05,8.58662e-05,0.000149039,0.000258653,inf	321.638,321.638,1552.57,3624.83,4586.4,3465.41,4512.41,8322.15,19604.3,39200,37820.1,33638.4,44864.3,254957,254957,254957
6.37739e-06	-285947.77	0,4.88843e-08,1.33705e-07,2.80883e-07,5.36256e-07,9.79365e-07,1.74822e-06,3.0823e-06,5.39713e-06,9.41368e-06,1.6383e-05,2.84757e-05,4.94583e-05,8.58662e-05,0.000149039,0.000258653,inf	115.941,115.941,1237.22,4365.29,5771.19,2853.78,2895,5471.19,16707.6,42880.8,38590.6,32694.3,48968.4,4.15891e+06,4.15891e+06,4.15891e+06
