LogLikelihood = -177235.60412601567805

y0 0.8627347771209017413
y0_prime 0
y1 1.1767815028756973827
y1_prime 0
y2 0.82964261467995747967
y2_prime 0
y3 1.9938745845576217874
y3_prime 0
rho 0.0060438751171806269491
rho.alpha 0.83047911753708425486
r_ii 0.99994490715831418903
theta 0.0025923020031833709891
