time_index	left_time_boundary	right_time_boundary	lambda
0	0	4.11182e-06	129.076
1	4.11182e-06	8.92163e-06	129.076
2	8.92163e-06	1.45479e-05	4595.24
3	1.45479e-05	2.11292e-05	714.088
4	2.11292e-05	2.88277e-05	1604.47
5	2.88277e-05	3.78331e-05	5132.68
6	3.78331e-05	4.8367e-05	7433.18
7	4.8367e-05	6.06892e-05	6447.25
8	6.06892e-05	7.5103e-05	4913.16
9	7.5103e-05	9.19635e-05	3962.92
10	9.19635e-05	0.000111686	3580.59
11	0.000111686	0.000134757	3442.47
12	0.000134757	0.000161743	3323.12
13	0.000161743	0.000193311	3308.64
14	0.000193311	0.000230238	3572.27
15	0.000230238	0.000273432	4133.97
16	0.000273432	0.000323959	4791.25
17	0.000323959	0.000383063	5182.68
18	0.000383063	0.0004522	5191.68
19	0.0004522	0.000533072	5127.77
20	0.000533072	0.000627673	5263.15
21	0.000627673	0.000738332	5445.47
22	0.000738332	0.000867776	5591.91
23	0.000867776	0.00101919	5991.54
24	0.00101919	0.00119631	7025.27
25	0.00119631	0.0014035	7599.59
26	0.0014035	0.00164585	9072.61
27	0.00164585	0.00192935	17246.9
28	0.00192935	0.00226097	17246.9
29	0.00226097	0.00264888	838532
30	0.00264888	0.00310264	838532
31	0.00310264	inf	838532
