6.64977e-05	-40936.09	0,4.11182e-06,8.92163e-06,1.45479e-05,2.11292e-05,2.88277e-05,3.78331e-05,4.8367e-05,6.06892e-05,7.5103e-05,9.19635e-05,0.000111686,0.000134757,0.000161743,0.000193311,0.000230238,0.000273432,0.000323959,0.000383063,0.0004522,0.000533072,0.000627673,0.000738332,0.000867776,0.00101919,0.00119631,0.0014035,0.00164585,0.00192935,0.00226097,0.00264888,0.00310264,inf	2379.24,2379.24,3397.21,3534.59,3934.43,4382.01,4586.68,4549.78,4397.97,4234.92,4120.31,4063.33,4044.5,4072.67,4163.24,4296.34,4422.32,4499.44,4521.42,4519.6,4521.33,4518.13,4501.53,4489.77,4500.72,4521.82,4575.06,4744.37,4744.37,5023.58,5023.58,5023.58
7.18321e-05	-40928.15	0,4.11182e-06,8.92163e-06,1.45479e-05,2.11292e-05,2.88277e-05,3.78331e-05,4.8367e-05,6.06892e-05,7.5103e-05,9.19635e-05,0.000111686,0.000134757,0.000161743,0.000193311,0.000230238,0.000273432,0.000323959,0.000383063,0.0004522,0.000533072,0.000627673,0.000738332,0.000867776,0.00101919,0.00119631,0.0014035,0.00164585,0.00192935,0.00226097,0.00264888,0.00310264,inf	1588.88,1588.88,3052.68,3121.39,3742.76,4553.01,4935.42,4845.99,4546.34,4244.54,4043.22,3946.03,3913.62,3959.44,4111.8,4343.52,4572.19,4718.6,4765.87,4772.31,4788.29,4794.76,4774.19,4764.25,4801.64,4861.51,5003.53,5438.19,5438.19,6205.7,6205.7,6205.7
7.66866e-05	-40922.85	0,4.11182e-06,8.92163e-06,1.45479e-05,2.11292e-05,2.88277e-05,3.78331e-05,4.8367e-05,6.06892e-05,7.5103e-05,9.19635e-05,0.000111686,0.000134757,0.000161743,0.000193311,0.000230238,0.000273432,0.000323959,0.000383063,0.0004522,0.000533072,0.000627673,0.000738332,0.000867776,0.00101919,0.00119631,0.0014035,0.00164585,0.00192935,0.00226097,0.00264888,0.00310264,inf	1174.99,1174.99,2910.52,2818.41,3572.17,4691.57,5234.05,5085.22,4648.04,4230.58,3963.98,3837.95,3794.41,3849.67,4042.78,4345.08,4652.28,4853.73,4921.56,4937.6,4971.27,4992.42,4974.71,4975.59,5051.02,5166.28,5438.2,6270.08,6270.08,8003.46,8003.46,8003.46
8.11378e-05	-40918.96	0,4.11182e-06,8.92163e-06,1.45479e-05,2.11292e-05,2.88277e-05,3.78331e-05,4.8367e-05,6.06892e-05,7.5103e-05,9.19635e-05,0.000111686,0.000134757,0.000161743,0.000193311,0.000230238,0.000273432,0.000323959,0.000383063,0.0004522,0.000533072,0.000627673,0.000738332,0.000867776,0.00101919,0.00119631,0.0014035,0.00164585,0.00192935,0.00226097,0.00264888,0.00310264,inf	931.221,931.221,2879.5,2577.68,3415.82,4806.89,5496.56,5286.03,4723.8,4210.82,3895.44,3748.94,3696.26,3755.87,3976.14,4329.5,4696.38,4939.91,5022.22,5046.07,5096.86,5133.75,5122.46,5140.38,5263.37,5451.39,5904.48,7338.31,7338.31,11457.2,11457.2,11457.2
8.52396e-05	-40915.94	0,4.11182e-06,8.92163e-06,1.45479e-05,2.11292e-05,2.88277e-05,3.78331e-05,4.8367e-05,6.06892e-05,7.5103e-05,9.19635e-05,0.000111686,0.000134757,0.000161743,0.000193311,0.000230238,0.000273432,0.000323959,0.000383063,0.0004522,0.000533072,0.000627673,0.000738332,0.000867776,0.00101919,0.00119631,0.0014035,0.00164585,0.00192935,0.00226097,0.00264888,0.00310264,inf	774.074,774.074,2913.98,2374.43,3269.95,4903.7,5729.58,5456.87,4781.81,4190.13,3838.56,3677.8,3617.65,3678.55,3917.19,4308.28,4720.98,4996.28,5087.6,5116.59,5182.32,5234.12,5231.01,5270.53,5449.6,5729.99,6431.87,8830.4,8830.4,22523.4,22523.4,22523.4
8.90334e-05	-40913.53	0,4.11182e-06,8.92163e-06,1.45479e-05,2.11292e-05,2.88277e-05,3.78331e-05,4.8367e-05,6.06892e-05,7.5103e-05,9.19635e-05,0.000111686,0.000134757,0.000161743,0.000193311,0.000230238,0.000273432,0.000323959,0.000383063,0.0004522,0.000533072,0.000627673,0.000738332,0.000867776,0.00101919,0.00119631,0.0014035,0.00164585,0.00192935,0.00226097,0.00264888,0.00310264,inf	665.015,665.015,2988.35,2195.74,3133.03,4986.13,5938.01,5603.16,4826.37,4169.79,3791.64,3621.29,3555.03,3615.37,3866.62,4286.2,4734.63,5033.8,5129.72,5161.18,5239.13,5304.18,5309.99,5374.66,5618.13,6014.03,7059.03,11183.9,11183.9,195807,195807,195807
9.23892e-05	-40911.56	0,4.11182e-06,8.92163e-06,1.45479e-05,2.11292e-05,2.88277e-05,3.78331e-05,4.8367e-05,6.06892e-05,7.5103e-05,9.19635e-05,0.000111686,0.000134757,0.000161743,0.000193311,0.000230238,0.000273432,0.000323959,0.000383063,0.0004522,0.000533072,0.000627673,0.000738332,0.000867776,0.00101919,0.00119631,0.0014035,0.00164585,0.00192935,0.00226097,0.00264888,0.00310264,inf	584.269,584.269,3085.48,2033.81,3002.77,5046.59,6113.41,5718.16,4851.83,4143.53,3747.47,3571.98,3501.55,3560.9,3821.42,4263.37,4740.09,5057.29,5154.53,5186.29,5273.9,5350.32,5365.38,5458.27,5774.76,6314.43,7841.52,15798.9,15798.9,840601,840601,840601
9.23892e-05	-40910.00	0,4.11182e-06,8.92163e-06,1.45479e-05,2.11292e-05,2.88277e-05,3.78331e-05,4.8367e-05,6.06892e-05,7.5103e-05,9.19635e-05,0.000111686,0.000134757,0.000161743,0.000193311,0.000230238,0.000273432,0.000323959,0.000383063,0.0004522,0.000533072,0.000627673,0.000738332,0.000867776,0.00101919,0.00119631,0.0014035,0.00164585,0.00192935,0.00226097,0.00264888,0.00310264,inf	516.512,516.512,3165.96,1868.69,2854.73,5056.57,6214.08,5761.56,4823.88,4080.74,3676.63,3500.67,3428.25,3486.22,3751.76,4208.5,4706.08,5038.01,5138.06,5172.16,5269.53,5357.63,5384.97,5470.08,5863.89,6314.43,7841.52,15798.9,15798.9,840600,840600,840600
9.23892e-05	-40909.86	0,4.11182e-06,8.92163e-06,1.45479e-05,2.11292e-05,2.88277e-05,3.78331e-05,4.8367e-05,6.06892e-05,7.5103e-05,9.19635e-05,0.000111686,0.000134757,0.000161743,0.000193311,0.000230238,0.000273432,0.000323959,0.000383063,0.0004522,0.000533072,0.000627673,0.000738332,0.000867776,0.00101919,0.00119631,0.0014035,0.00164585,0.00192935,0.00226097,0.00264888,0.00310264,inf	462.118,462.118,3279.32,1727.35,2726.01,5086.62,6344.42,5838.09,4830.21,4052.45,3639.76,3461.91,3385.03,3438.78,3706.75,4175.61,4690.9,5033.8,5132.63,5165.51,5269.93,5367.75,5405.65,5523.47,5904.35,6314.43,7841.52,15798.9,15798.9,840588,840588,840588
9.23892e-05	-40909.80	0,4.11182e-06,8.92163e-06,1.45479e-05,2.11292e-05,2.88277e-05,3.78331e-05,4.8367e-05,6.06892e-05,7.5103e-05,9.19635e-05,0.000111686,0.000134757,0.000161743,0.000193311,0.000230238,0.000273432,0.000323959,0.000383063,0.0004522,0.000533072,0.000627673,0.000738332,0.000867776,0.00101919,0.00119631,0.0014035,0.00164585,0.00192935,0.00226097,0.00264888,0.00310264,inf	414.836,414.836,3402.82,1597.09,2601.45,5111.11,6471.61,5916.22,4843.9,4036,3617.3,3438.62,3356.98,3405.55,3674.83,4154.46,4685.72,5037.35,5132.48,5161.94,5271.83,5378.39,5426.38,5577.53,5986.9,6314.43,7841.52,15798.9,15798.9,840561,840561,840561
9.23892e-05	-40909.78	0,4.11182e-06,8.92163e-06,1.45479e-05,2.11292e-05,2.88277e-05,3.78331e-05,4.8367e-05,6.06892e-05,7.5103e-05,9.19635e-05,0.000111686,0.000134757,0.000161743,0.000193311,0.000230238,0.000273432,0.000323959,0.000383063,0.0004522,0.000533072,0.000627673,0.000738332,0.000867776,0.00101919,0.00119631,0.0014035,0.00164585,0.00192935,0.00226097,0.00264888,0.00310264,inf	372.41,372.41,3528.52,1474.87,2478.41,5123.98,6585.67,5986.54,4856.52,4023.42,3601.71,3423.66,3337.55,3380.59,3650.55,4140.09,4686.14,5044.98,5134.65,5159.23,5273.59,5388.52,5447.29,5577.53,5987.73,6314.43,7841.52,15798.9,15798.9,840558,840558,840558
9.23892e-05	-40909.74	0,4.11182e-06,8.92163e-06,1.45479e-05,2.11292e-05,2.88277e-05,3.78331e-05,4.8367e-05,6.06892e-05,7.5103e-05,9.19635e-05,0.000111686,0.000134757,0.000161743,0.000193311,0.000230238,0.000273432,0.000323959,0.000383063,0.0004522,0.000533072,0.000627673,0.000738332,0.000867776,0.00101919,0.00119631,0.0014035,0.00164585,0.00192935,0.00226097,0.00264888,0.00310264,inf	334.235,334.235,3656.83,1361.53,2359.67,5130.2,6691.58,6049.6,4866.12,4012,3589.83,3413.75,3323.56,3360.91,3631.14,4129.96,4690,5055.03,5138.11,5156.89,5275.23,5398.2,5467.21,5631.15,6061.75,6314.43,7841.52,15798.9,15798.9,840517,840517,840517
9.23892e-05	-40909.74	0,4.11182e-06,8.92163e-06,1.45479e-05,2.11292e-05,2.88277e-05,3.78331e-05,4.8367e-05,6.06892e-05,7.5103e-05,9.19635e-05,0.000111686,0.000134757,0.000161743,0.000193311,0.000230238,0.000273432,0.000323959,0.000383063,0.0004522,0.000533072,0.000627673,0.000738332,0.000867776,0.00101919,0.00119631,0.0014035,0.00164585,0.00192935,0.00226097,0.00264888,0.00310264,inf	299.363,299.363,3783.76,1255.96,2245.09,5129.8,6788.22,6105.05,4872.27,4000.66,3580.14,3407.14,3313.21,3344.72,3614.86,4122.41,4695.72,5066.05,5141.54,5153.73,5275.55,5406.41,5485.75,5684.38,6209.55,6364.63,7841.52,15798.9,15798.9,840474,840474,840474
9.23892e-05	-40909.76	0,4.11182e-06,8.92163e-06,1.45479e-05,2.11292e-05,2.88277e-05,3.78331e-05,4.8367e-05,6.06892e-05,7.5103e-05,9.19635e-05,0.000111686,0.000134757,0.000161743,0.000193311,0.000230238,0.000273432,0.000323959,0.000383063,0.0004522,0.000533072,0.000627673,0.000738332,0.000867776,0.00101919,0.00119631,0.0014035,0.00164585,0.00192935,0.00226097,0.00264888,0.00310264,inf	267.506,267.506,3893.99,1156.84,2139.82,5138.59,6883.18,6150.73,4871,3986,3569.45,3400.34,3303.25,3329.75,3600.43,4116.57,4702.44,5077.45,5154.05,5149.18,5273.93,5413.66,5494.9,5710.42,6358.52,6715.74,8052.2,15866.3,15866.3,840220,840220,840220
9.23892e-05	-40909.79	0,4.11182e-06,8.92163e-06,1.45479e-05,2.11292e-05,2.88277e-05,3.78331e-05,4.8367e-05,6.06892e-05,7.5103e-05,9.19635e-05,0.000111686,0.000134757,0.000161743,0.000193311,0.000230238,0.000273432,0.000323959,0.000383063,0.0004522,0.000533072,0.000627673,0.000738332,0.000867776,0.00101919,0.00119631,0.0014035,0.00164585,0.00192935,0.00226097,0.00264888,0.00310264,inf	238.648,238.648,4018.02,1066.45,2034.92,5130.26,6967.33,6195.61,4872.85,3975.41,3563.39,3398.76,3298.14,3318.37,3588.18,4111.94,4709.77,5088.53,5155.95,5143.01,5270.42,5417.63,5509.16,5762.9,6520.06,7085.92,8412.16,15866.3,15866.3,839995,839995,839995
9.23892e-05	-40909.84	0,4.11182e-06,8.92163e-06,1.45479e-05,2.11292e-05,2.88277e-05,3.78331e-05,4.8367e-05,6.06892e-05,7.5103e-05,9.19635e-05,0.000111686,0.000134757,0.000161743,0.000193311,0.000230238,0.000273432,0.000323959,0.000383063,0.0004522,0.000533072,0.000627673,0.000738332,0.000867776,0.00101919,0.00119631,0.0014035,0.00164585,0.00192935,0.00226097,0.00264888,0.00310264,inf	212.116,212.116,4135.98,982.633,1935.19,5119.79,7046.76,6235.76,4872.16,3964.24,3557.87,3398.33,3294.4,3308.29,3577.02,4108.08,4717.45,5099.44,5157.03,5135.45,5265.09,5419.58,5522.37,5767.52,6537.48,7085.92,8412.16,15866.3,15866.3,839994,839994,839994
9.23892e-05	-40909.82	0,4.11182e-06,8.92163e-06,1.45479e-05,2.11292e-05,2.88277e-05,3.78331e-05,4.8367e-05,6.06892e-05,7.5103e-05,9.19635e-05,0.000111686,0.000134757,0.000161743,0.000193311,0.000230238,0.000273432,0.000323959,0.000383063,0.0004522,0.000533072,0.000627673,0.000738332,0.000867776,0.00101919,0.00119631,0.0014035,0.00164585,0.00192935,0.00226097,0.00264888,0.00310264,inf	187.818,187.818,4247.71,905.123,1840.71,5107.98,7122.3,6271.84,4869.33,3952.57,3552.78,3398.88,3291.82,3299.31,3566.84,4104.98,4725.7,5110.67,5158.08,5127.63,5259.48,5421.29,5534.86,5821.84,6620.87,7085.92,8412.16,15866.3,15866.3,839966,839966,839966
9.23892e-05	-40909.83	0,4.11182e-06,8.92163e-06,1.45479e-05,2.11292e-05,2.88277e-05,3.78331e-05,4.8367e-05,6.06892e-05,7.5103e-05,9.19635e-05,0.000111686,0.000134757,0.000161743,0.000193311,0.000230238,0.000273432,0.000323959,0.000383063,0.0004522,0.000533072,0.000627673,0.000738332,0.000867776,0.00101919,0.00119631,0.0014035,0.00164585,0.00192935,0.00226097,0.00264888,0.00310264,inf	165.722,165.722,4352.96,833.529,1751.32,5095.59,7195.12,6304.79,4864.91,3940.62,3548.15,3400.25,3290.14,3291.19,3557.33,4102.31,4734.14,5121.78,5158.62,5119,5252.94,5422.18,5547.49,5856.81,6620.87,7085.92,8412.16,15866.3,15866.3,839958,839958,839958
9.23892e-05	-40909.82	0,4.11182e-06,8.92163e-06,1.45479e-05,2.11292e-05,2.88277e-05,3.78331e-05,4.8367e-05,6.06892e-05,7.5103e-05,9.19635e-05,0.000111686,0.000134757,0.000161743,0.000193311,0.000230238,0.000273432,0.000323959,0.000383063,0.0004522,0.000533072,0.000627673,0.000738332,0.000867776,0.00101919,0.00119631,0.0014035,0.00164585,0.00192935,0.00226097,0.00264888,0.00310264,inf	145.717,145.717,4451.5,767.445,1666.8,5082.79,7265.47,6334.92,4859.08,3928.43,3543.87,3402.32,3289.25,3283.76,3548.4,4100.04,4742.8,5132.94,5158.92,5109.98,5246,5422.81,5559.49,5912.95,6812.79,7085.92,8425.37,15866.3,15866.3,839891,839891,839891
9.56617e-05	-40909.85	0,4.11182e-06,8.92163e-06,1.45479e-05,2.11292e-05,2.88277e-05,3.78331e-05,4.8367e-05,6.06892e-05,7.5103e-05,9.19635e-05,0.000111686,0.000134757,0.000161743,0.000193311,0.000230238,0.000273432,0.000323959,0.000383063,0.0004522,0.000533072,0.000627673,0.000738332,0.000867776,0.00101919,0.00119631,0.0014035,0.00164585,0.00192935,0.00226097,0.00264888,0.00310264,inf	129.076,129.076,4595.24,714.088,1604.47,5132.68,7433.18,6447.25,4913.16,3962.92,3580.59,3442.47,3323.12,3308.64,3572.27,4133.97,4791.25,5182.68,5191.68,5127.77,5263.15,5445.47,5591.91,5991.54,7025.27,7599.59,9072.61,17246.9,17246.9,838532,838532,838532
