LogLikelihood = -294886.8901856970042

y0 0.8053168190486729161
y0_prime 0
y1 0.76323868593095078872
y1_prime 0
y2 1.1288953040283642437
y2_prime 0
y3 1.7321586905198897988
y3_prime 0
rho 0.00049282917750797931074
theta 0.0048634585487486890407
