0.000357503	-7882567.32	0,8.88905e-07,2.05981e-06,3.60219e-06,5.63389e-06,8.31014e-06,1.18354e-05,1.64791e-05,2.2596e-05,3.06534e-05,4.12671e-05,5.52479e-05,7.36641e-05,9.79229e-05,0.000129878,0.00017197,0.000227416,0.000300453,0.00039666,0.000523389,0.000690322,0.000910214,0.00119987,0.00158141,0.002084,0.00274604,0.0036181,0.00476683,0.00627999,0.0082732,0.0108987,0.0143572,inf	80.8224,80.8224,144.932,188.53,221.866,246.804,265.623,279.123,288.599,297.567,309.001,323.452,340.714,361.315,386.981,420.513,465.768,528.064,614.314,731.327,874.255,1002.02,1048.02,1012.94,955.712,908.322,871.589,828.666,828.666,799.488,799.488,799.488
0.000401577	-7873237.43	0,8.88905e-07,2.05981e-06,3.60219e-06,5.63389e-06,8.31014e-06,1.18354e-05,1.64791e-05,2.2596e-05,3.06534e-05,4.12671e-05,5.52479e-05,7.36641e-05,9.79229e-05,0.000129878,0.00017197,0.000227416,0.000300453,0.00039666,0.000523389,0.000690322,0.000910214,0.00119987,0.00158141,0.002084,0.00274604,0.0036181,0.00476683,0.00627999,0.0082732,0.0108987,0.0143572,inf	24.4572,24.4572,76.0912,123.781,163.354,191.733,210.294,219.564,221.218,221.106,224.033,230.719,240.686,254.665,275.273,306.657,354.452,426.576,533.933,689.561,895.74,1104.76,1201.38,1157.94,1067.96,989.321,924.735,842.864,842.864,789.9,789.9,789.9
0.000444073	-7869059.79	0,8.88905e-07,2.05981e-06,3.60219e-06,5.63389e-06,8.31014e-06,1.18354e-05,1.64791e-05,2.2596e-05,3.06534e-05,4.12671e-05,5.52479e-05,7.36641e-05,9.79229e-05,0.000129878,0.00017197,0.000227416,0.000300453,0.00039666,0.000523389,0.000690322,0.000910214,0.00119987,0.00158141,0.002084,0.00274604,0.0036181,0.00476683,0.00627999,0.0082732,0.0108987,0.0143572,inf	10.0709,10.0709,54.0387,109.031,160.329,197.563,220.088,227.765,223.106,215.272,211.066,210.917,213.818,220.605,234.588,260.72,305.502,378.17,491.72,662.647,898.604,1154.47,1289.61,1249,1142.32,1044.37,958.878,842.36,842.36,770.414,770.414,770.414
0.000484887	-7866527.90	0,8.88905e-07,2.05981e-06,3.60219e-06,5.63389e-06,8.31014e-06,1.18354e-05,1.64791e-05,2.2596e-05,3.06534e-05,4.12671e-05,5.52479e-05,7.36641e-05,9.79229e-05,0.000129878,0.00017197,0.000227416,0.000300453,0.00039666,0.000523389,0.000690322,0.000910214,0.00119987,0.00158141,0.002084,0.00274604,0.0036181,0.00476683,0.00627999,0.0082732,0.0108987,0.0143572,inf	4.28673,4.28673,39.4977,98.7841,162.162,210.958,240.839,249.944,241.352,227.958,218.583,213.231,210.333,211.001,219.304,240.764,282.255,353.588,468.783,646.116,896.384,1178.31,1339.38,1304.85,1190.68,1081.28,979.836,832.712,832.712,745.849,745.849,745.849
0.000524333	-7864677.57	0,8.88905e-07,2.05981e-06,3.60219e-06,5.63389e-06,8.31014e-06,1.18354e-05,1.64791e-05,2.2596e-05,3.06534e-05,4.12671e-05,5.52479e-05,7.36641e-05,9.79229e-05,0.000129878,0.00017197,0.000227416,0.000300453,0.00039666,0.000523389,0.000690322,0.000910214,0.00119987,0.00158141,0.002084,0.00274604,0.0036181,0.00476683,0.00627999,0.0082732,0.0108987,0.0143572,inf	1.76414,1.76414,27.8992,86.2076,157.9,217.487,256.26,269.501,259.99,243.839,231.628,222.849,215.487,211.18,214.908,232.688,271.517,341.37,456.676,636.525,893.336,1189.03,1366.39,1338.07,1221.52,1105.71,991.815,817.772,817.772,719.439,719.439,719.439
0.000562713	-7863171.13	0,8.88905e-07,2.05981e-06,3.60219e-06,5.63389e-06,8.31014e-06,1.18354e-05,1.64791e-05,2.2596e-05,3.06534e-05,4.12671e-05,5.52479e-05,7.36641e-05,9.79229e-05,0.000129878,0.00017197,0.000227416,0.000300453,0.00039666,0.000523389,0.000690322,0.000910214,0.00119987,0.00158141,0.002084,0.00274604,0.0036181,0.00476683,0.00627999,0.0082732,0.0108987,0.0143572,inf	0.793899,0.793899,19.1993,72.7787,147.892,215.213,262.198,281.026,273.248,257.123,244.431,234.035,223.595,215.451,215.637,230.664,267.535,336.172,451.069,631.568,890.745,1192.85,1379.65,1356.67,1240.55,1121.56,997.73,800.076,800.076,693.233,693.233,693.233
0.000600254	-7861868.80	0,8.88905e-07,2.05981e-06,3.60219e-06,5.63389e-06,8.31014e-06,1.18354e-05,1.64791e-05,2.2596e-05,3.06534e-05,4.12671e-05,5.52479e-05,7.36641e-05,9.79229e-05,0.000129878,0.00017197,0.000227416,0.000300453,0.00039666,0.000523389,0.000690322,0.000910214,0.00119987,0.00158141,0.002084,0.00274604,0.0036181,0.00476683,0.00627999,0.0082732,0.0108987,0.0143572,inf	0.793163,0.793163,13.1709,60.6414,135.471,206.982,260.087,284.455,279.986,265.983,254.762,244.395,232.193,221.303,218.884,231.951,267.473,335.216,449.549,629.737,888.913,1192.9,1384.44,1365.71,1251.58,1131.49,999.58,781.257,781.257,668.456,668.456,668.456
0.00063712	-7860704.18	0,8.88905e-07,2.05981e-06,3.60219e-06,5.63389e-06,8.31014e-06,1.18354e-05,1.64791e-05,2.2596e-05,3.06534e-05,4.12671e-05,5.52479e-05,7.36641e-05,9.79229e-05,0.000129878,0.00017197,0.000227416,0.000300453,0.00039666,0.000523389,0.000690322,0.000910214,0.00119987,0.00158141,0.002084,0.00274604,0.0036181,0.00476683,0.00627999,0.0082732,0.0108987,0.0143572,inf	0.793163,0.793163,9.21658,50.928,123.514,196.325,253.037,281.88,281.181,270.498,262.082,253.024,240.212,227.562,223.363,235.133,269.803,336.936,450.681,630.037,887.818,1190.87,1383.92,1368.45,1257.16,1137.31,998.736,762.347,762.347,645.783,645.783,645.783
0.000673425	-7859641.82	0,8.88905e-07,2.05981e-06,3.60219e-06,5.63389e-06,8.31014e-06,1.18354e-05,1.64791e-05,2.2596e-05,3.06534e-05,4.12671e-05,5.52479e-05,7.36641e-05,9.79229e-05,0.000129878,0.00017197,0.000227416,0.000300453,0.00039666,0.000523389,0.000690322,0.000910214,0.00119987,0.00158141,0.002084,0.00274604,0.0036181,0.00476683,0.00627999,0.0082732,0.0108987,0.0143572,inf	0.793163,0.793163,6.67777,43.6754,113.599,185.828,243.931,275.729,278.434,271.483,266.601,259.747,247.244,233.679,228.406,239.43,273.641,340.389,453.568,631.795,887.341,1187.66,1380.04,1366.99,1259,1140.27,996.143,743.979,743.979,625.521,625.521,625.521
0.000709249	-7858660.77	0,8.88905e-07,2.05981e-06,3.60219e-06,5.63389e-06,8.31014e-06,1.18354e-05,1.64791e-05,2.2596e-05,3.06534e-05,4.12671e-05,5.52479e-05,7.36641e-05,9.79229e-05,0.000129878,0.00017197,0.000227416,0.000300453,0.00039666,0.000523389,0.000690322,0.000910214,0.00119987,0.00158141,0.002084,0.00274604,0.0036181,0.00476683,0.00627999,0.0082732,0.0108987,0.0143572,inf	0.793163,0.793163,5.0436,38.5869,106.232,176.944,234.75,267.966,273.3,269.939,268.84,264.715,253.205,239.416,233.661,244.385,278.446,344.983,457.626,634.554,887.352,1183.81,1374.03,1362.76,1258.27,1141.23,992.455,726.521,726.521,607.744,607.744,607.744
0.000744647	-7857747.58	0,8.88905e-07,2.05981e-06,3.60219e-06,5.63389e-06,8.31014e-06,1.18354e-05,1.64791e-05,2.2596e-05,3.06534e-05,4.12671e-05,5.52479e-05,7.36641e-05,9.79229e-05,0.000129878,0.00017197,0.000227416,0.000300453,0.00039666,0.000523389,0.000690322,0.000910214,0.00119987,0.00158141,0.002084,0.00274604,0.0036181,0.00476683,0.00627999,0.0082732,0.0108987,0.0143572,inf	0.793163,0.793163,3.97069,35.2062,101.389,170.247,226.625,259.938,266.98,266.756,269.358,268.206,258.156,244.688,238.935,249.724,283.873,350.328,462.464,637.99,887.731,1179.62,1366.69,1356.68,1255.78,1140.82,988.118,710.166,710.166,592.38,592.38,592.38
0.000779659	-7856892.88	0,8.88905e-07,2.05981e-06,3.60219e-06,5.63389e-06,8.31014e-06,1.18354e-05,1.64791e-05,2.2596e-05,3.06534e-05,4.12671e-05,5.52479e-05,7.36641e-05,9.79229e-05,0.000129878,0.00017197,0.000227416,0.000300453,0.00039666,0.000523389,0.000690322,0.000910214,0.00119987,0.00158141,0.002084,0.00274604,0.0036181,0.00476683,0.00627999,0.0082732,0.0108987,0.0143572,inf	0.793163,0.793163,3.26187,33.1442,98.839,165.83,220.053,252.438,260.291,262.645,268.672,270.52,262.225,249.492,244.13,255.275,289.695,356.161,467.813,641.877,888.379,1175.27,1358.54,1349.4,1252.08,1139.44,983.439,694.995,694.995,579.271,579.271,579.271
0.000814313	-7856089.76	0,8.88905e-07,2.05981e-06,3.60219e-06,5.63389e-06,8.31014e-06,1.18354e-05,1.64791e-05,2.2596e-05,3.06534e-05,4.12671e-05,5.52479e-05,7.36641e-05,9.79229e-05,0.000129878,0.00017197,0.000227416,0.000300453,0.00039666,0.000523389,0.000690322,0.000910214,0.00119987,0.00158141,0.002084,0.00274604,0.0036181,0.00476683,0.00627999,0.0082732,0.0108987,0.0143572,inf	0.793163,0.793163,2.77565,32.0717,98.2295,163.551,215.173,245.848,253.762,258.115,267.193,271.938,265.556,253.862,249.196,260.926,295.755,362.3,473.484,646.054,889.218,1170.87,1349.92,1341.37,1247.58,1137.41,978.624,681.011,681.011,568.219,568.219,568.219
0.000848626	-7855332.86	0,8.88905e-07,2.05981e-06,3.60219e-06,5.63389e-06,8.31014e-06,1.18354e-05,1.64791e-05,2.2596e-05,3.06534e-05,4.12671e-05,5.52479e-05,7.36641e-05,9.79229e-05,0.000129878,0.00017197,0.000227416,0.000300453,0.00039666,0.000523389,0.000690322,0.000910214,0.00119987,0.00158141,0.002084,0.00274604,0.0036181,0.00476683,0.00627999,0.0082732,0.0108987,0.0143572,inf	0.793163,0.793163,2.43759,31.7687,99.2544,163.131,211.91,240.323,247.682,253.511,265.241,272.698,268.288,257.847,254.113,266.607,301.95,368.617,479.345,650.403,890.186,1166.48,1341.08,1332.88,1242.56,1134.94,973.806,668.176,668.176,559.006,559.006,559.006
0.000882613	-7854617.81	0,8.88905e-07,2.05981e-06,3.60219e-06,5.63389e-06,8.31014e-06,1.18354e-05,1.64791e-05,2.2596e-05,3.06534e-05,4.12671e-05,5.52479e-05,7.36641e-05,9.79229e-05,0.000129878,0.00017197,0.000227416,0.000300453,0.00039666,0.000523389,0.000690322,0.000910214,0.00119987,0.00158141,0.002084,0.00274604,0.0036181,0.00476683,0.00627999,0.0082732,0.0108987,0.0143572,inf	0.793163,0.793163,2.19772,32.0533,101.638,164.283,210.081,235.86,242.199,249.061,263.053,272.992,270.544,261.5,258.878,272.271,308.202,375.02,485.3,654.84,891.238,1162.14,1332.15,1324.16,1237.19,1132.17,969.073,656.425,656.425,551.422,551.422,551.422
0.000916284	-7853940.99	0,8.88905e-07,2.05981e-06,3.60219e-06,5.63389e-06,8.31014e-06,1.18354e-05,1.64791e-05,2.2596e-05,3.06534e-05,4.12671e-05,5.52479e-05,7.36641e-05,9.79229e-05,0.000129878,0.00017197,0.000227416,0.000300453,0.00039666,0.000523389,0.000690322,0.000910214,0.00119987,0.00158141,0.002084,0.00274604,0.0036181,0.00476683,0.00627999,0.0082732,0.0108987,0.0143572,inf	0.793163,0.793163,2.01477,32.7821,105.142,166.737,209.496,232.383,237.368,244.893,260.801,272.978,272.431,264.875,263.494,277.888,314.458,381.445,491.28,659.305,892.338,1157.87,1323.26,1315.34,1231.64,1129.22,964.479,645.677,645.677,545.261,545.261,545.261
0.000949643	-7853299.28	0,8.88905e-07,2.05981e-06,3.60219e-06,5.63389e-06,8.31014e-06,1.18354e-05,1.64791e-05,2.2596e-05,3.06534e-05,4.12671e-05,5.52479e-05,7.36641e-05,9.79229e-05,0.000129878,0.00017197,0.000227416,0.000300453,0.00039666,0.000523389,0.000690322,0.000910214,0.00119987,0.00158141,0.002084,0.00274604,0.0036181,0.00476683,0.00627999,0.0082732,0.0108987,0.0143572,inf	0.793163,0.793163,1.86782,33.8608,109.515,170.208,209.936,229.783,233.185,241.09,258.599,272.773,274.041,268.018,267.97,283.438,320.68,387.844,497.236,663.753,893.457,1153.69,1314.47,1306.54,1225.99,1126.15,960.049,635.849,635.849,540.34,540.34,540.34
0.000982698	-7852689.97	0,8.88905e-07,2.05981e-06,3.60219e-06,5.63389e-06,8.31014e-06,1.18354e-05,1.64791e-05,2.2596e-05,3.06534e-05,4.12671e-05,5.52479e-05,7.36641e-05,9.79229e-05,0.000129878,0.00017197,0.000227416,0.000300453,0.00039666,0.000523389,0.000690322,0.000910214,0.00119987,0.00158141,0.002084,0.00274604,0.0036181,0.00476683,0.00627999,0.0082732,0.0108987,0.0143572,inf	0.793163,0.793163,1.74811,35.1804,114.582,174.467,211.193,227.932,229.613,237.687,256.53,272.47,275.447,270.972,272.32,288.909,326.841,394.182,503.134,668.153,894.578,1149.61,1305.84,1297.83,1220.31,1123.02,955.799,626.856,626.856,536.491,536.491,536.491
0.00101545	-7852110.67	0,8.88905e-07,2.05981e-06,3.60219e-06,5.63389e-06,8.31014e-06,1.18354e-05,1.64791e-05,2.2596e-05,3.06534e-05,4.12671e-05,5.52479e-05,7.36641e-05,9.79229e-05,0.000129878,0.00017197,0.000227416,0.000300453,0.00039666,0.000523389,0.000690322,0.000910214,0.00119987,0.00158141,0.002084,0.00274604,0.0036181,0.00476683,0.00627999,0.0082732,0.0108987,0.0143572,inf	0.793163,0.793163,1.65052,36.649,120.141,179.333,213.104,226.72,226.605,234.69,254.642,272.133,276.706,273.773,276.554,294.293,332.922,400.436,508.946,672.482,895.684,1145.62,1297.38,1289.26,1214.65,1119.86,951.729,618.617,618.617,533.566,533.566,533.566
0.0010479	-7851559.25	0,8.88905e-07,2.05981e-06,3.60219e-06,5.63389e-06,8.31014e-06,1.18354e-05,1.64791e-05,2.2596e-05,3.06534e-05,4.12671e-05,5.52479e-05,7.36641e-05,9.79229e-05,0.000129878,0.00017197,0.000227416,0.000300453,0.00039666,0.000523389,0.000690322,0.000910214,0.00119987,0.00158141,0.002084,0.00274604,0.0036181,0.00476683,0.00627999,0.0082732,0.0108987,0.0143572,inf	0.793163,0.793163,1.55661,38.2211,126.056,184.62,215.514,226.031,224.106,232.094,252.968,271.815,277.869,276.452,280.681,299.585,338.907,406.588,514.656,676.725,896.766,1141.73,1289.13,1280.85,1209.06,1116.7,947.836,611.055,611.055,531.437,531.437,531.437
