LogLikelihood = -221024.01823516486911

y0 0.73817810280682016888
y0_prime 0
y1 1.0459541580576130482
y1_prime 0
y2 0.980886367016655214
y2_prime 0
y3 2.0026898130181551849
y3_prime 0
rho 0.00017768831988280607212
rho.alpha 0.473849203602701885
r_ii 0.99990915094938981333
theta 0.00052892564628327426099
