0.000741821	-13881592.01	0,4.11389e-06,1.12521e-05,2.36379e-05,4.5129e-05,8.24193e-05,0.000147123,0.000259394,0.000454199,0.000792215,0.00137872,0.00239639,0.0041622,0.00722613,0.0125425,0.0217672,inf	254.847,254.847,384.179,397.234,376.179,353.663,335.563,335.38,351.62,380.163,419.885,438.349,414.892,380.599,380.599,380.599
0.000843063	-13873860.37	0,4.11389e-06,1.12521e-05,2.36379e-05,4.5129e-05,8.24193e-05,0.000147123,0.000259394,0.000454199,0.000792215,0.00137872,0.00239639,0.0041622,0.00722613,0.0125425,0.0217672,inf	182.271,182.271,394.762,422.655,390.23,352.74,320.424,316.43,336.454,372.718,426.908,457.181,422.353,366.921,366.921,366.921
0.000935277	-13868712.29	0,4.11389e-06,1.12521e-05,2.36379e-05,4.5129e-05,8.24193e-05,0.000147123,0.000259394,0.000454199,0.000792215,0.00137872,0.00239639,0.0041622,0.00722613,0.0125425,0.0217672,inf	134.079,134.079,397.392,439.192,403.697,358.55,317.099,310.71,331.928,369.534,428.247,465.463,425.194,356.526,356.526,356.526
0.00102019	-13864867.81	0,4.11389e-06,1.12521e-05,2.36379e-05,4.5129e-05,8.24193e-05,0.000147123,0.000259394,0.000454199,0.000792215,0.00137872,0.00239639,0.0041622,0.00722613,0.0125425,0.0217672,inf	102.085,102.085,394.284,445.459,411.499,363.766,317.105,309.997,331.905,368.542,427.45,468.601,426.013,348.842,348.842,348.842
0.00109902	-13861849.46	0,4.11389e-06,1.12521e-05,2.36379e-05,4.5129e-05,8.24193e-05,0.000147123,0.000259394,0.000454199,0.000792215,0.00137872,0.00239639,0.0041622,0.00722613,0.0125425,0.0217672,inf	81.108,81.108,390.285,445.348,414.609,367.156,317.896,311.32,333.934,368.732,425.879,469.125,425.944,343.184,343.184,343.184
0.00117258	-13859412.86	0,4.11389e-06,1.12521e-05,2.36379e-05,4.5129e-05,8.24193e-05,0.000147123,0.000259394,0.000454199,0.000792215,0.00137872,0.00239639,0.0041622,0.00722613,0.0125425,0.0217672,inf	67.3186,67.3186,388.147,442.295,414.892,369.036,318.733,313.48,336.901,369.561,424.066,468.274,425.492,338.997,338.997,338.997
0.0012415	-13857408.97	0,4.11389e-06,1.12521e-05,2.36379e-05,4.5129e-05,8.24193e-05,0.000147123,0.000259394,0.000454199,0.000792215,0.00137872,0.00239639,0.0041622,0.00722613,0.0125425,0.0217672,inf	58.101,58.101,388.775,438.315,413.763,369.936,319.439,315.952,340.256,370.725,422.228,466.687,424.885,335.875,335.875,335.875
0.00130627	-13855737.87	0,4.11389e-06,1.12521e-05,2.36379e-05,4.5129e-05,8.24193e-05,0.000147123,0.000259394,0.000454199,0.000792215,0.00137872,0.00239639,0.0041622,0.00722613,0.0125425,0.0217672,inf	51.798,51.798,392.018,434.356,412.096,370.282,320.009,318.495,343.718,372.052,420.451,464.71,424.229,333.527,333.527,333.527
0.00136728	-13854328.71	0,4.11389e-06,1.12521e-05,2.36379e-05,4.5129e-05,8.24193e-05,0.000147123,0.000259394,0.000454199,0.000792215,0.00137872,0.00239639,0.0041622,0.00722613,0.0125425,0.0217672,inf	47.3877,47.3877,397.336,430.765,410.367,370.367,320.477,320.997,347.139,373.443,418.769,462.537,423.571,331.746,331.746,331.746
0.00142487	-13853129.45	0,4.11389e-06,1.12521e-05,2.36379e-05,4.5129e-05,8.24193e-05,0.000147123,0.000259394,0.000454199,0.000792215,0.00137872,0.00239639,0.0041622,0.00722613,0.0125425,0.0217672,inf	44.2404,44.2404,404.181,427.616,408.806,370.368,320.882,323.407,350.44,374.839,417.192,460.283,422.933,330.386,330.386,330.386
0.00147931	-13852100.76	0,4.11389e-06,1.12521e-05,2.36379e-05,4.5129e-05,8.24193e-05,0.000147123,0.000259394,0.000454199,0.000792215,0.00137872,0.00239639,0.0041622,0.00722613,0.0125425,0.0217672,inf	41.9548,41.9548,411.99,424.859,407.514,370.388,321.257,325.705,353.584,376.208,415.721,458.015,422.323,329.341,329.341,329.341
0.00153086	-13851212.33	0,4.11389e-06,1.12521e-05,2.36379e-05,4.5129e-05,8.24193e-05,0.000147123,0.000259394,0.000454199,0.000792215,0.00137872,0.00239639,0.0041622,0.00722613,0.0125425,0.0217672,inf	40.2734,40.2734,420.321,422.416,406.52,370.484,321.62,327.883,356.555,377.532,414.351,455.775,421.745,328.533,328.533,328.533
0.00157974	-13850440.42	0,4.11389e-06,1.12521e-05,2.36379e-05,4.5129e-05,8.24193e-05,0.000147123,0.000259394,0.000454199,0.000792215,0.00137872,0.00239639,0.0041622,0.00722613,0.0125425,0.0217672,inf	39.0365,39.0365,428.868,420.211,405.815,370.684,321.989,329.943,359.349,378.804,413.076,453.586,421.199,327.905,327.905,327.905
0.00162613	-13849766.17	0,4.11389e-06,1.12521e-05,2.36379e-05,4.5129e-05,8.24193e-05,0.000147123,0.000259394,0.000454199,0.000792215,0.00137872,0.00239639,0.0041622,0.00722613,0.0125425,0.0217672,inf	38.1335,38.1335,437.376,418.18,405.37,370.994,322.369,331.89,361.968,380.018,411.888,451.463,420.685,327.417,327.417,327.417
0.00167023	-13849174.38	0,4.11389e-06,1.12521e-05,2.36379e-05,4.5129e-05,8.24193e-05,0.000147123,0.000259394,0.000454199,0.000792215,0.00137872,0.00239639,0.0041622,0.00722613,0.0125425,0.0217672,inf	37.4969,37.4969,445.71,416.278,405.158,371.411,322.766,333.73,364.42,381.174,410.781,449.414,420.2,327.035,327.035,327.035
0.00171218	-13848652.71	0,4.11389e-06,1.12521e-05,2.36379e-05,4.5129e-05,8.24193e-05,0.000147123,0.000259394,0.000454199,0.000792215,0.00137872,0.00239639,0.0041622,0.00722613,0.0125425,0.0217672,inf	37.0768,37.0768,453.732,414.469,405.146,371.927,323.181,335.47,366.713,382.273,409.749,447.443,419.743,326.738,326.738,326.738
0.00175212	-13848191.05	0,4.11389e-06,1.12521e-05,2.36379e-05,4.5129e-05,8.24193e-05,0.000147123,0.000259394,0.000454199,0.000792215,0.00137872,0.00239639,0.0041622,0.00722613,0.0125425,0.0217672,inf	36.8343,36.8343,461.391,412.735,405.302,372.535,323.613,337.117,368.857,383.317,408.785,445.549,419.312,326.506,326.506,326.506
0.0017902	-13847781.03	0,4.11389e-06,1.12521e-05,2.36379e-05,4.5129e-05,8.24193e-05,0.000147123,0.000259394,0.000454199,0.000792215,0.00137872,0.00239639,0.0041622,0.00722613,0.0125425,0.0217672,inf	36.7516,36.7516,468.656,411.054,405.597,373.219,324.061,338.676,370.859,384.309,407.885,443.734,418.906,326.325,326.325,326.325
0.00182652	-13847415.66	0,4.11389e-06,1.12521e-05,2.36379e-05,4.5129e-05,8.24193e-05,0.000147123,0.000259394,0.000454199,0.000792215,0.00137872,0.00239639,0.0041622,0.00722613,0.0125425,0.0217672,inf	36.8051,36.8051,475.512,409.423,406.006,373.969,324.523,340.154,372.732,385.253,407.042,441.994,418.523,326.186,326.186,326.186
0.00186119	-13847089.10	0,4.11389e-06,1.12521e-05,2.36379e-05,4.5129e-05,8.24193e-05,0.000147123,0.000259394,0.000454199,0.000792215,0.00137872,0.00239639,0.0041622,0.00722613,0.0125425,0.0217672,inf	36.9808,36.9808,481.967,407.836,406.509,374.773,324.997,341.556,374.483,386.15,406.252,440.328,418.162,326.079,326.079,326.079
