time_index	left_time_boundary	right_time_boundary	lambda
0	0	2.6771e-06	0.412883
1	2.6771e-06	6.15162e-06	0.412883
2	6.15162e-06	1.06611e-05	245.255
3	1.06611e-05	1.65138e-05	382.702
4	1.65138e-05	2.41097e-05	444.477
5	2.41097e-05	3.39683e-05	386.776
6	3.39683e-05	4.67634e-05	350.603
7	4.67634e-05	6.33697e-05	385.898
8	6.33697e-05	8.49225e-05	402.63
9	8.49225e-05	0.000112895	383.723
10	0.000112895	0.0001492	348.933
11	0.0001492	0.000196318	322.047
12	0.000196318	0.000257472	307.683
13	0.000257472	0.000336841	309.078
14	0.000336841	0.000439852	327.952
15	0.000439852	0.000573546	354.027
16	0.000573546	0.000747062	374.144
17	0.000747062	0.000972264	383.647
18	0.000972264	0.00126454	386.623
19	0.00126454	0.00164389	391.162
20	0.00164389	0.00213622	403.126
21	0.00213622	0.00277521	419.316
22	0.00277521	0.00360452	428.763
23	0.00360452	0.00468086	435.644
24	0.00468086	0.00607781	446.678
25	0.00607781	0.00789086	436.562
26	0.00789086	0.0102439	400.021
27	0.0102439	0.0132979	328.686
28	0.0132979	0.0172616	328.686
29	0.0172616	0.022406	411.256
30	0.022406	0.0290826	411.256
31	0.0290826	inf	411.256
