time_index	left_time_boundary	right_time_boundary	lambda
0	0	9.88133e-06	306.563
1	9.88133e-06	2.21036e-05	306.563
2	2.21036e-05	3.72212e-05	148.916
3	3.72212e-05	5.59203e-05	676.914
4	5.59203e-05	7.90493e-05	723.972
5	7.90493e-05	0.000107658	400.097
6	0.000107658	0.000143043	260.114
7	0.000143043	0.000186812	247.92
8	0.000186812	0.000240949	287.385
9	0.000240949	0.000307911	332.431
10	0.000307911	0.000390737	358.387
11	0.000390737	0.000493185	371.35
12	0.000493185	0.000619903	382.681
13	0.000619903	0.00077664	391.539
14	0.00077664	0.000970508	395.115
15	0.000970508	0.0012103	395.227
16	0.0012103	0.00150691	394.75
17	0.00150691	0.00187378	395.829
18	0.00187378	0.00232756	401.79
19	0.00232756	0.00288885	415.707
20	0.00288885	0.0035831	432.76
21	0.0035831	0.00444182	447.648
22	0.00444182	0.00550398	457.786
23	0.00550398	0.00681776	449.967
24	0.00681776	0.00844278	419.274
25	0.00844278	0.0104528	369.829
26	0.0104528	0.0129389	307.085
27	0.0129389	0.0160141	258.986
28	0.0160141	0.0198177	258.986
29	0.0198177	0.0245224	807.174
30	0.0245224	0.0303417	807.174
31	0.0303417	inf	807.174
