0.000273327	-162848.12	0,1.93909e-05,4.20733e-05,6.86062e-05,9.96429e-05,0.000135948,0.000178416,0.000228093,0.000286203,0.000354177,0.000433689,0.000526699,0.000635497,0.000762763,0.000911633,0.00108577,0.00128947,0.00152775,0.00180648,0.00213252,0.00251391,0.00296003,0.00348189,0.00409233,0.00480639,0.00564167,0.00661874,0.00776166,0.00909859,0.0106625,0.0124918,0.0146317,inf	20.0858,20.0858,42.8688,66.1695,94.5493,129.527,173.208,228.593,300.069,393.975,519.832,691.967,924.418,1202.31,1439.29,1537.15,1511.01,1433.11,1346.7,1268.61,1203.91,1152.82,1113.22,1081.5,1054.89,1032.79,1015.54,1000.91,1000.91,991.229,991.229,991.229
0.00027769	-162252.85	0,1.93909e-05,4.20733e-05,6.86062e-05,9.96429e-05,0.000135948,0.000178416,0.000228093,0.000286203,0.000354177,0.000433689,0.000526699,0.000635497,0.000762763,0.000911633,0.00108577,0.00128947,0.00152775,0.00180648,0.00213252,0.00251391,0.00296003,0.00348189,0.00409233,0.00480639,0.00564167,0.00661874,0.00776166,0.00909859,0.0106625,0.0124918,0.0146317,inf	0.875412,0.875412,2.52475,6.11296,12.6626,24.008,43.0434,74.2795,124.685,204.791,330.711,528.451,835.792,1277.63,1771.03,2077.19,2109.02,1994.86,1836.62,1681.8,1550.14,1446.99,1368.97,1306.93,1253.86,1209.02,1174.26,1145.7,1145.7,1128.92,1128.92,1128.92
0.000284508	-162039.75	0,1.93909e-05,4.20733e-05,6.86062e-05,9.96429e-05,0.000135948,0.000178416,0.000228093,0.000286203,0.000354177,0.000433689,0.000526699,0.000635497,0.000762763,0.000911633,0.00108577,0.00128947,0.00152775,0.00180648,0.00213252,0.00251391,0.00296003,0.00348189,0.00409233,0.00480639,0.00564167,0.00661874,0.00776166,0.00909859,0.0106625,0.0124918,0.0146317,inf	0.875412,0.875412,0.875412,0.875412,1.82599,4.80545,11.5758,26.1177,55.8275,113.502,220.04,409.645,736.165,1260.76,1951.78,2485.22,2620.25,2512.23,2309.81,2091.81,1899.47,1749.24,1638.33,1550.21,1472.32,1404.78,1352.78,1311.58,1311.58,1292.55,1292.55,1292.55
0.000291347	-161941.40	0,1.93909e-05,4.20733e-05,6.86062e-05,9.96429e-05,0.000135948,0.000178416,0.000228093,0.000286203,0.000354177,0.000433689,0.000526699,0.000635497,0.000762763,0.000911633,0.00108577,0.00128947,0.00152775,0.00180648,0.00213252,0.00251391,0.00296003,0.00348189,0.00409233,0.00480639,0.00564167,0.00661874,0.00776166,0.00909859,0.0106625,0.0124918,0.0146317,inf	0.875412,0.875412,0.875412,0.875412,0.875412,0.952863,3.30617,9.73486,26.3963,65.9854,151.958,324.672,649.852,1216.1,2052.88,2801.26,3054.06,2980.29,2759.41,2494.49,2250.58,2060.53,1924.29,1815.79,1715.2,1625.05,1556.09,1504.12,1504.12,1492.24,1492.24,1492.24
0.000297697	-161888.05	0,1.93909e-05,4.20733e-05,6.86062e-05,9.96429e-05,0.000135948,0.000178416,0.000228093,0.000286203,0.000354177,0.000433689,0.000526699,0.000635497,0.000762763,0.000911633,0.00108577,0.00128947,0.00152775,0.00180648,0.00213252,0.00251391,0.00296003,0.00348189,0.00409233,0.00480639,0.00564167,0.00661874,0.00776166,0.00909859,0.0106625,0.0124918,0.0146317,inf	0.875412,0.875412,0.875412,0.875412,0.875412,0.875412,0.993899,3.80961,13.0508,39.8753,108.205,262.639,578.368,1165.13,2111.04,3056.85,3428.43,3405.96,3187.89,2892.27,2606.81,2385.48,2233.17,2111.39,1990.69,1877.81,1792.37,1731.88,1731.88,1750.23,1750.23,1750.23
0.000303497	-161855.66	0,1.93909e-05,4.20733e-05,6.86062e-05,9.96429e-05,0.000135948,0.000178416,0.000228093,0.000286203,0.000354177,0.000433689,0.000526699,0.000635497,0.000762763,0.000911633,0.00108577,0.00128947,0.00152775,0.00180648,0.00213252,0.00251391,0.00296003,0.00348189,0.00409233,0.00480639,0.00564167,0.00661874,0.00776166,0.00909859,0.0106625,0.0124918,0.0146317,inf	0.875412,0.875412,0.875412,0.875412,0.875412,0.875412,0.875412,1.55451,6.70224,24.8913,79.0378,216.21,519.293,1114.98,2144.88,3272.15,3758.47,3797.8,3600.45,3290.17,2974.01,2731.24,2574.37,2448.77,2311.56,2175.96,2075.13,2010.93,2010.93,2104.42,2104.42,2104.42
0.000308788	-161834.32	0,1.93909e-05,4.20733e-05,6.86062e-05,9.96429e-05,0.000135948,0.000178416,0.000228093,0.000286203,0.000354177,0.000433689,0.000526699,0.000635497,0.000762763,0.000911633,0.00108577,0.00128947,0.00152775,0.00180648,0.00213252,0.00251391,0.00296003,0.00348189,0.00409233,0.00480639,0.00564167,0.00661874,0.00776166,0.00909859,0.0106625,0.0124918,0.0146317,inf	0.875412,0.875412,0.875412,0.875412,0.875412,0.875412,0.875412,0.875412,3.55598,15.9718,58.9838,180.645,470.053,1068.03,2163.76,3459.13,4054.93,4163.12,4002.59,3694.4,3359.8,3107.64,2961.66,2846.27,2698.79,2541.49,2428.34,2376.36,2376.36,2597.53,2597.53,2597.53
0.000313634	-161819.38	0,1.93909e-05,4.20733e-05,6.86062e-05,9.96429e-05,0.000135948,0.000178416,0.000228093,0.000286203,0.000354177,0.000433689,0.000526699,0.000635497,0.000762763,0.000911633,0.00108577,0.00128947,0.00152775,0.00180648,0.00213252,0.00251391,0.00296003,0.00348189,0.00409233,0.00480639,0.00564167,0.00661874,0.00776166,0.00909859,0.0106625,0.0124918,0.0146317,inf	0.875412,0.875412,0.875412,0.875412,0.875412,0.875412,0.875412,0.875412,1.94108,10.4958,44.8322,152.844,428.541,1024.83,2173.05,3625.67,4325.65,4507.94,4399.75,4112.14,3774.02,3528.46,3416.25,3334.68,3190.13,3015.14,2894.32,2872.06,2872.06,4293.21,4293.21,4293.21
0.000318097	-161808.44	0,1.93909e-05,4.20733e-05,6.86062e-05,9.96429e-05,0.000135948,0.000178416,0.000228093,0.000286203,0.000354177,0.000433689,0.000526699,0.000635497,0.000762763,0.000911633,0.00108577,0.00128947,0.00152775,0.00180648,0.00213252,0.00251391,0.00296003,0.00348189,0.00409233,0.00480639,0.00564167,0.00661874,0.00776166,0.00909859,0.0106625,0.0124918,0.0146317,inf	0.875412,0.875412,0.875412,0.875412,0.875412,0.875412,0.875412,0.875412,1.04625,7.0423,34.6199,130.728,393.141,985.267,2175.9,3776.93,4576.29,4837.06,4797.13,4551.77,4229.6,4013.96,3973.09,3971.75,3861.24,3691.64,3607.97,3778.01,3778.01,58854.5,58854.5,58854.5
0.000322231	-161800.12	0,1.93909e-05,4.20733e-05,6.86062e-05,9.96429e-05,0.000135948,0.000178416,0.000228093,0.000286203,0.000354177,0.000433689,0.000526699,0.000635497,0.000762763,0.000911633,0.00108577,0.00128947,0.00152775,0.00180648,0.00213252,0.00251391,0.00296003,0.00348189,0.00409233,0.00480639,0.00564167,0.00661874,0.00776166,0.00909859,0.0106625,0.0124918,0.0146317,inf	0.875412,0.875412,0.875412,0.875412,0.875412,0.875412,0.875412,0.875412,0.875412,4.8129,27.1081,112.867,362.636,949.048,2174.26,3916.48,4811.03,5154.36,5199.86,5023.41,4744.48,4595.94,4696.98,4883.11,4910.8,4835.21,4805.64,6632.07,6632.07,58854.5,58854.5,58854.5
0.000326079	-161793.63	0,1.93909e-05,4.20733e-05,6.86062e-05,9.96429e-05,0.000135948,0.000178416,0.000228093,0.000286203,0.000354177,0.000433689,0.000526699,0.000635497,0.000762763,0.000911633,0.00108577,0.00128947,0.00152775,0.00180648,0.00213252,0.00251391,0.00296003,0.00348189,0.00409233,0.00480639,0.00564167,0.00661874,0.00776166,0.00909859,0.0106625,0.0124918,0.0146317,inf	0.875412,0.875412,0.875412,0.875412,0.875412,0.875412,0.875412,0.875412,0.875412,3.34346,21.4869,98.2481,336.092,915.802,2169.39,4046.82,5032.99,5463.01,5613.17,5540,5345.28,5329.39,5727.61,6436.79,7083.43,7658.72,8915.78,18027.8,18027.8,157892,157892,157892
