0.000163002	-74716.67	0,8.23945e-06,1.78776e-05,2.91517e-05,4.23397e-05,5.77663e-05,7.58116e-05,9.692e-05,0.000121612,0.000150495,0.000184281,0.000223802,0.000270031,0.000324109,0.000387366,0.00046136,0.000547916,0.000649164,0.000767599,0.000906138,0.00106819,0.00125776,0.0014795,0.00173889,0.0020423,0.00239723,0.00281239,0.00329804,0.00386612,0.00453063,0.00530794,0.00621721,inf	222.047,222.047,442.815,644.616,869.794,1123.65,1411.16,1734.3,2080.43,2406.81,2647.65,2745.5,2683.12,2495.59,2248.35,2001.5,1785.34,1602.92,1447.72,1317.02,1212.46,1134.03,1078.23,1040.15,1015.47,1003.13,1010.78,1097.34,1097.34,1331.47,1331.47,1331.47
0.000210564	-74066.97	0,8.23945e-06,1.78776e-05,2.91517e-05,4.23397e-05,5.77663e-05,7.58116e-05,9.692e-05,0.000121612,0.000150495,0.000184281,0.000223802,0.000270031,0.000324109,0.000387366,0.00046136,0.000547916,0.000649164,0.000767599,0.000906138,0.00106819,0.00125776,0.0014795,0.00173889,0.0020423,0.00239723,0.00281239,0.00329804,0.00386612,0.00453063,0.00530794,0.00621721,inf	32.1032,32.1032,126.5,263.636,467.59,752.057,1130.54,1611.32,2176.24,2746.17,3181.73,3347.59,3202.31,2832.65,2384.53,1970.94,1633.63,1365.99,1151.28,981.307,853.389,762.95,703.035,666.757,648.82,647.329,667.443,764.731,764.731,746.421,746.421,746.421
0.000260687	-73625.14	0,8.23945e-06,1.78776e-05,2.91517e-05,4.23397e-05,5.77663e-05,7.58116e-05,9.692e-05,0.000121612,0.000150495,0.000184281,0.000223802,0.000270031,0.000324109,0.000387366,0.00046136,0.000547916,0.000649164,0.000767599,0.000906138,0.00106819,0.00125776,0.0014795,0.00173889,0.0020423,0.00239723,0.00281239,0.00329804,0.00386612,0.00453063,0.00530794,0.00621721,inf	5.54204,5.54204,42.5754,125.167,286.277,559.422,976.97,1560.39,2290.59,3057.69,3652.93,3864.38,3634.72,3111.32,2512.96,1987.76,1576.78,1261.28,1016.13,829.017,693.392,600.876,541.859,508.046,493.526,495.883,518.761,611.394,611.394,234.068,234.068,234.068
0.000316761	-73284.91	0,8.23945e-06,1.78776e-05,2.91517e-05,4.23397e-05,5.77663e-05,7.58116e-05,9.692e-05,0.000121612,0.000150495,0.000184281,0.000223802,0.000270031,0.000324109,0.000387366,0.00046136,0.000547916,0.000649164,0.000767599,0.000906138,0.00106819,0.00125776,0.0014795,0.00173889,0.0020423,0.00239723,0.00281239,0.00329804,0.00386612,0.00453063,0.00530794,0.00621721,inf	2.06021,2.06021,16.3705,66.8134,193.434,449.534,890.765,1556.06,2427.86,3368.34,4101.82,4343.89,4033.83,3383.99,2672.04,2066.13,1601.56,1249.27,978.915,776.171,632.273,536.28,476.648,443.933,431.585,436.658,461.747,549.576,549.576,138.559,138.559,138.559
0.000374262	-73128.23	0,8.23945e-06,1.78776e-05,2.91517e-05,4.23397e-05,5.77663e-05,7.58116e-05,9.692e-05,0.000121612,0.000150495,0.000184281,0.000223802,0.000270031,0.000324109,0.000387366,0.00046136,0.000547916,0.000649164,0.000767599,0.000906138,0.00106819,0.00125776,0.0014795,0.00173889,0.0020423,0.00239723,0.00281239,0.00329804,0.00386612,0.00453063,0.00530794,0.00621721,inf	2.06021,2.06021,7.01455,39.0767,140.468,380.173,836.618,1566.44,2553.5,3634.45,4473.19,4725.27,4342.51,3599.63,2813.37,2157.17,1657.61,1278.18,986.533,768.729,615.664,515.127,454.291,422.86,413.939,424.704,458.585,575.014,575.014,126.276,126.276,126.276
0.000431531	-73009.12	0,8.23945e-06,1.78776e-05,2.91517e-05,4.23397e-05,5.77663e-05,7.58116e-05,9.692e-05,0.000121612,0.000150495,0.000184281,0.000223802,0.000270031,0.000324109,0.000387366,0.00046136,0.000547916,0.000649164,0.000767599,0.000906138,0.00106819,0.00125776,0.0014795,0.00173889,0.0020423,0.00239723,0.00281239,0.00329804,0.00386612,0.00453063,0.00530794,0.00621721,inf	2.06021,2.06021,3.18697,24.6156,107.865,333.636,800.869,1582.24,2661.47,3850.57,4758.64,4995.44,4541.49,3730.15,2900.23,2218.71,1700.98,1304.82,997.861,768.102,607.302,502.773,440.794,410.389,404.405,420.278,462.572,611.542,611.542,124.34,124.34,124.34
0.000488047	-72902.36	0,8.23945e-06,1.78776e-05,2.91517e-05,4.23397e-05,5.77663e-05,7.58116e-05,9.692e-05,0.000121612,0.000150495,0.000184281,0.000223802,0.000270031,0.000324109,0.000387366,0.00046136,0.000547916,0.000649164,0.000767599,0.000906138,0.00106819,0.00125776,0.0014795,0.00173889,0.0020423,0.00239723,0.00281239,0.00329804,0.00386612,0.00453063,0.00530794,0.00621721,inf	2.06021,2.06021,2.06021,16.5705,87.005,302.448,780.259,1607.34,2765.67,4042.69,4995.94,5200.14,4675.96,3810.8,2954.31,2260.9,1734.05,1326.96,1008.24,768.507,601.003,492.935,429.846,400.124,396.37,416.24,465.33,643.849,643.849,123.964,123.964,123.964
0.000543513	-72810.18	0,8.23945e-06,1.78776e-05,2.91517e-05,4.23397e-05,5.77663e-05,7.58116e-05,9.692e-05,0.000121612,0.000150495,0.000184281,0.000223802,0.000270031,0.000324109,0.000387366,0.00046136,0.000547916,0.000649164,0.000767599,0.000906138,0.00106819,0.00125776,0.0014795,0.00173889,0.0020423,0.00239723,0.00281239,0.00329804,0.00386612,0.00453063,0.00530794,0.00621721,inf	2.06021,2.06021,2.06021,11.8069,73.1065,281.456,770.913,1640.92,2870.37,4222.15,5204.5,5365.56,4773.58,3864.57,2991.38,2293.12,1761.75,1346.7,1018.04,769.407,595.789,484.46,420.27,390.969,388.887,411.843,466.287,670.427,670.427,123.602,123.602,123.602
0.000597755	-72731.17	0,8.23945e-06,1.78776e-05,2.91517e-05,4.23397e-05,5.77663e-05,7.58116e-05,9.692e-05,0.000121612,0.000150495,0.000184281,0.000223802,0.000270031,0.000324109,0.000387366,0.00046136,0.000547916,0.000649164,0.000767599,0.000906138,0.00106819,0.00125776,0.0014795,0.00173889,0.0020423,0.00239723,0.00281239,0.00329804,0.00386612,0.00453063,0.00530794,0.00621721,inf	2.06021,2.06021,2.06021,8.82125,63.4806,267.254,769.489,1680.62,2975.45,4392.37,5392.25,5503.88,4847.69,3902.51,3018.99,2319.91,1786.49,1365.11,1027.54,770.628,591.293,476.92,411.662,382.617,381.821,407.198,465.9,692.13,692.13,123.002,123.002,123.002
0.00065068	-72663.19	0,8.23945e-06,1.78776e-05,2.91517e-05,4.23397e-05,5.77663e-05,7.58116e-05,9.692e-05,0.000121612,0.000150495,0.000184281,0.000223802,0.000270031,0.000324109,0.000387366,0.00046136,0.000547916,0.000649164,0.000767599,0.000906138,0.00106819,0.00125776,0.0014795,0.00173889,0.0020423,0.00239723,0.00281239,0.00329804,0.00386612,0.00453063,0.00530794,0.00621721,inf	2.06021,2.06021,2.06021,6.8547,56.5863,257.669,773.56,1724.34,3079.89,4554.29,5562.86,5621.43,4905.23,3930.14,3040.72,2343.32,1809.32,1382.56,1036.72,771.982,587.252,470.043,403.785,374.907,375.135,402.461,464.613,710.02,710.02,122.161,122.161,122.161
0.000702229	-72604.31	0,8.23945e-06,1.78776e-05,2.91517e-05,4.23397e-05,5.77663e-05,7.58116e-05,9.692e-05,0.000121612,0.000150495,0.000184281,0.000223802,0.000270031,0.000324109,0.000387366,0.00046136,0.000547916,0.000649164,0.000767599,0.000906138,0.00106819,0.00125776,0.0014795,0.00173889,0.0020423,0.00239723,0.00281239,0.00329804,0.00386612,0.00453063,0.00530794,0.00621721,inf	2.06021,2.06021,2.06021,5.5032,51.4998,251.265,781.345,1770.28,3182.45,4707.86,5718.04,5721.64,4949.93,3950.25,3058.23,2364.14,1830.48,1398.99,1045.38,773.207,583.407,463.592,396.44,367.702,368.789,397.731,462.743,724.979,724.979,121.125,121.125,121.125
0.000752405	-72552.94	0,8.23945e-06,1.78776e-05,2.91517e-05,4.23397e-05,5.77663e-05,7.58116e-05,9.692e-05,0.000121612,0.000150495,0.000184281,0.000223802,0.000270031,0.000324109,0.000387366,0.00046136,0.000547916,0.000649164,0.000767599,0.000906138,0.00106819,0.00125776,0.0014795,0.00173889,0.0020423,0.00239723,0.00281239,0.00329804,0.00386612,0.00453063,0.00530794,0.00621721,inf	2.06021,2.06021,2.06021,4.5416,47.6732,247.197,791.893,1817.71,3283.05,4854.09,5860.33,5808.28,4985.4,3965.47,3073.19,2383.4,1850.58,1414.72,1053.65,774.325,579.724,457.507,389.565,360.959,362.788,393.103,460.532,737.768,737.768,119.938,119.938,119.938
0.000801216	-72507.88	0,8.23945e-06,1.78776e-05,2.91517e-05,4.23397e-05,5.77663e-05,7.58116e-05,9.692e-05,0.000121612,0.000150495,0.000184281,0.000223802,0.000270031,0.000324109,0.000387366,0.00046136,0.000547916,0.000649164,0.000767599,0.000906138,0.00106819,0.00125776,0.0014795,0.00173889,0.0020423,0.00239723,0.00281239,0.00329804,0.00386612,0.00453063,0.00530794,0.00621721,inf	2.06021,2.06021,2.06021,3.77738,44.7394,244.833,804.376,1865.81,3381.18,4993.12,5990.84,5883.25,5013.4,3976.91,3086.15,2401.34,1869.67,1429.7,1061.42,775.225,576.094,451.686,383.066,354.608,357.102,388.612,458.131,748.935,748.935,118.64,118.64,118.64
0.000848683	-72468.11	0,8.23945e-06,1.78776e-05,2.91517e-05,4.23397e-05,5.77663e-05,7.58116e-05,9.692e-05,0.000121612,0.000150495,0.000184281,0.000223802,0.000270031,0.000324109,0.000387366,0.00046136,0.000547916,0.000649164,0.000767599,0.000906138,0.00106819,0.00125776,0.0014795,0.00173889,0.0020423,0.00239723,0.00281239,0.00329804,0.00386612,0.00453063,0.00530794,0.00621721,inf	2.06021,2.06021,2.06021,3.20822,42.4571,243.741,818.23,1914.04,3476.61,5125.28,6110.7,5948.27,5035.39,3985.47,3097.61,2418.18,1887.83,1443.91,1068.64,775.847,572.452,446.059,376.879,348.597,351.706,384.281,455.641,758.908,758.908,117.267,117.267,117.267
0.000894838	-72432.83	0,8.23945e-06,1.78776e-05,2.91517e-05,4.23397e-05,5.77663e-05,7.58116e-05,9.692e-05,0.000121612,0.000150495,0.000184281,0.000223802,0.000270031,0.000324109,0.000387366,0.00046136,0.000547916,0.000649164,0.000767599,0.000906138,0.00106819,0.00125776,0.0014795,0.00173889,0.0020423,0.00239723,0.00281239,0.00329804,0.00386612,0.00453063,0.00530794,0.00621721,inf	2.06021,2.06021,2.06021,2.77432,40.6623,243.616,833.053,1962.07,3569.25,5250.96,6220.97,6004.75,5052.54,3991.84,3107.92,2434.11,1905.15,1457.39,1075.31,776.156,568.758,440.582,370.956,342.884,346.576,380.119,453.133,768.014,768.014,115.845,115.845,115.845
0.000939719	-72401.38	0,8.23945e-06,1.78776e-05,2.91517e-05,4.23397e-05,5.77663e-05,7.58116e-05,9.692e-05,0.000121612,0.000150495,0.000184281,0.000223802,0.000270031,0.000324109,0.000387366,0.00046136,0.000547916,0.000649164,0.000767599,0.000906138,0.00106819,0.00125776,0.0014795,0.00173889,0.0020423,0.00239723,0.00281239,0.00329804,0.00386612,0.00453063,0.00530794,0.00621721,inf	2.06021,2.06021,2.06021,2.43644,39.2394,244.237,848.554,2009.65,3659.09,5370.55,6322.57,6053.9,5065.77,3996.54,3117.33,2449.26,1921.68,1470.14,1081.41,776.132,564.985,435.222,365.26,337.435,341.69,376.129,450.652,776.503,776.503,114.399,114.399,114.399
0.000983364	-72373.24	0,8.23945e-06,1.78776e-05,2.91517e-05,4.23397e-05,5.77663e-05,7.58116e-05,9.692e-05,0.000121612,0.000150495,0.000184281,0.000223802,0.000270031,0.000324109,0.000387366,0.00046136,0.000547916,0.000649164,0.000767599,0.000906138,0.00106819,0.00125776,0.0014795,0.00173889,0.0020423,0.00239723,0.00281239,0.00329804,0.00386612,0.00453063,0.00530794,0.00621721,inf	2.06021,2.06021,2.06021,2.16835,38.1055,245.44,864.518,2056.62,3746.18,5484.44,6416.34,6096.75,5075.81,3999.99,3126.07,2463.75,1937.48,1482.19,1086.94,775.771,561.118,429.955,359.761,332.221,337.026,372.305,448.226,784.565,784.565,112.946,112.946,112.946
0.00102581	-72347.95	0,8.23945e-06,1.78776e-05,2.91517e-05,4.23397e-05,5.77663e-05,7.58116e-05,9.692e-05,0.000121612,0.000150495,0.000184281,0.000223802,0.000270031,0.000324109,0.000387366,0.00046136,0.000547916,0.000649164,0.000767599,0.000906138,0.00106819,0.00125776,0.0014795,0.00173889,0.0020423,0.00239723,0.00281239,0.00329804,0.00386612,0.00453063,0.00530794,0.00621721,inf	2.06021,2.06021,2.06021,2.06021,37.1995,247.099,880.788,2102.88,3830.59,5592.98,6503.02,6134.14,5083.27,4002.47,3134.27,2477.65,1952.6,1493.56,1091.91,775.068,557.146,424.762,354.436,327.216,332.565,368.641,445.872,792.341,792.341,111.501,111.501,111.501
0.00106711	-72325.13	0,8.23945e-06,1.78776e-05,2.91517e-05,4.23397e-05,5.77663e-05,7.58116e-05,9.692e-05,0.000121612,0.000150495,0.000184281,0.000223802,0.000270031,0.000324109,0.000387366,0.00046136,0.000547916,0.000649164,0.000767599,0.000906138,0.00106819,0.00125776,0.0014795,0.00173889,0.0020423,0.00239723,0.00281239,0.00329804,0.00386612,0.00453063,0.00530794,0.00621721,inf	2.06021,2.06021,2.06021,2.06021,36.475,249.12,897.239,2148.36,3912.4,5696.51,6583.27,6166.79,5088.6,4004.24,3142.07,2491.03,1967.09,1504.27,1096.34,774.029,553.065,419.629,349.264,322.4,328.287,365.126,443.598,799.938,799.938,110.076,110.076,110.076
0.00110729	-72304.48	0,8.23945e-06,1.78776e-05,2.91517e-05,4.23397e-05,5.77663e-05,7.58116e-05,9.692e-05,0.000121612,0.000150495,0.000184281,0.000223802,0.000270031,0.000324109,0.000387366,0.00046136,0.000547916,0.000649164,0.000767599,0.000906138,0.00106819,0.00125776,0.0014795,0.00173889,0.0020423,0.00239723,0.00281239,0.00329804,0.00386612,0.00453063,0.00530794,0.00621721,inf	2.06021,2.06021,2.06021,2.06021,35.8973,251.426,913.78,2193.02,3991.71,5795.35,6657.65,6195.29,5092.2,4005.47,3149.54,2503.96,1980.99,1514.36,1100.23,772.656,548.873,414.545,344.228,317.751,324.175,361.75,441.406,807.433,807.433,108.68,108.68,108.68
