LogLikelihood = -1369545.5014197807759

y0 0.57558272103461949332
y0_prime 0
y1 0.80253554549294492393
y1_prime 0
y2 0.88998172256842089656
y2_prime 0
y3 1.8361913104030125332
y3_prime 0
rho 0.0013996574271827315773
theta 0.0044709890921338481598
