AIC = 1481559.5987143926322

y0 1.0847774676163129643e-11
y0_prime 0
y1 1.2821038509661144555
y1_prime 0
y2 1.4005695385384580032
y2_prime 0
y3 0.9734777577031147322
y3_prime 0
rho 0.0058862202679976390052
theta 0.003785338966640929264
