AIC = 3008358.9206127291545

y0 0.85314210479804708509
y0_prime 0
y1 0.98108762746068467475
y1_prime 0
y2 1.0559501625430098848
y2_prime 0
y3 1.6518527838775156624
y3_prime 0
rho 0.00076947580492647067903
theta 0.0049666039356065115259
