LogLikelihood = -846477.71135139488615

y0 0.8865042347020799518
y0_prime 0
y1 1.0616248023769148112
y1_prime 0
y2 0.94720008855364012934
y2_prime 0
y3 1.6269407896502143807
y3_prime 0
rho 0.00069844309194890387502
theta 0.0025050640891279684491
