0.000719043	-13873462.90	0,1.7675e-06,4.09573e-06,7.16259e-06,1.12024e-05,1.65239e-05,2.35335e-05,3.2767e-05,4.49298e-05,6.09512e-05,8.20554e-05,0.000109855,0.000146474,0.00019471,0.000258249,0.000341945,0.000452194,0.00059742,0.000788718,0.0010407,0.00137263,0.00180987,0.00238581,0.00314448,0.00414383,0.00546022,0.00719423,0.00947836,0.0124871,0.0164504,0.021671,0.0285479,inf	158.587,158.587,292.055,362.049,379.928,368.715,345.199,319.154,303.758,298.645,298.22,299.598,300.048,300.921,305.541,313.886,326.033,342.166,361.932,384.15,406.763,426.83,439.338,441.741,438.717,434.022,428.042,426.427,426.427,454.959,454.959,454.959
0.000806974	-13865716.58	0,1.7675e-06,4.09573e-06,7.16259e-06,1.12024e-05,1.65239e-05,2.35335e-05,3.2767e-05,4.49298e-05,6.09512e-05,8.20554e-05,0.000109855,0.000146474,0.00019471,0.000258249,0.000341945,0.000452194,0.00059742,0.000788718,0.0010407,0.00137263,0.00180987,0.00238581,0.00314448,0.00414383,0.00546022,0.00719423,0.00947836,0.0124871,0.0164504,0.021671,0.0285479,inf	74.434,74.434,249.804,382.437,424.541,406.874,363.12,316.041,290.281,281.971,280.529,280.758,277.599,274.562,277.708,286.726,301.669,322.668,348.957,378.755,409.659,438.462,458.052,463.761,461.706,456.408,447.432,447.649,447.649,520.721,520.721,520.721
0.000889636	-13860644.03	0,1.7675e-06,4.09573e-06,7.16259e-06,1.12024e-05,1.65239e-05,2.35335e-05,3.2767e-05,4.49298e-05,6.09512e-05,8.20554e-05,0.000109855,0.000146474,0.00019471,0.000258249,0.000341945,0.000452194,0.00059742,0.000788718,0.0010407,0.00137263,0.00180987,0.00238581,0.00314448,0.00414383,0.00546022,0.00719423,0.00947836,0.0124871,0.0164504,0.021671,0.0285479,inf	34.222,34.222,207.247,390.396,461.187,442.47,382.769,320.048,288.913,280.672,280.38,280.616,274.117,267.282,268.534,277.053,292.784,315.648,344.354,376.645,410.241,442.483,465.686,474.208,474.548,470.545,460.286,464.547,464.547,604.25,604.25,604.25
0.000967488	-13856774.82	0,1.7675e-06,4.09573e-06,7.16259e-06,1.12024e-05,1.65239e-05,2.35335e-05,3.2767e-05,4.49298e-05,6.09512e-05,8.20554e-05,0.000109855,0.000146474,0.00019471,0.000258249,0.000341945,0.000452194,0.00059742,0.000788718,0.0010407,0.00137263,0.00180987,0.00238581,0.00314448,0.00414383,0.00546022,0.00719423,0.00947836,0.0124871,0.0164504,0.021671,0.0285479,inf	15.4435,15.4435,166.822,383.866,482.186,465.226,393.225,319.745,286.948,281.063,283.624,285.019,275.948,266.145,266.027,274.126,290.247,314.001,343.529,376.179,409.973,443.023,467.745,478.322,481.346,479.391,468.794,478.508,478.508,722.054,722.054,722.054
0.00104108	-13853633.61	0,1.7675e-06,4.09573e-06,7.16259e-06,1.12024e-05,1.65239e-05,2.35335e-05,3.2767e-05,4.49298e-05,6.09512e-05,8.20554e-05,0.000109855,0.000146474,0.00019471,0.000258249,0.000341945,0.000452194,0.00059742,0.000788718,0.0010407,0.00137263,0.00180987,0.00238581,0.00314448,0.00414383,0.00546022,0.00719423,0.00947836,0.0124871,0.0164504,0.021671,0.0285479,inf	6.99668,6.99668,133.258,371.177,493.458,478.462,396.069,315.132,282.826,280.443,286.751,289.964,278.957,267.004,266.111,274.113,290.647,314.958,344.617,376.654,409.474,441.986,466.991,478.948,484.501,484.786,474.363,490.458,490.458,919.383,919.383,919.383
0.00111088	-13851004.49	0,1.7675e-06,4.09573e-06,7.16259e-06,1.12024e-05,1.65239e-05,2.35335e-05,3.2767e-05,4.49298e-05,6.09512e-05,8.20554e-05,0.000109855,0.000146474,0.00019471,0.000258249,0.000341945,0.000452194,0.00059742,0.000788718,0.0010407,0.00137263,0.00180987,0.00238581,0.00314448,0.00414383,0.00546022,0.00719423,0.00947836,0.0124871,0.0164504,0.021671,0.0285479,inf	3.23392,3.23392,107.234,358.149,500.892,486.758,394.57,308.106,277.324,278.796,289.126,294.385,281.851,268.383,267.202,275.42,292.483,317.244,346.717,377.684,408.98,440.269,464.833,477.644,485.423,487.882,477.898,501.037,501.037,1406.34,1406.34,1406.34
0.00117725	-13848765.35	0,1.7675e-06,4.09573e-06,7.16259e-06,1.12024e-05,1.65239e-05,2.35335e-05,3.2767e-05,4.49298e-05,6.09512e-05,8.20554e-05,0.000109855,0.000146474,0.00019471,0.000258249,0.000341945,0.000452194,0.00059742,0.000788718,0.0010407,0.00137263,0.00180987,0.00238581,0.00314448,0.00414383,0.00546022,0.00719423,0.00947836,0.0124871,0.0164504,0.021671,0.0285479,inf	1.53343,1.53343,87.5054,347.17,507.8,493.094,391.084,300.202,271.353,276.612,290.894,298.135,284.284,269.757,268.641,277.317,295.027,320.206,349.346,379.039,408.57,438.297,462.005,475.282,484.956,489.41,479.991,510.736,510.736,4823.94,4823.94,4823.94
0.00117725	-13846836.47	0,1.7675e-06,4.09573e-06,7.16259e-06,1.12024e-05,1.65239e-05,2.35335e-05,3.2767e-05,4.49298e-05,6.09512e-05,8.20554e-05,0.000109855,0.000146474,0.00019471,0.000258249,0.000341945,0.000452194,0.00059742,0.000788718,0.0010407,0.00137263,0.00180987,0.00238581,0.00314448,0.00414383,0.00546022,0.00719423,0.00947836,0.0124871,0.0164504,0.021671,0.0285479,inf	0.73319,0.73319,71.4511,333.846,508.07,491.641,381.27,288.075,261.658,270.342,288.048,296.896,282.016,266.969,266.165,275.315,293.439,318.581,346.821,374.726,402.107,429.993,452.841,466.68,478.879,485.696,477.691,517.134,517.134,59374.5,59374.5,59374.5
