LogLikelihood = -1425076.912195820827

y0 0.86520423643989607942
y0_prime 0
y1 0.97794094719365443069
y1_prime 0
y2 0.83745197004935267859
y2_prime 0
y3 1.575351017969540468
y3_prime 0
rho 0.0023518672399977943142
theta 0.0046740529152254784578
