8.79606e-06	-6628.22	0,1.15302e-06,2.73072e-06,4.88951e-06,7.84342e-06,1.18853e-05,1.74158e-05,2.49834e-05,3.53381e-05,4.95067e-05,6.88938e-05,9.54215e-05,0.00013172,0.000181387,0.000249348,0.000342339,inf	5865,5865,12950.3,20399.3,27843.7,32969.6,35188.4,36042,37381,38465.6,36696.5,36913.3,46088.1,53603,53603,53603
9.74085e-06	-6624.80	0,1.15302e-06,2.73072e-06,4.88951e-06,7.84342e-06,1.18853e-05,1.74158e-05,2.49834e-05,3.53381e-05,4.95067e-05,6.88938e-05,9.54215e-05,0.00013172,0.000181387,0.000249348,0.000342339,inf	1463.34,1463.34,6955.6,16154,27127,34120.4,36285.1,37463.8,40224.2,43261.6,40123.7,41457.7,73552.5,127452,127452,127452
1.06043e-05	-6623.43	0,1.15302e-06,2.73072e-06,4.88951e-06,7.84342e-06,1.18853e-05,1.74158e-05,2.49834e-05,3.53381e-05,4.95067e-05,6.88938e-05,9.54215e-05,0.00013172,0.000181387,0.000249348,0.000342339,inf	413.781,413.781,4179.29,13899.7,27429.1,35153.1,36541.4,37743.5,41573.8,46783.8,42595.5,46414.5,161148,1.65271e+06,1.65271e+06,1.65271e+06
1.06043e-05	-6622.71	0,1.15302e-06,2.73072e-06,4.88951e-06,7.84342e-06,1.18853e-05,1.74158e-05,2.49834e-05,3.53381e-05,4.95067e-05,6.88938e-05,9.54215e-05,0.00013172,0.000181387,0.000249348,0.000342339,inf	124.182,124.182,2639.16,12313.1,27636.3,35234.5,35690.8,36858.3,41414.7,48705.1,44001.1,52570,1.46209e+06,4.0218e+06,4.0218e+06,4.0218e+06
