LogLikelihood = -7748.1623475187516306

y0 9.6239542838028791481e-11
y0_prime 0
y1 1.5879211510835669063
y1_prime 0
y2 0.85821124004778659433
y2_prime 0
y3 2.6016152649155426246
y3_prime 0
rho 0.00023439304361808598054
rho.alpha 0.054550525095707805279
r_ii 0.99991872348769050838
theta 7.477231328776269754e-05
