AIC = 1864967.4516313560307

y0 1.0477384393036892618
y0_prime 0
y1 1.0720295739667442536
y1_prime 0
y2 0.89414144288653807369
y2_prime 0
y3 1.617397171738702788
y3_prime 0
rho 0.015315807847565766561
theta 0.00500180443113349988
