LogLikelihood = -863362.51018642750569

y0 0.45773369736371199989
y0_prime 0
y1 0.99899318315442453553
y1_prime 0
y2 0.84218010657946174025
y2_prime 0
y3 1.6419015193899522131
y3_prime 0
rho 0.0012881665540660813037
rho.alpha 0.18989510188699104676
r_ii 0.99986271736916765285
theta 0.0025517284140753287817
