0.000571083	-2981341.91	0,4.23832e-05,9.1961e-05,0.000149955,0.000217793,0.000297146,0.00038997,0.00049855,0.000625563,0.000774135,0.000947928,0.00115122,0.00138902,0.00166719,0.00199258,0.00237321,0.00281844,0.00333926,0.00394848,0.00466112,0.00549472,0.00646984,0.00761047,0.00894473,0.0105055,0.0123312,0.0144668,0.0169649,0.0198871,0.0233053,0.0273037,0.0319809,inf	306.388,306.388,371.904,412.242,423.57,417.825,415.962,414.944,412.596,410.628,410.238,410.182,409.166,407.003,403.842,400.524,398.004,396.57,396.131,395.853,394.568,392.69,391.922,392.356,392.698,392.733,393.963,400.069,400.069,438.551,438.551,438.551
0.000524836	-2980810.06	0,4.23832e-05,9.1961e-05,0.000149955,0.000217793,0.000297146,0.00038997,0.00049855,0.000625563,0.000774135,0.000947928,0.00115122,0.00138902,0.00166719,0.00199258,0.00237321,0.00281844,0.00333926,0.00394848,0.00466112,0.00549472,0.00646984,0.00761047,0.00894473,0.0105055,0.0123312,0.0144668,0.0169649,0.0198871,0.0233053,0.0273037,0.0319809,inf	273.807,273.807,356.837,419.702,439.309,425.508,421.815,420.678,416.937,413.84,414.128,415.409,414.791,411.756,406.493,400.698,396.403,394.184,393.908,393.888,391.576,387.841,386.384,387.358,387.95,387.719,389.748,401.923,401.923,484.815,484.815,484.815
0.000484934	-2980381.75	0,4.23832e-05,9.1961e-05,0.000149955,0.000217793,0.000297146,0.00038997,0.00049855,0.000625563,0.000774135,0.000947928,0.00115122,0.00138902,0.00166719,0.00199258,0.00237321,0.00281844,0.00333926,0.00394848,0.00466112,0.00549472,0.00646984,0.00761047,0.00894473,0.0105055,0.0123312,0.0144668,0.0169649,0.0198871,0.0233053,0.0273037,0.0319809,inf	264.029,264.029,348.519,424.884,452.323,429.113,423.643,422.773,417.893,413.695,414.844,418.031,418.538,415.383,408.659,400.887,395.271,392.662,392.957,393.623,390.475,384.857,382.799,384.48,385.28,384.529,386.968,405.419,405.419,543.6,543.6,543.6
0.000450817	-2980039.22	0,4.23832e-05,9.1961e-05,0.000149955,0.000217793,0.000297146,0.00038997,0.00049855,0.000625563,0.000774135,0.000947928,0.00115122,0.00138902,0.00166719,0.00199258,0.00237321,0.00281844,0.00333926,0.00394848,0.00466112,0.00549472,0.00646984,0.00761047,0.00894473,0.0105055,0.0123312,0.0144668,0.0169649,0.0198871,0.0233053,0.0273037,0.0319809,inf	263.65,263.65,344.16,429.026,465.091,431.543,424.394,423.99,417.924,412.284,414.015,419.201,421.132,418.258,410.449,400.983,394.311,391.543,392.675,394.372,390.537,382.981,380.422,383.017,384.019,382.523,385.002,410.1,410.1,623.014,623.014,623.014
0.000421852	-2979770.61	0,4.23832e-05,9.1961e-05,0.000149955,0.000217793,0.000297146,0.00038997,0.00049855,0.000625563,0.000774135,0.000947928,0.00115122,0.00138902,0.00166719,0.00199258,0.00237321,0.00281844,0.00333926,0.00394848,0.00466112,0.00549472,0.00646984,0.00761047,0.00894473,0.0105055,0.0123312,0.0144668,0.0169649,0.0198871,0.0233053,0.0273037,0.0319809,inf	266.449,266.449,341.309,431.335,477.351,432.977,424.468,424.833,417.599,410.187,412.126,419.242,422.726,420.387,411.766,400.804,393.26,390.466,392.605,395.62,391.221,381.662,378.714,382.454,383.67,381.227,383.374,415.582,415.582,740.592,740.592,740.592
0.00039746	-2979564.76	0,4.23832e-05,9.1961e-05,0.000149955,0.000217793,0.000297146,0.00038997,0.00049855,0.000625563,0.000774135,0.000947928,0.00115122,0.00138902,0.00166719,0.00199258,0.00237321,0.00281844,0.00333926,0.00394848,0.00466112,0.00549472,0.00646984,0.00761047,0.00894473,0.0105055,0.0123312,0.0144668,0.0169649,0.0198871,0.0233053,0.0273037,0.0319809,inf	270.363,270.363,339.521,432.187,489.51,433.919,424.399,425.858,417.497,408.007,409.741,418.609,423.643,421.975,412.722,400.391,392.084,389.319,392.543,397.097,392.225,380.584,377.357,382.472,383.914,380.328,381.756,421.569,421.569,943.417,943.417,943.417
0.000377066	-2979410.71	0,4.23832e-05,9.1961e-05,0.000149955,0.000217793,0.000297146,0.00038997,0.00049855,0.000625563,0.000774135,0.000947928,0.00115122,0.00138902,0.00166719,0.00199258,0.00237321,0.00281844,0.00333926,0.00394848,0.00466112,0.00549472,0.00646984,0.00761047,0.00894473,0.0105055,0.0123312,0.0144668,0.0169649,0.0198871,0.0233053,0.0273037,0.0319809,inf	274.455,274.455,338.51,431.744,501.577,434.455,424.289,427.185,417.799,406.009,407.16,417.577,424.1,423.167,413.418,399.806,390.805,388.069,392.389,398.644,393.366,379.56,376.154,382.861,384.531,379.604,379.903,427.843,427.843,1413.36,1413.36,1413.36
0.000360125	-2979298.00	0,4.23832e-05,9.1961e-05,0.000149955,0.000217793,0.000297146,0.00038997,0.00049855,0.000625563,0.000774135,0.000947928,0.00115122,0.00138902,0.00166719,0.00199258,0.00237321,0.00281844,0.00333926,0.00394848,0.00466112,0.00549472,0.00646984,0.00761047,0.00894473,0.0105055,0.0123312,0.0144668,0.0169649,0.0198871,0.0233053,0.0273037,0.0319809,inf	278.304,278.304,338.103,430.146,513.462,434.561,424.1,428.779,418.522,404.295,404.552,416.326,424.249,424.081,413.942,399.12,389.471,386.735,392.112,400.184,394.546,378.493,374.998,383.486,385.377,378.91,377.659,434.47,434.47,3579.44,3579.44,3579.44
0.00036011	-2979217.22	0,4.23832e-05,9.1961e-05,0.000149955,0.000217793,0.000297146,0.00038997,0.00049855,0.000625563,0.000774135,0.000947928,0.00115122,0.00138902,0.00166719,0.00199258,0.00237321,0.00281844,0.00333926,0.00394848,0.00466112,0.00549472,0.00646984,0.00761047,0.00894473,0.0105055,0.0123312,0.0144668,0.0169649,0.0198871,0.0233053,0.0273037,0.0319809,inf	284.878,284.878,342.418,432.697,532.308,440.017,429.421,436.396,425.315,408.204,407.117,420.122,429.338,429.785,418.994,402.551,391.88,388.784,394.929,404.743,398.452,379.655,375.931,386.286,388.214,379.803,376.394,443.406,443.406,82802.9,82802.9,82802.9
0.00036011	-2979216.92	0,4.23832e-05,9.1961e-05,0.000149955,0.000217793,0.000297146,0.00038997,0.00049855,0.000625563,0.000774135,0.000947928,0.00115122,0.00138902,0.00166719,0.00199258,0.00237321,0.00281844,0.00333926,0.00394848,0.00466112,0.00549472,0.00646984,0.00761047,0.00894473,0.0105055,0.0123312,0.0144668,0.0169649,0.0198871,0.0233053,0.0273037,0.0319809,inf	284.878,284.878,342.428,429.728,534.846,439.971,429.461,436.396,425.315,408.204,406.58,420.581,429.338,429.785,418.994,402.551,391.88,388.784,394.929,404.743,398.452,379.573,375.834,386.429,388.214,379.803,374.302,444.23,444.23,82802.9,82802.9,82802.9
0.00036011	-2979216.86	0,4.23832e-05,9.1961e-05,0.000149955,0.000217793,0.000297146,0.00038997,0.00049855,0.000625563,0.000774135,0.000947928,0.00115122,0.00138902,0.00166719,0.00199258,0.00237321,0.00281844,0.00333926,0.00394848,0.00466112,0.00549472,0.00646984,0.00761047,0.00894473,0.0105055,0.0123312,0.0144668,0.0169649,0.0198871,0.0233053,0.0273037,0.0319809,inf	284.878,284.878,342.441,426.959,537.213,439.787,429.618,436.396,425.315,408.204,406.05,421.034,429.338,429.785,418.994,402.551,391.88,388.784,394.929,404.743,398.452,379.506,375.755,386.546,388.214,379.803,372.288,445.024,445.024,82802.9,82802.9,82802.9
0.00036011	-2979216.81	0,4.23832e-05,9.1961e-05,0.000149955,0.000217793,0.000297146,0.00038997,0.00049855,0.000625563,0.000774135,0.000947928,0.00115122,0.00138902,0.00166719,0.00199258,0.00237321,0.00281844,0.00333926,0.00394848,0.00466112,0.00549472,0.00646984,0.00761047,0.00894473,0.0105055,0.0123312,0.0144668,0.0169649,0.0198871,0.0233053,0.0273037,0.0319809,inf	284.878,284.878,342.477,424.386,539.413,439.483,429.878,436.396,425.315,408.204,405.528,421.48,429.338,429.785,418.994,402.551,391.88,388.784,394.929,404.743,398.452,379.452,375.692,386.639,388.214,379.803,370.351,445.787,445.787,82802.9,82802.9,82802.9
0.00036011	-2979216.77	0,4.23832e-05,9.1961e-05,0.000149955,0.000217793,0.000297146,0.00038997,0.00049855,0.000625563,0.000774135,0.000947928,0.00115122,0.00138902,0.00166719,0.00199258,0.00237321,0.00281844,0.00333926,0.00394848,0.00466112,0.00549472,0.00646984,0.00761047,0.00894473,0.0105055,0.0123312,0.0144668,0.0169649,0.0198871,0.0233053,0.0273037,0.0319809,inf	284.878,284.878,342.511,421.996,541.456,439.069,430.232,436.396,425.315,408.204,405.011,421.922,429.338,429.785,418.994,402.551,391.88,388.784,394.929,404.743,398.452,379.409,375.643,386.712,388.214,379.803,368.486,446.522,446.522,82802.9,82802.9,82802.9
0.00036011	-2979216.72	0,4.23832e-05,9.1961e-05,0.000149955,0.000217793,0.000297146,0.00038997,0.00049855,0.000625563,0.000774135,0.000947928,0.00115122,0.00138902,0.00166719,0.00199258,0.00237321,0.00281844,0.00333926,0.00394848,0.00466112,0.00549472,0.00646984,0.00761047,0.00894473,0.0105055,0.0123312,0.0144668,0.0169649,0.0198871,0.0233053,0.0273037,0.0319809,inf	284.878,284.878,342.512,419.783,543.348,438.56,430.583,436.396,425.376,408.204,404.501,422.358,429.338,429.785,418.994,402.551,391.88,388.784,394.929,404.743,398.452,379.377,375.608,386.766,388.214,379.803,366.69,447.229,447.229,82802.9,82802.9,82802.9
0.00036011	-2979216.68	0,4.23832e-05,9.1961e-05,0.000149955,0.000217793,0.000297146,0.00038997,0.00049855,0.000625563,0.000774135,0.000947928,0.00115122,0.00138902,0.00166719,0.00199258,0.00237321,0.00281844,0.00333926,0.00394848,0.00466112,0.00549472,0.00646984,0.00761047,0.00894473,0.0105055,0.0123312,0.0144668,0.0169649,0.0198871,0.0233053,0.0273037,0.0319809,inf	284.878,284.878,342.525,417.746,545.089,437.974,430.879,436.572,425.376,408.204,403.994,422.792,429.338,429.785,418.994,402.551,391.88,388.784,394.929,404.743,398.452,379.353,375.585,386.803,388.214,379.803,364.963,447.91,447.91,82802.9,82802.9,82802.9
0.00036011	-2979216.65	0,4.23832e-05,9.1961e-05,0.000149955,0.000217793,0.000297146,0.00038997,0.00049855,0.000625563,0.000774135,0.000947928,0.00115122,0.00138902,0.00166719,0.00199258,0.00237321,0.00281844,0.00333926,0.00394848,0.00466112,0.00549472,0.00646984,0.00761047,0.00894473,0.0105055,0.0123312,0.0144668,0.0169649,0.0198871,0.0233053,0.0273037,0.0319809,inf	284.878,284.878,342.525,415.877,546.712,437.326,431.124,436.836,425.376,408.204,403.488,423.224,429.338,429.785,418.994,402.551,391.88,388.784,394.929,404.743,398.452,379.336,375.573,386.826,388.214,379.803,363.298,448.566,448.566,82802.9,82802.9,82802.9
0.00036011	-2979216.61	0,4.23832e-05,9.1961e-05,0.000149955,0.000217793,0.000297146,0.00038997,0.00049855,0.000625563,0.000774135,0.000947928,0.00115122,0.00138902,0.00166719,0.00199258,0.00237321,0.00281844,0.00333926,0.00394848,0.00466112,0.00549472,0.00646984,0.00761047,0.00894473,0.0105055,0.0123312,0.0144668,0.0169649,0.0198871,0.0233053,0.0273037,0.0319809,inf	284.878,284.878,342.525,414.173,548.168,436.629,431.32,436.836,425.668,408.204,402.985,423.654,429.338,429.785,418.994,402.551,391.88,388.784,394.929,404.743,398.452,379.324,375.57,386.836,388.214,379.803,361.695,449.197,449.197,82802.9,82802.9,82802.9
0.00036011	-2979216.58	0,4.23832e-05,9.1961e-05,0.000149955,0.000217793,0.000297146,0.00038997,0.00049855,0.000625563,0.000774135,0.000947928,0.00115122,0.00138902,0.00166719,0.00199258,0.00237321,0.00281844,0.00333926,0.00394848,0.00466112,0.00549472,0.00646984,0.00761047,0.00894473,0.0105055,0.0123312,0.0144668,0.0169649,0.0198871,0.0233053,0.0273037,0.0319809,inf	284.878,284.878,342.542,412.633,549.485,435.917,431.494,437.207,425.668,408.204,402.473,424.092,429.338,429.785,418.994,402.551,391.88,388.784,394.929,404.743,398.452,379.318,375.576,386.836,388.214,379.803,360.152,449.805,449.805,82802.9,82802.9,82802.9
0.00036011	-2979216.55	0,4.23832e-05,9.1961e-05,0.000149955,0.000217793,0.000297146,0.00038997,0.00049855,0.000625563,0.000774135,0.000947928,0.00115122,0.00138902,0.00166719,0.00199258,0.00237321,0.00281844,0.00333926,0.00394848,0.00466112,0.00549472,0.00646984,0.00761047,0.00894473,0.0105055,0.0123312,0.0144668,0.0169649,0.0198871,0.0233053,0.0273037,0.0319809,inf	284.878,284.878,342.555,411.241,550.675,435.185,431.634,437.622,425.668,408.204,401.959,424.531,429.338,429.785,418.994,402.551,391.88,388.784,394.929,404.743,398.452,379.317,375.577,386.836,388.214,379.803,358.665,450.391,450.391,82802.9,82802.9,82802.9
0.00036011	-2979216.52	0,4.23832e-05,9.1961e-05,0.000149955,0.000217793,0.000297146,0.00038997,0.00049855,0.000625563,0.000774135,0.000947928,0.00115122,0.00138902,0.00166719,0.00199258,0.00237321,0.00281844,0.00333926,0.00394848,0.00466112,0.00549472,0.00646984,0.00761047,0.00894473,0.0105055,0.0123312,0.0144668,0.0169649,0.0198871,0.0233053,0.0273037,0.0319809,inf	284.878,284.878,342.573,409.992,551.743,434.443,431.743,438.072,425.668,408.204,401.444,424.971,429.338,429.785,418.994,402.551,391.88,388.784,394.929,404.743,398.452,379.317,375.577,386.836,388.214,379.803,357.233,450.955,450.955,82802.9,82802.9,82802.9
