AIC = 1185415.8640700464603

y0 0.8527696219685139134
y0_prime 0
y1 0.81316384059428070685
y1_prime 0
y2 1.0101922255247177684
y2_prime 0
y3 1.6666359461255548791
y3_prime 0
rho 0.001802782247892281307
theta 0.0048497783772788556275
