time_index	left_time_boundary	right_time_boundary	lambda
0	0	1.06307e-05	465.393
1	1.06307e-05	2.39675e-05	465.393
2	2.39675e-05	4.06993e-05	465.393
3	4.06993e-05	6.16903e-05	465.393
4	6.16903e-05	8.80247e-05	465.393
5	8.80247e-05	0.000121063	465.393
6	0.000121063	0.000162511	465.393
7	0.000162511	0.00021451	465.393
8	0.00021451	0.000279746	465.393
9	0.000279746	0.000361588	465.393
10	0.000361588	0.000464264	465.393
11	0.000464264	0.000593078	465.393
12	0.000593078	0.000754681	465.393
13	0.000754681	0.000957422	465.393
14	0.000957422	0.00121177	465.393
15	0.00121177	0.00153087	465.393
16	0.00153087	0.0019312	465.393
17	0.0019312	0.00243343	465.393
18	0.00243343	0.00306351	465.393
19	0.00306351	0.00385398	465.393
20	0.00385398	0.00484567	465.393
21	0.00484567	0.00608981	465.393
22	0.00608981	0.00765065	465.393
23	0.00765065	0.00960882	465.393
24	0.00960882	0.0120655	465.393
25	0.0120655	0.0151474	465.393
26	0.0151474	0.019014	465.393
27	0.019014	0.0238648	465.393
28	0.0238648	0.0299504	465.393
29	0.0299504	inf	465.393
