0.000754739	-14134632.21	0,4.10417e-06,1.12255e-05,2.3582e-05,4.50224e-05,8.22245e-05,0.000146776,0.000258781,0.000453126,0.000790344,0.00137546,0.00239073,0.00415237,0.00720906,0.0125129,0.0217157,inf	156.206,156.206,215.668,196.197,178.912,175.302,180.129,198.516,239.873,323.401,500.422,551.902,476.915,444.285,444.285,444.285
0.000875304	-14112774.16	0,4.10417e-06,1.12255e-05,2.3582e-05,4.50224e-05,8.22245e-05,0.000146776,0.000258781,0.000453126,0.000790344,0.00137546,0.00239073,0.00415237,0.00720906,0.0125129,0.0217157,inf	126.275,126.275,237.642,193.366,155.079,138.865,132.833,144.607,187.198,285.251,532.234,640.916,524.097,471.381,471.381,471.381
0.000984612	-14104218.39	0,4.10417e-06,1.12255e-05,2.3582e-05,4.50224e-05,8.22245e-05,0.000146776,0.000258781,0.000453126,0.000790344,0.00137546,0.00239073,0.00415237,0.00720906,0.0125129,0.0217157,inf	108.936,108.936,284.136,218.571,163.001,136.473,120.52,125.445,165.142,264.995,539.687,690.863,549.529,485.537,485.537,485.537
0.0010854	-14099309.36	0,4.10417e-06,1.12255e-05,2.3582e-05,4.50224e-05,8.22245e-05,0.000146776,0.000258781,0.000453126,0.000790344,0.00137546,0.00239073,0.00415237,0.00720906,0.0125129,0.0217157,inf	87.0776,87.0776,317.83,241.533,176.291,143.061,119.044,118.601,155.582,254.03,538.984,718.953,561.526,491.88,491.88,491.88
0.00118016	-14095744.83	0,4.10417e-06,1.12255e-05,2.3582e-05,4.50224e-05,8.22245e-05,0.000146776,0.000258781,0.000453126,0.000790344,0.00137546,0.00239073,0.00415237,0.00720906,0.0125129,0.0217157,inf	65.0883,65.0883,331.134,253.881,187.139,151.35,121.426,117.076,152.087,248.245,535.648,734.547,565.408,493.706,493.706,493.706
0.00127057	-14092817.14	0,4.10417e-06,1.12255e-05,2.3582e-05,4.50224e-05,8.22245e-05,0.000146776,0.000258781,0.000453126,0.000790344,0.00137546,0.00239073,0.00415237,0.00720906,0.0125129,0.0217157,inf	47.1783,47.1783,329.658,255.952,193.517,158.775,125.083,118.115,151.874,245.518,531.632,742.737,564.427,493.01,493.01,493.01
0.00135773	-14090260.21	0,4.10417e-06,1.12255e-05,2.3582e-05,4.50224e-05,8.22245e-05,0.000146776,0.000258781,0.000453126,0.000790344,0.00137546,0.00239073,0.00415237,0.00720906,0.0125129,0.0217157,inf	34.1857,34.1857,321.348,251.029,195.719,164.533,128.941,120.46,153.564,244.673,527.635,746.401,560.564,490.974,490.974,490.974
0.00144236	-14087955.98	0,4.10417e-06,1.12255e-05,2.3582e-05,4.50224e-05,8.22245e-05,0.000146776,0.000258781,0.000453126,0.000790344,0.00137546,0.00239073,0.00415237,0.00720906,0.0125129,0.0217157,inf	25.2454,25.2454,312.002,242.447,194.826,168.585,132.562,123.491,156.428,245.021,523.982,747.197,555.019,488.283,488.283,488.283
0.00152492	-14085844.14	0,4.10417e-06,1.12255e-05,2.3582e-05,4.50224e-05,8.22245e-05,0.000146776,0.000258781,0.000453126,0.000790344,0.00137546,0.00239073,0.00415237,0.00720906,0.0125129,0.0217157,inf	19.1797,19.1797,304.549,232.483,191.882,171.11,135.733,126.831,159.99,246.115,520.614,746.19,548.561,485.35,485.35,485.35
0.00160574	-14083889.33	0,4.10417e-06,1.12255e-05,2.3582e-05,4.50224e-05,8.22245e-05,0.000146776,0.000258781,0.000453126,0.000790344,0.00137546,0.00239073,0.00415237,0.00720906,0.0125129,0.0217157,inf	15.0305,15.0305,300.206,222.55,187.807,172.44,138.423,130.294,163.986,247.691,517.536,744.034,541.655,482.403,482.403,482.403
0.00168505	-14082068.89	0,4.10417e-06,1.12255e-05,2.3582e-05,4.50224e-05,8.22245e-05,0.000146776,0.000258781,0.000453126,0.000790344,0.00137546,0.00239073,0.00415237,0.00720906,0.0125129,0.0217157,inf	12.1272,12.1272,299.135,213.353,183.251,172.888,140.662,133.774,168.246,249.573,514.724,741.151,534.593,479.567,479.567,479.567
0.001763	-14080366.60	0,4.10417e-06,1.12255e-05,2.3582e-05,4.50224e-05,8.22245e-05,0.000146776,0.000258781,0.000453126,0.000790344,0.00137546,0.00239073,0.00415237,0.00720906,0.0125129,0.0217157,inf	10.039,10.039,300.975,205.153,178.636,172.721,142.501,137.21,172.655,251.641,512.146,737.816,527.551,476.906,476.906,476.906
0.00183972	-14078770.03	0,4.10417e-06,1.12255e-05,2.3582e-05,4.50224e-05,8.22245e-05,0.000146776,0.000258781,0.000453126,0.000790344,0.00137546,0.00239073,0.00415237,0.00720906,0.0125129,0.0217157,inf	8.48048,8.48048,305.199,197.988,174.226,172.15,144,140.566,177.137,253.815,509.77,734.212,520.636,474.447,474.447,474.447
0.00191529	-14077269.07	0,4.10417e-06,1.12255e-05,2.3582e-05,4.50224e-05,8.22245e-05,0.000146776,0.000258781,0.000453126,0.000790344,0.00137546,0.00239073,0.00415237,0.00720906,0.0125129,0.0217157,inf	7.28126,7.28126,311.224,191.79,170.173,171.337,145.218,143.827,181.638,256.039,507.569,730.463,513.911,472.198,472.198,472.198
0.00198976	-14075855.27	0,4.10417e-06,1.12255e-05,2.3582e-05,4.50224e-05,8.22245e-05,0.000146776,0.000258781,0.000453126,0.000790344,0.00137546,0.00239073,0.00415237,0.00720906,0.0125129,0.0217157,inf	6.32864,6.32864,318.523,186.446,166.546,170.402,146.208,146.985,186.122,258.274,505.52,726.651,507.412,470.154,470.154,470.154
0.0020632	-14074521.31	0,4.10417e-06,1.12255e-05,2.3582e-05,4.50224e-05,8.22245e-05,0.000146776,0.000258781,0.000453126,0.000790344,0.00137546,0.00239073,0.00415237,0.00720906,0.0125129,0.0217157,inf	5.54936,5.54936,326.652,181.839,163.376,169.432,147.018,150.037,190.562,260.493,503.602,722.833,501.152,468.304,468.304,468.304
0.00213565	-14073260.81	0,4.10417e-06,1.12255e-05,2.3582e-05,4.50224e-05,8.22245e-05,0.000146776,0.000258781,0.000453126,0.000790344,0.00137546,0.00239073,0.00415237,0.00720906,0.0125129,0.0217157,inf	4.8966,4.8966,335.214,177.856,160.663,168.485,147.685,152.988,194.94,262.678,501.799,719.048,495.137,466.634,466.634,466.634
0.00220713	-14072068.08	0,4.10417e-06,1.12255e-05,2.3582e-05,4.50224e-05,8.22245e-05,0.000146776,0.000258781,0.000453126,0.000790344,0.00137546,0.00239073,0.00415237,0.00720906,0.0125129,0.0217157,inf	4.34289,4.34289,343.934,174.406,158.392,167.604,148.244,155.84,199.246,264.818,500.097,715.322,489.364,465.13,465.13,465.13
0.00227767	-14070938.05	0,4.10417e-06,1.12255e-05,2.3582e-05,4.50224e-05,8.22245e-05,0.000146776,0.000258781,0.000453126,0.000790344,0.00137546,0.00239073,0.00415237,0.00720906,0.0125129,0.0217157,inf	3.86589,3.86589,352.565,171.405,156.538,166.813,148.719,158.598,203.469,266.902,498.486,711.671,483.825,463.776,463.776,463.776
0.0023473	-14069866.14	0,4.10417e-06,1.12255e-05,2.3582e-05,4.50224e-05,8.22245e-05,0.000146776,0.000258781,0.000453126,0.000790344,0.00137546,0.00239073,0.00415237,0.00720906,0.0125129,0.0217157,inf	3.45336,3.45336,360.948,168.782,155.068,166.127,149.132,161.269,207.605,268.927,496.955,708.107,478.512,462.559,462.559,462.559
