0.000719516	-315031.62	0,9.27577e-05,0.00021968,0.000393348,0.000630982,0.00095614,0.00140106,0.00200985,0.00284286,0.00398269,0.00554233,0.00767641,0.0105965,0.0145921,0.0200594,0.0275403,inf	146.399,146.399,191.782,234.911,286.261,358.321,461.928,545.593,525.223,476.119,445.359,425.792,421.589,444.165,444.165,444.165
0.00081047	-314591.31	0,9.27577e-05,0.00021968,0.000393348,0.000630982,0.00095614,0.00140106,0.00200985,0.00284286,0.00398269,0.00554233,0.00767641,0.0105965,0.0145921,0.0200594,0.0275403,inf	92.8434,92.8434,133.014,179.339,239.24,329.773,477.831,631.309,606.44,525.488,475.066,442.001,437.816,490.775,490.775,490.775
0.00089652	-314403.67	0,9.27577e-05,0.00021968,0.000393348,0.000630982,0.00095614,0.00140106,0.00200985,0.00284286,0.00398269,0.00554233,0.00767641,0.0105965,0.0145921,0.0200594,0.0275403,inf	77.8008,77.8008,111.094,155.789,216.185,311.187,478.312,680.267,655.185,554.09,491.829,449.951,448.185,536.353,536.353,536.353
0.000978127	-314293.59	0,9.27577e-05,0.00021968,0.000393348,0.000630982,0.00095614,0.00140106,0.00200985,0.00284286,0.00398269,0.00554233,0.00767641,0.0105965,0.0145921,0.0200594,0.0275403,inf	74.5155,74.5155,102.68,145.62,204.579,299.35,474.371,708.978,683.707,569.512,500.362,452.893,454.641,580.898,580.898,580.898
0.00105636	-314214.11	0,9.27577e-05,0.00021968,0.000393348,0.000630982,0.00095614,0.00140106,0.00200985,0.00284286,0.00398269,0.00554233,0.00767641,0.0105965,0.0145921,0.0200594,0.0275403,inf	75.4837,75.4837,100.194,141.981,199.082,291.84,469.514,726.268,699.815,576.799,503.805,452.879,458.457,624.364,624.364,624.364
0.00113208	-314149.49	0,9.27577e-05,0.00021968,0.000393348,0.000630982,0.00095614,0.00140106,0.00200985,0.00284286,0.00398269,0.00554233,0.00767641,0.0105965,0.0145921,0.0200594,0.0275403,inf	77.8546,77.8546,100.561,141.837,197.075,287.12,464.852,736.865,708.23,579.109,504.14,451.156,460.456,666.591,666.591,666.591
0.0012059	-314093.51	0,9.27577e-05,0.00021968,0.000393348,0.000630982,0.00095614,0.00140106,0.00200985,0.00284286,0.00398269,0.00554233,0.00767641,0.0105965,0.0145921,0.0200594,0.0275403,inf	80.3792,80.3792,102.352,143.67,197.154,284.231,460.705,743.392,711.809,578.391,502.603,448.473,461.18,707.317,707.317,707.317
0.00127822	-314043.36	0,9.27577e-05,0.00021968,0.000393348,0.000630982,0.00095614,0.00140106,0.00200985,0.00284286,0.00398269,0.00554233,0.00767641,0.0105965,0.0145921,0.0200594,0.0275403,inf	82.52,82.52,104.844,146.658,198.517,282.573,457.115,747.361,712.308,575.85,499.961,445.283,460.994,746.174,746.174,746.174
0.00134932	-313997.59	0,9.27577e-05,0.00021968,0.000393348,0.000630982,0.00095614,0.00140106,0.00200985,0.00284286,0.00398269,0.00554233,0.00767641,0.0105965,0.0145921,0.0200594,0.0275403,inf	84.1006,84.1006,107.659,150.331,200.682,281.755,454.04,749.676,710.826,572.237,496.694,441.858,460.149,782.702,782.702,782.702
0.00141939	-313955.32	0,9.27577e-05,0.00021968,0.000393348,0.000630982,0.00095614,0.00140106,0.00200985,0.00284286,0.00398269,0.00554233,0.00767641,0.0105965,0.0145921,0.0200594,0.0275403,inf	85.1233,85.1233,110.593,154.407,203.348,281.52,451.409,750.895,708.067,568.019,493.101,438.363,458.824,816.362,816.362,816.362
0.00148855	-313916.02	0,9.27577e-05,0.00021968,0.000393348,0.000630982,0.00095614,0.00140106,0.00200985,0.00284286,0.00398269,0.00554233,0.00767641,0.0105965,0.0145921,0.0200594,0.0275403,inf	85.6702,85.6702,113.539,158.708,206.319,281.692,449.155,751.371,704.486,563.493,489.37,434.894,457.145,846.579,846.579,846.579
0.00155688	-313879.27	0,9.27577e-05,0.00021968,0.000393348,0.000630982,0.00095614,0.00140106,0.00200985,0.00284286,0.00398269,0.00554233,0.00767641,0.0105965,0.0145921,0.0200594,0.0275403,inf	85.8476,85.8476,116.441,163.122,209.466,282.151,447.217,751.337,700.385,558.842,485.617,431.508,455.208,872.772,872.772,872.772
0.00162445	-313844.80	0,9.27577e-05,0.00021968,0.000393348,0.000630982,0.00095614,0.00140106,0.00200985,0.00284286,0.00398269,0.00554233,0.00767641,0.0105965,0.0145921,0.0200594,0.0275403,inf	85.7602,85.7602,119.273,167.574,212.702,282.813,445.545,750.945,695.966,554.184,481.913,428.236,453.081,894.451,894.451,894.451
0.00169131	-313812.35	0,9.27577e-05,0.00021968,0.000393348,0.000630982,0.00095614,0.00140106,0.00200985,0.00284286,0.00398269,0.00554233,0.00767641,0.0105965,0.0145921,0.0200594,0.0275403,inf	85.4988,85.4988,122.024,172.014,215.966,283.617,444.095,750.301,691.367,549.589,478.302,425.094,450.817,911.274,911.274,911.274
0.00175748	-313781.74	0,9.27577e-05,0.00021968,0.000393348,0.000630982,0.00095614,0.00140106,0.00200985,0.00284286,0.00398269,0.00554233,0.00767641,0.0105965,0.0145921,0.0200594,0.0275403,inf	85.1361,85.1361,124.692,176.408,219.218,284.52,442.833,749.478,686.679,545.102,474.807,422.087,448.458,923.111,923.111,923.111
0.00182298	-313752.80	0,9.27577e-05,0.00021968,0.000393348,0.000630982,0.00095614,0.00140106,0.00200985,0.00284286,0.00398269,0.00554233,0.00767641,0.0105965,0.0145921,0.0200594,0.0275403,inf	84.7272,84.7272,127.279,180.732,222.43,285.49,441.73,748.527,681.969,540.746,471.44,419.216,446.034,930.07,930.07,930.07
0.00188785	-313725.40	0,9.27577e-05,0.00021968,0.000393348,0.000630982,0.00095614,0.00140106,0.00200985,0.00284286,0.00398269,0.00554233,0.00767641,0.0105965,0.0145921,0.0200594,0.0275403,inf	84.3127,84.3127,129.79,184.971,225.581,286.505,440.765,747.485,677.278,536.534,468.207,416.478,443.57,932.489,932.489,932.489
0.00195209	-313699.40	0,9.27577e-05,0.00021968,0.000393348,0.000630982,0.00095614,0.00140106,0.00200985,0.00284286,0.00398269,0.00554233,0.00767641,0.0105965,0.0145921,0.0200594,0.0275403,inf	83.9217,83.9217,132.231,189.115,228.659,287.548,439.916,746.379,672.637,532.472,465.107,413.866,441.086,930.883,930.883,930.883
0.00201573	-313674.71	0,9.27577e-05,0.00021968,0.000393348,0.000630982,0.00095614,0.00140106,0.00200985,0.00284286,0.00398269,0.00554233,0.00767641,0.0105965,0.0145921,0.0200594,0.0275403,inf	83.5745,83.5745,134.607,193.156,231.657,288.606,439.169,745.23,668.067,528.56,462.138,411.375,438.595,925.867,925.867,925.867
0.00207876	-313651.23	0,9.27577e-05,0.00021968,0.000393348,0.000630982,0.00095614,0.00140106,0.00200985,0.00284286,0.00398269,0.00554233,0.00767641,0.0105965,0.0145921,0.0200594,0.0275403,inf	83.2831,83.2831,136.926,197.092,234.57,289.671,438.512,744.051,663.58,524.794,459.295,408.998,436.11,918.094,918.094,918.094
