time_index	left_time_boundary	right_time_boundary	lambda
0	0	1.0378e-05	140.606
1	1.0378e-05	2.71907e-05	140.606
2	2.71907e-05	5.44279e-05	167.67
3	5.44279e-05	9.85529e-05	218.382
4	9.85529e-05	0.000170037	174.649
5	0.000170037	0.000285843	143.077
6	0.000285843	0.000473453	150.151
7	0.000473453	0.000777386	197.572
8	0.000777386	0.00126977	271.987
9	0.00126977	0.00206744	413.36
10	0.00206744	0.0033597	723.138
11	0.0033597	0.0054532	591.837
12	0.0054532	0.00884473	396.591
13	0.00884473	0.0143391	322.571
14	0.0143391	0.0232402	322.571
15	0.0232402	inf	322.571
