AIC = 3037040.4507559384219

y0 0.78604045299681912784
y0_prime 0
y1 1.0284643720136277256
y1_prime 0
y2 1.0503933537242458041
y2_prime 0
y3 1.7215204352440620639
y3_prime 0
rho 0.00096003078728848685337
theta 0.0049972439206249132798
