AIC = 3034197.1995835457928

y0 0.96282039407280661791
y0_prime 0
y1 1.0659923895181968589
y1_prime 0
y2 0.93808148016517589607
y2_prime 0
y3 1.7474953942280710972
y3_prime 0
rho 0.0017479927053030892316
rho.alpha 0.64313768072665522535
r_ii 0.99998501210855561538
theta 0.0049972439206249132798
