7.00125e-05	-43842.85	0,9.67754e-06,2.29195e-05,4.10386e-05,6.58312e-05,9.97554e-05,0.000146174,0.00020969,0.0002966,0.000415519,0.000578238,0.00080089,0.00110555,0.00152241,0.00209282,0.00287331,inf	3321.17,3321.17,4170.93,3787.21,3604.41,3920.04,4178.87,4247.77,4067.8,3792.13,3629.46,3575.06,3592.46,4766.12,4766.12,4766.12
7.37145e-05	-43838.76	0,9.67754e-06,2.29195e-05,4.10386e-05,6.58312e-05,9.97554e-05,0.000146174,0.00020969,0.0002966,0.000415519,0.000578238,0.00080089,0.00110555,0.00152241,0.00209282,0.00287331,inf	2989.88,2989.88,4540.49,3721.6,3373.77,3902.85,4361.73,4520.36,4212.42,3746.65,3489.22,3425.14,3450.25,5810.28,5810.28,5810.28
7.70015e-05	-43836.37	0,9.67754e-06,2.29195e-05,4.10386e-05,6.58312e-05,9.97554e-05,0.000146174,0.00020969,0.0002966,0.000415519,0.000578238,0.00080089,0.00110555,0.00152241,0.00209282,0.00287331,inf	2742.24,2742.24,4924.59,3657.54,3178.53,3860.55,4462.79,4702.39,4295.03,3695.7,3383.37,3328.06,3348.65,7004.46,7004.46,7004.46
7.99724e-05	-43834.67	0,9.67754e-06,2.29195e-05,4.10386e-05,6.58312e-05,9.97554e-05,0.000146174,0.00020969,0.0002966,0.000415519,0.000578238,0.00080089,0.00110555,0.00152241,0.00209282,0.00287331,inf	2536.39,2536.39,5301.57,3595.16,3019.97,3820.9,4525.68,4832.27,4342.66,3647.79,3304.42,3264.76,3270.63,8473.27,8473.27,8473.27
8.26823e-05	-43833.36	0,9.67754e-06,2.29195e-05,4.10386e-05,6.58312e-05,9.97554e-05,0.000146174,0.00020969,0.0002966,0.000415519,0.000578238,0.00080089,0.00110555,0.00152241,0.00209282,0.00287331,inf	2355.88,2355.88,5656.51,3531.57,2890.86,3790.32,4569.12,4929.73,4369.21,3605.03,3245.31,3223.06,3206.34,10511.3,10511.3,10511.3
8.51662e-05	-43832.31	0,9.67754e-06,2.29195e-05,4.10386e-05,6.58312e-05,9.97554e-05,0.000146174,0.00020969,0.0002966,0.000415519,0.000578238,0.00080089,0.00110555,0.00152241,0.00209282,0.00287331,inf	2194.98,2194.98,5982.83,3465.76,2784.51,3769.21,4601.73,5005.61,4382.3,3567.39,3200.52,3195.03,3149.53,14157.7,14157.7,14157.7
8.74495e-05	-43831.43	0,9.67754e-06,2.29195e-05,4.10386e-05,6.58312e-05,9.97554e-05,0.000146174,0.00020969,0.0002966,0.000415519,0.000578238,0.00080089,0.00110555,0.00152241,0.00209282,0.00287331,inf	2051.36,2051.36,6279.13,3397.96,2695.82,3756.41,4627.74,5066.29,4386.32,3534.09,3165.81,3175,3095.14,26476.2,26476.2,26476.2
8.95501e-05	-43830.67	0,9.67754e-06,2.29195e-05,4.10386e-05,6.58312e-05,9.97554e-05,0.000146174,0.00020969,0.0002966,0.000415519,0.000578238,0.00080089,0.00110555,0.00152241,0.00209282,0.00287331,inf	1923.61,1923.61,6546.54,3328.85,2620.95,3750.37,4649.26,5115.68,4383.84,3503.96,3137.53,3157.78,3037.07,98775.6,98775.6,98775.6
9.1489e-05	-43830.04	0,9.67754e-06,2.29195e-05,4.10386e-05,6.58312e-05,9.97554e-05,0.000146174,0.00020969,0.0002966,0.000415519,0.000578238,0.00080089,0.00110555,0.00152241,0.00209282,0.00287331,inf	1810.37,1810.37,6787.8,3259.41,2557.21,3749.94,4667.84,5156.98,4377.35,3477.14,3114.64,3142.81,2977.4,44362.8,44362.8,44362.8
9.32971e-05	-43829.64	0,9.67754e-06,2.29195e-05,4.10386e-05,6.58312e-05,9.97554e-05,0.000146174,0.00020969,0.0002966,0.000415519,0.000578238,0.00080089,0.00110555,0.00152241,0.00209282,0.00287331,inf	1710.38,1710.38,7006.61,3190.67,2502.71,3754.44,4684.92,5193.4,4370.13,3455.98,3100.34,3138.17,2932.39,48768.6,48768.6,48768.6
9.49725e-05	-43829.24	0,9.67754e-06,2.29195e-05,4.10386e-05,6.58312e-05,9.97554e-05,0.000146174,0.00020969,0.0002966,0.000415519,0.000578238,0.00080089,0.00110555,0.00152241,0.00209282,0.00287331,inf	1621.87,1621.87,7204.14,3122.46,2455.31,3762.08,4699.59,5224.24,4360.68,3437.35,3090.14,3137.28,2892.84,42986.6,42986.6,42986.6
9.65283e-05	-43828.91	0,9.67754e-06,2.29195e-05,4.10386e-05,6.58312e-05,9.97554e-05,0.000146174,0.00020969,0.0002966,0.000415519,0.000578238,0.00080089,0.00110555,0.00152241,0.00209282,0.00287331,inf	1543.6,1543.6,7383.56,3055.47,2413.95,3772.38,4712.45,5250.83,4349.89,3421.1,3083.5,3140.08,2859.54,40948.2,40948.2,40948.2
9.79725e-05	-43828.62	0,9.67754e-06,2.29195e-05,4.10386e-05,6.58312e-05,9.97554e-05,0.000146174,0.00020969,0.0002966,0.000415519,0.000578238,0.00080089,0.00110555,0.00152241,0.00209282,0.00287331,inf	1474.23,1474.23,7546.92,2989.92,2377.6,3784.75,4723.66,5273.76,4337.96,3406.53,3079.22,3145.02,2830.63,38523.5,38523.5,38523.5
9.93141e-05	-43828.37	0,9.67754e-06,2.29195e-05,4.10386e-05,6.58312e-05,9.97554e-05,0.000146174,0.00020969,0.0002966,0.000415519,0.000578238,0.00080089,0.00110555,0.00152241,0.00209282,0.00287331,inf	1412.63,1412.63,7696.35,2926.04,2345.5,3798.77,4733.46,5293.75,4325.27,3393.36,3076.72,3151.49,2805.5,36641.1,36641.1,36641.1
0.000100561	-43828.15	0,9.67754e-06,2.29195e-05,4.10386e-05,6.58312e-05,9.97554e-05,0.000146174,0.00020969,0.0002966,0.000415519,0.000578238,0.00080089,0.00110555,0.00152241,0.00209282,0.00287331,inf	1357.79,1357.79,7833.44,2863.95,2317.02,3814.08,4742.02,5311.32,4312.11,3381.34,3075.49,3158.91,2783.44,34989,34989,34989
0.000101721	-43827.95	0,9.67754e-06,2.29195e-05,4.10386e-05,6.58312e-05,9.97554e-05,0.000146174,0.00020969,0.0002966,0.000415519,0.000578238,0.00080089,0.00110555,0.00152241,0.00209282,0.00287331,inf	1308.83,1308.83,7959.66,2803.68,2291.62,3830.4,4749.46,5326.9,4298.71,3370.32,3075.2,3166.89,2763.97,33572.5,33572.5,33572.5
0.000102799	-43827.78	0,9.67754e-06,2.29195e-05,4.10386e-05,6.58312e-05,9.97554e-05,0.000146174,0.00020969,0.0002966,0.000415519,0.000578238,0.00080089,0.00110555,0.00152241,0.00209282,0.00287331,inf	1264.96,1264.96,8076.35,2745.28,2268.87,3847.47,4755.89,5340.84,4285.25,3360.17,3075.6,3175.14,2746.7,32343.3,32343.3,32343.3
0.000103804	-43827.63	0,9.67754e-06,2.29195e-05,4.10386e-05,6.58312e-05,9.97554e-05,0.000146174,0.00020969,0.0002966,0.000415519,0.000578238,0.00080089,0.00110555,0.00152241,0.00209282,0.00287331,inf	1225.5,1225.5,8184.46,2688.71,2248.41,3865.08,4761.39,5353.41,4271.88,3350.8,3076.48,3183.47,2731.3,31268.6,31268.6,31268.6
0.000104739	-43827.50	0,9.67754e-06,2.29195e-05,4.10386e-05,6.58312e-05,9.97554e-05,0.000146174,0.00020969,0.0002966,0.000415519,0.000578238,0.00080089,0.00110555,0.00152241,0.00209282,0.00287331,inf	1189.95,1189.95,8285.05,2633.96,2229.95,3883.09,4766.02,5364.87,4258.7,3342.13,3077.72,3191.71,2717.54,30325.8,30325.8,30325.8
0.000105611	-43827.38	0,9.67754e-06,2.29195e-05,4.10386e-05,6.58312e-05,9.97554e-05,0.000146174,0.00020969,0.0002966,0.000415519,0.000578238,0.00080089,0.00110555,0.00152241,0.00209282,0.00287331,inf	1157.76,1157.76,8378.84,2580.98,2213.22,3901.34,4769.83,5375.37,4245.8,3334.09,3079.22,3199.77,2705.17,29492,29492,29492
