AIC = 625363.24170260468964

y0 0.8362242642901508427
y0_prime 0
y1 1.0873141833470976181
y1_prime 0
y2 0.84070997293286775509
y2_prime 0
y3 1.8765241849636491445
y3_prime 0
rho 0.003983877144932638191
rho.alpha 1.2300911161824070739
r_ii 0.99976102857692672465
theta 0.00512182435038831263
