LogLikelihood = -859211.70206497935578

y0 0.97694080128609150915
y0_prime 0
y1 1.0198034556455897182
y1_prime 0
y2 1.0134199764208060568
y2_prime 0
y3 1.5466388190471289654
y3_prime 0
rho 0.00010069314847991402573
theta 0.0025991275773170107247
