0.000587939	-13801371.52	0,1.82236e-06,4.22285e-06,7.38491e-06,1.15501e-05,1.70367e-05,2.4264e-05,3.3784e-05,4.63243e-05,6.2843e-05,8.46022e-05,0.000113265,0.00015102,0.000200753,0.000266264,0.000352558,0.000466229,0.000615962,0.000813198,0.00107301,0.00141524,0.00186604,0.00245987,0.00324208,0.00427244,0.00562969,0.00741753,0.00977255,0.0128747,0.016961,0.0223437,0.029434,inf	218.627,218.627,460.939,177.426,199.413,278.387,334.895,398.627,429.235,406.69,390.315,390.016,388.147,387.079,399.026,402.895,401.112,401.513,401.293,396.335,390.177,385.278,378.594,372.287,373.739,375.319,365.791,381.572,381.572,428.889,428.889,428.889
0.000538916	-13798867.79	0,1.82236e-06,4.22285e-06,7.38491e-06,1.15501e-05,1.70367e-05,2.4264e-05,3.3784e-05,4.63243e-05,6.2843e-05,8.46022e-05,0.000113265,0.00015102,0.000200753,0.000266264,0.000352558,0.000466229,0.000615962,0.000813198,0.00107301,0.00141524,0.00186604,0.00245987,0.00324208,0.00427244,0.00562969,0.00741753,0.00977255,0.0128747,0.016961,0.0223437,0.029434,inf	148.302,148.302,609.87,101.671,121.745,226.638,308.674,412.4,474.051,425.605,393.291,391.925,387.549,381.692,403.29,410.336,406.274,407.859,409.964,402.838,393.198,386.27,375.007,363.517,367.304,370.63,350.557,379.324,379.324,480.387,480.387,480.387
0.000497526	-13796945.29	0,1.82236e-06,4.22285e-06,7.38491e-06,1.15501e-05,1.70367e-05,2.4264e-05,3.3784e-05,4.63243e-05,6.2843e-05,8.46022e-05,0.000113265,0.00015102,0.000200753,0.000266264,0.000352558,0.000466229,0.000615962,0.000813198,0.00107301,0.00141524,0.00186604,0.00245987,0.00324208,0.00427244,0.00562969,0.00741753,0.00977255,0.0128747,0.016961,0.0223437,0.029434,inf	97.091,97.091,760.581,63.6106,80.6884,195.639,292.384,422.052,518.601,444.072,397.88,395.908,389.553,376.39,405.727,415.01,407.411,409.582,414.895,406.948,395.238,388.181,373.805,357.738,364.67,370.167,338.462,378.532,378.532,546.312,546.312,546.312
0.000462634	-13795448.39	0,1.82236e-06,4.22285e-06,7.38491e-06,1.15501e-05,1.70367e-05,2.4264e-05,3.3784e-05,4.63243e-05,6.2843e-05,8.46022e-05,0.000113265,0.00015102,0.000200753,0.000266264,0.000352558,0.000466229,0.000615962,0.000813198,0.00107301,0.00141524,0.00186604,0.00245987,0.00324208,0.00427244,0.00562969,0.00741753,0.00977255,0.0128747,0.016961,0.0223437,0.029434,inf	59.6117,59.6117,890.483,41.4663,55.7745,173.841,280.211,424.824,559.68,460.218,402.57,400.814,393.702,371.768,407.711,418.826,406.664,408.575,417.305,409.153,396.041,390.098,373.677,353.322,364.091,372.35,328.027,378.304,378.304,637.695,637.695,637.695
0.000433384	-13794297.59	0,1.82236e-06,4.22285e-06,7.38491e-06,1.15501e-05,1.70367e-05,2.4264e-05,3.3784e-05,4.63243e-05,6.2843e-05,8.46022e-05,0.000113265,0.00015102,0.000200753,0.000266264,0.000352558,0.000466229,0.000615962,0.000813198,0.00107301,0.00141524,0.00186604,0.00245987,0.00324208,0.00427244,0.00562969,0.00741753,0.00977255,0.0128747,0.016961,0.0223437,0.029434,inf	34.7187,34.7187,998.582,27.7749,39.6163,157.431,271.076,421.948,597.304,474.144,407.082,406.163,399.683,368.035,409.94,422.905,405.463,406.309,418.355,410.181,395.83,391.737,374.031,349.443,364.559,376.244,318.48,378.173,378.173,783.513,783.513,783.513
0.000409022	-13793433.19	0,1.82236e-06,4.22285e-06,7.38491e-06,1.15501e-05,1.70367e-05,2.4264e-05,3.3784e-05,4.63243e-05,6.2843e-05,8.46022e-05,0.000113265,0.00015102,0.000200753,0.000266264,0.000352558,0.000466229,0.000615962,0.000813198,0.00107301,0.00141524,0.00186604,0.00245987,0.00324208,0.00427244,0.00562969,0.00741753,0.00977255,0.0128747,0.016961,0.0223437,0.029434,inf	19.4035,19.4035,1087.81,18.9731,28.6853,144.573,264.488,414.785,631.639,485.895,411.058,411.319,406.842,364.866,412.352,427.497,404.38,403.549,418.753,410.568,394.88,393.04,374.611,345.694,365.471,381.25,309.426,377.867,377.867,1093.76,1093.76,1093.76
0.000388858	-13792801.37	0,1.82236e-06,4.22285e-06,7.38491e-06,1.15501e-05,1.70367e-05,2.4264e-05,3.3784e-05,4.63243e-05,6.2843e-05,8.46022e-05,0.000113265,0.00015102,0.000200753,0.000266264,0.000352558,0.000466229,0.000615962,0.000813198,0.00107301,0.00141524,0.00186604,0.00245987,0.00324208,0.00427244,0.00562969,0.00741753,0.00977255,0.0128747,0.016961,0.0223437,0.029434,inf	10.5099,10.5099,1161.6,13.1566,21.0804,134.227,260.144,404.615,662.975,495.639,414.322,415.854,414.628,361.918,414.704,432.513,403.581,400.666,418.9,410.669,393.44,394.05,375.335,341.912,366.471,386.976,300.678,377.184,377.184,2454.94,2454.94,2454.94
0.000388856	-13792353.17	0,1.82236e-06,4.22285e-06,7.38491e-06,1.15501e-05,1.70367e-05,2.4264e-05,3.3784e-05,4.63243e-05,6.2843e-05,8.46022e-05,0.000113265,0.00015102,0.000200753,0.000266264,0.000352558,0.000466229,0.000615962,0.000813198,0.00107301,0.00141524,0.00186604,0.00245987,0.00324208,0.00427244,0.00562969,0.00741753,0.00977255,0.0128747,0.016961,0.0223437,0.029434,inf	5.64534,5.64534,1236.19,9.38436,15.9148,127.061,260.509,396.491,699.584,509.471,421.767,424.633,428.094,363.415,422.223,443.954,408.727,403.313,424.977,416.511,396.968,400.095,380.757,341.392,370.85,396.827,294.035,378.13,378.13,57623.8,57623.8,57623.8
