0.000593368	-4621534.89	0,4.72298e-06,1.07344e-05,1.83858e-05,2.81245e-05,4.05199e-05,5.6297e-05,7.6378e-05,0.000101937,0.000134469,0.000175876,0.000228579,0.000295659,0.000381039,0.000489711,0.00062803,0.000804082,0.00102816,0.00131337,0.00167639,0.00213844,0.00272654,0.00347507,0.00442781,0.00564046,0.00718393,0.00914847,0.0116489,0.0148315,0.0188824,0.0240383,0.0306008,inf	36.7251,36.7251,101.162,201.491,325.459,443.875,458.613,419.408,394.811,396.728,388.048,390.596,402.253,406.08,403.653,402.6,401.483,398.174,393.109,388.626,383.78,376.975,372.029,372.714,373.196,366.544,365.447,387.148,387.148,440.802,440.802,440.802
0.000545809	-4620725.66	0,4.72298e-06,1.07344e-05,1.83858e-05,2.81245e-05,4.05199e-05,5.6297e-05,7.6378e-05,0.000101937,0.000134469,0.000175876,0.000228579,0.000295659,0.000381039,0.000489711,0.00062803,0.000804082,0.00102816,0.00131337,0.00167639,0.00213844,0.00272654,0.00347507,0.00442781,0.00564046,0.00718393,0.00914847,0.0116489,0.0148315,0.0188824,0.0240383,0.0306008,inf	3.80322,3.80322,29.2954,113.996,274.157,489.018,521.262,442.844,395.367,401.42,383.583,385.966,408.161,415.877,411.062,410.015,409.966,405.878,398.178,391.808,384.682,372.743,363.994,366.36,367.715,353.889,350.614,391.619,391.619,507.238,507.238,507.238
0.000505364	-4620099.74	0,4.72298e-06,1.07344e-05,1.83858e-05,2.81245e-05,4.05199e-05,5.6297e-05,7.6378e-05,0.000101937,0.000134469,0.000175876,0.000228579,0.000295659,0.000381039,0.000489711,0.00062803,0.000804082,0.00102816,0.00131337,0.00167639,0.00213844,0.00272654,0.00347507,0.00442781,0.00564046,0.00718393,0.00914847,0.0116489,0.0148315,0.0188824,0.0240383,0.0306008,inf	0.402707,0.402707,8.88559,67.798,230.114,522.611,577.809,462.986,394.762,407.209,379.922,379.721,410.995,421.917,413.736,412.405,414.07,410.269,401.071,394.278,386.645,370.619,358.709,363.566,366.252,344.643,338.439,397.473,397.473,591.436,591.436,591.436
0.000471079	-4619607.79	0,4.72298e-06,1.07344e-05,1.83858e-05,2.81245e-05,4.05199e-05,5.6297e-05,7.6378e-05,0.000101937,0.000134469,0.000175876,0.000228579,0.000295659,0.000381039,0.000489711,0.00062803,0.000804082,0.00102816,0.00131337,0.00167639,0.00213844,0.00272654,0.00347507,0.00442781,0.00564046,0.00718393,0.00914847,0.0116489,0.0148315,0.0188824,0.0240383,0.0306008,inf	0.385074,0.385074,2.75505,41.7129,192.328,544.38,627.898,480.496,393.537,414.606,378.01,373.541,412.909,426.64,414.189,412.037,415.532,412.427,402.194,395.754,388.89,369.468,354.744,362.762,367.294,337.342,327.749,404.119,404.119,708.62,708.62,708.62
0.000442197	-4619225.11	0,4.72298e-06,1.07344e-05,1.83858e-05,2.81245e-05,4.05199e-05,5.6297e-05,7.6378e-05,0.000101937,0.000134469,0.000175876,0.000228579,0.000295659,0.000381039,0.000489711,0.00062803,0.000804082,0.00102816,0.00131337,0.00167639,0.00213844,0.00272654,0.00347507,0.00442781,0.00564046,0.00718393,0.00914847,0.0116489,0.0148315,0.0188824,0.0240383,0.0306008,inf	0.385074,0.385074,0.867564,26.4255,160.804,556.593,672.659,496.197,391.946,423.584,377.976,368.026,414.895,431.36,413.942,410.458,415.693,413.345,402.125,396.326,391.12,368.74,351.336,363.02,369.931,331.161,317.947,411.256,411.256,901.463,901.463,901.463
0.000418025	-4618933.27	0,4.72298e-06,1.07344e-05,1.83858e-05,2.81245e-05,4.05199e-05,5.6297e-05,7.6378e-05,0.000101937,0.000134469,0.000175876,0.000228579,0.000295659,0.000381039,0.000489711,0.00062803,0.000804082,0.00102816,0.00131337,0.00167639,0.00213844,0.00272654,0.00347507,0.00442781,0.00564046,0.00718393,0.00914847,0.0116489,0.0148315,0.0188824,0.0240383,0.0306008,inf	0.385074,0.385074,0.385086,17.1705,134.979,561.318,712.729,510.254,389.739,433.548,379.328,363.025,417.034,436.419,413.596,408.42,415.3,413.652,401.31,396.159,393.24,368.175,348.083,363.779,373.581,325.633,308.734,418.722,418.722,1364.58,1364.58,1364.58
0.000397925	-4618715.86	0,4.72298e-06,1.07344e-05,1.83858e-05,2.81245e-05,4.05199e-05,5.6297e-05,7.6378e-05,0.000101937,0.000134469,0.000175876,0.000228579,0.000295659,0.000381039,0.000489711,0.00062803,0.000804082,0.00102816,0.00131337,0.00167639,0.00213844,0.00272654,0.00347507,0.00442781,0.00564046,0.00718393,0.00914847,0.0116489,0.0148315,0.0188824,0.0240383,0.0306008,inf	0.385074,0.385074,0.385075,11.4336,114.067,560.473,748.697,522.736,386.722,443.936,381.566,358.267,419.156,441.79,413.342,406.265,414.752,413.736,400.075,395.429,395.251,367.68,344.809,364.709,377.871,320.504,299.959,426.424,426.424,4400.56,4400.56,4400.56
0.000397906	-4618558.02	0,4.72298e-06,1.07344e-05,1.83858e-05,2.81245e-05,4.05199e-05,5.6297e-05,7.6378e-05,0.000101937,0.000134469,0.000175876,0.000228579,0.000295659,0.000381039,0.000489711,0.00062803,0.000804082,0.00102816,0.00131337,0.00167639,0.00213844,0.00272654,0.00347507,0.00442781,0.00564046,0.00718393,0.00914847,0.0116489,0.0148315,0.0188824,0.0240383,0.0306008,inf	0.385074,0.385074,0.385075,7.9113,98.2143,561.501,790.292,540.277,387.419,460.227,389.311,357.963,426.589,453.63,418.951,409.654,419.967,419.518,403.925,399.341,402.202,371.329,344.685,368.936,385.911,317.87,293.155,436.461,436.461,61326.3,61326.3,61326.3
