time_index	left_time_boundary	right_time_boundary	lambda
0	0	1.82236e-06	151.017
1	1.82236e-06	4.22285e-06	151.017
2	4.22285e-06	7.38491e-06	44.0473
3	7.38491e-06	1.15501e-05	324.075
4	1.15501e-05	1.70367e-05	634.7
5	1.70367e-05	2.4264e-05	595.814
6	2.4264e-05	3.3784e-05	555.643
7	3.3784e-05	4.63243e-05	555.527
8	4.63243e-05	6.2843e-05	565.199
9	6.2843e-05	8.46022e-05	635.156
10	8.46022e-05	0.000113265	767.554
11	0.000113265	0.00015102	869.261
12	0.00015102	0.000200753	874.78
13	0.000200753	0.000266264	793.374
14	0.000266264	0.000352558	668.957
15	0.000352558	0.000466229	544.766
16	0.000466229	0.000615962	445.88
17	0.000615962	0.000813198	377.744
18	0.000813198	0.00107301	335.281
19	0.00107301	0.00141524	311.06
20	0.00141524	0.00186604	298.723
21	0.00186604	0.00245987	293.728
22	0.00245987	0.00324208	293.223
23	0.00324208	0.00427244	295.629
24	0.00427244	0.00562969	300.345
25	0.00562969	0.00741753	307.743
26	0.00741753	0.00977255	318.749
27	0.00977255	0.0128747	339.236
28	0.0128747	0.016961	339.236
29	0.016961	0.0223437	368.992
30	0.0223437	0.029434	368.992
31	0.029434	inf	368.992
