0.000585984	-8561931.04	0,2.95024e-06,6.84638e-06,1.19917e-05,1.87868e-05,2.77604e-05,3.96113e-05,5.52617e-05,7.59301e-05,0.000103225,0.000139272,0.000186875,0.000249742,0.000332765,0.000442407,0.000587202,0.000778422,0.00103095,0.00136445,0.00180487,0.0023865,0.00315461,0.004169,0.00550862,0.00727775,0.00961411,0.0126995,0.0167743,0.0221554,0.0292618,inf	380.121,380.121,380.121,380.121,380.121,380.121,380.121,380.121,380.121,380.121,380.121,380.121,380.121,380.121,380.121,380.121,380.121,380.121,380.121,380.121,380.121,380.121,380.121,380.121,380.121,380.121,380.121,380.121,380.121,380.121
0.000537566	-8560435.25	0,2.95024e-06,6.84638e-06,1.19917e-05,1.87868e-05,2.77604e-05,3.96113e-05,5.52617e-05,7.59301e-05,0.000103225,0.000139272,0.000186875,0.000249742,0.000332765,0.000442407,0.000587202,0.000778422,0.00103095,0.00136445,0.00180487,0.0023865,0.00315461,0.004169,0.00550862,0.00727775,0.00961411,0.0126995,0.0167743,0.0221554,0.0292618,inf	376.761,376.761,376.761,376.761,376.761,376.761,376.761,376.761,376.761,376.761,376.761,376.761,376.761,376.761,376.761,376.761,376.761,376.761,376.761,376.761,376.761,376.761,376.761,376.761,376.761,376.761,376.761,376.761,376.761,376.761
0.000496809	-8559251.79	0,2.95024e-06,6.84638e-06,1.19917e-05,1.87868e-05,2.77604e-05,3.96113e-05,5.52617e-05,7.59301e-05,0.000103225,0.000139272,0.000186875,0.000249742,0.000332765,0.000442407,0.000587202,0.000778422,0.00103095,0.00136445,0.00180487,0.0023865,0.00315461,0.004169,0.00550862,0.00727775,0.00961411,0.0126995,0.0167743,0.0221554,0.0292618,inf	375.402,375.402,375.402,375.402,375.402,375.402,375.402,375.402,375.402,375.402,375.402,375.402,375.402,375.402,375.402,375.402,375.402,375.402,375.402,375.402,375.402,375.402,375.402,375.402,375.402,375.402,375.402,375.402,375.402,375.402
0.000462511	-8558314.92	0,2.95024e-06,6.84638e-06,1.19917e-05,1.87868e-05,2.77604e-05,3.96113e-05,5.52617e-05,7.59301e-05,0.000103225,0.000139272,0.000186875,0.000249742,0.000332765,0.000442407,0.000587202,0.000778422,0.00103095,0.00136445,0.00180487,0.0023865,0.00315461,0.004169,0.00550862,0.00727775,0.00961411,0.0126995,0.0167743,0.0221554,0.0292618,inf	374.84,374.84,374.84,374.84,374.84,374.84,374.84,374.84,374.84,374.84,374.84,374.84,374.84,374.84,374.84,374.84,374.84,374.84,374.84,374.84,374.84,374.84,374.84,374.84,374.84,374.84,374.84,374.84,374.84,374.84
0.000433791	-8557587.80	0,2.95024e-06,6.84638e-06,1.19917e-05,1.87868e-05,2.77604e-05,3.96113e-05,5.52617e-05,7.59301e-05,0.000103225,0.000139272,0.000186875,0.000249742,0.000332765,0.000442407,0.000587202,0.000778422,0.00103095,0.00136445,0.00180487,0.0023865,0.00315461,0.004169,0.00550862,0.00727775,0.00961411,0.0126995,0.0167743,0.0221554,0.0292618,inf	374.548,374.548,374.548,374.548,374.548,374.548,374.548,374.548,374.548,374.548,374.548,374.548,374.548,374.548,374.548,374.548,374.548,374.548,374.548,374.548,374.548,374.548,374.548,374.548,374.548,374.548,374.548,374.548,374.548,374.548
0.000409898	-8557036.47	0,2.95024e-06,6.84638e-06,1.19917e-05,1.87868e-05,2.77604e-05,3.96113e-05,5.52617e-05,7.59301e-05,0.000103225,0.000139272,0.000186875,0.000249742,0.000332765,0.000442407,0.000587202,0.000778422,0.00103095,0.00136445,0.00180487,0.0023865,0.00315461,0.004169,0.00550862,0.00727775,0.00961411,0.0126995,0.0167743,0.0221554,0.0292618,inf	374.316,374.316,374.316,374.316,374.316,374.316,374.316,374.316,374.316,374.316,374.316,374.316,374.316,374.316,374.316,374.316,374.316,374.316,374.316,374.316,374.316,374.316,374.316,374.316,374.316,374.316,374.316,374.316,374.316,374.316
0.000390157	-8556627.68	0,2.95024e-06,6.84638e-06,1.19917e-05,1.87868e-05,2.77604e-05,3.96113e-05,5.52617e-05,7.59301e-05,0.000103225,0.000139272,0.000186875,0.000249742,0.000332765,0.000442407,0.000587202,0.000778422,0.00103095,0.00136445,0.00180487,0.0023865,0.00315461,0.004169,0.00550862,0.00727775,0.00961411,0.0126995,0.0167743,0.0221554,0.0292618,inf	374.075,374.075,374.075,374.075,374.075,374.075,374.075,374.075,374.075,374.075,374.075,374.075,374.075,374.075,374.075,374.075,374.075,374.075,374.075,374.075,374.075,374.075,374.075,374.075,374.075,374.075,374.075,374.075,374.075,374.075
0.00037395	-8556330.61	0,2.95024e-06,6.84638e-06,1.19917e-05,1.87868e-05,2.77604e-05,3.96113e-05,5.52617e-05,7.59301e-05,0.000103225,0.000139272,0.000186875,0.000249742,0.000332765,0.000442407,0.000587202,0.000778422,0.00103095,0.00136445,0.00180487,0.0023865,0.00315461,0.004169,0.00550862,0.00727775,0.00961411,0.0126995,0.0167743,0.0221554,0.0292618,inf	373.815,373.815,373.815,373.815,373.815,373.815,373.815,373.815,373.815,373.815,373.815,373.815,373.815,373.815,373.815,373.815,373.815,373.815,373.815,373.815,373.815,373.815,373.815,373.815,373.815,373.815,373.815,373.815,373.815,373.815
0.000360719	-8556118.42	0,2.95024e-06,6.84638e-06,1.19917e-05,1.87868e-05,2.77604e-05,3.96113e-05,5.52617e-05,7.59301e-05,0.000103225,0.000139272,0.000186875,0.000249742,0.000332765,0.000442407,0.000587202,0.000778422,0.00103095,0.00136445,0.00180487,0.0023865,0.00315461,0.004169,0.00550862,0.00727775,0.00961411,0.0126995,0.0167743,0.0221554,0.0292618,inf	373.545,373.545,373.545,373.545,373.545,373.545,373.545,373.545,373.545,373.545,373.545,373.545,373.545,373.545,373.545,373.545,373.545,373.545,373.545,373.545,373.545,373.545,373.545,373.545,373.545,373.545,373.545,373.545,373.545,373.545
0.00034997	-8555969.03	0,2.95024e-06,6.84638e-06,1.19917e-05,1.87868e-05,2.77604e-05,3.96113e-05,5.52617e-05,7.59301e-05,0.000103225,0.000139272,0.000186875,0.000249742,0.000332765,0.000442407,0.000587202,0.000778422,0.00103095,0.00136445,0.00180487,0.0023865,0.00315461,0.004169,0.00550862,0.00727775,0.00961411,0.0126995,0.0167743,0.0221554,0.0292618,inf	373.28,373.28,373.28,373.28,373.28,373.28,373.28,373.28,373.28,373.28,373.28,373.28,373.28,373.28,373.28,373.28,373.28,373.28,373.28,373.28,373.28,373.28,373.28,373.28,373.28,373.28,373.28,373.28,373.28,373.28
0.000341274	-8555865.02	0,2.95024e-06,6.84638e-06,1.19917e-05,1.87868e-05,2.77604e-05,3.96113e-05,5.52617e-05,7.59301e-05,0.000103225,0.000139272,0.000186875,0.000249742,0.000332765,0.000442407,0.000587202,0.000778422,0.00103095,0.00136445,0.00180487,0.0023865,0.00315461,0.004169,0.00550862,0.00727775,0.00961411,0.0126995,0.0167743,0.0221554,0.0292618,inf	373.031,373.031,373.031,373.031,373.031,373.031,373.031,373.031,373.031,373.031,373.031,373.031,373.031,373.031,373.031,373.031,373.031,373.031,373.031,373.031,373.031,373.031,373.031,373.031,373.031,373.031,373.031,373.031,373.031,373.031
0.000334261	-8555793.19	0,2.95024e-06,6.84638e-06,1.19917e-05,1.87868e-05,2.77604e-05,3.96113e-05,5.52617e-05,7.59301e-05,0.000103225,0.000139272,0.000186875,0.000249742,0.000332765,0.000442407,0.000587202,0.000778422,0.00103095,0.00136445,0.00180487,0.0023865,0.00315461,0.004169,0.00550862,0.00727775,0.00961411,0.0126995,0.0167743,0.0221554,0.0292618,inf	372.806,372.806,372.806,372.806,372.806,372.806,372.806,372.806,372.806,372.806,372.806,372.806,372.806,372.806,372.806,372.806,372.806,372.806,372.806,372.806,372.806,372.806,372.806,372.806,372.806,372.806,372.806,372.806,372.806,372.806
0.000328624	-8555743.84	0,2.95024e-06,6.84638e-06,1.19917e-05,1.87868e-05,2.77604e-05,3.96113e-05,5.52617e-05,7.59301e-05,0.000103225,0.000139272,0.000186875,0.000249742,0.000332765,0.000442407,0.000587202,0.000778422,0.00103095,0.00136445,0.00180487,0.0023865,0.00315461,0.004169,0.00550862,0.00727775,0.00961411,0.0126995,0.0167743,0.0221554,0.0292618,inf	372.607,372.607,372.607,372.607,372.607,372.607,372.607,372.607,372.607,372.607,372.607,372.607,372.607,372.607,372.607,372.607,372.607,372.607,372.607,372.607,372.607,372.607,372.607,372.607,372.607,372.607,372.607,372.607,372.607,372.607
0.000324101	-8555710.01	0,2.95024e-06,6.84638e-06,1.19917e-05,1.87868e-05,2.77604e-05,3.96113e-05,5.52617e-05,7.59301e-05,0.000103225,0.000139272,0.000186875,0.000249742,0.000332765,0.000442407,0.000587202,0.000778422,0.00103095,0.00136445,0.00180487,0.0023865,0.00315461,0.004169,0.00550862,0.00727775,0.00961411,0.0126995,0.0167743,0.0221554,0.0292618,inf	372.435,372.435,372.435,372.435,372.435,372.435,372.435,372.435,372.435,372.435,372.435,372.435,372.435,372.435,372.435,372.435,372.435,372.435,372.435,372.435,372.435,372.435,372.435,372.435,372.435,372.435,372.435,372.435,372.435,372.435
0.000320479	-8555686.80	0,2.95024e-06,6.84638e-06,1.19917e-05,1.87868e-05,2.77604e-05,3.96113e-05,5.52617e-05,7.59301e-05,0.000103225,0.000139272,0.000186875,0.000249742,0.000332765,0.000442407,0.000587202,0.000778422,0.00103095,0.00136445,0.00180487,0.0023865,0.00315461,0.004169,0.00550862,0.00727775,0.00961411,0.0126995,0.0167743,0.0221554,0.0292618,inf	372.29,372.29,372.29,372.29,372.29,372.29,372.29,372.29,372.29,372.29,372.29,372.29,372.29,372.29,372.29,372.29,372.29,372.29,372.29,372.29,372.29,372.29,372.29,372.29,372.29,372.29,372.29,372.29,372.29,372.29
0.000317592	-8555670.83	0,2.95024e-06,6.84638e-06,1.19917e-05,1.87868e-05,2.77604e-05,3.96113e-05,5.52617e-05,7.59301e-05,0.000103225,0.000139272,0.000186875,0.000249742,0.000332765,0.000442407,0.000587202,0.000778422,0.00103095,0.00136445,0.00180487,0.0023865,0.00315461,0.004169,0.00550862,0.00727775,0.00961411,0.0126995,0.0167743,0.0221554,0.0292618,inf	372.209,372.209,372.209,372.209,372.209,372.209,372.209,372.209,372.209,372.209,372.209,372.209,372.209,372.209,372.209,372.209,372.209,372.209,372.209,372.209,372.209,372.209,372.209,372.209,372.209,372.209,372.209,372.209,372.209,372.209
0.000315282	-8555659.66	0,2.95024e-06,6.84638e-06,1.19917e-05,1.87868e-05,2.77604e-05,3.96113e-05,5.52617e-05,7.59301e-05,0.000103225,0.000139272,0.000186875,0.000249742,0.000332765,0.000442407,0.000587202,0.000778422,0.00103095,0.00136445,0.00180487,0.0023865,0.00315461,0.004169,0.00550862,0.00727775,0.00961411,0.0126995,0.0167743,0.0221554,0.0292618,inf	372.116,372.116,372.116,372.116,372.116,372.116,372.116,372.116,372.116,372.116,372.116,372.116,372.116,372.116,372.116,372.116,372.116,372.116,372.116,372.116,372.116,372.116,372.116,372.116,372.116,372.116,372.116,372.116,372.116,372.116
0.000313437	-8555651.94	0,2.95024e-06,6.84638e-06,1.19917e-05,1.87868e-05,2.77604e-05,3.96113e-05,5.52617e-05,7.59301e-05,0.000103225,0.000139272,0.000186875,0.000249742,0.000332765,0.000442407,0.000587202,0.000778422,0.00103095,0.00136445,0.00180487,0.0023865,0.00315461,0.004169,0.00550862,0.00727775,0.00961411,0.0126995,0.0167743,0.0221554,0.0292618,inf	372.029,372.029,372.029,372.029,372.029,372.029,372.029,372.029,372.029,372.029,372.029,372.029,372.029,372.029,372.029,372.029,372.029,372.029,372.029,372.029,372.029,372.029,372.029,372.029,372.029,372.029,372.029,372.029,372.029,372.029
0.000311966	-8555646.54	0,2.95024e-06,6.84638e-06,1.19917e-05,1.87868e-05,2.77604e-05,3.96113e-05,5.52617e-05,7.59301e-05,0.000103225,0.000139272,0.000186875,0.000249742,0.000332765,0.000442407,0.000587202,0.000778422,0.00103095,0.00136445,0.00180487,0.0023865,0.00315461,0.004169,0.00550862,0.00727775,0.00961411,0.0126995,0.0167743,0.0221554,0.0292618,inf	371.955,371.955,371.955,371.955,371.955,371.955,371.955,371.955,371.955,371.955,371.955,371.955,371.955,371.955,371.955,371.955,371.955,371.955,371.955,371.955,371.955,371.955,371.955,371.955,371.955,371.955,371.955,371.955,371.955,371.955
0.000310794	-8555642.71	0,2.95024e-06,6.84638e-06,1.19917e-05,1.87868e-05,2.77604e-05,3.96113e-05,5.52617e-05,7.59301e-05,0.000103225,0.000139272,0.000186875,0.000249742,0.000332765,0.000442407,0.000587202,0.000778422,0.00103095,0.00136445,0.00180487,0.0023865,0.00315461,0.004169,0.00550862,0.00727775,0.00961411,0.0126995,0.0167743,0.0221554,0.0292618,inf	371.894,371.894,371.894,371.894,371.894,371.894,371.894,371.894,371.894,371.894,371.894,371.894,371.894,371.894,371.894,371.894,371.894,371.894,371.894,371.894,371.894,371.894,371.894,371.894,371.894,371.894,371.894,371.894,371.894,371.894
