time_index	left_time_boundary	right_time_boundary	lambda
0	0	8.90214e-05	204.916
1	8.90214e-05	0.000210831	204.916
2	0.000210831	0.000377504	174.749
3	0.000377504	0.000605566	331.944
4	0.000605566	0.000917626	369.987
5	0.000917626	0.00134462	328.738
6	0.00134462	0.00192889	369.517
7	0.00192889	0.00272835	390.536
8	0.00272835	0.00382226	453.647
9	0.00382226	0.00531908	560.338
10	0.00531908	0.0073672	703.495
11	0.0073672	0.0101697	626.601
12	0.0101697	0.0140043	152.677
13	0.0140043	0.0192514	189.434
14	0.0192514	0.0264309	189.434
15	0.0264309	inf	189.434
