time_index	left_time_boundary	right_time_boundary	lambda
0	0	8.89695e-07	0.792408
1	8.89695e-07	2.06164e-06	0.792408
2	2.06164e-06	3.60539e-06	550.846
3	3.60539e-06	5.63889e-06	914.001
4	5.63889e-06	8.31752e-06	461.019
5	8.31752e-06	1.18459e-05	337.837
6	1.18459e-05	1.64937e-05	412.157
7	1.64937e-05	2.2616e-05	589.028
8	2.2616e-05	3.06806e-05	744.791
9	3.06806e-05	4.13037e-05	801.57
10	4.13037e-05	5.5297e-05	777.116
11	5.5297e-05	7.37296e-05	727.603
12	7.37296e-05	9.80099e-05	704.731
13	9.80099e-05	0.000129993	703.172
14	0.000129993	0.000172123	693.539
15	0.000172123	0.000227618	684.629
16	0.000227618	0.00030072	695.868
17	0.00030072	0.000397012	732.45
18	0.000397012	0.000523853	787.296
19	0.000523853	0.000690935	845.367
20	0.000690935	0.000911023	883.711
21	0.000911023	0.00120093	880.76
22	0.00120093	0.00158282	847.014
23	0.00158282	0.00208585	793.221
24	0.00208585	0.00274848	726.688
25	0.00274848	0.00362132	706.402
26	0.00362132	0.00477107	782.98
27	0.00477107	0.00628557	1791.28
28	0.00628557	0.00828055	1791.28
29	0.00828055	0.0109084	1.76558
30	0.0109084	0.01437	1.76558
31	0.01437	inf	1.76558
