0.000644702	-13721622.73	0,1.74283e-06,4.03858e-06,7.06264e-06,1.10461e-05,1.62933e-05,2.32051e-05,3.23098e-05,4.43028e-05,6.01006e-05,8.09103e-05,0.000108322,0.00014443,0.000191993,0.000254645,0.000337173,0.000445884,0.000589083,0.000777711,0.00102618,0.00135348,0.00178461,0.00235252,0.0031006,0.004086,0.00538402,0.00709384,0.00934609,0.0123129,0.0162209,0.0213686,0.0281496,inf	8.0132,8.0132,19.4074,35.6152,62.0278,108.688,191.295,271.962,295.903,285.76,246.417,226.471,235.455,249.955,260.375,275.929,283.557,277.745,277.675,298.571,343.975,409.518,472.984,497.111,485.953,466.419,449.762,443.75,443.75,488.455,488.455,488.455
0.000675512	-13712507.54	0,1.74283e-06,4.03858e-06,7.06264e-06,1.10461e-05,1.62933e-05,2.32051e-05,3.23098e-05,4.43028e-05,6.01006e-05,8.09103e-05,0.000108322,0.00014443,0.000191993,0.000254645,0.000337173,0.000445884,0.000589083,0.000777711,0.00102618,0.00135348,0.00178461,0.00235252,0.0031006,0.004086,0.00538402,0.00709384,0.00934609,0.0123129,0.0162209,0.0213686,0.0281496,inf	0.404546,0.404546,1.19063,4.06867,12.571,39.6411,127.624,258.232,302.547,287.266,214.367,179.215,192.791,213.853,226.211,250.022,257.276,236.116,225.622,249.069,310.427,407.4,514.078,562.915,547.969,514.404,484.191,476.877,476.877,607.049,607.049,607.049
0.000704525	-13708982.51	0,1.74283e-06,4.03858e-06,7.06264e-06,1.10461e-05,1.62933e-05,2.32051e-05,3.23098e-05,4.43028e-05,6.01006e-05,8.09103e-05,0.000108322,0.00014443,0.000191993,0.000254645,0.000337173,0.000445884,0.000589083,0.000777711,0.00102618,0.00135348,0.00178461,0.00235252,0.0031006,0.004086,0.00538402,0.00709384,0.00934609,0.0123129,0.0162209,0.0213686,0.0281496,inf	0.404513,0.404513,0.404517,0.501875,2.77145,15.8372,93.3552,263.367,328.216,310.523,205.711,159.445,178.627,205.554,219.346,252.387,258.575,219.659,197.62,219.675,288.092,402.446,538.509,608.665,594.006,550.501,509.463,505.112,505.112,805.551,805.551,805.551
0.000731256	-13707234.14	0,1.74283e-06,4.03858e-06,7.06264e-06,1.10461e-05,1.62933e-05,2.32051e-05,3.23098e-05,4.43028e-05,6.01006e-05,8.09103e-05,0.000108322,0.00014443,0.000191993,0.000254645,0.000337173,0.000445884,0.000589083,0.000777711,0.00102618,0.00135348,0.00178461,0.00235252,0.0031006,0.004086,0.00538402,0.00709384,0.00934609,0.0123129,0.0162209,0.0213686,0.0281496,inf	0.404512,0.404512,0.404517,0.404512,0.549523,6.52539,69.9548,268.91,352.108,334.129,200.732,147.033,172.443,204.717,220.233,264.364,270.207,212.974,180.194,200.126,272.177,397.043,553.271,640.578,628.079,577.376,527.684,529.911,529.911,1287.86,1287.86,1287.86
0.000756009	-13706211.30	0,1.74283e-06,4.03858e-06,7.06264e-06,1.10461e-05,1.62933e-05,2.32051e-05,3.23098e-05,4.43028e-05,6.01006e-05,8.09103e-05,0.000108322,0.00014443,0.000191993,0.000254645,0.000337173,0.000445884,0.000589083,0.000777711,0.00102618,0.00135348,0.00178461,0.00235252,0.0031006,0.004086,0.00538402,0.00709384,0.00934609,0.0123129,0.0162209,0.0213686,0.0281496,inf	0.404512,0.404512,0.404517,0.404512,0.404512,2.74294,53.0946,272.304,370.294,353.316,195.343,137.063,168.606,205.215,222.517,279.164,285.747,210.499,168.234,186.201,260.427,392.128,562.367,663.01,653.349,597.246,540.596,552.47,552.47,4418.96,4418.96,4418.96
0.000756009	-13705535.13	0,1.74283e-06,4.03858e-06,7.06264e-06,1.10461e-05,1.62933e-05,2.32051e-05,3.23098e-05,4.43028e-05,6.01006e-05,8.09103e-05,0.000108322,0.00014443,0.000191993,0.000254645,0.000337173,0.000445884,0.000589083,0.000777711,0.00102618,0.00135348,0.00178461,0.00235252,0.0031006,0.004086,0.00538402,0.00709384,0.00934609,0.0123129,0.0162209,0.0213686,0.0281496,inf	0.404512,0.404512,0.404517,0.404512,0.404512,1.16408,40.447,271.484,379.559,364.43,187.464,127.203,164.062,203.338,222.055,291.321,299.694,208.295,158.389,174.754,250.01,385.231,563.284,674.17,668.786,609.366,547.73,572.298,572.298,60100.5,60100.5,60100.5
