0.000665982	-13720394.74	0,4.03858e-06,1.10461e-05,2.32051e-05,4.43028e-05,8.09103e-05,0.00014443,0.000254645,0.000445884,0.000777711,0.00135348,0.00235252,0.004086,0.00709384,0.0123129,0.0213686,inf	25.4967,25.4967,87.3843,250.954,297.357,230.08,243.459,266.759,273.578,276.809,368.389,511.835,486.403,475.724,475.724,475.724
0.000712586	-13710170.44	0,4.03858e-06,1.10461e-05,2.32051e-05,4.43028e-05,8.09103e-05,0.00014443,0.000254645,0.000445884,0.000777711,0.00135348,0.00235252,0.004086,0.00709384,0.0123129,0.0213686,inf	2.09949,2.09949,25.6747,222.483,308.157,187.792,209.127,243.173,241.813,226.137,342.125,575.255,544.844,538.208,538.208,538.208
0.000752356	-13706929.86	0,4.03858e-06,1.10461e-05,2.32051e-05,4.43028e-05,8.09103e-05,0.00014443,0.000254645,0.000445884,0.000777711,0.00135348,0.00235252,0.004086,0.00709384,0.0123129,0.0213686,inf	0.404513,0.404513,8.28469,213.594,337.157,170.424,201.638,247.841,236.342,199.469,323.544,611.877,585.43,593.927,593.927,593.927
0.000786367	-13705600.04	0,4.03858e-06,1.10461e-05,2.32051e-05,4.43028e-05,8.09103e-05,0.00014443,0.000254645,0.000445884,0.000777711,0.00135348,0.00235252,0.004086,0.00709384,0.0123129,0.0213686,inf	0.404513,0.404513,2.76679,207.306,363.099,158.588,200.189,260.568,239.768,183.161,310.389,632.995,613.69,645.787,645.787,645.787
0.000816061	-13704928.45	0,4.03858e-06,1.10461e-05,2.32051e-05,4.43028e-05,8.09103e-05,0.00014443,0.000254645,0.000445884,0.000777711,0.00135348,0.00235252,0.004086,0.00709384,0.0123129,0.0213686,inf	0.404513,0.404513,0.945466,201.672,382.54,148.361,199.271,274.588,246.222,172.192,301.062,645.009,633.522,696.514,696.514,696.514
0.000842522	-13704527.55	0,4.03858e-06,1.10461e-05,2.32051e-05,4.43028e-05,8.09103e-05,0.00014443,0.000254645,0.000445884,0.000777711,0.00135348,0.00235252,0.004086,0.00709384,0.0123129,0.0213686,inf	0.404513,0.404513,0.404512,197.008,396.685,139.193,197.64,287.443,253.388,164.307,294.477,651.526,647.52,748.75,748.75,748.75
0.000866499	-13704256.26	0,4.03858e-06,1.10461e-05,2.32051e-05,4.43028e-05,8.09103e-05,0.00014443,0.000254645,0.000445884,0.000777711,0.00135348,0.00235252,0.004086,0.00709384,0.0123129,0.0213686,inf	0.404513,0.404513,0.404512,193.551,407.31,131.146,195.335,298.4,260.323,158.361,289.904,654.623,657.406,805.432,805.432,805.432
0.000888498	-13704056.57	0,4.03858e-06,1.10461e-05,2.32051e-05,4.43028e-05,8.09103e-05,0.00014443,0.000254645,0.000445884,0.000777711,0.00135348,0.00235252,0.004086,0.00709384,0.0123129,0.0213686,inf	0.404513,0.404513,0.404512,191.237,415.685,124.255,192.68,307.446,266.661,153.71,286.844,655.523,664.33,870.425,870.425,870.425
0.000908865	-13703902.61	0,4.03858e-06,1.10461e-05,2.32051e-05,4.43028e-05,8.09103e-05,0.00014443,0.000254645,0.000445884,0.000777711,0.00135348,0.00235252,0.004086,0.00709384,0.0123129,0.0213686,inf	0.404513,0.404513,0.404512,189.84,422.565,118.458,189.978,314.827,272.288,149.966,284.942,654.961,669.074,949.74,949.74,949.74
0.000927829	-13703782.89	0,4.03858e-06,1.10461e-05,2.32051e-05,4.43028e-05,8.09103e-05,0.00014443,0.000254645,0.000445884,0.000777711,0.00135348,0.00235252,0.004086,0.00709384,0.0123129,0.0213686,inf	0.404513,0.404513,0.404512,189.178,428.349,113.64,187.43,320.851,277.202,146.879,283.941,653.382,672.177,1054.44,1054.44,1054.44
0.000945538	-13703693.84	0,4.03858e-06,1.10461e-05,2.32051e-05,4.43028e-05,8.09103e-05,0.00014443,0.000254645,0.000445884,0.000777711,0.00135348,0.00235252,0.004086,0.00709384,0.0123129,0.0213686,inf	0.404513,0.404513,0.404512,189.057,433.256,109.664,185.149,325.808,281.446,144.279,283.652,651.05,674.012,1209.39,1209.39,1209.39
0.000962061	-13703638.62	0,4.03858e-06,1.10461e-05,2.32051e-05,4.43028e-05,8.09103e-05,0.00014443,0.000254645,0.000445884,0.000777711,0.00135348,0.00235252,0.004086,0.00709384,0.0123129,0.0213686,inf	0.404513,0.404513,0.404512,189.34,437.408,106.397,183.184,329.947,285.08,142.052,283.934,648.096,674.829,1489.75,1489.75,1489.75
0.000977374	-13703632.14	0,4.03858e-06,1.10461e-05,2.32051e-05,4.43028e-05,8.09103e-05,0.00014443,0.000254645,0.000445884,0.000777711,0.00135348,0.00235252,0.004086,0.00709384,0.0123129,0.0213686,inf	0.404513,0.404513,0.404512,189.934,440.906,103.72,181.543,333.465,288.173,140.115,284.676,644.519,674.782,2266.5,2266.5,2266.5
0.000991275	-13703720.15	0,4.03858e-06,1.10461e-05,2.32051e-05,4.43028e-05,8.09103e-05,0.00014443,0.000254645,0.000445884,0.000777711,0.00135348,0.00235252,0.004086,0.00709384,0.0123129,0.0213686,inf	0.404513,0.404513,0.404512,190.788,443.835,101.535,180.214,336.518,290.8,138.412,285.787,640.099,673.955,7977.95,7977.95,7977.95
0.000991275	-13703936.90	0,4.03858e-06,1.10461e-05,2.32051e-05,4.43028e-05,8.09103e-05,0.00014443,0.000254645,0.000445884,0.000777711,0.00135348,0.00235252,0.004086,0.00709384,0.0123129,0.0213686,inf	0.404513,0.404513,0.404512,191.295,444.947,99.4502,178.729,338.127,292.318,136.669,286.357,631.823,671.432,50668.4,50668.4,50668.4
