LogLikelihood = -1212848.6853294023313

y0 0.76671261236697241248
y0_prime 0
y1 0.86453952761374153191
y1_prime 0
y2 0.70953816505587918861
y2_prime 0
y3 1.4226503203215963289
y3_prime 0
rho 0.00094555085906864008889
rho.alpha 0.78213584023567495063
r_ii 0.99993691887753177738
theta 0.0039917767243458635029
