LogLikelihood = -415042.59864128433401

y0 1.1205479283903463148e-10
y0_prime 0
y1 0.96875979134265610693
y1_prime 0
y2 1.6123809634211325736
y2_prime 0
y3 1.5781008547663049058
y3_prime 0
rho 0.0085617051705318778648
theta 0.0070020484434270002794
