AIC = 611856.08654528483748

y0 0.91224661595689104931
y0_prime 0
y1 1.0378614660983027651
y1_prime 0
y2 0.92285328307143121851
y2_prime 0
y3 1.907730164215222457
y3_prime 0
rho 0.0025824889986936589922
rho.alpha 1.0590944745727519649
r_ii 0.99999998883398588667
theta 0.0051351360811061489212
