AIC = 611848.58974869758822

y0 0.88609575244459692911
y0_prime 0
y1 1.0372561104709072666
y1_prime 0
y2 0.9179616895396277565
y2_prime 0
y3 1.9152112500687650254
y3_prime 0
rho 0.0003043916498537925161
theta 0.0051351360811061489212
