0.000328994	-7728591.43	0,2.0828e-06,5.69675e-06,1.19675e-05,2.28481e-05,4.17275e-05,7.44861e-05,0.000131327,0.000229954,0.000401086,0.000698024,0.00121326,0.00210725,0.00365847,0.00635006,0.0110204,inf	302.641,302.641,664.392,788.331,827.151,796.447,774.538,769.349,773.526,773.312,812.07,805.878,746.39,875.088,875.088,875.088
0.000337497	-7728489.38	0,2.0828e-06,5.69675e-06,1.19675e-05,2.28481e-05,4.17275e-05,7.44861e-05,0.000131327,0.000229954,0.000401086,0.000698024,0.00121326,0.00210725,0.00365847,0.00635006,0.0110204,inf	127.769,127.769,593.995,790.445,859.855,806.564,770.941,763.264,768.097,759.774,827.551,819.199,712.119,950.246,950.246,950.246
0.000344838	-7728473.91	0,2.0828e-06,5.69675e-06,1.19675e-05,2.28481e-05,4.17275e-05,7.44861e-05,0.000131327,0.000229954,0.000401086,0.000698024,0.00121326,0.00210725,0.00365847,0.00635006,0.0110204,inf	56.9589,56.9589,547.829,787.839,882.005,812.664,769.293,762.012,767.15,747.291,837.321,828.814,682.643,1012.72,1012.72,1012.72
0.000351306	-7728492.10	0,2.0828e-06,5.69675e-06,1.19675e-05,2.28481e-05,4.17275e-05,7.44861e-05,0.000131327,0.000229954,0.000401086,0.000698024,0.00121326,0.00210725,0.00365847,0.00635006,0.0110204,inf	26.3617,26.3617,516.291,782.454,896.256,815.182,767.721,762.905,769.048,736.332,843.985,836.536,657.581,1064.68,1064.68,1064.68
0.000357071	-7728523.30	0,2.0828e-06,5.69675e-06,1.19675e-05,2.28481e-05,4.17275e-05,7.44861e-05,0.000131327,0.000229954,0.000401086,0.000698024,0.00121326,0.00210725,0.00365847,0.00635006,0.0110204,inf	12.5693,12.5693,494.92,776.289,905.437,815.276,765.681,764.538,772.639,726.74,848.735,843.152,636.265,1107.85,1107.85,1107.85
0.000362243	-7728558.36	0,2.0828e-06,5.69675e-06,1.19675e-05,2.28481e-05,4.17275e-05,7.44861e-05,0.000131327,0.000229954,0.000401086,0.000698024,0.00121326,0.00210725,0.00365847,0.00635006,0.0110204,inf	6.11954,6.11954,480.533,770.452,911.611,813.986,763.149,766.231,777.213,718.297,852.195,849.031,618.061,1143.66,1143.66,1143.66
0.000366904	-7728593.07	0,2.0828e-06,5.69675e-06,1.19675e-05,2.28481e-05,4.17275e-05,7.44861e-05,0.000131327,0.000229954,0.000401086,0.000698024,0.00121326,0.00210725,0.00365847,0.00635006,0.0110204,inf	3.02216,3.02216,471.15,765.387,916.042,812.061,760.262,767.66,782.333,710.805,854.737,854.359,602.436,1173.29,1173.29,1173.29
0.000371117	-7728625.53	0,2.0828e-06,5.69675e-06,1.19675e-05,2.28481e-05,4.17275e-05,7.44861e-05,0.000131327,0.000229954,0.000401086,0.000698024,0.00121326,0.00210725,0.00365847,0.00635006,0.0110204,inf	1.51992,1.51992,465.119,761.06,919.47,809.963,757.189,768.702,787.735,704.114,856.598,859.24,588.959,1197.75,1197.75,1197.75
0.000374932	-7728655.02	0,2.0828e-06,5.69675e-06,1.19675e-05,2.28481e-05,4.17275e-05,7.44861e-05,0.000131327,0.000229954,0.000401086,0.000698024,0.00121326,0.00210725,0.00365847,0.00635006,0.0110204,inf	0.784754,0.784754,461.419,757.416,922.285,807.972,754.056,769.315,793.249,698.104,857.944,863.737,577.283,1217.9,1217.9,1217.9
0.000378393	-7728681.36	0,2.0828e-06,5.69675e-06,1.19675e-05,2.28481e-05,4.17275e-05,7.44861e-05,0.000131327,0.000229954,0.000401086,0.000698024,0.00121326,0.00210725,0.00365847,0.00635006,0.0110204,inf	0.784371,0.784371,459.238,754.238,924.701,806.232,750.976,769.51,798.771,692.679,858.895,867.89,567.128,1234.46,1234.46,1234.46
0.000381536	-7728704.65	0,2.0828e-06,5.69675e-06,1.19675e-05,2.28481e-05,4.17275e-05,7.44861e-05,0.000131327,0.000229954,0.000401086,0.000698024,0.00121326,0.00210725,0.00365847,0.00635006,0.0110204,inf	0.784371,0.784371,458.033,751.415,926.82,804.811,748.019,769.315,804.228,687.763,859.54,871.731,558.265,1248.04,1248.04,1248.04
0.000384392	-7728725.14	0,2.0828e-06,5.69675e-06,1.19675e-05,2.28481e-05,4.17275e-05,7.44861e-05,0.000131327,0.000229954,0.000401086,0.000698024,0.00121326,0.00210725,0.00365847,0.00635006,0.0110204,inf	0.784371,0.784371,457.476,748.843,928.679,803.724,745.234,768.768,809.575,683.292,859.949,875.282,550.508,1259.16,1259.16,1259.16
0.000386989	-7728743.09	0,2.0828e-06,5.69675e-06,1.19675e-05,2.28481e-05,4.17275e-05,7.44861e-05,0.000131327,0.000229954,0.000401086,0.000698024,0.00121326,0.00210725,0.00365847,0.00635006,0.0110204,inf	0.784371,0.784371,457.495,746.515,930.323,802.956,742.653,767.912,814.785,679.214,860.175,878.565,543.701,1268.24,1268.24,1268.24
0.000389346	-7728758.80	0,2.0828e-06,5.69675e-06,1.19675e-05,2.28481e-05,4.17275e-05,7.44861e-05,0.000131327,0.000229954,0.000401086,0.000698024,0.00121326,0.00210725,0.00365847,0.00635006,0.0110204,inf	0.784371,0.784371,457.65,744.128,931.452,802.262,740.106,766.635,819.727,675.5,860.361,881.469,537.672,1275.59,1275.59,1275.59
0.000391496	-7728772.80	0,2.0828e-06,5.69675e-06,1.19675e-05,2.28481e-05,4.17275e-05,7.44861e-05,0.000131327,0.000229954,0.000401086,0.000698024,0.00121326,0.00210725,0.00365847,0.00635006,0.0110204,inf	0.784371,0.784371,458.199,742.05,932.618,802.029,737.943,765.232,824.555,672.094,860.431,884.186,532.381,1281.58,1281.58,1281.58
0.000393453	-7728784.97	0,2.0828e-06,5.69675e-06,1.19675e-05,2.28481e-05,4.17275e-05,7.44861e-05,0.000131327,0.000229954,0.000401086,0.000698024,0.00121326,0.00210725,0.00365847,0.00635006,0.0110204,inf	0.784371,0.784371,458.953,740.114,933.602,802.077,736.064,763.672,829.225,668.954,860.402,886.71,527.722,1286.46,1286.46,1286.46
0.000395237	-7728795.58	0,2.0828e-06,5.69675e-06,1.19675e-05,2.28481e-05,4.17275e-05,7.44861e-05,0.000131327,0.000229954,0.000401086,0.000698024,0.00121326,0.00210725,0.00365847,0.00635006,0.0110204,inf	0.784371,0.784371,459.75,738.263,934.398,802.33,734.435,761.965,833.728,666.051,860.298,889.047,523.613,1290.41,1290.41,1290.41
0.000396861	-7728804.82	0,2.0828e-06,5.69675e-06,1.19675e-05,2.28481e-05,4.17275e-05,7.44861e-05,0.000131327,0.000229954,0.000401086,0.000698024,0.00121326,0.00210725,0.00365847,0.00635006,0.0110204,inf	0.784371,0.784371,460.63,736.494,934.97,802.732,733.038,760.128,838.061,663.365,860.139,891.204,519.982,1293.6,1293.6,1293.6
0.00039834	-7728812.89	0,2.0828e-06,5.69675e-06,1.19675e-05,2.28481e-05,4.17275e-05,7.44861e-05,0.000131327,0.000229954,0.000401086,0.000698024,0.00121326,0.00210725,0.00365847,0.00635006,0.0110204,inf	0.784371,0.784371,461.533,734.876,935.36,803.252,731.86,758.186,842.225,660.876,859.943,893.19,516.768,1296.16,1296.16,1296.16
0.000399687	-7728819.95	0,2.0828e-06,5.69675e-06,1.19675e-05,2.28481e-05,4.17275e-05,7.44861e-05,0.000131327,0.000229954,0.000401086,0.000698024,0.00121326,0.00210725,0.00365847,0.00635006,0.0110204,inf	0.784371,0.784371,462.386,733.356,935.561,803.866,730.887,756.155,846.224,658.566,859.722,895.015,513.921,1298.21,1298.21,1298.21
