0.000338601	-7567798.97	0,8.74588e-07,2.02664e-06,3.54417e-06,5.54314e-06,8.17629e-06,1.16448e-05,1.62137e-05,2.2232e-05,3.01597e-05,4.06024e-05,5.4358e-05,7.24776e-05,9.63457e-05,0.000127786,0.0001692,0.000223753,0.000295613,0.000390271,0.000514958,0.000679203,0.000895554,0.00118054,0.00155594,0.00205044,0.00270181,0.00355983,0.00469005,0.00617884,0.00813994,0.0107232,0.014126,inf	82.692,82.692,212.207,413.356,619.411,717.146,743.842,774.308,805.249,817.215,811.824,811.057,813.658,804.829,788.865,781.114,785.837,795.206,802.643,810.05,821.276,834.227,844.158,845.058,835.211,825.554,816.707,795.008,795.008,508.822,508.822,508.822
0.00036365	-7566648.42	0,8.74588e-07,2.02664e-06,3.54417e-06,5.54314e-06,8.17629e-06,1.16448e-05,1.62137e-05,2.2232e-05,3.01597e-05,4.06024e-05,5.4358e-05,7.24776e-05,9.63457e-05,0.000127786,0.0001692,0.000223753,0.000295613,0.000390271,0.000514958,0.000679203,0.000895554,0.00118054,0.00155594,0.00205044,0.00270181,0.00355983,0.00469005,0.00617884,0.00813994,0.0107232,0.014126,inf	9.13506,9.13506,61.8949,236.979,523.063,678.233,708.079,754.3,808.565,829.148,818.592,819.572,826.531,810.238,780.664,766.695,774.632,789.233,798.698,807.522,823.746,844.809,863.066,866.442,850.464,835.637,822.375,789.519,789.519,356.954,356.954,356.954
0.000385961	-7565836.77	0,8.74588e-07,2.02664e-06,3.54417e-06,5.54314e-06,8.17629e-06,1.16448e-05,1.62137e-05,2.2232e-05,3.01597e-05,4.06024e-05,5.4358e-05,7.24776e-05,9.63457e-05,0.000127786,0.0001692,0.000223753,0.000295613,0.000390271,0.000514958,0.000679203,0.000895554,0.00118054,0.00155594,0.00205044,0.00270181,0.00355983,0.00469005,0.00617884,0.00813994,0.0107232,0.014126,inf	1.06352,1.06352,19.2704,145.711,466.766,661.804,682.54,736.977,810.053,837.108,821.97,826.878,839.809,817.628,776.91,758.678,769.849,788.049,797.102,804.465,822.254,848.156,872.847,878.73,858.407,840.898,826.077,790.983,790.983,242.034,242.034,242.034
0.000405971	-7565258.65	0,8.74588e-07,2.02664e-06,3.54417e-06,5.54314e-06,8.17629e-06,1.16448e-05,1.62137e-05,2.2232e-05,3.01597e-05,4.06024e-05,5.4358e-05,7.24776e-05,9.63457e-05,0.000127786,0.0001692,0.000223753,0.000295613,0.000390271,0.000514958,0.000679203,0.000895554,0.00118054,0.00155594,0.00205044,0.00270181,0.00355983,0.00469005,0.00617884,0.00813994,0.0107232,0.014126,inf	0.806091,0.806091,6.28473,94.2192,432.221,658.128,662.54,720.958,809.574,841.081,821.615,831.74,851.541,824.634,774.802,753.991,768.791,789.945,797.494,802.063,819.605,848.345,878.022,886.084,862.382,843.733,829.58,802.525,802.525,136.217,136.217,136.217
0.000424102	-7564926.63	0,8.74588e-07,2.02664e-06,3.54417e-06,5.54314e-06,8.17629e-06,1.16448e-05,1.62137e-05,2.2232e-05,3.01597e-05,4.06024e-05,5.4358e-05,7.24776e-05,9.63457e-05,0.000127786,0.0001692,0.000223753,0.000295613,0.000390271,0.000514958,0.000679203,0.000895554,0.00118054,0.00155594,0.00205044,0.00270181,0.00355983,0.00469005,0.00617884,0.00813994,0.0107232,0.014126,inf	0.806091,0.806091,2.14483,63.2611,410.798,662.728,646.448,706.615,808.378,842.566,818.669,834.595,861.53,830.574,773.144,751.039,769.853,793.693,799.254,800.448,816.799,847.17,880.816,890.727,864.289,845.741,834.817,834.011,834.011,95.7695,95.7695,95.7695
0.000440479	-7564653.85	0,8.74588e-07,2.02664e-06,3.54417e-06,5.54314e-06,8.17629e-06,1.16448e-05,1.62137e-05,2.2232e-05,3.01597e-05,4.06024e-05,5.4358e-05,7.24776e-05,9.63457e-05,0.000127786,0.0001692,0.000223753,0.000295613,0.000390271,0.000514958,0.000679203,0.000895554,0.00118054,0.00155594,0.00205044,0.00270181,0.00355983,0.00469005,0.00617884,0.00813994,0.0107232,0.014126,inf	0.806091,0.806091,0.807255,43.6915,397.461,672.575,633.071,693.979,807.254,842.528,813.985,835.873,869.802,835.125,771.216,748.741,771.836,798.221,801.604,799.218,813.884,845.112,881.911,893.172,864.064,845.79,838.715,875.654,875.654,102.764,102.764,102.764
0.000455327	-7564266.80	0,8.74588e-07,2.02664e-06,3.54417e-06,5.54314e-06,8.17629e-06,1.16448e-05,1.62137e-05,2.2232e-05,3.01597e-05,4.06024e-05,5.4358e-05,7.24776e-05,9.63457e-05,0.000127786,0.0001692,0.000223753,0.000295613,0.000390271,0.000514958,0.000679203,0.000895554,0.00118054,0.00155594,0.00205044,0.00270181,0.00355983,0.00469005,0.00617884,0.00813994,0.0107232,0.014126,inf	0.806091,0.806091,0.806092,30.8244,389.344,685.836,621.681,683.126,806.757,841.813,808.382,836.208,876.805,838.522,768.94,746.747,774.284,803.137,804.303,798.338,811.097,842.694,881.989,893.987,861.805,842.947,837.913,903.72,903.72,94.4633,94.4633,94.4633
0.000468869	-7564016.74	0,8.74588e-07,2.02664e-06,3.54417e-06,5.54314e-06,8.17629e-06,1.16448e-05,1.62137e-05,2.2232e-05,3.01597e-05,4.06024e-05,5.4358e-05,7.24776e-05,9.63457e-05,0.000127786,0.0001692,0.000223753,0.000295613,0.000390271,0.000514958,0.000679203,0.000895554,0.00118054,0.00155594,0.00205044,0.00270181,0.00355983,0.00469005,0.00617884,0.00813994,0.0107232,0.014126,inf	0.806091,0.806091,0.806092,22.1033,384.559,701.137,611.789,674.002,807.276,841.08,802.566,836.195,883.045,841.12,766.425,744.952,777.005,808.269,807.265,797.845,808.672,840.423,881.879,894.322,858.973,839.239,835.705,930.04,930.04,96.1049,96.1049,96.1049
0.000481254	-7563774.42	0,8.74588e-07,2.02664e-06,3.54417e-06,5.54314e-06,8.17629e-06,1.16448e-05,1.62137e-05,2.2232e-05,3.01597e-05,4.06024e-05,5.4358e-05,7.24776e-05,9.63457e-05,0.000127786,0.0001692,0.000223753,0.000295613,0.000390271,0.000514958,0.000679203,0.000895554,0.00118054,0.00155594,0.00205044,0.00270181,0.00355983,0.00469005,0.00617884,0.00813994,0.0107232,0.014126,inf	0.806091,0.806091,0.806092,16.0409,381.784,717.391,602.812,666.26,808.776,840.489,796.774,836.064,888.734,843.059,763.664,743.197,779.766,813.373,810.27,797.563,806.515,838.325,881.729,894.402,855.785,834.812,831.987,950.365,950.365,92.5283,92.5283,92.5283
0.000492613	-7563594.30	0,8.74588e-07,2.02664e-06,3.54417e-06,5.54314e-06,8.17629e-06,1.16448e-05,1.62137e-05,2.2232e-05,3.01597e-05,4.06024e-05,5.4358e-05,7.24776e-05,9.63457e-05,0.000127786,0.0001692,0.000223753,0.000295613,0.000390271,0.000514958,0.000679203,0.000895554,0.00118054,0.00155594,0.00205044,0.00270181,0.00355983,0.00469005,0.00617884,0.00813994,0.0107232,0.014126,inf	0.806091,0.806091,0.806092,11.749,380.198,733.855,594.382,659.7,811.183,840.167,791.184,836.015,894.095,844.527,760.728,741.454,782.478,818.347,813.221,797.406,804.584,836.438,881.689,894.505,852.632,830.259,827.783,968.939,968.939,93.0376,93.0376,93.0376
0.00050305	-7563429.07	0,8.74588e-07,2.02664e-06,3.54417e-06,5.54314e-06,8.17629e-06,1.16448e-05,1.62137e-05,2.2232e-05,3.01597e-05,4.06024e-05,5.4358e-05,7.24776e-05,9.63457e-05,0.000127786,0.0001692,0.000223753,0.000295613,0.000390271,0.000514958,0.000679203,0.000895554,0.00118054,0.00155594,0.00205044,0.00270181,0.00355983,0.00469005,0.00617884,0.00813994,0.0107232,0.014126,inf	0.806091,0.806091,0.806092,8.66784,379.292,749.947,586.276,654.021,814.341,840.101,785.845,836.12,899.248,845.636,757.67,739.696,785.083,823.119,816.037,797.286,802.8,834.714,881.756,894.662,849.549,825.618,823.085,984.264,984.264,91.107,91.107,91.107
0.000512656	-7563299.50	0,8.74588e-07,2.02664e-06,3.54417e-06,5.54314e-06,8.17629e-06,1.16448e-05,1.62137e-05,2.2232e-05,3.01597e-05,4.06024e-05,5.4358e-05,7.24776e-05,9.63457e-05,0.000127786,0.0001692,0.000223753,0.000295613,0.000390271,0.000514958,0.000679203,0.000895554,0.00118054,0.00155594,0.00205044,0.00270181,0.00355983,0.00469005,0.00617884,0.00813994,0.0107232,0.014126,inf	0.806091,0.806091,0.806092,6.43849,378.769,765.469,578.327,649.058,818.115,840.22,780.782,836.423,904.29,846.502,754.548,737.937,787.57,827.674,818.694,797.168,801.129,833.137,881.95,894.946,846.657,821.098,818.292,998.325,998.325,91.2575,91.2575,91.2575
0.000521508	-7563182.50	0,8.74588e-07,2.02664e-06,3.54417e-06,5.54314e-06,8.17629e-06,1.16448e-05,1.62137e-05,2.2232e-05,3.01597e-05,4.06024e-05,5.4358e-05,7.24776e-05,9.63457e-05,0.000127786,0.0001692,0.000223753,0.000295613,0.000390271,0.000514958,0.000679203,0.000895554,0.00118054,0.00155594,0.00205044,0.00270181,0.00355983,0.00469005,0.00617884,0.00813994,0.0107232,0.014126,inf	0.806091,0.806091,0.806092,4.80722,378.446,780.257,570.422,644.642,822.391,840.478,775.94,836.932,909.265,847.186,751.396,736.182,789.936,832.005,821.176,797.019,799.53,831.67,882.248,895.344,843.938,816.69,813.385,1010.42,1010.42,90.0805,90.0805,90.0805
0.000529675	-7563087.97	0,8.74588e-07,2.02664e-06,3.54417e-06,5.54314e-06,8.17629e-06,1.16448e-05,1.62137e-05,2.2232e-05,3.01597e-05,4.06024e-05,5.4358e-05,7.24776e-05,9.63457e-05,0.000127786,0.0001692,0.000223753,0.000295613,0.000390271,0.000514958,0.000679203,0.000895554,0.00118054,0.00155594,0.00205044,0.00270181,0.00355983,0.00469005,0.00617884,0.00813994,0.0107232,0.014126,inf	0.806091,0.806091,0.806092,3.59805,378.213,794.223,562.562,640.647,827.034,840.811,771.316,837.629,914.204,847.743,748.25,734.442,792.191,836.124,823.488,796.831,797.984,830.296,882.644,895.87,841.429,812.47,808.539,1021.62,1021.62,90.0918,90.0918,90.0918
0.000537218	-7563003.00	0,8.74588e-07,2.02664e-06,3.54417e-06,5.54314e-06,8.17629e-06,1.16448e-05,1.62137e-05,2.2232e-05,3.01597e-05,4.06024e-05,5.4358e-05,7.24776e-05,9.63457e-05,0.000127786,0.0001692,0.000223753,0.000295613,0.000390271,0.000514958,0.000679203,0.000895554,0.00118054,0.00155594,0.00205044,0.00270181,0.00355983,0.00469005,0.00617884,0.00813994,0.0107232,0.014126,inf	0.806091,0.806091,0.806092,2.70446,378.018,807.372,554.687,637.005,831.951,841.192,766.861,838.485,919.117,848.204,745.127,732.723,794.342,840.043,825.637,796.595,796.474,828.992,883.116,896.506,839.103,808.418,803.729,1031.52,1031.52,89.3158,89.3158,89.3158
0.000544192	-7562932.94	0,8.74588e-07,2.02664e-06,3.54417e-06,5.54314e-06,8.17629e-06,1.16448e-05,1.62137e-05,2.2232e-05,3.01597e-05,4.06024e-05,5.4358e-05,7.24776e-05,9.63457e-05,0.000127786,0.0001692,0.000223753,0.000295613,0.000390271,0.000514958,0.000679203,0.000895554,0.00118054,0.00155594,0.00205044,0.00270181,0.00355983,0.00469005,0.00617884,0.00813994,0.0107232,0.014126,inf	0.806091,0.806091,0.806092,2.04449,377.879,819.693,546.838,633.649,837.093,841.559,762.549,839.477,924.01,848.592,742.041,731.034,796.402,843.777,827.638,796.316,794.995,827.747,883.658,897.251,836.967,804.564,799.039,1040.76,1040.76,89.2682,89.2682,89.2682
0.000550643	-7562869.99	0,8.74588e-07,2.02664e-06,3.54417e-06,5.54314e-06,8.17629e-06,1.16448e-05,1.62137e-05,2.2232e-05,3.01597e-05,4.06024e-05,5.4358e-05,7.24776e-05,9.63457e-05,0.000127786,0.0001692,0.000223753,0.000295613,0.000390271,0.000514958,0.000679203,0.000895554,0.00118054,0.00155594,0.00205044,0.00270181,0.00355983,0.00469005,0.00617884,0.00813994,0.0107232,0.014126,inf	0.806091,0.806091,0.806092,1.54512,377.757,831.3,539.005,630.503,842.398,841.881,758.335,840.569,928.883,848.919,738.996,729.375,798.376,847.343,829.499,795.994,793.537,826.547,884.251,898.087,834.997,800.884,794.445,1049.1,1049.1,88.7274,88.7274,88.7274
0.000556616	-7562817.28	0,8.74588e-07,2.02664e-06,3.54417e-06,5.54314e-06,8.17629e-06,1.16448e-05,1.62137e-05,2.2232e-05,3.01597e-05,4.06024e-05,5.4358e-05,7.24776e-05,9.63457e-05,0.000127786,0.0001692,0.000223753,0.000295613,0.000390271,0.000514958,0.000679203,0.000895554,0.00118054,0.00155594,0.00205044,0.00270181,0.00355983,0.00469005,0.00617884,0.00813994,0.0107232,0.014126,inf	0.806091,0.806091,0.806092,1.17199,377.657,842.242,531.193,627.565,847.83,842.153,754.196,841.751,933.729,849.198,735.998,727.748,800.274,850.755,831.237,795.633,792.098,825.386,884.889,899.01,833.19,797.387,789.987,1056.92,1056.92,88.6548,88.6548,88.6548
0.00056215	-7562769.86	0,8.74588e-07,2.02664e-06,3.54417e-06,5.54314e-06,8.17629e-06,1.16448e-05,1.62137e-05,2.2232e-05,3.01597e-05,4.06024e-05,5.4358e-05,7.24776e-05,9.63457e-05,0.000127786,0.0001692,0.000223753,0.000295613,0.000390271,0.000514958,0.000679203,0.000895554,0.00118054,0.00155594,0.00205044,0.00270181,0.00355983,0.00469005,0.00617884,0.00813994,0.0107232,0.014126,inf	0.806091,0.806091,0.806092,0.89182,377.552,852.606,523.448,624.811,853.364,842.332,750.116,842.996,938.549,849.438,733.05,726.151,802.102,854.025,832.862,795.239,790.675,824.256,885.561,900.004,831.526,794.056,785.647,1064.09,1064.09,88.2622,88.2622,88.2622
0.000567281	-7562729.65	0,8.74588e-07,2.02664e-06,3.54417e-06,5.54314e-06,8.17629e-06,1.16448e-05,1.62137e-05,2.2232e-05,3.01597e-05,4.06024e-05,5.4358e-05,7.24776e-05,9.63457e-05,0.000127786,0.0001692,0.000223753,0.000295613,0.000390271,0.000514958,0.000679203,0.000895554,0.00118054,0.00155594,0.00205044,0.00270181,0.00355983,0.00469005,0.00617884,0.00813994,0.0107232,0.014126,inf	0.806091,0.806091,0.806092,0.806115,377.495,862.386,515.755,622.207,858.952,842.417,746.077,844.274,943.334,849.639,730.151,724.585,803.865,857.168,834.386,794.817,789.267,823.151,886.261,901.066,829.998,790.89,781.444,1070.85,1070.85,88.1805,88.1805,88.1805
