time_index	left_time_boundary	right_time_boundary	lambda
0	0	2.59107e-05	0.655134
1	2.59107e-05	5.62198e-05	0.655134
2	5.62198e-05	9.16739e-05	0.655134
3	9.16739e-05	0.000133146	0.655134
4	0.000133146	0.000181659	0.655134
5	0.000181659	0.000238406	0.655134
6	0.000238406	0.000304786	0.655134
7	0.000304786	0.000382434	0.655134
8	0.000382434	0.000473263	0.655134
9	0.000473263	0.00057951	0.655134
10	0.00057951	0.000703792	1.50933
11	0.000703792	0.000849172	16.8641
12	0.000849172	0.00101923	110.75
13	0.00101923	0.00121815	463.475
14	0.00121815	0.00145085	1500.11
15	0.00145085	0.00172304	4155.89
16	0.00172304	0.00204144	6037.37
17	0.00204144	0.00241388	6536.48
18	0.00241388	0.00284955	5284.93
19	0.00284955	0.00335917	4515.26
20	0.00335917	0.0039553	4711.56
21	0.0039553	0.00465262	5473.44
22	0.00465262	0.00546831	5103.18
23	0.00546831	0.00642247	3212.94
24	0.00642247	0.00753859	1800.01
25	0.00753859	0.00884418	992.799
26	0.00884418	0.0103714	512.247
27	0.0103714	0.0121578	401.156
28	0.0121578	0.0142475	401.156
29	0.0142475	0.016692	271.842
30	0.016692	0.0195513	271.842
31	0.0195513	inf	271.842
