0.000231794	-6027543.66	0,1.51273e-06,4.13753e-06,8.69194e-06,1.65945e-05,3.03066e-05,5.4099e-05,9.53822e-05,0.000167015,0.000291307,0.000506973,0.000881183,0.00153049,0.00265714,0.00461203,0.00800405,inf	323.419,323.419,223.871,243.648,226.152,266.138,330.73,435.136,582.939,816.325,1273.03,1637.09,1517.62,1418.43,1418.43,1418.43
0.0002307	-6018537.27	0,1.51273e-06,4.13753e-06,8.69194e-06,1.65945e-05,3.03066e-05,5.4099e-05,9.53822e-05,0.000167015,0.000291307,0.000506973,0.000881183,0.00153049,0.00265714,0.00461203,0.00800405,inf	329.487,329.487,180.939,205.363,146.488,165.787,201.104,288.978,427.305,678.943,1267.74,2014.3,1922.91,1843.94,1843.94,1843.94
0.00022613	-6016125.81	0,1.51273e-06,4.13753e-06,8.69194e-06,1.65945e-05,3.03066e-05,5.4099e-05,9.53822e-05,0.000167015,0.000291307,0.000506973,0.000881183,0.00153049,0.00265714,0.00461203,0.00800405,inf	353.611,353.611,179.194,224.443,140.259,152.745,169.987,247.021,367.284,604.087,1217.41,2262.53,2286.98,2619.44,2619.44,2619.44
0.000219376	-6015302.40	0,1.51273e-06,4.13753e-06,8.69194e-06,1.65945e-05,3.03066e-05,5.4099e-05,9.53822e-05,0.000167015,0.000291307,0.000506973,0.000881183,0.00153049,0.00265714,0.00461203,0.00800405,inf	361.527,361.527,172.853,244.619,144.396,157.187,162.944,237.146,344.486,562.133,1165.15,2430.27,2614.63,5829.45,5829.45,5829.45
0.000219359	-6014960.02	0,1.51273e-06,4.13753e-06,8.69194e-06,1.65945e-05,3.03066e-05,5.4099e-05,9.53822e-05,0.000167015,0.000291307,0.000506973,0.000881183,0.00153049,0.00265714,0.00461203,0.00800405,inf	366.912,366.912,162.816,260.558,147.774,165.227,162.413,238.636,338.571,538.984,1123.48,2572.37,2919.36,134637,134637,134637
0.000219359	-6014947.61	0,1.51273e-06,4.13753e-06,8.69194e-06,1.65945e-05,3.03066e-05,5.4099e-05,9.53822e-05,0.000167015,0.000291307,0.000506973,0.000881183,0.00153049,0.00265714,0.00461203,0.00800405,inf	366.411,366.411,149.349,268.582,147.469,165.404,162.413,238.636,338.571,527.454,1092.51,2594.05,2919.36,134637,134637,134637
0.000219359	-6014937.37	0,1.51273e-06,4.13753e-06,8.69194e-06,1.65945e-05,3.03066e-05,5.4099e-05,9.53822e-05,0.000167015,0.000291307,0.000506973,0.000881183,0.00153049,0.00265714,0.00461203,0.00800405,inf	366.411,366.411,136.922,274.82,146.828,165.624,162.645,238.655,338.571,522.752,1072.26,2607.28,2919.36,134637,134637,134637
0.000219359	-6014933.43	0,1.51273e-06,4.13753e-06,8.69194e-06,1.65945e-05,3.03066e-05,5.4099e-05,9.53822e-05,0.000167015,0.000291307,0.000506973,0.000881183,0.00153049,0.00265714,0.00461203,0.00800405,inf	366.411,366.411,125.698,279.896,146.071,166.523,162.645,238.655,338.571,521.875,1058.39,2615.04,2919.65,134637,134637,134637
0.000219359	-6014931.30	0,1.51273e-06,4.13753e-06,8.69194e-06,1.65945e-05,3.03066e-05,5.4099e-05,9.53822e-05,0.000167015,0.000291307,0.000506973,0.000881183,0.00153049,0.00265714,0.00461203,0.00800405,inf	366.411,366.411,115.698,284.105,145.006,167.654,162.645,238.655,338.571,521.875,1048.3,2620.84,2919.66,134637,134637,134637
0.000219359	-6014930.27	0,1.51273e-06,4.13753e-06,8.69194e-06,1.65945e-05,3.03066e-05,5.4099e-05,9.53822e-05,0.000167015,0.000291307,0.000506973,0.000881183,0.00153049,0.00265714,0.00461203,0.00800405,inf	366.411,366.411,106.737,287.793,143.705,167.67,162.776,238.986,338.571,521.875,1040.79,2625.18,2919.66,134637,134637,134637
0.000219359	-6014929.75	0,1.51273e-06,4.13753e-06,8.69194e-06,1.65945e-05,3.03066e-05,5.4099e-05,9.53822e-05,0.000167015,0.000291307,0.000506973,0.000881183,0.00153049,0.00265714,0.00461203,0.00800405,inf	366.411,366.411,98.8578,291.291,142.564,167.67,162.815,239.297,338.571,521.875,1035.14,2628.43,2919.66,134637,134637,134637
0.000219359	-6014929.49	0,1.51273e-06,4.13753e-06,8.69194e-06,1.65945e-05,3.03066e-05,5.4099e-05,9.53822e-05,0.000167015,0.000291307,0.000506973,0.000881183,0.00153049,0.00265714,0.00461203,0.00800405,inf	366.411,366.411,91.7771,294.555,141.557,168.523,162.796,239.308,338.571,521.875,1030.89,2630.88,2919.66,134637,134637,134637
0.000219359	-6014929.37	0,1.51273e-06,4.13753e-06,8.69194e-06,1.65945e-05,3.03066e-05,5.4099e-05,9.53822e-05,0.000167015,0.000291307,0.000506973,0.000881183,0.00153049,0.00265714,0.00461203,0.00800405,inf	366.411,366.411,85.3576,297.397,140.411,169.468,162.73,239.346,338.571,521.875,1027.82,2630.88,2920.68,134637,134637,134637
0.000219359	-6014928.61	0,1.51273e-06,4.13753e-06,8.69194e-06,1.65945e-05,3.03066e-05,5.4099e-05,9.53822e-05,0.000167015,0.000291307,0.000506973,0.000881183,0.00153049,0.00265714,0.00461203,0.00800405,inf	366.411,366.411,79.5701,299.971,139.181,170.432,162.621,239.409,338.571,521.875,1025.55,2632.19,2920.68,134637,134637,134637
0.000219359	-6014928.60	0,1.51273e-06,4.13753e-06,8.69194e-06,1.65945e-05,3.03066e-05,5.4099e-05,9.53822e-05,0.000167015,0.000291307,0.000506973,0.000881183,0.00153049,0.00265714,0.00461203,0.00800405,inf	366.411,366.411,74.3413,302.35,137.92,171.371,162.466,239.498,338.571,521.875,1023.91,2632.19,2921.23,134637,134637,134637
0.000219359	-6014928.23	0,1.51273e-06,4.13753e-06,8.69194e-06,1.65945e-05,3.03066e-05,5.4099e-05,9.53822e-05,0.000167015,0.000291307,0.000506973,0.000881183,0.00153049,0.00265714,0.00461203,0.00800405,inf	366.411,366.411,69.5239,304.579,136.639,172.291,162.278,239.604,338.573,521.875,1022.69,2632.89,2921.23,134637,134637,134637
0.000219359	-6014928.25	0,1.51273e-06,4.13753e-06,8.69194e-06,1.65945e-05,3.03066e-05,5.4099e-05,9.53822e-05,0.000167015,0.000291307,0.000506973,0.000881183,0.00153049,0.00265714,0.00461203,0.00800405,inf	366.411,366.411,65.1749,306.662,135.328,173.188,162.071,239.724,338.573,521.875,1021.77,2633.43,2921.23,134637,134637,134637
0.000219359	-6014928.27	0,1.51273e-06,4.13753e-06,8.69194e-06,1.65945e-05,3.03066e-05,5.4099e-05,9.53822e-05,0.000167015,0.000291307,0.000506973,0.000881183,0.00153049,0.00265714,0.00461203,0.00800405,inf	366.411,366.411,61.1584,308.623,134.008,174.066,161.848,239.852,338.573,521.875,1021.1,2633.43,2921.45,134637,134637,134637
0.000219359	-6014928.13	0,1.51273e-06,4.13753e-06,8.69194e-06,1.65945e-05,3.03066e-05,5.4099e-05,9.53822e-05,0.000167015,0.000291307,0.000506973,0.000881183,0.00153049,0.00265714,0.00461203,0.00800405,inf	366.411,366.411,57.4502,310.491,132.736,174.893,161.614,239.987,338.573,521.875,1020.6,2633.71,2921.45,134637,134637,134637
0.000219359	-6014928.14	0,1.51273e-06,4.13753e-06,8.69194e-06,1.65945e-05,3.03066e-05,5.4099e-05,9.53822e-05,0.000167015,0.000291307,0.000506973,0.000881183,0.00153049,0.00265714,0.00461203,0.00800405,inf	366.411,366.411,54.0201,312.272,131.468,175.691,161.374,240.125,338.573,521.875,1020.24,2633.92,2921.45,134637,134637,134637
