time_index	left_time_boundary	right_time_boundary	lambda
0	0	1.51273e-06	366.411
1	1.51273e-06	4.13753e-06	366.411
2	4.13753e-06	8.69194e-06	54.0201
3	8.69194e-06	1.65945e-05	312.272
4	1.65945e-05	3.03066e-05	131.468
5	3.03066e-05	5.4099e-05	175.691
6	5.4099e-05	9.53822e-05	161.374
7	9.53822e-05	0.000167015	240.125
8	0.000167015	0.000291307	338.573
9	0.000291307	0.000506973	521.875
10	0.000506973	0.000881183	1020.24
11	0.000881183	0.00153049	2633.92
12	0.00153049	0.00265714	2921.45
13	0.00265714	0.00461203	134637
14	0.00461203	0.00800405	134637
15	0.00800405	inf	134637
