time_index	left_time_boundary	right_time_boundary	lambda
0	0	1.04028e-05	236.777
1	1.04028e-05	2.72557e-05	236.777
2	2.72557e-05	5.45579e-05	266.919
3	5.45579e-05	9.87883e-05	260.368
4	9.87883e-05	0.000170443	279.925
5	0.000170443	0.000286526	284.876
6	0.000286526	0.000474583	281.451
7	0.000474583	0.000779243	287.426
8	0.000779243	0.0012728	314.636
9	0.0012728	0.00207238	353.662
10	0.00207238	0.00336772	402.484
11	0.00336772	0.00546622	495.9
12	0.00546622	0.00886586	708.577
13	0.00886586	0.0143734	50114.1
14	0.0143734	0.0232957	50114.1
15	0.0232957	inf	50114.1
