time_index	left_time_boundary	right_time_boundary	lambda
0	0	2.21706e-05	420.258
1	2.21706e-05	5.60901e-05	420.258
2	5.60901e-05	0.000107984	169.428
3	0.000107984	0.000187379	348.25
4	0.000187379	0.000308846	288.756
5	0.000308846	0.000494682	277.923
6	0.000494682	0.000778997	274.622
7	0.000778997	0.00121398	316.038
8	0.00121398	0.00187947	349.845
9	0.00187947	0.00289761	393.021
10	0.00289761	0.0044553	470.603
11	0.0044553	0.00683846	549.151
12	0.00683846	0.0104845	699.018
13	0.0104845	0.0160627	51222.2
14	0.0160627	0.0245969	51222.2
15	0.0245969	inf	51222.2
