0.000677357	-296741.65	0,8.93433e-05,0.000211593,0.000378869,0.000607755,0.000920944,0.00134948,0.00193586,0.00273821,0.00383608,0.00533831,0.00739383,0.0102064,0.014055,0.019321,0.0265265,inf	370.005,370.005,333.69,345.983,362.866,379.12,401.603,419.374,431.61,430.2,419.205,421.368,383.784,334.1,334.1,334.1
0.000746068	-296645.74	0,8.93433e-05,0.000211593,0.000378869,0.000607755,0.000920944,0.00134948,0.00193586,0.00273821,0.00383608,0.00533831,0.00739383,0.0102064,0.014055,0.019321,0.0265265,inf	374.682,374.682,309.071,327.121,348.959,368.265,398.794,423.439,442.743,439.997,421.611,426.265,354.235,269.019,269.019,269.019
0.00081119	-296580.27	0,8.93433e-05,0.000211593,0.000378869,0.000607755,0.000920944,0.00134948,0.00193586,0.00273821,0.00383608,0.00533831,0.00739383,0.0102064,0.014055,0.019321,0.0265265,inf	383.292,383.292,298.008,321.643,345.179,363.746,397.321,424.676,448.746,444.826,421.658,428.893,326.929,221.254,221.254,221.254
0.000872967	-296530.23	0,8.93433e-05,0.000211593,0.000378869,0.000607755,0.000920944,0.00134948,0.00193586,0.00273821,0.00383608,0.00533831,0.00739383,0.0102064,0.014055,0.019321,0.0265265,inf	388.763,388.763,291.607,321.253,345.217,361.719,396.165,424.304,451.856,446.87,420.842,430.963,303.907,189.667,189.667,189.667
0.000931767	-296490.53	0,8.93433e-05,0.000211593,0.000378869,0.000607755,0.000920944,0.00134948,0.00193586,0.00273821,0.00383608,0.00533831,0.00739383,0.0102064,0.014055,0.019321,0.0265265,inf	391.046,391.046,287.322,323.18,346.911,360.887,395.155,423.11,453.35,447.386,419.944,433.499,285.668,170.409,170.409,170.409
0.00098786	-296458.09	0,8.93433e-05,0.000211593,0.000378869,0.000607755,0.000920944,0.00134948,0.00193586,0.00273821,0.00383608,0.00533831,0.00739383,0.0102064,0.014055,0.019321,0.0265265,inf	391.221,391.221,284.249,326.266,349.341,360.682,394.246,421.512,453.904,447.027,419.241,436.83,271.639,159.47,159.47,159.47
0.00104144	-296430.81	0,8.93433e-05,0.000211593,0.000378869,0.000607755,0.000920944,0.00134948,0.00193586,0.00273821,0.00383608,0.00533831,0.00739383,0.0102064,0.014055,0.019321,0.0265265,inf	390.222,390.222,281.982,329.939,352.056,360.813,393.409,419.72,453.872,446.118,418.746,440.848,260.852,153.782,153.782,153.782
0.00109264	-296407.35	0,8.93433e-05,0.000211593,0.000378869,0.000607755,0.000920944,0.00134948,0.00193586,0.00273821,0.00383608,0.00533831,0.00739383,0.0102064,0.014055,0.019321,0.0265265,inf	388.662,388.662,280.296,333.891,354.825,361.121,392.63,417.849,453.454,444.829,418.383,445.289,252.397,151.296,151.296,151.296
0.0011416	-296386.93	0,8.93433e-05,0.000211593,0.000378869,0.000607755,0.000920944,0.00134948,0.00193586,0.00273821,0.00383608,0.00533831,0.00739383,0.0102064,0.014055,0.019321,0.0265265,inf	386.912,386.912,279.053,337.943,357.525,361.522,391.905,415.968,452.774,443.266,418.074,449.901,245.575,150.73,150.73,150.73
0.00118846	-296369.05	0,8.93433e-05,0.000211593,0.000378869,0.000607755,0.000920944,0.00134948,0.00193586,0.00273821,0.00383608,0.00533831,0.00739383,0.0102064,0.014055,0.019321,0.0265265,inf	385.176,385.176,278.154,341.986,360.095,361.967,391.232,414.121,451.92,441.505,417.766,454.502,239.9,151.306,151.306,151.306
0.00123332	-296353.34	0,8.93433e-05,0.000211593,0.000378869,0.000607755,0.000920944,0.00134948,0.00193586,0.00273821,0.00383608,0.00533831,0.00739383,0.0102064,0.014055,0.019321,0.0265265,inf	383.56,383.56,277.529,345.955,362.505,362.431,390.614,412.336,450.955,439.607,417.433,458.976,235.045,152.552,152.552,152.552
0.0012763	-296339.53	0,8.93433e-05,0.000211593,0.000378869,0.000607755,0.000920944,0.00134948,0.00193586,0.00273821,0.00383608,0.00533831,0.00739383,0.0102064,0.014055,0.019321,0.0265265,inf	382.115,382.115,277.124,349.812,364.744,362.899,390.052,410.629,449.924,437.62,417.062,463.257,230.794,154.185,154.185,154.185
0.00131752	-296327.36	0,8.93433e-05,0.000211593,0.000378869,0.000607755,0.000920944,0.00134948,0.00193586,0.00273821,0.00383608,0.00533831,0.00739383,0.0102064,0.014055,0.019321,0.0265265,inf	380.856,380.856,276.898,353.532,366.809,363.362,389.543,409.01,448.861,435.582,416.652,467.315,227,156.033,156.033,156.033
0.00135706	-296316.62	0,8.93433e-05,0.000211593,0.000378869,0.000607755,0.000920944,0.00134948,0.00193586,0.00273821,0.00383608,0.00533831,0.00739383,0.0102064,0.014055,0.019321,0.0265265,inf	379.784,379.784,276.82,357.103,368.706,363.815,389.088,407.482,447.789,433.521,416.208,471.141,223.564,157.99,157.99,157.99
0.00139504	-296307.13	0,8.93433e-05,0.000211593,0.000378869,0.000607755,0.000920944,0.00134948,0.00193586,0.00273821,0.00383608,0.00533831,0.00739383,0.0102064,0.014055,0.019321,0.0265265,inf	378.884,378.884,276.865,360.519,370.441,364.255,388.683,406.045,446.724,431.461,415.736,474.738,220.415,159.993,159.993,159.993
0.00143152	-296298.73	0,8.93433e-05,0.000211593,0.000378869,0.000607755,0.000920944,0.00134948,0.00193586,0.00273821,0.00383608,0.00533831,0.00739383,0.0102064,0.014055,0.019321,0.0265265,inf	378.147,378.147,277.014,363.779,372.024,364.679,388.324,404.697,445.677,429.416,415.241,478.114,217.503,162.001,162.001,162.001
0.0014666	-296291.29	0,8.93433e-05,0.000211593,0.000378869,0.000607755,0.000920944,0.00134948,0.00193586,0.00273821,0.00383608,0.00533831,0.00739383,0.0102064,0.014055,0.019321,0.0265265,inf	377.555,377.555,277.252,366.885,373.465,365.088,388.009,403.433,444.656,427.398,414.73,481.284,214.79,163.99,163.99,163.99
0.00150035	-296284.68	0,8.93433e-05,0.000211593,0.000378869,0.000607755,0.000920944,0.00134948,0.00193586,0.00273821,0.00383608,0.00533831,0.00739383,0.0102064,0.014055,0.019321,0.0265265,inf	377.088,377.088,277.567,369.842,374.773,365.481,387.734,402.249,443.665,425.415,414.208,484.261,212.247,165.946,165.946,165.946
0.00153283	-296278.80	0,8.93433e-05,0.000211593,0.000378869,0.000607755,0.000920944,0.00134948,0.00193586,0.00273821,0.00383608,0.00533831,0.00739383,0.0102064,0.014055,0.019321,0.0265265,inf	376.735,376.735,277.949,372.656,375.958,365.859,387.495,401.141,442.707,423.474,413.68,487.059,209.852,167.862,167.862,167.862
0.00156411	-296273.56	0,8.93433e-05,0.000211593,0.000378869,0.000607755,0.000920944,0.00134948,0.00193586,0.00273821,0.00383608,0.00533831,0.00739383,0.0102064,0.014055,0.019321,0.0265265,inf	376.479,376.479,278.388,375.331,377.03,366.221,387.289,400.102,441.784,421.577,413.149,489.693,207.587,169.731,169.731,169.731
