time_index	left_time_boundary	right_time_boundary	lambda
0	0	9.80268e-06	291.234
1	9.80268e-06	2.19276e-05	291.234
2	2.19276e-05	3.6925e-05	8.3277
3	3.6925e-05	5.54753e-05	63.1796
4	5.54753e-05	7.84201e-05	299.883
5	7.84201e-05	0.000106801	439.987
6	0.000106801	0.000141905	366.631
7	0.000141905	0.000185325	344.074
8	0.000185325	0.000239031	337.065
9	0.000239031	0.000305461	320.6
10	0.000305461	0.000387627	291.203
11	0.000387627	0.00048926	271.282
12	0.00048926	0.000614969	283.095
13	0.000614969	0.000770459	311.316
14	0.000770459	0.000962784	343.506
15	0.000962784	0.00120067	386.418
16	0.00120067	0.00149492	430.732
17	0.00149492	0.00185887	461.15
18	0.00185887	0.00230904	478.455
19	0.00230904	0.00286585	490.08
20	0.00286585	0.00355458	493.649
21	0.00355458	0.00440647	481.934
22	0.00440647	0.00546017	455.748
23	0.00546017	0.0067635	429.188
24	0.0067635	0.00837559	420.21
25	0.00837559	0.0103696	434.639
26	0.0103696	0.012836	381.466
27	0.012836	0.0158866	313.74
28	0.0158866	0.01966	313.74
29	0.01966	0.0243273	24.9802
30	0.0243273	0.0301002	24.9802
31	0.0301002	inf	24.9802
