time_index	left_time_boundary	right_time_boundary	lambda
0	0	2.62507e-06	77.1565
1	2.62507e-06	6.03207e-06	77.1565
2	6.03207e-06	1.04539e-05	114.05
3	1.04539e-05	1.61928e-05	570.94
4	1.61928e-05	2.36412e-05	652.099
5	2.36412e-05	3.33081e-05	326.806
6	3.33081e-05	4.58546e-05	236.331
7	4.58546e-05	6.21381e-05	263.53
8	6.21381e-05	8.3272e-05	302.78
9	8.3272e-05	0.000110701	318.379
10	0.000110701	0.0001463	350.574
11	0.0001463	0.000192503	353.661
12	0.000192503	0.000252468	340.938
13	0.000252468	0.000330295	321.802
14	0.000330295	0.000431303	301.285
15	0.000431303	0.000562399	305.044
16	0.000562399	0.000732543	319.009
17	0.000732543	0.000953368	344.398
18	0.000953368	0.00123997	379.873
19	0.00123997	0.00161194	416.293
20	0.00161194	0.0020947	447.442
21	0.0020947	0.00272127	476.092
22	0.00272127	0.00353447	501.392
23	0.00353447	0.00458989	498.662
24	0.00458989	0.00595969	467.13
25	0.00595969	0.0077375	439.271
26	0.0077375	0.0100449	424.713
27	0.0100449	0.0130395	313.188
28	0.0130395	0.0169261	313.188
29	0.0169261	0.0219705	124.444
30	0.0219705	0.0285174	124.444
31	0.0285174	inf	124.444
