time_index	left_time_boundary	right_time_boundary	lambda
0	0	4.15987e-05	398.933
1	4.15987e-05	9.02587e-05	398.933
2	9.02587e-05	0.000147179	427.038
3	0.000147179	0.000213761	296.188
4	0.000213761	0.000291646	422.626
5	0.000291646	0.000382751	359.357
6	0.000382751	0.000489322	283.607
7	0.000489322	0.000613983	279.035
8	0.000613983	0.000759805	308.82
9	0.000759805	0.000930381	352.093
10	0.000930381	0.00112991	408.022
11	0.00112991	0.00136331	465.062
12	0.00136331	0.00163633	499.785
13	0.00163633	0.0019557	502.295
14	0.0019557	0.00232928	490.232
15	0.00232928	0.00276627	487.063
16	0.00276627	0.00327745	489.4
17	0.00327745	0.00387539	477.005
18	0.00387539	0.00457484	450.762
19	0.00457484	0.00539301	427.928
20	0.00539301	0.00635007	416.001
21	0.00635007	0.0074696	408.562
22	0.0074696	0.00877916	390.12
23	0.00877916	0.010311	351.842
24	0.010311	0.0121029	296.269
25	0.0121029	0.014199	238.189
26	0.014199	0.0166509	206.533
27	0.0166509	0.0195189	480.516
28	0.0195189	0.0228739	480.516
29	0.0228739	0.0267983	27.365
30	0.0267983	0.0313889	27.365
31	0.0313889	inf	27.365
