0.00014509	-590721.05	0,5.72835e-06,1.44923e-05,2.79005e-05,4.8414e-05,7.97982e-05,0.000127814,0.000201274,0.000313662,0.000485608,0.000748673,0.00115114,0.00176689,0.00270894,0.0041502,0.00635523,inf	43.7483,43.7483,104.589,193.753,343.942,604.713,1082.72,1717.52,1673.41,1674.59,2410.16,2298.88,2152.25,2287.66,2287.66,2287.66
0.000128247	-589812.03	0,5.72835e-06,1.44923e-05,2.79005e-05,4.8414e-05,7.97982e-05,0.000127814,0.000201274,0.000313662,0.000485608,0.000748673,0.00115114,0.00176689,0.00270894,0.0041502,0.00635523,inf	1.54185,1.54185,8.54236,29.4212,93.0783,281.79,832.4,1873.55,1700.48,1529.54,3296.58,3240.46,3009.27,4149.05,4149.05,4149.05
0.000110057	-589363.73	0,5.72835e-06,1.44923e-05,2.79005e-05,4.8414e-05,7.97982e-05,0.000127814,0.000201274,0.000313662,0.000485608,0.000748673,0.00115114,0.00176689,0.00270894,0.0041502,0.00635523,inf	1.54182,1.54182,1.54182,4.48491,25.3208,132.61,642.042,2026.25,1710.12,1294.83,4311.12,4489.8,4535.97,17155.2,17155.2,17155.2
0.00011005	-589046.20	0,5.72835e-06,1.44923e-05,2.79005e-05,4.8414e-05,7.97982e-05,0.000127814,0.000201274,0.000313662,0.000485608,0.000748673,0.00115114,0.00176689,0.00270894,0.0041502,0.00635523,inf	1.54182,1.54182,1.54182,1.54182,6.6153,60.4593,490.084,2364.51,1826.27,1002.42,5987.87,6310.05,9732.41,194747,194747,194747
