0.000690398	-8533457.19	0,2.64173e-06,6.07035e-06,1.05202e-05,1.62956e-05,2.37912e-05,3.35195e-05,4.61456e-05,6.25325e-05,8.38005e-05,0.000111404,0.000147229,0.000193725,0.00025407,0.000332391,0.00043404,0.000565968,0.000737192,0.000959418,0.00124784,0.00162217,0.002108,0.00273854,0.0035569,0.00461902,0.00599751,0.0077866,0.0101086,0.0131223,0.0170336,0.0221099,0.0286983,inf	556.5,556.5,560.238,464.474,380.274,347.466,346.854,348.444,346.975,342.27,336.868,330.916,325.901,325.517,329.836,336.805,346.08,358.565,375.104,394.31,413.829,431.047,442.143,445.403,441.41,431.608,422.076,411.238,411.238,366.296,366.296,366.296
0.000755852	-8530347.62	0,2.64173e-06,6.07035e-06,1.05202e-05,1.62956e-05,2.37912e-05,3.35195e-05,4.61456e-05,6.25325e-05,8.38005e-05,0.000111404,0.000147229,0.000193725,0.00025407,0.000332391,0.00043404,0.000565968,0.000737192,0.000959418,0.00124784,0.00162217,0.002108,0.00273854,0.0035569,0.00461902,0.00599751,0.0077866,0.0101086,0.0131223,0.0170336,0.0221099,0.0286983,inf	642.659,642.659,695.613,513.865,372.488,332.341,341.281,348.454,347.725,340.017,330.204,318.138,307.037,303.771,307.841,315.404,326.011,341.391,363.192,389.488,417.328,443.8,463.106,471.123,466.435,450.013,433.594,413.917,413.917,330.643,330.643,330.643
0.000816689	-8528392.25	0,2.64173e-06,6.07035e-06,1.05202e-05,1.62956e-05,2.37912e-05,3.35195e-05,4.61456e-05,6.25325e-05,8.38005e-05,0.000111404,0.000147229,0.000193725,0.00025407,0.000332391,0.00043404,0.000565968,0.000737192,0.000959418,0.00124784,0.00162217,0.002108,0.00273854,0.0035569,0.00461902,0.00599751,0.0077866,0.0101086,0.0131223,0.0170336,0.0221099,0.0286983,inf	653.926,653.926,781.239,530.252,353.009,317.127,338.99,353.829,355.91,347.452,335.276,318.652,302.827,297.474,301.059,308.102,318.179,333.769,357.143,385.971,417.229,448.613,473.703,486.49,482.627,461.588,440.192,413.373,413.373,297.37,297.37,297.37
0.000873468	-8526931.80	0,2.64173e-06,6.07035e-06,1.05202e-05,1.62956e-05,2.37912e-05,3.35195e-05,4.61456e-05,6.25325e-05,8.38005e-05,0.000111404,0.000147229,0.000193725,0.00025407,0.000332391,0.00043404,0.000565968,0.000737192,0.000959418,0.00124784,0.00162217,0.002108,0.00273854,0.0035569,0.00461902,0.00599751,0.0077866,0.0101086,0.0131223,0.0170336,0.0221099,0.0286983,inf	631.21,631.21,837.881,527.897,327.581,299.815,334.058,356.441,362.057,354.285,341.339,321.63,302.583,296.273,299.85,306.37,315.532,330.503,354.026,383.383,415.658,449.483,478.569,495.638,493.215,468.834,443.842,411.307,411.307,266.449,266.449,266.449
0.000926766	-8525756.22	0,2.64173e-06,6.07035e-06,1.05202e-05,1.62956e-05,2.37912e-05,3.35195e-05,4.61456e-05,6.25325e-05,8.38005e-05,0.000111404,0.000147229,0.000193725,0.00025407,0.000332391,0.00043404,0.000565968,0.000737192,0.000959418,0.00124784,0.00162217,0.002108,0.00273854,0.0035569,0.00461902,0.00599751,0.0077866,0.0101086,0.0131223,0.0170336,0.0221099,0.0286983,inf	599.326,599.326,883.644,518.338,301.956,282.962,327.643,356.366,365.26,358.785,345.981,324.23,303.152,296.799,300.853,307.08,315.363,329.504,352.6,381.54,413.588,448.411,480.239,501.008,500.218,473.337,445.776,408.742,408.742,237.153,237.153,237.153
0.000977041	-8524774.62	0,2.64173e-06,6.07035e-06,1.05202e-05,1.62956e-05,2.37912e-05,3.35195e-05,4.61456e-05,6.25325e-05,8.38005e-05,0.000111404,0.000147229,0.000193725,0.00025407,0.000332391,0.00043404,0.000565968,0.000737192,0.000959418,0.00124784,0.00162217,0.002108,0.00273854,0.0035569,0.00461902,0.00599751,0.0077866,0.0101086,0.0131223,0.0170336,0.0221099,0.0286983,inf	566.767,566.767,926.341,506.672,278.612,268.129,321.349,354.952,366.42,361.313,349.041,325.882,303.607,297.844,302.725,308.891,316.445,329.769,352.216,380.279,411.442,446.406,480.109,504.044,504.89,476.097,446.756,406.307,406.307,208.414,208.414,208.414
0.00102465	-8523938.52	0,2.64173e-06,6.07035e-06,1.05202e-05,1.62956e-05,2.37912e-05,3.35195e-05,4.61456e-05,6.25325e-05,8.38005e-05,0.000111404,0.000147229,0.000193725,0.00025407,0.000332391,0.00043404,0.000565968,0.000737192,0.000959418,0.00124784,0.00162217,0.002108,0.00273854,0.0035569,0.00461902,0.00599751,0.0077866,0.0101086,0.0131223,0.0170336,0.0221099,0.0286983,inf	535.524,535.524,968.166,494.503,258.145,255.811,316.08,353.255,366.495,362.559,350.897,326.668,303.743,298.967,304.89,311.173,318.16,330.756,352.493,379.463,409.393,443.985,478.962,505.612,508.023,477.753,447.265,404.434,404.434,178.792,178.792,178.792
0.00106986	-8523218.39	0,2.64173e-06,6.07035e-06,1.05202e-05,1.62956e-05,2.37912e-05,3.35195e-05,4.61456e-05,6.25325e-05,8.38005e-05,0.000111404,0.000147229,0.000193725,0.00025407,0.000332391,0.00043404,0.000565968,0.000737192,0.000959418,0.00124784,0.00162217,0.002108,0.00273854,0.0035569,0.00461902,0.00599751,0.0077866,0.0101086,0.0131223,0.0170336,0.0221099,0.0286983,inf	505.711,505.711,1008.95,482.136,240.388,245.957,312.172,351.868,366.138,363.097,351.953,326.807,303.577,300.018,307.09,313.61,320.175,332.154,353.192,378.98,407.5,441.415,477.248,506.246,510.131,478.725,447.635,403.538,403.538,146.054,146.054,146.054
0.00111289	-8522596.09	0,2.64173e-06,6.07035e-06,1.05202e-05,1.62956e-05,2.37912e-05,3.35195e-05,4.61456e-05,6.25325e-05,8.38005e-05,0.000111404,0.000147229,0.000193725,0.00025407,0.000332391,0.00043404,0.000565968,0.000737192,0.000959418,0.00124784,0.00162217,0.002108,0.00273854,0.0035569,0.00461902,0.00599751,0.0077866,0.0101086,0.0131223,0.0170336,0.0221099,0.0286983,inf	477.266,477.266,1048.12,469.46,224.958,238.239,309.639,351.031,365.727,363.307,352.524,326.513,303.194,300.963,309.216,316.045,322.304,333.778,354.158,378.742,405.776,438.834,475.234,506.286,511.559,479.322,448.16,404.279,404.279,105.83,105.83,105.83
0.00115392	-8522068.31	0,2.64173e-06,6.07035e-06,1.05202e-05,1.62956e-05,2.37912e-05,3.35195e-05,4.61456e-05,6.25325e-05,8.38005e-05,0.000111404,0.000147229,0.000193725,0.00025407,0.000332391,0.00043404,0.000565968,0.000737192,0.000959418,0.00124784,0.00162217,0.002108,0.00273854,0.0035569,0.00461902,0.00599751,0.0077866,0.0101086,0.0131223,0.0170336,0.0221099,0.0286983,inf	450.209,450.209,1085.17,456.432,211.452,232.331,308.339,350.811,365.457,363.426,352.836,325.961,302.683,301.817,311.23,318.402,324.45,335.519,355.296,378.69,404.22,436.322,473.088,505.972,512.591,479.861,449.309,408.417,408.417,53.3618,53.3618,53.3618
0.0011934	-8521704.89	0,2.64173e-06,6.07035e-06,1.05202e-05,1.62956e-05,2.37912e-05,3.35195e-05,4.61456e-05,6.25325e-05,8.38005e-05,0.000111404,0.000147229,0.000193725,0.00025407,0.000332391,0.00043404,0.000565968,0.000737192,0.000959418,0.00124784,0.00162217,0.002108,0.00273854,0.0035569,0.00461902,0.00599751,0.0077866,0.0101086,0.0131223,0.0170336,0.0221099,0.0286983,inf	424.718,424.718,1120.06,443.071,199.571,227.917,308.138,351.205,365.443,363.632,353.075,325.314,302.154,302.645,313.168,320.691,326.597,337.35,356.584,378.823,402.865,433.969,470.977,505.565,513.629,481.028,452.575,423.527,423.527,27.3657,27.3657,27.3657
0.00123098	-8521473.81	0,2.64173e-06,6.07035e-06,1.05202e-05,1.62956e-05,2.37912e-05,3.35195e-05,4.61456e-05,6.25325e-05,8.38005e-05,0.000111404,0.000147229,0.000193725,0.00025407,0.000332391,0.00043404,0.000565968,0.000737192,0.000959418,0.00124784,0.00162217,0.002108,0.00273854,0.0035569,0.00461902,0.00599751,0.0077866,0.0101086,0.0131223,0.0170336,0.0221099,0.0286983,inf	400.796,400.796,1152.26,429.271,188.968,224.643,308.731,352.01,365.579,363.869,353.217,324.556,301.572,303.385,314.947,322.811,328.628,339.136,357.874,378.988,401.557,431.618,468.732,504.842,514.327,482.283,457.162,452.075,452.075,32.1217,32.1217,32.1217
0.00126675	-8520986.55	0,2.64173e-06,6.07035e-06,1.05202e-05,1.62956e-05,2.37912e-05,3.35195e-05,4.61456e-05,6.25325e-05,8.38005e-05,0.000111404,0.000147229,0.000193725,0.00025407,0.000332391,0.00043404,0.000565968,0.000737192,0.000959418,0.00124784,0.00162217,0.002108,0.00273854,0.0035569,0.00461902,0.00599751,0.0077866,0.0101086,0.0131223,0.0170336,0.0221099,0.0286983,inf	378.551,378.551,1181.9,415.112,179.407,222.287,309.898,353.087,365.81,364.13,353.283,323.715,300.945,304.024,316.54,324.725,330.497,340.824,359.109,379.125,400.229,429.185,466.201,503.451,513.85,481.758,458.633,470.442,470.442,27.4355,27.4355,27.4355
0.00130096	-8520664.70	0,2.64173e-06,6.07035e-06,1.05202e-05,1.62956e-05,2.37912e-05,3.35195e-05,4.61456e-05,6.25325e-05,8.38005e-05,0.000111404,0.000147229,0.000193725,0.00025407,0.000332391,0.00043404,0.000565968,0.000737192,0.000959418,0.00124784,0.00162217,0.002108,0.00273854,0.0035569,0.00461902,0.00599751,0.0077866,0.0101086,0.0131223,0.0170336,0.0221099,0.0286983,inf	358.145,358.145,1209.56,400.796,170.784,220.71,311.599,354.445,366.198,364.513,353.391,322.909,300.375,304.661,318.048,326.532,332.299,342.51,360.399,379.371,399.057,426.908,463.734,501.923,513.018,480.76,459.444,489.215,489.215,30.8692,30.8692,30.8692
0.00133375	-8520299.54	0,2.64173e-06,6.07035e-06,1.05202e-05,1.62956e-05,2.37912e-05,3.35195e-05,4.61456e-05,6.25325e-05,8.38005e-05,0.000111404,0.000147229,0.000193725,0.00025407,0.000332391,0.00043404,0.000565968,0.000737192,0.000959418,0.00124784,0.00162217,0.002108,0.00273854,0.0035569,0.00461902,0.00599751,0.0077866,0.0101086,0.0131223,0.0170336,0.0221099,0.0286983,inf	339.474,339.474,1235.21,386.399,162.939,219.738,313.654,355.961,366.678,364.98,353.522,322.128,299.845,305.269,319.443,328.199,333.996,344.152,361.701,379.686,398.012,424.775,461.337,500.27,511.795,479.089,458.926,501.697,501.697,27.3418,27.3418,27.3418
0.00136525	-8520036.60	0,2.64173e-06,6.07035e-06,1.05202e-05,1.62956e-05,2.37912e-05,3.35195e-05,4.61456e-05,6.25325e-05,8.38005e-05,0.000111404,0.000147229,0.000193725,0.00025407,0.000332391,0.00043404,0.000565968,0.000737192,0.000959418,0.00124784,0.00162217,0.002108,0.00273854,0.0035569,0.00461902,0.00599751,0.0077866,0.0101086,0.0131223,0.0170336,0.0221099,0.0286983,inf	322.469,322.469,1259.14,372.048,155.792,219.276,316.004,357.603,367.238,365.541,353.703,321.404,299.381,305.873,320.747,329.746,335.598,345.752,363.017,380.081,397.115,422.832,459.111,498.687,510.53,477.344,458.279,514.958,514.958,30.5118,30.5118,30.5118
0.00139553	-8519742.60	0,2.64173e-06,6.07035e-06,1.05202e-05,1.62956e-05,2.37912e-05,3.35195e-05,4.61456e-05,6.25325e-05,8.38005e-05,0.000111404,0.000147229,0.000193725,0.00025407,0.000332391,0.00043404,0.000565968,0.000737192,0.000959418,0.00124784,0.00162217,0.002108,0.00273854,0.0035569,0.00461902,0.00599751,0.0077866,0.0101086,0.0131223,0.0170336,0.0221099,0.0286983,inf	306.993,306.993,1281.35,357.78,149.234,219.234,318.534,359.296,367.834,366.17,353.922,320.73,298.972,306.46,321.947,331.153,337.079,347.275,364.306,380.507,396.316,421.031,457.008,497.121,509.125,475.304,456.947,523.596,523.596,27.2857,27.2857,27.2857
0.00142468	-8519528.96	0,2.64173e-06,6.07035e-06,1.05202e-05,1.62956e-05,2.37912e-05,3.35195e-05,4.61456e-05,6.25325e-05,8.38005e-05,0.000111404,0.000147229,0.000193725,0.00025407,0.000332391,0.00043404,0.000565968,0.000737192,0.000959418,0.00124784,0.00162217,0.002108,0.00273854,0.0035569,0.00461902,0.00599751,0.0077866,0.0101086,0.0131223,0.0170336,0.0221099,0.0286983,inf	292.981,292.981,1302.03,343.692,143.196,219.552,321.21,361.017,368.475,366.876,354.2,320.132,298.642,307.055,323.07,332.445,338.455,348.73,365.572,380.969,395.621,419.389,455.074,495.676,507.787,473.349,455.721,533.508,533.508,30.4532,30.4532,30.4532
0.00145275	-8519285.02	0,2.64173e-06,6.07035e-06,1.05202e-05,1.62956e-05,2.37912e-05,3.35195e-05,4.61456e-05,6.25325e-05,8.38005e-05,0.000111404,0.000147229,0.000193725,0.00025407,0.000332391,0.00043404,0.000565968,0.000737192,0.000959418,0.00124784,0.00162217,0.002108,0.00273854,0.0035569,0.00461902,0.00599751,0.0077866,0.0101086,0.0131223,0.0170336,0.0221099,0.0286983,inf	280.249,280.249,1321.3,329.816,137.629,220.172,323.97,362.715,369.118,367.634,354.52,319.599,298.381,307.651,324.112,333.614,339.715,350.098,366.786,381.431,394.989,417.858,453.253,494.281,506.401,471.247,454.082,539.636,539.636,27.2852,27.2852,27.2852
0.0014798	-8519110.95	0,2.64173e-06,6.07035e-06,1.05202e-05,1.62956e-05,2.37912e-05,3.35195e-05,4.61456e-05,6.25325e-05,8.38005e-05,0.000111404,0.000147229,0.000193725,0.00025407,0.000332391,0.00043404,0.000565968,0.000737192,0.000959418,0.00124784,0.00162217,0.002108,0.00273854,0.0035569,0.00461902,0.00599751,0.0077866,0.0101086,0.0131223,0.0170336,0.0221099,0.0286983,inf	268.755,268.755,1339.24,316.254,132.476,221.059,326.79,364.375,369.765,368.446,354.892,319.146,298.204,308.267,325.097,334.689,340.881,351.396,367.963,381.903,394.428,416.451,451.58,493.013,505.119,469.29,452.648,547.388,547.388,30.4968,30.4968,30.4968
