0.000677931	-299456.17	0,9.10868e-05,0.000215722,0.000386263,0.000619616,0.000938916,0.00137582,0.00197364,0.00279165,0.00391094,0.00544249,0.00753812,0.0104056,0.0143292,0.019698,0.0270442,inf	501.928,501.928,410.593,400.289,394.646,393.231,400.893,402.208,401.18,404.718,405.102,413.475,448.297,571.61,571.61,571.61
0.000731576	-299403.96	0,9.10868e-05,0.000215722,0.000386263,0.000619616,0.000938916,0.00137582,0.00197364,0.00279165,0.00391094,0.00544249,0.00753812,0.0104056,0.0143292,0.019698,0.0270442,inf	544.792,544.792,406.297,398.274,390.673,388.457,401.613,402.083,398.905,404.463,403.801,418.059,490.941,912.141,912.141,912.141
0.000779851	-299367.44	0,9.10868e-05,0.000215722,0.000386263,0.000619616,0.000938916,0.00137582,0.00197364,0.00279165,0.00391094,0.00544249,0.00753812,0.0104056,0.0143292,0.019698,0.0270442,inf	562.269,562.269,400.116,398.383,389.422,386.301,403.646,402.385,396.905,403.805,401.319,419.777,537.46,2264.49,2264.49,2264.49
0.000779851	-299340.85	0,9.10868e-05,0.000215722,0.000386263,0.000619616,0.000938916,0.00137582,0.00197364,0.00279165,0.00391094,0.00544249,0.00753812,0.0104056,0.0143292,0.019698,0.0270442,inf	560.168,560.168,388.363,393.564,382.987,378.853,399.15,396.448,389.754,397.981,394.172,416.33,590.954,56880.6,56880.6,56880.6
0.000779851	-299342.72	0,9.10868e-05,0.000215722,0.000386263,0.000619616,0.000938916,0.00137582,0.00197364,0.00279165,0.00391094,0.00544249,0.00753812,0.0104056,0.0143292,0.019698,0.0270442,inf	560.168,560.168,382.496,394.474,381.828,376.162,399.027,394.223,385.658,394.59,388.577,413.724,599.416,56880.6,56880.6,56880.6
0.000779851	-299342.19	0,9.10868e-05,0.000215722,0.000386263,0.000619616,0.000938916,0.00137582,0.00197364,0.00279165,0.00391094,0.00544249,0.00753812,0.0104056,0.0143292,0.019698,0.0270442,inf	560.168,560.168,378.025,396.595,381.852,374.714,400.278,393.615,383.341,392.869,384.331,411.91,604.506,56880.6,56880.6,56880.6
0.000779851	-299341.90	0,9.10868e-05,0.000215722,0.000386263,0.000619616,0.000938916,0.00137582,0.00197364,0.00279165,0.00391094,0.00544249,0.00753812,0.0104056,0.0143292,0.019698,0.0270442,inf	560.168,560.168,374.135,398.873,381.997,373.485,401.319,393.615,381.926,392.12,380.939,410.617,607.959,56880.6,56880.6,56880.6
0.000779851	-299341.70	0,9.10868e-05,0.000215722,0.000386263,0.000619616,0.000938916,0.00137582,0.00197364,0.00279165,0.00391094,0.00544249,0.00753812,0.0104056,0.0143292,0.019698,0.0270442,inf	560.168,560.168,370.654,401.15,382.123,372.314,402.212,393.615,381.028,391.981,378.121,409.692,610.45,56880.6,56880.6,56880.6
0.000779851	-299341.55	0,9.10868e-05,0.000215722,0.000386263,0.000619616,0.000938916,0.00137582,0.00197364,0.00279165,0.00391094,0.00544249,0.00753812,0.0104056,0.0143292,0.019698,0.0270442,inf	560.168,560.168,367.498,403.369,382.187,371.154,402.212,394.143,380.446,392.243,375.709,409.036,612.301,56880.6,56880.6,56880.6
0.000779851	-299341.44	0,9.10868e-05,0.000215722,0.000386263,0.000619616,0.000938916,0.00137582,0.00197364,0.00279165,0.00391094,0.00544249,0.00753812,0.0104056,0.0143292,0.019698,0.0270442,inf	560.168,560.168,364.626,405.467,382.187,370.113,402.212,394.699,380.045,392.537,373.593,408.583,613.762,56880.6,56880.6,56880.6
0.000779851	-299341.35	0,9.10868e-05,0.000215722,0.000386263,0.000619616,0.000938916,0.00137582,0.00197364,0.00279165,0.00391094,0.00544249,0.00753812,0.0104056,0.0143292,0.019698,0.0270442,inf	560.168,560.168,361.988,405.48,382.285,369.149,402.212,395.391,379.767,392.917,371.711,408.297,614.976,56880.6,56880.6,56880.6
0.000779851	-299341.24	0,9.10868e-05,0.000215722,0.000386263,0.000619616,0.000938916,0.00137582,0.00197364,0.00279165,0.00391094,0.00544249,0.00753812,0.0104056,0.0143292,0.019698,0.0270442,inf	560.168,560.168,359.961,406.962,382.285,368.338,402.804,395.391,379.544,393.08,370.024,408.149,615.986,56880.6,56880.6,56880.6
0.000779851	-299341.18	0,9.10868e-05,0.000215722,0.000386263,0.000619616,0.000938916,0.00137582,0.00197364,0.00279165,0.00391094,0.00544249,0.00753812,0.0104056,0.0143292,0.019698,0.0270442,inf	560.168,560.168,358.102,408.32,382.285,367.547,402.804,395.813,379.42,393.17,368.525,408.131,616.799,56880.6,56880.6,56880.6
0.000779851	-299341.13	0,9.10868e-05,0.000215722,0.000386263,0.000619616,0.000938916,0.00137582,0.00197364,0.00279165,0.00391094,0.00544249,0.00753812,0.0104056,0.0143292,0.019698,0.0270442,inf	560.168,560.168,356.408,409.558,382.285,366.828,403.33,395.813,379.366,393.209,367.18,408.226,617.448,56880.6,56880.6,56880.6
0.000779851	-299341.09	0,9.10868e-05,0.000215722,0.000386263,0.000619616,0.000938916,0.00137582,0.00197364,0.00279165,0.00391094,0.00544249,0.00753812,0.0104056,0.0143292,0.019698,0.0270442,inf	560.169,560.169,354.855,409.558,382.67,366.139,404.071,395.813,379.366,393.209,365.973,408.42,617.951,56880.6,56880.6,56880.6
0.000779851	-299341.05	0,9.10868e-05,0.000215722,0.000386263,0.000619616,0.000938916,0.00137582,0.00197364,0.00279165,0.00391094,0.00544249,0.00753812,0.0104056,0.0143292,0.019698,0.0270442,inf	560.169,560.169,353.603,410.473,382.67,365.416,404.599,395.813,379.366,393.209,364.881,408.701,618.328,56880.6,56880.6,56880.6
0.000779851	-299341.03	0,9.10868e-05,0.000215722,0.000386263,0.000619616,0.000938916,0.00137582,0.00197364,0.00279165,0.00391094,0.00544249,0.00753812,0.0104056,0.0143292,0.019698,0.0270442,inf	560.169,560.169,352.464,411.306,382.67,364.715,404.599,396.187,379.366,393.209,363.902,408.702,618.851,56880.6,56880.6,56880.6
0.000779851	-299341.00	0,9.10868e-05,0.000215722,0.000386263,0.000619616,0.000938916,0.00137582,0.00197364,0.00279165,0.00391094,0.00544249,0.00753812,0.0104056,0.0143292,0.019698,0.0270442,inf	560.169,560.169,351.434,412.058,382.67,364.085,405.06,396.187,379.366,393.209,363.007,409.131,619.015,56880.6,56880.6,56880.6
0.000779851	-299340.99	0,9.10868e-05,0.000215722,0.000386263,0.000619616,0.000938916,0.00137582,0.00197364,0.00279165,0.00391094,0.00544249,0.00753812,0.0104056,0.0143292,0.019698,0.0270442,inf	560.17,560.17,350.498,412.058,383.166,363.483,405.061,396.509,379.366,393.209,362.185,409.617,619.099,56880.6,56880.6,56880.6
0.000779851	-299340.99	0,9.10868e-05,0.000215722,0.000386263,0.000619616,0.000938916,0.00137582,0.00197364,0.00279165,0.00391094,0.00544249,0.00753812,0.0104056,0.0143292,0.019698,0.0270442,inf	560.17,560.17,349.721,412.626,383.166,362.909,405.481,396.509,379.366,393.209,361.438,410.151,619.108,56880.6,56880.6,56880.6
