time_index	left_time_boundary	right_time_boundary	lambda
0	0	1.03423e-05	648.448
1	1.03423e-05	2.70971e-05	648.448
2	2.70971e-05	5.42405e-05	332.676
3	5.42405e-05	9.82136e-05	328.585
4	9.82136e-05	0.000169451	448.698
5	0.000169451	0.000284859	390.674
6	0.000284859	0.000471823	396.851
7	0.000471823	0.00077471	401.535
8	0.00077471	0.0012654	377.803
9	0.0012654	0.00206032	402.343
10	0.00206032	0.00334813	410.361
11	0.00334813	0.00543442	374.413
12	0.00543442	0.00881428	501.271
13	0.00881428	0.0142898	405.537
14	0.0142898	0.0231602	405.537
15	0.0231602	inf	405.537
