time_index	left_time_boundary	right_time_boundary	lambda
0	0	2.20562e-05	516.492
1	2.20562e-05	5.58005e-05	516.492
2	5.58005e-05	0.000107427	520.467
3	0.000107427	0.000186411	502.179
4	0.000186411	0.000307251	312.117
5	0.000307251	0.000492128	394.821
6	0.000492128	0.000774975	397.218
7	0.000774975	0.00120771	360.998
8	0.00120771	0.00186976	393.62
9	0.00186976	0.00288265	417.21
10	0.00288265	0.0044323	390.721
11	0.0044323	0.00680315	368.36
12	0.00680315	0.0104304	388.428
13	0.0104304	0.0159797	51607.1
14	0.0159797	0.0244699	51607.1
15	0.0244699	inf	51607.1
