0.000676744	-1814668.33	0,1.0595e-05,2.38871e-05,4.05628e-05,6.14835e-05,8.77296e-05,0.000120657,0.000161966,0.000213791,0.000278808,0.000360376,0.000462708,0.00059109,0.000752151,0.000954213,0.00120771,0.00152574,0.00192472,0.00242527,0.00305324,0.00384106,0.00482943,0.0060694,0.00762501,0.00957661,0.012025,0.0150967,0.0189502,0.0237848,0.02985,inf	406.897,406.897,406.897,406.897,406.897,406.897,406.897,406.897,406.897,406.897,406.897,406.897,406.897,406.897,406.897,406.897,406.897,406.897,406.897,406.897,406.897,406.897,406.897,406.897,406.897,406.897,406.897,406.897,406.897,406.897
0.000723388	-1814388.95	0,1.0595e-05,2.38871e-05,4.05628e-05,6.14835e-05,8.77296e-05,0.000120657,0.000161966,0.000213791,0.000278808,0.000360376,0.000462708,0.00059109,0.000752151,0.000954213,0.00120771,0.00152574,0.00192472,0.00242527,0.00305324,0.00384106,0.00482943,0.0060694,0.00762501,0.00957661,0.012025,0.0150967,0.0189502,0.0237848,0.02985,inf	409.576,409.576,409.576,409.576,409.576,409.576,409.576,409.576,409.576,409.576,409.576,409.576,409.576,409.576,409.576,409.576,409.576,409.576,409.576,409.576,409.576,409.576,409.576,409.576,409.576,409.576,409.576,409.576,409.576,409.576
0.000765327	-1814173.78	0,1.0595e-05,2.38871e-05,4.05628e-05,6.14835e-05,8.77296e-05,0.000120657,0.000161966,0.000213791,0.000278808,0.000360376,0.000462708,0.00059109,0.000752151,0.000954213,0.00120771,0.00152574,0.00192472,0.00242527,0.00305324,0.00384106,0.00482943,0.0060694,0.00762501,0.00957661,0.012025,0.0150967,0.0189502,0.0237848,0.02985,inf	410.616,410.616,410.616,410.616,410.616,410.616,410.616,410.616,410.616,410.616,410.616,410.616,410.616,410.616,410.616,410.616,410.616,410.616,410.616,410.616,410.616,410.616,410.616,410.616,410.616,410.616,410.616,410.616,410.616,410.616
0.000803299	-1814003.70	0,1.0595e-05,2.38871e-05,4.05628e-05,6.14835e-05,8.77296e-05,0.000120657,0.000161966,0.000213791,0.000278808,0.000360376,0.000462708,0.00059109,0.000752151,0.000954213,0.00120771,0.00152574,0.00192472,0.00242527,0.00305324,0.00384106,0.00482943,0.0060694,0.00762501,0.00957661,0.012025,0.0150967,0.0189502,0.0237848,0.02985,inf	410.931,410.931,410.931,410.931,410.931,410.931,410.931,410.931,410.931,410.931,410.931,410.931,410.931,410.931,410.931,410.931,410.931,410.931,410.931,410.931,410.931,410.931,410.931,410.931,410.931,410.931,410.931,410.931,410.931,410.931
0.000837838	-1813867.27	0,1.0595e-05,2.38871e-05,4.05628e-05,6.14835e-05,8.77296e-05,0.000120657,0.000161966,0.000213791,0.000278808,0.000360376,0.000462708,0.00059109,0.000752151,0.000954213,0.00120771,0.00152574,0.00192472,0.00242527,0.00305324,0.00384106,0.00482943,0.0060694,0.00762501,0.00957661,0.012025,0.0150967,0.0189502,0.0237848,0.02985,inf	410.921,410.921,410.921,410.921,410.921,410.921,410.921,410.921,410.921,410.921,410.921,410.921,410.921,410.921,410.921,410.921,410.921,410.921,410.921,410.921,410.921,410.921,410.921,410.921,410.921,410.921,410.921,410.921,410.921,410.921
0.000869357	-1813756.65	0,1.0595e-05,2.38871e-05,4.05628e-05,6.14835e-05,8.77296e-05,0.000120657,0.000161966,0.000213791,0.000278808,0.000360376,0.000462708,0.00059109,0.000752151,0.000954213,0.00120771,0.00152574,0.00192472,0.00242527,0.00305324,0.00384106,0.00482943,0.0060694,0.00762501,0.00957661,0.012025,0.0150967,0.0189502,0.0237848,0.02985,inf	410.764,410.764,410.764,410.764,410.764,410.764,410.764,410.764,410.764,410.764,410.764,410.764,410.764,410.764,410.764,410.764,410.764,410.764,410.764,410.764,410.764,410.764,410.764,410.764,410.764,410.764,410.764,410.764,410.764,410.764
0.00089819	-1813666.10	0,1.0595e-05,2.38871e-05,4.05628e-05,6.14835e-05,8.77296e-05,0.000120657,0.000161966,0.000213791,0.000278808,0.000360376,0.000462708,0.00059109,0.000752151,0.000954213,0.00120771,0.00152574,0.00192472,0.00242527,0.00305324,0.00384106,0.00482943,0.0060694,0.00762501,0.00957661,0.012025,0.0150967,0.0189502,0.0237848,0.02985,inf	410.543,410.543,410.543,410.543,410.543,410.543,410.543,410.543,410.543,410.543,410.543,410.543,410.543,410.543,410.543,410.543,410.543,410.543,410.543,410.543,410.543,410.543,410.543,410.543,410.543,410.543,410.543,410.543,410.543,410.543
0.000924618	-1813591.37	0,1.0595e-05,2.38871e-05,4.05628e-05,6.14835e-05,8.77296e-05,0.000120657,0.000161966,0.000213791,0.000278808,0.000360376,0.000462708,0.00059109,0.000752151,0.000954213,0.00120771,0.00152574,0.00192472,0.00242527,0.00305324,0.00384106,0.00482943,0.0060694,0.00762501,0.00957661,0.012025,0.0150967,0.0189502,0.0237848,0.02985,inf	410.297,410.297,410.297,410.297,410.297,410.297,410.297,410.297,410.297,410.297,410.297,410.297,410.297,410.297,410.297,410.297,410.297,410.297,410.297,410.297,410.297,410.297,410.297,410.297,410.297,410.297,410.297,410.297,410.297,410.297
0.000948882	-1813529.21	0,1.0595e-05,2.38871e-05,4.05628e-05,6.14835e-05,8.77296e-05,0.000120657,0.000161966,0.000213791,0.000278808,0.000360376,0.000462708,0.00059109,0.000752151,0.000954213,0.00120771,0.00152574,0.00192472,0.00242527,0.00305324,0.00384106,0.00482943,0.0060694,0.00762501,0.00957661,0.012025,0.0150967,0.0189502,0.0237848,0.02985,inf	410.045,410.045,410.045,410.045,410.045,410.045,410.045,410.045,410.045,410.045,410.045,410.045,410.045,410.045,410.045,410.045,410.045,410.045,410.045,410.045,410.045,410.045,410.045,410.045,410.045,410.045,410.045,410.045,410.045,410.045
0.000971189	-1813477.16	0,1.0595e-05,2.38871e-05,4.05628e-05,6.14835e-05,8.77296e-05,0.000120657,0.000161966,0.000213791,0.000278808,0.000360376,0.000462708,0.00059109,0.000752151,0.000954213,0.00120771,0.00152574,0.00192472,0.00242527,0.00305324,0.00384106,0.00482943,0.0060694,0.00762501,0.00957661,0.012025,0.0150967,0.0189502,0.0237848,0.02985,inf	409.797,409.797,409.797,409.797,409.797,409.797,409.797,409.797,409.797,409.797,409.797,409.797,409.797,409.797,409.797,409.797,409.797,409.797,409.797,409.797,409.797,409.797,409.797,409.797,409.797,409.797,409.797,409.797,409.797,409.797
0.000991725	-1813433.31	0,1.0595e-05,2.38871e-05,4.05628e-05,6.14835e-05,8.77296e-05,0.000120657,0.000161966,0.000213791,0.000278808,0.000360376,0.000462708,0.00059109,0.000752151,0.000954213,0.00120771,0.00152574,0.00192472,0.00242527,0.00305324,0.00384106,0.00482943,0.0060694,0.00762501,0.00957661,0.012025,0.0150967,0.0189502,0.0237848,0.02985,inf	409.557,409.557,409.557,409.557,409.557,409.557,409.557,409.557,409.557,409.557,409.557,409.557,409.557,409.557,409.557,409.557,409.557,409.557,409.557,409.557,409.557,409.557,409.557,409.557,409.557,409.557,409.557,409.557,409.557,409.557
0.00101065	-1813396.15	0,1.0595e-05,2.38871e-05,4.05628e-05,6.14835e-05,8.77296e-05,0.000120657,0.000161966,0.000213791,0.000278808,0.000360376,0.000462708,0.00059109,0.000752151,0.000954213,0.00120771,0.00152574,0.00192472,0.00242527,0.00305324,0.00384106,0.00482943,0.0060694,0.00762501,0.00957661,0.012025,0.0150967,0.0189502,0.0237848,0.02985,inf	409.329,409.329,409.329,409.329,409.329,409.329,409.329,409.329,409.329,409.329,409.329,409.329,409.329,409.329,409.329,409.329,409.329,409.329,409.329,409.329,409.329,409.329,409.329,409.329,409.329,409.329,409.329,409.329,409.329,409.329
0.00102811	-1813364.51	0,1.0595e-05,2.38871e-05,4.05628e-05,6.14835e-05,8.77296e-05,0.000120657,0.000161966,0.000213791,0.000278808,0.000360376,0.000462708,0.00059109,0.000752151,0.000954213,0.00120771,0.00152574,0.00192472,0.00242527,0.00305324,0.00384106,0.00482943,0.0060694,0.00762501,0.00957661,0.012025,0.0150967,0.0189502,0.0237848,0.02985,inf	409.112,409.112,409.112,409.112,409.112,409.112,409.112,409.112,409.112,409.112,409.112,409.112,409.112,409.112,409.112,409.112,409.112,409.112,409.112,409.112,409.112,409.112,409.112,409.112,409.112,409.112,409.112,409.112,409.112,409.112
0.00104422	-1813337.42	0,1.0595e-05,2.38871e-05,4.05628e-05,6.14835e-05,8.77296e-05,0.000120657,0.000161966,0.000213791,0.000278808,0.000360376,0.000462708,0.00059109,0.000752151,0.000954213,0.00120771,0.00152574,0.00192472,0.00242527,0.00305324,0.00384106,0.00482943,0.0060694,0.00762501,0.00957661,0.012025,0.0150967,0.0189502,0.0237848,0.02985,inf	408.909,408.909,408.909,408.909,408.909,408.909,408.909,408.909,408.909,408.909,408.909,408.909,408.909,408.909,408.909,408.909,408.909,408.909,408.909,408.909,408.909,408.909,408.909,408.909,408.909,408.909,408.909,408.909,408.909,408.909
0.00105912	-1813314.13	0,1.0595e-05,2.38871e-05,4.05628e-05,6.14835e-05,8.77296e-05,0.000120657,0.000161966,0.000213791,0.000278808,0.000360376,0.000462708,0.00059109,0.000752151,0.000954213,0.00120771,0.00152574,0.00192472,0.00242527,0.00305324,0.00384106,0.00482943,0.0060694,0.00762501,0.00957661,0.012025,0.0150967,0.0189502,0.0237848,0.02985,inf	408.717,408.717,408.717,408.717,408.717,408.717,408.717,408.717,408.717,408.717,408.717,408.717,408.717,408.717,408.717,408.717,408.717,408.717,408.717,408.717,408.717,408.717,408.717,408.717,408.717,408.717,408.717,408.717,408.717,408.717
0.0010729	-1813294.03	0,1.0595e-05,2.38871e-05,4.05628e-05,6.14835e-05,8.77296e-05,0.000120657,0.000161966,0.000213791,0.000278808,0.000360376,0.000462708,0.00059109,0.000752151,0.000954213,0.00120771,0.00152574,0.00192472,0.00242527,0.00305324,0.00384106,0.00482943,0.0060694,0.00762501,0.00957661,0.012025,0.0150967,0.0189502,0.0237848,0.02985,inf	408.538,408.538,408.538,408.538,408.538,408.538,408.538,408.538,408.538,408.538,408.538,408.538,408.538,408.538,408.538,408.538,408.538,408.538,408.538,408.538,408.538,408.538,408.538,408.538,408.538,408.538,408.538,408.538,408.538,408.538
0.00108564	-1813276.61	0,1.0595e-05,2.38871e-05,4.05628e-05,6.14835e-05,8.77296e-05,0.000120657,0.000161966,0.000213791,0.000278808,0.000360376,0.000462708,0.00059109,0.000752151,0.000954213,0.00120771,0.00152574,0.00192472,0.00242527,0.00305324,0.00384106,0.00482943,0.0060694,0.00762501,0.00957661,0.012025,0.0150967,0.0189502,0.0237848,0.02985,inf	408.37,408.37,408.37,408.37,408.37,408.37,408.37,408.37,408.37,408.37,408.37,408.37,408.37,408.37,408.37,408.37,408.37,408.37,408.37,408.37,408.37,408.37,408.37,408.37,408.37,408.37,408.37,408.37,408.37,408.37
0.00109745	-1813261.46	0,1.0595e-05,2.38871e-05,4.05628e-05,6.14835e-05,8.77296e-05,0.000120657,0.000161966,0.000213791,0.000278808,0.000360376,0.000462708,0.00059109,0.000752151,0.000954213,0.00120771,0.00152574,0.00192472,0.00242527,0.00305324,0.00384106,0.00482943,0.0060694,0.00762501,0.00957661,0.012025,0.0150967,0.0189502,0.0237848,0.02985,inf	408.213,408.213,408.213,408.213,408.213,408.213,408.213,408.213,408.213,408.213,408.213,408.213,408.213,408.213,408.213,408.213,408.213,408.213,408.213,408.213,408.213,408.213,408.213,408.213,408.213,408.213,408.213,408.213,408.213,408.213
0.00110838	-1813248.24	0,1.0595e-05,2.38871e-05,4.05628e-05,6.14835e-05,8.77296e-05,0.000120657,0.000161966,0.000213791,0.000278808,0.000360376,0.000462708,0.00059109,0.000752151,0.000954213,0.00120771,0.00152574,0.00192472,0.00242527,0.00305324,0.00384106,0.00482943,0.0060694,0.00762501,0.00957661,0.012025,0.0150967,0.0189502,0.0237848,0.02985,inf	408.067,408.067,408.067,408.067,408.067,408.067,408.067,408.067,408.067,408.067,408.067,408.067,408.067,408.067,408.067,408.067,408.067,408.067,408.067,408.067,408.067,408.067,408.067,408.067,408.067,408.067,408.067,408.067,408.067,408.067
0.00111852	-1813236.67	0,1.0595e-05,2.38871e-05,4.05628e-05,6.14835e-05,8.77296e-05,0.000120657,0.000161966,0.000213791,0.000278808,0.000360376,0.000462708,0.00059109,0.000752151,0.000954213,0.00120771,0.00152574,0.00192472,0.00242527,0.00305324,0.00384106,0.00482943,0.0060694,0.00762501,0.00957661,0.012025,0.0150967,0.0189502,0.0237848,0.02985,inf	407.93,407.93,407.93,407.93,407.93,407.93,407.93,407.93,407.93,407.93,407.93,407.93,407.93,407.93,407.93,407.93,407.93,407.93,407.93,407.93,407.93,407.93,407.93,407.93,407.93,407.93,407.93,407.93,407.93,407.93
