LogLikelihood = -1112212.3839290959295

y0 0.028483207239514252151
y0_prime 0
y1 5.9001196748257536129
y1_prime 0
y2 5.5524932492728398259
y2_prime 0
y3 127.56529117941481388
y3_prime 0
rho 1.1694250575155146405e-08
theta 0.0034402732041078224259
