time_index	left_time_boundary	right_time_boundary	lambda
0	0	4.65385e-06	5444.55
1	4.65385e-06	1.2729e-05	5444.55
2	1.2729e-05	2.67404e-05	0.351032
3	2.67404e-05	5.10524e-05	0.351033
4	5.10524e-05	9.3237e-05	0.677404
5	9.3237e-05	0.000166434	58.9123
6	0.000166434	0.00029344	43.2553
7	0.00029344	0.000513814	5.36691
8	0.000513814	0.000896196	76.5511
9	0.000896196	0.00155968	279.004
10	0.00155968	0.00271093	316.714
11	0.00271093	0.0047085	350.956
12	0.0047085	0.00817459	426.58
13	0.00817459	0.0141887	157.568
14	0.0141887	0.0246242	157.568
15	0.0246242	inf	157.568
