AIC = 3055262.8607536759228

y0 0.93762370883736778637
y0_prime 0
y1 1.0057508207089997931
y1_prime 0
y2 0.94262457486530637496
y2_prime 0
y3 1.8336022265764206907
y3_prime 0
rho 0.00020250500601893254475
theta 0.0051395464770745968863
