0.000638124	-13381843.22	0,3.96673e-06,1.08496e-05,2.27923e-05,4.35147e-05,7.94709e-05,0.00014186,0.000250115,0.000437952,0.000763876,0.0013294,0.00231067,0.00401331,0.00696764,0.0120938,0.0209885,inf	668.594,668.594,186.39,198.89,276.491,288.325,309.055,334.216,348.215,363.339,410.718,437.052,421.144,407.02,407.02,407.02
0.000668551	-13380220.98	0,3.96673e-06,1.08496e-05,2.27923e-05,4.35147e-05,7.94709e-05,0.00014186,0.000250115,0.000437952,0.000763876,0.0013294,0.00231067,0.00401331,0.00696764,0.0120938,0.0209885,inf	825.8,825.8,128.791,139.986,253.317,258.24,282.23,317.365,330.528,342.766,412.39,451.88,424.885,401.132,401.132,401.132
0.000697017	-13379472.47	0,3.96673e-06,1.08496e-05,2.27923e-05,4.35147e-05,7.94709e-05,0.00014186,0.000250115,0.000437952,0.000763876,0.0013294,0.00231067,0.00401331,0.00696764,0.0120938,0.0209885,inf	888.756,888.756,106.211,113.076,254.209,249.141,274.128,316.969,326.369,331.182,413.867,460.502,425.638,395.106,395.106,395.106
0.00072381	-13378952.31	0,3.96673e-06,1.08496e-05,2.27923e-05,4.35147e-05,7.94709e-05,0.00014186,0.000250115,0.000437952,0.000763876,0.0013294,0.00231067,0.00401331,0.00696764,0.0120938,0.0209885,inf	904.605,904.605,95.2598,96.8746,260.751,245.259,271.201,321.541,327.019,323.479,415.075,465.645,424.98,389.462,389.462,389.462
0.000749243	-13378533.62	0,3.96673e-06,1.08496e-05,2.27923e-05,4.35147e-05,7.94709e-05,0.00014186,0.000250115,0.000437952,0.000763876,0.0013294,0.00231067,0.00401331,0.00696764,0.0120938,0.0209885,inf	900.616,900.616,89.3774,85.7391,268.053,242.534,269.584,327.353,329.462,317.796,416.181,468.81,423.718,384.386,384.386,384.386
0.000773525	-13378177.54	0,3.96673e-06,1.08496e-05,2.27923e-05,4.35147e-05,7.94709e-05,0.00014186,0.000250115,0.000437952,0.000763876,0.0013294,0.00231067,0.00401331,0.00696764,0.0120938,0.0209885,inf	888.936,888.936,86.0273,77.6163,274.861,240.028,268.199,333.141,332.524,313.31,417.283,470.806,422.244,379.899,379.899,379.899
0.00079679	-13377867.27	0,3.96673e-06,1.08496e-05,2.27923e-05,4.35147e-05,7.94709e-05,0.00014186,0.000250115,0.000437952,0.000763876,0.0013294,0.00231067,0.00401331,0.00696764,0.0120938,0.0209885,inf	874.698,874.698,84.0393,71.5277,280.962,237.639,266.827,338.507,335.718,309.6,418.419,472.071,420.743,375.958,375.958,375.958
0.000819124	-13377593.43	0,3.96673e-06,1.08496e-05,2.27923e-05,4.35147e-05,7.94709e-05,0.00014186,0.000250115,0.000437952,0.000763876,0.0013294,0.00231067,0.00401331,0.00696764,0.0120938,0.0209885,inf	859.825,859.825,82.7739,66.9134,286.387,235.436,265.479,343.372,338.836,306.427,419.596,472.857,419.297,372.495,372.495,372.495
0.000840591	-13377349.84	0,3.96673e-06,1.08496e-05,2.27923e-05,4.35147e-05,7.94709e-05,0.00014186,0.000250115,0.000437952,0.000763876,0.0013294,0.00231067,0.00401331,0.00696764,0.0120938,0.0209885,inf	845.296,845.296,81.8945,63.4047,291.213,233.49,264.212,347.763,341.796,303.643,420.808,473.313,417.938,369.443,369.443,369.443
0.000861238	-13377132.01	0,3.96673e-06,1.08496e-05,2.27923e-05,4.35147e-05,7.94709e-05,0.00014186,0.000250115,0.000437952,0.000763876,0.0013294,0.00231067,0.00401331,0.00696764,0.0120938,0.0209885,inf	831.424,831.424,81.2072,60.7459,295.49,231.83,263.07,351.739,344.569,301.151,422.045,473.532,416.675,366.74,366.74,366.74
0.000881108	-13376936.47	0,3.96673e-06,1.08496e-05,2.27923e-05,4.35147e-05,7.94709e-05,0.00014186,0.000250115,0.000437952,0.000763876,0.0013294,0.00231067,0.00401331,0.00696764,0.0120938,0.0209885,inf	818.377,818.377,80.591,58.7645,299.264,230.462,262.079,355.363,347.149,298.886,423.299,473.576,415.506,364.332,364.332,364.332
0.000900234	-13376760.41	0,3.96673e-06,1.08496e-05,2.27923e-05,4.35147e-05,7.94709e-05,0.00014186,0.000250115,0.000437952,0.000763876,0.0013294,0.00231067,0.00401331,0.00696764,0.0120938,0.0209885,inf	806.203,806.203,79.9922,57.3263,302.571,229.371,261.246,358.687,349.544,296.801,424.561,473.487,414.425,362.174,362.174,362.174
0.000918651	-13376601.49	0,3.96673e-06,1.08496e-05,2.27923e-05,4.35147e-05,7.94709e-05,0.00014186,0.000250115,0.000437952,0.000763876,0.0013294,0.00231067,0.00401331,0.00696764,0.0120938,0.0209885,inf	794.843,794.843,79.3875,56.3384,305.442,228.536,260.57,361.759,351.767,294.863,425.826,473.297,413.426,360.23,360.23,360.23
0.000936387	-13376457.77	0,3.96673e-06,1.08496e-05,2.27923e-05,4.35147e-05,7.94709e-05,0.00014186,0.000250115,0.000437952,0.000763876,0.0013294,0.00231067,0.00401331,0.00696764,0.0120938,0.0209885,inf	784.348,784.348,78.7569,55.7287,307.909,227.928,260.039,364.613,353.832,293.046,427.089,473.028,412.499,358.468,358.468,358.468
0.000953471	-13376327.56	0,3.96673e-06,1.08496e-05,2.27923e-05,4.35147e-05,7.94709e-05,0.00014186,0.000250115,0.000437952,0.000763876,0.0013294,0.00231067,0.00401331,0.00696764,0.0120938,0.0209885,inf	774.582,774.582,78.0972,55.4433,310.005,227.522,259.641,367.281,355.751,291.33,428.347,472.696,411.639,356.863,356.863,356.863
0.00096993	-13376209.40	0,3.96673e-06,1.08496e-05,2.27923e-05,4.35147e-05,7.94709e-05,0.00014186,0.000250115,0.000437952,0.000763876,0.0013294,0.00231067,0.00401331,0.00696764,0.0120938,0.0209885,inf	765.527,765.527,77.4021,55.4329,311.767,227.294,259.362,369.786,357.538,289.699,429.597,472.316,410.838,355.394,355.394,355.394
0.000985789	-13376102.04	0,3.96673e-06,1.08496e-05,2.27923e-05,4.35147e-05,7.94709e-05,0.00014186,0.000250115,0.000437952,0.000763876,0.0013294,0.00231067,0.00401331,0.00696764,0.0120938,0.0209885,inf	757.107,757.107,76.6705,55.6626,313.225,227.218,259.185,372.147,359.205,288.143,430.838,471.898,410.092,354.043,354.043,354.043
0.00100107	-13376004.36	0,3.96673e-06,1.08496e-05,2.27923e-05,4.35147e-05,7.94709e-05,0.00014186,0.000250115,0.000437952,0.000763876,0.0013294,0.00231067,0.00401331,0.00696764,0.0120938,0.0209885,inf	749.272,749.272,75.9121,56.1036,314.408,227.276,259.098,374.381,360.764,286.652,432.067,471.449,409.395,352.795,352.795,352.795
0.00101581	-13375915.40	0,3.96673e-06,1.08496e-05,2.27923e-05,4.35147e-05,7.94709e-05,0.00014186,0.000250115,0.000437952,0.000763876,0.0013294,0.00231067,0.00401331,0.00696764,0.0120938,0.0209885,inf	742.07,742.07,75.1337,56.7274,315.345,227.448,259.086,376.5,362.224,285.216,433.284,470.978,408.743,351.638,351.638,351.638
0.00103001	-13375834.29	0,3.96673e-06,1.08496e-05,2.27923e-05,4.35147e-05,7.94709e-05,0.00014186,0.000250115,0.000437952,0.000763876,0.0013294,0.00231067,0.00401331,0.00696764,0.0120938,0.0209885,inf	735.306,735.306,74.3259,57.5126,316.061,227.719,259.139,378.515,363.595,283.831,434.487,470.487,408.133,350.563,350.563,350.563
