AIC = 586809.32549272454344

y0 1.0152799372267591327
y0_prime 0
y1 0.9955799223872799919
y1_prime 0
y2 0.90367441786712565666
y2_prime 0
y3 1.6534028605741712958
y3_prime 0
rho 0.0013501030211596270689
rho.alpha 0.74023201187847376126
r_ii 0.99991887047129512922
theta 0.004845902384308781001
