LogLikelihood = -1422398.4300373606384

y0 1.0373625814776075149
y0_prime 0
y1 1.0133738614078362517
y1_prime 0
y2 0.77029073650116486327
y2_prime 0
y3 1.6219135856774387072
y3_prime 0
rho 0.012996079768930012335
rho.alpha 0.63780288298128784419
r_ii 0.99994613734850790188
theta 0.004604637758029615606
