0.000741673	-46030058.43	0,1.03556e-05,2.71321e-05,5.43105e-05,9.83404e-05,0.00016967,0.000285227,0.000472432,0.00077571,0.00126703,0.00206298,0.00335246,0.00544144,0.00882566,0.0143082,0.0231901,inf	362.372,362.372,367.758,351.409,347.636,346.008,349.62,362.553,385.111,411.873,432.818,432.302,423.375,426.004,426.004,426.004
0.00084536	-46003586.84	0,1.03556e-05,2.71321e-05,5.43105e-05,9.83404e-05,0.00016967,0.000285227,0.000472432,0.00077571,0.00126703,0.00206298,0.00335246,0.00544144,0.00882566,0.0143082,0.0231901,inf	358.724,358.724,372.886,344.957,338.262,332.829,334.762,350.716,380.03,414.682,444.813,446.563,434.867,443.107,443.107,443.107
0.000939345	-45985823.81	0,1.03556e-05,2.71321e-05,5.43105e-05,9.83404e-05,0.00016967,0.000285227,0.000472432,0.00077571,0.00126703,0.00206298,0.00335246,0.00544144,0.00882566,0.0143082,0.0231901,inf	354.29,354.29,380.026,345.392,338.674,330.837,331.031,347.818,378.958,414.602,447.879,451.646,439.569,454.155,454.155,454.155
0.0010254	-45972507.63	0,1.03556e-05,2.71321e-05,5.43105e-05,9.83404e-05,0.00016967,0.000285227,0.000472432,0.00077571,0.00126703,0.00206298,0.00335246,0.00544144,0.00882566,0.0143082,0.0231901,inf	346.981,346.981,383.702,345.484,340.84,332.106,331.352,348.619,379.832,413.768,447.238,452.229,440.626,461.38,461.38,461.38
0.00110484	-45962024.02	0,1.03556e-05,2.71321e-05,5.43105e-05,9.83404e-05,0.00016967,0.000285227,0.000472432,0.00077571,0.00126703,0.00206298,0.00335246,0.00544144,0.00882566,0.0143082,0.0231901,inf	339.281,339.281,384.648,344.328,342.811,334.178,333.195,351.028,381.664,412.851,445.094,450.597,439.707,466.135,466.135,466.135
0.00117861	-45953544.70	0,1.03556e-05,2.71321e-05,5.43105e-05,9.83404e-05,0.00016967,0.000285227,0.000472432,0.00077571,0.00126703,0.00206298,0.00335246,0.00544144,0.00882566,0.0143082,0.0231901,inf	332.832,332.832,384.279,342.359,344.299,336.286,335.558,354.105,383.941,412.044,442.413,447.896,437.721,469.254,469.254,469.254
0.00124742	-45946562.63	0,1.03556e-05,2.71321e-05,5.43105e-05,9.83404e-05,0.00016967,0.000285227,0.000472432,0.00077571,0.00126703,0.00206298,0.00335246,0.00544144,0.00882566,0.0143082,0.0231901,inf	328.151,328.151,383.554,340.088,345.422,338.226,338.027,357.397,386.382,411.384,439.626,444.723,435.176,471.27,471.27,471.27
0.00131185	-45940735.99	0,1.03556e-05,2.71321e-05,5.43105e-05,9.83404e-05,0.00016967,0.000285227,0.000472432,0.00077571,0.00126703,0.00206298,0.00335246,0.00544144,0.00882566,0.0143082,0.0231901,inf	325.115,325.115,382.952,337.859,346.352,339.972,340.43,360.681,388.834,410.859,436.927,441.392,432.362,472.53,472.53,472.53
0.00137234	-45935821.03	0,1.03556e-05,2.71321e-05,5.43105e-05,9.83404e-05,0.00016967,0.000285227,0.000472432,0.00077571,0.00126703,0.00206298,0.00335246,0.00544144,0.00882566,0.0143082,0.0231901,inf	323.397,323.397,382.66,335.86,347.22,341.554,342.699,363.847,391.211,410.445,434.395,438.07,429.448,473.264,473.264,473.264
0.00142928	-45931637.61	0,1.03556e-05,2.71321e-05,5.43105e-05,9.83404e-05,0.00016967,0.000285227,0.000472432,0.00077571,0.00126703,0.00206298,0.00335246,0.00544144,0.00882566,0.0143082,0.0231901,inf	322.626,322.626,382.699,334.164,348.113,343.009,344.814,366.844,393.47,410.119,432.059,434.845,426.532,473.633,473.633,473.633
0.00148298	-45928049.21	0,1.03556e-05,2.71321e-05,5.43105e-05,9.83404e-05,0.00016967,0.000285227,0.000472432,0.00077571,0.00126703,0.00206298,0.00335246,0.00544144,0.00882566,0.0143082,0.0231901,inf	322.502,322.502,383.026,332.79,349.076,344.37,346.777,369.652,395.59,409.859,429.921,431.76,423.672,473.745,473.745,473.745
0.00153371	-45924950.30	0,1.03556e-05,2.71321e-05,5.43105e-05,9.83404e-05,0.00016967,0.000285227,0.000472432,0.00077571,0.00126703,0.00206298,0.00335246,0.00544144,0.00882566,0.0143082,0.0231901,inf	322.777,322.777,383.576,331.718,350.129,345.664,348.597,372.268,397.565,409.652,427.973,428.836,420.898,473.679,473.679,473.679
0.00158173	-45922258.04	0,1.03556e-05,2.71321e-05,5.43105e-05,9.83404e-05,0.00016967,0.000285227,0.000472432,0.00077571,0.00126703,0.00206298,0.00335246,0.00544144,0.00882566,0.0143082,0.0231901,inf	323.301,323.301,384.287,330.919,351.277,346.908,350.287,374.698,399.396,409.483,426.201,426.078,418.23,473.49,473.49,473.49
0.00162724	-45919906.52	0,1.03556e-05,2.71321e-05,5.43105e-05,9.83404e-05,0.00016967,0.000285227,0.000472432,0.00077571,0.00126703,0.00206298,0.00335246,0.00544144,0.00882566,0.0143082,0.0231901,inf	323.956,323.956,385.098,330.352,352.517,348.113,351.86,376.952,401.087,409.345,424.589,423.483,415.674,473.219,473.219,473.219
0.00167041	-45917842.72	0,1.03556e-05,2.71321e-05,5.43105e-05,9.83404e-05,0.00016967,0.000285227,0.000472432,0.00077571,0.00126703,0.00206298,0.00335246,0.00544144,0.00882566,0.0143082,0.0231901,inf	324.677,324.677,385.965,329.983,353.836,349.288,353.329,379.043,402.648,409.229,423.124,421.046,413.233,472.894,472.894,472.894
0.00171143	-45916023.50	0,1.03556e-05,2.71321e-05,5.43105e-05,9.83404e-05,0.00016967,0.000285227,0.000472432,0.00077571,0.00126703,0.00206298,0.00335246,0.00544144,0.00882566,0.0143082,0.0231901,inf	325.41,325.41,386.85,329.776,355.224,350.437,354.703,380.983,404.085,409.131,421.789,418.758,410.905,472.537,472.537,472.537
0.00175045	-45914413.52	0,1.03556e-05,2.71321e-05,5.43105e-05,9.83404e-05,0.00016967,0.000285227,0.000472432,0.00077571,0.00126703,0.00206298,0.00335246,0.00544144,0.00882566,0.0143082,0.0231901,inf	326.147,326.147,387.729,329.701,356.667,351.563,355.992,382.785,405.409,409.046,420.574,416.61,408.687,472.165,472.165,472.165
0.00178758	-45912983.53	0,1.03556e-05,2.71321e-05,5.43105e-05,9.83404e-05,0.00016967,0.000285227,0.000472432,0.00077571,0.00126703,0.00206298,0.00335246,0.00544144,0.00882566,0.0143082,0.0231901,inf	326.867,326.867,388.581,329.732,358.152,352.667,357.206,384.46,406.628,408.972,419.465,414.593,406.574,471.788,471.788,471.788
0.00182296	-45911709.16	0,1.03556e-05,2.71321e-05,5.43105e-05,9.83404e-05,0.00016967,0.000285227,0.000472432,0.00077571,0.00126703,0.00206298,0.00335246,0.00544144,0.00882566,0.0143082,0.0231901,inf	327.582,327.582,389.395,329.848,359.669,353.749,358.352,386.019,407.75,408.905,418.453,412.696,404.561,471.415,471.415,471.415
0.0018567	-45910570.00	0,1.03556e-05,2.71321e-05,5.43105e-05,9.83404e-05,0.00016967,0.000285227,0.000472432,0.00077571,0.00126703,0.00206298,0.00335246,0.00544144,0.00882566,0.0143082,0.0231901,inf	328.279,328.279,390.163,330.03,361.205,354.809,359.435,387.473,408.783,408.845,417.527,410.912,402.644,471.053,471.053,471.053
