0.000720804	-1871137.58	0,2.22086e-05,5.61862e-05,0.000108169,0.0001877,0.000309375,0.00049553,0.000780332,0.00121606,0.00188269,0.00290258,0.00446294,0.00685018,0.0105025,0.0160902,0.024639,inf	180.813,180.813,208.058,237.771,259.855,271.94,292.722,339.311,427.739,519.673,489.893,450.373,442.244,328.771,328.771,328.771
0.000806468	-1869516.43	0,2.22086e-05,5.61862e-05,0.000108169,0.0001877,0.000309375,0.00049553,0.000780332,0.00121606,0.00188269,0.00290258,0.00446294,0.00685018,0.0105025,0.0160902,0.024639,inf	145.061,145.061,168.675,204.136,227.819,232.967,250.175,305.228,426.98,585.257,541.061,480.028,475.976,275.765,275.765,275.765
0.000884511	-1868827.44	0,2.22086e-05,5.61862e-05,0.000108169,0.0001877,0.000309375,0.00049553,0.000780332,0.00121606,0.00188269,0.00290258,0.00446294,0.00685018,0.0105025,0.0160902,0.024639,inf	138.193,138.193,158.889,200.405,224.55,220.467,230.131,284.869,420.028,621.161,567.646,495.314,501.089,237.877,237.877,237.877
0.000956684	-1868415.46	0,2.22086e-05,5.61862e-05,0.000108169,0.0001877,0.000309375,0.00049553,0.000780332,0.00121606,0.00188269,0.00290258,0.00446294,0.00685018,0.0105025,0.0160902,0.024639,inf	136.159,136.159,155.632,205.004,230.861,218.083,220.003,272.208,412.939,641.864,580.39,502.271,519.809,211.296,211.296,211.296
0.00102447	-1868113.61	0,2.22086e-05,5.61862e-05,0.000108169,0.0001877,0.000309375,0.00049553,0.000780332,0.00121606,0.00188269,0.00290258,0.00446294,0.00685018,0.0105025,0.0160902,0.024639,inf	133.844,133.844,152.838,211.033,240.033,219.865,214.767,264.078,407.025,654.509,585.361,504.494,533.878,192.764,192.764,192.764
0.00108887	-1867868.60	0,2.22086e-05,5.61862e-05,0.000108169,0.0001877,0.000309375,0.00049553,0.000780332,0.00121606,0.00188269,0.00290258,0.00446294,0.00685018,0.0105025,0.0160902,0.024639,inf	130.824,130.824,149.188,216.193,249.423,223.33,212.145,258.76,402.391,662.676,585.915,504.042,544.554,179.935,179.935,179.935
0.00115053	-1867659.32	0,2.22086e-05,5.61862e-05,0.000108169,0.0001877,0.000309375,0.00049553,0.000780332,0.00121606,0.00188269,0.00290258,0.00446294,0.00685018,0.0105025,0.0160902,0.024639,inf	127.692,127.692,144.807,219.939,258.031,227.374,211.003,255.265,398.855,668.226,583.934,502.083,552.702,171.155,171.155,171.155
0.00120987	-1867475.58	0,2.22086e-05,5.61862e-05,0.000108169,0.0001877,0.000309375,0.00049553,0.000780332,0.00121606,0.00188269,0.00290258,0.00446294,0.00685018,0.0105025,0.0160902,0.024639,inf	124.978,124.978,140.125,222.38,265.559,231.494,210.734,252.996,396.196,672.172,580.493,499.288,558.91,165.255,165.255,165.255
0.00126719	-1867311.63	0,2.22086e-05,5.61862e-05,0.000108169,0.0001877,0.000309375,0.00049553,0.000780332,0.00121606,0.00188269,0.00290258,0.00446294,0.00685018,0.0105025,0.0160902,0.024639,inf	122.947,122.947,135.515,223.825,272.013,235.462,210.993,251.573,394.22,675.084,576.228,496.047,563.586,161.402,161.402,161.402
0.00132269	-1867163.80	0,2.22086e-05,5.61862e-05,0.000108169,0.0001877,0.000309375,0.00049553,0.000780332,0.00121606,0.00188269,0.00290258,0.00446294,0.00685018,0.0105025,0.0160902,0.024639,inf	121.654,121.654,131.213,224.591,277.507,239.183,211.575,250.747,392.773,677.301,571.52,492.595,567.024,159.009,159.009,159.009
0.00137653	-1867029.55	0,2.22086e-05,5.61862e-05,0.000108169,0.0001877,0.000309375,0.00049553,0.000780332,0.00121606,0.00188269,0.00290258,0.00446294,0.00685018,0.0105025,0.0160902,0.024639,inf	121.041,121.041,127.345,224.945,282.189,242.625,212.352,250.349,391.735,679.035,566.605,489.073,569.451,157.66,157.66,157.66
0.00142883	-1866906.99	0,2.22086e-05,5.61862e-05,0.000108169,0.0001877,0.000309375,0.00049553,0.000780332,0.00121606,0.00188269,0.00290258,0.00446294,0.00685018,0.0105025,0.0160902,0.024639,inf	120.992,120.992,123.955,225.087,286.203,245.786,213.243,250.261,391.014,680.42,561.629,485.569,571.045,157.062,157.062,157.062
0.00147969	-1866794.66	0,2.22086e-05,5.61862e-05,0.000108169,0.0001877,0.000309375,0.00049553,0.000780332,0.00121606,0.00188269,0.00290258,0.00446294,0.00685018,0.0105025,0.0160902,0.024639,inf	121.381,121.381,121.04,225.163,289.673,248.678,214.194,250.398,390.54,681.545,556.687,482.137,571.952,157.008,157.008,157.008
0.00152921	-1866691.36	0,2.22086e-05,5.61862e-05,0.000108169,0.0001877,0.000309375,0.00049553,0.000780332,0.00121606,0.00188269,0.00290258,0.00446294,0.00685018,0.0105025,0.0160902,0.024639,inf	122.096,122.096,118.576,225.271,292.704,251.318,215.172,250.702,390.259,682.474,551.835,478.809,572.293,157.349,157.349,157.349
0.00157746	-1866596.09	0,2.22086e-05,5.61862e-05,0.000108169,0.0001877,0.000309375,0.00049553,0.000780332,0.00121606,0.00188269,0.00290258,0.00446294,0.00685018,0.0105025,0.0160902,0.024639,inf	123.028,123.028,116.525,225.475,295.378,253.728,216.152,251.126,390.129,683.25,547.109,475.606,572.17,157.979,157.979,157.979
0.00162449	-1866508.01	0,2.22086e-05,5.61862e-05,0.000108169,0.0001877,0.000309375,0.00049553,0.000780332,0.00121606,0.00188269,0.00290258,0.00446294,0.00685018,0.0105025,0.0160902,0.024639,inf	124.097,124.097,114.844,225.815,297.766,255.926,217.119,251.639,390.118,683.903,542.529,472.537,571.665,158.821,158.821,158.821
0.00167038	-1866426.40	0,2.22086e-05,5.61862e-05,0.000108169,0.0001877,0.000309375,0.00049553,0.000780332,0.00121606,0.00188269,0.00290258,0.00446294,0.00685018,0.0105025,0.0160902,0.024639,inf	125.236,125.236,113.493,226.312,299.92,257.933,218.064,252.217,390.202,684.459,538.106,469.606,570.848,159.819,159.819,159.819
0.00171517	-1866350.62	0,2.22086e-05,5.61862e-05,0.000108169,0.0001877,0.000309375,0.00049553,0.000780332,0.00121606,0.00188269,0.00290258,0.00446294,0.00685018,0.0105025,0.0160902,0.024639,inf	126.397,126.397,112.435,226.977,301.882,259.765,218.98,252.84,390.36,684.934,533.844,466.812,569.776,160.93,160.93,160.93
0.00175891	-1866280.13	0,2.22086e-05,5.61862e-05,0.000108169,0.0001877,0.000309375,0.00049553,0.000780332,0.00121606,0.00188269,0.00290258,0.00446294,0.00685018,0.0105025,0.0160902,0.024639,inf	127.54,127.54,111.637,227.81,303.685,261.437,219.863,253.496,390.576,685.342,529.743,464.155,568.498,162.125,162.125,162.125
0.00180165	-1866214.43	0,2.22086e-05,5.61862e-05,0.000108169,0.0001877,0.000309375,0.00049553,0.000780332,0.00121606,0.00188269,0.00290258,0.00446294,0.00685018,0.0105025,0.0160902,0.024639,inf	128.643,128.643,111.067,228.806,305.356,262.965,220.711,254.173,390.839,685.695,525.799,461.629,567.054,163.379,163.379,163.379
