time_index	left_time_boundary	right_time_boundary	lambda
0	0	4.06982e-06	385.655
1	4.06982e-06	1.11315e-05	385.655
2	1.11315e-05	2.33846e-05	137.4
3	2.33846e-05	4.46455e-05	197.849
4	4.46455e-05	8.15363e-05	252.863
5	8.15363e-05	0.000145547	217.662
6	0.000145547	0.000256615	237.424
7	0.000256615	0.000449333	257.899
8	0.000449333	0.000783728	237.133
9	0.000783728	0.00136395	278.986
10	0.00136395	0.00237072	501.192
11	0.00237072	0.00411761	633.15
12	0.00411761	0.00714872	491.683
13	0.00714872	0.0124081	280.994
14	0.0124081	0.021534	280.994
15	0.021534	inf	280.994
