time_index	left_time_boundary	right_time_boundary	lambda
0	0	4.30528e-05	42.246
1	4.30528e-05	9.34139e-05	42.246
2	9.34139e-05	0.000152324	99.5368
3	0.000152324	0.000221233	208.764
4	0.000221233	0.000301841	347.46
5	0.000301841	0.000396131	147.372
6	0.000396131	0.000506427	126.082
7	0.000506427	0.000635446	144.442
8	0.000635446	0.000786366	175.961
9	0.000786366	0.000962904	215.025
10	0.000962904	0.00116941	265.141
11	0.00116941	0.00141097	333.306
12	0.00141097	0.00169353	424.173
13	0.00169353	0.00202406	528.765
14	0.00202406	0.0024107	616.406
15	0.0024107	0.00286297	658.054
16	0.00286297	0.00339201	657.756
17	0.00339201	0.00401086	634.985
18	0.00401086	0.00473476	606.278
19	0.00473476	0.00558153	578.814
20	0.00558153	0.00657205	535.708
21	0.00657205	0.00773071	444.344
22	0.00773071	0.00908605	314.836
23	0.00908605	0.0106715	208.687
24	0.0106715	0.012526	155.976
25	0.012526	0.0146953	150.746
26	0.0146953	0.0172329	188.486
27	0.0172329	0.0202013	302.035
28	0.0202013	0.0236735	302.035
29	0.0236735	0.0277351	548.954
30	0.0277351	0.0324862	548.954
31	0.0324862	inf	548.954
