0.000714544	-313279.61	0,9.34139e-05,0.000221233,0.000396131,0.000635446,0.000962904,0.00141097,0.00202406,0.00286297,0.00401086,0.00558153,0.00773071,0.0106715,0.0146953,0.0202013,0.0277351,inf	170.107,170.107,218.957,234.286,281.377,353.094,452.049,516.926,505.792,473.788,447.088,419.546,390.167,350.313,350.313,350.313
0.00079428	-312954.42	0,9.34139e-05,0.000221233,0.000396131,0.000635446,0.000962904,0.00141097,0.00202406,0.00286297,0.00401086,0.00558153,0.00773071,0.0106715,0.0146953,0.0202013,0.0277351,inf	122.89,122.89,178.475,180.966,234.881,326.749,471.527,586.632,576.645,527.121,481.28,428.039,371.617,307.133,307.133,307.133
0.000867897	-312824.99	0,9.34139e-05,0.000221233,0.000396131,0.000635446,0.000962904,0.00141097,0.00202406,0.00286297,0.00401086,0.00558153,0.00773071,0.0106715,0.0146953,0.0202013,0.0277351,inf	110.621,110.621,171.12,157.614,211.182,309.491,476.923,625.624,619.74,561.317,501.312,424.452,345.859,271.658,271.658,271.658
0.000936114	-312752.75	0,9.34139e-05,0.000221233,0.000396131,0.000635446,0.000962904,0.00141097,0.00202406,0.00286297,0.00401086,0.00558153,0.00773071,0.0106715,0.0146953,0.0202013,0.0277351,inf	108.518,108.518,175.427,146.083,197.997,298.1,477.386,647.84,645.575,582.817,511.729,413.526,318.49,244.849,244.849,244.849
0.00100018	-312702.01	0,9.34139e-05,0.000221233,0.000396131,0.000635446,0.000962904,0.00141097,0.00202406,0.00286297,0.00401086,0.00558153,0.00773071,0.0106715,0.0146953,0.0202013,0.0277351,inf	109.433,109.433,184.144,140.018,190.362,290.527,476.275,660.762,660.825,596.152,516.007,398.923,292.777,225.676,225.676,225.676
0.00106111	-312661.48	0,9.34139e-05,0.000221233,0.000396131,0.000635446,0.000962904,0.00141097,0.00202406,0.00286297,0.00401086,0.00558153,0.00773071,0.0106715,0.0146953,0.0202013,0.0277351,inf	110.869,110.869,194.231,136.748,185.929,285.503,474.846,668.385,669.542,604.329,516.623,383.168,270.215,212.741,212.741,212.741
0.00111959	-312626.96	0,9.34139e-05,0.000221233,0.000396131,0.000635446,0.000962904,0.00141097,0.00202406,0.00286297,0.00401086,0.00558153,0.00773071,0.0106715,0.0146953,0.0202013,0.0277351,inf	112.007,112.007,204.303,135.017,183.466,282.227,473.558,672.891,674.18,609.292,515.248,367.798,251.173,204.747,204.747,204.747
0.00117611	-312596.61	0,9.34139e-05,0.000221233,0.000396131,0.000635446,0.000962904,0.00141097,0.00202406,0.00286297,0.00401086,0.00558153,0.00773071,0.0106715,0.0146953,0.0202013,0.0277351,inf	112.701,112.701,213.736,134.183,182.276,280.175,472.546,675.499,676.227,612.275,512.939,353.602,235.422,200.587,200.587,200.587
0.00123098	-312569.41	0,9.34139e-05,0.000221233,0.000396131,0.000635446,0.000962904,0.00141097,0.00202406,0.00286297,0.00401086,0.00558153,0.00773071,0.0106715,0.0146953,0.0202013,0.0277351,inf	113.051,113.051,222.279,133.897,181.94,278.997,471.82,676.904,676.595,614.039,510.31,340.867,222.477,199.356,199.356,199.356
0.00128442	-312544.71	0,9.34139e-05,0.000221233,0.000396131,0.000635446,0.000962904,0.00141097,0.00202406,0.00286297,0.00401086,0.00558153,0.00773071,0.0106715,0.0146953,0.0202013,0.0277351,inf	113.221,113.221,229.859,133.959,182.19,278.448,471.344,677.512,675.848,615.044,507.686,329.589,211.81,200.338,200.338,200.338
0.00133657	-312522.08	0,9.34139e-05,0.000221233,0.000396131,0.000635446,0.000962904,0.00141097,0.00202406,0.00286297,0.00401086,0.00558153,0.00773071,0.0106715,0.0146953,0.0202013,0.0277351,inf	113.358,113.358,236.494,134.247,182.853,278.359,471.071,677.569,674.342,615.567,505.21,319.634,202.941,202.983,202.983,202.983
0.00138754	-312501.17	0,9.34139e-05,0.000221233,0.000396131,0.000635446,0.000962904,0.00141097,0.00202406,0.00286297,0.00401086,0.00558153,0.00773071,0.0106715,0.0146953,0.0202013,0.0277351,inf	113.571,113.571,242.238,134.688,183.81,278.608,470.958,677.233,672.311,615.775,502.931,310.817,195.479,206.88,206.88,206.88
0.00143741	-312481.76	0,9.34139e-05,0.000221233,0.000396131,0.000635446,0.000962904,0.00141097,0.00202406,0.00286297,0.00401086,0.00558153,0.00773071,0.0106715,0.0146953,0.0202013,0.0277351,inf	113.929,113.929,247.166,135.234,184.98,279.108,470.968,676.609,669.911,615.772,500.851,302.958,189.115,211.73,211.73,211.73
0.00148625	-312463.65	0,9.34139e-05,0.000221233,0.000396131,0.000635446,0.000962904,0.00141097,0.00202406,0.00286297,0.00401086,0.00558153,0.00773071,0.0106715,0.0146953,0.0202013,0.0277351,inf	114.462,114.462,251.357,135.856,186.305,279.795,471.072,675.769,667.252,615.621,498.949,295.895,183.611,217.313,217.313,217.313
0.0015341	-312446.69	0,9.34139e-05,0.000221233,0.000396131,0.000635446,0.000962904,0.00141097,0.00202406,0.00286297,0.00401086,0.00558153,0.00773071,0.0106715,0.0146953,0.0202013,0.0277351,inf	115.177,115.177,254.888,136.534,187.744,280.622,471.248,674.766,664.413,615.367,497.198,289.495,178.789,223.476,223.476,223.476
0.00158103	-312430.77	0,9.34139e-05,0.000221233,0.000396131,0.000635446,0.000962904,0.00141097,0.00202406,0.00286297,0.00401086,0.00558153,0.00773071,0.0106715,0.0146953,0.0202013,0.0277351,inf	116.061,116.061,257.839,137.253,189.267,281.555,471.478,673.641,661.454,615.041,495.573,283.647,174.513,230.107,230.107,230.107
0.00162707	-312415.79	0,9.34139e-05,0.000221233,0.000396131,0.000635446,0.000962904,0.00141097,0.00202406,0.00286297,0.00401086,0.00558153,0.00773071,0.0106715,0.0146953,0.0202013,0.0277351,inf	117.089,117.089,260.284,138.006,190.851,282.565,471.75,672.424,658.418,614.664,494.05,278.259,170.679,237.131,237.131,237.131
0.00167225	-312401.66	0,9.34139e-05,0.000221233,0.000396131,0.000635446,0.000962904,0.00141097,0.00202406,0.00286297,0.00401086,0.00558153,0.00773071,0.0106715,0.0146953,0.0202013,0.0277351,inf	118.235,118.235,262.294,138.786,192.478,283.634,472.052,671.139,655.339,614.254,492.61,273.262,167.206,244.494,244.494,244.494
0.0017166	-312388.32	0,9.34139e-05,0.000221233,0.000396131,0.000635446,0.000962904,0.00141097,0.00202406,0.00286297,0.00401086,0.00558153,0.00773071,0.0106715,0.0146953,0.0202013,0.0277351,inf	119.465,119.465,263.935,139.589,194.136,284.743,472.376,669.802,652.242,613.823,491.236,268.596,164.033,252.163,252.163,252.163
0.00176016	-312375.70	0,9.34139e-05,0.000221233,0.000396131,0.000635446,0.000962904,0.00141097,0.00202406,0.00286297,0.00401086,0.00558153,0.00773071,0.0106715,0.0146953,0.0202013,0.0277351,inf	120.755,120.755,265.267,140.41,195.812,285.881,472.715,668.43,649.148,613.382,489.915,264.214,161.112,260.118,260.118,260.118
