0.000696515	-8729993.85	0,2.66928e-06,6.13365e-06,1.06299e-05,1.64655e-05,2.40393e-05,3.38691e-05,4.66268e-05,6.31846e-05,8.46744e-05,0.000112565,0.000148764,0.000195745,0.00025672,0.000335857,0.000438567,0.00057187,0.00074488,0.000969423,0.00126085,0.00163908,0.00212998,0.0027671,0.00359399,0.00466719,0.00606005,0.0078678,0.010214,0.0132591,0.0172112,0.0223405,0.0289976,inf	173.866,173.866,271.741,297.082,287.207,259.928,234.588,221.837,216.062,213.895,215.127,218.423,222.386,227.878,237.064,250.943,271.46,301.863,346.146,405.444,470.254,510.149,506.087,479.951,456.105,442.825,437.357,430.551,430.551,420.708,420.708,420.708
0.000766349	-8721937.98	0,2.66928e-06,6.13365e-06,1.06299e-05,1.64655e-05,2.40393e-05,3.38691e-05,4.66268e-05,6.31846e-05,8.46744e-05,0.000112565,0.000148764,0.000195745,0.00025672,0.000335857,0.000438567,0.00057187,0.00074488,0.000969423,0.00126085,0.00163908,0.00212998,0.0027671,0.00359399,0.00466719,0.00606005,0.0078678,0.010214,0.0132591,0.0172112,0.0223405,0.0289976,inf	116.895,116.895,286.114,344.309,325.891,270.944,224.109,202.039,190.622,183.774,181.32,180.955,180.404,181.314,187.417,199.826,221.542,257.797,315.618,399.653,501.896,575.538,574.817,531.846,492.064,471.905,466.163,455.971,455.971,439.214,439.214,439.214
0.000832266	-8718491.33	0,2.66928e-06,6.13365e-06,1.06299e-05,1.64655e-05,2.40393e-05,3.38691e-05,4.66268e-05,6.31846e-05,8.46744e-05,0.000112565,0.000148764,0.000195745,0.00025672,0.000335857,0.000438567,0.00057187,0.00074488,0.000969423,0.00126085,0.00163908,0.00212998,0.0027671,0.00359399,0.00466719,0.00606005,0.0078678,0.010214,0.0132591,0.0172112,0.0223405,0.0289976,inf	76.2598,76.2598,293.992,394.551,373.8,294.682,232.113,205.958,192.393,183.308,178.744,175.474,170.521,166.554,168.617,177.553,197.079,233.71,296.324,392.011,515.853,613.598,617.271,563.18,512.952,490.175,487.685,476.809,476.809,456.338,456.338,456.338
0.000894444	-8716490.40	0,2.66928e-06,6.13365e-06,1.06299e-05,1.64655e-05,2.40393e-05,3.38691e-05,4.66268e-05,6.31846e-05,8.46744e-05,0.000112565,0.000148764,0.000195745,0.00025672,0.000335857,0.000438567,0.00057187,0.00074488,0.000969423,0.00126085,0.00163908,0.00212998,0.0027671,0.00359399,0.00466719,0.00606005,0.0078678,0.010214,0.0132591,0.0172112,0.0223405,0.0289976,inf	45.9122,45.9122,278.871,419.633,402.631,306.861,235.986,210.546,198.005,189.146,184.376,179.589,171.209,163.157,161.627,167.112,183.92,219.483,283.779,385.391,522.081,636.256,643.278,581.277,524.094,501.274,504.254,494.818,494.818,474.044,474.044,474.044
0.00095359	-8715072.22	0,2.66928e-06,6.13365e-06,1.06299e-05,1.64655e-05,2.40393e-05,3.38691e-05,4.66268e-05,6.31846e-05,8.46744e-05,0.000112565,0.000148764,0.000195745,0.00025672,0.000335857,0.000438567,0.00057187,0.00074488,0.000969423,0.00126085,0.00163908,0.00212998,0.0027671,0.00359399,0.00466719,0.00606005,0.0078678,0.010214,0.0132591,0.0172112,0.0223405,0.0289976,inf	26.4166,26.4166,251.671,423.885,412.754,306.33,232.734,210.936,201.45,194.637,191.262,186.299,175.59,164.394,159.912,162.333,176.561,210.75,275.511,380.287,524.856,650.077,659.043,590.986,529.058,507.678,517.489,511.255,511.255,494.131,494.131,494.131
0.00101032	-8713942.12	0,2.66928e-06,6.13365e-06,1.06299e-05,1.64655e-05,2.40393e-05,3.38691e-05,4.66268e-05,6.31846e-05,8.46744e-05,0.000112565,0.000148764,0.000195745,0.00025672,0.000335857,0.000438567,0.00057187,0.00074488,0.000969423,0.00126085,0.00163908,0.00212998,0.0027671,0.00359399,0.00466719,0.00606005,0.0078678,0.010214,0.0132591,0.0172112,0.0223405,0.0289976,inf	15.05,15.05,223.27,418.506,412.134,297.899,224.492,207.409,201.763,197.984,197.082,193.014,180.99,167.56,160.737,160.522,172.463,205.328,270.061,376.568,526.08,658.663,668.341,595.371,530.123,511.005,528.479,527.027,527.027,518.618,518.618,518.618
0.00106509	-8712981.47	0,2.66928e-06,6.13365e-06,1.06299e-05,1.64655e-05,2.40393e-05,3.38691e-05,4.66268e-05,6.31846e-05,8.46744e-05,0.000112565,0.000148764,0.000195745,0.00025672,0.000335857,0.000438567,0.00057187,0.00074488,0.000969423,0.00126085,0.00163908,0.00212998,0.0027671,0.00359399,0.00466719,0.00606005,0.0078678,0.010214,0.0132591,0.0172112,0.0223405,0.0289976,inf	8.67111,8.67111,198.677,411.52,407.558,286.083,213.904,201.438,199.56,199.113,201.239,198.794,186.298,171.432,162.812,160.356,170.314,202.009,266.529,373.981,526.624,664.045,673.48,596.358,528.736,512.304,537.951,542.815,542.815,550.243,550.243,550.243
0.00111823	-8712135.28	0,2.66928e-06,6.13365e-06,1.06299e-05,1.64655e-05,2.40393e-05,3.38691e-05,4.66268e-05,6.31846e-05,8.46744e-05,0.000112565,0.000148764,0.000195745,0.00025672,0.000335857,0.000438567,0.00057187,0.00074488,0.000969423,0.00126085,0.00163908,0.00212998,0.0027671,0.00359399,0.00466719,0.00606005,0.0078678,0.010214,0.0132591,0.0172112,0.0223405,0.0289976,inf	5.09706,5.09706,179.014,406.881,402.894,273.649,202.828,194.391,195.774,198.514,203.813,203.4,191.072,175.437,165.48,161.127,169.384,200.084,264.334,372.281,526.897,667.402,675.895,595.167,525.814,512.257,546.401,559.175,559.175,593.34,593.34,593.34
0.00116997	-8711374.60	0,2.66928e-06,6.13365e-06,1.06299e-05,1.64655e-05,2.40393e-05,3.38691e-05,4.66268e-05,6.31846e-05,8.46744e-05,0.000112565,0.000148764,0.000195745,0.00025672,0.000335857,0.000438567,0.00057187,0.00074488,0.000969423,0.00126085,0.00163908,0.00212998,0.0027671,0.00359399,0.00466719,0.00606005,0.0078678,0.010214,0.0132591,0.0172112,0.0223405,0.0289976,inf	3.06204,3.06204,163.683,405.771,399.718,261.914,192.302,187.201,191.207,196.762,205.114,206.888,195.177,179.302,168.389,162.434,169.238,199.108,263.09,371.265,527.089,669.444,676.498,592.581,521.944,511.313,554.172,576.605,576.605,655.81,655.81,655.81
0.00122047	-8710682.39	0,2.66928e-06,6.13365e-06,1.06299e-05,1.64655e-05,2.40393e-05,3.38691e-05,4.66268e-05,6.31846e-05,8.46744e-05,0.000112565,0.000148764,0.000195745,0.00025672,0.000335857,0.000438567,0.00057187,0.00074488,0.000969423,0.00126085,0.00163908,0.00212998,0.0027671,0.00359399,0.00466719,0.00606005,0.0078678,0.010214,0.0132591,0.0172112,0.0223405,0.0289976,inf	1.87043,1.87043,151.683,408.032,398.341,251.355,182.795,180.419,186.432,194.349,205.486,209.423,198.621,182.91,171.348,164.042,169.607,198.794,262.533,370.773,527.287,670.61,675.882,589.106,517.504,509.768,561.507,595.587,595.587,754.755,754.755,754.755
0.00126986	-8710047.54	0,2.66928e-06,6.13365e-06,1.06299e-05,1.64655e-05,2.40393e-05,3.38691e-05,4.66268e-05,6.31846e-05,8.46744e-05,0.000112565,0.000148764,0.000195745,0.00025672,0.000335857,0.000438567,0.00057187,0.00074488,0.000969423,0.00126085,0.00163908,0.00212998,0.0027671,0.00359399,0.00466719,0.00606005,0.0078678,0.010214,0.0132591,0.0172112,0.0223405,0.0289976,inf	1.16287,1.16287,142.038,413.012,398.527,242.016,174.437,174.32,181.813,191.649,205.234,211.196,201.468,186.219,174.25,165.805,170.317,198.947,262.478,370.681,527.527,671.18,674.44,585.077,512.738,507.822,568.586,616.639,616.639,938.495,938.495,938.495
0.00131822	-8709462.24	0,2.66928e-06,6.13365e-06,1.06299e-05,1.64655e-05,2.40393e-05,3.38691e-05,4.66268e-05,6.31846e-05,8.46744e-05,0.000112565,0.000148764,0.000195745,0.00025672,0.000335857,0.000438567,0.00057187,0.00074488,0.000969423,0.00126085,0.00163908,0.00212998,0.0027671,0.00359399,0.00466719,0.00606005,0.0078678,0.010214,0.0132591,0.0172112,0.0223405,0.0289976,inf	0.726478,0.726478,134.035,419.909,399.787,233.762,167.211,169.006,177.564,188.92,204.603,212.384,203.806,189.23,177.042,167.636,171.253,199.436,262.792,370.895,527.818,671.335,672.435,580.714,507.804,505.609,575.544,640.353,640.353,1432.57,1432.57,1432.57
0.00136564	-8708920.70	0,2.66928e-06,6.13365e-06,1.06299e-05,1.64655e-05,2.40393e-05,3.38691e-05,4.66268e-05,6.31846e-05,8.46744e-05,0.000112565,0.000148764,0.000195745,0.00025672,0.000335857,0.000438567,0.00057187,0.00074488,0.000969423,0.00126085,0.00163908,0.00212998,0.0027671,0.00359399,0.00466719,0.00606005,0.0078678,0.010214,0.0132591,0.0172112,0.0223405,0.0289976,inf	0.460237,0.460237,127.126,427.995,401.692,226.415,161.02,164.496,173.792,186.331,203.772,213.139,205.72,191.959,179.694,169.477,172.338,200.166,263.38,371.343,528.161,671.198,670.047,576.162,502.805,503.218,582.493,667.486,667.486,5072.3,5072.3,5072.3
0.00136564	-8708418.21	0,2.66928e-06,6.13365e-06,1.06299e-05,1.64655e-05,2.40393e-05,3.38691e-05,4.66268e-05,6.31846e-05,8.46744e-05,0.000112565,0.000148764,0.000195745,0.00025672,0.000335857,0.000438567,0.00057187,0.00074488,0.000969423,0.00126085,0.00163908,0.00212998,0.0027671,0.00359399,0.00466719,0.00606005,0.0078678,0.010214,0.0132591,0.0172112,0.0223405,0.0289976,inf	0.398543,0.398543,119.952,433.057,400.422,217.968,154.439,159.394,169.107,182.439,201.165,211.785,205.56,192.83,180.719,169.934,172.169,199.521,262.11,368.903,523.342,664.179,662.007,567.831,495.109,498.399,587.211,697.098,697.098,60797.3,60797.3,60797.3
