0.000602553	-289064.84	0,4.0544e-05,8.79702e-05,0.000143447,0.000208341,0.000284251,0.000373047,0.000476915,0.000598415,0.00074054,0.000906791,0.00110126,0.00132875,0.00159484,0.00190611,0.00227022,0.00269613,0.00319435,0.00377713,0.00445884,0.00525627,0.00618907,0.00728021,0.00855657,0.0100496,0.011796,0.013839,0.0162287,0.019024,0.0222939,0.0261188,0.0305931,inf	694.582,694.582,535.746,451.006,413.88,403.447,399.843,398.408,400.549,402.607,401.306,402.796,409.146,416.878,422.543,425.243,425.724,423.964,420.122,415.851,412.333,409.673,406.347,400.739,393.462,386.338,385.125,413.597,413.597,477.414,477.414,477.414
0.000607912	-289059.94	0,4.0544e-05,8.79702e-05,0.000143447,0.000208341,0.000284251,0.000373047,0.000476915,0.000598415,0.00074054,0.000906791,0.00110126,0.00132875,0.00159484,0.00190611,0.00227022,0.00269613,0.00319435,0.00377713,0.00445884,0.00525627,0.00618907,0.00728021,0.00855657,0.0100496,0.011796,0.013839,0.0162287,0.019024,0.0222939,0.0261188,0.0305931,inf	812.246,812.246,594.859,462.086,407.49,394.558,390.729,389.004,393.086,396.098,391.943,393.112,403.7,417.219,427.118,431.66,432.3,428.905,421.711,413.937,407.8,403.371,397.584,387.304,373.876,360.823,358.167,406.786,406.786,537.462,537.462,537.462
0.000612896	-289057.75	0,4.0544e-05,8.79702e-05,0.000143447,0.000208341,0.000284251,0.000373047,0.000476915,0.000598415,0.00074054,0.000906791,0.00110126,0.00132875,0.00159484,0.00190611,0.00227022,0.00269613,0.00319435,0.00377713,0.00445884,0.00525627,0.00618907,0.00728021,0.00855657,0.0100496,0.011796,0.013839,0.0162287,0.019024,0.0222939,0.0261188,0.0305931,inf	852.268,852.268,627.386,465.953,402.161,389.635,386.709,384.943,390.723,394.031,386.153,386.041,399.679,417.857,431.171,437.117,437.857,433.086,423.058,412.482,404.489,399.023,391.463,377.215,358.445,340.303,336.082,399.157,399.157,600.317,600.317,600.317
0.000617437	-289056.38	0,4.0544e-05,8.79702e-05,0.000143447,0.000208341,0.000284251,0.000373047,0.000476915,0.000598415,0.00074054,0.000906791,0.00110126,0.00132875,0.00159484,0.00190611,0.00227022,0.00269613,0.00319435,0.00377713,0.00445884,0.00525627,0.00618907,0.00728021,0.00855657,0.0100496,0.011796,0.013839,0.0162287,0.019024,0.0222939,0.0261188,0.0305931,inf	861.794,861.794,647.519,466.994,397.707,386.743,385.145,383.411,390.784,394.052,382.005,380.123,396.108,418.224,434.422,441.511,442.366,436.48,424.077,411.286,402.052,396.135,387.351,369.678,346.16,323.534,317.685,391.228,391.228,667.339,667.339,667.339
0.000621574	-289055.43	0,4.0544e-05,8.79702e-05,0.000143447,0.000208341,0.000284251,0.000373047,0.000476915,0.000598415,0.00074054,0.000906791,0.00110126,0.00132875,0.00159484,0.00190611,0.00227022,0.00269613,0.00319435,0.00377713,0.00445884,0.00525627,0.00618907,0.00728021,0.00855657,0.0100496,0.011796,0.013839,0.0162287,0.019024,0.0222939,0.0261188,0.0305931,inf	861.124,861.124,661.685,466.993,393.988,385.057,384.969,383.307,392.278,395.363,378.913,375.002,392.869,418.401,437.075,445.085,446.054,439.25,424.831,410.28,400.28,394.367,384.799,364.122,336.306,309.648,302.152,383.318,383.318,740.086,740.086,740.086
0.000625325	-289054.76	0,4.0544e-05,8.79702e-05,0.000143447,0.000208341,0.000284251,0.000373047,0.000476915,0.000598415,0.00074054,0.000906791,0.00110126,0.00132875,0.00159484,0.00190611,0.00227022,0.00269613,0.00319435,0.00377713,0.00445884,0.00525627,0.00618907,0.00728021,0.00855657,0.0100496,0.011796,0.013839,0.0162287,0.019024,0.0222939,0.0261188,0.0305931,inf	857.313,857.313,672.289,466.346,390.595,383.89,385.396,383.858,394.502,397.385,376.444,370.394,389.842,418.407,439.24,447.993,449.065,441.493,425.342,409.387,398.989,393.439,383.446,360.106,328.342,297.999,288.867,375.591,375.591,820.571,820.571,820.571
0.000628719	-289054.27	0,4.0544e-05,8.79702e-05,0.000143447,0.000208341,0.000284251,0.000373047,0.000476915,0.000598415,0.00074054,0.000906791,0.00110126,0.00132875,0.00159484,0.00190611,0.00227022,0.00269613,0.00319435,0.00377713,0.00445884,0.00525627,0.00618907,0.00728021,0.00855657,0.0100496,0.011796,0.013839,0.0162287,0.019024,0.0222939,0.0261188,0.0305931,inf	852.969,852.969,680.596,465.299,387.361,382.924,386.047,384.682,397.103,399.827,374.388,366.171,386.995,418.304,441.041,450.383,451.534,443.302,425.637,408.555,398.037,393.135,383.013,357.293,321.863,288.114,277.373,368.132,368.132,911.702,911.702,911.702
0.000631787	-289053.90	0,4.0544e-05,8.79702e-05,0.000143447,0.000208341,0.000284251,0.000373047,0.000476915,0.000598415,0.00074054,0.000906791,0.00110126,0.00132875,0.00159484,0.00190611,0.00227022,0.00269613,0.00319435,0.00377713,0.00445884,0.00525627,0.00618907,0.00728021,0.00855657,0.0100496,0.011796,0.013839,0.0162287,0.019024,0.0222939,0.0261188,0.0305931,inf	848.947,848.947,687.334,464.028,384.229,382.016,386.734,385.575,399.884,402.53,372.626,362.262,384.322,418.148,442.579,452.374,453.572,444.755,425.745,407.746,397.321,393.284,383.282,355.421,316.559,279.633,267.325,360.979,360.979,1018.1,1018.1,1018.1
0.000634559	-289053.61	0,4.0544e-05,8.79702e-05,0.000143447,0.000208341,0.000284251,0.000373047,0.000476915,0.000598415,0.00074054,0.000906791,0.00110126,0.00132875,0.00159484,0.00190611,0.00227022,0.00269613,0.00319435,0.00377713,0.00445884,0.00525627,0.00618907,0.00728021,0.00855657,0.0100496,0.011796,0.013839,0.0162287,0.019024,0.0222939,0.0261188,0.0305931,inf	845.465,845.465,692.963,462.664,381.192,381.11,387.368,386.43,402.734,405.398,371.085,358.621,381.818,417.983,443.934,454.06,455.267,445.917,425.691,406.935,396.76,393.759,384.083,354.288,312.195,272.283,258.458,354.142,354.142,1147.96,1147.96,1147.96
0.000637064	-289053.36	0,4.0544e-05,8.79702e-05,0.000143447,0.000208341,0.000284251,0.000373047,0.000476915,0.000598415,0.00074054,0.000906791,0.00110126,0.00132875,0.00159484,0.00190611,0.00227022,0.00269613,0.00319435,0.00377713,0.00445884,0.00525627,0.00618907,0.00728021,0.00855657,0.0100496,0.011796,0.013839,0.0162287,0.019024,0.0222939,0.0261188,0.0305931,inf	842.522,842.522,697.784,461.301,378.264,380.188,387.906,387.192,405.582,408.366,369.712,355.21,379.476,417.836,445.159,455.511,456.69,446.842,425.498,406.107,396.295,394.457,385.282,353.735,308.585,265.856,250.566,347.618,347.618,1318.07,1318.07,1318.07
0.000639327	-289053.16	0,4.0544e-05,8.79702e-05,0.000143447,0.000208341,0.000284251,0.000373047,0.000476915,0.000598415,0.00074054,0.000906791,0.00110126,0.00132875,0.00159484,0.00190611,0.00227022,0.00269613,0.00319435,0.00377713,0.00445884,0.00525627,0.00618907,0.00728021,0.00855657,0.0100496,0.011796,0.013839,0.0162287,0.019024,0.0222939,0.0261188,0.0305931,inf	840.035,840.035,701.992,460.004,375.46,379.251,388.333,387.828,408.386,411.391,368.471,352,377.284,417.724,446.296,456.782,457.897,447.574,425.187,405.253,395.885,395.304,386.775,353.637,305.585,260.185,243.487,341.389,341.389,1572.25,1572.25,1572.25
0.000641371	-289052.98	0,4.0544e-05,8.79702e-05,0.000143447,0.000208341,0.000284251,0.000373047,0.000476915,0.000598415,0.00074054,0.000906791,0.00110126,0.00132875,0.00159484,0.00190611,0.00227022,0.00269613,0.00319435,0.00377713,0.00445884,0.00525627,0.00618907,0.00728021,0.00855657,0.0100496,0.011796,0.013839,0.0162287,0.019024,0.0222939,0.0261188,0.0305931,inf	837.908,837.908,705.721,458.812,372.792,378.308,388.648,388.324,411.118,414.444,367.333,348.964,375.232,417.656,447.373,457.913,458.929,448.149,424.78,404.369,395.498,396.242,388.479,353.895,303.079,255.14,237.089,335.433,335.433,2094.59,2094.59,2094.59
0.000643219	-289052.81	0,4.0544e-05,8.79702e-05,0.000143447,0.000208341,0.000284251,0.000373047,0.000476915,0.000598415,0.00074054,0.000906791,0.00110126,0.00132875,0.00159484,0.00190611,0.00227022,0.00269613,0.00319435,0.00377713,0.00445884,0.00525627,0.00618907,0.00728021,0.00855657,0.0100496,0.011796,0.013839,0.0162287,0.019024,0.0222939,0.0261188,0.0305931,inf	836.075,836.075,709.066,457.758,370.271,377.371,388.856,388.677,413.76,417.504,366.274,346.079,373.307,417.636,448.409,458.933,459.823,448.598,424.293,403.456,395.115,397.225,390.329,354.424,300.97,250.609,231.255,329.708,329.708,4849.38,4849.38,4849.38
0.000643219	-289052.63	0,4.0544e-05,8.79702e-05,0.000143447,0.000208341,0.000284251,0.000373047,0.000476915,0.000598415,0.00074054,0.000906791,0.00110126,0.00132875,0.00159484,0.00190611,0.00227022,0.00269613,0.00319435,0.00377713,0.00445884,0.00525627,0.00618907,0.00728021,0.00855657,0.0100496,0.011796,0.013839,0.0162287,0.019024,0.0222939,0.0261188,0.0305931,inf	833.791,833.791,711.471,456.489,367.619,376.162,388.661,388.578,415.966,420.215,365.002,343.081,371.233,417.369,449.106,459.567,460.327,448.698,423.534,402.333,394.554,398.063,392.122,355.027,299.063,246.31,225.688,324.055,324.055,86847.9,86847.9,86847.9
0.000643219	-289052.65	0,4.0544e-05,8.79702e-05,0.000143447,0.000208341,0.000284251,0.000373047,0.000476915,0.000598415,0.00074054,0.000906791,0.00110126,0.00132875,0.00159484,0.00190611,0.00227022,0.00269613,0.00319435,0.00377713,0.00445884,0.00525627,0.00618907,0.00728021,0.00855657,0.0100496,0.011796,0.013839,0.0162287,0.019024,0.0222939,0.0261188,0.0305931,inf	832.689,832.689,712.54,455.66,365.323,375.133,388.495,388.431,418.145,420.215,363.871,340.297,369.384,417.3,449.956,460.299,460.909,448.875,422.86,401.304,394.081,399.006,392.991,355.027,297.441,242.439,220.572,318.616,318.616,86854.6,86854.6,86854.6
0.000643219	-289052.77	0,4.0544e-05,8.79702e-05,0.000143447,0.000208341,0.000284251,0.000373047,0.000476915,0.000598415,0.00074054,0.000906791,0.00110126,0.00132875,0.00159484,0.00190611,0.00227022,0.00269613,0.00319435,0.00377713,0.00445884,0.00525627,0.00618907,0.00728021,0.00855657,0.0100496,0.011796,0.013839,0.0162287,0.019024,0.0222939,0.0261188,0.0305931,inf	832.366,832.366,712.694,455.343,363.451,374.42,388.563,388.49,418.541,421.311,363.081,337.829,367.783,417.43,450.928,461.097,461.527,448.875,422.254,400.366,393.714,400.092,393.319,355.027,296.229,239.036,215.944,313.481,313.481,86860.8,86860.8,86860.8
0.000643219	-289052.90	0,4.0544e-05,8.79702e-05,0.000143447,0.000208341,0.000284251,0.000373047,0.000476915,0.000598415,0.00074054,0.000906791,0.00110126,0.00132875,0.00159484,0.00190611,0.00227022,0.00269613,0.00319435,0.00377713,0.00445884,0.00525627,0.00618907,0.00728021,0.00855657,0.0100496,0.011796,0.013839,0.0162287,0.019024,0.0222939,0.0261188,0.0305931,inf	832.447,832.447,712.695,455.343,361.92,373.97,388.837,388.734,419.231,421.311,362.508,335.562,366.342,417.663,451.944,461.897,461.984,448.875,421.694,399.508,393.439,401.29,393.331,355.027,295.387,236.051,211.749,308.631,308.631,86866.4,86866.4,86866.4
0.000643219	-289053.04	0,4.0544e-05,8.79702e-05,0.000143447,0.000208341,0.000284251,0.000373047,0.000476915,0.000598415,0.00074054,0.000906791,0.00110126,0.00132875,0.00159484,0.00190611,0.00227022,0.00269613,0.00319435,0.00377713,0.00445884,0.00525627,0.00618907,0.00728021,0.00855657,0.0100496,0.011796,0.013839,0.0162287,0.019024,0.0222939,0.0261188,0.0305931,inf	832.449,832.449,712.804,455.343,360.599,373.683,389.247,389.129,419.231,421.523,362.163,333.49,365.049,417.979,452.978,461.93,462.578,448.875,421.17,398.707,393.24,402.462,393.331,355.027,294.873,233.434,207.936,304.046,304.046,86871.6,86871.6,86871.6
0.000643219	-289053.17	0,4.0544e-05,8.79702e-05,0.000143447,0.000208341,0.000284251,0.000373047,0.000476915,0.000598415,0.00074054,0.000906791,0.00110126,0.00132875,0.00159484,0.00190611,0.00227022,0.00269613,0.00319435,0.00377713,0.00445884,0.00525627,0.00618907,0.00728021,0.00855657,0.0100496,0.011796,0.013839,0.0162287,0.019024,0.0222939,0.0261188,0.0305931,inf	832.599,832.599,712.809,455.343,359.435,373.516,389.767,389.488,419.269,421.523,362.028,331.6,363.921,418.396,454.069,462.466,462.579,448.875,420.688,397.965,393.107,403.419,393.331,355.027,294.642,231.137,204.461,299.707,299.707,86876.4,86876.4,86876.4
0.000643219	-289053.30	0,4.0544e-05,8.79702e-05,0.000143447,0.000208341,0.000284251,0.000373047,0.000476915,0.000598415,0.00074054,0.000906791,0.00110126,0.00132875,0.00159484,0.00190611,0.00227022,0.00269613,0.00319435,0.00377713,0.00445884,0.00525627,0.00618907,0.00728021,0.00855657,0.0100496,0.011796,0.013839,0.0162287,0.019024,0.0222939,0.0261188,0.0305931,inf	832.764,832.764,712.81,455.343,358.382,373.422,390.355,389.684,419.305,421.523,362.028,329.84,362.87,418.838,455.166,462.803,462.579,448.875,420.247,397.279,393.038,404.255,393.331,355.027,294.642,229.125,201.286,295.598,295.598,86880.8,86880.8,86880.8
