0.000619344	-1782538.89	0,9.71587e-06,2.17335e-05,3.6598e-05,5.4984e-05,7.77257e-05,0.000105855,0.000140648,0.000183684,0.000236914,0.000302756,0.000384195,0.000484927,0.000609523,0.000763636,0.000954258,0.00119004,0.00148168,0.00184241,0.00228859,0.00284048,0.00352311,0.00436745,0.00541182,0.00670361,0.00830142,0.0102778,0.0127223,0.0157459,0.0194859,0.0241118,0.0298337,inf	918.563,918.563,753.229,547.707,422.5,401.423,393.853,391.949,389.94,389.677,392.204,392.091,389.917,390.696,393.829,398.092,404.002,409.775,413.419,414.404,413.847,411.595,407.722,405.593,406.403,403.608,395.098,387.261,387.261,503.038,503.038,503.038
0.000623006	-1782524.60	0,9.71587e-06,2.17335e-05,3.6598e-05,5.4984e-05,7.77257e-05,0.000105855,0.000140648,0.000183684,0.000236914,0.000302756,0.000384195,0.000484927,0.000609523,0.000763636,0.000954258,0.00119004,0.00148168,0.00184241,0.00228859,0.00284048,0.00352311,0.00436745,0.00541182,0.00670361,0.00830142,0.0102778,0.0127223,0.0157459,0.0194859,0.0241118,0.0298337,inf	1157.63,1157.63,943.453,590.503,405.535,391.9,386.239,386.506,384.15,384.164,389.077,388.18,382.749,382.73,386.908,393.091,402.598,412.272,418.355,419.82,418.808,414.802,407.761,404.254,406.522,401.525,385.502,370.71,370.71,626.897,626.897,626.897
0.000626197	-1782518.04	0,9.71587e-06,2.17335e-05,3.6598e-05,5.4984e-05,7.77257e-05,0.000105855,0.000140648,0.000183684,0.000236914,0.000302756,0.000384195,0.000484927,0.000609523,0.000763636,0.000954258,0.00119004,0.00148168,0.00184241,0.00228859,0.00284048,0.00352311,0.00436745,0.00541182,0.00670361,0.00830142,0.0102778,0.0127223,0.0157459,0.0194859,0.0241118,0.0298337,inf	1226.09,1226.09,1052.3,598.389,383.34,384.303,382.3,385.249,382.667,383.004,390.335,388.525,379.535,378.181,382.527,389.516,401.413,413.953,421.796,423.488,422.158,416.791,407.104,402.74,406.911,400.145,377.377,356.288,356.288,802.111,802.111,802.111
0.000628999	-1782513.69	0,9.71587e-06,2.17335e-05,3.6598e-05,5.4984e-05,7.77257e-05,0.000105855,0.000140648,0.000183684,0.000236914,0.000302756,0.000384195,0.000484927,0.000609523,0.000763636,0.000954258,0.00119004,0.00148168,0.00184241,0.00228859,0.00284048,0.00352311,0.00436745,0.00541182,0.00670361,0.00830142,0.0102778,0.0127223,0.0157459,0.0194859,0.0241118,0.0298337,inf	1227.14,1227.14,1128.24,595.015,362.29,379.052,380.425,385.68,382.65,383.293,393.188,390.592,378.096,375.317,379.48,386.715,400.314,415.084,424.259,426.029,424.498,418.061,406.104,401.238,407.618,399.408,370.488,343.604,343.604,1101.61,1101.61,1101.61
0.000631479	-1782510.49	0,9.71587e-06,2.17335e-05,3.6598e-05,5.4984e-05,7.77257e-05,0.000105855,0.000140648,0.000183684,0.000236914,0.000302756,0.000384195,0.000484927,0.000609523,0.000763636,0.000954258,0.00119004,0.00148168,0.00184241,0.00228859,0.00284048,0.00352311,0.00436745,0.00541182,0.00670361,0.00830142,0.0102778,0.0127223,0.0157459,0.0194859,0.0241118,0.0298337,inf	1204.48,1204.48,1190.54,587.828,343.393,375.602,379.61,386.624,382.88,383.811,396.441,393.285,377.482,373.374,377.238,384.423,399.3,415.88,426.092,427.838,426.195,418.901,404.948,399.821,408.622,399.213,364.599,332.309,332.309,1936.65,1936.65,1936.65
0.000633687	-1782508.09	0,9.71587e-06,2.17335e-05,3.6598e-05,5.4984e-05,7.77257e-05,0.000105855,0.000140648,0.000183684,0.000236914,0.000302756,0.000384195,0.000484927,0.000609523,0.000763636,0.000954258,0.00119004,0.00148168,0.00184241,0.00228859,0.00284048,0.00352311,0.00436745,0.00541182,0.00670361,0.00830142,0.0102778,0.0127223,0.0157459,0.0194859,0.0241118,0.0298337,inf	1174.21,1174.21,1246.22,579.192,326.552,373.509,379.363,387.61,382.904,384.096,399.611,396.13,377.261,371.983,375.537,382.509,398.383,416.476,427.511,429.16,427.472,419.481,403.73,398.502,409.866,399.433,359.463,322.032,322.032,11981,11981,11981
0.000633687	-1782506.28	0,9.71587e-06,2.17335e-05,3.6598e-05,5.4984e-05,7.77257e-05,0.000105855,0.000140648,0.000183684,0.000236914,0.000302756,0.000384195,0.000484927,0.000609523,0.000763636,0.000954258,0.00119004,0.00148168,0.00184241,0.00228859,0.00284048,0.00352311,0.00436745,0.00541182,0.00670361,0.00830142,0.0102778,0.0127223,0.0157459,0.0194859,0.0241118,0.0298337,inf	1141.31,1141.31,1296.69,569.394,311.216,372.168,379.145,388.165,382.279,383.683,402.164,398.57,376.889,370.619,373.893,380.554,397.219,416.595,428.293,429.812,428.16,419.627,402.267,397.072,411.1,399.692,354.525,312.385,312.385,69571.3,69571.3,69571.3
0.000633687	-1782506.05	0,9.71587e-06,2.17335e-05,3.6598e-05,5.4984e-05,7.77257e-05,0.000105855,0.000140648,0.000183684,0.000236914,0.000302756,0.000384195,0.000484927,0.000609523,0.000763636,0.000954258,0.00119004,0.00148168,0.00184241,0.00228859,0.00284048,0.00352311,0.00436745,0.00541182,0.00670361,0.00830142,0.0102778,0.0127223,0.0157459,0.0194859,0.0241118,0.0298337,inf	1110.19,1110.19,1335.46,560.098,297.702,372.072,379.537,388.881,381.582,383.09,404.663,401.128,376.821,369.707,372.746,379.038,396.357,416.857,429.094,430.43,428.505,419.627,400.961,395.872,412.667,399.9,350.427,303.776,303.776,69577.9,69577.9,69577.9
0.000633687	-1782505.91	0,9.71587e-06,2.17335e-05,3.6598e-05,5.4984e-05,7.77257e-05,0.000105855,0.000140648,0.000183684,0.000236914,0.000302756,0.000384195,0.000484927,0.000609523,0.000763636,0.000954258,0.00119004,0.00148168,0.00184241,0.00228859,0.00284048,0.00352311,0.00436745,0.00541182,0.00670361,0.00830142,0.0102778,0.0127223,0.0157459,0.0194859,0.0241118,0.0298337,inf	1083.63,1083.63,1368.71,551.8,285.703,372.89,380.24,389.61,380.726,382.243,406.916,403.598,376.835,369.021,371.884,377.777,395.658,417.173,429.87,430.476,428.944,419.627,399.807,394.866,414.234,399.9,347.091,296.113,296.113,69583.7,69583.7,69583.7
0.000633687	-1782505.87	0,9.71587e-06,2.17335e-05,3.6598e-05,5.4984e-05,7.77257e-05,0.000105855,0.000140648,0.000183684,0.000236914,0.000302756,0.000384195,0.000484927,0.000609523,0.000763636,0.000954258,0.00119004,0.00148168,0.00184241,0.00228859,0.00284048,0.00352311,0.00436745,0.00541182,0.00670361,0.00830142,0.0102778,0.0127223,0.0157459,0.0194859,0.0241118,0.0298337,inf	1060.92,1060.92,1397,544.317,274.895,374.378,381.159,390.311,379.712,381.152,408.909,405.926,376.835,368.476,371.224,376.707,395.066,417.522,430.648,430.744,428.976,419.627,398.787,394.028,415.579,399.9,344.413,289.26,289.26,69588.8,69588.8,69588.8
0.000633687	-1782505.92	0,9.71587e-06,2.17335e-05,3.6598e-05,5.4984e-05,7.77257e-05,0.000105855,0.000140648,0.000183684,0.000236914,0.000302756,0.000384195,0.000484927,0.000609523,0.000763636,0.000954258,0.00119004,0.00148168,0.00184241,0.00228859,0.00284048,0.00352311,0.00436745,0.00541182,0.00670361,0.00830142,0.0102778,0.0127223,0.0157459,0.0194859,0.0241118,0.0298337,inf	1041.42,1041.42,1421.52,537.601,265.057,376.397,382.223,390.985,378.582,379.863,410.671,408.111,376.839,368.021,370.703,375.767,394.572,417.906,431.405,430.861,428.976,419.627,397.891,393.341,416.72,399.9,342.307,283.105,283.105,69593.3,69593.3,69593.3
0.000633687	-1782506.02	0,9.71587e-06,2.17335e-05,3.6598e-05,5.4984e-05,7.77257e-05,0.000105855,0.000140648,0.000183684,0.000236914,0.000302756,0.000384195,0.000484927,0.000609523,0.000763636,0.000954258,0.00119004,0.00148168,0.00184241,0.00228859,0.00284048,0.00352311,0.00436745,0.00541182,0.00670361,0.00830142,0.0102778,0.0127223,0.0157459,0.0194859,0.0241118,0.0298337,inf	1024.86,1024.86,1442.22,531.55,256.018,378.818,383.382,391.645,377.372,378.421,412.231,410.161,376.812,367.625,370.285,374.923,394.13,418.276,432.138,430.892,428.976,419.627,397.105,392.785,417.683,399.9,340.699,277.555,277.555,69597.3,69597.3,69597.3
0.000633687	-1782506.16	0,9.71587e-06,2.17335e-05,3.6598e-05,5.4984e-05,7.77257e-05,0.000105855,0.000140648,0.000183684,0.000236914,0.000302756,0.000384195,0.000484927,0.000609523,0.000763636,0.000954258,0.00119004,0.00148168,0.00184241,0.00228859,0.00284048,0.00352311,0.00436745,0.00541182,0.00670361,0.00830142,0.0102778,0.0127223,0.0157459,0.0194859,0.0241118,0.0298337,inf	1010.69,1010.69,1460.22,526.14,247.649,381.547,384.6,392.287,376.128,376.869,413.63,412.092,376.753,367.278,369.95,374.155,393.727,418.658,432.764,430.908,428.976,419.627,396.414,392.341,418.494,399.9,339.523,272.531,272.531,69600.8,69600.8,69600.8
0.000633687	-1782506.32	0,9.71587e-06,2.17335e-05,3.6598e-05,5.4984e-05,7.77257e-05,0.000105855,0.000140648,0.000183684,0.000236914,0.000302756,0.000384195,0.000484927,0.000609523,0.000763636,0.000954258,0.00119004,0.00148168,0.00184241,0.00228859,0.00284048,0.00352311,0.00436745,0.00541182,0.00670361,0.00830142,0.0102778,0.0127223,0.0157459,0.0194859,0.0241118,0.0298337,inf	998.416,998.416,1475.54,521.313,239.845,384.523,385.831,392.915,374.86,375.238,414.894,413.925,376.666,366.969,369.687,373.454,393.357,419.036,433.315,430.908,428.976,419.627,395.802,391.991,419.163,399.9,338.732,267.966,267.966,69604,69604,69604
0.000633687	-1782506.48	0,9.71587e-06,2.17335e-05,3.6598e-05,5.4984e-05,7.77257e-05,0.000105855,0.000140648,0.000183684,0.000236914,0.000302756,0.000384195,0.000484927,0.000609523,0.000763636,0.000954258,0.00119004,0.00148168,0.00184241,0.00228859,0.00284048,0.00352311,0.00436745,0.00541182,0.00670361,0.00830142,0.0102778,0.0127223,0.0157459,0.0194859,0.0241118,0.0298337,inf	987.976,987.976,1488.54,516.958,232.491,384.599,387.014,393.501,373.572,373.544,416.045,415.659,376.547,366.689,369.48,372.805,393.008,419.401,433.345,431.414,429.003,419.627,395.259,391.72,419.737,399.9,338.257,263.803,263.803,69606.8,69606.8,69606.8
0.000633687	-1782506.65	0,9.71587e-06,2.17335e-05,3.6598e-05,5.4984e-05,7.77257e-05,0.000105855,0.000140648,0.000183684,0.000236914,0.000302756,0.000384195,0.000484927,0.000609523,0.000763636,0.000954258,0.00119004,0.00148168,0.00184241,0.00228859,0.00284048,0.00352311,0.00436745,0.00541182,0.00670361,0.00830142,0.0102778,0.0127223,0.0157459,0.0194859,0.0241118,0.0298337,inf	979.313,979.313,1499.61,513.578,225.862,388.31,388.471,394.241,372.353,371.882,417.11,415.751,376.388,366.431,369.329,372.213,392.695,419.759,433.99,431.425,429.003,419.627,394.761,391.52,419.737,400.293,338.055,259.993,259.993,69609.4,69609.4,69609.4
0.000633687	-1782506.84	0,9.71587e-06,2.17335e-05,3.6598e-05,5.4984e-05,7.77257e-05,0.000105855,0.000140648,0.000183684,0.000236914,0.000302756,0.000384195,0.000484927,0.000609523,0.000763636,0.000954258,0.00119004,0.00148168,0.00184241,0.00228859,0.00284048,0.00352311,0.00436745,0.00541182,0.00670361,0.00830142,0.0102778,0.0127223,0.0157459,0.0194859,0.0241118,0.0298337,inf	971.888,971.888,1508.75,510.537,219.493,391.997,389.873,395.036,371.273,370.35,418.314,416.492,376.347,366.285,369.268,371.678,392.392,420.098,434.276,431.432,429.003,419.627,394.321,391.387,419.738,400.612,338.055,256.496,256.496,69611.6,69611.6,69611.6
0.000633687	-1782507.01	0,9.71587e-06,2.17335e-05,3.6598e-05,5.4984e-05,7.77257e-05,0.000105855,0.000140648,0.000183684,0.000236914,0.000302756,0.000384195,0.000484927,0.000609523,0.000763636,0.000954258,0.00119004,0.00148168,0.00184241,0.00228859,0.00284048,0.00352311,0.00436745,0.00541182,0.00670361,0.00830142,0.0102778,0.0127223,0.0157459,0.0194859,0.0241118,0.0298337,inf	965.57,965.57,1516.7,507.776,213.352,392.016,391.057,395.753,370.162,368.771,419.466,418.251,376.326,366.182,369.261,371.189,392.114,420.441,434.506,431.432,429.003,419.627,393.931,391.303,420.06,400.612,338.055,253.282,253.282,69613.7,69613.7,69613.7
0.000633687	-1782507.16	0,9.71587e-06,2.17335e-05,3.6598e-05,5.4984e-05,7.77257e-05,0.000105855,0.000140648,0.000183684,0.000236914,0.000302756,0.000384195,0.000484927,0.000609523,0.000763636,0.000954258,0.00119004,0.00148168,0.00184241,0.00228859,0.00284048,0.00352311,0.00436745,0.00541182,0.00670361,0.00830142,0.0102778,0.0127223,0.0157459,0.0194859,0.0241118,0.0298337,inf	960.442,960.442,1523.27,505.834,207.74,396.048,392.422,395.79,369.067,367.147,420.479,419.08,376.195,366.029,369.244,370.706,391.827,420.772,434.506,431.652,429.003,419.627,393.578,391.261,420.325,400.612,338.055,250.322,250.322,69615.7,69615.7,69615.7
0.000633687	-1782507.31	0,9.71587e-06,2.17335e-05,3.6598e-05,5.4984e-05,7.77257e-05,0.000105855,0.000140648,0.000183684,0.000236914,0.000302756,0.000384195,0.000484927,0.000609523,0.000763636,0.000954258,0.00119004,0.00148168,0.00184241,0.00228859,0.00284048,0.00352311,0.00436745,0.00541182,0.00670361,0.00830142,0.0102778,0.0127223,0.0157459,0.0194859,0.0241118,0.0298337,inf	956.012,956.012,1528.78,504.076,202.282,399.943,393.65,395.887,368.017,365.574,421.481,419.094,376.063,365.905,369.271,370.266,391.567,421.116,434.87,431.652,429.003,419.627,393.252,391.253,420.545,400.612,338.055,247.593,247.593,69617.5,69617.5,69617.5
