0.00061857	-8398109.14	0,6.08256e-06,1.63284e-05,3.3587e-05,6.26583e-05,0.000111628,0.000194114,0.00033306,0.000567107,0.000961348,0.00162543,0.00274405,0.00462831,0.00780227,0.0131487,0.0221544,inf	371.466,371.466,466.889,468.321,419.27,403.738,384.266,383.64,386.838,391.311,398.369,394.723,381.722,320.559,320.559,320.559
0.000619981	-8398072.76	0,6.08256e-06,1.63284e-05,3.3587e-05,6.26583e-05,0.000111628,0.000194114,0.00033306,0.000567107,0.000961348,0.00162543,0.00274405,0.00462831,0.00780227,0.0131487,0.0221544,inf	323.818,323.818,500.018,513.741,431.63,411.855,378.891,378.359,382.81,388.746,400.826,395.21,375.644,277.966,277.966,277.966
0.000622769	-8398249.11	0,6.08256e-06,1.63284e-05,3.3587e-05,6.26583e-05,0.000111628,0.000194114,0.00033306,0.000567107,0.000961348,0.00162543,0.00274405,0.00462831,0.00780227,0.0131487,0.0221544,inf	279.486,279.486,513.511,541.346,436.546,418.945,376.273,376.63,381.578,387.52,403.549,397.524,376.401,252.451,252.451,252.451
0.000625716	-8398425.52	0,6.08256e-06,1.63284e-05,3.3587e-05,6.26583e-05,0.000111628,0.000194114,0.00033306,0.000567107,0.000961348,0.00162543,0.00274405,0.00462831,0.00780227,0.0131487,0.0221544,inf	244.6,244.6,518.279,558.047,436.581,424.464,374.369,376.159,381.284,386.404,405.378,399.603,380.403,235.826,235.826,235.826
0.000628423	-8398567.60	0,6.08256e-06,1.63284e-05,3.3587e-05,6.26583e-05,0.000111628,0.000194114,0.00033306,0.000567107,0.000961348,0.00162543,0.00274405,0.00462831,0.00780227,0.0131487,0.0221544,inf	218.675,218.675,520.089,568.861,434.066,428.964,372.783,376.332,381.522,385.369,406.391,400.814,385.838,224.36,224.36,224.36
0.000630778	-8398675.86	0,6.08256e-06,1.63284e-05,3.3587e-05,6.26583e-05,0.000111628,0.000194114,0.00033306,0.000567107,0.000961348,0.00162543,0.00274405,0.00462831,0.00780227,0.0131487,0.0221544,inf	199.511,199.511,521.099,576.373,430.228,432.746,371.281,376.775,382.059,384.482,406.896,401.12,391.706,216.098,216.098,216.098
0.000632779	-8398757.86	0,6.08256e-06,1.63284e-05,3.3587e-05,6.26583e-05,0.000111628,0.000194114,0.00033306,0.000567107,0.000961348,0.00162543,0.00274405,0.00462831,0.00780227,0.0131487,0.0221544,inf	185.21,185.21,522.078,582.01,425.791,436.048,369.775,377.289,382.744,383.776,407.163,400.68,397.479,209.94,209.94,209.94
0.000634465	-8398820.62	0,6.08256e-06,1.63284e-05,3.3587e-05,6.26583e-05,0.000111628,0.000194114,0.00033306,0.000567107,0.000961348,0.00162543,0.00274405,0.00462831,0.00780227,0.0131487,0.0221544,inf	174.39,174.39,523.197,586.545,421.158,439.04,368.25,377.771,383.472,383.239,407.367,399.694,402.897,205.225,205.225,205.225
0.000635884	-8398869.42	0,6.08256e-06,1.63284e-05,3.3587e-05,6.26583e-05,0.000111628,0.000194114,0.00033306,0.000567107,0.000961348,0.00162543,0.00274405,0.00462831,0.00780227,0.0131487,0.0221544,inf	165.993,165.993,524.41,590.395,416.55,441.844,366.719,378.18,384.176,382.836,407.607,398.34,407.847,201.539,201.539,201.539
0.000637078	-8398907.99	0,6.08256e-06,1.63284e-05,3.3587e-05,6.26583e-05,0.000111628,0.000194114,0.00033306,0.000567107,0.000961348,0.00162543,0.00274405,0.00462831,0.00780227,0.0131487,0.0221544,inf	159.427,159.427,525.624,593.799,412.079,444.535,365.208,378.507,384.816,382.527,407.929,396.763,412.296,198.607,198.607,198.607
0.000638086	-8398938.94	0,6.08256e-06,1.63284e-05,3.3587e-05,6.26583e-05,0.000111628,0.000194114,0.00033306,0.000567107,0.000961348,0.00162543,0.00274405,0.00462831,0.00780227,0.0131487,0.0221544,inf	154.178,154.178,526.756,596.888,407.792,447.16,363.739,378.761,385.376,382.275,408.346,395.07,416.255,196.242,196.242,196.242
0.000638942	-8398964.09	0,6.08256e-06,1.63284e-05,3.3587e-05,6.26583e-05,0.000111628,0.000194114,0.00033306,0.000567107,0.000961348,0.00162543,0.00274405,0.00462831,0.00780227,0.0131487,0.0221544,inf	150.003,150.003,527.755,599.734,403.693,449.736,362.328,378.961,385.851,382.052,408.856,393.337,419.756,194.313,194.313,194.313
0.00063967	-8398984.76	0,6.08256e-06,1.63284e-05,3.3587e-05,6.26583e-05,0.000111628,0.000194114,0.00033306,0.000567107,0.000961348,0.00162543,0.00274405,0.00462831,0.00780227,0.0131487,0.0221544,inf	146.586,146.586,528.558,602.385,399.785,452.27,360.986,379.123,386.249,381.837,409.445,391.618,422.841,192.724,192.724,192.724
0.000640292	-8399001.89	0,6.08256e-06,1.63284e-05,3.3587e-05,6.26583e-05,0.000111628,0.000194114,0.00033306,0.000567107,0.000961348,0.00162543,0.00274405,0.00462831,0.00780227,0.0131487,0.0221544,inf	143.785,143.785,529.2,604.878,396.046,454.76,359.715,379.263,386.577,381.615,410.097,389.948,425.554,191.405,191.405,191.405
0.000640826	-8399016.21	0,6.08256e-06,1.63284e-05,3.3587e-05,6.26583e-05,0.000111628,0.000194114,0.00033306,0.000567107,0.000961348,0.00162543,0.00274405,0.00462831,0.00780227,0.0131487,0.0221544,inf	141.505,141.505,529.644,607.251,392.471,457.199,358.515,379.395,386.847,381.378,410.795,388.349,427.939,190.303,190.303,190.303
0.000641286	-8399028.24	0,6.08256e-06,1.63284e-05,3.3587e-05,6.26583e-05,0.000111628,0.000194114,0.00033306,0.000567107,0.000961348,0.00162543,0.00274405,0.00462831,0.00780227,0.0131487,0.0221544,inf	139.6,139.6,529.92,609.515,389.033,459.582,357.382,379.525,387.071,381.12,411.524,386.834,430.034,189.375,189.375,189.375
0.000641684	-8399038.41	0,6.08256e-06,1.63284e-05,3.3587e-05,6.26583e-05,0.000111628,0.000194114,0.00033306,0.000567107,0.000961348,0.00162543,0.00274405,0.00462831,0.00780227,0.0131487,0.0221544,inf	138.046,138.046,530.056,611.693,385.73,461.901,356.311,379.66,387.259,380.841,412.271,385.411,431.877,188.592,188.592,188.592
0.000642029	-8399047.04	0,6.08256e-06,1.63284e-05,3.3587e-05,6.26583e-05,0.000111628,0.000194114,0.00033306,0.000567107,0.000961348,0.00162543,0.00274405,0.00462831,0.00780227,0.0131487,0.0221544,inf	136.766,136.766,530.057,613.81,382.546,464.145,355.293,379.803,387.421,380.542,413.022,384.082,433.498,187.926,187.926,187.926
0.000642329	-8399054.41	0,6.08256e-06,1.63284e-05,3.3587e-05,6.26583e-05,0.000111628,0.000194114,0.00033306,0.000567107,0.000961348,0.00162543,0.00274405,0.00462831,0.00780227,0.0131487,0.0221544,inf	135.723,135.723,529.928,615.853,379.475,466.32,354.326,379.957,387.563,380.224,413.77,382.845,434.927,187.357,187.357,187.357
0.00064259	-8399060.71	0,6.08256e-06,1.63284e-05,3.3587e-05,6.26583e-05,0.000111628,0.000194114,0.00033306,0.000567107,0.000961348,0.00162543,0.00274405,0.00462831,0.00780227,0.0131487,0.0221544,inf	134.883,134.883,529.7,617.848,376.515,468.419,353.402,380.12,387.694,379.891,414.505,381.699,436.188,186.871,186.871,186.871
