0.000656091	-292109.81	0,8.87795e-05,0.000210258,0.000376479,0.000603921,0.000915133,0.00134097,0.00192365,0.00272094,0.00381188,0.00530463,0.00734718,0.010142,0.0139663,0.0191991,0.0263591,inf	372.125,372.125,377.57,374.762,383.956,391.93,402.197,409.06,403.228,397.48,405.364,421.261,433.626,471.476,471.476,471.476
0.000707273	-292051.63	0,8.87795e-05,0.000210258,0.000376479,0.000603921,0.000915133,0.00134097,0.00192365,0.00272094,0.00381188,0.00530463,0.00734718,0.010142,0.0139663,0.0191991,0.0263591,inf	365.065,365.065,373.061,363.803,376.942,386.855,401.618,411.245,398.476,386.889,398.544,426.791,450.24,532.513,532.513,532.513
0.000754451	-292011.57	0,8.87795e-05,0.000210258,0.000376479,0.000603921,0.000915133,0.00134097,0.00192365,0.00272094,0.00381188,0.00530463,0.00734718,0.010142,0.0139663,0.0191991,0.0263591,inf	363.159,363.159,375.269,359.489,375.364,385.504,403.228,414.879,395.913,379.313,392.751,431.062,464.874,601.956,601.956,601.956
0.000797601	-291981.32	0,8.87795e-05,0.000210258,0.000376479,0.000603921,0.000915133,0.00134097,0.00192365,0.00272094,0.00381188,0.00530463,0.00734718,0.010142,0.0139663,0.0191991,0.0263591,inf	361.45,361.45,379.022,357.143,375.276,384.884,404.921,418.48,394.237,373.443,387.514,434.205,477.952,686.804,686.804,686.804
0.000837033	-291957.98	0,8.87795e-05,0.000210258,0.000376479,0.000603921,0.000915133,0.00134097,0.00192365,0.00272094,0.00381188,0.00530463,0.00734718,0.010142,0.0139663,0.0191991,0.0263591,inf	359.428,359.428,383.17,355.601,375.699,384.319,406.278,421.732,393.016,368.692,382.661,436.411,489.875,801.239,801.239,801.239
0.000873103	-291939.81	0,8.87795e-05,0.000210258,0.000376479,0.000603921,0.000915133,0.00134097,0.00192365,0.00272094,0.00381188,0.00530463,0.00734718,0.010142,0.0139663,0.0191991,0.0263591,inf	357.243,357.243,387.407,354.499,376.349,383.676,407.268,424.609,392.075,364.741,378.114,437.843,500.99,982.651,982.651,982.651
0.000906143	-291925.62	0,8.87795e-05,0.000210258,0.000376479,0.000603921,0.000915133,0.00134097,0.00192365,0.00272094,0.00381188,0.00530463,0.00734718,0.010142,0.0139663,0.0191991,0.0263591,inf	355.049,355.049,391.614,353.675,377.124,382.943,407.947,427.155,391.331,361.392,373.817,438.619,511.621,1390.97,1390.97,1390.97
0.000936456	-291914.70	0,8.87795e-05,0.000210258,0.000376479,0.000603921,0.000915133,0.00134097,0.00192365,0.00272094,0.00381188,0.00530463,0.00734718,0.010142,0.0139663,0.0191991,0.0263591,inf	352.943,352.943,395.724,353.041,377.979,382.141,408.376,429.423,390.733,358.5,369.711,438.786,522.144,3747.22,3747.22,3747.22
0.000936456	-291906.73	0,8.87795e-05,0.000210258,0.000376479,0.000603921,0.000915133,0.00134097,0.00192365,0.00272094,0.00381188,0.00530463,0.00734718,0.010142,0.0139663,0.0191991,0.0263591,inf	347.799,347.799,396.045,349.38,375.384,377.794,404.853,427.511,386.992,353.591,363.734,436.371,531.589,58413,58413,58413
0.000936456	-291908.20	0,8.87795e-05,0.000210258,0.000376479,0.000603921,0.000915133,0.00134097,0.00192365,0.00272094,0.00381188,0.00530463,0.00734718,0.010142,0.0139663,0.0191991,0.0263591,inf	345.488,345.488,398.358,348.047,375.348,375.876,403.684,427.809,385.276,350.19,358.927,434.534,537.727,58413,58413,58413
0.000936456	-291908.63	0,8.87795e-05,0.000210258,0.000376479,0.000603921,0.000915133,0.00134097,0.00192365,0.00272094,0.00381188,0.00530463,0.00734718,0.010142,0.0139663,0.0191991,0.0263591,inf	343.707,343.707,398.413,347.075,375.921,374.661,403.286,429.101,384.621,347.836,355.007,433.273,541.879,58413,58413,58413
0.000936456	-291908.91	0,8.87795e-05,0.000210258,0.000376479,0.000603921,0.000915133,0.00134097,0.00192365,0.00272094,0.00381188,0.00530463,0.00734718,0.010142,0.0139663,0.0191991,0.0263591,inf	342.777,342.777,399.343,346.382,376.427,373.647,403.124,429.761,384.524,346.148,351.708,432.427,544.946,58413,58413,58413
0.000936456	-291909.13	0,8.87795e-05,0.000210258,0.000376479,0.000603921,0.000915133,0.00134097,0.00192365,0.00272094,0.00381188,0.00530463,0.00734718,0.010142,0.0139663,0.0191991,0.0263591,inf	342.082,342.082,400.038,345.762,376.881,372.766,403.13,430.227,384.524,344.957,348.887,431.899,547.287,58413,58413,58413
0.000936456	-291909.31	0,8.87795e-05,0.000210258,0.000376479,0.000603921,0.000915133,0.00134097,0.00192365,0.00272094,0.00381188,0.00530463,0.00734718,0.010142,0.0139663,0.0191991,0.0263591,inf	341.563,341.563,400.547,345.183,376.908,371.967,403.25,430.725,384.524,344.148,346.442,431.622,549.111,58413,58413,58413
0.000936456	-291909.45	0,8.87795e-05,0.000210258,0.000376479,0.000603921,0.000915133,0.00134097,0.00192365,0.00272094,0.00381188,0.00530463,0.00734718,0.010142,0.0139663,0.0191991,0.0263591,inf	341.216,341.216,400.563,344.747,377.404,371.283,403.457,430.938,384.524,343.63,344.294,431.543,550.518,58413,58413,58413
0.000936456	-291909.58	0,8.87795e-05,0.000210258,0.000376479,0.000603921,0.000915133,0.00134097,0.00192365,0.00272094,0.00381188,0.00530463,0.00734718,0.010142,0.0139663,0.0191991,0.0263591,inf	341.038,341.038,400.729,344.373,377.685,370.633,403.716,431.096,384.524,343.344,342.385,431.626,551.589,58413,58413,58413
0.000936456	-291909.69	0,8.87795e-05,0.000210258,0.000376479,0.000603921,0.000915133,0.00134097,0.00192365,0.00272094,0.00381188,0.00530463,0.00734718,0.010142,0.0139663,0.0191991,0.0263591,inf	340.92,340.92,400.749,344.052,377.972,370.028,403.716,431.419,384.524,343.237,340.667,431.838,552.393,58413,58413,58413
0.000936456	-291909.76	0,8.87795e-05,0.000210258,0.000376479,0.000603921,0.000915133,0.00134097,0.00192365,0.00272094,0.00381188,0.00530463,0.00734718,0.010142,0.0139663,0.0191991,0.0263591,inf	340.863,340.863,400.774,343.787,377.986,369.47,403.716,431.794,384.524,343.237,339.103,432.154,552.997,58413,58413,58413
0.000936456	-291909.81	0,8.87795e-05,0.000210258,0.000376479,0.000603921,0.000915133,0.00134097,0.00192365,0.00272094,0.00381188,0.00530463,0.00734718,0.010142,0.0139663,0.0191991,0.0263591,inf	340.863,340.863,400.774,343.63,378.101,368.983,403.716,432.054,384.524,343.237,337.669,432.555,553.47,58413,58413,58413
0.000936456	-291909.87	0,8.87795e-05,0.000210258,0.000376479,0.000603921,0.000915133,0.00134097,0.00192365,0.00272094,0.00381188,0.00530463,0.00734718,0.010142,0.0139663,0.0191991,0.0263591,inf	340.863,340.863,400.774,343.531,378.108,368.544,404.072,432.054,384.524,343.237,336.351,433.03,553.827,58413,58413,58413
