time_index	left_time_boundary	right_time_boundary	lambda
0	0	1.64733e-06	19018
1	1.64733e-06	3.81727e-06	19018
2	3.81727e-06	6.67563e-06	1351.48
3	6.67563e-06	1.04408e-05	355.901
4	1.04408e-05	1.54005e-05	532.083
5	1.54005e-05	2.19336e-05	925.127
6	2.19336e-05	3.05393e-05	886.585
7	3.05393e-05	4.18751e-05	679.956
8	4.18751e-05	5.68073e-05	484.427
9	5.68073e-05	7.64767e-05	373.148
10	7.64767e-05	0.000102386	414.032
11	0.000102386	0.000136515	445.558
12	0.000136515	0.000181472	412.841
13	0.000181472	0.000240691	382.536
14	0.000240691	0.000318697	385.539
15	0.000318697	0.000421451	379.619
16	0.000421451	0.000556803	371.723
17	0.000556803	0.000735095	377.621
18	0.000735095	0.00096995	386.845
19	0.00096995	0.00127931	380.361
20	0.00127931	0.00168682	375.839
21	0.00168682	0.00222361	391.906
22	0.00222361	0.00293069	407.432
23	0.00293069	0.0038621	401.607
24	0.0038621	0.00508899	378.765
25	0.00508899	0.00670512	380.021
26	0.00670512	0.00883395	401.994
27	0.00883395	0.0116382	553.615
28	0.0116382	0.015332	553.615
29	0.015332	0.0201977	63742
30	0.0201977	0.026607	63742
31	0.026607	inf	63742
