0.000651685	-292080.91	0,4.09169e-05,8.87795e-05,0.000144767,0.000210258,0.000286866,0.000376479,0.000481303,0.000603921,0.000747353,0.000915133,0.00111139,0.00134097,0.00160952,0.00192365,0.0022911,0.00272094,0.00322373,0.00381188,0.00449986,0.00530463,0.00624601,0.00734718,0.00863528,0.010142,0.0119046,0.0139663,0.016378,0.0191991,0.022499,0.0263591,0.0308745,inf	383.944,383.944,371.551,362.277,374.575,378.762,377.447,378.318,382.306,386.613,388.977,390.732,394.439,399.888,405.099,408.646,410.18,410.329,409.634,408.588,408.089,408.446,409.673,411.995,415.59,420.126,425.038,440.496,440.496,504.546,504.546,504.546
0.000698953	-292023.53	0,4.09169e-05,8.87795e-05,0.000144767,0.000210258,0.000286866,0.000376479,0.000481303,0.000603921,0.000747353,0.000915133,0.00111139,0.00134097,0.00160952,0.00192365,0.0022911,0.00272094,0.00322373,0.00381188,0.00449986,0.00530463,0.00624601,0.00734718,0.00863528,0.010142,0.0119046,0.0139663,0.016378,0.0191991,0.022499,0.0263591,0.0308745,inf	387.521,387.521,363.118,345.733,368.407,374.229,369.448,369.191,374.861,380.778,382.777,383.68,388.277,396.178,403.857,408.768,410.33,409.687,407.72,405.249,403.848,404.158,406.315,410.625,417.252,425.487,434.501,464.942,464.942,610.711,610.711,610.711
0.000742979	-291982.72	0,4.09169e-05,8.87795e-05,0.000144767,0.000210258,0.000286866,0.000376479,0.000481303,0.000603921,0.000747353,0.000915133,0.00111139,0.00134097,0.00160952,0.00192365,0.0022911,0.00272094,0.00322373,0.00381188,0.00449986,0.00530463,0.00624601,0.00734718,0.00863528,0.010142,0.0119046,0.0139663,0.016378,0.0191991,0.022499,0.0263591,0.0308745,inf	392.908,392.908,358.869,336.32,369.677,376.643,368.136,366.646,373.639,380.507,381.485,380.981,385.752,395.203,404.501,410.161,411.439,409.915,406.708,402.873,400.542,400.709,403.7,409.833,419.157,430.55,443.151,488.52,488.52,748.814,748.814,748.814
0.000783693	-291950.81	0,4.09169e-05,8.87795e-05,0.000144767,0.000210258,0.000286866,0.000376479,0.000481303,0.000603921,0.000747353,0.000915133,0.00111139,0.00134097,0.00160952,0.00192365,0.0022911,0.00272094,0.00322373,0.00381188,0.00449986,0.00530463,0.00624601,0.00734718,0.00863528,0.010142,0.0119046,0.0139663,0.016378,0.0191991,0.022499,0.0263591,0.0308745,inf	396.129,396.129,354.121,328.694,372.838,380.652,368.451,365.914,374.2,381.779,381.55,379.548,384.271,394.89,405.44,411.623,412.58,410.267,405.961,400.899,397.691,397.7,401.476,409.318,421.097,435.257,451.092,511.572,511.572,953.094,953.094,953.094
0.000821304	-291925.30	0,4.09169e-05,8.87795e-05,0.000144767,0.000210258,0.000286866,0.000376479,0.000481303,0.000603921,0.000747353,0.000915133,0.00111139,0.00134097,0.00160952,0.00192365,0.0022911,0.00272094,0.00322373,0.00381188,0.00449986,0.00530463,0.00624601,0.00734718,0.00863528,0.010142,0.0119046,0.0139663,0.016378,0.0191991,0.022499,0.0263591,0.0308745,inf	397.856,397.856,348.675,321.886,376.64,384.962,369.125,365.74,375.329,383.484,381.994,378.526,383.118,394.694,406.287,412.887,413.554,410.565,405.301,399.145,395.125,394.978,399.503,408.958,422.999,439.627,458.44,534.389,534.389,1335.63,1335.63,1335.63
0.000856077	-291904.64	0,4.09169e-05,8.87795e-05,0.000144767,0.000210258,0.000286866,0.000376479,0.000481303,0.000603921,0.000747353,0.000915133,0.00111139,0.00134097,0.00160952,0.00192365,0.0022911,0.00272094,0.00322373,0.00381188,0.00449986,0.00530463,0.00624601,0.00734718,0.00863528,0.010142,0.0119046,0.0139663,0.016378,0.0191991,0.022499,0.0263591,0.0308745,inf	398.953,398.953,342.871,315.719,380.771,389.238,369.808,365.748,376.65,385.286,382.525,377.654,382.083,394.478,406.972,413.928,414.346,410.781,404.68,397.539,392.767,392.475,397.713,408.694,424.834,443.69,465.297,557.212,557.212,2632.98,2632.98,2632.98
0.000888266	-291887.76	0,4.09169e-05,8.87795e-05,0.000144767,0.000210258,0.000286866,0.000376479,0.000481303,0.000603921,0.000747353,0.000915133,0.00111139,0.00134097,0.00160952,0.00192365,0.0022911,0.00272094,0.00322373,0.00381188,0.00449986,0.00530463,0.00624601,0.00734718,0.00863528,0.010142,0.0119046,0.0139663,0.016378,0.0191991,0.022499,0.0263591,0.0308745,inf	399.917,399.917,336.965,310.135,385.127,393.376,370.397,365.812,378.028,387.072,383.05,376.845,381.103,394.215,407.505,414.775,414.985,410.929,404.087,396.052,390.58,390.151,396.068,408.492,426.591,447.479,471.737,580.225,580.225,31698.5,31698.5,31698.5
0.000888266	-291873.85	0,4.09169e-05,8.87795e-05,0.000144767,0.000210258,0.000286866,0.000376479,0.000481303,0.000603921,0.000747353,0.000915133,0.00111139,0.00134097,0.00160952,0.00192365,0.0022911,0.00272094,0.00322373,0.00381188,0.00449986,0.00530463,0.00624601,0.00734718,0.00863528,0.010142,0.0119046,0.0139663,0.016378,0.0191991,0.022499,0.0263591,0.0308745,inf	396.338,396.338,327.548,301.776,385.294,392.847,366.699,361.806,375.178,384.476,379.349,372.087,376.262,390.016,404.066,411.796,412.129,407.993,400.839,392.318,386.466,386.118,392.836,406.752,426.796,449.666,476.616,602.359,602.359,85749.5,85749.5,85749.5
0.000888266	-291873.63	0,4.09169e-05,8.87795e-05,0.000144767,0.000210258,0.000286866,0.000376479,0.000481303,0.000603921,0.000747353,0.000915133,0.00111139,0.00134097,0.00160952,0.00192365,0.0022911,0.00272094,0.00322373,0.00381188,0.00449986,0.00530463,0.00624601,0.00734718,0.00863528,0.010142,0.0119046,0.0139663,0.016378,0.0191991,0.022499,0.0263591,0.0308745,inf	396.44,396.44,322.127,296.336,388.54,395.285,365.761,360.537,375.156,384.747,378.401,369.913,373.868,388.149,402.828,410.857,411.134,406.741,399.105,389.929,383.531,383.091,390.427,405.648,427.466,452.188,481.595,602.359,602.359,85749.5,85749.5,85749.5
0.000888266	-291873.65	0,4.09169e-05,8.87795e-05,0.000144767,0.000210258,0.000286866,0.000376479,0.000481303,0.000603921,0.000747353,0.000915133,0.00111139,0.00134097,0.00160952,0.00192365,0.0022911,0.00272094,0.00322373,0.00381188,0.00449986,0.00530463,0.00624601,0.00734718,0.00863528,0.010142,0.0119046,0.0139663,0.016378,0.0191991,0.022499,0.0263591,0.0308745,inf	396.514,396.514,317.867,291.378,392.129,398.073,365.233,359.795,375.793,385.304,378.307,368.623,372.38,387.2,402.505,410.816,411.005,406.323,398.168,388.292,381.259,380.647,388.524,404.952,428.45,454.991,483.352,602.359,602.359,85749.5,85749.5,85749.5
0.000888266	-291873.68	0,4.09169e-05,8.87795e-05,0.000144767,0.000210258,0.000286866,0.000376479,0.000481303,0.000603921,0.000747353,0.000915133,0.00111139,0.00134097,0.00160952,0.00192365,0.0022911,0.00272094,0.00322373,0.00381188,0.00449986,0.00530463,0.00624601,0.00734718,0.00863528,0.010142,0.0119046,0.0139663,0.016378,0.0191991,0.022499,0.0263591,0.0308745,inf	396.547,396.547,314.287,286.643,395.633,398.073,364.612,359.08,376.562,386.603,378.519,367.68,371.265,386.641,402.587,411.19,411.303,406.345,397.67,387.087,379.439,378.614,386.971,404.536,429.692,455.009,485.852,602.359,602.359,85749.5,85749.5,85749.5
0.000888266	-291873.67	0,4.09169e-05,8.87795e-05,0.000144767,0.000210258,0.000286866,0.000376479,0.000481303,0.000603921,0.000747353,0.000915133,0.00111139,0.00134097,0.00160952,0.00192365,0.0022911,0.00272094,0.00322373,0.00381188,0.00449986,0.00530463,0.00624601,0.00734718,0.00863528,0.010142,0.0119046,0.0139663,0.016378,0.0191991,0.022499,0.0263591,0.0308745,inf	396.625,396.625,311.557,282.336,399.381,399.722,364.025,358.368,377.327,386.646,378.682,366.83,370.272,386.222,402.819,411.731,411.799,406.39,397.442,386.18,377.918,376.876,385.674,404.327,431.085,456.835,485.852,602.359,602.359,85749.5,85749.5,85749.5
0.000888266	-291873.65	0,4.09169e-05,8.87795e-05,0.000144767,0.000210258,0.000286866,0.000376479,0.000481303,0.000603921,0.000747353,0.000915133,0.00111139,0.00134097,0.00160952,0.00192365,0.0022911,0.00272094,0.00322373,0.00381188,0.00449986,0.00530463,0.00624601,0.00734718,0.00863528,0.010142,0.0119046,0.0139663,0.016378,0.0191991,0.022499,0.0263591,0.0308745,inf	396.653,396.653,309.301,278.195,403.077,400.997,363.377,357.649,378.13,386.889,378.682,366.084,369.379,385.883,403.134,412.374,412.048,406.39,397.393,385.481,376.618,375.352,384.559,404.264,432.608,457.971,485.852,602.359,602.359,85749.5,85749.5,85749.5
0.000888266	-291873.64	0,4.09169e-05,8.87795e-05,0.000144767,0.000210258,0.000286866,0.000376479,0.000481303,0.000603921,0.000747353,0.000915133,0.00111139,0.00134097,0.00160952,0.00192365,0.0022911,0.00272094,0.00322373,0.00381188,0.00449986,0.00530463,0.00624601,0.00734718,0.00863528,0.010142,0.0119046,0.0139663,0.016378,0.0191991,0.022499,0.0263591,0.0308745,inf	396.728,396.728,307.47,274.195,406.737,401.936,362.676,356.91,378.953,386.917,378.892,365.416,368.565,385.622,403.512,413.081,412.07,406.39,397.393,384.948,375.497,374.001,383.591,404.32,434.237,458.55,485.881,602.359,602.359,85749.5,85749.5,85749.5
0.000888266	-291873.64	0,4.09169e-05,8.87795e-05,0.000144767,0.000210258,0.000286866,0.000376479,0.000481303,0.000603921,0.000747353,0.000915133,0.00111139,0.00134097,0.00160952,0.00192365,0.0022911,0.00272094,0.00322373,0.00381188,0.00449986,0.00530463,0.00624601,0.00734718,0.00863528,0.010142,0.0119046,0.0139663,0.016378,0.0191991,0.022499,0.0263591,0.0308745,inf	396.76,396.76,305.962,270.376,406.753,404.348,361.94,356.18,379.802,386.93,379.385,364.811,367.803,385.398,403.948,413.819,412.07,406.39,397.393,384.551,374.523,372.792,382.742,404.471,435.957,458.579,486.024,602.359,602.359,85749.5,85749.5,85749.5
0.000888266	-291873.63	0,4.09169e-05,8.87795e-05,0.000144767,0.000210258,0.000286866,0.000376479,0.000481303,0.000603921,0.000747353,0.000915133,0.00111139,0.00134097,0.00160952,0.00192365,0.0022911,0.00272094,0.00322373,0.00381188,0.00449986,0.00530463,0.00624601,0.00734718,0.00863528,0.010142,0.0119046,0.0139663,0.016378,0.0191991,0.022499,0.0263591,0.0308745,inf	396.836,396.836,305.043,266.885,410.409,404.348,361.216,355.432,380.641,387.211,379.385,364.214,367.055,385.196,404.382,413.819,412.551,406.39,397.393,384.262,373.67,371.7,381.992,404.704,437.576,458.579,486.024,602.359,602.359,85749.5,85749.5,85749.5
0.000888266	-291873.62	0,4.09169e-05,8.87795e-05,0.000144767,0.000210258,0.000286866,0.000376479,0.000481303,0.000603921,0.000747353,0.000915133,0.00111139,0.00134097,0.00160952,0.00192365,0.0022911,0.00272094,0.00322373,0.00381188,0.00449986,0.00530463,0.00624601,0.00734718,0.00863528,0.010142,0.0119046,0.0139663,0.016378,0.0191991,0.022499,0.0263591,0.0308745,inf	396.866,396.866,304.359,263.483,413.818,404.348,360.502,354.715,381.517,387.432,379.385,363.676,366.364,385.034,404.856,414.252,412.551,406.39,397.393,384.064,372.916,370.705,381.324,405.006,438.921,458.579,486.024,602.359,602.359,85749.5,85749.5,85749.5
0.000888266	-291873.62	0,4.09169e-05,8.87795e-05,0.000144767,0.000210258,0.000286866,0.000376479,0.000481303,0.000603921,0.000747353,0.000915133,0.00111139,0.00134097,0.00160952,0.00192365,0.0022911,0.00272094,0.00322373,0.00381188,0.00449986,0.00530463,0.00624601,0.00734718,0.00863528,0.010142,0.0119046,0.0139663,0.016378,0.0191991,0.022499,0.0263591,0.0308745,inf	396.922,396.922,303.895,260.214,416.951,404.348,359.796,354.008,382.417,387.622,379.385,363.178,365.707,384.896,405.352,414.604,412.551,406.39,397.393,383.945,372.25,369.795,380.727,405.368,440.025,458.579,486.024,602.359,602.359,85749.5,85749.5,85749.5
0.000888266	-291873.62	0,4.09169e-05,8.87795e-05,0.000144767,0.000210258,0.000286866,0.000376479,0.000481303,0.000603921,0.000747353,0.000915133,0.00111139,0.00134097,0.00160952,0.00192365,0.0022911,0.00272094,0.00322373,0.00381188,0.00449986,0.00530463,0.00624601,0.00734718,0.00863528,0.010142,0.0119046,0.0139663,0.016378,0.0191991,0.022499,0.0263591,0.0308745,inf	396.979,396.979,303.623,257.053,419.852,404.348,359.1,353.321,383.338,387.77,379.385,362.712,365.074,384.787,405.867,414.604,412.794,406.39,397.393,383.893,371.66,368.959,380.192,405.783,440.923,458.579,486.024,602.359,602.359,85749.5,85749.5,85749.5
0.000888266	-291873.62	0,4.09169e-05,8.87795e-05,0.000144767,0.000210258,0.000286866,0.000376479,0.000481303,0.000603921,0.000747353,0.000915133,0.00111139,0.00134097,0.00160952,0.00192365,0.0022911,0.00272094,0.00322373,0.00381188,0.00449986,0.00530463,0.00624601,0.00734718,0.00863528,0.010142,0.0119046,0.0139663,0.016378,0.0191991,0.022499,0.0263591,0.0308745,inf	396.979,396.979,303.553,253.968,422.54,404.348,358.422,352.65,384.297,387.77,379.466,362.296,364.471,384.692,406.401,414.604,412.794,406.544,397.393,383.893,371.132,368.184,379.72,406.257,441.629,458.579,486.024,602.359,602.359,85749.5,85749.5,85749.5
