0.00023121	-5994295.60	0,6.43883e-07,1.49204e-06,2.60927e-06,4.08094e-06,6.01949e-06,8.57305e-06,1.19367e-05,1.63675e-05,2.2204e-05,2.9892e-05,4.00191e-05,5.3359e-05,7.0931e-05,9.40776e-05,0.000124568,0.00016473,0.000217635,0.000287323,0.000379119,0.000500038,0.000659319,0.000869131,0.00114551,0.00150956,0.00198911,0.00262079,0.00345288,0.00454895,0.00599274,0.00789457,0.0103998,inf	83.1708,83.1708,247.704,375.328,385.729,315.753,269.341,269.152,281.293,288.1,290.192,297.95,315.489,341.889,377.583,424.547,490.744,583.709,717.19,911.818,1179.03,1469.89,1622.77,1598.91,1516.71,1432.11,1373.55,1333.45,1333.45,1326.11,1326.11,1326.11
0.000238626	-5983499.05	0,6.43883e-07,1.49204e-06,2.60927e-06,4.08094e-06,6.01949e-06,8.57305e-06,1.19367e-05,1.63675e-05,2.2204e-05,2.9892e-05,4.00191e-05,5.3359e-05,7.0931e-05,9.40776e-05,0.000124568,0.00016473,0.000217635,0.000287323,0.000379119,0.000500038,0.000659319,0.000869131,0.00114551,0.00150956,0.00198911,0.00262079,0.00345288,0.00454895,0.00599274,0.00789457,0.0103998,inf	21.7273,21.7273,192.042,438.95,460.567,305.089,217.614,210.854,220.9,217.979,202.271,192.438,194.676,206.082,226.399,257.18,310.991,399.135,543.032,779.582,1148.42,1634,1978.35,2001.78,1889.2,1744.92,1650.27,1596.45,1596.45,1633.67,1633.67,1633.67
0.00024545	-5979867.55	0,6.43883e-07,1.49204e-06,2.60927e-06,4.08094e-06,6.01949e-06,8.57305e-06,1.19367e-05,1.63675e-05,2.2204e-05,2.9892e-05,4.00191e-05,5.3359e-05,7.0931e-05,9.40776e-05,0.000124568,0.00016473,0.000217635,0.000287323,0.000379119,0.000500038,0.000659319,0.000869131,0.00114551,0.00150956,0.00198911,0.00262079,0.00345288,0.00454895,0.00599274,0.00789457,0.0103998,inf	6.28184,6.28184,157.784,542.12,598.633,345.54,225.236,222.871,240.922,234.192,203.568,180.821,173.315,174.996,183.873,200.11,239.233,313.221,447.572,689.647,1098.46,1698.67,2205.71,2304.19,2200.4,2023,1922.87,1897.55,1897.55,2109.85,2109.85,2109.85
0.000251196	-5978351.15	0,6.43883e-07,1.49204e-06,2.60927e-06,4.08094e-06,6.01949e-06,8.57305e-06,1.19367e-05,1.63675e-05,2.2204e-05,2.9892e-05,4.00191e-05,5.3359e-05,7.0931e-05,9.40776e-05,0.000124568,0.00016473,0.000217635,0.000287323,0.000379119,0.000500038,0.000659319,0.000869131,0.00114551,0.00150956,0.00198911,0.00262079,0.00345288,0.00454895,0.00599274,0.00789457,0.0103998,inf	1.65204,1.65204,114.63,590.99,697.958,365.215,227.751,237.164,270.696,266.006,223.511,191.204,177.58,173.256,174.178,179.343,207.241,268.568,390.687,627.906,1052.22,1720.28,2352.96,2529.91,2457.16,2268.05,2197.02,2266.91,2266.91,3137.16,3137.16,3137.16
0.000256017	-5977617.23	0,6.43883e-07,1.49204e-06,2.60927e-06,4.08094e-06,6.01949e-06,8.57305e-06,1.19367e-05,1.63675e-05,2.2204e-05,2.9892e-05,4.00191e-05,5.3359e-05,7.0931e-05,9.40776e-05,0.000124568,0.00016473,0.000217635,0.000287323,0.000379119,0.000500038,0.000659319,0.000869131,0.00114551,0.00150956,0.00198911,0.00262079,0.00345288,0.00454895,0.00599274,0.00789457,0.0103998,inf	1.09505,1.09505,76.7139,591.9,749.044,358.534,216.533,239.403,291.202,293.336,243.324,205.3,188.837,181.429,176.762,173.171,192.71,243.866,354.754,584.382,1013.69,1722.94,2450.36,2700,2669.28,2484.62,2481.23,2764.31,2764.31,8207.63,8207.63,8207.63
0.000260049	-5977221.65	0,6.43883e-07,1.49204e-06,2.60927e-06,4.08094e-06,6.01949e-06,8.57305e-06,1.19367e-05,1.63675e-05,2.2204e-05,2.9892e-05,4.00191e-05,5.3359e-05,7.0931e-05,9.40776e-05,0.000124568,0.00016473,0.000217635,0.000287323,0.000379119,0.000500038,0.000659319,0.000869131,0.00114551,0.00150956,0.00198911,0.00262079,0.00345288,0.00454895,0.00599274,0.00789457,0.0103998,inf	1.09492,1.09492,49.9225,574.915,776.15,338.346,197.318,231.187,299.651,310.756,257.07,216.85,200.489,192.596,184.317,173.671,186.888,229.877,331.112,552.898,982.499,1717.42,2516.09,2829.95,2845.63,2677.44,2786.21,3535.9,3535.9,160625,160625,160625
