0.000248752	-127304.90	0,1.47915e-05,3.20939e-05,5.23334e-05,7.60085e-05,0.000103703,0.000136098,0.000173992,0.000218318,0.000270169,0.000330822,0.000401771,0.000484763,0.000581843,0.000695402,0.000828238,0.000983623,0.00116538,0.001378,0.00162671,0.00191763,0.00225794,0.00265602,0.00312167,0.00366636,0.00430352,0.00504883,0.00592066,0.00694049,0.00813343,0.00952887,0.0111612,inf	49.7969,49.7969,105.77,163.157,233.221,319.021,423.665,550.055,700.245,874.057,1066.91,1265.74,1439.71,1539.69,1541.38,1472.13,1372.49,1270.49,1182.84,1115.47,1067.71,1037.06,1018.91,1008.21,1004.61,1012.03,1029.63,1057.86,1057.86,1112.15,1112.15,1112.15
0.000284539	-127112.68	0,1.47915e-05,3.20939e-05,5.23334e-05,7.60085e-05,0.000103703,0.000136098,0.000173992,0.000218318,0.000270169,0.000330822,0.000401771,0.000484763,0.000581843,0.000695402,0.000828238,0.000983623,0.00116538,0.001378,0.00162671,0.00191763,0.00225794,0.00265602,0.00312167,0.00366636,0.00430352,0.00504883,0.00592066,0.00694049,0.00813343,0.00952887,0.0111612,inf	2.95796,2.95796,13.4529,32.1153,65.3563,120.547,206.839,334.085,510.664,740.264,1018.56,1327.85,1619.37,1800.59,1808.56,1683.27,1501.74,1319.4,1167.53,1054.89,978.282,931.716,906.325,893.298,891.46,906.106,935.864,982.778,982.778,1078.72,1078.72,1078.72
0.000321145	-127005.68	0,1.47915e-05,3.20939e-05,5.23334e-05,7.60085e-05,0.000103703,0.000136098,0.000173992,0.000218318,0.000270169,0.000330822,0.000401771,0.000484763,0.000581843,0.000695402,0.000828238,0.000983623,0.00116538,0.001378,0.00162671,0.00191763,0.00225794,0.00265602,0.00312167,0.00366636,0.00430352,0.00504883,0.00592066,0.00694049,0.00813343,0.00952887,0.0111612,inf	1.14762,1.14762,1.99923,7.3872,21.2823,52.4352,114.579,225.55,402.984,657.194,985.408,1366.74,1740.14,1979.71,1988.8,1816.38,1569.61,1326.68,1129.85,988.346,895.52,841.7,814.571,802.887,804.717,825.653,863.938,923.303,923.303,1051.58,1051.58,1051.58
0.000357944	-126926.76	0,1.47915e-05,3.20939e-05,5.23334e-05,7.60085e-05,0.000103703,0.000136098,0.000173992,0.000218318,0.000270169,0.000330822,0.000401771,0.000484763,0.000581843,0.000695402,0.000828238,0.000983623,0.00116538,0.001378,0.00162671,0.00191763,0.00225794,0.00265602,0.00312167,0.00366636,0.00430352,0.00504883,0.00592066,0.00694049,0.00813343,0.00952887,0.0111612,inf	1.14762,1.14762,1.14762,1.46479,7.75164,25.2624,69.3925,163.784,335.532,603.011,965.706,1399.62,1833.21,2113.38,2117.12,1903.26,1603.94,1315.24,1086.99,927.25,825.611,768.934,742.333,733.122,738.851,765.032,809.609,877.729,877.729,1032.44,1032.44,1032.44
0.000394777	-126862.60	0,1.47915e-05,3.20939e-05,5.23334e-05,7.60085e-05,0.000103703,0.000136098,0.000173992,0.000218318,0.000270169,0.000330822,0.000401771,0.000484763,0.000581843,0.000695402,0.000828238,0.000983623,0.00116538,0.001378,0.00162671,0.00191763,0.00225794,0.00265602,0.00312167,0.00366636,0.00430352,0.00504883,0.00592066,0.00694049,0.00813343,0.00952887,0.0111612,inf	1.14762,1.14762,1.14762,1.14762,3.09601,13.2145,45.0641,125.687,290.631,566.787,956.308,1431.95,1912.28,2220.6,2214.01,1963.05,1620.8,1297.06,1046.52,875.13,768.772,711.277,685.925,679.249,688.498,719.009,768.483,843.218,843.218,1020.94,1020.94,1020.94
0.000431563	-126808.34	0,1.47915e-05,3.20939e-05,5.23334e-05,7.60085e-05,0.000103703,0.000136098,0.000173992,0.000218318,0.000270169,0.000330822,0.000401771,0.000484763,0.000581843,0.000695402,0.000828238,0.000983623,0.00116538,0.001378,0.00162671,0.00191763,0.00225794,0.00265602,0.00312167,0.00366636,0.00430352,0.00504883,0.00592066,0.00694049,0.00813343,0.00952887,0.0111612,inf	1.14762,1.14762,1.14762,1.14762,1.31778,7.40274,30.968,100.718,259.366,542.233,954.311,1465,1983.23,2310.93,2290.65,2006.32,1628.61,1277.63,1010.95,831.956,723.085,665.634,641.607,637.16,649.406,683.513,736.975,817.049,817.049,1015.87,1015.87,1015.87
0.00046824	-126761.42	0,1.47915e-05,3.20939e-05,5.23334e-05,7.60085e-05,0.000103703,0.000136098,0.000173992,0.000218318,0.000270169,0.000330822,0.000401771,0.000484763,0.000581843,0.000695402,0.000828238,0.000983623,0.00116538,0.001378,0.00162671,0.00191763,0.00225794,0.00265602,0.00312167,0.00366636,0.00430352,0.00504883,0.00592066,0.00694049,0.00813343,0.00952887,0.0111612,inf	1.14762,1.14762,1.14762,1.14762,1.14762,4.39581,22.3008,83.5518,236.832,525.538,957.52,1498.78,2048.64,2389.37,2353.24,2038.86,1631.6,1259.17,980.56,796.477,686.273,629.178,606.321,603.726,618.476,655.604,712.434,797.05,797.05,1015.89,1015.89,1015.89
0.000504747	-126720.23	0,1.47915e-05,3.20939e-05,5.23334e-05,7.60085e-05,0.000103703,0.000136098,0.000173992,0.000218318,0.000270169,0.000330822,0.000401771,0.000484763,0.000581843,0.000695402,0.000828238,0.000983623,0.00116538,0.001378,0.00162671,0.00191763,0.00225794,0.00265602,0.00312167,0.00366636,0.00430352,0.00504883,0.00592066,0.00694049,0.00813343,0.00952887,0.0111612,inf	1.14762,1.14762,1.14762,1.14762,1.14762,2.74415,16.7016,71.2781,220.14,514.292,964.368,1532.93,2109.75,2458.71,2405.41,2063.94,1631.88,1242.37,954.806,767.234,656.327,599.655,577.755,576.668,593.508,633.216,692.967,781.601,781.601,1019.88,1019.88,1019.88
0.000541035	-126683.64	0,1.47915e-05,3.20939e-05,5.23334e-05,7.60085e-05,0.000103703,0.000136098,0.000173992,0.000218318,0.000270169,0.000330822,0.000401771,0.000484763,0.000581843,0.000695402,0.000828238,0.000983623,0.00116538,0.001378,0.00162671,0.00191763,0.00225794,0.00265602,0.00312167,0.00366636,0.00430352,0.00504883,0.00592066,0.00694049,0.00813343,0.00952887,0.0111612,inf	1.14762,1.14762,1.14762,1.14762,1.14762,1.4791,12.9295,62.2176,207.51,506.929,973.772,1567.13,2167.25,2520.7,2449.45,2083.5,1630.54,1227.31,932.934,742.922,631.649,575.367,554.223,554.355,572.956,614.898,677.241,769.53,769.53,1026.93,1026.93,1026.93
0.00057706	-126650.82	0,1.47915e-05,3.20939e-05,5.23334e-05,7.60085e-05,0.000103703,0.000136098,0.000173992,0.000218318,0.000270169,0.000330822,0.000401771,0.000484763,0.000581843,0.000695402,0.000828238,0.000983623,0.00116538,0.001378,0.00162671,0.00191763,0.00225794,0.00265602,0.00312167,0.00366636,0.00430352,0.00504883,0.00592066,0.00694049,0.00813343,0.00952887,0.0111612,inf	1.14762,1.14762,1.14762,1.14762,1.14762,1.14762,10.2973,55.3499,197.799,502.412,984.988,1601.14,2221.59,2576.55,2486.94,2098.82,1628.12,1213.83,914.219,722.476,611.018,555.058,534.497,535.622,555.723,599.631,664.308,759.995,759.995,1036.36,1036.36,1036.36
0.000612787	-126621.15	0,1.47915e-05,3.20939e-05,5.23334e-05,7.60085e-05,0.000103703,0.000136098,0.000173992,0.000218318,0.000270169,0.000330822,0.000401771,0.000484763,0.000581843,0.000695402,0.000828238,0.000983623,0.00116538,0.001378,0.00162671,0.00191763,0.00225794,0.00265602,0.00312167,0.00366636,0.00430352,0.00504883,0.00592066,0.00694049,0.00813343,0.00952887,0.0111612,inf	1.14762,1.14762,1.14762,1.14762,1.14762,1.14762,8.40284,50.0232,190.233,500.005,997.477,1634.76,2273.1,2627.15,2519.05,2110.77,1624.96,1201.69,898.044,705.062,593.515,537.804,517.689,519.63,541.025,586.685,653.494,752.385,752.385,1047.67,1047.67,1047.67
0.000648187	-126594.16	0,1.47915e-05,3.20939e-05,5.23334e-05,7.60085e-05,0.000103703,0.000136098,0.000173992,0.000218318,0.000270169,0.000330822,0.000401771,0.000484763,0.000581843,0.000695402,0.000828238,0.000983623,0.00116538,0.001378,0.00162671,0.00191763,0.00225794,0.00265602,0.00312167,0.00366636,0.00430352,0.00504883,0.00592066,0.00694049,0.00813343,0.00952887,0.0111612,inf	1.14762,1.14762,1.14762,1.14762,1.14762,1.14762,7.00222,45.8119,184.283,499.199,1010.87,1667.89,2322.03,2673.23,2546.65,2120,1621.26,1190.67,883.913,690.038,578.451,522.923,503.147,505.767,528.296,575.535,644.31,746.258,746.258,1060.48,1060.48,1060.48
0.000683237	-126569.48	0,1.47915e-05,3.20939e-05,5.23334e-05,7.60085e-05,0.000103703,0.000136098,0.000173992,0.000218318,0.000270169,0.000330822,0.000401771,0.000484763,0.000581843,0.000695402,0.000828238,0.000983623,0.00116538,0.001378,0.00162671,0.00191763,0.00225794,0.00265602,0.00312167,0.00366636,0.00430352,0.00504883,0.00592066,0.00694049,0.00813343,0.00952887,0.0111612,inf	1.14762,1.14762,1.14762,1.14762,1.14762,1.14762,5.94232,42.4262,179.575,499.625,1024.89,1700.45,2368.63,2715.35,2570.47,2127.01,1617.13,1180.6,871.427,676.911,565.309,509.908,490.39,493.585,517.119,565.793,636.396,741.286,741.286,1074.52,1074.52,1074.52
0.000717918	-126546.80	0,1.47915e-05,3.20939e-05,5.23334e-05,7.60085e-05,0.000103703,0.000136098,0.000173992,0.000218318,0.000270169,0.000330822,0.000401771,0.000484763,0.000581843,0.000695402,0.000828238,0.000983623,0.00116538,0.001378,0.00162671,0.00191763,0.00225794,0.00265602,0.00312167,0.00366636,0.00430352,0.00504883,0.00592066,0.00694049,0.00813343,0.00952887,0.0111612,inf	1.14762,1.14762,1.14762,1.14762,1.14762,1.14762,5.12362,39.6657,175.838,501.013,1039.36,1732.43,2413.11,2754.02,2591.1,2132.19,1612.7,1171.3,860.276,665.304,553.697,498.381,479.058,482.747,507.183,557.174,629.487,737.227,737.227,1089.58,1089.58,1089.58
0.000752218	-126525.89	0,1.47915e-05,3.20939e-05,5.23334e-05,7.60085e-05,0.000103703,0.000136098,0.000173992,0.000218318,0.000270169,0.000330822,0.000401771,0.000484763,0.000581843,0.000695402,0.000828238,0.000983623,0.00116538,0.001378,0.00162671,0.00191763,0.00225794,0.00265602,0.00312167,0.00366636,0.00430352,0.00504883,0.00592066,0.00694049,0.00813343,0.00952887,0.0111612,inf	1.14762,1.14762,1.14762,1.14762,1.14762,1.14762,4.4795,37.3864,172.871,503.157,1054.12,1763.79,2455.63,2789.65,2609,2135.86,1608.02,1162.65,850.214,654.922,543.316,488.051,468.879,473.002,498.255,549.46,623.383,733.897,733.897,1105.52,1105.52,1105.52
0.000786125	-126506.54	0,1.47915e-05,3.20939e-05,5.23334e-05,7.60085e-05,0.000103703,0.000136098,0.000173992,0.000218318,0.000270169,0.000330822,0.000401771,0.000484763,0.000581843,0.000695402,0.000828238,0.000983623,0.00116538,0.001378,0.00162671,0.00191763,0.00225794,0.00265602,0.00312167,0.00366636,0.00430352,0.00504883,0.00592066,0.00694049,0.00813343,0.00952887,0.0111612,inf	1.14762,1.14762,1.14762,1.14762,1.14762,1.14762,3.96438,35.4834,170.52,505.9,1069.07,1794.53,2496.36,2822.58,2624.58,2138.29,1603.17,1154.56,841.047,645.54,533.938,478.699,459.645,464.153,490.155,542.488,617.931,731.157,731.157,1122.23,1122.23,1122.23
0.000819633	-126488.59	0,1.47915e-05,3.20939e-05,5.23334e-05,7.60085e-05,0.000103703,0.000136098,0.000173992,0.000218318,0.000270169,0.000330822,0.000401771,0.000484763,0.000581843,0.000695402,0.000828238,0.000983623,0.00116538,0.001378,0.00162671,0.00191763,0.00225794,0.00265602,0.00312167,0.00366636,0.00430352,0.00504883,0.00592066,0.00694049,0.00813343,0.00952887,0.0111612,inf	1.14762,1.14762,1.14762,1.14762,1.14762,1.14762,3.54633,33.879,168.669,509.12,1084.13,1824.65,2535.44,2853.12,2638.17,2139.67,1598.18,1146.93,832.625,636.981,525.383,470.155,451.197,456.054,482.745,536.13,613.014,728.9,728.9,1139.64,1139.64,1139.64
0.000852737	-126471.90	0,1.47915e-05,3.20939e-05,5.23334e-05,7.60085e-05,0.000103703,0.000136098,0.000173992,0.000218318,0.000270169,0.000330822,0.000401771,0.000484763,0.000581843,0.000695402,0.000828238,0.000983623,0.00116538,0.001378,0.00162671,0.00191763,0.00225794,0.00265602,0.00312167,0.00366636,0.00430352,0.00504883,0.00592066,0.00694049,0.00813343,0.00952887,0.0111612,inf	1.14762,1.14762,1.14762,1.14762,1.14762,1.14762,3.20271,32.5146,167.227,512.72,1099.22,1854.17,2572.99,2881.52,2650.05,2140.2,1593.11,1139.7,824.822,629.103,517.513,462.283,443.407,448.585,475.917,530.286,608.542,727.046,727.046,1157.69,1157.69,1157.69
0.000885434	-126456.34	0,1.47915e-05,3.20939e-05,5.23334e-05,7.60085e-05,0.000103703,0.000136098,0.000173992,0.000218318,0.000270169,0.000330822,0.000401771,0.000484763,0.000581843,0.000695402,0.000828238,0.000983623,0.00116538,0.001378,0.00162671,0.00191763,0.00225794,0.00265602,0.00312167,0.00366636,0.00430352,0.00504883,0.00592066,0.00694049,0.00813343,0.00952887,0.0111612,inf	1.14762,1.14762,1.14762,1.14762,1.14762,1.14762,2.91674,31.3448,166.121,516.624,1114.3,1883.08,2609.11,2908,2660.44,2140.01,1587.97,1132.82,817.541,621.796,510.216,454.981,436.178,441.655,469.586,524.879,604.443,725.527,725.527,1176.35,1176.35,1176.35
0.000917722	-126441.81	0,1.47915e-05,3.20939e-05,5.23334e-05,7.60085e-05,0.000103703,0.000136098,0.000173992,0.000218318,0.000270169,0.000330822,0.000401771,0.000484763,0.000581843,0.000695402,0.000828238,0.000983623,0.00116538,0.001378,0.00162671,0.00191763,0.00225794,0.00265602,0.00312167,0.00366636,0.00430352,0.00504883,0.00592066,0.00694049,0.00813343,0.00952887,0.0111612,inf	1.14762,1.14762,1.14762,1.14762,1.14762,1.14762,2.67622,30.335,165.295,520.77,1129.34,1911.4,2643.9,2932.76,2669.56,2139.23,1582.81,1126.25,810.706,614.972,503.405,448.164,429.429,435.189,463.682,519.846,600.661,724.293,724.293,1195.61,1195.61,1195.61
