LogLikelihood = -100883.37899195382488

y0 1.1100954269798904387e-10
y0_prime 0
y1 1.198946039604096736
y1_prime 0
y2 1.7056914601319872471
y2_prime 0
y3 0.35935989136233664754
y3_prime 0
rho 0.0037341995458711300937
theta 0.0013324852790578597256
