AIC = 3361397.7746695810929

y0 0.54613354732525176694
y0_prime 0
y1 0.76261072347993918985
y1_prime 0
y2 1.4641647378477249397
y2_prime 0
y3 1.7608582219642441302
y3_prime 0
rho 9.9999999999999997989e-13
theta 0.010335463306176920217
