0.000701491	-8672960.47	0,6.22291e-06,1.67051e-05,3.43619e-05,6.41041e-05,0.000114203,0.000198593,0.000340745,0.000580192,0.000983531,0.00166294,0.00280737,0.0047351,0.0079823,0.013452,0.0226656,inf	538.851,538.851,472.137,405.682,365.616,345.188,333.286,337.035,354.37,384.008,418.414,430.389,395.575,348.03,348.03,348.03
0.000759919	-8670919.88	0,6.22291e-06,1.67051e-05,3.43619e-05,6.41041e-05,0.000114203,0.000198593,0.000340745,0.000580192,0.000983531,0.00166294,0.00280737,0.0047351,0.0079823,0.013452,0.0226656,inf	611.098,611.098,524.949,428.814,369.571,337.791,316.228,318.311,339.831,378.95,428.996,453.65,395.149,318.111,318.111,318.111
0.000812659	-8669720.91	0,6.22291e-06,1.67051e-05,3.43619e-05,6.41041e-05,0.000114203,0.000198593,0.000340745,0.000580192,0.000983531,0.00166294,0.00280737,0.0047351,0.0079823,0.013452,0.0226656,inf	624.48,624.48,545.289,441.291,375.55,338.913,311.275,311.791,334.11,375.672,432.428,468.726,393.798,297.361,297.361,297.361
0.000860778	-8668895.89	0,6.22291e-06,1.67051e-05,3.43619e-05,6.41041e-05,0.000114203,0.000198593,0.000340745,0.000580192,0.000983531,0.00166294,0.00280737,0.0047351,0.0079823,0.013452,0.0226656,inf	613.759,613.759,546.781,444.224,378.608,341.057,310.205,310.115,332.377,373.563,432.481,478.987,392.436,282.508,282.508,282.508
0.000905041	-8668282.01	0,6.22291e-06,1.67051e-05,3.43619e-05,6.41041e-05,0.000114203,0.000198593,0.000340745,0.000580192,0.000983531,0.00166294,0.00280737,0.0047351,0.0079823,0.013452,0.0226656,inf	598.568,598.568,540.394,441.693,378.928,342.458,310.325,310.513,332.629,372.262,430.922,486.253,391.347,271.569,271.569,271.569
0.000945988	-8667804.58	0,6.22291e-06,1.67051e-05,3.43619e-05,6.41041e-05,0.000114203,0.000198593,0.000340745,0.000580192,0.000983531,0.00166294,0.00280737,0.0047351,0.0079823,0.013452,0.0226656,inf	585.996,585.996,531.874,436.755,377.541,342.925,310.698,311.804,333.908,371.52,428.603,491.552,390.571,263.304,263.304,263.304
0.000984016	-8667422.84	0,6.22291e-06,1.67051e-05,3.43619e-05,6.41041e-05,0.000114203,0.000198593,0.000340745,0.000580192,0.000983531,0.00166294,0.00280737,0.0047351,0.0079823,0.013452,0.0226656,inf	577.372,577.372,523.603,431.159,375.317,342.669,311.013,313.441,335.714,371.167,425.955,495.491,390.064,256.912,256.912,256.912
0.00101944	-8667111.82	0,6.22291e-06,1.67051e-05,3.43619e-05,6.41041e-05,0.000114203,0.000198593,0.000340745,0.000580192,0.000983531,0.00166294,0.00280737,0.0047351,0.0079823,0.013452,0.0226656,inf	572.037,572.037,516.33,425.761,372.831,341.942,311.189,315.165,337.774,371.089,423.199,498.455,389.768,251.865,251.865,251.865
0.00105251	-8666855.00	0,6.22291e-06,1.67051e-05,3.43619e-05,6.41041e-05,0.000114203,0.000198593,0.000340745,0.000580192,0.000983531,0.00166294,0.00280737,0.0047351,0.0079823,0.013452,0.0226656,inf	568.985,568.985,510.135,420.917,370.413,340.95,311.229,316.851,339.931,371.203,420.455,500.701,389.629,247.804,247.804,247.804
0.00108344	-8666640.82	0,6.22291e-06,1.67051e-05,3.43619e-05,6.41041e-05,0.000114203,0.000198593,0.000340745,0.000580192,0.000983531,0.00166294,0.00280737,0.0047351,0.0079823,0.013452,0.0226656,inf	567.378,567.378,504.865,416.724,368.234,339.839,311.16,318.438,342.094,371.455,417.787,502.404,389.605,244.479,244.479,244.479
0.00111243	-8666460.87	0,6.22291e-06,1.67051e-05,3.43619e-05,6.41041e-05,0.000114203,0.000198593,0.000340745,0.000580192,0.000983531,0.00166294,0.00280737,0.0047351,0.0079823,0.013452,0.0226656,inf	566.599,566.599,500.33,413.16,366.362,338.706,311.015,319.902,344.211,371.806,415.229,503.692,389.663,241.713,241.713,241.713
0.00113962	-8666308.77	0,6.22291e-06,1.67051e-05,3.43619e-05,6.41041e-05,0.000114203,0.000198593,0.000340745,0.000580192,0.000983531,0.00166294,0.00280737,0.0047351,0.0079823,0.013452,0.0226656,inf	566.241,566.241,496.349,410.149,364.811,337.612,310.823,321.238,346.251,372.227,412.795,504.658,389.78,239.381,239.381,239.381
0.00116517	-8666179.63	0,6.22291e-06,1.67051e-05,3.43619e-05,6.41041e-05,0.000114203,0.000198593,0.000340745,0.000580192,0.000983531,0.00166294,0.00280737,0.0047351,0.0079823,0.013452,0.0226656,inf	566.081,566.081,492.804,407.61,363.571,336.588,310.607,322.447,348.198,372.698,410.492,505.372,389.939,237.388,237.388,237.388
0.00118919	-8666069.56	0,6.22291e-06,1.67051e-05,3.43619e-05,6.41041e-05,0.000114203,0.000198593,0.000340745,0.000580192,0.000983531,0.00166294,0.00280737,0.0047351,0.0079823,0.013452,0.0226656,inf	566.034,566.034,489.576,405.455,362.61,335.655,310.384,323.535,350.043,373.204,408.319,505.888,390.129,235.666,235.666,235.666
0.00121182	-8665975.49	0,6.22291e-06,1.67051e-05,3.43619e-05,6.41041e-05,0.000114203,0.000198593,0.000340745,0.000580192,0.000983531,0.00166294,0.00280737,0.0047351,0.0079823,0.013452,0.0226656,inf	566.015,566.015,486.603,403.606,361.894,334.819,310.166,324.512,351.785,373.734,406.273,506.247,390.341,234.162,234.162,234.162
0.00123314	-8665894.89	0,6.22291e-06,1.67051e-05,3.43619e-05,6.41041e-05,0.000114203,0.000198593,0.000340745,0.000580192,0.000983531,0.00166294,0.00280737,0.0047351,0.0079823,0.013452,0.0226656,inf	566.027,566.027,483.831,402.005,361.387,334.078,309.964,325.386,353.424,374.279,404.348,506.48,390.568,232.836,232.836,232.836
0.00125324	-8665825.71	0,6.22291e-06,1.67051e-05,3.43619e-05,6.41041e-05,0.000114203,0.000198593,0.000340745,0.000580192,0.000983531,0.00166294,0.00280737,0.0047351,0.0079823,0.013452,0.0226656,inf	566.033,566.033,481.225,400.595,361.057,333.43,309.783,326.167,354.961,374.832,402.537,506.613,390.806,231.656,231.656,231.656
0.00127223	-8665766.25	0,6.22291e-06,1.67051e-05,3.43619e-05,6.41041e-05,0.000114203,0.000198593,0.000340745,0.000580192,0.000983531,0.00166294,0.00280737,0.0047351,0.0079823,0.013452,0.0226656,inf	566.06,566.06,478.769,399.337,360.874,332.868,309.628,326.864,356.402,375.389,400.834,506.666,391.053,230.599,230.599,230.599
0.00129016	-8665715.11	0,6.22291e-06,1.67051e-05,3.43619e-05,6.41041e-05,0.000114203,0.000198593,0.000340745,0.000580192,0.000983531,0.00166294,0.00280737,0.0047351,0.0079823,0.013452,0.0226656,inf	566.118,566.118,476.435,398.198,360.81,332.385,309.5,327.485,357.749,375.947,399.232,506.654,391.305,229.646,229.646,229.646
0.00130711	-8665671.09	0,6.22291e-06,1.67051e-05,3.43619e-05,6.41041e-05,0.000114203,0.000198593,0.000340745,0.000580192,0.000983531,0.00166294,0.00280737,0.0047351,0.0079823,0.013452,0.0226656,inf	566.203,566.203,474.22,397.153,360.842,331.973,309.401,328.036,359.01,376.502,397.723,506.591,391.562,228.78,228.78,228.78
