time_index	left_time_boundary	right_time_boundary	lambda
0	0	6.22291e-06	566.203
1	6.22291e-06	1.67051e-05	566.203
2	1.67051e-05	3.43619e-05	474.22
3	3.43619e-05	6.41041e-05	397.153
4	6.41041e-05	0.000114203	360.842
5	0.000114203	0.000198593	331.973
6	0.000198593	0.000340745	309.401
7	0.000340745	0.000580192	328.036
8	0.000580192	0.000983531	359.01
9	0.000983531	0.00166294	376.502
10	0.00166294	0.00280737	397.723
11	0.00280737	0.0047351	506.591
12	0.0047351	0.0079823	391.562
13	0.0079823	0.013452	228.78
14	0.013452	0.0226656	228.78
15	0.0226656	inf	228.78
