0.000692831	-13929864.96	0,1.79338e-06,4.15571e-06,7.26748e-06,1.13665e-05,1.67658e-05,2.38781e-05,3.32468e-05,4.55877e-05,6.18437e-05,8.32569e-05,0.000111463,0.000148618,0.000197561,0.00026203,0.000346952,0.000458816,0.000606168,0.000800267,0.00105594,0.00139273,0.00183637,0.00242075,0.00319052,0.00420451,0.00554017,0.00729958,0.00961715,0.01267,0.0166913,0.0219884,0.028966,inf	604.262,604.262,702.811,607.393,521.52,475.727,448.554,424.844,400.236,377.929,362.178,345.968,335.665,329.906,328.138,331.947,339.759,351.893,367.464,386.015,405.451,421.592,430.457,428.325,417.623,404.693,393.942,386.519,386.519,419.951,419.951,419.951
0.000744644	-13926748.93	0,1.79338e-06,4.15571e-06,7.26748e-06,1.13665e-05,1.67658e-05,2.38781e-05,3.32468e-05,4.55877e-05,6.18437e-05,8.32569e-05,0.000111463,0.000148618,0.000197561,0.00026203,0.000346952,0.000458816,0.000606168,0.000800267,0.00105594,0.00139273,0.00183637,0.00242075,0.00319052,0.00420451,0.00554017,0.00729958,0.00961715,0.01267,0.0166913,0.0219884,0.028966,inf	633.307,633.307,894.47,720.563,582.311,523.15,491.73,460.868,424.304,390.183,366.084,338.892,321.515,310.485,305.348,308.835,318.108,333.905,354.889,380.944,409.6,435.068,450.905,448.847,431.229,409.101,390.872,378.453,378.453,441.902,441.902,441.902
0.000791943	-13924870.51	0,1.79338e-06,4.15571e-06,7.26748e-06,1.13665e-05,1.67658e-05,2.38781e-05,3.32468e-05,4.55877e-05,6.18437e-05,8.32569e-05,0.000111463,0.000148618,0.000197561,0.00026203,0.000346952,0.000458816,0.000606168,0.000800267,0.00105594,0.00139273,0.00183637,0.00242075,0.00319052,0.00420451,0.00554017,0.00729958,0.00961715,0.01267,0.0166913,0.0219884,0.028966,inf	569.015,569.015,983.819,754.644,590.139,534.82,510.836,482.19,441.398,402.374,374.92,340.674,319.158,304.434,296.665,299.357,308.593,325.458,348.237,377.324,410.397,441.245,462.217,460.991,438.689,409.839,386.344,370.365,370.365,458.708,458.708,458.708
0.000835519	-13923512.81	0,1.79338e-06,4.15571e-06,7.26748e-06,1.13665e-05,1.67658e-05,2.38781e-05,3.32468e-05,4.55877e-05,6.18437e-05,8.32569e-05,0.000111463,0.000148618,0.000197561,0.00026203,0.000346952,0.000458816,0.000606168,0.000800267,0.00105594,0.00139273,0.00183637,0.00242075,0.00319052,0.00420451,0.00554017,0.00729958,0.00961715,0.01267,0.0166913,0.0219884,0.028966,inf	489.333,489.333,1030.22,753.409,573.107,526.603,513.449,490.574,449.403,409.602,381.887,343.38,319.925,302.917,293.509,295.684,304.619,321.672,344.769,374.847,409.904,443.85,468.565,468.366,442.733,408.826,381.557,362.862,362.862,470.746,470.746,470.746
0.000875983	-13922447.38	0,1.79338e-06,4.15571e-06,7.26748e-06,1.13665e-05,1.67658e-05,2.38781e-05,3.32468e-05,4.55877e-05,6.18437e-05,8.32569e-05,0.000111463,0.000148618,0.000197561,0.00026203,0.000346952,0.000458816,0.000606168,0.000800267,0.00105594,0.00139273,0.00183637,0.00242075,0.00319052,0.00420451,0.00554017,0.00729958,0.00961715,0.01267,0.0166913,0.0219884,0.028966,inf	419.659,419.659,1067.75,741.945,548.704,510.88,508.011,491.232,450.929,412.405,386.025,345.042,321.126,302.87,292.663,294.696,303.412,320.367,343.14,373.218,408.965,444.666,472.142,472.964,444.866,407.056,377.038,356.13,356.13,478.67,478.67,478.67
0.000913773	-13921578.32	0,1.79338e-06,4.15571e-06,7.26748e-06,1.13665e-05,1.67658e-05,2.38781e-05,3.32468e-05,4.55877e-05,6.18437e-05,8.32569e-05,0.000111463,0.000148618,0.000197561,0.00026203,0.000346952,0.000458816,0.000606168,0.000800267,0.00105594,0.00139273,0.00183637,0.00242075,0.00319052,0.00420451,0.00554017,0.00729958,0.00961715,0.01267,0.0166913,0.0219884,0.028966,inf	362.847,362.847,1108.24,729.899,524.467,494.088,499.947,488.249,448.763,412.298,387.862,345.45,321.985,303.17,292.784,294.989,303.648,320.44,342.612,372.192,407.917,444.565,474.119,475.896,445.916,405.031,372.984,350.179,350.179,483.212,483.212,483.212
0.000949215	-13920854.75	0,1.79338e-06,4.15571e-06,7.26748e-06,1.13665e-05,1.67658e-05,2.38781e-05,3.32468e-05,4.55877e-05,6.18437e-05,8.32569e-05,0.000111463,0.000148618,0.000197561,0.00026203,0.000346952,0.000458816,0.000606168,0.000800267,0.00105594,0.00139273,0.00183637,0.00242075,0.00319052,0.00420451,0.00554017,0.00729958,0.00961715,0.01267,0.0166913,0.0219884,0.028966,inf	315.926,315.926,1153.08,719.462,502.777,478.835,491.937,484.052,444.81,410.567,388.148,344.86,322.368,303.424,293.286,295.889,304.645,321.291,342.752,371.583,406.888,443.987,475.139,477.795,446.344,402.993,369.439,344.944,344.944,485.075,485.075,485.075
0.000982552	-13920244.67	0,1.79338e-06,4.15571e-06,7.26748e-06,1.13665e-05,1.67658e-05,2.38781e-05,3.32468e-05,4.55877e-05,6.18437e-05,8.32569e-05,0.000111463,0.000148618,0.000197561,0.00026203,0.000346952,0.000458816,0.000606168,0.000800267,0.00105594,0.00139273,0.00183637,0.00242075,0.00319052,0.00420451,0.00554017,0.00729958,0.00961715,0.01267,0.0166913,0.0219884,0.028966,inf	276.159,276.159,1200.52,710.381,483.882,465.908,485.121,479.911,440.227,408.094,387.491,343.6,322.345,303.517,293.908,297.056,306.033,322.576,343.297,371.259,405.922,443.162,475.569,479.03,446.411,401.057,366.381,340.342,340.342,484.882,484.882,484.882
0.00101398	-13919725.75	0,1.79338e-06,4.15571e-06,7.26748e-06,1.13665e-05,1.67658e-05,2.38781e-05,3.32468e-05,4.55877e-05,6.18437e-05,8.32569e-05,0.000111463,0.000148618,0.000197561,0.00026203,0.000346952,0.000458816,0.000606168,0.000800267,0.00105594,0.00139273,0.00183637,0.00242075,0.00319052,0.00420451,0.00554017,0.00729958,0.00961715,0.01267,0.0166913,0.0219884,0.028966,inf	241.514,241.514,1248.2,701.916,467.388,455.237,479.801,476.341,435.623,405.411,386.323,341.941,322.033,303.447,294.538,298.316,307.608,324.095,344.084,371.13,405.029,442.214,475.626,479.826,446.265,399.266,363.76,336.289,336.289,483.152,483.152,483.152
0.00104366	-13919281.39	0,1.79338e-06,4.15571e-06,7.26748e-06,1.13665e-05,1.67658e-05,2.38781e-05,3.32468e-05,4.55877e-05,6.18437e-05,8.32569e-05,0.000111463,0.000148618,0.000197561,0.00026203,0.000346952,0.000458816,0.000606168,0.000800267,0.00105594,0.00139273,0.00183637,0.00242075,0.00319052,0.00420451,0.00554017,0.00729958,0.00961715,0.01267,0.0166913,0.0219884,0.028966,inf	211.02,211.02,1294.25,693.351,452.817,446.542,475.936,473.523,431.288,402.818,384.924,340.081,321.539,303.243,295.131,299.579,309.251,325.725,345.01,371.133,404.207,441.211,475.441,480.324,445.995,397.633,361.524,332.707,332.707,480.304,480.304,480.304
0.00107174	-13918898.79	0,1.79338e-06,4.15571e-06,7.26748e-06,1.13665e-05,1.67658e-05,2.38781e-05,3.32468e-05,4.55877e-05,6.18437e-05,8.32569e-05,0.000111463,0.000148618,0.000197561,0.00026203,0.000346952,0.000458816,0.000606168,0.000800267,0.00105594,0.00139273,0.00183637,0.00242075,0.00319052,0.00420451,0.00554017,0.00729958,0.00961715,0.01267,0.0166913,0.0219884,0.028966,inf	183.964,183.964,1337.62,684.316,439.739,439.449,473.329,471.427,427.323,400.455,383.463,338.153,320.952,302.944,295.677,300.801,310.897,327.395,346.01,371.223,403.449,440.194,475.098,480.613,445.653,396.152,359.617,329.53,329.53,476.668,476.668,476.668
0.00109832	-13918567.85	0,1.79338e-06,4.15571e-06,7.26748e-06,1.13665e-05,1.67658e-05,2.38781e-05,3.32468e-05,4.55877e-05,6.18437e-05,8.32569e-05,0.000111463,0.000148618,0.000197561,0.00026203,0.000346952,0.000458816,0.000606168,0.000800267,0.00105594,0.00139273,0.00183637,0.00242075,0.00319052,0.00420451,0.00554017,0.00729958,0.00961715,0.01267,0.0166913,0.0219884,0.028966,inf	160.04,160.04,1377.83,674.801,427.836,433.661,471.774,469.969,423.741,398.384,382.033,336.239,320.328,302.584,296.173,301.96,312.507,329.059,347.044,371.373,402.748,439.183,474.651,480.753,445.27,394.813,357.994,326.703,326.703,472.499,472.499,472.499
0.00112352	-13918280.46	0,1.79338e-06,4.15571e-06,7.26748e-06,1.13665e-05,1.67658e-05,2.38781e-05,3.32468e-05,4.55877e-05,6.18437e-05,8.32569e-05,0.000111463,0.000148618,0.000197561,0.00026203,0.000346952,0.000458816,0.000606168,0.000800267,0.00105594,0.00139273,0.00183637,0.00242075,0.00319052,0.00420451,0.00554017,0.00729958,0.00961715,0.01267,0.0166913,0.0219884,0.028966,inf	138.957,138.957,1414.7,664.645,416.909,428.886,471.076,469.03,420.518,396.619,380.69,334.395,319.712,302.192,296.624,303.05,314.06,330.691,348.083,371.561,402.098,438.193,474.137,480.786,444.864,393.601,356.611,324.176,324.176,467.989,467.989,467.989
0.00114743	-13918030.02	0,1.79338e-06,4.15571e-06,7.26748e-06,1.13665e-05,1.67658e-05,2.38781e-05,3.32468e-05,4.55877e-05,6.18437e-05,8.32569e-05,0.000111463,0.000148618,0.000197561,0.00026203,0.000346952,0.000458816,0.000606168,0.000800267,0.00105594,0.00139273,0.00183637,0.00242075,0.00319052,0.00420451,0.00554017,0.00729958,0.00961715,0.01267,0.0166913,0.0219884,0.028966,inf	120.474,120.474,1448.51,653.946,406.721,424.935,471.025,468.494,417.604,395.144,379.455,332.652,319.13,301.786,297.039,304.066,315.545,332.274,349.111,371.774,401.492,437.232,473.58,480.741,444.448,392.501,355.435,321.911,321.911,463.283,463.283,463.283
0.00117012	-13917811.11	0,1.79338e-06,4.15571e-06,7.26748e-06,1.13665e-05,1.67658e-05,2.38781e-05,3.32468e-05,4.55877e-05,6.18437e-05,8.32569e-05,0.000111463,0.000148618,0.000197561,0.00026203,0.000346952,0.000458816,0.000606168,0.000800267,0.00105594,0.00139273,0.00183637,0.00242075,0.00319052,0.00420451,0.00554017,0.00729958,0.00961715,0.01267,0.0166913,0.0219884,0.028966,inf	104.413,104.413,1479.48,642.83,397.204,421.642,471.494,468.26,414.946,393.934,378.33,331.023,318.601,301.384,297.424,305.011,316.958,333.8,350.118,372.002,400.927,436.304,472.998,480.637,444.029,391.5,354.434,319.873,319.873,458.49,458.49,458.49
0.00119169	-13917619.24	0,1.79338e-06,4.15571e-06,7.26748e-06,1.13665e-05,1.67658e-05,2.38781e-05,3.32468e-05,4.55877e-05,6.18437e-05,8.32569e-05,0.000111463,0.000148618,0.000197561,0.00026203,0.000346952,0.000458816,0.000606168,0.000800267,0.00105594,0.00139273,0.00183637,0.00242075,0.00319052,0.00420451,0.00554017,0.00729958,0.00961715,0.01267,0.0166913,0.0219884,0.028966,inf	90.3615,90.3615,1507.88,631.41,388.256,418.863,472.354,468.246,412.498,392.959,377.317,329.513,318.134,300.996,297.783,305.888,318.297,335.263,351.095,372.238,400.398,435.41,472.403,480.491,443.612,390.587,353.582,318.034,318.034,453.689,453.689,453.689
0.0012122	-13917450.66	0,1.79338e-06,4.15571e-06,7.26748e-06,1.13665e-05,1.67658e-05,2.38781e-05,3.32468e-05,4.55877e-05,6.18437e-05,8.32569e-05,0.000111463,0.000148618,0.000197561,0.00026203,0.000346952,0.000458816,0.000606168,0.000800267,0.00105594,0.00139273,0.00183637,0.00242075,0.00319052,0.00420451,0.00554017,0.00729958,0.00961715,0.01267,0.0166913,0.0219884,0.028966,inf	78.1595,78.1595,1534.08,619.829,379.821,416.523,473.518,468.38,410.224,392.192,376.406,328.125,317.736,300.629,298.123,306.702,319.562,336.663,352.039,372.479,399.902,434.553,471.805,480.313,443.198,389.749,352.86,316.37,316.37,448.937,448.937,448.937
0.00123171	-13917302.23	0,1.79338e-06,4.15571e-06,7.26748e-06,1.13665e-05,1.67658e-05,2.38781e-05,3.32468e-05,4.55877e-05,6.18437e-05,8.32569e-05,0.000111463,0.000148618,0.000197561,0.00026203,0.000346952,0.000458816,0.000606168,0.000800267,0.00105594,0.00139273,0.00183637,0.00242075,0.00319052,0.00420451,0.00554017,0.00729958,0.00961715,0.01267,0.0166913,0.0219884,0.028966,inf	67.6039,67.6039,1558.36,608.158,371.844,414.559,474.919,468.608,408.075,391.605,375.589,326.853,317.404,300.286,298.446,307.456,320.756,337.998,352.949,372.719,399.436,433.731,471.209,480.112,442.792,388.979,352.248,314.86,314.86,444.275,444.275,444.275
0.00125028	-13917171.29	0,1.79338e-06,4.15571e-06,7.26748e-06,1.13665e-05,1.67658e-05,2.38781e-05,3.32468e-05,4.55877e-05,6.18437e-05,8.32569e-05,0.000111463,0.000148618,0.000197561,0.00026203,0.000346952,0.000458816,0.000606168,0.000800267,0.00105594,0.00139273,0.00183637,0.00242075,0.00319052,0.00420451,0.00554017,0.00729958,0.00961715,0.01267,0.0166913,0.0219884,0.028966,inf	58.468,58.468,1580.94,596.442,364.295,412.898,476.504,468.891,406.041,391.169,374.852,325.689,317.136,299.97,298.754,308.154,321.883,339.271,353.824,372.958,398.997,432.945,470.62,479.896,442.392,388.266,351.732,313.486,313.486,439.731,439.731,439.731
0.00126797	-13917055.57	0,1.79338e-06,4.15571e-06,7.26748e-06,1.13665e-05,1.67658e-05,2.38781e-05,3.32468e-05,4.55877e-05,6.18437e-05,8.32569e-05,0.000111463,0.000148618,0.000197561,0.00026203,0.000346952,0.000458816,0.000606168,0.000800267,0.00105594,0.00139273,0.00183637,0.00242075,0.00319052,0.00420451,0.00554017,0.00729958,0.00961715,0.01267,0.0166913,0.0219884,0.028966,inf	50.5877,50.5877,1602.08,584.8,357.135,411.505,478.223,469.201,404.091,390.865,374.189,324.629,316.933,299.683,299.049,308.8,322.943,340.483,354.663,373.193,398.584,432.194,470.041,479.668,441.999,387.605,351.297,312.234,312.234,435.326,435.326,435.326
