time_index	left_time_boundary	right_time_boundary	lambda
0	0	4.82352e-05	857.086
1	4.82352e-05	0.000114236	857.086
2	0.000114236	0.000204546	416.321
3	0.000204546	0.000328119	716.162
4	0.000328119	0.000497205	673.925
5	0.000497205	0.000728568	743.308
6	0.000728568	0.00104515	758.851
7	0.00104515	0.00147832	890.01
8	0.00147832	0.00207105	1029.92
9	0.00207105	0.00288208	930.719
10	0.00288208	0.00399183	968.884
11	0.00399183	0.00551031	910.116
12	0.00551031	0.00758808	1340.27
13	0.00758808	0.0104311	0.880799
14	0.0104311	0.0143213	0.880799
15	0.0143213	inf	0.880799
