LogLikelihood = -857593.27137623145245

y0 0.77718923467539369199
y0_prime 0
y1 1.0945232687943589056
y1_prime 0
y2 0.93274556666692320928
y2_prime 0
y3 1.9216224135532962158
y3_prime 0
rho 0.00070103798147502695975
theta 0.0025316787346846406949
