time_index	left_time_boundary	right_time_boundary	lambda
0	0	4.05113e-06	300.508
1	4.05113e-06	1.10804e-05	300.508
2	1.10804e-05	2.32772e-05	276.05
3	2.32772e-05	4.44405e-05	350.31
4	4.44405e-05	8.11618e-05	440.417
5	8.11618e-05	0.000144878	344.858
6	0.000144878	0.000255436	332.887
7	0.000255436	0.00044727	346.476
8	0.00044727	0.000780128	379.577
9	0.000780128	0.00135769	411.522
10	0.00135769	0.00235983	370.775
11	0.00235983	0.0040987	428.426
12	0.0040987	0.00711588	622.443
13	0.00711588	0.0123511	310.572
14	0.0123511	0.021435	310.572
15	0.021435	inf	310.572
