0.000712817	-13706538.71	0,1.74825e-06,4.05113e-06,7.08459e-06,1.10804e-05,1.63439e-05,2.32772e-05,3.24102e-05,4.44405e-05,6.02874e-05,8.11618e-05,0.000108658,0.000144878,0.000192589,0.000255436,0.000338221,0.00044727,0.000590913,0.000780128,0.00102937,0.00135769,0.00179016,0.00235983,0.00311023,0.0040987,0.00540075,0.00711588,0.00937514,0.0123511,0.0162713,0.021435,0.028237,inf	295.968,295.968,325.298,331.687,344.005,353.876,359.695,364.394,366.41,362.901,354.088,343.83,336.767,334.277,334.863,337.924,344.586,355.544,370.789,389.644,409.577,426.924,438.895,443.18,440.309,433.007,422.399,406.224,406.224,400.764,400.764,400.764
0.000799824	-13699528.98	0,1.74825e-06,4.05113e-06,7.08459e-06,1.10804e-05,1.63439e-05,2.32772e-05,3.24102e-05,4.44405e-05,6.02874e-05,8.11618e-05,0.000108658,0.000144878,0.000192589,0.000255436,0.000338221,0.00044727,0.000590913,0.000780128,0.00102937,0.00135769,0.00179016,0.00235983,0.00311023,0.0040987,0.00540075,0.00711588,0.00937514,0.0123511,0.0162713,0.021435,0.028237,inf	266.059,266.059,308.225,313.242,331.981,348.591,359.84,370.594,376.459,371.138,355.073,336.052,322.71,316.938,315.553,317.5,324.819,338.588,358.735,384.258,411.667,436.502,455.556,464.418,461.963,451.245,433.142,404.323,404.323,396.561,396.561,396.561
0.000880787	-13694742.39	0,1.74825e-06,4.05113e-06,7.08459e-06,1.10804e-05,1.63439e-05,2.32772e-05,3.24102e-05,4.44405e-05,6.02874e-05,8.11618e-05,0.000108658,0.000144878,0.000192589,0.000255436,0.000338221,0.00044727,0.000590913,0.000780128,0.00102937,0.00135769,0.00179016,0.00235983,0.00311023,0.0040987,0.00540075,0.00711588,0.00937514,0.0123511,0.0162713,0.021435,0.028237,inf	251.672,251.672,298.539,298.383,320.175,341.609,358.409,376.719,388.615,383.892,363.125,337.975,320.657,313.045,310.198,310.784,317.675,332.163,354.009,381.876,411.776,439.509,462.585,475.306,474.482,462.369,438.772,400.24,400.24,392.308,392.308,392.308
0.000956414	-13691073.15	0,1.74825e-06,4.05113e-06,7.08459e-06,1.10804e-05,1.63439e-05,2.32772e-05,3.24102e-05,4.44405e-05,6.02874e-05,8.11618e-05,0.000108658,0.000144878,0.000192589,0.000255436,0.000338221,0.00044727,0.000590913,0.000780128,0.00102937,0.00135769,0.00179016,0.00235983,0.00311023,0.0040987,0.00540075,0.00711588,0.00937514,0.0123511,0.0162713,0.021435,0.028237,inf	246.203,246.203,292.907,285.008,306.921,330.728,351.898,377.609,396.221,393.478,369.946,340.854,321.518,313.42,309.902,309.501,315.884,330.461,352.767,381.103,411.201,439.539,464.771,480.503,481.635,469.148,441.355,395.413,395.413,388.663,388.663,388.663
0.00102737	-13688115.95	0,1.74825e-06,4.05113e-06,7.08459e-06,1.10804e-05,1.63439e-05,2.32772e-05,3.24102e-05,4.44405e-05,6.02874e-05,8.11618e-05,0.000108658,0.000144878,0.000192589,0.000255436,0.000338221,0.00044727,0.000590913,0.000780128,0.00102937,0.00135769,0.00179016,0.00235983,0.00311023,0.0040987,0.00540075,0.00711588,0.00937514,0.0123511,0.0162713,0.021435,0.028237,inf	247.208,247.208,291.463,274.488,294.678,318.735,342.672,374.735,399.645,399.268,374.105,342.579,322.613,315.012,311.468,310.506,316.547,331.058,353.316,381.248,410.438,438.214,464.48,482.515,485.583,473.234,442.116,390.533,390.533,385.807,385.807,385.807
0.0010942	-13685668.44	0,1.74825e-06,4.05113e-06,7.08459e-06,1.10804e-05,1.63439e-05,2.32772e-05,3.24102e-05,4.44405e-05,6.02874e-05,8.11618e-05,0.000108658,0.000144878,0.000192589,0.000255436,0.000338221,0.00044727,0.000590913,0.000780128,0.00102937,0.00135769,0.00179016,0.00235983,0.00311023,0.0040987,0.00540075,0.00711588,0.00937514,0.0123511,0.0162713,0.021435,0.028237,inf	252.253,252.253,293.572,267.261,284.902,307.774,333.14,370.326,400.648,402.402,376.093,343.046,323.325,316.832,313.694,312.505,318.391,332.835,354.831,381.937,409.681,436.297,462.925,482.721,487.589,475.626,441.791,385.92,385.92,383.73,383.73,383.73
0.00115736	-13683608.83	0,1.74825e-06,4.05113e-06,7.08459e-06,1.10804e-05,1.63439e-05,2.32772e-05,3.24102e-05,4.44405e-05,6.02874e-05,8.11618e-05,0.000108658,0.000144878,0.000192589,0.000255436,0.000338221,0.00044727,0.000590913,0.000780128,0.00102937,0.00135769,0.00179016,0.00235983,0.00311023,0.0040987,0.00540075,0.00711588,0.00937514,0.0123511,0.0162713,0.021435,0.028237,inf	259.216,259.216,298.128,262.865,277.832,298.733,324.59,365.853,400.629,404.014,376.658,342.588,323.62,318.576,316.095,314.909,320.793,335.215,356.867,382.944,408.991,434.158,460.743,481.9,488.401,476.938,440.822,381.703,381.703,382.35,382.35,382.35
0.00121718	-13681855.11	0,1.74825e-06,4.05113e-06,7.08459e-06,1.10804e-05,1.63439e-05,2.32772e-05,3.24102e-05,4.44405e-05,6.02874e-05,8.11618e-05,0.000108658,0.000144878,0.000192589,0.000255436,0.000338221,0.00044727,0.000590913,0.000780128,0.00102937,0.00135769,0.00179016,0.00235983,0.00311023,0.0040987,0.00540075,0.00711588,0.00937514,0.0123511,0.0162713,0.021435,0.028237,inf	266.43,266.43,303.963,260.62,273.145,291.706,317.477,362.051,400.438,404.884,376.387,341.55,323.61,320.171,318.475,317.433,323.428,337.88,359.166,384.127,408.379,431.975,458.275,480.499,488.476,477.554,439.482,377.917,377.917,381.572,381.572,381.572
0.00127398	-13680348.13	0,1.74825e-06,4.05113e-06,7.08459e-06,1.10804e-05,1.63439e-05,2.32772e-05,3.24102e-05,4.44405e-05,6.02874e-05,8.11618e-05,0.000108658,0.000144878,0.000192589,0.000255436,0.000338221,0.00044727,0.000590913,0.000780128,0.00102937,0.00135769,0.00179016,0.00235983,0.00311023,0.0040987,0.00540075,0.00711588,0.00937514,0.0123511,0.0162713,0.021435,0.028237,inf	272.858,272.858,310.154,259.832,270.3,286.42,311.838,359.186,400.509,405.482,375.679,340.197,323.418,321.624,320.755,319.937,326.121,340.65,361.574,385.395,407.838,429.833,455.708,478.783,488.095,477.719,437.936,374.55,374.55,381.299,381.299,381.299
0.00132799	-13679043.41	0,1.74825e-06,4.05113e-06,7.08459e-06,1.10804e-05,1.63439e-05,2.32772e-05,3.24102e-05,4.44405e-05,6.02874e-05,8.11618e-05,0.000108658,0.000144878,0.000192589,0.000255436,0.000338221,0.00044727,0.000590913,0.000780128,0.00102937,0.00135769,0.00179016,0.00235983,0.00311023,0.0040987,0.00540075,0.00711588,0.00937514,0.0123511,0.0162713,0.021435,0.028237,inf	277.984,277.984,316.173,259.996,268.858,282.533,307.494,357.266,401.006,406.058,374.777,338.702,323.137,322.969,322.912,322.355,328.775,343.42,364,386.689,407.356,427.771,453.144,476.91,487.435,477.59,436.288,371.575,371.575,381.449,381.449,381.449
0.00137945	-13677906.54	0,1.74825e-06,4.05113e-06,7.08459e-06,1.10804e-05,1.63439e-05,2.32772e-05,3.24102e-05,4.44405e-05,6.02874e-05,8.11618e-05,0.000108658,0.000144878,0.000192589,0.000255436,0.000338221,0.00044727,0.000590913,0.000780128,0.00102937,0.00135769,0.00179016,0.00235983,0.00311023,0.0040987,0.00540075,0.00711588,0.00937514,0.0123511,0.0162713,0.021435,0.028237,inf	281.719,281.719,321.66,260.697,268.385,279.704,304.222,356.218,401.968,406.731,373.821,337.184,322.84,324.235,324.944,324.655,331.339,346.13,366.388,387.973,406.92,425.806,450.638,474.975,486.61,477.272,434.602,368.952,368.952,381.951,381.951,381.951
0.00142852	-13676910.37	0,1.74825e-06,4.05113e-06,7.08459e-06,1.10804e-05,1.63439e-05,2.32772e-05,3.24102e-05,4.44405e-05,6.02874e-05,8.11618e-05,0.000108658,0.000144878,0.000192589,0.000255436,0.000338221,0.00044727,0.000590913,0.000780128,0.00102937,0.00135769,0.00179016,0.00235983,0.00311023,0.0040987,0.00540075,0.00711588,0.00937514,0.0123511,0.0162713,0.021435,0.028237,inf	284.16,284.16,326.459,261.709,268.572,277.661,301.793,355.891,403.358,407.551,372.89,335.711,322.575,325.451,326.86,326.826,333.787,348.747,368.707,389.225,406.521,423.941,448.218,473.037,485.694,476.832,432.917,366.644,366.644,382.746,382.746,382.746
0.00147538	-13676033.14	0,1.74825e-06,4.05113e-06,7.08459e-06,1.10804e-05,1.63439e-05,2.32772e-05,3.24102e-05,4.44405e-05,6.02874e-05,8.11618e-05,0.000108658,0.000144878,0.000192589,0.000255436,0.000338221,0.00044727,0.000590913,0.000780128,0.00102937,0.00135769,0.00179016,0.00235983,0.00311023,0.0040987,0.00540075,0.00711588,0.00937514,0.0123511,0.0162713,0.021435,0.028237,inf	285.653,285.653,330.617,262.885,269.227,276.186,300.013,356.154,405.116,408.512,372.02,334.323,322.37,326.638,328.672,328.869,336.11,351.254,370.939,390.432,406.152,422.175,445.899,471.13,484.734,476.319,431.257,364.616,364.616,383.785,383.785,383.785
0.00152018	-13675257.19	0,1.74825e-06,4.05113e-06,7.08459e-06,1.10804e-05,1.63439e-05,2.32772e-05,3.24102e-05,4.44405e-05,6.02874e-05,8.11618e-05,0.000108658,0.000144878,0.000192589,0.000255436,0.000338221,0.00044727,0.000590913,0.000780128,0.00102937,0.00135769,0.00179016,0.00235983,0.00311023,0.0040987,0.00540075,0.00711588,0.00937514,0.0123511,0.0162713,0.021435,0.028237,inf	286.476,286.476,334.138,264.087,270.148,275.102,298.729,356.881,407.172,409.603,371.226,333.04,322.244,327.809,330.39,330.786,338.304,353.642,373.075,391.587,405.804,420.503,443.686,469.276,483.762,475.761,429.636,362.833,362.833,385.028,385.028,385.028
0.00156305	-13674568.03	0,1.74825e-06,4.05113e-06,7.08459e-06,1.10804e-05,1.63439e-05,2.32772e-05,3.24102e-05,4.44405e-05,6.02874e-05,8.11618e-05,0.000108658,0.000144878,0.000192589,0.000255436,0.000338221,0.00044727,0.000590913,0.000780128,0.00102937,0.00135769,0.00179016,0.00235983,0.00311023,0.0040987,0.00540075,0.00711588,0.00937514,0.0123511,0.0162713,0.021435,0.028237,inf	286.787,286.787,337.072,265.238,271.212,274.282,297.829,357.971,409.448,410.797,370.51,331.872,322.204,328.978,332.025,332.585,340.37,355.911,375.112,392.685,405.475,418.92,441.576,467.486,482.798,475.182,428.062,361.267,361.267,386.44,386.44,386.44
0.0016041	-13673953.71	0,1.74825e-06,4.05113e-06,7.08459e-06,1.10804e-05,1.63439e-05,2.32772e-05,3.24102e-05,4.44405e-05,6.02874e-05,8.11618e-05,0.000108658,0.000144878,0.000192589,0.000255436,0.000338221,0.00044727,0.000590913,0.000780128,0.00102937,0.00135769,0.00179016,0.00235983,0.00311023,0.0040987,0.00540075,0.00711588,0.00937514,0.0123511,0.0162713,0.021435,0.028237,inf	286.785,286.785,339.532,266.351,272.356,273.632,297.198,359.331,411.904,412.069,369.866,330.82,322.254,330.15,333.585,334.274,342.315,358.063,377.05,393.728,405.16,417.419,439.57,465.765,481.855,474.594,426.538,359.892,359.892,387.994,387.994,387.994
0.00164345	-13673404.25	0,1.74825e-06,4.05113e-06,7.08459e-06,1.10804e-05,1.63439e-05,2.32772e-05,3.24102e-05,4.44405e-05,6.02874e-05,8.11618e-05,0.000108658,0.000144878,0.000192589,0.000255436,0.000338221,0.00044727,0.000590913,0.000780128,0.00102937,0.00135769,0.00179016,0.00235983,0.00311023,0.0040987,0.00540075,0.00711588,0.00937514,0.0123511,0.0162713,0.021435,0.028237,inf	286.658,286.658,341.561,267.402,273.531,273.094,296.772,360.894,414.477,413.391,369.289,329.878,322.392,331.328,335.078,335.859,344.143,360.101,378.891,394.716,404.858,415.994,437.661,464.117,480.941,474.008,425.065,358.685,358.685,389.668,389.668,389.668
0.0016812	-13672911.26	0,1.74825e-06,4.05113e-06,7.08459e-06,1.10804e-05,1.63439e-05,2.32772e-05,3.24102e-05,4.44405e-05,6.02874e-05,8.11618e-05,0.000108658,0.000144878,0.000192589,0.000255436,0.000338221,0.00044727,0.000590913,0.000780128,0.00102937,0.00135769,0.00179016,0.00235983,0.00311023,0.0040987,0.00540075,0.00711588,0.00937514,0.0123511,0.0162713,0.021435,0.028237,inf	286.444,286.444,343.286,268.38,274.692,272.612,296.5,362.602,417.122,414.739,368.766,329.041,322.614,332.514,336.512,337.348,345.862,362.03,380.64,395.651,404.566,414.64,435.844,462.54,480.062,473.431,423.643,357.627,357.627,391.442,391.442,391.442
0.00171743	-13672467.67	0,1.74825e-06,4.05113e-06,7.08459e-06,1.10804e-05,1.63439e-05,2.32772e-05,3.24102e-05,4.44405e-05,6.02874e-05,8.11618e-05,0.000108658,0.000144878,0.000192589,0.000255436,0.000338221,0.00044727,0.000590913,0.000780128,0.00102937,0.00135769,0.00179016,0.00235983,0.00311023,0.0040987,0.00540075,0.00711588,0.00937514,0.0123511,0.0162713,0.021435,0.028237,inf	286.337,286.337,344.755,269.328,275.846,272.174,296.339,364.425,419.815,416.095,368.287,328.303,322.916,333.71,337.889,338.748,347.478,363.857,382.302,396.535,404.283,413.352,434.115,461.034,479.219,472.865,422.269,356.7,356.7,393.302,393.302,393.302
0.00175224	-13672067.48	0,1.74825e-06,4.05113e-06,7.08459e-06,1.10804e-05,1.63439e-05,2.32772e-05,3.24102e-05,4.44405e-05,6.02874e-05,8.11618e-05,0.000108658,0.000144878,0.000192589,0.000255436,0.000338221,0.00044727,0.000590913,0.000780128,0.00102937,0.00135769,0.00179016,0.00235983,0.00311023,0.0040987,0.00540075,0.00711588,0.00937514,0.0123511,0.0162713,0.021435,0.028237,inf	286.297,286.297,345.957,270.212,276.96,271.75,296.268,366.314,422.524,417.445,367.845,327.655,323.293,334.915,339.215,340.065,348.997,365.587,383.88,397.371,404.008,412.124,432.468,459.596,478.414,472.315,420.942,355.89,355.89,395.234,395.234,395.234
