0.000742057	-8530904.96	0,6.06396e-06,1.62784e-05,3.34842e-05,6.24667e-05,0.000111286,0.000193521,0.000332041,0.000565372,0.000958409,0.00162046,0.00273566,0.00461416,0.00777841,0.0131084,0.0220867,inf	364.824,364.824,348.012,365.714,367.331,347.503,340.905,343.478,362.052,396.493,439.775,468.804,460.281,422.72,422.72,422.72
0.000848873	-8525807.85	0,6.06396e-06,1.62784e-05,3.34842e-05,6.24667e-05,0.000111286,0.000193521,0.000332041,0.000565372,0.000958409,0.00162046,0.00273566,0.00461416,0.00777841,0.0131084,0.0220867,inf	364.314,364.314,332.986,370.433,375.409,339.359,326.31,325.384,347.427,389.81,446.862,500.452,495.713,425.526,425.526,425.526
0.000943622	-8522846.29	0,6.06396e-06,1.62784e-05,3.34842e-05,6.24667e-05,0.000111286,0.000193521,0.000332041,0.000565372,0.000958409,0.00162046,0.00273566,0.00461416,0.00777841,0.0131084,0.0220867,inf	361.81,361.81,318.143,376.723,387.911,340.801,324.712,320.848,343.266,385.583,444.103,515.085,517.783,419.742,419.742,419.742
0.0010291	-8520712.71	0,6.06396e-06,1.62784e-05,3.34842e-05,6.24667e-05,0.000111286,0.000193521,0.000332041,0.000565372,0.000958409,0.00162046,0.00273566,0.00461416,0.00777841,0.0131084,0.0220867,inf	357.507,357.507,301.314,379.095,397.187,343.094,326.858,321.45,343.81,383.334,438.168,521.118,531.664,410.202,410.202,410.202
0.00110726	-8519027.68	0,6.06396e-06,1.62784e-05,3.34842e-05,6.24667e-05,0.000111286,0.000193521,0.000332041,0.000565372,0.000958409,0.00162046,0.00273566,0.00461416,0.00777841,0.0131084,0.0220867,inf	354.257,354.257,284.814,378.688,402.701,344.236,329.762,324.033,346.592,382.43,431.473,522.699,540.446,399.468,399.468,399.468
0.00117949	-8517640.71	0,6.06396e-06,1.62784e-05,3.34842e-05,6.24667e-05,0.000111286,0.000193521,0.000332041,0.000565372,0.000958409,0.00162046,0.00273566,0.00461416,0.00777841,0.0131084,0.0220867,inf	353.141,353.141,270.233,377.387,405.576,344.164,332.493,327.296,350.435,382.402,424.895,521.946,546.003,388.816,388.816,388.816
0.00124672	-8516474.61	0,6.06396e-06,1.62784e-05,3.34842e-05,6.24667e-05,0.000111286,0.000193521,0.000332041,0.000565372,0.000958409,0.00162046,0.00273566,0.00461416,0.00777841,0.0131084,0.0220867,inf	353.881,353.881,258.035,376.426,406.921,343.243,334.816,330.671,354.737,382.932,418.738,519.977,549.496,378.835,378.835,378.835
0.00130966	-8515481.77	0,6.06396e-06,1.62784e-05,3.34842e-05,6.24667e-05,0.000111286,0.000193521,0.000332041,0.000565372,0.000958409,0.00162046,0.00273566,0.00461416,0.00777841,0.0131084,0.0220867,inf	355.834,355.834,248.08,376.389,407.499,341.839,336.731,333.91,359.172,383.811,413.076,517.404,551.658,369.756,369.756,369.756
0.00136884	-8514629.15	0,6.06396e-06,1.62784e-05,3.34842e-05,6.24667e-05,0.000111286,0.000193521,0.000332041,0.000565372,0.000958409,0.00162046,0.00273566,0.00461416,0.00777841,0.0131084,0.0220867,inf	358.319,358.319,240.015,377.45,407.764,340.23,338.307,336.911,363.563,384.899,407.898,514.564,552.956,361.628,361.628,361.628
0.00142466	-8513892.11	0,6.06396e-06,1.62784e-05,3.34842e-05,6.24667e-05,0.000111286,0.000193521,0.000332041,0.000565372,0.000958409,0.00162046,0.00273566,0.00461416,0.00777841,0.0131084,0.0220867,inf	360.875,360.875,233.44,379.558,407.948,338.597,339.622,339.641,367.816,386.106,403.162,511.647,553.696,354.415,354.415,354.415
0.00147747	-8513251.51	0,6.06396e-06,1.62784e-05,3.34842e-05,6.24667e-05,0.000111286,0.000193521,0.000332041,0.000565372,0.000958409,0.00162046,0.00273566,0.00461416,0.00777841,0.0131084,0.0220867,inf	363.218,363.218,228.017,382.579,408.163,337.056,340.747,342.103,371.882,387.372,398.818,508.757,554.075,348.041,348.041,348.041
0.00152753	-8512692.10	0,6.06396e-06,1.62784e-05,3.34842e-05,6.24667e-05,0.000111286,0.000193521,0.000332041,0.000565372,0.000958409,0.00162046,0.00273566,0.00461416,0.00777841,0.0131084,0.0220867,inf	365.214,365.214,223.464,386.337,408.443,335.669,341.739,344.313,375.74,388.658,394.818,505.952,554.226,342.418,342.418,342.418
0.00157507	-8512201.47	0,6.06396e-06,1.62784e-05,3.34842e-05,6.24667e-05,0.000111286,0.000193521,0.000332041,0.000565372,0.000958409,0.00162046,0.00273566,0.00461416,0.00777841,0.0131084,0.0220867,inf	366.791,366.791,219.562,390.666,408.783,334.468,342.64,346.293,379.384,389.939,391.118,503.259,554.236,337.458,337.458,337.458
0.00162027	-8511769.50	0,6.06396e-06,1.62784e-05,3.34842e-05,6.24667e-05,0.000111286,0.000193521,0.000332041,0.000565372,0.000958409,0.00162046,0.00273566,0.00461416,0.00777841,0.0131084,0.0220867,inf	368.003,368.003,216.151,395.418,409.169,333.466,343.481,348.067,382.818,391.199,387.681,500.692,554.161,333.078,333.078,333.078
0.00166333	-8511387.77	0,6.06396e-06,1.62784e-05,3.34842e-05,6.24667e-05,0.000111286,0.000193521,0.000332041,0.000565372,0.000958409,0.00162046,0.00273566,0.00461416,0.00777841,0.0131084,0.0220867,inf	368.906,368.906,213.108,400.465,409.572,332.664,344.285,349.655,386.051,392.429,384.475,498.254,554.04,329.205,329.205,329.205
0.00170437	-8511049.31	0,6.06396e-06,1.62784e-05,3.34842e-05,6.24667e-05,0.000111286,0.000193521,0.000332041,0.000565372,0.000958409,0.00162046,0.00273566,0.00461416,0.00777841,0.0131084,0.0220867,inf	369.536,369.536,210.345,405.695,409.969,332.054,345.067,351.08,389.093,393.624,381.472,495.941,553.898,325.772,325.772,325.772
0.00174353	-8510748.25	0,6.06396e-06,1.62784e-05,3.34842e-05,6.24667e-05,0.000111286,0.000193521,0.000332041,0.000565372,0.000958409,0.00162046,0.00273566,0.00461416,0.00777841,0.0131084,0.0220867,inf	369.976,369.976,207.797,411.038,410.341,331.626,345.839,352.357,391.956,394.782,378.649,493.749,553.752,322.723,322.723,322.723
0.00178094	-8510479.67	0,6.06396e-06,1.62784e-05,3.34842e-05,6.24667e-05,0.000111286,0.000193521,0.000332041,0.000565372,0.000958409,0.00162046,0.00273566,0.00461416,0.00777841,0.0131084,0.0220867,inf	370.281,370.281,205.41,416.422,410.667,331.365,346.606,353.504,394.653,395.901,375.987,491.672,553.612,320.006,320.006,320.006
0.0018167	-8510239.39	0,6.06396e-06,1.62784e-05,3.34842e-05,6.24667e-05,0.000111286,0.000193521,0.000332041,0.000565372,0.000958409,0.00162046,0.00273566,0.00461416,0.00777841,0.0131084,0.0220867,inf	370.489,370.489,203.158,421.798,410.934,331.258,347.372,354.533,397.195,396.983,373.469,489.703,553.486,317.58,317.58,317.58
0.0018509	-8510023.87	0,6.06396e-06,1.62784e-05,3.34842e-05,6.24667e-05,0.000111286,0.000193521,0.000332041,0.000565372,0.000958409,0.00162046,0.00273566,0.00461416,0.00777841,0.0131084,0.0220867,inf	370.625,370.625,201.01,427.129,411.132,331.292,348.14,355.457,399.592,398.029,371.082,487.833,553.377,315.406,315.406,315.406
