0.000700994	-296970.79	0,8.93555e-05,0.000211622,0.000378921,0.000607839,0.00092107,0.00134967,0.00193613,0.00273859,0.00383661,0.00533904,0.00739485,0.0102078,0.0140569,0.0193236,0.0265301,inf	341.427,341.427,299.918,323.076,353.873,384.624,417.206,440.397,450.039,447.335,422.544,404.115,383.386,338.699,338.699,338.699
0.000789996	-296807.77	0,8.93555e-05,0.000211622,0.000378921,0.000607839,0.00092107,0.00134967,0.00193613,0.00273859,0.00383661,0.00533904,0.00739485,0.0102078,0.0140569,0.0193236,0.0265301,inf	342.751,342.751,263.201,294.572,336.069,376.124,420.81,453.732,469.708,468.395,425.41,394.517,362.284,288.064,288.064,288.064
0.000872493	-296698.35	0,8.93555e-05,0.000211622,0.000378921,0.000607839,0.00092107,0.00134967,0.00193613,0.00273859,0.00383661,0.00533904,0.00739485,0.0102078,0.0140569,0.0193236,0.0265301,inf	353.859,353.859,246.161,283.578,330.313,372.941,422.365,459.206,479.479,481.262,424.692,385.524,347.634,249.114,249.114,249.114
0.000949104	-296615.24	0,8.93555e-05,0.000211622,0.000378921,0.000607839,0.00092107,0.00134967,0.00193613,0.00273859,0.00383661,0.00533904,0.00739485,0.0102078,0.0140569,0.0193236,0.0265301,inf	363.361,363.361,236.484,279.69,329.491,371.918,422.838,460.739,483.974,489.453,422.526,378.033,338.356,215.881,215.881,215.881
0.00102047	-296549.53	0,8.93555e-05,0.000211622,0.000378921,0.000607839,0.00092107,0.00134967,0.00193613,0.00273859,0.00383661,0.00533904,0.00739485,0.0102078,0.0140569,0.0193236,0.0265301,inf	369.719,369.719,230.29,279.256,330.999,371.936,422.799,460.279,485.608,494.93,419.969,372.329,333.787,184.017,184.017,184.017
0.00108701	-296496.91	0,8.93555e-05,0.000211622,0.000378921,0.000607839,0.00092107,0.00134967,0.00193613,0.00273859,0.00383661,0.00533904,0.00739485,0.0102078,0.0140569,0.0193236,0.0265301,inf	373.535,373.535,226.022,280.666,333.646,372.468,422.51,458.792,485.653,498.794,417.566,368.554,333.997,148.429,148.429,148.429
0.00114865	-296455.61	0,8.93555e-05,0.000211622,0.000378921,0.000607839,0.00092107,0.00134967,0.00193613,0.00273859,0.00383661,0.00533904,0.00739485,0.0102078,0.0140569,0.0193236,0.0265301,inf	375.612,375.612,222.918,283.074,336.785,373.2,422.046,456.734,484.778,501.711,415.719,367.157,340.936,96.2595,96.2595,96.2595
0.00120507	-296430.97	0,8.93555e-05,0.000211622,0.000378921,0.000607839,0.00092107,0.00134967,0.00193613,0.00273859,0.00383661,0.00533904,0.00739485,0.0102078,0.0140569,0.0193236,0.0265301,inf	376.653,376.653,220.586,286.029,340.08,373.974,421.468,454.403,483.509,504.519,415.632,370.969,365.097,22.6393,22.6393,22.6393
0.00125657	-296494.46	0,8.93555e-05,0.000211622,0.000378921,0.000607839,0.00092107,0.00134967,0.00193613,0.00273859,0.00383661,0.00533904,0.00739485,0.0102078,0.0140569,0.0193236,0.0265301,inf	377.549,377.549,219.051,289.626,343.755,375.102,421.209,452.498,483.229,510.58,424.198,398.546,502.937,6.01036,6.01036,6.01036
0.00130141	-296477.60	0,8.93555e-05,0.000211622,0.000378921,0.000607839,0.00092107,0.00134967,0.00193613,0.00273859,0.00383661,0.00533904,0.00739485,0.0102078,0.0140569,0.0193236,0.0265301,inf	377.333,377.333,217.517,292.876,346.704,375.35,419.634,448.523,479.377,510.244,424.096,411.596,723.725,4.69574,4.69574,4.69574
0.00134451	-296404.14	0,8.93555e-05,0.000211622,0.000378921,0.000607839,0.00092107,0.00134967,0.00193613,0.00273859,0.00383661,0.00533904,0.00739485,0.0102078,0.0140569,0.0193236,0.0265301,inf	376.994,376.994,216.277,296.329,349.831,375.912,418.315,444.355,473.982,505.138,415.511,404.959,871.417,5.80351,5.80351,5.80351
0.00138652	-296364.47	0,8.93555e-05,0.000211622,0.000378921,0.000607839,0.00092107,0.00134967,0.00193613,0.00273859,0.00383661,0.00533904,0.00739485,0.0102078,0.0140569,0.0193236,0.0265301,inf	376.641,376.641,215.256,299.962,353.264,377.132,417.983,441.335,469.509,499.993,405.813,393.787,930.756,4.74515,4.74515,4.74515
0.00142712	-296341.86	0,8.93555e-05,0.000211622,0.000378921,0.000607839,0.00092107,0.00134967,0.00193613,0.00273859,0.00383661,0.00533904,0.00739485,0.0102078,0.0140569,0.0193236,0.0265301,inf	376.195,376.195,214.256,303.451,356.61,378.621,418.306,439.317,466.235,495.974,397.19,383.224,972.482,5.73266,5.73266,5.73266
0.00146628	-296321.07	0,8.93555e-05,0.000211622,0.000378921,0.000607839,0.00092107,0.00134967,0.00193613,0.00273859,0.00383661,0.00533904,0.00739485,0.0102078,0.0140569,0.0193236,0.0265301,inf	375.749,375.749,213.232,306.657,359.638,380.066,418.896,437.893,463.785,492.798,389.457,373.302,988.281,4.792,4.792,4.792
0.00150381	-296306.21	0,8.93555e-05,0.000211622,0.000378921,0.000607839,0.00092107,0.00134967,0.00193613,0.00273859,0.00383661,0.00533904,0.00739485,0.0102078,0.0140569,0.0193236,0.0265301,inf	375.42,375.42,212.223,309.592,362.305,381.356,419.578,436.858,461.984,490.431,382.739,364.565,1010.64,5.67094,5.67094,5.67094
0.00153982	-296290.88	0,8.93555e-05,0.000211622,0.000378921,0.000607839,0.00092107,0.00134967,0.00193613,0.00273859,0.00383661,0.00533904,0.00739485,0.0102078,0.0140569,0.0193236,0.0265301,inf	375.263,375.263,211.265,312.299,364.624,382.443,420.228,436.022,460.584,488.546,376.65,356.459,1019.17,4.83902,4.83902,4.83902
0.00157422	-296279.72	0,8.93555e-05,0.000211622,0.000378921,0.000607839,0.00092107,0.00134967,0.00193613,0.00273859,0.00383661,0.00533904,0.00739485,0.0102078,0.0140569,0.0193236,0.0265301,inf	375.287,375.287,210.39,314.838,366.648,383.345,420.825,435.333,459.527,487.149,371.255,349.237,1036.58,5.60658,5.60658,5.60658
0.00160716	-296267.64	0,8.93555e-05,0.000211622,0.000378921,0.000607839,0.00092107,0.00134967,0.00193613,0.00273859,0.00383661,0.00533904,0.00739485,0.0102078,0.0140569,0.0193236,0.0265301,inf	375.446,375.446,209.604,317.246,368.417,384.07,421.333,434.705,458.671,486.018,366.268,342.459,1043.03,4.88716,4.88716,4.88716
0.0016386	-296258.93	0,8.93555e-05,0.000211622,0.000378921,0.000607839,0.00092107,0.00134967,0.00193613,0.00273859,0.00383661,0.00533904,0.00739485,0.0102078,0.0140569,0.0193236,0.0265301,inf	375.717,375.717,208.915,319.561,369.981,384.655,421.771,434.141,458.017,485.2,361.774,336.333,1057.7,5.54258,5.54258,5.54258
0.00166869	-296249.21	0,8.93555e-05,0.000211622,0.000378921,0.000607839,0.00092107,0.00134967,0.00193613,0.00273859,0.00383661,0.00533904,0.00739485,0.0102078,0.0140569,0.0193236,0.0265301,inf	376.065,376.065,208.316,321.801,371.366,385.109,422.125,433.593,457.473,484.538,357.559,330.53,1063.17,4.93515,4.93515,4.93515
