LogLikelihood = -133579.24525057242136

y0 0.31345865033394065824
y0_prime 0
y1 0.1634729412976411167
y1_prime 0
y2 2.0334051068536611595
y2_prime 0
y3 236.95084930485367636
y3_prime 0
rho 9.714294546069653525e-05
theta 0.0018404582794120294322
