0.000563984	-13378638.98	0,1.75563e-06,4.06823e-06,7.1145e-06,1.11272e-05,1.64129e-05,2.33755e-05,3.2547e-05,4.46281e-05,6.05419e-05,8.15044e-05,0.000109117,0.00014549,0.000193402,0.000256514,0.000339649,0.000449158,0.000593408,0.000783422,0.00103372,0.00136342,0.00179772,0.00236979,0.00312336,0.004116,0.00542355,0.00714592,0.00941471,0.0124033,0.0163399,0.0215255,0.0283562,inf	1471.42,1471.42,160.389,370.144,434.347,449.58,360.119,323.801,363.474,382.269,381.665,378.79,379.82,381.672,383.433,387.382,390.362,392.162,393.314,395.1,395.468,394.945,395.626,395.736,394.322,390.795,388.945,383.852,383.852,150.706,150.706,150.706
0.000514748	-13376316.93	0,1.75563e-06,4.06823e-06,7.1145e-06,1.11272e-05,1.64129e-05,2.33755e-05,3.2547e-05,4.46281e-05,6.05419e-05,8.15044e-05,0.000109117,0.00014549,0.000193402,0.000256514,0.000339649,0.000449158,0.000593408,0.000783422,0.00103372,0.00136342,0.00179772,0.00236979,0.00312336,0.004116,0.00542355,0.00714592,0.00941471,0.0124033,0.0163399,0.0215255,0.0283562,inf	1768.81,1768.81,63.2704,351.061,475.902,525.16,357.378,286.682,358.151,392.018,388.278,378.366,377.612,378.478,378.369,383.337,387.154,389.237,390.568,393.761,394.277,392.965,394.243,394.561,392.221,385.957,383.1,382.928,382.928,6.73207,6.73207,6.73207
0.000471267	-13376707.75	0,1.75563e-06,4.06823e-06,7.1145e-06,1.11272e-05,1.64129e-05,2.33755e-05,3.2547e-05,4.46281e-05,6.05419e-05,8.15044e-05,0.000109117,0.00014549,0.000193402,0.000256514,0.000339649,0.000449158,0.000593408,0.000783422,0.00103372,0.00136342,0.00179772,0.00236979,0.00312336,0.004116,0.00542355,0.00714592,0.00941471,0.0124033,0.0163399,0.0215255,0.0283562,inf	1913.2,1913.2,24.1892,327.191,503.236,598.082,362.99,259.873,359.534,408.014,401.284,383.307,381.099,380.655,377.307,382.068,385.859,387.625,388.833,393.552,394.44,392.514,394.728,395.853,393.977,387.527,388.571,467.819,467.819,0.0111297,0.0111297,0.0111297
0.000434998	-13374649.76	0,1.75563e-06,4.06823e-06,7.1145e-06,1.11272e-05,1.64129e-05,2.33755e-05,3.2547e-05,4.46281e-05,6.05419e-05,8.15044e-05,0.000109117,0.00014549,0.000193402,0.000256514,0.000339649,0.000449158,0.000593408,0.000783422,0.00103372,0.00136342,0.00179772,0.00236979,0.00312336,0.004116,0.00542355,0.00714592,0.00941471,0.0124033,0.0163399,0.0215255,0.0283562,inf	2031.45,2031.45,9.00704,301.196,518.311,663.91,372.723,237.825,362.223,425.431,417.629,391.747,387.823,385.807,378.503,382.305,385.456,386.307,386.953,393.066,394.242,391.471,394.261,395.566,393.161,384.074,382.052,491.488,491.488,0.000925899,0.000925899,0.000925899
0.000404967	-13373250.11	0,1.75563e-06,4.06823e-06,7.1145e-06,1.11272e-05,1.64129e-05,2.33755e-05,3.2547e-05,4.46281e-05,6.05419e-05,8.15044e-05,0.000109117,0.00014549,0.000193402,0.000256514,0.000339649,0.000449158,0.000593408,0.000783422,0.00103372,0.00136342,0.00179772,0.00236979,0.00312336,0.004116,0.00542355,0.00714592,0.00941471,0.0124033,0.0163399,0.0215255,0.0283562,inf	2134.96,2134.96,3.28196,275.686,524.222,720.373,384.482,218.341,363.605,440.741,433.143,399.751,394.944,391.832,380.489,383.081,385.43,385.122,385.044,392.599,394.16,390.592,393.987,395.519,392.928,381.344,374.226,497.175,497.175,0.000510045,0.000510045,0.000510045
0.000380244	-13372297.22	0,1.75563e-06,4.06823e-06,7.1145e-06,1.11272e-05,1.64129e-05,2.33755e-05,3.2547e-05,4.46281e-05,6.05419e-05,8.15044e-05,0.000109117,0.00014549,0.000193402,0.000256514,0.000339649,0.000449158,0.000593408,0.000783422,0.00103372,0.00136342,0.00179772,0.00236979,0.00312336,0.004116,0.00542355,0.00714592,0.00941471,0.0124033,0.0163399,0.0215255,0.0283562,inf	2227.68,2227.68,1.18249,252.795,525.045,768.319,398.192,201.137,363.791,453.718,447.38,406.849,401.909,398.176,382.901,384.191,385.707,384.071,383.127,392.102,394.072,389.725,393.724,395.543,393.33,380.052,367.12,495.507,495.507,0.000474092,0.000474092,0.000474092
0.000360004	-13371636.35	0,1.75563e-06,4.06823e-06,7.1145e-06,1.11272e-05,1.64129e-05,2.33755e-05,3.2547e-05,4.46281e-05,6.05419e-05,8.15044e-05,0.000109117,0.00014549,0.000193402,0.000256514,0.000339649,0.000449158,0.000593408,0.000783422,0.00103372,0.00136342,0.00179772,0.00236979,0.00312336,0.004116,0.00542355,0.00714592,0.00941471,0.0124033,0.0163399,0.0215255,0.0283562,inf	2310.32,2310.32,0.424695,232.915,523.072,808.093,413.455,185.895,363.027,464.425,460.115,412.81,408.359,404.426,385.436,385.447,386.209,383.152,381.239,391.585,393.939,388.799,393.325,395.387,394.051,380.09,361.171,491.107,491.107,0.000459603,0.000459603,0.000459603
0.000343523	-13371182.53	0,1.75563e-06,4.06823e-06,7.1145e-06,1.11272e-05,1.64129e-05,2.33755e-05,3.2547e-05,4.46281e-05,6.05419e-05,8.15044e-05,0.000109117,0.00014549,0.000193402,0.000256514,0.000339649,0.000449158,0.000593408,0.000783422,0.00103372,0.00136342,0.00179772,0.00236979,0.00312336,0.004116,0.00542355,0.00714592,0.00941471,0.0124033,0.0163399,0.0215255,0.0283562,inf	2382.31,2382.31,0.401565,216.067,519.975,840.073,429.868,172.332,361.597,473.075,471.353,417.596,414.106,410.327,387.895,386.715,386.872,382.371,379.433,391.093,393.791,387.844,392.777,394.929,394.803,381.163,356.342,485.911,485.911,0.00044994,0.00044994,0.00044994
0.000330173	-13370877.04	0,1.75563e-06,4.06823e-06,7.1145e-06,1.11272e-05,1.64129e-05,2.33755e-05,3.2547e-05,4.46281e-05,6.05419e-05,8.15044e-05,0.000109117,0.00014549,0.000193402,0.000256514,0.000339649,0.000449158,0.000593408,0.000783422,0.00103372,0.00136342,0.00179772,0.00236979,0.00312336,0.004116,0.00542355,0.00714592,0.00941471,0.0124033,0.0163399,0.0215255,0.0283562,inf	2444.1,2444.1,0.401565,201.856,516.508,864.851,447.058,160.213,359.751,479.994,481.213,421.273,419.086,415.735,390.15,387.903,387.636,381.719,377.74,390.667,393.672,386.921,392.141,394.167,395.402,382.975,352.466,480.755,480.755,0.000442491,0.000442491,0.000442491
0.000319407	-13370676.27	0,1.75563e-06,4.06823e-06,7.1145e-06,1.11272e-05,1.64129e-05,2.33755e-05,3.2547e-05,4.46281e-05,6.05419e-05,8.15044e-05,0.000109117,0.00014549,0.000193402,0.000256514,0.000339649,0.000449158,0.000593408,0.000783422,0.00103372,0.00136342,0.00179772,0.00236979,0.00312336,0.004116,0.00542355,0.00714592,0.00941471,0.0124033,0.0163399,0.0215255,0.0283562,inf	2496.24,2496.24,0.401565,189.934,513.333,883.087,464.681,149.312,357.686,485.462,489.833,423.965,423.319,420.587,392.131,388.951,388.457,381.181,376.17,390.321,393.607,386.086,391.5,393.164,395.757,385.278,349.36,475.999,475.999,0.000436628,0.000436628,0.000436628
0.00031076	-13370547.81	0,1.75563e-06,4.06823e-06,7.1145e-06,1.11272e-05,1.64129e-05,2.33755e-05,3.2547e-05,4.46281e-05,6.05419e-05,8.15044e-05,0.000109117,0.00014549,0.000193402,0.000256514,0.000339649,0.000449158,0.000593408,0.000783422,0.00103372,0.00136342,0.00179772,0.00236979,0.00312336,0.004116,0.00542355,0.00714592,0.00941471,0.0124033,0.0163399,0.0215255,0.0283562,inf	2539.7,2539.7,0.401565,179.977,510.906,895.537,482.439,139.448,355.56,489.755,497.384,425.805,426.849,424.879,393.812,389.833,389.299,380.741,374.72,390.055,393.602,385.367,390.922,392.006,395.845,387.872,346.855,471.781,471.781,0.000432233,0.000432233,0.000432233
0.000303836	-13370468.06	0,1.75563e-06,4.06823e-06,7.1145e-06,1.11272e-05,1.64129e-05,2.33755e-05,3.2547e-05,4.46281e-05,6.05419e-05,8.15044e-05,0.000109117,0.00014549,0.000193402,0.000256514,0.000339649,0.000449158,0.000593408,0.000783422,0.00103372,0.00136342,0.00179772,0.00236979,0.00312336,0.004116,0.00542355,0.00714592,0.00941471,0.0124033,0.0163399,0.0215255,0.0283562,inf	2576.07,2576.07,0.401565,171.583,509.356,903.007,500.127,130.469,353.455,493.09,504.018,426.927,429.759,428.638,395.196,390.542,390.141,380.386,373.385,389.858,393.649,384.773,390.454,390.776,395.679,390.611,344.813,468.134,468.134,0.000428781,0.000428781,0.000428781
0.000298308	-13370420.33	0,1.75563e-06,4.06823e-06,7.1145e-06,1.11272e-05,1.64129e-05,2.33755e-05,3.2547e-05,4.46281e-05,6.05419e-05,8.15044e-05,0.000109117,0.00014549,0.000193402,0.000256514,0.000339649,0.000449158,0.000593408,0.000783422,0.00103372,0.00136342,0.00179772,0.00236979,0.00312336,0.004116,0.00542355,0.00714592,0.00941471,0.0124033,0.0163399,0.0215255,0.0283562,inf	2605.68,2605.68,0.401565,164.462,508.725,906.287,517.531,122.257,351.443,495.663,509.873,427.474,432.132,431.916,396.302,391.082,390.969,380.105,372.154,389.719,393.732,384.295,390.121,389.544,395.294,393.385,343.121,465.039,465.039,0.000426363,0.000426363,0.000426363
0.000293904	-13370393.08	0,1.75563e-06,4.06823e-06,7.1145e-06,1.11272e-05,1.64129e-05,2.33755e-05,3.2547e-05,4.46281e-05,6.05419e-05,8.15044e-05,0.000109117,0.00014549,0.000193402,0.000256514,0.000339649,0.000449158,0.000593408,0.000783422,0.00103372,0.00136342,0.00179772,0.00236979,0.00312336,0.004116,0.00542355,0.00714592,0.00941471,0.0124033,0.0163399,0.0215255,0.0283562,inf	2630.29,2630.29,0.401565,158.325,509.08,906.134,534.5,114.703,349.572,497.607,515.064,427.553,434.052,434.766,397.162,391.468,391.775,379.89,371.02,389.625,393.837,383.914,389.926,388.358,394.733,396.119,341.689,462.448,462.448,0.00042409,0.00042409,0.00042409
0.000290401	-13370378.59	0,1.75563e-06,4.06823e-06,7.1145e-06,1.11272e-05,1.64129e-05,2.33755e-05,3.2547e-05,4.46281e-05,6.05419e-05,8.15044e-05,0.000109117,0.00014549,0.000193402,0.000256514,0.000339649,0.000449158,0.000593408,0.000783422,0.00103372,0.00136342,0.00179772,0.00236979,0.00312336,0.004116,0.00542355,0.00714592,0.00941471,0.0124033,0.0163399,0.0215255,0.0283562,inf	2650.32,2650.32,0.401565,152.986,510.383,903.194,550.951,107.734,347.856,499.071,519.704,427.253,435.597,437.248,397.804,391.719,392.558,379.734,369.976,389.569,393.948,383.61,389.865,387.252,394.037,398.762,340.449,460.305,460.305,0.000422582,0.000422582,0.000422582
0.000287629	-13370371.81	0,1.75563e-06,4.06823e-06,7.1145e-06,1.11272e-05,1.64129e-05,2.33755e-05,3.2547e-05,4.46281e-05,6.05419e-05,8.15044e-05,0.000109117,0.00014549,0.000193402,0.000256514,0.000339649,0.000449158,0.000593408,0.000783422,0.00103372,0.00136342,0.00179772,0.00236979,0.00312336,0.004116,0.00542355,0.00714592,0.00941471,0.0124033,0.0163399,0.0215255,0.0283562,inf	2668.01,2668.01,0.401565,148.341,512.967,898.722,567.187,101.335,346.563,500.484,524.245,426.95,437.119,439.695,398.505,392.077,393.519,379.806,369.16,389.668,394.147,383.419,389.954,386.258,393.256,401.309,339.363,458.58,458.58,0.000421363,0.000421363,0.000421363
0.000285423	-13370369.18	0,1.75563e-06,4.06823e-06,7.1145e-06,1.11272e-05,1.64129e-05,2.33755e-05,3.2547e-05,4.46281e-05,6.05419e-05,8.15044e-05,0.000109117,0.00014549,0.000193402,0.000256514,0.000339649,0.000449158,0.000593408,0.000783422,0.00103372,0.00136342,0.00179772,0.00236979,0.00312336,0.004116,0.00542355,0.00714592,0.00941471,0.0124033,0.0163399,0.0215255,0.0283562,inf	2680.28,2680.28,0.401565,144.038,515.896,891.792,582.3,95.3082,345.178,501.191,527.997,426.114,438.089,441.59,398.808,392.115,394.254,379.76,368.288,389.68,394.25,383.209,390.109,385.351,392.394,403.698,338.367,457.153,457.153,0.000420393,0.000420393,0.000420393
0.000283672	-13370369.29	0,1.75563e-06,4.06823e-06,7.1145e-06,1.11272e-05,1.64129e-05,2.33755e-05,3.2547e-05,4.46281e-05,6.05419e-05,8.15044e-05,0.000109117,0.00014549,0.000193402,0.000256514,0.000339649,0.000449158,0.000593408,0.000783422,0.00103372,0.00136342,0.00179772,0.00236979,0.00312336,0.004116,0.00542355,0.00714592,0.00941471,0.0124033,0.0163399,0.0215255,0.0283562,inf	2690.5,2690.5,0.401565,140.057,519.548,883.587,596.727,89.6917,343.947,501.606,531.379,425.075,438.822,443.221,398.944,392.025,394.919,379.719,367.455,389.691,394.319,383.012,390.342,384.553,391.492,405.934,337.446,456,456,0.000419631,0.000419631,0.000419631
0.000282285	-13370370.66	0,1.75563e-06,4.06823e-06,7.1145e-06,1.11272e-05,1.64129e-05,2.33755e-05,3.2547e-05,4.46281e-05,6.05419e-05,8.15044e-05,0.000109117,0.00014549,0.000193402,0.000256514,0.000339649,0.000449158,0.000593408,0.000783422,0.00103372,0.00136342,0.00179772,0.00236979,0.00312336,0.004116,0.00542355,0.00714592,0.00941471,0.0124033,0.0163399,0.0215255,0.0283562,inf	2698.32,2698.32,0.401565,136.321,523.81,874.43,610.461,84.4484,342.89,501.813,534.49,423.916,439.402,444.669,398.975,391.861,395.552,379.708,366.682,389.721,394.371,382.824,390.639,383.86,390.572,408.02,336.583,455.079,455.079,0.000418824,0.000418824,0.000418824
0.000281187	-13370372.52	0,1.75563e-06,4.06823e-06,7.1145e-06,1.11272e-05,1.64129e-05,2.33755e-05,3.2547e-05,4.46281e-05,6.05419e-05,8.15044e-05,0.000109117,0.00014549,0.000193402,0.000256514,0.000339649,0.000449158,0.000593408,0.000783422,0.00103372,0.00136342,0.00179772,0.00236979,0.00312336,0.004116,0.00542355,0.00714592,0.00941471,0.0124033,0.0163399,0.0215255,0.0283562,inf	2704.98,2704.98,0.401565,132.748,528.682,864.664,623.543,79.5453,342.004,501.869,537.379,422.681,439.875,445.979,398.933,391.644,396.158,379.73,365.97,389.774,394.409,382.641,390.985,383.268,389.652,409.961,335.766,454.352,454.352,0.000418558,0.000418558,0.000418558
0.000280318	-13370374.46	0,1.75563e-06,4.06823e-06,7.1145e-06,1.11272e-05,1.64129e-05,2.33755e-05,3.2547e-05,4.46281e-05,6.05419e-05,8.15044e-05,0.000109117,0.00014549,0.000193402,0.000256514,0.000339649,0.000449158,0.000593408,0.000783422,0.00103372,0.00136342,0.00179772,0.00236979,0.00312336,0.004116,0.00542355,0.00714592,0.00941471,0.0124033,0.0163399,0.0215255,0.0283562,inf	2709.9,2709.9,0.401565,129.339,534.088,854.474,635.954,74.9519,341.267,501.785,540.078,421.391,440.254,447.171,398.831,391.383,396.741,379.779,365.313,389.849,394.435,382.455,391.366,382.766,388.742,411.763,334.985,453.782,453.782,0.000418209,0.000418209,0.000418209
0.000279631	-13370376.27	0,1.75563e-06,4.06823e-06,7.1145e-06,1.11272e-05,1.64129e-05,2.33755e-05,3.2547e-05,4.46281e-05,6.05419e-05,8.15044e-05,0.000109117,0.00014549,0.000193402,0.000256514,0.000339649,0.000449158,0.000593408,0.000783422,0.00103372,0.00136342,0.00179772,0.00236979,0.00312336,0.004116,0.00542355,0.00714592,0.00941471,0.0124033,0.0163399,0.0215255,0.0283562,inf	2714.56,2714.56,0.401565,125.982,539.869,843.966,647.701,70.6463,340.666,501.59,542.603,420.067,440.568,448.269,398.685,391.09,397.299,379.851,364.705,389.945,394.451,382.263,391.77,382.346,387.851,413.436,334.235,453.343,453.343,0.000417811,0.000417811,0.000417811
0.000279087	-13370377.85	0,1.75563e-06,4.06823e-06,7.1145e-06,1.11272e-05,1.64129e-05,2.33755e-05,3.2547e-05,4.46281e-05,6.05419e-05,8.15044e-05,0.000109117,0.00014549,0.000193402,0.000256514,0.000339649,0.000449158,0.000593408,0.000783422,0.00103372,0.00136342,0.00179772,0.00236979,0.00312336,0.004116,0.00542355,0.00714592,0.00941471,0.0124033,0.0163399,0.0215255,0.0283562,inf	2717.87,2717.87,0.401565,122.656,546.024,833.385,658.82,66.6012,340.188,501.293,544.981,418.723,440.827,449.285,398.506,390.769,397.833,379.941,364.142,390.06,394.459,382.064,392.186,381.997,386.985,414.988,333.513,453.009,453.009,0.000417869,0.000417869,0.000417869
0.00027868	-13370379.17	0,1.75563e-06,4.06823e-06,7.1145e-06,1.11272e-05,1.64129e-05,2.33755e-05,3.2547e-05,4.46281e-05,6.05419e-05,8.15044e-05,0.000109117,0.00014549,0.000193402,0.000256514,0.000339649,0.000449158,0.000593408,0.000783422,0.00103372,0.00136342,0.00179772,0.00236979,0.00312336,0.004116,0.00542355,0.00714592,0.00941471,0.0124033,0.0163399,0.0215255,0.0283562,inf	2720.91,2720.91,0.401565,119.319,552.613,822.886,669.526,62.8123,339.914,501.02,547.411,417.478,441.163,450.395,398.441,390.555,398.503,380.212,363.757,390.358,394.631,382.009,392.763,381.848,386.33,416.527,332.881,452.847,452.847,0.000417589,0.000417589,0.000417589
0.000278346	-13370379.20	0,1.75563e-06,4.06823e-06,7.1145e-06,1.11272e-05,1.64129e-05,2.33755e-05,3.2547e-05,4.46281e-05,6.05419e-05,8.15044e-05,0.000109117,0.00014549,0.000193402,0.000256514,0.000339649,0.000449158,0.000593408,0.000783422,0.00103372,0.00136342,0.00179772,0.00236979,0.00312336,0.004116,0.00542355,0.00714592,0.00941471,0.0124033,0.0163399,0.0215255,0.0283562,inf	2722.72,2722.72,0.401565,115.976,559.36,812.234,679.503,59.2335,339.667,500.556,549.58,416.121,441.336,451.306,398.229,390.194,399.008,380.352,363.27,390.522,394.647,381.801,393.197,381.627,385.586,417.868,332.213,452.65,452.65,0.00041738,0.00041738,0.00041738
0.000278077	-13370380.03	0,1.75563e-06,4.06823e-06,7.1145e-06,1.11272e-05,1.64129e-05,2.33755e-05,3.2547e-05,4.46281e-05,6.05419e-05,8.15044e-05,0.000109117,0.00014549,0.000193402,0.000256514,0.000339649,0.000449158,0.000593408,0.000783422,0.00103372,0.00136342,0.00179772,0.00236979,0.00312336,0.004116,0.00542355,0.00714592,0.00941471,0.0124033,0.0163399,0.0215255,0.0283562,inf	2724.27,2724.27,0.401565,112.618,566.291,801.671,688.922,55.8637,339.502,500.007,551.618,414.749,441.462,452.141,397.979,389.792,399.453,380.462,362.778,390.664,394.623,381.55,393.587,381.415,384.834,419.086,331.556,452.502,452.502,0.00041738,0.00041738,0.00041738
0.000277863	-13370380.84	0,1.75563e-06,4.06823e-06,7.1145e-06,1.11272e-05,1.64129e-05,2.33755e-05,3.2547e-05,4.46281e-05,6.05419e-05,8.15044e-05,0.000109117,0.00014549,0.000193402,0.000256514,0.000339649,0.000449158,0.000593408,0.000783422,0.00103372,0.00136342,0.00179772,0.00236979,0.00312336,0.004116,0.00542355,0.00714592,0.00941471,0.0124033,0.0163399,0.0215255,0.0283562,inf	2725.72,2725.72,0.401565,109.32,573.383,791.236,697.791,52.6905,339.418,499.407,553.566,413.393,441.564,452.933,397.721,389.381,399.869,380.569,362.307,390.812,394.593,381.286,393.961,381.237,384.1,420.21,330.92,452.404,452.404,0.00041715,0.00041715,0.00041715
0.000277693	-13370381.49	0,1.75563e-06,4.06823e-06,7.1145e-06,1.11272e-05,1.64129e-05,2.33755e-05,3.2547e-05,4.46281e-05,6.05419e-05,8.15044e-05,0.000109117,0.00014549,0.000193402,0.000256514,0.000339649,0.000449158,0.000593408,0.000783422,0.00103372,0.00136342,0.00179772,0.00236979,0.00312336,0.004116,0.00542355,0.00714592,0.00941471,0.0124033,0.0163399,0.0215255,0.0283562,inf	2726.74,2726.74,0.401565,105.937,580.605,781.013,706.179,49.698,339.417,498.77,555.442,412.064,441.672,453.697,397.468,388.971,400.267,380.68,361.859,390.973,394.566,381.02,394.327,381.096,383.393,421.255,330.309,452.347,452.347,0.000417002,0.000417002,0.000417002
0.000277558	-13370381.97	0,1.75563e-06,4.06823e-06,7.1145e-06,1.11272e-05,1.64129e-05,2.33755e-05,3.2547e-05,4.46281e-05,6.05419e-05,8.15044e-05,0.000109117,0.00014549,0.000193402,0.000256514,0.000339649,0.000449158,0.000593408,0.000783422,0.00103372,0.00136342,0.00179772,0.00236979,0.00312336,0.004116,0.00542355,0.00714592,0.00941471,0.0124033,0.0163399,0.0215255,0.0283562,inf	2727.13,2727.13,0.401565,102.555,587.934,771.078,714.097,46.8817,339.491,498.093,557.249,410.756,441.766,454.429,397.218,388.565,400.647,380.793,361.434,391.147,394.545,380.754,394.683,380.989,382.718,422.231,329.723,452.322,452.322,0.000417058,0.000417058,0.000417058
0.000277451	-13370382.30	0,1.75563e-06,4.06823e-06,7.1145e-06,1.11272e-05,1.64129e-05,2.33755e-05,3.2547e-05,4.46281e-05,6.05419e-05,8.15044e-05,0.000109117,0.00014549,0.000193402,0.000256514,0.000339649,0.000449158,0.000593408,0.000783422,0.00103372,0.00136342,0.00179772,0.00236979,0.00312336,0.004116,0.00542355,0.00714592,0.00941471,0.0124033,0.0163399,0.0215255,0.0283562,inf	2728.08,2728.08,0.401565,99.1856,595.366,761.304,721.585,44.226,339.618,497.386,558.996,409.482,441.854,455.136,396.974,388.164,401.013,380.909,361.029,391.331,394.529,380.489,395.03,380.914,382.072,423.145,329.16,452.319,452.319,0.000416918,0.000416918,0.000416918
0.000277367	-13370382.52	0,1.75563e-06,4.06823e-06,7.1145e-06,1.11272e-05,1.64129e-05,2.33755e-05,3.2547e-05,4.46281e-05,6.05419e-05,8.15044e-05,0.000109117,0.00014549,0.000193402,0.000256514,0.000339649,0.000449158,0.000593408,0.000783422,0.00103372,0.00136342,0.00179772,0.00236979,0.00312336,0.004116,0.00542355,0.00714592,0.00941471,0.0124033,0.0163399,0.0215255,0.0283562,inf	2728.08,2728.08,0.401565,95.829,602.778,751.809,728.691,41.7254,339.8,496.649,560.685,408.231,441.938,455.821,396.74,387.771,401.366,381.027,360.641,391.524,394.519,380.226,395.364,380.865,381.457,424.003,328.622,452.334,452.334,0.000416882,0.000416882,0.000416882
0.000277301	-13370382.65	0,1.75563e-06,4.06823e-06,7.1145e-06,1.11272e-05,1.64129e-05,2.33755e-05,3.2547e-05,4.46281e-05,6.05419e-05,8.15044e-05,0.000109117,0.00014549,0.000193402,0.000256514,0.000339649,0.000449158,0.000593408,0.000783422,0.00103372,0.00136342,0.00179772,0.00236979,0.00312336,0.004116,0.00542355,0.00714592,0.00941471,0.0124033,0.0163399,0.0215255,0.0283562,inf	2728.99,2728.99,0.401565,92.413,610.245,742.571,735.409,39.3665,340.038,495.883,562.322,407.007,442.019,456.482,396.513,387.385,401.705,381.144,360.268,391.724,394.515,379.964,395.685,380.838,380.871,424.808,328.107,452.362,452.362,0.000416925,0.000416925,0.000416925
0.000277249	-13370382.71	0,1.75563e-06,4.06823e-06,7.1145e-06,1.11272e-05,1.64129e-05,2.33755e-05,3.2547e-05,4.46281e-05,6.05419e-05,8.15044e-05,0.000109117,0.00014549,0.000193402,0.000256514,0.000339649,0.000449158,0.000593408,0.000783422,0.00103372,0.00136342,0.00179772,0.00236979,0.00312336,0.004116,0.00542355,0.00714592,0.00941471,0.0124033,0.0163399,0.0215255,0.0283562,inf	2728.99,2728.99,0.401565,89.026,617.583,733.574,741.752,37.1407,340.309,495.104,563.915,405.813,442.1,457.121,396.296,387.008,402.032,381.261,359.907,391.928,394.515,379.703,395.993,380.83,380.313,425.566,327.614,452.399,452.399,0.000416933,0.000416933,0.000416933
0.000277208	-13370382.71	0,1.75563e-06,4.06823e-06,7.1145e-06,1.11272e-05,1.64129e-05,2.33755e-05,3.2547e-05,4.46281e-05,6.05419e-05,8.15044e-05,0.000109117,0.00014549,0.000193402,0.000256514,0.000339649,0.000449158,0.000593408,0.000783422,0.00103372,0.00136342,0.00179772,0.00236979,0.00312336,0.004116,0.00542355,0.00714592,0.00941471,0.0124033,0.0163399,0.0215255,0.0283562,inf	2729.06,2729.06,0.401565,85.6846,625.045,724.81,747.787,35.0414,340.625,494.296,565.453,404.647,442.175,457.739,396.087,386.64,402.345,381.377,359.557,392.136,394.52,379.447,396.287,380.839,379.78,426.281,327.144,452.443,452.443,0.00041673,0.00041673,0.00041673
0.000277176	-13370382.68	0,1.75563e-06,4.06823e-06,7.1145e-06,1.11272e-05,1.64129e-05,2.33755e-05,3.2547e-05,4.46281e-05,6.05419e-05,8.15044e-05,0.000109117,0.00014549,0.000193402,0.000256514,0.000339649,0.000449158,0.000593408,0.000783422,0.00103372,0.00136342,0.00179772,0.00236979,0.00312336,0.004116,0.00542355,0.00714592,0.00941471,0.0124033,0.0163399,0.0215255,0.0283562,inf	2729.8,2729.8,0.401565,82.3666,632.291,716.312,753.503,33.0593,340.97,493.482,566.966,403.509,442.249,458.337,395.888,386.282,402.647,381.492,359.218,392.346,394.528,379.193,396.567,380.861,379.273,426.955,326.695,452.492,452.492,0.000416685,0.000416685,0.000416685
0.000277151	-13370382.62	0,1.75563e-06,4.06823e-06,7.1145e-06,1.11272e-05,1.64129e-05,2.33755e-05,3.2547e-05,4.46281e-05,6.05419e-05,8.15044e-05,0.000109117,0.00014549,0.000193402,0.000256514,0.000339649,0.000449158,0.000593408,0.000783422,0.00103372,0.00136342,0.00179772,0.00236979,0.00312336,0.004116,0.00542355,0.00714592,0.00941471,0.0124033,0.0163399,0.0215255,0.0283562,inf	2729.8,2729.8,0.401565,79.1114,639.542,708.027,758.918,31.1893,341.344,492.651,568.438,402.396,442.321,458.915,395.696,385.931,402.938,381.605,358.887,392.556,394.541,378.942,396.833,380.894,378.789,427.591,326.267,452.544,452.544,0.000416859,0.000416859,0.000416859
0.000277132	-13370382.53	0,1.75563e-06,4.06823e-06,7.1145e-06,1.11272e-05,1.64129e-05,2.33755e-05,3.2547e-05,4.46281e-05,6.05419e-05,8.15044e-05,0.000109117,0.00014549,0.000193402,0.000256514,0.000339649,0.000449158,0.000593408,0.000783422,0.00103372,0.00136342,0.00179772,0.00236979,0.00312336,0.004116,0.00542355,0.00714592,0.00941471,0.0124033,0.0163399,0.0215255,0.0283562,inf	2729.8,2729.8,0.401565,75.9022,646.748,700.017,764.093,29.4236,341.729,491.803,569.89,401.319,442.39,459.474,395.512,385.589,403.219,381.717,358.564,392.767,394.557,378.695,397.086,380.937,378.327,428.192,325.858,452.598,452.598,0.000416843,0.000416843,0.000416843
0.000277117	-13370382.42	0,1.75563e-06,4.06823e-06,7.1145e-06,1.11272e-05,1.64129e-05,2.33755e-05,3.2547e-05,4.46281e-05,6.05419e-05,8.15044e-05,0.000109117,0.00014549,0.000193402,0.000256514,0.000339649,0.000449158,0.000593408,0.000783422,0.00103372,0.00136342,0.00179772,0.00236979,0.00312336,0.004116,0.00542355,0.00714592,0.00941471,0.0124033,0.0163399,0.0215255,0.0283562,inf	2729.8,2729.8,0.401565,72.7298,653.782,692.208,769.015,27.7571,342.151,490.951,571.294,400.258,442.456,460.014,395.337,385.258,403.49,381.828,358.248,392.977,394.576,378.453,397.325,380.987,377.886,428.761,325.469,452.653,452.653,0.000416955,0.000416955,0.000416955
0.000277105	-13370382.31	0,1.75563e-06,4.06823e-06,7.1145e-06,1.11272e-05,1.64129e-05,2.33755e-05,3.2547e-05,4.46281e-05,6.05419e-05,8.15044e-05,0.000109117,0.00014549,0.000193402,0.000256514,0.000339649,0.000449158,0.000593408,0.000783422,0.00103372,0.00136342,0.00179772,0.00236979,0.00312336,0.004116,0.00542355,0.00714592,0.00941471,0.0124033,0.0163399,0.0215255,0.0283562,inf	2729.8,2729.8,0.401565,69.6352,660.751,684.649,773.691,26.1842,342.578,490.082,572.656,399.225,442.521,460.538,395.17,384.935,403.752,381.937,357.938,393.186,394.599,378.216,397.551,381.044,377.465,429.299,325.099,452.708,452.708,0.000416947,0.000416947,0.000416947
0.000277097	-13370382.19	0,1.75563e-06,4.06823e-06,7.1145e-06,1.11272e-05,1.64129e-05,2.33755e-05,3.2547e-05,4.46281e-05,6.05419e-05,8.15044e-05,0.000109117,0.00014549,0.000193402,0.000256514,0.000339649,0.000449158,0.000593408,0.000783422,0.00103372,0.00136342,0.00179772,0.00236979,0.00312336,0.004116,0.00542355,0.00714592,0.00941471,0.0124033,0.0163399,0.0215255,0.0283562,inf	2729.8,2729.8,0.401565,66.6021,667.618,677.297,778.17,24.6958,343.021,489.221,573.998,398.22,442.586,461.042,395.01,384.623,404.005,382.044,357.635,393.393,394.624,377.984,397.765,381.107,377.062,429.808,324.746,452.763,452.763,0.000417117,0.000417117,0.000417117
