time_index	left_time_boundary	right_time_boundary	lambda
0	0	1.75563e-06	2704.97
1	1.75563e-06	4.06823e-06	2704.97
2	4.06823e-06	7.1145e-06	0.401564
3	7.1145e-06	1.11272e-05	132.899
4	1.11272e-05	1.64129e-05	528.609
5	1.64129e-05	2.33755e-05	864.685
6	2.33755e-05	3.2547e-05	623.551
7	3.2547e-05	4.46281e-05	79.5522
8	4.46281e-05	6.05419e-05	341.993
9	6.05419e-05	8.15044e-05	501.896
10	8.15044e-05	0.000109117	537.363
11	0.000109117	0.00014549	422.682
12	0.00014549	0.000193402	439.878
13	0.000193402	0.000256514	445.978
14	0.000256514	0.000339649	398.935
15	0.000339649	0.000449158	391.64
16	0.000449158	0.000593408	396.159
17	0.000593408	0.000783422	379.73
18	0.000783422	0.00103372	365.97
19	0.00103372	0.00136342	389.774
20	0.00136342	0.00179772	394.409
21	0.00179772	0.00236979	382.64
22	0.00236979	0.00312336	390.986
23	0.00312336	0.004116	383.267
24	0.004116	0.00542355	389.652
25	0.00542355	0.00714592	409.961
26	0.00714592	0.00941471	335.766
27	0.00941471	0.0124033	454.351
28	0.0124033	0.0163399	454.351
29	0.0163399	0.0215255	0.00041854
30	0.0215255	0.0283562	0.00041854
31	0.0283562	inf	0.00041854
