time_index	left_time_boundary	right_time_boundary	lambda
0	0	4.85965e-06	381.898
1	4.85965e-06	1.11453e-05	381.898
2	1.11453e-05	1.92754e-05	381.898
3	1.92754e-05	2.97912e-05	381.898
4	2.97912e-05	4.33928e-05	381.898
5	4.33928e-05	6.09855e-05	381.898
6	6.09855e-05	8.37407e-05	381.898
7	8.37407e-05	0.000113173	381.898
8	0.000113173	0.000151242	381.898
9	0.000151242	0.000200482	381.898
10	0.000200482	0.000264171	381.898
11	0.000264171	0.000346549	381.898
12	0.000346549	0.000453099	381.898
13	0.000453099	0.000590915	381.898
14	0.000590915	0.000769173	381.898
15	0.000769173	0.000999737	381.898
16	0.000999737	0.00129796	381.898
17	0.00129796	0.00168369	381.898
18	0.00168369	0.00218261	381.898
19	0.00218261	0.00282793	381.898
20	0.00282793	0.00366261	381.898
21	0.00366261	0.00474223	381.898
22	0.00474223	0.00613864	381.898
23	0.00613864	0.00794481	381.898
24	0.00794481	0.010281	381.898
25	0.010281	0.0133027	381.898
26	0.0133027	0.0172111	381.898
27	0.0172111	0.0222663	381.898
28	0.0222663	0.028805	381.898
29	0.028805	inf	381.898
