0.000562316	-13378654.49	0,1.89077e-06,4.42757e-06,7.8311e-06,1.23975e-05,1.85242e-05,2.67441e-05,3.77725e-05,5.2569e-05,7.2421e-05,9.90558e-05,0.000134791,0.000182736,0.000247062,0.000333366,0.000449158,0.000604512,0.000812946,0.0010926,0.00146779,0.00197119,0.00264657,0.00355271,0.00476846,0.00639959,0.00858802,0.0115242,0.0154635,0.0207488,0.02784,inf	388.148,388.148,388.148,388.148,388.148,388.148,388.148,388.148,388.148,388.148,388.148,388.148,388.148,388.148,388.148,388.148,388.148,388.148,388.148,388.148,388.148,388.148,388.148,388.148,388.148,388.148,388.148,388.148,388.148,388.148
0.000512978	-13376308.38	0,1.89077e-06,4.42757e-06,7.8311e-06,1.23975e-05,1.85242e-05,2.67441e-05,3.77725e-05,5.2569e-05,7.2421e-05,9.90558e-05,0.000134791,0.000182736,0.000247062,0.000333366,0.000449158,0.000604512,0.000812946,0.0010926,0.00146779,0.00197119,0.00264657,0.00355271,0.00476846,0.00639959,0.00858802,0.0115242,0.0154635,0.0207488,0.02784,inf	382.305,382.305,382.305,382.305,382.305,382.305,382.305,382.305,382.305,382.305,382.305,382.305,382.305,382.305,382.305,382.305,382.305,382.305,382.305,382.305,382.305,382.305,382.305,382.305,382.305,382.305,382.305,382.305,382.305,382.305
0.00047171	-13374477.25	0,1.89077e-06,4.42757e-06,7.8311e-06,1.23975e-05,1.85242e-05,2.67441e-05,3.77725e-05,5.2569e-05,7.2421e-05,9.90558e-05,0.000134791,0.000182736,0.000247062,0.000333366,0.000449158,0.000604512,0.000812946,0.0010926,0.00146779,0.00197119,0.00264657,0.00355271,0.00476846,0.00639959,0.00858802,0.0115242,0.0154635,0.0207488,0.02784,inf	379.691,379.691,379.691,379.691,379.691,379.691,379.691,379.691,379.691,379.691,379.691,379.691,379.691,379.691,379.691,379.691,379.691,379.691,379.691,379.691,379.691,379.691,379.691,379.691,379.691,379.691,379.691,379.691,379.691,379.691
0.000437062	-13373017.80	0,1.89077e-06,4.42757e-06,7.8311e-06,1.23975e-05,1.85242e-05,2.67441e-05,3.77725e-05,5.2569e-05,7.2421e-05,9.90558e-05,0.000134791,0.000182736,0.000247062,0.000333366,0.000449158,0.000604512,0.000812946,0.0010926,0.00146779,0.00197119,0.00264657,0.00355271,0.00476846,0.00639959,0.00858802,0.0115242,0.0154635,0.0207488,0.02784,inf	378.389,378.389,378.389,378.389,378.389,378.389,378.389,378.389,378.389,378.389,378.389,378.389,378.389,378.389,378.389,378.389,378.389,378.389,378.389,378.389,378.389,378.389,378.389,378.389,378.389,378.389,378.389,378.389,378.389,378.389
0.000408079	-13371881.90	0,1.89077e-06,4.42757e-06,7.8311e-06,1.23975e-05,1.85242e-05,2.67441e-05,3.77725e-05,5.2569e-05,7.2421e-05,9.90558e-05,0.000134791,0.000182736,0.000247062,0.000333366,0.000449158,0.000604512,0.000812946,0.0010926,0.00146779,0.00197119,0.00264657,0.00355271,0.00476846,0.00639959,0.00858802,0.0115242,0.0154635,0.0207488,0.02784,inf	377.574,377.574,377.574,377.574,377.574,377.574,377.574,377.574,377.574,377.574,377.574,377.574,377.574,377.574,377.574,377.574,377.574,377.574,377.574,377.574,377.574,377.574,377.574,377.574,377.574,377.574,377.574,377.574,377.574,377.574
0.000383992	-13371024.89	0,1.89077e-06,4.42757e-06,7.8311e-06,1.23975e-05,1.85242e-05,2.67441e-05,3.77725e-05,5.2569e-05,7.2421e-05,9.90558e-05,0.000134791,0.000182736,0.000247062,0.000333366,0.000449158,0.000604512,0.000812946,0.0010926,0.00146779,0.00197119,0.00264657,0.00355271,0.00476846,0.00639959,0.00858802,0.0115242,0.0154635,0.0207488,0.02784,inf	376.913,376.913,376.913,376.913,376.913,376.913,376.913,376.913,376.913,376.913,376.913,376.913,376.913,376.913,376.913,376.913,376.913,376.913,376.913,376.913,376.913,376.913,376.913,376.913,376.913,376.913,376.913,376.913,376.913,376.913
0.000364116	-13370397.67	0,1.89077e-06,4.42757e-06,7.8311e-06,1.23975e-05,1.85242e-05,2.67441e-05,3.77725e-05,5.2569e-05,7.2421e-05,9.90558e-05,0.000134791,0.000182736,0.000247062,0.000333366,0.000449158,0.000604512,0.000812946,0.0010926,0.00146779,0.00197119,0.00264657,0.00355271,0.00476846,0.00639959,0.00858802,0.0115242,0.0154635,0.0207488,0.02784,inf	376.293,376.293,376.293,376.293,376.293,376.293,376.293,376.293,376.293,376.293,376.293,376.293,376.293,376.293,376.293,376.293,376.293,376.293,376.293,376.293,376.293,376.293,376.293,376.293,376.293,376.293,376.293,376.293,376.293,376.293
0.000347829	-13369951.52	0,1.89077e-06,4.42757e-06,7.8311e-06,1.23975e-05,1.85242e-05,2.67441e-05,3.77725e-05,5.2569e-05,7.2421e-05,9.90558e-05,0.000134791,0.000182736,0.000247062,0.000333366,0.000449158,0.000604512,0.000812946,0.0010926,0.00146779,0.00197119,0.00264657,0.00355271,0.00476846,0.00639959,0.00858802,0.0115242,0.0154635,0.0207488,0.02784,inf	375.691,375.691,375.691,375.691,375.691,375.691,375.691,375.691,375.691,375.691,375.691,375.691,375.691,375.691,375.691,375.691,375.691,375.691,375.691,375.691,375.691,375.691,375.691,375.691,375.691,375.691,375.691,375.691,375.691,375.691
0.000334565	-13369642.45	0,1.89077e-06,4.42757e-06,7.8311e-06,1.23975e-05,1.85242e-05,2.67441e-05,3.77725e-05,5.2569e-05,7.2421e-05,9.90558e-05,0.000134791,0.000182736,0.000247062,0.000333366,0.000449158,0.000604512,0.000812946,0.0010926,0.00146779,0.00197119,0.00264657,0.00355271,0.00476846,0.00639959,0.00858802,0.0115242,0.0154635,0.0207488,0.02784,inf	375.116,375.116,375.116,375.116,375.116,375.116,375.116,375.116,375.116,375.116,375.116,375.116,375.116,375.116,375.116,375.116,375.116,375.116,375.116,375.116,375.116,375.116,375.116,375.116,375.116,375.116,375.116,375.116,375.116,375.116
0.00032382	-13369433.59	0,1.89077e-06,4.42757e-06,7.8311e-06,1.23975e-05,1.85242e-05,2.67441e-05,3.77725e-05,5.2569e-05,7.2421e-05,9.90558e-05,0.000134791,0.000182736,0.000247062,0.000333366,0.000449158,0.000604512,0.000812946,0.0010926,0.00146779,0.00197119,0.00264657,0.00355271,0.00476846,0.00639959,0.00858802,0.0115242,0.0154635,0.0207488,0.02784,inf	374.581,374.581,374.581,374.581,374.581,374.581,374.581,374.581,374.581,374.581,374.581,374.581,374.581,374.581,374.581,374.581,374.581,374.581,374.581,374.581,374.581,374.581,374.581,374.581,374.581,374.581,374.581,374.581,374.581,374.581
0.000315156	-13369295.76	0,1.89077e-06,4.42757e-06,7.8311e-06,1.23975e-05,1.85242e-05,2.67441e-05,3.77725e-05,5.2569e-05,7.2421e-05,9.90558e-05,0.000134791,0.000182736,0.000247062,0.000333366,0.000449158,0.000604512,0.000812946,0.0010926,0.00146779,0.00197119,0.00264657,0.00355271,0.00476846,0.00639959,0.00858802,0.0115242,0.0154635,0.0207488,0.02784,inf	374.1,374.1,374.1,374.1,374.1,374.1,374.1,374.1,374.1,374.1,374.1,374.1,374.1,374.1,374.1,374.1,374.1,374.1,374.1,374.1,374.1,374.1,374.1,374.1,374.1,374.1,374.1,374.1,374.1,374.1
0.000308194	-13369206.91	0,1.89077e-06,4.42757e-06,7.8311e-06,1.23975e-05,1.85242e-05,2.67441e-05,3.77725e-05,5.2569e-05,7.2421e-05,9.90558e-05,0.000134791,0.000182736,0.000247062,0.000333366,0.000449158,0.000604512,0.000812946,0.0010926,0.00146779,0.00197119,0.00264657,0.00355271,0.00476846,0.00639959,0.00858802,0.0115242,0.0154635,0.0207488,0.02784,inf	373.677,373.677,373.677,373.677,373.677,373.677,373.677,373.677,373.677,373.677,373.677,373.677,373.677,373.677,373.677,373.677,373.677,373.677,373.677,373.677,373.677,373.677,373.677,373.677,373.677,373.677,373.677,373.677,373.677,373.677
0.000302619	-13369150.99	0,1.89077e-06,4.42757e-06,7.8311e-06,1.23975e-05,1.85242e-05,2.67441e-05,3.77725e-05,5.2569e-05,7.2421e-05,9.90558e-05,0.000134791,0.000182736,0.000247062,0.000333366,0.000449158,0.000604512,0.000812946,0.0010926,0.00146779,0.00197119,0.00264657,0.00355271,0.00476846,0.00639959,0.00858802,0.0115242,0.0154635,0.0207488,0.02784,inf	373.312,373.312,373.312,373.312,373.312,373.312,373.312,373.312,373.312,373.312,373.312,373.312,373.312,373.312,373.312,373.312,373.312,373.312,373.312,373.312,373.312,373.312,373.312,373.312,373.312,373.312,373.312,373.312,373.312,373.312
0.000298164	-13369116.73	0,1.89077e-06,4.42757e-06,7.8311e-06,1.23975e-05,1.85242e-05,2.67441e-05,3.77725e-05,5.2569e-05,7.2421e-05,9.90558e-05,0.000134791,0.000182736,0.000247062,0.000333366,0.000449158,0.000604512,0.000812946,0.0010926,0.00146779,0.00197119,0.00264657,0.00355271,0.00476846,0.00639959,0.00858802,0.0115242,0.0154635,0.0207488,0.02784,inf	373.004,373.004,373.004,373.004,373.004,373.004,373.004,373.004,373.004,373.004,373.004,373.004,373.004,373.004,373.004,373.004,373.004,373.004,373.004,373.004,373.004,373.004,373.004,373.004,373.004,373.004,373.004,373.004,373.004,373.004
0.000294613	-13369096.41	0,1.89077e-06,4.42757e-06,7.8311e-06,1.23975e-05,1.85242e-05,2.67441e-05,3.77725e-05,5.2569e-05,7.2421e-05,9.90558e-05,0.000134791,0.000182736,0.000247062,0.000333366,0.000449158,0.000604512,0.000812946,0.0010926,0.00146779,0.00197119,0.00264657,0.00355271,0.00476846,0.00639959,0.00858802,0.0115242,0.0154635,0.0207488,0.02784,inf	372.747,372.747,372.747,372.747,372.747,372.747,372.747,372.747,372.747,372.747,372.747,372.747,372.747,372.747,372.747,372.747,372.747,372.747,372.747,372.747,372.747,372.747,372.747,372.747,372.747,372.747,372.747,372.747,372.747,372.747
0.000291794	-13369084.87	0,1.89077e-06,4.42757e-06,7.8311e-06,1.23975e-05,1.85242e-05,2.67441e-05,3.77725e-05,5.2569e-05,7.2421e-05,9.90558e-05,0.000134791,0.000182736,0.000247062,0.000333366,0.000449158,0.000604512,0.000812946,0.0010926,0.00146779,0.00197119,0.00264657,0.00355271,0.00476846,0.00639959,0.00858802,0.0115242,0.0154635,0.0207488,0.02784,inf	372.581,372.581,372.581,372.581,372.581,372.581,372.581,372.581,372.581,372.581,372.581,372.581,372.581,372.581,372.581,372.581,372.581,372.581,372.581,372.581,372.581,372.581,372.581,372.581,372.581,372.581,372.581,372.581,372.581,372.581
0.000289549	-13369078.05	0,1.89077e-06,4.42757e-06,7.8311e-06,1.23975e-05,1.85242e-05,2.67441e-05,3.77725e-05,5.2569e-05,7.2421e-05,9.90558e-05,0.000134791,0.000182736,0.000247062,0.000333366,0.000449158,0.000604512,0.000812946,0.0010926,0.00146779,0.00197119,0.00264657,0.00355271,0.00476846,0.00639959,0.00858802,0.0115242,0.0154635,0.0207488,0.02784,inf	372.415,372.415,372.415,372.415,372.415,372.415,372.415,372.415,372.415,372.415,372.415,372.415,372.415,372.415,372.415,372.415,372.415,372.415,372.415,372.415,372.415,372.415,372.415,372.415,372.415,372.415,372.415,372.415,372.415,372.415
0.000287764	-13369075.03	0,1.89077e-06,4.42757e-06,7.8311e-06,1.23975e-05,1.85242e-05,2.67441e-05,3.77725e-05,5.2569e-05,7.2421e-05,9.90558e-05,0.000134791,0.000182736,0.000247062,0.000333366,0.000449158,0.000604512,0.000812946,0.0010926,0.00146779,0.00197119,0.00264657,0.00355271,0.00476846,0.00639959,0.00858802,0.0115242,0.0154635,0.0207488,0.02784,inf	372.268,372.268,372.268,372.268,372.268,372.268,372.268,372.268,372.268,372.268,372.268,372.268,372.268,372.268,372.268,372.268,372.268,372.268,372.268,372.268,372.268,372.268,372.268,372.268,372.268,372.268,372.268,372.268,372.268,372.268
0.000286346	-13369074.07	0,1.89077e-06,4.42757e-06,7.8311e-06,1.23975e-05,1.85242e-05,2.67441e-05,3.77725e-05,5.2569e-05,7.2421e-05,9.90558e-05,0.000134791,0.000182736,0.000247062,0.000333366,0.000449158,0.000604512,0.000812946,0.0010926,0.00146779,0.00197119,0.00264657,0.00355271,0.00476846,0.00639959,0.00858802,0.0115242,0.0154635,0.0207488,0.02784,inf	372.146,372.146,372.146,372.146,372.146,372.146,372.146,372.146,372.146,372.146,372.146,372.146,372.146,372.146,372.146,372.146,372.146,372.146,372.146,372.146,372.146,372.146,372.146,372.146,372.146,372.146,372.146,372.146,372.146,372.146
0.000285222	-13369074.17	0,1.89077e-06,4.42757e-06,7.8311e-06,1.23975e-05,1.85242e-05,2.67441e-05,3.77725e-05,5.2569e-05,7.2421e-05,9.90558e-05,0.000134791,0.000182736,0.000247062,0.000333366,0.000449158,0.000604512,0.000812946,0.0010926,0.00146779,0.00197119,0.00264657,0.00355271,0.00476846,0.00639959,0.00858802,0.0115242,0.0154635,0.0207488,0.02784,inf	372.047,372.047,372.047,372.047,372.047,372.047,372.047,372.047,372.047,372.047,372.047,372.047,372.047,372.047,372.047,372.047,372.047,372.047,372.047,372.047,372.047,372.047,372.047,372.047,372.047,372.047,372.047,372.047,372.047,372.047
