time_index	left_time_boundary	right_time_boundary	lambda
0	0	1.02684e-05	512.162
1	1.02684e-05	2.69034e-05	512.162
2	2.69034e-05	5.38528e-05	345.062
3	5.38528e-05	9.75116e-05	660.096
4	9.75116e-05	0.00016824	622.248
5	0.00016824	0.000282823	420.097
6	0.000282823	0.00046845	429.695
7	0.00046845	0.000769173	366.858
8	0.000769173	0.00125635	416.911
9	0.00125635	0.0020456	398.577
10	0.0020456	0.0033242	386.16
11	0.0033242	0.00539558	239.312
12	0.00539558	0.00875128	943.473
13	0.00875128	0.0141876	0.402551
14	0.0141876	0.0229947	0.402551
15	0.0229947	inf	0.402551
