LogLikelihood = -594122.1840888512088

y0 4.362935290641687158e-09
y0_prime 0
y1 1.7022756585875118418
y1_prime 0
y2 2.0376953656158414141
y2_prime 0
y3 4.0621932498595665351
y3_prime 0
rho 1.8141287138634445419
theta 0.010750384906620393324
