AIC = 3124139.6978471754119

y0 0.9960344878890385889
y0_prime 0
y1 1.1728905879326099182
y1_prime 0
y2 0.8134204669121493092
y2_prime 0
y3 1.8297810103562457407
y3_prime 0
rho 0.017911095781513189373
rho.alpha 0.63391668456741401272
r_ii 0.9999138367935002103
theta 0.0050648055832502496612
