AIC = 618644.52195082360413

y0 1.1657447622679888433
y0_prime 0
y1 1.066867642127609983
y1_prime 0
y2 0.84340320358181675164
y2_prime 0
y3 1.8117493617297264485
y3_prime 0
rho 0.019770121562993844128
rho.alpha 0.59228162229977521225
r_ii 0.99991935110468044279
theta 0.0050093833434303692773
