time_index	left_time_boundary	right_time_boundary	lambda
0	0	1.52252e-06	1.07299
1	1.52252e-06	4.16431e-06	1.07299
2	4.16431e-06	8.74819e-06	1.07299
3	8.74819e-06	1.67019e-05	1.07299
4	1.67019e-05	3.05027e-05	46.8379
5	3.05027e-05	5.44491e-05	136.21
6	5.44491e-05	9.59995e-05	149.782
7	9.59995e-05	0.000168095	133.591
8	0.000168095	0.000293192	224.021
9	0.000293192	0.000510253	293.948
10	0.000510253	0.000886886	1137.95
11	0.000886886	0.0015404	2298.52
12	0.0015404	0.00267433	1698.19
13	0.00267433	0.00464187	1480.63
14	0.00464187	0.00805584	1480.63
15	0.00805584	inf	1480.63
