LogLikelihood = -169762.26234129743534

y0 0.74240220802069900596
y0_prime 0
y1 1.0954035225223197614
y1_prime 0
y2 0.97617870683845697766
y2_prime 0
y3 1.6973199661561428897
y3_prime 0
rho 0.0001562104442979320195
theta 0.0025343198946462305171
