0.000214456	-6029533.90	0,6.48858e-07,1.50357e-06,2.62943e-06,4.11247e-06,6.066e-06,8.63929e-06,1.2029e-05,1.6494e-05,2.23755e-05,3.0123e-05,4.03283e-05,5.37713e-05,7.14791e-05,9.48045e-05,0.00012553,0.000166003,0.000219316,0.000289543,0.000382049,0.000503902,0.000664413,0.000875846,0.00115436,0.00152122,0.00200448,0.00264104,0.00347956,0.00458409,0.00603904,0.00795557,0.0104801,inf	2.58122,2.58122,4.46713,6.71229,9.71533,13.8079,19.4573,27.459,40.0053,74.8345,94.5458,99.25,144.814,168.337,194.796,258.071,323.648,384.55,500.765,700.56,1000.5,1409.24,1752.77,1751.18,1616.01,1487.02,1391.11,1323.04,1323.04,1291.15,1291.15,1291.15
0.000209472	-6012556.77	0,6.48858e-07,1.50357e-06,2.62943e-06,4.11247e-06,6.066e-06,8.63929e-06,1.2029e-05,1.6494e-05,2.23755e-05,3.0123e-05,4.03283e-05,5.37713e-05,7.14791e-05,9.48045e-05,0.00012553,0.000166003,0.000219316,0.000289543,0.000382049,0.000503902,0.000664413,0.000875846,0.00115436,0.00152122,0.00200448,0.00264104,0.00347956,0.00458409,0.00603904,0.00795557,0.0104801,inf	1.08652,1.08652,1.08652,1.08652,1.08652,1.08652,1.08652,1.08652,1.40862,4.15206,19.005,8.91181,22.0547,32.241,43.0499,84.6339,138.846,170.453,276.517,492.397,864.969,1487.75,2245.92,2387.23,2181.32,1920.95,1719.89,1588.86,1588.86,1562.48,1562.48,1562.48
0.000205529	-6006328.24	0,6.48858e-07,1.50357e-06,2.62943e-06,4.11247e-06,6.066e-06,8.63929e-06,1.2029e-05,1.6494e-05,2.23755e-05,3.0123e-05,4.03283e-05,5.37713e-05,7.14791e-05,9.48045e-05,0.00012553,0.000166003,0.000219316,0.000289543,0.000382049,0.000503902,0.000664413,0.000875846,0.00115436,0.00152122,0.00200448,0.00264104,0.00347956,0.00458409,0.00603904,0.00795557,0.0104801,inf	1.08652,1.08652,1.08652,1.08652,1.08652,1.08652,1.08652,1.08652,1.08652,1.08658,3.78062,1.08652,3.05015,7.01498,9.84769,29.8149,72.1508,82.4255,166.839,366.638,749.957,1469.65,2585.37,2953.14,2757.64,2375.15,2068.51,1892.91,1892.91,1965.55,1965.55,1965.55
0.000201147	-6003463.22	0,6.48858e-07,1.50357e-06,2.62943e-06,4.11247e-06,6.066e-06,8.63929e-06,1.2029e-05,1.6494e-05,2.23755e-05,3.0123e-05,4.03283e-05,5.37713e-05,7.14791e-05,9.48045e-05,0.00012553,0.000166003,0.000219316,0.000289543,0.000382049,0.000503902,0.000664413,0.000875846,0.00115436,0.00152122,0.00200448,0.00264104,0.00347956,0.00458409,0.00603904,0.00795557,0.0104801,inf	1.08652,1.08652,1.08652,1.08652,1.08652,1.08652,1.08652,1.08652,1.08652,1.08653,1.09142,1.08652,1.08652,1.56569,2.29508,10.451,42.3691,42.4995,107.864,286.505,661.059,1421.33,2821.34,3456.8,3349.2,2853.66,2445.05,2262.29,2262.29,2738.84,2738.84,2738.84
0.000196122	-6001932.40	0,6.48858e-07,1.50357e-06,2.62943e-06,4.11247e-06,6.066e-06,8.63929e-06,1.2029e-05,1.6494e-05,2.23755e-05,3.0123e-05,4.03283e-05,5.37713e-05,7.14791e-05,9.48045e-05,0.00012553,0.000166003,0.000219316,0.000289543,0.000382049,0.000503902,0.000664413,0.000875846,0.00115436,0.00152122,0.00200448,0.00264104,0.00347956,0.00458409,0.00603904,0.00795557,0.0104801,inf	1.08652,1.08652,1.08652,1.08652,1.08652,1.08652,1.08652,1.08652,1.08652,1.08653,1.09142,1.08652,1.08652,1.08655,1.08652,3.65499,27.1567,23.1544,73.8677,233.168,592.903,1366.79,2988.57,3914.56,3973.22,3369.43,2866.77,2756.98,2756.98,5605.7,5605.7,5605.7
0.000190496	-6001009.46	0,6.48858e-07,1.50357e-06,2.62943e-06,4.11247e-06,6.066e-06,8.63929e-06,1.2029e-05,1.6494e-05,2.23755e-05,3.0123e-05,4.03283e-05,5.37713e-05,7.14791e-05,9.48045e-05,0.00012553,0.000166003,0.000219316,0.000289543,0.000382049,0.000503902,0.000664413,0.000875846,0.00115436,0.00152122,0.00200448,0.00264104,0.00347956,0.00458409,0.00603904,0.00795557,0.0104801,inf	1.08652,1.08652,1.08652,1.08652,1.08652,1.08652,1.08652,1.08652,1.08652,1.08653,1.09142,1.08652,1.08652,1.08655,1.08652,1.27419,18.5789,13.1886,53.056,196.398,540.117,1314.25,3108.21,4341.2,4657.89,3945.6,3366.48,3537.62,3537.62,92211.7,92211.7,92211.7
0.000184367	-6000393.00	0,6.48858e-07,1.50357e-06,2.62943e-06,4.11247e-06,6.066e-06,8.63929e-06,1.2029e-05,1.6494e-05,2.23755e-05,3.0123e-05,4.03283e-05,5.37713e-05,7.14791e-05,9.48045e-05,0.00012553,0.000166003,0.000219316,0.000289543,0.000382049,0.000503902,0.000664413,0.000875846,0.00115436,0.00152122,0.00200448,0.00264104,0.00347956,0.00458409,0.00603904,0.00795557,0.0104801,inf	1.08652,1.08652,1.08652,1.08652,1.08652,1.08652,1.08652,1.08652,1.08652,1.08653,1.09142,1.08652,1.08652,1.08655,1.08652,1.08652,13.384,7.77287,39.6152,170.362,498.724,1266.29,3193.3,4748.76,5448.64,4624.47,4013.86,5253.03,5253.03,157202,157202,157202
