time_index	left_time_boundary	right_time_boundary	lambda
0	0	1.57553e-05	1546.93
1	1.57553e-05	3.4185e-05	1546.93
2	3.4185e-05	5.57431e-05	11.4062
3	5.57431e-05	8.09608e-05	8.5691
4	8.09608e-05	0.000110459	402.271
5	0.000110459	0.000144965	402.575
6	0.000144965	0.000185328	173.303
7	0.000185328	0.000232542	165.704
8	0.000232542	0.000287772	205.941
9	0.000287772	0.000352376	346.365
10	0.000352376	0.000427947	509.218
11	0.000427947	0.000516347	612.413
12	0.000516347	0.000619752	724.277
13	0.000619752	0.00074071	969.53
14	0.00074071	0.000882201	1460.11
15	0.000882201	0.00104771	2270.39
16	0.00104771	0.00124131	3038.79
17	0.00124131	0.00146778	3272.26
18	0.00146778	0.00173269	3409.45
19	0.00173269	0.00204257	3757.41
20	0.00204257	0.00240505	4302.39
21	0.00240505	0.00282907	8615.45
22	0.00282907	0.00332506	1.44773e+06
23	0.00332506	0.00390524	41.6752
24	0.00390524	0.00458391	50.1929
25	0.00458391	0.00537778	38.4587
26	0.00537778	0.00630642	260.579
27	0.00630642	0.00739268	192.44
28	0.00739268	0.00866335	192.44
29	0.00866335	0.0101497	108.898
30	0.0101497	0.0118884	108.898
31	0.0118884	inf	108.898
