4.99896e-05	-1816501.25	0,1.68779e-07,3.91102e-07,6.83957e-07,1.06972e-06,1.57787e-06,2.24722e-06,3.12893e-06,4.29035e-06,5.82024e-06,7.83548e-06,1.04901e-05,1.39868e-05,1.85929e-05,2.46602e-05,3.26524e-05,4.31801e-05,5.70477e-05,7.53148e-05,9.93771e-05,0.000131073,0.000172825,0.000227822,0.000300267,0.000395695,0.000521397,0.000686978,0.00090509,0.0011924,0.00157085,0.00206937,0.00272605,inf	30.3792,30.3792,58.0965,89.9055,132.312,188.685,265.206,373.2,534.851,800.226,1277.17,2240.55,2858.11,3246.46,3091.54,3141.4,2923.76,2737.66,2815.11,3016.68,3048.97,3054.18,3573.21,4857.04,5700.54,5542.06,5181.24,4756.68,4756.68,4368.15,4368.15,4368.15
4.16115e-05	-1814414.26	0,1.68779e-07,3.91102e-07,6.83957e-07,1.06972e-06,1.57787e-06,2.24722e-06,3.12893e-06,4.29035e-06,5.82024e-06,7.83548e-06,1.04901e-05,1.39868e-05,1.85929e-05,2.46602e-05,3.26524e-05,4.31801e-05,5.70477e-05,7.53148e-05,9.93771e-05,0.000131073,0.000172825,0.000227822,0.000300267,0.000395695,0.000521397,0.000686978,0.00090509,0.0011924,0.00157085,0.00206937,0.00272605,inf	4.1774,4.1774,4.1771,4.17771,4.17707,7.29078,14.4727,28.7278,59.3142,133.369,342.874,1210.51,1930.16,2523.57,2306.1,2554.1,2298.23,2014.02,2181.36,2562.95,2540.11,2376.36,3016.69,5200.91,7274.4,7062.04,6296.58,5354.22,5354.22,4545.16,4545.16,4545.16
3.38834e-05	-1813016.22	0,1.68779e-07,3.91102e-07,6.83957e-07,1.06972e-06,1.57787e-06,2.24722e-06,3.12893e-06,4.29035e-06,5.82024e-06,7.83548e-06,1.04901e-05,1.39868e-05,1.85929e-05,2.46602e-05,3.26524e-05,4.31801e-05,5.70477e-05,7.53148e-05,9.93771e-05,0.000131073,0.000172825,0.000227822,0.000300267,0.000395695,0.000521397,0.000686978,0.00090509,0.0011924,0.00157085,0.00206937,0.00272605,inf	4.17706,4.17706,4.17706,4.17705,4.17705,4.17705,4.17707,4.17709,5.64532,19.3603,81.046,598.581,1293.07,1953.83,1702.93,2089.42,1913.81,1537.91,1788.33,2382.18,2306.19,1892.8,2512.36,5285,8929.13,8773.34,7565.94,6007.25,6007.25,4748.4,4748.4,4748.4
2.67021e-05	-1811855.89	0,1.68779e-07,3.91102e-07,6.83957e-07,1.06972e-06,1.57787e-06,2.24722e-06,3.12893e-06,4.29035e-06,5.82024e-06,7.83548e-06,1.04901e-05,1.39868e-05,1.85929e-05,2.46602e-05,3.26524e-05,4.31801e-05,5.70477e-05,7.53148e-05,9.93771e-05,0.000131073,0.000172825,0.000227822,0.000300267,0.000395695,0.000521397,0.000686978,0.00090509,0.0011924,0.00157085,0.00206937,0.00272605,inf	4.17706,4.17706,4.17706,4.17705,4.17705,4.17705,4.17706,4.17706,4.17705,4.17712,17.5614,252.527,814.248,1562.85,1286.49,1644.38,1615.83,1142.62,1458.09,2263.44,2217.4,1508.55,2052.64,5186.4,10816.4,10812.9,9116.04,6794.03,6794.03,5017.76,5017.76,5017.76
2.01695e-05	-1810773.08	0,1.68779e-07,3.91102e-07,6.83957e-07,1.06972e-06,1.57787e-06,2.24722e-06,3.12893e-06,4.29035e-06,5.82024e-06,7.83548e-06,1.04901e-05,1.39868e-05,1.85929e-05,2.46602e-05,3.26524e-05,4.31801e-05,5.70477e-05,7.53148e-05,9.93771e-05,0.000131073,0.000172825,0.000227822,0.000300267,0.000395695,0.000521397,0.000686978,0.00090509,0.0011924,0.00157085,0.00206937,0.00272605,inf	4.17706,4.17706,4.17706,4.17705,4.17705,4.17705,4.17706,4.17706,4.17705,4.17706,4.17739,92.8313,456.434,1266.67,1013.95,1198.02,1278.6,772.601,1129.55,2044.29,2179.66,1177.3,1627.63,4966.15,13308.4,13521.5,11233.8,7854.82,7854.82,5390.25,5390.25,5390.25
1.44718e-05	-1809718.76	0,1.68779e-07,3.91102e-07,6.83957e-07,1.06972e-06,1.57787e-06,2.24722e-06,3.12893e-06,4.29035e-06,5.82024e-06,7.83548e-06,1.04901e-05,1.39868e-05,1.85929e-05,2.46602e-05,3.26524e-05,4.31801e-05,5.70477e-05,7.53148e-05,9.93771e-05,0.000131073,0.000172825,0.000227822,0.000300267,0.000395695,0.000521397,0.000686978,0.00090509,0.0011924,0.00157085,0.00206937,0.00272605,inf	4.17705,4.17705,4.17706,4.17705,4.17705,4.17705,4.17706,4.17706,4.17705,4.17706,4.17705,29.0479,220.493,958.181,812.263,803.753,850.278,441.4,796.791,1632.65,2066.02,878.648,1235.21,4665.96,17478.9,17821.6,14610.1,9469.54,9469.54,5896.24,5896.24,5896.24
9.77411e-06	-1808711.15	0,1.68779e-07,3.91102e-07,6.83957e-07,1.06972e-06,1.57787e-06,2.24722e-06,3.12893e-06,4.29035e-06,5.82024e-06,7.83548e-06,1.04901e-05,1.39868e-05,1.85929e-05,2.46602e-05,3.26524e-05,4.31801e-05,5.70477e-05,7.53148e-05,9.93771e-05,0.000131073,0.000172825,0.000227822,0.000300267,0.000395695,0.000521397,0.000686978,0.00090509,0.0011924,0.00157085,0.00206937,0.00272605,inf	4.17705,4.17705,4.17706,4.17705,4.17705,4.17705,4.17706,4.17706,4.17705,4.17706,4.17705,6.94226,90.7695,736.547,676.731,520.688,453.669,225.791,498.438,1089.48,1747.51,615.123,886.652,4311.23,27846.8,26973.1,21138.1,12278.1,12278.1,6555.46,6555.46,6555.46
6.24825e-06	-1807819.29	0,1.68779e-07,3.91102e-07,6.83957e-07,1.06972e-06,1.57787e-06,2.24722e-06,3.12893e-06,4.29035e-06,5.82024e-06,7.83548e-06,1.04901e-05,1.39868e-05,1.85929e-05,2.46602e-05,3.26524e-05,4.31801e-05,5.70477e-05,7.53148e-05,9.93771e-05,0.000131073,0.000172825,0.000227822,0.000300267,0.000395695,0.000521397,0.000686978,0.00090509,0.0011924,0.00157085,0.00206937,0.00272605,inf	4.17705,4.17705,4.17706,4.17705,4.17705,4.17705,4.17706,4.17706,4.17705,4.17742,5.08712,14.7382,1.01284e+07,4095.79,1838.14,748.427,334.257,196.194,327.107,647.326,1282.61,415.411,609.741,3933.04,73714,64232.5,35469.8,17855.6,17855.6,7117.04,7117.04,7117.04
3.52343e-06	-1809200.18	0,1.68779e-07,3.91102e-07,6.83957e-07,1.06972e-06,1.57787e-06,2.24722e-06,3.12893e-06,4.29035e-06,5.82024e-06,7.83548e-06,1.04901e-05,1.39868e-05,1.85929e-05,2.46602e-05,3.26524e-05,4.31801e-05,5.70477e-05,7.53148e-05,9.93771e-05,0.000131073,0.000172825,0.000227822,0.000300267,0.000395695,0.000521397,0.000686978,0.00090509,0.0011924,0.00157085,0.00206937,0.00272605,inf	4.17705,4.17705,4.17706,4.17705,4.17705,4.17705,4.17706,4.17705,4.17705,4.17705,4.17705,24.7363,36709.9,1.2874e+06,971339,1.58617e+06,1.53577e+06,936.772,231.94,291.143,657.9,229.185,364.06,3273.42,1.84177e+06,2.37562e+06,27438.6,33127,33127,1411.22,1411.22,1411.22
1.49182e-06	-1808760.98	0,1.68779e-07,3.91102e-07,6.83957e-07,1.06972e-06,1.57787e-06,2.24722e-06,3.12893e-06,4.29035e-06,5.82024e-06,7.83548e-06,1.04901e-05,1.39868e-05,1.85929e-05,2.46602e-05,3.26524e-05,4.31801e-05,5.70477e-05,7.53148e-05,9.93771e-05,0.000131073,0.000172825,0.000227822,0.000300267,0.000395695,0.000521397,0.000686978,0.00090509,0.0011924,0.00157085,0.00206937,0.00272605,inf	4.17705,4.17705,4.17706,4.17705,4.17705,4.17705,4.17705,4.17705,4.17705,4.17705,4.17705,14.2119,72559.8,41424.5,1.48588e+06,1.69297e+06,1.67779e+06,645.868,66.3045,29.547,142.14,60.2461,152.266,2444.84,5.31009e+06,264.395,211.124,1743.82,1743.82,409.995,409.995,409.995
