time_index	left_time_boundary	right_time_boundary	lambda
0	0	1.57609e-06	10.7703
1	1.57609e-06	3.41972e-06	10.7703
2	3.41972e-06	5.57631e-06	10.7703
3	5.57631e-06	8.09897e-06	10.7703
4	8.09897e-06	1.10499e-05	10.7703
5	1.10499e-05	1.45017e-05	10.7703
6	1.45017e-05	1.85394e-05	10.7703
7	1.85394e-05	2.32626e-05	10.7703
8	2.32626e-05	2.87875e-05	10.7703
9	2.87875e-05	3.52502e-05	10.7703
10	3.52502e-05	4.281e-05	60.1591
11	4.281e-05	5.16531e-05	613.107
12	5.16531e-05	6.19973e-05	3087.76
13	6.19973e-05	7.40975e-05	10397.5
14	7.40975e-05	8.82516e-05	31123.2
15	8.82516e-05	0.000104808	52344.7
16	0.000104808	0.000124176	50288.4
17	0.000124176	0.000146831	49689.8
18	0.000146831	0.000173331	50281.6
19	0.000173331	0.00020433	51614.9
20	0.00020433	0.000240591	52776.6
21	0.000240591	0.000283008	51961.4
22	0.000283008	0.000332624	48409.6
23	0.000332624	0.000390664	43301
24	0.000390664	0.000458555	38847.5
25	0.000458555	0.00053797	36947.1
26	0.00053797	0.000630867	40359.9
27	0.000630867	0.000739533	63853.8
28	0.000739533	0.000866644	63853.8
29	0.000866644	0.00101533	522298
30	0.00101533	0.00118926	522298
31	0.00118926	inf	522298
