2.32376e-05	-17879.48	0,3.41972e-06,8.09897e-06,1.45017e-05,2.32626e-05,3.52502e-05,5.16531e-05,7.40975e-05,0.000104808,0.000146831,0.00020433,0.000283008,0.000390664,0.00053797,0.000739533,0.00101533,inf	562.958,562.958,1339.06,2435.5,4261.55,7405.03,13505.8,20144.2,16500.6,14434,13359.2,12433.8,11749.5,11507.7,11507.7,11507.7
2.44314e-05	-17832.95	0,3.41972e-06,8.09897e-06,1.45017e-05,2.32626e-05,3.52502e-05,5.16531e-05,7.40975e-05,0.000104808,0.000146831,0.00020433,0.000283008,0.000390664,0.00053797,0.000739533,0.00101533,inf	37.0594,37.0594,213.569,702.667,2019.31,5161.62,12933.2,27766.4,20768.4,17498.7,15778.4,14059.3,12797.5,12588.3,12588.3,12588.3
2.57717e-05	-17816.71	0,3.41972e-06,8.09897e-06,1.45017e-05,2.32626e-05,3.52502e-05,5.16531e-05,7.40975e-05,0.000104808,0.000146831,0.00020433,0.000283008,0.000390664,0.00053797,0.000739533,0.00101533,inf	10.7703,10.7703,37.348,221.595,1032.66,3725.46,11607.4,33533.3,23505.2,19814,17907.5,15588.3,13865.9,13935,13935,13935
2.71219e-05	-17809.28	0,3.41972e-06,8.09897e-06,1.45017e-05,2.32626e-05,3.52502e-05,5.16531e-05,7.40975e-05,0.000104808,0.000146831,0.00020433,0.000283008,0.000390664,0.00053797,0.000739533,0.00101533,inf	10.7703,10.7703,10.7703,74.6963,558.239,2779.66,10301.3,37984.8,25139.5,21486.3,19729,17002.8,14934.3,15547.5,15547.5,15547.5
2.84517e-05	-17805.29	0,3.41972e-06,8.09897e-06,1.45017e-05,2.32626e-05,3.52502e-05,5.16531e-05,7.40975e-05,0.000104808,0.000146831,0.00020433,0.000283008,0.000390664,0.00053797,0.000739533,0.00101533,inf	10.7703,10.7703,10.7703,26.6489,315.691,2132.67,9172.73,41521.8,26058.2,22663.3,21253.1,18292.1,15991.1,17492.6,17492.6,17492.6
2.97522e-05	-17802.92	0,3.41972e-06,8.09897e-06,1.45017e-05,2.32626e-05,3.52502e-05,5.16531e-05,7.40975e-05,0.000104808,0.000146831,0.00020433,0.000283008,0.000390664,0.00053797,0.000739533,0.00101533,inf	10.7703,10.7703,10.7703,10.7703,185.467,1674.67,8226.29,44400.5,26531.1,23478.7,22505.6,19451.5,17029.9,19928.1,19928.1,19928.1
3.10205e-05	-17801.39	0,3.41972e-06,8.09897e-06,1.45017e-05,2.32626e-05,3.52502e-05,5.16531e-05,7.40975e-05,0.000104808,0.000146831,0.00020433,0.000283008,0.000390664,0.00053797,0.000739533,0.00101533,inf	10.7703,10.7703,10.7703,10.7703,112.614,1340.86,7434.48,46786.2,26731.4,24037.4,23520.5,20479.3,18046.4,23208.6,23208.6,23208.6
3.22575e-05	-17800.35	0,3.41972e-06,8.09897e-06,1.45017e-05,2.32626e-05,3.52502e-05,5.16531e-05,7.40975e-05,0.000104808,0.000146831,0.00020433,0.000283008,0.000390664,0.00053797,0.000739533,0.00101533,inf	10.7703,10.7703,10.7703,10.7703,70.3728,1091.37,6767.45,48791.5,26767.8,24417.2,24333.8,21385.1,19037,28331.5,28331.5,28331.5
3.34718e-05	-17799.60	0,3.41972e-06,8.09897e-06,1.45017e-05,2.32626e-05,3.52502e-05,5.16531e-05,7.40975e-05,0.000104808,0.000146831,0.00020433,0.000283008,0.000390664,0.00053797,0.000739533,0.00101533,inf	10.7703,10.7703,10.7703,10.7703,45.1171,901.043,6198.9,50518.8,26706.2,24673.1,24979.5,22173.7,19995.5,40040.4,40040.4,40040.4
3.46584e-05	-17799.04	0,3.41972e-06,8.09897e-06,1.45017e-05,2.32626e-05,3.52502e-05,5.16531e-05,7.40975e-05,0.000104808,0.000146831,0.00020433,0.000283008,0.000390664,0.00053797,0.000739533,0.00101533,inf	10.7703,10.7703,10.7703,10.7703,29.5896,753,5710.46,51998.6,26588.7,24843.8,25488.6,22854.3,20905.9,120118,120118,120118
3.46584e-05	-17798.61	0,3.41972e-06,8.09897e-06,1.45017e-05,2.32626e-05,3.52502e-05,5.16531e-05,7.40975e-05,0.000104808,0.000146831,0.00020433,0.000283008,0.000390664,0.00053797,0.000739533,0.00101533,inf	10.7703,10.7703,10.7703,10.7703,20.1346,646.76,5393.11,52492.1,26325.7,24847.9,25812.1,23390.7,21701.9,1.49698e+06,1.49698e+06,1.49698e+06
