LogLikelihood = -1229968.2278461810201

y0 0.87561102194934070653
y0_prime 0
y1 1.0744591569351178428
y1_prime 0
y2 0.91842686540370210846
y2_prime 0
y3 1.7966879008229983405
y3_prime 0
rho 0.0028087140411271250585
theta 0.0050218160698114232623
