8.95993e-05	-623967.63	0,6.43031e-06,1.39522e-05,2.27509e-05,3.30431e-05,4.50825e-05,5.91656e-05,7.56393e-05,9.49094e-05,0.000117451,0.000143818,0.000174661,0.000210741,0.000252944,0.000302312,0.000360059,0.00042761,0.000506627,0.000599057,0.000707177,0.000833651,0.000981593,0.00115465,0.00135708,0.00159388,0.00187087,0.00219488,0.00257389,0.00301723,0.00353584,0.00414248,0.00485209,inf	60.6898,60.6898,128.655,197.271,279.936,381.007,506.658,665.751,871.377,1143.64,1514.4,2030.92,2740.99,3612.75,4385.32,4714.15,4631.09,4378.77,4102.9,3855.09,3648.89,3483,3350.54,3244.57,3159.92,3092.48,3038.88,2989.9,2989.9,2954.15,2954.15,2954.15
9.04932e-05	-621898.55	0,6.43031e-06,1.39522e-05,2.27509e-05,3.30431e-05,4.50825e-05,5.91656e-05,7.56393e-05,9.49094e-05,0.000117451,0.000143818,0.000174661,0.000210741,0.000252944,0.000302312,0.000360059,0.00042761,0.000506627,0.000599057,0.000707177,0.000833651,0.000981593,0.00115465,0.00135708,0.00159388,0.00187087,0.00219488,0.00257389,0.00301723,0.00353584,0.00414248,0.00485209,inf	2.63984,2.63984,7.70018,18.3213,37.2704,69.477,122.792,209.615,349.512,573.717,933.38,1512.66,2434.94,3802.52,5401.58,6434.32,6552.23,6177.31,5658.85,5153.61,4722.17,4374.79,4099.14,3880.41,3707.87,3572.57,3466.64,3371.23,3371.23,3307.91,3307.91,3307.91
9.23879e-05	-621155.11	0,6.43031e-06,1.39522e-05,2.27509e-05,3.30431e-05,4.50825e-05,5.91656e-05,7.56393e-05,9.49094e-05,0.000117451,0.000143818,0.000174661,0.000210741,0.000252944,0.000302312,0.000360059,0.00042761,0.000506627,0.000599057,0.000707177,0.000833651,0.000981593,0.00115465,0.00135708,0.00159388,0.00187087,0.00219488,0.00257389,0.00301723,0.00353584,0.00414248,0.00485209,inf	2.63984,2.63984,2.63984,2.63984,5.39646,13.7812,32.3553,71.571,151.109,306.743,601.661,1144.66,2109.98,3716.17,5941.41,7745.77,8229.27,7875.94,7193.94,6459.58,5809.92,5282.63,4863.94,4532.35,4272.9,4072.47,3918.16,3781.9,3781.9,3702.97,3702.97,3702.97
9.43867e-05	-620810.34	0,6.43031e-06,1.39522e-05,2.27509e-05,3.30431e-05,4.50825e-05,5.91656e-05,7.56393e-05,9.49094e-05,0.000117451,0.000143818,0.000174661,0.000210741,0.000252944,0.000302312,0.000360059,0.00042761,0.000506627,0.000599057,0.000707177,0.000833651,0.000981593,0.00115465,0.00135708,0.00159388,0.00187087,0.00219488,0.00257389,0.00301723,0.00353584,0.00414248,0.00485209,inf	2.63984,2.63984,2.63984,2.63984,2.63984,2.73264,9.1054,25.9941,69.0821,172.028,402.491,886.052,1834.37,3552.73,6231.63,8767.96,9679.33,9450.53,8680.46,7753.45,6901.1,6201.9,5644.38,5202.02,4857.82,4596.22,4398.94,4228.02,4228.02,4155.25,4155.25,4155.25
9.62822e-05	-620622.20	0,6.43031e-06,1.39522e-05,2.27509e-05,3.30431e-05,4.50825e-05,5.91656e-05,7.56393e-05,9.49094e-05,0.000117451,0.000143818,0.000174661,0.000210741,0.000252944,0.000302312,0.000360059,0.00042761,0.000506627,0.000599057,0.000707177,0.000833651,0.000981593,0.00115465,0.00135708,0.00159388,0.00187087,0.00219488,0.00257389,0.00301723,0.00353584,0.00414248,0.00485209,inf	2.63984,2.63984,2.63984,2.63984,2.63984,2.63984,2.71373,9.95571,33.0957,100.338,277.628,700.249,1609.02,3376.11,6388.53,9598.71,10953.2,10917.1,10120.8,9035.61,7997.43,7136.31,6445.7,5895.38,5469.15,5150.66,4917,4720.35,4720.35,4684.28,4684.28,4684.28
9.80336e-05	-620507.18	0,6.43031e-06,1.39522e-05,2.27509e-05,3.30431e-05,4.50825e-05,5.91656e-05,7.56393e-05,9.49094e-05,0.000117451,0.000143818,0.000174661,0.000210741,0.000252944,0.000302312,0.000360059,0.00042761,0.000506627,0.000599057,0.000707177,0.000833651,0.000981593,0.00115465,0.00135708,0.00159388,0.00187087,0.00219488,0.00257389,0.00301723,0.00353584,0.00414248,0.00485209,inf	2.63984,2.63984,2.63984,2.63984,2.63984,2.63984,2.63984,3.9952,16.5109,60.5048,196.472,563.321,1424.59,3206.57,6469.85,10300.5,12095.4,12299,11527,10314.2,9106,8093.3,7275.8,6620.51,6115.19,5744.99,5482.72,5272.94,5272.94,5368.45,5368.45,5368.45
9.96459e-05	-620430.85	0,6.43031e-06,1.39522e-05,2.27509e-05,3.30431e-05,4.50825e-05,5.91656e-05,7.56393e-05,9.49094e-05,0.000117451,0.000143818,0.000174661,0.000210741,0.000252944,0.000302312,0.000360059,0.00042761,0.000506627,0.000599057,0.000707177,0.000833651,0.000981593,0.00115465,0.00135708,0.00159388,0.00187087,0.00219488,0.00257389,0.00301723,0.00353584,0.00414248,0.00485209,inf	2.63984,2.63984,2.63984,2.63984,2.63984,2.63984,2.63984,2.63984,8.53687,37.5528,142.107,460.051,1272.07,3049.7,6506.84,10913.1,13139.4,13618,12913.6,11600.8,10236.9,9082.4,8144.39,7386.85,6805.87,6388.01,6113.77,5906.33,5906.33,6395.38,6395.38,6395.38
0.000101132	-620376.98	0,6.43031e-06,1.39522e-05,2.27509e-05,3.30431e-05,4.50825e-05,5.91656e-05,7.56393e-05,9.49094e-05,0.000117451,0.000143818,0.000174661,0.000210741,0.000252944,0.000302312,0.000360059,0.00042761,0.000506627,0.000599057,0.000707177,0.000833651,0.000981593,0.00115465,0.00135708,0.00159388,0.00187087,0.00219488,0.00257389,0.00301723,0.00353584,0.00414248,0.00485209,inf	2.63984,2.63984,2.63984,2.63984,2.63984,2.63984,2.63984,2.63984,4.5552,23.9018,104.731,380.57,1144.42,2906.63,6515.14,11460.1,14108.6,14892,14295.2,12908.2,11402,10115.5,9063.45,8207.5,7552.87,7099.36,6830.36,6643.38,6643.38,7677.84,7677.84,7677.84
0.000102508	-620337.17	0,6.43031e-06,1.39522e-05,2.27509e-05,3.30431e-05,4.50825e-05,5.91656e-05,7.56393e-05,9.49094e-05,0.000117451,0.000143818,0.000174661,0.000210741,0.000252944,0.000302312,0.000360059,0.00042761,0.000506627,0.000599057,0.000707177,0.000833651,0.000981593,0.00115465,0.00135708,0.00159388,0.00187087,0.00219488,0.00257389,0.00301723,0.00353584,0.00414248,0.00485209,inf	2.63984,2.63984,2.63984,2.63984,2.63984,2.63984,2.63984,2.63984,2.63984,15.5553,78.457,318.327,1036.32,2776.5,6504.57,11957.8,15020.4,16135.7,15686.1,14251,12615.6,11207.6,10048.8,9099.32,8377.26,7901.09,7693.29,7585.76,7585.76,8150.92,8150.92,8150.92
0.000103789	-620306.65	0,6.43031e-06,1.39522e-05,2.27509e-05,3.30431e-05,4.50825e-05,5.91656e-05,7.56393e-05,9.49094e-05,0.000117451,0.000143818,0.000174661,0.000210741,0.000252944,0.000302312,0.000360059,0.00042761,0.000506627,0.000599057,0.000707177,0.000833651,0.000981593,0.00115465,0.00135708,0.00159388,0.00187087,0.00219488,0.00257389,0.00301723,0.00353584,0.00414248,0.00485209,inf	2.63984,2.63984,2.63984,2.63984,2.63984,2.63984,2.63984,2.63984,2.63984,10.3272,59.6293,268.845,943.798,2657.97,6481.13,12417.7,15888,17361.8,17101,15646.1,13895.1,12377.6,11121.7,10084.4,9309.36,8844.88,8747.72,8917.62,8917.62,22156.5,22156.5,22156.5
0.000104987	-620282.62	0,6.43031e-06,1.39522e-05,2.27509e-05,3.30431e-05,4.50825e-05,5.91656e-05,7.56393e-05,9.49094e-05,0.000117451,0.000143818,0.000174661,0.000210741,0.000252944,0.000302312,0.000360059,0.00042761,0.000506627,0.000599057,0.000707177,0.000833651,0.000981593,0.00115465,0.00135708,0.00159388,0.00187087,0.00219488,0.00257389,0.00301723,0.00353584,0.00414248,0.00485209,inf	2.63984,2.63984,2.63984,2.63984,2.63984,2.63984,2.63984,2.63984,2.63984,6.97908,45.9021,228.98,863.819,2549.66,6448.66,12847.6,16721.2,18581.3,18555.4,17112.8,15262.2,13650,12310.8,11196.5,10392.6,10004.2,10345.9,9425.51,9425.51,60227.6,60227.6,60227.6
0.000106114	-620263.19	0,6.43031e-06,1.39522e-05,2.27509e-05,3.30431e-05,4.50825e-05,5.91656e-05,7.56393e-05,9.49094e-05,0.000117451,0.000143818,0.000174661,0.000210741,0.000252944,0.000302312,0.000360059,0.00042761,0.000506627,0.000599057,0.000707177,0.000833651,0.000981593,0.00115465,0.00135708,0.00159388,0.00187087,0.00219488,0.00257389,0.00301723,0.00353584,0.00414248,0.00485209,inf	2.63984,2.63984,2.63984,2.63984,2.63984,2.63984,2.63984,2.63984,2.63984,4.79278,35.7422,196.492,794.089,2450.31,6409.75,13253.4,17527.8,19804.1,20066,18675.3,16745.5,15059,13658.4,12478.5,11683.7,11469.5,12572.2,9425.51,9425.51,60227.6,60227.6,60227.6
0.000107177	-620247.17	0,6.43031e-06,1.39522e-05,2.27509e-05,3.30431e-05,4.50825e-05,5.91656e-05,7.56393e-05,9.49094e-05,0.000117451,0.000143818,0.000174661,0.000210741,0.000252944,0.000302312,0.000360059,0.00042761,0.000506627,0.000599057,0.000707177,0.000833651,0.000981593,0.00115465,0.00135708,0.00159388,0.00187087,0.00219488,0.00257389,0.00301723,0.00353584,0.00414248,0.00485209,inf	2.63984,2.63984,2.63984,2.63984,2.63984,2.63984,2.63984,2.63984,2.63984,3.34015,28.1206,169.745,732.833,2358.8,6366.14,13639.5,18313.9,21039.5,21652.4,20364.6,18384.4,16655.6,15229.7,14023.9,13310.6,13270.7,13513,25621.2,25621.2,163716,163716,163716
0.000108185	-620233.75	0,6.43031e-06,1.39522e-05,2.27509e-05,3.30431e-05,4.50825e-05,5.91656e-05,7.56393e-05,9.49094e-05,0.000117451,0.000143818,0.000174661,0.000210741,0.000252944,0.000302312,0.000360059,0.00042761,0.000506627,0.000599057,0.000707177,0.000833651,0.000981593,0.00115465,0.00135708,0.00159388,0.00187087,0.00219488,0.00257389,0.00301723,0.00353584,0.00414248,0.00485209,inf	2.63984,2.63984,2.63984,2.63984,2.63984,2.63984,2.63984,2.63984,2.63984,2.63984,22.3332,147.526,678.652,2274.18,6319.06,14009.2,19084.8,22296.7,23338.1,22222.4,20234.2,18513.8,17133.4,15960.3,15457.9,16796.8,7283.55,69645.6,69645.6,445025,445025,445025
0.000109145	-620222.36	0,6.43031e-06,1.39522e-05,2.27509e-05,3.30431e-05,4.50825e-05,5.91656e-05,7.56393e-05,9.49094e-05,0.000117451,0.000143818,0.000174661,0.000210741,0.000252944,0.000302312,0.000360059,0.00042761,0.000506627,0.000599057,0.000707177,0.000833651,0.000981593,0.00115465,0.00135708,0.00159388,0.00187087,0.00219488,0.00257389,0.00301723,0.00353584,0.00414248,0.00485209,inf	2.63984,2.63984,2.63984,2.63984,2.63984,2.63984,2.63984,2.63984,2.63984,2.63984,17.8894,128.913,630.433,2195.63,6269.36,14365.2,19844.7,23585.2,25153,24308,22383.5,20769.9,19578.2,18612,19063,34285.2,185246,189316,189316,88243.2,88243.2,88243.2
0.000110061	-620212.60	0,6.43031e-06,1.39522e-05,2.27509e-05,3.30431e-05,4.50825e-05,5.91656e-05,7.56393e-05,9.49094e-05,0.000117451,0.000143818,0.000174661,0.000210741,0.000252944,0.000302312,0.000360059,0.00042761,0.000506627,0.000599057,0.000707177,0.000833651,0.000981593,0.00115465,0.00135708,0.00159388,0.00187087,0.00219488,0.00257389,0.00301723,0.00353584,0.00414248,0.00485209,inf	2.63984,2.63984,2.63984,2.63984,2.63984,2.63984,2.63984,2.63984,2.63984,2.63984,14.4419,113.203,587.27,2122.43,6217.67,14709.6,20597.2,24915,27136.5,26711.9,24975.1,23667.8,23052.6,23201,23391.7,470007,503552,102042,102042,17497.6,17497.6,17497.6
0.000110939	-620204.11	0,6.43031e-06,1.39522e-05,2.27509e-05,3.30431e-05,4.50825e-05,5.91656e-05,7.56393e-05,9.49094e-05,0.000117451,0.000143818,0.000174661,0.000210741,0.000252944,0.000302312,0.000360059,0.00042761,0.000506627,0.000599057,0.000707177,0.000833651,0.000981593,0.00115465,0.00135708,0.00159388,0.00187087,0.00219488,0.00257389,0.00301723,0.00353584,0.00414248,0.00485209,inf	2.63984,2.63984,2.63984,2.63984,2.63984,2.63984,2.63984,2.63984,2.63984,2.63984,11.743,99.8547,548.447,2054,6164.49,15044.1,21345.7,26297.4,29343,29580.1,28279.2,27775.5,28974.4,32948.2,56506,18479.8,99848.3,102042,102042,47563.4,47563.4,47563.4
0.000111782	-620196.66	0,6.43031e-06,1.39522e-05,2.27509e-05,3.30431e-05,4.50825e-05,5.91656e-05,7.56393e-05,9.49094e-05,0.000117451,0.000143818,0.000174661,0.000210741,0.000252944,0.000302312,0.000360059,0.00042761,0.000506627,0.000599057,0.000707177,0.000833651,0.000981593,0.00115465,0.00135708,0.00159388,0.00187087,0.00219488,0.00257389,0.00301723,0.00353584,0.00414248,0.00485209,inf	2.63984,2.63984,2.63984,2.63984,2.63984,2.63984,2.63984,2.63984,2.63984,2.63984,9.61212,88.4452,513.37,1989.83,6110.16,15370.2,22093,27745.2,31851.9,33180.8,32902.4,34818.9,48166.4,101194,153599,688636,271416,219054,219054,9431.26,9431.26,9431.26
0.000112594	-620190.07	0,6.43031e-06,1.39522e-05,2.27509e-05,3.30431e-05,4.50825e-05,5.91656e-05,7.56393e-05,9.49094e-05,0.000117451,0.000143818,0.000174661,0.000210741,0.000252944,0.000302312,0.000360059,0.00042761,0.000506627,0.000599057,0.000707177,0.000833651,0.000981593,0.00115465,0.00135708,0.00159388,0.00187087,0.00219488,0.00257389,0.00301723,0.00353584,0.00414248,0.00485209,inf	2.63984,2.63984,2.63984,2.63984,2.63984,2.63984,2.63984,2.63984,2.63984,2.63984,7.91669,78.6382,481.548,1929.47,6054.98,15689,22842,29273.5,34787.2,38075.6,40669.7,55623.4,305655,275073,417526,136548,53818.6,118071,118071,25636.8,25636.8,25636.8
0.000113379	-620184.20	0,6.43031e-06,1.39522e-05,2.27509e-05,3.30431e-05,4.50825e-05,5.91656e-05,7.56393e-05,9.49094e-05,0.000117451,0.000143818,0.000174661,0.000210741,0.000252944,0.000302312,0.000360059,0.00042761,0.000506627,0.000599057,0.000707177,0.000833651,0.000981593,0.00115465,0.00135708,0.00159388,0.00187087,0.00219488,0.00257389,0.00301723,0.00353584,0.00414248,0.00485209,inf	2.63984,2.63984,2.63984,2.63984,2.63984,2.63984,2.63984,2.63984,2.63984,2.63984,6.55783,70.1654,452.571,1872.55,5999.14,16001.5,23595,30900.7,38358.3,45813.3,62253.5,330894,50070.9,275073,417526,136548,397668,118071,118071,13818.3,13818.3,13818.3
