0.000139411	-27655734.08	0,1.59974e-06,4.29444e-06,8.83354e-06,1.64794e-05,2.93586e-05,5.1053e-05,8.75963e-05,0.000149152,0.000252839,0.000427496,0.000721699,0.00121727,0.00205203,0.00345816,0.00582672,inf	12.7765,12.7765,31.8884,62.4948,116.519,215.373,409.022,812.926,1516.65,2030.07,1425,1943.82,2141.19,2153.71,2153.71,2153.71
0.000114854	-27617162.71	0,1.59974e-06,4.29444e-06,8.83354e-06,1.64794e-05,2.93586e-05,5.1053e-05,8.75963e-05,0.000149152,0.000252839,0.000427496,0.000721699,0.00121727,0.00205203,0.00345816,0.00582672,inf	1.52805,1.52805,1.52805,2.71987,9.62782,33.561,122.738,479.207,1410.55,2501.77,1218.25,2177.25,2917.24,3404.98,3404.98,3404.98
8.99426e-05	-27590963.35	0,1.59974e-06,4.29444e-06,8.83354e-06,1.64794e-05,2.93586e-05,5.1053e-05,8.75963e-05,0.000149152,0.000252839,0.000427496,0.000721699,0.00121727,0.00205203,0.00345816,0.00582672,inf	1.52805,1.52805,1.52805,1.52805,1.52805,4.94241,35.4664,292.579,1238.99,2935.73,997.069,2268.43,4075.44,8642.88,8642.88,8642.88
8.99419e-05	-27567559.99	0,1.59974e-06,4.29444e-06,8.83354e-06,1.64794e-05,2.93586e-05,5.1053e-05,8.75963e-05,0.000149152,0.000252839,0.000427496,0.000721699,0.00121727,0.00205203,0.00345816,0.00582672,inf	1.52805,1.52805,1.52805,1.52805,1.52805,1.52805,8.89873,179.051,985.886,4174.5,773.859,2488.06,6459.66,190025,190025,190025
