0.000157345	-16197692.62	0,1.31708e-06,2.99347e-06,5.12719e-06,7.843e-06,1.12997e-05,1.56994e-05,2.12993e-05,2.8427e-05,3.7499e-05,4.9046e-05,6.37431e-05,8.24496e-05,0.000106259,0.000136564,0.000175137,0.000224232,0.000286721,0.000366257,0.00046749,0.000596341,0.000760342,0.000969084,0.00123477,0.00157294,0.00200336,0.00255121,0.0032485,0.00413603,0.00526567,0.00670349,0.00853355,inf	7.37081,7.37081,16.1055,25.9154,38.6462,55.2576,77.1339,106.238,145.486,199.369,275.028,384.477,545.766,750.446,928.167,1133.77,1387.87,1449.11,1284.08,1204.13,1345.45,1682.58,1960.14,1973.91,1882.19,1785.32,1707.79,1642.78,1642.78,1593.2,1593.2,1593.2
0.000135542	-16175210.98	0,1.31708e-06,2.99347e-06,5.12719e-06,7.843e-06,1.12997e-05,1.56994e-05,2.12993e-05,2.8427e-05,3.7499e-05,4.9046e-05,6.37431e-05,8.24496e-05,0.000106259,0.000136564,0.000175137,0.000224232,0.000286721,0.000366257,0.00046749,0.000596341,0.000760342,0.000969084,0.00123477,0.00157294,0.00200336,0.00255121,0.0032485,0.00413603,0.00526567,0.00670349,0.00853355,inf	1.38085,1.38085,1.38085,1.38086,1.38085,2.37374,4.6725,8.96188,17.0006,32.2804,62.0501,122.491,251.54,486.335,698.668,979.577,1451.47,1583.03,1195.36,999.043,1187.63,1786.65,2482.12,2606.38,2444.26,2243.6,2081.19,1949.46,1949.46,1867.75,1867.75,1867.75
0.000114307	-16161338.31	0,1.31708e-06,2.99347e-06,5.12719e-06,7.843e-06,1.12997e-05,1.56994e-05,2.12993e-05,2.8427e-05,3.7499e-05,4.9046e-05,6.37431e-05,8.24496e-05,0.000106259,0.000136564,0.000175137,0.000224232,0.000286721,0.000366257,0.00046749,0.000596341,0.000760342,0.000969084,0.00123477,0.00157294,0.00200336,0.00255121,0.0032485,0.00413603,0.00526567,0.00670349,0.00853355,inf	1.38085,1.38085,1.38085,1.38085,1.38085,1.38085,1.38085,1.38085,1.8627,4.92708,13.2826,37.4109,113.686,328.433,538.201,823.111,1507.72,1787.04,1121.18,803.183,999.645,1769.14,2956.54,3287.44,3084.51,2776.1,2526.26,2334.01,2334.01,2274.99,2274.99,2274.99
9.3923e-05	-16150120.77	0,1.31708e-06,2.99347e-06,5.12719e-06,7.843e-06,1.12997e-05,1.56994e-05,2.12993e-05,2.8427e-05,3.7499e-05,4.9046e-05,6.37431e-05,8.24496e-05,0.000106259,0.000136564,0.000175137,0.000224232,0.000286721,0.000366257,0.00046749,0.000596341,0.000760342,0.000969084,0.00123477,0.00157294,0.00200336,0.00255121,0.0032485,0.00413603,0.00526567,0.00670349,0.00853355,inf	1.38085,1.38085,1.38085,1.38085,1.38085,1.38085,1.38085,1.38085,1.38085,1.38085,2.50607,10.1609,46.4646,213.98,414.959,646.17,1503.02,2065.46,1063.59,626.383,814.935,1685.37,3413.78,4056.58,3846.01,3428.62,3098.21,2871.51,2871.51,3029.49,3029.49,3029.49
7.48384e-05	-16139903.31	0,1.31708e-06,2.99347e-06,5.12719e-06,7.843e-06,1.12997e-05,1.56994e-05,2.12993e-05,2.8427e-05,3.7499e-05,4.9046e-05,6.37431e-05,8.24496e-05,0.000106259,0.000136564,0.000175137,0.000224232,0.000286721,0.000366257,0.00046749,0.000596341,0.000760342,0.000969084,0.00123477,0.00157294,0.00200336,0.00255121,0.0032485,0.00413603,0.00526567,0.00670349,0.00853355,inf	1.38085,1.38085,1.38085,1.38085,1.38085,1.38085,1.38085,1.38085,1.38085,1.38085,1.38085,2.31257,15.9911,121.728,315.169,460.173,1396.72,2400.49,1023.25,470.394,644.057,1568.59,3889.47,4985.94,4813.12,4301.85,3927.04,3764.75,3764.75,5303.26,5303.26,5303.26
5.75138e-05	-16130219.14	0,1.31708e-06,2.99347e-06,5.12719e-06,7.843e-06,1.12997e-05,1.56994e-05,2.12993e-05,2.8427e-05,3.7499e-05,4.9046e-05,6.37431e-05,8.24496e-05,0.000106259,0.000136564,0.000175137,0.000224232,0.000286721,0.000366257,0.00046749,0.000596341,0.000760342,0.000969084,0.00123477,0.00157294,0.00200336,0.00255121,0.0032485,0.00413603,0.00526567,0.00670349,0.00853355,inf	1.38085,1.38085,1.38085,1.38085,1.38085,1.38085,1.38085,1.38085,1.38085,1.38085,1.38085,1.38085,4.32661,53.7552,229.133,291.659,1188.86,2733.15,1006.05,336.226,490.411,1438.27,4429.35,6211.63,6179.85,5684.53,5426.35,5839.03,5839.03,30493.4,30493.4,30493.4
4.23125e-05	-16121084.95	0,1.31708e-06,2.99347e-06,5.12719e-06,7.843e-06,1.12997e-05,1.56994e-05,2.12993e-05,2.8427e-05,3.7499e-05,4.9046e-05,6.37431e-05,8.24496e-05,0.000106259,0.000136564,0.000175137,0.000224232,0.000286721,0.000366257,0.00046749,0.000596341,0.000760342,0.000969084,0.00123477,0.00157294,0.00200336,0.00255121,0.0032485,0.00413603,0.00526567,0.00670349,0.00853355,inf	1.38085,1.38085,1.38085,1.38085,1.38085,1.38085,1.38085,1.38085,1.38085,1.38085,1.38085,1.38085,1.38085,17.5402,157.707,163.324,921.95,2959.97,1027.37,224.949,355.393,1304.54,5107.37,8043.66,8574.93,8919.5,9934.33,16431,16431,140523,140523,140523
2.94729e-05	-16112667.12	0,1.31708e-06,2.99347e-06,5.12719e-06,7.843e-06,1.12997e-05,1.56994e-05,2.12993e-05,2.8427e-05,3.7499e-05,4.9046e-05,6.37431e-05,8.24496e-05,0.000106259,0.000136564,0.000175137,0.000224232,0.000286721,0.000366257,0.00046749,0.000596341,0.000760342,0.000969084,0.00123477,0.00157294,0.00200336,0.00255121,0.0032485,0.00413603,0.00526567,0.00670349,0.00853355,inf	1.38085,1.38085,1.38085,1.38085,1.38085,1.38085,1.38085,1.38085,1.38085,1.38085,1.38085,1.38085,1.38085,4.35211,104.189,80.6203,650.156,2988.22,1111.74,137.106,240.378,1170.75,6081.16,11454.7,15569.6,27086.3,59261.7,322742,322742,217.238,217.238,217.238
