time_index	left_time_boundary	right_time_boundary	lambda
0	0	1.4892e-06	1.097
1	1.4892e-06	4.07318e-06	1.097
2	4.07318e-06	8.55676e-06	687.914
3	8.55676e-06	1.63364e-05	17.878
4	1.63364e-05	2.98352e-05	129.026
5	2.98352e-05	5.32576e-05	240.715
6	5.32576e-05	9.38989e-05	236.707
7	9.38989e-05	0.000164417	248.439
8	0.000164417	0.000286777	250.405
9	0.000286777	0.000499088	374.259
10	0.000499088	0.000867479	976.843
11	0.000867479	0.00150669	3608
12	0.00150669	0.00261581	2885.53
13	0.00261581	0.0045403	1208.61
14	0.0045403	0.00787957	1208.61
15	0.00787957	inf	1208.61
