time_index	left_time_boundary	right_time_boundary	lambda
0	0	3.16404e-05	457.838
1	3.16404e-05	7.49344e-05	457.838
2	7.49344e-05	0.000134174	510.619
3	0.000134174	0.000215233	120.095
4	0.000215233	0.000326147	175.347
5	0.000326147	0.000477912	329.558
6	0.000477912	0.000685574	598.761
7	0.000685574	0.000969722	1419.24
8	0.000969722	0.00135853	6031.81
9	0.00135853	0.00189053	4662.44
10	0.00189053	0.00261848	4086.29
11	0.00261848	0.00361455	726596
12	0.00361455	0.00497748	144.919
13	0.00497748	0.0068424	165.105
14	0.0068424	0.0093942	165.105
15	0.0093942	inf	165.105
