time_index	left_time_boundary	right_time_boundary	lambda
0	0	2.78385e-06	43716.6
1	2.78385e-06	6.38459e-06	43716.6
2	6.38459e-06	1.10419e-05	43716.6
3	1.10419e-05	1.70659e-05	43716.6
4	1.70659e-05	2.48576e-05	43716.6
5	2.48576e-05	3.49356e-05	43716.6
6	3.49356e-05	4.79709e-05	43716.6
7	4.79709e-05	6.48313e-05	43716.6
8	6.48313e-05	8.66391e-05	43716.6
9	8.66391e-05	0.000114846	43716.6
10	0.000114846	0.00015133	43716.6
11	0.00015133	0.00019852	43716.6
12	0.00019852	0.000259558	43716.6
13	0.000259558	0.000338506	43716.6
14	0.000338506	0.000440621	43716.6
15	0.000440621	0.0005727	43716.6
16	0.0005727	0.000743536	43716.6
17	0.000743536	0.000964502	43716.6
18	0.000964502	0.00125031	43716.6
19	0.00125031	0.00161998	43716.6
20	0.00161998	0.00209813	43716.6
21	0.00209813	0.00271659	43716.6
22	0.00271659	0.00351652	43716.6
23	0.00351652	0.00455119	43716.6
24	0.00455119	0.00588947	43716.6
25	0.00588947	0.00762045	43716.6
26	0.00762045	0.00985937	43716.6
27	0.00985937	0.0127553	43716.6
28	0.0127553	0.0165009	43716.6
29	0.0165009	inf	43716.6
