time_index	left_time_boundary	right_time_boundary	lambda
0	0	4.97093e-05	0.366213
1	4.97093e-05	0.000108468	0.366213
2	0.000108468	0.000177923	0.366213
3	0.000177923	0.000260021	0.366213
4	0.000260021	0.000357065	0.366213
5	0.000357065	0.000471775	0.366213
6	0.000471775	0.000607366	0.366213
7	0.000607366	0.000767641	0.366213
8	0.000767641	0.000957093	0.366213
9	0.000957093	0.00118103	0.366213
10	0.00118103	0.00144574	0.366213
11	0.00144574	0.00175863	0.366213
12	0.00175863	0.00212848	0.366213
13	0.00212848	0.00256566	0.366213
14	0.00256566	0.00308243	0.366213
15	0.00308243	0.00369327	0.366213
16	0.00369327	0.0044153	0.366213
17	0.0044153	0.00526878	0.366213
18	0.00526878	0.00627762	0.366213
19	0.00627762	0.00747012	0.366213
20	0.00747012	0.00887969	0.366213
21	0.00887969	0.0105459	0.366213
22	0.0105459	0.0125154	0.366213
23	0.0125154	0.0148434	0.366213
24	0.0148434	0.0175952	0.366213
25	0.0175952	0.020848	0.366213
26	0.020848	0.0246928	0.366213
27	0.0246928	0.0292377	0.366213
28	0.0292377	0.0346098	0.366213
29	0.0346098	inf	0.366213
