time_index	left_time_boundary	right_time_boundary	lambda
0	0	5.00695e-05	485.97
1	5.00695e-05	0.00011858	485.97
2	0.00011858	0.000212325	625.166
3	0.000212325	0.000340597	388.773
4	0.000340597	0.000516113	705.387
5	0.000516113	0.000756275	781.419
6	0.000756275	0.00108489	792.773
7	0.00108489	0.00153454	786.126
8	0.00153454	0.00214981	823.253
9	0.00214981	0.00299168	919.919
10	0.00299168	0.00414363	638.08
11	0.00414363	0.00571987	541.454
12	0.00571987	0.00787665	811.957
13	0.00787665	0.0108278	2103.79
14	0.0108278	0.0148659	2103.79
15	0.0148659	inf	2103.79
