"Replicate","Pyrho","Pyrho.p.value","rhoSMC","rhoSMC.p.value","WinSizeKb","RecombinationLandscape","DemographicModel","SimRec","GcProp","GcTrack"
0,0.0702444058205954,0.0016702904124899,0.26965505821258,1.16041199173695e-34,5,"VariableRecombination","DecreasingPopSize",1.5e-09,0,300
1,0.388966158280884,3.08061897226408e-73,0.304885232428577,2.73250120678497e-44,5,"VariableRecombination","DecreasingPopSize",1.5e-09,0,300
2,0.495726474954204,1.57221618709615e-124,0.755611275530956,0,5,"VariableRecombination","DecreasingPopSize",1.5e-09,0,300
3,0.379711540155589,1.31968690149316e-69,0.230464478056411,1.60934852611481e-25,5,"VariableRecombination","DecreasingPopSize",1.5e-09,0,300
4,0.363344336394065,1.82603238889363e-63,0.729407331545323,0,5,"VariableRecombination","DecreasingPopSize",1.5e-09,0,300
5,0.267578886343374,3.88580281129873e-34,0.705440500838406,5.14640776460156e-301,5,"VariableRecombination","DecreasingPopSize",1.5e-09,0,300
6,0.5039683611939,2.65386990125864e-129,0.711509841642163,1.6447049983698e-308,5,"VariableRecombination","DecreasingPopSize",1.5e-09,0,300
7,0.258220643389046,7.90909087680074e-32,0.747361733827326,0,5,"VariableRecombination","DecreasingPopSize",1.5e-09,0,300
8,0.44546002044283,4.33424789386295e-98,0.698307303805276,1.90022966510117e-292,5,"VariableRecombination","DecreasingPopSize",1.5e-09,0,300
9,0.280712612589271,1.55096147116449e-37,0.737300284426006,0,5,"VariableRecombination","DecreasingPopSize",1.5e-09,0,300
0,0.692422803392394,1.43721168810497e-285,0.787835768637657,0,5,"VariableRecombination","DecreasingPopSize",7.5e-09,0,300
1,0.715639599967566,1.00825480895291e-313,0.765160380419979,0,5,"VariableRecombination","DecreasingPopSize",7.5e-09,0,300
2,0.5661984891671,6.36624479773518e-170,0.773308884735938,0,5,"VariableRecombination","DecreasingPopSize",7.5e-09,0,300
3,0.752905750709612,0,0.772619702744679,0,5,"VariableRecombination","DecreasingPopSize",7.5e-09,0,300
4,0.741255996523067,0,0.791079468709715,0,5,"VariableRecombination","DecreasingPopSize",7.5e-09,0,300
5,0.642841190793159,1.35415763043401e-233,0.759188156517025,0,5,"VariableRecombination","DecreasingPopSize",7.5e-09,0,300
6,0.676286994317913,1.56752648142828e-267,0.782570755949592,0,5,"VariableRecombination","DecreasingPopSize",7.5e-09,0,300
7,0.662041190751441,1.5362915415826e-252,0.783097768317136,0,5,"VariableRecombination","DecreasingPopSize",7.5e-09,0,300
8,0.733449679582554,0,0.789801350438569,0,5,"VariableRecombination","DecreasingPopSize",7.5e-09,0,300
9,0.724486059761642,0,0.787181820103487,0,5,"VariableRecombination","DecreasingPopSize",7.5e-09,0,300
0,0.697636480970186,1.17881733018809e-291,0.774169322300492,0,5,"VariableRecombination","DecreasingPopSize",1.5e-08,0,300
1,0.694092930099871,1.66784071451644e-287,0.773740188600727,0,5,"VariableRecombination","DecreasingPopSize",1.5e-08,0,300
2,0.652824379569555,2.84219759777662e-243,0.776193367504427,0,5,"VariableRecombination","DecreasingPopSize",1.5e-08,0,300
3,0.753182578259309,0,0.779530628419549,0,5,"VariableRecombination","DecreasingPopSize",1.5e-08,0,300
4,0.714573104295827,2.28340830973005e-312,0.744707971173851,0,5,"VariableRecombination","DecreasingPopSize",1.5e-08,0,300
5,0.732516292493172,0,0.763773348906472,0,5,"VariableRecombination","DecreasingPopSize",1.5e-08,0,300
6,0.759695950670539,0,0.77093493283809,0,5,"VariableRecombination","DecreasingPopSize",1.5e-08,0,300
7,0.620391747297218,4.21976274925845e-213,0.775755767932428,0,5,"VariableRecombination","DecreasingPopSize",1.5e-08,0,300
8,0.746367845669059,0,0.763069784603173,0,5,"VariableRecombination","DecreasingPopSize",1.5e-08,0,300
9,0.702704216622319,1.06715180669879e-297,0.769922038820162,0,5,"VariableRecombination","DecreasingPopSize",1.5e-08,0,300
0,0.578993660560745,2.16190896216385e-179,0.725840103581093,0,5,"VariableRecombination","DecreasingPopSize",7.5e-08,0,300
1,0.60924039325058,1.57939458463793e-203,0.713486748812165,5.40045597853984e-311,5,"VariableRecombination","DecreasingPopSize",7.5e-08,0,300
2,0.611495472940969,1.96508053162355e-205,0.728932282834454,0,5,"VariableRecombination","DecreasingPopSize",7.5e-08,0,300
3,0.593389180034475,1.46941258300009e-190,0.733248286319724,0,5,"VariableRecombination","DecreasingPopSize",7.5e-08,0,300
4,0.645134357988785,8.72356630332997e-236,0.707841278385381,5.88479717566128e-304,5,"VariableRecombination","DecreasingPopSize",7.5e-08,0,300
5,0.595982169153745,1.24480234138143e-192,0.732658097686701,0,5,"VariableRecombination","DecreasingPopSize",7.5e-08,0,300
6,0.635553082445382,9.37006516879237e-227,0.750809383963706,0,5,"VariableRecombination","DecreasingPopSize",7.5e-08,0,300
7,0.661294260556411,8.9077032613992e-252,0.705356281307379,6.51869066893899e-301,5,"VariableRecombination","DecreasingPopSize",7.5e-08,0,300
8,0.598799363540969,6.64268227988305e-195,0.748722326631566,0,5,"VariableRecombination","DecreasingPopSize",7.5e-08,0,300
9,0.628265694693449,4.25665978077064e-220,0.745207148301009,0,5,"VariableRecombination","DecreasingPopSize",7.5e-08,0,300
0,0.658368788688488,8.284247708424e-249,0.74455298478286,0,5,"VariableRecombination","DecreasingPopSize",1.5e-08,0.1,300
1,0.630171955682759,8.03202598214614e-222,0.680622801745516,2.90278124842164e-272,5,"VariableRecombination","DecreasingPopSize",1.5e-08,0.1,300
2,0.694569262008696,4.65300632426607e-288,0.742403996545193,0,5,"VariableRecombination","DecreasingPopSize",1.5e-08,0.1,300
3,0.683918683923332,6.45888372663932e-276,0.735746896897983,0,5,"VariableRecombination","DecreasingPopSize",1.5e-08,0.1,300
4,0.681813482989971,1.40869101858903e-273,0.718084896754625,7.46463922862577e-317,5,"VariableRecombination","DecreasingPopSize",1.5e-08,0.1,300
5,0.648650363051766,3.50334151254912e-239,0.733542296288613,0,5,"VariableRecombination","DecreasingPopSize",1.5e-08,0.1,300
6,0.678683562082035,3.88639105634125e-270,0.751254642488151,0,5,"VariableRecombination","DecreasingPopSize",1.5e-08,0.1,300
7,0.641441847675075,2.88030249867276e-232,0.760309461348122,0,5,"VariableRecombination","DecreasingPopSize",1.5e-08,0.1,300
8,0.713692684493563,2.96817940200422e-311,0.75196815648664,0,5,"VariableRecombination","DecreasingPopSize",1.5e-08,0.1,300
9,0.722087072655199,4.74303020007597e-322,0.717626248653445,2.9021792514737e-316,5,"VariableRecombination","DecreasingPopSize",1.5e-08,0.1,300
0,0.445415880510659,4.55239945899465e-98,0.441575646651278,3.17450523649518e-96,5,"VariableRecombination","DecreasingPopSize",1.5e-08,0.5,300
1,0.60130108250577,6.09605814435461e-197,0.456872391655865,1.0376315216258e-103,5,"VariableRecombination","DecreasingPopSize",1.5e-08,0.5,300
2,0.504906613471038,7.4511568429913e-130,0.533032208344696,3.21852613196988e-147,5,"VariableRecombination","DecreasingPopSize",1.5e-08,0.5,300
3,0.545204825445204,2.94861679638069e-155,0.4880716952061,3.26270854239761e-120,5,"VariableRecombination","DecreasingPopSize",1.5e-08,0.5,300
4,0.494345476376956,9.62706070853508e-124,0.548134766728292,3.05541619272271e-157,5,"VariableRecombination","DecreasingPopSize",1.5e-08,0.5,300
5,0.599154951802977,3.41873177894392e-195,0.55208227800395,6.02508458895029e-160,5,"VariableRecombination","DecreasingPopSize",1.5e-08,0.5,300
6,0.554444959674905,1.39147350166575e-161,0.552204409000679,4.96239932623969e-160,5,"VariableRecombination","DecreasingPopSize",1.5e-08,0.5,300
7,0.524624311414595,7.42639400719427e-142,0.489674989982724,4.15370056625706e-121,5,"VariableRecombination","DecreasingPopSize",1.5e-08,0.5,300
8,0.517344675131214,2.47651692396701e-137,0.542494712672433,1.94023833152227e-153,5,"VariableRecombination","DecreasingPopSize",1.5e-08,0.5,300
9,0.521735009958764,4.77721624938668e-140,0.461210539434011,6.6472904279857e-106,5,"VariableRecombination","DecreasingPopSize",1.5e-08,0.5,300
0,0.22416619847241,3.37658668180311e-24,0.168345289457013,3.50740568511615e-14,5,"VariableRecombination","DecreasingPopSize",1.5e-08,0.9,300
1,0.276213318926154,2.37727193846229e-36,0.114225857204499,3.02450105875762e-07,5,"VariableRecombination","DecreasingPopSize",1.5e-08,0.9,300
2,0.109907819216128,8.34645729009522e-07,0.139047950425599,4.24114216154359e-10,5,"VariableRecombination","DecreasingPopSize",1.5e-08,0.9,300
3,0.174341297711952,4.09089782273664e-15,0.183617714256429,1.26352031243317e-16,5,"VariableRecombination","DecreasingPopSize",1.5e-08,0.9,300
4,0.197663450009857,4.5620202571643e-19,0.155473381203331,2.72573369735889e-12,5,"VariableRecombination","DecreasingPopSize",1.5e-08,0.9,300
5,0.26065943541327,2.02048759276735e-32,0.154663636849031,3.54246762606647e-12,5,"VariableRecombination","DecreasingPopSize",1.5e-08,0.9,300
6,0.257419762372772,1.23419415775996e-31,0.255094982774998,4.45180115392766e-31,5,"VariableRecombination","DecreasingPopSize",1.5e-08,0.9,300
7,0.135021429150167,1.34149653202183e-09,0.127673378947067,1.00656249668227e-08,5,"VariableRecombination","DecreasingPopSize",1.5e-08,0.9,300
8,0.25756323387752,1.13975842739723e-31,0.250050582910593,6.88592692805918e-30,5,"VariableRecombination","DecreasingPopSize",1.5e-08,0.9,300
9,0.287612904278166,2.1343580222167e-39,0.185051706993433,7.25872148143392e-17,5,"VariableRecombination","DecreasingPopSize",1.5e-08,0.9,300
0,0.00366131111917885,0.870016920850111,0.0224677814134024,0.315239660809804,5,"VariableRecombination","DecreasingPopSize",1.5e-08,1,300
1,0.0128205219455483,0.566633676362407,0.00288566284205799,0.897381106908443,5,"VariableRecombination","DecreasingPopSize",1.5e-08,1,300
2,0.0480649355377847,0.0316005089681903,-0.000412783718742933,0.985280894948899,5,"VariableRecombination","DecreasingPopSize",1.5e-08,1,300
3,0.000234504831288105,0.991637669811034,-0.00203253436182095,0.927618958111356,5,"VariableRecombination","DecreasingPopSize",1.5e-08,1,300
4,-0.0645305685491078,0.00388810695484389,-0.0286011972647039,0.20105686561668,5,"VariableRecombination","DecreasingPopSize",1.5e-08,1,300
5,0.0622961000734134,0.00532097049473404,0.0366164463947077,0.101617416122958,5,"VariableRecombination","DecreasingPopSize",1.5e-08,1,300
6,NA,NA,NA,NA,5,"VariableRecombination","DecreasingPopSize",1.5e-08,1,300
7,NA,NA,NA,NA,5,"VariableRecombination","DecreasingPopSize",1.5e-08,1,300
8,0.0260751795648478,0.243781620054615,0.0443871372942076,0.0471678036056721,5,"VariableRecombination","DecreasingPopSize",1.5e-08,1,300
9,-0.0900704923151342,0.0000548919562265567,-0.0244331666331535,0.274760873034084,5,"VariableRecombination","DecreasingPopSize",1.5e-08,1,300
