"","Method","SampleSize","Replicate","logLik","Theta","RecombinationLandscape","DemographicModel","SimRec","SimRho","GcProp","GcTrack"
"1","iSMC",1,0,-80401.697421,0.00174876,"FlatRecombination","AncientIncreasingPopSize",0,0,0,300
"2","iSMC",5,0,-715715.724384,0.00174876,"FlatRecombination","AncientIncreasingPopSize",0,0,0,300
"3","rhoSMC",1,0,-80409.166547,0.00174876,"FlatRecombination","AncientIncreasingPopSize",0,0,0,300
"4","rhoSMC",5,0,-715715.724689,0.00174876,"FlatRecombination","AncientIncreasingPopSize",0,0,0,300
"5","iSMC",1,1,-166283.514432,0.00169192,"FlatRecombination","AncientIncreasingPopSize",0,0,0,300
"6","iSMC",5,1,-626119.73773,0.00169192,"FlatRecombination","AncientIncreasingPopSize",0,0,0,300
"7","rhoSMC",1,1,-166300.209489,0.00169192,"FlatRecombination","AncientIncreasingPopSize",0,0,0,300
"8","rhoSMC",5,1,-626119.737727,0.00169192,"FlatRecombination","AncientIncreasingPopSize",0,0,0,300
"9","iSMC",1,2,-56261.421652,0.00180122,"FlatRecombination","AncientIncreasingPopSize",0,0,0,300
"10","iSMC",5,2,-334143.247819,0.00180122,"FlatRecombination","AncientIncreasingPopSize",0,0,0,300
"11","rhoSMC",1,2,-56268.357618,0.00180122,"FlatRecombination","AncientIncreasingPopSize",0,0,0,300
"12","rhoSMC",5,2,-334143.671115,0.00180122,"FlatRecombination","AncientIncreasingPopSize",0,0,0,300
"13","iSMC",1,3,-168430.803845,0.00144474,"FlatRecombination","AncientIncreasingPopSize",0,0,0,300
"14","iSMC",5,3,-756460.22858,0.00144474,"FlatRecombination","AncientIncreasingPopSize",0,0,0,300
"15","rhoSMC",1,3,-168430.948858,0.00144474,"FlatRecombination","AncientIncreasingPopSize",0,0,0,300
"16","rhoSMC",5,3,-756460.228572,0.00144474,"FlatRecombination","AncientIncreasingPopSize",0,0,0,300
"17","iSMC",1,4,-115147.192968,0.0017433,"FlatRecombination","AncientIncreasingPopSize",0,0,0,300
"18","iSMC",5,4,-676582.881071,0.0017433,"FlatRecombination","AncientIncreasingPopSize",0,0,0,300
"19","rhoSMC",1,4,-115147.582061,0.0017433,"FlatRecombination","AncientIncreasingPopSize",0,0,0,300
"20","rhoSMC",5,4,-675539.577726,0.0017433,"FlatRecombination","AncientIncreasingPopSize",0,0,0,300
"21","iSMC",1,5,-158417.415321,0.00163293,"FlatRecombination","AncientIncreasingPopSize",0,0,0,300
"22","iSMC",5,5,-637077.543152,0.00163293,"FlatRecombination","AncientIncreasingPopSize",0,0,0,300
"23","rhoSMC",1,5,-158417.020175,0.00163293,"FlatRecombination","AncientIncreasingPopSize",0,0,0,300
"24","rhoSMC",5,5,-637077.543132,0.00163293,"FlatRecombination","AncientIncreasingPopSize",0,0,0,300
"25","iSMC",1,6,-188758.153511,0.00204541,"FlatRecombination","AncientIncreasingPopSize",0,0,0,300
"26","iSMC",5,6,-836684.874809,0.00204541,"FlatRecombination","AncientIncreasingPopSize",0,0,0,300
"27","rhoSMC",1,6,-188757.819329,0.00204541,"FlatRecombination","AncientIncreasingPopSize",0,0,0,300
"28","rhoSMC",5,6,-835726.051127,0.00204541,"FlatRecombination","AncientIncreasingPopSize",0,0,0,300
"29","iSMC",1,7,-153753.951653,0.0017512,"FlatRecombination","AncientIncreasingPopSize",0,0,0,300
"30","iSMC",5,7,-767496.955074,0.0017512,"FlatRecombination","AncientIncreasingPopSize",0,0,0,300
"31","rhoSMC",1,7,-153753.605606,0.0017512,"FlatRecombination","AncientIncreasingPopSize",0,0,0,300
"32","rhoSMC",5,7,-767497.462717,0.0017512,"FlatRecombination","AncientIncreasingPopSize",0,0,0,300
"33","iSMC",1,8,-125032.367332,0.0018356,"FlatRecombination","AncientIncreasingPopSize",0,0,0,300
"34","iSMC",5,8,-701382.570036,0.0018356,"FlatRecombination","AncientIncreasingPopSize",0,0,0,300
"35","rhoSMC",1,8,-125031.954016,0.0018356,"FlatRecombination","AncientIncreasingPopSize",0,0,0,300
"36","rhoSMC",5,8,-701382.570165,0.0018356,"FlatRecombination","AncientIncreasingPopSize",0,0,0,300
"37","iSMC",1,9,-101713.447524,0.00277284,"FlatRecombination","AncientIncreasingPopSize",0,0,0,300
"38","iSMC",5,9,-1013011.34656,0.00277284,"FlatRecombination","AncientIncreasingPopSize",0,0,0,300
"39","rhoSMC",1,9,-101721.813381,0.00277284,"FlatRecombination","AncientIncreasingPopSize",0,0,0,300
"40","rhoSMC",5,9,-1012976.021728,0.00277284,"FlatRecombination","AncientIncreasingPopSize",0,0,0,300
"41","iSMC",1,0,-132739.695854,0.00183508,"FlatRecombination","AncientIncreasingPopSize",1.5e-09,0.0002202096,0,300
"42","iSMC",5,0,-650866.878578,0.00183508,"FlatRecombination","AncientIncreasingPopSize",1.5e-09,0.0002202096,0,300
"43","rhoSMC",1,0,-132741.80263,0.00183508,"FlatRecombination","AncientIncreasingPopSize",1.5e-09,0.0002202096,0,300
"44","rhoSMC",5,0,-650864.070353,0.00183508,"FlatRecombination","AncientIncreasingPopSize",1.5e-09,0.0002202096,0,300
"45","iSMC",1,1,-130267.510327,0.00181132,"FlatRecombination","AncientIncreasingPopSize",1.5e-09,0.0002173584,0,300
"46","iSMC",5,1,-665423.826915,0.00181132,"FlatRecombination","AncientIncreasingPopSize",1.5e-09,0.0002173584,0,300
"47","rhoSMC",1,1,-130269.593821,0.00181132,"FlatRecombination","AncientIncreasingPopSize",1.5e-09,0.0002173584,0,300
"48","rhoSMC",5,1,-665421.836646,0.00181132,"FlatRecombination","AncientIncreasingPopSize",1.5e-09,0.0002173584,0,300
"49","iSMC",1,2,-127946.295044,0.00185005,"FlatRecombination","AncientIncreasingPopSize",1.5e-09,0.000222006,0,300
"50","iSMC",5,2,-674270.623989,0.00185005,"FlatRecombination","AncientIncreasingPopSize",1.5e-09,0.000222006,0,300
"51","rhoSMC",1,2,-127945.717786,0.00185005,"FlatRecombination","AncientIncreasingPopSize",1.5e-09,0.000222006,0,300
"52","rhoSMC",5,2,-674267.80993,0.00185005,"FlatRecombination","AncientIncreasingPopSize",1.5e-09,0.000222006,0,300
"53","iSMC",1,3,-128816.871254,0.00182542,"FlatRecombination","AncientIncreasingPopSize",1.5e-09,0.0002190504,0,300
"54","iSMC",5,3,-659085.373573,0.00182542,"FlatRecombination","AncientIncreasingPopSize",1.5e-09,0.0002190504,0,300
"55","rhoSMC",1,3,-128816.10235,0.00182542,"FlatRecombination","AncientIncreasingPopSize",1.5e-09,0.0002190504,0,300
"56","rhoSMC",5,3,-659084.161689,0.00182542,"FlatRecombination","AncientIncreasingPopSize",1.5e-09,0.0002190504,0,300
"57","iSMC",1,4,-133457.829785,0.00187183,"FlatRecombination","AncientIncreasingPopSize",1.5e-09,0.0002246196,0,300
"58","iSMC",5,4,-666113.316628,0.00187183,"FlatRecombination","AncientIncreasingPopSize",1.5e-09,0.0002246196,0,300
"59","rhoSMC",1,4,-133457.808379,0.00187183,"FlatRecombination","AncientIncreasingPopSize",1.5e-09,0.0002246196,0,300
"60","rhoSMC",5,4,-666107.973257,0.00187183,"FlatRecombination","AncientIncreasingPopSize",1.5e-09,0.0002246196,0,300
"61","iSMC",1,5,-131210.762069,0.00183174,"FlatRecombination","AncientIncreasingPopSize",1.5e-09,0.0002198088,0,300
"62","iSMC",5,5,-660503.535548,0.00183174,"FlatRecombination","AncientIncreasingPopSize",1.5e-09,0.0002198088,0,300
"63","rhoSMC",1,5,-131212.30344,0.00183174,"FlatRecombination","AncientIncreasingPopSize",1.5e-09,0.0002198088,0,300
"64","rhoSMC",5,5,-660503.346911,0.00183174,"FlatRecombination","AncientIncreasingPopSize",1.5e-09,0.0002198088,0,300
"65","iSMC",1,6,-133850.886554,0.00180919,"FlatRecombination","AncientIncreasingPopSize",1.5e-09,0.0002171028,0,300
"66","iSMC",5,6,-664483.921313,0.00180919,"FlatRecombination","AncientIncreasingPopSize",1.5e-09,0.0002171028,0,300
"67","rhoSMC",1,6,-133850.624621,0.00180919,"FlatRecombination","AncientIncreasingPopSize",1.5e-09,0.0002171028,0,300
"68","rhoSMC",5,6,-664481.808921,0.00180919,"FlatRecombination","AncientIncreasingPopSize",1.5e-09,0.0002171028,0,300
"69","iSMC",1,7,-133670.051725,0.00184345,"FlatRecombination","AncientIncreasingPopSize",1.5e-09,0.000221214,0,300
"70","iSMC",5,7,-661037.066953,0.00184345,"FlatRecombination","AncientIncreasingPopSize",1.5e-09,0.000221214,0,300
"71","rhoSMC",1,7,-133668.582604,0.00184345,"FlatRecombination","AncientIncreasingPopSize",1.5e-09,0.000221214,0,300
"72","rhoSMC",5,7,-661032.566384,0.00184345,"FlatRecombination","AncientIncreasingPopSize",1.5e-09,0.000221214,0,300
"73","iSMC",1,8,-133330.529793,0.00186562,"FlatRecombination","AncientIncreasingPopSize",1.5e-09,0.0002238744,0,300
"74","iSMC",5,8,-681552.746251,0.00186562,"FlatRecombination","AncientIncreasingPopSize",1.5e-09,0.0002238744,0,300
"75","rhoSMC",1,8,-133330.078534,0.00186562,"FlatRecombination","AncientIncreasingPopSize",1.5e-09,0.0002238744,0,300
"76","rhoSMC",5,8,-681546.56074,0.00186562,"FlatRecombination","AncientIncreasingPopSize",1.5e-09,0.0002238744,0,300
"77","iSMC",1,9,-138072.476867,0.00185182,"FlatRecombination","AncientIncreasingPopSize",1.5e-09,0.0002222184,0,300
"78","iSMC",5,9,-686906.793722,0.00185182,"FlatRecombination","AncientIncreasingPopSize",1.5e-09,0.0002222184,0,300
"79","rhoSMC",1,9,-138076.599043,0.00185182,"FlatRecombination","AncientIncreasingPopSize",1.5e-09,0.0002222184,0,300
"80","rhoSMC",5,9,-686903.288089,0.00185182,"FlatRecombination","AncientIncreasingPopSize",1.5e-09,0.0002222184,0,300
"81","iSMC",1,0,-133215.192789,0.00183222,"FlatRecombination","AncientIncreasingPopSize",7.5e-09,0.001099332,0,300
"82","iSMC",5,0,-661577.84119,0.00183222,"FlatRecombination","AncientIncreasingPopSize",7.5e-09,0.001099332,0,300
"83","rhoSMC",1,0,-133212.458044,0.00183222,"FlatRecombination","AncientIncreasingPopSize",7.5e-09,0.001099332,0,300
"84","rhoSMC",5,0,-661571.190099,0.00183222,"FlatRecombination","AncientIncreasingPopSize",7.5e-09,0.001099332,0,300
"85","iSMC",1,1,-134225.349447,0.00182029,"FlatRecombination","AncientIncreasingPopSize",7.5e-09,0.001092174,0,300
"86","iSMC",5,1,-643177.212603,0.00182029,"FlatRecombination","AncientIncreasingPopSize",7.5e-09,0.001092174,0,300
"87","rhoSMC",1,1,-134222.456264,0.00182029,"FlatRecombination","AncientIncreasingPopSize",7.5e-09,0.001092174,0,300
"88","rhoSMC",5,1,-643169.172695,0.00182029,"FlatRecombination","AncientIncreasingPopSize",7.5e-09,0.001092174,0,300
"89","iSMC",1,2,-133087.759879,0.00182164,"FlatRecombination","AncientIncreasingPopSize",7.5e-09,0.001092984,0,300
"90","iSMC",5,2,-662639.665179,0.00182164,"FlatRecombination","AncientIncreasingPopSize",7.5e-09,0.001092984,0,300
"91","rhoSMC",1,2,-133088.800148,0.00182164,"FlatRecombination","AncientIncreasingPopSize",7.5e-09,0.001092984,0,300
"92","rhoSMC",5,2,-662639.573519,0.00182164,"FlatRecombination","AncientIncreasingPopSize",7.5e-09,0.001092984,0,300
"93","iSMC",1,3,-136362.737373,0.00183573,"FlatRecombination","AncientIncreasingPopSize",7.5e-09,0.001101438,0,300
"94","iSMC",5,3,-669016.588813,0.00183573,"FlatRecombination","AncientIncreasingPopSize",7.5e-09,0.001101438,0,300
"95","rhoSMC",1,3,-136362.417103,0.00183573,"FlatRecombination","AncientIncreasingPopSize",7.5e-09,0.001101438,0,300
"96","rhoSMC",5,3,-669014.312252,0.00183573,"FlatRecombination","AncientIncreasingPopSize",7.5e-09,0.001101438,0,300
"97","iSMC",1,4,-133319.975746,0.00184395,"FlatRecombination","AncientIncreasingPopSize",7.5e-09,0.00110637,0,300
"98","iSMC",5,4,-667177.562831,0.00184395,"FlatRecombination","AncientIncreasingPopSize",7.5e-09,0.00110637,0,300
"99","rhoSMC",1,4,-133319.444475,0.00184395,"FlatRecombination","AncientIncreasingPopSize",7.5e-09,0.00110637,0,300
"100","rhoSMC",5,4,-667185.847676,0.00184395,"FlatRecombination","AncientIncreasingPopSize",7.5e-09,0.00110637,0,300
"101","iSMC",1,5,-134610.075113,0.00183862,"FlatRecombination","AncientIncreasingPopSize",7.5e-09,0.001103172,0,300
"102","iSMC",5,5,-666951.31788,0.00183862,"FlatRecombination","AncientIncreasingPopSize",7.5e-09,0.001103172,0,300
"103","rhoSMC",1,5,-134610.115303,0.00183862,"FlatRecombination","AncientIncreasingPopSize",7.5e-09,0.001103172,0,300
"104","rhoSMC",5,5,-666948.547992,0.00183862,"FlatRecombination","AncientIncreasingPopSize",7.5e-09,0.001103172,0,300
"105","iSMC",1,6,-137659.291617,0.00184051,"FlatRecombination","AncientIncreasingPopSize",7.5e-09,0.001104306,0,300
"106","iSMC",5,6,-671256.421802,0.00184051,"FlatRecombination","AncientIncreasingPopSize",7.5e-09,0.001104306,0,300
"107","rhoSMC",1,6,-137667.057803,0.00184051,"FlatRecombination","AncientIncreasingPopSize",7.5e-09,0.001104306,0,300
"108","rhoSMC",5,6,-671257.690429,0.00184051,"FlatRecombination","AncientIncreasingPopSize",7.5e-09,0.001104306,0,300
"109","iSMC",1,7,-133534.346094,0.00183023,"FlatRecombination","AncientIncreasingPopSize",7.5e-09,0.001098138,0,300
"110","iSMC",5,7,-666493.291478,0.00183023,"FlatRecombination","AncientIncreasingPopSize",7.5e-09,0.001098138,0,300
"111","rhoSMC",1,7,-133532.383388,0.00183023,"FlatRecombination","AncientIncreasingPopSize",7.5e-09,0.001098138,0,300
"112","rhoSMC",5,7,-666490.787123,0.00183023,"FlatRecombination","AncientIncreasingPopSize",7.5e-09,0.001098138,0,300
"113","iSMC",1,8,-129312.238319,0.00184698,"FlatRecombination","AncientIncreasingPopSize",7.5e-09,0.001108188,0,300
"114","iSMC",5,8,-666191.858613,0.00184698,"FlatRecombination","AncientIncreasingPopSize",7.5e-09,0.001108188,0,300
"115","rhoSMC",1,8,-129312.992524,0.00184698,"FlatRecombination","AncientIncreasingPopSize",7.5e-09,0.001108188,0,300
"116","rhoSMC",5,8,-666188.050937,0.00184698,"FlatRecombination","AncientIncreasingPopSize",7.5e-09,0.001108188,0,300
"117","iSMC",1,9,-131367.848978,0.00183807,"FlatRecombination","AncientIncreasingPopSize",7.5e-09,0.001102842,0,300
"118","iSMC",5,9,-674364.925032,0.00183807,"FlatRecombination","AncientIncreasingPopSize",7.5e-09,0.001102842,0,300
"119","rhoSMC",1,9,-131368.696073,0.00183807,"FlatRecombination","AncientIncreasingPopSize",7.5e-09,0.001102842,0,300
"120","rhoSMC",5,9,-674362.201138,0.00183807,"FlatRecombination","AncientIncreasingPopSize",7.5e-09,0.001102842,0,300
"121","iSMC",1,0,-134259.630363,0.00181614,"FlatRecombination","AncientIncreasingPopSize",1.5e-08,0.002179368,0,300
"122","iSMC",5,0,-666077.611595,0.00181614,"FlatRecombination","AncientIncreasingPopSize",1.5e-08,0.002179368,0,300
"123","rhoSMC",1,0,-134259.538551,0.00181614,"FlatRecombination","AncientIncreasingPopSize",1.5e-08,0.002179368,0,300
"124","rhoSMC",5,0,-666073.500255,0.00181614,"FlatRecombination","AncientIncreasingPopSize",1.5e-08,0.002179368,0,300
"125","iSMC",1,1,-133631.243248,0.00183834,"FlatRecombination","AncientIncreasingPopSize",1.5e-08,0.002206008,0,300
"126","iSMC",5,1,-671741.406248,0.00183834,"FlatRecombination","AncientIncreasingPopSize",1.5e-08,0.002206008,0,300
"127","rhoSMC",1,1,-133629.422681,0.00183834,"FlatRecombination","AncientIncreasingPopSize",1.5e-08,0.002206008,0,300
"128","rhoSMC",5,1,-671739.090129,0.00183834,"FlatRecombination","AncientIncreasingPopSize",1.5e-08,0.002206008,0,300
"129","iSMC",1,2,-135175.327999,0.00184708,"FlatRecombination","AncientIncreasingPopSize",1.5e-08,0.002216496,0,300
"130","iSMC",5,2,-674569.489026,0.00184708,"FlatRecombination","AncientIncreasingPopSize",1.5e-08,0.002216496,0,300
"131","rhoSMC",1,2,-135174.729195,0.00184708,"FlatRecombination","AncientIncreasingPopSize",1.5e-08,0.002216496,0,300
"132","rhoSMC",5,2,-674562.835099,0.00184708,"FlatRecombination","AncientIncreasingPopSize",1.5e-08,0.002216496,0,300
"133","iSMC",1,3,-132698.53379,0.00184421,"FlatRecombination","AncientIncreasingPopSize",1.5e-08,0.002213052,0,300
"134","iSMC",5,3,-670952.110743,0.00184421,"FlatRecombination","AncientIncreasingPopSize",1.5e-08,0.002213052,0,300
"135","rhoSMC",1,3,-132689.178256,0.00184421,"FlatRecombination","AncientIncreasingPopSize",1.5e-08,0.002213052,0,300
"136","rhoSMC",5,3,-670950.501801,0.00184421,"FlatRecombination","AncientIncreasingPopSize",1.5e-08,0.002213052,0,300
"137","iSMC",1,4,-132994.733584,0.00183583,"FlatRecombination","AncientIncreasingPopSize",1.5e-08,0.002202996,0,300
"138","iSMC",5,4,-667827.513909,0.00183583,"FlatRecombination","AncientIncreasingPopSize",1.5e-08,0.002202996,0,300
"139","rhoSMC",1,4,-132993.938259,0.00183583,"FlatRecombination","AncientIncreasingPopSize",1.5e-08,0.002202996,0,300
"140","rhoSMC",5,4,-667824.697518,0.00183583,"FlatRecombination","AncientIncreasingPopSize",1.5e-08,0.002202996,0,300
"141","iSMC",1,5,-134948.944981,0.00184047,"FlatRecombination","AncientIncreasingPopSize",1.5e-08,0.002208564,0,300
"142","iSMC",5,5,-672606.928708,0.00184047,"FlatRecombination","AncientIncreasingPopSize",1.5e-08,0.002208564,0,300
"143","rhoSMC",1,5,-134944.216137,0.00184047,"FlatRecombination","AncientIncreasingPopSize",1.5e-08,0.002208564,0,300
"144","rhoSMC",5,5,-672601.029816,0.00184047,"FlatRecombination","AncientIncreasingPopSize",1.5e-08,0.002208564,0,300
"145","iSMC",1,6,-136571.568107,0.00183347,"FlatRecombination","AncientIncreasingPopSize",1.5e-08,0.002200164,0,300
"146","iSMC",5,6,-665398.443661,0.00183347,"FlatRecombination","AncientIncreasingPopSize",1.5e-08,0.002200164,0,300
"147","rhoSMC",1,6,-136584.446767,0.00183347,"FlatRecombination","AncientIncreasingPopSize",1.5e-08,0.002200164,0,300
"148","rhoSMC",5,6,-665393.206939,0.00183347,"FlatRecombination","AncientIncreasingPopSize",1.5e-08,0.002200164,0,300
"149","iSMC",1,7,-133621.973355,0.00184227,"FlatRecombination","AncientIncreasingPopSize",1.5e-08,0.002210724,0,300
"150","iSMC",5,7,-673487.989072,0.00184227,"FlatRecombination","AncientIncreasingPopSize",1.5e-08,0.002210724,0,300
"151","rhoSMC",1,7,-133617.043014,0.00184227,"FlatRecombination","AncientIncreasingPopSize",1.5e-08,0.002210724,0,300
"152","rhoSMC",5,7,-673480.411792,0.00184227,"FlatRecombination","AncientIncreasingPopSize",1.5e-08,0.002210724,0,300
"153","iSMC",1,8,-135749.780014,0.00185124,"FlatRecombination","AncientIncreasingPopSize",1.5e-08,0.002221488,0,300
"154","iSMC",5,8,-676278.016868,0.00185124,"FlatRecombination","AncientIncreasingPopSize",1.5e-08,0.002221488,0,300
"155","rhoSMC",1,8,-135744.664599,0.00185124,"FlatRecombination","AncientIncreasingPopSize",1.5e-08,0.002221488,0,300
"156","rhoSMC",5,8,-676273.722846,0.00185124,"FlatRecombination","AncientIncreasingPopSize",1.5e-08,0.002221488,0,300
"157","iSMC",1,9,-134834.101702,0.00183462,"FlatRecombination","AncientIncreasingPopSize",1.5e-08,0.002201544,0,300
"158","iSMC",5,9,-671536.483575,0.00183462,"FlatRecombination","AncientIncreasingPopSize",1.5e-08,0.002201544,0,300
"159","rhoSMC",1,9,-134833.739294,0.00183462,"FlatRecombination","AncientIncreasingPopSize",1.5e-08,0.002201544,0,300
"160","rhoSMC",5,9,-671534.223117,0.00183462,"FlatRecombination","AncientIncreasingPopSize",1.5e-08,0.002201544,0,300
"161","iSMC",1,0,-134323.978681,0.00183849,"FlatRecombination","AncientIncreasingPopSize",7.5e-08,0.01103094,0,300
"162","iSMC",5,0,-671686.008266,0.00183849,"FlatRecombination","AncientIncreasingPopSize",7.5e-08,0.01103094,0,300
"163","rhoSMC",1,0,-134324.823323,0.00183849,"FlatRecombination","AncientIncreasingPopSize",7.5e-08,0.01103094,0,300
"164","rhoSMC",5,0,-671511.739761,0.00183849,"FlatRecombination","AncientIncreasingPopSize",7.5e-08,0.01103094,0,300
"165","iSMC",1,1,-133151.19975,0.00182473,"FlatRecombination","AncientIncreasingPopSize",7.5e-08,0.01094838,0,300
"166","iSMC",5,1,-667648.440277,0.00182473,"FlatRecombination","AncientIncreasingPopSize",7.5e-08,0.01094838,0,300
"167","rhoSMC",1,1,-133135.439372,0.00182473,"FlatRecombination","AncientIncreasingPopSize",7.5e-08,0.01094838,0,300
"168","rhoSMC",5,1,-667640.69012,0.00182473,"FlatRecombination","AncientIncreasingPopSize",7.5e-08,0.01094838,0,300
"169","iSMC",1,2,-132410.739948,0.00183004,"FlatRecombination","AncientIncreasingPopSize",7.5e-08,0.01098024,0,300
"170","iSMC",5,2,-666392.255082,0.00183004,"FlatRecombination","AncientIncreasingPopSize",7.5e-08,0.01098024,0,300
"171","rhoSMC",1,2,-132407.422517,0.00183004,"FlatRecombination","AncientIncreasingPopSize",7.5e-08,0.01098024,0,300
"172","rhoSMC",5,2,-666357.619967,0.00183004,"FlatRecombination","AncientIncreasingPopSize",7.5e-08,0.01098024,0,300
"173","iSMC",1,3,-133922.510706,0.00182974,"FlatRecombination","AncientIncreasingPopSize",7.5e-08,0.01097844,0,300
"174","iSMC",5,3,-666267.515714,0.00182974,"FlatRecombination","AncientIncreasingPopSize",7.5e-08,0.01097844,0,300
"175","rhoSMC",1,3,-133895.009597,0.00182974,"FlatRecombination","AncientIncreasingPopSize",7.5e-08,0.01097844,0,300
"176","rhoSMC",5,3,-666266.549462,0.00182974,"FlatRecombination","AncientIncreasingPopSize",7.5e-08,0.01097844,0,300
"177","iSMC",1,4,-133223.115125,0.00181484,"FlatRecombination","AncientIncreasingPopSize",7.5e-08,0.01088904,0,300
"178","iSMC",5,4,-661704.797873,0.00181484,"FlatRecombination","AncientIncreasingPopSize",7.5e-08,0.01088904,0,300
"179","rhoSMC",1,4,-133194.788956,0.00181484,"FlatRecombination","AncientIncreasingPopSize",7.5e-08,0.01088904,0,300
"180","rhoSMC",5,4,-661645.729654,0.00181484,"FlatRecombination","AncientIncreasingPopSize",7.5e-08,0.01088904,0,300
"181","iSMC",1,5,-133942.255164,0.00184104,"FlatRecombination","AncientIncreasingPopSize",7.5e-08,0.01104624,0,300
"182","iSMC",5,5,-672245.742636,0.00184104,"FlatRecombination","AncientIncreasingPopSize",7.5e-08,0.01104624,0,300
"183","rhoSMC",1,5,-133944.02464,0.00184104,"FlatRecombination","AncientIncreasingPopSize",7.5e-08,0.01104624,0,300
"184","rhoSMC",5,5,-672202.441852,0.00184104,"FlatRecombination","AncientIncreasingPopSize",7.5e-08,0.01104624,0,300
"185","iSMC",1,6,-134909.185741,0.00183161,"FlatRecombination","AncientIncreasingPopSize",7.5e-08,0.01098966,0,300
"186","iSMC",5,6,-668467.446876,0.00183161,"FlatRecombination","AncientIncreasingPopSize",7.5e-08,0.01098966,0,300
"187","rhoSMC",1,6,-134861.826733,0.00183161,"FlatRecombination","AncientIncreasingPopSize",7.5e-08,0.01098966,0,300
"188","rhoSMC",5,6,-668414.936884,0.00183161,"FlatRecombination","AncientIncreasingPopSize",7.5e-08,0.01098966,0,300
"189","iSMC",1,7,-133760.371327,0.00183219,"FlatRecombination","AncientIncreasingPopSize",7.5e-08,0.01099314,0,300
"190","iSMC",5,7,-665621.657765,0.00183219,"FlatRecombination","AncientIncreasingPopSize",7.5e-08,0.01099314,0,300
"191","rhoSMC",1,7,-133743.309942,0.00183219,"FlatRecombination","AncientIncreasingPopSize",7.5e-08,0.01099314,0,300
"192","rhoSMC",5,7,-665624.744121,0.00183219,"FlatRecombination","AncientIncreasingPopSize",7.5e-08,0.01099314,0,300
"193","iSMC",1,8,-134509.039766,0.001828,"FlatRecombination","AncientIncreasingPopSize",7.5e-08,0.010968,0,300
"194","iSMC",5,8,-668179.037676,0.001828,"FlatRecombination","AncientIncreasingPopSize",7.5e-08,0.010968,0,300
"195","rhoSMC",1,8,-134476.92879,0.001828,"FlatRecombination","AncientIncreasingPopSize",7.5e-08,0.010968,0,300
"196","rhoSMC",5,8,-668067.803251,0.001828,"FlatRecombination","AncientIncreasingPopSize",7.5e-08,0.010968,0,300
"197","iSMC",1,9,-133257.73121,0.00183157,"FlatRecombination","AncientIncreasingPopSize",7.5e-08,0.01098942,0,300
"198","iSMC",5,9,-668649.730253,0.00183157,"FlatRecombination","AncientIncreasingPopSize",7.5e-08,0.01098942,0,300
"199","rhoSMC",1,9,-133360.241172,0.00183157,"FlatRecombination","AncientIncreasingPopSize",7.5e-08,0.01098942,0,300
"200","rhoSMC",5,9,-668567.743733,0.00183157,"FlatRecombination","AncientIncreasingPopSize",7.5e-08,0.01098942,0,300
"201","iSMC",1,0,-125027.529635,0.00183247,"FlatRecombination","AncientIncreasingPopSize",1.5e-08,0.002198964,0.1,300
"202","iSMC",5,0,-656834.437775,0.00183247,"FlatRecombination","AncientIncreasingPopSize",1.5e-08,0.002198964,0.1,300
"203","rhoSMC",1,0,-125025.933829,0.00183247,"FlatRecombination","AncientIncreasingPopSize",1.5e-08,0.002198964,0.1,300
"204","rhoSMC",5,0,-656834.582326,0.00183247,"FlatRecombination","AncientIncreasingPopSize",1.5e-08,0.002198964,0.1,300
"205","iSMC",1,1,-133080.443424,0.00183498,"FlatRecombination","AncientIncreasingPopSize",1.5e-08,0.002201976,0.1,300
"206","iSMC",5,1,-668354.363801,0.00183498,"FlatRecombination","AncientIncreasingPopSize",1.5e-08,0.002201976,0.1,300
"207","rhoSMC",1,1,-133075.790829,0.00183498,"FlatRecombination","AncientIncreasingPopSize",1.5e-08,0.002201976,0.1,300
"208","rhoSMC",5,1,-668316.377877,0.00183498,"FlatRecombination","AncientIncreasingPopSize",1.5e-08,0.002201976,0.1,300
"209","iSMC",1,2,-132103.56552,0.00184381,"FlatRecombination","AncientIncreasingPopSize",1.5e-08,0.002212572,0.1,300
"210","iSMC",5,2,-665640.057358,0.00184381,"FlatRecombination","AncientIncreasingPopSize",1.5e-08,0.002212572,0.1,300
"211","rhoSMC",1,2,-132100.583424,0.00184381,"FlatRecombination","AncientIncreasingPopSize",1.5e-08,0.002212572,0.1,300
"212","rhoSMC",5,2,-665619.924818,0.00184381,"FlatRecombination","AncientIncreasingPopSize",1.5e-08,0.002212572,0.1,300
"213","iSMC",1,3,-136075.057716,0.00184762,"FlatRecombination","AncientIncreasingPopSize",1.5e-08,0.002217144,0.1,300
"214","iSMC",5,3,-674707.42379,0.00184762,"FlatRecombination","AncientIncreasingPopSize",1.5e-08,0.002217144,0.1,300
"215","rhoSMC",1,3,-136071.424531,0.00184762,"FlatRecombination","AncientIncreasingPopSize",1.5e-08,0.002217144,0.1,300
"216","rhoSMC",5,3,-674704.911124,0.00184762,"FlatRecombination","AncientIncreasingPopSize",1.5e-08,0.002217144,0.1,300
"217","iSMC",1,4,-134088.882594,0.00182518,"FlatRecombination","AncientIncreasingPopSize",1.5e-08,0.002190216,0.1,300
"218","iSMC",5,4,-664035.526143,0.00182518,"FlatRecombination","AncientIncreasingPopSize",1.5e-08,0.002190216,0.1,300
"219","rhoSMC",1,4,-134088.822753,0.00182518,"FlatRecombination","AncientIncreasingPopSize",1.5e-08,0.002190216,0.1,300
"220","rhoSMC",5,4,-664032.766599,0.00182518,"FlatRecombination","AncientIncreasingPopSize",1.5e-08,0.002190216,0.1,300
"221","iSMC",1,5,-131160.680379,0.00181715,"FlatRecombination","AncientIncreasingPopSize",1.5e-08,0.00218058,0.1,300
"222","iSMC",5,5,-663815.880625,0.00181715,"FlatRecombination","AncientIncreasingPopSize",1.5e-08,0.00218058,0.1,300
"223","rhoSMC",1,5,-131160.509627,0.00181715,"FlatRecombination","AncientIncreasingPopSize",1.5e-08,0.00218058,0.1,300
"224","rhoSMC",5,5,-663806.490358,0.00181715,"FlatRecombination","AncientIncreasingPopSize",1.5e-08,0.00218058,0.1,300
"225","iSMC",1,6,-135222.861431,0.00183304,"FlatRecombination","AncientIncreasingPopSize",1.5e-08,0.002199648,0.1,300
"226","iSMC",5,6,-669800.419161,0.00183304,"FlatRecombination","AncientIncreasingPopSize",1.5e-08,0.002199648,0.1,300
"227","rhoSMC",1,6,-135210.836721,0.00183304,"FlatRecombination","AncientIncreasingPopSize",1.5e-08,0.002199648,0.1,300
"228","rhoSMC",5,6,-669790.202735,0.00183304,"FlatRecombination","AncientIncreasingPopSize",1.5e-08,0.002199648,0.1,300
"229","iSMC",1,7,-133078.108977,0.00184124,"FlatRecombination","AncientIncreasingPopSize",1.5e-08,0.002209488,0.1,300
"230","iSMC",5,7,-672972.775236,0.00184124,"FlatRecombination","AncientIncreasingPopSize",1.5e-08,0.002209488,0.1,300
"231","rhoSMC",1,7,-133077.352447,0.00184124,"FlatRecombination","AncientIncreasingPopSize",1.5e-08,0.002209488,0.1,300
"232","rhoSMC",5,7,-672967.322506,0.00184124,"FlatRecombination","AncientIncreasingPopSize",1.5e-08,0.002209488,0.1,300
"233","iSMC",1,8,-131083.349619,0.00182758,"FlatRecombination","AncientIncreasingPopSize",1.5e-08,0.002193096,0.1,300
"234","iSMC",5,8,-660736.032485,0.00182758,"FlatRecombination","AncientIncreasingPopSize",1.5e-08,0.002193096,0.1,300
"235","rhoSMC",1,8,-131084.659844,0.00182758,"FlatRecombination","AncientIncreasingPopSize",1.5e-08,0.002193096,0.1,300
"236","rhoSMC",5,8,-660735.91403,0.00182758,"FlatRecombination","AncientIncreasingPopSize",1.5e-08,0.002193096,0.1,300
"237","iSMC",1,9,-133581.779313,0.00184798,"FlatRecombination","AncientIncreasingPopSize",1.5e-08,0.002217576,0.1,300
"238","iSMC",5,9,-673842.244723,0.00184798,"FlatRecombination","AncientIncreasingPopSize",1.5e-08,0.002217576,0.1,300
"239","rhoSMC",1,9,-133581.78385,0.00184798,"FlatRecombination","AncientIncreasingPopSize",1.5e-08,0.002217576,0.1,300
"240","rhoSMC",5,9,-673844.318749,0.00184798,"FlatRecombination","AncientIncreasingPopSize",1.5e-08,0.002217576,0.1,300
"241","iSMC",1,0,-136011.380938,0.00182941,"FlatRecombination","AncientIncreasingPopSize",1.5e-08,0.002195292,0.5,300
"242","iSMC",5,0,-666388.25716,0.00182941,"FlatRecombination","AncientIncreasingPopSize",1.5e-08,0.002195292,0.5,300
"243","rhoSMC",1,0,-136010.937679,0.00182941,"FlatRecombination","AncientIncreasingPopSize",1.5e-08,0.002195292,0.5,300
"244","rhoSMC",5,0,-666379.975721,0.00182941,"FlatRecombination","AncientIncreasingPopSize",1.5e-08,0.002195292,0.5,300
"245","iSMC",1,1,-136361.297664,0.00184218,"FlatRecombination","AncientIncreasingPopSize",1.5e-08,0.002210616,0.5,300
"246","iSMC",5,1,-676768.15819,0.00184218,"FlatRecombination","AncientIncreasingPopSize",1.5e-08,0.002210616,0.5,300
"247","rhoSMC",1,1,-136358.662898,0.00184218,"FlatRecombination","AncientIncreasingPopSize",1.5e-08,0.002210616,0.5,300
"248","rhoSMC",5,1,-676766.083022,0.00184218,"FlatRecombination","AncientIncreasingPopSize",1.5e-08,0.002210616,0.5,300
"249","iSMC",1,2,-134651.350839,0.00183028,"FlatRecombination","AncientIncreasingPopSize",1.5e-08,0.002196336,0.5,300
"250","iSMC",5,2,-668609.598905,0.00183028,"FlatRecombination","AncientIncreasingPopSize",1.5e-08,0.002196336,0.5,300
"251","rhoSMC",1,2,-134647.735407,0.00183028,"FlatRecombination","AncientIncreasingPopSize",1.5e-08,0.002196336,0.5,300
"252","rhoSMC",5,2,-668603.210458,0.00183028,"FlatRecombination","AncientIncreasingPopSize",1.5e-08,0.002196336,0.5,300
"253","iSMC",1,3,-134733.571874,0.00184091,"FlatRecombination","AncientIncreasingPopSize",1.5e-08,0.002209092,0.5,300
"254","iSMC",5,3,-671469.788665,0.00184091,"FlatRecombination","AncientIncreasingPopSize",1.5e-08,0.002209092,0.5,300
"255","rhoSMC",1,3,-134733.13895,0.00184091,"FlatRecombination","AncientIncreasingPopSize",1.5e-08,0.002209092,0.5,300
"256","rhoSMC",5,3,-671461.591737,0.00184091,"FlatRecombination","AncientIncreasingPopSize",1.5e-08,0.002209092,0.5,300
"257","iSMC",1,4,-134353.611555,0.00183876,"FlatRecombination","AncientIncreasingPopSize",1.5e-08,0.002206512,0.5,300
"258","iSMC",5,4,-673147.600292,0.00183876,"FlatRecombination","AncientIncreasingPopSize",1.5e-08,0.002206512,0.5,300
"259","rhoSMC",1,4,-134351.478161,0.00183876,"FlatRecombination","AncientIncreasingPopSize",1.5e-08,0.002206512,0.5,300
"260","rhoSMC",5,4,-673134.551382,0.00183876,"FlatRecombination","AncientIncreasingPopSize",1.5e-08,0.002206512,0.5,300
"261","iSMC",1,5,-132781.873458,0.00182275,"FlatRecombination","AncientIncreasingPopSize",1.5e-08,0.0021873,0.5,300
"262","iSMC",5,5,-665650.30253,0.00182275,"FlatRecombination","AncientIncreasingPopSize",1.5e-08,0.0021873,0.5,300
"263","rhoSMC",1,5,-132774.525421,0.00182275,"FlatRecombination","AncientIncreasingPopSize",1.5e-08,0.0021873,0.5,300
"264","rhoSMC",5,5,-665642.576624,0.00182275,"FlatRecombination","AncientIncreasingPopSize",1.5e-08,0.0021873,0.5,300
"265","iSMC",1,6,-134200.848515,0.00182149,"FlatRecombination","AncientIncreasingPopSize",1.5e-08,0.002185788,0.5,300
"266","iSMC",5,6,-658735.866757,0.00182149,"FlatRecombination","AncientIncreasingPopSize",1.5e-08,0.002185788,0.5,300
"267","rhoSMC",1,6,-134199.888021,0.00182149,"FlatRecombination","AncientIncreasingPopSize",1.5e-08,0.002185788,0.5,300
"268","rhoSMC",5,6,-658715.914497,0.00182149,"FlatRecombination","AncientIncreasingPopSize",1.5e-08,0.002185788,0.5,300
"269","iSMC",1,7,-132405.353864,0.00183206,"FlatRecombination","AncientIncreasingPopSize",1.5e-08,0.002198472,0.5,300
"270","iSMC",5,7,-663709.091238,0.00183206,"FlatRecombination","AncientIncreasingPopSize",1.5e-08,0.002198472,0.5,300
"271","rhoSMC",1,7,-132400.989751,0.00183206,"FlatRecombination","AncientIncreasingPopSize",1.5e-08,0.002198472,0.5,300
"272","rhoSMC",5,7,-663694.203306,0.00183206,"FlatRecombination","AncientIncreasingPopSize",1.5e-08,0.002198472,0.5,300
"273","iSMC",1,8,-133331.7129,0.00181347,"FlatRecombination","AncientIncreasingPopSize",1.5e-08,0.002176164,0.5,300
"274","iSMC",5,8,-665648.462712,0.00181347,"FlatRecombination","AncientIncreasingPopSize",1.5e-08,0.002176164,0.5,300
"275","rhoSMC",1,8,-133339.504122,0.00181347,"FlatRecombination","AncientIncreasingPopSize",1.5e-08,0.002176164,0.5,300
"276","rhoSMC",5,8,-665637.242264,0.00181347,"FlatRecombination","AncientIncreasingPopSize",1.5e-08,0.002176164,0.5,300
"277","iSMC",1,9,-135523.790862,0.00183883,"FlatRecombination","AncientIncreasingPopSize",1.5e-08,0.002206596,0.5,300
"278","iSMC",5,9,-665197.408374,0.00183883,"FlatRecombination","AncientIncreasingPopSize",1.5e-08,0.002206596,0.5,300
"279","rhoSMC",1,9,-135522.549448,0.00183883,"FlatRecombination","AncientIncreasingPopSize",1.5e-08,0.002206596,0.5,300
"280","rhoSMC",5,9,-665185.793596,0.00183883,"FlatRecombination","AncientIncreasingPopSize",1.5e-08,0.002206596,0.5,300
"281","iSMC",1,0,-134974.508476,0.00184659,"FlatRecombination","AncientIncreasingPopSize",1.5e-08,0.002215908,0.9,300
"282","iSMC",5,0,-675535.343874,0.00184659,"FlatRecombination","AncientIncreasingPopSize",1.5e-08,0.002215908,0.9,300
"283","rhoSMC",1,0,-134961.746364,0.00184659,"FlatRecombination","AncientIncreasingPopSize",1.5e-08,0.002215908,0.9,300
"284","rhoSMC",5,0,-675491.563622,0.00184659,"FlatRecombination","AncientIncreasingPopSize",1.5e-08,0.002215908,0.9,300
"285","iSMC",1,1,-133870.086013,0.00183326,"FlatRecombination","AncientIncreasingPopSize",1.5e-08,0.002199912,0.9,300
"286","iSMC",5,1,-660814.626758,0.00183326,"FlatRecombination","AncientIncreasingPopSize",1.5e-08,0.002199912,0.9,300
"287","rhoSMC",1,1,-133865.996882,0.00183326,"FlatRecombination","AncientIncreasingPopSize",1.5e-08,0.002199912,0.9,300
"288","rhoSMC",5,1,-660790.724016,0.00183326,"FlatRecombination","AncientIncreasingPopSize",1.5e-08,0.002199912,0.9,300
"289","iSMC",1,2,-131164.833092,0.00183658,"FlatRecombination","AncientIncreasingPopSize",1.5e-08,0.002203896,0.9,300
"290","iSMC",5,2,-656849.445239,0.00183658,"FlatRecombination","AncientIncreasingPopSize",1.5e-08,0.002203896,0.9,300
"291","rhoSMC",1,2,-131158.08614,0.00183658,"FlatRecombination","AncientIncreasingPopSize",1.5e-08,0.002203896,0.9,300
"292","rhoSMC",5,2,-656819.214085,0.00183658,"FlatRecombination","AncientIncreasingPopSize",1.5e-08,0.002203896,0.9,300
"293","iSMC",1,3,-135097.422227,0.00182504,"FlatRecombination","AncientIncreasingPopSize",1.5e-08,0.002190048,0.9,300
"294","iSMC",5,3,-667270.866586,0.00182504,"FlatRecombination","AncientIncreasingPopSize",1.5e-08,0.002190048,0.9,300
"295","rhoSMC",1,3,-135091.673246,0.00182504,"FlatRecombination","AncientIncreasingPopSize",1.5e-08,0.002190048,0.9,300
"296","rhoSMC",5,3,-667230.630036,0.00182504,"FlatRecombination","AncientIncreasingPopSize",1.5e-08,0.002190048,0.9,300
"297","iSMC",1,4,-134855.89023,0.00181165,"FlatRecombination","AncientIncreasingPopSize",1.5e-08,0.00217398,0.9,300
"298","iSMC",5,4,-669488.293359,0.00181165,"FlatRecombination","AncientIncreasingPopSize",1.5e-08,0.00217398,0.9,300
"299","rhoSMC",1,4,-134847.563625,0.00181165,"FlatRecombination","AncientIncreasingPopSize",1.5e-08,0.00217398,0.9,300
"300","rhoSMC",5,4,-669450.320548,0.00181165,"FlatRecombination","AncientIncreasingPopSize",1.5e-08,0.00217398,0.9,300
"301","iSMC",1,5,-121946.779971,0.00186553,"FlatRecombination","AncientIncreasingPopSize",1.5e-08,0.002238636,0.9,300
"302","iSMC",5,5,-668994.873673,0.00186553,"FlatRecombination","AncientIncreasingPopSize",1.5e-08,0.002238636,0.9,300
"303","rhoSMC",1,5,-121946.502813,0.00186553,"FlatRecombination","AncientIncreasingPopSize",1.5e-08,0.002238636,0.9,300
"304","rhoSMC",5,5,-668969.822447,0.00186553,"FlatRecombination","AncientIncreasingPopSize",1.5e-08,0.002238636,0.9,300
"305","iSMC",1,6,-131810.838847,0.00181543,"FlatRecombination","AncientIncreasingPopSize",1.5e-08,0.002178516,0.9,300
"306","iSMC",5,6,-669675.931781,0.00181543,"FlatRecombination","AncientIncreasingPopSize",1.5e-08,0.002178516,0.9,300
"307","rhoSMC",1,6,-131800.666359,0.00181543,"FlatRecombination","AncientIncreasingPopSize",1.5e-08,0.002178516,0.9,300
"308","rhoSMC",5,6,-669646.658831,0.00181543,"FlatRecombination","AncientIncreasingPopSize",1.5e-08,0.002178516,0.9,300
"309","iSMC",1,7,-139702.053202,0.00186399,"FlatRecombination","AncientIncreasingPopSize",1.5e-08,0.002236788,0.9,300
"310","iSMC",5,7,-659402.846414,0.00186399,"FlatRecombination","AncientIncreasingPopSize",1.5e-08,0.002236788,0.9,300
"311","rhoSMC",1,7,-139698.441952,0.00186399,"FlatRecombination","AncientIncreasingPopSize",1.5e-08,0.002236788,0.9,300
"312","rhoSMC",5,7,-659389.859284,0.00186399,"FlatRecombination","AncientIncreasingPopSize",1.5e-08,0.002236788,0.9,300
"313","iSMC",1,8,-139560.566612,0.00184196,"FlatRecombination","AncientIncreasingPopSize",1.5e-08,0.002210352,0.9,300
"314","iSMC",5,8,-662335.277779,0.00184196,"FlatRecombination","AncientIncreasingPopSize",1.5e-08,0.002210352,0.9,300
"315","rhoSMC",1,8,-139546.394449,0.00184196,"FlatRecombination","AncientIncreasingPopSize",1.5e-08,0.002210352,0.9,300
"316","rhoSMC",5,8,-662291.288255,0.00184196,"FlatRecombination","AncientIncreasingPopSize",1.5e-08,0.002210352,0.9,300
"317","iSMC",1,9,-133281.951301,0.00184267,"FlatRecombination","AncientIncreasingPopSize",1.5e-08,0.002211204,0.9,300
"318","iSMC",5,9,-664974.633754,0.00184267,"FlatRecombination","AncientIncreasingPopSize",1.5e-08,0.002211204,0.9,300
"319","rhoSMC",1,9,-133275.958483,0.00184267,"FlatRecombination","AncientIncreasingPopSize",1.5e-08,0.002211204,0.9,300
"320","rhoSMC",5,9,-664946.522506,0.00184267,"FlatRecombination","AncientIncreasingPopSize",1.5e-08,0.002211204,0.9,300
"321","iSMC",1,0,-170895.57923,0.00189194,"FlatRecombination","AncientIncreasingPopSize",1.5e-08,0.002270328,1,300
"322","iSMC",5,0,-764335.48509,0.00189194,"FlatRecombination","AncientIncreasingPopSize",1.5e-08,0.002270328,1,300
"323","rhoSMC",1,0,-170917.771377,0.00189194,"FlatRecombination","AncientIncreasingPopSize",1.5e-08,0.002270328,1,300
"324","rhoSMC",5,0,-762416.316458,0.00189194,"FlatRecombination","AncientIncreasingPopSize",1.5e-08,0.002270328,1,300
"325","iSMC",1,1,-150148.204183,0.00157269,"FlatRecombination","AncientIncreasingPopSize",1.5e-08,0.001887228,1,300
"326","iSMC",5,1,-726123.516565,0.00157269,"FlatRecombination","AncientIncreasingPopSize",1.5e-08,0.001887228,1,300
"327","rhoSMC",1,1,-150147.059706,0.00157269,"FlatRecombination","AncientIncreasingPopSize",1.5e-08,0.001887228,1,300
"328","rhoSMC",5,1,-725828.732024,0.00157269,"FlatRecombination","AncientIncreasingPopSize",1.5e-08,0.001887228,1,300
"329","iSMC",1,2,-98859.103258,0.00157172,"FlatRecombination","AncientIncreasingPopSize",1.5e-08,0.001886064,1,300
"330","iSMC",5,2,-642851.694235,0.00157172,"FlatRecombination","AncientIncreasingPopSize",1.5e-08,0.001886064,1,300
"331","rhoSMC",1,2,-98868.722929,0.00157172,"FlatRecombination","AncientIncreasingPopSize",1.5e-08,0.001886064,1,300
"332","rhoSMC",5,2,-641343.68094,0.00157172,"FlatRecombination","AncientIncreasingPopSize",1.5e-08,0.001886064,1,300
"333","iSMC",1,3,-161742.660717,0.00186307,"FlatRecombination","AncientIncreasingPopSize",1.5e-08,0.002235684,1,300
"334","iSMC",5,3,-862692.839961,0.00186307,"FlatRecombination","AncientIncreasingPopSize",1.5e-08,0.002235684,1,300
"335","rhoSMC",1,3,-161741.895268,0.00186307,"FlatRecombination","AncientIncreasingPopSize",1.5e-08,0.002235684,1,300
"336","rhoSMC",5,3,-862617.233761,0.00186307,"FlatRecombination","AncientIncreasingPopSize",1.5e-08,0.002235684,1,300
"337","iSMC",1,4,-138476.598928,0.00222207,"FlatRecombination","AncientIncreasingPopSize",1.5e-08,0.002666484,1,300
"338","iSMC",5,4,-872030.701532,0.00222207,"FlatRecombination","AncientIncreasingPopSize",1.5e-08,0.002666484,1,300
"339","rhoSMC",1,4,-138494.213375,0.00222207,"FlatRecombination","AncientIncreasingPopSize",1.5e-08,0.002666484,1,300
"340","rhoSMC",5,4,-871031.554546,0.00222207,"FlatRecombination","AncientIncreasingPopSize",1.5e-08,0.002666484,1,300
"341","iSMC",1,5,-150737.804541,0.00189369,"FlatRecombination","AncientIncreasingPopSize",1.5e-08,0.002272428,1,300
"342","iSMC",5,5,-648554.284656,0.00189369,"FlatRecombination","AncientIncreasingPopSize",1.5e-08,0.002272428,1,300
"343","rhoSMC",1,5,-150747.996742,0.00189369,"FlatRecombination","AncientIncreasingPopSize",1.5e-08,0.002272428,1,300
"344","rhoSMC",5,5,-648554.283976,0.00189369,"FlatRecombination","AncientIncreasingPopSize",1.5e-08,0.002272428,1,300
"345","iSMC",1,6,-186096.863568,0.00188893,"FlatRecombination","AncientIncreasingPopSize",1.5e-08,0.002266716,1,300
"346","iSMC",5,6,-746972.915694,0.00188893,"FlatRecombination","AncientIncreasingPopSize",1.5e-08,0.002266716,1,300
"347","rhoSMC",1,6,-186076.790642,0.00188893,"FlatRecombination","AncientIncreasingPopSize",1.5e-08,0.002266716,1,300
"348","rhoSMC",5,6,-746972.91568,0.00188893,"FlatRecombination","AncientIncreasingPopSize",1.5e-08,0.002266716,1,300
"349","iSMC",1,7,-166045.518612,0.00216783,"FlatRecombination","AncientIncreasingPopSize",1.5e-08,0.002601396,1,300
"350","iSMC",5,7,-742641.53931,0.00216783,"FlatRecombination","AncientIncreasingPopSize",1.5e-08,0.002601396,1,300
"351","rhoSMC",1,7,-166045.861881,0.00216783,"FlatRecombination","AncientIncreasingPopSize",1.5e-08,0.002601396,1,300
"352","rhoSMC",5,7,-742641.539296,0.00216783,"FlatRecombination","AncientIncreasingPopSize",1.5e-08,0.002601396,1,300
"353","iSMC",1,8,-210215.129299,0.00226802,"FlatRecombination","AncientIncreasingPopSize",1.5e-08,0.002721624,1,300
"354","iSMC",5,8,-876213.982342,0.00226802,"FlatRecombination","AncientIncreasingPopSize",1.5e-08,0.002721624,1,300
"355","rhoSMC",1,8,-210171.958861,0.00226802,"FlatRecombination","AncientIncreasingPopSize",1.5e-08,0.002721624,1,300
"356","rhoSMC",5,8,-876126.300114,0.00226802,"FlatRecombination","AncientIncreasingPopSize",1.5e-08,0.002721624,1,300
"357","iSMC",1,9,-131704.55596,0.00186888,"FlatRecombination","AncientIncreasingPopSize",1.5e-08,0.002242656,1,300
"358","iSMC",5,9,-617717.265735,0.00186888,"FlatRecombination","AncientIncreasingPopSize",1.5e-08,0.002242656,1,300
"359","rhoSMC",1,9,-131718.208684,0.00186888,"FlatRecombination","AncientIncreasingPopSize",1.5e-08,0.002242656,1,300
"360","rhoSMC",5,9,-617717.264964,0.00186888,"FlatRecombination","AncientIncreasingPopSize",1.5e-08,0.002242656,1,300
