"Replicate","Pyrho","Pyrho.p.value","rhoSMC","rhoSMC.p.value","WinSizeKb","RecombinationLandscape","DemographicModel","SimRec","GcProp","GcTrack"
0,0.612443040742202,5.60556666482351e-22,0.719831995799895,3.17236309968003e-33,50,"VariableRecombination","IncreasingPopSize",1.5e-09,0,300
1,0.696819920498013,2.13782683169718e-30,0.719774994374859,3.22654896293306e-33,50,"VariableRecombination","IncreasingPopSize",1.5e-09,0,300
2,0.641189529738244,1.49753249261816e-24,0.694356858921473,4.13912480369601e-30,50,"VariableRecombination","IncreasingPopSize",1.5e-09,0,300
3,0.657735940049525,3.68122864128399e-26,0.72088052201305,2.32143541275311e-33,50,"VariableRecombination","IncreasingPopSize",1.5e-09,0,300
4,0.641286522645557,1.46632107511973e-24,-0.0285281091143774,0.688419246696318,50,"VariableRecombination","IncreasingPopSize",1.5e-09,0,300
5,0.68512187033032,4.65026179569496e-29,0.7644806120153,1.29979194569123e-39,50,"VariableRecombination","IncreasingPopSize",1.5e-09,0,300
6,0.623084438243975,6.71564512326853e-23,0.350846771169279,3.51577910808042e-07,50,"VariableRecombination","IncreasingPopSize",1.5e-09,0,300
7,0.626103652591315,3.6237024561601e-23,0.380095927760596,2.83320385756538e-08,50,"VariableRecombination","IncreasingPopSize",1.5e-09,0,300
8,0.690571773258795,1.12787367709017e-29,0.284390609765244,0.0000447895686084893,50,"VariableRecombination","IncreasingPopSize",1.5e-09,0,300
9,0.616129903247581,2.71207286877739e-22,0.27942107849652,0.00006150869870817,50,"VariableRecombination","IncreasingPopSize",1.5e-09,0,300
0,0.856855921398035,7.07907503946874e-59,0.78967974199355,6.98704295948534e-44,50,"VariableRecombination","IncreasingPopSize",7.5e-09,0,300
1,0.80238355958899,2.90296994451976e-46,0.812595814895373,2.62433956943487e-48,50,"VariableRecombination","IncreasingPopSize",7.5e-09,0,300
2,0.801105527638191,5.13086894744857e-46,0.796768919222981,3.43747404204828e-45,50,"VariableRecombination","IncreasingPopSize",7.5e-09,0,300
3,0.815621390534763,6.15646288463289e-49,0.784654616365409,5.51214032184313e-43,50,"VariableRecombination","IncreasingPopSize",7.5e-09,0,300
4,0.812445811145279,2.81800359235788e-48,0.775142878571964,2.37193404428658e-41,50,"VariableRecombination","IncreasingPopSize",7.5e-09,0,300
5,0.807245181129528,3.19970577218683e-47,0.77916747918698,4.94015243839175e-42,50,"VariableRecombination","IncreasingPopSize",7.5e-09,0,300
6,0.787842196054901,1.4966974739953e-43,0.769165229130728,2.2985066609351e-40,50,"VariableRecombination","IncreasingPopSize",7.5e-09,0,300
7,0.803922598064952,1.45399606438072e-46,0.797076426910673,3.00834229016734e-45,50,"VariableRecombination","IncreasingPopSize",7.5e-09,0,300
8,0.816672916822921,3.69629743065449e-49,0.763213080327008,2.06280713093287e-39,50,"VariableRecombination","IncreasingPopSize",7.5e-09,0,300
9,0.786352658816471,2.7600452593404e-43,0.78164854121353,1.8471874287997e-42,50,"VariableRecombination","IncreasingPopSize",7.5e-09,0,300
0,0.842740568514213,3.73673715003427e-55,0.732754818870472,6.09958146623247e-35,50,"VariableRecombination","IncreasingPopSize",1.5e-08,0,300
1,0.826904672616816,2.16135927027648e-51,0.775591389784745,1.99467182811632e-41,50,"VariableRecombination","IncreasingPopSize",1.5e-08,0,300
2,0.831013275331884,2.49085026602485e-52,0.716612915322883,8.20222151482643e-33,50,"VariableRecombination","IncreasingPopSize",1.5e-08,0,300
3,0.845509637740944,7.4444384765111e-56,0.780969024225606,2.4214514969141e-42,50,"VariableRecombination","IncreasingPopSize",1.5e-08,0,300
4,0.845178129453236,9.04559110427329e-56,0.774218855471387,3.38491044567175e-41,50,"VariableRecombination","IncreasingPopSize",1.5e-08,0,300
5,0.855307882697068,1.89395074096177e-58,0.784747618690467,5.30808147467931e-43,50,"VariableRecombination","IncreasingPopSize",1.5e-08,0,300
6,0.85601590039751,1.20924806716708e-58,0.74785569639241,4.45518114456601e-37,50,"VariableRecombination","IncreasingPopSize",1.5e-08,0,300
7,0.827029175729393,2.02607759522298e-51,0.751488787219681,1.29437548999874e-37,50,"VariableRecombination","IncreasingPopSize",1.5e-08,0,300
8,0.842712067801695,3.798686992157e-55,0.766103652591315,7.16439525488886e-40,50,"VariableRecombination","IncreasingPopSize",1.5e-08,0,300
9,0.826333158328958,2.90599679366015e-51,0.733363834095852,5.03457559856631e-35,50,"VariableRecombination","IncreasingPopSize",1.5e-08,0,300
0,0.833921848046201,5.20747614491649e-53,0.74775969399235,4.60177690295424e-37,50,"VariableRecombination","IncreasingPopSize",7.5e-08,0,300
1,0.843049576239406,3.12592183864353e-55,0.694353858846471,4.1424402537049e-30,50,"VariableRecombination","IncreasingPopSize",7.5e-08,0,300
2,0.840205505137628,1.59279336141385e-54,0.665409135228381,6.09180437581452e-27,50,"VariableRecombination","IncreasingPopSize",7.5e-08,0,300
3,0.867936698417461,4.32662271571356e-62,0.711697292432311,3.41166079300317e-32,50,"VariableRecombination","IncreasingPopSize",7.5e-08,0,300
4,0.820190504762619,6.54804058857856e-50,0.691820295507388,8.11707491923134e-30,50,"VariableRecombination","IncreasingPopSize",7.5e-08,0,300
5,0.849643741093527,6.30579579555489e-57,0.751607290182255,1.24278121723863e-37,50,"VariableRecombination","IncreasingPopSize",7.5e-08,0,300
6,0.848041701042526,1.65569702232054e-56,0.734275856896423,3.77340304777615e-35,50,"VariableRecombination","IncreasingPopSize",7.5e-08,0,300
7,0.842074551863797,5.48270572032991e-55,0.708578714467862,8.29875985842821e-32,50,"VariableRecombination","IncreasingPopSize",7.5e-08,0,300
8,0.830333758343959,3.5750403705465e-52,0.713156828920723,2.24141611000936e-32,50,"VariableRecombination","IncreasingPopSize",7.5e-08,0,300
9,0.832570314257857,1.08168306147031e-52,0.686087152178804,3.62654512080858e-29,50,"VariableRecombination","IncreasingPopSize",7.5e-08,0,300
0,0.835916897922448,1.74878183779408e-53,0.709945248631216,5.62962557674101e-32,50,"VariableRecombination","IncreasingPopSize",1.5e-08,0.1,300
1,0.822437560939024,2.12469021917496e-50,0.753213830345759,7.14356384212922e-38,50,"VariableRecombination","IncreasingPopSize",1.5e-08,0.1,300
2,0.811662791569789,4.08227083156674e-48,0.791110777769444,3.84010113446931e-44,50,"VariableRecombination","IncreasingPopSize",1.5e-08,0.1,300
3,0.823546088652216,1.21227823857598e-50,0.767201680042001,4.77501238520299e-40,50,"VariableRecombination","IncreasingPopSize",1.5e-08,0.1,300
4,0.831575789394735,1.84461585692378e-52,0.743234080852021,2.08260464945243e-36,50,"VariableRecombination","IncreasingPopSize",1.5e-08,0.1,300
5,0.822295057376434,2.28296790274932e-50,0.724135603390085,8.72431804878987e-34,50,"VariableRecombination","IncreasingPopSize",1.5e-08,0.1,300
6,0.825908647716193,3.6181712915809e-51,0.729555238880972,1.65729915754657e-34,50,"VariableRecombination","IncreasingPopSize",1.5e-08,0.1,300
7,0.832474311857797,1.13905018259364e-52,0.736716417910448,1.7340601087722e-35,50,"VariableRecombination","IncreasingPopSize",1.5e-08,0.1,300
8,0.776062401560039,1.66218155111829e-41,0.814425860646516,1.09527610278162e-48,50,"VariableRecombination","IncreasingPopSize",1.5e-08,0.1,300
9,0.841972549313733,5.81335897523064e-55,0.726054151353784,4.86808725008086e-34,50,"VariableRecombination","IncreasingPopSize",1.5e-08,0.1,300
0,0.755475886897172,3.25206911366059e-38,0.631569789244731,1.16560716295109e-23,50,"VariableRecombination","IncreasingPopSize",1.5e-08,0.5,300
1,0.775208880222006,2.312292217073e-41,0.63214430360759,1.03325300699167e-23,50,"VariableRecombination","IncreasingPopSize",1.5e-08,0.5,300
2,0.781171529288232,2.2340039034022e-42,0.625166129153229,4.3920209083642e-23,50,"VariableRecombination","IncreasingPopSize",1.5e-08,0.5,300
3,0.732294307357684,7.04959922630203e-35,0.708965724143104,7.43673917333118e-32,50,"VariableRecombination","IncreasingPopSize",1.5e-08,0.5,300
4,0.734791869796745,3.2036897468848e-35,0.615228380709518,3.24180352996209e-22,50,"VariableRecombination","IncreasingPopSize",1.5e-08,0.5,300
5,0.766156153903848,7.02710484271848e-40,0.653959348983725,8.75370829226655e-26,50,"VariableRecombination","IncreasingPopSize",1.5e-08,0.5,300
6,0.756906922673067,1.96800273001496e-38,0.563972099302483,3.45022960365741e-18,50,"VariableRecombination","IncreasingPopSize",1.5e-08,0.5,300
7,0.817154428860722,2.92302812067628e-49,0.631050776269407,1.29941138803981e-23,50,"VariableRecombination","IncreasingPopSize",1.5e-08,0.5,300
8,0.797880447011175,2.12048451303454e-45,0.625500637515938,4.10109504888034e-23,50,"VariableRecombination","IncreasingPopSize",1.5e-08,0.5,300
9,0.746718667966699,6.53106399986701e-37,0.626555163879097,3.30241827007787e-23,50,"VariableRecombination","IncreasingPopSize",1.5e-08,0.5,300
0,0.455132378309458,1.27975791057559e-11,0.359197479936999,1.75710176631101e-07,50,"VariableRecombination","IncreasingPopSize",1.5e-08,0.9,300
1,0.38212705317633,2.35628821845601e-08,0.322410560264007,3.22523697222635e-06,50,"VariableRecombination","IncreasingPopSize",1.5e-08,0.9,300
2,0.473764344108603,1.38520256332482e-12,0.282668566714168,0.0000500274658592953,50,"VariableRecombination","IncreasingPopSize",1.5e-08,0.9,300
3,0.512018300457512,9.24611229793914e-15,0.329978249456236,1.82696233861009e-06,50,"VariableRecombination","IncreasingPopSize",1.5e-08,0.9,300
4,0.478042451061277,8.15515608779025e-13,0.275345383634591,0.0000794295966765347,50,"VariableRecombination","IncreasingPopSize",1.5e-08,0.9,300
5,0.280786019650491,0.0000564103136096027,0.239959498987475,0.000620686545365788,50,"VariableRecombination","IncreasingPopSize",1.5e-08,0.9,300
6,0.360904522613065,1.52107862199916e-07,0.369573239330983,7.21669697885629e-08,50,"VariableRecombination","IncreasingPopSize",1.5e-08,0.9,300
7,0.422155553888847,4.77678075030743e-10,0.318094952373809,4.42962880001748e-06,50,"VariableRecombination","IncreasingPopSize",1.5e-08,0.9,300
8,0.354331358283957,2.63861994144188e-07,0.308470711767794,8.83242496364644e-06,50,"VariableRecombination","IncreasingPopSize",1.5e-08,0.9,300
9,0.49863946598665,5.72562569567472e-14,0.247690692267307,0.000405953491165286,50,"VariableRecombination","IncreasingPopSize",1.5e-08,0.9,300
0,0.0933128328208205,0.188765279724217,0.128794719867997,0.0691263425360303,50,"VariableRecombination","IncreasingPopSize",1.5e-08,1,300
1,0.0529106717691347,0.456815298893462,0.0604603842685476,0.39507056904666,50,"VariableRecombination","IncreasingPopSize",1.5e-08,1,300
2,0.0276573621445503,0.697455983477049,0.109006566116541,0.124414549556581,50,"VariableRecombination","IncreasingPopSize",1.5e-08,1,300
3,-0.0117137928448211,0.869238883369198,-0.0525643141078527,0.459771349703731,50,"VariableRecombination","IncreasingPopSize",1.5e-08,1,300
4,NA,NA,NA,NA,50,"VariableRecombination","IncreasingPopSize",1.5e-08,1,300
5,0.0975879396984925,0.169213654563956,0.0691264853975067,0.330735965594191,50,"VariableRecombination","IncreasingPopSize",1.5e-08,1,300
6,0.0950468761719043,0.180644461891889,-0.150284539618072,0.033661694113886,50,"VariableRecombination","IncreasingPopSize",1.5e-08,1,300
7,0.0530518262956574,0.455613637190126,-0.0593231981622133,0.404036864816014,50,"VariableRecombination","IncreasingPopSize",1.5e-08,1,300
8,-0.0185644641116028,0.794155714756572,0.0902457704541551,0.203777377694429,50,"VariableRecombination","IncreasingPopSize",1.5e-08,1,300
9,-0.0106065304733785,0.881503934227322,0.065089627240681,0.359820045903357,50,"VariableRecombination","IncreasingPopSize",1.5e-08,1,300
