"","Method","SampleSize","Replicate","logLik","Theta","RecombinationLandscape","DemographicModel","SimRec","SimRho","GcProp","GcTrack"
"1","iSMC",1,0,-311111.189958,0.00437712,"VariableRecombination","DecreasingPopSize",1.5e-09,0.0005252544,0,300
"2","iSMC",5,0,-1226320.98738,0.00437712,"VariableRecombination","DecreasingPopSize",1.5e-09,0.0005252544,0,300
"3","rhoSMC",1,0,-311101.44331,0.00437712,"VariableRecombination","DecreasingPopSize",1.5e-09,0.0005252544,0,300
"4","rhoSMC",5,0,-1226316.446497,0.00437712,"VariableRecombination","DecreasingPopSize",1.5e-09,0.0005252544,0,300
"5","iSMC",1,1,-288639.736459,0.00460004,"VariableRecombination","DecreasingPopSize",1.5e-09,0.0005520048,0,300
"6","iSMC",5,1,-1438025.072236,0.00460004,"VariableRecombination","DecreasingPopSize",1.5e-09,0.0005520048,0,300
"7","rhoSMC",1,1,-288574.82773,0.00460004,"VariableRecombination","DecreasingPopSize",1.5e-09,0.0005520048,0,300
"8","rhoSMC",5,1,-1438022.570725,0.00460004,"VariableRecombination","DecreasingPopSize",1.5e-09,0.0005520048,0,300
"9","iSMC",1,2,-302496.573056,0.00444197,"VariableRecombination","DecreasingPopSize",1.5e-09,0.0005330364,0,300
"10","iSMC",5,2,-1395959.51092,0.00444197,"VariableRecombination","DecreasingPopSize",1.5e-09,0.0005330364,0,300
"11","rhoSMC",1,2,-302498.199809,0.00444197,"VariableRecombination","DecreasingPopSize",1.5e-09,0.0005330364,0,300
"12","rhoSMC",5,2,-1395591.166185,0.00444197,"VariableRecombination","DecreasingPopSize",1.5e-09,0.0005330364,0,300
"13","iSMC",1,3,-312222.009876,0.00455057,"VariableRecombination","DecreasingPopSize",1.5e-09,0.0005460684,0,300
"14","iSMC",5,3,-1110553.844065,0.00455057,"VariableRecombination","DecreasingPopSize",1.5e-09,0.0005460684,0,300
"15","rhoSMC",1,3,-312149.028108,0.00455057,"VariableRecombination","DecreasingPopSize",1.5e-09,0.0005460684,0,300
"16","rhoSMC",5,3,-1110525.488079,0.00455057,"VariableRecombination","DecreasingPopSize",1.5e-09,0.0005460684,0,300
"17","iSMC",1,4,-302403.849186,0.00453253,"VariableRecombination","DecreasingPopSize",1.5e-09,0.0005439036,0,300
"18","iSMC",5,4,-1475792.710546,0.00453253,"VariableRecombination","DecreasingPopSize",1.5e-09,0.0005439036,0,300
"19","rhoSMC",1,4,-302334.026231,0.00453253,"VariableRecombination","DecreasingPopSize",1.5e-09,0.0005439036,0,300
"20","rhoSMC",5,4,-1475377.117652,0.00453253,"VariableRecombination","DecreasingPopSize",1.5e-09,0.0005439036,0,300
"21","iSMC",1,5,-225019.352673,0.00469695,"VariableRecombination","DecreasingPopSize",1.5e-09,0.000563634,0,300
"22","iSMC",5,5,-1361503.924503,0.00469695,"VariableRecombination","DecreasingPopSize",1.5e-09,0.000563634,0,300
"23","rhoSMC",1,5,-225009.678535,0.00469695,"VariableRecombination","DecreasingPopSize",1.5e-09,0.000563634,0,300
"24","rhoSMC",5,5,-1361092.553282,0.00469695,"VariableRecombination","DecreasingPopSize",1.5e-09,0.000563634,0,300
"25","iSMC",1,6,-291111.00262,0.0044254,"VariableRecombination","DecreasingPopSize",1.5e-09,0.000531048,0,300
"26","iSMC",5,6,-1188635.124134,0.0044254,"VariableRecombination","DecreasingPopSize",1.5e-09,0.000531048,0,300
"27","rhoSMC",1,6,-291057.451577,0.0044254,"VariableRecombination","DecreasingPopSize",1.5e-09,0.000531048,0,300
"28","rhoSMC",5,6,-1188368.80233,0.0044254,"VariableRecombination","DecreasingPopSize",1.5e-09,0.000531048,0,300
"29","iSMC",1,7,-290869.653444,0.00421333,"VariableRecombination","DecreasingPopSize",1.5e-09,0.0005055996,0,300
"30","iSMC",5,7,-1231208.141674,0.00421333,"VariableRecombination","DecreasingPopSize",1.5e-09,0.0005055996,0,300
"31","rhoSMC",1,7,-290779.175103,0.00421333,"VariableRecombination","DecreasingPopSize",1.5e-09,0.0005055996,0,300
"32","rhoSMC",5,7,-1230896.485632,0.00421333,"VariableRecombination","DecreasingPopSize",1.5e-09,0.0005055996,0,300
"33","iSMC",1,8,-285430.135069,0.0044639,"VariableRecombination","DecreasingPopSize",1.5e-09,0.000535668,0,300
"34","iSMC",5,8,-1234765.173999,0.0044639,"VariableRecombination","DecreasingPopSize",1.5e-09,0.000535668,0,300
"35","rhoSMC",1,8,-285339.57108,0.0044639,"VariableRecombination","DecreasingPopSize",1.5e-09,0.000535668,0,300
"36","rhoSMC",5,8,-1234408.529979,0.0044639,"VariableRecombination","DecreasingPopSize",1.5e-09,0.000535668,0,300
"37","iSMC",1,9,-305618.728002,0.0044457,"VariableRecombination","DecreasingPopSize",1.5e-09,0.000533484,0,300
"38","iSMC",5,9,-1478427.483122,0.0044457,"VariableRecombination","DecreasingPopSize",1.5e-09,0.000533484,0,300
"39","rhoSMC",1,9,-305616.903932,0.0044457,"VariableRecombination","DecreasingPopSize",1.5e-09,0.000533484,0,300
"40","rhoSMC",5,9,-1478019.552424,0.0044457,"VariableRecombination","DecreasingPopSize",1.5e-09,0.000533484,0,300
"41","iSMC",1,0,-301887.55229,0.0046507,"VariableRecombination","DecreasingPopSize",7.5e-09,0.00279042,0,300
"42","iSMC",5,0,-1414171.036612,0.0046507,"VariableRecombination","DecreasingPopSize",7.5e-09,0.00279042,0,300
"43","rhoSMC",1,0,-301709.563943,0.0046507,"VariableRecombination","DecreasingPopSize",7.5e-09,0.00279042,0,300
"44","rhoSMC",5,0,-1413359.005476,0.0046507,"VariableRecombination","DecreasingPopSize",7.5e-09,0.00279042,0,300
"45","iSMC",1,1,-184383.937751,0.00446593,"VariableRecombination","DecreasingPopSize",7.5e-09,0.002679558,0,300
"46","iSMC",5,1,-1213376.098734,0.00446593,"VariableRecombination","DecreasingPopSize",7.5e-09,0.002679558,0,300
"47","rhoSMC",1,1,-184278.623262,0.00446593,"VariableRecombination","DecreasingPopSize",7.5e-09,0.002679558,0,300
"48","rhoSMC",5,1,-1212848.685329,0.00446593,"VariableRecombination","DecreasingPopSize",7.5e-09,0.002679558,0,300
"49","iSMC",1,2,-289797.572853,0.0044481,"VariableRecombination","DecreasingPopSize",7.5e-09,0.00266886,0,300
"50","iSMC",5,2,-1310243.466208,0.0044481,"VariableRecombination","DecreasingPopSize",7.5e-09,0.00266886,0,300
"51","rhoSMC",1,2,-289601.196804,0.0044481,"VariableRecombination","DecreasingPopSize",7.5e-09,0.00266886,0,300
"52","rhoSMC",5,2,-1309445.788803,0.0044481,"VariableRecombination","DecreasingPopSize",7.5e-09,0.00266886,0,300
"53","iSMC",1,3,-243674.094608,0.00450871,"VariableRecombination","DecreasingPopSize",7.5e-09,0.002705226,0,300
"54","iSMC",5,3,-1371496.232649,0.00450871,"VariableRecombination","DecreasingPopSize",7.5e-09,0.002705226,0,300
"55","rhoSMC",1,3,-243553.753776,0.00450871,"VariableRecombination","DecreasingPopSize",7.5e-09,0.002705226,0,300
"56","rhoSMC",5,3,-1370533.282121,0.00450871,"VariableRecombination","DecreasingPopSize",7.5e-09,0.002705226,0,300
"57","iSMC",1,4,-271774.747214,0.00453587,"VariableRecombination","DecreasingPopSize",7.5e-09,0.002721522,0,300
"58","iSMC",5,4,-1419297.906899,0.00453587,"VariableRecombination","DecreasingPopSize",7.5e-09,0.002721522,0,300
"59","rhoSMC",1,4,-271592.12623,0.00453587,"VariableRecombination","DecreasingPopSize",7.5e-09,0.002721522,0,300
"60","rhoSMC",5,4,-1418388.102249,0.00453587,"VariableRecombination","DecreasingPopSize",7.5e-09,0.002721522,0,300
"61","iSMC",1,5,-228876.029875,0.00455045,"VariableRecombination","DecreasingPopSize",7.5e-09,0.00273027,0,300
"62","iSMC",5,5,-1411343.566711,0.00455045,"VariableRecombination","DecreasingPopSize",7.5e-09,0.00273027,0,300
"63","rhoSMC",1,5,-228761.488803,0.00455045,"VariableRecombination","DecreasingPopSize",7.5e-09,0.00273027,0,300
"64","rhoSMC",5,5,-1410497.255825,0.00455045,"VariableRecombination","DecreasingPopSize",7.5e-09,0.00273027,0,300
"65","iSMC",1,6,-303846.573769,0.00456228,"VariableRecombination","DecreasingPopSize",7.5e-09,0.002737368,0,300
"66","iSMC",5,6,-1348107.639386,0.00456228,"VariableRecombination","DecreasingPopSize",7.5e-09,0.002737368,0,300
"67","rhoSMC",1,6,-303671.862132,0.00456228,"VariableRecombination","DecreasingPopSize",7.5e-09,0.002737368,0,300
"68","rhoSMC",5,6,-1347234.737359,0.00456228,"VariableRecombination","DecreasingPopSize",7.5e-09,0.002737368,0,300
"69","iSMC",1,7,-268335.73585,0.00454056,"VariableRecombination","DecreasingPopSize",7.5e-09,0.002724336,0,300
"70","iSMC",5,7,-1448229.683836,0.00454056,"VariableRecombination","DecreasingPopSize",7.5e-09,0.002724336,0,300
"71","rhoSMC",1,7,-268141.2946,0.00454056,"VariableRecombination","DecreasingPopSize",7.5e-09,0.002724336,0,300
"72","rhoSMC",5,7,-1447208.560196,0.00454056,"VariableRecombination","DecreasingPopSize",7.5e-09,0.002724336,0,300
"73","iSMC",1,8,-285641.130895,0.00448586,"VariableRecombination","DecreasingPopSize",7.5e-09,0.002691516,0,300
"74","iSMC",5,8,-1372469.497331,0.00448586,"VariableRecombination","DecreasingPopSize",7.5e-09,0.002691516,0,300
"75","rhoSMC",1,8,-285437.976956,0.00448586,"VariableRecombination","DecreasingPopSize",7.5e-09,0.002691516,0,300
"76","rhoSMC",5,8,-1371501.267664,0.00448586,"VariableRecombination","DecreasingPopSize",7.5e-09,0.002691516,0,300
"77","iSMC",1,9,-283542.459007,0.0045458,"VariableRecombination","DecreasingPopSize",7.5e-09,0.00272748,0,300
"78","iSMC",5,9,-1434501.524354,0.0045458,"VariableRecombination","DecreasingPopSize",7.5e-09,0.00272748,0,300
"79","rhoSMC",1,9,-283383.946182,0.0045458,"VariableRecombination","DecreasingPopSize",7.5e-09,0.00272748,0,300
"80","rhoSMC",5,9,-1433703.183957,0.0045458,"VariableRecombination","DecreasingPopSize",7.5e-09,0.00272748,0,300
"81","iSMC",1,0,-277078.377661,0.00451953,"VariableRecombination","DecreasingPopSize",1.5e-08,0.005423436,0,300
"82","iSMC",5,0,-1400938.95207,0.00451953,"VariableRecombination","DecreasingPopSize",1.5e-08,0.005423436,0,300
"83","rhoSMC",1,0,-276857.843905,0.00451953,"VariableRecombination","DecreasingPopSize",1.5e-08,0.005423436,0,300
"84","rhoSMC",5,0,-1399902.469603,0.00451953,"VariableRecombination","DecreasingPopSize",1.5e-08,0.005423436,0,300
"85","iSMC",1,1,-294339.996596,0.00449653,"VariableRecombination","DecreasingPopSize",1.5e-08,0.005395836,0,300
"86","iSMC",5,1,-1413049.180832,0.00449653,"VariableRecombination","DecreasingPopSize",1.5e-08,0.005395836,0,300
"87","rhoSMC",1,1,-294106.564168,0.00449653,"VariableRecombination","DecreasingPopSize",1.5e-08,0.005395836,0,300
"88","rhoSMC",5,1,-1411946.041301,0.00449653,"VariableRecombination","DecreasingPopSize",1.5e-08,0.005395836,0,300
"89","iSMC",1,2,-290181.476672,0.0045574,"VariableRecombination","DecreasingPopSize",1.5e-08,0.00546888,0,300
"90","iSMC",5,2,-1396433.176722,0.0045574,"VariableRecombination","DecreasingPopSize",1.5e-08,0.00546888,0,300
"91","rhoSMC",1,2,-289994.530544,0.0045574,"VariableRecombination","DecreasingPopSize",1.5e-08,0.00546888,0,300
"92","rhoSMC",5,2,-1395522.101318,0.0045574,"VariableRecombination","DecreasingPopSize",1.5e-08,0.00546888,0,300
"93","iSMC",1,3,-257226.216839,0.00449794,"VariableRecombination","DecreasingPopSize",1.5e-08,0.005397528,0,300
"94","iSMC",5,3,-1369289.757644,0.00449794,"VariableRecombination","DecreasingPopSize",1.5e-08,0.005397528,0,300
"95","rhoSMC",1,3,-257026.422842,0.00449794,"VariableRecombination","DecreasingPopSize",1.5e-08,0.005397528,0,300
"96","rhoSMC",5,3,-1368221.105723,0.00449794,"VariableRecombination","DecreasingPopSize",1.5e-08,0.005397528,0,300
"97","iSMC",1,4,-285847.169523,0.00446003,"VariableRecombination","DecreasingPopSize",1.5e-08,0.005352036,0,300
"98","iSMC",5,4,-1234517.260732,0.00446003,"VariableRecombination","DecreasingPopSize",1.5e-08,0.005352036,0,300
"99","rhoSMC",1,4,-285657.04904,0.00446003,"VariableRecombination","DecreasingPopSize",1.5e-08,0.005352036,0,300
"100","rhoSMC",5,4,-1233801.082906,0.00446003,"VariableRecombination","DecreasingPopSize",1.5e-08,0.005352036,0,300
"101","iSMC",1,5,-275779.04473,0.0044871,"VariableRecombination","DecreasingPopSize",1.5e-08,0.00538452,0,300
"102","iSMC",5,5,-1415790.777558,0.0044871,"VariableRecombination","DecreasingPopSize",1.5e-08,0.00538452,0,300
"103","rhoSMC",1,5,-275593.131385,0.0044871,"VariableRecombination","DecreasingPopSize",1.5e-08,0.00538452,0,300
"104","rhoSMC",5,5,-1414688.657271,0.0044871,"VariableRecombination","DecreasingPopSize",1.5e-08,0.00538452,0,300
"105","iSMC",1,6,-287604.206701,0.004526,"VariableRecombination","DecreasingPopSize",1.5e-08,0.0054312,0,300
"106","iSMC",5,6,-1350728.904765,0.004526,"VariableRecombination","DecreasingPopSize",1.5e-08,0.0054312,0,300
"107","rhoSMC",1,6,-287361.070098,0.004526,"VariableRecombination","DecreasingPopSize",1.5e-08,0.0054312,0,300
"108","rhoSMC",5,6,-1349828.106135,0.004526,"VariableRecombination","DecreasingPopSize",1.5e-08,0.0054312,0,300
"109","iSMC",1,7,-253684.726293,0.00451726,"VariableRecombination","DecreasingPopSize",1.5e-08,0.005420712,0,300
"110","iSMC",5,7,-1297292.334081,0.00451726,"VariableRecombination","DecreasingPopSize",1.5e-08,0.005420712,0,300
"111","rhoSMC",1,7,-253504.723374,0.00451726,"VariableRecombination","DecreasingPopSize",1.5e-08,0.005420712,0,300
"112","rhoSMC",5,7,-1296362.167675,0.00451726,"VariableRecombination","DecreasingPopSize",1.5e-08,0.005420712,0,300
"113","iSMC",1,8,-236271.233846,0.00447689,"VariableRecombination","DecreasingPopSize",1.5e-08,0.005372268,0,300
"114","iSMC",5,8,-1339730.372901,0.00447689,"VariableRecombination","DecreasingPopSize",1.5e-08,0.005372268,0,300
"115","rhoSMC",1,8,-236092.040566,0.00447689,"VariableRecombination","DecreasingPopSize",1.5e-08,0.005372268,0,300
"116","rhoSMC",5,8,-1338649.763547,0.00447689,"VariableRecombination","DecreasingPopSize",1.5e-08,0.005372268,0,300
"117","iSMC",1,9,-280126.145728,0.00452376,"VariableRecombination","DecreasingPopSize",1.5e-08,0.005428512,0,300
"118","iSMC",5,9,-1398207.347108,0.00452376,"VariableRecombination","DecreasingPopSize",1.5e-08,0.005428512,0,300
"119","rhoSMC",1,9,-279931.803138,0.00452376,"VariableRecombination","DecreasingPopSize",1.5e-08,0.005428512,0,300
"120","rhoSMC",5,9,-1397156.692517,0.00452376,"VariableRecombination","DecreasingPopSize",1.5e-08,0.005428512,0,300
"121","iSMC",1,0,-283666.460293,0.00457493,"VariableRecombination","DecreasingPopSize",7.5e-08,0.02744958,0,300
"122","iSMC",5,0,-1362226.285591,0.00457493,"VariableRecombination","DecreasingPopSize",7.5e-08,0.02744958,0,300
"123","rhoSMC",1,0,-283451.627247,0.00457493,"VariableRecombination","DecreasingPopSize",7.5e-08,0.02744958,0,300
"124","rhoSMC",5,0,-1361004.02417,0.00457493,"VariableRecombination","DecreasingPopSize",7.5e-08,0.02744958,0,300
"125","iSMC",1,1,-278995.836286,0.0045753,"VariableRecombination","DecreasingPopSize",7.5e-08,0.0274518,0,300
"126","iSMC",5,1,-1388242.03383,0.0045753,"VariableRecombination","DecreasingPopSize",7.5e-08,0.0274518,0,300
"127","rhoSMC",1,1,-278733.090858,0.0045753,"VariableRecombination","DecreasingPopSize",7.5e-08,0.0274518,0,300
"128","rhoSMC",5,1,-1387024.186915,0.0045753,"VariableRecombination","DecreasingPopSize",7.5e-08,0.0274518,0,300
"129","iSMC",1,2,-288776.506549,0.00453114,"VariableRecombination","DecreasingPopSize",7.5e-08,0.02718684,0,300
"130","iSMC",5,2,-1415419.727837,0.00453114,"VariableRecombination","DecreasingPopSize",7.5e-08,0.02718684,0,300
"131","rhoSMC",1,2,-288579.720457,0.00453114,"VariableRecombination","DecreasingPopSize",7.5e-08,0.02718684,0,300
"132","rhoSMC",5,2,-1414336.862542,0.00453114,"VariableRecombination","DecreasingPopSize",7.5e-08,0.02718684,0,300
"133","iSMC",1,3,-300058.137496,0.00454484,"VariableRecombination","DecreasingPopSize",7.5e-08,0.02726904,0,300
"134","iSMC",5,3,-1374354.359879,0.00454484,"VariableRecombination","DecreasingPopSize",7.5e-08,0.02726904,0,300
"135","rhoSMC",1,3,-299826.156401,0.00454484,"VariableRecombination","DecreasingPopSize",7.5e-08,0.02726904,0,300
"136","rhoSMC",5,3,-1373112.262702,0.00454484,"VariableRecombination","DecreasingPopSize",7.5e-08,0.02726904,0,300
"137","iSMC",1,4,-232867.523785,0.00449783,"VariableRecombination","DecreasingPopSize",7.5e-08,0.02698698,0,300
"138","iSMC",5,4,-1344250.849975,0.00449783,"VariableRecombination","DecreasingPopSize",7.5e-08,0.02698698,0,300
"139","rhoSMC",1,4,-232582.158096,0.00449783,"VariableRecombination","DecreasingPopSize",7.5e-08,0.02698698,0,300
"140","rhoSMC",5,4,-1343014.518384,0.00449783,"VariableRecombination","DecreasingPopSize",7.5e-08,0.02698698,0,300
"141","iSMC",1,5,-276478.786817,0.00448006,"VariableRecombination","DecreasingPopSize",7.5e-08,0.02688036,0,300
"142","iSMC",5,5,-1427443.720472,0.00448006,"VariableRecombination","DecreasingPopSize",7.5e-08,0.02688036,0,300
"143","rhoSMC",1,5,-276266.257082,0.00448006,"VariableRecombination","DecreasingPopSize",7.5e-08,0.02688036,0,300
"144","rhoSMC",5,5,-1426286.954055,0.00448006,"VariableRecombination","DecreasingPopSize",7.5e-08,0.02688036,0,300
"145","iSMC",1,6,-289756.570174,0.00454253,"VariableRecombination","DecreasingPopSize",7.5e-08,0.02725518,0,300
"146","iSMC",5,6,-1423671.026611,0.00454253,"VariableRecombination","DecreasingPopSize",7.5e-08,0.02725518,0,300
"147","rhoSMC",1,6,-289492.882445,0.00454253,"VariableRecombination","DecreasingPopSize",7.5e-08,0.02725518,0,300
"148","rhoSMC",5,6,-1422398.430037,0.00454253,"VariableRecombination","DecreasingPopSize",7.5e-08,0.02725518,0,300
"149","iSMC",1,7,-275999.611823,0.00448471,"VariableRecombination","DecreasingPopSize",7.5e-08,0.02690826,0,300
"150","iSMC",5,7,-1344581.317687,0.00448471,"VariableRecombination","DecreasingPopSize",7.5e-08,0.02690826,0,300
"151","rhoSMC",1,7,-275757.200816,0.00448471,"VariableRecombination","DecreasingPopSize",7.5e-08,0.02690826,0,300
"152","rhoSMC",5,7,-1343426.839603,0.00448471,"VariableRecombination","DecreasingPopSize",7.5e-08,0.02690826,0,300
"153","iSMC",1,8,-261463.642973,0.00453738,"VariableRecombination","DecreasingPopSize",7.5e-08,0.02722428,0,300
"154","iSMC",5,8,-1399831.659927,0.00453738,"VariableRecombination","DecreasingPopSize",7.5e-08,0.02722428,0,300
"155","rhoSMC",1,8,-261208.598579,0.00453738,"VariableRecombination","DecreasingPopSize",7.5e-08,0.02722428,0,300
"156","rhoSMC",5,8,-1398544.332261,0.00453738,"VariableRecombination","DecreasingPopSize",7.5e-08,0.02722428,0,300
"157","iSMC",1,9,-285436.592903,0.00450924,"VariableRecombination","DecreasingPopSize",7.5e-08,0.02705544,0,300
"158","iSMC",5,9,-1429851.692146,0.00450924,"VariableRecombination","DecreasingPopSize",7.5e-08,0.02705544,0,300
"159","rhoSMC",1,9,-285170.77325,0.00450924,"VariableRecombination","DecreasingPopSize",7.5e-08,0.02705544,0,300
"160","rhoSMC",5,9,-1428762.551947,0.00450924,"VariableRecombination","DecreasingPopSize",7.5e-08,0.02705544,0,300
"161","iSMC",1,0,-300581.11344,0.00447388,"VariableRecombination","DecreasingPopSize",1.5e-08,0.005368656,0.1,300
"162","iSMC",5,0,-1441216.752379,0.00447388,"VariableRecombination","DecreasingPopSize",1.5e-08,0.005368656,0.1,300
"163","rhoSMC",1,0,-300409.731868,0.00447388,"VariableRecombination","DecreasingPopSize",1.5e-08,0.005368656,0.1,300
"164","rhoSMC",5,0,-1440460.599086,0.00447388,"VariableRecombination","DecreasingPopSize",1.5e-08,0.005368656,0.1,300
"165","iSMC",1,1,-238244.380273,0.00462694,"VariableRecombination","DecreasingPopSize",1.5e-08,0.005552328,0.1,300
"166","iSMC",5,1,-1244856.323557,0.00462694,"VariableRecombination","DecreasingPopSize",1.5e-08,0.005552328,0.1,300
"167","rhoSMC",1,1,-238075.672274,0.00462694,"VariableRecombination","DecreasingPopSize",1.5e-08,0.005552328,0.1,300
"168","rhoSMC",5,1,-1244094.286432,0.00462694,"VariableRecombination","DecreasingPopSize",1.5e-08,0.005552328,0.1,300
"169","iSMC",1,2,-254420.984854,0.0044364,"VariableRecombination","DecreasingPopSize",1.5e-08,0.00532368,0.1,300
"170","iSMC",5,2,-1352640.882735,0.0044364,"VariableRecombination","DecreasingPopSize",1.5e-08,0.00532368,0.1,300
"171","rhoSMC",1,2,-254293.56254,0.0044364,"VariableRecombination","DecreasingPopSize",1.5e-08,0.00532368,0.1,300
"172","rhoSMC",5,2,-1351853.910432,0.0044364,"VariableRecombination","DecreasingPopSize",1.5e-08,0.00532368,0.1,300
"173","iSMC",1,3,-273926.57402,0.00444129,"VariableRecombination","DecreasingPopSize",1.5e-08,0.005329548,0.1,300
"174","iSMC",5,3,-1397888.022509,0.00444129,"VariableRecombination","DecreasingPopSize",1.5e-08,0.005329548,0.1,300
"175","rhoSMC",1,3,-273745.453611,0.00444129,"VariableRecombination","DecreasingPopSize",1.5e-08,0.005329548,0.1,300
"176","rhoSMC",5,3,-1397034.615275,0.00444129,"VariableRecombination","DecreasingPopSize",1.5e-08,0.005329548,0.1,300
"177","iSMC",1,4,-151101.046467,0.0045235,"VariableRecombination","DecreasingPopSize",1.5e-08,0.0054282,0.1,300
"178","iSMC",5,4,-1241155.893298,0.0045235,"VariableRecombination","DecreasingPopSize",1.5e-08,0.0054282,0.1,300
"179","rhoSMC",1,4,-151002.049847,0.0045235,"VariableRecombination","DecreasingPopSize",1.5e-08,0.0054282,0.1,300
"180","rhoSMC",5,4,-1240457.905976,0.0045235,"VariableRecombination","DecreasingPopSize",1.5e-08,0.0054282,0.1,300
"181","iSMC",1,5,-266198.722478,0.00446952,"VariableRecombination","DecreasingPopSize",1.5e-08,0.005363424,0.1,300
"182","iSMC",5,5,-1243872.28793,0.00446952,"VariableRecombination","DecreasingPopSize",1.5e-08,0.005363424,0.1,300
"183","rhoSMC",1,5,-266026.485043,0.00446952,"VariableRecombination","DecreasingPopSize",1.5e-08,0.005363424,0.1,300
"184","rhoSMC",5,5,-1243147.615119,0.00446952,"VariableRecombination","DecreasingPopSize",1.5e-08,0.005363424,0.1,300
"185","iSMC",1,6,-299928.967857,0.00448886,"VariableRecombination","DecreasingPopSize",1.5e-08,0.005386632,0.1,300
"186","iSMC",5,6,-1395705.495244,0.00448886,"VariableRecombination","DecreasingPopSize",1.5e-08,0.005386632,0.1,300
"187","rhoSMC",1,6,-299761.049214,0.00448886,"VariableRecombination","DecreasingPopSize",1.5e-08,0.005386632,0.1,300
"188","rhoSMC",5,6,-1394812.264259,0.00448886,"VariableRecombination","DecreasingPopSize",1.5e-08,0.005386632,0.1,300
"189","iSMC",1,7,-270755.518188,0.00443552,"VariableRecombination","DecreasingPopSize",1.5e-08,0.005322624,0.1,300
"190","iSMC",5,7,-1364210.355488,0.00443552,"VariableRecombination","DecreasingPopSize",1.5e-08,0.005322624,0.1,300
"191","rhoSMC",1,7,-270643.039348,0.00443552,"VariableRecombination","DecreasingPopSize",1.5e-08,0.005322624,0.1,300
"192","rhoSMC",5,7,-1363527.501361,0.00443552,"VariableRecombination","DecreasingPopSize",1.5e-08,0.005322624,0.1,300
"193","iSMC",1,8,-288490.9483,0.00459598,"VariableRecombination","DecreasingPopSize",1.5e-08,0.005515176,0.1,300
"194","iSMC",5,8,-1475202.033552,0.00459598,"VariableRecombination","DecreasingPopSize",1.5e-08,0.005515176,0.1,300
"195","rhoSMC",1,8,-288307.035958,0.00459598,"VariableRecombination","DecreasingPopSize",1.5e-08,0.005515176,0.1,300
"196","rhoSMC",5,8,-1474948.449635,0.00459598,"VariableRecombination","DecreasingPopSize",1.5e-08,0.005515176,0.1,300
"197","iSMC",1,9,-266778.046711,0.00455772,"VariableRecombination","DecreasingPopSize",1.5e-08,0.005469264,0.1,300
"198","iSMC",5,9,-1302604.385325,0.00455772,"VariableRecombination","DecreasingPopSize",1.5e-08,0.005469264,0.1,300
"199","rhoSMC",1,9,-266606.209399,0.00455772,"VariableRecombination","DecreasingPopSize",1.5e-08,0.005469264,0.1,300
"200","rhoSMC",5,9,-1301833.032796,0.00455772,"VariableRecombination","DecreasingPopSize",1.5e-08,0.005469264,0.1,300
"201","iSMC",1,0,-273428.434964,0.00445636,"VariableRecombination","DecreasingPopSize",1.5e-08,0.005347632,0.5,300
"202","iSMC",5,0,-1421751.473622,0.00445636,"VariableRecombination","DecreasingPopSize",1.5e-08,0.005347632,0.5,300
"203","rhoSMC",1,0,-273314.598718,0.00445636,"VariableRecombination","DecreasingPopSize",1.5e-08,0.005347632,0.5,300
"204","rhoSMC",5,0,-1421080.025438,0.00445636,"VariableRecombination","DecreasingPopSize",1.5e-08,0.005347632,0.5,300
"205","iSMC",1,1,-283333.783738,0.0045958,"VariableRecombination","DecreasingPopSize",1.5e-08,0.00551496,0.5,300
"206","iSMC",5,1,-1488175.711469,0.0045958,"VariableRecombination","DecreasingPopSize",1.5e-08,0.00551496,0.5,300
"207","rhoSMC",1,1,-283177.73902,0.0045958,"VariableRecombination","DecreasingPopSize",1.5e-08,0.00551496,0.5,300
"208","rhoSMC",5,1,-1487428.567011,0.0045958,"VariableRecombination","DecreasingPopSize",1.5e-08,0.00551496,0.5,300
"209","iSMC",1,2,-294148.96645,0.00445687,"VariableRecombination","DecreasingPopSize",1.5e-08,0.005348244,0.5,300
"210","iSMC",5,2,-1337304.675497,0.00445687,"VariableRecombination","DecreasingPopSize",1.5e-08,0.005348244,0.5,300
"211","rhoSMC",1,2,-294013.610375,0.00445687,"VariableRecombination","DecreasingPopSize",1.5e-08,0.005348244,0.5,300
"212","rhoSMC",5,2,-1336626.156271,0.00445687,"VariableRecombination","DecreasingPopSize",1.5e-08,0.005348244,0.5,300
"213","iSMC",1,3,-301738.83103,0.00461293,"VariableRecombination","DecreasingPopSize",1.5e-08,0.005535516,0.5,300
"214","iSMC",5,3,-1463793.751835,0.00461293,"VariableRecombination","DecreasingPopSize",1.5e-08,0.005535516,0.5,300
"215","rhoSMC",1,3,-301595.821558,0.00461293,"VariableRecombination","DecreasingPopSize",1.5e-08,0.005535516,0.5,300
"216","rhoSMC",5,3,-1463177.495438,0.00461293,"VariableRecombination","DecreasingPopSize",1.5e-08,0.005535516,0.5,300
"217","iSMC",1,4,-284842.674708,0.00454929,"VariableRecombination","DecreasingPopSize",1.5e-08,0.005459148,0.5,300
"218","iSMC",5,4,-1318135.856187,0.00454929,"VariableRecombination","DecreasingPopSize",1.5e-08,0.005459148,0.5,300
"219","rhoSMC",1,4,-284731.504444,0.00454929,"VariableRecombination","DecreasingPopSize",1.5e-08,0.005459148,0.5,300
"220","rhoSMC",5,4,-1317584.05662,0.00454929,"VariableRecombination","DecreasingPopSize",1.5e-08,0.005459148,0.5,300
"221","iSMC",1,5,-313216.142135,0.00451588,"VariableRecombination","DecreasingPopSize",1.5e-08,0.005419056,0.5,300
"222","iSMC",5,5,-1409811.042509,0.00451588,"VariableRecombination","DecreasingPopSize",1.5e-08,0.005419056,0.5,300
"223","rhoSMC",1,5,-313076.337851,0.00451588,"VariableRecombination","DecreasingPopSize",1.5e-08,0.005419056,0.5,300
"224","rhoSMC",5,5,-1409215.245979,0.00451588,"VariableRecombination","DecreasingPopSize",1.5e-08,0.005419056,0.5,300
"225","iSMC",1,6,-298935.857423,0.00461159,"VariableRecombination","DecreasingPopSize",1.5e-08,0.005533908,0.5,300
"226","iSMC",5,6,-1475153.207206,0.00461159,"VariableRecombination","DecreasingPopSize",1.5e-08,0.005533908,0.5,300
"227","rhoSMC",1,6,-298802.094133,0.00461159,"VariableRecombination","DecreasingPopSize",1.5e-08,0.005533908,0.5,300
"228","rhoSMC",5,6,-1474445.718675,0.00461159,"VariableRecombination","DecreasingPopSize",1.5e-08,0.005533908,0.5,300
"229","iSMC",1,7,-287789.086311,0.00463462,"VariableRecombination","DecreasingPopSize",1.5e-08,0.005561544,0.5,300
"230","iSMC",5,7,-1489734.783902,0.00463462,"VariableRecombination","DecreasingPopSize",1.5e-08,0.005561544,0.5,300
"231","rhoSMC",1,7,-287668.657482,0.00463462,"VariableRecombination","DecreasingPopSize",1.5e-08,0.005561544,0.5,300
"232","rhoSMC",5,7,-1489055.415283,0.00463462,"VariableRecombination","DecreasingPopSize",1.5e-08,0.005561544,0.5,300
"233","iSMC",1,8,-298579.952984,0.00447763,"VariableRecombination","DecreasingPopSize",1.5e-08,0.005373156,0.5,300
"234","iSMC",5,8,-1369495.179196,0.00447763,"VariableRecombination","DecreasingPopSize",1.5e-08,0.005373156,0.5,300
"235","rhoSMC",1,8,-298420.77312,0.00447763,"VariableRecombination","DecreasingPopSize",1.5e-08,0.005373156,0.5,300
"236","rhoSMC",5,8,-1368773.939757,0.00447763,"VariableRecombination","DecreasingPopSize",1.5e-08,0.005373156,0.5,300
"237","iSMC",1,9,-292630.633914,0.00451102,"VariableRecombination","DecreasingPopSize",1.5e-08,0.005413224,0.5,300
"238","iSMC",5,9,-1386494.296339,0.00451102,"VariableRecombination","DecreasingPopSize",1.5e-08,0.005413224,0.5,300
"239","rhoSMC",1,9,-292489.450675,0.00451102,"VariableRecombination","DecreasingPopSize",1.5e-08,0.005413224,0.5,300
"240","rhoSMC",5,9,-1385880.250943,0.00451102,"VariableRecombination","DecreasingPopSize",1.5e-08,0.005413224,0.5,300
"241","iSMC",1,0,-294979.461479,0.00445821,"VariableRecombination","DecreasingPopSize",1.5e-08,0.005349852,0.9,300
"242","iSMC",5,0,-1475272.410163,0.00445821,"VariableRecombination","DecreasingPopSize",1.5e-08,0.005349852,0.9,300
"243","rhoSMC",1,0,-294660.030004,0.00445821,"VariableRecombination","DecreasingPopSize",1.5e-08,0.005349852,0.9,300
"244","rhoSMC",5,0,-1473678.886737,0.00445821,"VariableRecombination","DecreasingPopSize",1.5e-08,0.005349852,0.9,300
"245","iSMC",1,1,-286903.328384,0.00433141,"VariableRecombination","DecreasingPopSize",1.5e-08,0.005197692,0.9,300
"246","iSMC",5,1,-1448763.479359,0.00433141,"VariableRecombination","DecreasingPopSize",1.5e-08,0.005197692,0.9,300
"247","rhoSMC",1,1,-286663.635633,0.00433141,"VariableRecombination","DecreasingPopSize",1.5e-08,0.005197692,0.9,300
"248","rhoSMC",5,1,-1447307.67167,0.00433141,"VariableRecombination","DecreasingPopSize",1.5e-08,0.005197692,0.9,300
"249","iSMC",1,2,-238041.383718,0.0044654,"VariableRecombination","DecreasingPopSize",1.5e-08,0.00535848,0.9,300
"250","iSMC",5,2,-1017750.623895,0.0044654,"VariableRecombination","DecreasingPopSize",1.5e-08,0.00535848,0.9,300
"251","rhoSMC",1,2,-237849.965777,0.0044654,"VariableRecombination","DecreasingPopSize",1.5e-08,0.00535848,0.9,300
"252","rhoSMC",5,2,-1016735.845065,0.0044654,"VariableRecombination","DecreasingPopSize",1.5e-08,0.00535848,0.9,300
"253","iSMC",1,3,-254354.496206,0.0044656,"VariableRecombination","DecreasingPopSize",1.5e-08,0.00535872,0.9,300
"254","iSMC",5,3,-1390553.111951,0.0044656,"VariableRecombination","DecreasingPopSize",1.5e-08,0.00535872,0.9,300
"255","rhoSMC",1,3,-254076.095238,0.0044656,"VariableRecombination","DecreasingPopSize",1.5e-08,0.00535872,0.9,300
"256","rhoSMC",5,3,-1389083.567457,0.0044656,"VariableRecombination","DecreasingPopSize",1.5e-08,0.00535872,0.9,300
"257","iSMC",1,4,-285315.842729,0.00430406,"VariableRecombination","DecreasingPopSize",1.5e-08,0.005164872,0.9,300
"258","iSMC",5,4,-1391285.876967,0.00430406,"VariableRecombination","DecreasingPopSize",1.5e-08,0.005164872,0.9,300
"259","rhoSMC",1,4,-285032.9117,0.00430406,"VariableRecombination","DecreasingPopSize",1.5e-08,0.005164872,0.9,300
"260","rhoSMC",5,4,-1389834.137648,0.00430406,"VariableRecombination","DecreasingPopSize",1.5e-08,0.005164872,0.9,300
"261","iSMC",1,5,-302873.829546,0.00452478,"VariableRecombination","DecreasingPopSize",1.5e-08,0.005429736,0.9,300
"262","iSMC",5,5,-1226104.248952,0.00452478,"VariableRecombination","DecreasingPopSize",1.5e-08,0.005429736,0.9,300
"263","rhoSMC",1,5,-302488.395564,0.00452478,"VariableRecombination","DecreasingPopSize",1.5e-08,0.005429736,0.9,300
"264","rhoSMC",5,5,-1224821.579291,0.00452478,"VariableRecombination","DecreasingPopSize",1.5e-08,0.005429736,0.9,300
"265","iSMC",1,6,-317780.303938,0.00452011,"VariableRecombination","DecreasingPopSize",1.5e-08,0.005424132,0.9,300
"266","iSMC",5,6,-1507103.570555,0.00452011,"VariableRecombination","DecreasingPopSize",1.5e-08,0.005424132,0.9,300
"267","rhoSMC",1,6,-317445.825153,0.00452011,"VariableRecombination","DecreasingPopSize",1.5e-08,0.005424132,0.9,300
"268","rhoSMC",5,6,-1505464.03407,0.00452011,"VariableRecombination","DecreasingPopSize",1.5e-08,0.005424132,0.9,300
"269","iSMC",1,7,-282467.010268,0.00453493,"VariableRecombination","DecreasingPopSize",1.5e-08,0.005441916,0.9,300
"270","iSMC",5,7,-1412394.335955,0.00453493,"VariableRecombination","DecreasingPopSize",1.5e-08,0.005441916,0.9,300
"271","rhoSMC",1,7,-282188.921417,0.00453493,"VariableRecombination","DecreasingPopSize",1.5e-08,0.005441916,0.9,300
"272","rhoSMC",5,7,-1411030.271071,0.00453493,"VariableRecombination","DecreasingPopSize",1.5e-08,0.005441916,0.9,300
"273","iSMC",1,8,-251971.542423,0.00451337,"VariableRecombination","DecreasingPopSize",1.5e-08,0.005416044,0.9,300
"274","iSMC",5,8,-1233850.483642,0.00451337,"VariableRecombination","DecreasingPopSize",1.5e-08,0.005416044,0.9,300
"275","rhoSMC",1,8,-251669.905931,0.00451337,"VariableRecombination","DecreasingPopSize",1.5e-08,0.005416044,0.9,300
"276","rhoSMC",5,8,-1232465.170699,0.00451337,"VariableRecombination","DecreasingPopSize",1.5e-08,0.005416044,0.9,300
"277","iSMC",1,9,-277576.669759,0.00448107,"VariableRecombination","DecreasingPopSize",1.5e-08,0.005377284,0.9,300
"278","iSMC",5,9,-1433104.778666,0.00448107,"VariableRecombination","DecreasingPopSize",1.5e-08,0.005377284,0.9,300
"279","rhoSMC",1,9,-277329.6257,0.00448107,"VariableRecombination","DecreasingPopSize",1.5e-08,0.005377284,0.9,300
"280","rhoSMC",5,9,-1431716.809546,0.00448107,"VariableRecombination","DecreasingPopSize",1.5e-08,0.005377284,0.9,300
"281","iSMC",1,0,-367571.156466,0.00396913,"VariableRecombination","DecreasingPopSize",1.5e-08,0.004762956,1,300
"282","iSMC",5,0,-914491.84173,0.00396913,"VariableRecombination","DecreasingPopSize",1.5e-08,0.004762956,1,300
"283","rhoSMC",1,0,-367571.895893,0.00396913,"VariableRecombination","DecreasingPopSize",1.5e-08,0.004762956,1,300
"284","rhoSMC",5,0,-913705.708049,0.00396913,"VariableRecombination","DecreasingPopSize",1.5e-08,0.004762956,1,300
"285","iSMC",1,1,-318434.233143,0.00504906,"VariableRecombination","DecreasingPopSize",1.5e-08,0.006058872,1,300
"286","iSMC",5,1,-1476231.945848,0.00504906,"VariableRecombination","DecreasingPopSize",1.5e-08,0.006058872,1,300
"287","rhoSMC",1,1,-318418.261684,0.00504906,"VariableRecombination","DecreasingPopSize",1.5e-08,0.006058872,1,300
"288","rhoSMC",5,1,-1473593.11199,0.00504906,"VariableRecombination","DecreasingPopSize",1.5e-08,0.006058872,1,300
"289","iSMC",1,2,-315916.001473,0.00491786,"VariableRecombination","DecreasingPopSize",1.5e-08,0.005901432,1,300
"290","iSMC",5,2,-1674795.192163,0.00491786,"VariableRecombination","DecreasingPopSize",1.5e-08,0.005901432,1,300
"291","rhoSMC",1,2,-315894.544998,0.00491786,"VariableRecombination","DecreasingPopSize",1.5e-08,0.005901432,1,300
"292","rhoSMC",5,2,-1672506.944922,0.00491786,"VariableRecombination","DecreasingPopSize",1.5e-08,0.005901432,1,300
"293","iSMC",1,3,-332.155278,0.00518427,"VariableRecombination","DecreasingPopSize",1.5e-08,0.006221124,1,300
"294","iSMC",5,3,-1732680.097342,0.00518427,"VariableRecombination","DecreasingPopSize",1.5e-08,0.006221124,1,300
"295","rhoSMC",1,3,-332.754754,0.00518427,"VariableRecombination","DecreasingPopSize",1.5e-08,0.006221124,1,300
"296","rhoSMC",5,3,-1730797.140448,0.00518427,"VariableRecombination","DecreasingPopSize",1.5e-08,0.006221124,1,300
"297","iSMC",1,4,-231434.219414,0.00289643,"VariableRecombination","DecreasingPopSize",1.5e-08,0.003475716,1,300
"298","iSMC",5,4,-1232104.247509,0.00289643,"VariableRecombination","DecreasingPopSize",1.5e-08,0.003475716,1,300
"299","rhoSMC",1,4,-231420.679117,0.00289643,"VariableRecombination","DecreasingPopSize",1.5e-08,0.003475716,1,300
"300","rhoSMC",5,4,-1231954.946274,0.00289643,"VariableRecombination","DecreasingPopSize",1.5e-08,0.003475716,1,300
"301","iSMC",1,5,-156326.360798,0.00493392,"VariableRecombination","DecreasingPopSize",1.5e-08,0.005920704,1,300
"302","iSMC",5,5,-1508068.093204,0.00493392,"VariableRecombination","DecreasingPopSize",1.5e-08,0.005920704,1,300
"303","rhoSMC",1,5,-156328.262503,0.00493392,"VariableRecombination","DecreasingPopSize",1.5e-08,0.005920704,1,300
"304","rhoSMC",5,5,-1506226.976598,0.00493392,"VariableRecombination","DecreasingPopSize",1.5e-08,0.005920704,1,300
"305","iSMC",1,6,-355679.213652,0.00444176,"VariableRecombination","DecreasingPopSize",1.5e-08,0.005330112,1,300
"306","iSMC",5,6,-1383101.748183,0.00444176,"VariableRecombination","DecreasingPopSize",1.5e-08,0.005330112,1,300
"307","rhoSMC",1,6,-355672.84344,0.00444176,"VariableRecombination","DecreasingPopSize",1.5e-08,0.005330112,1,300
"308","rhoSMC",5,6,-1381695.797036,0.00444176,"VariableRecombination","DecreasingPopSize",1.5e-08,0.005330112,1,300
"309","iSMC",1,7,-276136.152943,0.00323138,"VariableRecombination","DecreasingPopSize",1.5e-08,0.003877656,1,300
"310","iSMC",5,7,-983660.055887,0.00323138,"VariableRecombination","DecreasingPopSize",1.5e-08,0.003877656,1,300
"311","rhoSMC",1,7,-276121.039059,0.00323138,"VariableRecombination","DecreasingPopSize",1.5e-08,0.003877656,1,300
"312","rhoSMC",5,7,-980659.013869,0.00323138,"VariableRecombination","DecreasingPopSize",1.5e-08,0.003877656,1,300
"313","iSMC",1,8,-71813.9841,0.00554886,"VariableRecombination","DecreasingPopSize",1.5e-08,0.006658632,1,300
"314","iSMC",5,8,-1094489.345062,0.00554886,"VariableRecombination","DecreasingPopSize",1.5e-08,0.006658632,1,300
"315","rhoSMC",1,8,-71814.38379,0.00554886,"VariableRecombination","DecreasingPopSize",1.5e-08,0.006658632,1,300
"316","rhoSMC",5,8,-1092286.097718,0.00554886,"VariableRecombination","DecreasingPopSize",1.5e-08,0.006658632,1,300
"317","iSMC",1,9,-406042.464521,0.00477824,"VariableRecombination","DecreasingPopSize",1.5e-08,0.005733888,1,300
"318","iSMC",5,9,-1179700.356053,0.00477824,"VariableRecombination","DecreasingPopSize",1.5e-08,0.005733888,1,300
"319","rhoSMC",1,9,-406026.509034,0.00477824,"VariableRecombination","DecreasingPopSize",1.5e-08,0.005733888,1,300
"320","rhoSMC",5,9,-1178895.741679,0.00477824,"VariableRecombination","DecreasingPopSize",1.5e-08,0.005733888,1,300
