time_index	left_time_boundary	right_time_boundary	lambda
0	0	6.11005e-06	82.1575
1	6.11005e-06	1.64022e-05	82.1575
2	1.64022e-05	3.37388e-05	261.84
3	3.37388e-05	6.29415e-05	219.536
4	6.29415e-05	0.000112132	136.447
5	0.000112132	0.000194992	160.44
6	0.000194992	0.000334565	224.514
7	0.000334565	0.00056967	236.713
8	0.00056967	0.000965694	211.173
9	0.000965694	0.00163278	277.4
10	0.00163278	0.00275645	646.365
11	0.00275645	0.00464923	602.676
12	0.00464923	0.00783753	353.166
13	0.00783753	0.0132081	275.998
14	0.0132081	0.0222545	275.998
15	0.0222545	inf	275.998
