time_index	left_time_boundary	right_time_boundary	lambda
0	0	9.2946e-05	261.777
1	9.2946e-05	0.000220125	261.777
2	0.000220125	0.000394147	154.479
3	0.000394147	0.000632263	177.712
4	0.000632263	0.000958081	195.622
5	0.000958081	0.0014039	276.62
6	0.0014039	0.00201393	427.819
7	0.00201393	0.00284863	591.833
8	0.00284863	0.00399077	694.979
9	0.00399077	0.00555358	610.322
10	0.00555358	0.00769199	407.84
11	0.00769199	0.010618	283.908
12	0.010618	0.0146217	336.935
13	0.0146217	0.0201001	55822.4
14	0.0201001	0.0275962	55822.4
15	0.0275962	inf	55822.4
