time_index	left_time_boundary	right_time_boundary	lambda
0	0	2.65901e-06	110.649
1	2.65901e-06	6.11005e-06	110.649
2	6.11005e-06	1.0589e-05	43.0438
3	1.0589e-05	1.64022e-05	97.3198
4	1.64022e-05	2.39468e-05	196.12
5	2.39468e-05	3.37388e-05	269.577
6	3.37388e-05	4.64474e-05	265.861
7	4.64474e-05	6.29415e-05	197.244
8	6.29415e-05	8.43486e-05	145.553
9	8.43486e-05	0.000112132	136.351
10	0.000112132	0.000148192	149.506
11	0.000148192	0.000194992	164.661
12	0.000194992	0.000255732	189.049
13	0.000255732	0.000334565	220.235
14	0.000334565	0.00043688	228.63
15	0.00043688	0.00056967	213.529
16	0.00056967	0.000742014	200.558
17	0.000742014	0.000965694	214.089
18	0.000965694	0.001256	263.411
19	0.001256	0.00163278	357.506
20	0.00163278	0.00212179	503.245
21	0.00212179	0.00275645	657.284
22	0.00275645	0.00358016	684.267
23	0.00358016	0.00464923	597.099
24	0.00464923	0.00603674	480.599
25	0.00603674	0.00783753	369.748
26	0.00783753	0.0101747	314.105
27	0.0101747	0.0132081	337.525
28	0.0132081	0.017145	337.525
29	0.017145	0.0222545	576.207
30	0.0222545	0.0288861	576.207
31	0.0288861	inf	576.207
