0.000689505	-4669034.95	0,4.54965e-06,1.03405e-05,1.7711e-05,2.70924e-05,3.90329e-05,5.42309e-05,7.3575e-05,9.81963e-05,0.000129534,0.000169422,0.00022019,0.000284809,0.000367055,0.00047174,0.000604982,0.000774573,0.00099043,0.00126517,0.00161487,0.00205996,0.00262648,0.00334754,0.00426532,0.00543347,0.00692029,0.00881273,0.0112214,0.0142872,0.0181894,0.0231561,0.0294778,inf	131.797,131.797,195.182,217.889,223.212,216.171,205.718,201.577,205.564,212.793,219.951,226.803,234.743,245.897,261.363,282.03,310.688,350.45,401.984,458.251,498.807,505.373,488.008,464.881,442.564,422.285,408.959,406.029,406.029,429.045,429.045,429.045
0.000755266	-4664902.09	0,4.54965e-06,1.03405e-05,1.7711e-05,2.70924e-05,3.90329e-05,5.42309e-05,7.3575e-05,9.81963e-05,0.000129534,0.000169422,0.00022019,0.000284809,0.000367055,0.00047174,0.000604982,0.000774573,0.00099043,0.00126517,0.00161487,0.00205996,0.00262648,0.00334754,0.00426532,0.00543347,0.00692029,0.00881273,0.0112214,0.0142872,0.0181894,0.0231561,0.0294778,inf	80.8194,80.8194,174.606,214.29,220.729,202.161,178.162,166.476,168.478,174.921,180.17,184.006,188.898,198.278,213.562,235.987,270.395,322.472,395.458,483.023,555.102,573.1,546.831,507.999,468.622,431.847,408.768,406.276,406.276,459.786,459.786,459.786
0.000818036	-4663063.68	0,4.54965e-06,1.03405e-05,1.7711e-05,2.70924e-05,3.90329e-05,5.42309e-05,7.3575e-05,9.81963e-05,0.000129534,0.000169422,0.00022019,0.000284809,0.000367055,0.00047174,0.000604982,0.000774573,0.00099043,0.00126517,0.00161487,0.00205996,0.00262648,0.00334754,0.00426532,0.00543347,0.00692029,0.00881273,0.0112214,0.0142872,0.0181894,0.0231561,0.0294778,inf	54.3022,54.3022,171.698,233.122,243.633,213.692,177.24,160.332,162.287,168.991,172.579,173.04,174.109,180.325,193.007,213.52,248.288,304.668,387.717,492.969,586.754,615.366,584.75,535.395,483.053,433.148,403.134,402.882,402.882,492.748,492.748,492.748
0.000877809	-4661959.88	0,4.54965e-06,1.03405e-05,1.7711e-05,2.70924e-05,3.90329e-05,5.42309e-05,7.3575e-05,9.81963e-05,0.000129534,0.000169422,0.00022019,0.000284809,0.000367055,0.00047174,0.000604982,0.000774573,0.00099043,0.00126517,0.00161487,0.00205996,0.00262648,0.00334754,0.00426532,0.00543347,0.00692029,0.00881273,0.0112214,0.0142872,0.0181894,0.0231561,0.0294778,inf	35.4117,35.4117,163.954,247.355,264.463,225.14,179.014,159.656,163.655,172.172,175.168,172.926,170.651,173.923,183.739,201.572,235.168,292.939,381.029,496.581,604.856,641.825,609.046,552.467,490.111,429.763,394.829,397.584,397.584,528.972,528.972,528.972
0.000935131	-4661160.81	0,4.54965e-06,1.03405e-05,1.7711e-05,2.70924e-05,3.90329e-05,5.42309e-05,7.3575e-05,9.81963e-05,0.000129534,0.000169422,0.00022019,0.000284809,0.000367055,0.00047174,0.000604982,0.000774573,0.00099043,0.00126517,0.00161487,0.00205996,0.00262648,0.00334754,0.00426532,0.00543347,0.00692029,0.00881273,0.0112214,0.0142872,0.0181894,0.0231561,0.0294778,inf	22.3778,22.3778,150.95,252.78,277.21,230.701,177.926,158.41,165.923,177.489,180.952,176.84,171.916,172.744,179.895,195.03,227.071,285.081,375.782,497.484,615.376,658.515,624.603,562.917,492.666,423.963,385.507,391.459,391.459,569.641,569.641,569.641
0.000990498	-4660516.93	0,4.54965e-06,1.03405e-05,1.7711e-05,2.70924e-05,3.90329e-05,5.42309e-05,7.3575e-05,9.81963e-05,0.000129534,0.000169422,0.00022019,0.000284809,0.000367055,0.00047174,0.000604982,0.000774573,0.00099043,0.00126517,0.00161487,0.00205996,0.00262648,0.00334754,0.00426532,0.00543347,0.00692029,0.00881273,0.0112214,0.0142872,0.0181894,0.0231561,0.0294778,inf	13.9899,13.9899,136.374,252.223,283.126,230.731,173.585,155.355,167.114,182.484,187.264,182.078,175.206,174.107,178.884,191.516,222.004,279.788,371.84,497.259,621.52,669.063,634.526,569.141,492.553,417.103,376.091,385.142,385.142,616.258,616.258,616.258
0.00104427	-4659966.69	0,4.54965e-06,1.03405e-05,1.7711e-05,2.70924e-05,3.90329e-05,5.42309e-05,7.3575e-05,9.81963e-05,0.000129534,0.000169422,0.00022019,0.000284809,0.000367055,0.00047174,0.000604982,0.000774573,0.00099043,0.00126517,0.00161487,0.00205996,0.00262648,0.00334754,0.00426532,0.00543347,0.00692029,0.00881273,0.0112214,0.0142872,0.0181894,0.0231561,0.0294778,inf	8.80854,8.80854,122.878,249.271,285.121,227.161,167.009,150.742,166.895,186.384,193.066,187.482,179.294,176.734,179.425,189.8,218.863,276.249,368.964,496.611,625.05,675.663,640.768,572.663,490.911,409.956,367.062,378.988,378.988,670.96,670.96,670.96
0.00109671	-4659480.83	0,4.54965e-06,1.03405e-05,1.7711e-05,2.70924e-05,3.90329e-05,5.42309e-05,7.3575e-05,9.81963e-05,0.000129534,0.000169422,0.00022019,0.000284809,0.000367055,0.00047174,0.000604982,0.000774573,0.00099043,0.00126517,0.00161487,0.00205996,0.00262648,0.00334754,0.00426532,0.00543347,0.00692029,0.00881273,0.0112214,0.0142872,0.0181894,0.0231561,0.0294778,inf	5.64466,5.64466,111.54,246.375,285.602,221.753,159.285,145.173,165.498,189.091,198.016,192.566,183.596,179.97,180.833,189.193,216.995,273.939,366.923,495.851,626.968,679.663,644.568,574.452,488.44,402.95,358.645,373.182,373.182,737.12,737.12,737.12
0.001148	-4659043.47	0,4.54965e-06,1.03405e-05,1.7711e-05,2.70924e-05,3.90329e-05,5.42309e-05,7.3575e-05,9.81963e-05,0.000129534,0.000169422,0.00022019,0.000284809,0.000367055,0.00047174,0.000604982,0.000774573,0.00099043,0.00126517,0.00161487,0.00205996,0.00262648,0.00334754,0.00426532,0.00543347,0.00692029,0.00881273,0.0112214,0.0142872,0.0181894,0.0231561,0.0294778,inf	3.69349,3.69349,102.462,244.764,286.022,215.674,151.218,139.194,163.292,190.766,202.081,197.152,187.833,183.463,182.719,189.287,215.991,272.505,365.525,495.112,627.862,681.911,646.723,575.125,485.565,396.301,350.925,367.81,367.81,820.685,820.685,820.685
0.00119825	-4658645.01	0,4.54965e-06,1.03405e-05,1.7711e-05,2.70924e-05,3.90329e-05,5.42309e-05,7.3575e-05,9.81963e-05,0.000129534,0.000169422,0.00022019,0.000284809,0.000367055,0.00047174,0.000604982,0.000774573,0.00099043,0.00126517,0.00161487,0.00205996,0.00262648,0.00334754,0.00426532,0.00543347,0.00692029,0.00881273,0.0112214,0.0142872,0.0181894,0.0231561,0.0294778,inf	2.46717,2.46717,95.3327,244.861,287.086,209.576,143.298,133.2,160.62,191.647,205.355,201.212,191.878,187.019,184.856,189.832,215.587,271.705,364.619,494.446,628.085,682.954,647.752,575.079,482.537,390.107,343.903,362.898,362.898,933.726,933.726,933.726
0.00124756	-4658279.00	0,4.54965e-06,1.03405e-05,1.7711e-05,2.70924e-05,3.90329e-05,5.42309e-05,7.3575e-05,9.81963e-05,0.000129534,0.000169422,0.00022019,0.000284809,0.000367055,0.00047174,0.000604982,0.000774573,0.00099043,0.00126517,0.00161487,0.00205996,0.00262648,0.00334754,0.00426532,0.00543347,0.00692029,0.00881273,0.0112214,0.0142872,0.0181894,0.0231561,0.0294778,inf	1.68055,1.68055,89.7424,246.629,289.021,203.763,135.794,127.444,157.754,191.964,207.973,204.779,195.683,190.531,187.105,190.666,215.607,271.368,364.09,493.866,627.858,683.153,647.999,574.566,479.503,384.395,337.543,358.446,358.446,1106.96,1106.96,1106.96
0.001296	-4657940.81	0,4.54965e-06,1.03405e-05,1.7711e-05,2.70924e-05,3.90329e-05,5.42309e-05,7.3575e-05,9.81963e-05,0.000129534,0.000169422,0.00022019,0.000284809,0.000367055,0.00047174,0.000604982,0.000774573,0.00099043,0.00126517,0.00161487,0.00205996,0.00262648,0.00334754,0.00426532,0.00543347,0.00692029,0.00881273,0.0112214,0.0142872,0.0181894,0.0231561,0.0294778,inf	1.15917,1.15917,85.292,249.842,291.784,198.332,128.823,122.07,154.888,191.913,210.077,207.916,199.237,193.94,189.385,191.685,215.927,271.375,363.848,493.368,627.322,682.75,647.695,573.75,476.544,379.156,331.789,354.439,354.439,1461,1461,1461
0.00134361	-4657626.87	0,4.54965e-06,1.03405e-05,1.7711e-05,2.70924e-05,3.90329e-05,5.42309e-05,7.3575e-05,9.81963e-05,0.000129534,0.000169422,0.00022019,0.000284809,0.000367055,0.00047174,0.000604982,0.000774573,0.00099043,0.00126517,0.00161487,0.00205996,0.00262648,0.00334754,0.00426532,0.00543347,0.00692029,0.00881273,0.0112214,0.0142872,0.0181894,0.0231561,0.0294778,inf	0.809715,0.809715,81.6673,254.208,295.219,193.283,122.427,117.15,152.153,191.648,211.789,210.689,202.551,197.215,191.642,192.819,216.463,271.636,363.825,492.943,626.57,681.912,646.995,572.734,473.694,374.352,326.571,350.876,350.876,3134.47,3134.47,3134.47
0.00134361	-4657334.25	0,4.54965e-06,1.03405e-05,1.7711e-05,2.70924e-05,3.90329e-05,5.42309e-05,7.3575e-05,9.81963e-05,0.000129534,0.000169422,0.00022019,0.000284809,0.000367055,0.00047174,0.000604982,0.000774573,0.00099043,0.00126517,0.00161487,0.00205996,0.00262648,0.00334754,0.00426532,0.00543347,0.00692029,0.00881273,0.0112214,0.0142872,0.0181894,0.0231561,0.0294778,inf	0.436421,0.436421,77.9329,257.135,296.463,186.901,115.562,111.71,148.306,189.58,211.302,211.245,203.798,198.557,192.145,192.355,215.318,269.778,360.788,488.032,619.584,675.068,641.672,568.181,468.338,368.021,320.321,346.487,346.487,63770.1,63770.1,63770.1
