0.000690554	-8707937.53	0,2.65901e-06,6.11005e-06,1.0589e-05,1.64022e-05,2.39468e-05,3.37388e-05,4.64474e-05,6.29415e-05,8.43486e-05,0.000112132,0.000148192,0.000194992,0.000255732,0.000334565,0.00043688,0.00056967,0.000742014,0.000965694,0.001256,0.00163278,0.00212179,0.00275645,0.00358016,0.00464923,0.00603674,0.00783753,0.0101747,0.0132081,0.017145,0.0222545,0.0288861,inf	137.574,137.574,173.128,196.421,211.431,217.554,217.307,212.104,205.4,201.791,203.242,208.087,215.451,226.127,239.346,255.191,275.663,304.468,345.764,401.441,463.191,503.876,502.526,477.034,449.121,424.774,408.137,402.081,402.081,410.007,410.007,410.007
0.000757796	-8700194.28	0,2.65901e-06,6.11005e-06,1.0589e-05,1.64022e-05,2.39468e-05,3.37388e-05,4.64474e-05,6.29415e-05,8.43486e-05,0.000112132,0.000148192,0.000194992,0.000255732,0.000334565,0.00043688,0.00056967,0.000742014,0.000965694,0.001256,0.00163278,0.00212179,0.00275645,0.00358016,0.00464923,0.00603674,0.00783753,0.0101747,0.0132081,0.017145,0.0222545,0.0288861,inf	99.3114,99.3114,143.803,179.94,205.322,214.444,210.651,196.577,179.581,168.19,164.889,166.174,170.643,179.866,192.174,207.507,229.017,262.834,316.196,394.644,491.498,565.771,569.825,527.562,478.857,435.559,407.076,399.185,399.185,419.413,419.413,419.413
0.000821875	-8696726.34	0,2.65901e-06,6.11005e-06,1.0589e-05,1.64022e-05,2.39468e-05,3.37388e-05,4.64474e-05,6.29415e-05,8.43486e-05,0.000112132,0.000148192,0.000194992,0.000255732,0.000334565,0.00043688,0.00056967,0.000742014,0.000965694,0.001256,0.00163278,0.00212179,0.00275645,0.00358016,0.00464923,0.00603674,0.00783753,0.0101747,0.0132081,0.017145,0.0222545,0.0288861,inf	83.8051,83.8051,131.928,180.681,219.94,235.874,230.953,208.997,182.681,164.991,158.22,156.596,158.318,165.61,175.6,188.033,206.984,240.452,297.628,386.597,503.737,602.319,612.851,559.46,495.447,437.739,401.104,393.891,393.891,429.113,429.113,429.113
0.000882838	-8694634.30	0,2.65901e-06,6.11005e-06,1.0589e-05,1.64022e-05,2.39468e-05,3.37388e-05,4.64474e-05,6.29415e-05,8.43486e-05,0.000112132,0.000148192,0.000194992,0.000255732,0.000334565,0.00043688,0.00056967,0.000742014,0.000965694,0.001256,0.00163278,0.00212179,0.00275645,0.00358016,0.00464923,0.00603674,0.00783753,0.0101747,0.0132081,0.017145,0.0222545,0.0288861,inf	73.4248,73.4248,118.32,175.412,228.497,253.86,250.775,223.367,190.04,168.289,159.834,156.623,156.671,162.795,170.712,180.011,195.691,227.351,285.409,379.534,508.785,624.398,640.505,579.353,503.903,435.236,393.01,387.767,387.767,439.338,439.338,439.338
0.000941274	-8693119.97	0,2.65901e-06,6.11005e-06,1.0589e-05,1.64022e-05,2.39468e-05,3.37388e-05,4.64474e-05,6.29415e-05,8.43486e-05,0.000112132,0.000148192,0.000194992,0.000255732,0.000334565,0.00043688,0.00056967,0.000742014,0.000965694,0.001256,0.00163278,0.00212179,0.00275645,0.00358016,0.00464923,0.00603674,0.00783753,0.0101747,0.0132081,0.017145,0.0222545,0.0288861,inf	66.8885,66.8885,103.773,163.879,227.732,262.688,263.273,232.854,195.09,171.48,162.964,159.415,158.886,164.693,171.028,177.401,189.818,219.345,277.157,373.859,510.574,638.107,658.508,591.665,507.512,430.431,384.336,381.628,381.628,449.997,449.997,449.997
0.000997698	-8691903.57	0,2.65901e-06,6.11005e-06,1.0589e-05,1.64022e-05,2.39468e-05,3.37388e-05,4.64474e-05,6.29415e-05,8.43486e-05,0.000112132,0.000148192,0.000194992,0.000255732,0.000334565,0.00043688,0.00056967,0.000742014,0.000965694,0.001256,0.00163278,0.00212179,0.00275645,0.00358016,0.00464923,0.00603674,0.00783753,0.0101747,0.0132081,0.017145,0.0222545,0.0288861,inf	64.2416,64.2416,90.8793,150.237,221.138,264.164,268.771,236.865,196.645,172.838,165.451,162.544,162.359,168.587,173.827,177.565,186.928,214.369,271.503,369.452,510.876,646.823,670.363,599.187,508.3,424.675,375.864,375.854,375.854,460.894,460.894,460.894
0.00105248	-8690868.49	0,2.65901e-06,6.11005e-06,1.0589e-05,1.64022e-05,2.39468e-05,3.37388e-05,4.64474e-05,6.29415e-05,8.43486e-05,0.000112132,0.000148192,0.000194992,0.000255732,0.000334565,0.00043688,0.00056967,0.000742014,0.000965694,0.001256,0.00163278,0.00212179,0.00275645,0.00358016,0.00464923,0.00603674,0.00783753,0.0101747,0.0132081,0.017145,0.0222545,0.0288861,inf	64.8178,64.8178,80.5928,137.496,212.558,261.64,269.603,236.791,195.289,172.306,166.764,165.157,166.016,173.252,177.814,179.205,185.772,211.292,267.607,366.083,510.515,652.452,678.214,603.654,507.486,418.7,367.949,370.597,370.597,471.831,471.831,471.831
0.00110589	-8689958.44	0,2.65901e-06,6.11005e-06,1.0589e-05,1.64022e-05,2.39468e-05,3.37388e-05,4.64474e-05,6.29415e-05,8.43486e-05,0.000112132,0.000148192,0.000194992,0.000255732,0.000334565,0.00043688,0.00056967,0.000742014,0.000965694,0.001256,0.00163278,0.00212179,0.00275645,0.00358016,0.00464923,0.00603674,0.00783753,0.0101747,0.0132081,0.017145,0.0222545,0.0288861,inf	67.795,67.795,72.7653,126.908,204.374,257.774,268.033,234.227,191.99,170.331,166.965,167.033,169.425,178.101,182.329,181.63,185.659,209.454,264.935,363.531,509.878,656.107,683.394,606.148,505.793,412.881,360.726,365.889,365.889,482.638,482.638,482.638
0.0011581	-8689142.49	0,2.65901e-06,6.11005e-06,1.0589e-05,1.64022e-05,2.39468e-05,3.37388e-05,4.64474e-05,6.29415e-05,8.43486e-05,0.000112132,0.000148192,0.000194992,0.000255732,0.000334565,0.00043688,0.00056967,0.000742014,0.000965694,0.001256,0.00163278,0.00212179,0.00275645,0.00358016,0.00464923,0.00603674,0.00783753,0.0101747,0.0132081,0.017145,0.0222545,0.0288861,inf	72.2542,72.2542,66.8615,118.676,197.69,254.128,265.627,230.408,187.589,167.42,166.298,168.2,172.434,182.853,187.016,184.453,186.187,208.447,263.132,361.613,509.149,658.456,686.75,607.353,503.65,407.398,354.21,361.708,361.708,493.18,493.18,493.18
0.00120924	-8688401.68	0,2.65901e-06,6.11005e-06,1.0589e-05,1.64022e-05,2.39468e-05,3.37388e-05,4.64474e-05,6.29415e-05,8.43486e-05,0.000112132,0.000148192,0.000194992,0.000255732,0.000334565,0.00043688,0.00056967,0.000742014,0.000965694,0.001256,0.00163278,0.00212179,0.00275645,0.00358016,0.00464923,0.00603674,0.00783753,0.0101747,0.0132081,0.017145,0.0222545,0.0288861,inf	77.4667,77.4667,62.3635,112.518,192.797,251.453,263.27,226.145,182.695,164,165.03,168.779,175.027,187.382,191.684,187.45,187.108,208.011,261.956,360.183,508.413,659.913,688.83,607.702,501.306,402.319,348.367,358.01,358.01,503.358,503.358,503.358
0.00125939	-8687723.31	0,2.65901e-06,6.11005e-06,1.0589e-05,1.64022e-05,2.39468e-05,3.37388e-05,4.64474e-05,6.29415e-05,8.43486e-05,0.000112132,0.000148192,0.000194992,0.000255732,0.000334565,0.00043688,0.00056967,0.000742014,0.000965694,0.001256,0.00163278,0.00212179,0.00275645,0.00358016,0.00464923,0.00603674,0.00783753,0.0101747,0.0132081,0.017145,0.0222545,0.0288861,inf	82.8456,82.8456,58.8544,108.04,189.599,249.981,261.408,221.893,177.709,160.381,163.392,168.91,177.244,191.643,196.23,190.489,188.27,207.974,261.241,359.131,507.707,660.747,690,607.478,498.906,397.655,343.136,354.741,354.741,513.092,513.092,513.092
0.00130863	-8687098.22	0,2.65901e-06,6.11005e-06,1.0589e-05,1.64022e-05,2.39468e-05,3.37388e-05,4.64474e-05,6.29415e-05,8.43486e-05,0.000112132,0.000148192,0.000194992,0.000255732,0.000334565,0.00043688,0.00056967,0.000742014,0.000965694,0.001256,0.00163278,0.00212179,0.00275645,0.00358016,0.00464923,0.00603674,0.00783753,0.0101747,0.0132081,0.017145,0.0222545,0.0288861,inf	87.979,87.979,56.0458,104.841,187.833,249.691,260.185,217.893,172.863,156.768,161.563,168.72,179.143,195.631,200.601,193.491,189.573,208.218,260.868,358.371,507.046,661.133,690.51,606.866,496.53,393.39,338.45,351.849,351.849,522.33,522.33,522.33
0.001357	-8686519.47	0,2.65901e-06,6.11005e-06,1.0589e-05,1.64022e-05,2.39468e-05,3.37388e-05,4.64474e-05,6.29415e-05,8.43486e-05,0.000112132,0.000148192,0.000194992,0.000255732,0.000334565,0.00043688,0.00056967,0.000742014,0.000965694,0.001256,0.00163278,0.00212179,0.00275645,0.00358016,0.00464923,0.00603674,0.00783753,0.0101747,0.0132081,0.017145,0.0222545,0.0288861,inf	92.6057,92.6057,53.7286,102.567,187.188,250.423,259.599,214.241,168.287,153.3,159.673,168.318,180.789,199.361,204.775,196.411,190.954,208.662,260.752,357.84,506.434,661.191,690.534,605.991,494.221,389.494,334.246,349.284,349.284,531.036,531.036,531.036
0.00140454	-8685981.57	0,2.65901e-06,6.11005e-06,1.0589e-05,1.64022e-05,2.39468e-05,3.37388e-05,4.64474e-05,6.29415e-05,8.43486e-05,0.000112132,0.000148192,0.000194992,0.000255732,0.000334565,0.00043688,0.00056967,0.000742014,0.000965694,0.001256,0.00163278,0.00212179,0.00275645,0.00358016,0.00464923,0.00603674,0.00783753,0.0101747,0.0132081,0.017145,0.0222545,0.0288861,inf	96.6489,96.6489,51.7273,100.969,187.413,251.983,259.581,210.957,164.042,150.055,157.815,167.79,182.239,202.857,208.745,199.225,192.37,209.248,260.829,357.488,505.869,661.005,690.195,604.936,492,385.931,330.464,347.003,347.003,539.184,539.184,539.184
0.00145129	-8685480.09	0,2.65901e-06,6.11005e-06,1.0589e-05,1.64022e-05,2.39468e-05,3.37388e-05,4.64474e-05,6.29415e-05,8.43486e-05,0.000112132,0.000148192,0.000194992,0.000255732,0.000334565,0.00043688,0.00056967,0.000742014,0.000965694,0.001256,0.00163278,0.00212179,0.00275645,0.00358016,0.00464923,0.00603674,0.00783753,0.0101747,0.0132081,0.017145,0.0222545,0.0288861,inf	100.096,100.096,49.9776,99.843,188.234,254.18,260.026,208.022,160.148,147.075,156.051,167.202,183.542,206.144,212.514,201.919,193.793,209.936,261.053,357.277,505.347,660.637,689.583,603.758,489.874,382.665,327.052,344.97,344.97,546.761,546.761,546.761
0.00149727	-8685011.29	0,2.65901e-06,6.11005e-06,1.0589e-05,1.64022e-05,2.39468e-05,3.37388e-05,4.64474e-05,6.29415e-05,8.43486e-05,0.000112132,0.000148192,0.000194992,0.000255732,0.000334565,0.00043688,0.00056967,0.000742014,0.000965694,0.001256,0.00163278,0.00212179,0.00275645,0.00358016,0.00464923,0.00603674,0.00783753,0.0101747,0.0132081,0.017145,0.0222545,0.0288861,inf	103.018,103.018,48.3968,99.0383,189.482,256.851,260.831,205.402,156.605,144.378,154.418,166.602,184.74,209.246,216.088,204.488,195.206,210.696,261.389,357.177,504.863,660.131,688.764,602.499,487.845,379.664,323.962,343.151,343.151,553.768,553.768,553.768
0.0015425	-8684572.03	0,2.65901e-06,6.11005e-06,1.0589e-05,1.64022e-05,2.39468e-05,3.37388e-05,4.64474e-05,6.29415e-05,8.43486e-05,0.000112132,0.000148192,0.000194992,0.000255732,0.000334565,0.00043688,0.00056967,0.000742014,0.000965694,0.001256,0.00163278,0.00212179,0.00275645,0.00358016,0.00464923,0.00603674,0.00783753,0.0101747,0.0132081,0.017145,0.0222545,0.0288861,inf	105.456,105.456,46.9281,98.455,190.991,259.828,261.894,203.053,153.397,141.965,152.939,166.027,185.867,212.188,219.476,206.931,196.595,211.506,261.812,357.167,504.415,659.52,687.789,601.186,485.909,376.897,321.154,341.519,341.519,560.204,560.204,560.204
0.00158702	-8684159.62	0,2.65901e-06,6.11005e-06,1.0589e-05,1.64022e-05,2.39468e-05,3.37388e-05,4.64474e-05,6.29415e-05,8.43486e-05,0.000112132,0.000148192,0.000194992,0.000255732,0.000334565,0.00043688,0.00056967,0.000742014,0.000965694,0.001256,0.00163278,0.00212179,0.00275645,0.00358016,0.00464923,0.00603674,0.00783753,0.0101747,0.0132081,0.017145,0.0222545,0.0288861,inf	107.49,107.49,45.5591,97.9953,192.657,263.008,263.136,200.933,150.501,139.832,151.627,165.501,186.948,214.989,222.689,209.249,197.953,212.349,262.299,357.227,503.998,658.83,686.696,599.839,484.06,374.337,318.595,340.05,340.05,566.08,566.08,566.08
0.00163084	-8683771.70	0,2.65901e-06,6.11005e-06,1.0589e-05,1.64022e-05,2.39468e-05,3.37388e-05,4.64474e-05,6.29415e-05,8.43486e-05,0.000112132,0.000148192,0.000194992,0.000255732,0.000334565,0.00043688,0.00056967,0.000742014,0.000965694,0.001256,0.00163278,0.00212179,0.00275645,0.00358016,0.00464923,0.00603674,0.00783753,0.0101747,0.0132081,0.017145,0.0222545,0.0288861,inf	109.191,109.191,44.2647,97.6249,194.388,266.277,264.474,199.007,147.894,137.966,150.482,165.042,188.003,217.667,225.737,211.447,199.275,213.213,262.836,357.343,503.609,658.079,685.515,598.473,482.292,371.961,316.254,338.725,338.725,571.408,571.408,571.408
0.00167397	-8683406.22	0,2.65901e-06,6.11005e-06,1.0589e-05,1.64022e-05,2.39468e-05,3.37388e-05,4.64474e-05,6.29415e-05,8.43486e-05,0.000112132,0.000148192,0.000194992,0.000255732,0.000334565,0.00043688,0.00056967,0.000742014,0.000965694,0.001256,0.00163278,0.00212179,0.00275645,0.00358016,0.00464923,0.00603674,0.00783753,0.0101747,0.0132081,0.017145,0.0222545,0.0288861,inf	110.649,110.649,43.0438,97.3198,196.12,269.577,265.861,197.244,145.553,136.351,149.506,164.661,189.049,220.235,228.63,213.529,200.558,214.089,263.411,357.506,503.245,657.284,684.267,597.099,480.599,369.748,314.105,337.525,337.525,576.207,576.207,576.207
