time_index	left_time_boundary	right_time_boundary	lambda
0	0	4.08593e-06	52.6334
1	4.08593e-06	1.11756e-05	52.6334
2	1.11756e-05	2.34772e-05	367.545
3	2.34772e-05	4.48222e-05	181.363
4	4.48222e-05	8.18589e-05	129.984
5	8.18589e-05	0.000146123	174.789
6	0.000146123	0.00025763	191.18
7	0.00025763	0.000451112	229.166
8	0.000451112	0.00078683	211.647
9	0.00078683	0.00136935	249.788
10	0.00136935	0.0023801	512.84
11	0.0023801	0.00413391	665.473
12	0.00413391	0.00717701	398.025
13	0.00717701	0.0124572	281.012
14	0.0124572	0.0216192	281.012
15	0.0216192	inf	281.012
