0.000292536	-167131.54	0,4.33848e-05,0.000102749,0.000183978,0.000295124,0.000447208,0.000655306,0.00094005,0.00132967,0.00186279,0.00259227,0.00359043,0.00495622,0.00682505,0.00938221,0.0128812,inf	46.2217,46.2217,108.707,191.409,324.539,564.653,1047.21,1539.84,1413.84,1266.14,1145.05,1061.77,1016.93,1020.6,1020.6,1020.6
0.000307218	-166513.94	0,4.33848e-05,0.000102749,0.000183978,0.000295124,0.000447208,0.000655306,0.00094005,0.00132967,0.00186279,0.00259227,0.00359043,0.00495622,0.00682505,0.00938221,0.0128812,inf	3.30859,3.30859,18.7005,57.2437,153.023,388.227,995.174,2039.14,1918.46,1697.68,1460.66,1291.39,1215.81,1285.6,1285.6,1285.6
0.00032329	-166304.05	0,4.33848e-05,0.000102749,0.000183978,0.000295124,0.000447208,0.000655306,0.00094005,0.00132967,0.00186279,0.00259227,0.00359043,0.00495622,0.00682505,0.00938221,0.0128812,inf	0.848948,0.848948,3.70611,19.4814,79.8906,280.229,897.558,2374.23,2325.26,2118.76,1794.45,1549.55,1477.35,1805.43,1805.43,1805.43
0.000338422	-166210.69	0,4.33848e-05,0.000102749,0.000183978,0.000295124,0.000447208,0.000655306,0.00094005,0.00132967,0.00186279,0.00259227,0.00359043,0.00495622,0.00682505,0.00938221,0.0128812,inf	0.848948,0.848948,0.848949,7.34371,45.0247,210.961,806.102,2605.89,2648.2,2531.69,2164.1,1866.17,1878.1,3587.9,3587.9,3587.9
0.000352181	-166161.80	0,4.33848e-05,0.000102749,0.000183978,0.000295124,0.000447208,0.000655306,0.00094005,0.00132967,0.00186279,0.00259227,0.00359043,0.00495622,0.00682505,0.00938221,0.0128812,inf	0.848948,0.848948,0.848948,3.02456,27.0269,164.397,729.396,2772.33,2906.74,2947.23,2601.83,2300.02,2671.29,37471.7,37471.7,37471.7
0.000362919	-166133.27	0,4.33848e-05,0.000102749,0.000183978,0.000295124,0.000447208,0.000655306,0.00094005,0.00132967,0.00186279,0.00259227,0.00359043,0.00495622,0.00682505,0.00938221,0.0128812,inf	0.848948,0.848948,0.848948,1.34711,17.1266,131.909,666.991,2890.29,3115.03,3379.32,3168.43,3002.93,5593.46,116540,116540,116540
