LogLikelihood = -311101.44331047870219

y0 0.91973803684767441169
y0_prime 0
y1 1.2115455737062257313
y1_prime 0
y2 0.80672296061712411852
y2_prime 0
y3 1.8873362157530766403
y3_prime 0
rho 0.0015085642488826211081
rho.alpha 1.1402282236266056969
r_ii 0.99999896094389439938
theta 0.0052773401301668557487
