time_index	left_time_boundary	right_time_boundary	lambda
0	0	3.8086e-07	11.1965
1	3.8086e-07	1.04171e-06	11.1965
2	1.04171e-06	2.18837e-06	4.28939
3	2.18837e-06	4.178e-06	19.4182
4	4.178e-06	7.63029e-06	10334.6
5	7.63029e-06	1.36205e-05	2752.83
6	1.36205e-05	2.40144e-05	10492.8
7	2.40144e-05	4.20493e-05	4897.46
8	4.20493e-05	7.33425e-05	3972.81
9	7.33425e-05	0.000127641	4034.24
10	0.000127641	0.000221856	4555.07
11	0.000221856	0.000385332	3490.45
12	0.000385332	0.000668988	2615.02
13	0.000668988	0.00116117	23611.3
14	0.00116117	0.00201518	23611.3
15	0.00201518	inf	23611.3
