LogLikelihood = -41521.97625136689021

y0 0.76584902737855609089
y0_prime 0
y1 1.2219484058019376427
y1_prime 0
y2 0.56085911478724193024
y2_prime 0
y3 3.5012701010457067952
y3_prime 0
rho 0.0013451656743009906408
rho.alpha 0.84963019117337534869
r_ii 0.99998532899735392832
theta 0.00048806163549865031392
