LogLikelihood = -1504236.850825839676

y0 0.51919631117576559021
y0_prime 0
y1 1.0067214143856819675
y1_prime 0
y2 1.0168262507255769744
y2_prime 0
y3 1.7985587425533151595
y3_prime 0
rho 0.0010763994528041611557
theta 0.0049198221391996265622
