0.000696412	-13779811.03	0,1.76862e-06,4.09833e-06,7.16715e-06,1.12095e-05,1.65344e-05,2.35485e-05,3.27878e-05,4.49584e-05,6.099e-05,8.21076e-05,0.000109925,0.000146567,0.000194833,0.000258413,0.000342162,0.000452482,0.000597799,0.000789219,0.00104137,0.00137351,0.00181102,0.00238733,0.00314648,0.00414646,0.00546369,0.0071988,0.00948438,0.0124951,0.0164609,0.0216848,0.0285661,inf	223.88,223.88,454.01,556.999,501.804,438.737,423.103,415.299,399.378,377.076,359.51,349.372,343.294,340.859,342.802,346.999,353.707,363.807,376.413,392,409.184,422.99,429.887,429.852,424.153,414.495,409.143,414.396,414.396,460.081,460.081,460.081
0.000759613	-13775889.51	0,1.76862e-06,4.09833e-06,7.16715e-06,1.12095e-05,1.65344e-05,2.35485e-05,3.27878e-05,4.49584e-05,6.099e-05,8.21076e-05,0.000109925,0.000146567,0.000194833,0.000258413,0.000342162,0.000452482,0.000597799,0.000789219,0.00104137,0.00137351,0.00181102,0.00238733,0.00314648,0.00414646,0.00546369,0.0071988,0.00948438,0.0124951,0.0164609,0.0216848,0.0285661,inf	110.602,110.602,449.378,675.234,569.351,463.31,448.724,444.483,420.871,383.587,355.179,339.17,328.722,323.488,324.827,328.977,336.712,349.5,365.944,387.593,412.765,433.785,445.158,446.366,438.022,421.84,413.281,425.72,425.72,542.216,542.216,542.216
0.000817468	-13773267.68	0,1.76862e-06,4.09833e-06,7.16715e-06,1.12095e-05,1.65344e-05,2.35485e-05,3.27878e-05,4.49584e-05,6.099e-05,8.21076e-05,0.000109925,0.000146567,0.000194833,0.000258413,0.000342162,0.000452482,0.000597799,0.000789219,0.00104137,0.00137351,0.00181102,0.00238733,0.00314648,0.00414646,0.00546369,0.0071988,0.00948438,0.0124951,0.0164609,0.0216848,0.0285661,inf	50.8163,50.8163,408.881,744.564,594.777,462.623,457.791,463.497,437.754,390.875,356.53,338.045,325.307,318.46,319.375,322.847,330.252,343.435,360.665,384.668,413.674,438.358,452.375,454.964,445.395,424.539,413.919,434.498,434.498,668.914,668.914,668.914
0.000870807	-13771277.33	0,1.76862e-06,4.09833e-06,7.16715e-06,1.12095e-05,1.65344e-05,2.35485e-05,3.27878e-05,4.49584e-05,6.099e-05,8.21076e-05,0.000109925,0.000146567,0.000194833,0.000258413,0.000342162,0.000452482,0.000597799,0.000789219,0.00104137,0.00137351,0.00181102,0.00238733,0.00314648,0.00414646,0.00546369,0.0071988,0.00948438,0.0124951,0.0164609,0.0216848,0.0285661,inf	22.9385,22.9385,361.332,786.521,595.365,447.26,454.709,472.426,447.374,394.397,357.317,338.558,325.024,317.636,318.673,321.618,328.453,341.25,358.08,382.832,413.634,440.041,455.499,459.28,449.137,424.722,412.645,441.929,441.929,914.196,914.196,914.196
0.00092028	-13769685.50	0,1.76862e-06,4.09833e-06,7.16715e-06,1.12095e-05,1.65344e-05,2.35485e-05,3.27878e-05,4.49584e-05,6.099e-05,8.21076e-05,0.000109925,0.000146567,0.000194833,0.000258413,0.000342162,0.000452482,0.000597799,0.000789219,0.00104137,0.00137351,0.00181102,0.00238733,0.00314648,0.00414646,0.00546369,0.0071988,0.00948438,0.0124951,0.0164609,0.0216848,0.0285661,inf	10.4526,10.4526,318.912,818.679,585.327,426.575,445.886,475.298,451.793,394.638,356.666,338.863,325.415,318.208,319.826,322.531,328.871,341.027,356.993,381.767,413.313,440.36,456.504,461.234,450.811,423.536,410.303,448.823,448.823,1691.34,1691.34,1691.34
0.00096639	-13768382.26	0,1.76862e-06,4.09833e-06,7.16715e-06,1.12095e-05,1.65344e-05,2.35485e-05,3.27878e-05,4.49584e-05,6.099e-05,8.21076e-05,0.000109925,0.000146567,0.000194833,0.000258413,0.000342162,0.000452482,0.000597799,0.000789219,0.00104137,0.00137351,0.00181102,0.00238733,0.00314648,0.00414646,0.00546369,0.0071988,0.00948438,0.0124951,0.0164609,0.0216848,0.0285661,inf	4.84574,4.84574,283.898,849.385,571.925,405.466,435.413,475.366,453.264,392.84,354.938,338.666,325.753,319.151,321.652,324.374,330.362,341.82,356.767,381.234,412.962,440.033,456.395,461.863,451.28,421.595,407.336,455.788,455.788,12772.4,12772.4,12772.4
0.00096639	-13767297.30	0,1.76862e-06,4.09833e-06,7.16715e-06,1.12095e-05,1.65344e-05,2.35485e-05,3.27878e-05,4.49584e-05,6.099e-05,8.21076e-05,0.000109925,0.000146567,0.000194833,0.000258413,0.000342162,0.000452482,0.000597799,0.000789219,0.00104137,0.00137351,0.00181102,0.00238733,0.00314648,0.00414646,0.00546369,0.0071988,0.00948438,0.0124951,0.0164609,0.0216848,0.0285661,inf	2.26661,2.26661,252.233,870.583,551.182,381.193,420.079,468.687,447.672,385.117,348.186,333.815,321.751,316.025,319.515,322.399,328.09,338.719,352.464,376.206,407.458,434.072,450.616,457.168,447.147,416.021,401.474,460.746,460.746,59377.6,59377.6,59377.6
