time_index	left_time_boundary	right_time_boundary	lambda
0	0	2.67836e-06	7.24405
1	2.67836e-06	6.15451e-06	7.24405
2	6.15451e-06	1.06661e-05	184.297
3	1.06661e-05	1.65215e-05	607.869
4	1.65215e-05	2.41211e-05	622.674
5	2.41211e-05	3.39842e-05	337.175
6	3.39842e-05	4.67853e-05	312.689
7	4.67853e-05	6.33995e-05	334.072
8	6.33995e-05	8.49623e-05	306.924
9	8.49623e-05	0.000112948	318.081
10	0.000112948	0.00014927	404.958
11	0.00014927	0.000196411	437.255
12	0.000196411	0.000257593	405.967
13	0.000257593	0.000336999	383.711
14	0.000336999	0.000440058	363.05
15	0.000440058	0.000573815	324.789
16	0.000573815	0.000747413	314.733
17	0.000747413	0.00097272	339.869
18	0.00097272	0.00126514	376.38
19	0.00126514	0.00164466	413.787
20	0.00164466	0.00213722	443.875
21	0.00213722	0.00277651	449.923
22	0.00277651	0.00360621	438.72
23	0.00360621	0.00468306	424.758
24	0.00468306	0.00608066	414.085
25	0.00608066	0.00789456	432.904
26	0.00789456	0.0102488	456.516
27	0.0102488	0.0133042	313.567
28	0.0133042	0.0172697	313.567
29	0.0172697	0.0224165	18313.1
30	0.0224165	0.0290962	18313.1
31	0.0290962	inf	18313.1
