time_index	left_time_boundary	right_time_boundary	lambda
0	0	2.25269e-05	402.33
1	2.25269e-05	5.69913e-05	402.33
2	5.69913e-05	0.000109719	179.827
3	0.000109719	0.000190389	389.902
4	0.000190389	0.000313808	409.338
5	0.000313808	0.00050263	355.868
6	0.00050263	0.000791514	332.19
7	0.000791514	0.00123348	367.587
8	0.00123348	0.00190967	410.149
9	0.00190967	0.00294417	440.546
10	0.00294417	0.00452689	426.604
11	0.00452689	0.00694834	414.959
12	0.00694834	0.010653	341.611
13	0.010653	0.0163208	365.307
14	0.0163208	0.0249921	365.307
15	0.0249921	inf	365.307
