0.000676021	-4586301.93	0,4.57455e-06,1.03971e-05,1.7808e-05,2.72406e-05,3.92465e-05,5.45277e-05,7.39777e-05,9.87337e-05,0.000130243,0.000170349,0.000221395,0.000286367,0.000369064,0.000474321,0.000608293,0.000778812,0.000995851,0.0012721,0.00162371,0.00207124,0.00264085,0.00336586,0.00428866,0.0054632,0.00695816,0.00886096,0.0112828,0.0143654,0.018289,0.0232828,0.0296391,inf	415.232,415.232,407.741,362.597,343.211,355.19,365.562,369.136,379.106,385.719,381.397,371.918,363.828,359.84,359.407,364.346,374.518,387.654,401.969,414.715,422.324,424.095,422.528,419.087,414.535,411.508,407.295,393.822,393.822,433.381,433.381,433.381
0.000718417	-4585655.46	0,4.57455e-06,1.03971e-05,1.7808e-05,2.72406e-05,3.92465e-05,5.45277e-05,7.39777e-05,9.87337e-05,0.000130243,0.000170349,0.000221395,0.000286367,0.000369064,0.000474321,0.000608293,0.000778812,0.000995851,0.0012721,0.00162371,0.00207124,0.00264085,0.00336586,0.00428866,0.0054632,0.00695816,0.00886096,0.0112828,0.0143654,0.018289,0.0232828,0.0296391,inf	441.833,441.833,433.562,348.285,316.073,339.227,357.538,363.436,382.862,395.931,387.581,369.469,353.907,345.234,342.131,347.874,362.17,381.379,403.03,422.889,434.948,437.869,435.881,430.906,423.829,419.433,412.272,387.184,387.184,469.828,469.828,469.828
0.000756767	-4585257.07	0,4.57455e-06,1.03971e-05,1.7808e-05,2.72406e-05,3.92465e-05,5.45277e-05,7.39777e-05,9.87337e-05,0.000130243,0.000170349,0.000221395,0.000286367,0.000369064,0.000474321,0.000608293,0.000778812,0.000995851,0.0012721,0.00162371,0.00207124,0.00264085,0.00336586,0.00428866,0.0054632,0.00695816,0.00886096,0.0112828,0.0143654,0.018289,0.0232828,0.0296391,inf	459.381,459.381,455.776,334.868,294.137,327.485,352.038,359.805,388.946,409.258,398.182,373.16,351.752,339.211,333.403,338.873,355.078,377.37,403.023,426.914,441.378,444.769,442.744,437.159,428.702,423.854,414.482,379.429,379.429,508.181,508.181,508.181
0.000791808	-4584968.20	0,4.57455e-06,1.03971e-05,1.7808e-05,2.72406e-05,3.92465e-05,5.45277e-05,7.39777e-05,9.87337e-05,0.000130243,0.000170349,0.000221395,0.000286367,0.000369064,0.000474321,0.000608293,0.000778812,0.000995851,0.0012721,0.00162371,0.00207124,0.00264085,0.00336586,0.00428866,0.0054632,0.00695816,0.00886096,0.0112828,0.0143654,0.018289,0.0232828,0.0296391,inf	469.579,469.579,474.419,321.512,274.847,316.906,345.755,354.555,393.004,420.86,408.196,377.894,352.229,336.819,328.762,333.763,350.97,374.925,402.841,429.014,444.605,447.947,445.984,440.239,431.059,426.265,415.118,371.473,371.473,549.814,549.814,549.814
0.000824093	-4584742.12	0,4.57455e-06,1.03971e-05,1.7808e-05,2.72406e-05,3.92465e-05,5.45277e-05,7.39777e-05,9.87337e-05,0.000130243,0.000170349,0.000221395,0.000286367,0.000369064,0.000474321,0.000608293,0.000778812,0.000995851,0.0012721,0.00162371,0.00207124,0.00264085,0.00336586,0.00428866,0.0054632,0.00695816,0.00886096,0.0112828,0.0143654,0.018289,0.0232828,0.0296391,inf	474.097,474.097,491.598,309.338,258.429,307.785,339.071,347.874,394.753,429.912,416.396,382.106,353.484,336.07,326.261,330.862,348.673,373.562,402.779,430.205,446.134,449.079,447.181,441.503,431.993,427.537,414.875,363.759,363.759,596.395,596.395,596.395
0.000854021	-4584558.64	0,4.57455e-06,1.03971e-05,1.7808e-05,2.72406e-05,3.92465e-05,5.45277e-05,7.39777e-05,9.87337e-05,0.000130243,0.000170349,0.000221395,0.000286367,0.000369064,0.000474321,0.000608293,0.000778812,0.000995851,0.0012721,0.00162371,0.00207124,0.00264085,0.00336586,0.00428866,0.0054632,0.00695816,0.00886096,0.0112828,0.0143654,0.018289,0.0232828,0.0296391,inf	476.956,476.956,508.359,298.831,244.833,300.587,332.723,340.554,394.844,436.745,422.751,385.413,354.824,336.077,324.946,329.278,347.511,372.938,402.899,430.957,446.738,449.07,447.219,441.724,432.129,428.17,414.154,356.479,356.479,650.219,650.219,650.219
0.000881891	-4584406.94	0,4.57455e-06,1.03971e-05,1.7808e-05,2.72406e-05,3.92465e-05,5.45277e-05,7.39777e-05,9.87337e-05,0.000130243,0.000170349,0.000221395,0.000286367,0.000369064,0.000474321,0.000608293,0.000778812,0.000995851,0.0012721,0.00162371,0.00207124,0.00264085,0.00336586,0.00428866,0.0054632,0.00695816,0.00886096,0.0112828,0.0143654,0.018289,0.0232828,0.0296391,inf	477.056,477.056,524.667,289.796,233.78,295.372,327.153,333.22,393.954,441.908,427.556,387.828,356.003,336.424,324.31,328.502,347.071,372.812,403.184,431.491,446.825,448.419,446.597,441.348,431.827,428.455,413.185,349.699,349.699,714.841,714.841,714.841
0.000907929	-4584280.20	0,4.57455e-06,1.03971e-05,1.7808e-05,2.72406e-05,3.92465e-05,5.45277e-05,7.39777e-05,9.87337e-05,0.000130243,0.000170349,0.000221395,0.000286367,0.000369064,0.000474321,0.000608293,0.000778812,0.000995851,0.0012721,0.00162371,0.00207124,0.00264085,0.00336586,0.00428866,0.0054632,0.00695816,0.00886096,0.0112828,0.0143654,0.018289,0.0232828,0.0296391,inf	474.717,474.717,540.301,281.941,224.873,292.035,322.519,326.236,392.595,445.896,431.158,389.488,356.959,336.91,324.07,328.23,347.092,373.014,403.594,431.913,446.62,447.408,445.603,440.636,431.296,428.559,412.097,343.423,343.423,796.44,796.44,796.44
0.000932317	-4584173.64	0,4.57455e-06,1.03971e-05,1.7808e-05,2.72406e-05,3.92465e-05,5.45277e-05,7.39777e-05,9.87337e-05,0.000130243,0.000170349,0.000221395,0.000286367,0.000369064,0.000474321,0.000608293,0.000778812,0.000995851,0.0012721,0.00162371,0.00207124,0.00264085,0.00336586,0.00428866,0.0054632,0.00695816,0.00886096,0.0112828,0.0143654,0.018289,0.0232828,0.0296391,inf	470.354,470.354,555.173,275.059,217.719,290.312,318.818,319.77,391.095,449.086,433.848,390.543,357.693,337.434,324.062,328.274,347.406,373.43,404.091,432.272,446.246,446.201,444.408,439.743,430.657,428.579,410.962,337.626,337.626,907.518,907.518,907.518
0.000955204	-4584083.73	0,4.57455e-06,1.03971e-05,1.7808e-05,2.72406e-05,3.92465e-05,5.45277e-05,7.39777e-05,9.87337e-05,0.000130243,0.000170349,0.000221395,0.000286367,0.000369064,0.000474321,0.000608293,0.000778812,0.000995851,0.0012721,0.00162371,0.00207124,0.00264085,0.00336586,0.00428866,0.0054632,0.00695816,0.00886096,0.0112828,0.0143654,0.018289,0.0232828,0.0296391,inf	464.396,464.396,569.058,268.9,211.943,289.925,315.923,313.867,389.651,451.749,435.862,391.13,358.238,337.95,324.189,328.516,347.902,373.981,404.644,432.594,445.777,444.895,443.114,438.763,429.979,428.567,409.814,332.276,332.276,1079.89,1079.89,1079.89
0.000976711	-4584007.80	0,4.57455e-06,1.03971e-05,1.7808e-05,2.72406e-05,3.92465e-05,5.45277e-05,7.39777e-05,9.87337e-05,0.000130243,0.000170349,0.000221395,0.000286367,0.000369064,0.000474321,0.000608293,0.000778812,0.000995851,0.0012721,0.00162371,0.00207124,0.00264085,0.00336586,0.00428866,0.0054632,0.00695816,0.00886096,0.0112828,0.0143654,0.018289,0.0232828,0.0296391,inf	457.356,457.356,582.001,263.218,207.19,290.627,313.687,308.51,388.362,454.07,437.375,391.361,358.628,338.439,324.392,328.877,348.509,374.612,405.228,432.891,445.255,443.547,441.779,437.748,429.301,428.547,408.66,327.34,327.34,1439.1,1439.1,1439.1
0.000996941	-4583944.07	0,4.57455e-06,1.03971e-05,1.7808e-05,2.72406e-05,3.92465e-05,5.45277e-05,7.39777e-05,9.87337e-05,0.000130243,0.000170349,0.000221395,0.000286367,0.000369064,0.000474321,0.000608293,0.000778812,0.000995851,0.0012721,0.00162371,0.00207124,0.00264085,0.00336586,0.00428866,0.0054632,0.00695816,0.00886096,0.0112828,0.0143654,0.018289,0.0232828,0.0296391,inf	449.615,449.615,593.938,257.898,203.258,292.197,312,303.649,387.288,456.17,438.515,391.323,358.896,338.893,324.636,329.31,349.177,375.287,405.828,433.171,444.707,442.191,440.44,436.729,428.639,428.522,407.481,322.797,322.797,3173.51,3173.51,3173.51
0.000996941	-4583892.10	0,4.57455e-06,1.03971e-05,1.7808e-05,2.72406e-05,3.92465e-05,5.45277e-05,7.39777e-05,9.87337e-05,0.000130243,0.000170349,0.000221395,0.000286367,0.000369064,0.000474321,0.000608293,0.000778812,0.000995851,0.0012721,0.00162371,0.00207124,0.00264085,0.00336586,0.00428866,0.0054632,0.00695816,0.00886096,0.0112828,0.0143654,0.018289,0.0232828,0.0296391,inf	438.991,438.991,601.369,251.349,198.798,292.737,308.898,297.464,384.122,455.337,436.681,388.693,356.889,337.264,322.961,327.83,347.819,373.793,404.101,431.026,441.846,438.81,437.323,434.155,426.646,427.178,405.032,317.972,317.972,63427.6,63427.6,63427.6
0.000996941	-4583890.36	0,4.57455e-06,1.03971e-05,1.7808e-05,2.72406e-05,3.92465e-05,5.45277e-05,7.39777e-05,9.87337e-05,0.000130243,0.000170349,0.000221395,0.000286367,0.000369064,0.000474321,0.000608293,0.000778812,0.000995851,0.0012721,0.00162371,0.00207124,0.00264085,0.00336586,0.00428866,0.0054632,0.00695816,0.00886096,0.0112828,0.0143654,0.018289,0.0232828,0.0296391,inf	432.125,432.125,609.847,246.808,195.941,295.442,307.912,293.164,383.034,456.747,436.86,387.772,356.385,336.994,322.532,327.568,347.713,373.616,403.771,430.335,440.408,436.683,435.34,432.502,425.418,426.503,403.134,313.756,313.756,63431.5,63431.5,63431.5
0.000996941	-4583887.75	0,4.57455e-06,1.03971e-05,1.7808e-05,2.72406e-05,3.92465e-05,5.45277e-05,7.39777e-05,9.87337e-05,0.000130243,0.000170349,0.000221395,0.000286367,0.000369064,0.000474321,0.000608293,0.000778812,0.000995851,0.0012721,0.00162371,0.00207124,0.00264085,0.00336586,0.00428866,0.0054632,0.00695816,0.00886096,0.0112828,0.0143654,0.018289,0.0232828,0.0296391,inf	426.482,426.482,616.539,242.787,193.485,298.731,307.462,289.317,382.332,456.747,437.343,387.118,356.133,336.967,322.339,327.574,347.932,373.627,403.959,430.275,439.663,435.273,433.987,431.457,424.733,426.342,401.718,309.902,309.902,63434.6,63434.6,63434.6
0.000996941	-4583886.22	0,4.57455e-06,1.03971e-05,1.7808e-05,2.72406e-05,3.92465e-05,5.45277e-05,7.39777e-05,9.87337e-05,0.000130243,0.000170349,0.000221395,0.000286367,0.000369064,0.000474321,0.000608293,0.000778812,0.000995851,0.0012721,0.00162371,0.00207124,0.00264085,0.00336586,0.00428866,0.0054632,0.00695816,0.00886096,0.0112828,0.0143654,0.018289,0.0232828,0.0296391,inf	421.858,421.858,622.126,239.189,191.326,302.464,307.428,285.86,381.974,456.78,438.01,386.575,355.947,336.975,322.169,327.602,348.207,373.892,403.959,430.275,439.277,434.269,433.04,430.791,424.394,426.525,400.64,306.316,306.316,63437.3,63437.3,63437.3
0.000996941	-4583885.19	0,4.57455e-06,1.03971e-05,1.7808e-05,2.72406e-05,3.92465e-05,5.45277e-05,7.39777e-05,9.87337e-05,0.000130243,0.000170349,0.000221395,0.000286367,0.000369064,0.000474321,0.000608293,0.000778812,0.000995851,0.0012721,0.00162371,0.00207124,0.00264085,0.00336586,0.00428866,0.0054632,0.00695816,0.00886096,0.0112828,0.0143654,0.018289,0.0232828,0.0296391,inf	418.04,418.04,626.875,235.853,189.32,306.098,307.428,282.639,381.816,456.78,438.762,386.073,355.775,336.977,321.985,327.615,348.487,374.09,403.959,430.275,439.119,433.523,432.356,430.369,424.273,426.953,399.804,302.938,302.938,63439.7,63439.7,63439.7
0.000996941	-4583884.40	0,4.57455e-06,1.03971e-05,1.7808e-05,2.72406e-05,3.92465e-05,5.45277e-05,7.39777e-05,9.87337e-05,0.000130243,0.000170349,0.000221395,0.000286367,0.000369064,0.000474321,0.000608293,0.000778812,0.000995851,0.0012721,0.00162371,0.00207124,0.00264085,0.00336586,0.00428866,0.0054632,0.00695816,0.00886096,0.0112828,0.0143654,0.018289,0.0232828,0.0296391,inf	414.859,414.859,630.41,232.729,187.448,309.495,307.429,279.608,381.814,458.652,438.763,385.606,355.616,336.981,321.792,327.615,348.762,374.124,403.959,430.275,439.108,432.945,431.84,430.104,424.311,426.953,399.168,299.728,299.728,63441.9,63441.9,63441.9
0.000996941	-4583883.78	0,4.57455e-06,1.03971e-05,1.7808e-05,2.72406e-05,3.92465e-05,5.45277e-05,7.39777e-05,9.87337e-05,0.000130243,0.000170349,0.000221395,0.000286367,0.000369064,0.000474321,0.000608293,0.000778812,0.000995851,0.0012721,0.00162371,0.00207124,0.00264085,0.00336586,0.00428866,0.0054632,0.00695816,0.00886096,0.0112828,0.0143654,0.018289,0.0232828,0.0296391,inf	412.429,412.429,633.655,229.82,185.626,312.721,307.43,276.638,381.818,460.482,438.763,385.146,355.467,336.989,321.595,327.61,349.038,374.156,403.959,430.275,439.108,432.486,431.448,429.955,424.466,427.278,398.701,296.673,296.673,63443.9,63443.9,63443.9
0.000996941	-4583883.26	0,4.57455e-06,1.03971e-05,1.7808e-05,2.72406e-05,3.92465e-05,5.45277e-05,7.39777e-05,9.87337e-05,0.000130243,0.000170349,0.000221395,0.000286367,0.000369064,0.000474321,0.000608293,0.000778812,0.000995851,0.0012721,0.00162371,0.00207124,0.00264085,0.00336586,0.00428866,0.0054632,0.00695816,0.00886096,0.0112828,0.0143654,0.018289,0.0232828,0.0296391,inf	410.544,410.544,635.923,227.049,183.908,315.781,307.43,273.726,381.821,460.482,438.771,384.681,355.315,336.995,321.391,327.595,349.309,374.463,403.959,430.275,439.108,432.106,431.136,429.886,424.466,427.278,398.376,293.745,293.745,63445.8,63445.8,63445.8
