0.000708195	-4662608.20	0,4.85328e-06,1.11307e-05,1.92501e-05,2.97522e-05,4.33359e-05,6.09056e-05,8.36309e-05,0.000113025,0.000151044,0.000200219,0.000263825,0.000346094,0.000452505,0.000590141,0.000768164,0.000998426,0.00129626,0.00168148,0.00217975,0.00282422,0.00365781,0.00473601,0.00613059,0.00793439,0.0102675,0.0132852,0.0171885,0.0222371,0.0287672,inf	460.944,460.944,460.944,460.944,460.944,460.944,460.944,460.944,460.944,460.944,460.944,460.944,460.944,460.944,460.944,460.944,460.944,460.944,460.944,460.944,460.944,460.944,460.944,460.944,460.944,460.944,460.944,460.944,460.944,460.944
0.000790292	-4660071.81	0,4.85328e-06,1.11307e-05,1.92501e-05,2.97522e-05,4.33359e-05,6.09056e-05,8.36309e-05,0.000113025,0.000151044,0.000200219,0.000263825,0.000346094,0.000452505,0.000590141,0.000768164,0.000998426,0.00129626,0.00168148,0.00217975,0.00282422,0.00365781,0.00473601,0.00613059,0.00793439,0.0102675,0.0132852,0.0171885,0.0222371,0.0287672,inf	486.02,486.02,486.02,486.02,486.02,486.02,486.02,486.02,486.02,486.02,486.02,486.02,486.02,486.02,486.02,486.02,486.02,486.02,486.02,486.02,486.02,486.02,486.02,486.02,486.02,486.02,486.02,486.02,486.02,486.02
0.000868529	-4658718.38	0,4.85328e-06,1.11307e-05,1.92501e-05,2.97522e-05,4.33359e-05,6.09056e-05,8.36309e-05,0.000113025,0.000151044,0.000200219,0.000263825,0.000346094,0.000452505,0.000590141,0.000768164,0.000998426,0.00129626,0.00168148,0.00217975,0.00282422,0.00365781,0.00473601,0.00613059,0.00793439,0.0102675,0.0132852,0.0171885,0.0222371,0.0287672,inf	495.077,495.077,495.077,495.077,495.077,495.077,495.077,495.077,495.077,495.077,495.077,495.077,495.077,495.077,495.077,495.077,495.077,495.077,495.077,495.077,495.077,495.077,495.077,495.077,495.077,495.077,495.077,495.077,495.077,495.077
0.000945381	-4657623.56	0,4.85328e-06,1.11307e-05,1.92501e-05,2.97522e-05,4.33359e-05,6.09056e-05,8.36309e-05,0.000113025,0.000151044,0.000200219,0.000263825,0.000346094,0.000452505,0.000590141,0.000768164,0.000998426,0.00129626,0.00168148,0.00217975,0.00282422,0.00365781,0.00473601,0.00613059,0.00793439,0.0102675,0.0132852,0.0171885,0.0222371,0.0287672,inf	497.038,497.038,497.038,497.038,497.038,497.038,497.038,497.038,497.038,497.038,497.038,497.038,497.038,497.038,497.038,497.038,497.038,497.038,497.038,497.038,497.038,497.038,497.038,497.038,497.038,497.038,497.038,497.038,497.038,497.038
0.00102223	-4656604.73	0,4.85328e-06,1.11307e-05,1.92501e-05,2.97522e-05,4.33359e-05,6.09056e-05,8.36309e-05,0.000113025,0.000151044,0.000200219,0.000263825,0.000346094,0.000452505,0.000590141,0.000768164,0.000998426,0.00129626,0.00168148,0.00217975,0.00282422,0.00365781,0.00473601,0.00613059,0.00793439,0.0102675,0.0132852,0.0171885,0.0222371,0.0287672,inf	495.984,495.984,495.984,495.984,495.984,495.984,495.984,495.984,495.984,495.984,495.984,495.984,495.984,495.984,495.984,495.984,495.984,495.984,495.984,495.984,495.984,495.984,495.984,495.984,495.984,495.984,495.984,495.984,495.984,495.984
0.0010997	-4655628.54	0,4.85328e-06,1.11307e-05,1.92501e-05,2.97522e-05,4.33359e-05,6.09056e-05,8.36309e-05,0.000113025,0.000151044,0.000200219,0.000263825,0.000346094,0.000452505,0.000590141,0.000768164,0.000998426,0.00129626,0.00168148,0.00217975,0.00282422,0.00365781,0.00473601,0.00613059,0.00793439,0.0102675,0.0132852,0.0171885,0.0222371,0.0287672,inf	493.702,493.702,493.702,493.702,493.702,493.702,493.702,493.702,493.702,493.702,493.702,493.702,493.702,493.702,493.702,493.702,493.702,493.702,493.702,493.702,493.702,493.702,493.702,493.702,493.702,493.702,493.702,493.702,493.702,493.702
0.00117802	-4654689.50	0,4.85328e-06,1.11307e-05,1.92501e-05,2.97522e-05,4.33359e-05,6.09056e-05,8.36309e-05,0.000113025,0.000151044,0.000200219,0.000263825,0.000346094,0.000452505,0.000590141,0.000768164,0.000998426,0.00129626,0.00168148,0.00217975,0.00282422,0.00365781,0.00473601,0.00613059,0.00793439,0.0102675,0.0132852,0.0171885,0.0222371,0.0287672,inf	490.967,490.967,490.967,490.967,490.967,490.967,490.967,490.967,490.967,490.967,490.967,490.967,490.967,490.967,490.967,490.967,490.967,490.967,490.967,490.967,490.967,490.967,490.967,490.967,490.967,490.967,490.967,490.967,490.967,490.967
0.00125721	-4653786.66	0,4.85328e-06,1.11307e-05,1.92501e-05,2.97522e-05,4.33359e-05,6.09056e-05,8.36309e-05,0.000113025,0.000151044,0.000200219,0.000263825,0.000346094,0.000452505,0.000590141,0.000768164,0.000998426,0.00129626,0.00168148,0.00217975,0.00282422,0.00365781,0.00473601,0.00613059,0.00793439,0.0102675,0.0132852,0.0171885,0.0222371,0.0287672,inf	488.114,488.114,488.114,488.114,488.114,488.114,488.114,488.114,488.114,488.114,488.114,488.114,488.114,488.114,488.114,488.114,488.114,488.114,488.114,488.114,488.114,488.114,488.114,488.114,488.114,488.114,488.114,488.114,488.114,488.114
0.00133721	-4652919.51	0,4.85328e-06,1.11307e-05,1.92501e-05,2.97522e-05,4.33359e-05,6.09056e-05,8.36309e-05,0.000113025,0.000151044,0.000200219,0.000263825,0.000346094,0.000452505,0.000590141,0.000768164,0.000998426,0.00129626,0.00168148,0.00217975,0.00282422,0.00365781,0.00473601,0.00613059,0.00793439,0.0102675,0.0132852,0.0171885,0.0222371,0.0287672,inf	485.289,485.289,485.289,485.289,485.289,485.289,485.289,485.289,485.289,485.289,485.289,485.289,485.289,485.289,485.289,485.289,485.289,485.289,485.289,485.289,485.289,485.289,485.289,485.289,485.289,485.289,485.289,485.289,485.289,485.289
0.00141794	-4652087.35	0,4.85328e-06,1.11307e-05,1.92501e-05,2.97522e-05,4.33359e-05,6.09056e-05,8.36309e-05,0.000113025,0.000151044,0.000200219,0.000263825,0.000346094,0.000452505,0.000590141,0.000768164,0.000998426,0.00129626,0.00168148,0.00217975,0.00282422,0.00365781,0.00473601,0.00613059,0.00793439,0.0102675,0.0132852,0.0171885,0.0222371,0.0287672,inf	482.552,482.552,482.552,482.552,482.552,482.552,482.552,482.552,482.552,482.552,482.552,482.552,482.552,482.552,482.552,482.552,482.552,482.552,482.552,482.552,482.552,482.552,482.552,482.552,482.552,482.552,482.552,482.552,482.552,482.552
0.00149929	-4651289.30	0,4.85328e-06,1.11307e-05,1.92501e-05,2.97522e-05,4.33359e-05,6.09056e-05,8.36309e-05,0.000113025,0.000151044,0.000200219,0.000263825,0.000346094,0.000452505,0.000590141,0.000768164,0.000998426,0.00129626,0.00168148,0.00217975,0.00282422,0.00365781,0.00473601,0.00613059,0.00793439,0.0102675,0.0132852,0.0171885,0.0222371,0.0287672,inf	479.926,479.926,479.926,479.926,479.926,479.926,479.926,479.926,479.926,479.926,479.926,479.926,479.926,479.926,479.926,479.926,479.926,479.926,479.926,479.926,479.926,479.926,479.926,479.926,479.926,479.926,479.926,479.926,479.926,479.926
0.00158115	-4650524.32	0,4.85328e-06,1.11307e-05,1.92501e-05,2.97522e-05,4.33359e-05,6.09056e-05,8.36309e-05,0.000113025,0.000151044,0.000200219,0.000263825,0.000346094,0.000452505,0.000590141,0.000768164,0.000998426,0.00129626,0.00168148,0.00217975,0.00282422,0.00365781,0.00473601,0.00613059,0.00793439,0.0102675,0.0132852,0.0171885,0.0222371,0.0287672,inf	477.418,477.418,477.418,477.418,477.418,477.418,477.418,477.418,477.418,477.418,477.418,477.418,477.418,477.418,477.418,477.418,477.418,477.418,477.418,477.418,477.418,477.418,477.418,477.418,477.418,477.418,477.418,477.418,477.418,477.418
0.00166342	-4649791.31	0,4.85328e-06,1.11307e-05,1.92501e-05,2.97522e-05,4.33359e-05,6.09056e-05,8.36309e-05,0.000113025,0.000151044,0.000200219,0.000263825,0.000346094,0.000452505,0.000590141,0.000768164,0.000998426,0.00129626,0.00168148,0.00217975,0.00282422,0.00365781,0.00473601,0.00613059,0.00793439,0.0102675,0.0132852,0.0171885,0.0222371,0.0287672,inf	475.028,475.028,475.028,475.028,475.028,475.028,475.028,475.028,475.028,475.028,475.028,475.028,475.028,475.028,475.028,475.028,475.028,475.028,475.028,475.028,475.028,475.028,475.028,475.028,475.028,475.028,475.028,475.028,475.028,475.028
0.001746	-4649089.11	0,4.85328e-06,1.11307e-05,1.92501e-05,2.97522e-05,4.33359e-05,6.09056e-05,8.36309e-05,0.000113025,0.000151044,0.000200219,0.000263825,0.000346094,0.000452505,0.000590141,0.000768164,0.000998426,0.00129626,0.00168148,0.00217975,0.00282422,0.00365781,0.00473601,0.00613059,0.00793439,0.0102675,0.0132852,0.0171885,0.0222371,0.0287672,inf	472.751,472.751,472.751,472.751,472.751,472.751,472.751,472.751,472.751,472.751,472.751,472.751,472.751,472.751,472.751,472.751,472.751,472.751,472.751,472.751,472.751,472.751,472.751,472.751,472.751,472.751,472.751,472.751,472.751,472.751
0.0018288	-4648416.53	0,4.85328e-06,1.11307e-05,1.92501e-05,2.97522e-05,4.33359e-05,6.09056e-05,8.36309e-05,0.000113025,0.000151044,0.000200219,0.000263825,0.000346094,0.000452505,0.000590141,0.000768164,0.000998426,0.00129626,0.00168148,0.00217975,0.00282422,0.00365781,0.00473601,0.00613059,0.00793439,0.0102675,0.0132852,0.0171885,0.0222371,0.0287672,inf	470.582,470.582,470.582,470.582,470.582,470.582,470.582,470.582,470.582,470.582,470.582,470.582,470.582,470.582,470.582,470.582,470.582,470.582,470.582,470.582,470.582,470.582,470.582,470.582,470.582,470.582,470.582,470.582,470.582,470.582
0.00191174	-4647772.38	0,4.85328e-06,1.11307e-05,1.92501e-05,2.97522e-05,4.33359e-05,6.09056e-05,8.36309e-05,0.000113025,0.000151044,0.000200219,0.000263825,0.000346094,0.000452505,0.000590141,0.000768164,0.000998426,0.00129626,0.00168148,0.00217975,0.00282422,0.00365781,0.00473601,0.00613059,0.00793439,0.0102675,0.0132852,0.0171885,0.0222371,0.0287672,inf	468.516,468.516,468.516,468.516,468.516,468.516,468.516,468.516,468.516,468.516,468.516,468.516,468.516,468.516,468.516,468.516,468.516,468.516,468.516,468.516,468.516,468.516,468.516,468.516,468.516,468.516,468.516,468.516,468.516,468.516
0.00199473	-4647155.49	0,4.85328e-06,1.11307e-05,1.92501e-05,2.97522e-05,4.33359e-05,6.09056e-05,8.36309e-05,0.000113025,0.000151044,0.000200219,0.000263825,0.000346094,0.000452505,0.000590141,0.000768164,0.000998426,0.00129626,0.00168148,0.00217975,0.00282422,0.00365781,0.00473601,0.00613059,0.00793439,0.0102675,0.0132852,0.0171885,0.0222371,0.0287672,inf	466.545,466.545,466.545,466.545,466.545,466.545,466.545,466.545,466.545,466.545,466.545,466.545,466.545,466.545,466.545,466.545,466.545,466.545,466.545,466.545,466.545,466.545,466.545,466.545,466.545,466.545,466.545,466.545,466.545,466.545
0.00207771	-4646564.67	0,4.85328e-06,1.11307e-05,1.92501e-05,2.97522e-05,4.33359e-05,6.09056e-05,8.36309e-05,0.000113025,0.000151044,0.000200219,0.000263825,0.000346094,0.000452505,0.000590141,0.000768164,0.000998426,0.00129626,0.00168148,0.00217975,0.00282422,0.00365781,0.00473601,0.00613059,0.00793439,0.0102675,0.0132852,0.0171885,0.0222371,0.0287672,inf	464.666,464.666,464.666,464.666,464.666,464.666,464.666,464.666,464.666,464.666,464.666,464.666,464.666,464.666,464.666,464.666,464.666,464.666,464.666,464.666,464.666,464.666,464.666,464.666,464.666,464.666,464.666,464.666,464.666,464.666
0.00216061	-4645998.78	0,4.85328e-06,1.11307e-05,1.92501e-05,2.97522e-05,4.33359e-05,6.09056e-05,8.36309e-05,0.000113025,0.000151044,0.000200219,0.000263825,0.000346094,0.000452505,0.000590141,0.000768164,0.000998426,0.00129626,0.00168148,0.00217975,0.00282422,0.00365781,0.00473601,0.00613059,0.00793439,0.0102675,0.0132852,0.0171885,0.0222371,0.0287672,inf	462.873,462.873,462.873,462.873,462.873,462.873,462.873,462.873,462.873,462.873,462.873,462.873,462.873,462.873,462.873,462.873,462.873,462.873,462.873,462.873,462.873,462.873,462.873,462.873,462.873,462.873,462.873,462.873,462.873,462.873
0.00224338	-4645456.69	0,4.85328e-06,1.11307e-05,1.92501e-05,2.97522e-05,4.33359e-05,6.09056e-05,8.36309e-05,0.000113025,0.000151044,0.000200219,0.000263825,0.000346094,0.000452505,0.000590141,0.000768164,0.000998426,0.00129626,0.00168148,0.00217975,0.00282422,0.00365781,0.00473601,0.00613059,0.00793439,0.0102675,0.0132852,0.0171885,0.0222371,0.0287672,inf	461.16,461.16,461.16,461.16,461.16,461.16,461.16,461.16,461.16,461.16,461.16,461.16,461.16,461.16,461.16,461.16,461.16,461.16,461.16,461.16,461.16,461.16,461.16,461.16,461.16,461.16,461.16,461.16,461.16,461.16
