time_index	left_time_boundary	right_time_boundary	lambda
0	0	1.02549e-05	233.391
1	1.02549e-05	2.68682e-05	233.391
2	2.68682e-05	5.37822e-05	289.006
3	5.37822e-05	9.73837e-05	198.057
4	9.73837e-05	0.00016802	136.227
5	0.00016802	0.000282452	142.712
6	0.000282452	0.000467836	135.977
7	0.000467836	0.000768164	167.342
8	0.000768164	0.0012547	240.785
9	0.0012547	0.00204292	382.065
10	0.00204292	0.00331984	693.493
11	0.00331984	0.00538851	734.501
12	0.00538851	0.0087398	721.35
13	0.0087398	0.014169	50811.3
14	0.014169	0.0229645	50811.3
15	0.0229645	inf	50811.3
