0.000747396	-4662286.15	0,1.02549e-05,2.68682e-05,5.37822e-05,9.73837e-05,0.00016802,0.000282452,0.000467836,0.000768164,0.0012547,0.00204292,0.00331984,0.00538851,0.0087398,0.014169,0.0229645,inf	258.92,258.92,227.558,198.157,184.227,190.177,211.251,249.54,319.907,453.518,578.818,526.352,486.574,492.837,492.837,492.837
0.000870261	-4654891.76	0,1.02549e-05,2.68682e-05,5.37822e-05,9.73837e-05,0.00016802,0.000282452,0.000467836,0.000768164,0.0012547,0.00204292,0.00331984,0.00538851,0.0087398,0.014169,0.0229645,inf	283.264,283.264,227.086,171.974,141.007,139.147,156.937,197.367,279.949,452.796,675.986,607.605,549.404,590.31,590.31,590.31
0.000982334	-4652021.23	0,1.02549e-05,2.68682e-05,5.37822e-05,9.73837e-05,0.00016802,0.000282452,0.000467836,0.000768164,0.0012547,0.00204292,0.00331984,0.00538851,0.0087398,0.014169,0.0229645,inf	317.768,317.768,253.403,176.852,131.801,123.869,137.511,175.87,259.639,441.836,727.741,658.742,596.333,709.726,709.726,709.726
0.00108518	-4650458.47	0,1.02549e-05,2.68682e-05,5.37822e-05,9.73837e-05,0.00016802,0.000282452,0.000467836,0.000768164,0.0012547,0.00204292,0.00331984,0.00538851,0.0087398,0.014169,0.0229645,inf	331.358,331.358,278.077,187.686,132.266,120.388,130.944,167.11,249.184,430.145,754.733,690.232,632.427,886.431,886.431,886.431
0.00118082	-4649385.81	0,1.02549e-05,2.68682e-05,5.37822e-05,9.73837e-05,0.00016802,0.000282452,0.000467836,0.000768164,0.0012547,0.00204292,0.00331984,0.00538851,0.0087398,0.014169,0.0229645,inf	324.242,324.242,293.376,197.265,135.434,121.509,130.095,164.58,244.116,419.728,767.762,708.977,661.577,1256.69,1256.69,1256.69
0.00127082	-4648544.40	0,1.02549e-05,2.68682e-05,5.37822e-05,9.73837e-05,0.00016802,0.000282452,0.000467836,0.000768164,0.0012547,0.00204292,0.00331984,0.00538851,0.0087398,0.014169,0.0229645,inf	305.962,305.962,299.307,203.558,138.798,124.458,132.058,165.423,242.194,410.818,772.553,719.308,686.844,3088.75,3088.75,3088.75
0.00127082	-4647844.46	0,1.02549e-05,2.68682e-05,5.37822e-05,9.73837e-05,0.00016802,0.000282452,0.000467836,0.000768164,0.0012547,0.00204292,0.00331984,0.00538851,0.0087398,0.014169,0.0229645,inf	283.275,283.275,296.819,205.367,140.451,127.334,134.699,167.342,240.785,398.858,754.86,715.473,705.764,50811.3,50811.3,50811.3
0.00127082	-4647781.04	0,1.02549e-05,2.68682e-05,5.37822e-05,9.73837e-05,0.00016802,0.000282452,0.000467836,0.000768164,0.0012547,0.00204292,0.00331984,0.00538851,0.0087398,0.014169,0.0229645,inf	266.608,266.608,293.519,205.397,141.075,129.585,135.612,167.342,240.785,391.383,742.057,714.071,713.266,50811.3,50811.3,50811.3
0.00127082	-4647726.94	0,1.02549e-05,2.68682e-05,5.37822e-05,9.73837e-05,0.00016802,0.000282452,0.000467836,0.000768164,0.0012547,0.00204292,0.00331984,0.00538851,0.0087398,0.014169,0.0229645,inf	255.424,255.424,291.24,205.118,141.348,131.776,135.977,167.342,240.785,386.808,732.628,714.452,717.699,50811.3,50811.3,50811.3
0.00127082	-4647697.24	0,1.02549e-05,2.68682e-05,5.37822e-05,9.73837e-05,0.00016802,0.000282452,0.000467836,0.000768164,0.0012547,0.00204292,0.00331984,0.00538851,0.0087398,0.014169,0.0229645,inf	247.853,247.853,289.692,204.606,141.345,133.869,135.977,167.342,240.785,384.124,725.381,716.037,720.114,50811.3,50811.3,50811.3
0.00127082	-4647680.36	0,1.02549e-05,2.68682e-05,5.37822e-05,9.73837e-05,0.00016802,0.000282452,0.000467836,0.000768164,0.0012547,0.00204292,0.00331984,0.00538851,0.0087398,0.014169,0.0229645,inf	242.724,242.724,288.698,203.932,141.131,135.558,135.977,167.342,240.785,382.695,719.582,718.45,721.17,50811.3,50811.3,50811.3
0.00127082	-4647670.56	0,1.02549e-05,2.68682e-05,5.37822e-05,9.73837e-05,0.00016802,0.000282452,0.000467836,0.000768164,0.0012547,0.00204292,0.00331984,0.00538851,0.0087398,0.014169,0.0229645,inf	239.281,239.281,288.169,203.178,140.767,136.941,135.977,167.342,240.785,382.1,714.746,721.446,721.303,50811.3,50811.3,50811.3
0.00127082	-4647664.90	0,1.02549e-05,2.68682e-05,5.37822e-05,9.73837e-05,0.00016802,0.000282452,0.000467836,0.000768164,0.0012547,0.00204292,0.00331984,0.00538851,0.0087398,0.014169,0.0229645,inf	236.989,236.989,288.013,202.394,140.296,138.003,135.977,167.342,240.785,382.065,710.596,724.021,721.303,50811.3,50811.3,50811.3
0.00127082	-4647660.34	0,1.02549e-05,2.68682e-05,5.37822e-05,9.73837e-05,0.00016802,0.000282452,0.000467836,0.000768164,0.0012547,0.00204292,0.00331984,0.00538851,0.0087398,0.014169,0.0229645,inf	235.495,235.495,288.186,201.631,139.766,138.865,135.977,167.342,240.785,382.065,707.003,726.239,721.303,50811.3,50811.3,50811.3
0.00127082	-4647656.60	0,1.02549e-05,2.68682e-05,5.37822e-05,9.73837e-05,0.00016802,0.000282452,0.000467836,0.000768164,0.0012547,0.00204292,0.00331984,0.00538851,0.0087398,0.014169,0.0229645,inf	234.52,234.52,288.619,200.908,139.204,139.663,135.977,167.342,240.785,382.065,703.888,728.162,721.303,50811.3,50811.3,50811.3
0.00127082	-4647653.55	0,1.02549e-05,2.68682e-05,5.37822e-05,9.73837e-05,0.00016802,0.000282452,0.000467836,0.000768164,0.0012547,0.00204292,0.00331984,0.00538851,0.0087398,0.014169,0.0229645,inf	233.865,233.865,288.619,200.207,138.613,140.419,135.977,167.342,240.785,382.065,701.185,729.83,721.303,50811.3,50811.3,50811.3
0.00127082	-4647651.02	0,1.02549e-05,2.68682e-05,5.37822e-05,9.73837e-05,0.00016802,0.000282452,0.000467836,0.000768164,0.0012547,0.00204292,0.00331984,0.00538851,0.0087398,0.014169,0.0229645,inf	233.538,233.538,288.886,199.571,138.011,141.033,135.977,167.342,240.785,382.065,698.837,731.235,721.33,50811.3,50811.3,50811.3
0.00127082	-4647648.85	0,1.02549e-05,2.68682e-05,5.37822e-05,9.73837e-05,0.00016802,0.000282452,0.000467836,0.000768164,0.0012547,0.00204292,0.00331984,0.00538851,0.0087398,0.014169,0.0229645,inf	233.391,233.391,289.006,198.998,137.412,141.621,135.977,167.342,240.785,382.065,696.801,732.492,721.33,50811.3,50811.3,50811.3
0.00127082	-4647647.11	0,1.02549e-05,2.68682e-05,5.37822e-05,9.73837e-05,0.00016802,0.000282452,0.000467836,0.000768164,0.0012547,0.00204292,0.00331984,0.00538851,0.0087398,0.014169,0.0229645,inf	233.391,233.391,289.006,198.493,136.816,142.181,135.977,167.342,240.785,382.065,695.031,733.552,721.35,50811.3,50811.3,50811.3
0.00127082	-4647645.59	0,1.02549e-05,2.68682e-05,5.37822e-05,9.73837e-05,0.00016802,0.000282452,0.000467836,0.000768164,0.0012547,0.00204292,0.00331984,0.00538851,0.0087398,0.014169,0.0229645,inf	233.391,233.391,289.006,198.057,136.227,142.712,135.977,167.342,240.785,382.065,693.493,734.501,721.35,50811.3,50811.3,50811.3
