0.000750784	-8690665.50	0,6.05543e-06,1.62555e-05,3.34372e-05,6.23788e-05,0.00011113,0.000193249,0.000331574,0.000564577,0.000957061,0.00161818,0.00273181,0.00460767,0.00776747,0.01309,0.0220556,inf	341.133,341.133,258.874,220.879,196.938,184.658,191.904,218.076,270.102,370.838,554.381,551.983,495.244,484.331,484.331,484.331
0.000876536	-8676744.62	0,6.05543e-06,1.62555e-05,3.34372e-05,6.23788e-05,0.00011113,0.000193249,0.000331574,0.000564577,0.000957061,0.00161818,0.00273181,0.00460767,0.00776747,0.01309,0.0220556,inf	423.102,423.102,280.826,215.752,169.709,140.954,139.855,163.551,221.056,340.822,618.425,642.916,560.553,558.6,558.6,558.6
0.000989662	-8671492.03	0,6.05543e-06,1.62555e-05,3.34372e-05,6.23788e-05,0.00011113,0.000193249,0.000331574,0.000564577,0.000957061,0.00161818,0.00273181,0.00460767,0.00776747,0.01309,0.0220556,inf	485.177,485.177,318.366,238.442,173.967,131.409,123.412,143.251,199.8,321.186,642.792,696.133,605.923,630.984,630.984,630.984
0.00109251	-8668644.10	0,6.05543e-06,1.62555e-05,3.34372e-05,6.23788e-05,0.00011113,0.000193249,0.000331574,0.000564577,0.000957061,0.00161818,0.00273181,0.00460767,0.00776747,0.01309,0.0220556,inf	497.444,497.444,341.042,261.268,184.719,131.696,118.848,135.894,190.622,308.75,649.546,726.817,637.74,707.777,707.777,707.777
0.00118775	-8666664.37	0,6.05543e-06,1.62555e-05,3.34372e-05,6.23788e-05,0.00011113,0.000193249,0.000331574,0.000564577,0.000957061,0.00161818,0.00273181,0.00460767,0.00776747,0.01309,0.0220556,inf	476.449,476.449,345.054,276.445,194.724,134.877,119.052,134.468,187.545,300.868,648.223,743.95,660.491,797.579,797.579,797.579
0.00127734	-8665083.96	0,6.05543e-06,1.62555e-05,3.34372e-05,6.23788e-05,0.00011113,0.000193249,0.000331574,0.000564577,0.000957061,0.00161818,0.00273181,0.00460767,0.00776747,0.01309,0.0220556,inf	444.518,444.518,336.058,283.333,201.809,138.451,121.29,136.087,187.861,295.9,643.107,752.687,677.166,915.847,915.847,915.847
0.00136254	-8663733.71	0,6.05543e-06,1.62555e-05,3.34372e-05,6.23788e-05,0.00011113,0.000193249,0.000331574,0.000564577,0.000957061,0.00161818,0.00273181,0.00460767,0.00776747,0.01309,0.0220556,inf	414.79,414.79,320.663,283.85,205.737,141.472,124.341,139.368,190.182,292.847,636.213,756.043,689.792,1101.7,1101.7,1101.7
0.00144417	-8662546.58	0,6.05543e-06,1.62555e-05,3.34372e-05,6.23788e-05,0.00011113,0.000193249,0.000331574,0.000564577,0.000957061,0.00161818,0.00273181,0.00460767,0.00776747,0.01309,0.0220556,inf	392.111,392.111,303.534,280.35,207.007,143.641,127.61,143.575,193.734,291.083,628.516,755.824,699.841,1520.6,1520.6,1520.6
0.00152265	-8661505.26	0,6.05543e-06,1.62555e-05,3.34372e-05,6.23788e-05,0.00011113,0.000193249,0.000331574,0.000564577,0.000957061,0.00161818,0.00273181,0.00460767,0.00776747,0.01309,0.0220556,inf	377.031,377.031,287.273,274.826,206.355,144.98,130.834,148.324,198.103,290.235,620.474,753.056,708.569,3929.54,3929.54,3929.54
0.00152265	-8660634.40	0,6.05543e-06,1.62555e-05,3.34372e-05,6.23788e-05,0.00011113,0.000193249,0.000331574,0.000564577,0.000957061,0.00161818,0.00273181,0.00460767,0.00776747,0.01309,0.0220556,inf	365.96,365.96,271.016,266.552,202.779,144.411,132.831,152.312,201.802,287.995,600.807,740.344,712.944,50610.4,50610.4,50610.4
0.00152265	-8660481.38	0,6.05543e-06,1.62555e-05,3.34372e-05,6.23788e-05,0.00011113,0.000193249,0.000331574,0.000564577,0.000957061,0.00161818,0.00273181,0.00460767,0.00776747,0.01309,0.0220556,inf	365.177,365.177,260.286,260.688,199.347,143.261,134.331,154.11,201.802,287.886,586.617,730.768,720.668,50611,50611,50611
0.00152265	-8660345.03	0,6.05543e-06,1.62555e-05,3.34372e-05,6.23788e-05,0.00011113,0.000193249,0.000331574,0.000564577,0.000957061,0.00161818,0.00273181,0.00460767,0.00776747,0.01309,0.0220556,inf	365.181,365.181,253.27,257.105,196.681,142.22,135.94,155.042,201.802,287.886,576.458,723.571,728.459,50611,50611,50611
0.00152265	-8660268.63	0,6.05543e-06,1.62555e-05,3.34372e-05,6.23788e-05,0.00011113,0.000193249,0.000331574,0.000564577,0.000957061,0.00161818,0.00273181,0.00460767,0.00776747,0.01309,0.0220556,inf	365.186,365.186,248.611,255.028,194.524,141.249,137.639,155.042,202.032,287.886,569.129,718.135,728.459,50612.3,50612.3,50612.3
0.00152265	-8660202.20	0,6.05543e-06,1.62555e-05,3.34372e-05,6.23788e-05,0.00011113,0.000193249,0.000331574,0.000564577,0.000957061,0.00161818,0.00273181,0.00460767,0.00776747,0.01309,0.0220556,inf	365.191,365.191,245.507,253.994,192.739,140.348,139.404,155.042,202.032,287.886,563.938,713.954,732.771,50612.3,50612.3,50612.3
0.00152265	-8660172.16	0,6.05543e-06,1.62555e-05,3.34372e-05,6.23788e-05,0.00011113,0.000193249,0.000331574,0.000564577,0.000957061,0.00161818,0.00273181,0.00460767,0.00776747,0.01309,0.0220556,inf	365.192,365.192,243.402,253.623,191.162,139.455,140.83,155.042,202.032,287.886,560.216,710.694,732.771,50613,50613,50613
0.00152265	-8660141.83	0,6.05543e-06,1.62555e-05,3.34372e-05,6.23788e-05,0.00011113,0.000193249,0.000331574,0.000564577,0.000957061,0.00161818,0.00273181,0.00460767,0.00776747,0.01309,0.0220556,inf	365.192,365.192,241.999,253.759,189.763,138.578,141.99,155.042,202.032,287.886,557.621,708.135,732.771,50613.6,50613.6,50613.6
0.00152265	-8660120.42	0,6.05543e-06,1.62555e-05,3.34372e-05,6.23788e-05,0.00011113,0.000193249,0.000331574,0.000564577,0.000957061,0.00161818,0.00273181,0.00460767,0.00776747,0.01309,0.0220556,inf	365.201,365.201,241.091,254.292,188.521,137.724,142.935,155.042,202.032,287.886,555.838,706.062,734.616,50613.6,50613.6,50613.6
0.00152265	-8660110.22	0,6.05543e-06,1.62555e-05,3.34372e-05,6.23788e-05,0.00011113,0.000193249,0.000331574,0.000564577,0.000957061,0.00161818,0.00273181,0.00460767,0.00776747,0.01309,0.0220556,inf	365.21,365.21,240.514,254.635,187.416,136.9,143.814,155.042,202.032,287.886,554.612,704.332,736.075,50613.6,50613.6,50613.6
0.00152265	-8660102.33	0,6.05543e-06,1.62555e-05,3.34372e-05,6.23788e-05,0.00011113,0.000193249,0.000331574,0.000564577,0.000957061,0.00161818,0.00273181,0.00460767,0.00776747,0.01309,0.0220556,inf	365.211,365.211,240.245,254.794,186.44,136.1,144.633,155.042,202.032,287.886,553.797,702.859,737.236,50613.6,50613.6,50613.6
0.00152265	-8660095.95	0,6.05543e-06,1.62555e-05,3.34372e-05,6.23788e-05,0.00011113,0.000193249,0.000331574,0.000564577,0.000957061,0.00161818,0.00273181,0.00460767,0.00776747,0.01309,0.0220556,inf	365.225,365.225,240.245,254.794,185.588,135.324,145.394,155.042,202.032,287.886,553.284,701.593,737.236,50613.8,50613.8,50613.8
