time_index	left_time_boundary	right_time_boundary	lambda
0	0	2.19189e-05	24.9175
1	2.19189e-05	5.54532e-05	24.9175
2	5.54532e-05	0.000106758	246.9
3	0.000106758	0.000185251	144.281
4	0.000185251	0.000305339	131.582
5	0.000305339	0.000489065	136.049
6	0.000489065	0.000770152	170.563
7	0.000770152	0.00120019	239.837
8	0.00120019	0.00185813	364.029
9	0.00185813	0.00286471	631.719
10	0.00286471	0.00440472	716.961
11	0.00440472	0.00676081	631.175
12	0.00676081	0.0103655	651.269
13	0.0103655	0.0158803	51807.1
14	0.0158803	0.0243176	51807.1
15	0.0243176	inf	51807.1
