time_index	left_time_boundary	right_time_boundary	lambda
0	0	4.1656e-05	196.369
1	4.1656e-05	9.03831e-05	196.369
2	9.03831e-05	0.000147382	350.861
3	0.000147382	0.000214056	195.384
4	0.000214056	0.000292048	130.247
5	0.000292048	0.000383279	111.792
6	0.000383279	0.000489996	120.547
7	0.000489996	0.000614829	147.035
8	0.000614829	0.000760852	184.574
9	0.000760852	0.000931663	229.58
10	0.000931663	0.00113147	280.584
11	0.00113147	0.00136519	341.425
12	0.00136519	0.00163859	412.507
13	0.00163859	0.00195839	487.449
14	0.00195839	0.00233249	554.208
15	0.00233249	0.00277008	607.673
16	0.00277008	0.00328196	652.045
17	0.00328196	0.00388073	684.466
18	0.00388073	0.00458114	698.798
19	0.00458114	0.00540044	701.809
20	0.00540044	0.00635882	710.628
21	0.00635882	0.00747989	722.658
22	0.00747989	0.00879126	710.56
23	0.00879126	0.0103252	703.579
24	0.0103252	0.0121196	711.659
25	0.0121196	0.0142185	754.737
26	0.0142185	0.0166738	824.132
27	0.0166738	0.0195458	1036.11
28	0.0195458	0.0229054	1036.11
29	0.0229054	0.0268352	83429.1
30	0.0268352	0.0314322	83429.1
31	0.0314322	inf	83429.1
