0.000735745	-1865745.89	0,2.19189e-05,5.54532e-05,0.000106758,0.000185251,0.000305339,0.000489065,0.000770152,0.00120019,0.00185813,0.00286471,0.00440472,0.00676081,0.0103655,0.0158803,0.0243176,inf	140.462,140.462,176.447,179.911,194.329,217.372,255.593,319.138,428.815,555.379,536.38,487.237,464.807,483.081,483.081,483.081
0.000849646	-1862955.91	0,2.19189e-05,5.54532e-05,0.000106758,0.000185251,0.000305339,0.000489065,0.000770152,0.00120019,0.00185813,0.00286471,0.00440472,0.00676081,0.0103655,0.0158803,0.0243176,inf	103.041,103.041,145.373,135.121,143.059,162.995,204.216,279.871,422.177,634.61,620.572,544.725,512.251,575.782,575.782,575.782
0.000955408	-1861801.36	0,2.19189e-05,5.54532e-05,0.000106758,0.000185251,0.000305339,0.000489065,0.000770152,0.00120019,0.00185813,0.00286471,0.00440472,0.00676081,0.0103655,0.0158803,0.0243176,inf	96.9876,96.9876,150.33,126.108,127.546,142.704,182.31,259.7,410.8,674.137,671.001,582.033,548.785,694.217,694.217,694.217
0.00105395	-1861137.24	0,2.19189e-05,5.54532e-05,0.000106758,0.000185251,0.000305339,0.000489065,0.000770152,0.00120019,0.00185813,0.00286471,0.00440472,0.00676081,0.0103655,0.0158803,0.0243176,inf	95.9887,95.9887,164.788,127.744,124.03,135.205,172.869,249.171,400.468,693.052,700.364,605.622,577.863,872.316,872.316,872.316
0.00114689	-1860663.19	0,2.19189e-05,5.54532e-05,0.000106758,0.000185251,0.000305339,0.000489065,0.000770152,0.00120019,0.00185813,0.00286471,0.00440472,0.00676081,0.0103655,0.0158803,0.0243176,inf	93.6654,93.6654,180.131,132.515,125.177,133.439,169.607,243.977,392.036,700.944,716.65,620.061,602.014,1245.86,1245.86,1245.86
0.00123551	-1860281.00	0,2.19189e-05,5.54532e-05,0.000106758,0.000185251,0.000305339,0.000489065,0.000770152,0.00120019,0.00185813,0.00286471,0.00440472,0.00676081,0.0103655,0.0158803,0.0243176,inf	89.0563,89.0563,193.012,137.585,128.144,134.518,169.733,241.942,385.325,702.723,724.67,628.361,623.102,3135.34,3135.34,3135.34
0.00123551	-1859953.57	0,2.19189e-05,5.54532e-05,0.000106758,0.000185251,0.000305339,0.000489065,0.000770152,0.00120019,0.00185813,0.00286471,0.00440472,0.00676081,0.0103655,0.0158803,0.0243176,inf	82.3219,82.3219,200.925,140.705,130.638,136.049,170.563,239.837,375.23,684.142,716.908,625.82,638.131,51807.1,51807.1,51807.1
0.00123551	-1859925.06	0,2.19189e-05,5.54532e-05,0.000106758,0.000185251,0.000305339,0.000489065,0.000770152,0.00120019,0.00185813,0.00286471,0.00440472,0.00676081,0.0103655,0.0158803,0.0243176,inf	75.0761,75.0761,206.342,141.552,130.638,136.049,170.563,239.837,369.482,671.697,712.537,624.985,645.068,51807.1,51807.1,51807.1
0.00123551	-1859909.73	0,2.19189e-05,5.54532e-05,0.000106758,0.000185251,0.000305339,0.000489065,0.000770152,0.00120019,0.00185813,0.00286471,0.00440472,0.00676081,0.0103655,0.0158803,0.0243176,inf	68.4565,68.4565,211.453,142.244,130.638,136.049,170.563,239.837,366.275,663.026,710.311,625.258,648.825,51807.1,51807.1,51807.1
0.00123551	-1859902.09	0,2.19189e-05,5.54532e-05,0.000106758,0.000185251,0.000305339,0.000489065,0.000770152,0.00120019,0.00185813,0.00286471,0.00440472,0.00676081,0.0103655,0.0158803,0.0243176,inf	62.42,62.42,216.259,142.807,130.638,136.049,170.563,239.837,364.653,656.719,709.407,626.2,650.653,51807.1,51807.1,51807.1
0.00123551	-1859898.07	0,2.19189e-05,5.54532e-05,0.000106758,0.000185251,0.000305339,0.000489065,0.000770152,0.00120019,0.00185813,0.00286471,0.00440472,0.00676081,0.0103655,0.0158803,0.0243176,inf	56.9234,56.9234,220.758,143.262,130.638,136.049,170.563,239.837,364.029,651.902,709.331,627.54,651.269,51807.1,51807.1,51807.1
0.00123551	-1859895.82	0,2.19189e-05,5.54532e-05,0.000106758,0.000185251,0.000305339,0.000489065,0.000770152,0.00120019,0.00185813,0.00286471,0.00440472,0.00676081,0.0103655,0.0158803,0.0243176,inf	51.9091,51.9091,224.957,143.64,130.638,136.049,170.563,239.837,364.029,647.996,709.782,628.914,651.269,51807.1,51807.1,51807.1
0.00123551	-1859894.44	0,2.19189e-05,5.54532e-05,0.000106758,0.000185251,0.000305339,0.000489065,0.000770152,0.00120019,0.00185813,0.00286471,0.00440472,0.00676081,0.0103655,0.0158803,0.0243176,inf	47.3386,47.3386,228.861,143.64,130.846,136.049,170.563,239.837,364.029,644.724,710.595,629.78,651.269,51807.1,51807.1,51807.1
0.00123551	-1859893.50	0,2.19189e-05,5.54532e-05,0.000106758,0.000185251,0.000305339,0.000489065,0.000770152,0.00120019,0.00185813,0.00286471,0.00440472,0.00676081,0.0103655,0.0158803,0.0243176,inf	43.1845,43.1845,232.469,143.64,130.846,136.049,170.563,239.837,364.029,641.943,711.684,630.256,651.269,51807.1,51807.1,51807.1
0.00123551	-1859892.87	0,2.19189e-05,5.54532e-05,0.000106758,0.000185251,0.000305339,0.000489065,0.000770152,0.00120019,0.00185813,0.00286471,0.00440472,0.00676081,0.0103655,0.0158803,0.0243176,inf	39.405,39.405,235.921,143.807,130.846,136.049,170.563,239.837,364.029,639.544,712.984,630.432,651.269,51807.1,51807.1,51807.1
0.00123551	-1859892.46	0,2.19189e-05,5.54532e-05,0.000106758,0.000185251,0.000305339,0.000489065,0.000770152,0.00120019,0.00185813,0.00286471,0.00440472,0.00676081,0.0103655,0.0158803,0.0243176,inf	35.9489,35.9489,239.109,143.962,130.846,136.049,170.563,239.837,364.029,637.454,714.349,630.432,651.269,51807.1,51807.1,51807.1
0.00123551	-1859892.20	0,2.19189e-05,5.54532e-05,0.000106758,0.000185251,0.000305339,0.000489065,0.000770152,0.00120019,0.00185813,0.00286471,0.00440472,0.00676081,0.0103655,0.0158803,0.0243176,inf	32.7916,32.7916,241.851,143.962,130.846,136.049,170.563,239.837,364.029,635.713,714.351,631.175,651.269,51807.1,51807.1,51807.1
0.00123551	-1859891.71	0,2.19189e-05,5.54532e-05,0.000106758,0.000185251,0.000305339,0.000489065,0.000770152,0.00120019,0.00185813,0.00286471,0.00440472,0.00676081,0.0103655,0.0158803,0.0243176,inf	29.9229,29.9229,244.622,144.054,130.846,136.049,170.563,239.837,364.029,634.203,715.338,631.175,651.269,51807.1,51807.1,51807.1
0.00123551	-1859891.55	0,2.19189e-05,5.54532e-05,0.000106758,0.000185251,0.000305339,0.000489065,0.000770152,0.00120019,0.00185813,0.00286471,0.00440472,0.00676081,0.0103655,0.0158803,0.0243176,inf	27.2983,27.2983,246.9,144.054,130.846,136.049,170.563,239.837,364.029,632.88,716.202,631.175,651.269,51807.1,51807.1,51807.1
0.00123551	-1859891.42	0,2.19189e-05,5.54532e-05,0.000106758,0.000185251,0.000305339,0.000489065,0.000770152,0.00120019,0.00185813,0.00286471,0.00440472,0.00676081,0.0103655,0.0158803,0.0243176,inf	24.9175,24.9175,246.9,144.281,131.582,136.049,170.563,239.837,364.029,631.719,716.961,631.175,651.269,51807.1,51807.1,51807.1
