0.000286053	-161288.41	0,4.37197e-05,0.000103542,0.000185398,0.000297402,0.000450659,0.000660364,0.000947305,0.00133993,0.00187717,0.00261228,0.00361814,0.00499447,0.00687773,0.00945462,0.0129806,inf	552.526,552.526,656.305,728.738,693.462,717.654,743.49,783.055,853.381,896.923,907.947,896.716,865.528,826.32,826.32,826.32
0.000278224	-161268.80	0,4.37197e-05,0.000103542,0.000185398,0.000297402,0.000450659,0.000660364,0.000947305,0.00133993,0.00187717,0.00261228,0.00361814,0.00499447,0.00687773,0.00945462,0.0129806,inf	476.762,476.762,602.876,726.145,641.455,672.958,701.651,752.239,863.667,937.893,960.226,941.593,886.314,818.018,818.018,818.018
0.000271103	-161261.59	0,4.37197e-05,0.000103542,0.000185398,0.000297402,0.000450659,0.000660364,0.000947305,0.00133993,0.00187717,0.00261228,0.00361814,0.00499447,0.00687773,0.00945462,0.0129806,inf	454.495,454.495,577.76,753.756,618.046,655.377,680.229,731.262,870.014,967.05,1000.28,977.195,905.601,817.587,817.587,817.587
0.000264298	-161257.44	0,4.37197e-05,0.000103542,0.000185398,0.000297402,0.000450659,0.000660364,0.000947305,0.00133993,0.00187717,0.00261228,0.00361814,0.00499447,0.00687773,0.00945462,0.0129806,inf	449.199,449.199,556.461,788.856,603.883,649.305,668.321,715.029,873.356,987.576,1030.55,1004.97,924.682,825.479,825.479,825.479
0.000257754	-161254.60	0,4.37197e-05,0.000103542,0.000185398,0.000297402,0.000450659,0.000660364,0.000947305,0.00133993,0.00187717,0.00261228,0.00361814,0.00499447,0.00687773,0.00945462,0.0129806,inf	450.517,450.517,533.584,824.204,592.351,648.847,661.675,701.701,874.902,1002.12,1053.28,1026.4,944.523,842.283,842.283,842.283
0.00025148	-161252.49	0,4.37197e-05,0.000103542,0.000185398,0.000297402,0.000450659,0.000660364,0.000947305,0.00133993,0.00187717,0.00261228,0.00361814,0.00499447,0.00687773,0.00945462,0.0129806,inf	455.085,455.085,508.863,857.71,581.055,651.38,658.264,690.396,875.535,1012.6,1070.3,1042.72,965.742,868.916,868.916,868.916
0.000245494	-161250.84	0,4.37197e-05,0.000103542,0.000185398,0.000297402,0.000450659,0.000660364,0.000947305,0.00133993,0.00187717,0.00261228,0.00361814,0.00499447,0.00687773,0.00945462,0.0129806,inf	461.563,461.563,483.136,889.093,569.172,655.58,656.954,680.578,875.795,1020.35,1083.01,1054.89,988.72,906.885,906.885,906.885
0.000239806	-161249.49	0,4.37197e-05,0.000103542,0.000185398,0.000297402,0.000450659,0.000660364,0.000947305,0.00133993,0.00187717,0.00261228,0.00361814,0.00499447,0.00687773,0.00945462,0.0129806,inf	469.257,469.257,457.22,918.627,556.507,660.71,657.04,671.871,875.99,1026.28,1092.46,1063.65,1013.67,958.621,958.621,958.621
0.00023442	-161248.37	0,4.37197e-05,0.000103542,0.000185398,0.000297402,0.000450659,0.000660364,0.000947305,0.00133993,0.00187717,0.00261228,0.00361814,0.00499447,0.00687773,0.00945462,0.0129806,inf	477.725,477.725,431.675,946.687,543.115,666.34,658.051,663.997,876.285,1030.99,1099.44,1069.56,1040.72,1028.1,1028.1,1028.1
0.000229332	-161247.42	0,4.37197e-05,0.000103542,0.000185398,0.000297402,0.000450659,0.000660364,0.000947305,0.00133993,0.00187717,0.00261228,0.00361814,0.00499447,0.00687773,0.00945462,0.0129806,inf	486.663,486.663,406.837,973.603,529.146,672.208,659.668,656.751,876.754,1034.9,1104.56,1073.07,1069.95,1122.01,1122.01,1122.01
0.000224536	-161246.62	0,4.37197e-05,0.000103542,0.000185398,0.000297402,0.000450659,0.000660364,0.000947305,0.00133993,0.00187717,0.00261228,0.00361814,0.00499447,0.00687773,0.00945462,0.0129806,inf	495.849,495.849,382.885,999.619,514.777,678.157,661.668,649.982,877.419,1038.27,1108.25,1074.49,1101.41,1252.53,1252.53,1252.53
0.000220022	-161245.94	0,4.37197e-05,0.000103542,0.000185398,0.000297402,0.000450659,0.000660364,0.000947305,0.00133993,0.00187717,0.00261228,0.00361814,0.00499447,0.00687773,0.00945462,0.0129806,inf	505.134,505.134,359.9,1024.88,500.182,684.092,663.897,643.58,878.277,1041.29,1110.87,1074.09,1135.15,1444.71,1444.71,1444.71
0.000215779	-161245.37	0,4.37197e-05,0.000103542,0.000185398,0.000297402,0.000450659,0.000660364,0.000947305,0.00133993,0.00187717,0.00261228,0.00361814,0.00499447,0.00687773,0.00945462,0.0129806,inf	514.394,514.394,337.917,1049.48,485.513,689.962,666.25,637.465,879.31,1044.07,1112.66,1072.05,1171.22,1762.29,1762.29,1762.29
0.000211796	-161244.89	0,4.37197e-05,0.000103542,0.000185398,0.000297402,0.000450659,0.000660364,0.000947305,0.00133993,0.00187717,0.00261228,0.00361814,0.00499447,0.00687773,0.00945462,0.0129806,inf	523.574,523.574,316.934,1073.43,470.899,695.734,668.652,631.585,880.491,1046.68,1113.81,1068.51,1209.63,2447.84,2447.84,2447.84
0.00020806	-161244.51	0,4.37197e-05,0.000103542,0.000185398,0.000297402,0.000450659,0.000660364,0.000947305,0.00133993,0.00187717,0.00261228,0.00361814,0.00499447,0.00687773,0.00945462,0.0129806,inf	532.602,532.602,296.943,1096.72,456.447,701.393,671.052,625.9,881.792,1049.15,1114.46,1063.49,1250.21,5605.53,5605.53,5605.53
0.000208049	-161244.22	0,4.37197e-05,0.000103542,0.000185398,0.000297402,0.000450659,0.000660364,0.000947305,0.00133993,0.00187717,0.00261228,0.00361814,0.00499447,0.00687773,0.00945462,0.0129806,inf	545,545,279.258,1129.26,444.312,711.269,676.787,622.67,887.057,1055.49,1117.75,1058.93,1294.18,118188,118188,118188
0.000208049	-161244.00	0,4.37197e-05,0.000103542,0.000185398,0.000297402,0.000450659,0.000660364,0.000947305,0.00133993,0.00187717,0.00261228,0.00361814,0.00499447,0.00687773,0.00945462,0.0129806,inf	545,545,261.674,1142.11,430.604,718.094,676.902,618.124,890.675,1055.55,1118.19,1052.57,1298.83,118188,118188,118188
0.000208049	-161243.88	0,4.37197e-05,0.000103542,0.000185398,0.000297402,0.000450659,0.000660364,0.000947305,0.00133993,0.00187717,0.00261228,0.00361814,0.00499447,0.00687773,0.00945462,0.0129806,inf	545,545,246.601,1153.13,417.97,725.337,678.366,613.889,893.771,1055.55,1118.19,1046.81,1303.04,118188,118188,118188
0.000208049	-161243.79	0,4.37197e-05,0.000103542,0.000185398,0.000297402,0.000450659,0.000660364,0.000947305,0.00133993,0.00187717,0.00261228,0.00361814,0.00499447,0.00687773,0.00945462,0.0129806,inf	545,545,233.501,1162.72,406.107,725.337,681.373,609.713,896.779,1055.55,1119.16,1041.59,1306.85,118188,118188,118188
0.000208049	-161243.70	0,4.37197e-05,0.000103542,0.000185398,0.000297402,0.000450659,0.000660364,0.000947305,0.00133993,0.00187717,0.00261228,0.00361814,0.00499447,0.00687773,0.00945462,0.0129806,inf	545,545,222.197,1170.98,395.769,732.892,681.373,605.729,899.447,1055.72,1119.16,1036.83,1310.34,118188,118188,118188
