time_index	left_time_boundary	right_time_boundary	lambda
0	0	4.55309e-06	119.632
1	4.55309e-06	1.03483e-05	119.632
2	1.03483e-05	1.77244e-05	47.9454
3	1.77244e-05	2.71129e-05	73.8579
4	2.71129e-05	3.90625e-05	129.936
5	3.90625e-05	5.4272e-05	167.847
6	5.4272e-05	7.36307e-05	187.334
7	7.36307e-05	9.82706e-05	193.851
8	9.82706e-05	0.000129632	183.169
9	0.000129632	0.00016955	161.626
10	0.00016955	0.000220357	142.514
11	0.000220357	0.000285024	133.419
12	0.000285024	0.000367333	135.678
13	0.000367333	0.000472097	148.858
14	0.000472097	0.00060544	172.597
15	0.00060544	0.00077516	206.628
16	0.00077516	0.00099118	251.814
17	0.00099118	0.00126613	311.987
18	0.00126613	0.00161609	392.979
19	0.00161609	0.00206152	496.486
20	0.00206152	0.00262847	603.057
21	0.00262847	0.00335008	664.578
22	0.00335008	0.00426855	667.115
23	0.00426855	0.00543758	636.423
24	0.00543758	0.00692553	592.071
25	0.00692553	0.0088194	539.884
26	0.0088194	0.0112299	482.313
27	0.0112299	0.0142981	403.675
28	0.0142981	0.0182032	403.675
29	0.0182032	0.0231736	261.532
30	0.0231736	0.0295001	261.532
31	0.0295001	inf	261.532
