time_index	left_time_boundary	right_time_boundary	lambda
0	0	6.01356e-06	470.815
1	6.01356e-06	1.61431e-05	470.815
2	1.61431e-05	3.32059e-05	648.325
3	3.32059e-05	6.19475e-05	349.311
4	6.19475e-05	0.000110361	479.126
5	0.000110361	0.000191912	306.084
6	0.000191912	0.000329281	437.987
7	0.000329281	0.000560673	385.332
8	0.000560673	0.000950442	382.077
9	0.000950442	0.00160699	393.545
10	0.00160699	0.00271292	430.359
11	0.00271292	0.00457581	416.473
12	0.00457581	0.00771375	370.581
13	0.00771375	0.0129995	1407.2
14	0.0129995	0.0219031	1407.2
15	0.0219031	inf	1407.2
