AIC = 3060547.3526572594419

y0 0.53276962950055872792
y0_prime 0
y1 0.9661210528241620521
y1_prime 0
y2 1.0736080919553905311
y2_prime 0
y3 1.7971392788503008919
y3_prime 0
rho 0.0018245167931419962928
theta 0.0049893519744447379499
