AIC = 589170.48707070352975

y0 0.91011602579438222183
y0_prime 0
y1 1.0018212129841892466
y1_prime 0
y2 0.94581502511859316673
y2_prime 0
y3 1.6009082108048651172
y3_prime 0
rho 0.0020642345038441563612
rho.alpha 0.21121880381729873921
r_ii 0.99995695312756560647
theta 0.0048698303429752223467
