LogLikelihood = -666077.61159464134835

y0 0.18196924632269353972
y0_prime 0
y1 0.34257819152893598247
y1_prime 0
y2 2.1068851279712701441
y2_prime 0
y3 22.165649707357651721
y3_prime 0
rho 0.00094241048545107698568
theta 0.001829730881691430484
