0.000224212	-132222.89	0,3.33891e-05,7.9076e-05,0.00014159,0.000227129,0.000344173,0.000504326,0.000723466,0.00102332,0.00143361,0.00199502,0.0027632,0.00381432,0.00525258,0.00722058,0.00991341,inf	216.264,216.264,375.668,439.025,600.075,860.704,1245.39,1573.8,1639.83,1548.6,1449.93,1385.54,1355.77,1358.11,1358.11,1358.11
0.000226368	-131977.76	0,3.33891e-05,7.9076e-05,0.00014159,0.000227129,0.000344173,0.000504326,0.000723466,0.00102332,0.00143361,0.00199502,0.0027632,0.00381432,0.00525258,0.00722058,0.00991341,inf	108.792,108.792,242.735,250.331,407.829,707.335,1239.59,1832.58,2052.37,1961.9,1807.29,1711.9,1686.71,1744.39,1744.39,1744.39
0.000227604	-131896.93	0,3.33891e-05,7.9076e-05,0.00014159,0.000227129,0.000344173,0.000504326,0.000723466,0.00102332,0.00143361,0.00199502,0.0027632,0.00381432,0.00525258,0.00722058,0.00991341,inf	88.5599,88.5599,220.97,174.787,314.533,608.667,1200.13,1964.65,2347.93,2330.15,2179.2,2119.13,2185.05,2503.93,2503.93,2503.93
0.00022756	-131863.59	0,3.33891e-05,7.9076e-05,0.00014159,0.000227129,0.000344173,0.000504326,0.000723466,0.00102332,0.00143361,0.00199502,0.0027632,0.00381432,0.00525258,0.00722058,0.00991341,inf	84.486,84.486,231.986,138.361,264.458,543.125,1159.62,2029.87,2558.26,2660.33,2587.3,2697.02,3160.17,5403.2,5403.2,5403.2
0.0002265	-131847.56	0,3.33891e-05,7.9076e-05,0.00014159,0.000227129,0.000344173,0.000504326,0.000723466,0.00102332,0.00143361,0.00199502,0.0027632,0.00381432,0.00525258,0.00722058,0.00991341,inf	82.6656,82.6656,254.439,118.151,236.064,497.965,1125.54,2059.63,2709.23,2962.89,3070.66,3710.14,6642.18,103098,103098,103098
0.000224707	-131838.93	0,3.33891e-05,7.9076e-05,0.00014159,0.000227129,0.000344173,0.000504326,0.000723466,0.00102332,0.00143361,0.00199502,0.0027632,0.00381432,0.00525258,0.00722058,0.00991341,inf	79.7284,79.7284,280.317,105.549,219.634,465.801,1098.72,2070.13,2818.53,3247.79,3705.47,6470,89588,125774,125774,125774
0.000222396	-131833.84	0,3.33891e-05,7.9076e-05,0.00014159,0.000227129,0.000344173,0.000504326,0.000723466,0.00102332,0.00143361,0.00199502,0.0027632,0.00381432,0.00525258,0.00722058,0.00991341,inf	75.2799,75.2799,305.996,96.8352,210.285,442.199,1078.2,2069.96,2897.96,3524.09,4676.05,29702.2,399856,4945.22,4945.22,4945.22
0.000219716	-131830.63	0,3.33891e-05,7.9076e-05,0.00014159,0.000227129,0.000344173,0.000504326,0.000723466,0.00102332,0.00143361,0.00199502,0.0027632,0.00381432,0.00525258,0.00722058,0.00991341,inf	69.7777,69.7777,329.838,90.2496,205.384,424.481,1063.1,2063.87,2955.11,3800.66,6636.19,671854,618.146,528.534,528.534,528.534
0.000216768	-131828.46	0,3.33891e-05,7.9076e-05,0.00014159,0.000227129,0.000344173,0.000504326,0.000723466,0.00102332,0.00143361,0.00199502,0.0027632,0.00381432,0.00525258,0.00722058,0.00991341,inf	63.762,63.762,351.129,84.8638,203.333,410.794,1052.22,2054.31,2995.09,4086.59,14171.7,681363,122.571,114.691,114.691,114.691
