LogLikelihood = -299244.8680358240963

y0 0.73726728282142561799
y0_prime 0
y1 0.59185845334631659309
y1_prime 0
y2 1.5613924888727102047
y2_prime 0
y3 2.0915408531952985882
y3_prime 0
rho 0.000412377411439552742
theta 0.0048440070525558615727
