0.000223498	-6035534.53	0,6.49595e-07,1.50527e-06,2.63242e-06,4.11714e-06,6.07289e-06,8.64911e-06,1.20426e-05,1.65127e-05,2.24009e-05,3.01572e-05,4.03741e-05,5.38324e-05,7.15602e-05,9.49122e-05,0.000125673,0.000166192,0.000219565,0.000289872,0.000382483,0.000504474,0.000665168,0.000876841,0.00115567,0.00152295,0.00200675,0.00264404,0.00348351,0.0045893,0.0060459,0.0079646,0.010492,inf	21.9055,21.9055,62.1122,123.146,162.859,137.317,110.633,120.324,131.585,135.778,159.246,186.946,224.587,271.509,322.339,382.241,462.762,568.345,706.31,889.336,1131.5,1413.4,1605.36,1616.4,1538.16,1439.74,1338.07,1249.41,1249.41,1255.88,1255.88,1255.88
0.000221861	-6024271.28	0,6.49595e-07,1.50527e-06,2.63242e-06,4.11714e-06,6.07289e-06,8.64911e-06,1.20426e-05,1.65127e-05,2.24009e-05,3.01572e-05,4.03741e-05,5.38324e-05,7.15602e-05,9.49122e-05,0.000125673,0.000166192,0.000219565,0.000289872,0.000382483,0.000504474,0.000665168,0.000876841,0.00115567,0.00152295,0.00200675,0.00264404,0.00348351,0.0045893,0.0060459,0.0079646,0.010492,inf	1.08591,1.08591,11.8379,72.9184,139.628,87.3076,55.9876,74.7023,73.4225,54.4658,62.0253,76.7248,100.327,134.436,169.797,211.926,281.545,384.451,533.491,752.651,1079.96,1537.73,1953.59,2062.81,1971.71,1790.03,1558.06,1357.98,1357.98,1436.04,1436.04,1436.04
0.000219914	-6020468.26	0,6.49595e-07,1.50527e-06,2.63242e-06,4.11714e-06,6.07289e-06,8.64911e-06,1.20426e-05,1.65127e-05,2.24009e-05,3.01572e-05,4.03741e-05,5.38324e-05,7.15602e-05,9.49122e-05,0.000125673,0.000166192,0.000219565,0.000289872,0.000382483,0.000504474,0.000665168,0.000876841,0.00115567,0.00152295,0.00200675,0.00264404,0.00348351,0.0045893,0.0060459,0.0079646,0.010492,inf	1.08529,1.08529,3.01705,60.0444,166.466,77.9222,46.7967,86.4565,77.4357,40.219,43.8676,54.7042,72.9932,102.634,128.685,155.276,211.553,301.377,440.548,660.638,1016.47,1570.63,2171.95,2413.97,2367.14,2119.03,1717.04,1386.58,1386.58,1613.59,1613.59,1613.59
0.000217156	-6018868.02	0,6.49595e-07,1.50527e-06,2.63242e-06,4.11714e-06,6.07289e-06,8.64911e-06,1.20426e-05,1.65127e-05,2.24009e-05,3.01572e-05,4.03741e-05,5.38324e-05,7.15602e-05,9.49122e-05,0.000125673,0.000166192,0.000219565,0.000289872,0.000382483,0.000504474,0.000665168,0.000876841,0.00115567,0.00152295,0.00200675,0.00264404,0.00348351,0.0045893,0.0060459,0.0079646,0.010492,inf	1.08529,1.08529,1.0853,48.5993,195.09,69.0188,39.9745,105.193,90.1658,35.2772,39.3493,49.8335,66.7712,97.3479,119.092,134.53,182.081,260.903,387.474,598.456,960.76,1567.02,2308.96,2688.58,2725.64,2419.94,1797.52,1334.68,1334.68,1769.34,1769.34,1769.34
0.000213751	-6018076.99	0,6.49595e-07,1.50527e-06,2.63242e-06,4.11714e-06,6.07289e-06,8.64911e-06,1.20426e-05,1.65127e-05,2.24009e-05,3.01572e-05,4.03741e-05,5.38324e-05,7.15602e-05,9.49122e-05,0.000125673,0.000166192,0.000219565,0.000289872,0.000382483,0.000504474,0.000665168,0.000876841,0.00115567,0.00152295,0.00200675,0.00264404,0.00348351,0.0045893,0.0060459,0.0079646,0.010492,inf	1.08529,1.08529,1.08529,38.0464,221.615,59.1597,32.2266,120.666,102.094,31.6899,37.7019,49.1099,66.0158,100.256,120.473,127.305,169.958,241.078,356.298,555.666,915.313,1549.68,2395.85,2905.91,3053.27,2688.45,1795.76,1224.7,1224.7,1874.82,1874.82,1874.82
0.000209915	-6017631.16	0,6.49595e-07,1.50527e-06,2.63242e-06,4.11714e-06,6.07289e-06,8.64911e-06,1.20426e-05,1.65127e-05,2.24009e-05,3.01572e-05,4.03741e-05,5.38324e-05,7.15602e-05,9.49122e-05,0.000125673,0.000166192,0.000219565,0.000289872,0.000382483,0.000504474,0.000665168,0.000876841,0.00115567,0.00152295,0.00200675,0.00264404,0.00348351,0.0045893,0.0060459,0.0079646,0.010492,inf	1.08529,1.08529,1.08529,29.0485,246.596,49.6173,24.7644,131.22,111.534,28.1815,36.3893,49.1269,66.1685,105.285,125.705,125.486,165.938,232.15,337.955,525.69,878.861,1528.08,2451.19,3080.73,3356.46,2920.9,1723.89,1088.02,1088.02,1904.36,1904.36,1904.36
0.000205814	-6017350.82	0,6.49595e-07,1.50527e-06,2.63242e-06,4.11714e-06,6.07289e-06,8.64911e-06,1.20426e-05,1.65127e-05,2.24009e-05,3.01572e-05,4.03741e-05,5.38324e-05,7.15602e-05,9.49122e-05,0.000125673,0.000166192,0.000219565,0.000289872,0.000382483,0.000504474,0.000665168,0.000876841,0.00115567,0.00152295,0.00200675,0.00264404,0.00348351,0.0045893,0.0060459,0.0079646,0.010492,inf	1.08529,1.08529,1.08529,21.7089,269.946,40.9665,18.4459,138.09,119.204,24.8094,34.9002,49.0306,65.8484,110.081,131.821,125.633,165.763,229.255,327.495,504.4,849.63,1506.23,2486.15,3223.6,3640.82,3114.08,1604.53,950.029,950.029,1856.97,1856.97,1856.97
0.00020157	-6017157.73	0,6.49595e-07,1.50527e-06,2.63242e-06,4.11714e-06,6.07289e-06,8.64911e-06,1.20426e-05,1.65127e-05,2.24009e-05,3.01572e-05,4.03741e-05,5.38324e-05,7.15602e-05,9.49122e-05,0.000125673,0.000166192,0.000219565,0.000289872,0.000382483,0.000504474,0.000665168,0.000876841,0.00115567,0.00152295,0.00200675,0.00264404,0.00348351,0.0045893,0.0060459,0.0079646,0.010492,inf	1.08529,1.08529,1.08529,15.8885,291.197,33.4113,13.4399,142.611,126.134,21.753,33.2874,48.7803,64.8244,113.85,137.555,126.179,167.259,229.739,322.034,489.142,826.064,1485.78,2507.69,3342.04,3911.02,3265.65,1461.88,824.921,824.921,1759.49,1759.49,1759.49
0.000197266	-6017014.46	0,6.49595e-07,1.50527e-06,2.63242e-06,4.11714e-06,6.07289e-06,8.64911e-06,1.20426e-05,1.65127e-05,2.24009e-05,3.01572e-05,4.03741e-05,5.38324e-05,7.15602e-05,9.49122e-05,0.000125673,0.000166192,0.000219565,0.000289872,0.000382483,0.000504474,0.000665168,0.000876841,0.00115567,0.00152295,0.00200675,0.00264404,0.00348351,0.0045893,0.0060459,0.0079646,0.010492,inf	1.08529,1.08529,1.08529,11.4025,310.194,27.0078,9.64112,145.602,133.02,19.0943,31.6918,48.5524,63.2648,116.512,142.471,126.423,169.253,232.052,319.803,478.166,806.932,1467.35,2520.24,3441.42,4170.92,3374.69,1315.04,717.894,717.894,1643.55,1643.55,1643.55
0.000192961	-6016901.65	0,6.49595e-07,1.50527e-06,2.63242e-06,4.11714e-06,6.07289e-06,8.64911e-06,1.20426e-05,1.65127e-05,2.24009e-05,3.01572e-05,4.03741e-05,5.38324e-05,7.15602e-05,9.49122e-05,0.000125673,0.000166192,0.000219565,0.000289872,0.000382483,0.000504474,0.000665168,0.000876841,0.00115567,0.00152295,0.00200675,0.00264404,0.00348351,0.0045893,0.0060459,0.0079646,0.010492,inf	1.08529,1.08529,1.08529,8.03359,327.11,21.6946,6.83264,147.366,140.2,16.8264,30.1897,48.5158,61.4174,118.275,146.54,126.115,171.108,235.244,319.668,470.281,791.285,1451.09,2526.72,3525.65,4423.76,3442.12,1176.18,629.046,629.046,1529.74,1529.74,1529.74
0.000188694	-6016808.66	0,6.49595e-07,1.50527e-06,2.63242e-06,4.11714e-06,6.07289e-06,8.64911e-06,1.20426e-05,1.65127e-05,2.24009e-05,3.01572e-05,4.03741e-05,5.38324e-05,7.15602e-05,9.49122e-05,0.000125673,0.000166192,0.000219565,0.000289872,0.000382483,0.000504474,0.000665168,0.000876841,0.00115567,0.00152295,0.00200675,0.00264404,0.00348351,0.0045893,0.0060459,0.0079646,0.010492,inf	1.08529,1.08529,1.08529,5.59359,342.14,17.3501,4.79071,148.064,147.83,14.8991,28.7938,48.7763,59.4854,119.419,149.927,125.236,172.501,238.719,320.877,464.658,778.396,1436.93,2529.12,3597.65,4672.31,3470.85,1051.39,556.302,556.302,1427.11,1427.11,1427.11
0.000184496	-6016729.30	0,6.49595e-07,1.50527e-06,2.63242e-06,4.11714e-06,6.07289e-06,8.64911e-06,1.20426e-05,1.65127e-05,2.24009e-05,3.01572e-05,4.03741e-05,5.38324e-05,7.15602e-05,9.49122e-05,0.000125673,0.000166192,0.000219565,0.000289872,0.000382483,0.000504474,0.000665168,0.000876841,0.00115567,0.00152295,0.00200675,0.00264404,0.00348351,0.0045893,0.0060459,0.0079646,0.010492,inf	1.08529,1.08529,1.08529,3.85009,355.558,13.837,3.32481,147.785,155.93,13.2626,27.5102,49.3724,57.5995,120.203,152.842,123.866,173.297,242.103,322.918,460.708,767.707,1424.73,2528.79,3659.56,4918.97,3465.47,942.664,496.983,496.983,1338.12,1338.12,1338.12
0.000180386	-6016659.80	0,6.49595e-07,1.50527e-06,2.63242e-06,4.11714e-06,6.07289e-06,8.64911e-06,1.20426e-05,1.65127e-05,2.24009e-05,3.01572e-05,4.03741e-05,5.38324e-05,7.15602e-05,9.49122e-05,0.000125673,0.000166192,0.000219565,0.000289872,0.000382483,0.000504474,0.000665168,0.000876841,0.00115567,0.00152295,0.00200675,0.00264404,0.00348351,0.0045893,0.0060459,0.0079646,0.010492,inf	1.08529,1.08529,1.08529,2.6215,367.982,11.0276,2.28886,146.513,164.446,11.8485,26.283,50.306,55.8137,120.814,155.497,122.13,173.472,245.173,325.44,458,758.78,1414.3,2526.67,3713.04,5165.89,3431.59,849.509,448.509,448.509,1262.16,1262.16,1262.16
0.000176379	-6016597.78	0,6.49595e-07,1.50527e-06,2.63242e-06,4.11714e-06,6.07289e-06,8.64911e-06,1.20426e-05,1.65127e-05,2.24009e-05,3.01572e-05,4.03741e-05,5.38324e-05,7.15602e-05,9.49122e-05,0.000125673,0.000166192,0.000219565,0.000289872,0.000382483,0.000504474,0.000665168,0.000876841,0.00115567,0.00152295,0.00200675,0.00264404,0.00348351,0.0045893,0.0060459,0.0079646,0.010492,inf	1.08529,1.08529,1.08529,1.76475,379.319,8.78492,1.2337,144.33,173.346,10.6283,25.086,51.5504,54.1565,121.373,158.067,120.159,173.074,247.801,328.195,456.22,751.275,1405.46,2523.42,3759.33,5414.92,3375.16,770.228,408.638,408.638,1197.53,1197.53,1197.53
0.000172484	-6016541.70	0,6.49595e-07,1.50527e-06,2.63242e-06,4.11714e-06,6.07289e-06,8.64911e-06,1.20426e-05,1.65127e-05,2.24009e-05,3.01572e-05,4.03741e-05,5.38324e-05,7.15602e-05,9.49122e-05,0.000125673,0.000166192,0.000219565,0.000289872,0.000382483,0.000504474,0.000665168,0.000876841,0.00115567,0.00152295,0.00200675,0.00264404,0.00348351,0.0045893,0.0060459,0.0079646,0.010492,inf	1.08529,1.08529,1.08529,1.18142,389.852,7.02264,1.08529,141.394,182.589,9.56091,23.8767,53.0606,52.6216,121.951,160.682,118.067,172.183,249.933,331.015,455.132,744.919,1398.02,2519.53,3799.4,5667.7,3301.8,702.716,375.513,375.513,1142.16,1142.16,1142.16
0.00016871	-6016490.49	0,6.49595e-07,1.50527e-06,2.63242e-06,4.11714e-06,6.07289e-06,8.64911e-06,1.20426e-05,1.65127e-05,2.24009e-05,3.01572e-05,4.03741e-05,5.38324e-05,7.15602e-05,9.49122e-05,0.000125673,0.000166192,0.000219565,0.000289872,0.000382483,0.000504474,0.000665168,0.000876841,0.00115567,0.00152295,0.00200675,0.00264404,0.00348351,0.0045893,0.0060459,0.0079646,0.010492,inf	1.08529,1.08529,1.08529,1.08535,399.819,5.60709,1.08529,137.742,192.087,8.61327,22.641,54.7882,51.1918,122.578,163.439,115.947,170.888,251.555,333.781,454.559,739.493,1391.82,2515.32,3834.02,5925.67,3216.39,644.843,347.651,347.651,1094.12,1094.12,1094.12
0.00016506	-6016443.45	0,6.49595e-07,1.50527e-06,2.63242e-06,4.11714e-06,6.07289e-06,8.64911e-06,1.20426e-05,1.65127e-05,2.24009e-05,3.01572e-05,4.03741e-05,5.38324e-05,7.15602e-05,9.49122e-05,0.000125673,0.000166192,0.000219565,0.000289872,0.000382483,0.000504474,0.000665168,0.000876841,0.00115567,0.00152295,0.00200675,0.00264404,0.00348351,0.0045893,0.0060459,0.0079646,0.010492,inf	1.08529,1.08529,1.08529,1.08535,409.073,4.48996,1.08529,133.453,201.789,7.77185,21.3659,56.6791,49.844,123.258,166.395,113.873,169.288,252.69,336.417,454.365,734.822,1386.71,2511.04,3863.81,6190.07,3122.89,594.731,323.887,323.887,1051.73,1051.73,1051.73
0.000161538	-6016400.08	0,6.49595e-07,1.50527e-06,2.63242e-06,4.11714e-06,6.07289e-06,8.64911e-06,1.20426e-05,1.65127e-05,2.24009e-05,3.01572e-05,4.03741e-05,5.38324e-05,7.15602e-05,9.49122e-05,0.000125673,0.000166192,0.000219565,0.000289872,0.000382483,0.000504474,0.000665168,0.000876841,0.00115567,0.00152295,0.00200675,0.00264404,0.00348351,0.0045893,0.0060459,0.0079646,0.010492,inf	1.08529,1.08529,1.08529,1.08535,418.277,3.60751,1.08529,128.729,211.668,7.01794,20.0627,58.7035,48.553,123.98,169.584,111.897,167.471,253.375,338.873,454.447,730.762,1382.57,2506.87,3889.27,6462.04,3024.33,550.77,303.312,303.312,1013.58,1013.58,1013.58
0.000158146	-6016360.00	0,6.49595e-07,1.50527e-06,2.63242e-06,4.11714e-06,6.07289e-06,8.64911e-06,1.20426e-05,1.65127e-05,2.24009e-05,3.01572e-05,4.03741e-05,5.38324e-05,7.15602e-05,9.49122e-05,0.000125673,0.000166192,0.000219565,0.000289872,0.000382483,0.000504474,0.000665168,0.000876841,0.00115567,0.00152295,0.00200675,0.00264404,0.00348351,0.0045893,0.0060459,0.0079646,0.010492,inf	1.08529,1.08529,1.08529,1.08535,427.01,2.90011,1.08529,123.567,221.682,6.33991,18.7231,60.7913,47.3009,124.717,173.019,110.051,165.516,253.66,341.12,454.723,727.192,1379.26,2502.93,3910.82,6742.6,2922.92,511.685,285.224,285.224,978.554,978.554,978.554
0.000154884	-6016322.93	0,6.49595e-07,1.50527e-06,2.63242e-06,4.11714e-06,6.07289e-06,8.64911e-06,1.20426e-05,1.65127e-05,2.24009e-05,3.01572e-05,4.03741e-05,5.38324e-05,7.15602e-05,9.49122e-05,0.000125673,0.000166192,0.000219565,0.000289872,0.000382483,0.000504474,0.000665168,0.000876841,0.00115567,0.00152295,0.00200675,0.00264404,0.00348351,0.0045893,0.0060459,0.0079646,0.010492,inf	1.08529,1.08529,1.08529,1.08535,435.814,2.33382,1.08529,118.143,231.803,5.72675,17.3696,62.9347,46.0746,125.441,176.694,108.359,163.488,253.6,343.145,455.136,724.016,1376.69,2499.32,3928.84,7032.69,2820.18,476.474,269.1,269.1,945.73,945.73,945.73
