0.000695644	-13527086.53	0,4.04571e-06,1.10656e-05,2.32461e-05,4.4381e-05,8.10532e-05,0.000144685,0.000255094,0.000446671,0.000779085,0.00135587,0.00235668,0.00409322,0.00710637,0.0123346,0.0214064,inf	411.221,411.221,361.415,341.669,390.581,413.537,410.886,400.777,397.184,402.136,406.311,405.907,424.012,484.181,484.181,484.181
0.000759526	-13524850.63	0,4.04571e-06,1.10656e-05,2.32461e-05,4.4381e-05,8.10532e-05,0.000144685,0.000255094,0.000446671,0.000779085,0.00135587,0.00235668,0.00409322,0.00710637,0.0123346,0.0214064,inf	427.477,427.477,342.234,300.458,381.174,421.472,417.421,400.371,394.662,402.369,406.756,400.584,431.119,564.265,564.265,564.265
0.000813757	-13523800.98	0,4.04571e-06,1.10656e-05,2.32461e-05,4.4381e-05,8.10532e-05,0.000144685,0.000255094,0.000446671,0.000779085,0.00135587,0.00235668,0.00409322,0.00710637,0.0123346,0.0214064,inf	441.75,441.75,333.995,271.285,373.847,427.221,422.417,400.587,393.952,403.88,407.434,393.225,431.397,651.929,651.929,651.929
0.000860281	-13523436.72	0,4.04571e-06,1.10656e-05,2.32461e-05,4.4381e-05,8.10532e-05,0.000144685,0.000255094,0.000446671,0.000779085,0.00135587,0.00235668,0.00409322,0.00710637,0.0123346,0.0214064,inf	451.77,451.77,331.709,249.979,368.252,431.397,426.019,400.747,393.902,405.952,408.663,385.584,427.797,758.825,758.825,758.825
0.000900411	-13523578.52	0,4.04571e-06,1.10656e-05,2.32461e-05,4.4381e-05,8.10532e-05,0.000144685,0.000255094,0.000446671,0.000779085,0.00135587,0.00235668,0.00409322,0.00710637,0.0123346,0.0214064,inf	457.799,457.799,332.838,234.054,364.201,434.623,428.636,400.721,394.014,408.156,410.358,378.172,421.75,908.468,908.468,908.468
0.000935056	-13524193.58	0,4.04571e-06,1.10656e-05,2.32461e-05,4.4381e-05,8.10532e-05,0.000144685,0.000255094,0.000446671,0.000779085,0.00135587,0.00235668,0.00409322,0.00710637,0.0123346,0.0214064,inf	460.742,460.742,335.866,221.9,361.443,437.31,430.626,400.553,394.098,410.277,412.358,371.007,413.918,1167.81,1167.81,1167.81
0.000964914	-13525372.26	0,4.04571e-06,1.10656e-05,2.32461e-05,4.4381e-05,8.10532e-05,0.000144685,0.000255094,0.000446671,0.000779085,0.00135587,0.00235668,0.00409322,0.00710637,0.0123346,0.0214064,inf	461.475,461.475,339.868,212.444,359.72,439.698,432.259,400.338,394.12,412.232,414.483,363.797,404.506,1847.62,1847.62,1847.62
0.000990697	-13527337.42	0,4.04571e-06,1.10656e-05,2.32461e-05,4.4381e-05,8.10532e-05,0.000144685,0.000255094,0.000446671,0.000779085,0.00135587,0.00235668,0.00409322,0.00710637,0.0123346,0.0214064,inf	460.793,460.793,344.323,204.964,358.836,441.929,433.736,400.208,394.156,414.038,416.478,355.851,393.398,6397.23,6397.23,6397.23
0.000990697	-13529960.19	0,4.04571e-06,1.10656e-05,2.32461e-05,4.4381e-05,8.10532e-05,0.000144685,0.000255094,0.000446671,0.000779085,0.00135587,0.00235668,0.00409322,0.00710637,0.0123346,0.0214064,inf	456.923,456.923,347.128,197.972,356.728,441.646,432.722,397.966,391.967,412.672,414.165,343.591,379.585,50648,50648,50648
0.000990697	-13530760.17	0,4.04571e-06,1.10656e-05,2.32461e-05,4.4381e-05,8.10532e-05,0.000144685,0.000255094,0.000446671,0.000779085,0.00135587,0.00235668,0.00409322,0.00710637,0.0123346,0.0214064,inf	455.124,455.124,348.465,192.362,355.801,442.342,432.891,397.035,391.274,413.536,414.165,334.226,367.284,50651.7,50651.7,50651.7
0.000990697	-13530415.35	0,4.04571e-06,1.10656e-05,2.32461e-05,4.4381e-05,8.10532e-05,0.000144685,0.000255094,0.000446671,0.000779085,0.00135587,0.00235668,0.00409322,0.00710637,0.0123346,0.0214064,inf	454.467,454.467,348.465,187.52,355.095,442.809,432.872,396.022,390.662,414.41,414.165,327.968,356.521,50654.7,50654.7,50654.7
0.000990697	-13530149.29	0,4.04571e-06,1.10656e-05,2.32461e-05,4.4381e-05,8.10532e-05,0.000144685,0.000255094,0.000446671,0.000779085,0.00135587,0.00235668,0.00409322,0.00710637,0.0123346,0.0214064,inf	454.467,454.467,348.465,183.411,354.702,443.235,432.832,395.036,390.096,415.2,414.165,323.952,346.924,50657.2,50657.2,50657.2
0.000990697	-13529932.27	0,4.04571e-06,1.10656e-05,2.32461e-05,4.4381e-05,8.10532e-05,0.000144685,0.000255094,0.000446671,0.000779085,0.00135587,0.00235668,0.00409322,0.00710637,0.0123346,0.0214064,inf	454.467,454.467,348.465,179.888,354.566,443.677,432.854,394.093,389.581,415.895,414.165,321.586,338.228,50659.3,50659.3,50659.3
0.000990697	-13529747.04	0,4.04571e-06,1.10656e-05,2.32461e-05,4.4381e-05,8.10532e-05,0.000144685,0.000255094,0.000446671,0.000779085,0.00135587,0.00235668,0.00409322,0.00710637,0.0123346,0.0214064,inf	454.467,454.467,348.466,176.83,354.601,444.118,432.943,393.237,389.074,415.915,414.511,320.442,330.242,50661.1,50661.1,50661.1
0.000990697	-13529581.95	0,4.04571e-06,1.10656e-05,2.32461e-05,4.4381e-05,8.10532e-05,0.000144685,0.000255094,0.000446671,0.000779085,0.00135587,0.00235668,0.00409322,0.00710637,0.0123346,0.0214064,inf	454.467,454.467,348.466,174.155,354.785,444.606,433.113,392.563,388.697,416.356,414.511,320.198,322.824,50662.7,50662.7,50662.7
0.000990697	-13529433.23	0,4.04571e-06,1.10656e-05,2.32461e-05,4.4381e-05,8.10532e-05,0.000144685,0.000255094,0.000446671,0.000779085,0.00135587,0.00235668,0.00409322,0.00710637,0.0123346,0.0214064,inf	454.467,454.467,348.466,171.78,355.02,445.039,433.24,391.958,388.323,416.773,414.511,320.198,315.897,50664.2,50664.2,50664.2
0.000990697	-13529297.40	0,4.04571e-06,1.10656e-05,2.32461e-05,4.4381e-05,8.10532e-05,0.000144685,0.000255094,0.000446671,0.000779085,0.00135587,0.00235668,0.00409322,0.00710637,0.0123346,0.0214064,inf	454.467,454.467,348.466,169.667,355.02,445.426,433.255,391.421,387.95,417.198,414.511,320.198,309.414,50665.6,50665.6,50665.6
0.000990697	-13529173.35	0,4.04571e-06,1.10656e-05,2.32461e-05,4.4381e-05,8.10532e-05,0.000144685,0.000255094,0.000446671,0.000779085,0.00135587,0.00235668,0.00409322,0.00710637,0.0123346,0.0214064,inf	454.467,454.467,348.466,167.801,355.392,445.827,433.257,390.957,387.577,417.567,414.511,320.198,303.339,50666.8,50666.8,50666.8
0.000990697	-13529059.87	0,4.04571e-06,1.10656e-05,2.32461e-05,4.4381e-05,8.10532e-05,0.000144685,0.000255094,0.000446671,0.000779085,0.00135587,0.00235668,0.00409322,0.00710637,0.0123346,0.0214064,inf	454.467,454.467,348.466,166.102,355.759,446.179,433.258,390.561,387.211,417.91,414.511,320.198,297.639,50668,50668,50668
0.000990697	-13528955.87	0,4.04571e-06,1.10656e-05,2.32461e-05,4.4381e-05,8.10532e-05,0.000144685,0.000255094,0.000446671,0.000779085,0.00135587,0.00235668,0.00409322,0.00710637,0.0123346,0.0214064,inf	454.467,454.467,348.467,164.551,356.102,446.179,433.441,390.218,386.857,417.91,414.694,320.198,292.283,50669.2,50669.2,50669.2
