0.000677649	-1809377.34	0,1.05286e-05,2.37374e-05,4.03086e-05,6.10982e-05,8.71798e-05,0.000119901,0.000160951,0.000212451,0.000277061,0.000358118,0.000459809,0.000587385,0.000747438,0.000948233,0.00120014,0.00151618,0.00191266,0.00241007,0.0030341,0.00381699,0.00479916,0.00603136,0.00757722,0.00951659,0.0119496,0.0150021,0.0188315,0.0236357,0.0296629,inf	408.093,408.093,408.093,408.093,408.093,408.093,408.093,408.093,408.093,408.093,408.093,408.093,408.093,408.093,408.093,408.093,408.093,408.093,408.093,408.093,408.093,408.093,408.093,408.093,408.093,408.093,408.093,408.093,408.093,408.093
0.00072924	-1809056.93	0,1.05286e-05,2.37374e-05,4.03086e-05,6.10982e-05,8.71798e-05,0.000119901,0.000160951,0.000212451,0.000277061,0.000358118,0.000459809,0.000587385,0.000747438,0.000948233,0.00120014,0.00151618,0.00191266,0.00241007,0.0030341,0.00381699,0.00479916,0.00603136,0.00757722,0.00951659,0.0119496,0.0150021,0.0188315,0.0236357,0.0296629,inf	410.264,410.264,410.264,410.264,410.264,410.264,410.264,410.264,410.264,410.264,410.264,410.264,410.264,410.264,410.264,410.264,410.264,410.264,410.264,410.264,410.264,410.264,410.264,410.264,410.264,410.264,410.264,410.264,410.264,410.264
0.000776068	-1808811.23	0,1.05286e-05,2.37374e-05,4.03086e-05,6.10982e-05,8.71798e-05,0.000119901,0.000160951,0.000212451,0.000277061,0.000358118,0.000459809,0.000587385,0.000747438,0.000948233,0.00120014,0.00151618,0.00191266,0.00241007,0.0030341,0.00381699,0.00479916,0.00603136,0.00757722,0.00951659,0.0119496,0.0150021,0.0188315,0.0236357,0.0296629,inf	411.105,411.105,411.105,411.105,411.105,411.105,411.105,411.105,411.105,411.105,411.105,411.105,411.105,411.105,411.105,411.105,411.105,411.105,411.105,411.105,411.105,411.105,411.105,411.105,411.105,411.105,411.105,411.105,411.105,411.105
0.000818788	-1808618.67	0,1.05286e-05,2.37374e-05,4.03086e-05,6.10982e-05,8.71798e-05,0.000119901,0.000160951,0.000212451,0.000277061,0.000358118,0.000459809,0.000587385,0.000747438,0.000948233,0.00120014,0.00151618,0.00191266,0.00241007,0.0030341,0.00381699,0.00479916,0.00603136,0.00757722,0.00951659,0.0119496,0.0150021,0.0188315,0.0236357,0.0296629,inf	411.335,411.335,411.335,411.335,411.335,411.335,411.335,411.335,411.335,411.335,411.335,411.335,411.335,411.335,411.335,411.335,411.335,411.335,411.335,411.335,411.335,411.335,411.335,411.335,411.335,411.335,411.335,411.335,411.335,411.335
0.000857901	-1808465.55	0,1.05286e-05,2.37374e-05,4.03086e-05,6.10982e-05,8.71798e-05,0.000119901,0.000160951,0.000212451,0.000277061,0.000358118,0.000459809,0.000587385,0.000747438,0.000948233,0.00120014,0.00151618,0.00191266,0.00241007,0.0030341,0.00381699,0.00479916,0.00603136,0.00757722,0.00951659,0.0119496,0.0150021,0.0188315,0.0236357,0.0296629,inf	411.276,411.276,411.276,411.276,411.276,411.276,411.276,411.276,411.276,411.276,411.276,411.276,411.276,411.276,411.276,411.276,411.276,411.276,411.276,411.276,411.276,411.276,411.276,411.276,411.276,411.276,411.276,411.276,411.276,411.276
0.000893811	-1808342.38	0,1.05286e-05,2.37374e-05,4.03086e-05,6.10982e-05,8.71798e-05,0.000119901,0.000160951,0.000212451,0.000277061,0.000358118,0.000459809,0.000587385,0.000747438,0.000948233,0.00120014,0.00151618,0.00191266,0.00241007,0.0030341,0.00381699,0.00479916,0.00603136,0.00757722,0.00951659,0.0119496,0.0150021,0.0188315,0.0236357,0.0296629,inf	411.08,411.08,411.08,411.08,411.08,411.08,411.08,411.08,411.08,411.08,411.08,411.08,411.08,411.08,411.08,411.08,411.08,411.08,411.08,411.08,411.08,411.08,411.08,411.08,411.08,411.08,411.08,411.08,411.08,411.08
0.000926852	-1808242.35	0,1.05286e-05,2.37374e-05,4.03086e-05,6.10982e-05,8.71798e-05,0.000119901,0.000160951,0.000212451,0.000277061,0.000358118,0.000459809,0.000587385,0.000747438,0.000948233,0.00120014,0.00151618,0.00191266,0.00241007,0.0030341,0.00381699,0.00479916,0.00603136,0.00757722,0.00951659,0.0119496,0.0150021,0.0188315,0.0236357,0.0296629,inf	410.822,410.822,410.822,410.822,410.822,410.822,410.822,410.822,410.822,410.822,410.822,410.822,410.822,410.822,410.822,410.822,410.822,410.822,410.822,410.822,410.822,410.822,410.822,410.822,410.822,410.822,410.822,410.822,410.822,410.822
0.000957311	-1808160.41	0,1.05286e-05,2.37374e-05,4.03086e-05,6.10982e-05,8.71798e-05,0.000119901,0.000160951,0.000212451,0.000277061,0.000358118,0.000459809,0.000587385,0.000747438,0.000948233,0.00120014,0.00151618,0.00191266,0.00241007,0.0030341,0.00381699,0.00479916,0.00603136,0.00757722,0.00951659,0.0119496,0.0150021,0.0188315,0.0236357,0.0296629,inf	410.537,410.537,410.537,410.537,410.537,410.537,410.537,410.537,410.537,410.537,410.537,410.537,410.537,410.537,410.537,410.537,410.537,410.537,410.537,410.537,410.537,410.537,410.537,410.537,410.537,410.537,410.537,410.537,410.537,410.537
0.000985435	-1808092.81	0,1.05286e-05,2.37374e-05,4.03086e-05,6.10982e-05,8.71798e-05,0.000119901,0.000160951,0.000212451,0.000277061,0.000358118,0.000459809,0.000587385,0.000747438,0.000948233,0.00120014,0.00151618,0.00191266,0.00241007,0.0030341,0.00381699,0.00479916,0.00603136,0.00757722,0.00951659,0.0119496,0.0150021,0.0188315,0.0236357,0.0296629,inf	410.245,410.245,410.245,410.245,410.245,410.245,410.245,410.245,410.245,410.245,410.245,410.245,410.245,410.245,410.245,410.245,410.245,410.245,410.245,410.245,410.245,410.245,410.245,410.245,410.245,410.245,410.245,410.245,410.245,410.245
0.00101144	-1808036.67	0,1.05286e-05,2.37374e-05,4.03086e-05,6.10982e-05,8.71798e-05,0.000119901,0.000160951,0.000212451,0.000277061,0.000358118,0.000459809,0.000587385,0.000747438,0.000948233,0.00120014,0.00151618,0.00191266,0.00241007,0.0030341,0.00381699,0.00479916,0.00603136,0.00757722,0.00951659,0.0119496,0.0150021,0.0188315,0.0236357,0.0296629,inf	409.956,409.956,409.956,409.956,409.956,409.956,409.956,409.956,409.956,409.956,409.956,409.956,409.956,409.956,409.956,409.956,409.956,409.956,409.956,409.956,409.956,409.956,409.956,409.956,409.956,409.956,409.956,409.956,409.956,409.956
0.00103551	-1807989.77	0,1.05286e-05,2.37374e-05,4.03086e-05,6.10982e-05,8.71798e-05,0.000119901,0.000160951,0.000212451,0.000277061,0.000358118,0.000459809,0.000587385,0.000747438,0.000948233,0.00120014,0.00151618,0.00191266,0.00241007,0.0030341,0.00381699,0.00479916,0.00603136,0.00757722,0.00951659,0.0119496,0.0150021,0.0188315,0.0236357,0.0296629,inf	409.676,409.676,409.676,409.676,409.676,409.676,409.676,409.676,409.676,409.676,409.676,409.676,409.676,409.676,409.676,409.676,409.676,409.676,409.676,409.676,409.676,409.676,409.676,409.676,409.676,409.676,409.676,409.676,409.676,409.676
0.00105783	-1807950.39	0,1.05286e-05,2.37374e-05,4.03086e-05,6.10982e-05,8.71798e-05,0.000119901,0.000160951,0.000212451,0.000277061,0.000358118,0.000459809,0.000587385,0.000747438,0.000948233,0.00120014,0.00151618,0.00191266,0.00241007,0.0030341,0.00381699,0.00479916,0.00603136,0.00757722,0.00951659,0.0119496,0.0150021,0.0188315,0.0236357,0.0296629,inf	409.407,409.407,409.407,409.407,409.407,409.407,409.407,409.407,409.407,409.407,409.407,409.407,409.407,409.407,409.407,409.407,409.407,409.407,409.407,409.407,409.407,409.407,409.407,409.407,409.407,409.407,409.407,409.407,409.407,409.407
0.00107853	-1807917.17	0,1.05286e-05,2.37374e-05,4.03086e-05,6.10982e-05,8.71798e-05,0.000119901,0.000160951,0.000212451,0.000277061,0.000358118,0.000459809,0.000587385,0.000747438,0.000948233,0.00120014,0.00151618,0.00191266,0.00241007,0.0030341,0.00381699,0.00479916,0.00603136,0.00757722,0.00951659,0.0119496,0.0150021,0.0188315,0.0236357,0.0296629,inf	409.152,409.152,409.152,409.152,409.152,409.152,409.152,409.152,409.152,409.152,409.152,409.152,409.152,409.152,409.152,409.152,409.152,409.152,409.152,409.152,409.152,409.152,409.152,409.152,409.152,409.152,409.152,409.152,409.152,409.152
0.00109775	-1807889.03	0,1.05286e-05,2.37374e-05,4.03086e-05,6.10982e-05,8.71798e-05,0.000119901,0.000160951,0.000212451,0.000277061,0.000358118,0.000459809,0.000587385,0.000747438,0.000948233,0.00120014,0.00151618,0.00191266,0.00241007,0.0030341,0.00381699,0.00479916,0.00603136,0.00757722,0.00951659,0.0119496,0.0150021,0.0188315,0.0236357,0.0296629,inf	408.909,408.909,408.909,408.909,408.909,408.909,408.909,408.909,408.909,408.909,408.909,408.909,408.909,408.909,408.909,408.909,408.909,408.909,408.909,408.909,408.909,408.909,408.909,408.909,408.909,408.909,408.909,408.909,408.909,408.909
0.00111562	-1807865.10	0,1.05286e-05,2.37374e-05,4.03086e-05,6.10982e-05,8.71798e-05,0.000119901,0.000160951,0.000212451,0.000277061,0.000358118,0.000459809,0.000587385,0.000747438,0.000948233,0.00120014,0.00151618,0.00191266,0.00241007,0.0030341,0.00381699,0.00479916,0.00603136,0.00757722,0.00951659,0.0119496,0.0150021,0.0188315,0.0236357,0.0296629,inf	408.68,408.68,408.68,408.68,408.68,408.68,408.68,408.68,408.68,408.68,408.68,408.68,408.68,408.68,408.68,408.68,408.68,408.68,408.68,408.68,408.68,408.68,408.68,408.68,408.68,408.68,408.68,408.68,408.68,408.68
0.00113225	-1807844.68	0,1.05286e-05,2.37374e-05,4.03086e-05,6.10982e-05,8.71798e-05,0.000119901,0.000160951,0.000212451,0.000277061,0.000358118,0.000459809,0.000587385,0.000747438,0.000948233,0.00120014,0.00151618,0.00191266,0.00241007,0.0030341,0.00381699,0.00479916,0.00603136,0.00757722,0.00951659,0.0119496,0.0150021,0.0188315,0.0236357,0.0296629,inf	408.464,408.464,408.464,408.464,408.464,408.464,408.464,408.464,408.464,408.464,408.464,408.464,408.464,408.464,408.464,408.464,408.464,408.464,408.464,408.464,408.464,408.464,408.464,408.464,408.464,408.464,408.464,408.464,408.464,408.464
0.00114772	-1807827.19	0,1.05286e-05,2.37374e-05,4.03086e-05,6.10982e-05,8.71798e-05,0.000119901,0.000160951,0.000212451,0.000277061,0.000358118,0.000459809,0.000587385,0.000747438,0.000948233,0.00120014,0.00151618,0.00191266,0.00241007,0.0030341,0.00381699,0.00479916,0.00603136,0.00757722,0.00951659,0.0119496,0.0150021,0.0188315,0.0236357,0.0296629,inf	408.262,408.262,408.262,408.262,408.262,408.262,408.262,408.262,408.262,408.262,408.262,408.262,408.262,408.262,408.262,408.262,408.262,408.262,408.262,408.262,408.262,408.262,408.262,408.262,408.262,408.262,408.262,408.262,408.262,408.262
0.00116214	-1807812.18	0,1.05286e-05,2.37374e-05,4.03086e-05,6.10982e-05,8.71798e-05,0.000119901,0.000160951,0.000212451,0.000277061,0.000358118,0.000459809,0.000587385,0.000747438,0.000948233,0.00120014,0.00151618,0.00191266,0.00241007,0.0030341,0.00381699,0.00479916,0.00603136,0.00757722,0.00951659,0.0119496,0.0150021,0.0188315,0.0236357,0.0296629,inf	408.071,408.071,408.071,408.071,408.071,408.071,408.071,408.071,408.071,408.071,408.071,408.071,408.071,408.071,408.071,408.071,408.071,408.071,408.071,408.071,408.071,408.071,408.071,408.071,408.071,408.071,408.071,408.071,408.071,408.071
0.00117557	-1807799.26	0,1.05286e-05,2.37374e-05,4.03086e-05,6.10982e-05,8.71798e-05,0.000119901,0.000160951,0.000212451,0.000277061,0.000358118,0.000459809,0.000587385,0.000747438,0.000948233,0.00120014,0.00151618,0.00191266,0.00241007,0.0030341,0.00381699,0.00479916,0.00603136,0.00757722,0.00951659,0.0119496,0.0150021,0.0188315,0.0236357,0.0296629,inf	407.892,407.892,407.892,407.892,407.892,407.892,407.892,407.892,407.892,407.892,407.892,407.892,407.892,407.892,407.892,407.892,407.892,407.892,407.892,407.892,407.892,407.892,407.892,407.892,407.892,407.892,407.892,407.892,407.892,407.892
0.0011881	-1807788.11	0,1.05286e-05,2.37374e-05,4.03086e-05,6.10982e-05,8.71798e-05,0.000119901,0.000160951,0.000212451,0.000277061,0.000358118,0.000459809,0.000587385,0.000747438,0.000948233,0.00120014,0.00151618,0.00191266,0.00241007,0.0030341,0.00381699,0.00479916,0.00603136,0.00757722,0.00951659,0.0119496,0.0150021,0.0188315,0.0236357,0.0296629,inf	407.724,407.724,407.724,407.724,407.724,407.724,407.724,407.724,407.724,407.724,407.724,407.724,407.724,407.724,407.724,407.724,407.724,407.724,407.724,407.724,407.724,407.724,407.724,407.724,407.724,407.724,407.724,407.724,407.724,407.724
