time_index	left_time_boundary	right_time_boundary	lambda
0	0	1.88031e-06	406.883
1	1.88031e-06	4.40306e-06	406.883
2	4.40306e-06	7.78775e-06	406.883
3	7.78775e-06	1.23289e-05	406.883
4	1.23289e-05	1.84216e-05	406.883
5	1.84216e-05	2.6596e-05	406.883
6	2.6596e-05	3.75634e-05	406.883
7	3.75634e-05	5.2278e-05	406.883
8	5.2278e-05	7.20201e-05	406.883
9	7.20201e-05	9.85075e-05	406.883
10	9.85075e-05	0.000134045	406.883
11	0.000134045	0.000181724	406.883
12	0.000181724	0.000245694	406.883
13	0.000245694	0.000331521	406.883
14	0.000331521	0.000446671	406.883
15	0.000446671	0.000601166	406.883
16	0.000601166	0.000808446	406.883
17	0.000808446	0.00108655	406.883
18	0.00108655	0.00145967	406.883
19	0.00145967	0.00196027	406.883
20	0.00196027	0.00263192	406.883
21	0.00263192	0.00353305	406.883
22	0.00353305	0.00474206	406.883
23	0.00474206	0.00636416	406.883
24	0.00636416	0.00854048	406.883
25	0.00854048	0.0114604	406.883
26	0.0114604	0.0153779	406.883
27	0.0153779	0.020634	406.883
28	0.020634	0.0276859	406.883
29	0.0276859	inf	406.883
