time_index	left_time_boundary	right_time_boundary	lambda
0	0	9.23367e-05	422.684
1	9.23367e-05	0.000218682	422.684
2	0.000218682	0.000391563	522.609
3	0.000391563	0.000628119	311.088
4	0.000628119	0.000951801	404.307
5	0.000951801	0.0013947	394.881
6	0.0013947	0.00200073	386.308
7	0.00200073	0.00282996	407.123
8	0.00282996	0.00396461	408.415
9	0.00396461	0.00551717	429.348
10	0.00551717	0.00764157	484.18
11	0.00764157	0.0105484	423.016
12	0.0105484	0.0145259	304.366
13	0.0145259	0.0199683	143.303
14	0.0199683	0.0274153	143.303
15	0.0274153	inf	143.303
