LogLikelihood = -597305.44576778577175

y0 0.99207033024372015539
y0_prime 0
y1 1.0337096374988348213
y1_prime 0
y2 0.84823236042262073475
y2_prime 0
y3 1.7967101850036475419
y3_prime 0
rho 0.0027228527009482603703
theta 0.0048809893221045952405
