LogLikelihood = -230718.97917127929395

y0 1.082454105722518318e-12
y0_prime 0
y1 1.0107009401082227562
y1_prime 0
y2 2.0099761654437733327
y2_prime 0
y3 1.9339890848590299832
y3_prime 0
rho 0.1406077872802727613
rho.alpha 0.12658509735208667291
r_ii 0.98996955996487101537
theta 0.0034684181635024841431
