LogLikelihood = -661797.85020823974628

y0 4.5347628667942831981
y0_prime 0
y1 0.0031180378797225015951
y1_prime 0
y2 1.0001653169633644889e-12
y2_prime 0
y3 34.338475698493603261
y3_prime 0
rho 1.2707889973117914254e-07
theta 0.0019057139516978187106
