0.000644093	-12505106.34	0,1.60189e-06,3.71198e-06,6.49149e-06,1.01528e-05,1.49756e-05,2.13285e-05,2.96969e-05,4.07201e-05,5.52403e-05,7.43671e-05,9.95619e-05,0.00013275,0.000176466,0.000234052,0.000309906,0.000409825,0.000541444,0.000714818,0.000943195,0.00124402,0.00164029,0.00216227,0.00284985,0.00375557,0.00494862,0.00652016,0.00859028,0.0113171,0.0149091,0.0196406,0.0258731,inf	8630.39,8630.39,5100.63,2933.72,1688.87,989.815,644.765,487.214,407.234,370.978,360.259,357.367,354.041,351.216,351.626,355.881,362.003,368.545,376.793,387.807,402.634,421.13,439.41,451.575,455.404,458.829,461.396,458.641,458.641,448.495,448.495,448.495
0.000718536	-12498696.72	0,1.60189e-06,3.71198e-06,6.49149e-06,1.01528e-05,1.49756e-05,2.13285e-05,2.96969e-05,4.07201e-05,5.52403e-05,7.43671e-05,9.95619e-05,0.00013275,0.000176466,0.000234052,0.000309906,0.000409825,0.000541444,0.000714818,0.000943195,0.00124402,0.00164029,0.00216227,0.00284985,0.00375557,0.00494862,0.00652016,0.00859028,0.0113171,0.0149091,0.0196406,0.0258731,inf	13937.2,13937.2,7994.01,4057.02,2017.37,1049.59,641.999,466.774,378.27,343.462,339.367,340.854,337,331.883,331.433,336.917,344.594,351.868,360.957,373.532,391.61,415.671,440.713,457.93,463.412,470.277,476.059,471.909,471.909,454.09,454.09,454.09
0.000788679	-12494485.99	0,1.60189e-06,3.71198e-06,6.49149e-06,1.01528e-05,1.49756e-05,2.13285e-05,2.96969e-05,4.07201e-05,5.52403e-05,7.43671e-05,9.95619e-05,0.00013275,0.000176466,0.000234052,0.000309906,0.000409825,0.000541444,0.000714818,0.000943195,0.00124402,0.00164029,0.00216227,0.00284985,0.00375557,0.00494862,0.00652016,0.00859028,0.0113171,0.0149091,0.0196406,0.0258731,inf	14773.5,14773.5,8829.55,4272.73,1993.62,998.181,609.086,442.086,356.197,327.909,332.479,339.182,335.211,328.191,327.092,333.528,341.962,348.853,357.16,368.961,387.144,412.813,440.636,460.16,466.498,476.69,485.837,481.158,481.158,458.098,458.098,458.098
0.00085445	-12491212.02	0,1.60189e-06,3.71198e-06,6.49149e-06,1.01528e-05,1.49756e-05,2.13285e-05,2.96969e-05,4.07201e-05,5.52403e-05,7.43671e-05,9.95619e-05,0.00013275,0.000176466,0.000234052,0.000309906,0.000409825,0.000541444,0.000714818,0.000943195,0.00124402,0.00164029,0.00216227,0.00284985,0.00375557,0.00494862,0.00652016,0.00859028,0.0113171,0.0149091,0.0196406,0.0258731,inf	14493.9,14493.9,9041.84,4240.83,1897.71,934.747,577.136,420.689,338.356,316.664,329.496,341.049,336.91,328.33,326.996,334.56,343.701,350.098,357.298,367.676,384.895,410.603,439.429,459.902,466.666,479.909,492.278,487.572,487.572,461.368,461.368,461.368
0.000916179	-12488552.53	0,1.60189e-06,3.71198e-06,6.49149e-06,1.01528e-05,1.49756e-05,2.13285e-05,2.96969e-05,4.07201e-05,5.52403e-05,7.43671e-05,9.95619e-05,0.00013275,0.000176466,0.000234052,0.000309906,0.000409825,0.000541444,0.000714818,0.000943195,0.00124402,0.00164029,0.00216227,0.00284985,0.00375557,0.00494862,0.00652016,0.00859028,0.0113171,0.0149091,0.0196406,0.0258731,inf	14093.4,14093.4,9089.49,4148.1,1795.19,877.773,550.665,402.934,323.372,307.535,327.789,343.538,339.042,329.168,327.952,336.831,346.767,352.794,358.918,367.742,383.625,408.677,437.606,458.265,465.176,481.131,496.449,491.99,491.99,464.369,464.369,464.369
0.000974241	-12486345.76	0,1.60189e-06,3.71198e-06,6.49149e-06,1.01528e-05,1.49756e-05,2.13285e-05,2.96969e-05,4.07201e-05,5.52403e-05,7.43671e-05,9.95619e-05,0.00013275,0.000176466,0.000234052,0.000309906,0.000409825,0.000541444,0.000714818,0.000943195,0.00124402,0.00164029,0.00216227,0.00284985,0.00375557,0.00494862,0.00652016,0.00859028,0.0113171,0.0149091,0.0196406,0.0258731,inf	13757.8,13757.8,9086.37,4041.05,1699.96,829.699,529.695,388.422,310.689,299.935,326.753,346.003,340.911,329.91,329.047,339.351,350.155,355.962,361.132,368.447,382.89,406.968,435.517,455.911,462.776,481.103,499.062,494.991,494.991,467.344,467.344,467.344
0.00102898	-12484488.05	0,1.60189e-06,3.71198e-06,6.49149e-06,1.01528e-05,1.49756e-05,2.13285e-05,2.96969e-05,4.07201e-05,5.52403e-05,7.43671e-05,9.95619e-05,0.00013275,0.000176466,0.000234052,0.000309906,0.000409825,0.000541444,0.000714818,0.000943195,0.00124402,0.00164029,0.00216227,0.00284985,0.00375557,0.00494862,0.00652016,0.00859028,0.0113171,0.0149091,0.0196406,0.0258731,inf	13503.9,13503.9,9061.09,3931.9,1614.3,789.75,513.464,376.647,299.969,293.658,326.296,348.399,342.456,330.423,330.05,341.81,353.509,359.219,363.566,369.473,382.486,405.457,433.362,453.221,459.906,480.294,500.59,496.97,496.97,470.408,470.408,470.408
0.00108069	-12482906.63	0,1.60189e-06,3.71198e-06,6.49149e-06,1.01528e-05,1.49756e-05,2.13285e-05,2.96969e-05,4.07201e-05,5.52403e-05,7.43671e-05,9.95619e-05,0.00013275,0.000176466,0.000234052,0.000309906,0.000409825,0.000541444,0.000714818,0.000943195,0.00124402,0.00164029,0.00216227,0.00284985,0.00375557,0.00494862,0.00652016,0.00859028,0.0113171,0.0149091,0.0196406,0.0258731,inf	13314.9,13314.9,9021.4,3824.28,1537.48,756.578,501.108,367.119,290.916,288.549,326.398,350.788,343.759,330.743,330.926,344.116,356.7,362.402,366.043,370.659,382.302,404.126,431.248,450.411,456.826,479.002,501.355,498.202,498.202,473.613,473.613,473.613
0.00112964	-12481548.01	0,1.60189e-06,3.71198e-06,6.49149e-06,1.01528e-05,1.49756e-05,2.13285e-05,2.96969e-05,4.07201e-05,5.52403e-05,7.43671e-05,9.95619e-05,0.00013275,0.000176466,0.000234052,0.000309906,0.000409825,0.000541444,0.000714818,0.000943195,0.00124402,0.00164029,0.00216227,0.00284985,0.00375557,0.00494862,0.00652016,0.00859028,0.0113171,0.0149091,0.0196406,0.0258731,inf	13176.1,13176.1,8971.08,3719.38,1468.5,728.938,491.877,359.41,283.253,284.459,327.03,353.222,344.905,330.934,331.695,346.255,359.686,365.438,368.473,371.914,382.265,402.954,429.229,447.603,453.688,477.414,501.576,498.883,498.883,476.974,476.974,476.974
0.00117604	-12480371.63	0,1.60189e-06,3.71198e-06,6.49149e-06,1.01528e-05,1.49756e-05,2.13285e-05,2.96969e-05,4.07201e-05,5.52403e-05,7.43671e-05,9.95619e-05,0.00013275,0.000176466,0.000234052,0.000309906,0.000409825,0.000541444,0.000714818,0.000943195,0.00124402,0.00164029,0.00216227,0.00284985,0.00375557,0.00494862,0.00652016,0.00859028,0.0113171,0.0149091,0.0196406,0.0258731,inf	13075.6,13075.6,8912.7,3617.73,1406.16,705.746,485.108,353.123,276.733,281.239,328.139,355.733,345.959,331.051,332.387,348.237,362.46,368.298,370.81,373.184,382.33,401.92,427.326,444.866,450.581,475.658,501.407,499.155,499.155,480.493,480.493,480.493
0.00122011	-12479346.12	0,1.60189e-06,3.71198e-06,6.49149e-06,1.01528e-05,1.49756e-05,2.13285e-05,2.96969e-05,4.07201e-05,5.52403e-05,7.43671e-05,9.95619e-05,0.00013275,0.000176466,0.000234052,0.000309906,0.000409825,0.000541444,0.000714818,0.000943195,0.00124402,0.00164029,0.00216227,0.00284985,0.00375557,0.00494862,0.00652016,0.00859028,0.0113171,0.0149091,0.0196406,0.0258731,inf	13004,13004,8848.39,3519.59,1349.54,686.12,480.27,347.943,271.134,278.745,329.667,358.324,346.964,331.134,333.029,350.078,365.028,370.972,373.031,374.437,382.462,401.006,425.548,442.235,447.557,473.812,500.96,499.119,499.119,484.161,484.161,484.161
0.00126201	-12478446.74	0,1.60189e-06,3.71198e-06,6.49149e-06,1.01528e-05,1.49756e-05,2.13285e-05,2.96969e-05,4.07201e-05,5.52403e-05,7.43671e-05,9.95619e-05,0.00013275,0.000176466,0.000234052,0.000309906,0.000409825,0.000541444,0.000714818,0.000943195,0.00124402,0.00164029,0.00216227,0.00284985,0.00375557,0.00494862,0.00652016,0.00859028,0.0113171,0.0149091,0.0196406,0.0258731,inf	12955.5,12955.5,8779.85,3425.09,1297.8,669.392,476.972,343.616,266.279,276.851,331.542,360.982,347.941,331.211,333.641,351.797,367.404,373.462,375.125,375.651,382.64,400.195,423.893,439.728,444.644,471.933,500.311,498.853,498.853,487.967,487.967,487.967
0.0013019	-12477653.74	0,1.60189e-06,3.71198e-06,6.49149e-06,1.01528e-05,1.49756e-05,2.13285e-05,2.96969e-05,4.07201e-05,5.52403e-05,7.43671e-05,9.95619e-05,0.00013275,0.000176466,0.000234052,0.000309906,0.000409825,0.000541444,0.000714818,0.000943195,0.00124402,0.00164029,0.00216227,0.00284985,0.00375557,0.00494862,0.00652016,0.00859028,0.0113171,0.0149091,0.0196406,0.0258731,inf	12924.7,12924.7,8708.62,3334.36,1250.32,655.068,474.864,339.941,262.026,275.451,333.704,363.693,348.905,331.298,334.238,353.409,369.603,375.776,377.091,376.818,382.847,399.472,422.356,437.352,441.858,470.054,499.52,498.413,498.413,491.899,491.899,491.899
0.00133991	-12476951.17	0,1.60189e-06,3.71198e-06,6.49149e-06,1.01528e-05,1.49756e-05,2.13285e-05,2.96969e-05,4.07201e-05,5.52403e-05,7.43671e-05,9.95619e-05,0.00013275,0.000176466,0.000234052,0.000309906,0.000409825,0.000541444,0.000714818,0.000943195,0.00124402,0.00164029,0.00216227,0.00284985,0.00375557,0.00494862,0.00652016,0.00859028,0.0113171,0.0149091,0.0196406,0.0258731,inf	12907.8,12907.8,8636.23,3247.48,1206.6,642.727,473.711,336.755,258.244,274.447,336.094,366.441,349.857,331.407,334.831,354.928,371.642,377.925,378.931,377.93,383.071,398.826,420.93,435.107,439.204,468.201,498.627,497.844,497.844,495.945,495.945,495.945
0.00137619	-12476325.98	0,1.60189e-06,3.71198e-06,6.49149e-06,1.01528e-05,1.49756e-05,2.13285e-05,2.96969e-05,4.07201e-05,5.52403e-05,7.43671e-05,9.95619e-05,0.00013275,0.000176466,0.000234052,0.000309906,0.000409825,0.000541444,0.000714818,0.000943195,0.00124402,0.00164029,0.00216227,0.00284985,0.00375557,0.00494862,0.00652016,0.00859028,0.0113171,0.0149091,0.0196406,0.0258731,inf	12901.3,12901.3,8563.87,3164.48,1166.18,632.025,473.324,333.937,254.847,273.765,338.659,369.202,350.804,331.541,335.426,356.367,373.534,379.918,380.652,378.984,383.304,398.245,419.607,432.99,436.682,466.388,497.665,497.178,497.178,500.097,500.097,500.097
0.00141083	-12475767.44	0,1.60189e-06,3.71198e-06,6.49149e-06,1.01528e-05,1.49756e-05,2.13285e-05,2.96969e-05,4.07201e-05,5.52403e-05,7.43671e-05,9.95619e-05,0.00013275,0.000176466,0.000234052,0.000309906,0.000409825,0.000541444,0.000714818,0.000943195,0.00124402,0.00164029,0.00216227,0.00284985,0.00375557,0.00494862,0.00652016,0.00859028,0.0113171,0.0149091,0.0196406,0.0258731,inf	12903.3,12903.3,8491.93,3085.32,1128.71,622.726,473.531,331.403,251.76,273.342,341.355,371.959,351.744,331.703,336.028,357.734,375.294,381.769,382.258,379.982,383.54,397.722,418.379,430.995,434.289,464.624,496.658,496.441,496.441,504.344,504.344,504.344
0.00144394	-12475266.62	0,1.60189e-06,3.71198e-06,6.49149e-06,1.01528e-05,1.49756e-05,2.13285e-05,2.96969e-05,4.07201e-05,5.52403e-05,7.43671e-05,9.95619e-05,0.00013275,0.000176466,0.000234052,0.000309906,0.000409825,0.000541444,0.000714818,0.000943195,0.00124402,0.00164029,0.00216227,0.00284985,0.00375557,0.00494862,0.00652016,0.00859028,0.0113171,0.0149091,0.0196406,0.0258731,inf	12912.3,12912.3,8421.64,3009.97,1093.9,614.638,474.212,329.069,248.926,273.127,344.147,374.697,352.672,331.894,336.639,359.039,376.934,383.487,383.756,380.923,383.776,397.249,417.238,429.116,432.02,462.916,495.622,495.653,495.653,508.678,508.678,508.678
0.00147562	-12474816.05	0,1.60189e-06,3.71198e-06,6.49149e-06,1.01528e-05,1.49756e-05,2.13285e-05,2.96969e-05,4.07201e-05,5.52403e-05,7.43671e-05,9.95619e-05,0.00013275,0.000176466,0.000234052,0.000309906,0.000409825,0.000541444,0.000714818,0.000943195,0.00124402,0.00164029,0.00216227,0.00284985,0.00375557,0.00494862,0.00652016,0.00859028,0.0113171,0.0149091,0.0196406,0.0258731,inf	12924.6,12924.6,8352.95,2938.06,1061.47,607.583,475.288,326.881,246.295,273.081,347.004,377.405,353.588,332.113,337.262,360.288,378.464,385.084,385.155,381.81,384.007,396.819,416.177,427.346,429.871,461.268,494.571,494.83,494.83,513.094,513.094,513.094
0.00150595	-12474409.44	0,1.60189e-06,3.71198e-06,6.49149e-06,1.01528e-05,1.49756e-05,2.13285e-05,2.96969e-05,4.07201e-05,5.52403e-05,7.43671e-05,9.95619e-05,0.00013275,0.000176466,0.000234052,0.000309906,0.000409825,0.000541444,0.000714818,0.000943195,0.00124402,0.00164029,0.00216227,0.00284985,0.00375557,0.00494862,0.00652016,0.00859028,0.0113171,0.0149091,0.0196406,0.0258731,inf	12940.3,12940.3,8286.56,2869.62,1031.18,601.429,476.676,324.814,243.834,273.167,349.9,380.067,354.488,332.358,337.895,361.486,379.894,386.569,386.46,382.644,384.233,396.428,415.189,425.679,427.834,459.679,493.515,493.983,493.983,517.585,517.585,517.585
0.00153502	-12474041.44	0,1.60189e-06,3.71198e-06,6.49149e-06,1.01528e-05,1.49756e-05,2.13285e-05,2.96969e-05,4.07201e-05,5.52403e-05,7.43671e-05,9.95619e-05,0.00013275,0.000176466,0.000234052,0.000309906,0.000409825,0.000541444,0.000714818,0.000943195,0.00124402,0.00164029,0.00216227,0.00284985,0.00375557,0.00494862,0.00652016,0.00859028,0.0113171,0.0149091,0.0196406,0.0258731,inf	12958.4,12958.4,8222.45,2804.47,1002.89,596.077,478.328,322.815,241.512,273.361,352.813,382.678,355.37,332.627,338.539,362.639,381.233,387.951,387.679,383.429,384.452,396.072,414.269,424.108,425.904,458.151,492.462,493.123,493.123,522.148,522.148,522.148
