0.000708962	-304242.80	0,4.2198e-05,9.1559e-05,0.000149299,0.000216841,0.000295847,0.000388265,0.000496371,0.000622828,0.000770751,0.000943784,0.00114619,0.00138295,0.00165991,0.00198387,0.00236283,0.00280612,0.00332466,0.00393122,0.00464074,0.00547071,0.00644155,0.00757721,0.00890563,0.0104596,0.0122773,0.0144035,0.0168907,0.0198001,0.0232034,0.0271844,0.0318411,inf	597.062,597.062,353.604,316.887,312.759,322.485,335.975,349.512,362.699,375.207,385.899,394.269,401.289,408.115,415.15,421.998,427.6,430.764,431.186,429.596,426.483,422.59,419.641,418.837,419.796,420.826,421.026,424.669,424.669,454.811,454.811,454.811
0.00079236	-304092.03	0,4.2198e-05,9.1559e-05,0.000149299,0.000216841,0.000295847,0.000388265,0.000496371,0.000622828,0.000770751,0.000943784,0.00114619,0.00138295,0.00165991,0.00198387,0.00236283,0.00280612,0.00332466,0.00393122,0.00464074,0.00547071,0.00644155,0.00757721,0.00890563,0.0104596,0.0122773,0.0144035,0.0168907,0.0198001,0.0232034,0.0271844,0.0318411,inf	729.049,729.049,325.03,276.852,275.042,291.558,312.399,332.427,351.417,368.901,382.98,393.017,401.064,409.524,419.414,430.162,439.748,445.763,447.38,445.554,440.904,434.755,430.278,429.658,432.266,434.972,436.219,445.287,445.287,511.926,511.926,511.926
0.00087105	-303984.33	0,4.2198e-05,9.1559e-05,0.000149299,0.000216841,0.000295847,0.000388265,0.000496371,0.000622828,0.000770751,0.000943784,0.00114619,0.00138295,0.00165991,0.00198387,0.00236283,0.00280612,0.00332466,0.00393122,0.00464074,0.00547071,0.00644155,0.00757721,0.00890563,0.0104596,0.0122773,0.0144035,0.0168907,0.0198001,0.0232034,0.0271844,0.0318411,inf	801.205,801.205,300.816,252.204,255.233,277.659,303.779,327.832,349.963,369.599,384.268,393.44,400.287,408.377,419.312,432.4,444.823,453.154,456.083,454.579,449.219,441.783,436.598,436.652,441.2,445.929,448.87,464.895,464.895,577.403,577.403,577.403
0.00094533	-303900.19	0,4.2198e-05,9.1559e-05,0.000149299,0.000216841,0.000295847,0.000388265,0.000496371,0.000622828,0.000770751,0.000943784,0.00114619,0.00138295,0.00165991,0.00198387,0.00236283,0.00280612,0.00332466,0.00393122,0.00464074,0.00547071,0.00644155,0.00757721,0.00890563,0.0104596,0.0122773,0.0144035,0.0168907,0.0198001,0.0232034,0.0271844,0.0318411,inf	835.846,835.846,279.592,235.174,243.778,271.516,301.834,328.689,352.676,373.122,387.099,394.335,399.109,406.028,417.17,431.714,446.171,456.307,460.416,459.405,453.751,445.589,440.151,441.091,447.655,454.58,459.723,484.058,484.058,656.656,656.656,656.656
0.00101559	-303831.71	0,4.2198e-05,9.1559e-05,0.000149299,0.000216841,0.000295847,0.000388265,0.000496371,0.000622828,0.000770751,0.000943784,0.00114619,0.00138295,0.00165991,0.00198387,0.00236283,0.00280612,0.00332466,0.00393122,0.00464074,0.00547071,0.00644155,0.00757721,0.00890563,0.0104596,0.0122773,0.0144035,0.0168907,0.0198001,0.0232034,0.0271844,0.0318411,inf	849.535,849.535,260.911,222.5,236.721,269.252,303.049,331.974,357.111,377.674,390.357,395.241,397.669,403.149,414.122,429.609,445.55,457.07,462.161,461.65,455.903,447.336,441.892,443.786,452.336,461.536,469.29,503.174,503.174,758.769,758.769,758.769
0.00108224	-303774.70	0,4.2198e-05,9.1559e-05,0.000149299,0.000216841,0.000295847,0.000388265,0.000496371,0.000622828,0.000770751,0.000943784,0.00114619,0.00138295,0.00165991,0.00198387,0.00236283,0.00280612,0.00332466,0.00393122,0.00464074,0.00547071,0.00644155,0.00757721,0.00890563,0.0104596,0.0122773,0.0144035,0.0168907,0.0198001,0.0232034,0.0271844,0.0318411,inf	853.569,853.569,244.802,212.882,232.487,269.349,306.074,336.555,362.391,382.666,393.753,396.142,396.186,400.175,410.807,426.92,443.955,456.525,462.396,462.318,456.563,447.771,442.444,445.284,455.74,467.239,477.944,522.561,522.561,902.13,902.13,902.13
0.00114559	-303726.57	0,4.2198e-05,9.1559e-05,0.000149299,0.000216841,0.000295847,0.000388265,0.000496371,0.000622828,0.000770751,0.000943784,0.00114619,0.00138295,0.00165991,0.00198387,0.00236283,0.00280612,0.00332466,0.00393122,0.00464074,0.00547071,0.00644155,0.00757721,0.00890563,0.0104596,0.0122773,0.0144035,0.0168907,0.0198001,0.0232034,0.0271844,0.0318411,inf	852.583,852.583,230.717,205.312,230.003,270.786,309.991,341.655,367.902,387.664,397.033,396.943,394.696,397.253,407.49,424.034,441.89,455.257,461.73,462.002,456.265,447.347,442.193,445.935,458.198,471.994,485.942,542.477,542.477,1134.78,1134.78,1134.78
0.00120592	-303685.49	0,4.2198e-05,9.1559e-05,0.000149299,0.000216841,0.000295847,0.000388265,0.000496371,0.000622828,0.000770751,0.000943784,0.00114619,0.00138295,0.00165991,0.00198387,0.00236283,0.00280612,0.00332466,0.00393122,0.00464074,0.00547071,0.00644155,0.00757721,0.00890563,0.0104596,0.0122773,0.0144035,0.0168907,0.0198001,0.0232034,0.0271844,0.0318411,inf	849.156,849.156,218.283,199.209,228.68,273.012,314.319,346.878,373.344,392.47,400.096,397.619,393.227,394.46,404.299,421.154,439.636,453.608,460.534,461.07,455.349,446.356,441.393,445.981,459.947,476.024,493.472,563.159,563.159,1656.18,1656.18,1656.18
0.00126346	-303650.14	0,4.2198e-05,9.1559e-05,0.000149299,0.000216841,0.000295847,0.000388265,0.000496371,0.000622828,0.000770751,0.000943784,0.00114619,0.00138295,0.00165991,0.00198387,0.00236283,0.00280612,0.00332466,0.00393122,0.00464074,0.00547071,0.00644155,0.00757721,0.00890563,0.0104596,0.0122773,0.0144035,0.0168907,0.0198001,0.0232034,0.0271844,0.0318411,inf	844.658,844.658,207.219,194.212,228.17,275.715,318.793,352.018,378.569,396.997,402.908,398.17,391.797,391.826,401.295,418.382,437.35,451.778,459.036,459.755,454.035,444.989,440.215,445.585,461.155,479.493,500.68,584.854,584.854,4482.66,4482.66,4482.66
0.00126346	-303619.49	0,4.2198e-05,9.1559e-05,0.000149299,0.000216841,0.000295847,0.000388265,0.000496371,0.000622828,0.000770751,0.000943784,0.00114619,0.00138295,0.00165991,0.00198387,0.00236283,0.00280612,0.00332466,0.00393122,0.00464074,0.00547071,0.00644155,0.00757721,0.00890563,0.0104596,0.0122773,0.0144035,0.0168907,0.0198001,0.0232034,0.0271844,0.0318411,inf	827.816,827.816,194.64,187.513,225.146,274.862,318.754,351.948,378.093,395.56,399.848,393.262,385.418,384.637,393.931,411.3,430.79,445.823,453.683,454.917,449.569,440.835,436.511,442.789,459.999,480.726,506.062,606.33,606.33,83081.9,83081.9,83081.9
0.00126346	-303617.29	0,4.2198e-05,9.1559e-05,0.000149299,0.000216841,0.000295847,0.000388265,0.000496371,0.000622828,0.000770751,0.000943784,0.00114619,0.00138295,0.00165991,0.00198387,0.00236283,0.00280612,0.00332466,0.00393122,0.00464074,0.00547071,0.00644155,0.00757721,0.00890563,0.0104596,0.0122773,0.0144035,0.0168907,0.0198001,0.0232034,0.0271844,0.0318411,inf	827.993,827.993,185.751,183.148,224.108,276.009,320.867,354.256,380.107,395.56,399.848,391.577,382.203,380.506,389.5,406.997,426.812,442.2,450.375,451.83,446.572,437.885,433.745,440.76,459.47,482.551,512.352,607.9,607.9,83081.9,83081.9,83081.9
0.00126346	-303616.49	0,4.2198e-05,9.1559e-05,0.000149299,0.000216841,0.000295847,0.000388265,0.000496371,0.000622828,0.000770751,0.000943784,0.00114619,0.00138295,0.00165991,0.00198387,0.00236283,0.00280612,0.00332466,0.00393122,0.00464074,0.00547071,0.00644155,0.00757721,0.00890563,0.0104596,0.0122773,0.0144035,0.0168907,0.0198001,0.0232034,0.0271844,0.0318411,inf	828.048,828.048,178.001,179.306,223.225,277.181,320.867,356.824,380.124,397.532,399.848,391.231,380.449,377.901,386.617,404.228,424.312,439.952,448.302,449.821,444.491,435.658,431.607,439.232,459.354,484.788,518.282,607.9,607.9,83081.9,83081.9,83081.9
0.00126346	-303616.16	0,4.2198e-05,9.1559e-05,0.000149299,0.000216841,0.000295847,0.000388265,0.000496371,0.000622828,0.000770751,0.000943784,0.00114619,0.00138295,0.00165991,0.00198387,0.00236283,0.00280612,0.00332466,0.00393122,0.00464074,0.00547071,0.00644155,0.00757721,0.00890563,0.0104596,0.0122773,0.0144035,0.0168907,0.0198001,0.0232034,0.0271844,0.0318411,inf	828.147,828.147,171.299,175.977,222.61,278.466,320.867,359.499,381.5,397.532,399.848,391.231,379.497,376.169,384.648,402.388,422.724,438.565,447.013,448.505,442.974,433.94,429.897,438.034,459.519,487.355,521.442,607.9,607.9,83081.9,83081.9,83081.9
0.00126346	-303616.01	0,4.2198e-05,9.1559e-05,0.000149299,0.000216841,0.000295847,0.000388265,0.000496371,0.000622828,0.000770751,0.000943784,0.00114619,0.00138295,0.00165991,0.00198387,0.00236283,0.00280612,0.00332466,0.00393122,0.00464074,0.00547071,0.00644155,0.00757721,0.00890563,0.0104596,0.0122773,0.0144035,0.0168907,0.0198001,0.0232034,0.0271844,0.0318411,inf	828.246,828.246,165.414,173.043,222.155,279.755,323.033,361.242,381.5,397.532,399.848,391.231,379.039,374.987,383.263,401.145,421.729,437.732,446.242,447.652,441.882,432.568,428.46,437.066,459.921,487.362,525.119,607.9,607.9,83081.9,83081.9,83081.9
0.00126346	-303615.94	0,4.2198e-05,9.1559e-05,0.000149299,0.000216841,0.000295847,0.000388265,0.000496371,0.000622828,0.000770751,0.000943784,0.00114619,0.00138295,0.00165991,0.00198387,0.00236283,0.00280612,0.00332466,0.00393122,0.00464074,0.00547071,0.00644155,0.00757721,0.00890563,0.0104596,0.0122773,0.0144035,0.0168907,0.0198001,0.0232034,0.0271844,0.0318411,inf	828.246,828.246,160.168,170.443,221.844,280.994,325.068,362.723,381.5,397.532,399.848,391.231,378.906,374.167,382.262,400.298,421.125,437.285,445.82,447.097,441.058,431.458,427.227,436.264,460.475,487.371,527.661,607.9,607.9,83081.9,83081.9,83081.9
0.00126346	-303615.91	0,4.2198e-05,9.1559e-05,0.000149299,0.000216841,0.000295847,0.000388265,0.000496371,0.000622828,0.000770751,0.000943784,0.00114619,0.00138295,0.00165991,0.00198387,0.00236283,0.00280612,0.00332466,0.00393122,0.00464074,0.00547071,0.00644155,0.00757721,0.00890563,0.0104596,0.0122773,0.0144035,0.0168907,0.0198001,0.0232034,0.0271844,0.0318411,inf	828.519,828.519,155.449,168.024,221.488,282.105,326.951,363.971,381.5,397.532,399.848,391.231,378.906,373.571,381.505,399.704,420.776,437.085,445.631,446.763,440.431,430.503,426.141,435.58,461.143,487.38,529.439,607.9,607.9,83081.9,83081.9,83081.9
0.00126346	-303615.90	0,4.2198e-05,9.1559e-05,0.000149299,0.000216841,0.000295847,0.000388265,0.000496371,0.000622828,0.000770751,0.000943784,0.00114619,0.00138295,0.00165991,0.00198387,0.00236283,0.00280612,0.00332466,0.00393122,0.00464074,0.00547071,0.00644155,0.00757721,0.00890563,0.0104596,0.0122773,0.0144035,0.0168907,0.0198001,0.0232034,0.0271844,0.0318411,inf	828.548,828.548,151.197,165.824,221.176,283.134,328.693,365.041,381.5,397.532,399.848,391.231,378.906,373.116,380.905,399.276,420.594,437.049,445.597,446.575,439.944,429.671,425.16,434.985,461.9,487.39,530.688,607.9,607.9,83081.9,83081.9,83081.9
0.00126346	-303615.89	0,4.2198e-05,9.1559e-05,0.000149299,0.000216841,0.000295847,0.000388265,0.000496371,0.000622828,0.000770751,0.000943784,0.00114619,0.00138295,0.00165991,0.00198387,0.00236283,0.00280612,0.00332466,0.00393122,0.00464074,0.00547071,0.00644155,0.00757721,0.00890563,0.0104596,0.0122773,0.0144035,0.0168907,0.0198001,0.0232034,0.0271844,0.0318411,inf	828.647,828.647,147.363,163.823,220.907,284.089,330.306,365.952,381.5,397.532,399.848,391.231,378.906,372.755,380.411,398.958,420.524,437.124,445.666,446.491,439.553,428.936,424.259,434.456,462.729,487.401,531.557,607.9,607.9,83081.9,83081.9,83081.9
0.00126346	-303615.90	0,4.2198e-05,9.1559e-05,0.000149299,0.000216841,0.000295847,0.000388265,0.000496371,0.000622828,0.000770751,0.000943784,0.00114619,0.00138295,0.00165991,0.00198387,0.00236283,0.00280612,0.00332466,0.00393122,0.00464074,0.00547071,0.00644155,0.00757721,0.00890563,0.0104596,0.0122773,0.0144035,0.0168907,0.0198001,0.0232034,0.0271844,0.0318411,inf	828.702,828.702,143.893,161.999,220.677,284.975,331.796,365.952,382.167,397.532,399.848,391.231,378.906,372.456,379.987,398.715,420.53,437.273,445.813,446.481,439.234,428.262,423.418,433.977,463.609,488.113,531.557,607.9,607.9,83081.9,83081.9,83081.9
0.00126346	-303615.90	0,4.2198e-05,9.1559e-05,0.000149299,0.000216841,0.000295847,0.000388265,0.000496371,0.000622828,0.000770751,0.000943784,0.00114619,0.00138295,0.00165991,0.00198387,0.00236283,0.00280612,0.00332466,0.00393122,0.00464074,0.00547071,0.00644155,0.00757721,0.00890563,0.0104596,0.0122773,0.0144035,0.0168907,0.0198001,0.0232034,0.0271844,0.0318411,inf	828.73,828.73,140.752,160.343,220.496,285.813,331.796,367.771,382.167,397.532,399.848,391.231,378.906,372.206,379.612,398.518,420.583,437.469,446.005,446.515,438.965,427.639,422.622,433.554,464.546,488.574,531.557,607.9,607.9,83081.9,83081.9,83081.9
