5.14901e-05	-38327.69	0,3.84689e-06,8.3468e-06,1.36106e-05,1.97678e-05,2.69703e-05,3.53954e-05,4.52507e-05,5.67789e-05,7.0264e-05,8.60382e-05,0.00010449,0.000126074,0.000151322,0.000180856,0.000215403,0.000255815,0.000303086,0.000358382,0.000423064,0.000498726,0.000587232,0.000690761,0.000811865,0.000953526,0.00111923,0.00131307,0.00153981,0.00180504,0.00211529,0.00247821,0.00290273,inf	1422.12,1422.12,3108.28,4295.89,5106.66,4754.49,4316.42,4287.76,4436.01,4520.81,4555.35,4564.14,4517.26,4470.2,4517.67,4676.66,4878.03,5004.8,4995.38,4913.39,4798.56,4637.46,4458.78,4331.09,4447.65,4786.46,4994.88,5082.78,5082.78,5041.39,5041.39,5041.39
4.65914e-05	-38317.48	0,3.84689e-06,8.3468e-06,1.36106e-05,1.97678e-05,2.69703e-05,3.53954e-05,4.52507e-05,5.67789e-05,7.0264e-05,8.60382e-05,0.00010449,0.000126074,0.000151322,0.000180856,0.000215403,0.000255815,0.000303086,0.000358382,0.000423064,0.000498726,0.000587232,0.000690761,0.000811865,0.000953526,0.00111923,0.00131307,0.00153981,0.00180504,0.00211529,0.00247821,0.00290273,inf	477.532,477.532,2257.22,4153.41,5812.16,5102.56,4185.15,4106.89,4392.27,4558.25,4624.05,4640.11,4526.18,4393.91,4452.33,4754.06,5182.53,5484.22,5469.67,5279.18,5039.53,4729.2,4407.16,4189.76,4463.69,5270.98,5783.32,5997.74,5997.74,5884.87,5884.87,5884.87
4.2148e-05	-38309.82	0,3.84689e-06,8.3468e-06,1.36106e-05,1.97678e-05,2.69703e-05,3.53954e-05,4.52507e-05,5.67789e-05,7.0264e-05,8.60382e-05,0.00010449,0.000126074,0.000151322,0.000180856,0.000215403,0.000255815,0.000303086,0.000358382,0.000423064,0.000498726,0.000587232,0.000690761,0.000811865,0.000953526,0.00111923,0.00131307,0.00153981,0.00180504,0.00211529,0.00247821,0.00290273,inf	158.661,158.661,1628.3,3921.1,6466.68,5479.18,4061.43,3922.34,4340.54,4589.57,4690.72,4724.63,4530.08,4276.32,4309.91,4727.26,5386.96,5897.98,5867.73,5527.84,5158.81,4723.74,4300.57,4027.89,4476.4,5914.69,6894.83,7302.97,7302.97,7054.51,7054.51,7054.51
3.82338e-05	-38303.71	0,3.84689e-06,8.3468e-06,1.36106e-05,1.97678e-05,2.69703e-05,3.53954e-05,4.52507e-05,5.67789e-05,7.0264e-05,8.60382e-05,0.00010449,0.000126074,0.000151322,0.000180856,0.000215403,0.000255815,0.000303086,0.000358382,0.000423064,0.000498726,0.000587232,0.000690761,0.000811865,0.000953526,0.00111923,0.00131307,0.00153981,0.00180504,0.00211529,0.00247821,0.00290273,inf	51.4872,51.4872,1157.25,3611.95,7032.32,5895,3956.1,3744.28,4290.49,4624.64,4769.04,4843.98,4564.12,4155.12,4133.82,4640.32,5526.9,6277.44,6211.39,5674.55,5183.81,4655.79,4169.01,3867.97,4491.75,6792.95,8577.05,9333.56,9333.56,8809.31,8809.31,8809.31
3.48571e-05	-38298.80	0,3.84689e-06,8.3468e-06,1.36106e-05,1.97678e-05,2.69703e-05,3.53954e-05,4.52507e-05,5.67789e-05,7.0264e-05,8.60382e-05,0.00010449,0.000126074,0.000151322,0.000180856,0.000215403,0.000255815,0.000303086,0.000358382,0.000423064,0.000498726,0.000587232,0.000690761,0.000811865,0.000953526,0.00111923,0.00131307,0.00153981,0.00180504,0.00211529,0.00247821,0.00290273,inf	16.2956,16.2956,810.17,3256.94,7485.57,6355.69,3870.9,3572.98,4238.98,4656.68,4851,5000.5,4640.45,4043.93,3943.8,4516.6,5621.96,6642.07,6513.17,5732.31,5142.8,4555.01,4031.06,3720.75,4510.87,8045.84,11482.1,13091.7,13091.7,11922.3,11922.3,11922.3
3.19932e-05	-38294.91	0,3.84689e-06,8.3468e-06,1.36106e-05,1.97678e-05,2.69703e-05,3.53954e-05,4.52507e-05,5.67789e-05,7.0264e-05,8.60382e-05,0.00010449,0.000126074,0.000151322,0.000180856,0.000215403,0.000255815,0.000303086,0.000358382,0.000423064,0.000498726,0.000587232,0.000690761,0.000811865,0.000953526,0.00111923,0.00131307,0.00153981,0.00180504,0.00211529,0.00247821,0.00290273,inf	5.04807,5.04807,560.657,2889.98,7824.55,6871.16,3808.8,3410.97,4185.82,4679.88,4924.92,5188.25,4763.24,3946.96,3749.49,4369.74,5683.41,7004.09,6779.04,5713.64,5062.1,4444.42,3896.97,3589.77,4533.34,9977.58,18034.9,23357.3,23357.3,20416.5,20416.5,20416.5
2.95946e-05	-38291.91	0,3.84689e-06,8.3468e-06,1.36106e-05,1.97678e-05,2.69703e-05,3.53954e-05,4.52507e-05,5.67789e-05,7.0264e-05,8.60382e-05,0.00010449,0.000126074,0.000151322,0.000180856,0.000215403,0.000255815,0.000303086,0.000358382,0.000423064,0.000498726,0.000587232,0.000690761,0.000811865,0.000953526,0.00111923,0.00131307,0.00153981,0.00180504,0.00211529,0.00247821,0.00290273,inf	4.41265,4.41265,383.41,2525.79,8027.64,7426.14,3761.86,3254.05,4125.91,4684.35,4973.82,5391.69,4929.04,3861.97,3554.53,4207.37,5716.94,7369.51,7008.96,5630.5,4962.65,4339.13,3770.7,3474.02,4560.12,13404.8,43732,100116,100116,106067,106067,106067
2.76086e-05	-38289.66	0,3.84689e-06,8.3468e-06,1.36106e-05,1.97678e-05,2.69703e-05,3.53954e-05,4.52507e-05,5.67789e-05,7.0264e-05,8.60382e-05,0.00010449,0.000126074,0.000151322,0.000180856,0.000215403,0.000255815,0.000303086,0.000358382,0.000423064,0.000498726,0.000587232,0.000690761,0.000811865,0.000953526,0.00111923,0.00131307,0.00153981,0.00180504,0.00211529,0.00247821,0.00290273,inf	4.41265,4.41265,259.917,2182.33,8104.37,8019.63,3729.74,3105.33,4063.43,4670.93,4990.44,5598.55,5135.86,3787.06,3361.97,4035.99,5727.42,7742.75,7201.21,5496.38,4860.32,4248.13,3652.93,3370.9,4600.61,21423.7,891749,896236,896236,826.931,826.931,826.931
