6.88585e-06	-5719.04	0,9.97364e-07,2.36207e-06,4.22942e-06,6.78455e-06,1.02808e-05,1.50647e-05,2.16106e-05,3.05675e-05,4.28233e-05,5.95931e-05,8.25395e-05,0.000113937,0.0001569,0.000215685,0.000296123,inf	70271.8,70271.8,22964.3,23633.1,31424.3,33657.8,31509.4,34700.6,41695.5,40363.5,34692.7,39723.2,50975.8,48640.5,48640.5,48640.5
7.0162e-06	-5717.95	0,9.97364e-07,2.36207e-06,4.22942e-06,6.78455e-06,1.02808e-05,1.50647e-05,2.16106e-05,3.05675e-05,4.28233e-05,5.95931e-05,8.25395e-05,0.000113937,0.0001569,0.000215685,0.000296123,inf	87766.6,87766.6,13453.3,17718,30830.9,33736.6,28790.7,33205.9,44936.3,42485,31815.5,41583.5,73154.1,68747,68747,68747
7.12757e-06	-5717.47	0,9.97364e-07,2.36207e-06,4.22942e-06,6.78455e-06,1.02808e-05,1.50647e-05,2.16106e-05,3.05675e-05,4.28233e-05,5.95931e-05,8.25395e-05,0.000113937,0.0001569,0.000215685,0.000296123,inf	94608.5,94608.5,7951.94,14290.6,31842,34740.3,26974.6,32069.1,47127.6,43812.2,28883.4,42875.1,121140,121558,121558,121558
7.22067e-06	-5717.19	0,9.97364e-07,2.36207e-06,4.22942e-06,6.78455e-06,1.02808e-05,1.50647e-05,2.16106e-05,3.05675e-05,4.28233e-05,5.95931e-05,8.25395e-05,0.000113937,0.0001569,0.000215685,0.000296123,inf	97332.3,97332.3,4779.93,11905.3,33389.5,35912.5,25574.2,31197.9,48646.6,44668.4,26137,43908.3,343050,589731,589731,589731
7.22067e-06	-5717.03	0,9.97364e-07,2.36207e-06,4.22942e-06,6.78455e-06,1.02808e-05,1.50647e-05,2.16106e-05,3.05675e-05,4.28233e-05,5.95931e-05,8.25395e-05,0.000113937,0.0001569,0.000215685,0.000296123,inf	98149.8,98149.8,2903.26,10029.7,34917.7,36844.9,24356.6,30451.8,49564.6,45134.8,23630.3,44895.2,1.49164e+07,589705,589705,589705
7.30291e-06	-5716.94	0,9.97364e-07,2.36207e-06,4.22942e-06,6.78455e-06,1.02808e-05,1.50647e-05,2.16106e-05,3.05675e-05,4.28233e-05,5.95931e-05,8.25395e-05,0.000113937,0.0001569,0.000215685,0.000296123,inf	99450,99450,1780.6,8506.42,36609.8,37848.2,23394,29955.1,50498.9,45678.6,21444,46082.6,1.68278e+07,4597.54,4597.54,4597.54
