time_index	left_time_boundary	right_time_boundary	lambda
0	0	3.77325e-06	5240.67
1	3.77325e-06	1.03204e-05	5240.67
2	1.03204e-05	2.16806e-05	466.798
3	2.16806e-05	4.13922e-05	278.327
4	4.13922e-05	7.55947e-05	398.763
5	7.55947e-05	0.000134941	368.946
6	0.000134941	0.000237915	388.338
7	0.000237915	0.00041659	386.131
8	0.00041659	0.000726617	384.496
9	0.000726617	0.00126456	434.014
10	0.00126456	0.00219797	418.174
11	0.00219797	0.00381756	357.863
12	0.00381756	0.00662779	406.647
13	0.00662779	0.0115039	384.902
14	0.0115039	0.0199648	384.902
15	0.0199648	inf	384.902
