time_index	left_time_boundary	right_time_boundary	lambda
0	0	6.55537e-05	592.354
1	6.55537e-05	0.000155252	592.354
2	0.000155252	0.000277987	234.705
3	0.000277987	0.000445927	338.337
4	0.000445927	0.000675723	398.168
5	0.000675723	0.000990155	404.688
6	0.000990155	0.0014204	384.351
7	0.0014204	0.0020091	404.004
8	0.0020091	0.00281464	403.055
9	0.00281464	0.00391687	352.958
10	0.00391687	0.00542507	397.089
11	0.00542507	0.00748875	441.907
12	0.00748875	0.0103125	284.971
13	0.0103125	0.0141763	340.957
14	0.0141763	0.0194632	340.957
15	0.0194632	inf	340.957
