LogLikelihood = -132890.10365830356022

y0 0.28992691007791082658
y0_prime 0
y1 0.3289825591921896053
y1_prime 0
y2 2.2219945161925078736
y2_prime 0
y3 19.565784456475661557
y3_prime 0
rho 7.1343547673812873983e-05
theta 0.0018363224031333182183
