LogLikelihood = -285641.13089496095199

y0 0.90107632777592638895
y0_prime 0
y1 0.90810012791831107304
y1_prime 0
y2 0.94750302446645229271
y2_prime 0
y3 1.5728206488039022659
y3_prime 0
rho 0.00072175269283269929011
theta 0.0047401560894832486456
