LogLikelihood = -1372469.4973307503387

y0 0.85156989251115577932
y0_prime 0
y1 0.90648487541507882792
y1_prime 0
y2 0.90761238839544011725
y2_prime 0
y3 1.4913751721123520433
y3_prime 0
rho 0.00068135187643497859
theta 0.0045478513907207156544
