time_index	left_time_boundary	right_time_boundary	lambda
0	0	3.72617e-06	6478.91
1	3.72617e-06	1.01916e-05	6478.91
2	1.01916e-05	2.14101e-05	100.936
3	2.14101e-05	4.08757e-05	107.429
4	4.08757e-05	7.46514e-05	213.284
5	7.46514e-05	0.000133257	438.722
6	0.000133257	0.000234946	389.601
7	0.000234946	0.000411392	358.229
8	0.000411392	0.00071755	354.436
9	0.00071755	0.00124878	393.543
10	0.00124878	0.00217054	417.974
11	0.00217054	0.00376992	411.364
12	0.00376992	0.00654508	348.221
13	0.00654508	0.0113604	432.491
14	0.0113604	0.0197156	432.491
15	0.0197156	inf	432.491
