LogLikelihood = -173479.9764522878686

y0 0.97157694986985276842
y0_prime 0
y1 1.0931160162293551696
y1_prime 0
y2 0.86514647872632743919
y2_prime 0
y3 1.7728250508191381041
y3_prime 0
rho 0.0031019253337007230385
rho.alpha 1.3699286921927664729
r_ii 1
theta 0.0025118439000426941686
