LogLikelihood = -175569.24617673034663

y0 0.63558448958290836295
y0_prime 0
y1 0.79720583553405099941
y1_prime 0
y2 0.9455556357530426892
y2_prime 0
y3 1.5801192874518990017
y3_prime 0
rho 0.0010250491740874017113
rho.alpha 0.17900733578850624994
r_ii 0.99984136578790816507
theta 0.0025977442011066464479
