LogLikelihood = -657600.30453901528381

y0 0.20812733607340638819
y0_prime 0
y1 0.27115431119591509868
y1_prime 0
y2 2.2075349699160344841
y2_prime 0
y3 22.163908473133044907
y3_prime 0
rho 0.00034760452467211212704
theta 0.0018086379522957440891
