LogLikelihood = -209541.72558559564641

y0 0.58527512707737139319
y0_prime 0
y1 1.038956422153248349
y1_prime 0
y2 1.1001955214566734309
y2_prime 0
y3 1.7810817073087363838
y3_prime 0
rho 0.00039013897620793176269
theta 0.00049357224059156669903
