0.000685217	-3026596.08	0,9.18983e-05,0.000217644,0.000389704,0.000625136,0.000947282,0.00138808,0.00199123,0.00281652,0.00394579,0.00549098,0.00760529,0.0104983,0.0144569,0.0198735,0.0272851,inf	394.537,394.537,390.229,392.857,393.208,397.038,403.563,409.1,409.443,404.767,398.443,395.676,399.466,437.187,437.187,437.187
0.000740245	-3026011.86	0,9.18983e-05,0.000217644,0.000389704,0.000625136,0.000947282,0.00138808,0.00199123,0.00281652,0.00394579,0.00549098,0.00760529,0.0104983,0.0144569,0.0198735,0.0272851,inf	394.122,394.122,387.51,391.575,390.319,394.99,404.682,413.594,414.13,406.145,395.077,390.182,397.511,474.937,474.937,474.937
0.000789748	-3025579.45	0,9.18983e-05,0.000217644,0.000389704,0.000625136,0.000947282,0.00138808,0.00199123,0.00281652,0.00394579,0.00549098,0.00760529,0.0104983,0.0144569,0.0198735,0.0272851,inf	394.129,394.129,387.252,392.663,389.341,393.708,404.981,416.106,416.753,406.302,391.475,384.801,395.389,515.473,515.473,515.473
0.000834482	-3025250.59	0,9.18983e-05,0.000217644,0.000389704,0.000625136,0.000947282,0.00138808,0.00199123,0.00281652,0.00394579,0.00549098,0.00760529,0.0104983,0.0144569,0.0198735,0.0272851,inf	393.667,393.667,387.845,394.666,389.264,392.865,404.892,417.553,418.269,405.904,387.97,379.712,393.3,560.453,560.453,560.453
0.000875059	-3024995.87	0,9.18983e-05,0.000217644,0.000389704,0.000625136,0.000947282,0.00138808,0.00199123,0.00281652,0.00394579,0.00549098,0.00760529,0.0104983,0.0144569,0.0198735,0.0272851,inf	392.816,392.816,388.738,396.997,389.631,392.293,404.618,418.402,419.17,405.276,384.688,374.957,391.325,612.128,612.128,612.128
0.000911978	-3024795.84	0,9.18983e-05,0.000217644,0.000389704,0.000625136,0.000947282,0.00138808,0.00199123,0.00281652,0.00394579,0.00549098,0.00760529,0.0104983,0.0144569,0.0198735,0.0272851,inf	391.781,391.781,389.722,399.389,390.212,391.892,404.254,418.897,419.719,404.578,381.661,370.521,389.493,674,674,674
0.000945654	-3024637.04	0,9.18983e-05,0.000217644,0.000389704,0.000625136,0.000947282,0.00138808,0.00199123,0.00281652,0.00394579,0.00549098,0.00760529,0.0104983,0.0144569,0.0198735,0.0272851,inf	390.72,390.72,390.712,401.716,390.882,391.6,403.847,419.174,420.063,403.886,378.882,366.366,387.807,752.236,752.236,752.236
0.000976436	-3024509.90	0,9.18983e-05,0.000217644,0.000389704,0.000625136,0.000947282,0.00138808,0.00199123,0.00281652,0.00394579,0.00549098,0.00760529,0.0104983,0.0144569,0.0198735,0.0272851,inf	389.721,389.721,391.671,403.922,391.575,391.378,403.42,419.313,420.283,403.234,376.327,362.446,386.266,859.558,859.558,859.558
0.00100462	-3024407.51	0,9.18983e-05,0.000217644,0.000389704,0.000625136,0.000947282,0.00138808,0.00199123,0.00281652,0.00394579,0.00549098,0.00760529,0.0104983,0.0144569,0.0198735,0.0272851,inf	388.828,388.828,392.58,405.981,392.254,391.201,402.986,419.361,420.427,402.635,373.962,358.709,384.867,1029.38,1029.38,1029.38
0.00103045	-3024324.89	0,9.18983e-05,0.000217644,0.000389704,0.000625136,0.000947282,0.00138808,0.00199123,0.00281652,0.00394579,0.00549098,0.00760529,0.0104983,0.0144569,0.0198735,0.0272851,inf	388.052,388.052,393.435,407.889,392.901,391.054,402.551,419.346,420.524,402.084,371.744,355.093,383.608,1401.55,1401.55,1401.55
0.00105414	-3024258.92	0,9.18983e-05,0.000217644,0.000389704,0.000625136,0.000947282,0.00138808,0.00199123,0.00281652,0.00394579,0.00549098,0.00760529,0.0104983,0.0144569,0.0198735,0.0272851,inf	387.392,387.392,394.231,409.646,393.506,390.926,402.119,419.286,420.583,401.56,369.601,351.493,382.504,3421.32,3421.32,3421.32
0.00105414	-3024208.95	0,9.18983e-05,0.000217644,0.000389704,0.000625136,0.000947282,0.00138808,0.00199123,0.00281652,0.00394579,0.00549098,0.00760529,0.0104983,0.0144569,0.0198735,0.0272851,inf	384.32,384.32,392.385,408.484,391.447,388.298,399.211,416.618,418.385,399.049,365.822,346.55,380.64,56480.2,56480.2,56480.2
0.00105414	-3024210.30	0,9.18983e-05,0.000217644,0.000389704,0.000625136,0.000947282,0.00138808,0.00199123,0.00281652,0.00394579,0.00549098,0.00760529,0.0104983,0.0144569,0.0198735,0.0272851,inf	383.322,383.322,392.26,409.128,391.186,387.428,397.976,415.558,417.482,397.661,362.92,342.168,379.384,56482.4,56482.4,56482.4
0.00105414	-3024208.83	0,9.18983e-05,0.000217644,0.000389704,0.000625136,0.000947282,0.00138808,0.00199123,0.00281652,0.00394579,0.00549098,0.00760529,0.0104983,0.0144569,0.0198735,0.0272851,inf	382.668,382.668,392.221,409.635,391.186,387.111,397.388,415.243,417.338,397.075,360.778,338.433,378.463,56484,56484,56484
0.00105414	-3024208.47	0,9.18983e-05,0.000217644,0.000389704,0.000625136,0.000947282,0.00138808,0.00199123,0.00281652,0.00394579,0.00549098,0.00760529,0.0104983,0.0144569,0.0198735,0.0272851,inf	382.228,382.228,392.175,409.992,391.186,386.981,397.044,415.252,417.566,396.965,359.146,335.165,377.792,56485.3,56485.3,56485.3
0.00105414	-3024208.46	0,9.18983e-05,0.000217644,0.000389704,0.000625136,0.000947282,0.00138808,0.00199123,0.00281652,0.00394579,0.00549098,0.00760529,0.0104983,0.0144569,0.0198735,0.0272851,inf	381.949,381.949,392.123,410.234,391.186,386.91,396.784,415.38,417.639,396.965,357.885,332.251,377.317,56486.3,56486.3,56486.3
0.00105414	-3024208.59	0,9.18983e-05,0.000217644,0.000389704,0.000625136,0.000947282,0.00138808,0.00199123,0.00281652,0.00394579,0.00549098,0.00760529,0.0104983,0.0144569,0.0198735,0.0272851,inf	381.774,381.774,392.068,410.403,391.186,386.874,396.574,415.552,417.64,396.965,356.93,329.631,377.008,56487.1,56487.1,56487.1
0.00105414	-3024208.79	0,9.18983e-05,0.000217644,0.000389704,0.000625136,0.000947282,0.00138808,0.00199123,0.00281652,0.00394579,0.00549098,0.00760529,0.0104983,0.0144569,0.0198735,0.0272851,inf	381.666,381.666,392.011,410.524,391.186,386.857,396.399,415.689,417.64,396.965,356.233,327.26,376.839,56487.8,56487.8,56487.8
0.00105414	-3024209.01	0,9.18983e-05,0.000217644,0.000389704,0.000625136,0.000947282,0.00138808,0.00199123,0.00281652,0.00394579,0.00549098,0.00760529,0.0104983,0.0144569,0.0198735,0.0272851,inf	381.602,381.602,391.954,410.613,391.186,386.857,396.249,415.798,417.64,396.965,355.753,325.098,376.791,56488.4,56488.4,56488.4
0.00105414	-3024209.23	0,9.18983e-05,0.000217644,0.000389704,0.000625136,0.000947282,0.00138808,0.00199123,0.00281652,0.00394579,0.00549098,0.00760529,0.0104983,0.0144569,0.0198735,0.0272851,inf	381.564,381.564,391.899,410.613,391.236,386.857,396.122,415.891,417.64,396.965,355.453,323.111,376.847,56488.9,56488.9,56488.9
