time_index	left_time_boundary	right_time_boundary	lambda
0	0	1.03307e-05	366.645
1	1.03307e-05	2.70666e-05	366.645
2	2.70666e-05	5.41795e-05	389.492
3	5.41795e-05	9.81031e-05	480.056
4	9.81031e-05	0.000169261	420.941
5	0.000169261	0.000284538	403.35
6	0.000284538	0.000471292	395.592
7	0.000471292	0.000773838	400.859
8	0.000773838	0.00126397	397.975
9	0.00126397	0.00205801	403.725
10	0.00205801	0.00334437	400.417
11	0.00334437	0.00542831	399.862
12	0.00542831	0.00880436	362.982
13	0.00880436	0.0142737	413.098
14	0.0142737	0.0231341	413.098
15	0.0231341	inf	413.098
