time_index	left_time_boundary	right_time_boundary	lambda
0	0	4.54533e-06	94.0626
1	4.54533e-06	1.03307e-05	94.0626
2	1.03307e-05	1.76942e-05	758.006
3	1.76942e-05	2.70666e-05	260.758
4	2.70666e-05	3.89959e-05	283.313
5	3.89959e-05	5.41795e-05	432.4
6	5.41795e-05	7.35052e-05	489.81
7	7.35052e-05	9.81031e-05	458.796
8	9.81031e-05	0.000129411	429.174
9	0.000129411	0.000169261	408.778
10	0.000169261	0.000219981	399.536
11	0.000219981	0.000284538	396.809
12	0.000284538	0.000366707	391.369
13	0.000366707	0.000471292	388.949
14	0.000471292	0.000604408	392.168
15	0.000604408	0.000773838	394.761
16	0.000773838	0.00098949	395.547
17	0.00098949	0.00126397	397.183
18	0.00126397	0.00161334	399.957
19	0.00161334	0.00205801	402.012
20	0.00205801	0.00262399	402.97
21	0.00262399	0.00334437	404.076
22	0.00334437	0.00426127	406.453
23	0.00426127	0.00542831	405.468
24	0.00542831	0.00691372	392.275
25	0.00691372	0.00880436	375.145
26	0.00880436	0.0112108	371.388
27	0.0112108	0.0142737	414.816
28	0.0142737	0.0181721	414.816
29	0.0181721	0.0231341	375.805
30	0.0231341	0.0294498	375.805
31	0.0294498	inf	375.805
