0.000660916	-307516.73	0,9.31845e-05,0.00022069,0.000395158,0.000633885,0.000960539,0.0014075,0.00201909,0.00285594,0.00400101,0.00556783,0.00771172,0.0106453,0.0146592,0.0201516,0.027667,inf	284.221,284.221,338.188,339.462,359.224,377.944,398.471,417.868,424.138,418.132,411.163,400.091,373.399,401.976,401.976,401.976
0.000686444	-307487.03	0,9.31845e-05,0.00022069,0.000395158,0.000633885,0.000960539,0.0014075,0.00201909,0.00285594,0.00400101,0.00556783,0.00771172,0.0106453,0.0146592,0.0201516,0.027667,inf	251.018,251.018,330.946,320.774,346.264,370.095,399.171,430.121,441.007,431.135,420.665,401.766,353.409,405.688,405.688,405.688
0.000708934	-307473.20	0,9.31845e-05,0.00022069,0.000395158,0.000633885,0.000960539,0.0014075,0.00201909,0.00285594,0.00400101,0.00556783,0.00771172,0.0106453,0.0146592,0.0201516,0.027667,inf	237.342,237.342,336.62,312.911,340.739,365.413,398.223,436.638,450.847,438.289,426.37,401.895,335.891,406.881,406.881,406.881
0.000728985	-307464.21	0,9.31845e-05,0.00022069,0.000395158,0.000633885,0.000960539,0.0014075,0.00201909,0.00285594,0.00400101,0.00556783,0.00771172,0.0106453,0.0146592,0.0201516,0.027667,inf	229.685,229.685,345.461,308.838,338.345,362.387,396.681,440.183,456.699,442.091,429.924,401.447,320.866,406.191,406.191,406.191
0.000747087	-307457.48	0,9.31845e-05,0.00022069,0.000395158,0.000633885,0.000960539,0.0014075,0.00201909,0.00285594,0.00400101,0.00556783,0.00771172,0.0106453,0.0146592,0.0201516,0.027667,inf	224.204,224.204,354.384,306.204,337.51,360.441,395.072,442.199,460.255,443.965,432.266,400.919,308.09,404.182,404.182,404.182
0.00076358	-307452.14	0,9.31845e-05,0.00022069,0.000395158,0.000633885,0.000960539,0.0014075,0.00201909,0.00285594,0.00400101,0.00556783,0.00771172,0.0106453,0.0146592,0.0201516,0.027667,inf	219.751,219.751,362.43,304.134,337.531,359.246,393.598,443.417,462.452,444.71,433.914,400.541,297.243,401.297,401.297,401.297
0.0007787	-307447.77	0,9.31845e-05,0.00022069,0.000395158,0.000633885,0.000960539,0.0014075,0.00201909,0.00285594,0.00400101,0.00556783,0.00771172,0.0106453,0.0146592,0.0201516,0.027667,inf	215.975,215.975,369.39,302.282,338.049,358.584,392.309,444.207,463.814,444.779,435.156,400.402,288.019,397.867,397.867,397.867
0.000792619	-307444.13	0,9.31845e-05,0.00022069,0.000395158,0.000633885,0.000960539,0.0014075,0.00201909,0.00285594,0.00400101,0.00556783,0.00771172,0.0106453,0.0146592,0.0201516,0.027667,inf	212.759,212.759,375.318,300.511,338.861,358.296,391.198,444.762,464.645,444.435,436.148,400.517,280.147,394.133,394.133,394.133
0.000805469	-307441.06	0,9.31845e-05,0.00022069,0.000395158,0.000633885,0.000960539,0.0014075,0.00201909,0.00285594,0.00400101,0.00556783,0.00771172,0.0106453,0.0146592,0.0201516,0.027667,inf	210.037,210.037,380.348,298.77,339.844,358.27,390.236,445.184,465.127,443.836,436.978,400.871,273.401,390.265,390.265,390.265
0.000817355	-307438.45	0,9.31845e-05,0.00022069,0.000395158,0.000633885,0.000960539,0.0014075,0.00201909,0.00285594,0.00400101,0.00556783,0.00771172,0.0106453,0.0146592,0.0201516,0.027667,inf	207.754,207.754,384.622,297.047,340.925,358.425,389.395,445.529,465.375,443.076,437.692,401.432,267.597,386.381,386.381,386.381
0.000828367	-307436.21	0,9.31845e-05,0.00022069,0.000395158,0.000633885,0.000960539,0.0014075,0.00201909,0.00285594,0.00400101,0.00556783,0.00771172,0.0106453,0.0146592,0.0201516,0.027667,inf	205.85,205.85,388.274,295.342,342.055,358.703,388.647,445.831,465.464,442.217,438.319,402.165,262.582,382.559,382.559,382.559
0.00083858	-307434.28	0,9.31845e-05,0.00022069,0.000395158,0.000633885,0.000960539,0.0014075,0.00201909,0.00285594,0.00400101,0.00556783,0.00771172,0.0106453,0.0146592,0.0201516,0.027667,inf	204.274,204.274,391.415,293.659,343.205,359.063,387.971,446.107,465.442,441.299,438.874,403.037,258.233,378.852,378.852,378.852
0.000848062	-307432.61	0,9.31845e-05,0.00022069,0.000395158,0.000633885,0.000960539,0.0014075,0.00201909,0.00285594,0.00400101,0.00556783,0.00771172,0.0106453,0.0146592,0.0201516,0.027667,inf	202.973,202.973,394.137,292.005,344.356,359.476,387.35,446.372,465.346,440.347,439.365,404.016,254.448,375.293,375.293,375.293
0.000856872	-307431.15	0,9.31845e-05,0.00022069,0.000395158,0.000633885,0.000960539,0.0014075,0.00201909,0.00285594,0.00400101,0.00556783,0.00771172,0.0106453,0.0146592,0.0201516,0.027667,inf	201.901,201.901,396.517,290.385,345.495,359.92,386.772,446.632,465.199,439.38,439.8,405.075,251.143,371.9,371.9,371.9
0.000865063	-307429.88	0,9.31845e-05,0.00022069,0.000395158,0.000633885,0.000960539,0.0014075,0.00201909,0.00285594,0.00400101,0.00556783,0.00771172,0.0106453,0.0146592,0.0201516,0.027667,inf	201.017,201.017,398.613,288.804,346.615,360.379,386.226,446.893,465.019,438.411,440.182,406.191,248.249,368.684,368.684,368.684
0.000872683	-307428.76	0,9.31845e-05,0.00022069,0.000395158,0.000633885,0.000960539,0.0014075,0.00201909,0.00285594,0.00400101,0.00556783,0.00771172,0.0106453,0.0146592,0.0201516,0.027667,inf	200.288,200.288,400.476,287.265,347.711,360.843,385.704,447.157,464.819,437.449,440.515,407.344,245.709,365.647,365.647,365.647
0.000879776	-307427.78	0,9.31845e-05,0.00022069,0.000395158,0.000633885,0.000960539,0.0014075,0.00201909,0.00285594,0.00400101,0.00556783,0.00771172,0.0106453,0.0146592,0.0201516,0.027667,inf	199.686,199.686,402.145,285.769,348.78,361.304,385.2,447.427,464.609,436.5,440.802,408.518,243.475,362.789,362.789,362.789
0.000886381	-307426.91	0,9.31845e-05,0.00022069,0.000395158,0.000633885,0.000960539,0.0014075,0.00201909,0.00285594,0.00400101,0.00556783,0.00771172,0.0106453,0.0146592,0.0201516,0.027667,inf	199.187,199.187,403.653,284.317,349.822,361.756,384.71,447.705,464.396,435.569,441.046,409.699,241.505,360.103,360.103,360.103
0.000892535	-307426.14	0,9.31845e-05,0.00022069,0.000395158,0.000633885,0.000960539,0.0014075,0.00201909,0.00285594,0.00400101,0.00556783,0.00771172,0.0106453,0.0146592,0.0201516,0.027667,inf	198.771,198.771,405.025,282.908,350.835,362.196,384.231,447.99,464.186,434.66,441.249,410.876,239.767,357.585,357.585,357.585
0.000898271	-307425.46	0,9.31845e-05,0.00022069,0.000395158,0.000633885,0.000960539,0.0014075,0.00201909,0.00285594,0.00400101,0.00556783,0.00771172,0.0106453,0.0146592,0.0201516,0.027667,inf	198.427,198.427,406.283,281.543,351.82,362.619,383.758,448.284,463.981,433.775,441.416,412.042,238.23,355.226,355.226,355.226
