0.000673093	-290968.78	0,4.02344e-05,8.72987e-05,0.000142352,0.000206751,0.000282081,0.000370199,0.000473274,0.000593847,0.000734887,0.000899869,0.00109286,0.0013186,0.00158267,0.00189156,0.00225289,0.00267555,0.00316996,0.0037483,0.0044248,0.00521615,0.00614182,0.00722463,0.00849125,0.00997287,0.011706,0.0137333,0.0161048,0.0188788,0.0221237,0.0259195,0.0303595,inf	452.334,452.334,421.019,366.376,341.547,338.863,344.034,352.766,361.624,369.828,380.012,393.423,407.835,420.471,430.341,437.685,442.644,444.77,443.411,438.712,432.15,425.136,418.142,413.023,412.804,418.136,426.051,433.599,433.599,451.537,451.537,451.537
0.000750648	-290828.56	0,4.02344e-05,8.72987e-05,0.000142352,0.000206751,0.000282081,0.000370199,0.000473274,0.000593847,0.000734887,0.000899869,0.00109286,0.0013186,0.00158267,0.00189156,0.00225289,0.00267555,0.00316996,0.0037483,0.0044248,0.00521615,0.00614182,0.00722463,0.00849125,0.00997287,0.011706,0.0137333,0.0161048,0.0188788,0.0221237,0.0259195,0.0303595,inf	493.78,493.78,455.97,356.389,316.741,313.072,320.761,333.048,344.171,353.446,366.215,384.796,405.346,423.288,437.239,447.894,455.501,458.969,456.747,448.762,437.421,425.034,412.538,403.619,403.787,414.146,429.182,443.461,443.461,477.746,477.746,477.746
0.000823784	-290727.24	0,4.02344e-05,8.72987e-05,0.000142352,0.000206751,0.000282081,0.000370199,0.000473274,0.000593847,0.000734887,0.000899869,0.00109286,0.0013186,0.00158267,0.00189156,0.00225289,0.00267555,0.00316996,0.0037483,0.0044248,0.00521615,0.00614182,0.00722463,0.00849125,0.00997287,0.011706,0.0137333,0.0161048,0.0188788,0.0221237,0.0259195,0.0303595,inf	513.357,513.357,487.167,352.494,305.264,302.827,313.085,327.66,339.03,347.236,360.309,381.322,405.017,425.503,441.299,453.638,462.905,467.406,464.718,454.437,439.556,422.957,406.065,394.319,395.245,410.24,431.61,451.832,451.832,500.98,500.98,500.98
0.000892607	-290647.19	0,4.02344e-05,8.72987e-05,0.000142352,0.000206751,0.000282081,0.000370199,0.000473274,0.000593847,0.000734887,0.000899869,0.00109286,0.0013186,0.00158267,0.00189156,0.00225289,0.00267555,0.00316996,0.0037483,0.0044248,0.00521615,0.00614182,0.00722463,0.00849125,0.00997287,0.011706,0.0137333,0.0161048,0.0188788,0.0221237,0.0259195,0.0303595,inf	515.634,515.634,509.989,348.477,298.382,298.601,311.63,327.927,338.603,344.891,357.409,379.668,405.113,426.838,443.413,456.62,466.989,472.314,469.395,457.467,439.877,419.869,399.393,385.526,387.416,406.632,433.608,459.04,459.04,521.634,521.634,521.634
0.00095744	-290581.90	0,4.02344e-05,8.72987e-05,0.000142352,0.000206751,0.000282081,0.000370199,0.000473274,0.000593847,0.000734887,0.000899869,0.00109286,0.0013186,0.00158267,0.00189156,0.00225289,0.00267555,0.00316996,0.0037483,0.0044248,0.00521615,0.00614182,0.00722463,0.00849125,0.00997287,0.011706,0.0137333,0.0161048,0.0188788,0.0221237,0.0259195,0.0303595,inf	508.599,508.599,525.675,343.466,293.473,297.151,313.041,330.677,340.123,344.158,355.807,378.747,405.225,427.519,444.327,457.956,469.084,475.074,472.052,458.901,439.166,416.316,392.863,377.394,380.354,403.397,435.333,465.316,465.316,540.041,540.041,540.041
0.00101866	-290527.67	0,4.02344e-05,8.72987e-05,0.000142352,0.000206751,0.000282081,0.000370199,0.000473274,0.000593847,0.000734887,0.000899869,0.00109286,0.0013186,0.00158267,0.00189156,0.00225289,0.00267555,0.00316996,0.0037483,0.0044248,0.00521615,0.00614182,0.00722463,0.00849125,0.00997287,0.011706,0.0137333,0.0161048,0.0188788,0.0221237,0.0259195,0.0303595,inf	498.636,498.636,536.977,338.106,289.947,297.463,316.168,334.799,342.641,344.282,354.948,378.273,405.373,427.86,444.597,458.383,470.037,476.56,473.5,459.405,437.906,412.621,386.651,369.965,374.041,400.553,436.885,470.837,470.837,556.46,556.46,556.46
0.00107658	-290482.04	0,4.02344e-05,8.72987e-05,0.000142352,0.000206751,0.000282081,0.000370199,0.000473274,0.000593847,0.000734887,0.000899869,0.00109286,0.0013186,0.00158267,0.00189156,0.00225289,0.00267555,0.00316996,0.0037483,0.0044248,0.00521615,0.00614182,0.00722463,0.00849125,0.00997287,0.011706,0.0137333,0.0161048,0.0188788,0.0221237,0.0259195,0.0303595,inf	488.33,488.33,545.104,332.505,287.272,298.8,320.22,339.545,345.534,344.769,354.461,378.02,405.513,427.989,444.498,458.287,470.31,477.267,474.203,459.352,436.36,408.94,380.812,363.201,368.406,398.073,438.315,475.728,475.728,571.107,571.107,571.107
0.00113147	-290443.28	0,4.02344e-05,8.72987e-05,0.000142352,0.000206751,0.000282081,0.000370199,0.000473274,0.000593847,0.000734887,0.000899869,0.00109286,0.0013186,0.00158267,0.00189156,0.00225289,0.00267555,0.00316996,0.0037483,0.0044248,0.00521615,0.00614182,0.00722463,0.00849125,0.00997287,0.011706,0.0137333,0.0161048,0.0188788,0.0221237,0.0259195,0.0303595,inf	478.913,478.913,550.956,326.817,285.193,300.779,324.773,344.525,348.491,345.382,354.16,377.883,405.638,427.994,444.192,457.896,470.183,477.497,474.447,458.972,434.676,405.353,375.352,357.043,363.37,395.917,439.654,480.081,480.081,584.147,584.147,584.147
0.00118356	-290410.07	0,4.02344e-05,8.72987e-05,0.000142352,0.000206751,0.000282081,0.000370199,0.000473274,0.000593847,0.000734887,0.000899869,0.00109286,0.0013186,0.00158267,0.00189156,0.00225289,0.00267555,0.00316996,0.0037483,0.0044248,0.00521615,0.00614182,0.00722463,0.00849125,0.00997287,0.011706,0.0137333,0.0161048,0.0188788,0.0221237,0.0259195,0.0303595,inf	470.868,470.868,555.15,321.161,283.564,303.179,329.587,349.523,351.355,345.995,353.945,377.805,405.748,427.929,443.78,457.347,469.825,477.437,474.41,458.402,432.945,401.896,370.255,351.425,358.857,394.046,440.917,483.968,483.968,595.734,595.734,595.734
0.00123306	-290381.43	0,4.02344e-05,8.72987e-05,0.000142352,0.000206751,0.000282081,0.000370199,0.000473274,0.000593847,0.000734887,0.000899869,0.00109286,0.0013186,0.00158267,0.00189156,0.00225289,0.00267555,0.00316996,0.0037483,0.0044248,0.00521615,0.00614182,0.00722463,0.00849125,0.00997287,0.011706,0.0137333,0.0161048,0.0188788,0.0221237,0.0259195,0.0303595,inf	464.275,464.275,558.101,315.618,282.299,305.866,334.517,354.417,354.042,346.548,353.763,377.755,405.847,427.827,443.321,456.722,469.339,477.205,474.204,457.729,431.213,398.585,365.495,346.285,354.8,392.422,442.118,487.451,487.451,606.009,606.009,606.009
0.00128016	-290356.57	0,4.02344e-05,8.72987e-05,0.000142352,0.000206751,0.000282081,0.000370199,0.000473274,0.000593847,0.000734887,0.000899869,0.00109286,0.0013186,0.00158267,0.00189156,0.00225289,0.00267555,0.00316996,0.0037483,0.0044248,0.00521615,0.00614182,0.00722463,0.00849125,0.00997287,0.011706,0.0137333,0.0161048,0.0188788,0.0221237,0.0259195,0.0303595,inf	459.05,459.05,560.097,310.242,281.337,308.753,339.475,359.141,356.516,347.011,353.583,377.714,405.935,427.71,442.849,456.071,468.791,476.876,473.9,457.007,429.51,395.421,361.043,341.567,351.138,391.012,443.263,490.579,490.579,615.08,615.08,615.08
0.00132503	-290334.88	0,4.02344e-05,8.72987e-05,0.000142352,0.000206751,0.000282081,0.000370199,0.000473274,0.000593847,0.000734887,0.000899869,0.00109286,0.0013186,0.00158267,0.00189156,0.00225289,0.00267555,0.00316996,0.0037483,0.0044248,0.00521615,0.00614182,0.00722463,0.00849125,0.00997287,0.011706,0.0137333,0.0161048,0.0188788,0.0221237,0.0259195,0.0303595,inf	455.031,455.031,561.34,305.066,280.637,311.784,344.402,363.656,358.764,347.37,353.388,377.672,406.013,427.588,442.384,455.423,468.22,476.496,473.545,456.267,427.852,392.4,356.87,337.222,347.821,389.788,444.358,493.393,493.393,623.061,623.061,623.061
0.00136782	-290315.86	0,4.02344e-05,8.72987e-05,0.000142352,0.000206751,0.000282081,0.000370199,0.000473274,0.000593847,0.000734887,0.000899869,0.00109286,0.0013186,0.00158267,0.00189156,0.00225289,0.00267555,0.00316996,0.0037483,0.0044248,0.00521615,0.00614182,0.00722463,0.00849125,0.00997287,0.011706,0.0137333,0.0161048,0.0188788,0.0221237,0.0259195,0.0303595,inf	452.046,452.046,561.977,300.112,280.166,314.918,349.264,367.946,360.784,347.625,353.171,377.624,406.085,427.47,441.938,454.794,467.65,476.096,473.168,455.531,426.244,389.514,352.949,333.205,344.804,388.724,445.408,495.928,495.928,630.041,630.041,630.041
0.00140866	-290299.10	0,4.02344e-05,8.72987e-05,0.000142352,0.000206751,0.000282081,0.000370199,0.000473274,0.000593847,0.000734887,0.000899869,0.00109286,0.0013186,0.00158267,0.00189156,0.00225289,0.00267555,0.00316996,0.0037483,0.0044248,0.00521615,0.00614182,0.00722463,0.00849125,0.00997287,0.011706,0.0137333,0.0161048,0.0188788,0.0221237,0.0259195,0.0303595,inf	449.926,449.926,562.12,295.385,279.899,318.129,354.038,372.005,362.585,347.778,352.927,377.566,406.15,427.36,441.517,454.195,467.097,475.695,472.789,454.811,424.691,386.756,349.258,329.48,342.051,387.8,446.416,498.213,498.213,636.116,636.116,636.116
0.00144767	-290284.28	0,4.02344e-05,8.72987e-05,0.000142352,0.000206751,0.000282081,0.000370199,0.000473274,0.000593847,0.000734887,0.000899869,0.00109286,0.0013186,0.00158267,0.00189156,0.00225289,0.00267555,0.00316996,0.0037483,0.0044248,0.00521615,0.00614182,0.00722463,0.00849125,0.00997287,0.011706,0.0137333,0.0161048,0.0188788,0.0221237,0.0259195,0.0303595,inf	448.529,448.529,561.856,290.888,279.812,321.393,358.708,375.833,364.176,347.835,352.657,377.497,406.21,427.259,441.125,453.631,466.57,475.307,472.418,454.115,423.193,384.116,345.773,326.015,339.531,386.999,447.386,500.277,500.277,641.359,641.359,641.359
0.00148498	-290271.13	0,4.02344e-05,8.72987e-05,0.000142352,0.000206751,0.000282081,0.000370199,0.000473274,0.000593847,0.000734887,0.000899869,0.00109286,0.0013186,0.00158267,0.00189156,0.00225289,0.00267555,0.00316996,0.0037483,0.0044248,0.00521615,0.00614182,0.00722463,0.00849125,0.00997287,0.011706,0.0137333,0.0161048,0.0188788,0.0221237,0.0259195,0.0303595,inf	447.732,447.732,561.251,286.62,279.89,324.696,363.269,379.435,365.574,347.804,352.359,377.417,406.265,427.17,440.762,453.104,466.073,474.939,472.065,453.447,421.749,381.586,342.475,322.781,337.217,386.305,448.321,502.14,502.14,645.851,645.851,645.851
0.00152067	-290259.41	0,4.02344e-05,8.72987e-05,0.000142352,0.000206751,0.000282081,0.000370199,0.000473274,0.000593847,0.000734887,0.000899869,0.00109286,0.0013186,0.00158267,0.00189156,0.00225289,0.00267555,0.00316996,0.0037483,0.0044248,0.00521615,0.00614182,0.00722463,0.00849125,0.00997287,0.011706,0.0137333,0.0161048,0.0188788,0.0221237,0.0259195,0.0303595,inf	447.418,447.418,560.356,282.574,280.112,328.024,367.712,382.821,366.79,347.693,352.037,377.326,406.316,427.092,440.428,452.614,465.61,474.595,471.734,452.808,420.356,379.158,339.349,319.755,335.085,385.707,449.224,503.822,503.822,649.648,649.648,649.648
0.00155486	-290248.94	0,4.02344e-05,8.72987e-05,0.000142352,0.000206751,0.000282081,0.000370199,0.000473274,0.000593847,0.000734887,0.000899869,0.00109286,0.0013186,0.00158267,0.00189156,0.00225289,0.00267555,0.00316996,0.0037483,0.0044248,0.00521615,0.00614182,0.00722463,0.00849125,0.00997287,0.011706,0.0137333,0.0161048,0.0188788,0.0221237,0.0259195,0.0303595,inf	447.505,447.505,559.219,278.74,280.467,331.367,372.038,386,367.839,347.508,351.691,377.225,406.365,427.025,440.123,452.161,465.18,474.279,471.428,452.2,419.012,376.824,336.379,316.917,333.118,385.192,450.096,505.341,505.341,652.813,652.813,652.813
0.00158761	-290239.57	0,4.02344e-05,8.72987e-05,0.000142352,0.000206751,0.000282081,0.000370199,0.000473274,0.000593847,0.000734887,0.000899869,0.00109286,0.0013186,0.00158267,0.00189156,0.00225289,0.00267555,0.00316996,0.0037483,0.0044248,0.00521615,0.00614182,0.00722463,0.00849125,0.00997287,0.011706,0.0137333,0.0161048,0.0188788,0.0221237,0.0259195,0.0303595,inf	447.92,447.92,557.876,275.111,280.94,334.717,376.245,388.981,368.735,347.259,351.325,377.114,406.411,426.971,439.845,451.743,464.785,473.991,471.149,451.623,417.715,374.579,333.551,314.249,331.296,384.753,450.94,506.714,506.714,655.405,655.405,655.405
0.00161901	-290231.14	0,4.02344e-05,8.72987e-05,0.000142352,0.000206751,0.000282081,0.000370199,0.000473274,0.000593847,0.000734887,0.000899869,0.00109286,0.0013186,0.00158267,0.00189156,0.00225289,0.00267555,0.00316996,0.0037483,0.0044248,0.00521615,0.00614182,0.00722463,0.00849125,0.00997287,0.011706,0.0137333,0.0161048,0.0188788,0.0221237,0.0259195,0.0303595,inf	448.601,448.601,556.356,271.673,281.52,338.066,380.333,391.774,369.49,346.95,350.94,376.995,406.454,426.927,439.592,451.359,464.423,473.732,470.896,451.076,416.463,372.416,330.855,311.734,329.607,384.381,451.759,507.953,507.953,657.473,657.473,657.473
