time_index	left_time_boundary	right_time_boundary	lambda
0	0	3.66284e-06	9412.79
1	3.66284e-06	1.00184e-05	9412.79
2	1.00184e-05	2.10462e-05	181.018
3	2.10462e-05	4.01811e-05	325.879
4	4.01811e-05	7.33828e-05	377.421
5	7.33828e-05	0.000130993	338.049
6	0.000130993	0.000230954	316.217
7	0.000230954	0.000404401	358.558
8	0.000404401	0.000705356	366.161
9	0.000705356	0.00122756	383.619
10	0.00122756	0.00213365	402.216
11	0.00213365	0.00370586	443.228
12	0.00370586	0.00643386	343.808
13	0.00643386	0.0111673	382.001
14	0.0111673	0.0193806	382.001
15	0.0193806	inf	382.001
