0.000311198	-7628830.22	0,2.03623e-06,5.56939e-06,1.16999e-05,2.23373e-05,4.07946e-05,7.28207e-05,0.000128391,0.000224813,0.000392118,0.000682418,0.00118613,0.00206014,0.00357668,0.00620809,0.010774,inf	99.5527,99.5527,265.804,438.336,533.723,505.671,552.851,623.434,662.951,709.456,810.005,884.387,886.127,997.419,997.419,997.419
0.000308946	-7627739.62	0,2.03623e-06,5.56939e-06,1.16999e-05,2.23373e-05,4.07946e-05,7.28207e-05,0.000128391,0.000224813,0.000392118,0.000682418,0.00118613,0.00206014,0.00357668,0.00620809,0.010774,inf	18.3624,18.3624,153.411,373.71,511.349,430.249,482.154,579.559,619.232,666.254,807.504,924.765,933.626,1261.71,1261.71,1261.71
0.000304914	-7627561.25	0,2.03623e-06,5.56939e-06,1.16999e-05,2.23373e-05,4.07946e-05,7.28207e-05,0.000128391,0.000224813,0.000392118,0.000682418,0.00118613,0.00206014,0.00357668,0.00620809,0.010774,inf	3.8162,3.8162,111.652,357.501,535.008,404.135,455.773,572.692,606.124,642.453,802.823,943.581,956.627,1700.31,1700.31,1700.31
0.000299579	-7627647.26	0,2.03623e-06,5.56939e-06,1.16999e-05,2.23373e-05,4.07946e-05,7.28207e-05,0.000128391,0.000224813,0.000392118,0.000682418,0.00118613,0.00206014,0.00357668,0.00620809,0.010774,inf	0.823145,0.823145,91.745,349.116,564.693,391.854,442.294,576.469,604.407,627.985,798.924,951.287,962.529,2780.01,2780.01,2780.01
0.000293349	-7627880.39	0,2.03623e-06,5.56939e-06,1.16999e-05,2.23373e-05,4.07946e-05,7.28207e-05,0.000128391,0.000224813,0.000392118,0.000682418,0.00118613,0.00206014,0.00357668,0.00620809,0.010774,inf	0.8023,0.8023,81.6475,341.272,591.54,384.505,432.873,582.281,607.031,618.628,796.734,952.549,954.472,10250.3,10250.3,10250.3
0.000293349	-7628260.46	0,2.03623e-06,5.56939e-06,1.16999e-05,2.23373e-05,4.07946e-05,7.28207e-05,0.000128391,0.000224813,0.000392118,0.000682418,0.00118613,0.00206014,0.00357668,0.00620809,0.010774,inf	0.8023,0.8023,77.2503,334.946,618.059,381.726,427.016,590.662,614.813,615.499,801.459,954.927,939.239,100413,100413,100413
