LogLikelihood = -33146.63259051755449

y0 4.5455536095176127067e-09
y0_prime 0
y1 0.95097006974331710349
y1_prime 0
y2 1.7717295706975506597
y2_prime 0
y3 1.0878361051975966589
y3_prime 0
rho 2.151839683333099288e-05
theta 6.2514839520064527899e-05
