LogLikelihood = -215018.41699612923549

y0 0.85885517863013516315
y0_prime 0
y1 0.99563329460441940544
y1_prime 0
y2 0.9506050494707450893
y2_prime 0
y3 2.120205145383033507
y3_prime 0
rho 0.00016731731990157110504
theta 0.00051339201337311283178
