0.000782858	-14972253.38	0,4.65385e-06,1.2729e-05,2.67404e-05,5.10524e-05,9.3237e-05,0.000166434,0.00029344,0.000513814,0.000896196,0.00155968,0.00271093,0.0047085,0.00817459,0.0141887,0.0246242,inf	5227.51,5227.51,519.855,54.3915,57.4773,71.1372,89.4495,105.957,152.79,219.952,291.44,369.898,363.573,283.707,283.707,283.707
0.000874503	-14957317.02	0,4.65385e-06,1.2729e-05,2.67404e-05,5.10524e-05,9.3237e-05,0.000166434,0.00029344,0.000513814,0.000896196,0.00155968,0.00271093,0.0047085,0.00817459,0.0141887,0.0246242,inf	8291.22,8291.22,297.033,20.8255,22.738,32.687,49.494,54.4526,105.227,193.708,284.307,387.38,375.201,245.019,245.019,245.019
0.000964537	-14952036.39	0,4.65385e-06,1.2729e-05,2.67404e-05,5.10524e-05,9.3237e-05,0.000166434,0.00029344,0.000513814,0.000896196,0.00155968,0.00271093,0.0047085,0.00817459,0.0141887,0.0246242,inf	9201.04,9201.04,171.096,11.2764,13.092,22.8972,40.1708,35.1487,85.4899,187.425,285.654,397.305,383.517,220.125,220.125,220.125
0.00105146	-14948567.20	0,4.65385e-06,1.2729e-05,2.67404e-05,5.10524e-05,9.3237e-05,0.000166434,0.00029344,0.000513814,0.000896196,0.00155968,0.00271093,0.0047085,0.00817459,0.0141887,0.0246242,inf	9251.03,9251.03,99.6067,7.18154,9.06402,19.9221,38.7299,25.7271,75.5369,188.135,288.93,401.809,389.735,203.36,203.36,203.36
0.0011355	-14945861.60	0,4.65385e-06,1.2729e-05,2.67404e-05,5.10524e-05,9.3237e-05,0.000166434,0.00029344,0.000513814,0.000896196,0.00155968,0.00271093,0.0047085,0.00817459,0.0141887,0.0246242,inf	9011.73,9011.73,58.3739,4.99186,6.91468,19.3134,39.8157,20.2847,70.0755,191.921,292.509,402.888,394.726,191.705,191.705,191.705
0.00121701	-14943595.20	0,4.65385e-06,1.2729e-05,2.67404e-05,5.10524e-05,9.3237e-05,0.000166434,0.00029344,0.000513814,0.000896196,0.00155968,0.00271093,0.0047085,0.00817459,0.0141887,0.0246242,inf	8683.62,8683.62,34.3158,3.64796,5.5704,19.7936,41.6336,16.7551,67.0239,197.225,295.951,401.845,398.93,183.38,183.38,183.38
0.00129625	-14941626.51	0,4.65385e-06,1.2729e-05,2.67404e-05,5.10524e-05,9.3237e-05,0.000166434,0.00029344,0.000513814,0.000896196,0.00155968,0.00271093,0.0047085,0.00817459,0.0141887,0.0246242,inf	8338.08,8338.08,20.203,2.74574,4.63615,20.9111,43.4676,14.2723,65.3864,203.251,299.046,399.489,402.603,177.307,177.307,177.307
0.0013734	-14939880.94	0,4.65385e-06,1.2729e-05,2.67404e-05,5.10524e-05,9.3237e-05,0.000166434,0.00029344,0.000513814,0.000896196,0.00155968,0.00271093,0.0047085,0.00817459,0.0141887,0.0246242,inf	8003.26,8003.26,11.8987,2.10297,3.94039,22.4872,45.0423,12.4277,64.6509,209.617,301.782,396.331,405.865,172.79,172.79,172.79
0.0014486	-14938313.72	0,4.65385e-06,1.2729e-05,2.67404e-05,5.10524e-05,9.3237e-05,0.000166434,0.00029344,0.000513814,0.000896196,0.00155968,0.00271093,0.0047085,0.00817459,0.0141887,0.0246242,inf	7688.4,7688.4,7.00721,1.62675,3.39472,24.4401,46.2642,11.0049,64.5216,216.104,304.179,392.694,408.78,169.375,169.375,169.375
0.00152196	-14936895.20	0,4.65385e-06,1.2729e-05,2.67404e-05,5.10524e-05,9.3237e-05,0.000166434,0.00029344,0.000513814,0.000896196,0.00155968,0.00271093,0.0047085,0.00817459,0.0141887,0.0246242,inf	7396.01,7396.01,4.12383,1.26463,2.94876,26.7197,47.1231,9.8784,64.8162,222.584,306.273,388.788,411.392,166.754,166.754,166.754
0.00159357	-14935604.09	0,4.65385e-06,1.2729e-05,2.67404e-05,5.10524e-05,9.3237e-05,0.000166434,0.00029344,0.000513814,0.000896196,0.00155968,0.00271093,0.0047085,0.00817459,0.0141887,0.0246242,inf	7126.04,7126.04,2.42548,0.984629,2.57304,29.2858,47.645,8.97022,65.4163,228.98,308.097,384.751,413.734,164.715,164.715,164.715
0.00166351	-14934424.14	0,4.65385e-06,1.2729e-05,2.67404e-05,5.10524e-05,9.3237e-05,0.000166434,0.00029344,0.000513814,0.000896196,0.00155968,0.00271093,0.0047085,0.00817459,0.0141887,0.0246242,inf	6876.94,6876.94,1.42473,0.765458,2.24785,32.1022,47.8687,8.22831,66.2419,235.246,309.686,380.675,415.836,163.112,163.112,163.112
0.00173185	-14933342.34	0,4.65385e-06,1.2729e-05,2.67404e-05,5.10524e-05,9.3237e-05,0.000166434,0.00029344,0.000513814,0.000896196,0.00155968,0.00271093,0.0047085,0.00817459,0.0141887,0.0246242,inf	6647.56,6647.56,0.835765,0.589144,1.96225,35.1327,47.8352,7.61616,67.2365,241.352,311.067,376.622,417.722,161.837,161.837,161.837
0.00179866	-14932347.93	0,4.65385e-06,1.2729e-05,2.67404e-05,5.10524e-05,9.3237e-05,0.000166434,0.00029344,0.000513814,0.000896196,0.00155968,0.00271093,0.0047085,0.00817459,0.0141887,0.0246242,inf	6435.57,6435.57,0.486392,0.451422,1.70779,38.3391,47.5837,7.10724,68.36,247.283,312.268,372.632,419.416,160.813,160.813,160.813
0.001864	-14931431.80	0,4.65385e-06,1.2729e-05,2.67404e-05,5.10524e-05,9.3237e-05,0.000166434,0.00029344,0.000513814,0.000896196,0.00155968,0.00271093,0.0047085,0.00817459,0.0141887,0.0246242,inf	6239.39,6239.39,0.351032,0.351033,1.48044,41.68,47.1483,6.68155,69.5824,253.031,313.309,368.732,420.939,159.984,159.984,159.984
0.00192791	-14930586.19	0,4.65385e-06,1.2729e-05,2.67404e-05,5.10524e-05,9.3237e-05,0.000166434,0.00029344,0.000513814,0.000896196,0.00155968,0.00271093,0.0047085,0.00817459,0.0141887,0.0246242,inf	6057.5,6057.5,0.351032,0.351032,1.2775,45.1145,46.5616,6.32376,70.8813,258.592,314.211,364.938,422.31,159.306,159.306,159.306
0.00199046	-14929804.39	0,4.65385e-06,1.2729e-05,2.67404e-05,5.10524e-05,9.3237e-05,0.000166434,0.00029344,0.000513814,0.000896196,0.00155968,0.00271093,0.0047085,0.00817459,0.0141887,0.0246242,inf	5887.84,5887.84,0.351032,0.351032,1.09706,48.592,45.8526,6.02192,72.2397,263.967,314.989,361.26,423.545,158.748,158.748,158.748
0.00205167	-14929080.50	0,4.65385e-06,1.2729e-05,2.67404e-05,5.10524e-05,9.3237e-05,0.000166434,0.00029344,0.000513814,0.000896196,0.00155968,0.00271093,0.0047085,0.00817459,0.0141887,0.0246242,inf	5729.75,5729.75,0.351032,0.351032,0.937725,52.0742,45.0493,5.76655,73.6441,269.158,315.658,357.703,424.659,158.284,158.284,158.284
0.00211158	-14928409.40	0,4.65385e-06,1.2729e-05,2.67404e-05,5.10524e-05,9.3237e-05,0.000166434,0.00029344,0.000513814,0.000896196,0.00155968,0.00271093,0.0047085,0.00817459,0.0141887,0.0246242,inf	5582.28,5582.28,0.351032,0.351032,0.798001,55.5232,44.1762,5.55023,75.0841,274.168,316.23,354.269,425.667,157.896,157.896,157.896
0.00217025	-14927786.51	0,4.65385e-06,1.2729e-05,2.67404e-05,5.10524e-05,9.3237e-05,0.000166434,0.00029344,0.000513814,0.000896196,0.00155968,0.00271093,0.0047085,0.00817459,0.0141887,0.0246242,inf	5444.5,5444.5,0.351032,0.351032,0.676853,58.9146,43.2548,5.36689,76.5513,279.004,316.715,350.956,426.58,157.568,157.568,157.568
