AIC = 3096685.3871947643347

y0 0.64912142911754100449
y0_prime 0
y1 0.92149613606933167276
y1_prime 0
y2 1.2429092968285710974
y2_prime 0
y3 1.4366256668388759365
y3_prime 0
rho 0.0055752489424816392694
theta 0.0049982389862640932976
