AIC = 3076320.3643682785332

y0 0.8192678112754460118
y0_prime 0
y1 1.0547822333613194878
y1_prime 0
y2 0.82736312957250557343
y2_prime 0
y3 1.9545413316676891746
y3_prime 0
rho 0.0036475538880655984826
rho.alpha 1.236201951352819739
r_ii 0.99968544253222879625
theta 0.0050364552551867862104
