time_index	left_time_boundary	right_time_boundary	lambda
0	0	9.68369e-05	496.447
1	9.68369e-05	0.00022934	496.447
2	0.00022934	0.000410647	502.762
3	0.000410647	0.000658731	417.29
4	0.000658731	0.000998188	308.119
5	0.000998188	0.00146267	338.429
6	0.00146267	0.00209823	615.161
7	0.00209823	0.00296788	299.559
8	0.00296788	0.00415783	330.474
9	0.00415783	0.00578606	455.147
10	0.00578606	0.00801399	496.839
11	0.00801399	0.0110625	145.678
12	0.0110625	0.0152338	174569
13	0.0152338	0.0209415	53.3762
14	0.0209415	0.0287514	53.3762
15	0.0287514	inf	53.3762
