0.000662713	-13701289.01	0,4.05048e-06,1.10786e-05,2.32735e-05,4.44334e-05,8.11488e-05,0.000144855,0.000255395,0.000447198,0.000780004,0.00135747,0.00235945,0.00409804,0.00711475,0.0123492,0.0214316,inf	205.556,205.556,276.367,212.3,218.638,236.989,260.668,285.997,313.03,351.453,408.435,449.675,428.846,430.556,430.556,430.556
0.000702935	-13698063.82	0,4.05048e-06,1.10786e-05,2.32735e-05,4.44334e-05,8.11488e-05,0.000144855,0.000255395,0.000447198,0.000780004,0.00135747,0.00235945,0.00409804,0.00711475,0.0123492,0.0214316,inf	179.972,179.972,299.496,181.509,182.236,199.799,226.911,255.926,285.527,331.475,409.79,474.535,440.789,451.106,451.106,451.106
0.000739501	-13696870.98	0,4.05048e-06,1.10786e-05,2.32735e-05,4.44334e-05,8.11488e-05,0.000144855,0.000255395,0.000447198,0.000780004,0.00135747,0.00235945,0.00409804,0.00711475,0.0123492,0.0214316,inf	164.316,164.316,332.854,173.565,172.76,190.065,218.902,248.909,276.345,321.93,409.26,487.85,445.023,466.639,466.639,466.639
0.000773409	-13696176.41	0,4.05048e-06,1.10786e-05,2.32735e-05,4.44334e-05,8.11488e-05,0.000144855,0.000255395,0.000447198,0.000780004,0.00135747,0.00235945,0.00409804,0.00711475,0.0123492,0.0214316,inf	147.655,147.655,356.176,168.858,169.51,187.77,218.336,249.484,274.025,316.946,408.225,495.183,445.156,478.482,478.482,478.482
0.000805423	-13695662.33	0,4.05048e-06,1.10786e-05,2.32735e-05,4.44334e-05,8.11488e-05,0.000144855,0.000255395,0.000447198,0.000780004,0.00135747,0.00235945,0.00409804,0.00711475,0.0123492,0.0214316,inf	132.113,132.113,369.786,164.269,167.726,187.546,219.759,252.546,274.499,314.25,407.234,499.379,443.162,487.531,487.531,487.531
0.000836008	-13695239.18	0,4.05048e-06,1.10786e-05,2.32735e-05,4.44334e-05,8.11488e-05,0.000144855,0.000255395,0.000447198,0.000780004,0.00135747,0.00235945,0.00409804,0.00711475,0.0123492,0.0214316,inf	119.024,119.024,377.248,159.737,166.356,187.885,221.449,256.228,276.107,312.797,406.456,501.889,440.1,494.404,494.404,494.404
0.000865443	-13694874.22	0,4.05048e-06,1.10786e-05,2.32735e-05,4.44334e-05,8.11488e-05,0.000144855,0.000255395,0.000447198,0.000780004,0.00135747,0.00235945,0.00409804,0.00711475,0.0123492,0.0214316,inf	108.489,108.489,381.234,155.52,165.227,188.415,222.934,259.854,278.13,312.056,405.908,503.463,436.546,499.543,499.543,499.543
0.000893899	-13694552.21	0,4.05048e-06,1.10786e-05,2.32735e-05,4.44334e-05,8.11488e-05,0.000144855,0.000255395,0.000447198,0.000780004,0.00135747,0.00235945,0.00409804,0.00711475,0.0123492,0.0214316,inf	100.107,100.107,383.201,151.798,164.301,189.081,224.158,263.206,280.244,311.736,405.56,504.502,432.815,503.284,503.284,503.284
0.000921486	-13694264.53	0,4.05048e-06,1.10786e-05,2.32735e-05,4.44334e-05,8.11488e-05,0.000144855,0.000255395,0.000447198,0.000780004,0.00135747,0.00235945,0.00409804,0.00711475,0.0123492,0.0214316,inf	93.4159,93.4159,383.944,148.537,163.582,189.898,225.181,266.25,282.307,311.669,405.37,505.224,429.081,505.888,505.888,505.888
0.000948278	-13694005.55	0,4.05048e-06,1.10786e-05,2.32735e-05,4.44334e-05,8.11488e-05,0.000144855,0.000255395,0.000447198,0.000780004,0.00135747,0.00235945,0.00409804,0.00711475,0.0123492,0.0214316,inf	88.0487,88.0487,383.883,145.733,163.037,190.875,226.081,269.013,284.258,311.758,405.297,505.752,425.44,507.562,507.562,507.562
0.00097433	-13693771.23	0,4.05048e-06,1.10786e-05,2.32735e-05,4.44334e-05,8.11488e-05,0.000144855,0.000255395,0.000447198,0.000780004,0.00135747,0.00235945,0.00409804,0.00711475,0.0123492,0.0214316,inf	83.7171,83.7171,383.258,143.308,162.63,192.008,226.92,271.537,286.077,311.939,405.311,506.157,421.944,508.477,508.477,508.477
0.000999683	-13693558.47	0,4.05048e-06,1.10786e-05,2.32735e-05,4.44334e-05,8.11488e-05,0.000144855,0.000255395,0.000447198,0.000780004,0.00135747,0.00235945,0.00409804,0.00711475,0.0123492,0.0214316,inf	80.2129,80.2129,382.242,141.213,162.327,193.278,227.741,273.866,287.762,312.177,405.386,506.481,418.617,508.77,508.77,508.77
0.00102437	-13693364.79	0,4.05048e-06,1.10786e-05,2.32735e-05,4.44334e-05,8.11488e-05,0.000144855,0.000255395,0.000447198,0.000780004,0.00135747,0.00235945,0.00409804,0.00711475,0.0123492,0.0214316,inf	77.3627,77.3627,380.927,139.396,162.088,194.668,228.57,276.038,289.318,312.446,405.503,506.748,415.471,508.557,508.557,508.557
0.00104842	-13693188.14	0,4.05048e-06,1.10786e-05,2.32735e-05,4.44334e-05,8.11488e-05,0.000144855,0.000255395,0.000447198,0.000780004,0.00135747,0.00235945,0.00409804,0.00711475,0.0123492,0.0214316,inf	75.0608,75.0608,379.424,137.826,161.893,196.152,229.423,278.08,290.753,312.731,405.651,506.975,412.506,507.934,507.934,507.934
0.00107186	-13693026.79	0,4.05048e-06,1.10786e-05,2.32735e-05,4.44334e-05,8.11488e-05,0.000144855,0.000255395,0.000447198,0.000780004,0.00135747,0.00235945,0.00409804,0.00711475,0.0123492,0.0214316,inf	73.2112,73.2112,377.796,136.454,161.721,197.707,230.305,280.016,292.078,313.023,405.817,507.171,409.719,506.98,506.98,506.98
0.00109471	-13692879.23	0,4.05048e-06,1.10786e-05,2.32735e-05,4.44334e-05,8.11488e-05,0.000144855,0.000255395,0.000447198,0.000780004,0.00135747,0.00235945,0.00409804,0.00711475,0.0123492,0.0214316,inf	71.736,71.736,376.089,135.268,161.566,199.316,231.219,281.863,293.301,313.315,405.995,507.343,407.104,505.761,505.761,505.761
0.00111699	-13692744.17	0,4.05048e-06,1.10786e-05,2.32735e-05,4.44334e-05,8.11488e-05,0.000144855,0.000255395,0.000447198,0.000780004,0.00135747,0.00235945,0.00409804,0.00711475,0.0123492,0.0214316,inf	70.5676,70.5676,374.346,134.25,161.415,200.958,232.163,283.634,294.432,313.605,406.18,507.494,404.652,504.332,504.332,504.332
0.00113872	-13692620.47	0,4.05048e-06,1.10786e-05,2.32735e-05,4.44334e-05,8.11488e-05,0.000144855,0.000255395,0.000447198,0.000780004,0.00135747,0.00235945,0.00409804,0.00711475,0.0123492,0.0214316,inf	69.6663,69.6663,372.6,133.376,161.264,202.619,233.133,285.34,295.478,313.888,406.368,507.627,402.353,502.739,502.739,502.739
0.00115992	-13692507.12	0,4.05048e-06,1.10786e-05,2.32735e-05,4.44334e-05,8.11488e-05,0.000144855,0.000255395,0.000447198,0.000780004,0.00135747,0.00235945,0.00409804,0.00711475,0.0123492,0.0214316,inf	68.9918,68.9918,370.855,132.632,161.11,204.29,234.125,286.988,296.446,314.166,406.555,507.743,400.199,501.021,501.021,501.021
0.0011806	-13692403.21	0,4.05048e-06,1.10786e-05,2.32735e-05,4.44334e-05,8.11488e-05,0.000144855,0.000255395,0.000447198,0.000780004,0.00135747,0.00235945,0.00409804,0.00711475,0.0123492,0.0214316,inf	68.5009,68.5009,369.12,132.004,160.953,205.959,235.136,288.585,297.344,314.435,406.742,507.845,398.181,499.208,499.208,499.208
