time_index	left_time_boundary	right_time_boundary	lambda
0	0	3.54205e-06	398.329
1	3.54205e-06	8.21976e-06	398.329
2	8.21976e-06	1.43972e-05	398.329
3	1.43972e-05	2.25554e-05	398.329
4	2.25554e-05	3.33291e-05	398.329
5	3.33291e-05	4.75572e-05	398.329
6	4.75572e-05	6.63472e-05	398.329
7	6.63472e-05	9.11616e-05	398.329
8	9.11616e-05	0.000123932	398.329
9	0.000123932	0.000167209	398.329
10	0.000167209	0.000224362	398.329
11	0.000224362	0.00029984	398.329
12	0.00029984	0.000399517	398.329
13	0.000399517	0.000531153	398.329
14	0.000531153	0.000704994	398.329
15	0.000704994	0.000934572	398.329
16	0.000934572	0.00123776	398.329
17	0.00123776	0.00163815	398.329
18	0.00163815	0.00216692	398.329
19	0.00216692	0.00286523	398.329
20	0.00286523	0.00378742	398.329
21	0.00378742	0.00500529	398.329
22	0.00500529	0.00661364	398.329
23	0.00661364	0.00873766	398.329
24	0.00873766	0.0115427	398.329
25	0.0115427	0.0152471	398.329
26	0.0152471	0.0201391	398.329
27	0.0201391	0.0265997	398.329
28	0.0265997	0.0351317	398.329
29	0.0351317	inf	398.329
