time_index	left_time_boundary	right_time_boundary	lambda
0	0	6.46122e-05	386.762
1	6.46122e-05	0.000140986	386.762
2	0.000140986	0.000231264	386.762
3	0.000231264	0.000337976	386.762
4	0.000337976	0.000464113	386.762
5	0.000464113	0.000613213	386.762
6	0.000613213	0.000789455	386.762
7	0.000789455	0.00099778	386.762
8	0.00099778	0.00124403	386.762
9	0.00124403	0.00153511	386.762
10	0.00153511	0.00187917	386.762
11	0.00187917	0.00228587	386.762
12	0.00228587	0.0027666	386.762
13	0.0027666	0.00333485	386.762
14	0.00333485	0.00400654	386.762
15	0.00400654	0.00480051	386.762
16	0.00480051	0.00573901	386.762
17	0.00573901	0.00684836	386.762
18	0.00684836	0.00815966	386.762
19	0.00815966	0.00970966	386.762
20	0.00970966	0.0115418	386.762
21	0.0115418	0.0137075	386.762
22	0.0137075	0.0162675	386.762
23	0.0162675	0.0192934	386.762
24	0.0192934	0.0228702	386.762
25	0.0228702	0.0270982	386.762
26	0.0270982	0.0320958	386.762
27	0.0320958	0.0380031	386.762
28	0.0380031	0.0449859	386.762
29	0.0449859	inf	386.762
