0.000821375	-16730941.92	0,5.05028e-06,1.38132e-05,2.90182e-05,5.54011e-05,0.000101179,0.000180611,0.000318436,0.000557582,0.000972535,0.00169254,0.00294185,0.00510958,0.00887091,0.0153974,0.0267217,inf	99.0745,99.0745,304.483,246.709,105.717,106.038,107.537,138.947,178.542,226.801,337.703,436.602,384.251,355.468,355.468,355.468
0.000871779	-16708665.02	0,5.05028e-06,1.38132e-05,2.90182e-05,5.54011e-05,0.000101179,0.000180611,0.000318436,0.000557582,0.000972535,0.00169254,0.00294185,0.00510958,0.00887091,0.0153974,0.0267217,inf	39.5712,39.5712,370.575,288.77,65.6938,72.8834,63.2347,96.1081,138.876,188.584,332.423,505.038,424.392,374.588,374.588,374.588
0.000914212	-16701513.09	0,5.05028e-06,1.38132e-05,2.90182e-05,5.54011e-05,0.000101179,0.000180611,0.000318436,0.000557582,0.000972535,0.00169254,0.00294185,0.00510958,0.00887091,0.0153974,0.0267217,inf	14.6364,14.6364,412.684,330.238,49.6533,67.9178,48.5888,82.9905,125.538,168.945,324.227,545.066,449.2,384.648,384.648,384.648
0.000950533	-16698494.28	0,5.05028e-06,1.38132e-05,2.90182e-05,5.54011e-05,0.000101179,0.000180611,0.000318436,0.000557582,0.000972535,0.00169254,0.00294185,0.00510958,0.00887091,0.0153974,0.0267217,inf	5.07942,5.07942,427.074,355.664,39.8749,70.3182,42.1093,79.6738,122.132,157.631,317.203,568.862,464.269,389.292,389.292,389.292
0.000982851	-16696935.25	0,5.05028e-06,1.38132e-05,2.90182e-05,5.54011e-05,0.000101179,0.000180611,0.000318436,0.000557582,0.000972535,0.00169254,0.00294185,0.00510958,0.00887091,0.0153974,0.0267217,inf	1.71659,1.71659,427.424,367.84,32.6549,74.7384,38.3619,80.19,123.043,150.569,311.893,583.384,473.386,390.912,390.912,390.912
0.00101259	-16695990.98	0,5.05028e-06,1.38132e-05,2.90182e-05,5.54011e-05,0.000101179,0.000180611,0.000318436,0.000557582,0.000972535,0.00169254,0.00294185,0.00510958,0.00887091,0.0153974,0.0267217,inf	0.575657,0.575657,423.659,371.687,26.9374,79.3102,35.6012,82.2257,125.872,145.849,308.06,592.481,478.893,390.931,390.931,390.931
0.00104063	-16695345.15	0,5.05028e-06,1.38132e-05,2.90182e-05,5.54011e-05,0.000101179,0.000180611,0.000318436,0.000557582,0.000972535,0.00169254,0.00294185,0.00510958,0.00887091,0.0153974,0.0267217,inf	0.323487,0.323487,420.419,370.763,22.3182,83.3854,33.2237,84.769,129.475,142.494,305.37,598.309,482.204,390.161,390.161,390.161
0.00106749	-16694861.81	0,5.05028e-06,1.38132e-05,2.90182e-05,5.54011e-05,0.000101179,0.000180611,0.000318436,0.000557582,0.000972535,0.00169254,0.00294185,0.00510958,0.00887091,0.0153974,0.0267217,inf	0.323479,0.323479,419.237,367.205,18.5725,86.8269,31.0308,87.3698,133.283,139.972,303.542,602.099,484.164,389.051,389.051,389.051
0.0010935	-16694475.41	0,5.05028e-06,1.38132e-05,2.90182e-05,5.54011e-05,0.000101179,0.000180611,0.000318436,0.000557582,0.000972535,0.00169254,0.00294185,0.00510958,0.00887091,0.0153974,0.0267217,inf	0.323479,0.323479,420.297,362.165,15.5354,89.6897,28.9706,89.8453,137.012,137.983,302.363,604.573,485.281,387.844,387.844,387.844
0.00111884	-16694151.33	0,5.05028e-06,1.38132e-05,2.90182e-05,5.54011e-05,0.000101179,0.000180611,0.000318436,0.000557582,0.000972535,0.00169254,0.00294185,0.00510958,0.00887091,0.0153974,0.0267217,inf	0.323479,0.323479,423.262,356.282,13.0662,92.0872,27.0376,92.1414,140.53,136.35,301.676,606.166,485.866,386.666,386.666,386.666
0.00114362	-16693869.93	0,5.05028e-06,1.38132e-05,2.90182e-05,5.54011e-05,0.000101179,0.000180611,0.000318436,0.000557582,0.000972535,0.00169254,0.00294185,0.00510958,0.00887091,0.0153974,0.0267217,inf	0.323479,0.323479,427.678,349.924,11.0551,94.1258,25.2356,94.2622,143.783,134.965,301.365,607.148,486.11,385.577,385.577,385.577
0.00116794	-16693619.46	0,5.05028e-06,1.38132e-05,2.90182e-05,5.54011e-05,0.000101179,0.000180611,0.000318436,0.000557582,0.000972535,0.00169254,0.00294185,0.00510958,0.00887091,0.0153974,0.0267217,inf	0.323479,0.323479,433.103,343.299,9.40891,95.8892,23.5668,96.2356,146.758,133.758,301.344,607.694,486.13,384.6,384.6,384.6
0.00119182	-16693392.51	0,5.05028e-06,1.38132e-05,2.90182e-05,5.54011e-05,0.000101179,0.000180611,0.000318436,0.000557582,0.000972535,0.00169254,0.00294185,0.00510958,0.00887091,0.0153974,0.0267217,inf	0.323479,0.323479,439.169,336.562,8.05451,97.4393,22.0288,98.0959,149.461,132.686,301.549,607.917,486.004,383.741,383.741,383.741
0.00121531	-16693184.21	0,5.05028e-06,1.38132e-05,2.90182e-05,5.54011e-05,0.000101179,0.000180611,0.000318436,0.000557582,0.000972535,0.00169254,0.00294185,0.00510958,0.00887091,0.0153974,0.0267217,inf	0.323479,0.323479,445.582,329.813,6.93354,98.818,20.6158,99.8746,151.91,131.717,301.931,607.896,485.779,382.994,382.994,382.994
0.00123843	-16692991.25	0,5.05028e-06,1.38132e-05,2.90182e-05,5.54011e-05,0.000101179,0.000180611,0.000318436,0.000557582,0.000972535,0.00169254,0.00294185,0.00510958,0.00887091,0.0153974,0.0267217,inf	0.323479,0.323479,452.129,323.138,6.00093,100.054,19.3194,101.599,154.123,130.83,302.453,607.688,485.487,382.349,382.349,382.349
0.0012612	-16692811.26	0,5.05028e-06,1.38132e-05,2.90182e-05,5.54011e-05,0.000101179,0.000180611,0.000318436,0.000557582,0.000972535,0.00169254,0.00294185,0.00510958,0.00887091,0.0153974,0.0267217,inf	0.323479,0.323479,458.634,316.592,5.2212,101.167,18.1299,103.291,156.12,130.011,303.085,607.331,485.15,381.794,381.794,381.794
0.00128363	-16692642.50	0,5.05028e-06,1.38132e-05,2.90182e-05,5.54011e-05,0.000101179,0.000180611,0.000318436,0.000557582,0.000972535,0.00169254,0.00294185,0.00510958,0.00887091,0.0153974,0.0267217,inf	0.323478,0.323478,464.991,310.221,4.56506,102.173,17.038,104.968,157.921,129.247,303.805,606.858,484.781,381.316,381.316,381.316
0.00130573	-16692483.64	0,5.05028e-06,1.38132e-05,2.90182e-05,5.54011e-05,0.000101179,0.000180611,0.000318436,0.000557582,0.000972535,0.00169254,0.00294185,0.00510958,0.00887091,0.0153974,0.0267217,inf	0.323478,0.323478,471.137,304.045,4.00975,103.081,16.0344,106.641,159.544,128.531,304.595,606.291,484.39,380.905,380.905,380.905
0.0013275	-16692333.64	0,5.05028e-06,1.38132e-05,2.90182e-05,5.54011e-05,0.000101179,0.000180611,0.000318436,0.000557582,0.000972535,0.00169254,0.00294185,0.00510958,0.00887091,0.0153974,0.0267217,inf	0.323478,0.323478,477.008,298.098,3.53784,103.903,15.1104,108.32,161.003,127.856,305.44,605.648,483.985,380.549,380.549,380.549
0.00134897	-16692191.65	0,5.05028e-06,1.38132e-05,2.90182e-05,5.54011e-05,0.000101179,0.000180611,0.000318436,0.000557582,0.000972535,0.00169254,0.00294185,0.00510958,0.00887091,0.0153974,0.0267217,inf	0.323478,0.323478,482.583,292.382,3.13458,104.646,14.2577,110.01,162.315,127.217,306.329,604.943,483.569,380.239,380.239,380.239
