0.000783101	-5373568.98	0,1.23137e-05,3.22624e-05,6.45798e-05,0.000116935,0.000201752,0.000339159,0.000561761,0.000922385,0.00150661,0.00245306,0.00398635,0.00647033,0.0104945,0.0170137,0.027575,inf	859.515,859.515,538.694,134.302,101.94,133.414,175.325,187.263,207.173,285.515,434.999,424.956,381.532,359.514,359.514,359.514
0.000828966	-5366538.71	0,1.23137e-05,3.22624e-05,6.45798e-05,0.000116935,0.000201752,0.000339159,0.000561761,0.000922385,0.00150661,0.00245306,0.00398635,0.00647033,0.0104945,0.0170137,0.027575,inf	1172.21,1172.21,672.106,76.6595,51.0242,87.1923,146.495,147.501,158.005,253.92,490.523,486.607,412.344,372.395,372.395,372.395
0.000869141	-5364126.18	0,1.23137e-05,3.22624e-05,6.45798e-05,0.000116935,0.000201752,0.000339159,0.000561761,0.000922385,0.00150661,0.00245306,0.00398635,0.00647033,0.0104945,0.0170137,0.027575,inf	1287.81,1287.81,749.721,50.3084,31.6832,70.2499,148.178,134.232,132.307,232.865,520.129,527.138,431.25,377.503,377.503,377.503
0.000904027	-5363041.96	0,1.23137e-05,3.22624e-05,6.45798e-05,0.000116935,0.000201752,0.000339159,0.000561761,0.000922385,0.00150661,0.00245306,0.00398635,0.00647033,0.0104945,0.0170137,0.027575,inf	1309.75,1309.75,791.947,35.014,21.5528,61.427,160.615,130.206,116.784,218.5,536.164,553.872,442.36,378.112,378.112,378.112
0.000935226	-5362450.68	0,1.23137e-05,3.22624e-05,6.45798e-05,0.000116935,0.000201752,0.000339159,0.000561761,0.000922385,0.00150661,0.00245306,0.00398635,0.00647033,0.0104945,0.0170137,0.027575,inf	1298.12,1298.12,811.511,24.98,15.2155,55.1359,176.868,129.697,106.471,208.437,545.217,571.834,448.654,376.402,376.402,376.402
0.000963947	-5362079.89	0,1.23137e-05,3.22624e-05,6.45798e-05,0.000116935,0.000201752,0.000339159,0.000561761,0.000922385,0.00150661,0.00245306,0.00398635,0.00647033,0.0104945,0.0170137,0.027575,inf	1279.07,1279.07,816.676,18.0229,10.9068,49.6991,193.769,130.438,99.1357,201.231,550.633,584.149,452.039,373.656,373.656,373.656
0.00099095	-5361823.47	0,1.23137e-05,3.22624e-05,6.45798e-05,0.000116935,0.000201752,0.000339159,0.000561761,0.000922385,0.00150661,0.00245306,0.00398635,0.00647033,0.0104945,0.0170137,0.027575,inf	1262.22,1262.22,812.859,13.0838,7.87706,44.6725,209.824,131.48,93.6524,195.995,554.103,592.736,453.684,370.582,370.582,370.582
0.00101669	-5361633.18	0,1.23137e-05,3.22624e-05,6.45798e-05,0.000116935,0.000201752,0.000339159,0.000561761,0.000922385,0.00150661,0.00245306,0.00398635,0.00647033,0.0104945,0.0170137,0.027575,inf	1250.18,1250.18,803.499,9.54015,5.72034,39.9988,224.419,132.434,89.4012,192.163,556.49,598.788,454.3,367.552,367.552,367.552
0.00104145	-5361484.22	0,1.23137e-05,3.22624e-05,6.45798e-05,0.000116935,0.000201752,0.000339159,0.000561761,0.000922385,0.00150661,0.00245306,0.00398635,0.00647033,0.0104945,0.0170137,0.027575,inf	1242.93,1242.93,790.791,6.98311,4.17705,35.7125,237.413,133.16,86.0147,189.365,558.242,603.064,454.318,364.75,364.75,364.75
0.0010654	-5361362.71	0,1.23137e-05,3.22624e-05,6.45798e-05,0.000116935,0.000201752,0.000339159,0.000561761,0.000922385,0.00150661,0.00245306,0.00398635,0.00647033,0.0104945,0.0170137,0.027575,inf	1239.58,1239.58,776.116,5.13045,3.06875,31.8443,248.896,133.622,83.2607,187.344,559.595,606.064,453.997,362.256,362.256,362.256
0.00108865	-5361260.33	0,1.23137e-05,3.22624e-05,6.45798e-05,0.000116935,0.000201752,0.000339159,0.000561761,0.000922385,0.00150661,0.00245306,0.00398635,0.00647033,0.0104945,0.0170137,0.027575,inf	1239.21,1239.21,760.37,3.78326,2.26987,28.3993,259.048,133.831,80.9845,185.921,560.676,608.127,453.498,360.091,360.091,360.091
0.00111129	-5361171.88	0,1.23137e-05,3.22624e-05,6.45798e-05,0.000116935,0.000201752,0.000339159,0.000561761,0.000922385,0.00150661,0.00245306,0.00398635,0.00647033,0.0104945,0.0170137,0.027575,inf	1240.95,1240.95,744.121,2.8001,1.69102,25.36,268.071,133.809,79.0782,184.965,561.559,609.49,452.915,358.249,358.249,358.249
0.00113337	-5361093.96	0,1.23137e-05,3.22624e-05,6.45798e-05,0.000116935,0.000201752,0.000339159,0.000561761,0.000922385,0.00150661,0.00245306,0.00398635,0.00647033,0.0104945,0.0170137,0.027575,inf	1244.21,1244.21,727.764,2.08019,1.26927,22.695,276.155,133.584,77.4641,184.38,562.285,610.322,452.307,356.707,356.707,356.707
0.00115493	-5361024.24	0,1.23137e-05,3.22624e-05,6.45798e-05,0.000116935,0.000201752,0.000339159,0.000561761,0.000922385,0.00150661,0.00245306,0.00398635,0.00647033,0.0104945,0.0170137,0.027575,inf	1248.45,1248.45,711.539,1.55106,0.959944,20.3664,283.466,133.182,76.0844,184.091,562.883,610.747,451.707,355.435,355.435,355.435
0.001176	-5360961.11	0,1.23137e-05,3.22624e-05,6.45798e-05,0.000116935,0.000201752,0.000339159,0.000561761,0.000922385,0.00150661,0.00245306,0.00398635,0.00647033,0.0104945,0.0170137,0.027575,inf	1253.35,1253.35,695.613,1.1609,0.731598,18.3347,290.14,132.624,74.8955,184.043,563.368,610.857,451.132,354.404,354.404,354.404
0.00119662	-5360903.39	0,1.23137e-05,3.22624e-05,6.45798e-05,0.000116935,0.000201752,0.000339159,0.000561761,0.000922385,0.00150661,0.00245306,0.00398635,0.00647033,0.0104945,0.0170137,0.027575,inf	1258.63,1258.63,680.078,0.871979,0.560697,16.5627,296.291,131.929,73.8637,184.192,563.757,610.722,450.592,353.583,353.583,353.583
0.0012168	-5360850.22	0,1.23137e-05,3.22624e-05,6.45798e-05,0.000116935,0.000201752,0.000339159,0.000561761,0.000922385,0.00150661,0.00245306,0.00398635,0.00647033,0.0104945,0.0170137,0.027575,inf	1264.18,1264.18,665.014,0.657471,0.432884,15.0156,302.007,131.115,72.9625,184.503,564.058,610.397,450.091,352.945,352.945,352.945
0.00123657	-5360800.93	0,1.23137e-05,3.22624e-05,6.45798e-05,0.000116935,0.000201752,0.000339159,0.000561761,0.000922385,0.00150661,0.00245306,0.00398635,0.00647033,0.0104945,0.0170137,0.027575,inf	1269.82,1269.82,650.423,0.496448,0.336642,13.6629,307.362,130.195,72.1708,184.949,564.281,609.922,449.627,352.464,352.464,352.464
0.00125594	-5360755.01	0,1.23137e-05,3.22624e-05,6.45798e-05,0.000116935,0.000201752,0.000339159,0.000561761,0.000922385,0.00150661,0.00245306,0.00398635,0.00647033,0.0104945,0.0170137,0.027575,inf	1275.52,1275.52,636.354,0.376199,0.335686,12.4784,312.414,129.183,71.4721,185.507,564.432,609.331,449.2,352.116,352.116,352.116
0.00127492	-5360712.07	0,1.23137e-05,3.22624e-05,6.45798e-05,0.000116935,0.000201752,0.000339159,0.000561761,0.000922385,0.00150661,0.00245306,0.00398635,0.00647033,0.0104945,0.0170137,0.027575,inf	1281.11,1281.11,622.714,0.335686,0.335686,11.4373,317.204,128.088,70.8523,186.16,564.52,608.651,448.806,351.883,351.883,351.883
