0.000690083	-3046536.54	0,9.24519e-05,0.000218955,0.000392052,0.000628902,0.000952988,0.00139644,0.00200322,0.00283349,0.00396956,0.00552406,0.0076511,0.0105616,0.014544,0.0199932,0.0274495,inf	396.942,396.942,378.899,387.677,391.98,394.341,399.285,404.384,408.453,407.34,400.429,391.679,374.285,339.923,339.923,339.923
0.000746467	-3045924.92	0,9.24519e-05,0.000218955,0.000392052,0.000628902,0.000952988,0.00139644,0.00200322,0.00283349,0.00396956,0.00552406,0.0076511,0.0105616,0.014544,0.0199932,0.0274495,inf	400.768,400.768,370.109,385.837,391.149,392.654,399.091,406.831,414.087,412.965,401.48,386.85,357.785,305.655,305.655,305.655
0.00079742	-3045475.87	0,9.24519e-05,0.000218955,0.000392052,0.000628902,0.000952988,0.00139644,0.00200322,0.00283349,0.00396956,0.00552406,0.0076511,0.0105616,0.014544,0.0199932,0.0274495,inf	403.794,403.794,364.983,387.21,392.288,391.817,398.291,407.425,417.22,416.647,402.099,383.519,346.346,283.736,283.736,283.736
0.00084363	-3045135.94	0,9.24519e-05,0.000218955,0.000392052,0.000628902,0.000952988,0.00139644,0.00200322,0.00283349,0.00396956,0.00552406,0.0076511,0.0105616,0.014544,0.0199932,0.0274495,inf	405.399,405.399,361.46,389.915,394.197,391.383,397.238,407.069,418.893,419.134,402.518,381.304,338.331,268.931,268.931,268.931
0.000885674	-3044873.10	0,9.24519e-05,0.000218955,0.000392052,0.000628902,0.000952988,0.00139644,0.00200322,0.00283349,0.00396956,0.00552406,0.0076511,0.0105616,0.014544,0.0199932,0.0274495,inf	405.971,405.971,358.794,393.179,396.377,391.171,396.118,406.23,419.683,420.845,402.824,379.889,332.664,258.548,258.548,258.548
0.000924035	-3044666.51	0,9.24519e-05,0.000218955,0.000392052,0.000628902,0.000952988,0.00139644,0.00200322,0.00283349,0.00396956,0.00552406,0.0076511,0.0105616,0.014544,0.0199932,0.0274495,inf	405.94,405.94,356.659,396.634,398.596,391.086,395.022,405.159,419.925,422.026,403.051,379.03,328.628,251.061,251.061,251.061
0.000959118	-3044501.95	0,9.24519e-05,0.000218955,0.000392052,0.000628902,0.000952988,0.00139644,0.00200322,0.00283349,0.00396956,0.00552406,0.0076511,0.0105616,0.014544,0.0199932,0.0274495,inf	405.607,405.607,354.882,400.091,400.738,391.074,393.99,403.992,419.819,422.833,403.21,378.553,325.736,245.543,245.543,245.543
0.000991271	-3044369.44	0,9.24519e-05,0.000218955,0.000392052,0.000628902,0.000952988,0.00139644,0.00200322,0.00283349,0.00396956,0.00552406,0.0076511,0.0105616,0.014544,0.0199932,0.0274495,inf	405.154,405.154,353.361,403.454,402.746,391.105,393.04,402.807,419.492,423.369,403.308,378.333,323.657,241.407,241.407,241.407
0.00102079	-3044261.75	0,9.24519e-05,0.000218955,0.000392052,0.000628902,0.000952988,0.00139644,0.00200322,0.00283349,0.00396956,0.00552406,0.0076511,0.0105616,0.014544,0.0199932,0.0274495,inf	404.686,404.686,352.032,406.673,404.598,391.158,392.178,401.647,419.026,423.706,403.351,378.283,322.159,238.263,238.263,238.263
0.00104794	-3044173.55	0,9.24519e-05,0.000218955,0.000392052,0.000628902,0.000952988,0.00139644,0.00200322,0.00283349,0.00396956,0.00552406,0.0076511,0.0105616,0.014544,0.0199932,0.0274495,inf	404.253,404.253,350.852,409.724,406.287,391.223,391.402,400.535,418.478,423.897,403.346,378.343,321.081,235.843,235.843,235.843
0.00107295	-3044100.83	0,9.24519e-05,0.000218955,0.000392052,0.000628902,0.000952988,0.00139644,0.00200322,0.00283349,0.00396956,0.00552406,0.0076511,0.0105616,0.014544,0.0199932,0.0274495,inf	403.883,403.883,349.789,412.603,407.815,391.293,390.709,399.485,417.882,423.979,403.298,378.473,320.306,233.964,233.964,233.964
0.00109602	-3044040.50	0,9.24519e-05,0.000218955,0.000392052,0.000628902,0.000952988,0.00139644,0.00200322,0.00283349,0.00396956,0.00552406,0.0076511,0.0105616,0.014544,0.0199932,0.0274495,inf	403.581,403.581,348.823,415.31,409.191,391.363,390.093,398.501,417.266,423.981,403.215,378.645,319.755,232.493,232.493,232.493
0.00111732	-3043990.21	0,9.24519e-05,0.000218955,0.000392052,0.000628902,0.000952988,0.00139644,0.00200322,0.00283349,0.00396956,0.00552406,0.0076511,0.0105616,0.014544,0.0199932,0.0274495,inf	403.348,403.348,347.935,417.852,410.424,391.431,389.548,397.585,416.646,423.924,403.102,378.84,319.366,231.334,231.334,231.334
0.00113701	-3043948.09	0,9.24519e-05,0.000218955,0.000392052,0.000628902,0.000952988,0.00139644,0.00200322,0.00283349,0.00396956,0.00552406,0.0076511,0.0105616,0.014544,0.0199932,0.0274495,inf	403.177,403.177,347.114,420.238,411.526,391.495,389.068,396.736,416.033,423.825,402.964,379.045,319.097,230.415,230.415,230.415
0.00115523	-3043912.67	0,9.24519e-05,0.000218955,0.000392052,0.000628902,0.000952988,0.00139644,0.00200322,0.00283349,0.00396956,0.00552406,0.0076511,0.0105616,0.014544,0.0199932,0.0274495,inf	403.062,403.062,346.352,422.479,412.506,391.553,388.646,395.951,415.435,423.696,402.808,379.253,318.916,229.684,229.684,229.684
0.00117211	-3043882.78	0,9.24519e-05,0.000218955,0.000392052,0.000628902,0.000952988,0.00139644,0.00200322,0.00283349,0.00396956,0.00552406,0.0076511,0.0105616,0.014544,0.0199932,0.0274495,inf	402.993,402.993,345.639,424.585,413.375,391.606,388.277,395.226,414.857,423.546,402.637,379.458,318.8,229.1,229.1,229.1
0.00118776	-3043857.47	0,9.24519e-05,0.000218955,0.000392052,0.000628902,0.000952988,0.00139644,0.00200322,0.00283349,0.00396956,0.00552406,0.0076511,0.0105616,0.014544,0.0199932,0.0274495,inf	402.964,402.964,344.972,426.567,414.143,391.653,387.955,394.558,414.302,423.384,402.455,379.657,318.731,228.633,228.633,228.633
0.00120228	-3043835.98	0,9.24519e-05,0.000218955,0.000392052,0.000628902,0.000952988,0.00139644,0.00200322,0.00283349,0.00396956,0.00552406,0.0076511,0.0105616,0.014544,0.0199932,0.0274495,inf	402.969,402.969,344.343,428.435,414.82,391.694,387.676,393.942,413.771,423.215,402.266,379.849,318.697,228.259,228.259,228.259
0.00121576	-3043817.67	0,9.24519e-05,0.000218955,0.000392052,0.000628902,0.000952988,0.00139644,0.00200322,0.00283349,0.00396956,0.00552406,0.0076511,0.0105616,0.014544,0.0199932,0.0274495,inf	403.001,403.001,343.75,430.197,415.412,391.728,387.435,393.375,413.266,423.042,402.071,380.031,318.688,227.961,227.961,227.961
0.00122828	-3043802.05	0,9.24519e-05,0.000218955,0.000392052,0.000628902,0.000952988,0.00139644,0.00200322,0.00283349,0.00396956,0.00552406,0.0076511,0.0105616,0.014544,0.0199932,0.0274495,inf	403.053,403.053,343.187,431.863,415.929,391.757,387.229,392.852,412.787,422.87,401.873,380.204,318.697,227.722,227.722,227.722
