0.000687216	-45365119.84	0,1.02983e-05,2.69819e-05,5.40098e-05,9.77958e-05,0.000168731,0.000283647,0.000469816,0.000771414,0.00126001,0.00205156,0.00333389,0.00541131,0.00877679,0.014229,0.0230617,inf	414.479,414.479,431.701,420.442,396.275,389.67,388.808,390.6,395.724,404.064,408.708,408.3,394.582,363.988,363.988,363.988
0.000744731	-45355533.82	0,1.02983e-05,2.69819e-05,5.40098e-05,9.77958e-05,0.000168731,0.000283647,0.000469816,0.000771414,0.00126001,0.00205156,0.00333389,0.00541131,0.00877679,0.014229,0.0230617,inf	407.794,407.794,448.504,434.058,394.919,386.499,385.604,387.486,393.865,405.62,412.174,412.721,390.035,339.489,339.489,339.489
0.000796281	-45348669.04	0,1.02983e-05,2.69819e-05,5.40098e-05,9.77958e-05,0.000168731,0.000283647,0.000469816,0.000771414,0.00126001,0.00205156,0.00333389,0.00541131,0.00877679,0.014229,0.0230617,inf	394.738,394.738,456.201,441.962,393.277,385.757,385.594,387.182,393.373,406.373,413.495,415.681,387.074,322.587,322.587,322.587
0.000842663	-45343584.25	0,1.02983e-05,2.69819e-05,5.40098e-05,9.77958e-05,0.000168731,0.000283647,0.000469816,0.000771414,0.00126001,0.00205156,0.00333389,0.00541131,0.00877679,0.014229,0.0230617,inf	382,382,459.298,446.158,391.03,385.8,386.8,388.047,393.483,406.676,413.614,417.722,385.204,310.472,310.472,310.472
0.000884537	-45339723.87	0,1.02983e-05,2.69819e-05,5.40098e-05,9.77958e-05,0.000168731,0.000283647,0.000469816,0.000771414,0.00126001,0.00205156,0.00333389,0.00541131,0.00877679,0.014229,0.0230617,inf	371.614,371.614,460.422,448.226,388.437,386.12,388.461,389.406,393.888,406.745,413.048,419.146,384.073,301.523,301.523,301.523
0.000922452	-45336735.80	0,1.02983e-05,2.69819e-05,5.40098e-05,9.77958e-05,0.000168731,0.000283647,0.000469816,0.000771414,0.00126001,0.00205156,0.00333389,0.00541131,0.00877679,0.014229,0.0230617,inf	363.716,363.716,460.868,449.147,385.741,386.547,390.248,390.944,394.442,406.703,412.093,420.134,383.436,294.745,294.745,294.745
0.000956869	-45334386.45	0,1.02983e-05,2.69819e-05,5.40098e-05,9.77958e-05,0.000168731,0.000283647,0.000469816,0.000771414,0.00126001,0.00205156,0.00333389,0.00541131,0.00877679,0.014229,0.0230617,inf	357.843,357.843,461.198,449.475,383.102,387.023,392.011,392.505,395.068,406.618,410.923,420.801,383.126,289.504,289.504,289.504
0.00098818	-45332515.27	0,1.02983e-05,2.69819e-05,5.40098e-05,9.77958e-05,0.000168731,0.000283647,0.000469816,0.000771414,0.00126001,0.00205156,0.00333389,0.00541131,0.00877679,0.014229,0.0230617,inf	353.483,353.483,461.629,449.514,380.608,387.527,393.681,394.009,395.72,406.529,409.644,421.229,383.031,285.377,285.377,285.377
0.00101672	-45331008.73	0,1.02983e-05,2.69819e-05,5.40098e-05,9.77958e-05,0.000168731,0.000283647,0.000469816,0.000771414,0.00126001,0.00205156,0.00333389,0.00541131,0.00877679,0.014229,0.0230617,inf	350.178,350.178,462.223,449.425,378.301,388.051,395.228,395.417,396.374,406.457,408.323,421.477,383.076,282.075,282.075,282.075
0.00104278	-45329784.51	0,1.02983e-05,2.69819e-05,5.40098e-05,9.77958e-05,0.000168731,0.000283647,0.000469816,0.000771414,0.00126001,0.00205156,0.00333389,0.00541131,0.00877679,0.014229,0.0230617,inf	347.615,347.615,462.966,449.29,376.194,388.594,396.645,396.711,397.014,406.413,407.001,421.588,383.209,279.397,279.397,279.397
0.00106662	-45328781.76	0,1.02983e-05,2.69819e-05,5.40098e-05,9.77958e-05,0.000168731,0.000283647,0.000469816,0.000771414,0.00126001,0.00205156,0.00333389,0.00541131,0.00877679,0.014229,0.0230617,inf	345.564,345.564,463.828,449.154,374.285,389.154,397.933,397.887,397.631,406.401,405.705,421.596,383.397,277.199,277.199,277.199
0.00108845	-45327954.66	0,1.02983e-05,2.69819e-05,5.40098e-05,9.77958e-05,0.000168731,0.000283647,0.000469816,0.000771414,0.00126001,0.00205156,0.00333389,0.00541131,0.00877679,0.014229,0.0230617,inf	343.882,343.882,464.768,449.034,372.562,389.729,399.098,398.944,398.219,406.424,404.45,421.526,383.617,275.374,275.374,275.374
0.00110848	-45327268.26	0,1.02983e-05,2.69819e-05,5.40098e-05,9.77958e-05,0.000168731,0.000283647,0.000469816,0.000771414,0.00126001,0.00205156,0.00333389,0.00541131,0.00877679,0.014229,0.0230617,inf	342.464,342.464,465.756,448.935,371.011,390.32,400.149,399.888,398.775,406.479,403.244,421.4,383.854,273.843,273.843,273.843
0.00112686	-45326695.48	0,1.02983e-05,2.69819e-05,5.40098e-05,9.77958e-05,0.000168731,0.000283647,0.000469816,0.000771414,0.00126001,0.00205156,0.00333389,0.00541131,0.00877679,0.014229,0.0230617,inf	341.232,341.232,466.763,448.857,369.617,390.924,401.097,400.727,399.298,406.566,402.094,421.231,384.098,272.549,272.549,272.549
0.00114376	-45326215.13	0,1.02983e-05,2.69819e-05,5.40098e-05,9.77958e-05,0.000168731,0.000283647,0.000469816,0.000771414,0.00126001,0.00205156,0.00333389,0.00541131,0.00877679,0.014229,0.0230617,inf	340.152,340.152,467.767,448.794,368.362,391.539,401.952,401.468,399.786,406.682,401,421.033,384.343,271.446,271.446,271.446
0.00115931	-45325810.50	0,1.02983e-05,2.69819e-05,5.40098e-05,9.77958e-05,0.000168731,0.000283647,0.000469816,0.000771414,0.00126001,0.00205156,0.00333389,0.00541131,0.00877679,0.014229,0.0230617,inf	339.19,339.19,468.753,448.744,367.227,392.163,402.722,402.118,400.241,406.824,399.964,420.814,384.584,270.498,270.498,270.498
0.00117363	-45325468.24	0,1.02983e-05,2.69819e-05,5.40098e-05,9.77958e-05,0.000168731,0.000283647,0.000469816,0.000771414,0.00126001,0.00205156,0.00333389,0.00541131,0.00877679,0.014229,0.0230617,inf	338.322,338.322,469.711,448.702,366.203,392.794,403.417,402.687,400.663,406.988,398.983,420.582,384.818,269.678,269.678,269.678
0.00118682	-45325177.63	0,1.02983e-05,2.69819e-05,5.40098e-05,9.77958e-05,0.000168731,0.000283647,0.000469816,0.000771414,0.00126001,0.00205156,0.00333389,0.00541131,0.00877679,0.014229,0.0230617,inf	337.547,337.547,470.637,448.661,365.272,393.43,404.045,403.181,401.053,407.173,398.056,420.343,385.045,268.964,268.964,268.964
0.001199	-45324930.02	0,1.02983e-05,2.69819e-05,5.40098e-05,9.77958e-05,0.000168731,0.000283647,0.000469816,0.000771414,0.00126001,0.00205156,0.00333389,0.00541131,0.00877679,0.014229,0.0230617,inf	336.838,336.838,471.522,448.623,364.424,394.069,404.613,403.608,401.412,407.376,397.181,420.1,385.263,268.339,268.339,268.339
0.00121023	-45324718.34	0,1.02983e-05,2.69819e-05,5.40098e-05,9.77958e-05,0.000168731,0.000283647,0.000469816,0.000771414,0.00126001,0.00205156,0.00333389,0.00541131,0.00877679,0.014229,0.0230617,inf	336.191,336.191,472.363,448.585,363.648,394.71,405.128,403.975,401.742,407.594,396.354,419.858,385.472,267.79,267.79,267.79
