LogLikelihood = -217416.31696441743406

y0 0.9517051795360027544
y0_prime 0
y1 1.0494616912930707642
y1_prime 0
y2 0.99441858076531586264
y2_prime 0
y3 2.0407462645078253693
y3_prime 0
rho 8.1428295385793861955e-05
theta 0.0005222723990860533242
