LogLikelihood = -41118.394687151223479

y0 0.9777607196219789687
y0_prime 0
y1 1.0152202618311558791
y1_prime 0
y2 0.88133235327979553286
y2_prime 0
y3 2.0991763266943981314
y3_prime 0
rho 9.8909800426943365187e-05
theta 0.0004914613223642021753
