time_index	left_time_boundary	right_time_boundary	lambda
0	0	1.76832e-06	1088.39
1	1.76832e-06	4.09764e-06	1088.39
2	4.09764e-06	7.16594e-06	8.9002
3	7.16594e-06	1.12076e-05	22.4562
4	1.12076e-05	1.65316e-05	201.89
5	1.65316e-05	2.35445e-05	337.358
6	2.35445e-05	3.27823e-05	348.566
7	3.27823e-05	4.49508e-05	346.931
8	4.49508e-05	6.09797e-05	313.764
9	6.09797e-05	8.20937e-05	305.734
10	8.20937e-05	0.000109906	314.702
11	0.000109906	0.000146542	313.351
12	0.000146542	0.000194801	318.8
13	0.000194801	0.000258369	340.69
14	0.000258369	0.000342105	350.747
15	0.000342105	0.000452405	342.563
16	0.000452405	0.000597699	329.158
17	0.000597699	0.000789086	325.123
18	0.000789086	0.00104119	329.523
19	0.00104119	0.00137328	345.977
20	0.00137328	0.00181071	373.334
21	0.00181071	0.00238693	407.926
22	0.00238693	0.00314595	445.861
23	0.00314595	0.00414576	472.805
24	0.00414576	0.00546277	461.6
25	0.00546277	0.00719759	421.418
26	0.00719759	0.00948279	389.21
27	0.00948279	0.012493	400.539
28	0.012493	0.0164581	400.539
29	0.0164581	0.0216812	59448.6
30	0.0216812	0.0285613	59448.6
31	0.0285613	inf	59448.6
