0.000683268	-303766.96	0,4.51843e-05,9.85941e-05,0.000161727,0.000236352,0.000324562,0.00042883,0.000552079,0.000697764,0.00086997,0.00107352,0.00131413,0.00159855,0.00193473,0.00233212,0.00280184,0.00335708,0.00401339,0.00478917,0.00570618,0.00679012,0.00807139,0.0095859,0.0113761,0.0134922,0.0159935,0.0189502,0.0224451,0.0265762,0.0314594,inf	417,417,417,417,417,417,417,417,417,417,417,417,417,417,417,417,417,417,417,417,417,417,417,417,417,417,417,417,417,417
0.000740995	-303697.61	0,4.51843e-05,9.85941e-05,0.000161727,0.000236352,0.000324562,0.00042883,0.000552079,0.000697764,0.00086997,0.00107352,0.00131413,0.00159855,0.00193473,0.00233212,0.00280184,0.00335708,0.00401339,0.00478917,0.00570618,0.00679012,0.00807139,0.0095859,0.0113761,0.0134922,0.0159935,0.0189502,0.0224451,0.0265762,0.0314594,inf	422.544,422.544,422.544,422.544,422.544,422.544,422.544,422.544,422.544,422.544,422.544,422.544,422.544,422.544,422.544,422.544,422.544,422.544,422.544,422.544,422.544,422.544,422.544,422.544,422.544,422.544,422.544,422.544,422.544,422.544
0.000794989	-303642.89	0,4.51843e-05,9.85941e-05,0.000161727,0.000236352,0.000324562,0.00042883,0.000552079,0.000697764,0.00086997,0.00107352,0.00131413,0.00159855,0.00193473,0.00233212,0.00280184,0.00335708,0.00401339,0.00478917,0.00570618,0.00679012,0.00807139,0.0095859,0.0113761,0.0134922,0.0159935,0.0189502,0.0224451,0.0265762,0.0314594,inf	424.265,424.265,424.265,424.265,424.265,424.265,424.265,424.265,424.265,424.265,424.265,424.265,424.265,424.265,424.265,424.265,424.265,424.265,424.265,424.265,424.265,424.265,424.265,424.265,424.265,424.265,424.265,424.265,424.265,424.265
0.000846039	-303596.83	0,4.51843e-05,9.85941e-05,0.000161727,0.000236352,0.000324562,0.00042883,0.000552079,0.000697764,0.00086997,0.00107352,0.00131413,0.00159855,0.00193473,0.00233212,0.00280184,0.00335708,0.00401339,0.00478917,0.00570618,0.00679012,0.00807139,0.0095859,0.0113761,0.0134922,0.0159935,0.0189502,0.0224451,0.0265762,0.0314594,inf	424.306,424.306,424.306,424.306,424.306,424.306,424.306,424.306,424.306,424.306,424.306,424.306,424.306,424.306,424.306,424.306,424.306,424.306,424.306,424.306,424.306,424.306,424.306,424.306,424.306,424.306,424.306,424.306,424.306,424.306
0.000894612	-303557.24	0,4.51843e-05,9.85941e-05,0.000161727,0.000236352,0.000324562,0.00042883,0.000552079,0.000697764,0.00086997,0.00107352,0.00131413,0.00159855,0.00193473,0.00233212,0.00280184,0.00335708,0.00401339,0.00478917,0.00570618,0.00679012,0.00807139,0.0095859,0.0113761,0.0134922,0.0159935,0.0189502,0.0224451,0.0265762,0.0314594,inf	423.626,423.626,423.626,423.626,423.626,423.626,423.626,423.626,423.626,423.626,423.626,423.626,423.626,423.626,423.626,423.626,423.626,423.626,423.626,423.626,423.626,423.626,423.626,423.626,423.626,423.626,423.626,423.626,423.626,423.626
0.000941001	-303522.86	0,4.51843e-05,9.85941e-05,0.000161727,0.000236352,0.000324562,0.00042883,0.000552079,0.000697764,0.00086997,0.00107352,0.00131413,0.00159855,0.00193473,0.00233212,0.00280184,0.00335708,0.00401339,0.00478917,0.00570618,0.00679012,0.00807139,0.0095859,0.0113761,0.0134922,0.0159935,0.0189502,0.0224451,0.0265762,0.0314594,inf	422.654,422.654,422.654,422.654,422.654,422.654,422.654,422.654,422.654,422.654,422.654,422.654,422.654,422.654,422.654,422.654,422.654,422.654,422.654,422.654,422.654,422.654,422.654,422.654,422.654,422.654,422.654,422.654,422.654,422.654
0.000985405	-303492.80	0,4.51843e-05,9.85941e-05,0.000161727,0.000236352,0.000324562,0.00042883,0.000552079,0.000697764,0.00086997,0.00107352,0.00131413,0.00159855,0.00193473,0.00233212,0.00280184,0.00335708,0.00401339,0.00478917,0.00570618,0.00679012,0.00807139,0.0095859,0.0113761,0.0134922,0.0159935,0.0189502,0.0224451,0.0265762,0.0314594,inf	421.584,421.584,421.584,421.584,421.584,421.584,421.584,421.584,421.584,421.584,421.584,421.584,421.584,421.584,421.584,421.584,421.584,421.584,421.584,421.584,421.584,421.584,421.584,421.584,421.584,421.584,421.584,421.584,421.584,421.584
0.00102797	-303466.38	0,4.51843e-05,9.85941e-05,0.000161727,0.000236352,0.000324562,0.00042883,0.000552079,0.000697764,0.00086997,0.00107352,0.00131413,0.00159855,0.00193473,0.00233212,0.00280184,0.00335708,0.00401339,0.00478917,0.00570618,0.00679012,0.00807139,0.0095859,0.0113761,0.0134922,0.0159935,0.0189502,0.0224451,0.0265762,0.0314594,inf	420.505,420.505,420.505,420.505,420.505,420.505,420.505,420.505,420.505,420.505,420.505,420.505,420.505,420.505,420.505,420.505,420.505,420.505,420.505,420.505,420.505,420.505,420.505,420.505,420.505,420.505,420.505,420.505,420.505,420.505
0.00106883	-303443.03	0,4.51843e-05,9.85941e-05,0.000161727,0.000236352,0.000324562,0.00042883,0.000552079,0.000697764,0.00086997,0.00107352,0.00131413,0.00159855,0.00193473,0.00233212,0.00280184,0.00335708,0.00401339,0.00478917,0.00570618,0.00679012,0.00807139,0.0095859,0.0113761,0.0134922,0.0159935,0.0189502,0.0224451,0.0265762,0.0314594,inf	419.453,419.453,419.453,419.453,419.453,419.453,419.453,419.453,419.453,419.453,419.453,419.453,419.453,419.453,419.453,419.453,419.453,419.453,419.453,419.453,419.453,419.453,419.453,419.453,419.453,419.453,419.453,419.453,419.453,419.453
0.00110806	-303422.30	0,4.51843e-05,9.85941e-05,0.000161727,0.000236352,0.000324562,0.00042883,0.000552079,0.000697764,0.00086997,0.00107352,0.00131413,0.00159855,0.00193473,0.00233212,0.00280184,0.00335708,0.00401339,0.00478917,0.00570618,0.00679012,0.00807139,0.0095859,0.0113761,0.0134922,0.0159935,0.0189502,0.0224451,0.0265762,0.0314594,inf	418.445,418.445,418.445,418.445,418.445,418.445,418.445,418.445,418.445,418.445,418.445,418.445,418.445,418.445,418.445,418.445,418.445,418.445,418.445,418.445,418.445,418.445,418.445,418.445,418.445,418.445,418.445,418.445,418.445,418.445
0.00114578	-303403.83	0,4.51843e-05,9.85941e-05,0.000161727,0.000236352,0.000324562,0.00042883,0.000552079,0.000697764,0.00086997,0.00107352,0.00131413,0.00159855,0.00193473,0.00233212,0.00280184,0.00335708,0.00401339,0.00478917,0.00570618,0.00679012,0.00807139,0.0095859,0.0113761,0.0134922,0.0159935,0.0189502,0.0224451,0.0265762,0.0314594,inf	417.487,417.487,417.487,417.487,417.487,417.487,417.487,417.487,417.487,417.487,417.487,417.487,417.487,417.487,417.487,417.487,417.487,417.487,417.487,417.487,417.487,417.487,417.487,417.487,417.487,417.487,417.487,417.487,417.487,417.487
0.00118205	-303387.29	0,4.51843e-05,9.85941e-05,0.000161727,0.000236352,0.000324562,0.00042883,0.000552079,0.000697764,0.00086997,0.00107352,0.00131413,0.00159855,0.00193473,0.00233212,0.00280184,0.00335708,0.00401339,0.00478917,0.00570618,0.00679012,0.00807139,0.0095859,0.0113761,0.0134922,0.0159935,0.0189502,0.0224451,0.0265762,0.0314594,inf	416.58,416.58,416.58,416.58,416.58,416.58,416.58,416.58,416.58,416.58,416.58,416.58,416.58,416.58,416.58,416.58,416.58,416.58,416.58,416.58,416.58,416.58,416.58,416.58,416.58,416.58,416.58,416.58,416.58,416.58
0.00121696	-303372.45	0,4.51843e-05,9.85941e-05,0.000161727,0.000236352,0.000324562,0.00042883,0.000552079,0.000697764,0.00086997,0.00107352,0.00131413,0.00159855,0.00193473,0.00233212,0.00280184,0.00335708,0.00401339,0.00478917,0.00570618,0.00679012,0.00807139,0.0095859,0.0113761,0.0134922,0.0159935,0.0189502,0.0224451,0.0265762,0.0314594,inf	415.722,415.722,415.722,415.722,415.722,415.722,415.722,415.722,415.722,415.722,415.722,415.722,415.722,415.722,415.722,415.722,415.722,415.722,415.722,415.722,415.722,415.722,415.722,415.722,415.722,415.722,415.722,415.722,415.722,415.722
0.00125058	-303359.07	0,4.51843e-05,9.85941e-05,0.000161727,0.000236352,0.000324562,0.00042883,0.000552079,0.000697764,0.00086997,0.00107352,0.00131413,0.00159855,0.00193473,0.00233212,0.00280184,0.00335708,0.00401339,0.00478917,0.00570618,0.00679012,0.00807139,0.0095859,0.0113761,0.0134922,0.0159935,0.0189502,0.0224451,0.0265762,0.0314594,inf	414.909,414.909,414.909,414.909,414.909,414.909,414.909,414.909,414.909,414.909,414.909,414.909,414.909,414.909,414.909,414.909,414.909,414.909,414.909,414.909,414.909,414.909,414.909,414.909,414.909,414.909,414.909,414.909,414.909,414.909
0.00128296	-303346.99	0,4.51843e-05,9.85941e-05,0.000161727,0.000236352,0.000324562,0.00042883,0.000552079,0.000697764,0.00086997,0.00107352,0.00131413,0.00159855,0.00193473,0.00233212,0.00280184,0.00335708,0.00401339,0.00478917,0.00570618,0.00679012,0.00807139,0.0095859,0.0113761,0.0134922,0.0159935,0.0189502,0.0224451,0.0265762,0.0314594,inf	414.141,414.141,414.141,414.141,414.141,414.141,414.141,414.141,414.141,414.141,414.141,414.141,414.141,414.141,414.141,414.141,414.141,414.141,414.141,414.141,414.141,414.141,414.141,414.141,414.141,414.141,414.141,414.141,414.141,414.141
0.00131418	-303336.04	0,4.51843e-05,9.85941e-05,0.000161727,0.000236352,0.000324562,0.00042883,0.000552079,0.000697764,0.00086997,0.00107352,0.00131413,0.00159855,0.00193473,0.00233212,0.00280184,0.00335708,0.00401339,0.00478917,0.00570618,0.00679012,0.00807139,0.0095859,0.0113761,0.0134922,0.0159935,0.0189502,0.0224451,0.0265762,0.0314594,inf	413.412,413.412,413.412,413.412,413.412,413.412,413.412,413.412,413.412,413.412,413.412,413.412,413.412,413.412,413.412,413.412,413.412,413.412,413.412,413.412,413.412,413.412,413.412,413.412,413.412,413.412,413.412,413.412,413.412,413.412
0.00134428	-303326.10	0,4.51843e-05,9.85941e-05,0.000161727,0.000236352,0.000324562,0.00042883,0.000552079,0.000697764,0.00086997,0.00107352,0.00131413,0.00159855,0.00193473,0.00233212,0.00280184,0.00335708,0.00401339,0.00478917,0.00570618,0.00679012,0.00807139,0.0095859,0.0113761,0.0134922,0.0159935,0.0189502,0.0224451,0.0265762,0.0314594,inf	412.722,412.722,412.722,412.722,412.722,412.722,412.722,412.722,412.722,412.722,412.722,412.722,412.722,412.722,412.722,412.722,412.722,412.722,412.722,412.722,412.722,412.722,412.722,412.722,412.722,412.722,412.722,412.722,412.722,412.722
0.00137331	-303317.04	0,4.51843e-05,9.85941e-05,0.000161727,0.000236352,0.000324562,0.00042883,0.000552079,0.000697764,0.00086997,0.00107352,0.00131413,0.00159855,0.00193473,0.00233212,0.00280184,0.00335708,0.00401339,0.00478917,0.00570618,0.00679012,0.00807139,0.0095859,0.0113761,0.0134922,0.0159935,0.0189502,0.0224451,0.0265762,0.0314594,inf	412.067,412.067,412.067,412.067,412.067,412.067,412.067,412.067,412.067,412.067,412.067,412.067,412.067,412.067,412.067,412.067,412.067,412.067,412.067,412.067,412.067,412.067,412.067,412.067,412.067,412.067,412.067,412.067,412.067,412.067
0.00140133	-303308.78	0,4.51843e-05,9.85941e-05,0.000161727,0.000236352,0.000324562,0.00042883,0.000552079,0.000697764,0.00086997,0.00107352,0.00131413,0.00159855,0.00193473,0.00233212,0.00280184,0.00335708,0.00401339,0.00478917,0.00570618,0.00679012,0.00807139,0.0095859,0.0113761,0.0134922,0.0159935,0.0189502,0.0224451,0.0265762,0.0314594,inf	411.444,411.444,411.444,411.444,411.444,411.444,411.444,411.444,411.444,411.444,411.444,411.444,411.444,411.444,411.444,411.444,411.444,411.444,411.444,411.444,411.444,411.444,411.444,411.444,411.444,411.444,411.444,411.444,411.444,411.444
0.00142839	-303301.22	0,4.51843e-05,9.85941e-05,0.000161727,0.000236352,0.000324562,0.00042883,0.000552079,0.000697764,0.00086997,0.00107352,0.00131413,0.00159855,0.00193473,0.00233212,0.00280184,0.00335708,0.00401339,0.00478917,0.00570618,0.00679012,0.00807139,0.0095859,0.0113761,0.0134922,0.0159935,0.0189502,0.0224451,0.0265762,0.0314594,inf	410.853,410.853,410.853,410.853,410.853,410.853,410.853,410.853,410.853,410.853,410.853,410.853,410.853,410.853,410.853,410.853,410.853,410.853,410.853,410.853,410.853,410.853,410.853,410.853,410.853,410.853,410.853,410.853,410.853,410.853
