0.00070852	-1846186.12	0,2.21899e-05,5.61388e-05,0.000108078,0.000187541,0.000309114,0.000495112,0.000779674,0.00121503,0.0018811,0.00290013,0.00445918,0.0068444,0.0104936,0.0160766,0.0246182,inf	307.702,307.702,321.371,332.631,337.656,340.982,344.662,358.378,387.171,424.356,434.798,407.696,405.218,461.905,461.905,461.905
0.000783476	-1845497.70	0,2.21899e-05,5.61388e-05,0.000108078,0.000187541,0.000309114,0.000495112,0.000779674,0.00121503,0.0018811,0.00290013,0.00445918,0.0068444,0.0104936,0.0160766,0.0246182,inf	288.101,288.101,305.551,323.023,328.097,328.685,327.363,341.63,380.698,437.815,455.423,408.974,405.456,524.649,524.649,524.649
0.000852862	-1845042.94	0,2.21899e-05,5.61388e-05,0.000108078,0.000187541,0.000309114,0.000495112,0.000779674,0.00121503,0.0018811,0.00290013,0.00445918,0.0068444,0.0104936,0.0160766,0.0246182,inf	280.223,280.223,299.751,324.226,330.33,328.493,321.056,332.74,375.883,444.86,467.16,406.499,402.12,586.008,586.008,586.008
0.000917441	-1844698.82	0,2.21899e-05,5.61388e-05,0.000108078,0.000187541,0.000309114,0.000495112,0.000779674,0.00121503,0.0018811,0.00290013,0.00445918,0.0068444,0.0104936,0.0160766,0.0246182,inf	274.659,274.659,294.797,326.697,335.133,332.088,319,327.454,372.196,448.758,473.98,402.543,397.045,645.793,645.793,645.793
0.000977885	-1844423.89	0,2.21899e-05,5.61388e-05,0.000108078,0.000187541,0.000309114,0.000495112,0.000779674,0.00121503,0.0018811,0.00290013,0.00445918,0.0068444,0.0104936,0.0160766,0.0246182,inf	270.334,270.334,289.495,328.472,339.992,336.805,318.804,324.106,369.368,451.072,477.999,398.155,391.183,703.607,703.607,703.607
0.0010347	-1844197.84	0,2.21899e-05,5.61388e-05,0.000108078,0.000187541,0.000309114,0.000495112,0.000779674,0.00121503,0.0018811,0.00290013,0.00445918,0.0068444,0.0104936,0.0160766,0.0246182,inf	267.343,267.343,284.149,329.443,344.283,341.694,319.465,321.893,367.191,452.56,480.364,393.806,385.031,758.698,758.698,758.698
0.00108829	-1844008.54	0,2.21899e-05,5.61388e-05,0.000108078,0.000187541,0.000309114,0.000495112,0.000779674,0.00121503,0.0018811,0.00290013,0.00445918,0.0068444,0.0104936,0.0160766,0.0246182,inf	265.645,265.645,279.135,329.884,347.946,346.407,320.51,320.379,365.503,453.597,481.719,389.698,378.851,809.881,809.881,809.881
0.00113897	-1843847.88	0,2.21899e-05,5.61388e-05,0.000108078,0.000187541,0.000309114,0.000495112,0.000779674,0.00121503,0.0018811,0.00290013,0.00445918,0.0068444,0.0104936,0.0160766,0.0246182,inf	265.022,265.022,274.667,330.064,351.071,350.826,321.705,319.309,364.178,454.379,482.445,385.909,372.783,855.532,855.532,855.532
0.00118699	-1843710.03	0,2.21899e-05,5.61388e-05,0.000108078,0.000187541,0.000309114,0.000495112,0.000779674,0.00121503,0.0018811,0.00290013,0.00445918,0.0068444,0.0104936,0.0160766,0.0246182,inf	265.192,265.192,270.823,330.176,353.772,354.928,322.925,318.527,363.126,455.011,482.773,382.463,366.904,893.746,893.746,893.746
0.00123259	-1843590.69	0,2.21899e-05,5.61388e-05,0.000108078,0.000187541,0.000309114,0.000495112,0.000779674,0.00121503,0.0018811,0.00290013,0.00445918,0.0068444,0.0104936,0.0160766,0.0246182,inf	265.889,265.889,267.604,330.338,356.149,358.722,324.108,317.932,362.279,455.55,482.85,379.357,361.257,922.696,922.696,922.696
0.00127595	-1843486.54	0,2.21899e-05,5.61388e-05,0.000108078,0.000187541,0.000309114,0.000495112,0.000779674,0.00121503,0.0018811,0.00290013,0.00445918,0.0068444,0.0104936,0.0160766,0.0246182,inf	266.88,266.88,264.968,330.613,358.279,362.234,325.221,317.462,361.586,456.031,482.775,376.583,355.866,941.146,941.146,941.146
0.00131724	-1843395.02	0,2.21899e-05,5.61388e-05,0.000108078,0.000187541,0.000309114,0.000495112,0.000779674,0.00121503,0.0018811,0.00290013,0.00445918,0.0068444,0.0104936,0.0160766,0.0246182,inf	268.005,268.005,262.863,331.028,360.222,365.491,326.248,317.073,361.011,456.475,482.613,374.127,350.745,948.893,948.893,948.893
0.00135663	-1843314.11	0,2.21899e-05,5.61388e-05,0.000108078,0.000187541,0.000309114,0.000495112,0.000779674,0.00121503,0.0018811,0.00290013,0.00445918,0.0068444,0.0104936,0.0160766,0.0246182,inf	269.148,269.148,261.231,331.594,362.019,368.521,327.187,316.736,360.526,456.89,482.408,371.973,345.902,946.874,946.874,946.874
0.00139424	-1843242.21	0,2.21899e-05,5.61388e-05,0.000108078,0.000187541,0.000309114,0.000495112,0.000779674,0.00121503,0.0018811,0.00290013,0.00445918,0.0068444,0.0104936,0.0160766,0.0246182,inf	270.224,270.224,260.012,332.301,363.701,371.35,328.036,316.433,360.107,457.283,482.191,370.105,341.335,936.875,936.875,936.875
0.00143019	-1843178.04	0,2.21899e-05,5.61388e-05,0.000108078,0.000187541,0.000309114,0.000495112,0.000779674,0.00121503,0.0018811,0.00290013,0.00445918,0.0068444,0.0104936,0.0160766,0.0246182,inf	271.195,271.195,259.154,333.138,365.289,373.999,328.801,316.149,359.74,457.656,481.977,368.503,337.041,921.016,921.016,921.016
0.00146459	-1843120.56	0,2.21899e-05,5.61388e-05,0.000108078,0.000187541,0.000309114,0.000495112,0.000779674,0.00121503,0.0018811,0.00290013,0.00445918,0.0068444,0.0104936,0.0160766,0.0246182,inf	272.039,272.039,258.608,334.083,366.799,376.49,329.486,315.877,359.41,458.006,481.777,367.147,333.012,901.306,901.306,901.306
0.00149753	-1843068.92	0,2.21899e-05,5.61388e-05,0.000108078,0.000187541,0.000309114,0.000495112,0.000779674,0.00121503,0.0018811,0.00290013,0.00445918,0.0068444,0.0104936,0.0160766,0.0246182,inf	272.752,272.752,258.334,335.123,368.243,378.839,330.099,315.61,359.107,458.334,481.593,366.016,329.236,879.39,879.39,879.39
0.00152909	-1843022.40	0,2.21899e-05,5.61388e-05,0.000108078,0.000187541,0.000309114,0.000495112,0.000779674,0.00121503,0.0018811,0.00290013,0.00445918,0.0068444,0.0104936,0.0160766,0.0246182,inf	273.332,273.332,258.291,336.237,369.628,381.062,330.647,315.346,358.825,458.638,481.427,365.089,325.701,856.485,856.485,856.485
0.00155935	-1842980.39	0,2.21899e-05,5.61388e-05,0.000108078,0.000187541,0.000309114,0.000495112,0.000779674,0.00121503,0.0018811,0.00290013,0.00445918,0.0068444,0.0104936,0.0160766,0.0246182,inf	273.789,273.789,258.453,337.407,370.959,383.172,331.137,315.084,358.557,458.915,481.277,364.345,322.392,833.429,833.429,833.429
0.00158838	-1842942.36	0,2.21899e-05,5.61388e-05,0.000108078,0.000187541,0.000309114,0.000495112,0.000779674,0.00121503,0.0018811,0.00290013,0.00445918,0.0068444,0.0104936,0.0160766,0.0246182,inf	274.132,274.132,258.783,338.618,372.24,385.18,331.574,314.822,358.301,459.166,481.14,363.766,319.296,810.767,810.767,810.767
