0.000689322	-303759.55	0,9.14193e-05,0.00021651,0.000387673,0.000621878,0.000942344,0.00138084,0.00198085,0.00280184,0.00392522,0.00546236,0.00756564,0.0104436,0.0143816,0.0197699,0.0271429,inf	327.461,327.461,330.946,333.291,358.129,381.088,403.767,424.027,434.676,432.957,416.513,408.468,429.027,477.797,477.797,477.797
0.000753794	-303658.19	0,9.14193e-05,0.00021651,0.000387673,0.000621878,0.000942344,0.00138084,0.00198085,0.00280184,0.00392522,0.00546236,0.00756564,0.0104436,0.0143816,0.0197699,0.0271429,inf	317.933,317.933,313.382,308.456,343.502,373.179,403.018,432.965,451.364,450.496,422.302,408.441,447.932,558.266,558.266,558.266
0.000813563	-303591.51	0,9.14193e-05,0.00021651,0.000387673,0.000621878,0.000942344,0.00138084,0.00198085,0.00280184,0.00392522,0.00546236,0.00756564,0.0104436,0.0143816,0.0197699,0.0271429,inf	321.179,321.179,309.641,297.294,338.931,369.811,400.973,435.695,459.797,460.719,423.926,405.634,461.201,645.047,645.047,645.047
0.000869258	-303540.47	0,9.14193e-05,0.00021651,0.000387673,0.000621878,0.000942344,0.00138084,0.00198085,0.00280184,0.00392522,0.00546236,0.00756564,0.0104436,0.0143816,0.0197699,0.0271429,inf	325.625,325.625,309.918,291.633,338.807,368.523,398.468,435.433,463.772,466.708,423.451,401.602,470.159,739.624,739.624,739.624
0.000921467	-303499.11	0,9.14193e-05,0.00021651,0.000387673,0.000621878,0.000942344,0.00138084,0.00198085,0.00280184,0.00392522,0.00546236,0.00756564,0.0104436,0.0143816,0.0197699,0.0271429,inf	328.802,328.802,311.288,288.587,340.956,368.351,395.926,433.765,465.306,470.204,421.965,397.139,475.825,844.326,844.326,844.326
0.000970639	-303464.65	0,9.14193e-05,0.00021651,0.000387673,0.000621878,0.000942344,0.00138084,0.00198085,0.00280184,0.00392522,0.00546236,0.00756564,0.0104436,0.0143816,0.0197699,0.0271429,inf	330.614,330.614,312.807,286.924,344.344,368.806,393.513,431.47,465.477,472.194,420.036,392.642,478.979,962.73,962.73,962.73
0.00101712	-303435.45	0,9.14193e-05,0.00021651,0.000387673,0.000621878,0.000942344,0.00138084,0.00198085,0.00280184,0.00392522,0.00546236,0.00756564,0.0104436,0.0143816,0.0197699,0.0271429,inf	331.471,331.471,314.167,286.04,348.412,369.606,391.275,428.934,464.88,473.252,417.959,388.299,480.216,1100.41,1100.41,1100.41
0.00106116	-303410.42	0,9.14193e-05,0.00021651,0.000387673,0.000621878,0.000942344,0.00138084,0.00198085,0.00280184,0.00392522,0.00546236,0.00756564,0.0104436,0.0143816,0.0197699,0.0271429,inf	331.784,331.784,315.282,285.615,352.835,370.581,389.214,426.351,463.85,473.721,415.883,384.193,479.988,1266.1,1266.1,1266.1
0.001103	-303388.77	0,9.14193e-05,0.00021651,0.000387673,0.000621878,0.000942344,0.00138084,0.00198085,0.00280184,0.00392522,0.00546236,0.00756564,0.0104436,0.0143816,0.0197699,0.0271429,inf	331.846,331.846,316.141,285.465,357.418,371.624,387.314,423.818,462.581,473.81,413.882,380.354,478.642,1471.62,1471.62,1471.62
0.0011428	-303369.92	0,9.14193e-05,0.00021651,0.000387673,0.000621878,0.000942344,0.00138084,0.00198085,0.00280184,0.00392522,0.00546236,0.00756564,0.0104436,0.0143816,0.0197699,0.0271429,inf	331.84,331.84,316.764,285.482,362.042,372.671,385.559,421.382,461.189,473.65,411.992,376.782,476.444,1714.08,1714.08,1714.08
0.00118073	-303353.40	0,9.14193e-05,0.00021651,0.000387673,0.000621878,0.000942344,0.00138084,0.00198085,0.00280184,0.00392522,0.00546236,0.00756564,0.0104436,0.0143816,0.0197699,0.0271429,inf	331.875,331.875,317.176,285.602,366.633,373.686,383.931,419.066,459.743,473.33,410.227,373.471,473.611,1872.97,1872.97,1872.97
0.00121692	-303338.81	0,9.14193e-05,0.00021651,0.000387673,0.000621878,0.000942344,0.00138084,0.00198085,0.00280184,0.00392522,0.00546236,0.00756564,0.0104436,0.0143816,0.0197699,0.0271429,inf	332.003,332.003,317.404,285.786,371.147,374.647,382.416,416.879,458.293,472.917,408.611,370.434,470.369,1767.1,1767.1,1767.1
0.00125152	-303325.82	0,9.14193e-05,0.00021651,0.000387673,0.000621878,0.000942344,0.00138084,0.00198085,0.00280184,0.00392522,0.00546236,0.00756564,0.0104436,0.0143816,0.0197699,0.0271429,inf	332.248,332.248,317.476,286.011,375.559,375.543,381.004,414.824,456.872,472.468,407.171,367.704,466.965,1569.96,1569.96,1569.96
0.00128465	-303314.22	0,9.14193e-05,0.00021651,0.000387673,0.000621878,0.000942344,0.00138084,0.00198085,0.00280184,0.00392522,0.00546236,0.00756564,0.0104436,0.0143816,0.0197699,0.0271429,inf	332.613,332.613,317.414,286.261,379.853,376.367,379.68,412.892,455.491,472.009,405.909,365.275,463.54,1409.68,1409.68,1409.68
0.00131637	-303303.86	0,9.14193e-05,0.00021651,0.000387673,0.000621878,0.000942344,0.00138084,0.00198085,0.00280184,0.00392522,0.00546236,0.00756564,0.0104436,0.0143816,0.0197699,0.0271429,inf	333.091,333.091,317.24,286.527,384.019,377.114,378.43,411.071,454.15,471.544,404.801,363.116,460.15,1288.78,1288.78,1288.78
0.00134679	-303294.57	0,9.14193e-05,0.00021651,0.000387673,0.000621878,0.000942344,0.00138084,0.00198085,0.00280184,0.00392522,0.00546236,0.00756564,0.0104436,0.0143816,0.0197699,0.0271429,inf	333.67,333.67,316.97,286.806,388.058,377.786,377.247,409.35,452.847,471.075,403.824,361.191,456.825,1194.91,1194.91,1194.91
0.00137595	-303286.23	0,9.14193e-05,0.00021651,0.000387673,0.000621878,0.000942344,0.00138084,0.00198085,0.00280184,0.00392522,0.00546236,0.00756564,0.0104436,0.0143816,0.0197699,0.0271429,inf	334.338,334.338,316.62,287.093,391.97,378.387,376.125,407.724,451.583,470.603,402.961,359.473,453.583,1119.49,1119.49,1119.49
0.00140394	-303278.71	0,9.14193e-05,0.00021651,0.000387673,0.000621878,0.000942344,0.00138084,0.00198085,0.00280184,0.00392522,0.00546236,0.00756564,0.0104436,0.0143816,0.0197699,0.0271429,inf	335.076,335.076,316.203,287.387,395.758,378.921,375.059,406.184,450.356,470.131,402.197,357.938,450.437,1057.17,1057.17,1057.17
0.00143082	-303271.92	0,9.14193e-05,0.00021651,0.000387673,0.000621878,0.000942344,0.00138084,0.00198085,0.00280184,0.00392522,0.00546236,0.00756564,0.0104436,0.0143816,0.0197699,0.0271429,inf	335.875,335.875,315.73,287.686,399.427,379.392,374.046,404.726,449.165,469.659,401.52,356.564,447.396,1004.55,1004.55,1004.55
0.00145664	-303265.78	0,9.14193e-05,0.00021651,0.000387673,0.000621878,0.000942344,0.00138084,0.00198085,0.00280184,0.00392522,0.00546236,0.00756564,0.0104436,0.0143816,0.0197699,0.0271429,inf	336.718,336.718,315.209,287.99,402.981,379.806,373.082,403.345,448.01,469.188,400.918,355.336,444.466,959.355,959.355,959.355
