7.45988e-05	-46624.53	0,1.03537e-05,2.45209e-05,4.39061e-05,7.0431e-05,0.000106726,0.000156388,0.000224342,0.000317324,0.000444553,0.000618642,0.00085685,0.0011828,0.00162879,0.00223905,0.00307408,inf	2271.85,2271.85,3488.87,3408.28,3488.34,3600.01,3860.08,3991.46,4152.63,4216.61,4461.66,4810.89,5154.87,5703.91,5703.91,5703.91
7.7601e-05	-46618.57	0,1.03537e-05,2.45209e-05,4.39061e-05,7.0431e-05,0.000106726,0.000156388,0.000224342,0.000317324,0.000444553,0.000618642,0.00085685,0.0011828,0.00162879,0.00223905,0.00307408,inf	1721.23,1721.23,3663.23,3340.75,3387.77,3503.01,3915.64,4125.58,4449.54,4619.22,5322.83,6639.46,8584.03,13018.5,13018.5,13018.5
7.96795e-05	-46619.53	0,1.03537e-05,2.45209e-05,4.39061e-05,7.0431e-05,0.000106726,0.000156388,0.000224342,0.000317324,0.000444553,0.000618642,0.00085685,0.0011828,0.00162879,0.00223905,0.00307408,inf	1399.93,1399.93,3912.84,3314.99,3316.33,3400.14,3904.49,4139.64,4586.41,4856.52,6241.33,10214.1,21188.4,134312,134312,134312
8.10548e-05	-46622.60	0,1.03537e-05,2.45209e-05,4.39061e-05,7.0431e-05,0.000106726,0.000156388,0.000224342,0.000317324,0.000444553,0.000618642,0.00085685,0.0011828,0.00162879,0.00223905,0.00307408,inf	1173.69,1173.69,4163.54,3301.44,3271.94,3316.22,3882.43,4105.61,4632.66,4984.44,7382.76,21241.2,363972,383411,383411,383411
8.20681e-05	-46626.58	0,1.03537e-05,2.45209e-05,4.39061e-05,7.0431e-05,0.000106726,0.000156388,0.000224342,0.000317324,0.000444553,0.000618642,0.00085685,0.0011828,0.00162879,0.00223905,0.00307408,inf	999.542,999.542,4390.12,3289.95,3249.44,3255.01,3869.58,4055.14,4625.7,5038.55,9089.48,132969,1.52511e+06,592.723,592.723,592.723
