LogLikelihood = -292586.70483694470022

y0 0.98083568862135084299
y0_prime 0
y1 1.0707743153943225511
y1_prime 0
y2 0.80930413249295107825
y2_prime 0
y3 1.6828292721516411312
y3_prime 0
rho 0.0014078049921938460935
theta 0.004831650732332689116
