LogLikelihood = -1386234.8005890273489

y0 0.82653703235316133835
y0_prime 0
y1 0.99613653461821394242
y1_prime 0
y2 0.79606519133731590276
y2_prime 0
y3 1.5463640912652631965
y3_prime 0
rho 0.001495995908453759014
rho.alpha 0.28200627355808666197
r_ii 0.99999991489827055879
theta 0.0045809881003750540021
