time_index	left_time_boundary	right_time_boundary	lambda
0	0	4.26383e-05	50.3505
1	4.26383e-05	9.25144e-05	50.3505
2	9.25144e-05	0.000150857	555.319
3	0.000150857	0.000219103	596.58
4	0.000219103	0.000298934	403.626
5	0.000298934	0.000392316	308.905
6	0.000392316	0.00050155	308.224
7	0.00050155	0.000629327	349.888
8	0.000629327	0.000778793	393.187
9	0.000778793	0.000953632	414.837
10	0.000953632	0.00115815	413.512
11	0.00115815	0.00139738	402.211
12	0.00139738	0.00167723	392.989
13	0.00167723	0.00200457	391.404
14	0.00200457	0.00238749	399.703
15	0.00238749	0.0028354	415.929
16	0.0028354	0.00335935	433.787
17	0.00335935	0.00397224	447.76
18	0.00397224	0.00468916	455.418
19	0.00468916	0.00552779	455.988
20	0.00552779	0.00650877	445.329
21	0.00650877	0.00765627	417.055
22	0.00765627	0.00899856	373.149
23	0.00899856	0.0105687	330.728
24	0.0105687	0.0124054	311.327
25	0.0124054	0.0145538	324.001
26	0.0145538	0.017067	366.352
27	0.017067	0.0200067	461.785
28	0.0200067	0.0234455	461.785
29	0.0234455	0.027468	1828.65
30	0.027468	0.0321734	1828.65
31	0.0321734	inf	1828.65
