time_index	left_time_boundary	right_time_boundary	lambda
0	0	1.03596e-05	245.227
1	1.03596e-05	2.71425e-05	245.227
2	2.71425e-05	5.43313e-05	177.31
3	5.43313e-05	9.8378e-05	392.503
4	9.8378e-05	0.000169735	445.615
5	0.000169735	0.000285336	367.888
6	0.000285336	0.000472612	358.382
7	0.000472612	0.000776007	392.795
8	0.000776007	0.00126751	431.161
9	0.00126751	0.00206377	408.144
10	0.00206377	0.00335374	387.272
11	0.00335374	0.00544352	483.897
12	0.00544352	0.00882903	481.735
13	0.00882903	0.0143137	183.297
14	0.0143137	0.023199	183.297
15	0.023199	inf	183.297
