time_index	left_time_boundary	right_time_boundary	lambda
0	0	4.90283e-06	413.751
1	4.90283e-06	1.12443e-05	413.751
2	1.12443e-05	1.94467e-05	413.751
3	1.94467e-05	3.00559e-05	413.751
4	3.00559e-05	4.37783e-05	413.751
5	4.37783e-05	6.15274e-05	413.751
6	6.15274e-05	8.44847e-05	413.751
7	8.44847e-05	0.000114179	413.751
8	0.000114179	0.000152586	413.751
9	0.000152586	0.000202263	413.751
10	0.000202263	0.000266518	413.751
11	0.000266518	0.000349628	413.751
12	0.000349628	0.000457125	413.751
13	0.000457125	0.000596166	413.751
14	0.000596166	0.000776007	413.751
15	0.000776007	0.00100862	413.751
16	0.00100862	0.00130949	413.751
17	0.00130949	0.00169865	413.751
18	0.00169865	0.002202	413.751
19	0.002202	0.00285306	413.751
20	0.00285306	0.00369516	413.751
21	0.00369516	0.00478436	413.751
22	0.00478436	0.00619318	413.751
23	0.00619318	0.0080154	413.751
24	0.0080154	0.0103723	413.751
25	0.0103723	0.0134209	413.751
26	0.0134209	0.017364	413.751
27	0.017364	0.0224642	413.751
28	0.0224642	0.0290609	413.751
29	0.0290609	inf	413.751
