0.000634783	-11999311.57	0,3.55128e-06,9.71327e-06,2.04052e-05,3.89572e-05,7.11477e-05,0.000127003,0.000223919,0.000392084,0.000683873,0.00119017,0.00206867,0.00359299,0.0062379,0.0108272,0.0187903,inf	8801.38,8801.38,1639.6,633.229,474.731,409.708,378.427,352.789,353.409,382.034,420.58,470.654,459.289,422.851,422.851,422.851
0.000723977	-11991270.45	0,3.55128e-06,9.71327e-06,2.04052e-05,3.89572e-05,7.11477e-05,0.000127003,0.000223919,0.000392084,0.000683873,0.00119017,0.00206867,0.00359299,0.0062379,0.0108272,0.0187903,inf	12998.9,12998.9,1582.21,617.82,469.875,409.689,370.753,328.554,326.944,365.616,411.187,479.406,458.464,396.628,396.628,396.628
0.000807159	-11986276.34	0,3.55128e-06,9.71327e-06,2.04052e-05,3.89572e-05,7.11477e-05,0.000127003,0.000223919,0.000392084,0.000683873,0.00119017,0.00206867,0.00359299,0.0062379,0.0108272,0.0187903,inf	13536.8,13536.8,1323.07,576.327,461.652,418.077,376.686,321.946,318.966,363.003,407.188,483.955,456.992,376.825,376.825,376.825
0.000884508	-11982527.00	0,3.55128e-06,9.71327e-06,2.04052e-05,3.89572e-05,7.11477e-05,0.000127003,0.000223919,0.000392084,0.000683873,0.00119017,0.00206867,0.00359299,0.0062379,0.0108272,0.0187903,inf	13266.4,13266.4,1093.6,537.944,451.841,425.856,383.982,319.966,316.998,364.689,404.409,485.643,455.39,361.435,361.435,361.435
0.000956605	-11979594.17	0,3.55128e-06,9.71327e-06,2.04052e-05,3.89572e-05,7.11477e-05,0.000127003,0.000223919,0.000392084,0.000683873,0.00119017,0.00206867,0.00359299,0.0062379,0.0108272,0.0187903,inf	12906,12906,915.287,507.09,441.708,431.785,390.131,319.341,317.445,367.95,401.947,485.587,453.978,349.238,349.238,349.238
0.00102401	-11977249.66	0,3.55128e-06,9.71327e-06,2.04052e-05,3.89572e-05,7.11477e-05,0.000127003,0.000223919,0.000392084,0.000683873,0.00119017,0.00206867,0.00359299,0.0062379,0.0108272,0.0187903,inf	12571.8,12571.8,777.839,483.174,431.959,436.148,394.804,319.097,319.003,371.826,399.616,484.503,452.862,339.391,339.391,339.391
0.00108721	-11975344.68	0,3.55128e-06,9.71327e-06,2.04052e-05,3.89572e-05,7.11477e-05,0.000127003,0.000223919,0.000392084,0.000683873,0.00119017,0.00206867,0.00359299,0.0062379,0.0108272,0.0187903,inf	12276.1,12276.1,670.598,465.092,423.091,439.547,398.248,318.952,321.114,375.914,397.375,482.814,452.052,331.302,331.302,331.302
0.0011466	-11973776.17	0,3.55128e-06,9.71327e-06,2.04052e-05,3.89572e-05,7.11477e-05,0.000127003,0.000223919,0.000392084,0.000683873,0.00119017,0.00206867,0.00359299,0.0062379,0.0108272,0.0187903,inf	12012.7,12012.7,585.533,451.709,415.299,442.46,400.77,318.824,323.499,380.023,395.213,480.769,451.522,324.55,324.55,324.55
0.00120253	-11972470.21	0,3.55128e-06,9.71327e-06,2.04052e-05,3.89572e-05,7.11477e-05,0.000127003,0.000223919,0.000392084,0.000683873,0.00119017,0.00206867,0.00359299,0.0062379,0.0108272,0.0187903,inf	11775.8,11775.8,516.884,442.039,408.588,445.191,402.616,318.691,326.007,384.056,393.125,478.52,451.232,318.831,318.831,318.831
0.00125529	-11971372.46	0,3.55128e-06,9.71327e-06,2.04052e-05,3.89572e-05,7.11477e-05,0.000127003,0.000223919,0.000392084,0.000683873,0.00119017,0.00206867,0.00359299,0.0062379,0.0108272,0.0187903,inf	11559.9,11559.9,460.576,435.274,402.86,447.913,403.967,318.55,328.551,387.966,391.111,476.161,451.146,313.922,313.922,313.922
0.00130516	-11970442.14	0,3.55128e-06,9.71327e-06,2.04052e-05,3.89572e-05,7.11477e-05,0.000127003,0.000223919,0.000392084,0.000683873,0.00119017,0.00206867,0.00359299,0.0062379,0.0108272,0.0187903,inf	11362.3,11362.3,413.687,430.743,397.988,450.72,404.951,318.401,331.077,391.73,389.168,473.75,451.229,309.656,309.656,309.656
0.00135234	-11969648.08	0,3.55128e-06,9.71327e-06,2.04052e-05,3.89572e-05,7.11477e-05,0.000127003,0.000223919,0.000392084,0.000683873,0.00119017,0.00206867,0.00359299,0.0062379,0.0108272,0.0187903,inf	11180.3,11180.3,374.079,427.937,393.834,453.647,405.658,318.246,333.554,395.339,387.295,471.327,451.455,305.908,305.908,305.908
0.00139706	-11968966.07	0,3.55128e-06,9.71327e-06,2.04052e-05,3.89572e-05,7.11477e-05,0.000127003,0.000223919,0.000392084,0.000683873,0.00119017,0.00206867,0.00359299,0.0062379,0.0108272,0.0187903,inf	11011.7,11011.7,340.218,426.45,390.265,456.706,406.151,318.088,335.962,398.793,385.489,468.916,451.799,302.581,302.581,302.581
0.00143948	-11968377.08	0,3.55128e-06,9.71327e-06,2.04052e-05,3.89572e-05,7.11477e-05,0.000127003,0.000223919,0.000392084,0.000683873,0.00119017,0.00206867,0.00359299,0.0062379,0.0108272,0.0187903,inf	10855.4,10855.4,310.936,425.965,387.173,459.889,406.478,317.927,338.29,402.097,383.749,466.532,452.243,299.601,299.601,299.601
0.00147978	-11967865.94	0,3.55128e-06,9.71327e-06,2.04052e-05,3.89572e-05,7.11477e-05,0.000127003,0.000223919,0.000392084,0.000683873,0.00119017,0.00206867,0.00359299,0.0062379,0.0108272,0.0187903,inf	10710.5,10710.5,285.375,426.232,384.464,463.183,406.674,317.765,340.532,405.256,382.072,464.188,452.772,296.911,296.911,296.911
0.0015181	-11967420.46	0,3.55128e-06,9.71327e-06,2.04052e-05,3.89572e-05,7.11477e-05,0.000127003,0.000223919,0.000392084,0.000683873,0.00119017,0.00206867,0.00359299,0.0062379,0.0108272,0.0187903,inf	10575.6,10575.6,262.877,427.062,382.063,466.571,406.764,317.601,342.685,408.28,380.455,461.888,453.373,294.463,294.463,294.463
0.00155458	-11967030.70	0,3.55128e-06,9.71327e-06,2.04052e-05,3.89572e-05,7.11477e-05,0.000127003,0.000223919,0.000392084,0.000683873,0.00119017,0.00206867,0.00359299,0.0062379,0.0108272,0.0187903,inf	10450,10450,242.924,428.293,379.904,470.035,406.767,317.438,344.749,411.175,378.896,459.637,454.036,292.22,292.22,292.22
0.00158933	-11966688.53	0,3.55128e-06,9.71327e-06,2.04052e-05,3.89572e-05,7.11477e-05,0.000127003,0.000223919,0.000392084,0.000683873,0.00119017,0.00206867,0.00359299,0.0062379,0.0108272,0.0187903,inf	10332.9,10332.9,225.107,429.814,377.938,473.559,406.7,317.275,346.726,413.951,377.394,457.437,454.753,290.153,290.153,290.153
0.00162246	-11966387.22	0,3.55128e-06,9.71327e-06,2.04052e-05,3.89572e-05,7.11477e-05,0.000127003,0.000223919,0.000392084,0.000683873,0.00119017,0.00206867,0.00359299,0.0062379,0.0108272,0.0187903,inf	10223.8,10223.8,209.112,431.529,376.123,477.127,406.574,317.112,348.616,416.615,375.945,455.287,455.516,288.238,288.238,288.238
0.00165408	-11966121.17	0,3.55128e-06,9.71327e-06,2.04052e-05,3.89572e-05,7.11477e-05,0.000127003,0.000223919,0.000392084,0.000683873,0.00119017,0.00206867,0.00359299,0.0062379,0.0108272,0.0187903,inf	10122.1,10122.1,194.675,433.371,374.429,480.727,406.4,316.948,350.423,419.175,374.546,453.189,456.321,286.453,286.453,286.453
