0.000700736	-291340.81	0,8.88136e-05,0.000210339,0.000376623,0.000604153,0.000915485,0.00134149,0.00192439,0.00272198,0.00381334,0.00530667,0.00735001,0.0101459,0.0139716,0.0192064,0.0263693,inf	415.47,415.47,372.378,363.196,365.452,387.706,412.723,427.912,435.829,433.614,423.852,429.012,436.792,331.569,331.569,331.569
0.000792555	-291185.53	0,8.88136e-05,0.000210339,0.000376623,0.000604153,0.000915485,0.00134149,0.00192439,0.00272198,0.00381334,0.00530667,0.00735001,0.0101459,0.0139716,0.0192064,0.0263693,inf	430.335,430.335,360.624,345.361,346.157,378.717,413.984,434.028,446.084,442.714,426.496,438.139,458.775,267.049,267.049,267.049
0.000877814	-291073.80	0,8.88136e-05,0.000210339,0.000376623,0.000604153,0.000915485,0.00134149,0.00192439,0.00272198,0.00381334,0.00530667,0.00735001,0.0101459,0.0139716,0.0192064,0.0263693,inf	441.065,441.065,356.364,338.007,337.046,375.65,415.305,436.074,450.501,446.441,425.591,444.098,482.747,204.531,204.531,204.531
0.000956728	-290988.18	0,8.88136e-05,0.000210339,0.000376623,0.000604153,0.000915485,0.00134149,0.00192439,0.00272198,0.00381334,0.00530667,0.00735001,0.0101459,0.0139716,0.0192064,0.0263693,inf	446.965,446.965,354.491,335.008,332.54,375.137,416.329,435.987,451.859,447.307,422.922,448.529,512.849,117.867,117.867,117.867
0.00102987	-290922.41	0,8.88136e-05,0.000210339,0.000376623,0.000604153,0.000915485,0.00134149,0.00192439,0.00272198,0.00381334,0.00530667,0.00735001,0.0101459,0.0139716,0.0192064,0.0263693,inf	449.764,449.764,353.6,334.16,330.475,375.908,417.13,434.893,451.775,446.97,420.108,454.534,567.345,18.2062,18.2062,18.2062
0.00110257	-290908.80	0,8.88136e-05,0.000210339,0.000376623,0.000604153,0.000915485,0.00134149,0.00192439,0.00272198,0.00381334,0.00530667,0.00735001,0.0101459,0.0139716,0.0192064,0.0263693,inf	451.33,451.33,353.875,335.063,330.342,377.968,418.446,434.033,452.014,448.277,422.02,476.838,840.915,68.0805,68.0805,68.0805
0.00116628	-290827.51	0,8.88136e-05,0.000210339,0.000376623,0.000604153,0.000915485,0.00134149,0.00192439,0.00272198,0.00381334,0.00530667,0.00735001,0.0101459,0.0139716,0.0192064,0.0263693,inf	450.7,450.7,353.372,335.698,330.174,379.239,418.119,430.985,448.763,443.665,414.284,474.833,934.856,7.68628,7.68628,7.68628
0.00123057	-290809.31	0,8.88136e-05,0.000210339,0.000376623,0.000604153,0.000915485,0.00134149,0.00192439,0.00272198,0.00381334,0.00530667,0.00735001,0.0101459,0.0139716,0.0192064,0.0263693,inf	450.737,450.737,353.72,337.375,331.212,381.536,418.668,428.853,446.455,440.432,408.579,475.786,1209.14,127.05,127.05,127.05
0.00128598	-290762.02	0,8.88136e-05,0.000210339,0.000376623,0.000604153,0.000915485,0.00134149,0.00192439,0.00272198,0.00381334,0.00530667,0.00735001,0.0101459,0.0139716,0.0192064,0.0263693,inf	449.901,449.901,353.479,338.681,332.112,383.434,418.713,426.401,443.517,435.592,400.212,469.992,1195.15,4.86986,4.86986,4.86986
0.0013429	-290743.15	0,8.88136e-05,0.000210339,0.000376623,0.000604153,0.000915485,0.00134149,0.00192439,0.00272198,0.00381334,0.00530667,0.00735001,0.0101459,0.0139716,0.0192064,0.0263693,inf	449.892,449.892,353.691,340.45,333.59,385.879,419.401,424.84,441.735,432.37,393.904,466.647,1377.03,165.418,165.418,165.418
0.00139237	-290711.99	0,8.88136e-05,0.000210339,0.000376623,0.000604153,0.000915485,0.00134149,0.00192439,0.00272198,0.00381334,0.00530667,0.00735001,0.0101459,0.0139716,0.0192064,0.0263693,inf	449.398,449.398,353.389,341.748,334.735,387.823,419.637,423.113,439.738,428.504,386.652,460.92,1290.96,4.73101,4.73101,4.73101
0.00144325	-290697.20	0,8.88136e-05,0.000210339,0.000376623,0.000604153,0.000915485,0.00134149,0.00192439,0.00272198,0.00381334,0.00530667,0.00735001,0.0101459,0.0139716,0.0192064,0.0263693,inf	449.646,449.646,353.417,343.297,336.176,390.035,420.255,422.018,438.659,425.965,381.059,457.257,1443.72,169.309,169.309,169.309
0.00148766	-290673.71	0,8.88136e-05,0.000210339,0.000376623,0.000604153,0.000915485,0.00134149,0.00192439,0.00272198,0.00381334,0.00530667,0.00735001,0.0101459,0.0139716,0.0192064,0.0263693,inf	449.557,449.557,353.064,344.426,337.258,391.731,420.413,420.699,437.327,422.891,374.804,452.021,1342.85,4.81278,4.81278,4.81278
0.00153357	-290663.09	0,8.88136e-05,0.000210339,0.000376623,0.000604153,0.000915485,0.00134149,0.00192439,0.00272198,0.00381334,0.00530667,0.00735001,0.0101459,0.0139716,0.0192064,0.0263693,inf	450.095,450.095,353.032,345.777,338.561,393.623,420.865,419.875,436.749,420.919,369.907,448.51,1490.62,168.809,168.809,168.809
0.00157355	-290644.52	0,8.88136e-05,0.000210339,0.000376623,0.000604153,0.000915485,0.00134149,0.00192439,0.00272198,0.00381334,0.00530667,0.00735001,0.0101459,0.0139716,0.0192064,0.0263693,inf	450.31,450.31,352.698,346.768,339.527,395.031,420.878,418.795,435.864,418.413,364.417,443.719,1383.81,4.90376,4.90376,4.90376
0.00161513	-290636.98	0,8.88136e-05,0.000210339,0.000376623,0.000604153,0.000915485,0.00134149,0.00192439,0.00272198,0.00381334,0.00530667,0.00735001,0.0101459,0.0139716,0.0192064,0.0263693,inf	451.052,451.052,352.678,347.98,340.697,396.625,421.159,418.145,435.639,416.863,360.076,440.405,1530.2,167.784,167.784,167.784
0.0016512	-290621.93	0,8.88136e-05,0.000210339,0.000376623,0.000604153,0.000915485,0.00134149,0.00192439,0.00272198,0.00381334,0.00530667,0.00735001,0.0101459,0.0139716,0.0192064,0.0263693,inf	451.457,451.457,352.4,348.875,341.555,397.777,421.036,417.228,435.08,414.781,355.188,435.996,1419.53,5.00139,5.00139,5.00139
0.00168897	-290616.60	0,8.88136e-05,0.000210339,0.000376623,0.000604153,0.000915485,0.00134149,0.00192439,0.00272198,0.00381334,0.00530667,0.00735001,0.0101459,0.0139716,0.0192064,0.0263693,inf	452.309,452.309,352.418,349.989,342.61,399.117,421.172,416.701,435.118,413.551,351.294,432.875,1564.98,166.512,166.512,166.512
0.00172162	-290604.18	0,8.88136e-05,0.000210339,0.000376623,0.000604153,0.000915485,0.00134149,0.00192439,0.00272198,0.00381334,0.00530667,0.00735001,0.0101459,0.0139716,0.0192064,0.0263693,inf	452.806,452.806,352.201,350.817,343.376,400.054,420.935,415.907,434.808,411.799,346.891,428.795,1451.54,5.10011,5.10011,5.10011
0.00175602	-290600.47	0,8.88136e-05,0.000210339,0.000376623,0.000604153,0.000915485,0.00134149,0.00192439,0.00272198,0.00381334,0.00530667,0.00735001,0.0101459,0.0139716,0.0192064,0.0263693,inf	453.694,453.694,352.259,351.857,344.332,401.182,420.952,415.474,435.049,410.819,343.363,425.852,1596.08,165.13,165.13,165.13
