time_index	left_time_boundary	right_time_boundary	lambda
0	0	2.00275e-05	0.847585
1	2.00275e-05	4.34546e-05	0.847585
2	4.34546e-05	7.08585e-05	0.847585
3	7.08585e-05	0.000102914	0.847585
4	0.000102914	0.000140411	0.847585
5	0.000140411	0.000184274	0.847585
6	0.000184274	0.000235582	0.847585
7	0.000235582	0.000295599	0.847585
8	0.000295599	0.000365805	0.847585
9	0.000365805	0.000447927	0.847585
10	0.000447927	0.00054399	1.61257
11	0.00054399	0.00065636	20.8262
12	0.00065636	0.000787805	149.053
13	0.000787805	0.000941562	650.977
14	0.000941562	0.00112142	2171.38
15	0.00112142	0.00133181	4656.75
16	0.00133181	0.00157791	5397.56
17	0.00157791	0.00186579	5845.09
18	0.00186579	0.00220253	5590.85
19	0.00220253	0.00259644	3934.01
20	0.00259644	0.00305721	2373.8
21	0.00305721	0.0035962	1277.34
22	0.0035962	0.00422668	528.54
23	0.00422668	0.00496419	164.385
24	0.00496419	0.00582689	50.2714
25	0.00582689	0.00683603	28.7878
26	0.00683603	0.00801647	52.8963
27	0.00801647	0.0093973	388.847
28	0.0093973	0.0110125	388.847
29	0.0110125	0.0129019	0.847585
30	0.0129019	0.015112	0.847585
31	0.015112	inf	0.847585
