0.000236174	-138332.39	0,3.51796e-05,8.33164e-05,0.000149183,0.000239309,0.000362629,0.00053137,0.000762262,0.00107819,0.00151049,0.002102,0.00291138,0.00401887,0.00553425,0.00760778,0.010445,inf	198.763,198.763,366.889,495.407,635.568,850.814,1127.27,1381.84,1464.97,1386.78,1280.87,1219.23,1216.75,1242.74,1242.74,1242.74
0.000237655	-138121.14	0,3.51796e-05,8.33164e-05,0.000149183,0.000239309,0.000362629,0.00053137,0.000762262,0.00107819,0.00151049,0.002102,0.00291138,0.00401887,0.00553425,0.00760778,0.010445,inf	76.1904,76.1904,220.113,345.806,482.066,741.261,1119.61,1546.82,1759.02,1645.28,1449.69,1342.64,1379.91,1499.21,1499.21,1499.21
0.000238583	-138051.47	0,3.51796e-05,8.33164e-05,0.000149183,0.000239309,0.000362629,0.00053137,0.000762262,0.00107819,0.00151049,0.002102,0.00291138,0.00401887,0.00553425,0.00760778,0.010445,inf	43.6402,43.6402,175.55,293.702,407.77,674.612,1093.44,1619.88,1951.79,1822.51,1553.82,1416.38,1528.89,1860.75,1860.75,1860.75
0.00023877	-138022.96	0,3.51796e-05,8.33164e-05,0.000149183,0.000239309,0.000362629,0.00053137,0.000762262,0.00107819,0.00151049,0.002102,0.00291138,0.00401887,0.00553425,0.00760778,0.010445,inf	30.8155,30.8155,162.596,277.509,367.547,632.862,1068.44,1649.23,2077.35,1938.06,1610.22,1452.26,1659.18,2461.5,2461.5,2461.5
0.000238466	-138009.54	0,3.51796e-05,8.33164e-05,0.000149183,0.000239309,0.000362629,0.00053137,0.000762262,0.00107819,0.00151049,0.002102,0.00291138,0.00401887,0.00553425,0.00760778,0.010445,inf	23.9145,23.9145,161.453,276.795,343.808,605.99,1048.64,1658.44,2160.39,2011.52,1636.39,1463.48,1766.86,4044.57,4044.57,4044.57
0.00023788	-138002.56	0,3.51796e-05,8.33164e-05,0.000149183,0.000239309,0.000362629,0.00053137,0.000762262,0.00107819,0.00151049,0.002102,0.00291138,0.00401887,0.00553425,0.00760778,0.010445,inf	19.2265,19.2265,164.738,283.042,328.561,588.232,1033.76,1658.8,2216.88,2057.89,1645.44,1460.31,1847.22,19991.6,19991.6,19991.6
0.000237874	-137998.64	0,3.51796e-05,8.33164e-05,0.000149183,0.000239309,0.000362629,0.00053137,0.000762262,0.00107819,0.00151049,0.002102,0.00291138,0.00401887,0.00553425,0.00760778,0.010445,inf	15.5796,15.5796,169.189,292.257,317.981,576.567,1023.8,1656.71,2257.48,2087.79,1646.02,1449.93,1897.02,146533,146533,146533
0.000237865	-137996.24	0,3.51796e-05,8.33164e-05,0.000149183,0.000239309,0.000362629,0.00053137,0.000762262,0.00107819,0.00151049,0.002102,0.00291138,0.00401887,0.00553425,0.00760778,0.010445,inf	12.5799,12.5799,172.284,292.257,309.75,568.619,1017.33,1654.72,2267.84,2087.79,1643.23,1437.48,1897.02,146536,146536,146536
