AIC = 3081154.9266553758644

y0 1.745631719573797453e-08
y0_prime 0
y1 0.0059646129831557957029
y1_prime 0
y2 0.40028416479067174816
y2_prime 0
y3 1899.43676140412731
y3_prime 0
rho 2.9461359710817371827e-07
theta 0.0049159568696765226087
