LogLikelihood = -617717.26496368984226

y0 0.0031387575434033664068
y0_prime 0
y1 0.00065073115175873349689
y1_prime 0
y2 0.00023708259034545129318
y2_prime 0
y3 227.09508975184019164
y3_prime 0
rho 8.1303800146100134218e-08
rho.alpha 11549.263662520555954
r_ii 0.99998755581965625971
theta 0.0016961214422952682057
