0.000278213	-7938026.66	0,2.1794e-06,5.96097e-06,1.25225e-05,2.39078e-05,4.36629e-05,7.79408e-05,0.000137418,0.000240619,0.000419689,0.000730399,0.00126953,0.00220499,0.00382816,0.00664459,0.0115315,inf	26.614,26.614,160.778,109.686,414.026,425.456,250.055,525.165,400.431,248.874,305.394,718.695,988.906,1200.3,1200.3,1200.3
0.000245686	-7917127.85	0,2.1794e-06,5.96097e-06,1.25225e-05,2.39078e-05,4.36629e-05,7.79408e-05,0.000137418,0.000240619,0.000419689,0.000730399,0.00126953,0.00220499,0.00382816,0.00664459,0.0115315,inf	1.0092,1.0092,32.8966,13.0205,181.163,193.404,60.1173,358.881,259.288,103.658,171.412,679.526,1209.42,2473.46,2473.46,2473.46
0.000218132	-7908654.56	0,2.1794e-06,5.96097e-06,1.25225e-05,2.39078e-05,4.36629e-05,7.79408e-05,0.000137418,0.000240619,0.000419689,0.000730399,0.00126953,0.00220499,0.00382816,0.00664459,0.0115315,inf	0.749589,0.749589,5.3381,2.14833,94.465,79.9041,12.3514,255.371,190.946,49.3207,106.204,641.702,1389.11,16019.6,16019.6,16019.6
0.00021813	-7904071.43	0,2.1794e-06,5.96097e-06,1.25225e-05,2.39078e-05,4.36629e-05,7.79408e-05,0.000137418,0.000240619,0.000419689,0.000730399,0.00126953,0.00220499,0.00382816,0.00664459,0.0115315,inf	0.749589,0.749589,0.845516,1.1713,71.2508,41.2535,2.29538,202.378,156.214,26.1926,66.3586,632.454,1558,93756.9,93756.9,93756.9
