0.000715897	-9381058.93	0,2.9544e-06,6.78882e-06,1.17654e-05,1.82243e-05,2.66071e-05,3.74868e-05,5.16072e-05,6.99337e-05,9.37189e-05,0.000124589,0.000164654,0.000216653,0.000284141,0.000371732,0.000485412,0.000632955,0.000824445,0.00107297,0.00139553,0.00181416,0.0023575,0.00306267,0.00397788,0.00516571,0.00670736,0.0087082,0.011305,0.0146754,0.0190496,0.0247268,0.032095,inf	10.7286,10.7286,24.0153,39.9043,62.3196,94.0938,136.91,190.857,248.002,276.111,274.698,278.934,291.28,298.026,302.178,306.812,300.311,281.193,264.557,267.36,296.703,352.516,415.981,446.361,441.011,424.489,410.963,399.668,399.668,381.863,381.863,381.863
0.000743332	-9374679.74	0,2.9544e-06,6.78882e-06,1.17654e-05,1.82243e-05,2.66071e-05,3.74868e-05,5.16072e-05,6.99337e-05,9.37189e-05,0.000124589,0.000164654,0.000216653,0.000284141,0.000371732,0.000485412,0.000632955,0.000824445,0.00107297,0.00139553,0.00181416,0.0023575,0.00306267,0.00397788,0.00516571,0.00670736,0.0087082,0.011305,0.0146754,0.0190496,0.0247268,0.032095,inf	0.404755,0.404755,2.05221,5.72257,14.1503,32.7027,69.5139,133.54,221.136,266.581,255.397,258.487,279.614,290.963,298.934,309.055,295.138,255.013,221.271,220.607,259.916,342.236,450.537,513.53,509.563,480.665,456.405,435.697,435.697,399.528,399.528,399.528
0.00077043	-9371693.95	0,2.9544e-06,6.78882e-06,1.17654e-05,1.82243e-05,2.66071e-05,3.74868e-05,5.16072e-05,6.99337e-05,9.37189e-05,0.000124589,0.000164654,0.000216653,0.000284141,0.000371732,0.000485412,0.000632955,0.000824445,0.00107297,0.00139553,0.00181416,0.0023575,0.00306267,0.00397788,0.00516571,0.00670736,0.0087082,0.011305,0.0146754,0.0190496,0.0247268,0.032095,inf	0.360075,0.360075,0.360078,0.915873,3.60955,12.8677,39.9387,104.35,215.058,274.051,249.067,250.068,278.956,294.776,308.318,327.054,307.095,245.679,196.277,191.536,234.861,331.534,471.636,565.082,566.637,528.922,496.688,468.342,468.342,414.162,414.162,414.162
0.000796027	-9370021.30	0,2.9544e-06,6.78882e-06,1.17654e-05,1.82243e-05,2.66071e-05,3.74868e-05,5.16072e-05,6.99337e-05,9.37189e-05,0.000124589,0.000164654,0.000216653,0.000284141,0.000371732,0.000485412,0.000632955,0.000824445,0.00107297,0.00139553,0.00181416,0.0023575,0.00306267,0.00397788,0.00516571,0.00670736,0.0087082,0.011305,0.0146754,0.0190496,0.0247268,0.032095,inf	0.360075,0.360075,0.360075,0.360079,0.978779,5.40264,24.4571,85.9125,215.816,285.467,244.404,243.202,278.516,298.218,318.541,348.773,324.931,242.842,179.648,171.405,216.501,321.576,484.507,604.865,614.145,570.346,532.583,498.134,498.134,427.185,427.185,427.185
0.00081999	-9368987.96	0,2.9544e-06,6.78882e-06,1.17654e-05,1.82243e-05,2.66071e-05,3.74868e-05,5.16072e-05,6.99337e-05,9.37189e-05,0.000124589,0.000164654,0.000216653,0.000284141,0.000371732,0.000485412,0.000632955,0.000824445,0.00107297,0.00139553,0.00181416,0.0023575,0.00306267,0.00397788,0.00516571,0.00670736,0.0087082,0.011305,0.0146754,0.0190496,0.0247268,0.032095,inf	0.360075,0.360075,0.360075,0.360076,0.36008,2.36675,15.5921,72.9409,219.563,297.613,239.412,236.17,276.351,298.795,326.166,369.842,344.388,242.719,167.545,156.544,202.475,312.745,492.293,635.883,653.886,606.038,564.849,525.623,525.623,439.945,439.945,439.945
0.000842433	-9368306.62	0,2.9544e-06,6.78882e-06,1.17654e-05,1.82243e-05,2.66071e-05,3.74868e-05,5.16072e-05,6.99337e-05,9.37189e-05,0.000124589,0.000164654,0.000216653,0.000284141,0.000371732,0.000485412,0.000632955,0.000824445,0.00107297,0.00139553,0.00181416,0.0023575,0.00306267,0.00397788,0.00516571,0.00670736,0.0087082,0.011305,0.0146754,0.0190496,0.0247268,0.032095,inf	0.360075,0.360075,0.360075,0.360076,0.360075,1.06864,10.2316,63.2393,224.988,309.811,234.229,229.278,272.885,296.691,330.652,388.75,363.719,243.748,158.204,145.11,191.468,305.083,496.873,660.324,687.344,636.953,594.138,551.322,551.322,453.554,453.554,453.554
0.000863524	-9367834.91	0,2.9544e-06,6.78882e-06,1.17654e-05,1.82243e-05,2.66071e-05,3.74868e-05,5.16072e-05,6.99337e-05,9.37189e-05,0.000124589,0.000164654,0.000216653,0.000284141,0.000371732,0.000485412,0.000632955,0.000824445,0.00107297,0.00139553,0.00181416,0.0023575,0.00306267,0.00397788,0.00516571,0.00670736,0.0087082,0.011305,0.0146754,0.0190496,0.0247268,0.032095,inf	0.360075,0.360075,0.360075,0.360076,0.360075,0.490641,6.86092,55.6658,231.459,321.909,229.233,223.016,268.891,292.713,332.409,405.146,382.205,245.227,150.696,136.05,182.661,298.502,499.391,679.759,715.695,663.88,620.997,575.685,575.685,468.901,468.901,468.901
0.000883422	-9367495.38	0,2.9544e-06,6.78882e-06,1.17654e-05,1.82243e-05,2.66071e-05,3.74868e-05,5.16072e-05,6.99337e-05,9.37189e-05,0.000124589,0.000164654,0.000216653,0.000284141,0.000371732,0.000485412,0.000632955,0.000824445,0.00107297,0.00139553,0.00181416,0.0023575,0.00306267,0.00397788,0.00516571,0.00670736,0.0087082,0.011305,0.0146754,0.0190496,0.0247268,0.032095,inf	0.360075,0.360075,0.360075,0.360076,0.360075,0.360075,4.67833,49.5439,238.512,333.791,224.643,217.676,264.975,287.63,332.065,419.142,399.577,246.821,144.482,128.712,175.513,292.874,500.562,695.326,739.861,687.465,645.879,599.122,599.122,486.757,486.757,486.757
0.000902267	-9367243.05	0,2.9544e-06,6.78882e-06,1.17654e-05,1.82243e-05,2.66071e-05,3.74868e-05,5.16072e-05,6.99337e-05,9.37189e-05,0.000124589,0.000164654,0.000216653,0.000284141,0.000371732,0.000485412,0.000632955,0.000824445,0.00107297,0.00139553,0.00181416,0.0023575,0.00306267,0.00397788,0.00516571,0.00670736,0.0087082,0.011305,0.0146754,0.0190496,0.0247268,0.032095,inf	0.360075,0.360075,0.360075,0.360076,0.360075,0.360075,3.2338,44.4536,245.815,345.303,220.535,213.363,261.5,282.015,330.204,431.011,415.764,248.364,139.22,122.665,169.645,288.071,500.839,707.855,760.569,708.234,669.162,621.996,621.996,507.932,507.932,507.932
0.000920178	-9367050.42	0,2.9544e-06,6.78882e-06,1.17654e-05,1.82243e-05,2.66071e-05,3.74868e-05,5.16072e-05,6.99337e-05,9.37189e-05,0.000124589,0.000164654,0.000216653,0.000284141,0.000371732,0.000485412,0.000632955,0.000824445,0.00107297,0.00139553,0.00181416,0.0023575,0.00306267,0.00397788,0.00516571,0.00670736,0.0087082,0.011305,0.0146754,0.0190496,0.0247268,0.032095,inf	0.360075,0.360075,0.360075,0.360076,0.360075,0.360075,2.25986,40.1317,253.104,356.286,216.896,210.057,258.649,276.247,327.298,441.058,430.787,249.77,134.683,117.61,164.785,283.974,500.52,717.968,778.395,726.616,691.165,644.643,644.643,533.267,533.267,533.267
0.000937254	-9366899.92	0,2.9544e-06,6.78882e-06,1.17654e-05,1.82243e-05,2.66071e-05,3.74868e-05,5.16072e-05,6.99337e-05,9.37189e-05,0.000124589,0.000164654,0.000216653,0.000284141,0.000371732,0.000485412,0.000632955,0.000824445,0.00107297,0.00139553,0.00181416,0.0023575,0.00306267,0.00397788,0.00516571,0.00670736,0.0087082,0.011305,0.0146754,0.0190496,0.0247268,0.032095,inf	0.360075,0.360075,0.360075,0.360076,0.360075,0.360075,1.59339,36.4058,260.207,366.607,213.669,207.678,256.487,270.56,323.706,449.573,444.71,250.999,130.712,113.333,160.731,280.48,499.802,726.132,793.799,742.966,712.162,667.376,667.376,563.977,563.977,563.977
0.000953577	-9366779.98	0,2.9544e-06,6.78882e-06,1.17654e-05,1.82243e-05,2.66071e-05,3.74868e-05,5.16072e-05,6.99337e-05,9.37189e-05,0.000124589,0.000164654,0.000216653,0.000284141,0.000371732,0.000485412,0.000632955,0.000824445,0.00107297,0.00139553,0.00181416,0.0023575,0.00306267,0.00397788,0.00516571,0.00670736,0.0087082,0.011305,0.0146754,0.0190496,0.0247268,0.032095,inf	0.360075,0.360075,0.360075,0.360076,0.360075,0.360075,1.13316,33.16,267.025,376.167,210.785,206.121,255.007,265.09,319.69,456.815,457.611,252.032,127.19,109.678,157.332,277.502,498.816,732.71,807.153,757.58,732.395,690.505,690.505,601.832,601.832,601.832
0.000969219	-9366682.70	0,2.9544e-06,6.78882e-06,1.17654e-05,1.82243e-05,2.66071e-05,3.74868e-05,5.16072e-05,6.99337e-05,9.37189e-05,0.000124589,0.000164654,0.000216653,0.000284141,0.000371732,0.000485412,0.000632955,0.000824445,0.00107297,0.00139553,0.00181416,0.0023575,0.00306267,0.00397788,0.00516571,0.00670736,0.0087082,0.011305,0.0146754,0.0190496,0.0247268,0.032095,inf	0.360075,0.360075,0.360075,0.360076,0.360075,0.360075,0.812162,30.3103,273.512,384.898,208.177,205.278,254.169,259.907,315.438,463.002,469.574,252.865,124.034,106.527,154.471,274.967,497.654,737.979,818.758,770.702,752.072,714.309,714.309,649.729,649.729,649.729
0.000984239	-9366602.58	0,2.9544e-06,6.78882e-06,1.17654e-05,1.82243e-05,2.66071e-05,3.74868e-05,5.16072e-05,6.99337e-05,9.37189e-05,0.000124589,0.000164654,0.000216653,0.000284141,0.000371732,0.000485412,0.000632955,0.000824445,0.00107297,0.00139553,0.00181416,0.0023575,0.00306267,0.00397788,0.00516571,0.00670736,0.0087082,0.011305,0.0146754,0.0190496,0.0247268,0.032095,inf	0.360075,0.360075,0.360075,0.360076,0.360075,0.360075,0.583383,27.7984,279.649,392.777,205.784,205.048,253.915,255.038,311.085,468.32,480.68,253.5,121.177,103.79,152.056,272.812,496.379,742.164,828.863,782.539,771.385,739.166,739.166,712.81,712.81,712.81
0.00099869	-9366535.70	0,2.9544e-06,6.78882e-06,1.17654e-05,1.82243e-05,2.66071e-05,3.74868e-05,5.16072e-05,6.99337e-05,9.37189e-05,0.000124589,0.000164654,0.000216653,0.000284141,0.000371732,0.000485412,0.000632955,0.000824445,0.00107297,0.00139553,0.00181416,0.0023575,0.00306267,0.00397788,0.00516571,0.00670736,0.0087082,0.011305,0.0146754,0.0190496,0.0247268,0.032095,inf	0.360075,0.360075,0.360075,0.360076,0.360075,0.360075,0.422423,25.5767,285.463,399.796,203.556,205.337,254.181,250.489,306.724,472.923,491.006,253.945,118.57,101.396,150.017,270.986,495.035,745.44,837.675,793.265,790.512,765.413,765.413,801.47,801.47,801.47
0.00101261	-9366479.17	0,2.9544e-06,6.78882e-06,1.17654e-05,1.82243e-05,2.66071e-05,3.74868e-05,5.16072e-05,6.99337e-05,9.37189e-05,0.000124589,0.000164654,0.000216653,0.000284141,0.000371732,0.000485412,0.000632955,0.000824445,0.00107297,0.00139553,0.00181416,0.0023575,0.00306267,0.00397788,0.00516571,0.00670736,0.0087082,0.011305,0.0146754,0.0190496,0.0247268,0.032095,inf	0.360075,0.360075,0.360075,0.360076,0.360075,0.360075,0.360075,23.608,290.986,405.98,201.453,206.064,254.904,246.25,302.419,476.937,500.624,254.21,116.172,99.2896,148.295,269.446,493.653,747.95,845.366,803.032,809.619,793.462,793.462,942.207,942.207,942.207
0.00102605	-9366430.90	0,2.9544e-06,6.78882e-06,1.17654e-05,1.82243e-05,2.66071e-05,3.74868e-05,5.16072e-05,6.99337e-05,9.37189e-05,0.000124589,0.000164654,0.000216653,0.000284141,0.000371732,0.000485412,0.000632955,0.000824445,0.00107297,0.00139553,0.00181416,0.0023575,0.00306267,0.00397788,0.00516571,0.00670736,0.0087082,0.011305,0.0146754,0.0190496,0.0247268,0.032095,inf	0.360075,0.360075,0.360075,0.360076,0.360075,0.360075,0.360075,21.8609,296.265,411.36,199.437,207.158,256.021,242.301,298.213,480.469,509.598,254.304,113.954,97.4271,146.843,268.154,492.254,749.811,852.08,811.966,828.869,823.792,823.792,1236.97,1236.97,1236.97
0.00103904	-9366389.27	0,2.9544e-06,6.78882e-06,1.17654e-05,1.82243e-05,2.66071e-05,3.74868e-05,5.16072e-05,6.99337e-05,9.37189e-05,0.000124589,0.000164654,0.000216653,0.000284141,0.000371732,0.000485412,0.000632955,0.000824445,0.00107297,0.00139553,0.00181416,0.0023575,0.00306267,0.00397788,0.00516571,0.00670736,0.0087082,0.011305,0.0146754,0.0190496,0.0247268,0.032095,inf	0.360075,0.360075,0.360075,0.360076,0.360075,0.360075,0.360075,20.307,301.344,415.976,197.487,208.558,257.479,238.62,294.133,483.604,517.986,254.24,111.889,95.772,145.624,267.08,490.854,751.118,857.94,820.181,848.421,857.007,857.007,2612.91,2612.91,2612.91
0.00105105	-9366353.07	0,2.9544e-06,6.78882e-06,1.17654e-05,1.82243e-05,2.66071e-05,3.74868e-05,5.16072e-05,6.99337e-05,9.37189e-05,0.000124589,0.000164654,0.000216653,0.000284141,0.000371732,0.000485412,0.000632955,0.000824445,0.00107297,0.00139553,0.00181416,0.0023575,0.00306267,0.00397788,0.00516571,0.00670736,0.0087082,0.011305,0.0146754,0.0190496,0.0247268,0.032095,inf	0.360075,0.360075,0.360075,0.360076,0.360075,0.360075,0.360075,18.9204,306.211,419.809,195.548,210.181,259.188,235.15,290.155,486.337,525.753,253.995,109.947,94.2876,144.594,266.171,489.396,751.867,862.993,827.73,868.406,893.852,893.852,54594.9,54594.9,54594.9
