AIC = 577321.84455271204934

y0 1.0644642515420394968
y0_prime 0
y1 0.94944473863642686595
y1_prime 0
y2 0.79112347363904278463
y2_prime 0
y3 1.6356592478631366561
y3_prime 0
rho 0.0049733389998833409454
rho.alpha 0.16973942768967095751
r_ii 0.99994529185948466399
theta 0.0047474110894194926358
