time_index	left_time_boundary	right_time_boundary	lambda
0	0	9.93531e-05	238.986
1	9.93531e-05	0.000235299	238.986
2	0.000235299	0.000421317	184.089
3	0.000421317	0.000675847	139.386
4	0.000675847	0.00102412	255.938
5	0.00102412	0.00150068	304.835
6	0.00150068	0.00215275	379.125
7	0.00215275	0.003045	398.114
8	0.003045	0.00426587	430.839
9	0.00426587	0.0059364	657.561
10	0.0059364	0.00822222	631.277
11	0.00822222	0.0113499	260.594
12	0.0113499	0.0156297	173.502
13	0.0156297	0.0214856	156.124
14	0.0214856	0.0294985	156.124
15	0.0294985	inf	156.124
