time_index	left_time_boundary	right_time_boundary	lambda
0	0	1.0487e-05	164.555
1	1.0487e-05	2.74763e-05	164.555
2	2.74763e-05	5.49994e-05	332.276
3	5.49994e-05	9.95877e-05	188.335
4	9.95877e-05	0.000171822	276.141
5	0.000171822	0.000288844	255.428
6	0.000288844	0.000478424	258.874
7	0.000478424	0.000785549	265.545
8	0.000785549	0.0012831	293.819
9	0.0012831	0.00208915	371.44
10	0.00208915	0.00339498	472.041
11	0.00339498	0.00551046	418.368
12	0.00551046	0.00893761	461.472
13	0.00893761	0.0144897	49778.5
14	0.0144897	0.0234842	49778.5
15	0.0234842	inf	49778.5
