0.000660279	-1862164.01	0,1.00327e-05,2.24421e-05,3.77913e-05,5.67768e-05,8.026e-05,0.000109306,0.000145234,0.000189673,0.000244639,0.000312627,0.000396722,0.000500739,0.000629397,0.000788535,0.000985373,0.00122884,0.00152999,0.00190248,0.00236321,0.00293309,0.00363798,0.00450986,0.00558828,0.00692219,0.0085721,0.0106129,0.0131371,0.0162593,0.0201212,0.024898,0.0308064,inf	80.1517,80.1517,131.048,197.031,260.82,303.934,305.722,308.246,295.894,278.841,273.292,280.788,292.86,306.772,324.631,346.182,369.047,390.838,410.338,424.7,432.119,433.575,431.911,427.44,419.034,409.644,405.722,416.072,416.072,457.437,457.437,457.437
0.000686083	-1861731.36	0,1.00327e-05,2.24421e-05,3.77913e-05,5.67768e-05,8.026e-05,0.000109306,0.000145234,0.000189673,0.000244639,0.000312627,0.000396722,0.000500739,0.000629397,0.000788535,0.000985373,0.00122884,0.00152999,0.00190248,0.00236321,0.00293309,0.00363798,0.00450986,0.00558828,0.00692219,0.0085721,0.0106129,0.0131371,0.0162593,0.0201212,0.024898,0.0308064,inf	32.4826,32.4826,58.8518,129.938,224.386,302.747,303.802,307.711,281.149,246.716,233.151,241.611,256.345,273.017,296.194,325.985,358.655,390.464,420.026,442.831,455.364,458.894,458.041,451.922,437.002,419.425,413.037,437.166,437.166,540.935,540.935,540.935
0.000710207	-1861562.32	0,1.00327e-05,2.24421e-05,3.77913e-05,5.67768e-05,8.026e-05,0.000109306,0.000145234,0.000189673,0.000244639,0.000312627,0.000396722,0.000500739,0.000629397,0.000788535,0.000985373,0.00122884,0.00152999,0.00190248,0.00236321,0.00293309,0.00363798,0.00450986,0.00558828,0.00692219,0.0085721,0.0106129,0.0131371,0.0162593,0.0201212,0.024898,0.0308064,inf	22.0293,22.0293,29.7854,94.043,207.578,318.467,318.057,325.743,286.066,236,215.924,224.998,240.445,256.988,281.793,315.42,353.037,389.924,424.968,452.785,468.693,474.275,475.482,469.452,449.373,424.62,416.936,457.641,457.641,660.057,660.057,660.057
0.000732637	-1861470.51	0,1.00327e-05,2.24421e-05,3.77913e-05,5.67768e-05,8.026e-05,0.000109306,0.000145234,0.000189673,0.000244639,0.000312627,0.000396722,0.000500739,0.000629397,0.000788535,0.000985373,0.00122884,0.00152999,0.00190248,0.00236321,0.00293309,0.00363798,0.00450986,0.00558828,0.00692219,0.0085721,0.0106129,0.0131371,0.0162593,0.0201212,0.024898,0.0308064,inf	19.6574,19.6574,16.0035,70.7813,195.806,334.88,331.867,345.794,295.153,231.794,207.132,217.437,233.212,248.728,273.821,309.458,349.794,389.298,427.307,458.015,476.008,483.329,487.093,482.126,457.81,426.686,418.597,478.271,478.271,857.923,857.923,857.923
0.000753657	-1861408.61	0,1.00327e-05,2.24421e-05,3.77913e-05,5.67768e-05,8.026e-05,0.000109306,0.000145234,0.000189673,0.000244639,0.000312627,0.000396722,0.000500739,0.000629397,0.000788535,0.000985373,0.00122884,0.00152999,0.00190248,0.00236321,0.00293309,0.00363798,0.00450986,0.00558828,0.00692219,0.0085721,0.0106129,0.0131371,0.0162593,0.0201212,0.024898,0.0308064,inf	19.3841,19.3841,8.92262,54.6469,186.13,348.388,341.248,363.135,303.806,229.479,201.908,214.076,230.173,244.382,269.239,306.053,347.983,388.781,428.306,460.568,479.724,488.406,494.825,491.432,463.508,426.652,418.841,499.7,499.7,1315.47,1315.47,1315.47
0.000773528	-1861360.77	0,1.00327e-05,2.24421e-05,3.77913e-05,5.67768e-05,8.026e-05,0.000109306,0.000145234,0.000189673,0.000244639,0.000312627,0.000396722,0.000500739,0.000629397,0.000788535,0.000985373,0.00122884,0.00152999,0.00190248,0.00236321,0.00293309,0.00363798,0.00450986,0.00558828,0.00692219,0.0085721,0.0106129,0.0131371,0.0162593,0.0201212,0.024898,0.0308064,inf	19.597,19.597,5.11319,43.143,178.168,359.069,346.165,376.919,310.826,227.537,198.349,212.853,229.332,242.166,266.591,304.186,347.11,388.462,428.643,461.613,481.289,490.98,499.962,498.384,467.289,425.219,418.214,522.508,522.508,3868.75,3868.75,3868.75
0.000773528	-1861320.72	0,1.00327e-05,2.24421e-05,3.77913e-05,5.67768e-05,8.026e-05,0.000109306,0.000145234,0.000189673,0.000244639,0.000312627,0.000396722,0.000500739,0.000629397,0.000788535,0.000985373,0.00122884,0.00152999,0.00190248,0.00236321,0.00293309,0.00363798,0.00450986,0.00558828,0.00692219,0.0085721,0.0106129,0.0131371,0.0162593,0.0201212,0.024898,0.0308064,inf	19.7464,19.7464,2.97634,34.4955,170.403,364.532,344.614,384.216,313.479,223.656,194.083,211.111,227.91,239.328,263.114,301.038,344.34,385.597,425.768,458.919,478.895,489.626,501.267,501.851,468.256,421.729,416.146,546.34,546.34,67177.7,67177.7,67177.7
0.000773528	-1861319.56	0,1.00327e-05,2.24421e-05,3.77913e-05,5.67768e-05,8.026e-05,0.000109306,0.000145234,0.000189673,0.000244639,0.000312627,0.000396722,0.000500739,0.000629397,0.000788535,0.000985373,0.00122884,0.00152999,0.00190248,0.00236321,0.00293309,0.00363798,0.00450986,0.00558828,0.00692219,0.0085721,0.0106129,0.0131371,0.0162593,0.0201212,0.024898,0.0308064,inf	19.7867,19.7867,1.7496,27.8987,163.856,370.199,342.845,388.764,313.479,220.96,191.151,210.895,228.147,238.168,261.352,299.649,343.325,384.398,424.381,457.431,477.341,488.718,502.706,504.749,468.256,418.145,414.315,548.049,548.049,67177.7,67177.7,67177.7
0.000773528	-1861318.93	0,1.00327e-05,2.24421e-05,3.77913e-05,5.67768e-05,8.026e-05,0.000109306,0.000145234,0.000189673,0.000244639,0.000312627,0.000396722,0.000500739,0.000629397,0.000788535,0.000985373,0.00122884,0.00152999,0.00190248,0.00236321,0.00293309,0.00363798,0.00450986,0.00558828,0.00692219,0.0085721,0.0106129,0.0131371,0.0162593,0.0201212,0.024898,0.0308064,inf	19.8295,19.8295,1.03555,22.7872,158.311,376.201,341.135,391.617,313.479,218.909,188.852,211.346,229.09,237.715,260.324,299.026,343.094,383.959,423.694,456.525,476.198,488.024,504.216,505.828,468.256,414.544,412.5,549.757,549.757,67177.7,67177.7,67177.7
0.000773528	-1861318.63	0,1.00327e-05,2.24421e-05,3.77913e-05,5.67768e-05,8.026e-05,0.000109306,0.000145234,0.000189673,0.000244639,0.000312627,0.000396722,0.000500739,0.000629397,0.000788535,0.000985373,0.00122884,0.00152999,0.00190248,0.00236321,0.00293309,0.00363798,0.00450986,0.00558828,0.00692219,0.0085721,0.0106129,0.0131371,0.0162593,0.0201212,0.024898,0.0308064,inf	19.8585,19.8585,0.558162,18.7538,153.481,382.264,339.341,391.775,313.479,217.16,186.825,212.045,230.294,237.526,259.586,298.724,343.21,383.876,423.355,455.929,475.292,487.469,505.791,506.057,468.256,410.989,410.747,551.429,551.429,67177.7,67177.7,67177.7
0.000773528	-1861318.41	0,1.00327e-05,2.24421e-05,3.77913e-05,5.67768e-05,8.026e-05,0.000109306,0.000145234,0.000189673,0.000244639,0.000312627,0.000396722,0.000500739,0.000629397,0.000788535,0.000985373,0.00122884,0.00152999,0.00190248,0.00236321,0.00293309,0.00363798,0.00450986,0.00558828,0.00692219,0.0085721,0.0106129,0.0131371,0.0162593,0.0201212,0.024898,0.0308064,inf	19.9008,19.9008,0.39356,15.5392,149.245,387.877,337.785,393.067,313.479,215.682,184.946,212.854,231.602,237.434,258.961,298.556,343.478,383.963,423.195,455.51,474.533,487.013,507.011,506.057,468.256,407.506,409.077,553.051,553.051,67177.7,67177.7,67177.7
0.000773528	-1861318.26	0,1.00327e-05,2.24421e-05,3.77913e-05,5.67768e-05,8.026e-05,0.000109306,0.000145234,0.000189673,0.000244639,0.000312627,0.000396722,0.000500739,0.000629397,0.000788535,0.000985373,0.00122884,0.00152999,0.00190248,0.00236321,0.00293309,0.00363798,0.00450986,0.00558828,0.00692219,0.0085721,0.0106129,0.0131371,0.0162593,0.0201212,0.024898,0.0308064,inf	19.9122,19.9122,0.393551,12.9457,145.46,392.71,336.174,394.369,313.479,214.335,183.144,213.68,232.824,237.35,258.362,298.422,343.804,384.13,423.137,455.2,473.883,486.644,507.927,506.057,468.256,404.108,407.496,554.615,554.615,67177.7,67177.7,67177.7
0.000773528	-1861318.15	0,1.00327e-05,2.24421e-05,3.77913e-05,5.67768e-05,8.026e-05,0.000109306,0.000145234,0.000189673,0.000244639,0.000312627,0.000396722,0.000500739,0.000629397,0.000788535,0.000985373,0.00122884,0.00152999,0.00190248,0.00236321,0.00293309,0.00363798,0.00450986,0.00558828,0.00692219,0.0085721,0.0106129,0.0131371,0.0162593,0.0201212,0.024898,0.0308064,inf	19.9383,19.9383,0.393551,10.8366,142.049,396.901,334.547,395.685,313.479,213.1,181.412,214.517,233.932,237.255,257.764,298.297,344.151,384.288,423.137,454.967,473.317,486.348,508.658,506.057,468.256,400.798,406.007,556.12,556.12,67177.7,67177.7,67177.7
0.000773528	-1861318.06	0,1.00327e-05,2.24421e-05,3.77913e-05,5.67768e-05,8.026e-05,0.000109306,0.000145234,0.000189673,0.000244639,0.000312627,0.000396722,0.000500739,0.000629397,0.000788535,0.000985373,0.00122884,0.00152999,0.00190248,0.00236321,0.00293309,0.00363798,0.00450986,0.00558828,0.00692219,0.0085721,0.0106129,0.0131371,0.0162593,0.0201212,0.024898,0.0308064,inf	19.9383,19.9383,0.393551,9.10988,138.985,400.511,332.92,397.001,313.479,211.972,179.742,215.367,234.933,237.149,257.164,298.174,344.509,384.441,423.137,454.793,472.819,486.116,509.264,506.057,468.256,397.577,404.61,557.567,557.567,67177.7,67177.7,67177.7
0.000773528	-1861317.98	0,1.00327e-05,2.24421e-05,3.77913e-05,5.67768e-05,8.026e-05,0.000109306,0.000145234,0.000189673,0.000244639,0.000312627,0.000396722,0.000500739,0.000629397,0.000788535,0.000985373,0.00122884,0.00152999,0.00190248,0.00236321,0.00293309,0.00363798,0.00450986,0.00558828,0.00692219,0.0085721,0.0106129,0.0131371,0.0162593,0.0201212,0.024898,0.0308064,inf	19.9383,19.9383,0.393551,7.68911,136.238,403.835,331.322,398.292,313.479,210.946,178.13,216.236,235.827,237.036,256.564,298.053,344.873,384.592,423.137,454.666,472.377,485.939,509.763,506.057,468.256,394.444,403.301,558.955,558.955,67177.7,67177.7,67177.7
0.000773528	-1861317.91	0,1.00327e-05,2.24421e-05,3.77913e-05,5.67768e-05,8.026e-05,0.000109306,0.000145234,0.000189673,0.000244639,0.000312627,0.000396722,0.000500739,0.000629397,0.000788535,0.000985373,0.00122884,0.00152999,0.00190248,0.00236321,0.00293309,0.00363798,0.00450986,0.00558828,0.00692219,0.0085721,0.0106129,0.0131371,0.0162593,0.0201212,0.024898,0.0308064,inf	19.9518,19.9518,0.393551,6.51267,133.764,406.663,329.742,399.613,313.479,210.013,176.576,217.119,236.618,236.918,255.963,297.935,345.24,384.592,423.228,454.575,471.983,485.811,510.185,506.057,468.256,391.396,402.081,560.287,560.287,67177.7,67177.7,67177.7
0.000773528	-1861317.85	0,1.00327e-05,2.24421e-05,3.77913e-05,5.67768e-05,8.026e-05,0.000109306,0.000145234,0.000189673,0.000244639,0.000312627,0.000396722,0.000500739,0.000629397,0.000788535,0.000985373,0.00122884,0.00152999,0.00190248,0.00236321,0.00293309,0.00363798,0.00450986,0.00558828,0.00692219,0.0085721,0.0106129,0.0131371,0.0162593,0.0201212,0.024898,0.0308064,inf	19.9562,19.9562,0.393551,5.53445,131.535,409.137,328.2,400.86,313.479,209.169,175.083,218.024,237.308,236.805,255.372,297.821,345.615,384.724,423.228,454.515,471.629,485.727,510.516,506.057,468.256,388.432,400.945,561.563,561.563,67177.7,67177.7,67177.7
0.000773528	-1861317.79	0,1.00327e-05,2.24421e-05,3.77913e-05,5.67768e-05,8.026e-05,0.000109306,0.000145234,0.000189673,0.000244639,0.000312627,0.000396722,0.000500739,0.000629397,0.000788535,0.000985373,0.00122884,0.00152999,0.00190248,0.00236321,0.00293309,0.00363798,0.00450986,0.00558828,0.00692219,0.0085721,0.0106129,0.0131371,0.0162593,0.0201212,0.024898,0.0308064,inf	19.956,19.956,0.393551,4.71758,129.535,411.298,326.699,402.117,313.479,208.408,173.642,218.949,237.904,236.692,254.784,297.709,345.989,384.854,423.228,454.477,471.308,485.682,510.782,506.057,468.256,385.549,399.895,562.786,562.786,67177.7,67177.7,67177.7
0.000773528	-1861317.75	0,1.00327e-05,2.24421e-05,3.77913e-05,5.67768e-05,8.026e-05,0.000109306,0.000145234,0.000189673,0.000244639,0.000312627,0.000396722,0.000500739,0.000629397,0.000788535,0.000985373,0.00122884,0.00152999,0.00190248,0.00236321,0.00293309,0.00363798,0.00450986,0.00558828,0.00692219,0.0085721,0.0106129,0.0131371,0.0162593,0.0201212,0.024898,0.0308064,inf	19.956,19.956,0.393551,4.03154,127.737,413.441,325.247,403.291,313.479,207.721,172.251,219.896,238.411,236.583,254.2,297.598,346.361,384.854,423.331,454.457,471.016,485.672,510.991,506.057,468.256,382.746,398.927,563.955,563.955,67177.7,67177.7,67177.7
0.000773528	-1861317.72	0,1.00327e-05,2.24421e-05,3.77913e-05,5.67768e-05,8.026e-05,0.000109306,0.000145234,0.000189673,0.000244639,0.000312627,0.000396722,0.000500739,0.000629397,0.000788535,0.000985373,0.00122884,0.00152999,0.00190248,0.00236321,0.00293309,0.00363798,0.00450986,0.00558828,0.00692219,0.0085721,0.0106129,0.0131371,0.0162593,0.0201212,0.024898,0.0308064,inf	19.9935,19.9935,0.393551,3.45302,126.104,415.142,323.831,404.48,313.479,207.106,170.9,220.866,238.83,236.483,253.626,297.493,346.733,384.968,423.331,454.448,470.747,485.672,511.172,506.057,468.256,380.021,398.039,565.072,565.072,67177.7,67177.7,67177.7
