time_index	left_time_boundary	right_time_boundary	lambda
0	0	1.08729e-06	33.8747
1	1.08729e-06	2.57504e-06	33.8747
2	2.57504e-06	4.61075e-06	33.8747
3	4.61075e-06	7.39624e-06	33.8747
4	7.39624e-06	1.12077e-05	33.8747
5	1.12077e-05	1.64229e-05	1533.81
6	1.64229e-05	2.3559e-05	50697.9
7	2.3559e-05	3.33234e-05	11335.6
8	3.33234e-05	4.66842e-05	7476.44
9	4.66842e-05	6.4966e-05	2651.02
10	6.4966e-05	8.99812e-05	1705.77
11	8.99812e-05	0.00012421	1644.34
12	0.00012421	0.000171046	2351.82
13	0.000171046	0.000235131	33.8747
14	0.000235131	0.000322821	33.8747
15	0.000322821	inf	33.8747
