6.80864e-06	-297461.19	0,5.05433e-08,1.38243e-07,2.90415e-07,5.54455e-07,1.0126e-06,1.80756e-06,3.18691e-06,5.58029e-06,9.73316e-06,1.6939e-05,2.94421e-05,5.11368e-05,8.87803e-05,0.000154097,0.000267431,inf	585.595,585.595,757.854,1051.57,1613.4,2689.64,4623.6,8677.11,14117.5,20670.8,30725.2,41525.2,44417.3,44950.4,44950.4,44950.4
6.05249e-06	-297061.47	0,5.05433e-08,1.38243e-07,2.90415e-07,5.54455e-07,1.0126e-06,1.80756e-06,3.18691e-06,5.58029e-06,9.73316e-06,1.6939e-05,2.94421e-05,5.11368e-05,8.87803e-05,0.000154097,0.000267431,inf	32.3219,32.3219,32.3219,47.0749,109.605,310.25,910.541,3375.07,8840.34,16229.8,28936.7,44329,56979.5,70508.5,70508.5,70508.5
5.2765e-06	-296920.44	0,5.05433e-08,1.38243e-07,2.90415e-07,5.54455e-07,1.0126e-06,1.80756e-06,3.18691e-06,5.58029e-06,9.73316e-06,1.6939e-05,2.94421e-05,5.11368e-05,8.87803e-05,0.000154097,0.000267431,inf	32.3219,32.3219,32.3219,32.3219,32.3219,33.1589,189.625,1432.05,6405,13796.4,27638.2,43570.6,68869.6,173515,173515,173515
5.27649e-06	-296850.02	0,5.05433e-08,1.38243e-07,2.90415e-07,5.54455e-07,1.0126e-06,1.80756e-06,3.18691e-06,5.58029e-06,9.73316e-06,1.6939e-05,2.94421e-05,5.11368e-05,8.87803e-05,0.000154097,0.000267431,inf	32.3219,32.3219,32.3219,32.3219,32.3219,32.3219,37.6004,576.896,4991.79,12232.6,27124.4,44206.2,79577.2,4.0153e+06,4.0153e+06,4.0153e+06
