LogLikelihood = -6870.4799688856473949

y0 1.7489285107485193124e-09
y0_prime 0
y1 0.97998383855479409554
y1_prime 0
y2 1.5550157414613905438
y2_prime 0
y3 2.9958930221280413164
y3_prime 0
rho 1.8460742902087350385e-05
rho.alpha 3.5814358521755753628
r_ii 0.99976509900880883297
theta 6.5645282539413644398e-05
