0.000205715	-130401.72	0,1.83623e-05,3.98415e-05,6.49668e-05,9.43572e-05,0.000128737,0.000168952,0.000215994,0.000271021,0.000335389,0.000410683,0.000498759,0.000601786,0.000722301,0.000863274,0.00102818,0.00122107,0.00144671,0.00171065,0.0020194,0.00238055,0.00280301,0.00329719,0.00387525,0.00455143,0.0053424,0.00626763,0.00734993,0.00861594,0.0100969,0.0118292,0.0138555,inf	242321,242321,501.746,490.197,608.553,652.465,596.473,540.856,493.919,470.621,469.304,477.298,488.34,501.77,519.081,538.195,555.009,565.983,569.556,567.191,563.392,562.399,565.738,577.013,595.52,602.528,592.024,613.267,613.267,842.755,842.755,842.755
0.000180184	-129994.15	0,1.83623e-05,3.98415e-05,6.49668e-05,9.43572e-05,0.000128737,0.000168952,0.000215994,0.000271021,0.000335389,0.000410683,0.000498759,0.000601786,0.000722301,0.000863274,0.00102818,0.00122107,0.00144671,0.00171065,0.0020194,0.00238055,0.00280301,0.00329719,0.00387525,0.00455143,0.0053424,0.00626763,0.00734993,0.00861594,0.0100969,0.0118292,0.0138555,inf	242214,242214,47.2705,160.83,411.86,632.218,567.858,467.173,381.674,324.291,315.884,332.764,357.326,379.754,406.806,436.776,461.417,474.141,473.246,463.459,453.166,448.561,450.746,463.538,486.538,495.137,478.602,501.84,501.84,866.001,866.001,866.001
0.000165562	-129928.12	0,1.83623e-05,3.98415e-05,6.49668e-05,9.43572e-05,0.000128737,0.000168952,0.000215994,0.000271021,0.000335389,0.000410683,0.000498759,0.000601786,0.000722301,0.000863274,0.00102818,0.00122107,0.00144671,0.00171065,0.0020194,0.00238055,0.00280301,0.00329719,0.00387525,0.00455143,0.0053424,0.00626763,0.00734993,0.00861594,0.0100969,0.0118292,0.0138555,inf	242875,242875,4.93123,61.6325,328.098,739.272,663.304,494.259,367.68,273.128,254.496,275.78,312.284,339.669,372.219,410.984,442.367,455.594,448.31,429.612,412.177,403.553,403.636,416.352,441.888,450.301,426.297,444.956,444.956,911.308,911.308,911.308
0.000155277	-129910.87	0,1.83623e-05,3.98415e-05,6.49668e-05,9.43572e-05,0.000128737,0.000168952,0.000215994,0.000271021,0.000335389,0.000410683,0.000498759,0.000601786,0.000722301,0.000863274,0.00102818,0.00122107,0.00144671,0.00171065,0.0020194,0.00238055,0.00280301,0.00329719,0.00387525,0.00455143,0.0053424,0.00626763,0.00734993,0.00861594,0.0100969,0.0118292,0.0138555,inf	244251,244251,0.924452,22.743,251.596,839.509,770.644,529.439,371.909,247.448,220.789,244.461,292.517,322.919,358.424,405.418,444.364,459.153,445.76,418.479,394.668,382.899,381.26,394.005,422.307,430.122,397.293,408.869,408.869,963.332,963.332,963.332
0.000147467	-129903.17	0,1.83623e-05,3.98415e-05,6.49668e-05,9.43572e-05,0.000128737,0.000168952,0.000215994,0.000271021,0.000335389,0.000410683,0.000498759,0.000601786,0.000722301,0.000863274,0.00102818,0.00122107,0.00144671,0.00171065,0.0020194,0.00238055,0.00280301,0.00329719,0.00387525,0.00455143,0.0053424,0.00626763,0.00734993,0.00861594,0.0100969,0.0118292,0.0138555,inf	245198,245198,0.924451,7.90708,181.938,902.673,862.076,554.161,378.698,231.753,198.868,223.122,282.069,313.817,349.75,403.888,450.862,468.461,449.823,414.897,385.89,372.125,369.378,382.561,414.377,421.712,379.051,382.603,382.603,1018.36,1018.36,1018.36
0.000141376	-129898.71	0,1.83623e-05,3.98415e-05,6.49668e-05,9.43572e-05,0.000128737,0.000168952,0.000215994,0.000271021,0.000335389,0.000410683,0.000498759,0.000601786,0.000722301,0.000863274,0.00102818,0.00122107,0.00144671,0.00171065,0.0020194,0.00238055,0.00280301,0.00329719,0.00387525,0.00455143,0.0053424,0.00626763,0.00734993,0.00861594,0.0100969,0.0118292,0.0138555,inf	245818,245818,0.924451,2.63044,126.171,933.641,937.612,569.285,386.365,221.976,183.781,207.095,276.341,308.081,342.154,402.028,456.927,478.22,455.159,413.561,380.476,365.731,362.362,376.302,412.423,419.604,366.368,361.706,361.706,1075.83,1075.83,1075.83
0.000136588	-129895.96	0,1.83623e-05,3.98415e-05,6.49668e-05,9.43572e-05,0.000128737,0.000168952,0.000215994,0.000271021,0.000335389,0.000410683,0.000498759,0.000601786,0.000722301,0.000863274,0.00102818,0.00122107,0.00144671,0.00171065,0.0020194,0.00238055,0.00280301,0.00329719,0.00387525,0.00455143,0.0053424,0.00626763,0.00734993,0.00861594,0.0100969,0.0118292,0.0138555,inf	246256,246256,0.924451,0.924451,85.0943,941.72,1001.43,577.54,394.742,216.205,173.158,194.399,273.607,304.395,334.797,399.056,461.465,486.973,460.101,412.646,376.389,361.436,357.729,372.568,413.677,421.106,356.746,344.085,344.085,1136.35,1136.35,1136.35
0.00013282	-129894.30	0,1.83623e-05,3.98415e-05,6.49668e-05,9.43572e-05,0.000128737,0.000168952,0.000215994,0.000271021,0.000335389,0.000410683,0.000498759,0.000601786,0.000722301,0.000863274,0.00102818,0.00122107,0.00144671,0.00171065,0.0020194,0.00238055,0.00280301,0.00329719,0.00387525,0.00455143,0.0053424,0.00626763,0.00734993,0.00861594,0.0100969,0.0118292,0.0138555,inf	246589,246589,0.924451,0.924451,56.3094,934.301,1056.99,580.862,403.539,213.179,165.553,183.929,272.988,302.242,327.651,395.187,464.587,494.582,464.311,411.625,372.882,358.263,354.319,370.036,416.667,424.762,348.88,328.65,328.65,1201.15,1201.15,1201.15
0.000129858	-129893.38	0,1.83623e-05,3.98415e-05,6.49668e-05,9.43572e-05,0.000128737,0.000168952,0.000215994,0.000271021,0.000335389,0.000410683,0.000498759,0.000601786,0.000722301,0.000863274,0.00102818,0.00122107,0.00144671,0.00171065,0.0020194,0.00238055,0.00280301,0.00329719,0.00387525,0.00455143,0.0053424,0.00626763,0.00734993,0.00861594,0.0100969,0.0118292,0.0138555,inf	246850,246850,0.924451,0.924451,36.7651,916.607,1106.64,580.463,412.367,212.002,159.999,174.97,273.91,301.311,320.811,390.785,466.666,501.272,467.865,410.42,369.7,355.781,351.576,368.027,420.566,429.738,342.052,314.788,314.788,1271.96,1271.96,1271.96
0.000127535	-129893.00	0,1.83623e-05,3.98415e-05,6.49668e-05,9.43572e-05,0.000128737,0.000168952,0.000215994,0.000271021,0.000335389,0.000410683,0.000498759,0.000601786,0.000722301,0.000863274,0.00102818,0.00122107,0.00144671,0.00171065,0.0020194,0.00238055,0.00280301,0.00329719,0.00387525,0.00455143,0.0053424,0.00626763,0.00734993,0.00861594,0.0100969,0.0118292,0.0138555,inf	247059,247059,0.924451,0.924451,23.7734,892.304,1152.07,577.168,420.892,212.047,155.844,167.053,275.954,301.36,314.34,386.139,468.036,507.296,470.92,409.078,366.765,353.793,349.225,366.188,424.896,435.535,335.846,302.12,302.12,1351.08,1351.08,1351.08
0.000125717	-129893.00	0,1.83623e-05,3.98415e-05,6.49668e-05,9.43572e-05,0.000128737,0.000168952,0.000215994,0.000271021,0.000335389,0.000410683,0.000498759,0.000601786,0.000722301,0.000863274,0.00102818,0.00122107,0.00144671,0.00171065,0.0020194,0.00238055,0.00280301,0.00329719,0.00387525,0.00455143,0.0053424,0.00626763,0.00734993,0.00861594,0.0100969,0.0118292,0.0138555,inf	247226,247226,0.924451,0.924451,15.2628,863.933,1194.47,571.604,428.869,212.883,152.648,159.861,278.805,302.183,308.252,381.439,468.94,512.844,473.608,407.659,364.056,352.199,347.125,364.342,429.376,441.849,330.014,290.395,290.395,1441.59,1441.59,1441.59
0.000124297	-129893.30	0,1.83623e-05,3.98415e-05,6.49668e-05,9.43572e-05,0.000128737,0.000168952,0.000215994,0.000271021,0.000335389,0.000410683,0.000498759,0.000601786,0.000722301,0.000863274,0.00102818,0.00122107,0.00144671,0.00171065,0.0020194,0.00238055,0.00280301,0.00329719,0.00387525,0.00455143,0.0053424,0.00626763,0.00734993,0.00861594,0.0100969,0.0118292,0.0138555,inf	247360,247360,0.924451,0.924451,9.74785,833.24,1234.69,564.232,436.163,214.219,150.109,153.192,282.225,303.612,302.531,376.798,469.536,518.045,476.025,406.213,361.566,350.944,345.206,362.404,433.838,448.485,324.399,279.43,279.43,1547.85,1547.85,1547.85
0.000123195	-129893.84	0,1.83623e-05,3.98415e-05,6.49668e-05,9.43572e-05,0.000128737,0.000168952,0.000215994,0.000271021,0.000335389,0.000410683,0.000498759,0.000601786,0.000722301,0.000863274,0.00102818,0.00122107,0.00144671,0.00171065,0.0020194,0.00238055,0.00280301,0.00329719,0.00387525,0.00455143,0.0053424,0.00626763,0.00734993,0.00861594,0.0100969,0.0118292,0.0138555,inf	247470,247470,0.924451,0.924451,6.20464,801.975,1274.18,555.779,442.964,215.982,148.1,146.983,286.169,305.633,297.257,372.405,470.071,523.131,478.349,404.85,359.347,350.034,343.46,360.358,438.21,455.354,318.913,269.088,269.088,1676.41,1676.41,1676.41
0.000122334	-129894.59	0,1.83623e-05,3.98415e-05,6.49668e-05,9.43572e-05,0.000128737,0.000168952,0.000215994,0.000271021,0.000335389,0.000410683,0.000498759,0.000601786,0.000722301,0.000863274,0.00102818,0.00122107,0.00144671,0.00171065,0.0020194,0.00238055,0.00280301,0.00329719,0.00387525,0.00455143,0.0053424,0.00626763,0.00734993,0.00861594,0.0100969,0.0118292,0.0138555,inf	247555,247555,0.924451,0.924451,3.93504,769.757,1311.61,545.801,448.712,217.811,146.338,141.012,290.255,307.894,292.188,368.051,470.328,527.864,480.388,403.422,357.271,349.355,341.805,358.154,442.387,462.309,313.443,259.243,259.243,1837.78,1837.78,1837.78
0.000121665	-129895.55	0,1.83623e-05,3.98415e-05,6.49668e-05,9.43572e-05,0.000128737,0.000168952,0.000215994,0.000271021,0.000335389,0.000410683,0.000498759,0.000601786,0.000722301,0.000863274,0.00102818,0.00122107,0.00144671,0.00171065,0.0020194,0.00238055,0.00280301,0.00329719,0.00387525,0.00455143,0.0053424,0.00626763,0.00734993,0.00861594,0.0100969,0.0118292,0.0138555,inf	247621,247621,0.924451,0.924451,2.49,737.663,1348.12,534.91,453.698,219.732,144.789,135.277,294.471,310.395,287.368,363.837,470.444,532.373,482.246,401.995,355.37,348.916,340.252,355.818,446.357,469.303,307.929,249.798,249.798,2050.8,2050.8,2050.8
0.000121145	-129896.70	0,1.83623e-05,3.98415e-05,6.49668e-05,9.43572e-05,0.000128737,0.000168952,0.000215994,0.000271021,0.000335389,0.000410683,0.000498759,0.000601786,0.000722301,0.000863274,0.00102818,0.00122107,0.00144671,0.00171065,0.0020194,0.00238055,0.00280301,0.00329719,0.00387525,0.00455143,0.0053424,0.00626763,0.00734993,0.00861594,0.0100969,0.0118292,0.0138555,inf	247672,247672,0.924451,0.924451,1.34212,706.075,1384,523.349,457.995,221.716,143.403,129.752,298.759,313.086,282.787,359.791,470.472,536.706,483.961,400.588,353.64,348.704,338.801,353.368,450.112,476.288,302.3,240.659,240.659,2354.04,2354.04,2354.04
0.000120743	-129898.06	0,1.83623e-05,3.98415e-05,6.49668e-05,9.43572e-05,0.000128737,0.000168952,0.000215994,0.000271021,0.000335389,0.000410683,0.000498759,0.000601786,0.000722301,0.000863274,0.00102818,0.00122107,0.00144671,0.00171065,0.0020194,0.00238055,0.00280301,0.00329719,0.00387525,0.00455143,0.0053424,0.00626763,0.00734993,0.00861594,0.0100969,0.0118292,0.0138555,inf	247711,247711,0.924451,0.924451,0.924451,675.226,1419.42,511.287,461.675,223.736,142.14,124.42,303.071,315.922,278.425,355.917,470.438,540.887,485.553,399.203,352.07,348.702,337.445,350.822,453.651,483.205,296.467,231.736,231.736,2845.08,2845.08,2845.08
0.000120431	-129899.61	0,1.83623e-05,3.98415e-05,6.49668e-05,9.43572e-05,0.000128737,0.000168952,0.000215994,0.000271021,0.000335389,0.000410683,0.000498759,0.000601786,0.000722301,0.000863274,0.00102818,0.00122107,0.00144671,0.00171065,0.0020194,0.00238055,0.00280301,0.00329719,0.00387525,0.00455143,0.0053424,0.00626763,0.00734993,0.00861594,0.0100969,0.0118292,0.0138555,inf	247743,247743,0.924451,0.924451,0.924451,645.198,1454.39,498.826,464.777,225.774,140.966,119.268,307.36,318.855,274.257,352.21,470.354,544.931,487.036,397.843,350.645,348.893,336.182,348.196,456.969,489.958,290.295,222.934,222.934,3882.14,3882.14,3882.14
0.000120184	-129901.33	0,1.83623e-05,3.98415e-05,6.49668e-05,9.43572e-05,0.000128737,0.000168952,0.000215994,0.000271021,0.000335389,0.000410683,0.000498759,0.000601786,0.000722301,0.000863274,0.00102818,0.00122107,0.00144671,0.00171065,0.0020194,0.00238055,0.00280301,0.00329719,0.00387525,0.00455143,0.0053424,0.00626763,0.00734993,0.00861594,0.0100969,0.0118292,0.0138555,inf	247767,247767,0.924451,0.924451,0.924451,616.09,1488.96,486.093,467.357,227.816,139.858,114.287,311.595,321.855,270.262,348.655,470.222,548.842,488.413,396.497,349.345,349.254,334.998,345.487,459.99,496.272,283.518,214.122,214.122,8256.5,8256.5,8256.5
0.000120179	-129903.31	0,1.83623e-05,3.98415e-05,6.49668e-05,9.43572e-05,0.000128737,0.000168952,0.000215994,0.000271021,0.000335389,0.000410683,0.000498759,0.000601786,0.000722301,0.000863274,0.00102818,0.00122107,0.00144671,0.00171065,0.0020194,0.00238055,0.00280301,0.00329719,0.00387525,0.00455143,0.0053424,0.00626763,0.00734993,0.00861594,0.0100969,0.0118292,0.0138555,inf	247790,247790,0.924451,0.924451,0.924451,588.299,1524.23,473.458,469.733,229.976,138.869,109.525,315.931,325.069,266.55,345.402,470.263,552.874,489.885,395.304,348.27,349.871,333.96,342.722,462.565,501.535,275.596,204.999,204.999,189840,189840,189840
