6.23592e-05	-1888042.02	0,4.09689e-07,1.12056e-06,2.35402e-06,4.49426e-06,8.20787e-06,1.46515e-05,2.58322e-05,4.52323e-05,7.88942e-05,0.000137302,0.000238649,0.0004145,0.000719628,0.00124907,0.00216772,inf	6471.1,6471.1,3873.26,3782.46,3995.46,4197.65,3771.85,3536.7,3659.31,3981.78,4293.72,4461.72,3411.3,1695.91,1695.91,1695.91
6.33357e-05	-1888589.96	0,4.09689e-07,1.12056e-06,2.35402e-06,4.49426e-06,8.20787e-06,1.46515e-05,2.58322e-05,4.52323e-05,7.88942e-05,0.000137302,0.000238649,0.0004145,0.000719628,0.00124907,0.00216772,inf	8134.03,8134.03,3660.4,3670.7,4106.81,4611.86,3817.97,3362.74,3492.21,3947.46,4451.14,5023.2,3139.04,1259.1,1259.1,1259.1
6.40275e-05	-1889106.31	0,4.09689e-07,1.12056e-06,2.35402e-06,4.49426e-06,8.20787e-06,1.46515e-05,2.58322e-05,4.52323e-05,7.88942e-05,0.000137302,0.000238649,0.0004145,0.000719628,0.00124907,0.00216772,inf	9003.14,9003.14,3360.02,3498.43,4117.15,4989.89,3907.12,3286.41,3397.28,3890.02,4447.9,5534.63,2979.65,1109.21,1109.21,1109.21
6.43884e-05	-1889389.91	0,4.09689e-07,1.12056e-06,2.35402e-06,4.49426e-06,8.20787e-06,1.46515e-05,2.58322e-05,4.52323e-05,7.88942e-05,0.000137302,0.000238649,0.0004145,0.000719628,0.00124907,0.00216772,inf	9485.89,9485.89,3079.47,3311.06,4038.32,5289.84,3989.92,3255.17,3351.91,3842.15,4353.23,5965.04,2859.51,1050.08,1050.08,1050.08
6.45493e-05	-1889541.31	0,4.09689e-07,1.12056e-06,2.35402e-06,4.49426e-06,8.20787e-06,1.46515e-05,2.58322e-05,4.52323e-05,7.88942e-05,0.000137302,0.000238649,0.0004145,0.000719628,0.00124907,0.00216772,inf	9820.6,9820.6,2857.44,3146.88,3908.62,5515.21,4051.86,3243.4,3339.16,3815.7,4218.76,6320.67,2756.78,1026.13,1026.13,1026.13
6.46096e-05	-1889628.41	0,4.09689e-07,1.12056e-06,2.35402e-06,4.49426e-06,8.20787e-06,1.46515e-05,2.58322e-05,4.52323e-05,7.88942e-05,0.000137302,0.000238649,0.0004145,0.000719628,0.00124907,0.00216772,inf	10091.8,10091.8,2694.39,3020.92,3759.02,5682.33,4091,3237.33,3345.5,3810.9,4072.01,6616.19,2666.46,1016.87,1016.87,1016.87
6.46255e-05	-1889684.53	0,4.09689e-07,1.12056e-06,2.35402e-06,4.49426e-06,8.20787e-06,1.46515e-05,2.58322e-05,4.52323e-05,7.88942e-05,0.000137302,0.000238649,0.0004145,0.000719628,0.00124907,0.00216772,inf	10320.7,10320.7,2579.09,2934.7,3608.58,5809.04,4110.92,3230.29,3361.19,3824.09,3925.76,6864.78,2587.47,1013.92,1013.92,1013.92
6.4627e-05	-1889724.85	0,4.09689e-07,1.12056e-06,2.35402e-06,4.49426e-06,8.20787e-06,1.46515e-05,2.58322e-05,4.52323e-05,7.88942e-05,0.000137302,0.000238649,0.0004145,0.000719628,0.00124907,0.00216772,inf	10514,10514,2499.73,2884.23,3467.38,5911.46,4118.01,3220.78,3381.07,3852.21,3786.31,7076.22,2519.11,1013.62,1013.62,1013.62
6.46267e-05	-1889756.30	0,4.09689e-07,1.12056e-06,2.35402e-06,4.49426e-06,8.20787e-06,1.46515e-05,2.58322e-05,4.52323e-05,7.88942e-05,0.000137302,0.000238649,0.0004145,0.000719628,0.00124907,0.00216772,inf	10664.9,10664.9,2443.53,2860.88,3336.84,5996.43,4114.54,3206.35,3399.09,3889.93,3654.25,7257.81,2460.38,1014.37,1014.37,1014.37
6.46321e-05	-1889782.08	0,4.09689e-07,1.12056e-06,2.35402e-06,4.49426e-06,8.20787e-06,1.46515e-05,2.58322e-05,4.52323e-05,7.88942e-05,0.000137302,0.000238649,0.0004145,0.000719628,0.00124907,0.00216772,inf	10781.8,10781.8,2403.3,2858.85,3218.05,6072.03,4105.67,3188.5,3413.69,3934.99,3530.51,7415.13,2410.17,1015.47,1015.47,1015.47
6.46461e-05	-1889803.86	0,4.09689e-07,1.12056e-06,2.35402e-06,4.49426e-06,8.20787e-06,1.46515e-05,2.58322e-05,4.52323e-05,7.88942e-05,0.000137302,0.000238649,0.0004145,0.000719628,0.00124907,0.00216772,inf	10867.1,10867.1,2373.93,2872.57,3109.49,6142.26,4094.37,3168.32,3423.9,3985.4,3415.03,7552.35,2367.33,1016.6,1016.6,1016.6
6.46697e-05	-1889822.58	0,4.09689e-07,1.12056e-06,2.35402e-06,4.49426e-06,8.20787e-06,1.46515e-05,2.58322e-05,4.52323e-05,7.88942e-05,0.000137302,0.000238649,0.0004145,0.000719628,0.00124907,0.00216772,inf	10929,10929,2350.83,2897.38,3009.68,6208.86,4082.62,3146.99,3429.31,4039.57,3307.42,7672.74,2330.74,1017.64,1017.64,1017.64
6.47026e-05	-1889838.82	0,4.09689e-07,1.12056e-06,2.35402e-06,4.49426e-06,8.20787e-06,1.46515e-05,2.58322e-05,4.52323e-05,7.88942e-05,0.000137302,0.000238649,0.0004145,0.000719628,0.00124907,0.00216772,inf	10969.9,10969.9,2331.14,2929.76,2916.77,6272.59,4071.6,3125.37,3429.91,4096.25,3207.12,7778.94,2299.45,1018.55,1018.55,1018.55
6.47443e-05	-1889853.01	0,4.09689e-07,1.12056e-06,2.35402e-06,4.49426e-06,8.20787e-06,1.46515e-05,2.58322e-05,4.52323e-05,7.88942e-05,0.000137302,0.000238649,0.0004145,0.000719628,0.00124907,0.00216772,inf	10999.3,10999.3,2313.45,2967.02,2829.47,6333.65,4062.01,3104.27,3425.99,4154.49,3113.56,7873.1,2272.61,1019.33,1019.33,1019.33
6.47938e-05	-1889865.46	0,4.09689e-07,1.12056e-06,2.35402e-06,4.49426e-06,8.20787e-06,1.46515e-05,2.58322e-05,4.52323e-05,7.88942e-05,0.000137302,0.000238649,0.0004145,0.000719628,0.00124907,0.00216772,inf	11019.2,11019.2,2296.16,3007.53,2746.74,6391.84,4054.12,3084.21,3417.87,4213.53,3026.16,7957.03,2249.51,1019.98,1019.98,1019.98
6.48501e-05	-1889876.42	0,4.09689e-07,1.12056e-06,2.35402e-06,4.49426e-06,8.20787e-06,1.46515e-05,2.58322e-05,4.52323e-05,7.88942e-05,0.000137302,0.000238649,0.0004145,0.000719628,0.00124907,0.00216772,inf	11031.1,11031.1,2279.41,3050.13,2667.92,6447.03,4048.1,3065.65,3406.01,4272.76,2944.39,8032.2,2229.56,1020.52,1020.52,1020.52
6.49124e-05	-1889886.13	0,4.09689e-07,1.12056e-06,2.35402e-06,4.49426e-06,8.20787e-06,1.46515e-05,2.58322e-05,4.52323e-05,7.88942e-05,0.000137302,0.000238649,0.0004145,0.000719628,0.00124907,0.00216772,inf	11038.8,11038.8,2262.02,3093.79,2592.47,6498.91,4043.92,3048.89,3390.89,4331.74,2867.76,8099.88,2212.26,1020.97,1020.97,1020.97
6.49797e-05	-1889894.75	0,4.09689e-07,1.12056e-06,2.35402e-06,4.49426e-06,8.20787e-06,1.46515e-05,2.58322e-05,4.52323e-05,7.88942e-05,0.000137302,0.000238649,0.0004145,0.000719628,0.00124907,0.00216772,inf	11044.1,11044.1,2244.44,3137.95,2520.05,6547.32,4041.4,3034.09,3372.97,4390.13,2795.79,8161.11,2197.19,1021.35,1021.35,1021.35
6.50512e-05	-1889902.45	0,4.09689e-07,1.12056e-06,2.35402e-06,4.49426e-06,8.20787e-06,1.46515e-05,2.58322e-05,4.52323e-05,7.88942e-05,0.000137302,0.000238649,0.0004145,0.000719628,0.00124907,0.00216772,inf	11048.2,11048.2,2226.23,3182.63,2450.42,6592.19,4040.38,3021.3,3352.64,4447.63,2728.09,8216.76,2183.99,1021.66,1021.66,1021.66
6.51261e-05	-1889909.35	0,4.09689e-07,1.12056e-06,2.35402e-06,4.49426e-06,8.20787e-06,1.46515e-05,2.58322e-05,4.52323e-05,7.88942e-05,0.000137302,0.000238649,0.0004145,0.000719628,0.00124907,0.00216772,inf	11051,11051,2207.57,3227.44,2383.37,6633.46,4040.58,3010.63,3330.35,4504.06,2664.29,8267.58,2172.4,1021.92,1021.92,1021.92
