0.000307165	-171025.87	0,4.64499e-05,0.000110008,0.000196975,0.000315974,0.000478802,0.000701602,0.00100646,0.00142361,0.00199439,0.00277541,0.00384408,0.00530636,0.00730723,0.010045,0.0137912,inf	502.898,502.898,667.366,669.406,694.376,715.705,748.972,804.931,861.342,896.028,897.191,859.09,797.441,981.537,981.537,981.537
0.000299215	-171002.98	0,4.64499e-05,0.000110008,0.000196975,0.000315974,0.000478802,0.000701602,0.00100646,0.00142361,0.00199439,0.00277541,0.00384408,0.00530636,0.00730723,0.010045,0.0137912,inf	403.924,403.924,649.465,628.832,660.319,679.672,718.907,803.016,899.494,972.867,987.338,906.529,778.003,1278.53,1278.53,1278.53
0.000290982	-170994.81	0,4.64499e-05,0.000110008,0.000196975,0.000315974,0.000478802,0.000701602,0.00100646,0.00142361,0.00199439,0.00277541,0.00384408,0.00530636,0.00730723,0.010045,0.0137912,inf	358.405,358.405,660.453,613.194,649.916,661.422,696.585,795.255,919.212,1030.66,1067.29,936.262,743.139,1893.32,1893.32,1893.32
0.000282643	-170991.03	0,4.64499e-05,0.000110008,0.000196975,0.000315974,0.000478802,0.000701602,0.00100646,0.00142361,0.00199439,0.00277541,0.00384408,0.00530636,0.00730723,0.010045,0.0137912,inf	332.753,332.753,677.387,604.829,649.508,652.547,679.708,785.877,928.069,1074.99,1140.66,949.753,701.94,4248.3,4248.3,4248.3
0.000274388	-170988.98	0,4.64499e-05,0.000110008,0.000196975,0.000315974,0.000478802,0.000701602,0.00100646,0.00142361,0.00199439,0.00277541,0.00384408,0.00530636,0.00730723,0.010045,0.0137912,inf	316.302,316.302,692.935,597.592,653.417,649.106,666.882,776.826,930.581,1109.68,1210.32,948.808,663.047,102781,102781,102781
0.000274385	-170987.53	0,4.64499e-05,0.000110008,0.000196975,0.000315974,0.000478802,0.000701602,0.00100646,0.00142361,0.00199439,0.00277541,0.00384408,0.00530636,0.00730723,0.010045,0.0137912,inf	308.084,308.084,714.468,595.263,666.142,655.29,662.451,774.712,936.021,1144.1,1284.16,937.804,629.863,111399,111399,111399
0.000274383	-170987.86	0,4.64499e-05,0.000110008,0.000196975,0.000315974,0.000478802,0.000701602,0.00100646,0.00142361,0.00199439,0.00277541,0.00384408,0.00530636,0.00730723,0.010045,0.0137912,inf	301.867,301.867,721.144,588.371,671.179,655.29,657.106,770.939,937.229,1147.32,1284.16,911.094,591.576,111417,111417,111417
0.00027438	-170987.19	0,4.64499e-05,0.000110008,0.000196975,0.000315974,0.000478802,0.000701602,0.00100646,0.00142361,0.00199439,0.00277541,0.00384408,0.00530636,0.00730723,0.010045,0.0137912,inf	297.655,297.655,725.587,581.616,676.116,655.29,653.006,768.295,938.868,1149.13,1284.16,884.688,554.935,111434,111434,111434
0.000274379	-170986.53	0,4.64499e-05,0.000110008,0.000196975,0.000315974,0.000478802,0.000701602,0.00100646,0.00142361,0.00199439,0.00277541,0.00384408,0.00530636,0.00730723,0.010045,0.0137912,inf	294.766,294.766,728.709,575.144,680.846,655.29,649.744,766.392,940.776,1150.03,1284.16,858.898,520.132,111451,111451,111451
0.000274375	-170985.90	0,4.64499e-05,0.000110008,0.000196975,0.000315974,0.000478802,0.000701602,0.00100646,0.00142361,0.00199439,0.00277541,0.00384408,0.00530636,0.00730723,0.010045,0.0137912,inf	292.73,292.73,728.788,568.957,686.412,655.29,647.058,764.975,942.842,1150.32,1284.16,833.962,487.269,111467,111467,111467
0.000274372	-170985.29	0,4.64499e-05,0.000110008,0.000196975,0.000315974,0.000478802,0.000701602,0.00100646,0.00142361,0.00199439,0.00277541,0.00384408,0.00530636,0.00730723,0.010045,0.0137912,inf	291.519,291.519,730.001,563.174,690.639,655.29,644.723,763.87,944.816,1150.38,1284.16,810.056,456.385,111481,111481,111481
0.00027437	-170984.72	0,4.64499e-05,0.000110008,0.000196975,0.000315974,0.000478802,0.000701602,0.00100646,0.00142361,0.00199439,0.00277541,0.00384408,0.00530636,0.00730723,0.010045,0.0137912,inf	290.665,290.665,730.854,557.805,694.562,655.29,642.698,763.016,946.454,1150.43,1284.16,787.293,427.463,111495,111495,111495
0.000274369	-170984.20	0,4.64499e-05,0.000110008,0.000196975,0.000315974,0.000478802,0.000701602,0.00100646,0.00142361,0.00199439,0.00277541,0.00384408,0.00530636,0.00730723,0.010045,0.0137912,inf	290.056,290.056,731.464,552.838,698.192,655.29,640.946,762.424,946.458,1150.43,1284.89,765.732,400.452,111509,111509,111509
0.000274368	-170983.72	0,4.64499e-05,0.000110008,0.000196975,0.000315974,0.000478802,0.000701602,0.00100646,0.00142361,0.00199439,0.00277541,0.00384408,0.00530636,0.00730723,0.010045,0.0137912,inf	289.596,289.596,731.925,548.242,701.551,655.29,639.451,762.125,947.437,1150.46,1284.89,745.361,375.261,111521,111521,111521
0.000274367	-170983.28	0,4.64499e-05,0.000110008,0.000196975,0.000315974,0.000478802,0.000701602,0.00100646,0.00142361,0.00199439,0.00277541,0.00384408,0.00530636,0.00730723,0.010045,0.0137912,inf	289.25,289.25,732.273,543.999,704.652,655.29,638.088,761.948,948.261,1150.48,1284.89,726.267,351.819,111533,111533,111533
0.000274367	-170982.88	0,4.64499e-05,0.000110008,0.000196975,0.000315974,0.000478802,0.000701602,0.00100646,0.00142361,0.00199439,0.00277541,0.00384408,0.00530636,0.00730723,0.010045,0.0137912,inf	288.958,288.958,732.568,540.086,704.652,657.38,636.862,761.88,948.94,1150.5,1284.89,708.439,330.024,111543,111543,111543
0.000274366	-170982.52	0,4.64499e-05,0.000110008,0.000196975,0.000315974,0.000478802,0.000701602,0.00100646,0.00142361,0.00199439,0.00277541,0.00384408,0.00530636,0.00730723,0.010045,0.0137912,inf	288.773,288.773,732.755,536.816,707.042,657.38,635.567,761.813,949.681,1150.5,1284.89,691.853,309.773,111553,111553,111553
0.000274366	-170982.19	0,4.64499e-05,0.000110008,0.000196975,0.000315974,0.000478802,0.000701602,0.00100646,0.00142361,0.00199439,0.00277541,0.00384408,0.00530636,0.00730723,0.010045,0.0137912,inf	288.607,288.607,732.922,533.813,709.237,657.38,634.384,761.841,950.293,1150.5,1284.89,676.464,290.959,111562,111562,111562
0.000274366	-170981.91	0,4.64499e-05,0.000110008,0.000196975,0.000315974,0.000478802,0.000701602,0.00100646,0.00142361,0.00199439,0.00277541,0.00384408,0.00530636,0.00730723,0.010045,0.0137912,inf	288.464,288.464,733.067,531.051,711.255,657.38,633.293,761.948,950.797,1150.5,1284.89,662.227,273.48,111571,111571,111571
0.000274365	-170981.65	0,4.64499e-05,0.000110008,0.000196975,0.000315974,0.000478802,0.000701602,0.00100646,0.00142361,0.00199439,0.00277541,0.00384408,0.00530636,0.00730723,0.010045,0.0137912,inf	288.334,288.334,733.197,528.512,713.111,657.38,632.281,762.123,951.21,1150.5,1284.89,649.084,257.238,111579,111579,111579
