time_index	left_time_boundary	right_time_boundary	lambda
0	0	1.75806e-06	1501.29
1	1.75806e-06	4.07387e-06	1501.29
2	4.07387e-06	7.12437e-06	693.701
3	7.12437e-06	1.11426e-05	768.269
4	1.11426e-05	1.64357e-05	755.945
5	1.64357e-05	2.34079e-05	669.645
6	2.34079e-05	3.25921e-05	617.148
7	3.25921e-05	4.469e-05	572.165
8	4.469e-05	6.06259e-05	599.471
9	6.06259e-05	8.16175e-05	682.854
10	8.16175e-05	0.000109269	757.536
11	0.000109269	0.000145692	777.816
12	0.000145692	0.000193671	739.672
13	0.000193671	0.00025687	662.329
14	0.00025687	0.00034012	572.282
15	0.00034012	0.000449781	491.195
16	0.000449781	0.000594231	429.486
17	0.000594231	0.000784508	388.165
18	0.000784508	0.00103515	363.6
19	0.00103515	0.00136531	351.177
20	0.00136531	0.00180021	346.965
21	0.00180021	0.00237308	348.003
22	0.00237308	0.0031277	352.163
23	0.0031277	0.00412171	358.026
24	0.00412171	0.00543108	364.87
25	0.00543108	0.00715584	372.632
26	0.00715584	0.00942777	381.578
27	0.00942777	0.0124205	395.99
28	0.0124205	0.0163626	395.99
29	0.0163626	0.0215554	420.087
30	0.0215554	0.0283956	420.087
31	0.0283956	inf	420.087
