0.00072319	-311228.58	0,4.31239e-05,9.3568e-05,0.000152575,0.000221598,0.000302339,0.000396785,0.000507263,0.000636494,0.000787663,0.000964493,0.00117134,0.0014133,0.00169633,0.0020274,0.00241468,0.0028677,0.00339761,0.00401748,0.00474257,0.00559074,0.0065829,0.00774347,0.00910104,0.0106891,0.0125467,0.0147196,0.0172613,0.0202346,0.0237125,0.0277809,0.0325398,inf	211.202,211.202,286.962,310.303,321.831,328.667,338.398,350.091,360.902,370.653,381.495,393.613,404.909,414.346,422.121,427.984,430.927,430.019,425.985,421.263,417.417,414.314,412.915,415.22,422.439,433.335,444.891,459.467,459.467,489.498,489.498,489.498
0.000805731	-311082.29	0,4.31239e-05,9.3568e-05,0.000152575,0.000221598,0.000302339,0.000396785,0.000507263,0.000636494,0.000787663,0.000964493,0.00117134,0.0014133,0.00169633,0.0020274,0.00241468,0.0028677,0.00339761,0.00401748,0.00474257,0.00559074,0.0065829,0.00774347,0.00910104,0.0106891,0.0125467,0.0147196,0.0172613,0.0202346,0.0237125,0.0277809,0.0325398,inf	155.335,155.335,263.66,292.045,302.893,307.829,319.55,335.191,349.125,361.171,375.324,392.103,408.246,422.254,434.529,444.518,450.162,449.439,443.349,436.07,430.204,425.548,424.18,430.091,445.86,469.613,496.016,531.669,531.669,611.616,611.616,611.616
0.000882587	-310982.22	0,4.31239e-05,9.3568e-05,0.000152575,0.000221598,0.000302339,0.000396785,0.000507263,0.000636494,0.000787663,0.000964493,0.00117134,0.0014133,0.00169633,0.0020274,0.00241468,0.0028677,0.00339761,0.00401748,0.00474257,0.00559074,0.0065829,0.00774347,0.00910104,0.0106891,0.0125467,0.0147196,0.0172613,0.0202346,0.0237125,0.0277809,0.0325398,inf	130.025,130.025,263.26,291.889,298.893,300.277,312.518,330.121,344.848,356.798,371.635,390.166,408.398,424.652,439.542,452.265,459.903,459.517,452.241,443.491,436.526,431.16,430.635,440.825,465.819,503.88,548.479,613.514,613.514,786.27,786.27,786.27
0.000954346	-310905.16	0,4.31239e-05,9.3568e-05,0.000152575,0.000221598,0.000302339,0.000396785,0.000507263,0.000636494,0.000787663,0.000964493,0.00117134,0.0014133,0.00169633,0.0020274,0.00241468,0.0028677,0.00339761,0.00401748,0.00474257,0.00559074,0.0065829,0.00774347,0.00910104,0.0106891,0.0125467,0.0147196,0.0172613,0.0202346,0.0237125,0.0277809,0.0325398,inf	115.211,115.211,270.332,297.053,299.298,297.274,310.06,329.11,343.819,354.819,369.313,388.333,407.377,424.718,441.147,455.641,464.609,464.423,456.326,446.635,439.025,433.408,434.175,448.956,483.517,537.143,603.729,709.85,709.85,1090.97,1090.97,1090.97
0.00102163	-310843.00	0,4.31239e-05,9.3568e-05,0.000152575,0.000221598,0.000302339,0.000396785,0.000507263,0.000636494,0.000787663,0.000964493,0.00117134,0.0014133,0.00169633,0.0020274,0.00241468,0.0028677,0.00339761,0.00401748,0.00474257,0.00559074,0.0065829,0.00774347,0.00910104,0.0106891,0.0125467,0.0147196,0.0172613,0.0202346,0.0237125,0.0277809,0.0325398,inf	105.196,105.196,280.128,303.612,300.943,296.14,309.833,330.21,344.573,354.289,367.992,386.891,406.108,423.922,441.248,456.86,466.638,466.453,457.674,447.292,439.25,433.631,435.93,455.416,499.721,570.152,663.317,828.581,828.581,1936.1,1936.1,1936.1
0.00108493	-310791.67	0,4.31239e-05,9.3568e-05,0.000152575,0.000221598,0.000302339,0.000396785,0.000507263,0.000636494,0.000787663,0.000964493,0.00117134,0.0014133,0.00169633,0.0020274,0.00241468,0.0028677,0.00339761,0.00401748,0.00474257,0.00559074,0.0065829,0.00774347,0.00910104,0.0106891,0.0125467,0.0147196,0.0172613,0.0202346,0.0237125,0.0277809,0.0325398,inf	97.7895,97.7895,290.635,309.906,302.5,295.664,310.662,332.366,346.25,354.572,367.305,385.794,404.87,422.838,440.685,456.984,467.196,466.834,457.422,446.465,438.09,432.608,436.563,460.758,514.915,603.48,729.045,984.313,984.313,10696.8,10696.8,10696.8
0.00108493	-310748.65	0,4.31239e-05,9.3568e-05,0.000152575,0.000221598,0.000302339,0.000396785,0.000507263,0.000636494,0.000787663,0.000964493,0.00117134,0.0014133,0.00169633,0.0020274,0.00241468,0.0028677,0.00339761,0.00401748,0.00474257,0.00559074,0.0065829,0.00774347,0.00910104,0.0106891,0.0125467,0.0147196,0.0172613,0.0202346,0.0237125,0.0277809,0.0325398,inf	90.6207,90.6207,296.107,310.121,298.459,290.41,306.714,329.299,342.399,349.247,360.857,378.658,397.37,415.361,433.616,450.528,461.281,461.168,451.78,440.865,432.642,427.752,433.703,462.715,526.851,635.079,800.934,1207.91,1207.91,80677.8,80677.8,80677.8
0.00108493	-310746.79	0,4.31239e-05,9.3568e-05,0.000152575,0.000221598,0.000302339,0.000396785,0.000507263,0.000636494,0.000787663,0.000964493,0.00117134,0.0014133,0.00169633,0.0020274,0.00241468,0.0028677,0.00339761,0.00401748,0.00474257,0.00559074,0.0065829,0.00774347,0.00910104,0.0106891,0.0125467,0.0147196,0.0172613,0.0202346,0.0237125,0.0277809,0.0325398,inf	84.7009,84.7009,303.703,312.92,297.381,288.357,306.299,330.116,342.609,348.015,358.517,375.63,393.899,411.744,430.17,447.399,458.334,458.066,448.285,437.022,428.6,423.974,431.606,465.232,539.948,635.791,800.934,1207.91,1207.91,80677.5,80677.5,80677.5
0.00108493	-310746.04	0,4.31239e-05,9.3568e-05,0.000152575,0.000221598,0.000302339,0.000396785,0.000507263,0.000636494,0.000787663,0.000964493,0.00117134,0.0014133,0.00169633,0.0020274,0.00241468,0.0028677,0.00339761,0.00401748,0.00474257,0.00559074,0.0065829,0.00774347,0.00910104,0.0106891,0.0125467,0.0147196,0.0172613,0.0202346,0.0237125,0.0277809,0.0325398,inf	79.2602,79.2602,310.923,315.462,296.445,286.754,306.584,331.899,344.001,348.134,357.681,374.236,392.143,409.868,428.445,445.927,456.936,456.361,446.01,434.218,425.424,420.888,430.034,468.266,547.851,635.791,800.934,1207.91,1207.91,80677.3,80677.3,80677.3
0.00108493	-310745.66	0,4.31239e-05,9.3568e-05,0.000152575,0.000221598,0.000302339,0.000396785,0.000507263,0.000636494,0.000787663,0.000964493,0.00117134,0.0014133,0.00169633,0.0020274,0.00241468,0.0028677,0.00339761,0.00401748,0.00474257,0.00559074,0.0065829,0.00774347,0.00910104,0.0106891,0.0125467,0.0147196,0.0172613,0.0202346,0.0237125,0.0277809,0.0325398,inf	74.2546,74.2546,317.522,317.335,295.116,284.967,306.804,333.764,345.633,348.643,357.381,373.507,391.151,408.82,427.584,445.329,456.397,455.466,444.471,432.066,422.805,418.257,428.813,471.683,552.639,635.791,800.934,1207.91,1207.91,80677.1,80677.1,80677.1
0.00108493	-310745.43	0,4.31239e-05,9.3568e-05,0.000152575,0.000221598,0.000302339,0.000396785,0.000507263,0.000636494,0.000787663,0.000964493,0.00117134,0.0014133,0.00169633,0.0020274,0.00241468,0.0028677,0.00339761,0.00401748,0.00474257,0.00559074,0.0065829,0.00774347,0.00910104,0.0106891,0.0125467,0.0147196,0.0172613,0.0202346,0.0237125,0.0277809,0.0325398,inf	69.705,69.705,323.706,318.691,293.449,282.952,306.823,335.488,347.215,349.21,357.247,373.044,390.507,408.181,427.175,445.215,456.355,455.063,443.4,430.343,420.567,415.943,427.832,475.35,557.075,635.791,800.934,1207.91,1207.91,80676.6,80676.6,80676.6
0.00108493	-310745.30	0,4.31239e-05,9.3568e-05,0.000152575,0.000221598,0.000302339,0.000396785,0.000507263,0.000636494,0.000787663,0.000964493,0.00117134,0.0014133,0.00169633,0.0020274,0.00241468,0.0028677,0.00339761,0.00401748,0.00474257,0.00559074,0.0065829,0.00774347,0.00910104,0.0106891,0.0125467,0.0147196,0.0172613,0.0202346,0.0237125,0.0277809,0.0325398,inf	65.5844,65.5844,329.637,319.682,291.559,280.769,306.646,337.022,347.829,349.708,357.128,372.671,390.014,407.742,427.006,445.371,456.607,454.967,442.635,428.912,418.592,413.845,426.989,478.996,575.697,648.355,800.934,1207.91,1207.91,80669.8,80669.8,80669.8
0.00108493	-310745.30	0,4.31239e-05,9.3568e-05,0.000152575,0.000221598,0.000302339,0.000396785,0.000507263,0.000636494,0.000787663,0.000964493,0.00117134,0.0014133,0.00169633,0.0020274,0.00241468,0.0028677,0.00339761,0.00401748,0.00474257,0.00559074,0.0065829,0.00774347,0.00910104,0.0106891,0.0125467,0.0147196,0.0172613,0.0202346,0.0237125,0.0277809,0.0325398,inf	61.8686,61.8686,335.497,320.569,289.676,278.639,306.497,338.568,349.273,350.229,357.056,372.373,389.624,407.426,426.974,445.678,457.024,455.045,442.043,427.644,416.142,411.112,425.722,478.996,582.156,648.355,800.934,1207.91,1207.91,80669.4,80669.4,80669.4
0.00108493	-310745.19	0,4.31239e-05,9.3568e-05,0.000152575,0.000221598,0.000302339,0.000396785,0.000507263,0.000636494,0.000787663,0.000964493,0.00117134,0.0014133,0.00169633,0.0020274,0.00241468,0.0028677,0.00339761,0.00401748,0.00474257,0.00559074,0.0065829,0.00774347,0.00910104,0.0106891,0.0125467,0.0147196,0.0172613,0.0202346,0.0237125,0.0277809,0.0325398,inf	58.4685,58.4685,341.196,321.279,287.706,276.423,306.205,339.958,350.588,350.656,356.935,372.067,389.258,407.162,427.023,446.098,457.594,455.31,441.662,426.598,414.526,409.313,425.124,483.159,582.357,648.355,800.934,1207.91,1207.91,80669.2,80669.2,80669.2
0.00108493	-310745.15	0,4.31239e-05,9.3568e-05,0.000152575,0.000221598,0.000302339,0.000396785,0.000507263,0.000636494,0.000787663,0.000964493,0.00117134,0.0014133,0.00169633,0.0020274,0.00241468,0.0028677,0.00339761,0.00401748,0.00474257,0.00559074,0.0065829,0.00774347,0.00910104,0.0106891,0.0125467,0.0147196,0.0172613,0.0202346,0.0237125,0.0277809,0.0325398,inf	55.3439,55.3439,346.749,321.885,285.734,274.21,305.856,341.256,351.805,351.003,356.76,371.73,388.88,406.901,427.084,446.554,458.22,455.655,441.384,425.667,413.027,407.62,424.616,487.048,582.357,648.355,800.934,1207.91,1207.91,80668.8,80668.8,80668.8
0.00108493	-310745.12	0,4.31239e-05,9.3568e-05,0.000152575,0.000221598,0.000302339,0.000396785,0.000507263,0.000636494,0.000787663,0.000964493,0.00117134,0.0014133,0.00169633,0.0020274,0.00241468,0.0028677,0.00339761,0.00401748,0.00474257,0.00559074,0.0065829,0.00774347,0.00910104,0.0106891,0.0125467,0.0147196,0.0172613,0.0202346,0.0237125,0.0277809,0.0325398,inf	52.4837,52.4837,352.146,322.406,283.825,272.096,305.541,342.507,352.935,351.271,356.535,371.373,388.505,406.653,427.167,447.032,458.883,456.061,441.191,424.844,411.645,406.019,424.086,490.864,599.232,648.355,800.934,1207.91,1207.91,80665,80665,80665
0.00108493	-310745.15	0,4.31239e-05,9.3568e-05,0.000152575,0.000221598,0.000302339,0.000396785,0.000507263,0.000636494,0.000787663,0.000964493,0.00117134,0.0014133,0.00169633,0.0020274,0.00241468,0.0028677,0.00339761,0.00401748,0.00474257,0.00559074,0.0065829,0.00774347,0.00910104,0.0106891,0.0125467,0.0147196,0.0172613,0.0202346,0.0237125,0.0277809,0.0325398,inf	49.8345,49.8345,357.463,322.898,281.936,269.974,305.176,343.718,354.044,351.526,356.302,371.006,388.113,406.385,427.227,447.491,459.538,456.471,441.007,424.027,410.258,404.409,423.612,494.828,599.232,648.355,800.934,1207.91,1207.91,80664.9,80664.9,80664.9
0.00108493	-310745.13	0,4.31239e-05,9.3568e-05,0.000152575,0.000221598,0.000302339,0.000396785,0.000507263,0.000636494,0.000787663,0.000964493,0.00117134,0.0014133,0.00169633,0.0020274,0.00241468,0.0028677,0.00339761,0.00401748,0.00474257,0.00559074,0.0065829,0.00774347,0.00910104,0.0106891,0.0125467,0.0147196,0.0172613,0.0202346,0.0237125,0.0277809,0.0325398,inf	47.3699,47.3699,362.612,323.341,280.103,267.915,304.825,344.911,355.122,351.756,356.056,370.635,387.721,406.117,427.286,447.955,460.176,456.471,440.871,423.267,408.934,402.876,423.214,497.584,599.232,648.355,800.934,1207.91,1207.91,80664.9,80664.9,80664.9
0.00108493	-310745.11	0,4.31239e-05,9.3568e-05,0.000152575,0.000221598,0.000302339,0.000396785,0.000507263,0.000636494,0.000787663,0.000964493,0.00117134,0.0014133,0.00169633,0.0020274,0.00241468,0.0028677,0.00339761,0.00401748,0.00474257,0.00559074,0.0065829,0.00774347,0.00910104,0.0106891,0.0125467,0.0147196,0.0172613,0.0202346,0.0237125,0.0277809,0.0325398,inf	44.1057,44.1057,369.023,323.698,277.55,265.053,304.344,346.599,356.629,352.056,355.696,370.115,387.184,405.76,427.401,448.659,460.982,456.982,440.807,421.99,407.21,400.408,422.501,497.584,604.676,648.355,800.934,1207.91,1207.91,80663.9,80663.9,80663.9
0.00108493	-310745.07	0,4.31239e-05,9.3568e-05,0.000152575,0.000221598,0.000302339,0.000396785,0.000507263,0.000636494,0.000787663,0.000964493,0.00117134,0.0014133,0.00169633,0.0020274,0.00241468,0.0028677,0.00339761,0.00401748,0.00474257,0.00559074,0.0065829,0.00774347,0.00910104,0.0106891,0.0125467,0.0147196,0.0172613,0.0202346,0.0237125,0.0277809,0.0325398,inf	42.0542,42.0542,373.915,324.138,275.907,263.17,304.051,347.769,357.654,352.244,355.438,369.757,386.817,405.52,427.49,449.167,461.737,457.562,440.864,421.467,406.134,399.086,422.253,502.468,605.373,648.355,800.934,1207.91,1207.91,80663.7,80663.7,80663.7
