0.000734985	-8523683.72	0,6.06808e-06,1.62895e-05,3.3507e-05,6.25092e-05,0.000111362,0.000193652,0.000332267,0.000565757,0.000959061,0.00162156,0.00273752,0.0046173,0.0077837,0.0131174,0.0221017,inf	674.743,674.743,459.422,394.106,368.403,347.516,342.941,350.089,365.839,397.301,433.196,439.204,436.834,447.259,447.259,447.259
0.000836978	-8518931.46	0,6.06808e-06,1.62895e-05,3.3507e-05,6.25092e-05,0.000111362,0.000193652,0.000332267,0.000565757,0.000959061,0.00162156,0.00273752,0.0046173,0.0077837,0.0131174,0.0221017,inf	840.944,840.944,485.25,403.256,370.788,335.605,327.562,335.127,353.288,393.84,443.064,452.861,454.355,478.803,478.803,478.803
0.000928743	-8515880.19	0,6.06808e-06,1.62895e-05,3.3507e-05,6.25092e-05,0.000111362,0.000193652,0.000332267,0.000565757,0.000959061,0.00162156,0.00273752,0.0046173,0.0077837,0.0131174,0.0221017,inf	907.478,907.478,482.61,408.031,378.088,333.43,324.859,332.261,349.605,392.097,445.188,456.397,463.148,501.251,501.251,501.251
0.0010123	-8513632.53	0,6.06808e-06,1.62895e-05,3.3507e-05,6.25092e-05,0.000111362,0.000193652,0.000332267,0.000565757,0.000959061,0.00162156,0.00273752,0.0046173,0.0077837,0.0131174,0.0221017,inf	923.172,923.172,466.128,407.598,384.006,332.95,326.154,333.88,349.693,391.506,444.362,455.396,467.231,517.213,517.213,517.213
0.00108909	-8511875.07	0,6.06808e-06,1.62895e-05,3.3507e-05,6.25092e-05,0.000111362,0.000193652,0.000332267,0.000565757,0.000959061,0.00162156,0.00273752,0.0046173,0.0077837,0.0131174,0.0221017,inf	920.872,920.872,445.669,404.413,387.991,332.217,328.628,337.203,351.486,391.63,442.46,452.382,468.701,528.481,528.481,528.481
0.00116017	-8510456.76	0,6.06808e-06,1.62895e-05,3.3507e-05,6.25092e-05,0.000111362,0.000193652,0.000332267,0.000565757,0.000959061,0.00162156,0.00273752,0.0046173,0.0077837,0.0131174,0.0221017,inf	914.956,914.956,425.778,400.439,390.635,330.931,331.314,341.089,354.035,392.177,440.243,448.536,468.688,536.308,536.308,536.308
0.0012263	-8509288.74	0,6.06808e-06,1.62895e-05,3.3507e-05,6.25092e-05,0.000111362,0.000193652,0.000332267,0.000565757,0.000959061,0.00162156,0.00273752,0.0046173,0.0077837,0.0131174,0.0221017,inf	910.022,910.022,408.043,396.757,392.558,329.215,333.892,345.051,356.876,392.958,438.027,444.431,467.823,541.586,541.586,541.586
0.00128808	-8508312.50	0,6.06808e-06,1.62895e-05,3.3507e-05,6.25092e-05,0.000111362,0.000193652,0.000332267,0.000565757,0.000959061,0.00162156,0.00273752,0.0046173,0.0077837,0.0131174,0.0221017,inf	906.847,906.847,392.722,393.849,394.186,327.25,336.285,348.876,359.77,393.855,435.937,440.346,466.472,544.964,544.964,544.964
0.00134599	-8507486.98	0,6.06808e-06,1.62895e-05,3.3507e-05,6.25092e-05,0.000111362,0.000193652,0.000332267,0.000565757,0.000959061,0.00162156,0.00273752,0.0046173,0.0077837,0.0131174,0.0221017,inf	904.923,904.923,379.613,391.852,395.763,325.185,338.494,352.479,362.593,394.795,434.016,436.415,464.854,546.918,546.918,546.918
0.00140041	-8506782.14	0,6.06808e-06,1.62895e-05,3.3507e-05,6.25092e-05,0.000111362,0.000193652,0.000332267,0.000565757,0.000959061,0.00162156,0.00273752,0.0046173,0.0077837,0.0131174,0.0221017,inf	903.728,903.728,368.383,390.733,397.403,323.124,340.549,355.835,365.285,395.732,432.273,432.698,463.102,547.802,547.802,547.802
0.00145168	-8506175.38	0,6.06808e-06,1.62895e-05,3.3507e-05,6.25092e-05,0.000111362,0.000193652,0.000332267,0.000565757,0.000959061,0.00162156,0.00273752,0.0046173,0.0077837,0.0131174,0.0221017,inf	902.79,902.79,358.708,390.395,399.157,321.131,342.481,358.945,367.817,396.641,430.7,429.217,461.298,547.881,547.881,547.881
0.00150007	-8505649.32	0,6.06808e-06,1.62895e-05,3.3507e-05,6.25092e-05,0.000111362,0.000193652,0.000332267,0.000565757,0.000959061,0.00162156,0.00273752,0.0046173,0.0077837,0.0131174,0.0221017,inf	901.778,901.778,350.306,390.708,401.02,319.241,344.318,361.822,370.181,397.504,429.282,425.976,459.493,547.355,547.355,547.355
0.00154583	-8505190.37	0,6.06808e-06,1.62895e-05,3.3507e-05,6.25092e-05,0.000111362,0.000193652,0.000332267,0.000565757,0.000959061,0.00162156,0.00273752,0.0046173,0.0077837,0.0131174,0.0221017,inf	900.608,900.608,342.949,391.545,402.973,317.469,346.083,364.485,372.376,398.315,428.004,422.965,457.719,546.377,546.377,546.377
0.00158916	-8504787.75	0,6.06808e-06,1.62895e-05,3.3507e-05,6.25092e-05,0.000111362,0.000193652,0.000332267,0.000565757,0.000959061,0.00162156,0.00273752,0.0046173,0.0077837,0.0131174,0.0221017,inf	899.218,899.218,336.453,392.797,404.987,315.825,347.794,366.952,374.409,399.069,426.851,420.172,455.996,545.065,545.065,545.065
0.00163026	-8504432.78	0,6.06808e-06,1.62895e-05,3.3507e-05,6.25092e-05,0.000111362,0.000193652,0.000332267,0.000565757,0.000959061,0.00162156,0.00273752,0.0046173,0.0077837,0.0131174,0.0221017,inf	897.641,897.641,330.676,394.366,407.032,314.305,349.461,369.243,376.289,399.767,425.81,417.582,454.335,543.506,543.506,543.506
0.00166927	-8504118.43	0,6.06808e-06,1.62895e-05,3.3507e-05,6.25092e-05,0.000111362,0.000193652,0.000332267,0.000565757,0.000959061,0.00162156,0.00273752,0.0046173,0.0077837,0.0131174,0.0221017,inf	895.876,895.876,325.508,396.168,409.075,312.903,351.094,371.375,378.026,400.408,424.868,415.179,452.743,541.771,541.771,541.771
0.00170636	-8503838.93	0,6.06808e-06,1.62895e-05,3.3507e-05,6.25092e-05,0.000111362,0.000193652,0.000332267,0.000565757,0.000959061,0.00162156,0.00273752,0.0046173,0.0077837,0.0131174,0.0221017,inf	894.019,894.019,320.846,398.141,411.1,311.614,352.7,373.363,379.631,400.996,424.013,412.949,451.222,539.913,539.913,539.913
0.00174166	-8503589.47	0,6.06808e-06,1.62895e-05,3.3507e-05,6.25092e-05,0.000111362,0.000193652,0.000332267,0.000565757,0.000959061,0.00162156,0.00273752,0.0046173,0.0077837,0.0131174,0.0221017,inf	892.065,892.065,316.626,400.229,413.083,310.428,354.284,375.22,381.114,401.533,423.236,410.877,449.772,537.973,537.973,537.973
0.00177528	-8503366.10	0,6.06808e-06,1.62895e-05,3.3507e-05,6.25092e-05,0.000111362,0.000193652,0.000332267,0.000565757,0.000959061,0.00162156,0.00273752,0.0046173,0.0077837,0.0131174,0.0221017,inf	890.089,890.089,312.789,402.395,415.008,309.336,355.847,376.959,382.484,402.021,422.529,408.95,448.394,535.983,535.983,535.983
0.00180733	-8503165.44	0,6.06808e-06,1.62895e-05,3.3507e-05,6.25092e-05,0.000111362,0.000193652,0.000332267,0.000565757,0.000959061,0.00162156,0.00273752,0.0046173,0.0077837,0.0131174,0.0221017,inf	888.118,888.118,309.294,404.604,416.862,308.331,357.392,378.591,383.751,402.465,421.884,407.155,447.084,533.968,533.968,533.968
