0.000738068	-311222.27	0,9.3568e-05,0.000221598,0.000396785,0.000636494,0.000964493,0.0014133,0.0020274,0.0028677,0.00401748,0.00559074,0.00774347,0.0106891,0.0147196,0.0202346,0.0277809,inf	282.534,282.534,326.027,343.755,365.076,388.596,413.534,431.993,438.922,427.308,419.035,427.983,482.059,606.668,606.668,606.668
0.000831742	-311058.62	0,9.3568e-05,0.000221598,0.000396785,0.000636494,0.000964493,0.0014133,0.0020274,0.0028677,0.00401748,0.00559074,0.00774347,0.0106891,0.0147196,0.0202346,0.0277809,inf	250.479,250.479,307.904,327.457,353.939,383.91,418.629,447.503,460.71,442.507,430.458,452.706,588.887,1148.16,1148.16,1148.16
0.000917072	-310954.22	0,9.3568e-05,0.000221598,0.000396785,0.000636494,0.000964493,0.0014133,0.0020274,0.0028677,0.00401748,0.00559074,0.00774347,0.0106891,0.0147196,0.0202346,0.0277809,inf	240.231,240.231,304.735,322.705,349.697,380.419,418.747,453.328,470.744,447.937,434.158,472.433,736.951,5125.28,5125.28,5125.28
0.000917072	-310877.16	0,9.3568e-05,0.000221598,0.000396785,0.000636494,0.000964493,0.0014133,0.0020274,0.0028677,0.00401748,0.00559074,0.00774347,0.0106891,0.0147196,0.0202346,0.0277809,inf	232.411,232.411,300.054,315.484,340.559,369.062,407.482,444.77,465.195,440.736,427.735,484.73,980.976,55223.5,55223.5,55223.5
0.000917072	-310875.98	0,9.3568e-05,0.000221598,0.000396785,0.000636494,0.000964493,0.0014133,0.0020274,0.0028677,0.00401748,0.00559074,0.00774347,0.0106891,0.0147196,0.0202346,0.0277809,inf	229.926,229.926,300.054,314.959,338.515,364.692,402.526,441.162,462.639,435.292,422.059,495.952,980.976,55223.5,55223.5,55223.5
0.000917072	-310875.13	0,9.3568e-05,0.000221598,0.000396785,0.000636494,0.000964493,0.0014133,0.0020274,0.0028677,0.00401748,0.00559074,0.00774347,0.0106891,0.0147196,0.0202346,0.0277809,inf	228.503,228.503,301.478,314.959,338.515,362.8,400.072,439.748,461.976,431.177,417.291,503.096,980.976,55223.5,55223.5,55223.5
0.000917072	-310874.70	0,9.3568e-05,0.000221598,0.000396785,0.000636494,0.000964493,0.0014133,0.0020274,0.0028677,0.00401748,0.00559074,0.00774347,0.0106891,0.0147196,0.0202346,0.0277809,inf	227.272,227.272,303.092,314.96,338.515,361.853,398.758,439.473,461.976,427.908,413.137,508.375,980.976,55223.5,55223.5,55223.5
0.000917072	-310874.44	0,9.3568e-05,0.000221598,0.000396785,0.000636494,0.000964493,0.0014133,0.0020274,0.0028677,0.00401748,0.00559074,0.00774347,0.0106891,0.0147196,0.0202346,0.0277809,inf	226.164,226.164,303.096,315.771,338.515,361.353,397.979,439.473,461.976,425.244,409.438,512.74,980.976,55223.5,55223.5,55223.5
0.000917072	-310874.26	0,9.3568e-05,0.000221598,0.000396785,0.000636494,0.000964493,0.0014133,0.0020274,0.0028677,0.00401748,0.00559074,0.00774347,0.0106891,0.0147196,0.0202346,0.0277809,inf	225.369,225.369,303.892,315.771,338.515,361.069,397.509,439.968,461.976,423.066,406.118,516.329,980.976,55223.5,55223.5,55223.5
0.000917072	-310874.13	0,9.3568e-05,0.000221598,0.000396785,0.000636494,0.000964493,0.0014133,0.0020274,0.0028677,0.00401748,0.00559074,0.00774347,0.0106891,0.0147196,0.0202346,0.0277809,inf	224.715,224.715,303.892,316.253,338.515,360.897,397.192,439.968,462.213,421.27,403.105,519.491,980.976,55223.5,55223.5,55223.5
0.000917072	-310874.02	0,9.3568e-05,0.000221598,0.000396785,0.000636494,0.000964493,0.0014133,0.0020274,0.0028677,0.00401748,0.00559074,0.00774347,0.0106891,0.0147196,0.0202346,0.0277809,inf	224.245,224.245,304.364,316.253,338.515,360.807,397.013,439.968,462.213,419.814,400.355,522.33,980.976,55223.5,55223.5,55223.5
0.000917072	-310873.92	0,9.3568e-05,0.000221598,0.000396785,0.000636494,0.000964493,0.0014133,0.0020274,0.0028677,0.00401748,0.00559074,0.00774347,0.0106891,0.0147196,0.0202346,0.0277809,inf	223.85,223.85,304.762,316.253,338.515,360.784,396.955,440.023,462.213,418.656,397.84,524.786,980.976,55223.5,55223.5,55223.5
0.000917072	-310873.85	0,9.3568e-05,0.000221598,0.000396785,0.000636494,0.000964493,0.0014133,0.0020274,0.0028677,0.00401748,0.00559074,0.00774347,0.0106891,0.0147196,0.0202346,0.0277809,inf	223.521,223.521,305.479,316.253,338.515,360.784,396.955,440.023,462.213,417.749,395.524,526.963,980.976,55223.5,55223.5,55223.5
0.000917072	-310873.78	0,9.3568e-05,0.000221598,0.000396785,0.000636494,0.000964493,0.0014133,0.0020274,0.0028677,0.00401748,0.00559074,0.00774347,0.0106891,0.0147196,0.0202346,0.0277809,inf	223.173,223.173,305.828,316.253,338.515,360.784,396.955,440.023,462.213,417.059,393.38,528.898,980.976,55223.5,55223.5,55223.5
0.000917072	-310873.72	0,9.3568e-05,0.000221598,0.000396785,0.000636494,0.000964493,0.0014133,0.0020274,0.0028677,0.00401748,0.00559074,0.00774347,0.0106891,0.0147196,0.0202346,0.0277809,inf	222.883,222.883,306.12,316.253,338.515,360.784,396.955,440.023,462.213,416.554,391.423,528.898,982.218,55223.5,55223.5,55223.5
0.000917072	-310873.63	0,9.3568e-05,0.000221598,0.000396785,0.000636494,0.000964493,0.0014133,0.0020274,0.0028677,0.00401748,0.00559074,0.00774347,0.0106891,0.0147196,0.0202346,0.0277809,inf	222.642,222.642,306.362,316.253,338.515,360.784,396.955,440.023,462.213,416.237,389.59,530.407,982.218,55223.5,55223.5,55223.5
0.000917072	-310873.59	0,9.3568e-05,0.000221598,0.000396785,0.000636494,0.000964493,0.0014133,0.0020274,0.0028677,0.00401748,0.00559074,0.00774347,0.0106891,0.0147196,0.0202346,0.0277809,inf	222.444,222.444,306.363,316.401,338.515,360.784,396.955,440.023,462.213,416.051,387.865,531.767,982.218,55223.5,55223.5,55223.5
0.000917072	-310873.56	0,9.3568e-05,0.000221598,0.000396785,0.000636494,0.000964493,0.0014133,0.0020274,0.0028677,0.00401748,0.00559074,0.00774347,0.0106891,0.0147196,0.0202346,0.0277809,inf	222.3,222.3,306.364,316.401,338.515,360.834,396.959,440.023,462.213,415.978,386.235,532.998,982.218,55223.5,55223.5,55223.5
0.000917072	-310873.54	0,9.3568e-05,0.000221598,0.000396785,0.000636494,0.000964493,0.0014133,0.0020274,0.0028677,0.00401748,0.00559074,0.00774347,0.0106891,0.0147196,0.0202346,0.0277809,inf	222.207,222.207,306.459,316.401,338.515,360.834,396.959,440.023,462.213,415.978,384.688,534.129,982.218,55223.5,55223.5,55223.5
0.000917072	-310873.51	0,9.3568e-05,0.000221598,0.000396785,0.000636494,0.000964493,0.0014133,0.0020274,0.0028677,0.00401748,0.00559074,0.00774347,0.0106891,0.0147196,0.0202346,0.0277809,inf	222.128,222.128,306.54,316.401,338.515,360.834,396.959,440.023,462.213,415.978,383.216,535.204,982.218,55223.5,55223.5,55223.5
