9.20195e-06	-331983.11	0,5.75941e-08,1.57528e-07,3.30928e-07,6.31802e-07,1.15386e-06,2.05971e-06,3.63148e-06,6.35874e-06,1.10909e-05,1.93019e-05,3.35493e-05,5.82704e-05,0.000101165,0.000175594,0.000304738,inf	350.299,350.299,722.248,1313.16,2325.33,4056,6778.14,10881.6,17711.1,26071.2,30440.9,32164.9,27332.8,8371.15,8371.15,8371.15
9.47986e-06	-331974.76	0,5.75941e-08,1.57528e-07,3.30928e-07,6.31802e-07,1.15386e-06,2.05971e-06,3.63148e-06,6.35874e-06,1.10909e-05,1.93019e-05,3.35493e-05,5.82704e-05,0.000101165,0.000175594,0.000304738,inf	28.3699,28.3699,28.3751,90.5833,290.664,908.914,2500.3,5910.27,14136,26130,31592.5,36182,31740.8,271.299,271.299,271.299
9.03457e-06	-332455.56	0,5.75941e-08,1.57528e-07,3.30928e-07,6.31802e-07,1.15386e-06,2.05971e-06,3.63148e-06,6.35874e-06,1.10909e-05,1.93019e-05,3.35493e-05,5.82704e-05,0.000101165,0.000175594,0.000304738,inf	28.365,28.365,28.365,28.365,45.6721,263.461,1176.39,3761.98,12370.7,26527.4,31331.7,39639.2,26633,28.365,28.365,28.365
8.56547e-06	-332574.87	0,5.75941e-08,1.57528e-07,3.30928e-07,6.31802e-07,1.15386e-06,2.05971e-06,3.63148e-06,6.35874e-06,1.10909e-05,1.93019e-05,3.35493e-05,5.82704e-05,0.000101165,0.000175594,0.000304738,inf	28.365,28.365,28.365,28.365,28.365,87.1135,633.4,2548,11057.3,26735.8,30609.1,43400.8,22729.3,28.365,28.365,28.365
8.10714e-06	-332637.19	0,5.75941e-08,1.57528e-07,3.30928e-07,6.31802e-07,1.15386e-06,2.05971e-06,3.63148e-06,6.35874e-06,1.10909e-05,1.93019e-05,3.35493e-05,5.82704e-05,0.000101165,0.000175594,0.000304738,inf	28.365,28.365,28.365,28.365,28.365,32.0168,383.222,1814.63,10005.5,26777.8,29602,46872.6,20276.3,28.365,28.365,28.365
7.68484e-06	-332672.08	0,5.75941e-08,1.57528e-07,3.30928e-07,6.31802e-07,1.15386e-06,2.05971e-06,3.63148e-06,6.35874e-06,1.10909e-05,1.93019e-05,3.35493e-05,5.82704e-05,0.000101165,0.000175594,0.000304738,inf	28.365,28.365,28.365,28.365,28.365,28.365,257.321,1353.45,9141.02,26753.6,28532.8,49403.7,18389.7,28.365,28.365,28.365
7.30319e-06	-332702.62	0,5.75941e-08,1.57528e-07,3.30928e-07,6.31802e-07,1.15386e-06,2.05971e-06,3.63148e-06,6.35874e-06,1.10909e-05,1.93019e-05,3.35493e-05,5.82704e-05,0.000101165,0.000175594,0.000304738,inf	28.365,28.365,28.365,28.365,28.365,28.365,189.037,1053.08,8413.24,26727.7,27596.4,51061.5,16926.6,28.365,28.365,28.365
6.96226e-06	-332729.11	0,5.75941e-08,1.57528e-07,3.30928e-07,6.31802e-07,1.15386e-06,2.05971e-06,3.63148e-06,6.35874e-06,1.10909e-05,1.93019e-05,3.35493e-05,5.82704e-05,0.000101165,0.000175594,0.000304738,inf	28.365,28.365,28.365,28.365,28.365,28.365,149.976,851.194,7780.18,26697.9,26847.3,52031.5,15801.9,28.365,28.365,28.365
6.66034e-06	-332751.34	0,5.75941e-08,1.57528e-07,3.30928e-07,6.31802e-07,1.15386e-06,2.05971e-06,3.63148e-06,6.35874e-06,1.10909e-05,1.93019e-05,3.35493e-05,5.82704e-05,0.000101165,0.000175594,0.000304738,inf	28.365,28.365,28.365,28.365,28.365,28.365,127.007,712.146,7216.13,26647.8,26278.6,52504.1,14941.1,28.365,28.365,28.365
6.39475e-06	-332769.67	0,5.75941e-08,1.57528e-07,3.30928e-07,6.31802e-07,1.15386e-06,2.05971e-06,3.63148e-06,6.35874e-06,1.10909e-05,1.93019e-05,3.35493e-05,5.82704e-05,0.000101165,0.000175594,0.000304738,inf	28.365,28.365,28.365,28.365,28.365,28.365,113.866,615.016,6707.1,26569.4,25863.4,52639.6,14280.6,28.365,28.365,28.365
6.16234e-06	-332784.73	0,5.75941e-08,1.57528e-07,3.30928e-07,6.31802e-07,1.15386e-06,2.05971e-06,3.63148e-06,6.35874e-06,1.10909e-05,1.93019e-05,3.35493e-05,5.82704e-05,0.000101165,0.000175594,0.000304738,inf	28.365,28.365,28.365,28.365,28.365,28.365,107.317,547.117,6245.8,26461.9,25570,52559.5,13769.4,28.365,28.365,28.365
5.95968e-06	-332797.16	0,5.75941e-08,1.57528e-07,3.30928e-07,6.31802e-07,1.15386e-06,2.05971e-06,3.63148e-06,6.35874e-06,1.10909e-05,1.93019e-05,3.35493e-05,5.82704e-05,0.000101165,0.000175594,0.000304738,inf	28.365,28.365,28.365,28.365,28.365,28.365,105.701,500.315,5828.2,26331.2,25369.1,52350.4,13369,28.365,28.365,28.365
5.7834e-06	-332807.51	0,5.75941e-08,1.57528e-07,3.30928e-07,6.31802e-07,1.15386e-06,2.05971e-06,3.63148e-06,6.35874e-06,1.10909e-05,1.93019e-05,3.35493e-05,5.82704e-05,0.000101165,0.000175594,0.000304738,inf	28.365,28.365,28.365,28.365,28.365,28.365,108.165,469.294,5451.27,26184.2,25235.4,52072.1,13050.8,28.365,28.365,28.365
5.63027e-06	-332816.23	0,5.75941e-08,1.57528e-07,3.30928e-07,6.31802e-07,1.15386e-06,2.05971e-06,3.63148e-06,6.35874e-06,1.10909e-05,1.93019e-05,3.35493e-05,5.82704e-05,0.000101165,0.000175594,0.000304738,inf	28.365,28.365,28.365,28.365,28.365,28.365,114.452,450.444,5111.13,26029.4,25149.8,51762.8,12794.1,28.365,28.365,28.365
5.49736e-06	-332823.67	0,5.75941e-08,1.57528e-07,3.30928e-07,6.31802e-07,1.15386e-06,2.05971e-06,3.63148e-06,6.35874e-06,1.10909e-05,1.93019e-05,3.35493e-05,5.82704e-05,0.000101165,0.000175594,0.000304738,inf	28.365,28.365,28.365,28.365,28.365,28.365,124.521,441.203,4805.4,25873.9,25096.9,51447.7,12584.1,28.365,28.365,28.365
5.38202e-06	-332830.06	0,5.75941e-08,1.57528e-07,3.30928e-07,6.31802e-07,1.15386e-06,2.05971e-06,3.63148e-06,6.35874e-06,1.10909e-05,1.93019e-05,3.35493e-05,5.82704e-05,0.000101165,0.000175594,0.000304738,inf	28.365,28.365,28.365,28.365,28.365,28.365,138.578,439.674,4530.23,25722.2,25065.5,51141.6,12410.1,28.365,28.365,28.365
5.28192e-06	-332835.60	0,5.75941e-08,1.57528e-07,3.30928e-07,6.31802e-07,1.15386e-06,2.05971e-06,3.63148e-06,6.35874e-06,1.10909e-05,1.93019e-05,3.35493e-05,5.82704e-05,0.000101165,0.000175594,0.000304738,inf	28.365,28.365,28.365,28.365,28.365,28.365,156.967,444.347,4282.36,25579.2,25047.9,50852.8,12264.7,28.365,28.365,28.365
5.19503e-06	-332840.43	0,5.75941e-08,1.57528e-07,3.30928e-07,6.31802e-07,1.15386e-06,2.05971e-06,3.63148e-06,6.35874e-06,1.10909e-05,1.93019e-05,3.35493e-05,5.82704e-05,0.000101165,0.000175594,0.000304738,inf	28.365,28.365,28.365,28.365,28.365,28.365,180.037,453.896,4058.24,25447.1,25039.3,50585.9,12141.8,28.365,28.365,28.365
5.11989e-06	-332844.64	0,5.75941e-08,1.57528e-07,3.30928e-07,6.31802e-07,1.15386e-06,2.05971e-06,3.63148e-06,6.35874e-06,1.10909e-05,1.93019e-05,3.35493e-05,5.82704e-05,0.000101165,0.000175594,0.000304738,inf	28.365,28.365,28.365,28.365,28.365,28.365,207.889,467.031,3854.99,25324,25024.1,50361,12041.3,28.365,28.365,28.365
5.05459e-06	-332848.21	0,5.75941e-08,1.57528e-07,3.30928e-07,6.31802e-07,1.15386e-06,2.05971e-06,3.63148e-06,6.35874e-06,1.10909e-05,1.93019e-05,3.35493e-05,5.82704e-05,0.000101165,0.000175594,0.000304738,inf	28.365,28.365,28.365,28.365,28.365,28.365,240.822,482.777,3670.29,25218,25019,50143.1,11951.7,28.365,28.365,28.365
