time_index	left_time_boundary	right_time_boundary	lambda
0	0	4.24344e-05	139.474
1	4.24344e-05	9.20721e-05	139.474
2	9.20721e-05	0.000150136	451.112
3	0.000150136	0.000218056	507.532
4	0.000218056	0.000297505	409.939
5	0.000297505	0.000390441	329.168
6	0.000390441	0.000499153	340.854
7	0.000499153	0.000626318	376.341
8	0.000626318	0.00077507	382.409
9	0.00077507	0.000949073	377.684
10	0.000949073	0.00115261	381.178
11	0.00115261	0.0013907	394.239
12	0.0013907	0.00166921	412
13	0.00166921	0.00199499	427.987
14	0.00199499	0.00237607	437.283
15	0.00237607	0.00282185	435.494
16	0.00282185	0.00334329	420.724
17	0.00334329	0.00395325	401.363
18	0.00395325	0.00466675	395.02
19	0.00466675	0.00550136	409.253
20	0.00550136	0.00647765	443.762
21	0.00647765	0.00761967	480.943
22	0.00761967	0.00895554	486.245
23	0.00895554	0.0105182	456.889
24	0.0105182	0.0123461	380.441
25	0.0123461	0.0144842	287.398
26	0.0144842	0.0169854	254.83
27	0.0169854	0.0199111	399.906
28	0.0199111	0.0233334	399.906
29	0.0233334	0.0273367	82863.1
30	0.0273367	0.0320195	82863.1
31	0.0320195	inf	82863.1
