0.000614963	-12407073.75	0,3.71093e-06,1.01499e-05,2.13225e-05,4.07085e-05,7.43461e-05,0.000132712,0.000233985,0.000409709,0.000714616,0.00124367,0.00216166,0.0037545,0.00651832,0.0113139,0.019635,inf	3959.43,3959.43,1036.55,524.972,481.575,444.184,425.466,409.036,406.011,409.984,412.008,409.78,396.198,393.104,393.104,393.104
0.000665237	-12403571.00	0,3.71093e-06,1.01499e-05,2.13225e-05,4.07085e-05,7.43461e-05,0.000132712,0.000233985,0.000409709,0.000714616,0.00124367,0.00216166,0.0037545,0.00651832,0.0113139,0.019635,inf	5832.09,5832.09,1081.46,491.962,490.657,449.19,427.96,403.02,399.864,407.316,409.565,402.612,377.676,369.743,369.743,369.743
0.000712927	-12401660.54	0,3.71093e-06,1.01499e-05,2.13225e-05,4.07085e-05,7.43461e-05,0.000132712,0.000233985,0.000409709,0.000714616,0.00124367,0.00216166,0.0037545,0.00651832,0.0113139,0.019635,inf	6350.5,6350.5,1001.14,446.077,491.956,451.226,431.445,400.979,398.52,409.081,411.845,401.68,368.897,356.019,356.019,356.019
0.000756835	-12400288.77	0,3.71093e-06,1.01499e-05,2.13225e-05,4.07085e-05,7.43461e-05,0.000132712,0.000233985,0.000409709,0.000714616,0.00124367,0.00216166,0.0037545,0.00651832,0.0113139,0.019635,inf	6470.84,6470.84,917.454,407.762,492.992,451.74,434.359,399.814,398.082,411.048,414.347,402.29,364.513,346.995,346.995,346.995
0.000796877	-12399248.86	0,3.71093e-06,1.01499e-05,2.13225e-05,4.07085e-05,7.43461e-05,0.000132712,0.000233985,0.000409709,0.000714616,0.00124367,0.00216166,0.0037545,0.00651832,0.0113139,0.019635,inf	6485.11,6485.11,848.269,377.887,495.093,451.479,436.821,399.139,397.983,412.637,416.241,403.048,362.333,340.555,340.555,340.555
0.000833295	-12398446.11	0,3.71093e-06,1.01499e-05,2.13225e-05,4.07085e-05,7.43461e-05,0.000132712,0.000233985,0.000409709,0.000714616,0.00124367,0.00216166,0.0037545,0.00651832,0.0113139,0.019635,inf	6467.61,6467.61,792.365,354.526,498.139,450.705,438.964,398.864,398.147,413.912,417.529,403.568,361.346,335.67,335.67,335.67
0.000866413	-12397819.52	0,3.71093e-06,1.01499e-05,2.13225e-05,4.07085e-05,7.43461e-05,0.000132712,0.000233985,0.000409709,0.000714616,0.00124367,0.00216166,0.0037545,0.00651832,0.0113139,0.019635,inf	6439.46,6439.46,746.554,335.969,501.824,449.525,440.84,398.899,398.532,414.991,418.365,403.784,361.044,331.787,331.787,331.787
0.000896558	-12397326.11	0,3.71093e-06,1.01499e-05,2.13225e-05,4.07085e-05,7.43461e-05,0.000132712,0.000233985,0.000409709,0.000714616,0.00124367,0.00216166,0.0037545,0.00651832,0.0113139,0.019635,inf	6407.7,6407.7,708.266,320.988,505.909,448.015,442.475,399.151,399.083,415.951,418.891,403.727,361.151,328.589,328.589,328.589
0.000924034	-12396934.65	0,3.71093e-06,1.01499e-05,2.13225e-05,4.07085e-05,7.43461e-05,0.000132712,0.000233985,0.000409709,0.000714616,0.00124367,0.00216166,0.0037545,0.00651832,0.0113139,0.019635,inf	6375.45,6375.45,675.685,308.73,510.245,446.254,443.891,399.542,399.743,416.835,419.21,403.449,361.509,325.883,325.883,325.883
0.000949113	-12396622.04	0,3.71093e-06,1.01499e-05,2.13225e-05,4.07085e-05,7.43461e-05,0.000132712,0.000233985,0.000409709,0.000714616,0.00124367,0.00216166,0.0037545,0.00651832,0.0113139,0.019635,inf	6343.96,6343.96,647.515,298.578,514.73,444.308,445.114,400.012,400.466,417.666,419.398,403.003,362.025,323.545,323.545,323.545
0.000972038	-12396370.99	0,3.71093e-06,1.01499e-05,2.13225e-05,4.07085e-05,7.43461e-05,0.000132712,0.000233985,0.000409709,0.000714616,0.00124367,0.00216166,0.0037545,0.00651832,0.0113139,0.019635,inf	6314.16,6314.16,622.849,290.095,519.3,442.242,446.175,400.521,401.214,418.453,419.503,402.431,362.641,321.493,321.493,321.493
0.000993023	-12396168.38	0,3.71093e-06,1.01499e-05,2.13225e-05,4.07085e-05,7.43461e-05,0.000132712,0.000233985,0.000409709,0.000714616,0.00124367,0.00216166,0.0037545,0.00651832,0.0113139,0.019635,inf	6286.46,6286.46,601.003,282.937,523.902,440.108,447.104,401.041,401.959,419.201,419.559,401.769,363.319,319.669,319.669,319.669
0.00101226	-12396004.21	0,3.71093e-06,1.01499e-05,2.13225e-05,4.07085e-05,7.43461e-05,0.000132712,0.000233985,0.000409709,0.000714616,0.00124367,0.00216166,0.0037545,0.00651832,0.0113139,0.019635,inf	6260.6,6260.6,581.418,276.851,528.5,437.942,447.925,401.557,402.684,419.914,419.587,401.044,364.034,318.032,318.032,318.032
0.00102991	-12395870.71	0,3.71093e-06,1.01499e-05,2.13225e-05,4.07085e-05,7.43461e-05,0.000132712,0.000233985,0.000409709,0.000714616,0.00124367,0.00216166,0.0037545,0.00651832,0.0113139,0.019635,inf	6236.77,6236.77,563.742,271.643,533.053,435.775,448.661,402.056,403.374,420.59,419.604,400.276,364.769,316.552,316.552,316.552
0.00104613	-12395761.86	0,3.71093e-06,1.01499e-05,2.13225e-05,4.07085e-05,7.43461e-05,0.000132712,0.000233985,0.000409709,0.000714616,0.00124367,0.00216166,0.0037545,0.00651832,0.0113139,0.019635,inf	6214.8,6214.8,547.682,267.149,537.535,433.628,449.333,402.533,404.023,421.232,419.618,399.48,365.514,315.205,315.205,315.205
0.00106104	-12395672.89	0,3.71093e-06,1.01499e-05,2.13225e-05,4.07085e-05,7.43461e-05,0.000132712,0.000233985,0.000409709,0.000714616,0.00124367,0.00216166,0.0037545,0.00651832,0.0113139,0.019635,inf	6195,6195,532.983,263.254,541.932,431.513,449.955,402.985,404.625,421.84,419.637,398.669,366.259,313.972,313.972,313.972
0.00107477	-12395600.06	0,3.71093e-06,1.01499e-05,2.13225e-05,4.07085e-05,7.43461e-05,0.000132712,0.000233985,0.000409709,0.000714616,0.00124367,0.00216166,0.0037545,0.00651832,0.0113139,0.019635,inf	6176.85,6176.85,519.45,259.859,546.218,429.442,450.54,403.41,405.178,422.414,419.664,397.851,367,312.841,312.841,312.841
0.00108743	-12395540.37	0,3.71093e-06,1.01499e-05,2.13225e-05,4.07085e-05,7.43461e-05,0.000132712,0.000233985,0.000409709,0.000714616,0.00124367,0.00216166,0.0037545,0.00651832,0.0113139,0.019635,inf	6160.34,6160.34,506.935,256.873,550.38,427.42,451.097,403.81,405.683,422.956,419.701,397.033,367.731,311.798,311.798,311.798
0.00109909	-12395491.41	0,3.71093e-06,1.01499e-05,2.13225e-05,4.07085e-05,7.43461e-05,0.000132712,0.000233985,0.000409709,0.000714616,0.00124367,0.00216166,0.0037545,0.00651832,0.0113139,0.019635,inf	6145.37,6145.37,495.302,254.236,554.408,425.449,451.634,404.184,406.139,423.467,419.752,396.22,368.45,310.834,310.834,310.834
0.00110986	-12395451.26	0,3.71093e-06,1.01499e-05,2.13225e-05,4.07085e-05,7.43461e-05,0.000132712,0.000233985,0.000409709,0.000714616,0.00124367,0.00216166,0.0037545,0.00651832,0.0113139,0.019635,inf	6131.72,6131.72,484.495,251.906,558.294,423.533,452.156,404.534,406.549,423.948,419.815,395.416,369.154,309.941,309.941,309.941
