6.8815e-05	-43028.35	0,9.45882e-06,2.24015e-05,4.01111e-05,6.43434e-05,9.75009e-05,0.000142871,0.000204951,0.000289896,0.000406128,0.00056517,0.00078279,0.00108056,0.00148801,0.00204552,0.00280838,inf	3632.56,3632.56,2401.5,2967.76,3401.45,3679.04,3910.95,4205.13,4276.42,3661.01,3151.7,3409.6,2257.84,1484.89,1484.89,1484.89
7.34834e-05	-43028.74	0,9.45882e-06,2.24015e-05,4.01111e-05,6.43434e-05,9.75009e-05,0.000142871,0.000204951,0.000289896,0.000406128,0.00056517,0.00078279,0.00108056,0.00148801,0.00204552,0.00280838,inf	3825.95,3825.95,1786.5,2640.66,3280.13,3626.13,3932.43,4457.17,4641.51,3522.54,2809.47,3294.97,1926.29,951.464,951.464,951.464
7.75453e-05	-43030.22	0,9.45882e-06,2.24015e-05,4.01111e-05,6.43434e-05,9.75009e-05,0.000142871,0.000204951,0.000289896,0.000406128,0.00056517,0.00078279,0.00108056,0.00148801,0.00204552,0.00280838,inf	4013.96,4013.96,1432.61,2494.19,3261.33,3593.12,3908.13,4624.65,4949.76,3422.92,2633.87,3331.17,1883.88,245.449,245.449,245.449
8.07133e-05	-43038.99	0,9.45882e-06,2.24015e-05,4.01111e-05,6.43434e-05,9.75009e-05,0.000142871,0.000204951,0.000289896,0.000406128,0.00056517,0.00078279,0.00108056,0.00148801,0.00204552,0.00280838,inf	4153.27,4153.27,1197.76,2432.55,3291.19,3567.49,3859.45,4741.13,5237.85,3385.79,2599.51,3667.27,2231.29,30.8292,30.8292,30.8292
8.31789e-05	-43039.36	0,9.45882e-06,2.24015e-05,4.01111e-05,6.43434e-05,9.75009e-05,0.000142871,0.000204951,0.000289896,0.000406128,0.00056517,0.00078279,0.00108056,0.00148801,0.00204552,0.00280838,inf	4233.59,4233.59,1023.14,2407.13,3335.59,3533.04,3780.7,4783.43,5427.15,3313.51,2552.83,3937.37,2654.23,3.89388,3.89388,3.89388
8.55221e-05	-43034.20	0,9.45882e-06,2.24015e-05,4.01111e-05,6.43434e-05,9.75009e-05,0.000142871,0.000204951,0.000289896,0.000406128,0.00056517,0.00078279,0.00108056,0.00148801,0.00204552,0.00280838,inf	4281.46,4281.46,887.528,2407.41,3398.55,3508.67,3705.59,4805.28,5568.72,3230.96,2493.18,4046.86,2905.56,3.89388,3.89388,3.89388
8.78049e-05	-43031.15	0,9.45882e-06,2.24015e-05,4.01111e-05,6.43434e-05,9.75009e-05,0.000142871,0.000204951,0.000289896,0.000406128,0.00056517,0.00078279,0.00108056,0.00148801,0.00204552,0.00280838,inf	4305.33,4305.33,777.612,2420.96,3469.89,3489.82,3635.64,4817.83,5679.45,3149.15,2432.94,4053.54,3023.46,3.89388,3.89388,3.89388
8.99695e-05	-43030.10	0,9.45882e-06,2.24015e-05,4.01111e-05,6.43434e-05,9.75009e-05,0.000142871,0.000204951,0.000289896,0.000406128,0.00056517,0.00078279,0.00108056,0.00148801,0.00204552,0.00280838,inf	4312.94,4312.94,686.166,2441.28,3543.98,3474.07,3571.77,4829.37,5777.81,3081.73,2387.97,4039.76,3131.93,3.89388,3.89388,3.89388
9.20145e-05	-43029.23	0,9.45882e-06,2.24015e-05,4.01111e-05,6.43434e-05,9.75009e-05,0.000142871,0.000204951,0.000289896,0.000406128,0.00056517,0.00078279,0.00108056,0.00148801,0.00204552,0.00280838,inf	4310,4310,608.668,2464.4,3616.97,3458.9,3512.16,4839.54,5864.24,3025.79,2354.8,4015.76,3234.89,3.89388,3.89388,3.89388
9.39457e-05	-43028.44	0,9.45882e-06,2.24015e-05,4.01111e-05,6.43434e-05,9.75009e-05,0.000142871,0.000204951,0.000289896,0.000406128,0.00056517,0.00078279,0.00108056,0.00148801,0.00204552,0.00280838,inf	4301.04,4301.04,542.182,2488.5,3687.4,3443.59,3456.14,4848.64,5939.43,2978.9,2330.54,3986.32,3331.61,3.89388,3.89388,3.89388
9.57697e-05	-43027.73	0,9.45882e-06,2.24015e-05,4.01111e-05,6.43434e-05,9.75009e-05,0.000142871,0.000204951,0.000289896,0.000406128,0.00056517,0.00078279,0.00108056,0.00148801,0.00204552,0.00280838,inf	4288.73,4288.73,484.641,2512.62,3754.7,3428.02,3403.46,4857.19,6004.36,2939.33,2313.07,3954.39,3421.7,3.89388,3.89388,3.89388
9.74933e-05	-43027.08	0,9.45882e-06,2.24015e-05,4.01111e-05,6.43434e-05,9.75009e-05,0.000142871,0.000204951,0.000289896,0.000406128,0.00056517,0.00078279,0.00108056,0.00148801,0.00204552,0.00280838,inf	4274.68,4274.68,434.486,2536.22,3818.73,3412.26,3353.96,4865.63,6060.09,2905.74,2300.85,3921.81,3505.16,3.89388,3.89388,3.89388
9.91228e-05	-43026.49	0,9.45882e-06,2.24015e-05,4.01111e-05,6.43434e-05,9.75009e-05,0.000142871,0.000204951,0.000289896,0.000406128,0.00056517,0.00078279,0.00108056,0.00148801,0.00204552,0.00280838,inf	4259.65,4259.65,390.507,2558.97,3879.48,3396.39,3307.45,4874.36,6107.62,2877.1,2292.7,3889.71,3582.21,3.89388,3.89388,3.89388
0.000100664	-43025.95	0,9.45882e-06,2.24015e-05,4.01111e-05,6.43434e-05,9.75009e-05,0.000142871,0.000204951,0.000289896,0.000406128,0.00056517,0.00078279,0.00108056,0.00148801,0.00204552,0.00280838,inf	4244.36,4244.36,351.763,2580.71,3937.05,3380.52,3263.77,4883.64,6147.88,2852.59,2287.74,3858.79,3653.22,3.89388,3.89388,3.89388
0.000102123	-43025.46	0,9.45882e-06,2.24015e-05,4.01111e-05,6.43434e-05,9.75009e-05,0.000142871,0.000204951,0.000289896,0.000406128,0.00056517,0.00078279,0.00108056,0.00148801,0.00204552,0.00280838,inf	4229.17,4229.17,317.481,2601.3,3991.57,3364.71,3222.73,4893.65,6181.69,2831.56,2285.27,3829.4,3718.65,3.89388,3.89388,3.89388
0.000103504	-43025.01	0,9.45882e-06,2.24015e-05,4.01111e-05,6.43434e-05,9.75009e-05,0.000142871,0.000204951,0.000289896,0.000406128,0.00056517,0.00078279,0.00108056,0.00148801,0.00204552,0.00280838,inf	4214.25,4214.25,287.031,2620.71,4043.18,3349.01,3184.12,4904.51,6209.79,2813.44,2284.75,3801.74,3778.93,3.89388,3.89388,3.89388
0.000104811	-43024.59	0,9.45882e-06,2.24015e-05,4.01111e-05,6.43434e-05,9.75009e-05,0.000142871,0.000204951,0.000289896,0.000406128,0.00056517,0.00078279,0.00108056,0.00148801,0.00204552,0.00280838,inf	4199.68,4199.68,259.904,2638.93,4092.04,3333.46,3147.78,4916.3,6232.84,2797.81,2285.73,3775.88,3834.52,3.89388,3.89388,3.89388
0.00010605	-43024.21	0,9.45882e-06,2.24015e-05,4.01111e-05,6.43434e-05,9.75009e-05,0.000142871,0.000204951,0.000289896,0.000406128,0.00056517,0.00078279,0.00108056,0.00148801,0.00204552,0.00280838,inf	4185.65,4185.65,235.675,2656,4138.32,3318.08,3113.5,4929.06,6251.4,2784.29,2287.89,3751.8,3885.84,3.89388,3.89388,3.89388
0.000107224	-43023.85	0,9.45882e-06,2.24015e-05,4.01111e-05,6.43434e-05,9.75009e-05,0.000142871,0.000204951,0.000289896,0.000406128,0.00056517,0.00078279,0.00108056,0.00148801,0.00204552,0.00280838,inf	4172.16,4172.16,213.976,2671.94,4182.17,3302.89,3081.12,4942.78,6266.01,2772.58,2290.95,3729.43,3933.27,3.89388,3.89388,3.89388
0.000108337	-43023.53	0,9.45882e-06,2.24015e-05,4.01111e-05,6.43434e-05,9.75009e-05,0.000142871,0.000204951,0.000289896,0.000406128,0.00056517,0.00078279,0.00108056,0.00148801,0.00204552,0.00280838,inf	4159.23,4159.23,194.507,2686.8,4223.77,3287.9,3050.48,4957.48,6277.1,2762.42,2294.69,3708.7,3977.19,3.89388,3.89388,3.89388
