time_index	left_time_boundary	right_time_boundary	lambda
0	0	4.35941e-06	12598
1	4.35941e-06	9.45882e-06	12598
2	9.45882e-06	1.54239e-05	193.396
3	1.54239e-05	2.24015e-05	495.324
4	2.24015e-05	3.05635e-05	700.726
5	3.05635e-05	4.01111e-05	1021.18
6	4.01111e-05	5.12794e-05	2160.3
7	5.12794e-05	6.43434e-05	3706.25
8	6.43434e-05	7.96251e-05	4111.33
9	7.96251e-05	9.75009e-05	3713.14
10	9.75009e-05	0.000118411	3438.82
11	0.000118411	0.000142871	3382.87
12	0.000142871	0.000171482	3454.52
13	0.000171482	0.000204951	3725.82
14	0.000204951	0.000244101	4270
15	0.000244101	0.000289896	4876.87
16	0.000289896	0.000343466	5083.47
17	0.000343466	0.000406128	4732.48
18	0.000406128	0.000479428	4164.76
19	0.000479428	0.00056517	3713.37
20	0.00056517	0.000665467	3549.15
21	0.000665467	0.00078279	3768.98
22	0.00078279	0.000920028	4333.73
23	0.000920028	0.00108056	4561.24
24	0.00108056	0.00126835	3420.9
25	0.00126835	0.00148801	2417.94
26	0.00148801	0.00174496	2068.34
27	0.00174496	0.00204552	4272.42
28	0.00204552	0.00239711	4272.42
29	0.00239711	0.00280838	3.89388
30	0.00280838	0.00328946	3.89388
31	0.00328946	inf	3.89388
