0.000902646	-131549826.40	0,4.4351e-06,1.01913e-05,1.7662e-05,2.7358e-05,3.99421e-05,5.62746e-05,7.7472e-05,0.000104983,0.000140689,0.000187031,0.000247176,0.000325237,0.000426549,0.000558038,0.000728693,0.000950181,0.00123764,0.00161073,0.00209495,0.00272339,0.00353903,0.00459763,0.00597154,0.00775469,0.010069,0.0130726,0.0169709,0.0220304,0.028597,0.0371195,0.0481805,inf	1.11989,1.11989,3.10911,20.7111,10.2625,7.85308,10.7506,14.8736,20.7214,29.4067,42.7234,64.6743,101.396,132.612,133.791,133.588,132.102,140.65,150.494,160.191,180.315,226.935,301.952,343.44,335.961,317.783,301.546,287.308,287.308,271.552,271.552,271.552
0.000791173	-131272954.66	0,4.4351e-06,1.01913e-05,1.7662e-05,2.7358e-05,3.99421e-05,5.62746e-05,7.7472e-05,0.000104983,0.000140689,0.000187031,0.000247176,0.000325237,0.000426549,0.000558038,0.000728693,0.000950181,0.00123764,0.00161073,0.00209495,0.00272339,0.00353903,0.00459763,0.00597154,0.00775469,0.010069,0.0130726,0.0169709,0.0220304,0.028597,0.0371195,0.0481805,inf	0.239861,0.239861,0.239861,1.79258,0.795358,0.239861,0.428069,0.827764,1.61498,3.25434,6.83355,15.5802,40.0566,79.4729,81.9973,88.8621,86.1331,100.876,113.12,120.426,141.652,203.737,335.185,440.748,439.943,405.859,371.484,341.105,341.105,304.821,304.821,304.821
0.000687425	-131126244.76	0,4.4351e-06,1.01913e-05,1.7662e-05,2.7358e-05,3.99421e-05,5.62746e-05,7.7472e-05,0.000104983,0.000140689,0.000187031,0.000247176,0.000325237,0.000426549,0.000558038,0.000728693,0.000950181,0.00123764,0.00161073,0.00209495,0.00272339,0.00353903,0.00459763,0.00597154,0.00775469,0.010069,0.0130726,0.0169709,0.0220304,0.028597,0.0371195,0.0481805,inf	0.239861,0.239861,0.239861,0.278562,0.239862,0.239861,0.239861,0.239861,0.239861,0.31153,0.935791,3.1357,12.9068,45.2064,49.2312,63.6609,59.8782,80.9232,95.45,97.1842,114.095,179.521,348.501,530.659,553.043,506.658,451.968,403.385,403.385,341.193,341.193,341.193
0.000588006	-131026691.51	0,4.4351e-06,1.01913e-05,1.7662e-05,2.7358e-05,3.99421e-05,5.62746e-05,7.7472e-05,0.000104983,0.000140689,0.000187031,0.000247176,0.000325237,0.000426549,0.000558038,0.000728693,0.000950181,0.00123764,0.00161073,0.00209495,0.00272339,0.00353903,0.00459763,0.00597154,0.00775469,0.010069,0.0130726,0.0169709,0.0220304,0.028597,0.0371195,0.0481805,inf	0.239861,0.239861,0.239861,0.278562,0.239862,0.239861,0.239861,0.239861,0.239861,0.239861,0.239861,0.523089,3.3247,24.4423,28.4993,46.5215,41.9204,67.6077,87.0403,82.65,93.4083,156.77,349.116,616.328,681.959,627.861,548.986,479.304,479.304,385.832,385.832,385.832
0.000492976	-130946214.72	0,4.4351e-06,1.01913e-05,1.7662e-05,2.7358e-05,3.99421e-05,5.62746e-05,7.7472e-05,0.000104983,0.000140689,0.000187031,0.000247176,0.000325237,0.000426549,0.000558038,0.000728693,0.000950181,0.00123764,0.00161073,0.00209495,0.00272339,0.00353903,0.00459763,0.00597154,0.00775469,0.010069,0.0130726,0.0169709,0.0220304,0.028597,0.0371195,0.0481805,inf	0.239861,0.239861,0.239861,20.0318,3.39834,0.239861,0.239861,0.239861,0.239861,0.239861,0.239861,0.239861,0.696139,13.46,16.6643,33.7715,28.8429,54.8982,82.5173,73.1324,77.2798,135.702,341.699,702.027,840.253,786.32,675.785,580.461,580.461,449.841,449.841,449.841
0.00040341	-130873654.50	0,4.4351e-06,1.01913e-05,1.7662e-05,2.7358e-05,3.99421e-05,5.62746e-05,7.7472e-05,0.000104983,0.000140689,0.000187031,0.000247176,0.000325237,0.000426549,0.000558038,0.000728693,0.000950181,0.00123764,0.00161073,0.00209495,0.00272339,0.00353903,0.00459763,0.00597154,0.00775469,0.010069,0.0130726,0.0169709,0.0220304,0.028597,0.0371195,0.0481805,inf	0.239861,0.239861,0.239861,33.5315,8.35774,0.239861,0.239861,0.239861,0.239861,0.239861,0.239861,0.239861,0.239861,8.74581,10.7997,23.7701,19.3694,40.6585,77.7172,66.3581,64.4068,115.94,329.338,792.939,1056.75,1024.9,868.38,740.457,740.457,561.788,561.788,561.788
0.000320749	-130804369.52	0,4.4351e-06,1.01913e-05,1.7662e-05,2.7358e-05,3.99421e-05,5.62746e-05,7.7472e-05,0.000104983,0.000140689,0.000187031,0.000247176,0.000325237,0.000426549,0.000558038,0.000728693,0.000950181,0.00123764,0.00161073,0.00209495,0.00272339,0.00353903,0.00459763,0.00597154,0.00775469,0.010069,0.0130726,0.0169709,0.0220304,0.028597,0.0371195,0.0481805,inf	0.239861,0.239861,0.239861,37.1184,7.80725,0.239861,0.239861,0.239861,0.239861,0.239861,0.239861,0.239861,0.239861,7.76728,8.59341,15.5094,12.3617,25.9173,69.2492,60.4188,54.1147,97.0546,314.209,896.18,1407.5,1497.55,1278.19,1123.3,1123.3,851.299,851.299,851.299
0.000246757	-130736768.66	0,4.4351e-06,1.01913e-05,1.7662e-05,2.7358e-05,3.99421e-05,5.62746e-05,7.7472e-05,0.000104983,0.000140689,0.000187031,0.000247176,0.000325237,0.000426549,0.000558038,0.000728693,0.000950181,0.00123764,0.00161073,0.00209495,0.00272339,0.00353903,0.00459763,0.00597154,0.00775469,0.010069,0.0130726,0.0169709,0.0220304,0.028597,0.0371195,0.0481805,inf	0.239861,0.239861,0.239861,26.3954,2.20231,0.239861,0.239861,0.239861,0.239861,0.239861,0.239861,0.239861,0.239861,9.14963,8.27773,8.57366,6.8513,13.4364,56.0402,53.3438,46.0327,78.7158,297.897,1023.47,2190.03,3279.84,3308.96,3763.22,3763.22,11670.2,11670.2,11670.2
0.000183075	-130671381.75	0,4.4351e-06,1.01913e-05,1.7662e-05,2.7358e-05,3.99421e-05,5.62746e-05,7.7472e-05,0.000104983,0.000140689,0.000187031,0.000247176,0.000325237,0.000426549,0.000558038,0.000728693,0.000950181,0.00123764,0.00161073,0.00209495,0.00272339,0.00353903,0.00459763,0.00597154,0.00775469,0.010069,0.0130726,0.0169709,0.0220304,0.028597,0.0371195,0.0481805,inf	0.239861,0.239861,0.239861,9.64008,0.248831,0.239861,0.239861,0.239861,0.239861,0.239861,0.239861,0.239861,0.239861,11.2848,8.56001,3.61716,2.90392,5.37451,40.3307,43.4689,39.4371,60.8113,281.35,1196.82,5902.41,56264.4,109287,8541.49,8541.49,90.985,90.985,90.985
0.000130644	-130610262.75	0,4.4351e-06,1.01913e-05,1.7662e-05,2.7358e-05,3.99421e-05,5.62746e-05,7.7472e-05,0.000104983,0.000140689,0.000187031,0.000247176,0.000325237,0.000426549,0.000558038,0.000728693,0.000950181,0.00123764,0.00161073,0.00209495,0.00272339,0.00353903,0.00459763,0.00597154,0.00775469,0.010069,0.0130726,0.0169709,0.0220304,0.028597,0.0371195,0.0481805,inf	0.239861,0.239861,0.239861,1.72252,0.245288,0.239861,0.239861,0.239861,0.239861,0.239861,0.239861,0.239861,0.239861,11.0666,7.56049,1.01724,0.874767,1.60871,25.7853,30.909,32.6674,43.835,265.163,1467.12,239300,56261.6,33.5005,13.2045,13.2045,26.4334,26.4334,26.4334
