0.00105875	-31830690.32	0,1.87289e-05,4.18947e-05,7.05485e-05,0.00010599,0.000149829,0.000204052,0.000271121,0.000354079,0.00045669,0.00058361,0.000740597,0.000934774,0.00117495,0.00147203,0.00183948,0.00229399,0.00285617,0.00355153,0.00441162,0.00547547,0.00679134,0.00841895,0.0104321,0.0129223,0.0160023,0.019812,0.0245242,0.0303528,0.0375621,0.0464794,0.0575092,inf	2.29055,2.29055,5.03635,8.10474,12.1227,17.5023,24.9057,35.408,50.8463,73.9697,104.967,123.007,109.275,101.192,110.015,128.889,150.715,176.481,216.881,272.771,314.304,318.692,304.359,287.202,272.195,260.193,250.778,242.086,242.086,231.932,231.932,231.932
0.000965307	-31748551.21	0,1.87289e-05,4.18947e-05,7.05485e-05,0.00010599,0.000149829,0.000204052,0.000271121,0.000354079,0.00045669,0.00058361,0.000740597,0.000934774,0.00117495,0.00147203,0.00183948,0.00229399,0.00285617,0.00355153,0.00441162,0.00547547,0.00679134,0.00841895,0.0104321,0.0129223,0.0160023,0.019812,0.0245242,0.0303528,0.0375621,0.0464794,0.0575092,inf	0.210817,0.210817,0.210817,0.317574,0.711122,1.48179,2.99988,6.06698,12.5575,27.0913,59.1451,93.1632,66.728,54.9372,66.6361,90.4229,116.49,147.077,202.641,298.967,397.928,425.121,403.953,370.306,338.814,313.435,293.701,275.61,275.61,253.689,253.689,253.689
0.000879582	-31711029.79	0,1.87289e-05,4.18947e-05,7.05485e-05,0.00010599,0.000149829,0.000204052,0.000271121,0.000354079,0.00045669,0.00058361,0.000740597,0.000934774,0.00117495,0.00147203,0.00183948,0.00229399,0.00285617,0.00355153,0.00441162,0.00547547,0.00679134,0.00841895,0.0104321,0.0129223,0.0160023,0.019812,0.0245242,0.0303528,0.0375621,0.0464794,0.0575092,inf	0.210817,0.210817,0.210817,0.210817,0.210817,0.210817,0.338515,0.966993,2.85045,9.01397,30.9223,76.6213,44.245,31.7428,44.5596,70.4203,96.3343,124.687,184.119,305.145,462.873,526.583,507.719,459.526,410.501,370.59,339.934,312.283,312.283,277.914,277.914,277.914
0.00079599	-31689761.86	0,1.87289e-05,4.18947e-05,7.05485e-05,0.00010599,0.000149829,0.000204052,0.000271121,0.000354079,0.00045669,0.00058361,0.000740597,0.000934774,0.00117495,0.00147203,0.00183948,0.00229399,0.00285617,0.00355153,0.00441162,0.00547547,0.00679134,0.00841895,0.0104321,0.0129223,0.0160023,0.019812,0.0245242,0.0303528,0.0375621,0.0464794,0.0575092,inf	0.210817,0.210817,0.210817,0.210817,0.210817,0.210817,0.210817,0.210817,0.589856,2.69159,14.4128,63.5385,31.7114,18.9784,31.9028,59.7514,84.6583,107.641,165.704,300.864,514.017,624.735,617.452,556.778,488.656,432.622,390.437,353.747,353.747,307.714,307.714,307.714
0.000713245	-31675193.42	0,1.87289e-05,4.18947e-05,7.05485e-05,0.00010599,0.000149829,0.000204052,0.000271121,0.000354079,0.00045669,0.00058361,0.000740597,0.000934774,0.00117495,0.00147203,0.00183948,0.00229399,0.00285617,0.00355153,0.00441162,0.00547547,0.00679134,0.00841895,0.0104321,0.0129223,0.0160023,0.019812,0.0245242,0.0303528,0.0375621,0.0464794,0.0575092,inf	0.210817,0.210817,0.210817,0.210817,0.210817,0.210817,0.210817,0.210817,0.210817,0.71944,5.94542,51.4999,24.7378,11.3352,23.5358,53.887,78.4368,94.2047,148.24,290.922,555.336,722.916,737.368,666.181,576.052,501.231,446.536,402.098,402.098,347.738,347.738,347.738
0.000631379	-31663462.44	0,1.87289e-05,4.18947e-05,7.05485e-05,0.00010599,0.000149829,0.000204052,0.000271121,0.000354079,0.00045669,0.00058361,0.000740597,0.000934774,0.00117495,0.00147203,0.00183948,0.00229399,0.00285617,0.00355153,0.00441162,0.00547547,0.00679134,0.00841895,0.0104321,0.0129223,0.0160023,0.019812,0.0245242,0.0303528,0.0375621,0.0464794,0.0575092,inf	0.210817,0.210817,0.210817,0.210817,0.210817,0.210817,0.210817,0.210817,0.210817,0.210817,2.15768,39.8225,20.8118,6.49189,17.1518,50.0705,75.9802,83.1394,131.685,277.79,589.602,825.311,874.557,795.16,677.678,579.538,510.435,460.362,460.362,407.272,407.272,407.272
0.000551046	-31652861.59	0,1.87289e-05,4.18947e-05,7.05485e-05,0.00010599,0.000149829,0.000204052,0.000271121,0.000354079,0.00045669,0.00058361,0.000740597,0.000934774,0.00117495,0.00147203,0.00183948,0.00229399,0.00285617,0.00355153,0.00441162,0.00547547,0.00679134,0.00841895,0.0104321,0.0129223,0.0160023,0.019812,0.0245242,0.0303528,0.0375621,0.0464794,0.0575092,inf	0.210817,0.210817,0.210817,0.210817,0.210817,0.210817,0.210817,0.210817,0.210817,0.210817,0.68398,28.6172,18.0851,3.42586,11.8643,46.2987,76.2849,73.6495,115.861,262.9,618.766,937.262,1041.3,957.894,803.29,674.301,587.025,534.061,534.061,505.178,505.178,505.178
0.000473331	-31642625.75	0,1.87289e-05,4.18947e-05,7.05485e-05,0.00010599,0.000149829,0.000204052,0.000271121,0.000354079,0.00045669,0.00058361,0.000740597,0.000934774,0.00117495,0.00147203,0.00183948,0.00229399,0.00285617,0.00355153,0.00441162,0.00547547,0.00679134,0.00841895,0.0104321,0.0129223,0.0160023,0.019812,0.0245242,0.0303528,0.0375621,0.0464794,0.0575092,inf	0.210817,0.210817,0.210817,0.210817,0.210817,0.210817,0.210817,0.210817,0.210817,0.210817,0.210817,18.6464,15.129,1.61199,7.52313,41.0707,78.4771,65.1885,100.563,246.975,644.335,1066.37,1261.53,1185.8,975.286,803.093,689.397,635.845,635.845,744,744,744
0.000399607	-31632455.93	0,1.87289e-05,4.18947e-05,7.05485e-05,0.00010599,0.000149829,0.000204052,0.000271121,0.000354079,0.00045669,0.00058361,0.000740597,0.000934774,0.00117495,0.00147203,0.00183948,0.00229399,0.00285617,0.00355153,0.00441162,0.00547547,0.00679134,0.00841895,0.0104321,0.0129223,0.0160023,0.019812,0.0245242,0.0303528,0.0375621,0.0464794,0.0575092,inf	0.210817,0.210817,0.210817,0.210817,0.210817,0.210817,0.210817,0.210817,0.210817,0.210817,0.210817,10.5616,11.1714,0.660458,4.24971,33.7157,81.4149,57.466,85.7048,230.499,667.652,1224.77,1591.52,1569.21,1262.34,1027.41,860.769,810.382,810.382,3099.8,3099.8,3099.8
0.000331283	-31622329.18	0,1.87289e-05,4.18947e-05,7.05485e-05,0.00010599,0.000149829,0.000204052,0.000271121,0.000354079,0.00045669,0.00058361,0.000740597,0.000934774,0.00117495,0.00147203,0.00183948,0.00229399,0.00285617,0.00355153,0.00441162,0.00547547,0.00679134,0.00841895,0.0104321,0.0129223,0.0160023,0.019812,0.0245242,0.0303528,0.0375621,0.0464794,0.0575092,inf	0.210817,0.210817,0.210817,0.210817,0.210817,0.210817,0.210817,0.210817,0.210817,0.210817,0.210817,4.80676,6.73935,0.232687,2.0941,24.7933,83.4125,50.461,71.3265,213.761,689.962,1434.3,2212.03,2533.04,2021.55,1719.91,1337.7,1313.63,1313.63,3099.8,3099.8,3099.8
0.000269476	-31612396.85	0,1.87289e-05,4.18947e-05,7.05485e-05,0.00010599,0.000149829,0.000204052,0.000271121,0.000354079,0.00045669,0.00058361,0.000740597,0.000934774,0.00117495,0.00147203,0.00183948,0.00229399,0.00285617,0.00355153,0.00441162,0.00547547,0.00679134,0.00841895,0.0104321,0.0129223,0.0160023,0.019812,0.0245242,0.0303528,0.0375621,0.0464794,0.0575092,inf	0.210817,0.210817,0.210817,0.210817,0.210817,0.210817,0.210817,0.210817,0.210817,0.210817,0.210817,1.6017,3.18748,0.210817,0.888662,15.9081,82.49,44.4351,57.5761,196.877,712.23,1740.41,4196.02,9207.08,7689.88,8427.57,5802.74,5231.84,5231.84,22904.6,22904.6,22904.6
0.000214671	-31602870.58	0,1.87289e-05,4.18947e-05,7.05485e-05,0.00010599,0.000149829,0.000204052,0.000271121,0.000354079,0.00045669,0.00058361,0.000740597,0.000934774,0.00117495,0.00147203,0.00183948,0.00229399,0.00285617,0.00355153,0.00441162,0.00547547,0.00679134,0.00841895,0.0104321,0.0129223,0.0160023,0.019812,0.0245242,0.0303528,0.0375621,0.0464794,0.0575092,inf	0.210817,0.210817,0.210817,0.210817,0.210817,0.210817,0.210817,0.210817,0.210817,0.210817,0.210817,0.317598,1.16115,0.210817,0.320687,8.73246,77.0559,39.7364,44.6392,179.764,734.626,2261.48,34501.3,261901,11.888,13.0283,8.97058,8.088,8.088,35.4087,35.4087,35.4087
