0.000718779	-4661940.42	0,1.05107e-05,2.75383e-05,5.51235e-05,9.98125e-05,0.00017221,0.000289496,0.000479504,0.000787322,0.001286,0.00209387,0.00340264,0.00552289,0.00895777,0.0145224,0.0235372,inf	366.112,366.112,403.73,380.797,351.916,343.418,334.601,336.125,359.903,395.008,421.716,420.405,396.397,361.938,361.938,361.938
0.00079623	-4660182.07	0,1.05107e-05,2.75383e-05,5.51235e-05,9.98125e-05,0.00017221,0.000289496,0.000479504,0.000787322,0.001286,0.00209387,0.00340264,0.00552289,0.00895777,0.0145224,0.0235372,inf	352.98,352.98,431.848,395.022,349.522,336.95,318.701,315.169,347.097,396.269,436.017,435.129,395.641,339.794,339.794,339.794
0.000868109	-4659002.10	0,1.05107e-05,2.75383e-05,5.51235e-05,9.98125e-05,0.00017221,0.000289496,0.000479504,0.000787322,0.001286,0.00209387,0.00340264,0.00552289,0.00895777,0.0145224,0.0235372,inf	334.489,334.489,449.805,405.194,352.373,340.272,314.768,305.82,341.382,396.689,443.001,443.006,393.38,324.057,324.057,324.057
0.000935225	-4658108.68	0,1.05107e-05,2.75383e-05,5.51235e-05,9.98125e-05,0.00017221,0.000289496,0.000479504,0.000787322,0.001286,0.00209387,0.00340264,0.00552289,0.00895777,0.0145224,0.0235372,inf	316.005,316.005,458.556,408.572,354.197,345.537,314.889,301.315,338.92,396.747,446.227,447.098,390.762,312.795,312.795,312.795
0.000998257	-4657395.44	0,1.05107e-05,2.75383e-05,5.51235e-05,9.98125e-05,0.00017221,0.000289496,0.000479504,0.000787322,0.001286,0.00209387,0.00340264,0.00552289,0.00895777,0.0145224,0.0235372,inf	301.164,301.164,462.516,407.297,354.371,350.682,316.46,299.155,338.18,396.699,447.468,449.033,388.258,304.671,304.671,304.671
0.00105771	-4656809.03	0,1.05107e-05,2.75383e-05,5.51235e-05,9.98125e-05,0.00017221,0.000289496,0.000479504,0.000787322,0.001286,0.00209387,0.00340264,0.00552289,0.00895777,0.0145224,0.0235372,inf	290.607,290.607,464.699,403.536,353.386,355.231,318.502,298.235,338.419,396.644,447.625,449.693,386.024,298.772,298.772,298.772
0.00111397	-4656317.56	0,1.05107e-05,2.75383e-05,5.51235e-05,9.98125e-05,0.00017221,0.000289496,0.000479504,0.000787322,0.001286,0.00209387,0.00340264,0.00552289,0.00895777,0.0145224,0.0235372,inf	283.667,283.667,466.607,398.699,351.785,359.164,320.617,298.001,339.23,396.608,447.172,449.57,384.083,294.468,294.468,294.468
0.00116734	-4655899.98	0,1.05107e-05,2.75383e-05,5.51235e-05,9.98125e-05,0.00017221,0.000289496,0.000479504,0.000787322,0.001286,0.00209387,0.00340264,0.00552289,0.00895777,0.0145224,0.0235372,inf	279.39,279.39,468.833,393.581,349.961,362.578,322.64,298.159,340.379,396.596,446.369,448.953,382.411,291.321,291.321,291.321
0.00121806	-4655541.43	0,1.05107e-05,2.75383e-05,5.51235e-05,9.98125e-05,0.00017221,0.000289496,0.000479504,0.000787322,0.001286,0.00209387,0.00340264,0.00552289,0.00895777,0.0145224,0.0235372,inf	276.922,276.922,471.524,388.584,348.162,365.587,324.511,298.54,341.723,396.605,445.369,448.019,380.966,289.024,289.024,289.024
0.00126635	-4655230.94	0,1.05107e-05,2.75383e-05,5.51235e-05,9.98125e-05,0.00017221,0.000289496,0.000479504,0.000787322,0.001286,0.00209387,0.00340264,0.00552289,0.00895777,0.0145224,0.0235372,inf	275.615,275.615,474.647,383.894,346.531,368.284,326.211,299.043,343.173,396.63,444.261,446.88,379.709,287.357,287.357,287.357
0.00131237	-4654960.21	0,1.05107e-05,2.75383e-05,5.51235e-05,9.98125e-05,0.00017221,0.000289496,0.000479504,0.000787322,0.001286,0.00209387,0.00340264,0.00552289,0.00895777,0.0145224,0.0235372,inf	275.013,275.013,478.099,379.573,345.138,370.743,327.742,299.609,344.675,396.667,443.101,445.609,378.604,286.163,286.163,286.163
0.0013563	-4654722.73	0,1.05107e-05,2.75383e-05,5.51235e-05,9.98125e-05,0.00017221,0.000289496,0.000479504,0.000787322,0.001286,0.00209387,0.00340264,0.00552289,0.00895777,0.0145224,0.0235372,inf	274.808,274.808,481.786,375.63,344.015,373.02,329.113,300.2,346.191,396.714,441.924,444.256,377.624,285.325,285.325,285.325
0.00139828	-4654513.36	0,1.05107e-05,2.75383e-05,5.51235e-05,9.98125e-05,0.00017221,0.000289496,0.000479504,0.000787322,0.001286,0.00209387,0.00340264,0.00552289,0.00895777,0.0145224,0.0235372,inf	274.813,274.813,485.589,372.036,343.164,375.155,330.338,300.794,347.699,396.767,440.753,442.856,376.744,284.757,284.757,284.757
0.00143842	-4654327.94	0,1.05107e-05,2.75383e-05,5.51235e-05,9.98125e-05,0.00017221,0.000289496,0.000479504,0.000787322,0.001286,0.00209387,0.00340264,0.00552289,0.00895777,0.0145224,0.0235372,inf	274.932,274.932,489.439,368.761,342.578,377.178,331.43,301.375,349.184,396.826,439.601,441.434,375.948,284.397,284.397,284.397
0.00147684	-4654163.08	0,1.05107e-05,2.75383e-05,5.51235e-05,9.98125e-05,0.00017221,0.000289496,0.000479504,0.000787322,0.001286,0.00209387,0.00340264,0.00552289,0.00895777,0.0145224,0.0235372,inf	275.081,275.081,493.282,365.763,342.239,379.109,332.403,301.935,350.638,396.89,438.478,440.008,375.22,284.195,284.195,284.195
0.00151366	-4654015.98	0,1.05107e-05,2.75383e-05,5.51235e-05,9.98125e-05,0.00017221,0.000289496,0.000479504,0.000787322,0.001286,0.00209387,0.00340264,0.00552289,0.00895777,0.0145224,0.0235372,inf	275.241,275.241,497.085,363.006,342.125,380.965,333.268,302.469,352.053,396.958,437.389,438.588,374.55,284.116,284.116,284.116
0.00154896	-4653884.31	0,1.05107e-05,2.75383e-05,5.51235e-05,9.98125e-05,0.00017221,0.000289496,0.000479504,0.000787322,0.001286,0.00209387,0.00340264,0.00552289,0.00895777,0.0145224,0.0235372,inf	275.395,275.395,500.791,360.456,342.213,382.755,334.037,302.974,353.427,397.028,436.338,437.186,373.93,284.13,284.13,284.13
0.00158283	-4653766.09	0,1.05107e-05,2.75383e-05,5.51235e-05,9.98125e-05,0.00017221,0.000289496,0.000479504,0.000787322,0.001286,0.00209387,0.00340264,0.00552289,0.00895777,0.0145224,0.0235372,inf	275.544,275.544,504.407,358.085,342.484,384.489,334.717,303.447,354.759,397.101,435.325,435.807,373.351,284.218,284.218,284.218
0.00161535	-4653659.68	0,1.05107e-05,2.75383e-05,5.51235e-05,9.98125e-05,0.00017221,0.000289496,0.000479504,0.000787322,0.001286,0.00209387,0.00340264,0.00552289,0.00895777,0.0145224,0.0235372,inf	275.68,275.68,507.9,355.864,342.914,386.172,335.32,303.89,356.047,397.177,434.353,434.455,372.81,284.36,284.36,284.36
0.0016466	-4653563.66	0,1.05107e-05,2.75383e-05,5.51235e-05,9.98125e-05,0.00017221,0.000289496,0.000479504,0.000787322,0.001286,0.00209387,0.00340264,0.00552289,0.00895777,0.0145224,0.0235372,inf	275.821,275.821,511.28,353.773,343.489,387.809,335.851,304.301,357.292,397.254,433.419,433.135,372.301,284.545,284.545,284.545
