time_index	left_time_boundary	right_time_boundary	lambda
0	0	1.94378e-06	397.996
1	1.94378e-06	4.55169e-06	397.996
2	4.55169e-06	8.05064e-06	397.996
3	8.05064e-06	1.27451e-05	397.996
4	1.27451e-05	1.90435e-05	397.996
5	1.90435e-05	2.74938e-05	397.996
6	2.74938e-05	3.88314e-05	397.996
7	3.88314e-05	5.40427e-05	397.996
8	5.40427e-05	7.44512e-05	397.996
9	7.44512e-05	0.000101833	397.996
10	0.000101833	0.00013857	397.996
11	0.00013857	0.000187858	397.996
12	0.000187858	0.000253988	397.996
13	0.000253988	0.000342711	397.996
14	0.000342711	0.000461749	397.996
15	0.000461749	0.000621459	397.996
16	0.000621459	0.000835736	397.996
17	0.000835736	0.00112323	397.996
18	0.00112323	0.00150894	397.996
19	0.00150894	0.00202644	397.996
20	0.00202644	0.00272076	397.996
21	0.00272076	0.00365231	397.996
22	0.00365231	0.00490214	397.996
23	0.00490214	0.00657899	397.996
24	0.00657899	0.00882878	397.996
25	0.00882878	0.0118472	397.996
26	0.0118472	0.015897	397.996
27	0.015897	0.0213305	397.996
28	0.0213305	0.0286204	397.996
29	0.0286204	inf	397.996
