0.000708974	-1860338.51	0,1.07623e-05,2.42642e-05,4.12032e-05,6.24541e-05,8.91146e-05,0.000122562,0.000164523,0.000217166,0.00028321,0.000366066,0.000470013,0.000600421,0.000764026,0.000969277,0.00122678,0.00154983,0.00195511,0.00246356,0.00310144,0.0039017,0.00490567,0.00616521,0.00774538,0.0097278,0.0122149,0.015335,0.0192494,0.0241603,0.0303212,inf	410.294,410.294,410.294,410.294,410.294,410.294,410.294,410.294,410.294,410.294,410.294,410.294,410.294,410.294,410.294,410.294,410.294,410.294,410.294,410.294,410.294,410.294,410.294,410.294,410.294,410.294,410.294,410.294,410.294,410.294
0.000778165	-1859822.79	0,1.07623e-05,2.42642e-05,4.12032e-05,6.24541e-05,8.91146e-05,0.000122562,0.000164523,0.000217166,0.00028321,0.000366066,0.000470013,0.000600421,0.000764026,0.000969277,0.00122678,0.00154983,0.00195511,0.00246356,0.00310144,0.0039017,0.00490567,0.00616521,0.00774538,0.0097278,0.0122149,0.015335,0.0192494,0.0241603,0.0303212,inf	416.711,416.711,416.711,416.711,416.711,416.711,416.711,416.711,416.711,416.711,416.711,416.711,416.711,416.711,416.711,416.711,416.711,416.711,416.711,416.711,416.711,416.711,416.711,416.711,416.711,416.711,416.711,416.711,416.711,416.711
0.000843146	-1859425.04	0,1.07623e-05,2.42642e-05,4.12032e-05,6.24541e-05,8.91146e-05,0.000122562,0.000164523,0.000217166,0.00028321,0.000366066,0.000470013,0.000600421,0.000764026,0.000969277,0.00122678,0.00154983,0.00195511,0.00246356,0.00310144,0.0039017,0.00490567,0.00616521,0.00774538,0.0097278,0.0122149,0.015335,0.0192494,0.0241603,0.0303212,inf	418.885,418.885,418.885,418.885,418.885,418.885,418.885,418.885,418.885,418.885,418.885,418.885,418.885,418.885,418.885,418.885,418.885,418.885,418.885,418.885,418.885,418.885,418.885,418.885,418.885,418.885,418.885,418.885,418.885,418.885
0.000904799	-1859095.27	0,1.07623e-05,2.42642e-05,4.12032e-05,6.24541e-05,8.91146e-05,0.000122562,0.000164523,0.000217166,0.00028321,0.000366066,0.000470013,0.000600421,0.000764026,0.000969277,0.00122678,0.00154983,0.00195511,0.00246356,0.00310144,0.0039017,0.00490567,0.00616521,0.00774538,0.0097278,0.0122149,0.015335,0.0192494,0.0241603,0.0303212,inf	419.222,419.222,419.222,419.222,419.222,419.222,419.222,419.222,419.222,419.222,419.222,419.222,419.222,419.222,419.222,419.222,419.222,419.222,419.222,419.222,419.222,419.222,419.222,419.222,419.222,419.222,419.222,419.222,419.222,419.222
0.000963641	-1858814.89	0,1.07623e-05,2.42642e-05,4.12032e-05,6.24541e-05,8.91146e-05,0.000122562,0.000164523,0.000217166,0.00028321,0.000366066,0.000470013,0.000600421,0.000764026,0.000969277,0.00122678,0.00154983,0.00195511,0.00246356,0.00310144,0.0039017,0.00490567,0.00616521,0.00774538,0.0097278,0.0122149,0.015335,0.0192494,0.0241603,0.0303212,inf	418.773,418.773,418.773,418.773,418.773,418.773,418.773,418.773,418.773,418.773,418.773,418.773,418.773,418.773,418.773,418.773,418.773,418.773,418.773,418.773,418.773,418.773,418.773,418.773,418.773,418.773,418.773,418.773,418.773,418.773
0.00101999	-1858573.64	0,1.07623e-05,2.42642e-05,4.12032e-05,6.24541e-05,8.91146e-05,0.000122562,0.000164523,0.000217166,0.00028321,0.000366066,0.000470013,0.000600421,0.000764026,0.000969277,0.00122678,0.00154983,0.00195511,0.00246356,0.00310144,0.0039017,0.00490567,0.00616521,0.00774538,0.0097278,0.0122149,0.015335,0.0192494,0.0241603,0.0303212,inf	418.001,418.001,418.001,418.001,418.001,418.001,418.001,418.001,418.001,418.001,418.001,418.001,418.001,418.001,418.001,418.001,418.001,418.001,418.001,418.001,418.001,418.001,418.001,418.001,418.001,418.001,418.001,418.001,418.001,418.001
0.00107407	-1858364.40	0,1.07623e-05,2.42642e-05,4.12032e-05,6.24541e-05,8.91146e-05,0.000122562,0.000164523,0.000217166,0.00028321,0.000366066,0.000470013,0.000600421,0.000764026,0.000969277,0.00122678,0.00154983,0.00195511,0.00246356,0.00310144,0.0039017,0.00490567,0.00616521,0.00774538,0.0097278,0.0122149,0.015335,0.0192494,0.0241603,0.0303212,inf	417.112,417.112,417.112,417.112,417.112,417.112,417.112,417.112,417.112,417.112,417.112,417.112,417.112,417.112,417.112,417.112,417.112,417.112,417.112,417.112,417.112,417.112,417.112,417.112,417.112,417.112,417.112,417.112,417.112,417.112
0.00112603	-1858181.73	0,1.07623e-05,2.42642e-05,4.12032e-05,6.24541e-05,8.91146e-05,0.000122562,0.000164523,0.000217166,0.00028321,0.000366066,0.000470013,0.000600421,0.000764026,0.000969277,0.00122678,0.00154983,0.00195511,0.00246356,0.00310144,0.0039017,0.00490567,0.00616521,0.00774538,0.0097278,0.0122149,0.015335,0.0192494,0.0241603,0.0303212,inf	416.198,416.198,416.198,416.198,416.198,416.198,416.198,416.198,416.198,416.198,416.198,416.198,416.198,416.198,416.198,416.198,416.198,416.198,416.198,416.198,416.198,416.198,416.198,416.198,416.198,416.198,416.198,416.198,416.198,416.198
0.001176	-1858021.36	0,1.07623e-05,2.42642e-05,4.12032e-05,6.24541e-05,8.91146e-05,0.000122562,0.000164523,0.000217166,0.00028321,0.000366066,0.000470013,0.000600421,0.000764026,0.000969277,0.00122678,0.00154983,0.00195511,0.00246356,0.00310144,0.0039017,0.00490567,0.00616521,0.00774538,0.0097278,0.0122149,0.015335,0.0192494,0.0241603,0.0303212,inf	415.299,415.299,415.299,415.299,415.299,415.299,415.299,415.299,415.299,415.299,415.299,415.299,415.299,415.299,415.299,415.299,415.299,415.299,415.299,415.299,415.299,415.299,415.299,415.299,415.299,415.299,415.299,415.299,415.299,415.299
0.0012241	-1857879.87	0,1.07623e-05,2.42642e-05,4.12032e-05,6.24541e-05,8.91146e-05,0.000122562,0.000164523,0.000217166,0.00028321,0.000366066,0.000470013,0.000600421,0.000764026,0.000969277,0.00122678,0.00154983,0.00195511,0.00246356,0.00310144,0.0039017,0.00490567,0.00616521,0.00774538,0.0097278,0.0122149,0.015335,0.0192494,0.0241603,0.0303212,inf	414.433,414.433,414.433,414.433,414.433,414.433,414.433,414.433,414.433,414.433,414.433,414.433,414.433,414.433,414.433,414.433,414.433,414.433,414.433,414.433,414.433,414.433,414.433,414.433,414.433,414.433,414.433,414.433,414.433,414.433
0.00127042	-1857754.47	0,1.07623e-05,2.42642e-05,4.12032e-05,6.24541e-05,8.91146e-05,0.000122562,0.000164523,0.000217166,0.00028321,0.000366066,0.000470013,0.000600421,0.000764026,0.000969277,0.00122678,0.00154983,0.00195511,0.00246356,0.00310144,0.0039017,0.00490567,0.00616521,0.00774538,0.0097278,0.0122149,0.015335,0.0192494,0.0241603,0.0303212,inf	413.606,413.606,413.606,413.606,413.606,413.606,413.606,413.606,413.606,413.606,413.606,413.606,413.606,413.606,413.606,413.606,413.606,413.606,413.606,413.606,413.606,413.606,413.606,413.606,413.606,413.606,413.606,413.606,413.606,413.606
0.00131505	-1857642.88	0,1.07623e-05,2.42642e-05,4.12032e-05,6.24541e-05,8.91146e-05,0.000122562,0.000164523,0.000217166,0.00028321,0.000366066,0.000470013,0.000600421,0.000764026,0.000969277,0.00122678,0.00154983,0.00195511,0.00246356,0.00310144,0.0039017,0.00490567,0.00616521,0.00774538,0.0097278,0.0122149,0.015335,0.0192494,0.0241603,0.0303212,inf	412.82,412.82,412.82,412.82,412.82,412.82,412.82,412.82,412.82,412.82,412.82,412.82,412.82,412.82,412.82,412.82,412.82,412.82,412.82,412.82,412.82,412.82,412.82,412.82,412.82,412.82,412.82,412.82,412.82,412.82
0.00135809	-1857543.22	0,1.07623e-05,2.42642e-05,4.12032e-05,6.24541e-05,8.91146e-05,0.000122562,0.000164523,0.000217166,0.00028321,0.000366066,0.000470013,0.000600421,0.000764026,0.000969277,0.00122678,0.00154983,0.00195511,0.00246356,0.00310144,0.0039017,0.00490567,0.00616521,0.00774538,0.0097278,0.0122149,0.015335,0.0192494,0.0241603,0.0303212,inf	412.074,412.074,412.074,412.074,412.074,412.074,412.074,412.074,412.074,412.074,412.074,412.074,412.074,412.074,412.074,412.074,412.074,412.074,412.074,412.074,412.074,412.074,412.074,412.074,412.074,412.074,412.074,412.074,412.074,412.074
0.00139959	-1857453.91	0,1.07623e-05,2.42642e-05,4.12032e-05,6.24541e-05,8.91146e-05,0.000122562,0.000164523,0.000217166,0.00028321,0.000366066,0.000470013,0.000600421,0.000764026,0.000969277,0.00122678,0.00154983,0.00195511,0.00246356,0.00310144,0.0039017,0.00490567,0.00616521,0.00774538,0.0097278,0.0122149,0.015335,0.0192494,0.0241603,0.0303212,inf	411.366,411.366,411.366,411.366,411.366,411.366,411.366,411.366,411.366,411.366,411.366,411.366,411.366,411.366,411.366,411.366,411.366,411.366,411.366,411.366,411.366,411.366,411.366,411.366,411.366,411.366,411.366,411.366,411.366,411.366
0.00143965	-1857373.64	0,1.07623e-05,2.42642e-05,4.12032e-05,6.24541e-05,8.91146e-05,0.000122562,0.000164523,0.000217166,0.00028321,0.000366066,0.000470013,0.000600421,0.000764026,0.000969277,0.00122678,0.00154983,0.00195511,0.00246356,0.00310144,0.0039017,0.00490567,0.00616521,0.00774538,0.0097278,0.0122149,0.015335,0.0192494,0.0241603,0.0303212,inf	410.694,410.694,410.694,410.694,410.694,410.694,410.694,410.694,410.694,410.694,410.694,410.694,410.694,410.694,410.694,410.694,410.694,410.694,410.694,410.694,410.694,410.694,410.694,410.694,410.694,410.694,410.694,410.694,410.694,410.694
0.00147831	-1857301.28	0,1.07623e-05,2.42642e-05,4.12032e-05,6.24541e-05,8.91146e-05,0.000122562,0.000164523,0.000217166,0.00028321,0.000366066,0.000470013,0.000600421,0.000764026,0.000969277,0.00122678,0.00154983,0.00195511,0.00246356,0.00310144,0.0039017,0.00490567,0.00616521,0.00774538,0.0097278,0.0122149,0.015335,0.0192494,0.0241603,0.0303212,inf	410.056,410.056,410.056,410.056,410.056,410.056,410.056,410.056,410.056,410.056,410.056,410.056,410.056,410.056,410.056,410.056,410.056,410.056,410.056,410.056,410.056,410.056,410.056,410.056,410.056,410.056,410.056,410.056,410.056,410.056
0.00151566	-1857235.90	0,1.07623e-05,2.42642e-05,4.12032e-05,6.24541e-05,8.91146e-05,0.000122562,0.000164523,0.000217166,0.00028321,0.000366066,0.000470013,0.000600421,0.000764026,0.000969277,0.00122678,0.00154983,0.00195511,0.00246356,0.00310144,0.0039017,0.00490567,0.00616521,0.00774538,0.0097278,0.0122149,0.015335,0.0192494,0.0241603,0.0303212,inf	409.45,409.45,409.45,409.45,409.45,409.45,409.45,409.45,409.45,409.45,409.45,409.45,409.45,409.45,409.45,409.45,409.45,409.45,409.45,409.45,409.45,409.45,409.45,409.45,409.45,409.45,409.45,409.45,409.45,409.45
0.00155174	-1857176.68	0,1.07623e-05,2.42642e-05,4.12032e-05,6.24541e-05,8.91146e-05,0.000122562,0.000164523,0.000217166,0.00028321,0.000366066,0.000470013,0.000600421,0.000764026,0.000969277,0.00122678,0.00154983,0.00195511,0.00246356,0.00310144,0.0039017,0.00490567,0.00616521,0.00774538,0.0097278,0.0122149,0.015335,0.0192494,0.0241603,0.0303212,inf	408.873,408.873,408.873,408.873,408.873,408.873,408.873,408.873,408.873,408.873,408.873,408.873,408.873,408.873,408.873,408.873,408.873,408.873,408.873,408.873,408.873,408.873,408.873,408.873,408.873,408.873,408.873,408.873,408.873,408.873
0.00158661	-1857122.91	0,1.07623e-05,2.42642e-05,4.12032e-05,6.24541e-05,8.91146e-05,0.000122562,0.000164523,0.000217166,0.00028321,0.000366066,0.000470013,0.000600421,0.000764026,0.000969277,0.00122678,0.00154983,0.00195511,0.00246356,0.00310144,0.0039017,0.00490567,0.00616521,0.00774538,0.0097278,0.0122149,0.015335,0.0192494,0.0241603,0.0303212,inf	408.325,408.325,408.325,408.325,408.325,408.325,408.325,408.325,408.325,408.325,408.325,408.325,408.325,408.325,408.325,408.325,408.325,408.325,408.325,408.325,408.325,408.325,408.325,408.325,408.325,408.325,408.325,408.325,408.325,408.325
0.00162033	-1857074.01	0,1.07623e-05,2.42642e-05,4.12032e-05,6.24541e-05,8.91146e-05,0.000122562,0.000164523,0.000217166,0.00028321,0.000366066,0.000470013,0.000600421,0.000764026,0.000969277,0.00122678,0.00154983,0.00195511,0.00246356,0.00310144,0.0039017,0.00490567,0.00616521,0.00774538,0.0097278,0.0122149,0.015335,0.0192494,0.0241603,0.0303212,inf	407.802,407.802,407.802,407.802,407.802,407.802,407.802,407.802,407.802,407.802,407.802,407.802,407.802,407.802,407.802,407.802,407.802,407.802,407.802,407.802,407.802,407.802,407.802,407.802,407.802,407.802,407.802,407.802,407.802,407.802
