time_index	left_time_boundary	right_time_boundary	lambda
0	0	1.80485e-06	8.92302
1	1.80485e-06	4.18228e-06	8.92302
2	4.18228e-06	7.31394e-06	664.392
3	7.31394e-06	1.14391e-05	916.91
4	1.14391e-05	1.6873e-05	727.109
5	1.6873e-05	2.40308e-05	656.92
6	2.40308e-05	3.34594e-05	631.142
7	3.34594e-05	4.58792e-05	683.67
8	4.58792e-05	6.22391e-05	743.972
9	6.22391e-05	8.37893e-05	774.098
10	8.37893e-05	0.000112176	748.065
11	0.000112176	0.000149569	676.016
12	0.000149569	0.000198824	598.73
13	0.000198824	0.000263705	535.201
14	0.000263705	0.000349171	483.234
15	0.000349171	0.000461749	439.276
16	0.000461749	0.000610043	403.359
17	0.000610043	0.000805384	376.174
18	0.000805384	0.0010627	357.284
19	0.0010627	0.00140164	345.293
20	0.00140164	0.00184811	338.647
21	0.00184811	0.00243623	336.108
22	0.00243623	0.00321092	336.843
23	0.00321092	0.00423139	340.203
24	0.00423139	0.00557559	345.472
25	0.00557559	0.00734625	351.84
26	0.00734625	0.00967864	358.642
27	0.00967864	0.012751	367.506
28	0.012751	0.016798	367.506
29	0.016798	0.022129	381.458
30	0.022129	0.0291512	381.458
31	0.0291512	inf	381.458
