time_index	left_time_boundary	right_time_boundary	lambda
0	0	6.24524e-06	11.4386
1	6.24524e-06	1.67651e-05	11.4386
2	1.67651e-05	3.44853e-05	669.2
3	3.44853e-05	6.43342e-05	330.032
4	6.43342e-05	0.000114613	390.033
5	0.000114613	0.000199306	375.279
6	0.000199306	0.000341968	340.687
7	0.000341968	0.000582275	314.305
8	0.000582275	0.000987061	321.312
9	0.000987061	0.00166891	374.264
10	0.00166891	0.00281744	398.707
11	0.00281744	0.0047521	462.403
12	0.0047521	0.00801095	397.512
13	0.00801095	0.0135003	326.311
14	0.0135003	0.0227469	326.311
15	0.0227469	inf	326.311
