0.010102	-14072621.38	0,1.80485e-06,4.18228e-06,7.31394e-06,1.14391e-05,1.6873e-05,2.40308e-05,3.34594e-05,4.58792e-05,6.22391e-05,8.37893e-05,0.000112176,0.000149569,0.000198824,0.000263705,0.000349171,0.000461749,0.000610043,0.000805384,0.0010627,0.00140164,0.00184811,0.00243623,0.00321092,0.00423139,0.00557559,0.00734625,0.00967864,0.012751,0.016798,0.022129,0.0291512,inf	519.382,519.382,758.394,779.637,763.61,735.078,697.213,652.37,600.86,548.747,500.817,461.212,431.926,411.881,398.668,390.166,384.893,381.839,380.295,379.767,379.924,380.551,381.502,382.646,383.845,384.974,385.969,387.044,387.044,388.258,388.258,388.258
0.00998045	-14069504.27	0,1.80485e-06,4.18228e-06,7.31394e-06,1.14391e-05,1.6873e-05,2.40308e-05,3.34594e-05,4.58792e-05,6.22391e-05,8.37893e-05,0.000112176,0.000149569,0.000198824,0.000263705,0.000349171,0.000461749,0.000610043,0.000805384,0.0010627,0.00140164,0.00184811,0.00243623,0.00321092,0.00423139,0.00557559,0.00734625,0.00967864,0.012751,0.016798,0.022129,0.0291512,inf	391,391,837.084,919.758,931.149,918.748,883.453,827.203,749.397,663.551,581.361,512.63,461.88,427.218,404.305,389.455,380.16,374.721,371.938,370.957,371.198,372.283,373.959,376.001,378.164,380.222,382.05,384.045,384.045,386.34,386.34,386.34
0.00987148	-14067753.29	0,1.80485e-06,4.18228e-06,7.31394e-06,1.14391e-05,1.6873e-05,2.40308e-05,3.34594e-05,4.58792e-05,6.22391e-05,8.37893e-05,0.000112176,0.000149569,0.000198824,0.000263705,0.000349171,0.000461749,0.000610043,0.000805384,0.0010627,0.00140164,0.00184811,0.00243623,0.00321092,0.00423139,0.00557559,0.00734625,0.00967864,0.012751,0.016798,0.022129,0.0291512,inf	259.272,259.272,785.902,909.29,949.914,970.53,962.933,923.03,844.082,743.854,640.905,551.998,485.58,439.944,409.537,389.605,376.962,369.448,365.509,364.022,364.211,365.568,367.754,370.473,373.396,376.21,378.736,381.521,381.521,384.788,384.788,384.788
0.00977239	-14066628.07	0,1.80485e-06,4.18228e-06,7.31394e-06,1.14391e-05,1.6873e-05,2.40308e-05,3.34594e-05,4.58792e-05,6.22391e-05,8.37893e-05,0.000112176,0.000149569,0.000198824,0.000263705,0.000349171,0.000461749,0.000610043,0.000805384,0.0010627,0.00140164,0.00184811,0.00243623,0.00321092,0.00423139,0.00557559,0.00734625,0.00967864,0.012751,0.016798,0.022129,0.0291512,inf	175.042,175.042,720.96,855.763,906.911,953.296,976.656,964.648,899.797,799.113,685.782,583.503,505.615,451.524,415.076,390.862,375.265,365.823,360.733,358.659,358.663,360.129,362.646,365.861,369.377,372.808,375.92,379.387,379.387,383.538,383.538,383.538
0.00968106	-14065836.45	0,1.80485e-06,4.18228e-06,7.31394e-06,1.14391e-05,1.6873e-05,2.40308e-05,3.34594e-05,4.58792e-05,6.22391e-05,8.37893e-05,0.000112176,0.000149569,0.000198824,0.000263705,0.000349171,0.000461749,0.000610043,0.000805384,0.0010627,0.00140164,0.00184811,0.00243623,0.00321092,0.00423139,0.00557559,0.00734625,0.00967864,0.012751,0.016798,0.022129,0.0291512,inf	125.365,125.365,676.817,805.515,849.933,908.795,956.078,972.665,928.679,836.144,719.825,609.281,523.089,462.418,421.004,393.081,374.805,363.533,357.283,354.551,354.264,355.712,358.421,361.989,365.966,369.902,373.511,377.575,377.575,382.537,382.537,382.537
0.00959586	-14065241.54	0,1.80485e-06,4.18228e-06,7.31394e-06,1.14391e-05,1.6873e-05,2.40308e-05,3.34594e-05,4.58792e-05,6.22391e-05,8.37893e-05,0.000112176,0.000149569,0.000198824,0.000263705,0.000349171,0.000461749,0.000610043,0.000805384,0.0010627,0.00140164,0.00184811,0.00243623,0.00321092,0.00423139,0.00557559,0.00734625,0.00967864,0.012751,0.016798,0.022129,0.0291512,inf	95.3179,95.3179,656.131,771.312,798.15,858.261,920.17,961.048,939.338,859.615,745.375,630.422,538.421,472.677,427.166,396.009,375.285,362.269,354.861,351.425,350.771,352.105,354.901,358.714,363.05,367.4,371.435,376.026,376.026,381.744,381.744,381.744
0.00951552	-14064769.87	0,1.80485e-06,4.18228e-06,7.31394e-06,1.14391e-05,1.6873e-05,2.40308e-05,3.34594e-05,4.58792e-05,6.22391e-05,8.37893e-05,0.000112176,0.000149569,0.000198824,0.000263705,0.000349171,0.000461749,0.000610043,0.000805384,0.0010627,0.00140164,0.00184811,0.00243623,0.00321092,0.00423139,0.00557559,0.00734625,0.00967864,0.012751,0.016798,0.022129,0.0291512,inf	75.9421,75.9421,653.418,753.489,757.128,811,879.399,938.726,937.805,872.878,764.029,647.574,551.774,482.224,433.37,399.4,376.442,361.775,353.228,349.063,347.991,349.144,351.947,355.924,360.536,365.231,369.633,374.696,374.696,381.124,381.124,381.124
0.00943908	-14064378.65	0,1.80485e-06,4.18228e-06,7.31394e-06,1.14391e-05,1.6873e-05,2.40308e-05,3.34594e-05,4.58792e-05,6.22391e-05,8.37893e-05,0.000112176,0.000149569,0.000198824,0.000263705,0.000349171,0.000461749,0.000610043,0.000805384,0.0010627,0.00140164,0.00184811,0.00243623,0.00321092,0.00423139,0.00557559,0.00734625,0.00967864,0.012751,0.016798,0.022129,0.0291512,inf	62.4156,62.4156,662.335,748.828,727.146,770.439,839.199,911.304,928.335,878.473,777.018,661.216,563.243,490.97,439.446,403.052,378.07,361.85,352.197,347.296,345.775,346.699,349.453,353.528,358.354,363.336,368.059,373.549,373.549,380.651,380.651,380.651
0.00936579	-14064041.73	0,1.80485e-06,4.18228e-06,7.31394e-06,1.14391e-05,1.6873e-05,2.40308e-05,3.34594e-05,4.58792e-05,6.22391e-05,8.37893e-05,0.000112176,0.000149569,0.000198824,0.000263705,0.000349171,0.000461749,0.000610043,0.000805384,0.0010627,0.00140164,0.00184811,0.00243623,0.00321092,0.00423139,0.00557559,0.00734625,0.00967864,0.012751,0.016798,0.022129,0.0291512,inf	52.2453,52.2453,677.42,753.794,706.639,737.243,802.187,882.247,913.963,878.394,785.374,671.768,572.929,498.86,445.269,406.814,380.012,362.341,351.626,345.994,344.007,344.672,347.333,351.458,356.449,361.672,366.678,372.557,372.557,380.304,380.304,380.304
0.00929509	-14063742.50	0,1.80485e-06,4.18228e-06,7.31394e-06,1.14391e-05,1.6873e-05,2.40308e-05,3.34594e-05,4.58792e-05,6.22391e-05,8.37893e-05,0.000112176,0.000149569,0.000198824,0.000263705,0.000349171,0.000461749,0.000610043,0.000805384,0.0010627,0.00140164,0.00184811,0.00243623,0.00321092,0.00423139,0.00557559,0.00734625,0.00967864,0.012751,0.016798,0.022129,0.0291512,inf	44.1834,44.1834,694.41,765.296,693.854,711.014,769.44,853.625,896.831,874.206,789.977,679.622,580.945,505.87,450.752,410.576,382.15,363.135,351.406,345.061,342.601,342.984,345.523,349.66,354.775,360.203,365.459,371.696,371.696,380.065,380.065,380.065
0.00922653	-14063470.07	0,1.80485e-06,4.18228e-06,7.31394e-06,1.14391e-05,1.6873e-05,2.40308e-05,3.34594e-05,4.58792e-05,6.22391e-05,8.37893e-05,0.000112176,0.000149569,0.000198824,0.000263705,0.000349171,0.000461749,0.000610043,0.000805384,0.0010627,0.00140164,0.00184811,0.00243623,0.00321092,0.00423139,0.00557559,0.00734625,0.00967864,0.012751,0.016798,0.022129,0.0291512,inf	37.5138,37.5138,710.161,780.917,687.01,690.843,741.17,826.606,878.424,867.138,791.589,685.15,587.427,512.007,455.843,414.259,384.398,364.145,351.457,344.419,341.487,341.577,343.97,348.091,353.297,358.899,364.38,370.949,370.949,379.92,379.92,379.92
0.00915976	-14063217.06	0,1.80485e-06,4.18228e-06,7.31394e-06,1.14391e-05,1.6873e-05,2.40308e-05,3.34594e-05,4.58792e-05,6.22391e-05,8.37893e-05,0.000112176,0.000149569,0.000198824,0.000263705,0.000349171,0.000461749,0.000610043,0.000805384,0.0010627,0.00140164,0.00184811,0.00243623,0.00321092,0.00423139,0.00557559,0.00734625,0.00967864,0.012751,0.016798,0.022129,0.0291512,inf	31.874,31.874,722.608,798.848,684.656,675.853,717.21,801.79,859.753,858.142,790.849,688.693,592.514,517.298,460.512,417.81,386.695,365.307,351.716,344.011,340.614,340.403,342.634,346.716,351.988,357.737,363.421,370.301,370.301,379.858,379.858,379.858
0.00909451	-14062978.39	0,1.80485e-06,4.18228e-06,7.31394e-06,1.14391e-05,1.6873e-05,2.40308e-05,3.34594e-05,4.58792e-05,6.22391e-05,8.37893e-05,0.000112176,0.000149569,0.000198824,0.000263705,0.000349171,0.000461749,0.000610043,0.000805384,0.0010627,0.00140164,0.00184811,0.00243623,0.00321092,0.00423139,0.00557559,0.00734625,0.00967864,0.012751,0.016798,0.022129,0.0291512,inf	27.1001,27.1001,730.537,817.544,685.661,665.17,697.191,779.434,841.495,847.945,788.296,690.56,596.349,521.786,464.749,421.195,388.994,366.573,352.135,343.791,339.939,339.424,341.483,345.507,350.824,356.699,362.567,369.738,369.738,379.869,379.869,379.869
0.00903055	-14062750.43	0,1.80485e-06,4.18228e-06,7.31394e-06,1.14391e-05,1.6873e-05,2.40308e-05,3.34594e-05,4.58792e-05,6.22391e-05,8.37893e-05,0.000112176,0.000149569,0.000198824,0.000263705,0.000349171,0.000461749,0.000610043,0.000805384,0.0010627,0.00140164,0.00184811,0.00243623,0.00321092,0.00423139,0.00557559,0.00734625,0.00967864,0.012751,0.016798,0.022129,0.0291512,inf	23.0377,23.0377,733.456,836.072,689.086,657.979,680.651,759.546,824.063,837.087,784.372,691.03,599.072,525.52,468.556,424.391,391.263,367.906,352.677,343.724,339.429,338.611,340.488,344.442,349.786,355.769,361.804,369.251,369.251,379.945,379.945,379.945
0.00896771	-14062530.58	0,1.80485e-06,4.18228e-06,7.31394e-06,1.14391e-05,1.6873e-05,2.40308e-05,3.34594e-05,4.58792e-05,6.22391e-05,8.37893e-05,0.000112176,0.000149569,0.000198824,0.000263705,0.000349171,0.000461749,0.000610043,0.000805384,0.0010627,0.00140164,0.00184811,0.00243623,0.00321092,0.00423139,0.00557559,0.00734625,0.00967864,0.012751,0.016798,0.022129,0.0291512,inf	19.5766,19.5766,731.377,853.716,694.19,653.623,667.151,742.044,807.703,825.974,779.443,690.346,600.813,528.556,471.944,427.385,393.48,369.28,353.315,343.782,339.058,337.94,339.63,343.502,348.858,354.933,361.122,368.83,368.83,380.08,380.08,380.08
0.00890585	-14062316.91	0,1.80485e-06,4.18228e-06,7.31394e-06,1.14391e-05,1.6873e-05,2.40308e-05,3.34594e-05,4.58792e-05,6.22391e-05,8.37893e-05,0.000112176,0.000149569,0.000198824,0.000263705,0.000349171,0.000461749,0.000610043,0.000805384,0.0010627,0.00140164,0.00184811,0.00243623,0.00321092,0.00423139,0.00557559,0.00734625,0.00967864,0.012751,0.016798,0.022129,0.0291512,inf	16.6493,16.6493,724.653,869.952,700.343,651.52,656.227,726.754,792.539,814.892,773.797,688.718,601.696,530.952,474.928,430.172,395.627,370.673,354.025,343.943,338.803,337.389,338.89,342.67,348.027,354.181,360.511,368.47,368.47,380.268,380.268,380.268
0.00884483	-14062108.01	0,1.80485e-06,4.18228e-06,7.31394e-06,1.14391e-05,1.6873e-05,2.40308e-05,3.34594e-05,4.58792e-05,6.22391e-05,8.37893e-05,0.000112176,0.000149569,0.000198824,0.000263705,0.000349171,0.000461749,0.000610043,0.000805384,0.0010627,0.00140164,0.00184811,0.00243623,0.00321092,0.00423139,0.00557559,0.00734625,0.00967864,0.012751,0.016798,0.022129,0.0291512,inf	14.1851,14.1851,713.907,884.517,707.073,651.186,647.503,713.483,778.609,804.046,767.67,686.328,601.835,532.761,477.528,432.752,397.695,372.069,354.789,344.187,338.648,336.943,338.253,341.935,347.281,353.503,359.964,368.162,368.162,380.504,380.504,380.504
0.00878457	-14061902.78	0,1.80485e-06,4.18228e-06,7.31394e-06,1.14391e-05,1.6873e-05,2.40308e-05,3.34594e-05,4.58792e-05,6.22391e-05,8.37893e-05,0.000112176,0.000149569,0.000198824,0.000263705,0.000349171,0.000461749,0.000610043,0.000805384,0.0010627,0.00140164,0.00184811,0.00243623,0.00321092,0.00423139,0.00557559,0.00734625,0.00967864,0.012751,0.016798,0.022129,0.0291512,inf	12.1203,12.1203,699.833,897.233,713.947,652.19,640.603,702.015,765.906,793.575,761.246,683.33,601.327,534.04,479.764,435.125,399.675,373.457,355.594,344.501,338.578,336.588,337.706,341.285,346.612,352.892,359.474,367.902,367.902,380.783,380.783,380.783
0.00872498	-14061700.40	0,1.80485e-06,4.18228e-06,7.31394e-06,1.14391e-05,1.6873e-05,2.40308e-05,3.34594e-05,4.58792e-05,6.22391e-05,8.37893e-05,0.000112176,0.000149569,0.000198824,0.000263705,0.000349171,0.000461749,0.000610043,0.000805384,0.0010627,0.00140164,0.00184811,0.00243623,0.00321092,0.00423139,0.00557559,0.00734625,0.00967864,0.012751,0.016798,0.022129,0.0291512,inf	10.3879,10.3879,683.1,908.037,720.719,654.199,635.243,692.142,754.382,783.573,754.674,679.856,600.265,534.837,481.658,437.298,401.564,374.828,356.428,344.873,338.581,336.313,337.239,340.71,346.011,352.339,359.035,367.684,367.684,381.102,381.102,381.102
0.00866599	-14061500.25	0,1.80485e-06,4.18228e-06,7.31394e-06,1.14391e-05,1.6873e-05,2.40308e-05,3.34594e-05,4.58792e-05,6.22391e-05,8.37893e-05,0.000112176,0.000149569,0.000198824,0.000263705,0.000349171,0.000461749,0.000610043,0.000805384,0.0010627,0.00140164,0.00184811,0.00243623,0.00321092,0.00423139,0.00557559,0.00734625,0.00967864,0.012751,0.016798,0.022129,0.0291512,inf	8.92302,8.92302,664.392,916.91,727.109,656.92,631.142,683.67,743.972,774.098,748.065,676.016,598.73,535.201,483.234,439.276,403.359,376.174,357.284,345.293,338.647,336.108,336.843,340.203,345.472,351.84,358.642,367.506,367.506,381.458,381.458,381.458
