0.000634547	-4507064.57	0,4.51856e-06,1.02698e-05,1.759e-05,2.69072e-05,3.87661e-05,5.38603e-05,7.30722e-05,9.75252e-05,0.000128649,0.000168264,0.000218685,0.000282862,0.000364547,0.000468515,0.000600847,0.00076928,0.000983661,0.00125653,0.00160383,0.00204588,0.00260853,0.00332467,0.00423617,0.00539633,0.006873,0.0087525,0.0111447,0.0141896,0.0180651,0.0229979,0.0292763,inf	303.65,303.65,455.374,554.614,596.793,542.968,496.566,461.622,427.808,397.162,373.943,365.58,368.312,373.383,376.519,380.613,387.795,394.23,398.246,401.34,404.428,407.463,410.236,410.376,406.538,404.998,410.92,412.789,412.789,478.627,478.627,478.627
0.000646789	-4506988.62	0,4.51856e-06,1.02698e-05,1.759e-05,2.69072e-05,3.87661e-05,5.38603e-05,7.30722e-05,9.75252e-05,0.000128649,0.000168264,0.000218685,0.000282862,0.000364547,0.000468515,0.000600847,0.00076928,0.000983661,0.00125653,0.00160383,0.00204588,0.00260853,0.00332467,0.00423617,0.00539633,0.006873,0.0087525,0.0111447,0.0141896,0.0180651,0.0229979,0.0292763,inf	191.572,191.572,421.63,618.564,725.247,628.632,553.744,501.368,447.932,397.499,359.549,347.558,353.848,362.639,366.535,371.788,382.805,392.358,397.442,401.161,405.428,410.237,415.215,415.537,408.216,405.379,417.371,421.246,421.246,583.804,583.804,583.804
0.000657704	-4506951.56	0,4.51856e-06,1.02698e-05,1.759e-05,2.69072e-05,3.87661e-05,5.38603e-05,7.30722e-05,9.75252e-05,0.000128649,0.000168264,0.000218685,0.000282862,0.000364547,0.000468515,0.000600847,0.00076928,0.000983661,0.00125653,0.00160383,0.00204588,0.00260853,0.00332467,0.00423617,0.00539633,0.006873,0.0087525,0.0111447,0.0141896,0.0180651,0.0229979,0.0292763,inf	115.604,115.604,363.146,629.544,802.402,673.737,584.195,526.197,462.034,398.045,349.875,336.593,346.87,358.851,362.523,367.758,381.256,392.572,397.534,400.888,405.54,411.548,418.437,418.982,408.444,404.429,422.418,428.4,428.4,749.363,749.363,749.363
0.000667434	-4506930.98	0,4.51856e-06,1.02698e-05,1.759e-05,2.69072e-05,3.87661e-05,5.38603e-05,7.30722e-05,9.75252e-05,0.000128649,0.000168264,0.000218685,0.000282862,0.000364547,0.000468515,0.000600847,0.00076928,0.000983661,0.00125653,0.00160383,0.00204588,0.00260853,0.00332467,0.00423617,0.00539633,0.006873,0.0087525,0.0111447,0.0141896,0.0180651,0.0229979,0.0292763,inf	70.3769,70.3769,307.552,617.905,850.2,695.065,598.749,541.848,472.179,398.219,342.329,328.897,343.269,358.102,361.032,365.706,381.066,393.529,397.864,400.44,405.119,412.02,420.62,421.402,407.836,402.679,426.47,434.686,434.686,1069.28,1069.28,1069.28
0.000676163	-4506922.02	0,4.51856e-06,1.02698e-05,1.759e-05,2.69072e-05,3.87661e-05,5.38603e-05,7.30722e-05,9.75252e-05,0.000128649,0.000168264,0.000218685,0.000282862,0.000364547,0.000468515,0.000600847,0.00076928,0.000983661,0.00125653,0.00160383,0.00204588,0.00260853,0.00332467,0.00423617,0.00539633,0.006873,0.0087525,0.0111447,0.0141896,0.0180651,0.0229979,0.0292763,inf	43.9879,43.9879,261.811,599.192,883.153,703.431,604.406,552.143,479.983,398.153,335.992,322.967,341.37,358.787,360.663,364.511,381.431,394.756,398.255,399.894,404.435,412.048,422.205,423.218,406.766,400.457,429.792,440.404,440.404,1950.02,1950.02,1950.02
0.000684093	-4506920.02	0,4.51856e-06,1.02698e-05,1.759e-05,2.69072e-05,3.87661e-05,5.38603e-05,7.30722e-05,9.75252e-05,0.000128649,0.000168264,0.000218685,0.000282862,0.000364547,0.000468515,0.000600847,0.00076928,0.000983661,0.00125653,0.00160383,0.00204588,0.00260853,0.00332467,0.00423617,0.00539633,0.006873,0.0087525,0.0111447,0.0141896,0.0180651,0.0229979,0.0292763,inf	28.327,28.327,225.692,579.843,908.985,704.822,605.077,559.285,486.415,398.001,330.46,318.111,340.407,360.183,360.799,363.69,382.019,396.073,398.667,399.325,403.655,411.862,423.455,424.686,405.458,397.962,432.554,445.659,445.659,11179,11179,11179
0.000684093	-4506917.01	0,4.51856e-06,1.02698e-05,1.759e-05,2.69072e-05,3.87661e-05,5.38603e-05,7.30722e-05,9.75252e-05,0.000128649,0.000168264,0.000218685,0.000282862,0.000364547,0.000468515,0.000600847,0.00076928,0.000983661,0.00125653,0.00160383,0.00204588,0.00260853,0.00332467,0.00423617,0.00539633,0.006873,0.0087525,0.0111447,0.0141896,0.0180651,0.0229979,0.0292763,inf	18.6906,18.6906,196.636,560.24,928.351,699.938,600.827,562.543,490.296,396.45,324.377,312.871,338.797,360.653,359.881,361.763,381.358,396.049,397.782,397.549,401.719,410.514,423.495,424.984,403.327,394.717,434.263,450.47,450.47,64112.1,64112.1,64112.1
0.000684093	-4506922.55	0,4.51856e-06,1.02698e-05,1.759e-05,2.69072e-05,3.87661e-05,5.38603e-05,7.30722e-05,9.75252e-05,0.000128649,0.000168264,0.000218685,0.000282862,0.000364547,0.000468515,0.000600847,0.00076928,0.000983661,0.00125653,0.00160383,0.00204588,0.00260853,0.00332467,0.00423617,0.00539633,0.006873,0.0087525,0.0111447,0.0141896,0.0180651,0.0229979,0.0292763,inf	12.6738,12.6738,174.174,545.041,950.791,696.467,597.814,567.175,493.208,396.45,319.831,309.003,338.367,362.146,359.83,360.625,381.462,396.806,397.678,396.538,400.482,409.744,424.005,425.731,401.497,391.753,436.182,451.107,451.107,64112.1,64112.1,64112.1
0.000684093	-4506923.17	0,4.51856e-06,1.02698e-05,1.759e-05,2.69072e-05,3.87661e-05,5.38603e-05,7.30722e-05,9.75252e-05,0.000128649,0.000168264,0.000218685,0.000282862,0.000364547,0.000468515,0.000600847,0.00076928,0.000983661,0.00125653,0.00160383,0.00204588,0.00260853,0.00332467,0.00423617,0.00539633,0.006873,0.0087525,0.0111447,0.0141896,0.0180651,0.0229979,0.0292763,inf	8.75054,8.75054,155.891,531.695,973.324,692.563,594.646,571.946,493.208,397.16,315.977,305.702,338.286,363.906,359.958,359.612,381.706,397.764,397.836,395.835,399.559,409.245,424.745,425.731,399.954,389.024,438.316,451.516,451.516,64112.1,64112.1,64112.1
0.000684093	-4506923.66	0,4.51856e-06,1.02698e-05,1.759e-05,2.69072e-05,3.87661e-05,5.38603e-05,7.30722e-05,9.75252e-05,0.000128649,0.000168264,0.000218685,0.000282862,0.000364547,0.000468515,0.000600847,0.00076928,0.000983661,0.00125653,0.00160383,0.00204588,0.00260853,0.00332467,0.00423617,0.00539633,0.006873,0.0087525,0.0111447,0.0141896,0.0180651,0.0229979,0.0292763,inf	6.13323,6.13323,140.683,519.629,994.171,688.293,591.469,576.977,493.209,397.222,312.64,302.773,338.404,365.74,360.088,358.608,381.936,398.711,397.836,395.286,398.823,408.93,424.754,426.484,398.651,386.503,440.65,451.672,451.672,64112.1,64112.1,64112.1
0.000684093	-4506924.08	0,4.51856e-06,1.02698e-05,1.759e-05,2.69072e-05,3.87661e-05,5.38603e-05,7.30722e-05,9.75252e-05,0.000128649,0.000168264,0.000218685,0.000282862,0.000364547,0.000468515,0.000600847,0.00076928,0.000983661,0.00125653,0.00160383,0.00204588,0.00260853,0.00332467,0.00423617,0.00539633,0.006873,0.0087525,0.0111447,0.0141896,0.0180651,0.0229979,0.0292763,inf	4.35112,4.35112,127.874,508.609,1012.18,683.688,588.278,577.046,497.357,397.222,309.744,300.146,338.664,367.604,360.192,357.581,381.936,399.66,397.836,394.864,398.244,408.762,425.448,426.484,397.546,384.136,443.146,451.688,451.688,64112.1,64112.1,64112.1
0.000684093	-4506924.34	0,4.51856e-06,1.02698e-05,1.759e-05,2.69072e-05,3.87661e-05,5.38603e-05,7.30722e-05,9.75252e-05,0.000128649,0.000168264,0.000218685,0.000282862,0.000364547,0.000468515,0.000600847,0.00076928,0.000983661,0.00125653,0.00160383,0.00204588,0.00260853,0.00332467,0.00423617,0.00539633,0.006873,0.0087525,0.0111447,0.0141896,0.0180651,0.0229979,0.0292763,inf	3.11892,3.11892,117.004,498.783,1027.51,679.124,585.239,577.086,501.415,397.222,307.143,297.722,339.005,369.476,360.275,356.521,382.147,400.343,397.836,394.512,397.75,408.677,425.991,426.484,396.607,381.913,445.472,451.688,451.688,64112.1,64112.1,64112.1
0.000684093	-4506924.59	0,4.51856e-06,1.02698e-05,1.759e-05,2.69072e-05,3.87661e-05,5.38603e-05,7.30722e-05,9.75252e-05,0.000128649,0.000168264,0.000218685,0.000282862,0.000364547,0.000468515,0.000600847,0.00076928,0.000983661,0.00125653,0.00160383,0.00204588,0.00260853,0.00332467,0.00423617,0.00539633,0.006873,0.0087525,0.0111447,0.0141896,0.0180651,0.0229979,0.0292763,inf	2.2625,2.2625,107.727,490.062,1040.91,674.701,582.366,582.074,501.415,397.222,304.767,295.453,339.39,371.329,360.323,355.459,382.323,400.989,397.836,394.218,397.329,408.662,426.404,426.484,395.817,379.819,447.605,451.688,451.688,64112.1,64112.1,64112.1
0.000684093	-4506924.83	0,4.51856e-06,1.02698e-05,1.759e-05,2.69072e-05,3.87661e-05,5.38603e-05,7.30722e-05,9.75252e-05,0.000128649,0.000168264,0.000218685,0.000282862,0.000364547,0.000468515,0.000600847,0.00076928,0.000983661,0.00125653,0.00160383,0.00204588,0.00260853,0.00332467,0.00423617,0.00539633,0.006873,0.0087525,0.0111447,0.0141896,0.0180651,0.0229979,0.0292763,inf	1.65428,1.65428,99.7093,482.2,1052.46,670.22,579.505,587.088,501.415,397.222,302.645,293.351,339.826,373.17,360.343,354.383,382.499,401.56,397.836,393.971,396.968,408.706,426.713,426.484,395.164,377.842,449.521,451.702,451.702,64112.1,64112.1,64112.1
0.000684093	-4506925.04	0,4.51856e-06,1.02698e-05,1.759e-05,2.69072e-05,3.87661e-05,5.38603e-05,7.30722e-05,9.75252e-05,0.000128649,0.000168264,0.000218685,0.000282862,0.000364547,0.000468515,0.000600847,0.00076928,0.000983661,0.00125653,0.00160383,0.00204588,0.00260853,0.00332467,0.00423617,0.00539633,0.006873,0.0087525,0.0111447,0.0141896,0.0180651,0.0229979,0.0292763,inf	1.19763,1.19763,92.7537,475.237,1062.8,665.769,576.65,592.078,501.415,397.222,300.732,291.379,340.296,374.946,360.333,353.286,382.499,402.242,397.836,393.76,396.654,408.799,426.936,426.484,394.635,375.974,451.316,451.702,451.702,64112.1,64112.1,64112.1
