0.000639195	-1810529.56	0,9.86108e-06,2.20583e-05,3.7145e-05,5.58058e-05,7.88874e-05,0.000107437,0.00014275,0.000186429,0.000240455,0.000307281,0.000389937,0.000492175,0.000618633,0.000775049,0.00096852,0.00120783,0.00150382,0.00186994,0.00232279,0.00288293,0.00357576,0.00443273,0.00549271,0.0068038,0.00842549,0.0104314,0.0129124,0.0159813,0.0197771,0.0244722,0.0302796,inf	517.924,517.924,468.06,456.906,451.359,440.226,427.932,404.822,383.732,374.461,372.882,373.411,373.845,376.405,382.243,388.578,393.439,397.638,402.233,406.984,411.278,414.168,413.852,409.962,405.849,404.713,402.123,401.438,401.438,485.951,485.951,485.951
0.000652449	-1810485.52	0,9.86108e-06,2.20583e-05,3.7145e-05,5.58058e-05,7.88874e-05,0.000107437,0.00014275,0.000186429,0.000240455,0.000307281,0.000389937,0.000492175,0.000618633,0.000775049,0.00096852,0.00120783,0.00150382,0.00186994,0.00232279,0.00288293,0.00357576,0.00443273,0.00549271,0.0068038,0.00842549,0.0104314,0.0129124,0.0159813,0.0197771,0.0244722,0.0302796,inf	565.877,565.877,489.014,481.373,482.607,470.864,454,413.522,377.557,363.494,362.189,363.156,362.771,365.782,374.583,384.013,390.542,395.998,402.645,410.214,417.672,423.17,422.879,415.723,408.19,406.562,401.773,400.585,400.585,596.86,596.86,596.86
0.000664187	-1810462.41	0,9.86108e-06,2.20583e-05,3.7145e-05,5.58058e-05,7.88874e-05,0.000107437,0.00014275,0.000186429,0.000240455,0.000307281,0.000389937,0.000492175,0.000618633,0.000775049,0.00096852,0.00120783,0.00150382,0.00186994,0.00232279,0.00288293,0.00357576,0.00443273,0.00549271,0.0068038,0.00842549,0.0104314,0.0129124,0.0159813,0.0197771,0.0244722,0.0302796,inf	578.768,578.768,485.467,486.249,498.778,491.506,474.55,420.46,373.549,357.389,357.624,359.321,357.814,360.566,371.229,382.412,389.223,394.612,402.077,411.421,421.331,429.184,429.097,419.105,408.638,406.905,400.16,398.556,398.556,759.993,759.993,759.993
0.000674641	-1810447.75	0,9.86108e-06,2.20583e-05,3.7145e-05,5.58058e-05,7.88874e-05,0.000107437,0.00014275,0.000186429,0.000240455,0.000307281,0.000389937,0.000492175,0.000618633,0.000775049,0.00096852,0.00120783,0.00150382,0.00186994,0.00232279,0.00288293,0.00357576,0.00443273,0.00549271,0.0068038,0.00842549,0.0104314,0.0129124,0.0159813,0.0197771,0.0244722,0.0302796,inf	580.216,580.216,472.741,481.914,506.033,505.019,490.356,425.073,369.761,353.095,355.614,358.28,355.591,357.838,369.903,382.23,388.678,393.362,401.004,411.512,423.386,433.363,433.561,421.036,407.982,406.369,397.808,395.801,395.801,1058.56,1058.56,1058.56
0.000684034	-1810437.63	0,9.86108e-06,2.20583e-05,3.7145e-05,5.58058e-05,7.88874e-05,0.000107437,0.00014275,0.000186429,0.000240455,0.000307281,0.000389937,0.000492175,0.000618633,0.000775049,0.00096852,0.00120783,0.00150382,0.00186994,0.00232279,0.00288293,0.00357576,0.00443273,0.00549271,0.0068038,0.00842549,0.0104314,0.0129124,0.0159813,0.0197771,0.0244722,0.0302796,inf	580.173,580.173,458.083,474.155,508.556,513.983,502.798,427.871,365.816,349.568,354.769,358.536,354.664,356.33,369.601,382.79,388.572,392.25,399.727,411.02,424.51,436.408,436.926,422.089,406.704,405.344,395.034,392.613,392.613,1983.07,1983.07,1983.07
0.000692529	-1810430.27	0,9.86108e-06,2.20583e-05,3.7145e-05,5.58058e-05,7.88874e-05,0.000107437,0.00014275,0.000186429,0.000240455,0.000307281,0.000389937,0.000492175,0.000618633,0.000775049,0.00096852,0.00120783,0.00150382,0.00186994,0.00232279,0.00288293,0.00357576,0.00443273,0.00549271,0.0068038,0.00842549,0.0104314,0.0129124,0.0159813,0.0197771,0.0244722,0.0302796,inf	581.558,581.558,444.222,465.635,508.707,520.12,512.967,429.404,361.725,346.426,354.489,359.405,354.356,355.429,369.825,383.749,388.735,391.271,398.402,410.242,425.091,438.74,439.59,422.612,405.093,404.053,392.005,389.356,389.356,16740.2,16740.2,16740.2
0.000692529	-1810424.47	0,9.86108e-06,2.20583e-05,3.7145e-05,5.58058e-05,7.88874e-05,0.000107437,0.00014275,0.000186429,0.000240455,0.000307281,0.000389937,0.000492175,0.000618633,0.000775049,0.00096852,0.00120783,0.00150382,0.00186994,0.00232279,0.00288293,0.00357576,0.00443273,0.00549271,0.0068038,0.00842549,0.0104314,0.0129124,0.0159813,0.0197771,0.0244722,0.0302796,inf	582.591,582.591,430.398,455.833,505.889,522.567,519.695,428.502,356.251,342.248,353.179,359.22,353.028,353.531,368.975,383.549,387.727,389.146,395.898,408.179,424.25,439.581,440.884,422.06,402.683,402.035,388.246,385.921,385.921,68488,68488,68488
0.000692529	-1810423.86	0,9.86108e-06,2.20583e-05,3.7145e-05,5.58058e-05,7.88874e-05,0.000107437,0.00014275,0.000186429,0.000240455,0.000307281,0.000389937,0.000492175,0.000618633,0.000775049,0.00096852,0.00120783,0.00150382,0.00186994,0.00232279,0.00288293,0.00357576,0.00443273,0.00549271,0.0068038,0.00842549,0.0104314,0.0129124,0.0159813,0.0197771,0.0244722,0.0302796,inf	582.796,582.796,420.287,448.887,504.844,526.165,525.459,428.502,352.099,339.352,353.063,360.135,352.695,352.576,369.069,384.313,387.674,387.93,394.206,406.766,423.856,440.707,442.407,421.742,400.56,400.349,384.909,382.849,382.849,68491.5,68491.5,68491.5
0.000692529	-1810422.77	0,9.86108e-06,2.20583e-05,3.7145e-05,5.58058e-05,7.88874e-05,0.000107437,0.00014275,0.000186429,0.000240455,0.000307281,0.000389937,0.000492175,0.000618633,0.000775049,0.00096852,0.00120783,0.00150382,0.00186994,0.00232279,0.00288293,0.00357576,0.00443273,0.00549271,0.0068038,0.00842549,0.0104314,0.0129124,0.0159813,0.0197771,0.0244722,0.0302796,inf	582.814,582.814,412.372,443.417,504.39,529.877,529.067,428.502,348.422,336.898,353.273,361.324,352.586,351.837,369.393,385.369,387.674,387.101,392.892,405.655,423.648,441.942,442.446,421.576,398.69,399,381.932,380.052,380.052,68494.7,68494.7,68494.7
0.000692529	-1810421.85	0,9.86108e-06,2.20583e-05,3.7145e-05,5.58058e-05,7.88874e-05,0.000107437,0.00014275,0.000186429,0.000240455,0.000307281,0.000389937,0.000492175,0.000618633,0.000775049,0.00096852,0.00120783,0.00150382,0.00186994,0.00232279,0.00288293,0.00357576,0.00443273,0.00549271,0.0068038,0.00842549,0.0104314,0.0129124,0.0159813,0.0197771,0.0244722,0.0302796,inf	582.842,582.842,406.093,439.054,504.377,533.705,530.969,428.502,345.087,334.696,353.63,362.587,352.507,351.106,369.773,386.286,387.674,386.508,391.834,404.769,423.599,443.296,442.509,421.576,397.083,397.978,379.283,377.5,377.5,68497.4,68497.4,68497.4
0.000692529	-1810421.01	0,9.86108e-06,2.20583e-05,3.7145e-05,5.58058e-05,7.88874e-05,0.000107437,0.00014275,0.000186429,0.000240455,0.000307281,0.000389937,0.000492175,0.000618633,0.000775049,0.00096852,0.00120783,0.00150382,0.00186994,0.00232279,0.00288293,0.00357576,0.00443273,0.00549271,0.0068038,0.00842549,0.0104314,0.0129124,0.0159813,0.0197771,0.0244722,0.0302796,inf	582.854,582.854,401.023,435.522,504.736,537.712,531.528,428.502,342.064,332.699,354.103,363.885,352.426,350.388,370.159,387.008,387.674,386.068,390.942,404.018,423.629,444.388,442.509,421.599,395.677,397.222,376.899,375.152,375.152,68499.8,68499.8,68499.8
0.000692529	-1810420.29	0,9.86108e-06,2.20583e-05,3.7145e-05,5.58058e-05,7.88874e-05,0.000107437,0.00014275,0.000186429,0.000240455,0.000307281,0.000389937,0.000492175,0.000618633,0.000775049,0.00096852,0.00120783,0.00150382,0.00186994,0.00232279,0.00288293,0.00357576,0.00443273,0.00549271,0.0068038,0.00842549,0.0104314,0.0129124,0.0159813,0.0197771,0.0244722,0.0302796,inf	582.937,582.937,396.863,432.615,505.383,541.287,531.528,428.502,339.328,330.896,354.658,365.2,352.333,349.662,370.553,387.582,387.674,385.753,390.184,403.377,423.724,445.266,442.509,421.599,394.444,396.7,374.742,372.981,372.981,68502.1,68502.1,68502.1
0.000692529	-1810419.68	0,9.86108e-06,2.20583e-05,3.7145e-05,5.58058e-05,7.88874e-05,0.000107437,0.00014275,0.000186429,0.000240455,0.000307281,0.000389937,0.000492175,0.000618633,0.000775049,0.00096852,0.00120783,0.00150382,0.00186994,0.00232279,0.00288293,0.00357576,0.00443273,0.00549271,0.0068038,0.00842549,0.0104314,0.0129124,0.0159813,0.0197771,0.0244722,0.0302796,inf	582.994,582.994,393.401,430.186,506.262,543.993,531.528,428.502,336.849,329.26,355.272,366.518,352.222,348.925,370.946,388.046,387.674,385.537,389.534,402.823,423.87,445.945,442.509,421.599,393.363,396.384,372.781,370.963,370.963,68504.1,68504.1,68504.1
0.000692529	-1810419.15	0,9.86108e-06,2.20583e-05,3.7145e-05,5.58058e-05,7.88874e-05,0.000107437,0.00014275,0.000186429,0.000240455,0.000307281,0.000389937,0.000492175,0.000618633,0.000775049,0.00096852,0.00120783,0.00150382,0.00186994,0.00232279,0.00288293,0.00357576,0.00443273,0.00549271,0.0068038,0.00842549,0.0104314,0.0129124,0.0159813,0.0197771,0.0244722,0.0302796,inf	583.015,583.015,390.5,428.15,507.34,545.985,531.528,428.502,334.59,327.754,355.929,367.828,352.088,348.159,371.34,388.442,387.674,385.399,388.971,402.343,424.062,445.959,442.913,421.599,392.411,396.25,370.985,369.076,369.076,68505.9,68505.9,68505.9
0.000692529	-1810418.71	0,9.86108e-06,2.20583e-05,3.7145e-05,5.58058e-05,7.88874e-05,0.000107437,0.00014275,0.000186429,0.000240455,0.000307281,0.000389937,0.000492175,0.000618633,0.000775049,0.00096852,0.00120783,0.00150382,0.00186994,0.00232279,0.00288293,0.00357576,0.00443273,0.00549271,0.0068038,0.00842549,0.0104314,0.0129124,0.0159813,0.0197771,0.0244722,0.0302796,inf	583.03,583.03,388.05,426.43,508.597,547.392,531.528,428.502,332.523,326.362,356.614,369.125,351.93,347.395,371.73,388.774,387.674,385.334,388.492,401.937,424.062,445.959,443.356,421.599,391.566,396.271,369.328,367.303,367.303,68507.6,68507.6,68507.6
0.000692529	-1810418.34	0,9.86108e-06,2.20583e-05,3.7145e-05,5.58058e-05,7.88874e-05,0.000107437,0.00014275,0.000186429,0.000240455,0.000307281,0.000389937,0.000492175,0.000618633,0.000775049,0.00096852,0.00120783,0.00150382,0.00186994,0.00232279,0.00288293,0.00357576,0.00443273,0.00549271,0.0068038,0.00842549,0.0104314,0.0129124,0.0159813,0.0197771,0.0244722,0.0302796,inf	583.037,583.037,385.982,424.967,510.042,548.273,531.528,428.502,330.626,325.063,357.316,370.409,351.759,346.602,372.111,389.075,387.674,385.334,388.094,401.605,424.361,446.145,443.356,421.599,390.812,396.43,367.785,365.627,365.627,68509.1,68509.1,68509.1
0.000692529	-1810417.97	0,9.86108e-06,2.20583e-05,3.7145e-05,5.58058e-05,7.88874e-05,0.000107437,0.00014275,0.000186429,0.000240455,0.000307281,0.000389937,0.000492175,0.000618633,0.000775049,0.00096852,0.00120783,0.00150382,0.00186994,0.00232279,0.00288293,0.00357576,0.00443273,0.00549271,0.0068038,0.00842549,0.0104314,0.0129124,0.0159813,0.0197771,0.0244722,0.0302796,inf	583.077,583.077,384.2,423.719,511.629,548.747,531.528,428.502,328.884,323.848,358.029,371.547,351.561,345.791,372.477,389.414,387.674,385.334,387.73,401.302,424.678,446.278,443.356,421.599,390.144,396.717,366.343,364.037,364.037,68510.5,68510.5,68510.5
0.000692529	-1810417.65	0,9.86108e-06,2.20583e-05,3.7145e-05,5.58058e-05,7.88874e-05,0.000107437,0.00014275,0.000186429,0.000240455,0.000307281,0.000389937,0.000492175,0.000618633,0.000775049,0.00096852,0.00120783,0.00150382,0.00186994,0.00232279,0.00288293,0.00357576,0.00443273,0.00549271,0.0068038,0.00842549,0.0104314,0.0129124,0.0159813,0.0197771,0.0244722,0.0302796,inf	583.126,583.126,382.631,422.633,511.629,550.285,531.528,428.502,327.294,322.717,358.762,372.534,351.345,344.968,372.831,389.779,387.674,385.334,387.395,401.024,425.007,446.372,443.356,421.599,389.546,397.116,364.985,362.523,362.523,68511.9,68511.9,68511.9
0.000692529	-1810417.36	0,9.86108e-06,2.20583e-05,3.7145e-05,5.58058e-05,7.88874e-05,0.000107437,0.00014275,0.000186429,0.000240455,0.000307281,0.000389937,0.000492175,0.000618633,0.000775049,0.00096852,0.00120783,0.00150382,0.00186994,0.00232279,0.00288293,0.00357576,0.00443273,0.00549271,0.0068038,0.00842549,0.0104314,0.0129124,0.0159813,0.0197771,0.0244722,0.0302796,inf	583.169,583.169,381.337,421.768,513.175,550.285,531.528,428.502,325.83,321.659,359.517,373.389,351.118,344.14,373.175,390.163,387.674,385.334,387.081,400.765,425.007,446.706,443.356,421.599,389.007,397.552,363.699,361.072,361.072,68513.1,68513.1,68513.1
0.000692529	-1810417.10	0,9.86108e-06,2.20583e-05,3.7145e-05,5.58058e-05,7.88874e-05,0.000107437,0.00014275,0.000186429,0.000240455,0.000307281,0.000389937,0.000492175,0.000618633,0.000775049,0.00096852,0.00120783,0.00150382,0.00186994,0.00232279,0.00288293,0.00357576,0.00443273,0.00549271,0.0068038,0.00842549,0.0104314,0.0129124,0.0159813,0.0197771,0.0244722,0.0302796,inf	583.213,583.213,380.186,421.015,513.175,551.385,531.528,428.502,324.5,320.68,360.3,373.389,350.873,343.298,373.505,390.879,387.674,385.334,386.8,400.535,425.362,446.719,443.356,421.599,388.517,397.948,362.475,359.68,359.68,68514.3,68514.3,68514.3
