time_index	left_time_boundary	right_time_boundary	lambda
0	0	2.20583e-05	469.846
1	2.20583e-05	5.58058e-05	469.846
2	5.58058e-05	0.000107437	516.749
3	0.000107437	0.000186429	476.33
4	0.000186429	0.000307281	317.315
5	0.000307281	0.000492175	373.494
6	0.000492175	0.000775049	337.178
7	0.000775049	0.00120783	389.877
8	0.00120783	0.00186994	403.939
9	0.00186994	0.00288293	378.894
10	0.00288293	0.00443273	399.1
11	0.00443273	0.0068038	377.373
12	0.0068038	0.0104314	430.675
13	0.0104314	0.0159813	51571.2
14	0.0159813	0.0244722	51571.2
15	0.0244722	inf	51571.2
