0.000696205	-310495.02	0,4.51478e-05,9.85143e-05,0.000161596,0.00023616,0.000324299,0.000428483,0.000551632,0.000697199,0.000869266,0.00107266,0.00131307,0.00159725,0.00193316,0.00233023,0.00279957,0.00335436,0.00401014,0.00478529,0.00570156,0.00678463,0.00806486,0.00957814,0.0113669,0.0134813,0.0159806,0.0189349,0.0224269,0.0265547,0.0314339,inf	455.87,455.87,455.87,455.87,455.87,455.87,455.87,455.87,455.87,455.87,455.87,455.87,455.87,455.87,455.87,455.87,455.87,455.87,455.87,455.87,455.87,455.87,455.87,455.87,455.87,455.87,455.87,455.87,455.87,455.87
0.000767865	-310345.19	0,4.51478e-05,9.85143e-05,0.000161596,0.00023616,0.000324299,0.000428483,0.000551632,0.000697199,0.000869266,0.00107266,0.00131307,0.00159725,0.00193316,0.00233023,0.00279957,0.00335436,0.00401014,0.00478529,0.00570156,0.00678463,0.00806486,0.00957814,0.0113669,0.0134813,0.0159806,0.0189349,0.0224269,0.0265547,0.0314339,inf	479.905,479.905,479.905,479.905,479.905,479.905,479.905,479.905,479.905,479.905,479.905,479.905,479.905,479.905,479.905,479.905,479.905,479.905,479.905,479.905,479.905,479.905,479.905,479.905,479.905,479.905,479.905,479.905,479.905,479.905
0.000836441	-310263.80	0,4.51478e-05,9.85143e-05,0.000161596,0.00023616,0.000324299,0.000428483,0.000551632,0.000697199,0.000869266,0.00107266,0.00131307,0.00159725,0.00193316,0.00233023,0.00279957,0.00335436,0.00401014,0.00478529,0.00570156,0.00678463,0.00806486,0.00957814,0.0113669,0.0134813,0.0159806,0.0189349,0.0224269,0.0265547,0.0314339,inf	489.354,489.354,489.354,489.354,489.354,489.354,489.354,489.354,489.354,489.354,489.354,489.354,489.354,489.354,489.354,489.354,489.354,489.354,489.354,489.354,489.354,489.354,489.354,489.354,489.354,489.354,489.354,489.354,489.354,489.354
0.000903895	-310198.74	0,4.51478e-05,9.85143e-05,0.000161596,0.00023616,0.000324299,0.000428483,0.000551632,0.000697199,0.000869266,0.00107266,0.00131307,0.00159725,0.00193316,0.00233023,0.00279957,0.00335436,0.00401014,0.00478529,0.00570156,0.00678463,0.00806486,0.00957814,0.0113669,0.0134813,0.0159806,0.0189349,0.0224269,0.0265547,0.0314339,inf	492.029,492.029,492.029,492.029,492.029,492.029,492.029,492.029,492.029,492.029,492.029,492.029,492.029,492.029,492.029,492.029,492.029,492.029,492.029,492.029,492.029,492.029,492.029,492.029,492.029,492.029,492.029,492.029,492.029,492.029
0.000971407	-310138.55	0,4.51478e-05,9.85143e-05,0.000161596,0.00023616,0.000324299,0.000428483,0.000551632,0.000697199,0.000869266,0.00107266,0.00131307,0.00159725,0.00193316,0.00233023,0.00279957,0.00335436,0.00401014,0.00478529,0.00570156,0.00678463,0.00806486,0.00957814,0.0113669,0.0134813,0.0159806,0.0189349,0.0224269,0.0265547,0.0314339,inf	491.68,491.68,491.68,491.68,491.68,491.68,491.68,491.68,491.68,491.68,491.68,491.68,491.68,491.68,491.68,491.68,491.68,491.68,491.68,491.68,491.68,491.68,491.68,491.68,491.68,491.68,491.68,491.68,491.68,491.68
0.00103956	-310080.78	0,4.51478e-05,9.85143e-05,0.000161596,0.00023616,0.000324299,0.000428483,0.000551632,0.000697199,0.000869266,0.00107266,0.00131307,0.00159725,0.00193316,0.00233023,0.00279957,0.00335436,0.00401014,0.00478529,0.00570156,0.00678463,0.00806486,0.00957814,0.0113669,0.0134813,0.0159806,0.0189349,0.0224269,0.0265547,0.0314339,inf	490.02,490.02,490.02,490.02,490.02,490.02,490.02,490.02,490.02,490.02,490.02,490.02,490.02,490.02,490.02,490.02,490.02,490.02,490.02,490.02,490.02,490.02,490.02,490.02,490.02,490.02,490.02,490.02,490.02,490.02
0.00110859	-310024.92	0,4.51478e-05,9.85143e-05,0.000161596,0.00023616,0.000324299,0.000428483,0.000551632,0.000697199,0.000869266,0.00107266,0.00131307,0.00159725,0.00193316,0.00233023,0.00279957,0.00335436,0.00401014,0.00478529,0.00570156,0.00678463,0.00806486,0.00957814,0.0113669,0.0134813,0.0159806,0.0189349,0.0224269,0.0265547,0.0314339,inf	487.822,487.822,487.822,487.822,487.822,487.822,487.822,487.822,487.822,487.822,487.822,487.822,487.822,487.822,487.822,487.822,487.822,487.822,487.822,487.822,487.822,487.822,487.822,487.822,487.822,487.822,487.822,487.822,487.822,487.822
0.00117858	-309970.83	0,4.51478e-05,9.85143e-05,0.000161596,0.00023616,0.000324299,0.000428483,0.000551632,0.000697199,0.000869266,0.00107266,0.00131307,0.00159725,0.00193316,0.00233023,0.00279957,0.00335436,0.00401014,0.00478529,0.00570156,0.00678463,0.00806486,0.00957814,0.0113669,0.0134813,0.0159806,0.0189349,0.0224269,0.0265547,0.0314339,inf	485.437,485.437,485.437,485.437,485.437,485.437,485.437,485.437,485.437,485.437,485.437,485.437,485.437,485.437,485.437,485.437,485.437,485.437,485.437,485.437,485.437,485.437,485.437,485.437,485.437,485.437,485.437,485.437,485.437,485.437
0.00124953	-309918.47	0,4.51478e-05,9.85143e-05,0.000161596,0.00023616,0.000324299,0.000428483,0.000551632,0.000697199,0.000869266,0.00107266,0.00131307,0.00159725,0.00193316,0.00233023,0.00279957,0.00335436,0.00401014,0.00478529,0.00570156,0.00678463,0.00806486,0.00957814,0.0113669,0.0134813,0.0159806,0.0189349,0.0224269,0.0265547,0.0314339,inf	483.02,483.02,483.02,483.02,483.02,483.02,483.02,483.02,483.02,483.02,483.02,483.02,483.02,483.02,483.02,483.02,483.02,483.02,483.02,483.02,483.02,483.02,483.02,483.02,483.02,483.02,483.02,483.02,483.02,483.02
0.00132138	-309867.79	0,4.51478e-05,9.85143e-05,0.000161596,0.00023616,0.000324299,0.000428483,0.000551632,0.000697199,0.000869266,0.00107266,0.00131307,0.00159725,0.00193316,0.00233023,0.00279957,0.00335436,0.00401014,0.00478529,0.00570156,0.00678463,0.00806486,0.00957814,0.0113669,0.0134813,0.0159806,0.0189349,0.0224269,0.0265547,0.0314339,inf	480.643,480.643,480.643,480.643,480.643,480.643,480.643,480.643,480.643,480.643,480.643,480.643,480.643,480.643,480.643,480.643,480.643,480.643,480.643,480.643,480.643,480.643,480.643,480.643,480.643,480.643,480.643,480.643,480.643,480.643
0.00139408	-309818.76	0,4.51478e-05,9.85143e-05,0.000161596,0.00023616,0.000324299,0.000428483,0.000551632,0.000697199,0.000869266,0.00107266,0.00131307,0.00159725,0.00193316,0.00233023,0.00279957,0.00335436,0.00401014,0.00478529,0.00570156,0.00678463,0.00806486,0.00957814,0.0113669,0.0134813,0.0159806,0.0189349,0.0224269,0.0265547,0.0314339,inf	478.336,478.336,478.336,478.336,478.336,478.336,478.336,478.336,478.336,478.336,478.336,478.336,478.336,478.336,478.336,478.336,478.336,478.336,478.336,478.336,478.336,478.336,478.336,478.336,478.336,478.336,478.336,478.336,478.336,478.336
0.00146754	-309771.35	0,4.51478e-05,9.85143e-05,0.000161596,0.00023616,0.000324299,0.000428483,0.000551632,0.000697199,0.000869266,0.00107266,0.00131307,0.00159725,0.00193316,0.00233023,0.00279957,0.00335436,0.00401014,0.00478529,0.00570156,0.00678463,0.00806486,0.00957814,0.0113669,0.0134813,0.0159806,0.0189349,0.0224269,0.0265547,0.0314339,inf	476.11,476.11,476.11,476.11,476.11,476.11,476.11,476.11,476.11,476.11,476.11,476.11,476.11,476.11,476.11,476.11,476.11,476.11,476.11,476.11,476.11,476.11,476.11,476.11,476.11,476.11,476.11,476.11,476.11,476.11
0.0015417	-309725.51	0,4.51478e-05,9.85143e-05,0.000161596,0.00023616,0.000324299,0.000428483,0.000551632,0.000697199,0.000869266,0.00107266,0.00131307,0.00159725,0.00193316,0.00233023,0.00279957,0.00335436,0.00401014,0.00478529,0.00570156,0.00678463,0.00806486,0.00957814,0.0113669,0.0134813,0.0159806,0.0189349,0.0224269,0.0265547,0.0314339,inf	473.968,473.968,473.968,473.968,473.968,473.968,473.968,473.968,473.968,473.968,473.968,473.968,473.968,473.968,473.968,473.968,473.968,473.968,473.968,473.968,473.968,473.968,473.968,473.968,473.968,473.968,473.968,473.968,473.968,473.968
0.00161649	-309681.20	0,4.51478e-05,9.85143e-05,0.000161596,0.00023616,0.000324299,0.000428483,0.000551632,0.000697199,0.000869266,0.00107266,0.00131307,0.00159725,0.00193316,0.00233023,0.00279957,0.00335436,0.00401014,0.00478529,0.00570156,0.00678463,0.00806486,0.00957814,0.0113669,0.0134813,0.0159806,0.0189349,0.0224269,0.0265547,0.0314339,inf	471.91,471.91,471.91,471.91,471.91,471.91,471.91,471.91,471.91,471.91,471.91,471.91,471.91,471.91,471.91,471.91,471.91,471.91,471.91,471.91,471.91,471.91,471.91,471.91,471.91,471.91,471.91,471.91,471.91,471.91
0.00169182	-309638.39	0,4.51478e-05,9.85143e-05,0.000161596,0.00023616,0.000324299,0.000428483,0.000551632,0.000697199,0.000869266,0.00107266,0.00131307,0.00159725,0.00193316,0.00233023,0.00279957,0.00335436,0.00401014,0.00478529,0.00570156,0.00678463,0.00806486,0.00957814,0.0113669,0.0134813,0.0159806,0.0189349,0.0224269,0.0265547,0.0314339,inf	469.932,469.932,469.932,469.932,469.932,469.932,469.932,469.932,469.932,469.932,469.932,469.932,469.932,469.932,469.932,469.932,469.932,469.932,469.932,469.932,469.932,469.932,469.932,469.932,469.932,469.932,469.932,469.932,469.932,469.932
0.00176763	-309597.03	0,4.51478e-05,9.85143e-05,0.000161596,0.00023616,0.000324299,0.000428483,0.000551632,0.000697199,0.000869266,0.00107266,0.00131307,0.00159725,0.00193316,0.00233023,0.00279957,0.00335436,0.00401014,0.00478529,0.00570156,0.00678463,0.00806486,0.00957814,0.0113669,0.0134813,0.0159806,0.0189349,0.0224269,0.0265547,0.0314339,inf	468.032,468.032,468.032,468.032,468.032,468.032,468.032,468.032,468.032,468.032,468.032,468.032,468.032,468.032,468.032,468.032,468.032,468.032,468.032,468.032,468.032,468.032,468.032,468.032,468.032,468.032,468.032,468.032,468.032,468.032
0.00184386	-309557.08	0,4.51478e-05,9.85143e-05,0.000161596,0.00023616,0.000324299,0.000428483,0.000551632,0.000697199,0.000869266,0.00107266,0.00131307,0.00159725,0.00193316,0.00233023,0.00279957,0.00335436,0.00401014,0.00478529,0.00570156,0.00678463,0.00806486,0.00957814,0.0113669,0.0134813,0.0159806,0.0189349,0.0224269,0.0265547,0.0314339,inf	466.205,466.205,466.205,466.205,466.205,466.205,466.205,466.205,466.205,466.205,466.205,466.205,466.205,466.205,466.205,466.205,466.205,466.205,466.205,466.205,466.205,466.205,466.205,466.205,466.205,466.205,466.205,466.205,466.205,466.205
0.00192043	-309518.50	0,4.51478e-05,9.85143e-05,0.000161596,0.00023616,0.000324299,0.000428483,0.000551632,0.000697199,0.000869266,0.00107266,0.00131307,0.00159725,0.00193316,0.00233023,0.00279957,0.00335436,0.00401014,0.00478529,0.00570156,0.00678463,0.00806486,0.00957814,0.0113669,0.0134813,0.0159806,0.0189349,0.0224269,0.0265547,0.0314339,inf	464.449,464.449,464.449,464.449,464.449,464.449,464.449,464.449,464.449,464.449,464.449,464.449,464.449,464.449,464.449,464.449,464.449,464.449,464.449,464.449,464.449,464.449,464.449,464.449,464.449,464.449,464.449,464.449,464.449,464.449
0.0019973	-309481.25	0,4.51478e-05,9.85143e-05,0.000161596,0.00023616,0.000324299,0.000428483,0.000551632,0.000697199,0.000869266,0.00107266,0.00131307,0.00159725,0.00193316,0.00233023,0.00279957,0.00335436,0.00401014,0.00478529,0.00570156,0.00678463,0.00806486,0.00957814,0.0113669,0.0134813,0.0159806,0.0189349,0.0224269,0.0265547,0.0314339,inf	462.759,462.759,462.759,462.759,462.759,462.759,462.759,462.759,462.759,462.759,462.759,462.759,462.759,462.759,462.759,462.759,462.759,462.759,462.759,462.759,462.759,462.759,462.759,462.759,462.759,462.759,462.759,462.759,462.759,462.759
0.0020744	-309445.28	0,4.51478e-05,9.85143e-05,0.000161596,0.00023616,0.000324299,0.000428483,0.000551632,0.000697199,0.000869266,0.00107266,0.00131307,0.00159725,0.00193316,0.00233023,0.00279957,0.00335436,0.00401014,0.00478529,0.00570156,0.00678463,0.00806486,0.00957814,0.0113669,0.0134813,0.0159806,0.0189349,0.0224269,0.0265547,0.0314339,inf	461.133,461.133,461.133,461.133,461.133,461.133,461.133,461.133,461.133,461.133,461.133,461.133,461.133,461.133,461.133,461.133,461.133,461.133,461.133,461.133,461.133,461.133,461.133,461.133,461.133,461.133,461.133,461.133,461.133,461.133
