time_index	left_time_boundary	right_time_boundary	lambda
0	0	1.03964e-05	135.183
1	1.03964e-05	2.72388e-05	135.183
2	2.72388e-05	5.45242e-05	111.846
3	5.45242e-05	9.87272e-05	138.197
4	9.87272e-05	0.000170338	167.913
5	0.000170338	0.000286349	136.423
6	0.000286349	0.00047429	126.683
7	0.00047429	0.000778762	162.442
8	0.000778762	0.00127201	245.308
9	0.00127201	0.0020711	394.64
10	0.0020711	0.00336564	680.292
11	0.00336564	0.00546285	699.355
12	0.00546285	0.00886038	711.255
13	0.00886038	0.0143645	50127.6
14	0.0143645	0.0232813	50127.6
15	0.0232813	inf	50127.6
