time_index	left_time_boundary	right_time_boundary	lambda
0	0	1.76708e-06	0.806909
1	1.76708e-06	4.09476e-06	0.806909
2	4.09476e-06	7.1609e-06	108.259
3	7.1609e-06	1.11998e-05	211.926
4	1.11998e-05	1.652e-05	280.406
5	1.652e-05	2.3528e-05	301.34
6	2.3528e-05	3.27593e-05	217.866
7	3.27593e-05	4.49192e-05	124.687
8	4.49192e-05	6.09368e-05	95.2252
9	6.09368e-05	8.2036e-05	110.675
10	8.2036e-05	0.000109829	141.947
11	0.000109829	0.000146439	162.742
12	0.000146439	0.000194664	163.844
13	0.000194664	0.000258188	152.733
14	0.000258188	0.000341864	143.925
15	0.000341864	0.000452087	148.488
16	0.000452087	0.000597279	170.871
17	0.000597279	0.000788532	210.185
18	0.000788532	0.00104046	262.878
19	0.00104046	0.00137231	328.288
20	0.00137231	0.00180944	412.969
21	0.00180944	0.00238525	525.12
22	0.00238525	0.00314374	646.068
23	0.00314374	0.00414285	714.163
24	0.00414285	0.00545893	691.528
25	0.00545893	0.00719253	622.542
26	0.00719253	0.00947612	535.763
27	0.00947612	0.0124842	426.454
28	0.0124842	0.0164465	426.454
29	0.0164465	0.0216659	14.72
30	0.0216659	0.0285412	14.72
31	0.0285412	inf	14.72
