time_index	left_time_boundary	right_time_boundary	lambda
0	0	4.92023e-06	463.72
1	4.92023e-06	1.12843e-05	463.72
2	1.12843e-05	1.95157e-05	463.72
3	1.95157e-05	3.01626e-05	463.72
4	3.01626e-05	4.39337e-05	463.72
5	4.39337e-05	6.17458e-05	463.72
6	6.17458e-05	8.47847e-05	463.72
7	8.47847e-05	0.000114584	463.72
8	0.000114584	0.000153128	463.72
9	0.000153128	0.000202981	463.72
10	0.000202981	0.000267464	463.72
11	0.000267464	0.000350869	463.72
12	0.000350869	0.000458748	463.72
13	0.000458748	0.000598282	463.72
14	0.000598282	0.000778762	463.72
15	0.000778762	0.0010122	463.72
16	0.0010122	0.00131414	463.72
17	0.00131414	0.00170468	463.72
18	0.00170468	0.00220982	463.72
19	0.00220982	0.00286319	463.72
20	0.00286319	0.00370827	463.72
21	0.00370827	0.00480135	463.72
22	0.00480135	0.00621517	463.72
23	0.00621517	0.00804386	463.72
24	0.00804386	0.0104092	463.72
25	0.0104092	0.0134685	463.72
26	0.0134685	0.0174256	463.72
27	0.0174256	0.0225439	463.72
28	0.0225439	0.0291641	463.72
29	0.0291641	inf	463.72
