0.000694826	-310495.60	0,4.20994e-05,9.13453e-05,0.000148951,0.000216334,0.000295157,0.000387359,0.000495212,0.000621374,0.000768952,0.000941581,0.00114351,0.00137972,0.00165603,0.00197924,0.00235732,0.00279957,0.0033169,0.00392204,0.00462991,0.00545793,0.00642652,0.00755952,0.00888484,0.0104351,0.0122486,0.0143699,0.0168513,0.0197539,0.0231492,0.0271209,0.0317668,inf	268.028,268.028,195.019,209.176,217.147,223.935,233.858,249.086,271.317,301.436,339.073,382.738,429.552,473.956,507.986,525.522,526.783,516.821,500.962,483.17,465.919,449.907,434.427,418.709,403.27,390.343,383.085,386.513,386.513,419.224,419.224,419.224
0.000773728	-310110.34	0,4.20994e-05,9.13453e-05,0.000148951,0.000216334,0.000295157,0.000387359,0.000495212,0.000621374,0.000768952,0.000941581,0.00114351,0.00137972,0.00165603,0.00197924,0.00235732,0.00279957,0.0033169,0.00392204,0.00462991,0.00545793,0.00642652,0.00755952,0.00888484,0.0104351,0.0122486,0.0143699,0.0168513,0.0197539,0.0231492,0.0271209,0.0317668,inf	278.608,278.608,149.256,164.76,168.2,169.764,176.483,191.393,216.978,254.783,304.69,365.225,433.534,503.11,562.136,598.229,607.656,596.169,571.859,541.867,511.34,481.981,452.619,422.289,392.938,369.507,357.755,367.05,367.05,434.825,434.825,434.825
0.000850804	-309930.15	0,4.20994e-05,9.13453e-05,0.000148951,0.000216334,0.000295157,0.000387359,0.000495212,0.000621374,0.000768952,0.000941581,0.00114351,0.00137972,0.00165603,0.00197924,0.00235732,0.00279957,0.0033169,0.00392204,0.00462991,0.00545793,0.00642652,0.00755952,0.00888484,0.0104351,0.0122486,0.0143699,0.0168513,0.0197539,0.0231492,0.0271209,0.0317668,inf	309.545,309.545,137.607,155.4,153.375,148.775,151.084,163.611,189.11,229.416,284.431,352.59,431.329,514.557,589.403,639.827,658.286,649.258,621.348,583.481,543.01,502.622,460.946,417.484,376.315,345.022,331.03,347.136,347.136,449.64,449.64,449.64
0.000925546	-309819.07	0,4.20994e-05,9.13453e-05,0.000148951,0.000216334,0.000295157,0.000387359,0.000495212,0.000621374,0.000768952,0.000941581,0.00114351,0.00137972,0.00165603,0.00197924,0.00235732,0.00279957,0.0033169,0.00392204,0.00462991,0.00545793,0.00642652,0.00755952,0.00888484,0.0104351,0.0122486,0.0143699,0.0168513,0.0197539,0.0231492,0.0271209,0.0317668,inf	336.103,336.103,136.069,157.868,150.608,140.148,138.398,148.589,173.427,214.763,272.293,344.174,428.032,518.485,602.813,663.217,689.434,684.187,655.346,612.482,564.497,514.881,462.292,407.309,356.551,319.804,305.183,328.068,328.068,463.403,463.403,463.403
0.000998316	-309737.55	0,4.20994e-05,9.13453e-05,0.000148951,0.000216334,0.000295157,0.000387359,0.000495212,0.000621374,0.000768952,0.000941581,0.00114351,0.00137972,0.00165603,0.00197924,0.00235732,0.00279957,0.0033169,0.00392204,0.00462991,0.00545793,0.00642652,0.00755952,0.00888484,0.0104351,0.0122486,0.0143699,0.0168513,0.0197539,0.0231492,0.0271209,0.0317668,inf	351.776,351.776,137.409,164.776,152.77,136.956,131.702,139.976,164.251,206.209,265.18,338.91,425.115,519.137,608.876,675.889,708.186,706.833,678.411,632.383,578.611,521.15,458.915,394.052,335.844,295.649,281.447,310.532,310.532,475.94,475.94,475.94
0.00106955	-309671.15	0,4.20994e-05,9.13453e-05,0.000148951,0.000216334,0.000295157,0.000387359,0.000495212,0.000621374,0.000768952,0.000941581,0.00114351,0.00137972,0.00165603,0.00197924,0.00235732,0.00279957,0.0033169,0.00392204,0.00462991,0.00545793,0.00642652,0.00755952,0.00888484,0.0104351,0.0122486,0.0143699,0.0168513,0.0197539,0.0231492,0.0271209,0.0317668,inf	356.944,356.944,139.032,173.176,157.016,136.388,128.162,134.955,158.907,201.419,261.335,335.919,422.918,518.355,610.91,682.115,718.978,721.166,693.796,645.777,587.457,523.253,452.538,379.389,315.647,273.56,260.386,294.847,294.847,487.157,487.157,487.157
0.00113962	-309613.68	0,4.20994e-05,9.13453e-05,0.000148951,0.000216334,0.000295157,0.000387359,0.000495212,0.000621374,0.000768952,0.000941581,0.00114351,0.00137972,0.00165603,0.00197924,0.00235732,0.00279957,0.0033169,0.00392204,0.00462991,0.00545793,0.00642652,0.00755952,0.00888484,0.0104351,0.0122486,0.0143699,0.0168513,0.0197539,0.0231492,0.0271209,0.0317668,inf	354.409,354.409,140.033,181.761,162.051,137.141,126.419,132.112,155.988,199.087,259.697,334.557,421.431,516.971,610.678,684.382,724.589,729.834,703.779,654.539,592.591,522.561,444.458,364.511,296.844,253.991,242.135,281.095,281.095,497.046,497.046,497.046
0.00120881	-309562.19	0,4.20994e-05,9.13453e-05,0.000148951,0.000216334,0.000295157,0.000387359,0.000495212,0.000621374,0.000768952,0.000941581,0.00114351,0.00137972,0.00165603,0.00197924,0.00235732,0.00279957,0.0033169,0.00392204,0.00462991,0.00545793,0.00642652,0.00755952,0.00888484,0.0104351,0.0122486,0.0143699,0.0168513,0.0197539,0.0231492,0.0271209,0.0317668,inf	347.157,347.157,140.185,189.923,167.234,138.556,125.756,130.673,154.684,198.429,259.583,334.36,420.54,515.371,609.147,684.179,726.785,734.614,709.958,660.022,595.162,520.098,435.626,350.205,279.899,237.035,226.578,269.214,269.214,505.669,505.669,505.669
0.00127731	-309515.10	0,4.20994e-05,9.13453e-05,0.000148951,0.000216334,0.000295157,0.000387359,0.000495212,0.000621374,0.000768952,0.000941581,0.00114351,0.00137972,0.00165603,0.00197924,0.00235732,0.00279957,0.0033169,0.00392204,0.00462991,0.00545793,0.00642652,0.00755952,0.00888484,0.0104351,0.0122486,0.0143699,0.0168513,0.0197539,0.0231492,0.0271209,0.0317668,inf	337.535,337.535,139.537,197.4,172.241,140.276,125.768,130.178,154.5,198.942,260.542,334.993,420.118,513.727,606.872,682.418,726.712,736.706,713.451,663.196,596.001,516.609,426.701,336.947,264.973,222.566,213.461,259.055,259.055,513.13,513.13,513.13
0.00134527	-309471.49	0,4.20994e-05,9.13453e-05,0.000148951,0.000216334,0.000295157,0.000387359,0.000495212,0.000621374,0.000768952,0.000941581,0.00114351,0.00137972,0.00165603,0.00197924,0.00235732,0.00279957,0.0033169,0.00392204,0.00462991,0.00545793,0.00642652,0.00755952,0.00888484,0.0104351,0.0122486,0.0143699,0.0168513,0.0197539,0.0231492,0.0271209,0.0317668,inf	327.117,327.117,138.24,204.103,176.911,142.103,126.212,130.342,155.114,200.294,262.261,336.214,420.049,512.118,604.174,679.674,725.122,736.933,715.043,664.752,595.707,512.618,418.111,324.969,252.033,210.339,202.475,250.429,250.429,519.547,519.547,519.547
0.00141279	-309430.79	0,4.20994e-05,9.13453e-05,0.000148951,0.000216334,0.000295157,0.000387359,0.000495212,0.000621374,0.000768952,0.000941581,0.00114351,0.00137972,0.00165603,0.00197924,0.00235732,0.00279957,0.0033169,0.00392204,0.00462991,0.00545793,0.00642652,0.00755952,0.00888484,0.0104351,0.0122486,0.0143699,0.0168513,0.0197539,0.0231492,0.0271209,0.0317668,inf	316.856,316.856,136.468,210.036,181.175,143.928,126.942,130.98,156.313,202.253,264.519,337.848,420.241,510.57,601.246,676.312,722.517,735.859,715.286,665.18,594.694,508.471,410.104,314.341,240.932,200.066,193.306,243.137,243.137,525.052,525.052,525.052
0.00147993	-309392.58	0,4.20994e-05,9.13453e-05,0.000148951,0.000216334,0.000295157,0.000387359,0.000495212,0.000621374,0.000768952,0.000941581,0.00114351,0.00137972,0.00165603,0.00197924,0.00235732,0.00279957,0.0033169,0.00392204,0.00462991,0.00545793,0.00642652,0.00755952,0.00888484,0.0104351,0.0122486,0.0143699,0.0168513,0.0197539,0.0231492,0.0271209,0.0317668,inf	307.27,307.27,134.382,215.255,185.017,145.695,127.863,131.966,157.947,204.657,267.159,339.765,420.616,509.09,598.203,672.57,719.234,733.875,714.568,664.819,593.242,504.389,402.802,305.025,231.469,191.458,185.661,236.985,236.985,529.763,529.763,529.763
0.00154674	-309356.56	0,4.20994e-05,9.13453e-05,0.000148951,0.000216334,0.000295157,0.000387359,0.000495212,0.000621374,0.000768952,0.000941581,0.00114351,0.00137972,0.00165603,0.00197924,0.00235732,0.00279957,0.0033169,0.00392204,0.00462991,0.00545793,0.00642652,0.00755952,0.00888484,0.0104351,0.0122486,0.0143699,0.0168513,0.0197539,0.0231492,0.0271209,0.0317668,inf	298.596,298.596,132.122,219.839,188.452,147.376,128.915,133.214,159.907,207.386,270.063,341.869,421.117,507.674,595.116,668.605,715.504,731.252,713.161,663.906,591.536,500.494,396.237,296.921,223.431,184.25,179.283,231.797,231.797,533.79,533.79,533.79
0.00161324	-309322.50	0,4.20994e-05,9.13453e-05,0.000148951,0.000216334,0.000295157,0.000387359,0.000495212,0.000621374,0.000768952,0.000941581,0.00114351,0.00137972,0.00165603,0.00197924,0.00235732,0.00279957,0.0033169,0.00392204,0.00462991,0.00545793,0.00642652,0.00755952,0.00888484,0.0104351,0.0122486,0.0143699,0.0168513,0.0197539,0.0231492,0.0271209,0.0317668,inf	290.907,290.907,129.799,223.872,191.51,148.962,130.06,134.664,162.118,210.353,273.146,344.09,421.698,506.314,592.028,664.52,711.485,728.185,711.257,662.602,589.693,496.847,390.387,289.906,216.612,178.208,173.954,227.418,227.418,537.226,537.226,537.226
0.00167945	-309290.20	0,4.20994e-05,9.13453e-05,0.000148951,0.000216334,0.000295157,0.000387359,0.000495212,0.000621374,0.000768952,0.000941581,0.00114351,0.00137972,0.00165603,0.00197924,0.00235732,0.00279957,0.0033169,0.00392204,0.00462991,0.00545793,0.00642652,0.00755952,0.00888484,0.0104351,0.0122486,0.0143699,0.0168513,0.0197539,0.0231492,0.0271209,0.0317668,inf	284.182,284.182,127.499,227.44,194.227,150.453,131.273,136.271,164.52,213.491,276.345,346.375,422.327,505.001,588.966,660.385,707.287,724.807,708.992,661.017,587.781,493.467,385.2,283.845,210.826,173.135,169.49,223.718,223.718,540.152,540.152,540.152
0.00174537	-309259.51	0,4.20994e-05,9.13453e-05,0.000148951,0.000216334,0.000295157,0.000387359,0.000495212,0.000621374,0.000768952,0.000941581,0.00114351,0.00137972,0.00165603,0.00197924,0.00235732,0.00279957,0.0033169,0.00392204,0.00462991,0.00545793,0.00642652,0.00755952,0.00888484,0.0104351,0.0122486,0.0143699,0.0168513,0.0197539,0.0231492,0.0271209,0.0317668,inf	278.355,278.355,125.285,230.618,196.642,151.854,132.535,138.001,167.068,216.751,279.609,348.686,422.977,503.73,585.947,656.247,702.988,721.217,706.463,659.228,585.843,490.349,380.611,278.61,205.909,168.865,165.742,220.585,220.585,542.635,542.635,542.635
0.00181101	-309230.29	0,4.20994e-05,9.13453e-05,0.000148951,0.000216334,0.000295157,0.000387359,0.000495212,0.000621374,0.000768952,0.000941581,0.00114351,0.00137972,0.00165603,0.00197924,0.00235732,0.00279957,0.0033169,0.00392204,0.00462991,0.00545793,0.00642652,0.00755952,0.00888484,0.0104351,0.0122486,0.0143699,0.0168513,0.0197539,0.0231492,0.0271209,0.0317668,inf	273.341,273.341,123.2,233.476,198.793,153.174,133.835,139.83,169.729,220.093,282.905,350.994,423.633,502.493,582.981,652.138,698.643,717.487,703.743,657.287,583.899,487.473,376.548,274.083,201.723,165.261,162.585,217.926,217.926,544.732,544.732,544.732
0.00187637	-309202.41	0,4.20994e-05,9.13453e-05,0.000148951,0.000216334,0.000295157,0.000387359,0.000495212,0.000621374,0.000768952,0.000941581,0.00114351,0.00137972,0.00165603,0.00197924,0.00235732,0.00279957,0.0033169,0.00392204,0.00462991,0.00545793,0.00642652,0.00755952,0.00888484,0.0104351,0.0122486,0.0143699,0.0168513,0.0197539,0.0231492,0.0271209,0.0317668,inf	269.052,269.052,121.274,236.072,200.712,154.421,135.164,141.737,172.474,223.486,286.202,353.279,424.279,501.286,580.076,648.081,694.292,713.668,700.883,655.23,581.959,484.814,372.945,270.162,198.15,162.21,159.919,215.663,215.663,546.492,546.492,546.492
0.00194145	-309175.79	0,4.20994e-05,9.13453e-05,0.000148951,0.000216334,0.000295157,0.000387359,0.000495212,0.000621374,0.000768952,0.000941581,0.00114351,0.00137972,0.00165603,0.00197924,0.00235732,0.00279957,0.0033169,0.00392204,0.00462991,0.00545793,0.00642652,0.00755952,0.00888484,0.0104351,0.0122486,0.0143699,0.0168513,0.0197539,0.0231492,0.0271209,0.0317668,inf	265.4,265.4,119.526,238.451,202.432,155.605,136.517,143.708,175.284,226.908,289.482,355.527,424.909,500.106,577.236,644.093,689.964,709.8,697.922,653.085,580.027,482.345,369.737,266.755,195.092,159.622,157.663,213.733,213.733,547.955,547.955,547.955
0.00200625	-309150.34	0,4.20994e-05,9.13453e-05,0.000148951,0.000216334,0.000295157,0.000387359,0.000495212,0.000621374,0.000768952,0.000941581,0.00114351,0.00137972,0.00165603,0.00197924,0.00235732,0.00279957,0.0033169,0.00392204,0.00462991,0.00545793,0.00642652,0.00755952,0.00888484,0.0104351,0.0122486,0.0143699,0.0168513,0.0197539,0.0231492,0.0271209,0.0317668,inf	262.305,262.305,117.964,240.657,203.977,156.732,137.889,145.73,178.139,230.339,292.729,357.726,425.514,498.951,574.463,640.183,685.681,705.913,694.891,650.871,578.103,480.038,366.867,263.784,192.466,157.419,155.748,212.083,212.083,549.155,549.155,549.155
