time_index	left_time_boundary	right_time_boundary	lambda
0	0	2.67211e-06	91.8185
1	2.67211e-06	6.14015e-06	91.8185
2	6.14015e-06	1.06412e-05	106.683
3	1.06412e-05	1.6483e-05	132.71
4	1.6483e-05	2.40648e-05	225.346
5	2.40648e-05	3.3905e-05	180.534
6	3.3905e-05	4.66762e-05	109.34
7	4.66762e-05	6.32516e-05	97.0917
8	6.32516e-05	8.47642e-05	121.211
9	8.47642e-05	0.000112685	149.744
10	0.000112685	0.000148922	158.532
11	0.000148922	0.000195952	151.518
12	0.000195952	0.000256992	142.863
13	0.000256992	0.000336213	140.6
14	0.000336213	0.000439032	148.404
15	0.000439032	0.000572476	168.909
16	0.000572476	0.00074567	202.454
17	0.00074567	0.000970451	247.459
18	0.000970451	0.00126219	304.923
19	0.00126219	0.00164082	380.509
20	0.00164082	0.00213224	482.046
21	0.00213224	0.00277003	602.069
22	0.00277003	0.0035978	691.761
23	0.0035978	0.00467214	697.144
24	0.00467214	0.00606648	636.269
25	0.00606648	0.00787614	570.852
26	0.00787614	0.0102248	505.328
27	0.0102248	0.0132732	560.305
28	0.0132732	0.0172294	560.305
29	0.0172294	0.0223642	9.10412
30	0.0223642	0.0290284	9.10412
31	0.0290284	inf	9.10412
