0.000229436	-5995496.33	0,6.44078e-07,1.49249e-06,2.61006e-06,4.08217e-06,6.02131e-06,8.57565e-06,1.19403e-05,1.63725e-05,2.22107e-05,2.99011e-05,4.00312e-05,5.33752e-05,7.09525e-05,9.41061e-05,0.000124605,0.00016478,0.0002177,0.00028741,0.000379234,0.00050019,0.000659518,0.000869394,0.00114585,0.00151002,0.00198971,0.00262159,0.00345393,0.00455032,0.00599455,0.00789696,0.0104029,inf	59.1875,59.1875,160.8,297.754,363.578,318.458,288.005,297.343,288.991,275.738,273.974,284.065,306.045,333.531,367.498,415.45,480.189,569.892,699.056,884.281,1145.41,1454.67,1652.54,1638.85,1538.97,1435.33,1341.65,1252.96,1252.96,1158.62,1158.62,1158.62
0.00023535	-5984140.60	0,6.44078e-07,1.49249e-06,2.61006e-06,4.08217e-06,6.02131e-06,8.57565e-06,1.19403e-05,1.63725e-05,2.22107e-05,2.99011e-05,4.00312e-05,5.33752e-05,7.09525e-05,9.41061e-05,0.000124605,0.00016478,0.0002177,0.00028741,0.000379234,0.00050019,0.000659518,0.000869394,0.00114585,0.00151002,0.00198971,0.00262159,0.00345393,0.00455032,0.00599455,0.00789696,0.0104029,inf	10.5664,10.5664,77.682,269.828,408.938,316.619,255.705,265.356,238.082,201.227,181.995,177.814,187.191,199.313,216.163,249.322,301.187,383.809,521.082,740.99,1091.73,1595.98,2038.6,2097.74,1946.78,1752.75,1556.57,1363.59,1363.59,1150.67,1150.67,1150.67
0.000240747	-5980267.16	0,6.44078e-07,1.49249e-06,2.61006e-06,4.08217e-06,6.02131e-06,8.57565e-06,1.19403e-05,1.63725e-05,2.22107e-05,2.99011e-05,4.00312e-05,5.33752e-05,7.09525e-05,9.41061e-05,0.000124605,0.00016478,0.0002177,0.00028741,0.000379234,0.00050019,0.000659518,0.000869394,0.00114585,0.00151002,0.00198971,0.00262159,0.00345393,0.00455032,0.00599455,0.00789696,0.0104029,inf	2.19794,2.19794,41.5226,261.421,497.952,362.419,280.155,302.79,260.091,203.218,172.96,162.729,167.482,170.006,174.057,194.78,231.884,298.738,425.382,645.848,1026.29,1638.01,2293.07,2462.74,2299.36,2029.56,1724.28,1416.44,1416.44,1079.45,1079.45,1079.45
0.000245078	-5978633.32	0,6.44078e-07,1.49249e-06,2.61006e-06,4.08217e-06,6.02131e-06,8.57565e-06,1.19403e-05,1.63725e-05,2.22107e-05,2.99011e-05,4.00312e-05,5.33752e-05,7.09525e-05,9.41061e-05,0.000124605,0.00016478,0.0002177,0.00028741,0.000379234,0.00050019,0.000659518,0.000869394,0.00114585,0.00151002,0.00198971,0.00262159,0.00345393,0.00455032,0.00599455,0.00789696,0.0104029,inf	1.09459,1.09459,20.2734,226.833,546.139,384.703,293.822,337.466,285.68,214.418,178.306,167.368,172.729,169.453,164.288,176.718,202.589,255.522,369.549,581.433,968.888,1639,2464,2753.09,2598.34,2261.49,1841.69,1418,1418,977.804,977.804,977.804
0.000248491	-5977837.47	0,6.44078e-07,1.49249e-06,2.61006e-06,4.08217e-06,6.02131e-06,8.57565e-06,1.19403e-05,1.63725e-05,2.22107e-05,2.99011e-05,4.00312e-05,5.33752e-05,7.09525e-05,9.41061e-05,0.000124605,0.00016478,0.0002177,0.00028741,0.000379234,0.00050019,0.000659518,0.000869394,0.00114585,0.00151002,0.00198971,0.00262159,0.00345393,0.00455032,0.00599455,0.00789696,0.0104029,inf	1.09459,1.09459,9.29575,183.907,559.843,383.732,291.286,357.216,301.441,221.079,183.135,175.095,184.738,178.365,166.351,173.36,190.789,232.442,335.24,536.488,921.726,1623.29,2582.41,2987.97,2850.2,2449.29,1912.82,1383.32,1383.32,873.303,873.303,873.303
0.000251201	-5977406.76	0,6.44078e-07,1.49249e-06,2.61006e-06,4.08217e-06,6.02131e-06,8.57565e-06,1.19403e-05,1.63725e-05,2.22107e-05,2.99011e-05,4.00312e-05,5.33752e-05,7.09525e-05,9.41061e-05,0.000124605,0.00016478,0.0002177,0.00028741,0.000379234,0.00050019,0.000659518,0.000869394,0.00114585,0.00151002,0.00198971,0.00262159,0.00345393,0.00455032,0.00599455,0.00789696,0.0104029,inf	1.09459,1.09459,4.18254,146.35,561.999,373.508,280.421,366.28,308.334,221.796,184.082,180.748,196.988,189.741,172.876,176.652,187.637,220.118,313.51,504.257,883.418,1601.27,2667.08,3181.97,3061.87,2596.25,1946.03,1328.53,1328.53,779.222,779.222,779.222
0.000253379	-5977154.41	0,6.44078e-07,1.49249e-06,2.61006e-06,4.08217e-06,6.02131e-06,8.57565e-06,1.19403e-05,1.63725e-05,2.22107e-05,2.99011e-05,4.00312e-05,5.33752e-05,7.09525e-05,9.41061e-05,0.000124605,0.00016478,0.0002177,0.00028741,0.000379234,0.00050019,0.000659518,0.000869394,0.00114585,0.00151002,0.00198971,0.00262159,0.00345393,0.00455032,0.00599455,0.00789696,0.0104029,inf	1.09459,1.09459,1.88433,117.008,565.424,362.165,267.289,370.282,309.972,218.235,181.261,182.932,206.76,200.362,180.474,182.874,188.989,213.909,299.528,480.582,852.164,1577.41,2728.86,3345.21,3239.34,2706.91,1951.08,1266.25,1266.25,699.011,699.011,699.011
0.000255156	-5976997.44	0,6.44078e-07,1.49249e-06,2.61006e-06,4.08217e-06,6.02131e-06,8.57565e-06,1.19403e-05,1.63725e-05,2.22107e-05,2.99011e-05,4.00312e-05,5.33752e-05,7.09525e-05,9.41061e-05,0.000124605,0.00016478,0.0002177,0.00028741,0.000379234,0.00050019,0.000659518,0.000869394,0.00114585,0.00151002,0.00198971,0.00262159,0.00345393,0.00455032,0.00599455,0.00789696,0.0104029,inf	1.09459,1.09459,1.09462,94.6334,574.188,353.008,255.157,373.4,309.681,212.625,176.042,182.082,213.436,208.983,187.607,190.211,192.778,211.395,290.583,462.878,826.444,1553.74,2774.77,3485.05,3387.82,2786.56,1937.22,1204.76,1204.76,631.671,631.671,631.671
0.000256627	-5976895.03	0,6.44078e-07,1.49249e-06,2.61006e-06,4.08217e-06,6.02131e-06,8.57565e-06,1.19403e-05,1.63725e-05,2.22107e-05,2.99011e-05,4.00312e-05,5.33752e-05,7.09525e-05,9.41061e-05,0.000124605,0.00016478,0.0002177,0.00028741,0.000379234,0.00050019,0.000659518,0.000869394,0.00114585,0.00151002,0.00198971,0.00262159,0.00345393,0.00455032,0.00599455,0.00789696,0.0104029,inf	1.09459,1.09459,1.0946,77.3502,588.056,346.332,244.619,377.638,309.53,206.557,169.701,179.125,217.287,215.276,193.571,197.677,197.85,211.189,285.032,449.459,805.068,1531.15,2809.38,3606.74,3511.68,2840.58,1912.08,1148.62,1148.62,574.89,574.89,574.89
0.000257862	-5976825.59	0,6.44078e-07,1.49249e-06,2.61006e-06,4.08217e-06,6.02131e-06,8.57565e-06,1.19403e-05,1.63725e-05,2.22107e-05,2.99011e-05,4.00312e-05,5.33752e-05,7.09525e-05,9.41061e-05,0.000124605,0.00016478,0.0002177,0.00028741,0.000379234,0.00050019,0.000659518,0.000869394,0.00114585,0.00151002,0.00198971,0.00262159,0.00345393,0.00455032,0.00599455,0.00789696,0.0104029,inf	1.09459,1.09459,1.0946,63.6037,605.098,341.177,235.511,383.441,310.421,200.913,163.145,174.94,218.931,219.383,198.119,204.727,203.515,212.447,281.835,439.19,787.13,1509.98,2835.71,3714.14,3614.59,2874.01,1881.27,1099.89,1099.89,526.298,526.298,526.298
0.000258911	-5976776.99	0,6.44078e-07,1.49249e-06,2.61006e-06,4.08217e-06,6.02131e-06,8.57565e-06,1.19403e-05,1.63725e-05,2.22107e-05,2.99011e-05,4.00312e-05,5.33752e-05,7.09525e-05,9.41061e-05,0.000124605,0.00016478,0.0002177,0.00028741,0.000379234,0.00050019,0.000659518,0.000869394,0.00114585,0.00151002,0.00198971,0.00262159,0.00345393,0.00455032,0.00599455,0.00789696,0.0104029,inf	1.09459,1.09459,1.0946,52.4192,623.434,336.621,227.489,390.893,312.493,196.062,156.866,170.232,219.012,221.645,201.248,211.076,209.348,214.631,280.308,431.283,771.939,1490.29,2855.87,3810.09,3699.64,2891.35,1848.66,1059.18,1059.18,483.885,483.885,483.885
0.000259813	-5976742.06	0,6.44078e-07,1.49249e-06,2.61006e-06,4.08217e-06,6.02131e-06,8.57565e-06,1.19403e-05,1.63725e-05,2.22107e-05,2.99011e-05,4.00312e-05,5.33752e-05,7.09525e-05,9.41061e-05,0.000124605,0.00016478,0.0002177,0.00028741,0.000379234,0.00050019,0.000659518,0.000869394,0.00114585,0.00151002,0.00198971,0.00262159,0.00345393,0.00455032,0.00599455,0.00789696,0.0104029,inf	1.09459,1.09459,1.0946,43.1502,641.764,331.928,220.016,399.387,315.75,192.109,151.176,165.477,218.133,222.474,203.089,216.595,215.083,217.386,279.982,425.18,758.968,1472.06,2871.32,3896.77,3769.43,2896.45,1816.63,1026.25,1026.25,446.109,446.109,446.109
0.000260595	-5976716.39	0,6.44078e-07,1.49249e-06,2.61006e-06,4.08217e-06,6.02131e-06,8.57565e-06,1.19403e-05,1.63725e-05,2.22107e-05,2.99011e-05,4.00312e-05,5.33752e-05,7.09525e-05,9.41061e-05,0.000124605,0.00016478,0.0002177,0.00028741,0.000379234,0.00050019,0.000659518,0.000869394,0.00114585,0.00151002,0.00198971,0.00262159,0.00345393,0.00455032,0.00599455,0.00789696,0.0104029,inf	1.09459,1.09459,1.0946,35.4605,659.065,326.86,212.789,408.505,319.999,188.993,146.16,160.965,216.751,222.254,203.825,221.251,220.557,220.472,280.533,420.474,747.809,1455.19,2883.14,3975.83,3826.17,2892.43,1786.6,1000.53,1000.53,411.816,411.816,411.816
0.000261281	-5976697.16	0,6.44078e-07,1.49249e-06,2.61006e-06,4.08217e-06,6.02131e-06,8.57565e-06,1.19403e-05,1.63725e-05,2.22107e-05,2.99011e-05,4.00312e-05,5.33752e-05,7.09525e-05,9.41061e-05,0.000124605,0.00016478,0.0002177,0.00028741,0.000379234,0.00050019,0.000659518,0.000869394,0.00114585,0.00151002,0.00198971,0.00262159,0.00345393,0.00455032,0.00599455,0.00789696,0.0104029,inf	1.09459,1.09459,1.0946,29.0756,674.964,320.899,205.603,417.719,324.944,186.619,141.813,156.854,215.194,221.313,203.653,225.069,225.669,223.723,281.725,416.867,738.145,1439.57,2892.11,4048.57,3871.74,2881.8,1759.25,981.286,981.286,380.236,380.236,380.236
0.000261888	-5976682.52	0,6.44078e-07,1.49249e-06,2.61006e-06,4.08217e-06,6.02131e-06,8.57565e-06,1.19403e-05,1.63725e-05,2.22107e-05,2.99011e-05,4.00312e-05,5.33752e-05,7.09525e-05,9.41061e-05,0.000124605,0.00016478,0.0002177,0.00028741,0.000379234,0.00050019,0.000659518,0.000869394,0.00114585,0.00151002,0.00198971,0.00262159,0.00345393,0.00455032,0.00599455,0.00789696,0.0104029,inf	1.09459,1.09459,1.0946,23.8349,689.579,314.288,198.189,426.88,330.412,184.881,138.076,153.219,213.698,219.915,202.761,228.106,230.365,227.023,283.388,414.132,729.727,1425.09,2898.81,4116.02,3907.74,2866.52,1734.79,967.795,967.795,350.908,350.908,350.908
0.000262427	-5976671.22	0,6.44078e-07,1.49249e-06,2.61006e-06,4.08217e-06,6.02131e-06,8.57565e-06,1.19403e-05,1.63725e-05,2.22107e-05,2.99011e-05,4.00312e-05,5.33752e-05,7.09525e-05,9.41061e-05,0.000124605,0.00016478,0.0002177,0.00028741,0.000379234,0.00050019,0.000659518,0.000869394,0.00114585,0.00151002,0.00198971,0.00262159,0.00345393,0.00455032,0.00599455,0.00789696,0.0104029,inf	1.09459,1.09459,1.0946,19.4938,703.161,307.086,190.622,435.585,336.123,183.679,134.892,150.065,212.397,218.264,201.314,230.437,234.622,230.291,285.395,412.097,722.355,1411.63,2903.69,4179,3935.52,2848.08,1713.16,959.345,959.345,323.767,323.767,323.767
0.000262911	-5976662.40	0,6.44078e-07,1.49249e-06,2.61006e-06,4.08217e-06,6.02131e-06,8.57565e-06,1.19403e-05,1.63725e-05,2.22107e-05,2.99011e-05,4.00312e-05,5.33752e-05,7.09525e-05,9.41061e-05,0.000124605,0.00016478,0.0002177,0.00028741,0.000379234,0.00050019,0.000659518,0.000869394,0.00114585,0.00151002,0.00198971,0.00262159,0.00345393,0.00455032,0.00599455,0.00789696,0.0104029,inf	1.09459,1.09459,1.0946,15.9286,716.045,299.352,182.848,443.678,341.983,182.831,132.163,147.369,211.386,216.502,199.458,232.146,238.435,233.472,287.652,410.627,715.869,1399.1,2907.09,4238.15,3956.25,2827.59,1694.13,955.258,955.258,299.112,299.112,299.112
0.000263348	-5976655.43	0,6.44078e-07,1.49249e-06,2.61006e-06,4.08217e-06,6.02131e-06,8.57565e-06,1.19403e-05,1.63725e-05,2.22107e-05,2.99011e-05,4.00312e-05,5.33752e-05,7.09525e-05,9.41061e-05,0.000124605,0.00016478,0.0002177,0.00028741,0.000379234,0.00050019,0.000659518,0.000869394,0.00114585,0.00151002,0.00198971,0.00262159,0.00345393,0.00455032,0.00599455,0.00789696,0.0104029,inf	1.09459,1.09459,1.0946,13.0223,728.263,291.224,174.991,450.914,347.836,182.275,129.817,145.094,210.71,214.738,197.31,233.313,241.815,236.525,290.086,409.62,710.14,1387.4,2909.27,4294.02,3970.91,2805.88,1677.35,954.838,954.838,277.604,277.604,277.604
0.000263744	-5976649.88	0,6.44078e-07,1.49249e-06,2.61006e-06,4.08217e-06,6.02131e-06,8.57565e-06,1.19403e-05,1.63725e-05,2.22107e-05,2.99011e-05,4.00312e-05,5.33752e-05,7.09525e-05,9.41061e-05,0.000124605,0.00016478,0.0002177,0.00028741,0.000379234,0.00050019,0.000659518,0.000869394,0.00114585,0.00151002,0.00198971,0.00262159,0.00345393,0.00455032,0.00599455,0.00789696,0.0104029,inf	1.09459,1.09459,1.0946,10.6403,740.207,282.887,167.124,457.423,353.571,181.91,127.787,143.189,210.379,213.051,194.967,234.02,244.783,239.426,292.642,408.991,705.06,1376.46,2910.46,4347.06,3980.35,2783.52,1662.42,957.26,957.26,259.993,259.993,259.993
0.000264105	-5976645.42	0,6.44078e-07,1.49249e-06,2.61006e-06,4.08217e-06,6.02131e-06,8.57565e-06,1.19403e-05,1.63725e-05,2.22107e-05,2.99011e-05,4.00312e-05,5.33752e-05,7.09525e-05,9.41061e-05,0.000124605,0.00016478,0.0002177,0.00028741,0.000379234,0.00050019,0.000659518,0.000869394,0.00114585,0.00151002,0.00198971,0.00262159,0.00345393,0.00455032,0.00599455,0.00789696,0.0104029,inf	1.09459,1.09459,1.0946,8.68797,752.275,274.313,159.298,463.046,359.097,181.671,126.01,141.604,210.383,211.485,192.509,234.337,247.361,242.158,295.277,408.676,700.543,1366.2,2910.81,4397.63,3985.3,2760.94,1648.9,961.561,961.561,246.717,246.717,246.717
