LogLikelihood = -662777.16817507357337

y0 0.18041125215763370582
y0_prime 0
y1 0.2078131270159262467
y1_prime 0
y2 2.2010007926159840252
y2_prime 0
y3 60.887297987553708367
y3_prime 0
rho 0.00026252535352802824735
theta 0.0018243799299406265619
