LogLikelihood = -170886.37508414761396

y0 0.85302032764888635619
y0_prime 0
y1 1.1306742567928522725
y1_prime 0
y2 0.77144615495171064978
y2_prime 0
y3 1.8425557522735789284
y3_prime 0
rho 0.00189781961923437127
rho.alpha 0.34709308686648532305
r_ii 0.99988519216827187464
theta 0.0025269780771795809053
