AIC = 646022.71727844898123

y0 0.95987695154600283232
y0_prime 0
y1 1.2017708327357494724
y1_prime 0
y2 0.98229891069269936743
y2_prime 0
y3 1.8163983176839655354
y3_prime 0
rho 0.0030049613639398647935
rho.alpha 0.24275048021244322038
r_ii 0.99994745489698322327
theta 0.0054416902962956962067
