0.000238071	-136567.50	0,1.59282e-05,3.45602e-05,5.6355e-05,8.18495e-05,0.000111672,0.000146556,0.000187362,0.000235095,0.000290931,0.000356244,0.000432645,0.000522015,0.000626555,0.000748841,0.000891884,0.00105921,0.00125494,0.00148389,0.00175171,0.00206499,0.00243145,0.00286012,0.00336155,0.00394811,0.00463423,0.00543681,0.00637564,0.00747383,0.00875844,0.0102611,0.0120189,inf	220.321,220.321,294.215,303.248,320.813,359.43,416.591,488.017,571.081,668.9,792.907,953.623,1147.52,1344.94,1498.02,1581.5,1602.33,1575.63,1522.02,1462.8,1408.95,1363.3,1324.23,1288.99,1255.53,1224.27,1197.97,1176.08,1176.08,1164.67,1164.67,1164.67
0.000247146	-136304.08	0,1.59282e-05,3.45602e-05,5.6355e-05,8.18495e-05,0.000111672,0.000146556,0.000187362,0.000235095,0.000290931,0.000356244,0.000432645,0.000522015,0.000626555,0.000748841,0.000891884,0.00105921,0.00125494,0.00148389,0.00175171,0.00206499,0.00243145,0.00286012,0.00336155,0.00394811,0.00463423,0.00543681,0.00637564,0.00747383,0.00875844,0.0102611,0.0120189,inf	129.33,129.33,204.135,183.22,172.26,189.97,234.372,300.872,385.192,490.653,635.479,841.928,1118.14,1436.79,1726.79,1925.28,2016.24,2005.66,1925.22,1821.52,1723.04,1639.01,1566.15,1498.43,1431.61,1367.59,1313.85,1270.78,1270.78,1251.68,1251.68,1251.68
0.000256209	-136212.54	0,1.59282e-05,3.45602e-05,5.6355e-05,8.18495e-05,0.000111672,0.000146556,0.000187362,0.000235095,0.000290931,0.000356244,0.000432645,0.000522015,0.000626555,0.000748841,0.000891884,0.00105921,0.00125494,0.00148389,0.00175171,0.00206499,0.00243145,0.00286012,0.00336155,0.00394811,0.00463423,0.00543681,0.00637564,0.00747383,0.00875844,0.0102611,0.0120189,inf	119.959,119.959,218.322,162.774,127.579,130.129,162.632,219.676,295.94,394.3,537.483,756.234,1068.73,1456.26,1843.39,2144.66,2318.32,2347.25,2260.99,2127.54,1995.24,1881.88,1782.07,1686.06,1587.56,1491.06,1410.42,1347.74,1347.74,1324.23,1324.23,1324.23
0.000264481	-136172.75	0,1.59282e-05,3.45602e-05,5.6355e-05,8.18495e-05,0.000111672,0.000146556,0.000187362,0.000235095,0.000290931,0.000356244,0.000432645,0.000522015,0.000626555,0.000748841,0.000891884,0.00105921,0.00125494,0.00148389,0.00175171,0.00206499,0.00243145,0.00286012,0.00336155,0.00394811,0.00463423,0.00543681,0.00637564,0.00747383,0.00875844,0.0102611,0.0120189,inf	125.159,125.159,266.203,166.955,110.091,103.531,129.116,179.688,248.547,337.732,473.527,693.065,1021.99,1449.69,1903.44,2287.52,2540.19,2617.05,2536.66,2383.44,2225.81,2090.9,1970.29,1850.16,1722.33,1594.77,1488.78,1408.55,1408.55,1382.57,1382.57,1382.57
0.000271959	-136152.59	0,1.59282e-05,3.45602e-05,5.6355e-05,8.18495e-05,0.000111672,0.000146556,0.000187362,0.000235095,0.000290931,0.000356244,0.000432645,0.000522015,0.000626555,0.000748841,0.000891884,0.00105921,0.00125494,0.00148389,0.00175171,0.00206499,0.00243145,0.00286012,0.00336155,0.00394811,0.00463423,0.00543681,0.00637564,0.00747383,0.00875844,0.0102611,0.0120189,inf	127.806,127.806,324.846,176.791,101.454,89.6954,111.809,158.84,222.196,302.771,430.042,646.158,982.267,1434.21,1934.05,2383.32,2706.67,2832.37,2763.15,2595.98,2418.92,2268.47,2132.02,1991.41,1836.82,1680.39,1551.34,1455.63,1455.63,1428.48,1428.48,1428.48
0.000278769	-136141.17	0,1.59282e-05,3.45602e-05,5.6355e-05,8.18495e-05,0.000111672,0.000146556,0.000187362,0.000235095,0.000290931,0.000356244,0.000432645,0.000522015,0.000626555,0.000748841,0.000891884,0.00105921,0.00125494,0.00148389,0.00175171,0.00206499,0.00243145,0.00286012,0.00336155,0.00394811,0.00463423,0.00543681,0.00637564,0.00747383,0.00875844,0.0102611,0.0120189,inf	123.362,123.362,382.321,186.272,96.2798,81.7785,102.536,148.144,207.616,280.507,399.476,610.716,949.431,1416.37,1948.59,2449.21,2834.47,3006.67,2950.27,2772.17,2579.64,2418.04,2269.53,2111.52,1932.79,1750.18,1600.67,1491.53,1491.53,1463.93,1463.93,1463.93
0.000285039	-136134.10	0,1.59282e-05,3.45602e-05,5.6355e-05,8.18495e-05,0.000111672,0.000146556,0.000187362,0.000235095,0.000290931,0.000356244,0.000432645,0.000522015,0.000626555,0.000748841,0.000891884,0.00105921,0.00125494,0.00148389,0.00175171,0.00206499,0.00243145,0.00286012,0.00336155,0.00394811,0.00463423,0.00543681,0.00637564,0.00747383,0.00875844,0.0102611,0.0120189,inf	112.85,112.85,432.98,193.702,92.7053,77.0103,97.7369,143.418,200.175,266.16,377.402,583.428,922.396,1398.71,1953.99,2495.32,2934.57,3149.76,3105.91,2918.21,2712.8,2543.22,2385.47,2212.53,2012.24,1806.33,1639.1,1518.61,1518.61,1489.96,1489.96,1489.96
0.000290874	-136129.40	0,1.59282e-05,3.45602e-05,5.6355e-05,8.18495e-05,0.000111672,0.000146556,0.000187362,0.000235095,0.000290931,0.000356244,0.000432645,0.000522015,0.000626555,0.000748841,0.000891884,0.00105921,0.00125494,0.00148389,0.00175171,0.00206499,0.00243145,0.00286012,0.00336155,0.00394811,0.00463423,0.00543681,0.00637564,0.00747383,0.00875844,0.0102611,0.0120189,inf	98.9705,98.9705,475.005,198.851,89.9517,74.0576,95.6413,142.489,197.333,256.966,361.101,562.033,900.032,1382.18,1954.01,2527.9,3014.35,3268.77,3236.21,3039.28,2822.68,2647.38,2482.45,2296.63,2077.21,1850.85,1668.45,1538.55,1538.55,1508.49,1508.49,1508.49
0.000296358	-136126.05	0,1.59282e-05,3.45602e-05,5.6355e-05,8.18495e-05,0.000111672,0.000146556,0.000187362,0.000235095,0.000290931,0.000356244,0.000432645,0.000522015,0.000626555,0.000748841,0.000891884,0.00105921,0.00125494,0.00148389,0.00175171,0.00206499,0.00243145,0.00286012,0.00336155,0.00394811,0.00463423,0.00543681,0.00637564,0.00747383,0.00875844,0.0102611,0.0120189,inf	84.1331,84.1331,508.519,201.923,87.6221,72.1942,95.263,144.11,197.583,251.228,348.825,544.972,881.382,1367.04,1950.78,2550.94,3078.87,3368.88,3345.95,3139.62,2912.98,2733.54,2562.92,2365.93,2129.6,1885.66,1690.76,1553.05,1553.05,1521.99,1521.99,1521.99
0.000301555	-136123.52	0,1.59282e-05,3.45602e-05,5.6355e-05,8.18495e-05,0.000111672,0.000146556,0.000187362,0.000235095,0.000290931,0.000356244,0.000432645,0.000522015,0.000626555,0.000748841,0.000891884,0.00105921,0.00125494,0.00148389,0.00175171,0.00206499,0.00243145,0.00286012,0.00336155,0.00394811,0.00463423,0.00543681,0.00637564,0.00747383,0.00875844,0.0102611,0.0120189,inf	69.9426,69.9426,534.491,203.224,85.4919,70.9887,96.0015,147.508,199.969,247.856,339.413,531.149,865.687,1353.32,1945.59,2567.08,3131.69,3453.96,3438.88,3222.72,2986.79,2804.32,2629.14,2422.35,2171.34,1912.42,1707.31,1563.21,1563.21,1530.66,1530.66,1530.66
0.000306514	-136121.53	0,1.59282e-05,3.45602e-05,5.6355e-05,8.18495e-05,0.000111672,0.000146556,0.000187362,0.000235095,0.000290931,0.000356244,0.000432645,0.000522015,0.000626555,0.000748841,0.000891884,0.00105921,0.00125494,0.00148389,0.00175171,0.00206499,0.00243145,0.00286012,0.00336155,0.00394811,0.00463423,0.00543681,0.00637564,0.00747383,0.00875844,0.0102611,0.0120189,inf	57.242,57.242,554.15,203.055,83.4259,70.1637,97.4686,152.168,203.85,246.123,332.078,519.784,852.355,1340.91,1939.21,2578.14,3175.39,3526.93,3517.94,3291.43,3046.76,2862.02,2683.05,2467.69,2203.95,1932.53,1719.28,1570.09,1570.09,1535.93,1535.93,1535.93
0.000311273	-136119.88	0,1.59282e-05,3.45602e-05,5.6355e-05,8.18495e-05,0.000111672,0.000146556,0.000187362,0.000235095,0.000290931,0.000356244,0.000432645,0.000522015,0.000626555,0.000748841,0.000891884,0.00105921,0.00125494,0.00148389,0.00175171,0.00206499,0.00243145,0.00286012,0.00336155,0.00394811,0.00463423,0.00543681,0.00637564,0.00747383,0.00875844,0.0102611,0.0120189,inf	46.3494,46.3494,568.743,201.69,81.3488,69.5399,99.3995,157.729,208.779,245.528,326.268,510.314,840.933,1329.69,1932.13,2585.4,3211.87,3590.03,3585.47,3348.08,3095.07,2908.6,2726.43,2503.51,2228.82,1947.31,1727.39,1574.47,1574.47,1538.33,1538.33,1538.33
0.000315863	-136118.48	0,1.59282e-05,3.45602e-05,5.6355e-05,8.18495e-05,0.000111672,0.000146556,0.000187362,0.000235095,0.000290931,0.000356244,0.000432645,0.000522015,0.000626555,0.000748841,0.000891884,0.00105921,0.00125494,0.00148389,0.00175171,0.00206499,0.00243145,0.00286012,0.00336155,0.00394811,0.00463423,0.00543681,0.00637564,0.00747383,0.00875844,0.0102611,0.0120189,inf	37.2651,37.2651,579.399,199.369,79.2201,69.001,101.605,163.928,214.44,245.724,321.595,502.326,831.066,1319.53,1924.69,2589.78,3242.56,3645,3643.37,3394.61,3133.58,2945.74,2760.83,2531.26,2247.21,1957.49,1732.76,1576.42,1576.42,1540.99,1540.99,1540.99
0.000320308	-136117.25	0,1.59282e-05,3.45602e-05,5.6355e-05,8.18495e-05,0.000111672,0.000146556,0.000187362,0.000235095,0.000290931,0.000356244,0.000432645,0.000522015,0.000626555,0.000748841,0.000891884,0.00105921,0.00125494,0.00148389,0.00175171,0.00206499,0.00243145,0.00286012,0.00336155,0.00394811,0.00463423,0.00543681,0.00637564,0.00747383,0.00875844,0.0102611,0.0120189,inf	29.8303,29.8303,587.075,196.3,77.0217,68.4718,103.949,170.567,220.594,246.462,317.777,495.512,822.484,1310.31,1917.09,2591.94,3268.57,3693.22,3693.16,3432.6,3163.83,2974.88,2787.55,2552.18,2260.28,1964.09,1735.79,1576.8,1576.8,1538.74,1538.74,1538.74
0.000324625	-136116.15	0,1.59282e-05,3.45602e-05,5.6355e-05,8.18495e-05,0.000111672,0.000146556,0.000187362,0.000235095,0.000290931,0.000356244,0.000432645,0.000522015,0.000626555,0.000748841,0.000891884,0.00105921,0.00125494,0.00148389,0.00175171,0.00206499,0.00243145,0.00286012,0.00336155,0.00394811,0.00463423,0.00543681,0.00637564,0.00747383,0.00875844,0.0102611,0.0120189,inf	23.8206,23.8206,592.568,192.661,74.7563,67.9047,106.336,177.496,227.066,247.563,314.611,489.642,814.972,1301.94,1909.47,2592.4,3290.73,3735.77,3736.09,3463.39,3187.15,2997.26,2807.8,2567.36,2268.9,1967.71,1737.07,1576.75,1576.75,1536.91,1536.91,1536.91
0.000328832	-136115.16	0,1.59282e-05,3.45602e-05,5.6355e-05,8.18495e-05,0.000111672,0.000146556,0.000187362,0.000235095,0.000290931,0.000356244,0.000432645,0.000522015,0.000626555,0.000748841,0.000891884,0.00105921,0.00125494,0.00148389,0.00175171,0.00206499,0.00243145,0.00286012,0.00336155,0.00394811,0.00463423,0.00543681,0.00637564,0.00747383,0.00875844,0.0102611,0.0120189,inf	19.0028,19.0028,596.496,188.598,72.4337,67.2717,108.694,184.595,233.723,248.9,311.945,484.542,808.362,1294.3,1901.92,2591.54,3309.72,3773.55,3773.2,3488.09,3204.63,3013.92,2822.54,2577.67,2273.88,1969.01,1737.02,1575.47,1575.47,1531.26,1531.26,1531.26
0.000332939	-136114.24	0,1.59282e-05,3.45602e-05,5.6355e-05,8.18495e-05,0.000111672,0.000146556,0.000187362,0.000235095,0.000290931,0.000356244,0.000432645,0.000522015,0.000626555,0.000748841,0.000891884,0.00105921,0.00125494,0.00148389,0.00175171,0.00206499,0.00243145,0.00286012,0.00336155,0.00394811,0.00463423,0.00543681,0.00637564,0.00747383,0.00875844,0.0102611,0.0120189,inf	15.1613,15.1613,599.349,184.227,70.0675,66.5594,110.975,191.776,240.466,250.381,309.672,480.075,802.521,1287.33,1894.51,2589.65,3326.07,3807.27,3805.32,3507.63,3217.2,3025.77,2832.65,2583.92,2275.79,1968.38,1735.57,1573.02,1573.02,1526.55,1526.55,1526.55
0.000336956	-136113.40	0,1.59282e-05,3.45602e-05,5.6355e-05,8.18495e-05,0.000111672,0.000146556,0.000187362,0.000235095,0.000290931,0.000356244,0.000432645,0.000522015,0.000626555,0.000748841,0.000891884,0.00105921,0.00125494,0.00148389,0.00175171,0.00206499,0.00243145,0.00286012,0.00336155,0.00394811,0.00463423,0.00543681,0.00637564,0.00747383,0.00875844,0.0102611,0.0120189,inf	12.1048,12.1048,601.49,179.646,67.6733,65.7633,113.141,198.966,247.219,251.938,307.707,476.138,797.338,1280.95,1887.27,2586.96,3340.2,3837.52,3833.18,3522.79,3225.65,3033.58,2838.86,2586.83,2275.29,1966.21,1733.54,1570.18,1570.18,1523.23,1523.23,1523.23
0.000340892	-136112.60	0,1.59282e-05,3.45602e-05,5.6355e-05,8.18495e-05,0.000111672,0.000146556,0.000187362,0.000235095,0.000290931,0.000356244,0.000432645,0.000522015,0.000626555,0.000748841,0.000891884,0.00105921,0.00125494,0.00148389,0.00175171,0.00206499,0.00243145,0.00286012,0.00336155,0.00394811,0.00463423,0.00543681,0.00637564,0.00747383,0.00875844,0.0102611,0.0120189,inf	9.67612,9.67612,603.186,174.932,65.271,64.8862,115.174,206.115,253.925,253.526,305.988,472.647,792.728,1275.11,1880.24,2583.63,3352.45,3864.79,3857.37,3534.24,3230.64,3037.96,2841.84,2587,2272.81,1962.96,1730.6,1567.29,1567.29,1518.3,1518.3,1518.3
0.000344753	-136111.86	0,1.59282e-05,3.45602e-05,5.6355e-05,8.18495e-05,0.000111672,0.000146556,0.000187362,0.000235095,0.000290931,0.000356244,0.000432645,0.000522015,0.000626555,0.000748841,0.000891884,0.00105921,0.00125494,0.00148389,0.00175171,0.00206499,0.00243145,0.00286012,0.00336155,0.00394811,0.00463423,0.00543681,0.00637564,0.00747383,0.00875844,0.0102611,0.0120189,inf	7.74453,7.74453,604.619,170.146,62.8758,63.9326,117.059,213.179,260.544,255.107,304.467,469.539,788.617,1269.75,1873.43,2579.82,3363.11,3889.47,3878.39,3542.53,3232.74,3039.51,2842.11,2584.89,2268.78,1958.66,1727.21,1563.66,1563.66,1514.15,1514.15,1514.15
