AIC = 569525.50403797405306

y0 0.64687357782050070032
y0_prime 0
y1 1.1164344821170344435
y1_prime 0
y2 0.6493716053343204786
y2_prime 0
y3 1.4861255383678253494
y3_prime 0
rho 0.0046219281685280898947
rho.alpha 0.24737477944916369532
r_ii 0.99991781951976355103
theta 0.0046437844938343915413
