0.00057923	-8460458.16	0,2.89181e-06,6.7108e-06,1.17542e-05,1.84147e-05,2.72107e-05,3.88268e-05,5.41674e-05,7.44264e-05,0.000101181,0.000136514,0.000183175,0.000244796,0.000326175,0.000433645,0.000575573,0.000763006,0.00101053,0.00133743,0.00176913,0.00233924,0.00309214,0.00408644,0.00539953,0.00713363,0.00942372,0.0124481,0.0164421,0.0217166,0.0286824,inf	405.372,405.372,405.372,405.372,405.372,405.372,405.372,405.372,405.372,405.372,405.372,405.372,405.372,405.372,405.372,405.372,405.372,405.372,405.372,405.372,405.372,405.372,405.372,405.372,405.372,405.372,405.372,405.372,405.372,405.372
0.000532349	-8458983.39	0,2.89181e-06,6.7108e-06,1.17542e-05,1.84147e-05,2.72107e-05,3.88268e-05,5.41674e-05,7.44264e-05,0.000101181,0.000136514,0.000183175,0.000244796,0.000326175,0.000433645,0.000575573,0.000763006,0.00101053,0.00133743,0.00176913,0.00233924,0.00309214,0.00408644,0.00539953,0.00713363,0.00942372,0.0124481,0.0164421,0.0217166,0.0286824,inf	410.787,410.787,410.787,410.787,410.787,410.787,410.787,410.787,410.787,410.787,410.787,410.787,410.787,410.787,410.787,410.787,410.787,410.787,410.787,410.787,410.787,410.787,410.787,410.787,410.787,410.787,410.787,410.787,410.787,410.787
0.00049134	-8457778.79	0,2.89181e-06,6.7108e-06,1.17542e-05,1.84147e-05,2.72107e-05,3.88268e-05,5.41674e-05,7.44264e-05,0.000101181,0.000136514,0.000183175,0.000244796,0.000326175,0.000433645,0.000575573,0.000763006,0.00101053,0.00133743,0.00176913,0.00233924,0.00309214,0.00408644,0.00539953,0.00713363,0.00942372,0.0124481,0.0164421,0.0217166,0.0286824,inf	414.125,414.125,414.125,414.125,414.125,414.125,414.125,414.125,414.125,414.125,414.125,414.125,414.125,414.125,414.125,414.125,414.125,414.125,414.125,414.125,414.125,414.125,414.125,414.125,414.125,414.125,414.125,414.125,414.125,414.125
0.000456146	-8456812.12	0,2.89181e-06,6.7108e-06,1.17542e-05,1.84147e-05,2.72107e-05,3.88268e-05,5.41674e-05,7.44264e-05,0.000101181,0.000136514,0.000183175,0.000244796,0.000326175,0.000433645,0.000575573,0.000763006,0.00101053,0.00133743,0.00176913,0.00233924,0.00309214,0.00408644,0.00539953,0.00713363,0.00942372,0.0124481,0.0164421,0.0217166,0.0286824,inf	416.346,416.346,416.346,416.346,416.346,416.346,416.346,416.346,416.346,416.346,416.346,416.346,416.346,416.346,416.346,416.346,416.346,416.346,416.346,416.346,416.346,416.346,416.346,416.346,416.346,416.346,416.346,416.346,416.346,416.346
0.000426371	-8456057.57	0,2.89181e-06,6.7108e-06,1.17542e-05,1.84147e-05,2.72107e-05,3.88268e-05,5.41674e-05,7.44264e-05,0.000101181,0.000136514,0.000183175,0.000244796,0.000326175,0.000433645,0.000575573,0.000763006,0.00101053,0.00133743,0.00176913,0.00233924,0.00309214,0.00408644,0.00539953,0.00713363,0.00942372,0.0124481,0.0164421,0.0217166,0.0286824,inf	417.919,417.919,417.919,417.919,417.919,417.919,417.919,417.919,417.919,417.919,417.919,417.919,417.919,417.919,417.919,417.919,417.919,417.919,417.919,417.919,417.919,417.919,417.919,417.919,417.919,417.919,417.919,417.919,417.919,417.919
0.000401466	-8455485.16	0,2.89181e-06,6.7108e-06,1.17542e-05,1.84147e-05,2.72107e-05,3.88268e-05,5.41674e-05,7.44264e-05,0.000101181,0.000136514,0.000183175,0.000244796,0.000326175,0.000433645,0.000575573,0.000763006,0.00101053,0.00133743,0.00176913,0.00233924,0.00309214,0.00408644,0.00539953,0.00713363,0.00942372,0.0124481,0.0164421,0.0217166,0.0286824,inf	419.075,419.075,419.075,419.075,419.075,419.075,419.075,419.075,419.075,419.075,419.075,419.075,419.075,419.075,419.075,419.075,419.075,419.075,419.075,419.075,419.075,419.075,419.075,419.075,419.075,419.075,419.075,419.075,419.075,419.075
0.00038083	-8455062.53	0,2.89181e-06,6.7108e-06,1.17542e-05,1.84147e-05,2.72107e-05,3.88268e-05,5.41674e-05,7.44264e-05,0.000101181,0.000136514,0.000183175,0.000244796,0.000326175,0.000433645,0.000575573,0.000763006,0.00101053,0.00133743,0.00176913,0.00233924,0.00309214,0.00408644,0.00539953,0.00713363,0.00942372,0.0124481,0.0164421,0.0217166,0.0286824,inf	419.936,419.936,419.936,419.936,419.936,419.936,419.936,419.936,419.936,419.936,419.936,419.936,419.936,419.936,419.936,419.936,419.936,419.936,419.936,419.936,419.936,419.936,419.936,419.936,419.936,419.936,419.936,419.936,419.936,419.936
0.000363868	-8454758.22	0,2.89181e-06,6.7108e-06,1.17542e-05,1.84147e-05,2.72107e-05,3.88268e-05,5.41674e-05,7.44264e-05,0.000101181,0.000136514,0.000183175,0.000244796,0.000326175,0.000433645,0.000575573,0.000763006,0.00101053,0.00133743,0.00176913,0.00233924,0.00309214,0.00408644,0.00539953,0.00713363,0.00942372,0.0124481,0.0164421,0.0217166,0.0286824,inf	420.578,420.578,420.578,420.578,420.578,420.578,420.578,420.578,420.578,420.578,420.578,420.578,420.578,420.578,420.578,420.578,420.578,420.578,420.578,420.578,420.578,420.578,420.578,420.578,420.578,420.578,420.578,420.578,420.578,420.578
0.000350021	-8454544.01	0,2.89181e-06,6.7108e-06,1.17542e-05,1.84147e-05,2.72107e-05,3.88268e-05,5.41674e-05,7.44264e-05,0.000101181,0.000136514,0.000183175,0.000244796,0.000326175,0.000433645,0.000575573,0.000763006,0.00101053,0.00133743,0.00176913,0.00233924,0.00309214,0.00408644,0.00539953,0.00713363,0.00942372,0.0124481,0.0164421,0.0217166,0.0286824,inf	421.054,421.054,421.054,421.054,421.054,421.054,421.054,421.054,421.054,421.054,421.054,421.054,421.054,421.054,421.054,421.054,421.054,421.054,421.054,421.054,421.054,421.054,421.054,421.054,421.054,421.054,421.054,421.054,421.054,421.054
0.00033878	-8454396.26	0,2.89181e-06,6.7108e-06,1.17542e-05,1.84147e-05,2.72107e-05,3.88268e-05,5.41674e-05,7.44264e-05,0.000101181,0.000136514,0.000183175,0.000244796,0.000326175,0.000433645,0.000575573,0.000763006,0.00101053,0.00133743,0.00176913,0.00233924,0.00309214,0.00408644,0.00539953,0.00713363,0.00942372,0.0124481,0.0164421,0.0217166,0.0286824,inf	421.404,421.404,421.404,421.404,421.404,421.404,421.404,421.404,421.404,421.404,421.404,421.404,421.404,421.404,421.404,421.404,421.404,421.404,421.404,421.404,421.404,421.404,421.404,421.404,421.404,421.404,421.404,421.404,421.404,421.404
0.000329698	-8454296.17	0,2.89181e-06,6.7108e-06,1.17542e-05,1.84147e-05,2.72107e-05,3.88268e-05,5.41674e-05,7.44264e-05,0.000101181,0.000136514,0.000183175,0.000244796,0.000326175,0.000433645,0.000575573,0.000763006,0.00101053,0.00133743,0.00176913,0.00233924,0.00309214,0.00408644,0.00539953,0.00713363,0.00942372,0.0124481,0.0164421,0.0217166,0.0286824,inf	421.66,421.66,421.66,421.66,421.66,421.66,421.66,421.66,421.66,421.66,421.66,421.66,421.66,421.66,421.66,421.66,421.66,421.66,421.66,421.66,421.66,421.66,421.66,421.66,421.66,421.66,421.66,421.66,421.66,421.66
0.00032239	-8454229.41	0,2.89181e-06,6.7108e-06,1.17542e-05,1.84147e-05,2.72107e-05,3.88268e-05,5.41674e-05,7.44264e-05,0.000101181,0.000136514,0.000183175,0.000244796,0.000326175,0.000433645,0.000575573,0.000763006,0.00101053,0.00133743,0.00176913,0.00233924,0.00309214,0.00408644,0.00539953,0.00713363,0.00942372,0.0124481,0.0164421,0.0217166,0.0286824,inf	421.846,421.846,421.846,421.846,421.846,421.846,421.846,421.846,421.846,421.846,421.846,421.846,421.846,421.846,421.846,421.846,421.846,421.846,421.846,421.846,421.846,421.846,421.846,421.846,421.846,421.846,421.846,421.846,421.846,421.846
0.000316529	-8454185.50	0,2.89181e-06,6.7108e-06,1.17542e-05,1.84147e-05,2.72107e-05,3.88268e-05,5.41674e-05,7.44264e-05,0.000101181,0.000136514,0.000183175,0.000244796,0.000326175,0.000433645,0.000575573,0.000763006,0.00101053,0.00133743,0.00176913,0.00233924,0.00309214,0.00408644,0.00539953,0.00713363,0.00942372,0.0124481,0.0164421,0.0217166,0.0286824,inf	421.981,421.981,421.981,421.981,421.981,421.981,421.981,421.981,421.981,421.981,421.981,421.981,421.981,421.981,421.981,421.981,421.981,421.981,421.981,421.981,421.981,421.981,421.981,421.981,421.981,421.981,421.981,421.981,421.981,421.981
0.000311839	-8454156.96	0,2.89181e-06,6.7108e-06,1.17542e-05,1.84147e-05,2.72107e-05,3.88268e-05,5.41674e-05,7.44264e-05,0.000101181,0.000136514,0.000183175,0.000244796,0.000326175,0.000433645,0.000575573,0.000763006,0.00101053,0.00133743,0.00176913,0.00233924,0.00309214,0.00408644,0.00539953,0.00713363,0.00942372,0.0124481,0.0164421,0.0217166,0.0286824,inf	422.079,422.079,422.079,422.079,422.079,422.079,422.079,422.079,422.079,422.079,422.079,422.079,422.079,422.079,422.079,422.079,422.079,422.079,422.079,422.079,422.079,422.079,422.079,422.079,422.079,422.079,422.079,422.079,422.079,422.079
0.000308095	-8454138.61	0,2.89181e-06,6.7108e-06,1.17542e-05,1.84147e-05,2.72107e-05,3.88268e-05,5.41674e-05,7.44264e-05,0.000101181,0.000136514,0.000183175,0.000244796,0.000326175,0.000433645,0.000575573,0.000763006,0.00101053,0.00133743,0.00176913,0.00233924,0.00309214,0.00408644,0.00539953,0.00713363,0.00942372,0.0124481,0.0164421,0.0217166,0.0286824,inf	422.151,422.151,422.151,422.151,422.151,422.151,422.151,422.151,422.151,422.151,422.151,422.151,422.151,422.151,422.151,422.151,422.151,422.151,422.151,422.151,422.151,422.151,422.151,422.151,422.151,422.151,422.151,422.151,422.151,422.151
0.00030512	-8454126.93	0,2.89181e-06,6.7108e-06,1.17542e-05,1.84147e-05,2.72107e-05,3.88268e-05,5.41674e-05,7.44264e-05,0.000101181,0.000136514,0.000183175,0.000244796,0.000326175,0.000433645,0.000575573,0.000763006,0.00101053,0.00133743,0.00176913,0.00233924,0.00309214,0.00408644,0.00539953,0.00713363,0.00942372,0.0124481,0.0164421,0.0217166,0.0286824,inf	422.253,422.253,422.253,422.253,422.253,422.253,422.253,422.253,422.253,422.253,422.253,422.253,422.253,422.253,422.253,422.253,422.253,422.253,422.253,422.253,422.253,422.253,422.253,422.253,422.253,422.253,422.253,422.253,422.253,422.253
0.000302747	-8454119.90	0,2.89181e-06,6.7108e-06,1.17542e-05,1.84147e-05,2.72107e-05,3.88268e-05,5.41674e-05,7.44264e-05,0.000101181,0.000136514,0.000183175,0.000244796,0.000326175,0.000433645,0.000575573,0.000763006,0.00101053,0.00133743,0.00176913,0.00233924,0.00309214,0.00408644,0.00539953,0.00713363,0.00942372,0.0124481,0.0164421,0.0217166,0.0286824,inf	422.299,422.299,422.299,422.299,422.299,422.299,422.299,422.299,422.299,422.299,422.299,422.299,422.299,422.299,422.299,422.299,422.299,422.299,422.299,422.299,422.299,422.299,422.299,422.299,422.299,422.299,422.299,422.299,422.299,422.299
0.000300858	-8454115.35	0,2.89181e-06,6.7108e-06,1.17542e-05,1.84147e-05,2.72107e-05,3.88268e-05,5.41674e-05,7.44264e-05,0.000101181,0.000136514,0.000183175,0.000244796,0.000326175,0.000433645,0.000575573,0.000763006,0.00101053,0.00133743,0.00176913,0.00233924,0.00309214,0.00408644,0.00539953,0.00713363,0.00942372,0.0124481,0.0164421,0.0217166,0.0286824,inf	422.323,422.323,422.323,422.323,422.323,422.323,422.323,422.323,422.323,422.323,422.323,422.323,422.323,422.323,422.323,422.323,422.323,422.323,422.323,422.323,422.323,422.323,422.323,422.323,422.323,422.323,422.323,422.323,422.323,422.323
0.000299358	-8454112.46	0,2.89181e-06,6.7108e-06,1.17542e-05,1.84147e-05,2.72107e-05,3.88268e-05,5.41674e-05,7.44264e-05,0.000101181,0.000136514,0.000183175,0.000244796,0.000326175,0.000433645,0.000575573,0.000763006,0.00101053,0.00133743,0.00176913,0.00233924,0.00309214,0.00408644,0.00539953,0.00713363,0.00942372,0.0124481,0.0164421,0.0217166,0.0286824,inf	422.336,422.336,422.336,422.336,422.336,422.336,422.336,422.336,422.336,422.336,422.336,422.336,422.336,422.336,422.336,422.336,422.336,422.336,422.336,422.336,422.336,422.336,422.336,422.336,422.336,422.336,422.336,422.336,422.336,422.336
0.000298166	-8454110.66	0,2.89181e-06,6.7108e-06,1.17542e-05,1.84147e-05,2.72107e-05,3.88268e-05,5.41674e-05,7.44264e-05,0.000101181,0.000136514,0.000183175,0.000244796,0.000326175,0.000433645,0.000575573,0.000763006,0.00101053,0.00133743,0.00176913,0.00233924,0.00309214,0.00408644,0.00539953,0.00713363,0.00942372,0.0124481,0.0164421,0.0217166,0.0286824,inf	422.345,422.345,422.345,422.345,422.345,422.345,422.345,422.345,422.345,422.345,422.345,422.345,422.345,422.345,422.345,422.345,422.345,422.345,422.345,422.345,422.345,422.345,422.345,422.345,422.345,422.345,422.345,422.345,422.345,422.345
