0.000580037	-1839116.55	0,2.26629e-05,5.73355e-05,0.000110382,0.000191539,0.000315703,0.000505666,0.000796294,0.00124093,0.0019212,0.00296195,0.00455423,0.00699029,0.0107173,0.0164193,0.025143,inf	274.855,274.855,319.318,325.313,367.434,365.329,380.08,392.29,398.427,398.043,397.304,404.045,401.995,413.979,413.979,413.979
0.000526278	-1838752.66	0,2.26629e-05,5.73355e-05,0.000110382,0.000191539,0.000315703,0.000505666,0.000796294,0.00124093,0.0019212,0.00296195,0.00455423,0.00699029,0.0107173,0.0164193,0.025143,inf	255,255,311.589,299.753,367.719,352.689,373.15,392.02,402.036,401.584,401.059,416.676,409.812,437.954,437.954,437.954
0.000480404	-1838469.38	0,2.26629e-05,5.73355e-05,0.000110382,0.000191539,0.000315703,0.000505666,0.000796294,0.00124093,0.0019212,0.00296195,0.00455423,0.00699029,0.0107173,0.0164193,0.025143,inf	255.256,255.256,320.875,286.876,376.705,345.379,367.866,390.534,403.098,402.882,402.773,428.937,413.457,462.485,462.485,462.485
0.000442039	-1838253.49	0,2.26629e-05,5.73355e-05,0.000110382,0.000191539,0.000315703,0.000505666,0.000796294,0.00124093,0.0019212,0.00296195,0.00455423,0.00699029,0.0107173,0.0164193,0.025143,inf	259.671,259.671,334.496,278.648,389.067,340.871,363.822,388.627,402.866,403.195,403.265,441.517,413.079,488.289,488.289,488.289
0.000410475	-1838095.70	0,2.26629e-05,5.73355e-05,0.000110382,0.000191539,0.000315703,0.000505666,0.000796294,0.00124093,0.0019212,0.00296195,0.00455423,0.00699029,0.0107173,0.0164193,0.025143,inf	264.46,264.46,348.38,272.315,402.368,337.964,360.768,386.659,401.957,403.13,402.858,454.719,408.906,515.994,515.994,515.994
0.000384864	-1837985.87	0,2.26629e-05,5.73355e-05,0.000110382,0.000191539,0.000315703,0.000505666,0.000796294,0.00124093,0.0019212,0.00296195,0.00455423,0.00699029,0.0107173,0.0164193,0.025143,inf	268.85,268.85,361.191,266.89,415.37,336.006,358.516,384.802,400.699,402.992,401.661,468.606,401.345,546.17,546.17,546.17
0.000364327	-1837913.79	0,2.26629e-05,5.73355e-05,0.000110382,0.000191539,0.000315703,0.000505666,0.000796294,0.00124093,0.0019212,0.00296195,0.00455423,0.00699029,0.0107173,0.0164193,0.025143,inf	272.749,272.749,372.55,262.017,427.42,334.604,356.911,383.139,399.286,402.95,399.708,483.089,390.974,579.384,579.384,579.384
0.000348026	-1837870.15	0,2.26629e-05,5.73355e-05,0.000110382,0.000191539,0.000315703,0.000505666,0.000796294,0.00124093,0.0019212,0.00296195,0.00455423,0.00699029,0.0107173,0.0164193,0.025143,inf	276.137,276.137,382.406,257.558,438.203,333.519,355.815,381.703,397.839,403.108,397.032,497.988,378.458,616.281,616.281,616.281
0.000335202	-1837847.22	0,2.26629e-05,5.73355e-05,0.000110382,0.000191539,0.000315703,0.000505666,0.000796294,0.00124093,0.0019212,0.00296195,0.00455423,0.00699029,0.0107173,0.0164193,0.025143,inf	279.017,279.017,390.873,253.477,447.618,332.6,355.113,380.496,396.429,403.526,393.687,513.073,364.457,657.714,657.714,657.714
0.000325191	-1837838.96	0,2.26629e-05,5.73355e-05,0.000110382,0.000191539,0.000315703,0.000505666,0.000796294,0.00124093,0.0019212,0.00296195,0.00455423,0.00699029,0.0107173,0.0164193,0.025143,inf	281.401,281.401,398.088,249.754,455.695,331.76,354.704,379.502,395.087,404.235,389.751,528.102,349.551,704.962,704.962,704.962
0.000317433	-1837841.02	0,2.26629e-05,5.73355e-05,0.000110382,0.000191539,0.000315703,0.000505666,0.000796294,0.00124093,0.0019212,0.00296195,0.00455423,0.00699029,0.0107173,0.0164193,0.025143,inf	283.316,283.316,404.224,246.383,462.539,330.947,354.511,378.698,393.821,405.245,385.324,542.845,334.201,760.091,760.091,760.091
0.00031146	-1837850.42	0,2.26629e-05,5.73355e-05,0.000110382,0.000191539,0.000315703,0.000505666,0.000796294,0.00124093,0.0019212,0.00296195,0.00455423,0.00699029,0.0107173,0.0164193,0.025143,inf	284.8,284.8,409.417,243.346,468.289,330.144,354.472,378.057,392.621,406.546,380.516,557.098,318.729,826.669,826.669,826.669
0.000306893	-1837865.36	0,2.26629e-05,5.73355e-05,0.000110382,0.000191539,0.000315703,0.000505666,0.000796294,0.00124093,0.0019212,0.00296195,0.00455423,0.00699029,0.0107173,0.0164193,0.025143,inf	285.921,285.921,413.814,240.62,473.103,329.344,354.539,377.553,391.469,408.115,375.437,570.689,303.326,911.361,911.361,911.361
0.000303424	-1837885.06	0,2.26629e-05,5.73355e-05,0.000110382,0.000191539,0.000315703,0.000505666,0.000796294,0.00124093,0.0019212,0.00296195,0.00455423,0.00699029,0.0107173,0.0164193,0.025143,inf	286.74,286.74,417.525,238.189,477.12,328.547,354.677,377.164,390.346,409.922,370.194,583.469,288.05,1028.09,1028.09,1028.09
0.000300815	-1837909.78	0,2.26629e-05,5.73355e-05,0.000110382,0.000191539,0.000315703,0.000505666,0.000796294,0.00124093,0.0019212,0.00296195,0.00455423,0.00699029,0.0107173,0.0164193,0.025143,inf	287.457,287.457,420.889,236.145,480.703,327.891,354.972,376.948,389.26,411.951,364.896,595.351,272.84,1210.94,1210.94,1210.94
0.000298858	-1837941.27	0,2.26629e-05,5.73355e-05,0.000110382,0.000191539,0.000315703,0.000505666,0.000796294,0.00124093,0.0019212,0.00296195,0.00455423,0.00699029,0.0107173,0.0164193,0.025143,inf	287.78,287.78,423.491,234.205,483.496,327.114,355.182,376.739,388.126,414.126,359.61,606.064,257.405,1562.5,1562.5,1562.5
0.000297406	-1837983.08	0,2.26629e-05,5.73355e-05,0.000110382,0.000191539,0.000315703,0.000505666,0.000796294,0.00124093,0.0019212,0.00296195,0.00455423,0.00699029,0.0107173,0.0164193,0.025143,inf	287.945,287.945,425.664,232.461,485.794,326.328,355.376,376.586,386.969,416.436,354.441,615.346,241.285,2408.06,2408.06,2408.06
0.0002964	-1838034.13	0,2.26629e-05,5.73355e-05,0.000110382,0.000191539,0.000315703,0.000505666,0.000796294,0.00124093,0.0019212,0.00296195,0.00455423,0.00699029,0.0107173,0.0164193,0.025143,inf	288.015,288.015,427.496,230.91,487.735,325.57,355.571,376.496,385.783,418.835,349.463,622.872,224.062,4993.15,4993.15,4993.15
0.000296388	-1838073.40	0,2.26629e-05,5.73355e-05,0.000110382,0.000191539,0.000315703,0.000505666,0.000796294,0.00124093,0.0019212,0.00296195,0.00455423,0.00699029,0.0107173,0.0164193,0.025143,inf	288.11,288.11,429.28,229.605,489.682,325.035,355.985,376.723,384.836,421.599,344.924,629.075,206.69,50148,50148,50148
0.000296387	-1838106.33	0,2.26629e-05,5.73355e-05,0.000110382,0.000191539,0.000315703,0.000505666,0.000796294,0.00124093,0.0019212,0.00296195,0.00455423,0.00699029,0.0107173,0.0164193,0.025143,inf	287.883,287.883,429.477,228.291,490.541,324.342,356.236,376.855,383.757,422.304,340.807,631.766,189.98,50152.3,50152.3,50152.3
