time_index	left_time_boundary	right_time_boundary	lambda
0	0	4.35853e-05	430.13
1	4.35853e-05	9.45692e-05	430.13
2	9.45692e-05	0.000154208	467.232
3	0.000154208	0.00022397	73.8826
4	0.00022397	0.000305574	581.335
5	0.000305574	0.00040103	448.918
6	0.00040103	0.00051269	273.763
7	0.00051269	0.000643305	338.949
8	0.000643305	0.000796091	383.979
9	0.000796091	0.000974813	376.69
10	0.000974813	0.00118387	392.905
11	0.00118387	0.00142842	403.834
12	0.00142842	0.00171448	398.542
13	0.00171448	0.0020491	394.938
14	0.0020491	0.00244052	399.004
15	0.00244052	0.00289838	401.752
16	0.00289838	0.00343397	398.763
17	0.00343397	0.00406047	394.397
18	0.00406047	0.00479331	387.534
19	0.00479331	0.00565057	381.575
20	0.00565057	0.00665333	380.547
21	0.00665333	0.00782632	426.595
22	0.00782632	0.00919842	469.58
23	0.00919842	0.0108034	518.802
24	0.0108034	0.0126809	524.821
25	0.0126809	0.0148771	574.065
26	0.0148771	0.017446	839.105
27	0.017446	0.0204511	1098.29
28	0.0204511	0.0239663	1098.29
29	0.0239663	0.0280781	79791.3
30	0.0280781	0.032888	79791.3
31	0.032888	inf	79791.3
