time_index	left_time_boundary	right_time_boundary	lambda
0	0	6.17337e-06	7.39201
1	6.17337e-06	1.65721e-05	7.39201
2	1.65721e-05	3.40884e-05	183.264
3	3.40884e-05	6.35938e-05	713.699
4	6.35938e-05	0.000113294	485.86
5	0.000113294	0.000197012	290.918
6	0.000197012	0.000338032	409.052
7	0.000338032	0.000575573	399.163
8	0.000575573	0.000975701	372.911
9	0.000975701	0.0016497	372.607
10	0.0016497	0.00278502	369.711
11	0.00278502	0.00469741	392.864
12	0.00469741	0.00791875	778.843
13	0.00791875	0.013345	501.753
14	0.013345	0.0224852	501.753
15	0.0224852	inf	501.753
