0.000587704	-4586639.75	0,4.64951e-06,1.05674e-05,1.80998e-05,2.7687e-05,3.98897e-05,5.54213e-05,7.519e-05,0.000100352,0.000132378,0.00017314,0.000225023,0.00029106,0.000375112,0.000482094,0.000618261,0.000791575,0.00101217,0.00129294,0.00165031,0.00210518,0.00268413,0.00342102,0.00435894,0.00555273,0.00707219,0.00900616,0.0114677,0.0146008,0.0185887,0.0236644,0.0301248,inf	33.4162,33.4162,100.682,220.737,299.915,321.718,303.445,306.195,301.996,318.974,343.264,360.956,371.098,379.149,385.246,389.536,393.024,396.644,399.674,401.466,402.347,403.251,404.129,404.845,405.978,406.636,403.763,400.21,400.21,486.531,486.531,486.531
0.000541336	-4585819.05	0,4.64951e-06,1.05674e-05,1.80998e-05,2.7687e-05,3.98897e-05,5.54213e-05,7.519e-05,0.000100352,0.000132378,0.00017314,0.000225023,0.00029106,0.000375112,0.000482094,0.000618261,0.000791575,0.00101217,0.00129294,0.00165031,0.00210518,0.00268413,0.00342102,0.00435894,0.00555273,0.00707219,0.00900616,0.0114677,0.0146008,0.0185887,0.0236644,0.0301248,inf	3.43694,3.43694,32.3614,168.876,297.959,333.405,288.038,287.996,268.899,288.917,325.279,351.166,363.592,373.987,381.922,387.285,391.725,397.23,402.274,405.339,406.975,409.159,411.763,414.089,416.998,418.779,413.15,405.921,405.921,666.155,666.155,666.155
0.000500534	-4585174.23	0,4.64951e-06,1.05674e-05,1.80998e-05,2.7687e-05,3.98897e-05,5.54213e-05,7.519e-05,0.000100352,0.000132378,0.00017314,0.000225023,0.00029106,0.000375112,0.000482094,0.000618261,0.000791575,0.00101217,0.00129294,0.00165031,0.00210518,0.00268413,0.00342102,0.00435894,0.00555273,0.00707219,0.00900616,0.0114677,0.0146008,0.0185887,0.0236644,0.0301248,inf	0.391179,0.391179,10.7442,138.612,310.995,364.844,291.126,291.124,254.998,274.227,319.082,350.193,361.829,372.349,380.448,385.571,389.713,396.109,402.493,406.335,408.374,411.786,416.46,420.788,425.631,428.592,420.161,409.042,409.042,1153.9,1153.9,1153.9
0.000465253	-4584661.32	0,4.64951e-06,1.05674e-05,1.80998e-05,2.7687e-05,3.98897e-05,5.54213e-05,7.519e-05,0.000100352,0.000132378,0.00017314,0.000225023,0.00029106,0.000375112,0.000482094,0.000618261,0.000791575,0.00101217,0.00129294,0.00165031,0.00210518,0.00268413,0.00342102,0.00435894,0.00555273,0.00707219,0.00900616,0.0114677,0.0146008,0.0185887,0.0236644,0.0301248,inf	0.391159,0.391159,3.48854,114.02,321.66,398.578,297.611,301.791,248.372,265.344,317.347,352.726,362.28,372.099,379.792,384.278,387.578,394.353,401.728,406.029,408.135,412.595,419.467,425.956,432.636,436.609,425.239,410.142,410.142,4337.27,4337.27,4337.27
0.00046522	-4584261.10	0,4.64951e-06,1.05674e-05,1.80998e-05,2.7687e-05,3.98897e-05,5.54213e-05,7.519e-05,0.000100352,0.000132378,0.00017314,0.000225023,0.00029106,0.000375112,0.000482094,0.000618261,0.000791575,0.00101217,0.00129294,0.00165031,0.00210518,0.00268413,0.00342102,0.00435894,0.00555273,0.00707219,0.00900616,0.0114677,0.0146008,0.0185887,0.0236644,0.0301248,inf	0.391159,0.391159,1.13105,94.8451,333.954,439.138,309.791,322.546,250.389,264.516,324.325,364.724,371.82,380.868,388.176,392.033,394.13,400.928,409.065,413.355,414.678,419.322,427.813,435.82,443.488,447.709,432.713,413.129,413.129,62261,62261,62261
