0.00056027	-11725218.75	0,3.47196e-06,9.49631e-06,1.99494e-05,3.80871e-05,6.95585e-05,0.000124166,0.000218918,0.000383326,0.000668598,0.00116359,0.00202246,0.00351273,0.00609857,0.0105854,0.0183706,inf	3744.77,3744.77,851.362,492.813,352.556,330.706,334.989,337.478,341.527,362.108,399.11,426.562,455.319,486.118,486.118,486.118
0.000598833	-11721832.84	0,3.47196e-06,9.49631e-06,1.99494e-05,3.80871e-05,6.95585e-05,0.000124166,0.000218918,0.000383326,0.000668598,0.00116359,0.00202246,0.00351273,0.00609857,0.0105854,0.0183706,inf	5777.53,5777.53,875.168,493.378,325.191,306.212,314.466,314.496,312.828,338.362,388.049,413.305,448.263,499.683,499.683,499.683
0.000637012	-11720532.82	0,3.47196e-06,9.49631e-06,1.99494e-05,3.80871e-05,6.95585e-05,0.000124166,0.000218918,0.000383326,0.000668598,0.00116359,0.00202246,0.00351273,0.00609857,0.0105854,0.0183706,inf	6414.43,6414.43,798.366,486.302,312.184,300.409,313.656,312.515,304.426,332.1,389.557,407.499,442.581,509.507,509.507,509.507
0.000673336	-11719490.64	0,3.47196e-06,9.49631e-06,1.99494e-05,3.80871e-05,6.95585e-05,0.000124166,0.000218918,0.000383326,0.000668598,0.00116359,0.00202246,0.00351273,0.00609857,0.0105854,0.0183706,inf	6540.02,6540.02,711.324,478.931,302.016,297.646,315.93,315.121,301.274,330.383,393.934,404.066,437.216,516.097,516.097,516.097
0.000707618	-11718602.51	0,3.47196e-06,9.49631e-06,1.99494e-05,3.80871e-05,6.95585e-05,0.000124166,0.000218918,0.000383326,0.000668598,0.00116359,0.00202246,0.00351273,0.00609857,0.0105854,0.0183706,inf	6519.89,6519.89,634.832,473.939,293.042,295.295,318.068,318.61,299.725,329.972,398.722,401.635,432.059,520.156,520.156,520.156
0.000739947	-11717842.86	0,3.47196e-06,9.49631e-06,1.99494e-05,3.80871e-05,6.95585e-05,0.000124166,0.000218918,0.000383326,0.000668598,0.00116359,0.00202246,0.00351273,0.00609857,0.0105854,0.0183706,inf	6461.73,6461.73,570.565,471.614,285.049,293.132,319.643,322.14,298.784,329.958,403.264,399.77,427.154,522.299,522.299,522.299
0.000770469	-11717189.68	0,3.47196e-06,9.49631e-06,1.99494e-05,3.80871e-05,6.95585e-05,0.000124166,0.000218918,0.000383326,0.000668598,0.00116359,0.00202246,0.00351273,0.00609857,0.0105854,0.0183706,inf	6393.82,6393.82,516.354,471.45,277.925,291.268,320.753,325.546,298.145,330.068,407.407,398.297,422.543,523.011,523.011,523.011
0.000799331	-11716624.34	0,3.47196e-06,9.49631e-06,1.99494e-05,3.80871e-05,6.95585e-05,0.000124166,0.000218918,0.000383326,0.000668598,0.00116359,0.00202246,0.00351273,0.00609857,0.0105854,0.0183706,inf	6324.55,6324.55,469.988,472.863,271.534,289.788,321.537,328.814,297.696,330.209,411.136,397.126,418.249,522.667,522.667,522.667
0.000826664	-11716131.84	0,3.47196e-06,9.49631e-06,1.99494e-05,3.80871e-05,6.95585e-05,0.000124166,0.000218918,0.000383326,0.000668598,0.00116359,0.00202246,0.00351273,0.00609857,0.0105854,0.0183706,inf	6256.65,6256.65,429.789,475.339,265.74,288.718,322.098,331.955,297.381,330.351,414.479,396.199,414.273,521.551,521.551,521.551
0.000852585	-11715700.28	0,3.47196e-06,9.49631e-06,1.99494e-05,3.80871e-05,6.95585e-05,0.000124166,0.000218918,0.000383326,0.000668598,0.00116359,0.00202246,0.00351273,0.00609857,0.0105854,0.0183706,inf	6190.94,6190.94,394.515,478.496,260.425,288.046,322.502,334.981,297.168,330.485,417.475,395.471,410.604,519.88,519.88,519.88
0.000877199	-11715320.14	0,3.47196e-06,9.49631e-06,1.99494e-05,3.80871e-05,6.95585e-05,0.000124166,0.000218918,0.000383326,0.000668598,0.00116359,0.00202246,0.00351273,0.00609857,0.0105854,0.0183706,inf	6128.03,6128.03,363.268,482.055,255.495,287.747,322.787,337.899,297.035,330.607,420.159,394.909,407.225,517.815,517.815,517.815
0.000900598	-11714983.77	0,3.47196e-06,9.49631e-06,1.99494e-05,3.80871e-05,6.95585e-05,0.000124166,0.000218918,0.000383326,0.000668598,0.00116359,0.00202246,0.00351273,0.00609857,0.0105854,0.0183706,inf	6068.21,6068.21,335.399,485.815,250.872,287.787,322.977,340.714,296.965,330.719,422.567,394.482,404.117,515.481,515.481,515.481
0.000922864	-11714684.93	0,3.47196e-06,9.49631e-06,1.99494e-05,3.80871e-05,6.95585e-05,0.000124166,0.000218918,0.000383326,0.000668598,0.00116359,0.00202246,0.00351273,0.00609857,0.0105854,0.0183706,inf	6012.12,6012.12,310.373,489.636,246.512,288.131,323.088,343.43,296.944,330.821,424.73,394.168,401.256,512.969,512.969,512.969
0.000944071	-11714418.46	0,3.47196e-06,9.49631e-06,1.99494e-05,3.80871e-05,6.95585e-05,0.000124166,0.000218918,0.000383326,0.000668598,0.00116359,0.00202246,0.00351273,0.00609857,0.0105854,0.0183706,inf	5959.13,5959.13,287.79,493.426,242.365,288.748,323.132,346.05,296.964,330.916,426.674,393.948,398.624,510.35,510.35,510.35
0.000964287	-11714180.08	0,3.47196e-06,9.49631e-06,1.99494e-05,3.80871e-05,6.95585e-05,0.000124166,0.000218918,0.000383326,0.000668598,0.00116359,0.00202246,0.00351273,0.00609857,0.0105854,0.0183706,inf	5909.04,5909.04,267.337,497.123,238.406,289.604,323.115,348.576,297.013,331.006,428.423,393.806,396.199,507.678,507.678,507.678
0.000983572	-11713966.22	0,3.47196e-06,9.49631e-06,1.99494e-05,3.80871e-05,6.95585e-05,0.000124166,0.000218918,0.000383326,0.000668598,0.00116359,0.00202246,0.00351273,0.00609857,0.0105854,0.0183706,inf	5861.96,5861.96,248.758,500.702,234.603,290.674,323.041,351.012,297.087,331.092,429.998,393.727,393.965,504.991,504.991,504.991
0.00100198	-11713773.84	0,3.47196e-06,9.49631e-06,1.99494e-05,3.80871e-05,6.95585e-05,0.000124166,0.000218918,0.000383326,0.000668598,0.00116359,0.00202246,0.00351273,0.00609857,0.0105854,0.0183706,inf	5817.73,5817.73,231.84,504.115,230.939,291.929,322.917,353.359,297.179,331.177,431.417,393.701,391.902,502.32,502.32,502.32
0.00101957	-11713600.36	0,3.47196e-06,9.49631e-06,1.99494e-05,3.80871e-05,6.95585e-05,0.000124166,0.000218918,0.000383326,0.000668598,0.00116359,0.00202246,0.00351273,0.00609857,0.0105854,0.0183706,inf	5776.04,5776.04,216.385,507.386,227.402,293.348,322.743,355.621,297.285,331.262,432.698,393.719,389.997,499.685,499.685,499.685
0.00103637	-11713443.57	0,3.47196e-06,9.49631e-06,1.99494e-05,3.80871e-05,6.95585e-05,0.000124166,0.000218918,0.000383326,0.000668598,0.00116359,0.00202246,0.00351273,0.00609857,0.0105854,0.0183706,inf	5736.7,5736.7,202.237,510.478,223.98,294.91,322.529,357.8,297.402,331.347,433.854,393.772,388.234,497.102,497.102,497.102
0.00105245	-11713301.56	0,3.47196e-06,9.49631e-06,1.99494e-05,3.80871e-05,6.95585e-05,0.000124166,0.000218918,0.000383326,0.000668598,0.00116359,0.00202246,0.00351273,0.00609857,0.0105854,0.0183706,inf	5699.65,5699.65,189.263,513.412,220.662,296.595,322.269,359.9,297.525,331.434,434.897,393.855,386.602,494.584,494.584,494.584
