0.000556973	-254689.35	0,7.67263e-05,0.000181712,0.000325366,0.000521929,0.000790889,0.00115891,0.00166248,0.00235153,0.00329435,0.00458444,0.00634968,0.00876509,0.0120701,0.0165925,0.0227805,inf	511.233,511.233,337.9,341.901,361.462,387.232,411.738,434.319,465.072,491.786,499.793,495.517,517.316,591.17,591.17,591.17
0.000596691	-254617.65	0,7.67263e-05,0.000181712,0.000325366,0.000521929,0.000790889,0.00115891,0.00166248,0.00235153,0.00329435,0.00458444,0.00634968,0.00876509,0.0120701,0.0165925,0.0227805,inf	578.488,578.488,291.206,303.165,330.999,365.829,394.825,419.146,460.49,501.592,514.557,505.833,550.347,749.533,749.533,749.533
0.00063397	-254590.31	0,7.67263e-05,0.000181712,0.000325366,0.000521929,0.000790889,0.00115891,0.00166248,0.00235153,0.00329435,0.00458444,0.00634968,0.00876509,0.0120701,0.0165925,0.0227805,inf	625.559,625.559,265.129,288.314,321.942,361.84,390.235,411.178,456.991,507.633,524.236,511.351,579.941,1029.76,1029.76,1029.76
0.000668148	-254572.81	0,7.67263e-05,0.000181712,0.000325366,0.000521929,0.000790889,0.00115891,0.00166248,0.00235153,0.00329435,0.00458444,0.00634968,0.00876509,0.0120701,0.0165925,0.0227805,inf	652.061,652.061,246.348,281.823,320.02,363.419,389.395,405.471,453.275,510.837,530.162,513.434,607.945,1846.84,1846.84,1846.84
0.000699421	-254560.11	0,7.67263e-05,0.000181712,0.000325366,0.000521929,0.000790889,0.00115891,0.00166248,0.00235153,0.00329435,0.00458444,0.00634968,0.00876509,0.0120701,0.0165925,0.0227805,inf	665.802,665.802,231.481,279.07,320.868,366.948,389.813,400.734,449.383,512.175,533.428,513.101,636.396,11618.1,11618.1,11618.1
0.000699421	-254550.40	0,7.67263e-05,0.000181712,0.000325366,0.000521929,0.000790889,0.00115891,0.00166248,0.00235153,0.00329435,0.00458444,0.00634968,0.00876509,0.0120701,0.0165925,0.0227805,inf	662.728,662.728,216.825,275.102,319.116,366.668,386.015,392.318,441.057,507.728,530.966,508.28,664.819,67534.2,67534.2,67534.2
0.000699421	-254549.29	0,7.67263e-05,0.000181712,0.000325366,0.000521929,0.000790889,0.00115891,0.00166248,0.00235153,0.00329435,0.00458444,0.00634968,0.00876509,0.0120701,0.0165925,0.0227805,inf	662.73,662.73,205.999,273.972,319.885,369.323,385.502,387.103,435.65,505.376,529.68,504.297,672.223,67534.2,67534.2,67534.2
0.000699421	-254548.41	0,7.67263e-05,0.000181712,0.000325366,0.000521929,0.000790889,0.00115891,0.00166248,0.00235153,0.00329435,0.00458444,0.00634968,0.00876509,0.0120701,0.0165925,0.0227805,inf	662.73,662.73,196.971,273.647,321.027,372.186,385.502,383.524,431.935,504.405,529.289,500.896,677.102,67534.2,67534.2,67534.2
0.000699421	-254547.95	0,7.67263e-05,0.000181712,0.000325366,0.000521929,0.000790889,0.00115891,0.00166248,0.00235153,0.00329435,0.00458444,0.00634968,0.00876509,0.0120701,0.0165925,0.0227805,inf	662.73,662.73,189.238,273.721,322.122,374.365,385.502,380.883,429.274,504.285,529.443,497.835,680.613,67534.2,67534.2,67534.2
0.000699421	-254547.71	0,7.67263e-05,0.000181712,0.000325366,0.000521929,0.000790889,0.00115891,0.00166248,0.00235153,0.00329435,0.00458444,0.00634968,0.00876509,0.0120701,0.0165925,0.0227805,inf	662.731,662.731,182.536,274.095,323.141,376.036,385.502,378.863,427.27,504.686,529.949,494.968,683.275,67534.2,67534.2,67534.2
0.000699421	-254547.59	0,7.67263e-05,0.000181712,0.000325366,0.000521929,0.000790889,0.00115891,0.00166248,0.00235153,0.00329435,0.00458444,0.00634968,0.00876509,0.0120701,0.0165925,0.0227805,inf	662.731,662.731,176.664,274.698,324.069,377.328,385.502,377.269,425.693,505.414,530.669,492.223,683.275,67534.8,67534.8,67534.8
0.000699421	-254547.48	0,7.67263e-05,0.000181712,0.000325366,0.000521929,0.000790889,0.00115891,0.00166248,0.00235153,0.00329435,0.00458444,0.00634968,0.00876509,0.0120701,0.0165925,0.0227805,inf	662.734,662.734,171.469,275.473,324.9,378.334,385.502,375.971,424.41,506.369,531.163,489.563,683.276,67535.4,67535.4,67535.4
0.000699421	-254547.38	0,7.67263e-05,0.000181712,0.000325366,0.000521929,0.000790889,0.00115891,0.00166248,0.00235153,0.00329435,0.00458444,0.00634968,0.00876509,0.0120701,0.0165925,0.0227805,inf	662.734,662.734,166.831,276.376,325.633,379.127,385.502,374.894,423.338,507.496,531.333,486.966,685.174,67535.4,67535.4,67535.4
0.000699421	-254547.32	0,7.67263e-05,0.000181712,0.000325366,0.000521929,0.000790889,0.00115891,0.00166248,0.00235153,0.00329435,0.00458444,0.00634968,0.00876509,0.0120701,0.0165925,0.0227805,inf	662.734,662.734,162.658,277.372,325.633,379.127,386.303,373.994,422.424,508.645,531.333,484.429,687.028,67535.4,67535.4,67535.4
0.000699421	-254547.23	0,7.67263e-05,0.000181712,0.000325366,0.000521929,0.000790889,0.00115891,0.00166248,0.00235153,0.00329435,0.00458444,0.00634968,0.00876509,0.0120701,0.0165925,0.0227805,inf	662.734,662.734,158.932,278.572,326.301,379.452,386.303,373.18,421.608,509.676,531.333,481.951,688.839,67535.4,67535.4,67535.4
0.000699421	-254547.15	0,7.67263e-05,0.000181712,0.000325366,0.000521929,0.000790889,0.00115891,0.00166248,0.00235153,0.00329435,0.00458444,0.00634968,0.00876509,0.0120701,0.0165925,0.0227805,inf	662.736,662.736,155.511,279.788,326.874,379.72,386.303,372.502,420.918,510.542,531.333,479.551,688.839,67536,67536,67536
0.000699421	-254547.02	0,7.67263e-05,0.000181712,0.000325366,0.000521929,0.000790889,0.00115891,0.00166248,0.00235153,0.00329435,0.00458444,0.00634968,0.00876509,0.0120701,0.0165925,0.0227805,inf	662.736,662.736,152.354,281.01,327.349,379.722,386.471,371.941,420.339,511.265,531.333,477.22,690.543,67536,67536,67536
0.000699421	-254546.93	0,7.67263e-05,0.000181712,0.000325366,0.000521929,0.000790889,0.00115891,0.00166248,0.00235153,0.00329435,0.00458444,0.00634968,0.00876509,0.0120701,0.0165925,0.0227805,inf	662.736,662.736,149.434,281.01,327.72,379.722,387.106,371.476,419.848,511.873,531.333,474.954,692.199,67536,67536,67536
0.000699421	-254546.84	0,7.67263e-05,0.000181712,0.000325366,0.000521929,0.000790889,0.00115891,0.00166248,0.00235153,0.00329435,0.00458444,0.00634968,0.00876509,0.0120701,0.0165925,0.0227805,inf	662.736,662.736,146.848,281.01,328.105,380.451,387.106,371.028,419.402,512.437,531.333,472.753,693.808,67536,67536,67536
0.000699421	-254546.77	0,7.67263e-05,0.000181712,0.000325366,0.000521929,0.000790889,0.00115891,0.00166248,0.00235153,0.00329435,0.00458444,0.00634968,0.00876509,0.0120701,0.0165925,0.0227805,inf	662.737,662.737,144.528,282.567,328.107,380.451,387.159,370.627,419.022,512.929,531.333,470.616,695.369,67536,67536,67536
