LogLikelihood = -871031.55454613629263

y0 0.13861116372501941507
y0_prime 0
y1 4.3424309981819817494
y1_prime 0
y2 11.300518433055147582
y2_prime 0
y3 1.8724382638302623505
y3_prime 0
rho 9.9999999999999997989e-13
rho.alpha 0.050001337909440252139
r_ii 0.99999999999999977796
theta 0.0024945006898389071072
