AIC = 2389799.6258453438058

y0 1.0473582517794812752
y0_prime 0
y1 1.111493781718655649
y1_prime 0
y2 0.83100226159716816809
y2_prime 0
y3 1.7750332151767540534
y3_prime 0
rho 0.00029278833718281719245
theta 0.0050100871250803504647
