AIC = 619886.90001317486167

y0 1.0083542545431012361
y0_prime 0
y1 1.0778068633976913837
y1_prime 0
y2 0.85000182854338846017
y2_prime 0
y3 1.9176951339442274147
y3_prime 0
rho 0.00030264156462520637632
theta 0.0052152646692818988364
