AIC = 623598.2363747972995

y0 0.47192154893231652579
y0_prime 0
y1 0.92098803343247981346
y1_prime 0
y2 1.1709773041748174904
y2_prime 0
y3 1.8828383458426669606
y3_prime 0
rho 0.0016696587304273694929
theta 0.0050872095203663893898
