LogLikelihood = -41952.745122843487479

y0 0.8529132953843295839
y0_prime 0
y1 1.1017153649863424825
y1_prime 0
y2 1.0258766330844992787
y2_prime 0
y3 1.5605133079246513716
y3_prime 0
rho 0.00027126193988330005776
rho.alpha 0.51558083164777823715
r_ii 0.9999209869778883375
theta 0.00049968098445256868556
