LogLikelihood = -205484.5442562980752

y0 0.92919834993709804483
y0_prime 0
y1 0.95945401409396602332
y1_prime 0
y2 1.1420173079987470111
y2_prime 0
y3 1.448709358175049644
y3_prime 0
rho 0.00014108962306825273045
theta 0.00048851501617064513935
