LogLikelihood = -134733.57187436398817

y0 0.19010230703896840998
y0_prime 0
y1 0.25956250175025191718
y1_prime 0
y2 2.1929659418627442946
y2_prime 0
y3 30.000411670854123969
y3_prime 0
rho 0.00045865150730252358079
theta 0.0018572090181693664754
