LogLikelihood = -167962.72829971485771

y0 0.87613151380845433192
y0_prime 0
y1 0.96868047740163343295
y1_prime 0
y2 0.95468897803424213055
y2_prime 0
y3 1.9269717262872987362
y3_prime 0
rho 0.00090319360275517047987
theta 0.0024643813784694552915
