AIC = 271334.53090184577741

y0 0.20786245185939541957
y0_prime 0
y1 0.36954294534239706671
y1_prime 0
y2 2.1075944618181425838
y2_prime 0
y3 34.370131770400632831
y3_prime 0
rho 0.00079580023319137163911
rho.alpha 0.8118480381886524766
r_ii 0.99994638243760547436
theta 0.0018728891740884792867
