LogLikelihood = -303351.16226511221612

y0 0.91280317622813167411
y0_prime 0
y1 1.0433729095125050534
y1_prime 0
y2 0.85172312413048600899
y2_prime 0
y3 1.8131280104216700444
y3_prime 0
rho 0.0032189728671900195121
rho.alpha 2.804549464112690238
r_ii 0.99999999999890898383
theta 0.0049716791313693447715
