time_index	left_time_boundary	right_time_boundary	lambda
0	0	4.17213e-06	5023.93
1	4.17213e-06	9.05247e-06	5023.93
2	9.05247e-06	1.47613e-05	7040.76
3	1.47613e-05	2.14391e-05	1283.6
4	2.14391e-05	2.92505e-05	3005.09
5	2.92505e-05	3.83879e-05	5531.41
6	3.83879e-05	4.90764e-05	4114.82
7	4.90764e-05	6.15792e-05	3033.62
8	6.15792e-05	7.62044e-05	3319.11
9	7.62044e-05	9.33122e-05	4184.31
10	9.33122e-05	0.000113324	4616.19
11	0.000113324	0.000136733	4330.95
12	0.000136733	0.000164116	3786.4
13	0.000164116	0.000196146	3477.58
14	0.000196146	0.000233614	3599.91
15	0.000233614	0.000277442	3908.5
16	0.000277442	0.00032871	4062.76
17	0.00032871	0.000388681	4202.33
18	0.000388681	0.000458832	4719.58
19	0.000458832	0.00054089	5434.87
20	0.00054089	0.000636879	5172.42
21	0.000636879	0.000749161	4225.47
22	0.000749161	0.000880503	3550.35
23	0.000880503	0.00103414	3044.94
24	0.00103414	0.00121386	2523.78
25	0.00121386	0.00142408	2508.58
26	0.00142408	0.00166999	3768.86
27	0.00166999	0.00195765	4885.38
28	0.00195765	0.00229413	4885.38
29	0.00229413	0.00268773	414.912
30	0.00268773	0.00314814	414.912
31	0.00314814	inf	414.912
