6.64764e-05	-1876917.43	0,4.08102e-07,1.11622e-06,2.3449e-06,4.47684e-06,8.17607e-06,1.45948e-05,2.57321e-05,4.5057e-05,7.85885e-05,0.000136771,0.000237725,0.000412895,0.00071684,0.00124423,0.00215932,inf	5783.61,5783.61,3352.27,4188.12,4569.35,4320.82,4141.46,4042.76,4115.78,4127.16,4265.44,4624.79,4567.06,4148.55,4148.55,4148.55
6.89564e-05	-1876936.87	0,4.08102e-07,1.11622e-06,2.3449e-06,4.47684e-06,8.17607e-06,1.45948e-05,2.57321e-05,4.5057e-05,7.85885e-05,0.000136771,0.000237725,0.000412895,0.00071684,0.00124423,0.00215932,inf	6727.99,6727.99,2541.39,4074.76,4854.01,4430.42,4160.07,4001.87,4125.13,4081.15,4239.2,4969.55,4916.33,4150.23,4150.23,4150.23
7.06255e-05	-1877006.24	0,4.08102e-07,1.11622e-06,2.3449e-06,4.47684e-06,8.17607e-06,1.45948e-05,2.57321e-05,4.5057e-05,7.85885e-05,0.000136771,0.000237725,0.000412895,0.00071684,0.00124423,0.00215932,inf	7274.71,7274.71,1887.76,3906.73,5051.04,4484.13,4170.97,3978.47,4153.03,4032.68,4136.96,5180.74,5135.21,4099.23,4099.23,4099.23
7.18362e-05	-1877057.54	0,4.08102e-07,1.11622e-06,2.3449e-06,4.47684e-06,8.17607e-06,1.45948e-05,2.57321e-05,4.5057e-05,7.85885e-05,0.000136771,0.000237725,0.000412895,0.00071684,0.00124423,0.00215932,inf	7622.56,7622.56,1398.02,3734.1,5202.15,4504.63,4175.34,3964.39,4199.92,4005.42,4020.89,5325.15,5272.65,4036.22,4036.22,4036.22
7.27647e-05	-1877091.54	0,4.08102e-07,1.11622e-06,2.3449e-06,4.47684e-06,8.17607e-06,1.45948e-05,2.57321e-05,4.5057e-05,7.85885e-05,0.000136771,0.000237725,0.000412895,0.00071684,0.00124423,0.00215932,inf	7859.28,7859.28,1038.21,3573.06,5327.36,4503.35,4171.45,3949.3,4254.78,3997.25,3908.58,5434.81,5356.91,3977.09,3977.09,3977.09
7.35066e-05	-1877114.10	0,4.08102e-07,1.11622e-06,2.3449e-06,4.47684e-06,8.17607e-06,1.45948e-05,2.57321e-05,4.5057e-05,7.85885e-05,0.000136771,0.000237725,0.000412895,0.00071684,0.00124423,0.00215932,inf	8027.34,8027.34,774.608,3428.35,5439.57,4490.02,4161.57,3929.09,4309.87,4002.91,3804.19,5526.11,5404.81,3926.95,3926.95,3926.95
7.41169e-05	-1877129.54	0,4.08102e-07,1.11622e-06,2.3449e-06,4.47684e-06,8.17607e-06,1.45948e-05,2.57321e-05,4.5057e-05,7.85885e-05,0.000136771,0.000237725,0.000412895,0.00071684,0.00124423,0.00215932,inf	8145.91,8145.91,580.377,3297.91,5543.37,4470.12,4147.83,3902.72,4360.65,4018.06,3708.5,5607.66,5426.34,3886.26,3886.26,3886.26
7.46313e-05	-1877140.45	0,4.08102e-07,1.11622e-06,2.3449e-06,4.47684e-06,8.17607e-06,1.45948e-05,2.57321e-05,4.5057e-05,7.85885e-05,0.000136771,0.000237725,0.000412895,0.00071684,0.00124423,0.00215932,inf	8233.03,8233.03,436.657,3181.39,5645.41,4450.21,4135.38,3872.62,4406.01,4039.57,3619.53,5684.83,5428.75,3854.47,3854.47,3854.47
7.50726e-05	-1877148.64	0,4.08102e-07,1.11622e-06,2.3449e-06,4.47684e-06,8.17607e-06,1.45948e-05,2.57321e-05,4.5057e-05,7.85885e-05,0.000136771,0.000237725,0.000412895,0.00071684,0.00124423,0.00215932,inf	8296.95,8296.95,329.808,3074.54,5744.57,4431.34,4125.5,3839.83,4445.23,4065.32,3535.98,5760.69,5416.39,3830.14,3830.14,3830.14
7.54569e-05	-1877155.14	0,4.08102e-07,1.11622e-06,2.3449e-06,4.47684e-06,8.17607e-06,1.45948e-05,2.57321e-05,4.5057e-05,7.85885e-05,0.000136771,0.000237725,0.000412895,0.00071684,0.00124423,0.00215932,inf	8341.1,8341.1,249.6,2974.63,5839.85,4413.81,4119.02,3805.58,4478.38,4093.9,3456.68,5837.19,5392.23,3811.89,3811.89,3811.89
7.57961e-05	-1877160.63	0,4.08102e-07,1.11622e-06,2.3449e-06,4.47684e-06,8.17607e-06,1.45948e-05,2.57321e-05,4.5057e-05,7.85885e-05,0.000136771,0.000237725,0.000412895,0.00071684,0.00124423,0.00215932,inf	8373.54,8373.54,189.277,2879.97,5930.45,4397.62,4116.47,3770.87,4505.94,4124.34,3380.61,5915.6,5358.36,3798.52,3798.52,3798.52
7.60993e-05	-1877165.56	0,4.08102e-07,1.11622e-06,2.3449e-06,4.47684e-06,8.17607e-06,1.45948e-05,2.57321e-05,4.5057e-05,7.85885e-05,0.000136771,0.000237725,0.000412895,0.00071684,0.00124423,0.00215932,inf	8397.55,8397.55,143.858,2789.7,6015.69,4382.21,4117.71,3736.49,4528.49,4156.02,3306.92,5996.82,5316.29,3789.08,3789.08,3789.08
7.63737e-05	-1877170.28	0,4.08102e-07,1.11622e-06,2.3449e-06,4.47684e-06,8.17607e-06,1.45948e-05,2.57321e-05,4.5057e-05,7.85885e-05,0.000136771,0.000237725,0.000412895,0.00071684,0.00124423,0.00215932,inf	8414.27,8414.27,109.53,2703.09,6095.41,4367.26,4122.6,3702.96,4546.64,4188.5,3234.9,6081.46,5267.14,3782.79,3782.79,3782.79
7.66252e-05	-1877175.03	0,4.08102e-07,1.11622e-06,2.3449e-06,4.47684e-06,8.17607e-06,1.45948e-05,2.57321e-05,4.5057e-05,7.85885e-05,0.000136771,0.000237725,0.000412895,0.00071684,0.00124423,0.00215932,inf	8427.54,8427.54,83.5387,2620.23,6169.75,4352.43,4130.9,3670.64,4560.99,4221.47,3163.98,6170,5211.74,3779.06,3779.06,3779.06
7.68586e-05	-1877180.00	0,4.08102e-07,1.11622e-06,2.3449e-06,4.47684e-06,8.17607e-06,1.45948e-05,2.57321e-05,4.5057e-05,7.85885e-05,0.000136771,0.000237725,0.000412895,0.00071684,0.00124423,0.00215932,inf	8437.71,8437.71,63.7871,2540.65,6238.79,4337.35,4142.18,3639.73,4572.06,4254.71,3093.69,6262.78,5150.74,3777.44,3777.44,3777.44
7.70781e-05	-1877185.37	0,4.08102e-07,1.11622e-06,2.3449e-06,4.47684e-06,8.17607e-06,1.45948e-05,2.57321e-05,4.5057e-05,7.85885e-05,0.000136771,0.000237725,0.000412895,0.00071684,0.00124423,0.00215932,inf	8446.33,8446.33,48.7904,2464.48,6302.63,4321.56,4155.99,3610.38,4580.34,4288.1,3023.64,6360.08,5084.66,3777.58,3777.58,3777.58
7.72871e-05	-1877191.28	0,4.08102e-07,1.11622e-06,2.3449e-06,4.47684e-06,8.17607e-06,1.45948e-05,2.57321e-05,4.5057e-05,7.85885e-05,0.000136771,0.000237725,0.000412895,0.00071684,0.00124423,0.00215932,inf	8452.92,8452.92,37.3998,2391.81,6361.79,4305.07,4172.01,3582.59,4586.24,4321.49,2953.54,6462.13,5013.9,3779.2,3779.2,3779.2
7.74888e-05	-1877197.86	0,4.08102e-07,1.11622e-06,2.3449e-06,4.47684e-06,8.17607e-06,1.45948e-05,2.57321e-05,4.5057e-05,7.85885e-05,0.000136771,0.000237725,0.000412895,0.00071684,0.00124423,0.00215932,inf	8457.6,8457.6,28.7156,2322.73,6416.71,4287.72,4189.8,3556.38,4590.11,4354.85,2883.14,6569.1,4938.8,3782.12,3782.12,3782.12
7.76858e-05	-1877205.24	0,4.08102e-07,1.11622e-06,2.3449e-06,4.47684e-06,8.17607e-06,1.45948e-05,2.57321e-05,4.5057e-05,7.85885e-05,0.000136771,0.000237725,0.000412895,0.00071684,0.00124423,0.00215932,inf	8460.64,8460.64,22.0637,2257.01,6468.09,4269.33,4209.06,3531.7,4592.26,4388.07,2812.25,6681.11,4859.67,3786.17,3786.17,3786.17
7.78804e-05	-1877213.52	0,4.08102e-07,1.11622e-06,2.3449e-06,4.47684e-06,8.17607e-06,1.45948e-05,2.57321e-05,4.5057e-05,7.85885e-05,0.000136771,0.000237725,0.000412895,0.00071684,0.00124423,0.00215932,inf	8464.81,8464.81,16.9937,2194.78,6516.31,4249.78,4229.46,3508.5,4592.97,4421.13,2740.74,6798.28,4776.75,3791.26,3791.26,3791.26
