AIC = 3040971.6421391339973

y0 0.93716871505855858793
y0_prime 0
y1 1.0797078231839178919
y1_prime 0
y2 0.89058934315410187565
y2_prime 0
y3 1.7345046601169926692
y3_prime 0
rho 0.001635807490287547513
rho.alpha 2.3228749974984168603
r_ii 0.99999999998402078205
theta 0.0050190822366197344537
