0.000216726	-132581.99	0,3.36474e-05,7.96877e-05,0.000142685,0.000228886,0.000346835,0.000508228,0.000729063,0.00103123,0.0014447,0.00201045,0.00278458,0.00384383,0.00529322,0.00727644,0.00999011,inf	378.604,378.604,347.632,458.719,596.077,786.265,1055.03,1393.64,1505.11,1453.85,1379.54,1338.06,1336.32,1374.39,1374.39,1374.39
0.00021054	-132379.28	0,3.36474e-05,7.96877e-05,0.000142685,0.000228886,0.000346835,0.000508228,0.000729063,0.00103123,0.0014447,0.00201045,0.00278458,0.00384383,0.00529322,0.00727644,0.00999011,inf	306.603,306.603,176.614,294.561,427.299,643.672,990.467,1533.38,1783.32,1754.64,1648.09,1603.49,1669.08,1914.65,1914.65,1914.65
0.000204441	-132308.28	0,3.36474e-05,7.96877e-05,0.000142685,0.000228886,0.000346835,0.000508228,0.000729063,0.00103123,0.0014447,0.00201045,0.00278458,0.00384383,0.00529322,0.00727644,0.00999011,inf	324.689,324.689,114.12,238.485,352.355,563.35,932.868,1589.13,1952.67,1989.38,1893.22,1901.88,2207.12,3615.96,3615.96,3615.96
0.000197977	-132276.72	0,3.36474e-05,7.96877e-05,0.000142685,0.000228886,0.000346835,0.000508228,0.000729063,0.00103123,0.0014447,0.00201045,0.00278458,0.00384383,0.00529322,0.00727644,0.00999011,inf	356.224,356.224,82.8703,219.909,316.22,514.816,887.733,1606.82,2050.29,2167.67,2117.42,2259.96,3404.61,22800.9,22800.9,22800.9
0.000191794	-132260.13	0,3.36474e-05,7.96877e-05,0.000142685,0.000228886,0.000346835,0.000508228,0.000729063,0.00103123,0.0014447,0.00201045,0.00278458,0.00384383,0.00529322,0.00727644,0.00999011,inf	385.029,385.029,62.096,212.355,298.252,484.235,852.922,1609.92,2105.02,2302.05,2325.44,2730.77,8808.91,150712,150712,150712
0.000184838	-132250.24	0,3.36474e-05,7.96877e-05,0.000142685,0.000228886,0.000346835,0.000508228,0.000729063,0.00103123,0.0014447,0.00201045,0.00278458,0.00384383,0.00529322,0.00727644,0.00999011,inf	409.448,409.448,48.924,217.17,290.64,464.416,826.614,1605.14,2130.48,2399.75,2519.48,3436,8856.08,150445,150445,150445
0.000184835	-132243.59	0,3.36474e-05,7.96877e-05,0.000142685,0.000228886,0.000346835,0.000508228,0.000729063,0.00103123,0.0014447,0.00201045,0.00278458,0.00384383,0.00529322,0.00727644,0.00999011,inf	433.881,433.881,38.9774,225.156,289.27,453.324,810.509,1618.69,2160.68,2485.28,2692.35,3438.92,8856.08,150445,150445,150445
0.000184835	-132239.75	0,3.36474e-05,7.96877e-05,0.000142685,0.000228886,0.000346835,0.000508228,0.000729063,0.00103123,0.0014447,0.00201045,0.00278458,0.00384383,0.00529322,0.00727644,0.00999011,inf	433.881,433.881,30.7706,231.154,289.27,445.503,797.134,1627.63,2164.34,2485.28,2692.35,3438.92,8856.08,150445,150445,150445
0.000178039	-132239.40	0,3.36474e-05,7.96877e-05,0.000142685,0.000228886,0.000346835,0.000508228,0.000729063,0.00103123,0.0014447,0.00201045,0.00278458,0.00384383,0.00529322,0.00727644,0.00999011,inf	441.696,441.696,24.1621,237.041,289.189,437.546,781.187,1615.28,2157.75,2532.12,2879.73,4533.21,8856.08,150156,150156,150156
0.000178039	-132236.06	0,3.36474e-05,7.96877e-05,0.000142685,0.000228886,0.000346835,0.000508228,0.000729063,0.00103123,0.0014447,0.00201045,0.00278458,0.00384383,0.00529322,0.00727644,0.00999011,inf	441.696,441.696,19.0944,240.887,289.189,434.543,773.905,1622.2,2157.75,2532.12,2879.73,4533.21,8856.08,150156,150156,150156
0.000171565	-132235.88	0,3.36474e-05,7.96877e-05,0.000142685,0.000228886,0.000346835,0.000508228,0.000729063,0.00103123,0.0014447,0.00201045,0.00278458,0.00384383,0.00529322,0.00727644,0.00999011,inf	456.468,456.468,15.0084,245.253,290.52,430.096,762.747,1613.15,2149.52,2564.72,3064.17,7695.7,8856.08,149404,149404,149404
0.0001652	-132232.97	0,3.36474e-05,7.96877e-05,0.000142685,0.000228886,0.000346835,0.000508228,0.000729063,0.00103123,0.0014447,0.00201045,0.00278458,0.00384383,0.00529322,0.00727644,0.00999011,inf	471.615,471.615,11.7895,247.966,291.76,426.743,753.896,1607.24,2140.61,2585.6,3242.93,46697.4,13598.3,109874,109874,109874
0.00015906	-132230.31	0,3.36474e-05,7.96877e-05,0.000142685,0.000228886,0.000346835,0.000508228,0.000729063,0.00103123,0.0014447,0.00201045,0.00278458,0.00384383,0.00529322,0.00727644,0.00999011,inf	487.375,487.375,9.28105,249.295,292.749,423.78,745.87,1602.95,2132.24,2597.8,3414.88,665418,106.017,856.615,856.615,856.615
0.000153142	-132228.05	0,3.36474e-05,7.96877e-05,0.000142685,0.000228886,0.000346835,0.000508228,0.000729063,0.00103123,0.0014447,0.00201045,0.00278458,0.00384383,0.00529322,0.00727644,0.00999011,inf	503.858,503.858,7.34589,249.681,293.611,421.085,738.379,1599.96,2125.11,2606.31,3605.47,684696,288.184,137.026,137.026,137.026
