0.000644147	-291476.02	0,4.01932e-05,8.72092e-05,0.000142206,0.000206539,0.000281792,0.000369819,0.00047279,0.000593239,0.000734134,0.000898947,0.00109174,0.00131725,0.00158105,0.00188962,0.00225058,0.00267281,0.00316671,0.00374445,0.00442027,0.0052108,0.00613553,0.00721723,0.00848255,0.00996265,0.011694,0.0137193,0.0160883,0.0188595,0.0221011,0.0258929,0.0303284,inf	675.415,675.415,519.487,396.449,354.888,347.422,350.634,358.665,366.915,374.82,383.324,394.272,408.536,424.187,437.958,447.784,452.916,453.906,451.586,446.724,440.497,434.038,426.496,418.417,412.939,412.025,417.94,435.281,435.281,476.096,476.096,476.096
0.00069387	-291401.41	0,4.01932e-05,8.72092e-05,0.000142206,0.000206539,0.000281792,0.000369819,0.00047279,0.000593239,0.000734134,0.000898947,0.00109174,0.00131725,0.00158105,0.00188962,0.00225058,0.00267281,0.00316671,0.00374445,0.00442027,0.0052108,0.00613553,0.00721723,0.00848255,0.00996265,0.011694,0.0137193,0.0160883,0.0188595,0.0221011,0.0258929,0.0303284,inf	834.023,834.023,579.353,379.553,321.716,315.689,323.014,335.82,347.061,356.731,366.944,381.415,402.004,425.737,447.306,463.182,471.822,473.736,470.02,461.795,451.125,439.958,426.52,412.073,402.412,401.094,412.453,446.095,446.095,531.212,531.212,531.212
0.000740381	-291353.17	0,4.01932e-05,8.72092e-05,0.000142206,0.000206539,0.000281792,0.000369819,0.00047279,0.000593239,0.000734134,0.000898947,0.00109174,0.00131725,0.00158105,0.00188962,0.00225058,0.00267281,0.00316671,0.00374445,0.00442027,0.0052108,0.00613553,0.00721723,0.00848255,0.00996265,0.011694,0.0137193,0.0160883,0.0188595,0.0221011,0.0258929,0.0303284,inf	907.253,907.253,610.712,364.456,301.286,300.014,311.887,328.242,340.425,349.494,358.873,374.054,397.69,426.019,452.342,472.137,483.249,485.99,481.456,470.903,457.073,442.462,424.4,404.921,391.987,390.481,406.612,455.214,455.214,588.6,588.6,588.6
0.000783904	-291316.78	0,4.01932e-05,8.72092e-05,0.000142206,0.000206539,0.000281792,0.000369819,0.00047279,0.000593239,0.000734134,0.000898947,0.00109174,0.00131725,0.00158105,0.00188962,0.00225058,0.00267281,0.00316671,0.00374445,0.00442027,0.0052108,0.00613553,0.00721723,0.00848255,0.00996265,0.011694,0.0137193,0.0160883,0.0188595,0.0221011,0.0258929,0.0303284,inf	932.82,932.82,626.292,351.034,287.297,291.944,308.463,327.681,339.759,347.108,354.561,369.248,394.368,425.462,454.807,477.21,490.089,493.533,488.526,476.341,460.253,443.096,421.362,397.851,382.268,380.629,400.843,463.002,463.002,649.308,649.308,649.308
0.000824769	-291287.38	0,4.01932e-05,8.72092e-05,0.000142206,0.000206539,0.000281792,0.000369819,0.00047279,0.000593239,0.000734134,0.000898947,0.00109174,0.00131725,0.00158105,0.00188962,0.00225058,0.00267281,0.00316671,0.00374445,0.00442027,0.0052108,0.00613553,0.00721723,0.00848255,0.00996265,0.011694,0.0137193,0.0160883,0.0188595,0.0221011,0.0258929,0.0303284,inf	936.315,936.315,633.487,339.117,276.934,287.841,308.972,330.6,341.972,347.043,352.118,365.809,391.629,424.462,455.793,479.97,494.126,498.156,492.882,479.541,461.831,442.768,418.074,391.27,373.466,371.682,395.349,469.727,469.727,714.563,714.563,714.563
0.000863267	-291262.82	0,4.01932e-05,8.72092e-05,0.000142206,0.000206539,0.000281792,0.000369819,0.00047279,0.000593239,0.000734134,0.000898947,0.00109174,0.00131725,0.00158105,0.00188962,0.00225058,0.00267281,0.00316671,0.00374445,0.00442027,0.0052108,0.00613553,0.00721723,0.00848255,0.00996265,0.011694,0.0137193,0.0160883,0.0188595,0.0221011,0.0258929,0.0303284,inf	930.801,930.801,635.962,328.388,268.727,285.894,311.549,335.255,345.561,348.087,350.652,363.176,389.299,423.272,455.942,481.345,496.436,500.948,495.535,481.369,462.497,441.991,414.874,385.324,365.601,363.632,390.207,475.586,475.586,786.007,786.007,786.007
0.000899635	-291241.96	0,4.01932e-05,8.72092e-05,0.000142206,0.000206539,0.000281792,0.000369819,0.00047279,0.000593239,0.000734134,0.000898947,0.00109174,0.00131725,0.00158105,0.00188962,0.00225058,0.00267281,0.00316671,0.00374445,0.00442027,0.0052108,0.00613553,0.00721723,0.00848255,0.00996265,0.011694,0.0137193,0.0160883,0.0188595,0.0221011,0.0258929,0.0303284,inf	922.337,922.337,635.577,318.589,261.88,285.156,315.213,340.735,349.746,349.625,349.709,361.056,387.286,422.034,455.626,481.885,497.665,502.575,497.103,482.352,462.651,441.046,411.917,380.029,358.605,356.407,385.43,480.724,480.724,865.963,865.963,865.963
0.00093407	-291224.05	0,4.01932e-05,8.72092e-05,0.000142206,0.000206539,0.000281792,0.000369819,0.00047279,0.000593239,0.000734134,0.000898947,0.00109174,0.00131725,0.00158105,0.00188962,0.00225058,0.00267281,0.00316671,0.00374445,0.00442027,0.0052108,0.00613553,0.00721723,0.00848255,0.00996265,0.011694,0.0137193,0.0160883,0.0188595,0.0221011,0.0258929,0.0303284,inf	913.635,913.635,633.371,309.544,255.957,285.115,319.431,346.545,354.115,351.336,349.047,359.284,385.53,420.826,455.061,481.92,498.21,503.447,497.969,482.808,462.529,440.082,409.258,375.344,352.383,349.912,381.002,485.254,485.254,958.022,958.022,958.022
0.000966731	-291208.55	0,4.01932e-05,8.72092e-05,0.000142206,0.000206539,0.000281792,0.000369819,0.00047279,0.000593239,0.000734134,0.000898947,0.00109174,0.00131725,0.00158105,0.00188962,0.00225058,0.00267281,0.00316671,0.00374445,0.00442027,0.0052108,0.00613553,0.00721723,0.00848255,0.00996265,0.011694,0.0137193,0.0160883,0.0188595,0.0221011,0.0258929,0.0303284,inf	905.729,905.729,629.961,301.149,250.71,285.492,323.908,352.415,358.446,353.05,348.534,357.763,383.987,419.685,454.373,481.648,498.314,503.823,498.372,482.932,462.264,439.174,406.905,371.206,346.833,344.054,376.894,489.263,489.263,1068.24,1068.24,1068.24
0.000997755	-291195.07	0,4.01932e-05,8.72092e-05,0.000142206,0.000206539,0.000281792,0.000369819,0.00047279,0.000593239,0.000734134,0.000898947,0.00109174,0.00131725,0.00158105,0.00188962,0.00225058,0.00267281,0.00316671,0.00374445,0.00442027,0.0052108,0.00613553,0.00721723,0.00848255,0.00996265,0.011694,0.0137193,0.0160883,0.0188595,0.0221011,0.0258929,0.0303284,inf	899.007,899.007,625.755,293.335,245.997,286.131,328.478,358.198,362.622,354.678,348.097,356.43,382.626,418.627,453.633,481.191,498.131,503.865,498.464,482.845,461.934,438.356,404.842,367.546,341.861,338.747,373.073,492.816,492.816,1208.14,1208.14,1208.14
0.00102726	-291183.27	0,4.01932e-05,8.72092e-05,0.000142206,0.000206539,0.000281792,0.000369819,0.00047279,0.000593239,0.000734134,0.000898947,0.00109174,0.00131725,0.00158105,0.00188962,0.00225058,0.00267281,0.00316671,0.00374445,0.00442027,0.0052108,0.00613553,0.00721723,0.00848255,0.00996265,0.011694,0.0137193,0.0160883,0.0188595,0.0221011,0.0258929,0.0303284,inf	893.48,893.48,621.031,286.051,241.728,286.941,333.048,363.813,366.584,356.179,347.694,355.242,381.419,417.659,452.884,480.624,497.761,503.681,498.345,482.625,461.585,437.639,403.042,364.301,337.385,333.914,369.507,495.968,495.968,1404.15,1404.15,1404.15
0.00105535	-291172.90	0,4.01932e-05,8.72092e-05,0.000142206,0.000206539,0.000281792,0.000369819,0.00047279,0.000593239,0.000734134,0.000898947,0.00109174,0.00131725,0.00158105,0.00188962,0.00225058,0.00267281,0.00316671,0.00374445,0.00442027,0.0052108,0.00613553,0.00721723,0.00848255,0.00996265,0.011694,0.0137193,0.0160883,0.0188595,0.0221011,0.0258929,0.0303284,inf	889.049,889.049,615.986,279.256,237.841,287.872,337.567,369.22,370.306,357.534,347.302,354.17,380.345,416.776,452.149,479.995,497.267,503.341,498.08,482.319,461.238,437.025,401.475,361.412,333.334,329.489,366.165,498.76,498.76,1741.12,1741.12,1741.12
0.00108212	-291163.75	0,4.01932e-05,8.72092e-05,0.000142206,0.000206539,0.000281792,0.000369819,0.00047279,0.000593239,0.000734134,0.000898947,0.00109174,0.00131725,0.00158105,0.00188962,0.00225058,0.00267281,0.00316671,0.00374445,0.00442027,0.0052108,0.00613553,0.00721723,0.00848255,0.00996265,0.011694,0.0137193,0.0160883,0.0188595,0.0221011,0.0258929,0.0303284,inf	885.548,885.548,610.762,272.913,234.29,288.892,342.004,374.401,373.78,358.739,346.908,353.194,379.386,415.976,451.441,479.336,496.693,502.893,497.713,481.959,460.909,436.506,400.114,358.829,329.647,325.416,363.018,501.215,501.215,2788.88,2788.88,2788.88
0.00110764	-291155.64	0,4.01932e-05,8.72092e-05,0.000142206,0.000206539,0.000281792,0.000369819,0.00047279,0.000593239,0.000734134,0.000898947,0.00109174,0.00131725,0.00158105,0.00188962,0.00225058,0.00267281,0.00316671,0.00374445,0.00442027,0.0052108,0.00613553,0.00721723,0.00848255,0.00996265,0.011694,0.0137193,0.0160883,0.0188595,0.0221011,0.0258929,0.0303284,inf	882.801,882.801,605.475,266.987,231.042,289.982,346.346,379.35,377.01,359.795,346.505,352.298,378.527,415.252,450.768,478.664,496.068,502.37,497.275,481.565,460.602,436.074,398.929,356.507,326.269,321.643,360.036,503.317,503.317,19245.7,19245.7,19245.7
0.00110764	-291148.43	0,4.01932e-05,8.72092e-05,0.000142206,0.000206539,0.000281792,0.000369819,0.00047279,0.000593239,0.000734134,0.000898947,0.00109174,0.00131725,0.00158105,0.00188962,0.00225058,0.00267281,0.00316671,0.00374445,0.00442027,0.0052108,0.00613553,0.00721723,0.00848255,0.00996265,0.011694,0.0137193,0.0160883,0.0188595,0.0221011,0.0258929,0.0303284,inf	873.975,873.975,595.409,259.475,226.392,288.959,347.937,381.171,377.186,358.118,343.692,349.118,375.299,411.987,447.428,475.32,492.888,499.504,494.762,479.395,458.79,434.37,396.743,353.373,322.337,317.383,356.452,504.179,504.179,87463.5,87463.5,87463.5
0.00110764	-291148.46	0,4.01932e-05,8.72092e-05,0.000142206,0.000206539,0.000281792,0.000369819,0.00047279,0.000593239,0.000734134,0.000898947,0.00109174,0.00131725,0.00158105,0.00188962,0.00225058,0.00267281,0.00316671,0.00374445,0.00442027,0.0052108,0.00613553,0.00721723,0.00848255,0.00996265,0.011694,0.0137193,0.0160883,0.0188595,0.0221011,0.0258929,0.0303284,inf	874.052,874.052,591.726,254.222,223.09,289.14,350.755,384.317,377.351,357.851,342.29,347.368,373.551,410.249,445.625,473.469,491.114,497.928,493.415,478.27,457.923,433.533,395.306,350.988,318.959,313.593,353.255,505.165,505.165,87467,87467,87467
0.00110764	-291148.64	0,4.01932e-05,8.72092e-05,0.000142206,0.000206539,0.000281792,0.000369819,0.00047279,0.000593239,0.000734134,0.000898947,0.00109174,0.00131725,0.00158105,0.00188962,0.00225058,0.00267281,0.00316671,0.00374445,0.00442027,0.0052108,0.00613553,0.00721723,0.00848255,0.00996265,0.011694,0.0137193,0.0160883,0.0188595,0.0221011,0.0258929,0.0303284,inf	874.076,874.076,590.098,249.739,220.13,289.481,353.695,386.577,377.351,357.851,341.449,346.253,372.509,409.276,444.618,472.411,490.101,497.059,492.725,477.748,457.616,433.234,394.39,349.064,316.026,310.194,350.341,506.25,506.25,87469.5,87469.5,87469.5
0.00110764	-291148.80	0,4.01932e-05,8.72092e-05,0.000142206,0.000206539,0.000281792,0.000369819,0.00047279,0.000593239,0.000734134,0.000898947,0.00109174,0.00131725,0.00158105,0.00188962,0.00225058,0.00267281,0.00316671,0.00374445,0.00442027,0.0052108,0.00613553,0.00721723,0.00848255,0.00996265,0.011694,0.0137193,0.0160883,0.0188595,0.0221011,0.0258929,0.0303284,inf	874.175,874.175,589.835,245.782,217.374,289.85,356.609,387.772,377.351,357.851,340.89,345.475,371.852,408.727,444.054,471.798,489.516,496.597,492.409,477.579,457.646,433.259,393.847,347.482,313.418,307.079,347.643,507.405,507.405,87471.4,87471.4,87471.4
0.00110764	-291148.93	0,4.01932e-05,8.72092e-05,0.000142206,0.000206539,0.000281792,0.000369819,0.00047279,0.000593239,0.000734134,0.000898947,0.00109174,0.00131725,0.00158105,0.00188962,0.00225058,0.00267281,0.00316671,0.00374445,0.00442027,0.0052108,0.00613553,0.00721723,0.00848255,0.00996265,0.011694,0.0137193,0.0160883,0.0188595,0.0221011,0.0258929,0.0303284,inf	874.31,874.31,589.835,242.229,214.729,290.173,359.503,388.612,377.351,357.851,340.496,344.895,371.42,408.422,443.743,471.436,489.172,496.361,492.306,477.614,457.888,433.521,393.521,346.156,311.058,304.192,345.114,508.612,508.612,87472.8,87472.8,87472.8
0.00110764	-291149.04	0,4.01932e-05,8.72092e-05,0.000142206,0.000206539,0.000281792,0.000369819,0.00047279,0.000593239,0.000734134,0.000898947,0.00109174,0.00131725,0.00158105,0.00188962,0.00225058,0.00267281,0.00316671,0.00374445,0.00442027,0.0052108,0.00613553,0.00721723,0.00848255,0.00996265,0.011694,0.0137193,0.0160883,0.0188595,0.0221011,0.0258929,0.0303284,inf	874.692,874.692,589.835,239.024,212.23,290.51,362.355,389.201,377.351,357.851,340.189,344.426,371.115,408.256,443.577,471.213,488.958,496.247,492.318,477.766,458.259,433.644,393.384,345.014,308.894,301.489,342.726,509.855,509.855,87473.9,87473.9,87473.9
