time_index	left_time_boundary	right_time_boundary	lambda
0	0	9.78036e-06	742.176
1	9.78036e-06	2.18777e-05	742.176
2	2.18777e-05	3.68409e-05	54.2174
3	3.68409e-05	5.5349e-05	264.7
4	5.5349e-05	7.82416e-05	479.358
5	7.82416e-05	0.000106557	380.609
6	0.000106557	0.000141581	268.378
7	0.000141581	0.000184903	266.658
8	0.000184903	0.000238487	269.531
9	0.000238487	0.000304765	292.925
10	0.000304765	0.000386745	319.718
11	0.000386745	0.000488146	332.957
12	0.000488146	0.000613568	324.509
13	0.000613568	0.000768704	325.098
14	0.000768704	0.000960592	320.871
15	0.000960592	0.00119794	316.607
16	0.00119794	0.00149151	340.54
17	0.00149151	0.00185463	394.263
18	0.00185463	0.00230378	455.782
19	0.00230378	0.00285933	503.359
20	0.00285933	0.00354649	519.195
21	0.00354649	0.00439644	505.519
22	0.00439644	0.00544774	478.262
23	0.00544774	0.0067481	452.451
24	0.0067481	0.00835652	415.513
25	0.00835652	0.010346	344.444
26	0.010346	0.0128067	292.077
27	0.0128067	0.0158504	406.287
28	0.0158504	0.0196152	406.287
29	0.0196152	0.0242719	69089
30	0.0242719	0.0300317	69089
31	0.0300317	inf	69089
