LogLikelihood = -671741.4062476134859

y0 0.18369548414649441992
y0_prime 0
y1 0.40411811562879990101
y1_prime 0
y2 1.8983303982561217094
y2_prime 0
y3 30.225854325874642825
y3_prime 0
rho 0.00095393283356460427738
theta 0.0018484855454566362105
