LogLikelihood = -303729.48759748757584

y0 0.80550595645445199899
y0_prime 0
y1 1.0852539770397684471
y1_prime 0
y2 0.96512357579562813026
y2_prime 0
y3 1.55902177139896847
y3_prime 0
rho 0.0002919832517301823257
theta 0.005095184686443826258
