time_index	left_time_boundary	right_time_boundary	lambda
0	0	9.90753e-06	0.553183
1	9.90753e-06	2.21622e-05	0.553183
2	2.21622e-05	3.73199e-05	133.291
3	3.73199e-05	5.60686e-05	149.63
4	5.60686e-05	7.92589e-05	216.41
5	7.92589e-05	0.000107943	452.936
6	0.000107943	0.000143422	523.072
7	0.000143422	0.000187307	426.78
8	0.000187307	0.000241588	356.064
9	0.000241588	0.000308728	345.418
10	0.000308728	0.000391773	357.772
11	0.000391773	0.000494493	357.877
12	0.000494493	0.000621546	362.26
13	0.000621546	0.000778699	385.824
14	0.000778699	0.000973082	407.627
15	0.000973082	0.00121351	411.085
16	0.00121351	0.0015109	406.726
17	0.0015109	0.00187875	407.481
18	0.00187875	0.00233373	412.812
19	0.00233373	0.00289651	423.452
20	0.00289651	0.0035926	434.453
21	0.0035926	0.0044536	427.535
22	0.0044536	0.00551857	400.584
23	0.00551857	0.00683584	373.652
24	0.00683584	0.00846517	365.734
25	0.00846517	0.0104805	375.241
26	0.0104805	0.0129732	388.752
27	0.0129732	0.0160565	440.356
28	0.0160565	0.0198703	440.356
29	0.0198703	0.0245875	348.64
30	0.0245875	0.0304222	348.64
31	0.0304222	inf	348.64
