0.000683769	-1830528.15	0,9.90753e-06,2.21622e-05,3.73199e-05,5.60686e-05,7.92589e-05,0.000107943,0.000143422,0.000187307,0.000241588,0.000308728,0.000391773,0.000494493,0.000621546,0.000778699,0.000973082,0.00121351,0.0015109,0.00187875,0.00233373,0.00289651,0.0035926,0.0044536,0.00551857,0.00683584,0.00846517,0.0104805,0.0129732,0.0160565,0.0198703,0.0245875,0.0304222,inf	130.949,130.949,229.287,290.038,335.248,370.347,383.553,379.517,372.213,368.932,369.887,371.89,374.874,380.942,388.766,395.571,400.974,406.027,410.329,413.356,414.532,412.818,408.78,404.187,401.339,401.018,400.343,398.356,398.356,374.414,374.414,374.414
0.00073485	-1830180.38	0,9.90753e-06,2.21622e-05,3.73199e-05,5.60686e-05,7.92589e-05,0.000107943,0.000143422,0.000187307,0.000241588,0.000308728,0.000391773,0.000494493,0.000621546,0.000778699,0.000973082,0.00121351,0.0015109,0.00187875,0.00233373,0.00289651,0.0035926,0.0044536,0.00551857,0.00683584,0.00846517,0.0104805,0.0129732,0.0160565,0.0198703,0.0245875,0.0304222,inf	59.2476,59.2476,165.543,245.522,313.676,373.509,394.846,383.786,367.736,360.033,360.135,361.772,365.02,373.744,385.377,395.032,402.361,409.518,415.957,420.89,423.177,420.512,413.604,405.729,401.185,401.213,400.531,398.147,398.147,358.035,358.035,358.035
0.000781155	-1829923.91	0,9.90753e-06,2.21622e-05,3.73199e-05,5.60686e-05,7.92589e-05,0.000107943,0.000143422,0.000187307,0.000241588,0.000308728,0.000391773,0.000494493,0.000621546,0.000778699,0.000973082,0.00121351,0.0015109,0.00187875,0.00233373,0.00289651,0.0035926,0.0044536,0.00551857,0.00683584,0.00846517,0.0104805,0.0129732,0.0160565,0.0198703,0.0245875,0.0304222,inf	32.1509,32.1509,133.852,220.179,302.006,382.561,410.625,392.304,368.281,356.964,356.395,357.366,360.324,370.631,384.505,395.354,403.12,411.026,418.5,424.658,427.897,424.627,415.506,405.14,399.56,400.242,399.942,398.304,398.304,347.004,347.004,347.004
0.000823327	-1829723.97	0,9.90753e-06,2.21622e-05,3.73199e-05,5.60686e-05,7.92589e-05,0.000107943,0.000143422,0.000187307,0.000241588,0.000308728,0.000391773,0.000494493,0.000621546,0.000778699,0.000973082,0.00121351,0.0015109,0.00187875,0.00233373,0.00289651,0.0035926,0.0044536,0.00551857,0.00683584,0.00846517,0.0104805,0.0129732,0.0160565,0.0198703,0.0245875,0.0304222,inf	19.6924,19.6924,116.101,203.17,292.988,391.404,425.442,400.315,369.513,355.631,354.887,355.35,358.004,369.514,384.892,396.136,403.633,411.608,419.516,426.477,430.507,426.794,415.846,403.487,397.259,398.713,399.021,398.936,398.936,339.698,339.698,339.698
0.000861896	-1829564.23	0,9.90753e-06,2.21622e-05,3.73199e-05,5.60686e-05,7.92589e-05,0.000107943,0.000143422,0.000187307,0.000241588,0.000308728,0.000391773,0.000494493,0.000621546,0.000778699,0.000973082,0.00121351,0.0015109,0.00187875,0.00233373,0.00289651,0.0035926,0.0044536,0.00551857,0.00683584,0.00846517,0.0104805,0.0129732,0.0160565,0.0198703,0.0245875,0.0304222,inf	13.1665,13.1665,105.833,190.928,284.935,398.822,438.178,406.807,370.341,354.783,354.305,354.468,356.927,369.486,385.97,397.185,404.063,411.757,419.763,427.265,431.959,427.883,415.358,401.336,394.69,396.944,397.99,400.029,400.029,335.02,335.02,335.02
0.00089729	-1829434.68	0,9.90753e-06,2.21622e-05,3.73199e-05,5.60686e-05,7.92589e-05,0.000107943,0.000143422,0.000187307,0.000241588,0.000308728,0.000391773,0.000494493,0.000621546,0.000778699,0.000973082,0.00121351,0.0015109,0.00187875,0.00233373,0.00289651,0.0035926,0.0044536,0.00551857,0.00683584,0.00846517,0.0104805,0.0129732,0.0160565,0.0198703,0.0245875,0.0304222,inf	9.40641,9.40641,100.131,181.877,277.523,404.905,448.944,411.814,370.597,354.04,354.141,354.168,356.548,370.08,387.427,398.376,404.464,411.697,419.617,427.498,432.764,428.372,414.438,398.985,392.064,395.099,396.959,401.526,401.526,332.22,332.22,332.22
0.000929857	-1829328.44	0,9.90753e-06,2.21622e-05,3.73199e-05,5.60686e-05,7.92589e-05,0.000107943,0.000143422,0.000187307,0.000241588,0.000308728,0.000391773,0.000494493,0.000621546,0.000778699,0.000973082,0.00121351,0.0015109,0.00187875,0.00233373,0.00289651,0.0035926,0.0044536,0.00551857,0.00683584,0.00846517,0.0104805,0.0129732,0.0160565,0.0198703,0.0245875,0.0304222,inf	7.06161,7.06161,97.4284,175.109,270.715,409.996,458.114,415.612,370.364,353.299,354.179,354.182,356.573,371.029,389.077,399.622,404.844,411.532,419.267,427.43,433.204,428.526,413.308,396.594,389.486,393.262,395.976,403.36,403.36,330.777,330.777,330.777
0.000959892	-1829240.55	0,9.90753e-06,2.21622e-05,3.73199e-05,5.60686e-05,7.92589e-05,0.000107943,0.000143422,0.000187307,0.000241588,0.000308728,0.000391773,0.000494493,0.000621546,0.000778699,0.000973082,0.00121351,0.0015109,0.00187875,0.00233373,0.00289651,0.0035926,0.0044536,0.00551857,0.00683584,0.00846517,0.0104805,0.0129732,0.0160565,0.0198703,0.0245875,0.0304222,inf	5.49837,5.49837,96.7814,170.014,264.487,414.415,466.062,418.486,369.767,352.543,354.323,354.365,356.834,372.175,390.807,400.867,405.197,411.308,418.81,427.199,433.438,428.498,412.092,394.245,387.007,391.474,395.062,405.471,405.471,330.322,330.322,330.322
0.000987642	-1829167.28	0,9.90753e-06,2.21622e-05,3.73199e-05,5.60686e-05,7.92589e-05,0.000107943,0.000143422,0.000187307,0.000241588,0.000308728,0.000391773,0.000494493,0.000621546,0.000778699,0.000973082,0.00121351,0.0015109,0.00187875,0.00233373,0.00289651,0.0035926,0.0044536,0.00551857,0.00683584,0.00846517,0.0104805,0.0129732,0.0160565,0.0198703,0.0245875,0.0304222,inf	4.39502,4.39502,97.5853,166.135,258.795,418.383,473.076,420.666,368.917,351.783,354.526,354.641,357.231,373.42,392.547,402.074,405.518,411.049,418.301,426.884,433.557,428.376,410.86,391.981,384.646,389.755,394.224,407.805,407.805,330.591,330.591,330.591
0.00101332	-1829105.81	0,9.90753e-06,2.21622e-05,3.73199e-05,5.60686e-05,7.92589e-05,0.000107943,0.000143422,0.000187307,0.000241588,0.000308728,0.000391773,0.000494493,0.000621546,0.000778699,0.000973082,0.00121351,0.0015109,0.00187875,0.00233373,0.00289651,0.0035926,0.0044536,0.00551857,0.00683584,0.00846517,0.0104805,0.0129732,0.0160565,0.0198703,0.0245875,0.0304222,inf	3.57854,3.57854,99.4106,163.138,253.581,422.056,479.375,422.327,367.899,351.032,354.763,354.961,357.701,374.703,394.256,403.224,405.801,410.766,417.768,426.528,433.618,428.214,409.651,389.82,382.411,388.112,393.459,410.32,410.32,331.387,331.387,331.387
0.00103712	-1829053.92	0,9.90753e-06,2.21622e-05,3.73199e-05,5.60686e-05,7.92589e-05,0.000107943,0.000143422,0.000187307,0.000241588,0.000308728,0.000391773,0.000494493,0.000621546,0.000778699,0.000973082,0.00121351,0.0015109,0.00187875,0.00233373,0.00289651,0.0035926,0.0044536,0.00551857,0.00683584,0.00846517,0.0104805,0.0129732,0.0160565,0.0198703,0.0245875,0.0304222,inf	2.94977,2.94977,101.961,160.779,248.782,425.53,485.116,423.595,366.776,350.304,355.023,355.302,358.207,375.987,395.91,404.307,406.045,410.468,417.228,426.16,433.654,428.042,408.486,387.769,380.3,386.545,392.764,412.981,412.981,332.568,332.568,332.568
0.0010592	-1829009.91	0,9.90753e-06,2.21622e-05,3.73199e-05,5.60686e-05,7.92589e-05,0.000107943,0.000143422,0.000187307,0.000241588,0.000308728,0.000391773,0.000494493,0.000621546,0.000778699,0.000973082,0.00121351,0.0015109,0.00187875,0.00233373,0.00289651,0.0035926,0.0044536,0.00551857,0.00683584,0.00846517,0.0104805,0.0129732,0.0160565,0.0198703,0.0245875,0.0304222,inf	2.44934,2.44934,105.003,158.876,244.328,428.867,490.409,424.563,365.59,349.608,355.3,355.644,358.724,377.251,397.495,405.316,406.249,410.157,416.69,425.793,433.683,427.88,407.376,385.829,378.308,385.053,392.133,415.76,415.76,334.025,334.025,334.025
0.00107971	-1828972.39	0,9.90753e-06,2.21622e-05,3.73199e-05,5.60686e-05,7.92589e-05,0.000107943,0.000143422,0.000187307,0.000241588,0.000308728,0.000391773,0.000494493,0.000621546,0.000778699,0.000973082,0.00121351,0.0015109,0.00187875,0.00233373,0.00289651,0.0035926,0.0044536,0.00551857,0.00683584,0.00846517,0.0104805,0.0129732,0.0160565,0.0198703,0.0245875,0.0304222,inf	2.04207,2.04207,108.371,157.284,240.166,432.104,495.336,425.297,364.373,348.948,355.588,355.98,359.237,378.481,399.007,406.253,406.415,409.838,416.161,425.437,433.719,427.737,406.326,383.995,376.427,383.63,391.56,418.636,418.636,335.674,335.674,335.674
0.00109878	-1828940.27	0,9.90753e-06,2.21622e-05,3.73199e-05,5.60686e-05,7.92589e-05,0.000107943,0.000143422,0.000187307,0.000241588,0.000308728,0.000391773,0.000494493,0.000621546,0.000778699,0.000973082,0.00121351,0.0015109,0.00187875,0.00233373,0.00289651,0.0035926,0.0044536,0.00551857,0.00683584,0.00846517,0.0104805,0.0129732,0.0160565,0.0198703,0.0245875,0.0304222,inf	1.70471,1.70471,111.928,155.913,236.259,435.257,499.956,425.847,363.146,348.329,355.885,356.304,359.736,379.668,400.444,407.12,406.546,409.511,415.643,425.097,433.768,427.62,405.338,382.263,374.648,382.272,391.04,421.59,421.59,337.451,337.451,337.451
0.00111653	-1828912.67	0,9.90753e-06,2.21622e-05,3.73199e-05,5.60686e-05,7.92589e-05,0.000107943,0.000143422,0.000187307,0.000241588,0.000308728,0.000391773,0.000494493,0.000621546,0.000778699,0.000973082,0.00121351,0.0015109,0.00187875,0.00233373,0.00289651,0.0035926,0.0044536,0.00551857,0.00683584,0.00846517,0.0104805,0.0129732,0.0160565,0.0198703,0.0245875,0.0304222,inf	1.42174,1.42174,115.583,154.693,232.561,438.342,504.31,426.248,361.921,347.748,356.189,356.612,360.217,380.81,401.807,407.921,406.642,409.179,415.138,424.775,433.833,427.532,404.41,380.626,372.965,380.975,390.566,424.61,424.61,339.306,339.306,339.306
0.00113306	-1828888.86	0,9.90753e-06,2.21622e-05,3.73199e-05,5.60686e-05,7.92589e-05,0.000107943,0.000143422,0.000187307,0.000241588,0.000308728,0.000391773,0.000494493,0.000621546,0.000778699,0.000973082,0.00121351,0.0015109,0.00187875,0.00233373,0.00289651,0.0035926,0.0044536,0.00551857,0.00683584,0.00846517,0.0104805,0.0129732,0.0160565,0.0198703,0.0245875,0.0304222,inf	1.18458,1.18458,119.255,153.576,229.051,441.367,508.435,426.528,360.708,347.209,356.498,356.902,360.676,381.904,403.098,408.66,406.709,408.843,414.646,424.473,433.919,427.475,403.54,379.078,371.37,379.733,390.134,427.682,427.682,341.2,341.2,341.2
0.00114846	-1828868.26	0,9.90753e-06,2.21622e-05,3.73199e-05,5.60686e-05,7.92589e-05,0.000107943,0.000143422,0.000187307,0.000241588,0.000308728,0.000391773,0.000494493,0.000621546,0.000778699,0.000973082,0.00121351,0.0015109,0.00187875,0.00233373,0.00289651,0.0035926,0.0044536,0.00551857,0.00683584,0.00846517,0.0104805,0.0129732,0.0160565,0.0198703,0.0245875,0.0304222,inf	0.984255,0.984255,122.896,152.533,225.694,444.336,512.354,426.706,359.513,346.708,356.812,357.174,361.109,382.952,404.322,409.342,406.748,408.504,414.167,424.19,434.024,427.447,402.725,377.612,369.855,378.542,389.74,430.799,430.799,343.102,343.102,343.102
0.00116284	-1828850.39	0,9.90753e-06,2.21622e-05,3.73199e-05,5.60686e-05,7.92589e-05,0.000107943,0.000143422,0.000187307,0.000241588,0.000308728,0.000391773,0.000494493,0.000621546,0.000778699,0.000973082,0.00121351,0.0015109,0.00187875,0.00233373,0.00289651,0.0035926,0.0044536,0.00551857,0.00683584,0.00846517,0.0104805,0.0129732,0.0160565,0.0198703,0.0245875,0.0304222,inf	0.815978,0.815978,126.465,151.54,222.478,447.253,516.09,426.801,358.34,346.243,357.131,357.428,361.518,383.953,405.482,409.97,406.762,408.164,413.703,423.926,434.148,427.449,401.963,376.223,368.414,377.399,389.381,433.954,433.954,344.988,344.988,344.988
0.00117625	-1828834.83	0,9.90753e-06,2.21622e-05,3.73199e-05,5.60686e-05,7.92589e-05,0.000107943,0.000143422,0.000187307,0.000241588,0.000308728,0.000391773,0.000494493,0.000621546,0.000778699,0.000973082,0.00121351,0.0015109,0.00187875,0.00233373,0.00289651,0.0035926,0.0044536,0.00551857,0.00683584,0.00846517,0.0104805,0.0129732,0.0160565,0.0198703,0.0245875,0.0304222,inf	0.672864,0.672864,129.936,150.571,219.389,450.119,519.658,426.823,357.19,345.814,357.451,357.662,361.902,384.91,406.582,410.55,406.754,407.822,413.251,423.681,434.292,427.478,401.25,374.905,367.042,376.3,389.053,437.142,437.142,346.84,346.84,346.84
0.00118878	-1828821.25	0,9.90753e-06,2.21622e-05,3.73199e-05,5.60686e-05,7.92589e-05,0.000107943,0.000143422,0.000187307,0.000241588,0.000308728,0.000391773,0.000494493,0.000621546,0.000778699,0.000973082,0.00121351,0.0015109,0.00187875,0.00233373,0.00289651,0.0035926,0.0044536,0.00551857,0.00683584,0.00846517,0.0104805,0.0129732,0.0160565,0.0198703,0.0245875,0.0304222,inf	0.553183,0.553183,133.291,149.63,216.41,452.936,523.072,426.78,356.064,345.418,357.772,357.877,362.26,385.824,407.627,411.085,406.726,407.481,412.812,423.452,434.453,427.535,400.584,373.652,365.734,375.241,388.752,440.356,440.356,348.64,348.64,348.64
