time_index	left_time_boundary	right_time_boundary	lambda
0	0	2.65437e-06	0.400831
1	2.65437e-06	6.09938e-06	0.400831
2	6.09938e-06	1.05705e-05	112.286
3	1.05705e-05	1.63735e-05	8.43519
4	1.63735e-05	2.3905e-05	91.6337
5	2.3905e-05	3.36798e-05	453.784
6	3.36798e-05	4.63663e-05	348.033
7	4.63663e-05	6.28315e-05	241.067
8	6.28315e-05	8.42013e-05	322.98
9	8.42013e-05	0.000111936	468.874
10	0.000111936	0.000147933	468.884
11	0.000147933	0.000194651	369.437
12	0.000194651	0.000255285	330.616
13	0.000255285	0.000333981	349.868
14	0.000333981	0.000436116	366.642
15	0.000436116	0.000568675	374.508
16	0.000568675	0.000740718	389.021
17	0.000740718	0.000964007	398.023
18	0.000964007	0.00125381	399.7
19	0.00125381	0.00162993	405.47
20	0.00162993	0.00211808	416.304
21	0.00211808	0.00275164	422.283
22	0.00275164	0.00357391	417.188
23	0.00357391	0.00464111	394.437
24	0.00464111	0.00602619	367.344
25	0.00602619	0.00782384	359.046
26	0.00782384	0.010157	366.7
27	0.010157	0.013185	635.252
28	0.013185	0.017115	635.252
29	0.017115	0.0222157	0.400776
30	0.0222157	0.0288356	0.400776
31	0.0288356	inf	0.400776
