0.000684745	-4565158.24	0,4.55325e-06,1.03487e-05,1.77251e-05,2.71138e-05,3.90638e-05,5.42739e-05,7.36333e-05,9.8274e-05,0.000129637,0.000169556,0.000220364,0.000285034,0.000367346,0.000472113,0.000605461,0.000775187,0.000991214,0.00126618,0.00161615,0.00206159,0.00262856,0.00335019,0.0042687,0.00543777,0.00692577,0.00881971,0.0112303,0.0142985,0.0182038,0.0231744,0.0295011,inf	102.482,102.482,215.094,295.72,333.308,336.535,343.442,364.016,379.551,379.078,370.212,365.642,367.664,370.51,373.172,378.517,385.779,392.759,399.339,405.077,408.386,408.766,406.746,403.818,401.276,398.634,393.247,368.044,368.044,211.301,211.301,211.301
0.000737949	-4564253.67	0,4.55325e-06,1.03487e-05,1.77251e-05,2.71138e-05,3.90638e-05,5.42739e-05,7.36333e-05,9.8274e-05,0.000129637,0.000169556,0.000220364,0.000285034,0.000367346,0.000472113,0.000605461,0.000775187,0.000991214,0.00126618,0.00161615,0.00206159,0.00262856,0.00335019,0.0042687,0.00543777,0.00692577,0.00881971,0.0112303,0.0142985,0.0182038,0.0231744,0.0295011,inf	33.7501,33.7501,144.816,264.305,323.04,317.818,323.481,358.962,386.963,383.86,365.204,355.643,358.103,361.353,363.936,371.264,381.732,391.492,400.762,409.061,413.74,413.957,410.484,405.619,401.692,397.853,389.145,351.922,351.922,13.0798,13.0798,13.0798
0.000786901	-4564064.86	0,4.55325e-06,1.03487e-05,1.77251e-05,2.71138e-05,3.90638e-05,5.42739e-05,7.36333e-05,9.8274e-05,0.000129637,0.000169556,0.000220364,0.000285034,0.000367346,0.000472113,0.000605461,0.000775187,0.000991214,0.00126618,0.00161615,0.00206159,0.00262856,0.00335019,0.0042687,0.00543777,0.00692577,0.00881971,0.0112303,0.0142985,0.0182038,0.0231744,0.0295011,inf	12.2785,12.2785,105.989,251.562,326.479,308.047,310.392,359.292,399.359,393.455,365.717,352.24,355.347,358.629,360.595,368.936,381.129,392.051,402.495,412.106,417.44,417.496,413.262,407.644,404.327,403.356,400.714,395.563,395.563,3.19154,3.19154,3.19154
0.000830661	-4563586.52	0,4.55325e-06,1.03487e-05,1.77251e-05,2.71138e-05,3.90638e-05,5.42739e-05,7.36333e-05,9.8274e-05,0.000129637,0.000169556,0.000220364,0.000285034,0.000367346,0.000472113,0.000605461,0.000775187,0.000991214,0.00126618,0.00161615,0.00206159,0.00262856,0.00335019,0.0042687,0.00543777,0.00692577,0.00881971,0.0112303,0.0142985,0.0182038,0.0231744,0.0295011,inf	4.701,4.701,80.6654,245.474,333.653,299.354,297.874,359.097,410.856,402.293,366.528,350.327,354.513,357.865,359.178,368.18,381.363,392.588,403.333,413.434,418.887,418.587,413.59,407.117,404.045,405.315,407.969,441.892,441.892,0.399428,0.399428,0.399428
0.000870677	-4563130.50	0,4.55325e-06,1.03487e-05,1.77251e-05,2.71138e-05,3.90638e-05,5.42739e-05,7.36333e-05,9.8274e-05,0.000129637,0.000169556,0.000220364,0.000285034,0.000367346,0.000472113,0.000605461,0.000775187,0.000991214,0.00126618,0.00161615,0.00206159,0.00262856,0.00335019,0.0042687,0.00543777,0.00692577,0.00881971,0.0112303,0.0142985,0.0182038,0.0231744,0.0295011,inf	1.85479,1.85479,62.9444,243.044,342.634,290.82,285.561,358.08,421.004,409.831,366.951,348.967,354.572,358.093,358.851,368.404,382.222,393.342,403.97,414.15,419.421,418.607,412.747,405.171,401.759,404.102,409.621,477.374,477.374,0.399428,0.399428,0.399428
0.000907618	-4562748.44	0,4.55325e-06,1.03487e-05,1.77251e-05,2.71138e-05,3.90638e-05,5.42739e-05,7.36333e-05,9.8274e-05,0.000129637,0.000169556,0.000220364,0.000285034,0.000367346,0.000472113,0.000605461,0.000775187,0.000991214,0.00126618,0.00161615,0.00206159,0.00262856,0.00335019,0.0042687,0.00543777,0.00692577,0.00881971,0.0112303,0.0142985,0.0182038,0.0231744,0.0295011,inf	0.748217,0.748217,49.9785,242.919,352.668,282.353,273.644,356.519,429.973,416.105,366.822,347.745,354.978,358.749,359.075,369.157,383.427,394.248,404.579,414.663,419.643,418.289,411.553,402.741,398.61,401.24,407.95,498.684,498.684,0.399428,0.399428,0.399428
0.000941786	-4562458.83	0,4.55325e-06,1.03487e-05,1.77251e-05,2.71138e-05,3.90638e-05,5.42739e-05,7.36333e-05,9.8274e-05,0.000129637,0.000169556,0.000220364,0.000285034,0.000367346,0.000472113,0.000605461,0.000775187,0.000991214,0.00126618,0.00161615,0.00206159,0.00262856,0.00335019,0.0042687,0.00543777,0.00692577,0.00881971,0.0112303,0.0142985,0.0182038,0.0231744,0.0295011,inf	0.399454,0.399454,40.1895,244.326,363.344,274.038,262.36,354.788,438.114,421.379,366.246,346.571,355.538,359.592,359.581,370.185,384.791,395.213,405.173,415.098,419.782,417.941,410.393,400.332,395.331,397.894,405.07,513.416,513.416,0.399428,0.399428,0.399428
0.000973439	-4562227.66	0,4.55325e-06,1.03487e-05,1.77251e-05,2.71138e-05,3.90638e-05,5.42739e-05,7.36333e-05,9.8274e-05,0.000129637,0.000169556,0.000220364,0.000285034,0.000367346,0.000472113,0.000605461,0.000775187,0.000991214,0.00126618,0.00161615,0.00206159,0.00262856,0.00335019,0.0042687,0.00543777,0.00692577,0.00881971,0.0112303,0.0142985,0.0182038,0.0231744,0.0295011,inf	0.399439,0.399439,32.6105,246.678,374.331,265.916,251.816,353.123,445.714,425.888,365.338,345.425,356.159,360.496,360.215,371.329,386.184,396.153,405.714,415.465,419.887,417.642,409.366,398.088,392.154,394.465,401.733,524.781,524.781,0.399428,0.399428,0.399428
0.0010028	-4562038.78	0,4.55325e-06,1.03487e-05,1.77251e-05,2.71138e-05,3.90638e-05,5.42739e-05,7.36333e-05,9.8274e-05,0.000129637,0.000169556,0.000220364,0.000285034,0.000367346,0.000472113,0.000605461,0.000775187,0.000991214,0.00126618,0.00161615,0.00206159,0.00262856,0.00335019,0.0042687,0.00543777,0.00692577,0.00881971,0.0112303,0.0142985,0.0182038,0.0231744,0.0295011,inf	0.399432,0.399432,26.6274,249.575,385.349,257.993,242.032,351.659,452.961,429.809,364.199,344.316,356.81,361.408,360.903,372.506,387.542,397.022,406.177,415.763,419.97,417.407,408.491,396.043,389.154,391.103,398.241,534.24,534.24,0.399428,0.399428,0.399428
0.00103008	-4561882.31	0,4.55325e-06,1.03487e-05,1.77251e-05,2.71138e-05,3.90638e-05,5.42739e-05,7.36333e-05,9.8274e-05,0.000129637,0.000169556,0.000220364,0.000285034,0.000367346,0.000472113,0.000605461,0.000775187,0.000991214,0.00126618,0.00161615,0.00206159,0.00262856,0.00335019,0.0042687,0.00543777,0.00692577,0.00881971,0.0112303,0.0142985,0.0182038,0.0231744,0.0295011,inf	0.399432,0.399432,21.8378,252.707,396.189,250.268,232.973,350.46,459.972,433.269,362.903,343.254,357.476,362.303,361.605,373.677,388.833,397.803,406.556,415.991,420.034,417.236,407.761,394.194,386.349,387.863,394.729,542.501,542.501,0.399428,0.399428,0.399428
0.00105546	-4561751.48	0,4.55325e-06,1.03487e-05,1.77251e-05,2.71138e-05,3.90638e-05,5.42739e-05,7.36333e-05,9.8274e-05,0.000129637,0.000169556,0.000220364,0.000285034,0.000367346,0.000472113,0.000605461,0.000775187,0.000991214,0.00126618,0.00161615,0.00206159,0.00262856,0.00335019,0.0042687,0.00543777,0.00692577,0.00881971,0.0112303,0.0142985,0.0182038,0.0231744,0.0295011,inf	0.399432,0.399432,17.9657,255.89,406.7,242.738,224.589,349.538,466.823,436.351,361.5,342.246,358.154,363.175,362.304,374.821,390.047,398.492,406.852,416.154,420.082,417.121,407.162,392.528,383.734,384.766,391.258,549.928,549.928,0.399428,0.399428,0.399428
0.00107908	-4561641.29	0,4.55325e-06,1.03487e-05,1.77251e-05,2.71138e-05,3.90638e-05,5.42739e-05,7.36333e-05,9.8274e-05,0.000129637,0.000169556,0.000220364,0.000285034,0.000367346,0.000472113,0.000605461,0.000775187,0.000991214,0.00126618,0.00161615,0.00206159,0.00262856,0.00335019,0.0042687,0.00543777,0.00692577,0.00881971,0.0112303,0.0142985,0.0182038,0.0231744,0.0295011,inf	0.399432,0.399432,14.8128,258.987,416.798,235.412,216.818,348.883,473.546,439.114,360.023,341.293,358.84,364.019,362.991,375.928,391.183,399.095,407.069,416.257,420.114,417.057,406.68,391.028,381.3,381.813,387.855,556.723,556.723,0.399428,0.399428,0.399428
0.00110111	-4561547.95	0,4.55325e-06,1.03487e-05,1.77251e-05,2.71138e-05,3.90638e-05,5.42739e-05,7.36333e-05,9.8274e-05,0.000129637,0.000169556,0.000220364,0.000285034,0.000367346,0.000472113,0.000605461,0.000775187,0.000991214,0.00126618,0.00161615,0.00206159,0.00262856,0.00335019,0.0042687,0.00543777,0.00692577,0.00881971,0.0112303,0.0142985,0.0182038,0.0231744,0.0295011,inf	0.399432,0.399432,12.2314,261.906,426.426,228.289,209.602,348.473,480.156,441.595,358.492,340.394,359.533,364.834,363.661,376.997,392.244,399.617,407.217,416.308,420.132,417.036,406.302,389.676,379.031,379.001,384.536,563.007,563.007,0.399428,0.399428,0.399428
0.00112166	-4561468.51	0,4.55325e-06,1.03487e-05,1.77251e-05,2.71138e-05,3.90638e-05,5.42739e-05,7.36333e-05,9.8274e-05,0.000129637,0.000169556,0.000220364,0.000285034,0.000367346,0.000472113,0.000605461,0.000775187,0.000991214,0.00126618,0.00161615,0.00206159,0.00262856,0.00335019,0.0042687,0.00543777,0.00692577,0.00881971,0.0112303,0.0142985,0.0182038,0.0231744,0.0295011,inf	0.399432,0.399432,10.1134,264.614,435.567,221.37,202.884,348.285,486.666,443.822,356.921,339.547,360.229,365.62,364.313,378.027,393.234,400.067,407.304,416.313,420.138,417.055,406.015,388.459,376.916,376.323,381.305,568.858,568.858,0.399428,0.399428,0.399428
0.00114086	-4561400.60	0,4.55325e-06,1.03487e-05,1.77251e-05,2.71138e-05,3.90638e-05,5.42739e-05,7.36333e-05,9.8274e-05,0.000129637,0.000169556,0.000220364,0.000285034,0.000367346,0.000472113,0.000605461,0.000775187,0.000991214,0.00126618,0.00161615,0.00206159,0.00262856,0.00335019,0.0042687,0.00543777,0.00692577,0.00881971,0.0112303,0.0142985,0.0182038,0.0231744,0.0295011,inf	0.399432,0.399432,8.36828,267.098,444.229,214.667,196.616,348.288,493.073,445.818,355.32,338.747,360.925,366.377,364.943,379.018,394.159,400.452,407.336,416.277,420.132,417.107,405.808,387.363,374.942,373.773,378.165,574.332,574.332,0.399428,0.399428,0.399428
0.00115881	-4561342.34	0,4.55325e-06,1.03487e-05,1.77251e-05,2.71138e-05,3.90638e-05,5.42739e-05,7.36333e-05,9.8274e-05,0.000129637,0.000169556,0.000220364,0.000285034,0.000367346,0.000472113,0.000605461,0.000775187,0.000991214,0.00126618,0.00161615,0.00206159,0.00262856,0.00335019,0.0042687,0.00543777,0.00692577,0.00881971,0.0112303,0.0142985,0.0182038,0.0231744,0.0295011,inf	0.399432,0.399432,6.93048,269.36,452.433,208.172,190.75,348.461,499.377,447.6,353.695,337.989,361.619,367.105,365.553,379.971,395.026,400.78,407.321,416.206,420.117,417.188,405.673,386.376,373.097,371.341,375.114,579.469,579.469,0.399428,0.399428,0.399428
0.0011756	-4561292.19	0,4.55325e-06,1.03487e-05,1.77251e-05,2.71138e-05,3.90638e-05,5.42739e-05,7.36333e-05,9.8274e-05,0.000129637,0.000169556,0.000220364,0.000285034,0.000367346,0.000472113,0.000605461,0.000775187,0.000991214,0.00126618,0.00161615,0.00206159,0.00262856,0.00335019,0.0042687,0.00543777,0.00692577,0.00881971,0.0112303,0.0142985,0.0182038,0.0231744,0.0295011,inf	0.399432,0.399432,5.74343,271.391,460.191,201.888,185.244,348.78,505.58,449.184,352.054,337.27,362.311,367.806,366.141,380.889,395.839,401.057,407.265,416.104,420.094,417.295,405.602,385.487,371.371,369.022,372.152,584.302,584.302,0.399428,0.399428,0.399428
0.00119133	-4561248.89	0,4.55325e-06,1.03487e-05,1.77251e-05,2.71138e-05,3.90638e-05,5.42739e-05,7.36333e-05,9.8274e-05,0.000129637,0.000169556,0.000220364,0.000285034,0.000367346,0.000472113,0.000605461,0.000775187,0.000991214,0.00126618,0.00161615,0.00206159,0.00262856,0.00335019,0.0042687,0.00543777,0.00692577,0.00881971,0.0112303,0.0142985,0.0182038,0.0231744,0.0295011,inf	0.399432,0.399432,4.76388,273.212,467.538,195.815,180.071,349.221,511.675,450.581,350.398,336.586,362.997,368.479,366.708,381.772,396.603,401.29,407.173,415.975,420.062,417.424,405.587,384.688,369.755,366.808,369.276,588.858,588.858,0.399428,0.399428,0.399428
0.00120606	-4561211.42	0,4.55325e-06,1.03487e-05,1.77251e-05,2.71138e-05,3.90638e-05,5.42739e-05,7.36333e-05,9.8274e-05,0.000129637,0.000169556,0.000220364,0.000285034,0.000367346,0.000472113,0.000605461,0.000775187,0.000991214,0.00126618,0.00161615,0.00206159,0.00262856,0.00335019,0.0042687,0.00543777,0.00692577,0.00881971,0.0112303,0.0142985,0.0182038,0.0231744,0.0295011,inf	0.399432,0.399432,3.95244,274.848,474.517,189.951,175.19,349.772,517.666,451.807,348.732,335.934,363.678,369.126,367.254,382.624,397.324,401.484,407.05,415.822,420.022,417.573,405.622,383.969,368.24,364.693,366.483,593.159,593.159,0.399428,0.399428,0.399428
0.00121988	-4561178.89	0,4.55325e-06,1.03487e-05,1.77251e-05,2.71138e-05,3.90638e-05,5.42739e-05,7.36333e-05,9.8274e-05,0.000129637,0.000169556,0.000220364,0.000285034,0.000367346,0.000472113,0.000605461,0.000775187,0.000991214,0.00126618,0.00161615,0.00206159,0.00262856,0.00335019,0.0042687,0.00543777,0.00692577,0.00881971,0.0112303,0.0142985,0.0182038,0.0231744,0.0295011,inf	0.399432,0.399432,3.28244,276.296,481.133,184.293,170.577,350.409,523.546,452.868,347.059,335.311,364.352,369.746,367.779,383.447,398.005,401.644,406.901,415.649,419.976,417.737,405.703,383.325,366.82,362.671,363.771,597.227,597.227,0.399428,0.399428,0.399428
