0.000294266	-7868575.28	0,2.15904e-06,5.90529e-06,1.24056e-05,2.36845e-05,4.3255e-05,7.72127e-05,0.000136134,0.000238372,0.000415768,0.000723576,0.00125767,0.00218439,0.0037924,0.00658251,0.0114238,inf	202.656,202.656,623.301,658.248,713.318,714.808,737.229,724.71,732.05,765.496,788.947,774.287,812.017,815.085,815.085,815.085
0.000262418	-7867011.37	0,2.15904e-06,5.90529e-06,1.24056e-05,2.36845e-05,4.3255e-05,7.72127e-05,0.000136134,0.000238372,0.000415768,0.000723576,0.00125767,0.00218439,0.0037924,0.00658251,0.0114238,inf	67.2694,67.2694,623.817,651.004,720.594,711.895,745.373,711.693,711.172,764.963,810.894,776.779,865.303,854.606,854.606,854.606
0.000235658	-7865833.15	0,2.15904e-06,5.90529e-06,1.24056e-05,2.36845e-05,4.3255e-05,7.72127e-05,0.000136134,0.000238372,0.000415768,0.000723576,0.00125767,0.00218439,0.0037924,0.00658251,0.0114238,inf	23.0997,23.0997,648.454,668.618,738.923,720.987,764.297,709.943,694.729,760.937,830.471,770.91,922.317,874.033,874.033,874.033
0.000213906	-7864999.72	0,2.15904e-06,5.90529e-06,1.24056e-05,2.36845e-05,4.3255e-05,7.72127e-05,0.000136134,0.000238372,0.000415768,0.000723576,0.00125767,0.00218439,0.0037924,0.00658251,0.0114238,inf	8.55832,8.55832,672.3,693.728,756.987,732.964,786.141,714.826,681.865,754.845,850.479,759.585,986.111,874.129,874.129,874.129
0.000196665	-7864476.90	0,2.15904e-06,5.90529e-06,1.24056e-05,2.36845e-05,4.3255e-05,7.72127e-05,0.000136134,0.000238372,0.000415768,0.000723576,0.00125767,0.00218439,0.0037924,0.00658251,0.0114238,inf	3.70377,3.70377,690.791,720.743,771.82,744.645,806.975,723.482,671.865,747.028,871.558,744.1,1057.65,858.551,858.551,858.551
0.000183268	-7864221.33	0,2.15904e-06,5.90529e-06,1.24056e-05,2.36845e-05,4.3255e-05,7.72127e-05,0.000136134,0.000238372,0.000415768,0.000723576,0.00125767,0.00218439,0.0037924,0.00658251,0.0114238,inf	1.99843,1.99843,704.11,747.195,782.978,754.947,824.828,733.994,664.269,737.754,893.498,725.24,1136.17,832.853,832.853,832.853
0.000173012	-7864184.85	0,2.15904e-06,5.90529e-06,1.24056e-05,2.36845e-05,4.3255e-05,7.72127e-05,0.000136134,0.000238372,0.000415768,0.000723576,0.00125767,0.00218439,0.0037924,0.00658251,0.0114238,inf	1.0578,1.0578,712.991,771.682,790.838,763.65,838.904,745.016,658.741,727.393,915.814,703.768,1219.53,802.673,802.673,802.673
0.000165244	-7864317.67	0,2.15904e-06,5.90529e-06,1.24056e-05,2.36845e-05,4.3255e-05,7.72127e-05,0.000136134,0.000238372,0.000415768,0.000723576,0.00125767,0.00218439,0.0037924,0.00658251,0.0114238,inf	0.757401,0.757401,718.425,793.394,796.011,770.858,849.145,755.637,654.989,716.369,938.003,680.547,1304.81,772.4,772.4,772.4
0.000159399	-7864570.48	0,2.15904e-06,5.90529e-06,1.24056e-05,2.36845e-05,4.3255e-05,7.72127e-05,0.000136134,0.000238372,0.000415768,0.000723576,0.00125767,0.00218439,0.0037924,0.00658251,0.0114238,inf	0.757401,0.757401,721.134,812.063,799.122,776.826,855.957,765.285,652.73,705.076,959.637,656.497,1388.94,744.751,744.751,744.751
0.000155016	-7864897.93	0,2.15904e-06,5.90529e-06,1.24056e-05,2.36845e-05,4.3255e-05,7.72127e-05,0.000136134,0.000238372,0.000415768,0.000723576,0.00125767,0.00218439,0.0037924,0.00658251,0.0114238,inf	0.757401,0.757401,721.989,827.759,800.705,781.854,859.962,773.656,651.699,693.834,980.39,632.482,1469.24,720.984,720.984,720.984
0.000151732	-7865261.67	0,2.15904e-06,5.90529e-06,1.24056e-05,2.36845e-05,4.3255e-05,7.72127e-05,0.000136134,0.000238372,0.000415768,0.000723576,0.00125767,0.00218439,0.0037924,0.00658251,0.0114238,inf	0.757401,0.757401,721.435,840.683,801.179,786.225,861.834,780.66,651.666,682.877,1000.03,609.213,1543.75,701.358,701.358,701.358
0.000149269	-7865632.27	0,2.15904e-06,5.90529e-06,1.24056e-05,2.36845e-05,4.3255e-05,7.72127e-05,0.000136134,0.000238372,0.000415768,0.000723576,0.00125767,0.00218439,0.0037924,0.00658251,0.0114238,inf	0.757401,0.757401,720.329,851.137,800.868,790.102,862.191,786.322,652.414,672.368,1018.4,587.209,1611.31,685.561,685.561,685.561
0.000147419	-7865989.61	0,2.15904e-06,5.90529e-06,1.24056e-05,2.36845e-05,4.3255e-05,7.72127e-05,0.000136134,0.000238372,0.000415768,0.000723576,0.00125767,0.00218439,0.0037924,0.00658251,0.0114238,inf	0.757401,0.757401,719.017,859.566,800.004,793.611,861.549,790.747,653.765,662.408,1035.43,566.794,1671.5,673.034,673.034,673.034
0.000146029	-7866321.67	0,2.15904e-06,5.90529e-06,1.24056e-05,2.36845e-05,4.3255e-05,7.72127e-05,0.000136134,0.000238372,0.000415768,0.000723576,0.00125767,0.00218439,0.0037924,0.00658251,0.0114238,inf	0.757401,0.757401,718.133,866.791,799.241,797.315,860.797,794.437,655.718,653.024,1051.31,548.126,1724.5,663.221,663.221,663.221
0.000144975	-7866623.37	0,2.15904e-06,5.90529e-06,1.24056e-05,2.36845e-05,4.3255e-05,7.72127e-05,0.000136134,0.000238372,0.000415768,0.000723576,0.00125767,0.00218439,0.0037924,0.00658251,0.0114238,inf	0.757401,0.757401,716.696,871.97,797.708,800.27,859.269,796.87,657.862,644.233,1065.67,531.219,1770.68,655.457,655.457,655.457
0.000144177	-7866891.91	0,2.15904e-06,5.90529e-06,1.24056e-05,2.36845e-05,4.3255e-05,7.72127e-05,0.000136134,0.000238372,0.000415768,0.000723576,0.00125767,0.00218439,0.0037924,0.00658251,0.0114238,inf	0.757401,0.757401,715.375,876.04,795.972,802.932,857.551,798.436,660.207,636.104,1078.65,516.046,1810.71,649.308,649.308,649.308
0.00014357	-7867128.73	0,2.15904e-06,5.90529e-06,1.24056e-05,2.36845e-05,4.3255e-05,7.72127e-05,0.000136134,0.000238372,0.000415768,0.000723576,0.00125767,0.00218439,0.0037924,0.00658251,0.0114238,inf	0.757401,0.757401,714.099,879.242,794.186,805.381,855.865,799.327,662.686,628.633,1090.35,502.51,1845.32,644.407,644.407,644.407
0.000143108	-7867336.33	0,2.15904e-06,5.90529e-06,1.24056e-05,2.36845e-05,4.3255e-05,7.72127e-05,0.000136134,0.000238372,0.000415768,0.000723576,0.00125767,0.00218439,0.0037924,0.00658251,0.0114238,inf	0.757401,0.757401,713.129,881.777,792.404,807.617,854.308,799.677,665.233,621.793,1100.87,490.483,1875.24,640.467,640.467,640.467
0.000142755	-7867517.72	0,2.15904e-06,5.90529e-06,1.24056e-05,2.36845e-05,4.3255e-05,7.72127e-05,0.000136134,0.000238372,0.000415768,0.000723576,0.00125767,0.00218439,0.0037924,0.00658251,0.0114238,inf	0.757401,0.757401,712.282,883.769,790.657,809.647,852.949,799.601,667.791,615.551,1110.29,479.823,1901.1,637.271,637.271,637.271
0.000142485	-7867676.00	0,2.15904e-06,5.90529e-06,1.24056e-05,2.36845e-05,4.3255e-05,7.72127e-05,0.000136134,0.000238372,0.000415768,0.000723576,0.00125767,0.00218439,0.0037924,0.00658251,0.0114238,inf	0.757401,0.757401,711.559,885.321,788.963,811.465,851.787,799.186,670.315,609.869,1118.72,470.39,1923.49,634.649,634.649,634.649
