0.000324441	-186732.23	0,5.21067e-05,0.000123405,0.000220964,0.000354454,0.000537112,0.000787045,0.00112903,0.00159698,0.00223728,0.0031134,0.00431222,0.00595259,0.00819712,0.0112683,0.0154708,inf	533.681,533.681,614.908,675.829,715.744,733.686,755.671,761.246,733.631,718.86,716.034,774.048,910.337,1231.46,1231.46,1231.46
0.000297302	-186697.06	0,5.21067e-05,0.000123405,0.000220964,0.000354454,0.000537112,0.000787045,0.00112903,0.00159698,0.00223728,0.0031134,0.00431222,0.00595259,0.00819712,0.0112683,0.0154708,inf	482.176,482.176,579.438,659.18,715.18,739.254,781.44,797.942,744.29,719.968,713.097,832.221,1258.88,3492.96,3492.96,3492.96
0.00029728	-186674.04	0,5.21067e-05,0.000123405,0.000220964,0.000354454,0.000537112,0.000787045,0.00112903,0.00159698,0.00223728,0.0031134,0.00431222,0.00595259,0.00819712,0.0112683,0.0154708,inf	481.276,481.276,582.59,669.07,733.967,757.236,818.328,848.492,762.825,730.427,714.695,894.749,2143.95,98892.4,98892.4,98892.4
0.000297279	-186678.04	0,5.21067e-05,0.000123405,0.000220964,0.000354454,0.000537112,0.000787045,0.00112903,0.00159698,0.00223728,0.0031134,0.00431222,0.00595259,0.00819712,0.0112683,0.0154708,inf	480.709,480.709,582.338,669.676,733.967,756.713,818.71,848.492,762.825,730.427,707.533,899.983,2143.95,98892.4,98892.4,98892.4
0.000297278	-186678.14	0,5.21067e-05,0.000123405,0.000220964,0.000354454,0.000537112,0.000787045,0.00112903,0.00159698,0.00223728,0.0031134,0.00431222,0.00595259,0.00819712,0.0112683,0.0154708,inf	480.458,480.458,582.113,670.026,733.967,756.179,819.101,848.492,762.825,730.427,701.245,904.578,2143.95,98892.4,98892.4,98892.4
0.000297278	-186678.24	0,5.21067e-05,0.000123405,0.000220964,0.000354454,0.000537112,0.000787045,0.00112903,0.00159698,0.00223728,0.0031134,0.00431222,0.00595259,0.00819712,0.0112683,0.0154708,inf	480.368,480.368,581.925,670.23,733.967,755.646,819.49,848.492,762.825,730.427,695.713,908.621,2143.95,98892.4,98892.4,98892.4
0.000297278	-186678.33	0,5.21067e-05,0.000123405,0.000220964,0.000354454,0.000537112,0.000787045,0.00112903,0.00159698,0.00223728,0.0031134,0.00431222,0.00595259,0.00819712,0.0112683,0.0154708,inf	480.355,480.355,581.766,670.357,733.967,755.122,819.873,848.492,762.825,730.427,690.838,912.184,2143.95,98892.4,98892.4,98892.4
0.000297278	-186678.40	0,5.21067e-05,0.000123405,0.000220964,0.000354454,0.000537112,0.000787045,0.00112903,0.00159698,0.00223728,0.0031134,0.00431222,0.00595259,0.00819712,0.0112683,0.0154708,inf	480.355,480.355,581.636,670.452,733.967,754.611,820.246,848.492,762.825,730.427,686.534,915.329,2143.95,98892.4,98892.4,98892.4
0.000297278	-186678.47	0,5.21067e-05,0.000123405,0.000220964,0.000354454,0.000537112,0.000787045,0.00112903,0.00159698,0.00223728,0.0031134,0.00431222,0.00595259,0.00819712,0.0112683,0.0154708,inf	480.355,480.355,581.53,670.531,733.967,754.115,820.609,848.492,762.825,730.427,682.731,918.109,2143.95,98892.4,98892.4,98892.4
0.000297278	-186678.54	0,5.21067e-05,0.000123405,0.000220964,0.000354454,0.000537112,0.000787045,0.00112903,0.00159698,0.00223728,0.0031134,0.00431222,0.00595259,0.00819712,0.0112683,0.0154708,inf	480.355,480.355,581.445,670.594,733.967,753.634,820.96,848.492,762.825,730.427,679.365,920.569,2143.95,98892.4,98892.4,98892.4
0.000297278	-186678.59	0,5.21067e-05,0.000123405,0.000220964,0.000354454,0.000537112,0.000787045,0.00112903,0.00159698,0.00223728,0.0031134,0.00431222,0.00595259,0.00819712,0.0112683,0.0154708,inf	480.355,480.355,581.379,670.644,733.967,753.169,821.3,848.492,762.825,730.427,676.383,922.748,2143.95,98892.4,98892.4,98892.4
0.000297278	-186678.64	0,5.21067e-05,0.000123405,0.000220964,0.000354454,0.000537112,0.000787045,0.00112903,0.00159698,0.00223728,0.0031134,0.00431222,0.00595259,0.00819712,0.0112683,0.0154708,inf	480.355,480.355,581.329,670.682,733.967,752.721,821.628,848.492,762.825,730.427,673.739,924.681,2143.95,98892.4,98892.4,98892.4
0.000297278	-186678.69	0,5.21067e-05,0.000123405,0.000220964,0.000354454,0.000537112,0.000787045,0.00112903,0.00159698,0.00223728,0.0031134,0.00431222,0.00595259,0.00819712,0.0112683,0.0154708,inf	480.355,480.355,581.283,670.716,733.967,752.289,821.943,848.492,762.825,730.427,671.392,926.396,2143.95,98892.4,98892.4,98892.4
0.000297278	-186678.73	0,5.21067e-05,0.000123405,0.000220964,0.000354454,0.000537112,0.000787045,0.00112903,0.00159698,0.00223728,0.0031134,0.00431222,0.00595259,0.00819712,0.0112683,0.0154708,inf	480.355,480.355,581.254,670.719,733.983,751.874,822.246,848.492,762.825,730.427,669.307,927.919,2143.95,98892.4,98892.4,98892.4
0.000297278	-186678.77	0,5.21067e-05,0.000123405,0.000220964,0.000354454,0.000537112,0.000787045,0.00112903,0.00159698,0.00223728,0.0031134,0.00431222,0.00595259,0.00819712,0.0112683,0.0154708,inf	480.355,480.355,581.231,670.736,733.983,751.474,822.539,848.492,762.825,730.427,667.454,929.273,2143.95,98892.4,98892.4,98892.4
0.000297278	-186678.80	0,5.21067e-05,0.000123405,0.000220964,0.000354454,0.000537112,0.000787045,0.00112903,0.00159698,0.00223728,0.0031134,0.00431222,0.00595259,0.00819712,0.0112683,0.0154708,inf	480.355,480.355,581.223,670.741,733.985,751.091,822.819,848.492,762.825,730.427,665.807,930.477,2143.95,98892.4,98892.4,98892.4
0.000297278	-186678.83	0,5.21067e-05,0.000123405,0.000220964,0.000354454,0.000537112,0.000787045,0.00112903,0.00159698,0.00223728,0.0031134,0.00431222,0.00595259,0.00819712,0.0112683,0.0154708,inf	480.355,480.355,581.212,670.751,733.985,750.725,823.086,848.492,762.825,730.427,664.341,931.549,2143.95,98892.4,98892.4,98892.4
0.000297278	-186678.85	0,5.21067e-05,0.000123405,0.000220964,0.000354454,0.000537112,0.000787045,0.00112903,0.00159698,0.00223728,0.0031134,0.00431222,0.00595259,0.00819712,0.0112683,0.0154708,inf	480.355,480.355,581.212,670.752,733.985,750.374,823.343,848.492,762.825,730.427,663.035,932.503,2143.95,98892.4,98892.4,98892.4
0.000297278	-186678.88	0,5.21067e-05,0.000123405,0.000220964,0.000354454,0.000537112,0.000787045,0.00112903,0.00159698,0.00223728,0.0031134,0.00431222,0.00595259,0.00819712,0.0112683,0.0154708,inf	480.355,480.355,581.212,670.753,733.985,750.039,823.588,848.492,762.825,730.427,661.873,933.353,2143.95,98892.4,98892.4,98892.4
0.000297278	-186678.90	0,5.21067e-05,0.000123405,0.000220964,0.000354454,0.000537112,0.000787045,0.00112903,0.00159698,0.00223728,0.0031134,0.00431222,0.00595259,0.00819712,0.0112683,0.0154708,inf	480.355,480.355,581.212,670.753,733.985,749.718,823.823,848.492,762.825,730.427,660.837,934.11,2143.95,98892.4,98892.4,98892.4
