0.000688634	-45704168.44	0,4.51803e-06,1.02686e-05,1.7588e-05,2.69041e-05,3.87617e-05,5.38541e-05,7.30637e-05,9.75139e-05,0.000128634,0.000168244,0.00021866,0.00028283,0.000364505,0.000468461,0.000600778,0.000769191,0.000983548,0.00125638,0.00160365,0.00204565,0.00260823,0.00332428,0.00423568,0.00539571,0.0068722,0.00875149,0.0111435,0.014188,0.018063,0.0229952,0.0292729,inf	371.457,371.457,353.931,363.528,365.984,355.825,346.269,339.349,333.712,330.541,328.75,327.309,327.116,329.382,334.923,343.965,356.245,371.572,389.35,407.862,424.09,434.926,438.743,436.669,431.519,425.419,420.527,418.786,418.786,425.649,425.649,425.649
0.000753104	-45687945.81	0,4.51803e-06,1.02686e-05,1.7588e-05,2.69041e-05,3.87617e-05,5.38541e-05,7.30637e-05,9.75139e-05,0.000128634,0.000168244,0.00021866,0.00028283,0.000364505,0.000468461,0.000600778,0.000769191,0.000983548,0.00125638,0.00160365,0.00204565,0.00260823,0.00332428,0.00423568,0.00539571,0.0068722,0.00875149,0.0111435,0.014188,0.018063,0.0229952,0.0292729,inf	373.439,373.439,346.325,369.936,378.452,361.914,346.482,335.221,325.517,319.687,315.317,310.556,307.231,307.533,312.854,323.505,339.039,359.305,383.732,410.204,434.574,452.076,459.394,457.29,449.716,439.962,432.061,430.308,430.308,447.252,447.252,447.252
0.000813492	-45677488.87	0,4.51803e-06,1.02686e-05,1.7588e-05,2.69041e-05,3.87617e-05,5.38541e-05,7.30637e-05,9.75139e-05,0.000128634,0.000168244,0.00021866,0.00028283,0.000364505,0.000468461,0.000600778,0.000769191,0.000983548,0.00125638,0.00160365,0.00204565,0.00260823,0.00332428,0.00423568,0.00539571,0.0068722,0.00875149,0.0111435,0.014188,0.018063,0.0229952,0.0292729,inf	368.063,368.063,334.167,373.124,389.577,369.617,351.612,338.897,327.7,321.315,315.785,308.567,302.477,300.6,304.78,315.306,331.538,353.396,380.437,410.503,439.069,460.648,470.76,469.42,460.872,448.952,439.243,438.508,438.508,468.105,468.105,468.105
0.000870142	-45669566.74	0,4.51803e-06,1.02686e-05,1.7588e-05,2.69041e-05,3.87617e-05,5.38541e-05,7.30637e-05,9.75139e-05,0.000128634,0.000168244,0.00021866,0.00028283,0.000364505,0.000468461,0.000600778,0.000769191,0.000983548,0.00125638,0.00160365,0.00204565,0.00260823,0.00332428,0.00423568,0.00539571,0.0068722,0.00875149,0.0111435,0.014188,0.018063,0.0229952,0.0292729,inf	359.741,359.741,318.278,370.763,394.354,372.107,353.315,340.916,330.016,324.684,319.293,310.675,302.626,299.054,302.176,312.194,328.281,350.425,378.325,409.889,440.52,464.524,476.705,476.329,467.532,454.327,443.551,444.411,444.411,488.856,488.856,488.856
0.000923507	-45663153.99	0,4.51803e-06,1.02686e-05,1.7588e-05,2.69041e-05,3.87617e-05,5.38541e-05,7.30637e-05,9.75139e-05,0.000128634,0.000168244,0.00021866,0.00028283,0.000364505,0.000468461,0.000600778,0.000769191,0.000983548,0.00125638,0.00160365,0.00204565,0.00260823,0.00332428,0.00423568,0.00539571,0.0068722,0.00875149,0.0111435,0.014188,0.018063,0.0229952,0.0292729,inf	352.945,352.945,302.799,366.501,395.384,370.778,351.795,340.411,330.708,327.331,322.91,313.691,304.387,299.646,301.995,311.505,327.174,349.058,376.991,408.968,440.461,465.825,479.47,480.014,471.31,457.341,445.952,448.71,448.71,510.038,510.038,510.038
0.000973977	-45657787.39	0,4.51803e-06,1.02686e-05,1.7588e-05,2.69041e-05,3.87617e-05,5.38541e-05,7.30637e-05,9.75139e-05,0.000128634,0.000168244,0.00021866,0.00028283,0.000364505,0.000468461,0.000600778,0.000769191,0.000983548,0.00125638,0.00160365,0.00204565,0.00260823,0.00332428,0.00423568,0.00539571,0.0068722,0.00875149,0.0111435,0.014188,0.018063,0.0229952,0.0292729,inf	348.644,348.644,289.483,362.783,395.169,367.688,348.498,338.221,330.019,328.964,325.94,316.626,306.577,301.093,302.95,312.054,327.243,348.642,376.206,408.019,439.674,465.712,480.352,481.688,473.224,458.798,447.074,451.87,451.87,532.119,532.119,532.119
0.00102186	-45653208.56	0,4.51803e-06,1.02686e-05,1.7588e-05,2.69041e-05,3.87617e-05,5.38541e-05,7.30637e-05,9.75139e-05,0.000128634,0.000168244,0.00021866,0.00028283,0.000364505,0.000468461,0.000600778,0.000769191,0.000983548,0.00125638,0.00160365,0.00204565,0.00260823,0.00332428,0.00423568,0.00539571,0.0068722,0.00875149,0.0111435,0.014188,0.018063,0.0229952,0.0292729,inf	346.238,346.238,278.497,360.532,395.064,364.171,344.571,335.216,328.494,329.812,328.339,319.213,308.759,302.845,304.434,313.249,327.977,348.812,375.816,407.152,438.559,464.827,480.113,482.096,473.919,459.216,447.328,454.208,454.208,555.542,555.542,555.542
0.00106741	-45649251.89	0,4.51803e-06,1.02686e-05,1.7588e-05,2.69041e-05,3.87617e-05,5.38541e-05,7.30637e-05,9.75139e-05,0.000128634,0.000168244,0.00021866,0.00028283,0.000364505,0.000468461,0.000600778,0.000769191,0.000983548,0.00125638,0.00160365,0.00204565,0.00260823,0.00332428,0.00423568,0.00539571,0.0068722,0.00875149,0.0111435,0.014188,0.018063,0.0229952,0.0292729,inf	344.944,344.944,269.426,359.844,395.569,360.871,340.666,331.975,326.582,330.168,330.233,321.426,310.777,304.649,306.141,314.77,329.085,349.344,375.706,406.403,437.321,463.53,479.208,481.703,473.811,458.939,446.988,455.946,455.946,580.783,580.783,580.783
0.00111083	-45645801.27	0,4.51803e-06,1.02686e-05,1.7588e-05,2.69041e-05,3.87617e-05,5.38541e-05,7.30637e-05,9.75139e-05,0.000128634,0.000168244,0.00021866,0.00028283,0.000364505,0.000468461,0.000600778,0.000769191,0.000983548,0.00125638,0.00160365,0.00204565,0.00260823,0.00332428,0.00423568,0.00539571,0.0068722,0.00875149,0.0111435,0.014188,0.018063,0.0229952,0.0292729,inf	344.046,344.046,261.776,360.491,396.736,358.04,337.099,328.832,324.583,330.265,331.769,323.315,312.591,306.395,307.911,316.437,330.391,350.097,375.793,405.772,436.066,462.031,477.914,480.806,473.176,458.195,446.24,457.239,457.239,608.376,608.376,608.376
0.00115229	-45642770.34	0,4.51803e-06,1.02686e-05,1.7588e-05,2.69041e-05,3.87617e-05,5.38541e-05,7.30637e-05,9.75139e-05,0.000128634,0.000168244,0.00021866,0.00028283,0.000364505,0.000468461,0.000600778,0.000769191,0.000983548,0.00125638,0.00160365,0.00204565,0.00260823,0.00332428,0.00423568,0.00539571,0.0068722,0.00875149,0.0111435,0.014188,0.018063,0.0229952,0.0292729,inf	343.229,343.229,255.158,362.151,398.454,355.712,333.993,325.961,322.678,330.264,333.069,324.945,314.208,308.038,309.662,318.146,331.792,350.978,376.017,405.248,434.846,460.448,476.404,479.596,472.193,457.136,445.211,458.2,458.2,638.978,638.978,638.978
0.00119193	-45640092.37	0,4.51803e-06,1.02686e-05,1.7588e-05,2.69041e-05,3.87617e-05,5.38541e-05,7.30637e-05,9.75139e-05,0.000128634,0.000168244,0.00021866,0.00028283,0.000364505,0.000468461,0.000600778,0.000769191,0.000983548,0.00125638,0.00160365,0.00204565,0.00260823,0.00332428,0.00423568,0.00539571,0.0068722,0.00875149,0.0111435,0.014188,0.018063,0.0229952,0.0292729,inf	342.345,342.345,249.277,364.555,400.552,353.835,331.358,323.428,320.959,330.266,334.223,326.376,315.65,309.561,311.347,319.838,333.22,351.928,376.333,404.816,433.686,458.853,474.784,478.197,470.988,455.87,443.989,458.911,458.911,673.444,673.444,673.444
0.00122988	-45637714.41	0,4.51803e-06,1.02686e-05,1.7588e-05,2.69041e-05,3.87617e-05,5.38541e-05,7.30637e-05,9.75139e-05,0.000128634,0.000168244,0.00021866,0.00028283,0.000364505,0.000468461,0.000600778,0.000769191,0.000983548,0.00125638,0.00160365,0.00204565,0.00260823,0.00332428,0.00423568,0.00539571,0.0068722,0.00875149,0.0111435,0.014188,0.018063,0.0229952,0.0292729,inf	341.344,341.344,243.937,367.447,402.884,352.326,329.164,321.242,319.471,330.336,335.296,327.657,316.94,310.964,312.948,321.479,334.638,352.906,376.711,404.461,432.595,457.285,473.123,476.694,469.643,454.47,442.637,459.434,459.434,712.943,712.943,712.943
0.00126624	-45635593.66	0,4.51803e-06,1.02686e-05,1.7588e-05,2.69041e-05,3.87617e-05,5.38541e-05,7.30637e-05,9.75139e-05,0.000128634,0.000168244,0.00021866,0.00028283,0.000364505,0.000468461,0.000600778,0.000769191,0.000983548,0.00125638,0.00160365,0.00204565,0.00260823,0.00332428,0.00423568,0.00539571,0.0068722,0.00875149,0.0111435,0.014188,0.018063,0.0229952,0.0292729,inf	340.291,340.291,239.002,370.658,405.301,351.094,327.348,319.386,318.223,330.508,336.33,328.827,318.104,312.256,314.457,323.05,336.018,353.888,377.127,404.171,431.577,455.767,471.463,475.142,468.217,452.987,441.2,459.815,459.815,759.172,759.172,759.172
0.00130113	-45633694.99	0,4.51803e-06,1.02686e-05,1.7588e-05,2.69041e-05,3.87617e-05,5.38541e-05,7.30637e-05,9.75139e-05,0.000128634,0.000168244,0.00021866,0.00028283,0.000364505,0.000468461,0.000600778,0.000769191,0.000983548,0.00125638,0.00160365,0.00204565,0.00260823,0.00332428,0.00423568,0.00539571,0.0068722,0.00875149,0.0111435,0.014188,0.018063,0.0229952,0.0292729,inf	339.186,339.186,234.406,374.061,407.702,350.074,325.861,317.826,317.212,330.793,337.353,329.913,319.162,313.446,315.871,324.543,337.348,354.855,377.565,403.932,430.628,454.312,469.832,473.578,466.749,451.457,439.708,460.091,460.091,814.772,814.772,814.772
0.00133462	-45631989.27	0,4.51803e-06,1.02686e-05,1.7588e-05,2.69041e-05,3.87617e-05,5.38541e-05,7.30637e-05,9.75139e-05,0.000128634,0.000168244,0.00021866,0.00028283,0.000364505,0.000468461,0.000600778,0.000769191,0.000983548,0.00125638,0.00160365,0.00204565,0.00260823,0.00332428,0.00423568,0.00539571,0.0068722,0.00875149,0.0111435,0.014188,0.018063,0.0229952,0.0292729,inf	338.091,338.091,230.073,377.572,410.028,349.199,324.644,316.529,316.421,331.197,338.382,330.936,320.132,314.543,317.194,325.953,338.62,355.796,378.013,403.737,429.745,452.923,468.245,472.026,465.268,449.906,438.186,460.289,460.289,884.194,884.194,884.194
0.00136679	-45630452.14	0,4.51803e-06,1.02686e-05,1.7588e-05,2.69041e-05,3.87617e-05,5.38541e-05,7.30637e-05,9.75139e-05,0.000128634,0.000168244,0.00021866,0.00028283,0.000364505,0.000468461,0.000600778,0.000769191,0.000983548,0.00125638,0.00160365,0.00204565,0.00260823,0.00332428,0.00423568,0.00539571,0.0068722,0.00875149,0.0111435,0.014188,0.018063,0.0229952,0.0292729,inf	337.06,337.06,226.017,381.143,412.2,348.426,323.65,315.461,315.83,331.715,339.426,331.911,321.028,315.556,318.432,327.283,339.829,356.706,378.464,403.576,428.923,451.604,466.713,470.503,463.791,448.352,436.648,460.432,460.432,975.86,975.86,975.86
0.00139772	-45629063.11	0,4.51803e-06,1.02686e-05,1.7588e-05,2.69041e-05,3.87617e-05,5.38541e-05,7.30637e-05,9.75139e-05,0.000128634,0.000168244,0.00021866,0.00028283,0.000364505,0.000468461,0.000600778,0.000769191,0.000983548,0.00125638,0.00160365,0.00204565,0.00260823,0.00332428,0.00423568,0.00539571,0.0068722,0.00875149,0.0111435,0.014188,0.018063,0.0229952,0.0292729,inf	336.095,336.095,222.176,384.724,414.212,347.71,322.839,314.587,315.417,332.338,340.49,332.851,321.862,316.497,319.588,328.533,340.976,357.58,378.911,403.444,428.158,450.352,465.241,469.018,462.333,446.806,435.107,460.539,460.539,1108.83,1108.83,1108.83
0.00142747	-45627804.85	0,4.51803e-06,1.02686e-05,1.7588e-05,2.69041e-05,3.87617e-05,5.38541e-05,7.30637e-05,9.75139e-05,0.000128634,0.000168244,0.00021866,0.00028283,0.000364505,0.000468461,0.000600778,0.000769191,0.000983548,0.00125638,0.00160365,0.00204565,0.00260823,0.00332428,0.00423568,0.00539571,0.0068722,0.00875149,0.0111435,0.014188,0.018063,0.0229952,0.0292729,inf	335.211,335.211,218.58,388.309,416.038,347.032,322.177,313.877,315.16,333.058,341.572,333.758,322.64,317.371,320.67,329.709,342.061,358.417,379.349,403.336,427.444,449.167,463.829,467.579,460.902,445.276,433.568,460.628,460.628,1342.22,1342.22,1342.22
0.00145611	-45626662.95	0,4.51803e-06,1.02686e-05,1.7588e-05,2.69041e-05,3.87617e-05,5.38541e-05,7.30637e-05,9.75139e-05,0.000128634,0.000168244,0.00021866,0.00028283,0.000364505,0.000468461,0.000600778,0.000769191,0.000983548,0.00125638,0.00160365,0.00204565,0.00260823,0.00332428,0.00423568,0.00539571,0.0068722,0.00875149,0.0111435,0.014188,0.018063,0.0229952,0.0292729,inf	334.401,334.401,215.191,391.883,417.672,346.38,321.64,313.309,315.04,333.862,342.673,334.641,323.373,318.186,321.682,330.812,343.086,359.215,379.777,403.247,426.777,448.045,462.48,466.187,459.5,443.766,432.037,460.718,460.718,2039.83,2039.83,2039.83
0.00148369	-45625626.78	0,4.51803e-06,1.02686e-05,1.7588e-05,2.69041e-05,3.87617e-05,5.38541e-05,7.30637e-05,9.75139e-05,0.000128634,0.000168244,0.00021866,0.00028283,0.000364505,0.000468461,0.000600778,0.000769191,0.000983548,0.00125638,0.00160365,0.00204565,0.00260823,0.00332428,0.00423568,0.00539571,0.0068722,0.00875149,0.0111435,0.014188,0.018063,0.0229952,0.0292729,inf	333.707,333.707,212.007,395.446,419.129,345.73,321.202,312.858,315.037,334.74,343.79,335.503,324.065,318.949,322.631,331.849,344.053,359.975,380.192,403.173,426.153,446.981,461.189,464.842,458.128,442.272,430.505,460.847,460.847,10854.6,10854.6,10854.6
