0.000692601	-3071332.69	0,4.25141e-05,9.2245e-05,0.000150418,0.000218465,0.000298064,0.000391174,0.00050009,0.000627494,0.000776526,0.000950855,0.00115478,0.00139331,0.00167234,0.00199874,0.00238054,0.00282715,0.00334957,0.00396067,0.00467551,0.00551169,0.00648982,0.00763398,0.00897236,0.0105379,0.0123693,0.0145114,0.0170173,0.0199485,0.0233772,0.027388,0.0320797,inf	320.828,320.828,331.305,322.179,322.393,323.452,328.417,337.059,347.206,357.945,369.619,382.657,396.727,410.523,422.298,430.852,435.946,437.859,437.137,434.489,430.685,426.363,421.869,417.37,412.896,408.728,405.236,402.09,402.09,410.11,410.11,410.11
0.000756047	-3070234.75	0,4.25141e-05,9.2245e-05,0.000150418,0.000218465,0.000298064,0.000391174,0.00050009,0.000627494,0.000776526,0.000950855,0.00115478,0.00139331,0.00167234,0.00199874,0.00238054,0.00282715,0.00334957,0.00396067,0.00467551,0.00551169,0.00648982,0.00763398,0.00897236,0.0105379,0.0123693,0.0145114,0.0170173,0.0199485,0.0233772,0.027388,0.0320797,inf	311.169,311.169,326.885,306.856,303.397,300.755,305.048,315.589,328.356,341.834,356.874,374.526,394.557,415.043,433.195,446.992,455.876,460.013,459.944,456.541,450.924,444.107,436.675,428.968,421.114,413.754,407.606,402.194,402.194,419.231,419.231,419.231
0.000815652	-3069530.17	0,4.25141e-05,9.2245e-05,0.000150418,0.000218465,0.000298064,0.000391174,0.00050009,0.000627494,0.000776526,0.000950855,0.00115478,0.00139331,0.00167234,0.00199874,0.00238054,0.00282715,0.00334957,0.00396067,0.00467551,0.00551169,0.00648982,0.00763398,0.00897236,0.0105379,0.0123693,0.0145114,0.0170173,0.0199485,0.0233772,0.027388,0.0320797,inf	311.582,311.582,334.602,306.315,299.89,293.482,296.461,307.491,320.85,334.632,350.287,369.503,392.225,416.156,437.853,454.817,466.323,472.407,473.436,470.186,463.868,455.665,446.304,436.267,425.81,415.956,407.718,400.603,400.603,426.938,426.938,426.938
0.00087174	-3068997.02	0,4.25141e-05,9.2245e-05,0.000150418,0.000218465,0.000298064,0.000391174,0.00050009,0.000627494,0.000776526,0.000950855,0.00115478,0.00139331,0.00167234,0.00199874,0.00238054,0.00282715,0.00334957,0.00396067,0.00467551,0.00551169,0.00648982,0.00763398,0.00897236,0.0105379,0.0123693,0.0145114,0.0170173,0.0199485,0.0233772,0.027388,0.0320797,inf	311.255,311.255,342.862,309.217,301.065,291.633,293.638,304.953,318.282,331.488,346.685,366.175,390.063,415.779,439.428,458.247,471.483,479.098,481.26,478.551,472.122,463.189,452.543,440.768,428.255,416.396,406.445,397.971,397.971,433.483,433.483,433.483
0.000924724	-3068564.69	0,4.25141e-05,9.2245e-05,0.000150418,0.000218465,0.000298064,0.000391174,0.00050009,0.000627494,0.000776526,0.000950855,0.00115478,0.00139331,0.00167234,0.00199874,0.00238054,0.00282715,0.00334957,0.00396067,0.00467551,0.00551169,0.00648982,0.00763398,0.00897236,0.0105379,0.0123693,0.0145114,0.0170173,0.0199485,0.0233772,0.027388,0.0320797,inf	309.185,309.185,349.122,312.38,303.503,291.818,293.335,305.034,318.155,330.456,344.757,363.938,388.233,414.828,439.498,459.341,473.666,482.425,485.609,483.574,477.337,468.062,456.546,443.44,429.262,415.744,404.331,394.708,394.708,439.073,439.073,439.073
0.000974959	-3068201.91	0,4.25141e-05,9.2245e-05,0.000150418,0.000218465,0.000298064,0.000391174,0.00050009,0.000627494,0.000776526,0.000950855,0.00115478,0.00139331,0.00167234,0.00199874,0.00238054,0.00282715,0.00334957,0.00396067,0.00467551,0.00551169,0.00648982,0.00763398,0.00897236,0.0105379,0.0123693,0.0145114,0.0170173,0.0199485,0.0233772,0.027388,0.0320797,inf	306.251,306.251,353.282,314.987,306.054,292.737,294.194,306.429,319.311,330.598,343.837,362.449,386.754,413.718,438.848,459.185,474.154,483.742,487.795,486.452,480.555,471.168,459.056,444.906,429.347,414.419,401.715,391.068,391.068,443.869,443.869,443.869
0.00102273	-3067891.48	0,4.25141e-05,9.2245e-05,0.000150418,0.000218465,0.000298064,0.000391174,0.00050009,0.000627494,0.000776526,0.000950855,0.00115478,0.00139331,0.00167234,0.00199874,0.00238054,0.00282715,0.00334957,0.00396067,0.00467551,0.00551169,0.00648982,0.00763398,0.00897236,0.0105379,0.0123693,0.0145114,0.0170173,0.0199485,0.0233772,0.027388,0.0320797,inf	303.285,303.285,355.808,316.955,308.348,293.86,295.588,308.49,321.152,331.406,343.541,361.477,385.59,412.627,437.875,458.364,473.67,483.843,488.619,487.932,482.442,473.082,460.559,445.569,428.843,412.685,398.809,387.219,387.219,448.001,448.001,448.001
0.00106827	-3067622.50	0,4.25141e-05,9.2245e-05,0.000150418,0.000218465,0.000298064,0.000391174,0.00050009,0.000627494,0.000776526,0.000950855,0.00115478,0.00139331,0.00167234,0.00199874,0.00238054,0.00282715,0.00334957,0.00396067,0.00467551,0.00551169,0.00648982,0.00763398,0.00897236,0.0105379,0.0123693,0.0145114,0.0170173,0.0199485,0.0233772,0.027388,0.0320797,inf	300.762,300.762,357.191,318.401,310.301,294.969,297.209,310.875,323.344,332.586,343.634,360.867,384.686,411.624,436.778,457.2,472.631,483.205,488.576,488.493,483.43,474.179,461.373,445.696,427.963,410.713,395.751,383.264,383.264,451.58,451.58,451.58
0.00111176	-3067387.30	0,4.25141e-05,9.2245e-05,0.000150418,0.000218465,0.000298064,0.000391174,0.00050009,0.000627494,0.000776526,0.000950855,0.00115478,0.00139331,0.00167234,0.00199874,0.00238054,0.00282715,0.00334957,0.00396067,0.00467551,0.00551169,0.00648982,0.00763398,0.00897236,0.0105379,0.0123693,0.0145114,0.0170173,0.0199485,0.0233772,0.027388,0.0320797,inf	298.864,298.864,357.814,319.474,311.933,295.983,298.902,313.395,325.696,333.963,343.966,360.509,383.989,410.729,435.659,455.872,471.283,482.12,487.979,488.443,483.807,474.714,461.714,445.464,426.851,408.612,392.627,379.273,379.273,454.703,454.703,454.703
0.00115336	-3067180.21	0,4.25141e-05,9.2245e-05,0.000150418,0.000218465,0.000298064,0.000391174,0.00050009,0.000627494,0.000776526,0.000950855,0.00115478,0.00139331,0.00167234,0.00199874,0.00238054,0.00282715,0.00334957,0.00396067,0.00467551,0.00551169,0.00648982,0.00763398,0.00897236,0.0105379,0.0123693,0.0145114,0.0170173,0.0199485,0.0233772,0.027388,0.0320797,inf	297.6,297.6,357.952,320.308,313.294,296.875,300.588,315.943,328.094,335.427,344.442,360.327,383.454,409.941,434.568,454.481,469.772,480.772,487.031,487.988,483.765,474.857,461.728,444.995,425.599,406.453,389.493,375.29,375.29,457.435,457.435,457.435
0.0011932	-3066996.80	0,4.25141e-05,9.2245e-05,0.000150418,0.000218465,0.000298064,0.000391174,0.00050009,0.000627494,0.000776526,0.000950855,0.00115478,0.00139331,0.00167234,0.00199874,0.00238054,0.00282715,0.00334957,0.00396067,0.00467551,0.00551169,0.00648982,0.00763398,0.00897236,0.0105379,0.0123693,0.0145114,0.0170173,0.0199485,0.0233772,0.027388,0.0320797,inf	296.906,296.906,357.79,321.004,314.44,297.651,302.228,318.459,330.471,336.913,344.996,360.265,383.045,409.251,433.528,453.086,468.189,479.275,485.864,487.263,483.435,474.729,461.518,444.37,424.273,404.284,386.386,371.348,371.348,459.839,459.839,459.839
0.00123141	-3066833.58	0,4.25141e-05,9.2245e-05,0.000150418,0.000218465,0.000298064,0.000391174,0.00050009,0.000627494,0.000776526,0.000950855,0.00115478,0.00139331,0.00167234,0.00199874,0.00238054,0.00282715,0.00334957,0.00396067,0.00467551,0.00551169,0.00648982,0.00763398,0.00897236,0.0105379,0.0123693,0.0145114,0.0170173,0.0199485,0.0233772,0.027388,0.0320797,inf	296.684,296.684,357.455,321.636,315.417,298.322,303.806,320.911,332.789,338.379,345.59,360.285,382.733,408.648,432.55,451.717,466.587,477.704,484.565,486.364,482.909,474.413,461.155,443.648,422.913,402.134,383.328,367.466,367.466,461.965,461.965,461.965
0.00126809	-3066687.71	0,4.25141e-05,9.2245e-05,0.000150418,0.000218465,0.000298064,0.000391174,0.00050009,0.000627494,0.000776526,0.000950855,0.00115478,0.00139331,0.00167234,0.00199874,0.00238054,0.00282715,0.00334957,0.00396067,0.00467551,0.00551169,0.00648982,0.00763398,0.00897236,0.0105379,0.0123693,0.0145114,0.0170173,0.0199485,0.0233772,0.027388,0.0320797,inf	296.829,296.829,357.032,322.255,316.267,298.902,305.315,323.28,335.024,339.8,346.193,360.361,382.497,408.119,431.634,450.394,465.001,476.106,483.194,485.354,482.252,473.967,460.689,442.868,421.551,400.023,380.333,363.655,363.655,463.858,463.858,463.858
0.00130333	-3066556.85	0,4.25141e-05,9.2245e-05,0.000150418,0.000218465,0.000298064,0.000391174,0.00050009,0.000627494,0.000776526,0.000950855,0.00115478,0.00139331,0.00167234,0.00199874,0.00238054,0.00282715,0.00334957,0.00396067,0.00467551,0.00551169,0.00648982,0.00763398,0.00897236,0.0105379,0.0123693,0.0145114,0.0170173,0.0199485,0.0233772,0.027388,0.0320797,inf	297.247,297.247,356.576,322.898,317.019,299.407,306.755,325.56,337.166,341.161,346.79,360.472,382.319,407.654,430.78,449.124,463.45,474.512,481.789,484.277,481.508,473.435,460.157,442.06,420.203,397.964,377.41,359.923,359.923,465.551,465.551,465.551
0.00133721	-3066439.06	0,4.25141e-05,9.2245e-05,0.000150418,0.000218465,0.000298064,0.000391174,0.00050009,0.000627494,0.000776526,0.000950855,0.00115478,0.00139331,0.00167234,0.00199874,0.00238054,0.00282715,0.00334957,0.00396067,0.00467551,0.00551169,0.00648982,0.00763398,0.00897236,0.0105379,0.0123693,0.0145114,0.0170173,0.0199485,0.0233772,0.027388,0.0320797,inf	297.866,297.866,356.125,323.586,317.697,299.85,308.13,327.746,339.209,342.454,347.367,360.605,382.186,407.244,429.985,447.911,461.946,472.943,480.379,483.166,480.71,472.847,459.584,441.241,418.884,395.962,374.563,356.275,356.275,467.076,467.076,467.076
0.00136981	-3066332.69	0,4.25141e-05,9.2245e-05,0.000150418,0.000218465,0.000298064,0.000391174,0.00050009,0.000627494,0.000776526,0.000950855,0.00115478,0.00139331,0.00167234,0.00199874,0.00238054,0.00282715,0.00334957,0.00396067,0.00467551,0.00551169,0.00648982,0.00763398,0.00897236,0.0105379,0.0123693,0.0145114,0.0170173,0.0199485,0.0233772,0.027388,0.0320797,inf	298.618,298.618,355.701,324.331,318.317,300.24,309.441,329.842,341.152,343.677,347.92,360.751,382.089,406.881,429.244,446.756,460.495,471.41,478.98,482.041,479.883,472.225,458.991,440.427,417.603,394.023,371.794,352.711,352.711,468.456,468.456,468.456
0.0014012	-3066236.38	0,4.25141e-05,9.2245e-05,0.000150418,0.000218465,0.000298064,0.000391174,0.00050009,0.000627494,0.000776526,0.000950855,0.00115478,0.00139331,0.00167234,0.00199874,0.00238054,0.00282715,0.00334957,0.00396067,0.00467551,0.00551169,0.00648982,0.00763398,0.00897236,0.0105379,0.0123693,0.0145114,0.0170173,0.0199485,0.0233772,0.027388,0.0320797,inf	299.455,299.455,355.318,325.14,318.894,300.587,310.694,331.847,342.997,344.829,348.442,360.902,382.019,406.558,428.553,445.658,459.099,469.92,477.605,480.918,479.041,471.585,458.389,439.628,416.363,392.148,369.105,349.234,349.234,469.712,469.712,469.712
0.00143145	-3066148.94	0,4.25141e-05,9.2245e-05,0.000150418,0.000218465,0.000298064,0.000391174,0.00050009,0.000627494,0.000776526,0.000950855,0.00115478,0.00139331,0.00167234,0.00199874,0.00238054,0.00282715,0.00334957,0.00396067,0.00467551,0.00551169,0.00648982,0.00763398,0.00897236,0.0105379,0.0123693,0.0145114,0.0170173,0.0199485,0.0233772,0.027388,0.0320797,inf	300.343,300.343,354.988,326.013,319.436,300.898,311.893,333.768,344.748,345.91,348.933,361.054,381.97,406.27,427.907,444.615,457.76,468.479,476.261,479.808,478.197,470.939,457.79,438.85,415.169,390.337,366.493,345.842,345.842,470.867,470.867,470.867
0.0014606	-3066069.37	0,4.25141e-05,9.2245e-05,0.000150418,0.000218465,0.000298064,0.000391174,0.00050009,0.000627494,0.000776526,0.000950855,0.00115478,0.00139331,0.00167234,0.00199874,0.00238054,0.00282715,0.00334957,0.00396067,0.00467551,0.00551169,0.00648982,0.00763398,0.00897236,0.0105379,0.0123693,0.0145114,0.0170173,0.0199485,0.0233772,0.027388,0.0320797,inf	301.252,301.252,354.71,326.949,319.949,301.178,313.042,335.607,346.408,346.924,349.391,361.204,381.938,406.012,427.304,443.624,456.477,467.087,474.954,478.718,477.36,470.296,457.199,438.097,414.021,388.59,363.956,342.534,342.534,471.926,471.926,471.926
0.00148873	-3065996.79	0,4.25141e-05,9.2245e-05,0.000150418,0.000218465,0.000298064,0.000391174,0.00050009,0.000627494,0.000776526,0.000950855,0.00115478,0.00139331,0.00167234,0.00199874,0.00238054,0.00282715,0.00334957,0.00396067,0.00467551,0.00551169,0.00648982,0.00763398,0.00897236,0.0105379,0.0123693,0.0145114,0.0170173,0.0199485,0.0233772,0.027388,0.0320797,inf	302.163,302.163,354.491,327.945,320.436,301.43,314.146,337.369,347.982,347.873,349.817,361.348,381.92,405.78,426.739,442.682,455.248,465.747,473.685,477.652,476.536,469.661,456.622,437.373,412.92,386.906,361.493,339.307,339.307,472.91,472.91,472.91
