0.000268106	-166508.30	0,4.59215e-05,0.000108757,0.000194735,0.00031238,0.000473356,0.000693621,0.000995014,0.00140741,0.00197171,0.00274384,0.00380035,0.005246,0.00722411,0.00993077,0.0136343,inf	799.571,799.571,739.048,803.238,819.089,825.969,825.44,834.098,804.592,743.534,691.763,686.18,798.409,531.298,531.298,531.298
0.000232169	-166448.37	0,4.59215e-05,0.000108757,0.000194735,0.00031238,0.000473356,0.000693621,0.000995014,0.00140741,0.00197171,0.00274384,0.00380035,0.005246,0.00722411,0.00993077,0.0136343,inf	844.505,844.505,694.014,800.703,822.339,836.964,839.088,871.056,820.556,705.564,618.383,611.965,838.915,427.339,427.339,427.339
0.000202148	-166403.84	0,4.59215e-05,0.000108757,0.000194735,0.00031238,0.000473356,0.000693621,0.000995014,0.00140741,0.00197171,0.00274384,0.00380035,0.005246,0.00722411,0.00993077,0.0136343,inf	907.216,907.216,661.954,798.171,817.425,838.724,840.652,905.409,842.464,678.431,565.85,557.627,914.307,371.635,371.635,371.635
0.000177184	-166368.84	0,4.59215e-05,0.000108757,0.000194735,0.00031238,0.000473356,0.000693621,0.000995014,0.00140741,0.00197171,0.00274384,0.00380035,0.005246,0.00722411,0.00993077,0.0136343,inf	975.729,975.729,640.494,797.791,809.194,836.701,832.035,933.1,865.923,656.296,525.705,512.904,1018.79,332.307,332.307,332.307
0.000156694	-166342.08	0,4.59215e-05,0.000108757,0.000194735,0.00031238,0.000473356,0.000693621,0.000995014,0.00140741,0.00197171,0.00274384,0.00380035,0.005246,0.00722411,0.00993077,0.0136343,inf	1040.85,1040.85,626.038,798.44,799.313,834.632,816.334,952.476,888.841,635.964,493.622,473.317,1147.32,298.263,298.263,298.263
0.00014017	-166322.98	0,4.59215e-05,0.000108757,0.000194735,0.00031238,0.000473356,0.000693621,0.000995014,0.00140741,0.00197171,0.00274384,0.00380035,0.005246,0.00722411,0.00993077,0.0136343,inf	1099.97,1099.97,616.997,799.539,788.839,834.998,796.903,963.856,910.948,616.223,467.556,437.337,1291.95,266.688,266.688,266.688
0.000127086	-166310.52	0,4.59215e-05,0.000108757,0.000194735,0.00031238,0.000473356,0.000693621,0.000995014,0.00140741,0.00197171,0.00274384,0.00380035,0.005246,0.00722411,0.00993077,0.0136343,inf	1151.39,1151.39,611.864,800.402,778.115,838.653,776.303,968.395,932.606,596.93,446.465,404.706,1436.88,238.268,238.268,238.268
0.000116912	-166303.31	0,4.59215e-05,0.000108757,0.000194735,0.00031238,0.000473356,0.000693621,0.000995014,0.00140741,0.00197171,0.00274384,0.00380035,0.005246,0.00722411,0.00993077,0.0136343,inf	1194.4,1194.4,609.441,800.681,767.384,845.442,756.264,967.575,954.174,578.478,429.777,375.716,1557.44,214.944,214.944,214.944
0.000109126	-166299.73	0,4.59215e-05,0.000108757,0.000194735,0.00031238,0.000473356,0.000693621,0.000995014,0.00140741,0.00197171,0.00274384,0.00380035,0.005246,0.00722411,0.00993077,0.0136343,inf	1229.1,1229.1,608.831,800.405,756.934,854.675,737.825,962.893,975.697,561.397,417.109,350.819,1632.35,198.111,198.111,198.111
0.000103249	-166298.28	0,4.59215e-05,0.000108757,0.000194735,0.00031238,0.000473356,0.000693621,0.000995014,0.00140741,0.00197171,0.00274384,0.00380035,0.005246,0.00722411,0.00993077,0.0136343,inf	1256.18,1256.18,609.362,799.751,747.046,865.459,721.507,955.672,996.874,546.068,408.062,330.271,1662.18,187.327,187.327,187.327
9.88611e-05	-166297.92	0,4.59215e-05,0.000108757,0.000194735,0.00031238,0.000473356,0.000693621,0.000995014,0.00140741,0.00197171,0.00274384,0.00380035,0.005246,0.00722411,0.00993077,0.0136343,inf	1276.67,1276.67,610.581,798.955,737.92,876.919,707.482,946.989,1017.18,532.625,402.064,313.871,1665.59,180.77,180.77,180.77
9.56125e-05	-166298.09	0,4.59215e-05,0.000108757,0.000194735,0.00031238,0.000473356,0.000693621,0.000995014,0.00140741,0.00197171,0.00274384,0.00380035,0.005246,0.00722411,0.00993077,0.0136343,inf	1291.79,1291.79,612.159,798.195,729.665,888.327,695.71,937.676,1036.05,521.012,398.394,301.013,1659.41,176.681,176.681,176.681
9.32226e-05	-166298.52	0,4.59215e-05,0.000108757,0.000194735,0.00031238,0.000473356,0.000693621,0.000995014,0.00140741,0.00197171,0.00274384,0.00380035,0.005246,0.00722411,0.00993077,0.0136343,inf	1302.68,1302.68,613.857,797.574,722.319,899.153,686.027,928.346,1053.1,511.093,396.355,290.969,1651.62,173.978,173.978,173.978
9.14733e-05	-166299.03	0,4.59215e-05,0.000108757,0.000194735,0.00031238,0.000473356,0.000693621,0.000995014,0.00140741,0.00197171,0.00274384,0.00380035,0.005246,0.00722411,0.00993077,0.0136343,inf	1310.4,1310.4,615.545,797.151,715.865,909.059,678.209,919.427,1068.15,502.713,395.397,283.093,1644.74,172.1,172.1,172.1
9.02015e-05	-166299.54	0,4.59215e-05,0.000108757,0.000194735,0.00031238,0.000473356,0.000693621,0.000995014,0.00140741,0.00197171,0.00274384,0.00380035,0.005246,0.00722411,0.00993077,0.0136343,inf	1316.79,1316.79,617.538,797.335,710.548,918.142,672.038,911.114,1081.42,495.768,395.196,276.877,1639.31,170.796,170.796,170.796
8.92747e-05	-166299.98	0,4.59215e-05,0.000108757,0.000194735,0.00031238,0.000473356,0.000693621,0.000995014,0.00140741,0.00197171,0.00274384,0.00380035,0.005246,0.00722411,0.00993077,0.0136343,inf	1320.23,1320.23,618.923,797.276,705.693,925.811,667.177,903.571,1092.61,489.951,395.341,271.934,1635.04,169.826,169.826,169.826
8.86019e-05	-166300.37	0,4.59215e-05,0.000108757,0.000194735,0.00031238,0.000473356,0.000693621,0.000995014,0.00140741,0.00197171,0.00274384,0.00380035,0.005246,0.00722411,0.00993077,0.0136343,inf	1322.49,1322.49,620.078,797.321,701.496,932.308,663.467,896.897,1102.03,485.161,395.7,267.994,1631.72,169.119,169.119,169.119
8.81146e-05	-166300.69	0,4.59215e-05,0.000108757,0.000194735,0.00031238,0.000473356,0.000693621,0.000995014,0.00140741,0.00197171,0.00274384,0.00380035,0.005246,0.00722411,0.00993077,0.0136343,inf	1323.99,1323.99,621.047,797.49,697.926,937.745,660.701,891.065,1109.91,481.254,396.17,264.843,1629.15,168.609,168.609,168.609
8.7762e-05	-166300.95	0,4.59215e-05,0.000108757,0.000194735,0.00031238,0.000473356,0.000693621,0.000995014,0.00140741,0.00197171,0.00274384,0.00380035,0.005246,0.00722411,0.00993077,0.0136343,inf	1324.96,1324.96,621.853,797.763,694.915,942.239,658.689,886.006,1116.46,478.084,396.678,262.315,1627.16,168.245,168.245,168.245
8.75073e-05	-166301.16	0,4.59215e-05,0.000108757,0.000194735,0.00031238,0.000473356,0.000693621,0.000995014,0.00140741,0.00197171,0.00274384,0.00380035,0.005246,0.00722411,0.00993077,0.0136343,inf	1325.57,1325.57,622.494,798.094,692.393,945.907,657.275,881.638,1121.9,475.523,397.181,260.283,1625.62,167.987,167.987,167.987
