time_index	left_time_boundary	right_time_boundary	lambda
0	0	4.92446e-06	412.246
1	4.92446e-06	1.1294e-05	412.246
2	1.1294e-05	1.95325e-05	412.246
3	1.95325e-05	3.01886e-05	412.246
4	3.01886e-05	4.39715e-05	412.246
5	4.39715e-05	6.17989e-05	412.246
6	6.17989e-05	8.48576e-05	412.246
7	8.48576e-05	0.000114683	412.246
8	0.000114683	0.000153259	412.246
9	0.000153259	0.000203156	412.246
10	0.000203156	0.000267694	412.246
11	0.000267694	0.000351171	412.246
12	0.000351171	0.000459142	412.246
13	0.000459142	0.000598797	412.246
14	0.000598797	0.000779431	412.246
15	0.000779431	0.00101307	412.246
16	0.00101307	0.00131527	412.246
17	0.00131527	0.00170615	412.246
18	0.00170615	0.00221172	412.246
19	0.00221172	0.00286565	412.246
20	0.00286565	0.00371146	412.246
21	0.00371146	0.00480547	412.246
22	0.00480547	0.00622051	412.246
23	0.00622051	0.00805078	412.246
24	0.00805078	0.0104181	412.246
25	0.0104181	0.0134801	412.246
26	0.0134801	0.0174406	412.246
27	0.0174406	0.0225633	412.246
28	0.0225633	0.0291892	412.246
29	0.0291892	inf	412.246
