0.00987028	-13806371.53	0,1.76843e-06,4.0979e-06,7.16639e-06,1.12083e-05,1.65326e-05,2.3546e-05,3.27844e-05,4.49536e-05,6.09835e-05,8.20988e-05,0.000109913,0.000146551,0.000194813,0.000258385,0.000342126,0.000452434,0.000597736,0.000789135,0.00104126,0.00137336,0.00181083,0.00238708,0.00314614,0.00414602,0.00546311,0.00719804,0.00948338,0.0124937,0.0164591,0.0216825,0.028563,inf	691.994,691.994,754.694,825.678,829.317,798.874,753.168,704.138,653.838,601.667,551.134,506.604,470.538,443.178,423.353,409.454,399.972,393.672,389.625,387.194,385.965,385.682,386.157,387.19,388.513,389.846,391.035,392.397,392.397,394.132,394.132,394.132
0.0097258	-13801695.19	0,1.76843e-06,4.0979e-06,7.16639e-06,1.12083e-05,1.65326e-05,2.3546e-05,3.27844e-05,4.49536e-05,6.09835e-05,8.20988e-05,0.000109913,0.000146551,0.000194813,0.000258385,0.000342126,0.000452434,0.000597736,0.000789135,0.00104126,0.00137336,0.00181083,0.00238708,0.00314614,0.00414602,0.00546311,0.00719804,0.00948338,0.0124937,0.0164591,0.0216825,0.028563,inf	630.841,630.841,772.625,954.876,1012.72,1000.96,953.748,894.28,825.554,745.644,662.562,586.711,524.256,476.462,441.613,417.046,400.202,388.956,381.702,377.323,375.096,374.572,375.425,377.304,379.73,382.19,384.391,386.929,386.929,390.219,390.219,390.219
0.00959643	-13799046.29	0,1.76843e-06,4.0979e-06,7.16639e-06,1.12083e-05,1.65326e-05,2.3546e-05,3.27844e-05,4.49536e-05,6.09835e-05,8.20988e-05,0.000109913,0.000146551,0.000194813,0.000258385,0.000342126,0.000452434,0.000597736,0.000789135,0.00104126,0.00137336,0.00181083,0.00238708,0.00314614,0.00414602,0.00546311,0.00719804,0.00948338,0.0124937,0.0164591,0.0216825,0.028563,inf	525.312,525.312,664.794,912.851,1019.5,1042.66,1020.24,979.785,921.436,838.553,741.597,647.228,566.717,503.774,457.208,424.012,401.039,385.567,375.492,369.334,366.133,365.283,366.349,368.861,372.17,375.561,378.61,382.153,382.153,386.838,386.838,386.838
0.00947953	-13797329.12	0,1.76843e-06,4.0979e-06,7.16639e-06,1.12083e-05,1.65326e-05,2.3546e-05,3.27844e-05,4.49536e-05,6.09835e-05,8.20988e-05,0.000109913,0.000146551,0.000194813,0.000258385,0.000342126,0.000452434,0.000597736,0.000789135,0.00104126,0.00137336,0.00181083,0.00238708,0.00314614,0.00414602,0.00546311,0.00719804,0.00948338,0.0124937,0.0164591,0.0216825,0.028563,inf	465.71,465.71,559.612,831.757,961.548,1008.72,1011.69,998.605,964.423,894.223,797.038,694.092,601.987,527.834,471.87,431.385,403.031,383.725,371.004,363.108,358.88,357.589,358.706,361.66,365.659,369.81,373.566,377.968,377.968,383.913,383.913,383.913
0.00937284	-13796128.31	0,1.76843e-06,4.0979e-06,7.16639e-06,1.12083e-05,1.65326e-05,2.3546e-05,3.27844e-05,4.49536e-05,6.09835e-05,8.20988e-05,0.000109913,0.000146551,0.000194813,0.000258385,0.000342126,0.000452434,0.000597736,0.000789135,0.00104126,0.00137336,0.00181083,0.00238708,0.00314614,0.00414602,0.00546311,0.00719804,0.00948338,0.0124937,0.0164591,0.0216825,0.028563,inf	445.993,445.993,484.662,762.686,895.9,951.278,969.894,980.645,973.511,923.574,834.908,730.652,631.972,549.713,486.149,439.369,406.162,383.277,368.006,358.373,353.06,351.224,352.256,355.497,360.028,364.796,369.143,374.282,374.282,381.375,381.375,381.375
0.00927444	-13795247.97	0,1.76843e-06,4.0979e-06,7.16639e-06,1.12083e-05,1.65326e-05,2.3546e-05,3.27844e-05,4.49536e-05,6.09835e-05,8.20988e-05,0.000109913,0.000146551,0.000194813,0.000258385,0.000342126,0.000452434,0.000597736,0.000789135,0.00104126,0.00137336,0.00181083,0.00238708,0.00314614,0.00414602,0.00546311,0.00719804,0.00948338,0.0124937,0.0164591,0.0216825,0.028563,inf	449.89,449.89,436.256,716.675,842.737,894.104,917.634,944.614,961.73,934.315,859.175,758.773,657.484,569.705,500.067,447.838,410.216,383.961,366.219,354.85,348.404,345.944,346.786,350.191,355.128,360.401,365.241,371.019,371.019,379.165,379.165,379.165
0.00918279	-13794577.81	0,1.76843e-06,4.0979e-06,7.16639e-06,1.12083e-05,1.65326e-05,2.3546e-05,3.27844e-05,4.49536e-05,6.09835e-05,8.20988e-05,0.000109913,0.000146551,0.000194813,0.000258385,0.000342126,0.000452434,0.000597736,0.000789135,0.00104126,0.00137336,0.00181083,0.00238708,0.00314614,0.00414602,0.00546311,0.00719804,0.00948338,0.0124937,0.0164591,0.0216825,0.028563,inf	465.075,465.075,405.948,691.738,806.41,846.016,865.936,901.402,937.73,931.965,872.705,779.667,678.899,587.818,513.478,456.571,414.945,385.518,365.386,352.293,344.686,341.545,342.119,345.595,350.839,356.523,361.78,368.114,368.114,377.236,377.236,377.236
0.00909667	-13794049.90	0,1.76843e-06,4.0979e-06,7.16639e-06,1.12083e-05,1.65326e-05,2.3546e-05,3.27844e-05,4.49536e-05,6.09835e-05,8.20988e-05,0.000109913,0.000146551,0.000194813,0.000258385,0.000342126,0.000452434,0.000597736,0.000789135,0.00104126,0.00137336,0.00181083,0.00238708,0.00314614,0.00414602,0.00546311,0.00719804,0.00948338,0.0124937,0.0164591,0.0216825,0.028563,inf	484.068,484.068,386.823,683.154,785.729,809.195,819.597,857.094,907.229,920.621,877.785,794.31,696.482,604.001,526.207,465.359,420.126,387.73,365.294,350.504,341.724,337.865,338.114,341.59,347.063,353.085,358.693,365.514,365.514,375.55,375.55,375.55
0.00901512	-13793620.39	0,1.76843e-06,4.0979e-06,7.16639e-06,1.12083e-05,1.65326e-05,2.3546e-05,3.27844e-05,4.49536e-05,6.09835e-05,8.20988e-05,0.000109913,0.000146551,0.000194813,0.000258385,0.000342126,0.000452434,0.000597736,0.000789135,0.00104126,0.00137336,0.00181083,0.00238708,0.00314614,0.00414602,0.00546311,0.00719804,0.00948338,0.0124937,0.0164591,0.0216825,0.028563,inf	502.088,502.088,373.929,686.291,777.977,783.151,780.264,814.949,873.978,903.356,876.317,803.588,710.5,618.227,538.115,474.024,425.579,390.418,365.778,349.326,339.374,334.774,334.658,338.079,343.72,350.02,355.926,363.177,363.177,374.075,374.075,374.075
0.00893736	-13793260.14	0,1.76843e-06,4.0979e-06,7.16639e-06,1.12083e-05,1.65326e-05,2.3546e-05,3.27844e-05,4.49536e-05,6.09835e-05,8.20988e-05,0.000109913,0.000146551,0.000194813,0.000258385,0.000342126,0.000452434,0.000597736,0.000789135,0.00104126,0.00137336,0.00181083,0.00238708,0.00314614,0.00414602,0.00546311,0.00719804,0.00948338,0.0124937,0.0164591,0.0216825,0.028563,inf	516.639,516.639,363.908,697.259,780.357,766.489,748.055,776.55,840.387,882.48,869.904,808.336,721.252,630.512,549.105,482.435,431.162,393.446,366.705,348.638,337.523,332.17,331.661,334.988,340.748,347.276,353.436,361.069,361.069,372.784,372.784,372.784
0.0088628	-13792949.30	0,1.76843e-06,4.0979e-06,7.16639e-06,1.12083e-05,1.65326e-05,2.3546e-05,3.27844e-05,4.49536e-05,6.09835e-05,8.20988e-05,0.000109913,0.000146551,0.000194813,0.000258385,0.000342126,0.000452434,0.000597736,0.000789135,0.00104126,0.00137336,0.00181083,0.00238708,0.00314614,0.00414602,0.00546311,0.00719804,0.00948338,0.0124937,0.0164591,0.0216825,0.028563,inf	526.838,526.838,354.532,712.877,790.409,757.659,722.463,742.521,807.953,859.693,859.879,809.33,729.063,640.922,559.123,490.494,436.77,396.707,367.974,348.341,336.083,329.973,329.052,332.253,338.094,344.81,351.187,359.161,359.161,371.656,371.656,371.656
0.00879095	-13792674.08	0,1.76843e-06,4.0979e-06,7.16639e-06,1.12083e-05,1.65326e-05,2.3546e-05,3.27844e-05,4.49536e-05,6.09835e-05,8.20988e-05,0.000109913,0.000146551,0.000194813,0.000258385,0.000342126,0.000452434,0.000597736,0.000789135,0.00104126,0.00137336,0.00181083,0.00238708,0.00314614,0.00414602,0.00546311,0.00719804,0.00948338,0.0124937,0.0164591,0.0216825,0.028563,inf	532.759,532.759,344.439,730.58,806.016,755.191,702.727,712.945,777.535,836.218,847.327,807.272,734.267,649.555,568.15,498.136,442.322,400.118,369.505,348.361,334.981,328.117,326.772,329.825,335.717,342.587,349.149,357.43,357.43,370.672,370.672,370.672
0.00872141	-13792424.75	0,1.76843e-06,4.0979e-06,7.16639e-06,1.12083e-05,1.65326e-05,2.3546e-05,3.27844e-05,4.49536e-05,6.09835e-05,8.20988e-05,0.000109913,0.000146551,0.000194813,0.000258385,0.000342126,0.000452434,0.000597736,0.000789135,0.00104126,0.00137336,0.00181083,0.00238708,0.00314614,0.00414602,0.00546311,0.00719804,0.00948338,0.0124937,0.0164591,0.0216825,0.028563,inf	535.083,535.083,332.868,748.303,825.395,757.791,688.03,687.61,749.586,812.908,833.118,802.784,737.196,656.528,576.19,505.317,447.758,403.618,371.234,348.638,334.161,326.551,324.775,327.662,333.58,340.577,347.298,355.854,355.854,369.819,369.819,369.819
0.00865388	-13792194.31	0,1.76843e-06,4.0979e-06,7.16639e-06,1.12083e-05,1.65326e-05,2.3546e-05,3.27844e-05,4.49536e-05,6.09835e-05,8.20988e-05,0.000109913,0.000146551,0.000194813,0.000258385,0.000342126,0.000452434,0.000597736,0.000789135,0.00104126,0.00137336,0.00181083,0.00238708,0.00314614,0.00414602,0.00546311,0.00719804,0.00948338,0.0124937,0.0164591,0.0216825,0.028563,inf	534.744,534.744,319.57,764.484,847.058,764.371,677.606,666.18,724.287,790.347,817.929,796.404,738.164,661.976,583.269,512.013,453.035,407.155,373.114,349.123,333.578,325.23,323.021,325.731,331.655,338.756,345.612,354.418,354.418,369.082,369.082,369.082
0.00858809	-13791977.70	0,1.76843e-06,4.0979e-06,7.16639e-06,1.12083e-05,1.65326e-05,2.3546e-05,3.27844e-05,4.49536e-05,6.09835e-05,8.20988e-05,0.000109913,0.000146551,0.000194813,0.000258385,0.000342126,0.000452434,0.000597736,0.000789135,0.00104126,0.00137336,0.00181083,0.00238708,0.00314614,0.00414602,0.00546311,0.00719804,0.00948338,0.0124937,0.0164591,0.0216825,0.028563,inf	532.747,532.747,304.591,777.952,869.827,774.038,670.802,648.265,701.646,768.902,802.285,788.59,737.464,666.036,589.425,518.214,458.122,410.695,375.104,349.777,333.195,324.121,321.479,324.002,329.917,337.103,344.074,353.107,353.107,368.45,368.45,368.45
0.00852383	-13791771.16	0,1.76843e-06,4.0979e-06,7.16639e-06,1.12083e-05,1.65326e-05,2.3546e-05,3.27844e-05,4.49536e-05,6.09835e-05,8.20988e-05,0.000109913,0.000146551,0.000194813,0.000258385,0.000342126,0.000452434,0.000597736,0.000789135,0.00104126,0.00137336,0.00181083,0.00238708,0.00314614,0.00414602,0.00546311,0.00719804,0.00948338,0.0124937,0.0164591,0.0216825,0.028563,inf	529.794,529.794,288.203,787.928,892.672,786.02,667.016,633.461,681.57,748.796,786.578,779.721,735.362,668.844,594.705,523.916,462.998,414.207,377.173,350.57,332.98,323.194,320.121,322.451,328.345,335.599,342.668,351.908,351.908,367.915,367.915,367.915
0.00846091	-13791571.93	0,1.76843e-06,4.0979e-06,7.16639e-06,1.12083e-05,1.65326e-05,2.3546e-05,3.27844e-05,4.49536e-05,6.09835e-05,8.20988e-05,0.000109913,0.000146551,0.000194813,0.000258385,0.000342126,0.000452434,0.000597736,0.000789135,0.00104126,0.00137336,0.00181083,0.00238708,0.00314614,0.00414602,0.00546311,0.00719804,0.00948338,0.0124937,0.0164591,0.0216825,0.028563,inf	526.618,526.618,270.782,793.923,914.791,799.666,665.757,621.4,663.905,730.145,771.098,770.113,732.092,670.533,599.16,529.128,467.649,417.669,379.297,351.475,332.908,322.425,318.925,321.059,326.921,334.229,341.383,350.811,350.811,367.467,367.467,367.467
0.00839919	-13791377.93	0,1.76843e-06,4.0979e-06,7.16639e-06,1.12083e-05,1.65326e-05,2.3546e-05,3.27844e-05,4.49536e-05,6.09835e-05,8.20988e-05,0.000109913,0.000146551,0.000194813,0.000258385,0.000342126,0.000452434,0.000597736,0.000789135,0.00104126,0.00137336,0.00181083,0.00238708,0.00314614,0.00414602,0.00546311,0.00719804,0.00948338,0.0124937,0.0164591,0.0216825,0.028563,inf	523.685,523.685,252.828,795.836,935.54,814.441,666.585,611.734,648.47,712.987,756.051,760.026,727.864,671.227,602.847,533.863,472.066,421.064,381.456,352.473,332.959,321.794,317.872,319.807,325.63,332.981,340.205,349.806,349.806,367.1,367.1,367.1
0.00833854	-13791187.59	0,1.76843e-06,4.0979e-06,7.16639e-06,1.12083e-05,1.65326e-05,2.3546e-05,3.27844e-05,4.49536e-05,6.09835e-05,8.20988e-05,0.000109913,0.000146551,0.000194813,0.000258385,0.000342126,0.000452434,0.000597736,0.000789135,0.00104126,0.00137336,0.00181083,0.00238708,0.00314614,0.00414602,0.00546311,0.00719804,0.00948338,0.0124937,0.0164591,0.0216825,0.028563,inf	521.224,521.224,234.702,793.707,954.44,829.887,669.14,604.152,635.075,697.308,741.58,749.662,722.859,671.044,605.82,538.136,476.245,424.38,383.633,353.544,333.115,321.283,316.945,318.68,324.458,331.842,339.125,348.885,348.885,366.806,366.806,366.806
0.00827885	-13790999.73	0,1.76843e-06,4.0979e-06,7.16639e-06,1.12083e-05,1.65326e-05,2.3546e-05,3.27844e-05,4.49536e-05,6.09835e-05,8.20988e-05,0.000109913,0.000146551,0.000194813,0.000258385,0.000342126,0.000452434,0.000597736,0.000789135,0.00104126,0.00137336,0.00181083,0.00238708,0.00314614,0.00414602,0.00546311,0.00719804,0.00948338,0.0124937,0.0164591,0.0216825,0.028563,inf	519.445,519.445,216.797,787.755,971.152,845.639,673.09,598.377,623.528,683.065,727.782,739.187,717.235,670.091,608.134,541.965,480.186,427.607,385.815,354.675,333.361,320.877,316.13,317.666,323.394,330.804,338.135,348.041,348.041,366.581,366.581,366.581
