time_index	left_time_boundary	right_time_boundary	lambda
0	0	2.66761e-06	540.373
1	2.66761e-06	6.1298e-06	540.373
2	6.1298e-06	1.06233e-05	50.3732
3	1.06233e-05	1.64552e-05	55.5946
4	1.64552e-05	2.40242e-05	251.724
5	2.40242e-05	3.38478e-05	590.611
6	3.38478e-05	4.65975e-05	655.491
7	4.65975e-05	6.31449e-05	556.593
8	6.31449e-05	8.46212e-05	446.074
9	8.46212e-05	0.000112495	379.598
10	0.000112495	0.00014867	360.752
11	0.00014867	0.000195622	361.515
12	0.000195622	0.000256559	357.115
13	0.000256559	0.000335646	346.465
14	0.000335646	0.000438291	341.627
15	0.000438291	0.000571511	348.84
16	0.000571511	0.000744412	363.859
17	0.000744412	0.000968815	381.635
18	0.000968815	0.00126006	399.718
19	0.00126006	0.00163805	414.082
20	0.00163805	0.00212864	417.229
21	0.00212864	0.00276536	405.708
22	0.00276536	0.00359173	392.143
23	0.00359173	0.00466426	390.512
24	0.00466426	0.00605625	389.443
25	0.00605625	0.00786286	375.87
26	0.00786286	0.0102076	365.238
27	0.0102076	0.0132508	382.359
28	0.0132508	0.0172004	382.359
29	0.0172004	0.0223265	709.157
30	0.0223265	0.0289794	709.157
31	0.0289794	inf	709.157
