0.000720762	-13808093.72	0,1.90456e-06,4.45986e-06,7.88822e-06,1.24879e-05,1.86593e-05,2.69391e-05,3.8048e-05,5.29524e-05,7.29492e-05,9.97782e-05,0.000135774,0.000184068,0.000248864,0.000335797,0.000452434,0.000608921,0.000818875,0.00110056,0.0014785,0.00198556,0.00266587,0.00357863,0.00480324,0.00644626,0.00865066,0.0116082,0.0155763,0.0209002,0.028043,inf	401.89,401.89,401.89,401.89,401.89,401.89,401.89,401.89,401.89,401.89,401.89,401.89,401.89,401.89,401.89,401.89,401.89,401.89,401.89,401.89,401.89,401.89,401.89,401.89,401.89,401.89,401.89,401.89,401.89,401.89
0.000809107	-13801968.87	0,1.90456e-06,4.45986e-06,7.88822e-06,1.24879e-05,1.86593e-05,2.69391e-05,3.8048e-05,5.29524e-05,7.29492e-05,9.97782e-05,0.000135774,0.000184068,0.000248864,0.000335797,0.000452434,0.000608921,0.000818875,0.00110056,0.0014785,0.00198556,0.00266587,0.00357863,0.00480324,0.00644626,0.00865066,0.0116082,0.0155763,0.0209002,0.028043,inf	402.901,402.901,402.901,402.901,402.901,402.901,402.901,402.901,402.901,402.901,402.901,402.901,402.901,402.901,402.901,402.901,402.901,402.901,402.901,402.901,402.901,402.901,402.901,402.901,402.901,402.901,402.901,402.901,402.901,402.901
0.00089256	-13797159.35	0,1.90456e-06,4.45986e-06,7.88822e-06,1.24879e-05,1.86593e-05,2.69391e-05,3.8048e-05,5.29524e-05,7.29492e-05,9.97782e-05,0.000135774,0.000184068,0.000248864,0.000335797,0.000452434,0.000608921,0.000818875,0.00110056,0.0014785,0.00198556,0.00266587,0.00357863,0.00480324,0.00644626,0.00865066,0.0116082,0.0155763,0.0209002,0.028043,inf	402.925,402.925,402.925,402.925,402.925,402.925,402.925,402.925,402.925,402.925,402.925,402.925,402.925,402.925,402.925,402.925,402.925,402.925,402.925,402.925,402.925,402.925,402.925,402.925,402.925,402.925,402.925,402.925,402.925,402.925
0.000971494	-13793301.07	0,1.90456e-06,4.45986e-06,7.88822e-06,1.24879e-05,1.86593e-05,2.69391e-05,3.8048e-05,5.29524e-05,7.29492e-05,9.97782e-05,0.000135774,0.000184068,0.000248864,0.000335797,0.000452434,0.000608921,0.000818875,0.00110056,0.0014785,0.00198556,0.00266587,0.00357863,0.00480324,0.00644626,0.00865066,0.0116082,0.0155763,0.0209002,0.028043,inf	402.5,402.5,402.5,402.5,402.5,402.5,402.5,402.5,402.5,402.5,402.5,402.5,402.5,402.5,402.5,402.5,402.5,402.5,402.5,402.5,402.5,402.5,402.5,402.5,402.5,402.5,402.5,402.5,402.5,402.5
0.00104624	-13790154.46	0,1.90456e-06,4.45986e-06,7.88822e-06,1.24879e-05,1.86593e-05,2.69391e-05,3.8048e-05,5.29524e-05,7.29492e-05,9.97782e-05,0.000135774,0.000184068,0.000248864,0.000335797,0.000452434,0.000608921,0.000818875,0.00110056,0.0014785,0.00198556,0.00266587,0.00357863,0.00480324,0.00644626,0.00865066,0.0116082,0.0155763,0.0209002,0.028043,inf	401.87,401.87,401.87,401.87,401.87,401.87,401.87,401.87,401.87,401.87,401.87,401.87,401.87,401.87,401.87,401.87,401.87,401.87,401.87,401.87,401.87,401.87,401.87,401.87,401.87,401.87,401.87,401.87,401.87,401.87
0.00111711	-13787553.68	0,1.90456e-06,4.45986e-06,7.88822e-06,1.24879e-05,1.86593e-05,2.69391e-05,3.8048e-05,5.29524e-05,7.29492e-05,9.97782e-05,0.000135774,0.000184068,0.000248864,0.000335797,0.000452434,0.000608921,0.000818875,0.00110056,0.0014785,0.00198556,0.00266587,0.00357863,0.00480324,0.00644626,0.00865066,0.0116082,0.0155763,0.0209002,0.028043,inf	401.153,401.153,401.153,401.153,401.153,401.153,401.153,401.153,401.153,401.153,401.153,401.153,401.153,401.153,401.153,401.153,401.153,401.153,401.153,401.153,401.153,401.153,401.153,401.153,401.153,401.153,401.153,401.153,401.153,401.153
0.00118437	-13785379.87	0,1.90456e-06,4.45986e-06,7.88822e-06,1.24879e-05,1.86593e-05,2.69391e-05,3.8048e-05,5.29524e-05,7.29492e-05,9.97782e-05,0.000135774,0.000184068,0.000248864,0.000335797,0.000452434,0.000608921,0.000818875,0.00110056,0.0014785,0.00198556,0.00266587,0.00357863,0.00480324,0.00644626,0.00865066,0.0116082,0.0155763,0.0209002,0.028043,inf	400.405,400.405,400.405,400.405,400.405,400.405,400.405,400.405,400.405,400.405,400.405,400.405,400.405,400.405,400.405,400.405,400.405,400.405,400.405,400.405,400.405,400.405,400.405,400.405,400.405,400.405,400.405,400.405,400.405,400.405
0.00124827	-13783545.55	0,1.90456e-06,4.45986e-06,7.88822e-06,1.24879e-05,1.86593e-05,2.69391e-05,3.8048e-05,5.29524e-05,7.29492e-05,9.97782e-05,0.000135774,0.000184068,0.000248864,0.000335797,0.000452434,0.000608921,0.000818875,0.00110056,0.0014785,0.00198556,0.00266587,0.00357863,0.00480324,0.00644626,0.00865066,0.0116082,0.0155763,0.0209002,0.028043,inf	399.659,399.659,399.659,399.659,399.659,399.659,399.659,399.659,399.659,399.659,399.659,399.659,399.659,399.659,399.659,399.659,399.659,399.659,399.659,399.659,399.659,399.659,399.659,399.659,399.659,399.659,399.659,399.659,399.659,399.659
0.00130904	-13781984.89	0,1.90456e-06,4.45986e-06,7.88822e-06,1.24879e-05,1.86593e-05,2.69391e-05,3.8048e-05,5.29524e-05,7.29492e-05,9.97782e-05,0.000135774,0.000184068,0.000248864,0.000335797,0.000452434,0.000608921,0.000818875,0.00110056,0.0014785,0.00198556,0.00266587,0.00357863,0.00480324,0.00644626,0.00865066,0.0116082,0.0155763,0.0209002,0.028043,inf	398.93,398.93,398.93,398.93,398.93,398.93,398.93,398.93,398.93,398.93,398.93,398.93,398.93,398.93,398.93,398.93,398.93,398.93,398.93,398.93,398.93,398.93,398.93,398.93,398.93,398.93,398.93,398.93,398.93,398.93
0.0013669	-13780647.51	0,1.90456e-06,4.45986e-06,7.88822e-06,1.24879e-05,1.86593e-05,2.69391e-05,3.8048e-05,5.29524e-05,7.29492e-05,9.97782e-05,0.000135774,0.000184068,0.000248864,0.000335797,0.000452434,0.000608921,0.000818875,0.00110056,0.0014785,0.00198556,0.00266587,0.00357863,0.00480324,0.00644626,0.00865066,0.0116082,0.0155763,0.0209002,0.028043,inf	398.225,398.225,398.225,398.225,398.225,398.225,398.225,398.225,398.225,398.225,398.225,398.225,398.225,398.225,398.225,398.225,398.225,398.225,398.225,398.225,398.225,398.225,398.225,398.225,398.225,398.225,398.225,398.225,398.225,398.225
0.00142202	-13779494.19	0,1.90456e-06,4.45986e-06,7.88822e-06,1.24879e-05,1.86593e-05,2.69391e-05,3.8048e-05,5.29524e-05,7.29492e-05,9.97782e-05,0.000135774,0.000184068,0.000248864,0.000335797,0.000452434,0.000608921,0.000818875,0.00110056,0.0014785,0.00198556,0.00266587,0.00357863,0.00480324,0.00644626,0.00865066,0.0116082,0.0155763,0.0209002,0.028043,inf	397.549,397.549,397.549,397.549,397.549,397.549,397.549,397.549,397.549,397.549,397.549,397.549,397.549,397.549,397.549,397.549,397.549,397.549,397.549,397.549,397.549,397.549,397.549,397.549,397.549,397.549,397.549,397.549,397.549,397.549
0.00147459	-13778494.02	0,1.90456e-06,4.45986e-06,7.88822e-06,1.24879e-05,1.86593e-05,2.69391e-05,3.8048e-05,5.29524e-05,7.29492e-05,9.97782e-05,0.000135774,0.000184068,0.000248864,0.000335797,0.000452434,0.000608921,0.000818875,0.00110056,0.0014785,0.00198556,0.00266587,0.00357863,0.00480324,0.00644626,0.00865066,0.0116082,0.0155763,0.0209002,0.028043,inf	396.903,396.903,396.903,396.903,396.903,396.903,396.903,396.903,396.903,396.903,396.903,396.903,396.903,396.903,396.903,396.903,396.903,396.903,396.903,396.903,396.903,396.903,396.903,396.903,396.903,396.903,396.903,396.903,396.903,396.903
0.00152477	-13777622.30	0,1.90456e-06,4.45986e-06,7.88822e-06,1.24879e-05,1.86593e-05,2.69391e-05,3.8048e-05,5.29524e-05,7.29492e-05,9.97782e-05,0.000135774,0.000184068,0.000248864,0.000335797,0.000452434,0.000608921,0.000818875,0.00110056,0.0014785,0.00198556,0.00266587,0.00357863,0.00480324,0.00644626,0.00865066,0.0116082,0.0155763,0.0209002,0.028043,inf	396.288,396.288,396.288,396.288,396.288,396.288,396.288,396.288,396.288,396.288,396.288,396.288,396.288,396.288,396.288,396.288,396.288,396.288,396.288,396.288,396.288,396.288,396.288,396.288,396.288,396.288,396.288,396.288,396.288,396.288
0.0015727	-13776859.15	0,1.90456e-06,4.45986e-06,7.88822e-06,1.24879e-05,1.86593e-05,2.69391e-05,3.8048e-05,5.29524e-05,7.29492e-05,9.97782e-05,0.000135774,0.000184068,0.000248864,0.000335797,0.000452434,0.000608921,0.000818875,0.00110056,0.0014785,0.00198556,0.00266587,0.00357863,0.00480324,0.00644626,0.00865066,0.0116082,0.0155763,0.0209002,0.028043,inf	395.703,395.703,395.703,395.703,395.703,395.703,395.703,395.703,395.703,395.703,395.703,395.703,395.703,395.703,395.703,395.703,395.703,395.703,395.703,395.703,395.703,395.703,395.703,395.703,395.703,395.703,395.703,395.703,395.703,395.703
0.00161852	-13776188.33	0,1.90456e-06,4.45986e-06,7.88822e-06,1.24879e-05,1.86593e-05,2.69391e-05,3.8048e-05,5.29524e-05,7.29492e-05,9.97782e-05,0.000135774,0.000184068,0.000248864,0.000335797,0.000452434,0.000608921,0.000818875,0.00110056,0.0014785,0.00198556,0.00266587,0.00357863,0.00480324,0.00644626,0.00865066,0.0116082,0.0155763,0.0209002,0.028043,inf	395.146,395.146,395.146,395.146,395.146,395.146,395.146,395.146,395.146,395.146,395.146,395.146,395.146,395.146,395.146,395.146,395.146,395.146,395.146,395.146,395.146,395.146,395.146,395.146,395.146,395.146,395.146,395.146,395.146,395.146
0.00166236	-13775596.52	0,1.90456e-06,4.45986e-06,7.88822e-06,1.24879e-05,1.86593e-05,2.69391e-05,3.8048e-05,5.29524e-05,7.29492e-05,9.97782e-05,0.000135774,0.000184068,0.000248864,0.000335797,0.000452434,0.000608921,0.000818875,0.00110056,0.0014785,0.00198556,0.00266587,0.00357863,0.00480324,0.00644626,0.00865066,0.0116082,0.0155763,0.0209002,0.028043,inf	394.617,394.617,394.617,394.617,394.617,394.617,394.617,394.617,394.617,394.617,394.617,394.617,394.617,394.617,394.617,394.617,394.617,394.617,394.617,394.617,394.617,394.617,394.617,394.617,394.617,394.617,394.617,394.617,394.617,394.617
0.00170432	-13775072.68	0,1.90456e-06,4.45986e-06,7.88822e-06,1.24879e-05,1.86593e-05,2.69391e-05,3.8048e-05,5.29524e-05,7.29492e-05,9.97782e-05,0.000135774,0.000184068,0.000248864,0.000335797,0.000452434,0.000608921,0.000818875,0.00110056,0.0014785,0.00198556,0.00266587,0.00357863,0.00480324,0.00644626,0.00865066,0.0116082,0.0155763,0.0209002,0.028043,inf	394.115,394.115,394.115,394.115,394.115,394.115,394.115,394.115,394.115,394.115,394.115,394.115,394.115,394.115,394.115,394.115,394.115,394.115,394.115,394.115,394.115,394.115,394.115,394.115,394.115,394.115,394.115,394.115,394.115,394.115
0.00174451	-13774607.62	0,1.90456e-06,4.45986e-06,7.88822e-06,1.24879e-05,1.86593e-05,2.69391e-05,3.8048e-05,5.29524e-05,7.29492e-05,9.97782e-05,0.000135774,0.000184068,0.000248864,0.000335797,0.000452434,0.000608921,0.000818875,0.00110056,0.0014785,0.00198556,0.00266587,0.00357863,0.00480324,0.00644626,0.00865066,0.0116082,0.0155763,0.0209002,0.028043,inf	393.637,393.637,393.637,393.637,393.637,393.637,393.637,393.637,393.637,393.637,393.637,393.637,393.637,393.637,393.637,393.637,393.637,393.637,393.637,393.637,393.637,393.637,393.637,393.637,393.637,393.637,393.637,393.637,393.637,393.637
0.00178304	-13774193.60	0,1.90456e-06,4.45986e-06,7.88822e-06,1.24879e-05,1.86593e-05,2.69391e-05,3.8048e-05,5.29524e-05,7.29492e-05,9.97782e-05,0.000135774,0.000184068,0.000248864,0.000335797,0.000452434,0.000608921,0.000818875,0.00110056,0.0014785,0.00198556,0.00266587,0.00357863,0.00480324,0.00644626,0.00865066,0.0116082,0.0155763,0.0209002,0.028043,inf	393.183,393.183,393.183,393.183,393.183,393.183,393.183,393.183,393.183,393.183,393.183,393.183,393.183,393.183,393.183,393.183,393.183,393.183,393.183,393.183,393.183,393.183,393.183,393.183,393.183,393.183,393.183,393.183,393.183,393.183
0.00181998	-13773824.09	0,1.90456e-06,4.45986e-06,7.88822e-06,1.24879e-05,1.86593e-05,2.69391e-05,3.8048e-05,5.29524e-05,7.29492e-05,9.97782e-05,0.000135774,0.000184068,0.000248864,0.000335797,0.000452434,0.000608921,0.000818875,0.00110056,0.0014785,0.00198556,0.00266587,0.00357863,0.00480324,0.00644626,0.00865066,0.0116082,0.0155763,0.0209002,0.028043,inf	392.752,392.752,392.752,392.752,392.752,392.752,392.752,392.752,392.752,392.752,392.752,392.752,392.752,392.752,392.752,392.752,392.752,392.752,392.752,392.752,392.752,392.752,392.752,392.752,392.752,392.752,392.752,392.752,392.752,392.752
