LogLikelihood = -174491.56205261431751

y0 0.99837292160323487522
y0_prime 0
y1 1.0849600561430539081
y1_prime 0
y2 0.95760313597676349762
y2_prime 0
y3 1.7094108661903053559
y3_prime 0
rho 0.00077543200844158906033
rho.alpha 0.69285886003770480457
r_ii 0.99992573705949883145
theta 0.0025934810481232370774
