0.000729462	-18373292.19	0,2.2071e-05,5.5838e-05,0.000107499,0.000186536,0.000307458,0.000492459,0.000775496,0.00120852,0.00187102,0.00288459,0.00443528,0.00680772,0.0104374,0.0159905,0.0244863,inf	366.355,366.355,360.251,342.673,336.514,342.159,357.255,379.146,406.936,428.997,430.801,424.207,414.392,396.95,396.95,396.95
0.000825472	-18363516.08	0,2.2071e-05,5.5838e-05,0.000107499,0.000186536,0.000307458,0.000492459,0.000775496,0.00120852,0.00187102,0.00288459,0.00443528,0.00680772,0.0104374,0.0159905,0.0244863,inf	370.177,370.177,364.376,332.124,318.807,324.14,343.356,371.734,409.279,440.816,444.064,436.182,421.143,390.26,390.26,390.26
0.00091366	-18356784.26	0,2.2071e-05,5.5838e-05,0.000107499,0.000186536,0.000307458,0.000492459,0.000775496,0.00120852,0.00187102,0.00288459,0.00443528,0.00680772,0.0104374,0.0159905,0.0244863,inf	372.799,372.799,374.18,331.89,313.789,318.649,339.273,369.275,409.926,445.115,448.944,441.756,423.947,382.456,382.456,382.456
0.000995236	-18351662.23	0,2.2071e-05,5.5838e-05,0.000107499,0.000186536,0.000307458,0.000492459,0.000775496,0.00120852,0.00187102,0.00288459,0.00443528,0.00680772,0.0104374,0.0159905,0.0244863,inf	370.376,370.376,382.149,333.501,312.889,317.994,339.275,369.065,410.026,446.048,449.768,443.934,424.706,374.625,374.625,374.625
0.00107116	-18347590.82	0,2.2071e-05,5.5838e-05,0.000107499,0.000186536,0.000307458,0.000492459,0.000775496,0.00120852,0.00187102,0.00288459,0.00443528,0.00680772,0.0104374,0.0159905,0.0244863,inf	365.138,365.138,387.532,334.881,313.388,319.403,341.133,369.962,409.996,445.456,448.617,444.294,424.426,367.221,367.221,367.221
0.00114216	-18344274.28	0,2.2071e-05,5.5838e-05,0.000107499,0.000186536,0.000307458,0.000492459,0.000775496,0.00120852,0.00187102,0.00288459,0.00443528,0.00680772,0.0104374,0.0159905,0.0244863,inf	359.265,359.265,390.994,335.67,314.34,321.721,343.839,371.403,409.967,444.18,446.522,443.678,423.638,360.404,360.404,360.404
0.00120879	-18341527.78	0,2.2071e-05,5.5838e-05,0.000107499,0.000186536,0.000307458,0.000492459,0.000775496,0.00120852,0.00187102,0.00288459,0.00443528,0.00680772,0.0104374,0.0159905,0.0244863,inf	353.953,353.953,393.264,335.951,315.409,324.421,346.897,373.088,409.972,442.622,444.007,442.546,422.629,354.2,354.2,354.2
0.0012715	-18339224.90	0,2.2071e-05,5.5838e-05,0.000107499,0.000186536,0.000307458,0.000492459,0.000775496,0.00120852,0.00187102,0.00288459,0.00443528,0.00680772,0.0104374,0.0159905,0.0244863,inf	349.675,349.675,394.862,335.884,316.479,327.247,350.048,374.853,410.011,440.973,441.342,441.156,421.554,348.58,348.58,348.58
0.00133066	-18337274.44	0,2.2071e-05,5.5838e-05,0.000107499,0.000186536,0.000307458,0.000492459,0.000775496,0.00120852,0.00187102,0.00288459,0.00443528,0.00680772,0.0104374,0.0159905,0.0244863,inf	346.49,346.49,396.111,335.61,317.519,330.075,353.158,376.605,410.073,439.33,438.669,439.652,420.494,343.493,343.493,343.493
0.00138659	-18335608.44	0,2.2071e-05,5.5838e-05,0.000107499,0.000186536,0.000307458,0.000492459,0.000775496,0.00120852,0.00187102,0.00288459,0.00443528,0.00680772,0.0104374,0.0159905,0.0244863,inf	344.288,344.288,397.197,335.232,318.529,332.843,356.156,378.294,410.151,437.737,436.061,438.119,419.494,338.882,338.882,338.882
0.00143953	-18334174.97	0,2.2071e-05,5.5838e-05,0.000107499,0.000186536,0.000307458,0.000492459,0.000775496,0.00120852,0.00187102,0.00288459,0.00443528,0.00680772,0.0104374,0.0159905,0.0244863,inf	342.895,342.895,398.226,334.819,319.514,335.52,359.007,379.895,410.235,436.216,433.554,436.604,418.572,334.692,334.692,334.692
0.00148974	-18332933.64	0,2.2071e-05,5.5838e-05,0.000107499,0.000186536,0.000307458,0.000492459,0.000775496,0.00120852,0.00187102,0.00288459,0.00443528,0.00680772,0.0104374,0.0159905,0.0244863,inf	342.133,342.133,399.244,334.416,320.485,338.093,361.697,381.397,410.322,434.774,431.164,435.133,417.739,330.873,330.873,330.873
0.00153741	-18331852.55	0,2.2071e-05,5.5838e-05,0.000107499,0.000186536,0.000307458,0.000492459,0.000775496,0.00120852,0.00187102,0.00288459,0.00443528,0.00680772,0.0104374,0.0159905,0.0244863,inf	341.853,341.853,400.278,334.047,321.446,340.558,364.224,382.797,410.408,433.412,428.896,433.72,416.994,327.382,327.382,327.382
0.00158272	-18330906.20	0,2.2071e-05,5.5838e-05,0.000107499,0.000186536,0.000307458,0.000492459,0.000775496,0.00120852,0.00187102,0.00288459,0.00443528,0.00680772,0.0104374,0.0159905,0.0244863,inf	341.931,341.931,401.335,333.729,322.406,342.917,366.59,384.096,410.491,432.13,426.748,432.371,416.335,324.179,324.179,324.179
0.00162583	-18330073.98	0,2.2071e-05,5.5838e-05,0.000107499,0.000186536,0.000307458,0.000492459,0.000775496,0.00120852,0.00187102,0.00288459,0.00443528,0.00680772,0.0104374,0.0159905,0.0244863,inf	342.262,342.262,402.411,333.467,323.363,345.173,368.802,385.3,410.571,430.922,424.716,431.089,415.759,321.23,321.23,321.23
0.0016669	-18329339.05	0,2.2071e-05,5.5838e-05,0.000107499,0.000186536,0.000307458,0.000492459,0.000775496,0.00120852,0.00187102,0.00288459,0.00443528,0.00680772,0.0104374,0.0159905,0.0244863,inf	342.774,342.774,403.504,333.262,324.321,347.328,370.868,386.412,410.646,429.785,422.793,429.872,415.258,318.507,318.507,318.507
0.00170606	-18328687.57	0,2.2071e-05,5.5838e-05,0.000107499,0.000186536,0.000307458,0.000492459,0.000775496,0.00120852,0.00187102,0.00288459,0.00443528,0.00680772,0.0104374,0.0159905,0.0244863,inf	343.412,343.412,404.606,333.113,325.28,349.389,372.797,387.441,410.717,428.713,420.972,428.719,414.828,315.984,315.984,315.984
0.00174342	-18328108.03	0,2.2071e-05,5.5838e-05,0.000107499,0.000186536,0.000307458,0.000492459,0.000775496,0.00120852,0.00187102,0.00288459,0.00443528,0.00680772,0.0104374,0.0159905,0.0244863,inf	344.133,344.133,405.712,333.016,326.24,351.36,374.599,388.392,410.785,427.703,419.248,427.626,414.462,313.64,313.64,313.64
0.0017791	-18327590.85	0,2.2071e-05,5.5838e-05,0.000107499,0.000186536,0.000307458,0.000492459,0.000775496,0.00120852,0.00187102,0.00288459,0.00443528,0.00680772,0.0104374,0.0159905,0.0244863,inf	344.908,344.908,406.816,332.967,327.198,353.245,376.282,389.271,410.85,426.751,417.612,426.59,414.156,311.455,311.455,311.455
0.0018132	-18327127.94	0,2.2071e-05,5.5838e-05,0.000107499,0.000186536,0.000307458,0.000492459,0.000775496,0.00120852,0.00187102,0.00288459,0.00443528,0.00680772,0.0104374,0.0159905,0.0244863,inf	345.711,345.711,407.911,332.959,328.153,355.049,377.854,390.085,410.912,425.851,416.059,425.609,413.905,309.413,309.413,309.413
