time_index	left_time_boundary	right_time_boundary	lambda
0	0	3.41822e-05	124.193
1	3.41822e-05	8.09543e-05	124.193
2	8.09543e-05	0.000144953	19.1496
3	0.000144953	0.000232524	271.065
4	0.000232524	0.000352348	304.253
5	0.000352348	0.000516305	367.926
6	0.000516305	0.000740651	789.417
7	0.000740651	0.00104763	2204.06
8	0.00104763	0.00146766	2574.03
9	0.00146766	0.00204241	2401.66
10	0.00204241	0.00282884	1313.13
11	0.00282884	0.00390493	1048.11
12	0.00390493	0.00537735	1684.09
13	0.00537735	0.00739209	150970
14	0.00739209	0.0101489	150970
15	0.0101489	inf	150970
