0.000227742	-6143463.51	0,6.63686e-07,1.53793e-06,2.68952e-06,4.20645e-06,6.20463e-06,8.83672e-06,1.23038e-05,1.68709e-05,2.28869e-05,3.08114e-05,4.12499e-05,5.50001e-05,7.31125e-05,9.6971e-05,0.000128399,0.000169797,0.000224328,0.00029616,0.000390779,0.000515417,0.000679597,0.000895861,0.00118074,0.00155599,0.00205028,0.0027014,0.00355908,0.00468885,0.00617705,0.00813737,0.0107196,inf	10.9718,10.9718,32.5259,64.9368,103.848,127.006,131.475,166.204,176.333,175.259,195.865,230.623,252.889,284.391,328.499,380.306,451.341,548.604,680.965,860.156,1102.73,1390.57,1583.65,1590.94,1512.5,1413.62,1320.68,1238.24,1238.24,1193.61,1193.61,1193.61
0.000225396	-6132045.58	0,6.63686e-07,1.53793e-06,2.68952e-06,4.20645e-06,6.20463e-06,8.83672e-06,1.23038e-05,1.68709e-05,2.28869e-05,3.08114e-05,4.12499e-05,5.50001e-05,7.31125e-05,9.6971e-05,0.000128399,0.000169797,0.000224328,0.00029616,0.000390779,0.000515417,0.000679597,0.000895861,0.00118074,0.00155599,0.00205028,0.0027014,0.00355908,0.00468885,0.00617705,0.00813737,0.0107196,inf	1.0623,1.0623,5.50065,23.7331,62.3369,89.0568,80.301,109.792,118.81,93.8306,99.3734,130.08,136.446,149.927,180.847,214.862,272.397,364.453,506.285,719.705,1046.7,1517.67,1945.31,2048.7,1953.85,1763.24,1556.9,1369.73,1369.73,1294.58,1294.58,1294.58
0.000222633	-6128174.60	0,6.63686e-07,1.53793e-06,2.68952e-06,4.20645e-06,6.20463e-06,8.83672e-06,1.23038e-05,1.68709e-05,2.28869e-05,3.08114e-05,4.12499e-05,5.50001e-05,7.31125e-05,9.6971e-05,0.000128399,0.000169797,0.000224328,0.00029616,0.000390779,0.000515417,0.000679597,0.000895861,0.00118074,0.00155599,0.00205028,0.0027014,0.00355908,0.00468885,0.00617705,0.00813737,0.0107196,inf	1.06225,1.06225,1.47356,13.7104,58.9919,98.367,76.2105,108.936,130.331,82.5394,81.7215,118.811,115.598,117.816,141.903,160.983,203.36,280.562,411.681,624.808,979.034,1551.89,2183.04,2423.65,2368.25,2089.68,1742.55,1424.91,1424.91,1339.45,1339.45,1339.45
0.00021891	-6126552.24	0,6.63686e-07,1.53793e-06,2.68952e-06,4.20645e-06,6.20463e-06,8.83672e-06,1.23038e-05,1.68709e-05,2.28869e-05,3.08114e-05,4.12499e-05,5.50001e-05,7.31125e-05,9.6971e-05,0.000128399,0.000169797,0.000224328,0.00029616,0.000390779,0.000515417,0.000679597,0.000895861,0.00118074,0.00155599,0.00205028,0.0027014,0.00355908,0.00468885,0.00617705,0.00813737,0.0107196,inf	1.06225,1.06225,1.06226,8.04389,56.7401,110.958,74.5242,110.931,152.326,81.0085,77.1354,126.5,116.11,110.869,133.748,142.442,174.339,238.962,356.993,560.133,919.28,1547.64,2341.51,2732.24,2756.6,2379.61,1857.21,1392.57,1392.57,1315.56,1315.56,1315.56
0.000214399	-6125756.30	0,6.63686e-07,1.53793e-06,2.68952e-06,4.20645e-06,6.20463e-06,8.83672e-06,1.23038e-05,1.68709e-05,2.28869e-05,3.08114e-05,4.12499e-05,5.50001e-05,7.31125e-05,9.6971e-05,0.000128399,0.000169797,0.000224328,0.00029616,0.000390779,0.000515417,0.000679597,0.000895861,0.00118074,0.00155599,0.00205028,0.0027014,0.00355908,0.00468885,0.00617705,0.00813737,0.0107196,inf	1.06225,1.06225,1.06226,4.55697,52.8438,121.721,71.129,108.824,173.204,79.4425,73.7747,137.604,121.551,110.939,136.237,137.373,162.506,217.856,324.299,515.138,869.896,1528.04,2449.92,2992,3124.63,2621.39,1892.86,1290.51,1290.51,1236.66,1236.66,1236.66
0.000209334	-6125310.21	0,6.63686e-07,1.53793e-06,2.68952e-06,4.20645e-06,6.20463e-06,8.83672e-06,1.23038e-05,1.68709e-05,2.28869e-05,3.08114e-05,4.12499e-05,5.50001e-05,7.31125e-05,9.6971e-05,0.000128399,0.000169797,0.000224328,0.00029616,0.000390779,0.000515417,0.000679597,0.000895861,0.00118074,0.00155599,0.00205028,0.0027014,0.00355908,0.00468885,0.00617705,0.00813737,0.0107196,inf	1.06225,1.06225,1.06226,2.53351,48.4383,131.946,67.0513,103.514,191.459,76.6716,69.4551,147.519,127.046,112.29,142.374,137.83,158.809,207.606,304.594,483.238,829.644,1502.98,2525.77,3216.45,3478.66,2804.71,1857.96,1153.62,1153.62,1132.33,1132.33,1132.33
0.000203903	-6125028.87	0,6.63686e-07,1.53793e-06,2.68952e-06,4.20645e-06,6.20463e-06,8.83672e-06,1.23038e-05,1.68709e-05,2.28869e-05,3.08114e-05,4.12499e-05,5.50001e-05,7.31125e-05,9.6971e-05,0.000128399,0.000169797,0.000224328,0.00029616,0.000390779,0.000515417,0.000679597,0.000895861,0.00118074,0.00155599,0.00205028,0.0027014,0.00355908,0.00468885,0.00617705,0.00813737,0.0107196,inf	1.06225,1.06225,1.06226,1.36557,44.2369,143.071,63.1697,96.5645,208.204,73.315,64.3739,155.334,131.348,113.001,149.255,140.374,159.081,203.423,292.97,460.314,796.781,1476.83,2579.7,3415.31,3824.42,2922.3,1773.58,1013.38,1013.38,1026.98,1026.98,1026.98
0.000198249	-6124831.97	0,6.63686e-07,1.53793e-06,2.68952e-06,4.20645e-06,6.20463e-06,8.83672e-06,1.23038e-05,1.68709e-05,2.28869e-05,3.08114e-05,4.12499e-05,5.50001e-05,7.31125e-05,9.6971e-05,0.000128399,0.000169797,0.000224328,0.00029616,0.000390779,0.000515417,0.000679597,0.000895861,0.00118074,0.00155599,0.00205028,0.0027014,0.00355908,0.00468885,0.00617705,0.00813737,0.0107196,inf	1.06225,1.06225,1.06226,1.06229,40.3877,155.695,59.7224,88.9064,224.64,69.9658,59.0892,161.428,134.515,112.619,155.647,143.369,161.171,202.69,286.56,443.718,769.78,1451.49,2618.37,3595.52,4166.77,2971.98,1664.09,888.104,888.104,932.608,932.608,932.608
0.000192471	-6124681.62	0,6.63686e-07,1.53793e-06,2.68952e-06,4.20645e-06,6.20463e-06,8.83672e-06,1.23038e-05,1.68709e-05,2.28869e-05,3.08114e-05,4.12499e-05,5.50001e-05,7.31125e-05,9.6971e-05,0.000128399,0.000169797,0.000224328,0.00029616,0.000390779,0.000515417,0.000679597,0.000895861,0.00118074,0.00155599,0.00205028,0.0027014,0.00355908,0.00468885,0.00617705,0.00813737,0.0107196,inf	1.06225,1.06225,1.06226,1.06225,36.7948,169.772,56.6543,80.9324,241.394,66.9801,54.0098,166.472,137.021,111.266,161.136,146.047,163.89,203.863,283.595,431.703,747.431,1427.78,2646.1,3762.08,4509.84,2957.71,1549.36,784.375,784.375,852.563,852.563,852.563
0.000186646	-6124558.76	0,6.63686e-07,1.53793e-06,2.68952e-06,4.20645e-06,6.20463e-06,8.83672e-06,1.23038e-05,1.68709e-05,2.28869e-05,3.08114e-05,4.12499e-05,5.50001e-05,7.31125e-05,9.6971e-05,0.000128399,0.000169797,0.000224328,0.00029616,0.000390779,0.000515417,0.000679597,0.000895861,0.00118074,0.00155599,0.00205028,0.0027014,0.00355908,0.00468885,0.00617705,0.00813737,0.0107196,inf	1.06225,1.06225,1.06226,1.06225,33.3713,185.046,53.8312,72.8626,258.596,64.4592,49.3047,171.005,139.347,109.24,165.715,148.097,166.574,205.983,282.924,423.077,728.808,1406,2665.81,3918.68,4856.92,2888.74,1441.93,701.886,701.886,786.139,786.139,786.139
0.000180829	-6124453.28	0,6.63686e-07,1.53793e-06,2.68952e-06,4.20645e-06,6.20463e-06,8.83672e-06,1.23038e-05,1.68709e-05,2.28869e-05,3.08114e-05,4.12499e-05,5.50001e-05,7.31125e-05,9.6971e-05,0.000128399,0.000169797,0.000224328,0.00029616,0.000390779,0.000515417,0.000679597,0.000895861,0.00118074,0.00155599,0.00205028,0.0027014,0.00355908,0.00468885,0.00617705,0.00813737,0.0107196,inf	1.06225,1.06225,1.06226,1.06225,30.0483,201.174,51.1752,64.8839,276.129,62.3989,45.0447,175.36,141.847,106.836,169.562,149.472,168.871,208.43,283.766,417.007,713.199,1386.21,2679.52,4068.09,5210.56,2777.41,1347.8,637.467,637.467,731.324,731.324,731.324
0.000175061	-6124359.66	0,6.63686e-07,1.53793e-06,2.68952e-06,4.20645e-06,6.20463e-06,8.83672e-06,1.23038e-05,1.68709e-05,2.28869e-05,3.08114e-05,4.12499e-05,5.50001e-05,7.31125e-05,9.6971e-05,0.000128399,0.000169797,0.000224328,0.00029616,0.000390779,0.000515417,0.000679597,0.000895861,0.00118074,0.00155599,0.00205028,0.0027014,0.00355908,0.00468885,0.00617705,0.00813737,0.0107196,inf	1.06225,1.06225,1.06226,1.06225,26.812,217.847,48.632,57.1497,293.8,60.77,41.2043,179.689,144.761,104.286,172.916,150.256,170.628,210.808,285.571,412.893,700.056,1368.36,2688.65,4212.49,5572.41,2636.68,1268.52,587.345,587.345,685.916,685.916,685.916
0.000169375	-6124274.71	0,6.63686e-07,1.53793e-06,2.68952e-06,4.20645e-06,6.20463e-06,8.83672e-06,1.23038e-05,1.68709e-05,2.28869e-05,3.08114e-05,4.12499e-05,5.50001e-05,7.31125e-05,9.6971e-05,0.000128399,0.000169797,0.000224328,0.00029616,0.000390779,0.000515417,0.000679597,0.000895861,0.00118074,0.00155599,0.00205028,0.0027014,0.00355908,0.00468885,0.00617705,0.00813737,0.0107196,inf	1.06225,1.06225,1.06226,1.06225,23.7153,234.767,46.1669,49.8157,311.41,59.5319,37.7409,184.023,148.226,101.747,176.014,150.595,171.814,212.87,287.945,410.297,688.955,1352.34,2694.26,4353.6,5943.11,2478.23,1203.24,548.071,548.071,647.927,647.927,647.927
0.000163795	-6124196.60	0,6.63686e-07,1.53793e-06,2.68952e-06,4.20645e-06,6.20463e-06,8.83672e-06,1.23038e-05,1.68709e-05,2.28869e-05,3.08114e-05,4.12499e-05,5.50001e-05,7.31125e-05,9.6971e-05,0.000128399,0.000169797,0.000224328,0.00029616,0.000390779,0.000515417,0.000679597,0.000895861,0.00118074,0.00155599,0.00205028,0.0027014,0.00355908,0.00468885,0.00617705,0.00813737,0.0107196,inf	1.06225,1.06225,1.06226,1.06225,20.7725,251.756,43.774,42.99,328.808,58.6314,34.6011,188.3,152.305,99.308,179.053,150.651,172.476,214.472,290.594,408.883,679.558,1338.04,2697.15,4492.92,6322.21,2311.59,1150.18,516.876,516.876,615.788,615.788,615.788
0.000158343	-6124124.22	0,6.63686e-07,1.53793e-06,2.68952e-06,4.20645e-06,6.20463e-06,8.83672e-06,1.23038e-05,1.68709e-05,2.28869e-05,3.08114e-05,4.12499e-05,5.50001e-05,7.31125e-05,9.6971e-05,0.000128399,0.000169797,0.000224328,0.00029616,0.000390779,0.000515417,0.000679597,0.000895861,0.00118074,0.00155599,0.00205028,0.0027014,0.00355908,0.00468885,0.00617705,0.00813737,0.0107196,inf	1.06224,1.06224,1.06226,1.06225,18.0111,268.583,41.4537,36.7617,345.901,58.0546,31.7582,192.44,157.021,97.0139,182.181,150.572,172.705,215.548,293.299,408.393,671.592,1325.33,2697.89,4631.77,6707.97,2143.96,1107.47,491.698,491.698,588.331,588.331,588.331
0.000153034	-6124056.86	0,6.63686e-07,1.53793e-06,2.68952e-06,4.20645e-06,6.20463e-06,8.83672e-06,1.23038e-05,1.68709e-05,2.28869e-05,3.08114e-05,4.12499e-05,5.50001e-05,7.31125e-05,9.6971e-05,0.000128399,0.000169797,0.000224328,0.00029616,0.000390779,0.000515417,0.000679597,0.000895861,0.00118074,0.00155599,0.00205028,0.0027014,0.00355908,0.00468885,0.00617705,0.00813737,0.0107196,inf	1.06224,1.06224,1.06226,1.06225,15.4598,285.085,39.2148,31.1783,362.648,57.8104,29.1523,196.349,162.371,94.8741,185.496,150.491,172.61,216.086,295.899,408.624,664.835,1314.08,2696.96,4771.4,7097.29,1980.49,1073.59,471.121,471.121,564.795,564.795,564.795
0.00014788	-6123994.08	0,6.63686e-07,1.53793e-06,2.68952e-06,4.20645e-06,6.20463e-06,8.83672e-06,1.23038e-05,1.68709e-05,2.28869e-05,3.08114e-05,4.12499e-05,5.50001e-05,7.31125e-05,9.6971e-05,0.000128399,0.000169797,0.000224328,0.00029616,0.000390779,0.000515417,0.000679597,0.000895861,0.00118074,0.00155599,0.00205028,0.0027014,0.00355908,0.00468885,0.00617705,0.00813737,0.0107196,inf	1.06224,1.06224,1.06226,1.06225,13.1572,301.146,37.0692,26.2407,379.045,57.8726,26.7763,199.915,168.329,92.8729,189.062,150.507,172.305,216.114,298.275,409.416,659.099,1304.19,2694.69,4913.04,7485.6,1824.64,1047.47,454.187,454.187,544.747,544.747,544.747
0.000142893	-6123935.60	0,6.63686e-07,1.53793e-06,2.68952e-06,4.20645e-06,6.20463e-06,8.83672e-06,1.23038e-05,1.68709e-05,2.28869e-05,3.08114e-05,4.12499e-05,5.50001e-05,7.31125e-05,9.6971e-05,0.000128399,0.000169797,0.000224328,0.00029616,0.000390779,0.000515417,0.000679597,0.000895861,0.00118074,0.00155599,0.00205028,0.0027014,0.00355908,0.00468885,0.00617705,0.00813737,0.0107196,inf	1.06224,1.06224,1.06226,1.06225,11.1014,316.645,35.0261,21.9316,395.1,58.2167,24.6056,203.072,174.875,90.9941,192.906,150.699,171.898,215.686,300.344,410.634,654.229,1295.54,2691.33,5057.91,7866.98,1678.49,1028.45,440.363,440.363,528.013,528.013,528.013
0.000138078	-6123881.23	0,6.63686e-07,1.53793e-06,2.68952e-06,4.20645e-06,6.20463e-06,8.83672e-06,1.23038e-05,1.68709e-05,2.28869e-05,3.08114e-05,4.12499e-05,5.50001e-05,7.31125e-05,9.6971e-05,0.000128399,0.000169797,0.000224328,0.00029616,0.000390779,0.000515417,0.000679597,0.000895861,0.00118074,0.00155599,0.00205028,0.0027014,0.00355908,0.00468885,0.00617705,0.00813737,0.0107196,inf	1.06224,1.06224,1.06226,1.06225,9.28896,331.611,33.0641,18.2243,410.833,58.896,22.6218,205.758,181.982,89.206,197.026,151.122,171.487,214.871,302.053,412.173,650.089,1288.03,2687.06,5207.28,8234.39,1543.09,1016.25,429.342,429.342,514.578,514.578,514.578
0.000133443	-6123830.86	0,6.63686e-07,1.53793e-06,2.68952e-06,4.20645e-06,6.20463e-06,8.83672e-06,1.23038e-05,1.68709e-05,2.28869e-05,3.08114e-05,4.12499e-05,5.50001e-05,7.31125e-05,9.6971e-05,0.000128399,0.000169797,0.000224328,0.00029616,0.000390779,0.000515417,0.000679597,0.000895861,0.00118074,0.00155599,0.00205028,0.0027014,0.00355908,0.00468885,0.00617705,0.00813737,0.0107196,inf	1.06224,1.06224,1.06226,1.06225,7.71565,345.956,31.2093,15.069,426.282,59.9117,20.8092,207.931,189.613,87.4806,201.403,151.812,171.153,213.75,303.372,413.946,646.563,1281.54,2681.99,5362.47,8580.15,1418.69,1010.6,420.945,420.945,504.452,504.452,504.452
