time_index	left_time_boundary	right_time_boundary	lambda
0	0	1.70296e-07	4.13992
1	1.70296e-07	3.94618e-07	4.13992
2	3.94618e-07	6.90105e-07	4.14016
3	6.90105e-07	1.07934e-06	65.6196
4	1.07934e-06	1.59205e-06	2342.36
5	1.59205e-06	2.26742e-06	13296.6
6	2.26742e-06	3.15705e-06	6726.31
7	3.15705e-06	4.32892e-06	2467.79
8	4.32892e-06	5.87256e-06	2967.33
9	5.87256e-06	7.90591e-06	4652.65
10	7.90591e-06	1.05843e-05	5575.85
11	1.05843e-05	1.41125e-05	5177.56
12	1.41125e-05	1.876e-05	4220.74
13	1.876e-05	2.48819e-05	3368.03
14	2.48819e-05	3.29459e-05	3196.17
15	3.29459e-05	4.35682e-05	3853.95
16	4.35682e-05	5.75605e-05	4608.22
17	5.75605e-05	7.59918e-05	4508.04
18	7.59918e-05	0.00010027	3780.54
19	0.00010027	0.000132251	3392.12
20	0.000132251	0.000174378	3718.18
21	0.000174378	0.00022987	4374.72
22	0.00022987	0.000302966	4683.07
23	0.000302966	0.000399252	4516.57
24	0.000399252	0.000526084	4381.38
25	0.000526084	0.000693153	4429.81
26	0.000693153	0.000913226	4435.46
27	0.000913226	0.00120312	5279.1
28	0.00120312	0.00158497	5279.1
29	0.00158497	0.00208797	169.473
30	0.00208797	0.00275055	169.473
31	0.00275055	inf	169.473
