time_index	left_time_boundary	right_time_boundary	lambda
0	0	4.81589e-05	439.209
1	4.81589e-05	0.000114055	439.209
2	0.000114055	0.000204223	341.046
3	0.000204223	0.0003276	772.179
4	0.0003276	0.000496419	539.225
5	0.000496419	0.000727416	513.472
6	0.000727416	0.00104349	733.555
7	0.00104349	0.00147599	862.985
8	0.00147599	0.00206777	923.555
9	0.00206777	0.00287752	1049.65
10	0.00287752	0.00398552	968.369
11	0.00398552	0.0055016	930.09
12	0.0055016	0.00757608	1320.46
13	0.00757608	0.0104146	107282
14	0.0104146	0.0142986	107282
15	0.0142986	inf	107282
