AIC = 2992897.6597584928386

y0 0.98544369103352424943
y0_prime 0
y1 1.1736584086082113565
y1_prime 0
y2 0.8505478719721081271
y2_prime 0
y3 2.0385687326802410801
y3_prime 0
rho 0.00027447230751884106386
rho.alpha 0.22334817067469059371
r_ii 0.99995438939169434267
theta 0.0050554520092265676362
