LogLikelihood = -1227009.7787894250359

y0 0.95974676178659545922
y0_prime 0
y1 1.0341630289208498805
y1_prime 0
y2 0.93137949846473955251
y2_prime 0
y3 1.7276945134199330756
y3_prime 0
rho 0.0027506782853048464786
theta 0.0050144053745397381902
