LogLikelihood = -614296.31015012669377

y0 0.94452614735480489028
y0_prime 0
y1 1.0441486296807531708
y1_prime 0
y2 0.93078874136111677817
y2_prime 0
y3 1.7285451677493552936
y3_prime 0
rho 0.0027589736127927515057
theta 0.0050220178937326730856
