LogLikelihood = -1323377.8938472380396

y0 0.74527907180909247487
y0_prime 0
y1 0.93032132364384134693
y1_prime 0
y2 0.74342749812780295482
y2_prime 0
y3 1.5917832895703594165
y3_prime 0
rho 0.00049635081400600626622
rho.alpha 0.11977606670230259156
r_ii 0.99999973879818693234
theta 0.0043347206860896046396
