time_index	left_time_boundary	right_time_boundary	lambda
0	0	4.9757e-06	425.624
1	4.9757e-06	1.14115e-05	425.624
2	1.14115e-05	1.97357e-05	425.624
3	1.97357e-05	3.05027e-05	425.624
4	3.05027e-05	4.4429e-05	425.624
5	4.4429e-05	6.24419e-05	425.624
6	6.24419e-05	8.57405e-05	425.624
7	8.57405e-05	0.000115876	425.624
8	0.000115876	0.000154854	425.624
9	0.000154854	0.00020527	425.624
10	0.00020527	0.000270479	425.624
11	0.000270479	0.000354824	425.624
12	0.000354824	0.000463919	425.624
13	0.000463919	0.000605027	425.624
14	0.000605027	0.000787541	425.624
15	0.000787541	0.00102361	425.624
16	0.00102361	0.00132895	425.624
17	0.00132895	0.0017239	425.624
18	0.0017239	0.00223473	425.624
19	0.00223473	0.00289546	425.624
20	0.00289546	0.00375008	425.624
21	0.00375008	0.00485547	425.624
22	0.00485547	0.00628523	425.624
23	0.00628523	0.00813454	425.624
24	0.00813454	0.0105265	425.624
25	0.0105265	0.0136204	425.624
26	0.0136204	0.0176221	425.624
27	0.0176221	0.0227981	425.624
28	0.0227981	0.0294929	425.624
29	0.0294929	inf	425.624
