0.000589341	-1852572.24	0,2.28365e-05,5.77747e-05,0.000111228,0.000193006,0.000318122,0.00050954,0.000802394,0.00125044,0.00193592,0.00298464,0.00458912,0.00704385,0.0107994,0.0165451,0.0253356,inf	220.324,220.324,411.011,372.295,372.165,383.717,404.069,389.889,391.199,394.782,407.694,414.84,389.681,489.853,489.853,489.853
0.000536997	-1852252.83	0,2.28365e-05,5.77747e-05,0.000111228,0.000193006,0.000318122,0.00050954,0.000802394,0.00125044,0.00193592,0.00298464,0.00458912,0.00704385,0.0107994,0.0165451,0.0253356,inf	151.235,151.235,451.361,367.624,363.08,377.587,417.013,388.142,390.353,395.558,421.174,437.378,382.445,640.508,640.508,640.508
0.000491198	-1852026.18	0,2.28365e-05,5.77747e-05,0.000111228,0.000193006,0.000318122,0.00050954,0.000802394,0.00125044,0.00193592,0.00298464,0.00458912,0.00704385,0.0107994,0.0165451,0.0253356,inf	113.735,113.735,493.628,367.264,358.805,370.897,428.923,385.685,388.886,393.709,430.563,456.611,369.014,907.109,907.109,907.109
0.000452303	-1851880.89	0,2.28365e-05,5.77747e-05,0.000111228,0.000193006,0.000318122,0.00050954,0.000802394,0.00125044,0.00193592,0.00298464,0.00458912,0.00704385,0.0107994,0.0165451,0.0253356,inf	89.8477,89.8477,532.227,368.742,358.336,364.078,440.192,383.43,388.156,391.054,437.367,473.367,351.627,1608.33,1608.33,1608.33
0.000420137	-1851813.42	0,2.28365e-05,5.77747e-05,0.000111228,0.000193006,0.000318122,0.00050954,0.000802394,0.00125044,0.00193592,0.00298464,0.00458912,0.00704385,0.0107994,0.0165451,0.0253356,inf	73.4294,73.4294,565.339,370.873,360.98,357.294,450.633,381.422,388.402,388.319,442.292,487.501,331.072,5896.97,5896.97,5896.97
0.000420122	-1851781.26	0,2.28365e-05,5.77747e-05,0.000111228,0.000193006,0.000318122,0.00050954,0.000802394,0.00125044,0.00193592,0.00298464,0.00458912,0.00704385,0.0107994,0.0165451,0.0253356,inf	62.5873,62.5873,602.638,378.859,372.249,356.364,469.973,386.989,397.115,392.116,452.961,506.073,312.073,49769.1,49769.1,49769.1
0.000420122	-1851820.97	0,2.28365e-05,5.77747e-05,0.000111228,0.000193006,0.000318122,0.00050954,0.000802394,0.00125044,0.00193592,0.00298464,0.00458912,0.00704385,0.0107994,0.0165451,0.0253356,inf	54.477,54.477,610.229,378.468,372.366,350.175,474.076,386.217,397.62,391.86,453.129,506.073,293.149,49774,49774,49774
0.000420119	-1851806.84	0,2.28365e-05,5.77747e-05,0.000111228,0.000193006,0.000318122,0.00050954,0.000802394,0.00125044,0.00193592,0.00298464,0.00458912,0.00704385,0.0107994,0.0165451,0.0253356,inf	49.2194,49.2194,615.068,378.071,372.626,344.925,477.508,385.216,398.274,391.645,453.269,506.073,277.192,49778.1,49778.1,49778.1
0.000420117	-1851795.66	0,2.28365e-05,5.77747e-05,0.000111228,0.000193006,0.000318122,0.00050954,0.000802394,0.00125044,0.00193592,0.00298464,0.00458912,0.00704385,0.0107994,0.0165451,0.0253356,inf	45.7671,45.7671,618.202,377.763,372.827,340.473,480.418,384.076,399.019,391.442,453.402,506.073,263.603,49781.6,49781.6,49781.6
0.000420116	-1851786.71	0,2.28365e-05,5.77747e-05,0.000111228,0.000193006,0.000318122,0.00050954,0.000802394,0.00125044,0.00193592,0.00298464,0.00458912,0.00704385,0.0107994,0.0165451,0.0253356,inf	43.476,43.476,620.329,377.603,372.932,336.712,482.876,382.86,399.814,391.231,453.539,506.073,251.932,49784.6,49784.6,49784.6
0.000420114	-1851779.48	0,2.28365e-05,5.77747e-05,0.000111228,0.000193006,0.000318122,0.00050954,0.000802394,0.00125044,0.00193592,0.00298464,0.00458912,0.00704385,0.0107994,0.0165451,0.0253356,inf	41.9471,41.9471,621.656,377.6,372.934,333.545,484.946,381.618,400.626,391.003,453.686,506.074,241.832,49787.2,49787.2,49787.2
0.000420112	-1851773.56	0,2.28365e-05,5.77747e-05,0.000111228,0.000193006,0.000318122,0.00050954,0.000802394,0.00125044,0.00193592,0.00298464,0.00458912,0.00704385,0.0107994,0.0165451,0.0253356,inf	40.9215,40.9215,622.546,377.6,372.934,330.894,486.679,380.387,401.431,390.755,453.848,506.074,233.034,49789.5,49789.5,49789.5
0.000420111	-1851768.68	0,2.28365e-05,5.77747e-05,0.000111228,0.000193006,0.000318122,0.00050954,0.000802394,0.00125044,0.00193592,0.00298464,0.00458912,0.00704385,0.0107994,0.0165451,0.0253356,inf	40.2302,40.2302,623.146,377.6,372.934,328.682,488.125,379.186,401.431,390.464,454.373,506.074,225.324,49791.5,49791.5,49791.5
0.000420111	-1851764.86	0,2.28365e-05,5.77747e-05,0.000111228,0.000193006,0.000318122,0.00050954,0.000802394,0.00125044,0.00193592,0.00298464,0.00458912,0.00704385,0.0107994,0.0165451,0.0253356,inf	39.7559,39.7559,623.56,377.6,372.934,326.839,489.329,378.212,402.068,390.238,454.521,506.074,218.529,49793.2,49793.2,49793.2
0.00042011	-1851761.47	0,2.28365e-05,5.77747e-05,0.000111228,0.000193006,0.000318122,0.00050954,0.000802394,0.00125044,0.00193592,0.00298464,0.00458912,0.00704385,0.0107994,0.0165451,0.0253356,inf	39.4438,39.4438,623.831,377.6,372.934,325.305,490.332,377.283,402.675,390.001,454.676,506.074,212.515,49794.8,49794.8,49794.8
0.00042011	-1851758.61	0,2.28365e-05,5.77747e-05,0.000111228,0.000193006,0.000318122,0.00050954,0.000802394,0.00125044,0.00193592,0.00298464,0.00458912,0.00704385,0.0107994,0.0165451,0.0253356,inf	39.2264,39.2264,624.02,377.6,372.934,324.032,491.165,376.413,403.244,389.755,454.837,506.074,207.171,49796.1,49796.1,49796.1
0.000420109	-1851756.19	0,2.28365e-05,5.77747e-05,0.000111228,0.000193006,0.000318122,0.00050954,0.000802394,0.00125044,0.00193592,0.00298464,0.00458912,0.00704385,0.0107994,0.0165451,0.0253356,inf	39.0787,39.0787,624.149,377.6,372.934,322.981,491.851,375.606,403.771,389.504,455.001,506.074,202.403,49797.4,49797.4,49797.4
0.000420109	-1851754.13	0,2.28365e-05,5.77747e-05,0.000111228,0.000193006,0.000318122,0.00050954,0.000802394,0.00125044,0.00193592,0.00298464,0.00458912,0.00704385,0.0107994,0.0165451,0.0253356,inf	38.9763,38.9763,624.238,377.6,372.934,322.117,492.416,374.866,404.255,389.251,455.166,506.074,198.134,49798.5,49798.5,49798.5
0.000420109	-1851752.36	0,2.28365e-05,5.77747e-05,0.000111228,0.000193006,0.000318122,0.00050954,0.000802394,0.00125044,0.00193592,0.00298464,0.00458912,0.00704385,0.0107994,0.0165451,0.0253356,inf	38.9083,38.9083,624.298,377.6,372.934,321.411,492.877,374.194,404.694,389.001,455.33,506.074,194.3,49799.5,49799.5,49799.5
0.000420109	-1851750.84	0,2.28365e-05,5.77747e-05,0.000111228,0.000193006,0.000318122,0.00050954,0.000802394,0.00125044,0.00193592,0.00298464,0.00458912,0.00704385,0.0107994,0.0165451,0.0253356,inf	38.8612,38.8612,624.34,377.6,372.934,320.836,493.253,373.59,405.089,388.755,455.49,506.074,190.847,49800.4,49800.4,49800.4
