6.95454e-05	-42974.98	0,9.42784e-06,2.23281e-05,3.99797e-05,6.41326e-05,9.71815e-05,0.000142403,0.00020428,0.000288947,0.000404798,0.000563319,0.000780225,0.00107702,0.00148313,0.00203882,0.00279918,inf	2956.14,2956.14,3848.86,4056.11,4036.94,3942.43,4060.99,3996.38,3901.75,3896.23,3963.31,3705.45,3653.54,4166.89,4166.89,4166.89
7.46194e-05	-42970.34	0,9.42784e-06,2.23281e-05,3.99797e-05,6.41326e-05,9.71815e-05,0.000142403,0.00020428,0.000288947,0.000404798,0.000563319,0.000780225,0.00107702,0.00148313,0.00203882,0.00279918,inf	2443.81,2443.81,3892.48,4173.14,4086.89,3913.45,4157.82,4053.53,3884.52,3874.67,4001.09,3560.06,3495.46,4467.63,4467.63,4467.63
7.92898e-05	-42966.99	0,9.42784e-06,2.23281e-05,3.99797e-05,6.41326e-05,9.71815e-05,0.000142403,0.00020428,0.000288947,0.000404798,0.000563319,0.000780225,0.00107702,0.00148313,0.00203882,0.00279918,inf	2126.35,2126.35,3982.79,4268.64,4096.7,3861.83,4231.11,4098.95,3865.3,3848.84,4024.68,3452.13,3389.75,4805.66,4805.66,4805.66
8.36091e-05	-42964.45	0,9.42784e-06,2.23281e-05,3.99797e-05,6.41326e-05,9.71815e-05,0.000142403,0.00020428,0.000288947,0.000404798,0.000563319,0.000780225,0.00107702,0.00148313,0.00203882,0.00279918,inf	1910.15,1910.15,4094.3,4347.54,4084.42,3803.32,4293.55,4139.41,3846.92,3821.63,4037.42,3369.91,3314.8,5187.48,5187.48,5187.48
8.76168e-05	-42962.47	0,9.42784e-06,2.23281e-05,3.99797e-05,6.41326e-05,9.71815e-05,0.000142403,0.00020428,0.000288947,0.000404798,0.000563319,0.000780225,0.00107702,0.00148313,0.00203882,0.00279918,inf	1752.8,1752.8,4214.26,4413.07,4059.21,3744.05,4350.18,4177.03,3829.95,3794.41,4041.91,3305.81,3258.68,5628.44,5628.44,5628.44
9.13453e-05	-42960.90	0,9.42784e-06,2.23281e-05,3.99797e-05,6.41326e-05,9.71815e-05,0.000142403,0.00020428,0.000288947,0.000404798,0.000563319,0.000780225,0.00107702,0.00148313,0.00203882,0.00279918,inf	1632.67,1632.67,4336.05,4467.81,4026.24,3686.47,4403.14,4212.47,3814.34,3767.89,4040.13,3254.73,3214.31,6156.94,6156.94,6156.94
9.48217e-05	-42959.67	0,9.42784e-06,2.23281e-05,3.99797e-05,6.41326e-05,9.71815e-05,0.000142403,0.00020428,0.000288947,0.000404798,0.000563319,0.000780225,0.00107702,0.00148313,0.00203882,0.00279918,inf	1537.71,1537.71,4456.22,4513.92,3988.66,3631.52,4453.43,4245.92,3799.88,3742.42,4033.63,3213.14,3177.29,6826.83,6826.83,6826.83
9.8069e-05	-42958.68	0,9.42784e-06,2.23281e-05,3.99797e-05,6.41326e-05,9.71815e-05,0.000142403,0.00020428,0.000288947,0.000404798,0.000563319,0.000780225,0.00107702,0.00148313,0.00203882,0.00279918,inf	1460.67,1460.67,4572.87,4553.1,3948.44,3579.45,4501.56,4277.44,3786.37,3718.21,4023.56,3178.46,3144.7,7752.45,7752.45,7752.45
0.000101107	-42957.91	0,9.42784e-06,2.23281e-05,3.99797e-05,6.41326e-05,9.71815e-05,0.000142403,0.00020428,0.000288947,0.000404798,0.000563319,0.000780225,0.00107702,0.00148313,0.00203882,0.00279918,inf	1396.9,1396.9,4684.98,4586.69,3906.83,3530.26,4547.84,4307.07,3773.63,3695.29,4010.73,3148.69,3114.49,9232.51,9232.51,9232.51
0.000103953	-42957.31	0,9.42784e-06,2.23281e-05,3.99797e-05,6.41326e-05,9.71815e-05,0.000142403,0.00020428,0.000288947,0.000404798,0.000563319,0.000780225,0.00107702,0.00148313,0.00203882,0.00279918,inf	1343.26,1343.26,4791.98,4615.72,3864.7,3483.78,4592.45,4334.84,3761.5,3673.61,3995.61,3122.02,3085.06,12422.6,12422.6,12422.6
0.000106619	-42956.86	0,9.42784e-06,2.23281e-05,3.99797e-05,6.41326e-05,9.71815e-05,0.000142403,0.00020428,0.000288947,0.000404798,0.000563319,0.000780225,0.00107702,0.00148313,0.00203882,0.00279918,inf	1297.56,1297.56,4893.55,4640.95,3822.57,3439.81,4635.5,4360.73,3749.77,3652.9,3978.11,3096.4,3054.72,27114.3,27114.3,27114.3
0.000106619	-42956.56	0,9.42784e-06,2.23281e-05,3.99797e-05,6.41326e-05,9.71815e-05,0.000142403,0.00020428,0.000288947,0.000404798,0.000563319,0.000780225,0.00107702,0.00148313,0.00203882,0.00279918,inf	1250.65,1250.65,4950.52,4625.56,3753.1,3376.13,4639.88,4353.72,3717.48,3613.64,3937.14,3056.97,3012.53,549067,549067,549067
0.000106619	-42956.97	0,9.42784e-06,2.23281e-05,3.99797e-05,6.41326e-05,9.71815e-05,0.000142403,0.00020428,0.000288947,0.000404798,0.000563319,0.000780225,0.00107702,0.00148313,0.00203882,0.00279918,inf	1207.84,1207.84,4997.28,4625.57,3707.38,3330.45,4663.49,4361.51,3696.8,3586.22,3906.14,3021.78,2971.01,549099,549099,549099
0.000106619	-42957.15	0,9.42784e-06,2.23281e-05,3.99797e-05,6.41326e-05,9.71815e-05,0.000142403,0.00020428,0.000288947,0.000404798,0.000563319,0.000780225,0.00107702,0.00148313,0.00203882,0.00279918,inf	1168.88,1168.88,5039.78,4625.57,3672.73,3292.14,4694.31,4372.97,3684.28,3568.26,3885.64,2994.93,2933.48,549123,549123,549123
0.000106619	-42957.26	0,9.42784e-06,2.23281e-05,3.99797e-05,6.41326e-05,9.71815e-05,0.000142403,0.00020428,0.000288947,0.000404798,0.000563319,0.000780225,0.00107702,0.00148313,0.00203882,0.00279918,inf	1133.39,1133.39,5078.34,4625.57,3644.76,3257.83,4727.23,4378.16,3675.99,3556.23,3872.34,2974.09,2899.13,549143,549143,549143
0.000106619	-42957.34	0,9.42784e-06,2.23281e-05,3.99797e-05,6.41326e-05,9.71815e-05,0.000142403,0.00020428,0.000288947,0.000404798,0.000563319,0.000780225,0.00107702,0.00148313,0.00203882,0.00279918,inf	1101,1101,5113.81,4625.57,3621.8,3226.08,4761.1,4379.32,3670.41,3548.28,3864.16,2957.78,2867.39,549159,549159,549159
0.000106619	-42957.39	0,9.42784e-06,2.23281e-05,3.99797e-05,6.41326e-05,9.71815e-05,0.000142403,0.00020428,0.000288947,0.000404798,0.000563319,0.000780225,0.00107702,0.00148313,0.00203882,0.00279918,inf	1071.33,1071.33,5145.67,4625.57,3602.46,3195.82,4762.13,4396.87,3666.4,3543.01,3859.58,2944.92,2837.84,549173,549173,549173
0.000106619	-42957.41	0,9.42784e-06,2.23281e-05,3.99797e-05,6.41326e-05,9.71815e-05,0.000142403,0.00020428,0.000288947,0.000404798,0.000563319,0.000780225,0.00107702,0.00148313,0.00203882,0.00279918,inf	1043.99,1043.99,5175.67,4625.57,3589.29,3169.76,4787.57,4397.33,3663.46,3539.49,3857.49,2934.67,2810.15,549185,549185,549185
0.000106619	-42957.42	0,9.42784e-06,2.23281e-05,3.99797e-05,6.41326e-05,9.71815e-05,0.000142403,0.00020428,0.000288947,0.000404798,0.000563319,0.000780225,0.00107702,0.00148313,0.00203882,0.00279918,inf	1018.75,1018.75,5203.1,4625.57,3578.56,3144.83,4811.52,4397.33,3661.11,3537.22,3857.23,2926.55,2784.09,549196,549196,549196
0.000106619	-42957.43	0,9.42784e-06,2.23281e-05,3.99797e-05,6.41326e-05,9.71815e-05,0.000142403,0.00020428,0.000288947,0.000404798,0.000563319,0.000780225,0.00107702,0.00148313,0.00203882,0.00279918,inf	995.423,995.423,5228.63,4625.57,3569.86,3120.77,4812.29,4397.33,3659.15,3535.82,3858.29,2920.12,2759.48,549206,549206,549206
