time_index	left_time_boundary	right_time_boundary	lambda
0	0	1.75614e-07	4.01446
1	1.75614e-07	4.06942e-07	4.01446
2	4.06942e-07	7.11658e-07	9.40075
3	7.11658e-07	1.11305e-06	2047.37
4	1.11305e-06	1.64177e-06	11876.2
5	1.64177e-06	2.33824e-06	5026.02
6	2.33824e-06	3.25565e-06	1829.61
7	3.25565e-06	4.46412e-06	1811.8
8	4.46412e-06	6.05597e-06	2622.23
9	6.05597e-06	8.15283e-06	3686.46
10	8.15283e-06	1.09149e-05	4247.99
11	1.09149e-05	1.45533e-05	3911.07
12	1.45533e-05	1.93459e-05	3583.5
13	1.93459e-05	2.5659e-05	3455.08
14	2.5659e-05	3.39749e-05	3690.02
15	3.39749e-05	4.49289e-05	4326.91
16	4.49289e-05	5.93582e-05	4621.95
17	5.93582e-05	7.83651e-05	4128.8
18	7.83651e-05	0.000103402	3537.43
19	0.000103402	0.000136382	3507.19
20	0.000136382	0.000179824	3978.31
21	0.000179824	0.000237049	4397.49
22	0.000237049	0.000312428	4499.56
23	0.000312428	0.000411721	4265.94
24	0.000411721	0.000542514	3803.23
25	0.000542514	0.000714802	3528.62
26	0.000714802	0.000941747	3614.09
27	0.000941747	0.00124069	3578.94
28	0.00124069	0.00163447	3578.94
29	0.00163447	0.00215318	2539.88
30	0.00215318	0.00283645	2539.88
31	0.00283645	inf	2539.88
