AIC = 1690020.1487233564258

y0 4.0135055306523304788e-12
y0_prime 0
y1 0.77547145208316692333
y1_prime 0
y2 1.8535303630238595396
y2_prime 0
y3 2.4908581225815913385
y3_prime 0
rho 0.0089468874459930278209
theta 0.00713608558562612693
