LogLikelihood = -7049.7028919680460604

y0 9.9999999999999997989e-13
y0_prime 0
y1 1.0255819759800839375
y1_prime 0
y2 1.6531381027599367783
y2_prime 0
y3 1.919651618516034608
y3_prime 0
rho 0.079308636528536285981
theta 6.6676800203419392269e-05
