LogLikelihood = -25507.297057620271516

y0 2.1707102651635395628e-11
y0_prime 0
y1 1.5000734742626979923
y1_prime 0
y2 2.1040958585205262743
y2_prime 0
y3 2.0107757972522053436
y3_prime 0
rho 1.2297340764754179675e-12
theta 4.677583028599907784e-05
