time_index	left_time_boundary	right_time_boundary	lambda
0	0	5.64375e-08	28.9462
1	5.64375e-08	1.54365e-07	28.9462
2	1.54365e-07	3.24282e-07	28.9462
3	3.24282e-07	6.19114e-07	28.9462
4	6.19114e-07	1.13069e-06	28.9462
5	1.13069e-06	2.01835e-06	28.9462
6	2.01835e-06	3.55856e-06	28.9462
7	3.55856e-06	6.23105e-06	28.9462
8	6.23105e-06	1.08682e-05	33.7157
9	1.08682e-05	1.89143e-05	7261.97
10	1.89143e-05	3.28755e-05	58893.3
11	3.28755e-05	5.71002e-05	25706.9
12	5.71002e-05	9.91335e-05	45878.1
13	9.91335e-05	0.000172067	28.9462
14	0.000172067	0.000298618	28.9462
15	0.000298618	inf	28.9462
