time_index	left_time_boundary	right_time_boundary	lambda
0	0	1.7675e-06	655.46
1	1.7675e-06	4.09574e-06	655.46
2	4.09574e-06	7.16261e-06	1240.31
3	7.16261e-06	1.12024e-05	626.955
4	1.12024e-05	1.65239e-05	665.857
5	1.65239e-05	2.35336e-05	630.265
6	2.35336e-05	3.27671e-05	601.575
7	3.27671e-05	4.49299e-05	618.586
8	4.49299e-05	6.09514e-05	676.498
9	6.09514e-05	8.20556e-05	749.21
10	8.20556e-05	0.000109855	796.853
11	0.000109855	0.000146474	795.363
12	0.000146474	0.00019471	749.978
13	0.00019471	0.000258249	675.763
14	0.000258249	0.000341946	588.705
15	0.000341946	0.000452195	505.063
16	0.000452195	0.000597421	436.496
17	0.000597421	0.00078872	387.177
18	0.00078872	0.00104071	355.845
19	0.00104071	0.00137264	339.049
20	0.00137264	0.00180987	333.024
21	0.00180987	0.00238582	334.378
22	0.00238582	0.00314449	340.325
23	0.00314449	0.00414384	348.646
24	0.00414384	0.00546023	357.366
25	0.00546023	0.00719425	364.422
26	0.00719425	0.00947838	367.76
27	0.00947838	0.0124872	360.591
28	0.0124872	0.0164505	360.591
29	0.0164505	0.0216711	307.513
30	0.0216711	0.028548	307.513
31	0.028548	inf	307.513
