time_index	left_time_boundary	right_time_boundary	lambda
0	0	1.90356e-06	411.554
1	1.90356e-06	4.45751e-06	411.554
2	4.45751e-06	7.88406e-06	411.554
3	7.88406e-06	1.24814e-05	411.554
4	1.24814e-05	1.86494e-05	411.554
5	1.86494e-05	2.69249e-05	411.554
6	2.69249e-05	3.80279e-05	411.554
7	3.80279e-05	5.29245e-05	411.554
8	5.29245e-05	7.29107e-05	411.554
9	7.29107e-05	9.97257e-05	411.554
10	9.97257e-05	0.000135702	411.554
11	0.000135702	0.000183971	411.554
12	0.000183971	0.000248733	411.554
13	0.000248733	0.00033562	411.554
14	0.00033562	0.000452195	411.554
15	0.000452195	0.0006086	411.554
16	0.0006086	0.000818444	411.554
17	0.000818444	0.00109999	411.554
18	0.00109999	0.00147772	411.554
19	0.00147772	0.00198452	411.554
20	0.00198452	0.00266447	411.554
21	0.00266447	0.00357674	411.554
22	0.00357674	0.00480071	411.554
23	0.00480071	0.00644287	411.554
24	0.00644287	0.0086461	411.554
25	0.0086461	0.0116021	411.554
26	0.0116021	0.0155681	411.554
27	0.0155681	0.0208892	411.554
28	0.0208892	0.0280283	411.554
29	0.0280283	inf	411.554
