time_index	left_time_boundary	right_time_boundary	lambda
0	0	2.17103e-05	178.706
1	2.17103e-05	5.49254e-05	178.706
2	5.49254e-05	0.000105742	518.991
3	0.000105742	0.000183488	316.503
4	0.000183488	0.000302433	230.226
5	0.000302433	0.00048441	241.384
6	0.00048441	0.000762822	303.862
7	0.000762822	0.00118877	308.437
8	0.00118877	0.00184044	363.265
9	0.00184044	0.00283745	431.557
10	0.00283745	0.0043628	531.27
11	0.0043628	0.00669647	458.36
12	0.00669647	0.0102668	291.925
13	0.0102668	0.0157292	400.504
14	0.0157292	0.0240861	400.504
15	0.0240861	inf	400.504
