LogLikelihood = -1411946.0413010492921

y0 0.90708880918281598049
y0_prime 0
y1 1.016071263322597007
y1_prime 0
y2 0.8047188458696639124
y2_prime 0
y3 1.6607886382190797381
y3_prime 0
rho 0.0023715430503258570251
rho.alpha 0.71123535603566367946
r_ii 0.99993561116280349488
theta 0.0046489539088689583318
