LogLikelihood = -1413049.1808322258294

y0 0.75488032214264455533
y0_prime 0
y1 0.92835751606173988471
y1_prime 0
y2 0.905370887958997006
y2_prime 0
y3 1.6843167167543395824
y3_prime 0
rho 0.0011968557491824061405
theta 0.0046489539088689583318
