0.000250032	-6735065.44	0,7.45468e-07,1.72743e-06,3.02093e-06,4.72478e-06,6.96918e-06,9.92561e-06,1.382e-05,1.89498e-05,2.57071e-05,3.4608e-05,4.63329e-05,6.17774e-05,8.21216e-05,0.00010892,0.00014422,0.000190719,0.00025197,0.000332653,0.000438932,0.000578928,0.000763338,0.00100625,0.00132623,0.00174772,0.00230293,0.00303427,0.00399764,0.00526662,0.0069382,0.00914008,0.0120405,inf	4.16949,4.16949,8.72554,14.0097,20.9608,30.1157,42.3613,59.4345,84.7093,124.58,184.396,237.529,249.84,292.423,352.627,417.806,500.099,584.649,686.946,829.157,1013.45,1162.52,1208.53,1219.4,1231.17,1203.37,1159.53,1117.61,1117.61,1102.26,1102.26,1102.26
0.00023773	-6727932.74	0,7.45468e-07,1.72743e-06,3.02093e-06,4.72478e-06,6.96918e-06,9.92561e-06,1.382e-05,1.89498e-05,2.57071e-05,3.4608e-05,4.63329e-05,6.17774e-05,8.21216e-05,0.00010892,0.00014422,0.000190719,0.00025197,0.000332653,0.000438932,0.000578928,0.000763338,0.00100625,0.00132623,0.00174772,0.00230293,0.00303427,0.00399764,0.00526662,0.0069382,0.00914008,0.0120405,inf	0.945716,0.945716,0.945725,0.945712,0.945711,1.29212,2.5085,4.79248,9.45365,21.1646,59.6523,107.205,107.527,133.782,192.683,253.289,347.157,435.867,551.73,737.008,1016.36,1279.02,1371.47,1409.91,1482.47,1457.89,1377.88,1295.34,1295.34,1280.91,1280.91,1280.91
0.000224204	-6725217.06	0,7.45468e-07,1.72743e-06,3.02093e-06,4.72478e-06,6.96918e-06,9.92561e-06,1.382e-05,1.89498e-05,2.57071e-05,3.4608e-05,4.63329e-05,6.17774e-05,8.21216e-05,0.00010892,0.00014422,0.000190719,0.00025197,0.000332653,0.000438932,0.000578928,0.000763338,0.00100625,0.00132623,0.00174772,0.00230293,0.00303427,0.00399764,0.00526662,0.0069382,0.00914008,0.0120405,inf	0.945712,0.945712,0.945713,0.945712,0.945711,0.945711,0.945711,0.945711,1.15561,4.02006,28.9474,72.1916,67.6007,76.4418,131.465,180.527,280.33,359.812,468.245,664.811,998.849,1344.22,1468.79,1532.25,1699.68,1707.15,1597.67,1472.32,1472.32,1479.61,1479.61,1479.61
0.00020955	-6723776.75	0,7.45468e-07,1.72743e-06,3.02093e-06,4.72478e-06,6.96918e-06,9.92561e-06,1.382e-05,1.89498e-05,2.57071e-05,3.4608e-05,4.63329e-05,6.17774e-05,8.21216e-05,0.00010892,0.00014422,0.000190719,0.00025197,0.000332653,0.000438932,0.000578928,0.000763338,0.00100625,0.00132623,0.00174772,0.00230293,0.00303427,0.00399764,0.00526662,0.0069382,0.00914008,0.0120405,inf	0.945711,0.945711,0.945713,0.945712,0.945711,0.945711,0.945711,0.945711,0.945711,0.945715,18.1903,61.9729,55.4552,49.8137,103.177,139.97,248.183,317.449,412.839,607.741,977.44,1386.29,1528.27,1606.24,1891.79,1954.48,1815.57,1635.53,1635.53,1683.41,1683.41,1683.41
0.00019419	-6722758.37	0,7.45468e-07,1.72743e-06,3.02093e-06,4.72478e-06,6.96918e-06,9.92561e-06,1.382e-05,1.89498e-05,2.57071e-05,3.4608e-05,4.63329e-05,6.17774e-05,8.21216e-05,0.00010892,0.00014422,0.000190719,0.00025197,0.000332653,0.000438932,0.000578928,0.000763338,0.00100625,0.00132623,0.00174772,0.00230293,0.00303427,0.00399764,0.00526662,0.0069382,0.00914008,0.0120405,inf	0.945711,0.945711,0.945712,0.945712,0.945711,0.945711,0.945711,0.945711,0.945711,0.945711,12.4051,59.1406,53.0358,34.8513,88.2748,112.584,231.228,292.415,374.088,560.978,957.106,1419.3,1567.03,1646.67,2068.76,2203.76,2022.72,1760.2,1760.2,1844.09,1844.09,1844.09
0.000178472	-6721880.47	0,7.45468e-07,1.72743e-06,3.02093e-06,4.72478e-06,6.96918e-06,9.92561e-06,1.382e-05,1.89498e-05,2.57071e-05,3.4608e-05,4.63329e-05,6.17774e-05,8.21216e-05,0.00010892,0.00014422,0.000190719,0.00025197,0.000332653,0.000438932,0.000578928,0.000763338,0.00100625,0.00132623,0.00174772,0.00230293,0.00303427,0.00399764,0.00526662,0.0069382,0.00914008,0.0120405,inf	0.945711,0.945711,0.945711,0.945712,0.945711,0.945711,0.945711,0.945711,0.945711,0.945711,8.23944,57.9755,54.8138,25.2466,79.5066,91.593,220.388,276.547,345.839,520.769,938.683,1450.3,1595.33,1663.29,2240.07,2457.57,2200.99,1811.21,1811.21,1871.01,1871.01,1871.01
0.000162639	-6721036.82	0,7.45468e-07,1.72743e-06,3.02093e-06,4.72478e-06,6.96918e-06,9.92561e-06,1.382e-05,1.89498e-05,2.57071e-05,3.4608e-05,4.63329e-05,6.17774e-05,8.21216e-05,0.00010892,0.00014422,0.000190719,0.00025197,0.000332653,0.000438932,0.000578928,0.000763338,0.00100625,0.00132623,0.00174772,0.00230293,0.00303427,0.00399764,0.00526662,0.0069382,0.00914008,0.0120405,inf	0.945711,0.945711,0.945711,0.945712,0.945711,0.945711,0.945711,0.945711,0.945711,0.945711,5.04104,56.3556,58.6712,18.5765,73.6797,74.7467,210.902,265.254,324.618,484.379,921.505,1482.87,1619.58,1662.28,2415.04,2715.6,2321.09,1758.95,1758.95,1715.55,1715.55,1715.55
0.000146862	-6720181.52	0,7.45468e-07,1.72743e-06,3.02093e-06,4.72478e-06,6.96918e-06,9.92561e-06,1.382e-05,1.89498e-05,2.57071e-05,3.4608e-05,4.63329e-05,6.17774e-05,8.21216e-05,0.00010892,0.00014422,0.000190719,0.00025197,0.000332653,0.000438932,0.000578928,0.000763338,0.00100625,0.00132623,0.00174772,0.00230293,0.00303427,0.00399764,0.00526662,0.0069382,0.00914008,0.0120405,inf	0.945711,0.945711,0.945711,0.945712,0.945711,0.945711,0.945711,0.945711,0.945711,0.945711,2.75998,53.6279,63.6352,13.7828,69.155,61.5292,200.237,255.67,308.429,449.863,904.364,1518.82,1644.2,1647.41,2603.76,2972.01,2347.64,1605.01,1605.01,1460.4,1460.4,1460.4
0.000131259	-6719291.07	0,7.45468e-07,1.72743e-06,3.02093e-06,4.72478e-06,6.96918e-06,9.92561e-06,1.382e-05,1.89498e-05,2.57071e-05,3.4608e-05,4.63329e-05,6.17774e-05,8.21216e-05,0.00010892,0.00014422,0.000190719,0.00025197,0.000332653,0.000438932,0.000578928,0.000763338,0.00100625,0.00132623,0.00174772,0.00230293,0.00303427,0.00399764,0.00526662,0.0069382,0.00914008,0.0120405,inf	0.945711,0.945711,0.945711,0.945712,0.945711,0.945711,0.945711,0.945711,0.945711,0.945711,1.34539,49.8479,69.3183,10.3187,64.985,51.8822,187.268,245.811,296.08,415.878,885.894,1558.97,1672.68,1620.83,2818.65,3211.15,2256.19,1387.68,1387.68,1203.44,1203.44,1203.44
0.000115926	-6718350.50	0,7.45468e-07,1.72743e-06,3.02093e-06,4.72478e-06,6.96918e-06,9.92561e-06,1.382e-05,1.89498e-05,2.57071e-05,3.4608e-05,4.63329e-05,6.17774e-05,8.21216e-05,0.00010892,0.00014422,0.000190719,0.00025197,0.000332653,0.000438932,0.000578928,0.000763338,0.00100625,0.00132623,0.00174772,0.00230293,0.00303427,0.00399764,0.00526662,0.0069382,0.00914008,0.0120405,inf	0.945711,0.945711,0.945711,0.945712,0.945711,0.945711,0.945711,0.945711,0.945711,0.945711,0.945746,45.6028,75.6369,7.82991,60.72,45.5951,171.815,234.246,286.739,381.574,864.773,1603.45,1708.38,1583.58,3076.79,3401.35,2053.8,1156.14,1156.14,984.152,984.152,984.152
0.000100949	-6717348.39	0,7.45468e-07,1.72743e-06,3.02093e-06,4.72478e-06,6.96918e-06,9.92561e-06,1.382e-05,1.89498e-05,2.57071e-05,3.4608e-05,4.63329e-05,6.17774e-05,8.21216e-05,0.00010892,0.00014422,0.000190719,0.00025197,0.000332653,0.000438932,0.000578928,0.000763338,0.00100625,0.00132623,0.00174772,0.00230293,0.00303427,0.00399764,0.00526662,0.0069382,0.00914008,0.0120405,inf	0.945711,0.945711,0.945711,0.945711,0.945711,0.945711,0.945711,0.945711,0.945711,0.945711,0.945746,41.8766,82.6684,6.06188,56.4358,42.2183,154.295,220.05,279.589,346.545,839.874,1651.85,1755.11,1535.88,3404.38,3490.11,1780.23,945.208,945.208,808.173,808.173,808.173
8.64123e-05	-6716275.10	0,7.45468e-07,1.72743e-06,3.02093e-06,4.72478e-06,6.96918e-06,9.92561e-06,1.382e-05,1.89498e-05,2.57071e-05,3.4608e-05,4.63329e-05,6.17774e-05,8.21216e-05,0.00010892,0.00014422,0.000190719,0.00025197,0.000332653,0.000438932,0.000578928,0.000763338,0.00100625,0.00132623,0.00174772,0.00230293,0.00303427,0.00399764,0.00526662,0.0069382,0.00914008,0.0120405,inf	0.945711,0.945711,0.945711,0.945711,0.945711,0.945711,0.945711,0.945711,0.945711,0.945711,0.945746,38.9833,90.5919,4.81346,52.318,41.2727,135.387,202.983,273.55,310.851,810.421,1703.15,1817.88,1477.26,3845.79,3411.17,1485.35,769.263,769.263,669.945,669.945,669.945
7.23999e-05	-6715122.41	0,7.45468e-07,1.72743e-06,3.02093e-06,4.72478e-06,6.96918e-06,9.92561e-06,1.382e-05,1.89498e-05,2.57071e-05,3.4608e-05,4.63329e-05,6.17774e-05,8.21216e-05,0.00010892,0.00014422,0.000190719,0.00025197,0.000332653,0.000438932,0.000578928,0.000763338,0.00100625,0.00132623,0.00174772,0.00230293,0.00303427,0.00399764,0.00526662,0.0069382,0.00914008,0.0120405,inf	0.945711,0.945711,0.945711,0.945711,0.945711,0.945711,0.945711,0.945711,0.945711,0.945711,0.945746,35.904,99.2818,3.90203,47.962,42.3669,115.607,183.719,267.093,275.033,776.117,1755.69,1903.78,1406.64,4484.07,3116.1,1205.79,627.635,627.635,561.173,561.173,561.173
5.89975e-05	-6713883.90	0,7.45468e-07,1.72743e-06,3.02093e-06,4.72478e-06,6.96918e-06,9.92561e-06,1.382e-05,1.89498e-05,2.57071e-05,3.4608e-05,4.63329e-05,6.17774e-05,8.21216e-05,0.00010892,0.00014422,0.000190719,0.00025197,0.000332653,0.000438932,0.000578928,0.000763338,0.00100625,0.00132623,0.00174772,0.00230293,0.00303427,0.00399764,0.00526662,0.0069382,0.00914008,0.0120405,inf	0.945711,0.945711,0.945711,0.945711,0.945711,0.945711,0.945711,0.945711,0.945711,0.945711,0.945714,30.4327,107.478,3.14745,41.8806,44.9341,94.8491,163.805,258.2,240.039,737.196,1807.22,2023.53,1322.43,5493.57,2618.46,955.604,510.412,510.412,472.36,472.36,472.36
4.63149e-05	-6712557.74	0,7.45468e-07,1.72743e-06,3.02093e-06,4.72478e-06,6.96918e-06,9.92561e-06,1.382e-05,1.89498e-05,2.57071e-05,3.4608e-05,4.63329e-05,6.17774e-05,8.21216e-05,0.00010892,0.00014422,0.000190719,0.00025197,0.000332653,0.000438932,0.000578928,0.000763338,0.00100625,0.00132623,0.00174772,0.00230293,0.00303427,0.00399764,0.00526662,0.0069382,0.00914008,0.0120405,inf	0.945711,0.945711,0.945711,0.945711,0.945711,0.945711,0.945711,0.945711,0.945711,0.945711,0.945713,20.9761,112.873,2.39628,33.1026,47.997,73.0459,144.873,244.676,206.861,694.463,1855.84,2194.29,1222.47,7298.89,2013.62,729.259,400.902,400.902,390.319,390.319,390.319
3.45593e-05	-6711156.88	0,7.45468e-07,1.72743e-06,3.02093e-06,4.72478e-06,6.96918e-06,9.92561e-06,1.382e-05,1.89498e-05,2.57071e-05,3.4608e-05,4.63329e-05,6.17774e-05,8.21216e-05,0.00010892,0.00014422,0.000190719,0.00025197,0.000332653,0.000438932,0.000578928,0.000763338,0.00100625,0.00132623,0.00174772,0.00230293,0.00303427,0.00399764,0.00526662,0.0069382,0.00914008,0.0120405,inf	0.945711,0.945711,0.945711,0.945711,0.945711,0.945711,0.945711,0.945711,0.945711,0.945711,0.945713,10.0393,115.744,1.2916,22.9323,50.994,52.0407,128.176,225.747,175.867,649.725,1903.47,2445.48,1102.87,11241.7,1489.75,511.593,276.187,276.187,290.504,290.504,290.504
2.41262e-05	-6709729.42	0,7.45468e-07,1.72743e-06,3.02093e-06,4.72478e-06,6.96918e-06,9.92561e-06,1.382e-05,1.89498e-05,2.57071e-05,3.4608e-05,4.63329e-05,6.17774e-05,8.21216e-05,0.00010892,0.00014422,0.000190719,0.00025197,0.000332653,0.000438932,0.000578928,0.000763338,0.00100625,0.00132623,0.00174772,0.00230293,0.00303427,0.00399764,0.00526662,0.0069382,0.00914008,0.0120405,inf	0.945711,0.945711,0.945711,0.945711,0.945711,0.945711,0.945711,0.945711,0.945711,0.945711,0.945711,2.99953,122.402,0.945711,13.5648,54.4197,34.5625,115.666,205.554,147.429,606.645,1962.95,2828.12,954.11,26435.5,1393.02,294.744,141.34,141.34,153.649,153.649,153.649
2.12392e-05	-6708395.64	0,7.45468e-07,1.72743e-06,3.02093e-06,4.72478e-06,6.96918e-06,9.92561e-06,1.382e-05,1.89498e-05,2.57071e-05,3.4608e-05,4.63329e-05,6.17774e-05,8.21216e-05,0.00010892,0.00014422,0.000190719,0.00025197,0.000332653,0.000438932,0.000578928,0.000763338,0.00100625,0.00132623,0.00174772,0.00230293,0.00303427,0.00399764,0.00526662,0.0069382,0.00914008,0.0120405,inf	0.945711,0.945711,0.945711,0.945711,0.945711,0.945711,0.945711,0.945711,0.945711,0.945711,0.945711,0.945713,148.582,0.945711,6.82866,61.8214,22.5701,114.247,198.888,125.748,566.968,2207.78,3675.92,691.758,1.30018e+06,1393.16,232.763,118.3,118.3,152.866,152.866,152.866
