LogLikelihood = -863599.72469499218278

y0 0.70532531111058305306
y0_prime 0
y1 0.90764180522999804435
y1_prime 0
y2 1.2285841708459852573
y2_prime 0
y3 1.4409508672334778723
y3_prime 0
rho 0.0024510324949331761639
theta 0.002510714059998735842
