LogLikelihood = -1541105.4328211129177

y0 1.3090410727394954371
y0_prime 0
y1 0.91768596218284126387
y1_prime 0
y2 1.0881638969614906287
y2_prime 0
y3 1.5647930478693599099
y3_prime 0
rho 9.8346767366764569645e-05
theta 0.0052395265419870832441
