LogLikelihood = -37478.868021125745145

y0 0.9056852112288682477
y0_prime 0
y1 1.2971892975251029245
y1_prime 0
y2 0.65198422644802922488
y2_prime 0
y3 1.8645669085427791778
y3_prime 0
rho 0.00010592187773429028374
theta 0.00044562441457380973101
