LogLikelihood = -202958.22364099562401

y0 0.77986654542354050257
y0_prime 0
y1 1.2313412966484256206
y1_prime 0
y2 0.78017161615407482067
y2_prime 0
y3 1.8263390715367924244
y3_prime 0
rho 0.00014365451051584414801
rho.alpha 0.66995175205987267386
r_ii 0.9998912687174035252
theta 0.0004838917942733736541
