0.000491432	-12182495.48	0,3.70322e-06,1.01288e-05,2.12782e-05,4.0624e-05,7.41918e-05,0.000132437,0.0002335,0.000408859,0.000713132,0.00124109,0.00215717,0.00374671,0.00650478,0.0112904,0.0195942,inf	738.3,738.3,139.977,221.525,302.792,366.225,384.412,395.408,431.154,412.369,401.345,410.612,442.16,420.669,420.669,420.669
0.00043635	-12178729.12	0,3.70322e-06,1.01288e-05,2.12782e-05,4.0624e-05,7.41918e-05,0.000132437,0.0002335,0.000408859,0.000713132,0.00124109,0.00215717,0.00374671,0.00650478,0.0112904,0.0195942,inf	915.322,915.322,70.6591,169.225,275.299,356.254,374.215,374.302,444.134,407.791,386.773,398.372,456.772,407.942,407.942,407.942
0.000393415	-12176517.85	0,3.70322e-06,1.01288e-05,2.12782e-05,4.0624e-05,7.41918e-05,0.000132437,0.0002335,0.000408859,0.000713132,0.00124109,0.00215717,0.00374671,0.00650478,0.0112904,0.0195942,inf	1040.08,1040.08,43.374,149.427,274.742,361.02,377.533,357.158,459.777,408.846,380.848,391.858,477.912,397.047,397.047,397.047
0.000359561	-12175083.12	0,3.70322e-06,1.01288e-05,2.12782e-05,4.0624e-05,7.41918e-05,0.000132437,0.0002335,0.000408859,0.000713132,0.00124109,0.00215717,0.00374671,0.00650478,0.0112904,0.0195942,inf	1134.42,1134.42,29.2576,138.499,281.654,368.327,386.53,341.142,473.554,410.489,378.502,386.672,502.331,386.234,386.234,386.234
0.000333008	-12174200.67	0,3.70322e-06,1.01288e-05,2.12782e-05,4.0624e-05,7.41918e-05,0.000132437,0.0002335,0.000408859,0.000713132,0.00124109,0.00215717,0.00374671,0.00650478,0.0112904,0.0195942,inf	1208.51,1208.51,20.8906,130.709,290.142,374.563,398.544,326.445,485.013,411.502,378.072,381.316,528.014,375.264,375.264,375.264
0.000312387	-12173725.75	0,3.70322e-06,1.01288e-05,2.12782e-05,4.0624e-05,7.41918e-05,0.000132437,0.0002335,0.000408859,0.000713132,0.00124109,0.00215717,0.00374671,0.00650478,0.0112904,0.0195942,inf	1268.14,1268.14,15.5261,124.505,298.2,378.634,412.087,313.356,494.532,411.704,378.925,375.461,553.466,364.433,364.433,364.433
0.000296535	-12173537.47	0,3.70322e-06,1.01288e-05,2.12782e-05,4.0624e-05,7.41918e-05,0.000132437,0.0002335,0.000408859,0.000713132,0.00124109,0.00215717,0.00374671,0.00650478,0.0112904,0.0195942,inf	1316.12,1316.12,11.9026,119.431,305.269,380.39,426.065,301.919,502.522,411.156,380.72,369.24,577.554,354.139,354.139,354.139
0.000284456	-12173535.48	0,3.70322e-06,1.01288e-05,2.12782e-05,4.0624e-05,7.41918e-05,0.000132437,0.0002335,0.000408859,0.000713132,0.00124109,0.00215717,0.00374671,0.00650478,0.0112904,0.0195942,inf	1354.53,1354.53,9.34574,115.303,311.265,380.123,439.693,292.019,509.311,409.978,383.188,362.926,599.503,344.697,344.697,344.697
0.000275317	-12173642.12	0,3.70322e-06,1.01288e-05,2.12782e-05,4.0624e-05,7.41918e-05,0.000132437,0.0002335,0.000408859,0.000713132,0.00124109,0.00215717,0.00374671,0.00650478,0.0112904,0.0195942,inf	1384.8,1384.8,7.47559,111.991,316.337,378.301,452.455,283.489,515.155,408.302,386.092,356.788,618.892,336.292,336.292,336.292
0.000268444	-12173802.12	0,3.70322e-06,1.01288e-05,2.12782e-05,4.0624e-05,7.41918e-05,0.000132437,0.0002335,0.000408859,0.000713132,0.00124109,0.00215717,0.00374671,0.00650478,0.0112904,0.0195942,inf	1408.3,1408.3,6.06861,109.355,320.627,375.415,464.056,276.147,520.25,406.262,389.225,351.025,635.6,328.985,328.985,328.985
0.000263295	-12173979.49	0,3.70322e-06,1.01288e-05,2.12782e-05,4.0624e-05,7.41918e-05,0.000132437,0.0002335,0.000408859,0.000713132,0.00124109,0.00215717,0.00374671,0.00650478,0.0112904,0.0195942,inf	1426.42,1426.42,4.9831,107.286,324.3,371.901,474.374,269.822,524.75,403.984,392.416,345.763,649.722,322.75,322.75,322.75
0.000259451	-12174152.97	0,3.70322e-06,1.01288e-05,2.12782e-05,4.0624e-05,7.41918e-05,0.000132437,0.0002335,0.000408859,0.000713132,0.00124109,0.00215717,0.00374671,0.00650478,0.0112904,0.0195942,inf	1440.22,1440.22,4.13225,105.655,327.468,368.1,483.41,264.365,528.767,401.582,395.537,341.057,661.49,317.504,317.504,317.504
0.000256589	-12174311.51	0,3.70322e-06,1.01288e-05,2.12782e-05,4.0624e-05,7.41918e-05,0.000132437,0.0002335,0.000408859,0.000713132,0.00124109,0.00215717,0.00374671,0.00650478,0.0112904,0.0195942,inf	1450.73,1450.73,3.44698,104.361,330.227,364.258,491.236,259.642,532.386,399.149,398.5,336.915,671.196,313.137,313.137,313.137
0.000254467	-12174450.54	0,3.70322e-06,1.01288e-05,2.12782e-05,4.0624e-05,7.41918e-05,0.000132437,0.0002335,0.000408859,0.000713132,0.00124109,0.00215717,0.00374671,0.00650478,0.0112904,0.0195942,inf	1459.46,1459.46,2.89613,103.378,332.808,360.73,498.189,255.652,535.84,396.826,401.281,333.299,679.193,309.563,309.563,309.563
0.000252887	-12174570.00	0,3.70322e-06,1.01288e-05,2.12782e-05,4.0624e-05,7.41918e-05,0.000132437,0.0002335,0.000408859,0.000713132,0.00124109,0.00215717,0.00374671,0.00650478,0.0112904,0.0195942,inf	1465.23,1465.23,2.44371,102.529,334.889,357.235,503.925,252.083,538.815,394.521,403.791,330.185,685.682,306.605,306.605,306.605
0.000251714	-12174669.78	0,3.70322e-06,1.01288e-05,2.12782e-05,4.0624e-05,7.41918e-05,0.000132437,0.0002335,0.000408859,0.000713132,0.00124109,0.00215717,0.00374671,0.00650478,0.0112904,0.0195942,inf	1469.53,1469.53,2.07029,101.83,336.691,354.015,508.789,248.95,541.489,392.337,406.044,327.527,690.945,304.178,304.178,304.178
0.000250845	-12174752.44	0,3.70322e-06,1.01288e-05,2.12782e-05,4.0624e-05,7.41918e-05,0.000132437,0.0002335,0.000408859,0.000713132,0.00124109,0.00215717,0.00374671,0.00650478,0.0112904,0.0195942,inf	1473.43,1473.43,1.75643,101.252,338.266,351.107,512.933,246.204,543.914,390.309,408.049,325.269,695.212,302.194,302.194,302.194
0.000250201	-12174820.45	0,3.70322e-06,1.01288e-05,2.12782e-05,4.0624e-05,7.41918e-05,0.000132437,0.0002335,0.000408859,0.000713132,0.00124109,0.00215717,0.00374671,0.00650478,0.0112904,0.0195942,inf	1475.23,1475.23,1.49479,100.764,339.644,348.519,516.476,243.797,546.115,388.447,409.817,323.358,698.671,300.576,300.576,300.576
0.000249725	-12174876.20	0,3.70322e-06,1.01288e-05,2.12782e-05,4.0624e-05,7.41918e-05,0.000132437,0.0002335,0.000408859,0.000713132,0.00124109,0.00215717,0.00374671,0.00650478,0.0112904,0.0195942,inf	1477.35,1477.35,1.27655,100.351,340.841,346.237,519.506,241.678,548.11,386.757,411.365,321.745,701.476,299.26,299.26,299.26
0.000249372	-12174921.75	0,3.70322e-06,1.01288e-05,2.12782e-05,4.0624e-05,7.41918e-05,0.000132437,0.0002335,0.000408859,0.000713132,0.00124109,0.00215717,0.00374671,0.00650478,0.0112904,0.0195942,inf	1478.96,1478.96,1.09072,99.9864,341.883,344.227,522.103,239.81,549.911,385.235,412.716,320.386,703.752,298.189,298.189,298.189
