time_index	left_time_boundary	right_time_boundary	lambda
0	0	1.59811e-06	4451.51
1	1.59811e-06	3.70322e-06	4451.51
2	3.70322e-06	6.47618e-06	2244.78
3	6.47618e-06	1.01288e-05	97.8311
4	1.01288e-05	1.49403e-05	9.4113
5	1.49403e-05	2.12782e-05	19.2519
6	2.12782e-05	2.96268e-05	153.93
7	2.96268e-05	4.0624e-05	107.892
8	4.0624e-05	5.51101e-05	294.876
9	5.51101e-05	7.41918e-05	348.775
10	7.41918e-05	9.93271e-05	256.631
11	9.93271e-05	0.000132437	425.252
12	0.000132437	0.00017605	505.79
13	0.00017605	0.0002335	471.949
14	0.0002335	0.000309175	289
15	0.000309175	0.000408859	285.335
16	0.000408859	0.000540167	440.543
17	0.000540167	0.000713132	535.296
18	0.000713132	0.000940971	394.8
19	0.000940971	0.00124109	394.55
20	0.00124109	0.00163642	395.898
21	0.00163642	0.00215717	339.83
22	0.00215717	0.00284313	392.037
23	0.00284313	0.00374671	390.803
24	0.00374671	0.00493695	439.472
25	0.00493695	0.00650478	570.924
26	0.00650478	0.00857002	289.32
27	0.00857002	0.0112904	707.216
28	0.0112904	0.0148739	707.216
29	0.0148739	0.0195942	3.40822
30	0.0195942	0.0258121	3.40822
31	0.0258121	inf	3.40822
