time_index	left_time_boundary	right_time_boundary	lambda
0	0	4.24654e-05	94.4637
1	4.24654e-05	9.21392e-05	94.4637
2	9.21392e-05	0.000150245	220.346
3	0.000150245	0.000218215	160.233
4	0.000218215	0.000297722	134.108
5	0.000297722	0.000390726	132.259
6	0.000390726	0.000499517	144.983
7	0.000499517	0.000626775	168.12
8	0.000626775	0.000775635	200.013
9	0.000775635	0.000949765	240.279
10	0.000949765	0.00115345	289.726
11	0.00115345	0.00139172	349.542
12	0.00139172	0.00167043	419.728
13	0.00167043	0.00199645	496.351
14	0.00199645	0.00237781	569.766
15	0.00237781	0.00282391	628.133
16	0.00282391	0.00334573	663.701
17	0.00334573	0.00395613	675.012
18	0.00395613	0.00467015	663.539
19	0.00467015	0.00550537	630.493
20	0.00550537	0.00648238	580.083
21	0.00648238	0.00762522	521.97
22	0.00762522	0.00896207	466.464
23	0.00896207	0.0105258	418.795
24	0.0105258	0.0123551	379.781
25	0.0123551	0.0144948	348.765
26	0.0144948	0.0169978	326.438
27	0.0169978	0.0199256	319.326
28	0.0199256	0.0233504	319.326
29	0.0233504	0.0273566	407.443
30	0.0273566	0.0320429	407.443
31	0.0320429	inf	407.443
