0.000727794	-18749939.78	0,2.20484e-05,5.57809e-05,0.000107389,0.000186346,0.000307143,0.000491955,0.000774703,0.00120729,0.00186911,0.00288164,0.00443074,0.00680076,0.0104267,0.0159741,0.0244613,inf	173.886,173.886,177.297,181.706,190.472,210.614,248.532,313.085,418.523,532.58,521.365,473.14,438.458,414.181,414.181,414.181
0.000832035	-18723343.10	0,2.20484e-05,5.57809e-05,0.000107389,0.000186346,0.000307143,0.000491955,0.000774703,0.00120729,0.00186911,0.00288164,0.00443074,0.00680076,0.0104267,0.0159741,0.0244613,inf	154.504,154.504,146.591,140.509,140.041,155.958,197.022,275.217,414.3,600.189,597.516,521.556,460.87,416.702,416.702,416.702
0.000930008	-18711786.44	0,2.20484e-05,5.57809e-05,0.000107389,0.000186346,0.000307143,0.000491955,0.000774703,0.00120729,0.00186911,0.00288164,0.00443074,0.00680076,0.0104267,0.0159741,0.0244613,inf	164.282,164.282,150.02,134.074,124.318,134.926,174.8,256.395,406.927,633.196,643.196,552.062,472.442,412.452,412.452,412.452
0.00102238	-18704859.95	0,2.20484e-05,5.57809e-05,0.000107389,0.000186346,0.000307143,0.000491955,0.000774703,0.00120729,0.00186911,0.00288164,0.00443074,0.00680076,0.0104267,0.0159741,0.0244613,inf	175.346,175.346,161.754,137.759,119.913,126.295,164.804,247.003,400.648,648.574,669.954,570.568,477.108,404.569,404.569,404.569
0.00111046	-18699799.03	0,2.20484e-05,5.57809e-05,0.000107389,0.000186346,0.000307143,0.000491955,0.000774703,0.00120729,0.00186911,0.00288164,0.00443074,0.00680076,0.0104267,0.0159741,0.0244613,inf	180.25,180.25,173.757,144.206,119.79,123.155,160.802,242.746,395.942,654.724,685.073,581.234,477.538,394.995,394.995,394.995
0.00119532	-18695667.14	0,2.20484e-05,5.57809e-05,0.000107389,0.000186346,0.000307143,0.000491955,0.000774703,0.00120729,0.00186911,0.00288164,0.00443074,0.00680076,0.0104267,0.0159741,0.0244613,inf	178.744,178.744,183.268,150.735,121.342,122.758,160.087,241.517,392.611,655.933,692.944,586.794,475.436,384.858,384.858,384.858
0.00127772	-18692086.50	0,2.20484e-05,5.57809e-05,0.000107389,0.000186346,0.000307143,0.000491955,0.000774703,0.00120729,0.00186911,0.00288164,0.00443074,0.00680076,0.0104267,0.0159741,0.0244613,inf	173.009,173.009,189.723,156.367,123.477,123.833,161.303,242.154,390.34,654.442,696.229,589.024,471.879,374.789,374.789,374.789
0.00135816	-18688880.76	0,2.20484e-05,5.57809e-05,0.000107389,0.000186346,0.000307143,0.000491955,0.000774703,0.00120729,0.00186911,0.00288164,0.00443074,0.00680076,0.0104267,0.0159741,0.0244613,inf	165.347,165.347,193.473,160.84,125.712,125.734,163.704,243.97,388.852,651.469,696.576,589.078,467.541,365.122,365.122,365.122
0.00143702	-18685956.70	0,2.20484e-05,5.57809e-05,0.000107389,0.000186346,0.000307143,0.000491955,0.000774703,0.00120729,0.00186911,0.00288164,0.00443074,0.00680076,0.0104267,0.0159741,0.0244613,inf	157.395,157.395,195.154,164.193,127.839,128.102,166.851,246.541,387.932,647.697,695.025,587.719,462.841,356.023,356.023,356.023
0.00151452	-18683259.33	0,2.20484e-05,5.57809e-05,0.000107389,0.000186346,0.000307143,0.000491955,0.000774703,0.00120729,0.00186911,0.00288164,0.00443074,0.00680076,0.0104267,0.0159741,0.0244613,inf	150.085,150.085,195.396,166.586,129.776,130.734,170.469,249.589,387.419,643.519,692.248,585.449,458.04,347.553,347.553,347.553
0.00159085	-18680753.03	0,2.20484e-05,5.57809e-05,0.000107389,0.000186346,0.000307143,0.000491955,0.000774703,0.00120729,0.00186911,0.00288164,0.00443074,0.00680076,0.0104267,0.0159741,0.0244613,inf	143.838,143.838,194.723,168.2,131.503,133.507,174.381,252.931,387.196,639.167,688.688,582.608,453.294,339.721,339.721,339.721
0.00166611	-18678412.72	0,2.20484e-05,5.57809e-05,0.000107389,0.000186346,0.000307143,0.000491955,0.000774703,0.00120729,0.00186911,0.00288164,0.00443074,0.00680076,0.0104267,0.0159741,0.0244613,inf	138.772,138.772,193.527,169.211,133.03,136.344,178.467,256.444,387.177,634.776,684.639,579.423,448.697,332.504,332.504,332.504
0.0017404	-18676219.57	0,2.20484e-05,5.57809e-05,0.000107389,0.000186346,0.000307143,0.000491955,0.000774703,0.00120729,0.00186911,0.00288164,0.00443074,0.00680076,0.0104267,0.0159741,0.0244613,inf	134.843,134.843,192.089,169.768,134.378,139.199,182.647,260.041,387.299,630.428,680.301,576.047,444.298,325.864,325.864,325.864
0.00181378	-18674158.68	0,2.20484e-05,5.57809e-05,0.000107389,0.000186346,0.000307143,0.000491955,0.000774703,0.00120729,0.00186911,0.00288164,0.00443074,0.00680076,0.0104267,0.0159741,0.0244613,inf	131.924,131.924,190.597,169.994,135.573,142.044,186.865,263.663,387.519,626.172,675.809,572.584,440.124,319.756,319.756,319.756
0.00188629	-18672217.78	0,2.20484e-05,5.57809e-05,0.000107389,0.000186346,0.000307143,0.000491955,0.000774703,0.00120729,0.00186911,0.00288164,0.00443074,0.00680076,0.0104267,0.0159741,0.0244613,inf	129.872,129.872,189.175,169.988,136.642,144.861,191.081,267.27,387.801,622.034,671.257,569.106,436.182,314.135,314.135,314.135
0.00195797	-18670386.49	0,2.20484e-05,5.57809e-05,0.000107389,0.000186346,0.000307143,0.000491955,0.000774703,0.00120729,0.00186911,0.00288164,0.00443074,0.00680076,0.0104267,0.0159741,0.0244613,inf	128.539,128.539,187.899,169.823,137.609,147.64,195.267,270.832,388.124,618.028,666.709,565.658,432.471,308.953,308.953,308.953
0.00202883	-18668655.85	0,2.20484e-05,5.57809e-05,0.000107389,0.000186346,0.000307143,0.000491955,0.000774703,0.00120729,0.00186911,0.00288164,0.00443074,0.00680076,0.0104267,0.0159741,0.0244613,inf	127.794,127.794,186.812,169.557,138.493,150.374,199.405,274.33,388.468,614.162,662.207,562.272,428.983,304.171,304.171,304.171
0.00209892	-18667017.97	0,2.20484e-05,5.57809e-05,0.000107389,0.000186346,0.000307143,0.000491955,0.000774703,0.00120729,0.00186911,0.00288164,0.00443074,0.00680076,0.0104267,0.0159741,0.0244613,inf	127.52,127.52,185.935,169.234,139.313,153.06,203.481,277.75,388.821,610.435,657.782,558.967,425.707,299.747,299.747,299.747
0.00216823	-18665465.87	0,2.20484e-05,5.57809e-05,0.000107389,0.000186346,0.000307143,0.000491955,0.000774703,0.00120729,0.00186911,0.00288164,0.00443074,0.00680076,0.0104267,0.0159741,0.0244613,inf	127.617,127.617,185.277,168.885,140.085,155.698,207.485,281.083,389.175,606.847,653.452,555.756,422.63,295.648,295.648,295.648
0.00223678	-18663993.29	0,2.20484e-05,5.57809e-05,0.000107389,0.000186346,0.000307143,0.000491955,0.000774703,0.00120729,0.00186911,0.00288164,0.00443074,0.00680076,0.0104267,0.0159741,0.0244613,inf	128.005,128.005,184.833,168.532,140.82,158.287,211.411,284.325,389.523,603.393,649.231,552.646,419.737,291.841,291.841,291.841
