0.00074112	-46848870.75	0,1.03121e-05,2.7018e-05,5.40821e-05,9.79269e-05,0.000168957,0.000284027,0.000470445,0.000772448,0.0012617,0.00205431,0.00333836,0.00541856,0.00878855,0.014248,0.0230926,inf	199.909,199.909,190.569,181.138,179.582,188.532,209.721,249.055,320.588,448.129,553.532,507.998,459.917,436.471,436.471,436.471
0.000856085	-46778963.25	0,1.03121e-05,2.7018e-05,5.40821e-05,9.79269e-05,0.000168957,0.000284027,0.000470445,0.000772448,0.0012617,0.00205431,0.00333836,0.00541856,0.00878855,0.014248,0.0230926,inf	200.434,200.434,177.797,151.77,137.62,138.256,155.492,197.651,283.804,453.044,635.446,576.434,497.221,456.861,456.861,456.861
0.000962734	-46749669.37	0,1.03121e-05,2.7018e-05,5.40821e-05,9.79269e-05,0.000168957,0.000284027,0.000470445,0.000772448,0.0012617,0.00205431,0.00333836,0.00541856,0.00878855,0.014248,0.0230926,inf	221.74,221.74,195.408,155.231,130.075,123.133,135.402,176.022,265.615,448.527,677.416,617.989,519.066,466.751,466.751,466.751
0.00106248	-46732425.60	0,1.03121e-05,2.7018e-05,5.40821e-05,9.79269e-05,0.000168957,0.000284027,0.000470445,0.000772448,0.0012617,0.00205431,0.00333836,0.00541856,0.00878855,0.014248,0.0230926,inf	233.297,233.297,215.13,165.83,132.27,119.405,127.778,166.722,256.741,442.797,698.172,642.507,530.94,470.042,470.042,470.042
0.00115709	-46719887.41	0,1.03121e-05,2.7018e-05,5.40821e-05,9.79269e-05,0.000168957,0.000284027,0.000470445,0.000772448,0.0012617,0.00205431,0.00333836,0.00541856,0.00878855,0.014248,0.0230926,inf	231.114,231.114,228.637,175.973,137.079,119.995,125.629,163.438,252.964,437.739,707.412,656.341,536.55,469.351,469.351,469.351
0.00124791	-46709643.39	0,1.03121e-05,2.7018e-05,5.40821e-05,9.79269e-05,0.000168957,0.000284027,0.000470445,0.000772448,0.0012617,0.00205431,0.00333836,0.00541856,0.00878855,0.014248,0.0230926,inf	220.254,220.254,234.806,183.296,141.955,122.239,126.153,163.401,252.156,433.644,710.207,663.413,538.264,466.345,466.345,466.345
0.00133586	-46700746.10	0,1.03121e-05,2.7018e-05,5.40821e-05,9.79269e-05,0.000168957,0.000284027,0.000470445,0.000772448,0.0012617,0.00205431,0.00333836,0.00541856,0.00878855,0.014248,0.0230926,inf	206.445,206.445,235.277,187.521,146.001,125.011,128.056,165.235,253.149,430.414,709.313,666.159,537.58,462.063,462.063,462.063
0.00142156	-46692763.73	0,1.03121e-05,2.7018e-05,5.40821e-05,9.79269e-05,0.000168957,0.000284027,0.000470445,0.000772448,0.0012617,0.00205431,0.00333836,0.00541856,0.00878855,0.014248,0.0230926,inf	193.307,193.307,232.21,189.158,149,127.815,130.685,168.19,255.26,427.878,706.285,666.11,535.442,457.144,457.144,457.144
0.00150545	-46685472.05	0,1.03121e-05,2.7018e-05,5.40821e-05,9.79269e-05,0.000168957,0.000284027,0.000470445,0.000772448,0.0012617,0.00205431,0.00333836,0.00541856,0.00878855,0.014248,0.0230926,inf	182.477,182.477,227.38,188.915,151.023,130.439,133.684,171.827,258.071,425.877,702.032,664.249,532.448,451.978,451.978,451.978
0.00158781	-46678740.07	0,1.03121e-05,2.7018e-05,5.40821e-05,9.79269e-05,0.000168957,0.000284027,0.000470445,0.000772448,0.0012617,0.00205431,0.00333836,0.00541856,0.00878855,0.014248,0.0230926,inf	174.365,174.365,221.992,187.447,152.247,132.818,136.871,175.901,261.35,424.359,697.078,661.203,528.969,446.791,446.791,446.791
0.00166885	-46672482.31	0,1.03121e-05,2.7018e-05,5.40821e-05,9.79269e-05,0.000168957,0.000284027,0.000470445,0.000772448,0.0012617,0.00205431,0.00333836,0.00541856,0.00878855,0.014248,0.0230926,inf	168.79,168.79,216.738,185.241,152.832,134.917,140.1,180.199,264.866,423.126,691.768,657.412,525.26,441.728,441.728,441.728
0.0017487	-46666639.07	0,1.03121e-05,2.7018e-05,5.40821e-05,9.79269e-05,0.000168957,0.000284027,0.000470445,0.000772448,0.0012617,0.00205431,0.00333836,0.00541856,0.00878855,0.014248,0.0230926,inf	165.38,165.38,212.009,182.683,152.966,136.767,143.315,184.617,268.513,422.112,686.314,653.163,521.475,436.863,436.863,436.863
0.00182747	-46661164.94	0,1.03121e-05,2.7018e-05,5.40821e-05,9.79269e-05,0.000168957,0.000284027,0.000470445,0.000772448,0.0012617,0.00205431,0.00333836,0.00541856,0.00878855,0.014248,0.0230926,inf	163.694,163.694,207.961,180.034,152.794,138.404,146.483,189.086,272.213,421.268,680.845,648.65,517.711,432.234,432.234,432.234
0.00190524	-46656023.56	0,1.03121e-05,2.7018e-05,5.40821e-05,9.79269e-05,0.000168957,0.000284027,0.000470445,0.000772448,0.0012617,0.00205431,0.00333836,0.00541856,0.00878855,0.014248,0.0230926,inf	163.315,163.315,204.623,177.451,152.432,139.865,149.585,193.555,275.917,420.554,675.444,644.005,514.028,427.855,427.855,427.855
0.00198206	-46651184.69	0,1.03121e-05,2.7018e-05,5.40821e-05,9.79269e-05,0.000168957,0.000284027,0.000470445,0.000772448,0.0012617,0.00205431,0.00333836,0.00541856,0.00878855,0.014248,0.0230926,inf	163.898,163.898,201.961,175.035,151.964,141.183,152.611,197.991,279.587,419.938,670.158,639.318,510.46,423.727,423.727,423.727
0.00205796	-46646622.49	0,1.03121e-05,2.7018e-05,5.40821e-05,9.79269e-05,0.000168957,0.000284027,0.000470445,0.000772448,0.0012617,0.00205431,0.00333836,0.00541856,0.00878855,0.014248,0.0230926,inf	165.157,165.157,199.909,172.84,151.455,142.387,155.558,202.37,283.199,419.399,665.016,634.65,507.027,419.842,419.842,419.842
0.00213298	-46642314.48	0,1.03121e-05,2.7018e-05,5.40821e-05,9.79269e-05,0.000168957,0.000284027,0.000470445,0.000772448,0.0012617,0.00205431,0.00333836,0.00541856,0.00878855,0.014248,0.0230926,inf	166.866,166.866,198.394,170.893,150.948,143.503,158.424,206.678,286.736,418.918,660.033,630.043,503.739,416.188,416.188,416.188
0.00220714	-46638240.84	0,1.03121e-05,2.7018e-05,5.40821e-05,9.79269e-05,0.000168957,0.000284027,0.000470445,0.000772448,0.0012617,0.00205431,0.00333836,0.00541856,0.00878855,0.014248,0.0230926,inf	168.845,168.845,197.344,169.201,150.477,144.551,161.213,210.902,290.187,418.481,655.217,625.523,500.598,412.75,412.75,412.75
0.00228047	-46634383.85	0,1.03121e-05,2.7018e-05,5.40821e-05,9.79269e-05,0.000168957,0.000284027,0.000470445,0.000772448,0.0012617,0.00205431,0.00333836,0.00541856,0.00878855,0.014248,0.0230926,inf	170.955,170.955,196.689,167.76,150.063,145.548,163.925,215.038,293.545,418.079,650.57,621.11,497.602,409.513,409.513,409.513
0.00235298	-46630727.66	0,1.03121e-05,2.7018e-05,5.40821e-05,9.79269e-05,0.000168957,0.000284027,0.000470445,0.000772448,0.0012617,0.00205431,0.00333836,0.00541856,0.00878855,0.014248,0.0230926,inf	173.109,173.109,196.371,166.561,149.72,146.508,166.565,219.08,296.807,417.704,646.09,616.815,494.748,406.463,406.463,406.463
