0.000355173	-7655163.80	0,8.78299e-07,2.03524e-06,3.55921e-06,5.56667e-06,8.21098e-06,1.16942e-05,1.62825e-05,2.23264e-05,3.02877e-05,4.07747e-05,5.45887e-05,7.27852e-05,9.67545e-05,0.000128328,0.000169918,0.000224703,0.000296868,0.000391927,0.000517144,0.000682085,0.000899354,0.00118555,0.00156254,0.00205914,0.00271327,0.00357493,0.00470996,0.00620506,0.00817449,0.0107687,0.0141859,inf	291.54,291.54,501.626,545.635,609.096,681.353,729.165,749.108,748.61,739.72,735.349,735.823,733.548,727.071,719.53,716.412,721.9,736.618,759.661,788.926,819.672,847.027,865.429,867.504,851.655,826.139,811.734,804.541,804.541,795.079,795.079,795.079
0.000395819	-7652089.21	0,8.78299e-07,2.03524e-06,3.55921e-06,5.56667e-06,8.21098e-06,1.16942e-05,1.62825e-05,2.23264e-05,3.02877e-05,4.07747e-05,5.45887e-05,7.27852e-05,9.67545e-05,0.000128328,0.000169918,0.000224703,0.000296868,0.000391927,0.000517144,0.000682085,0.000899354,0.00118555,0.00156254,0.00205914,0.00271327,0.00357493,0.00470996,0.00620506,0.00817449,0.0107687,0.0141859,inf	144.228,144.228,401.699,435.615,520.35,639.621,723.661,758.185,755.082,737.939,731.055,732.797,727.916,713.944,696.996,687.106,691.184,709.605,740.613,781.166,824.774,865.912,896.992,903.425,878.413,835.706,812.657,800.569,800.569,783.169,783.169,783.169
0.000433615	-7649884.50	0,8.78299e-07,2.03524e-06,3.55921e-06,5.56667e-06,8.21098e-06,1.16942e-05,1.62825e-05,2.23264e-05,3.02877e-05,4.07747e-05,5.45887e-05,7.27852e-05,9.67545e-05,0.000128328,0.000169918,0.000224703,0.000296868,0.000391927,0.000517144,0.000682085,0.000899354,0.00118555,0.00156254,0.00205914,0.00271327,0.00357493,0.00470996,0.00620506,0.00817449,0.0107687,0.0141859,inf	84.7646,84.7646,362.752,367.83,456.777,609.605,723.488,770.254,764.764,741.961,736.196,742.175,737.08,717.668,692.981,677.16,678.994,698.111,731.87,776.618,825.182,873.103,912.73,923.591,892.886,838.302,810.002,793.914,793.914,768.978,768.978,768.978
0.000468909	-7648171.58	0,8.78299e-07,2.03524e-06,3.55921e-06,5.56667e-06,8.21098e-06,1.16942e-05,1.62825e-05,2.23264e-05,3.02877e-05,4.07747e-05,5.45887e-05,7.27852e-05,9.67545e-05,0.000128328,0.000169918,0.000224703,0.000296868,0.000391927,0.000517144,0.000682085,0.000899354,0.00118555,0.00156254,0.00205914,0.00271327,0.00357493,0.00470996,0.00620506,0.00817449,0.0107687,0.0141859,inf	56.1394,56.1394,353.661,320.651,406.207,582.882,720.547,776.555,768.169,741.459,739.261,751.546,748.273,725.532,695.137,674.94,675.028,694.024,728.439,774.165,823.846,874.809,920.263,935.021,900.5,837.5,805.986,786.22,786.22,753.922,753.922,753.922
0.000501999	-7646789.32	0,8.78299e-07,2.03524e-06,3.55921e-06,5.56667e-06,8.21098e-06,1.16942e-05,1.62825e-05,2.23264e-05,3.02877e-05,4.07747e-05,5.45887e-05,7.27852e-05,9.67545e-05,0.000128328,0.000169918,0.000224703,0.000296868,0.000391927,0.000517144,0.000682085,0.000899354,0.00118555,0.00156254,0.00205914,0.00271327,0.00357493,0.00470996,0.00620506,0.00817449,0.0107687,0.0141859,inf	40.4204,40.4204,362.478,286.12,366.073,560.309,716.713,778.811,766.354,736.431,738.926,758.431,758.174,733.644,699.215,676.062,675.101,693.829,727.979,773.098,821.927,873.881,923.403,941.456,904.203,835.114,801.648,778.313,778.313,738.883,738.883,738.883
0.000533122	-7645648.92	0,8.78299e-07,2.03524e-06,3.55921e-06,5.56667e-06,8.21098e-06,1.16942e-05,1.62825e-05,2.23264e-05,3.02877e-05,4.07747e-05,5.45887e-05,7.27852e-05,9.67545e-05,0.000128328,0.000169918,0.000224703,0.000296868,0.000391927,0.000517144,0.000682085,0.000899354,0.00118555,0.00156254,0.00205914,0.00271327,0.00357493,0.00470996,0.00620506,0.00817449,0.0107687,0.0141859,inf	30.7675,30.7675,382.465,259.658,334.635,542.823,714.418,779.733,761.777,728.719,736.174,762.996,766.239,740.886,703.654,678.659,677.257,695.773,729.235,772.925,819.866,871.668,924.124,944.942,905.63,832.068,797.457,770.599,770.599,724.362,724.362,724.362
0.000562471	-7644693.64	0,8.78299e-07,2.03524e-06,3.55921e-06,5.56667e-06,8.21098e-06,1.16942e-05,1.62825e-05,2.23264e-05,3.02877e-05,4.07747e-05,5.45887e-05,7.27852e-05,9.67545e-05,0.000128328,0.000169918,0.000224703,0.000296868,0.000391927,0.000517144,0.000682085,0.000899354,0.00118555,0.00156254,0.00205914,0.00271327,0.00357493,0.00470996,0.00620506,0.00817449,0.0107687,0.0141859,inf	24.1525,24.1525,408.728,238.448,309.977,530.305,714.755,781.032,756.263,719.914,732.166,765.946,772.706,747.058,707.884,681.869,680.502,698.905,731.482,773.309,817.824,868.84,923.483,946.638,905.71,828.828,793.602,763.268,763.268,710.621,710.621,710.621
0.000590206	-7643884.16	0,8.78299e-07,2.03524e-06,3.55921e-06,5.56667e-06,8.21098e-06,1.16942e-05,1.62825e-05,2.23264e-05,3.02877e-05,4.07747e-05,5.45887e-05,7.27852e-05,9.67545e-05,0.000128328,0.000169918,0.000224703,0.000296868,0.000391927,0.000517144,0.000682085,0.000899354,0.00118555,0.00156254,0.00205914,0.00271327,0.00357493,0.00470996,0.00620506,0.00817449,0.0107687,0.0141859,inf	19.2966,19.2966,437.618,220.595,290.438,522.084,717.929,783.449,750.824,711.021,727.753,767.924,777.953,752.245,711.719,685.28,684.295,702.68,734.285,774.027,815.85,865.737,922.071,947.223,904.986,825.629,790.147,756.395,756.395,697.777,697.777,697.777
0.000616462	-7643191.78	0,8.78299e-07,2.03524e-06,3.55921e-06,5.56667e-06,8.21098e-06,1.16942e-05,1.62825e-05,2.23264e-05,3.02877e-05,4.07747e-05,5.45887e-05,7.27852e-05,9.67545e-05,0.000128328,0.000169918,0.000224703,0.000296868,0.000391927,0.000517144,0.000682085,0.000899354,0.00118555,0.00156254,0.00205914,0.00271327,0.00357493,0.00470996,0.00620506,0.00817449,0.0107687,0.0141859,inf	15.4786,15.4786,466.781,205.037,274.677,517.279,723.653,787.18,745.93,702.574,723.464,769.407,782.325,756.617,715.126,688.688,688.329,706.776,737.379,774.929,813.955,862.541,920.228,947.107,903.783,822.584,787.09,749.996,749.996,685.856,685.856,685.856
0.000641356	-7642594.88	0,8.78299e-07,2.03524e-06,3.55921e-06,5.56667e-06,8.21098e-06,1.16942e-05,1.62825e-05,2.23264e-05,3.02877e-05,4.07747e-05,5.45887e-05,7.27852e-05,9.67545e-05,0.000128328,0.000169918,0.000224703,0.000296868,0.000391927,0.000517144,0.000682085,0.000899354,0.00118555,0.00156254,0.00205914,0.00271327,0.00357493,0.00470996,0.00620506,0.00817449,0.0107687,0.0141859,inf	12.4797,12.4797,494.446,191.105,261.682,515.071,731.494,792.088,741.699,694.831,719.594,770.704,786.091,760.329,718.127,691.995,692.43,710.999,740.598,775.919,812.131,859.347,918.155,946.546,902.301,819.74,784.404,744.062,744.062,674.841,674.841,674.841
0.00066499	-7642076.77	0,8.78299e-07,2.03524e-06,3.55921e-06,5.56667e-06,8.21098e-06,1.16942e-05,1.62825e-05,2.23264e-05,3.02877e-05,4.07747e-05,5.45887e-05,7.27852e-05,9.67545e-05,0.000128328,0.000169918,0.000224703,0.000296868,0.000391927,0.000517144,0.000682085,0.000899354,0.00118555,0.00156254,0.00205914,0.00271327,0.00357493,0.00470996,0.00620506,0.00817449,0.0107687,0.0141859,inf	10.0379,10.0379,519.909,178.417,250.676,514.744,740.911,797.885,738.12,687.889,716.288,772.015,789.44,763.513,720.771,695.154,696.5,715.232,743.84,776.937,810.373,856.208,915.974,945.703,900.666,817.112,782.055,738.565,738.565,664.686,664.686,664.686
0.000687454	-7641624.37	0,8.78299e-07,2.03524e-06,3.55921e-06,5.56667e-06,8.21098e-06,1.16942e-05,1.62825e-05,2.23264e-05,3.02877e-05,4.07747e-05,5.45887e-05,7.27852e-05,9.67545e-05,0.000128328,0.000169918,0.000224703,0.000296868,0.000391927,0.000517144,0.000682085,0.000899354,0.00118555,0.00156254,0.00205914,0.00271327,0.00357493,0.00470996,0.00620506,0.00817449,0.0107687,0.0141859,inf	8.08572,8.08572,542.722,166.707,241.167,515.791,751.459,804.34,735.09,681.728,713.598,773.452,792.504,766.275,723.101,698.151,700.477,719.403,747.041,777.944,808.67,853.153,913.761,944.684,898.954,814.698,780.002,733.476,733.476,655.33,655.33,655.33
0.000708829	-7641227.22	0,8.78299e-07,2.03524e-06,3.55921e-06,5.56667e-06,8.21098e-06,1.16942e-05,1.62825e-05,2.23264e-05,3.02877e-05,4.07747e-05,5.45887e-05,7.27852e-05,9.67545e-05,0.000128328,0.000169918,0.000224703,0.000296868,0.000391927,0.000517144,0.000682085,0.000899354,0.00118555,0.00156254,0.00205914,0.00271327,0.00357493,0.00470996,0.00620506,0.00817449,0.0107687,0.0141859,inf	6.51373,6.51373,562.908,155.889,232.797,517.799,762.738,811.162,732.497,676.291,711.52,775.078,795.371,768.7,725.165,700.981,704.332,723.47,750.166,778.916,807.019,850.195,911.561,943.56,897.217,812.486,778.209,728.759,728.759,646.717,646.717,646.717
0.000729189	-7640876.91	0,8.78299e-07,2.03524e-06,3.55921e-06,5.56667e-06,8.21098e-06,1.16942e-05,1.62825e-05,2.23264e-05,3.02877e-05,4.07747e-05,5.45887e-05,7.27852e-05,9.67545e-05,0.000128328,0.000169918,0.000224703,0.000296868,0.000391927,0.000517144,0.000682085,0.000899354,0.00118555,0.00156254,0.00205914,0.00271327,0.00357493,0.00470996,0.00620506,0.00817449,0.0107687,0.0141859,inf	5.27192,5.27192,580.687,145.847,225.261,520.406,774.44,818.159,730.245,671.516,710.026,776.911,798.099,770.85,726.995,703.648,708.047,727.412,753.191,779.841,805.412,847.342,909.404,942.378,895.486,810.46,776.643,724.385,724.385,638.783,638.783,638.783
0.000748598	-7640566.58	0,8.78299e-07,2.03524e-06,3.55921e-06,5.56667e-06,8.21098e-06,1.16942e-05,1.62825e-05,2.23264e-05,3.02877e-05,4.07747e-05,5.45887e-05,7.27852e-05,9.67545e-05,0.000128328,0.000169918,0.000224703,0.000296868,0.000391927,0.000517144,0.000682085,0.000899354,0.00118555,0.00156254,0.00205914,0.00271327,0.00357493,0.00470996,0.00620506,0.00817449,0.0107687,0.0141859,inf	4.26351,4.26351,596.355,136.492,218.422,523.389,786.33,825.153,728.238,667.326,709.066,778.953,800.738,772.774,728.626,706.162,711.617,731.214,756.105,780.711,803.847,844.594,907.308,941.171,893.782,808.606,775.276,720.323,720.323,631.469,631.469,631.469
0.000767118	-7640290.58	0,8.78299e-07,2.03524e-06,3.55921e-06,5.56667e-06,8.21098e-06,1.16942e-05,1.62825e-05,2.23264e-05,3.02877e-05,4.07747e-05,5.45887e-05,7.27852e-05,9.67545e-05,0.000128328,0.000169918,0.000224703,0.000296868,0.000391927,0.000517144,0.000682085,0.000899354,0.00118555,0.00156254,0.00205914,0.00271327,0.00357493,0.00470996,0.00620506,0.00817449,0.0107687,0.0141859,inf	3.45777,3.45777,610.197,127.793,212.126,526.633,798.235,832.021,726.391,663.653,708.595,781.201,803.307,774.507,730.083,708.53,715.038,734.873,758.904,781.522,802.321,841.952,905.283,939.961,892.117,806.906,774.079,716.546,716.546,624.721,624.721,624.721
0.000784802	-7640044.22	0,8.78299e-07,2.03524e-06,3.55921e-06,5.56667e-06,8.21098e-06,1.16942e-05,1.62825e-05,2.23264e-05,3.02877e-05,4.07747e-05,5.45887e-05,7.27852e-05,9.67545e-05,0.000128328,0.000169918,0.000224703,0.000296868,0.000391927,0.000517144,0.000682085,0.000899354,0.00118555,0.00156254,0.00205914,0.00271327,0.00357493,0.00470996,0.00620506,0.00817449,0.0107687,0.0141859,inf	2.81593,2.81593,622.378,119.716,206.287,529.984,810.027,838.659,724.646,660.432,708.563,783.634,805.822,776.077,731.386,710.762,718.314,738.387,761.587,782.276,800.832,839.413,903.333,938.763,890.499,805.347,773.032,713.026,713.026,618.486,618.486,618.486
0.0008017	-7639823.59	0,8.78299e-07,2.03524e-06,3.55921e-06,5.56667e-06,8.21098e-06,1.16942e-05,1.62825e-05,2.23264e-05,3.02877e-05,4.07747e-05,5.45887e-05,7.27852e-05,9.67545e-05,0.000128328,0.000169918,0.000224703,0.000296868,0.000391927,0.000517144,0.000682085,0.000899354,0.00118555,0.00156254,0.00205914,0.00271327,0.00357493,0.00470996,0.00620506,0.00817449,0.0107687,0.0141859,inf	2.30267,2.30267,633.249,112.217,200.845,533.352,821.602,845.015,722.97,657.604,708.925,786.238,808.291,777.507,732.556,712.869,721.448,741.761,764.155,782.975,799.377,836.972,901.463,937.587,888.932,803.914,772.116,709.743,709.743,612.72,612.72,612.72
0.000817858	-7639625.40	0,8.78299e-07,2.03524e-06,3.55921e-06,5.56667e-06,8.21098e-06,1.16942e-05,1.62825e-05,2.23264e-05,3.02877e-05,4.07747e-05,5.45887e-05,7.27852e-05,9.67545e-05,0.000128328,0.000169918,0.000224703,0.000296868,0.000391927,0.000517144,0.000682085,0.000899354,0.00118555,0.00156254,0.00205914,0.00271327,0.00357493,0.00470996,0.00620506,0.00817449,0.0107687,0.0141859,inf	1.89113,1.89113,643.068,105.269,195.726,536.722,832.896,851.032,721.301,655.125,709.626,788.985,810.715,778.814,733.608,714.857,724.448,744.997,766.614,783.619,797.956,834.627,899.672,936.441,887.419,802.596,771.313,706.675,706.675,607.379,607.379,607.379
0.000833319	-7639446.85	0,8.78299e-07,2.03524e-06,3.55921e-06,5.56667e-06,8.21098e-06,1.16942e-05,1.62825e-05,2.23264e-05,3.02877e-05,4.07747e-05,5.45887e-05,7.27852e-05,9.67545e-05,0.000128328,0.000169918,0.000224703,0.000296868,0.000391927,0.000517144,0.000682085,0.000899354,0.00118555,0.00156254,0.00205914,0.00271327,0.00357493,0.00470996,0.00620506,0.00817449,0.0107687,0.0141859,inf	1.55642,1.55642,652.039,98.8326,190.937,540.08,843.885,856.712,719.644,652.954,710.632,791.863,813.102,780.007,734.552,716.733,727.316,748.101,768.967,784.211,796.567,832.373,897.96,935.328,885.959,801.379,770.609,703.803,703.803,602.428,602.428,602.428
