time_index	left_time_boundary	right_time_boundary	lambda
0	0	2.24959e-05	126.956
1	2.24959e-05	5.6913e-05	126.956
2	5.6913e-05	0.000109569	159.424
3	0.000109569	0.000190128	279.399
4	0.000190128	0.000313377	232.155
5	0.000313377	0.000501939	212.388
6	0.000501939	0.000790426	315.516
7	0.000790426	0.00123179	353.428
8	0.00123179	0.00190704	386.404
9	0.00190704	0.00294013	429.783
10	0.00294013	0.00452067	428.615
11	0.00452067	0.00693878	413.585
12	0.00693878	0.0106383	648.388
13	0.0106383	0.0162983	50528.1
14	0.0162983	0.0249577	50528.1
15	0.0249577	inf	50528.1
