time_index	left_time_boundary	right_time_boundary	lambda
0	0	8.84637e-06	3456.19
1	8.84637e-06	2.0951e-05	3456.19
2	2.0951e-05	3.75139e-05	3436.22
3	3.75139e-05	6.01772e-05	4045.29
4	6.01772e-05	9.11878e-05	2884.23
5	9.11878e-05	0.00013362	3213.23
6	0.00013362	0.000191681	4380.34
7	0.000191681	0.000271126	4264.11
8	0.000271126	0.000379832	4907.14
9	0.000379832	0.000528576	4759.18
10	0.000528576	0.000732104	1605.08
11	0.000732104	0.0010106	3031.51
12	0.0010106	0.00139166	14811.9
13	0.00139166	0.00191307	581618
14	0.00191307	0.00262654	581618
15	0.00262654	inf	581618
