AIC = 609156.07066832552664

y0 0.4952893965062606374
y0_prime 0
y1 1.1853373809709981668
y1_prime 0
y2 0.66625605606341498088
y2_prime 0
y3 1.6318387366129800675
y3_prime 0
rho 0.0068029898285340891645
rho.alpha 0.29440443058437765211
r_ii 0.99989415227249267559
theta 0.0049852560320007236611
