time_index	left_time_boundary	right_time_boundary	lambda
0	0	9.8883e-06	149.377
1	9.8883e-06	2.21192e-05	149.377
2	2.21192e-05	3.72475e-05	421.103
3	3.72475e-05	5.59598e-05	418.863
4	5.59598e-05	7.91051e-05	412.617
5	7.91051e-05	0.000107734	375.118
6	0.000107734	0.000143144	339.605
7	0.000143144	0.000186943	335.92
8	0.000186943	0.000241119	347.746
9	0.000241119	0.000308129	357.437
10	0.000308129	0.000391013	361.364
11	0.000391013	0.000493533	362.608
12	0.000493533	0.00062034	365.869
13	0.00062034	0.000777188	372.698
14	0.000777188	0.000971193	381.897
15	0.000971193	0.00121116	392.437
16	0.00121116	0.00150797	403.186
17	0.00150797	0.0018751	412.612
18	0.0018751	0.00232921	419.534
19	0.00232921	0.00289089	423.833
20	0.00289089	0.00358563	426.372
21	0.00358563	0.00444496	426.325
22	0.00444496	0.00550787	422.357
23	0.00550787	0.00682258	417.942
24	0.00682258	0.00844874	415.575
25	0.00844874	0.0104602	411.503
26	0.0104602	0.0129481	402.847
27	0.0129481	0.0160254	365.617
28	0.0160254	0.0198317	365.617
29	0.0198317	0.0245397	150.117
30	0.0245397	0.0303631	150.117
31	0.0303631	inf	150.117
