0.000719694	-85859237.69	0,2.66157e-06,6.11594e-06,1.05992e-05,1.6418e-05,2.39699e-05,3.37713e-05,4.64921e-05,6.30021e-05,8.44299e-05,0.00011224,0.000148334,0.00019518,0.000255978,0.000334887,0.0004373,0.000570218,0.000742729,0.000966624,0.00125721,0.00163435,0.00212383,0.00275911,0.00358361,0.00465371,0.00604255,0.00784508,0.0101845,0.0132208,0.0171615,0.022276,0.0289139,inf	325.434,325.434,400.122,424.677,419.081,400.835,383.294,369.41,360.646,355.228,350.801,347.333,345.396,345.477,348.049,353.27,361.371,372.36,385.692,400.075,413.377,422.948,426.947,425.872,421.619,416.909,412.206,406.063,406.063,384.55,384.55,384.55
0.000808171	-85815831.26	0,2.66157e-06,6.11594e-06,1.05992e-05,1.6418e-05,2.39699e-05,3.37713e-05,4.64921e-05,6.30021e-05,8.44299e-05,0.00011224,0.000148334,0.00019518,0.000255978,0.000334887,0.0004373,0.000570218,0.000742729,0.000966624,0.00125721,0.00163435,0.00212383,0.00275911,0.00358361,0.00465371,0.00604255,0.00784508,0.0101845,0.0132208,0.0171615,0.022276,0.0289139,inf	281.85,281.85,405.981,457.151,452.065,422.4,393.933,372.017,358.834,350.534,342.911,336.225,331.608,329.963,332.06,338.076,348.351,362.878,380.891,400.661,419.412,433.53,440.13,439.357,433.473,426.582,419.196,408.743,408.743,369.556,369.556,369.556
0.000890824	-85784486.03	0,2.66157e-06,6.11594e-06,1.05992e-05,1.6418e-05,2.39699e-05,3.37713e-05,4.64921e-05,6.30021e-05,8.44299e-05,0.00011224,0.000148334,0.00019518,0.000255978,0.000334887,0.0004373,0.000570218,0.000742729,0.000966624,0.00125721,0.00163435,0.00212383,0.00275911,0.00358361,0.00465371,0.00604255,0.00784508,0.0101845,0.0132208,0.0171615,0.022276,0.0289139,inf	247.488,247.488,397.593,471.796,470.568,434.763,400.522,375.114,361.06,352.4,343.456,334.967,328.608,325.66,327.096,333.042,343.884,359.567,379.188,400.848,421.654,437.789,445.942,445.838,439.546,431.822,422.967,409.442,409.442,355.685,355.685,355.685
0.000968228	-85760067.56	0,2.66157e-06,6.11594e-06,1.05992e-05,1.6418e-05,2.39699e-05,3.37713e-05,4.64921e-05,6.30021e-05,8.44299e-05,0.00011224,0.000148334,0.00019518,0.000255978,0.000334887,0.0004373,0.000570218,0.000742729,0.000966624,0.00125721,0.00163435,0.00212383,0.00275911,0.00358361,0.00465371,0.00604255,0.00784508,0.0101845,0.0132208,0.0171615,0.022276,0.0289139,inf	224.083,224.083,383.73,474.821,477.555,438.271,401.183,374.925,362.054,354.56,345.591,336.411,329.19,325.551,326.588,332.344,343.217,359.095,378.993,400.95,422.17,438.96,447.933,448.481,442.323,434.477,424.886,409.142,409.142,343.218,343.218,343.218
0.00104093	-85740361.78	0,2.66157e-06,6.11594e-06,1.05992e-05,1.6418e-05,2.39699e-05,3.37713e-05,4.64921e-05,6.30021e-05,8.44299e-05,0.00011224,0.000148334,0.00019518,0.000255978,0.000334887,0.0004373,0.000570218,0.000742729,0.000966624,0.00125721,0.00163435,0.00212383,0.00275911,0.00358361,0.00465371,0.00604255,0.00784508,0.0101845,0.0132208,0.0171615,0.022276,0.0289139,inf	210.078,210.078,370.379,473.04,478.458,436.564,397.916,372.045,361.303,355.703,347.429,338.278,330.838,327.012,327.951,333.594,344.332,360.004,379.57,401.069,421.886,438.593,447.904,448.984,443.185,435.594,425.723,408.367,408.367,332.116,332.116,332.116
0.00110941	-85724120.86	0,2.66157e-06,6.11594e-06,1.05992e-05,1.6418e-05,2.39699e-05,3.37713e-05,4.64921e-05,6.30021e-05,8.44299e-05,0.00011224,0.000148334,0.00019518,0.000255978,0.000334887,0.0004373,0.000570218,0.000742729,0.000966624,0.00125721,0.00163435,0.00212383,0.00275911,0.00358361,0.00465371,0.00604255,0.00784508,0.0101845,0.0132208,0.0171615,0.022276,0.0289139,inf	202.906,202.906,359.83,470.58,477.171,432.679,392.858,367.807,359.472,355.974,348.706,339.974,332.715,329.049,330.124,335.753,346.317,361.609,380.56,401.238,421.244,437.467,446.809,448.284,442.925,435.786,425.925,407.397,407.397,322.236,322.236,322.236
0.00117405	-85710537.95	0,2.66157e-06,6.11594e-06,1.05992e-05,1.6418e-05,2.39699e-05,3.37713e-05,4.64921e-05,6.30021e-05,8.44299e-05,0.00011224,0.000148334,0.00019518,0.000255978,0.000334887,0.0004373,0.000570218,0.000742729,0.000966624,0.00125721,0.00163435,0.00212383,0.00275911,0.00358361,0.00465371,0.00604255,0.00784508,0.0101845,0.0132208,0.0171615,0.022276,0.0289139,inf	200.168,200.168,352.228,469.147,475.678,428.364,387.378,363.199,357.214,355.743,349.54,341.403,334.549,331.257,332.623,338.321,348.709,363.55,381.763,401.456,420.458,435.983,445.161,446.912,442.005,435.417,425.753,406.385,406.385,313.413,313.413,313.413
0.0012352	-85699049.26	0,2.66157e-06,6.11594e-06,1.05992e-05,1.6418e-05,2.39699e-05,3.37713e-05,4.64921e-05,6.30021e-05,8.44299e-05,0.00011224,0.000148334,0.00019518,0.000255978,0.000334887,0.0004373,0.000570218,0.000742729,0.000966624,0.00125721,0.00163435,0.00212383,0.00275911,0.00358361,0.00465371,0.00604255,0.00784508,0.0101845,0.0132208,0.0171615,0.022276,0.0289139,inf	200.086,200.086,347.022,469.082,474.727,424.393,382.161,358.775,354.951,355.314,350.105,342.607,336.264,333.468,335.217,341.037,351.261,365.631,383.06,401.709,419.628,434.353,443.245,445.174,440.7,434.707,425.365,405.411,405.411,305.489,305.489,305.489
0.00129315	-85689242.09	0,2.66157e-06,6.11594e-06,1.05992e-05,1.6418e-05,2.39699e-05,3.37713e-05,4.64921e-05,6.30021e-05,8.44299e-05,0.00011224,0.000148334,0.00019518,0.000255978,0.000334887,0.0004373,0.000570218,0.000742729,0.000966624,0.00125721,0.00163435,0.00212383,0.00275911,0.00358361,0.00465371,0.00604255,0.00784508,0.0101845,0.0132208,0.0171615,0.022276,0.0289139,inf	201.445,201.445,343.495,470.253,474.514,421.046,377.491,354.793,352.925,354.881,350.538,343.649,337.854,335.61,337.79,343.763,353.836,367.736,384.381,401.982,418.804,432.687,441.221,443.252,439.18,433.796,424.856,404.515,404.515,298.328,298.328,298.328
0.00134813	-85680804.82	0,2.66157e-06,6.11594e-06,1.05992e-05,1.6418e-05,2.39699e-05,3.37713e-05,4.64921e-05,6.30021e-05,8.44299e-05,0.00011224,0.000148334,0.00019518,0.000255978,0.000334887,0.0004373,0.000570218,0.000742729,0.000966624,0.00125721,0.00163435,0.00212383,0.00275911,0.00358361,0.00465371,0.00604255,0.00784508,0.0101845,0.0132208,0.0171615,0.022276,0.0289139,inf	203.476,203.476,341.061,472.314,474.912,418.33,373.433,351.346,351.24,354.559,350.932,344.589,339.334,337.661,340.287,346.425,356.357,369.802,385.683,402.265,418.01,431.045,439.18,441.253,437.547,432.768,424.287,403.715,403.715,291.812,291.812,291.812
0.00140039	-85673496.83	0,2.66157e-06,6.11594e-06,1.05992e-05,1.6418e-05,2.39699e-05,3.37713e-05,4.64921e-05,6.30021e-05,8.44299e-05,0.00011224,0.000148334,0.00019518,0.000255978,0.000334887,0.0004373,0.000570218,0.000742729,0.000966624,0.00125721,0.00163435,0.00212383,0.00275911,0.00358361,0.00465371,0.00604255,0.00784508,0.0101845,0.0132208,0.0171615,0.022276,0.0289139,inf	205.29,205.29,339.287,474.966,475.781,416.185,369.969,348.445,349.931,354.405,351.344,345.469,340.724,339.614,342.681,348.986,358.784,371.792,386.943,402.547,417.255,429.458,437.172,439.242,435.868,431.681,423.692,403.017,403.017,285.844,285.844,285.844
0.0014501	-85667129.16	0,2.66157e-06,6.11594e-06,1.05992e-05,1.6418e-05,2.39699e-05,3.37713e-05,4.64921e-05,6.30021e-05,8.44299e-05,0.00011224,0.000148334,0.00019518,0.000255978,0.000334887,0.0004373,0.000570218,0.000742729,0.000966624,0.00125721,0.00163435,0.00212383,0.00275911,0.00358361,0.00465371,0.00604255,0.00784508,0.0101845,0.0132208,0.0171615,0.022276,0.0289139,inf	207.83,207.83,337.953,477.957,476.965,414.496,367.023,346.047,348.99,354.432,351.807,346.321,342.044,341.473,344.964,351.426,361.094,373.689,388.147,402.823,416.543,427.942,435.226,437.259,434.183,430.57,423.096,402.422,402.422,280.344,280.344,280.344
0.00149744	-85661551.30	0,2.66157e-06,6.11594e-06,1.05992e-05,1.6418e-05,2.39699e-05,3.37713e-05,4.64921e-05,6.30021e-05,8.44299e-05,0.00011224,0.000148334,0.00019518,0.000255978,0.000334887,0.0004373,0.000570218,0.000742729,0.000966624,0.00125721,0.00163435,0.00212383,0.00275911,0.00358361,0.00465371,0.00604255,0.00784508,0.0101845,0.0132208,0.0171615,0.022276,0.0289139,inf	210.232,210.232,336.787,481.099,478.311,413.156,364.519,344.096,348.386,354.643,352.334,347.161,343.306,343.244,347.132,353.74,363.281,375.482,389.288,403.089,415.873,426.502,433.357,435.326,432.519,429.458,422.512,401.926,401.926,275.245,275.245,275.245
0.00154259	-85656641.86	0,2.66157e-06,6.11594e-06,1.05992e-05,1.6418e-05,2.39699e-05,3.37713e-05,4.64921e-05,6.30021e-05,8.44299e-05,0.00011224,0.000148334,0.00019518,0.000255978,0.000334887,0.0004373,0.000570218,0.000742729,0.000966624,0.00125721,0.00163435,0.00212383,0.00275911,0.00358361,0.00465371,0.00604255,0.00784508,0.0101845,0.0132208,0.0171615,0.022276,0.0289139,inf	212.481,212.481,335.717,484.264,479.724,412.074,362.378,342.533,348.085,355.026,352.931,348,344.523,344.934,349.191,355.926,365.34,377.17,390.363,403.343,415.245,425.14,431.573,433.456,430.89,428.36,421.95,401.522,401.522,270.49,270.49,270.49
0.00158566	-85652302.05	0,2.66157e-06,6.11594e-06,1.05992e-05,1.6418e-05,2.39699e-05,3.37713e-05,4.64921e-05,6.30021e-05,8.44299e-05,0.00011224,0.000148334,0.00019518,0.000255978,0.000334887,0.0004373,0.000570218,0.000742729,0.000966624,0.00125721,0.00163435,0.00212383,0.00275911,0.00358361,0.00465371,0.00604255,0.00784508,0.0101845,0.0132208,0.0171615,0.022276,0.0289139,inf	214.593,214.593,334.704,487.391,481.138,411.179,360.535,341.302,348.047,355.56,353.594,348.845,345.703,346.55,351.144,357.988,367.275,378.755,391.375,403.584,414.655,423.854,429.873,431.656,429.307,427.285,421.413,401.206,401.206,266.033,266.033,266.033
0.00162681	-85648450.65	0,2.66157e-06,6.11594e-06,1.05992e-05,1.6418e-05,2.39699e-05,3.37713e-05,4.64921e-05,6.30021e-05,8.44299e-05,0.00011224,0.000148334,0.00019518,0.000255978,0.000334887,0.0004373,0.000570218,0.000742729,0.000966624,0.00125721,0.00163435,0.00212383,0.00275911,0.00358361,0.00465371,0.00604255,0.00784508,0.0101845,0.0132208,0.0171615,0.022276,0.0289139,inf	216.572,216.572,333.732,490.434,482.496,410.413,358.943,340.351,348.237,356.225,354.316,349.697,346.851,348.098,352.997,359.932,369.091,380.241,392.324,403.811,414.102,422.641,428.259,429.93,427.774,426.239,420.905,400.97,400.97,261.835,261.835,261.835
0.00166614	-85645020.41	0,2.66157e-06,6.11594e-06,1.05992e-05,1.6418e-05,2.39699e-05,3.37713e-05,4.64921e-05,6.30021e-05,8.44299e-05,0.00011224,0.000148334,0.00019518,0.000255978,0.000334887,0.0004373,0.000570218,0.000742729,0.000966624,0.00125721,0.00163435,0.00212383,0.00275911,0.00358361,0.00465371,0.00604255,0.00784508,0.0101845,0.0132208,0.0171615,0.022276,0.0289139,inf	218.469,218.469,332.778,493.375,483.768,409.727,357.546,339.636,348.612,357.001,355.09,350.557,347.97,349.584,354.757,361.763,370.794,381.632,393.214,404.026,413.584,421.498,426.727,428.276,426.295,425.226,420.427,400.809,400.809,257.861,257.861,257.861
0.00170376	-85641955.12	0,2.66157e-06,6.11594e-06,1.05992e-05,1.6418e-05,2.39699e-05,3.37713e-05,4.64921e-05,6.30021e-05,8.44299e-05,0.00011224,0.000148334,0.00019518,0.000255978,0.000334887,0.0004373,0.000570218,0.000742729,0.000966624,0.00125721,0.00163435,0.00212383,0.00275911,0.00358361,0.00465371,0.00604255,0.00784508,0.0101845,0.0132208,0.0171615,0.022276,0.0289139,inf	220.301,220.301,331.889,496.191,484.941,409.099,356.306,339.119,349.147,357.87,355.908,351.424,349.065,351.012,356.429,363.489,372.39,382.934,394.047,404.227,413.097,420.421,425.273,426.694,424.87,424.247,419.978,400.717,400.717,254.083,254.083,254.083
0.00173978	-85639207.62	0,2.66157e-06,6.11594e-06,1.05992e-05,1.6418e-05,2.39699e-05,3.37713e-05,4.64921e-05,6.30021e-05,8.44299e-05,0.00011224,0.000148334,0.00019518,0.000255978,0.000334887,0.0004373,0.000570218,0.000742729,0.000966624,0.00125721,0.00163435,0.00212383,0.00275911,0.00358361,0.00465371,0.00604255,0.00784508,0.0101845,0.0132208,0.0171615,0.022276,0.0289139,inf	222.068,222.068,331.03,498.884,486.013,408.501,355.191,338.767,349.814,358.815,356.76,352.296,350.137,352.387,358.019,365.115,373.886,384.152,394.828,404.416,412.639,419.405,423.894,425.181,423.498,423.302,419.559,400.688,400.688,250.478,250.478,250.478
0.00177428	-85636738.05	0,2.66157e-06,6.11594e-06,1.05992e-05,1.6418e-05,2.39699e-05,3.37713e-05,4.64921e-05,6.30021e-05,8.44299e-05,0.00011224,0.000148334,0.00019518,0.000255978,0.000334887,0.0004373,0.000570218,0.000742729,0.000966624,0.00125721,0.00163435,0.00212383,0.00275911,0.00358361,0.00465371,0.00604255,0.00784508,0.0101845,0.0132208,0.0171615,0.022276,0.0289139,inf	223.782,223.782,330.22,501.498,486.99,407.923,354.174,338.548,350.585,359.82,357.64,353.168,351.186,353.712,359.533,366.648,375.288,385.293,395.56,404.594,412.209,418.446,422.586,423.735,422.178,422.392,419.168,400.718,400.718,247.023,247.023,247.023
