time_index	left_time_boundary	right_time_boundary	lambda
0	0	4.54894e-06	263.243
1	4.54894e-06	1.03389e-05	263.243
2	1.03389e-05	1.77083e-05	327.31
3	1.77083e-05	2.70881e-05	439.011
4	2.70881e-05	3.90268e-05	420.155
5	3.90268e-05	5.42225e-05	385.136
6	5.42225e-05	7.35636e-05	373.264
7	7.35636e-05	9.8181e-05	361.175
8	9.8181e-05	0.000129514	345.263
9	0.000129514	0.000169395	339.441
10	0.000169395	0.000220156	343.278
11	0.000220156	0.000284764	351.023
12	0.000284764	0.000366998	359.021
13	0.000366998	0.000471666	364.841
14	0.000471666	0.000604888	370.029
15	0.000604888	0.000774453	376.645
16	0.000774453	0.000990276	385.086
17	0.000990276	0.00126498	394.704
18	0.00126498	0.00161462	403.807
19	0.00161462	0.00205964	411.421
20	0.00205964	0.00262607	417.254
21	0.00262607	0.00334702	421.619
22	0.00334702	0.00426466	424.646
23	0.00426466	0.00543262	424.624
24	0.00543262	0.00691921	423.471
25	0.00691921	0.00881136	421.842
26	0.00881136	0.0112197	416.165
27	0.0112197	0.014285	395.197
28	0.014285	0.0181866	395.197
29	0.0181866	0.0231525	232.795
30	0.0231525	0.0294732	232.795
31	0.0294732	inf	232.795
