AIC = 1148170.2488489979878

y0 0.88470916807173316521
y0_prime 0
y1 1.0670024258099930492
y1_prime 0
y2 0.85060545517919894376
y2_prime 0
y3 1.594742146746746414
y3_prime 0
rho 0.0013295009659169841534
theta 0.0047221346354642465548
