LogLikelihood = -38493.392649625995546

y0 1.4539327033725875093
y0_prime 0
y1 0.77028367647422968378
y1_prime 0
y2 1.2615654286168012099
y2_prime 0
y3 1.2595190747174025425
y3_prime 0
rho 2.7941468968840759964e-05
rho.alpha 0.90417666025141019137
r_ii 0.99996775832594941846
theta 0.00046053738969168811056
