LogLikelihood = -367571.89593660912942

y0 0.0010611403117467296895
y0_prime 0
y1 0.89736500945309316535
y1_prime 0
y2 1.8435816489786496231
y2_prime 0
y3 0.84845392169883493416
y3_prime 0
rho 0.002819121515994080316
rho.alpha 0.95762676025692816673
r_ii 0.99999999999516009375
theta 0.0060575253907755892066
