time_index	left_time_boundary	right_time_boundary	lambda
0	0	3.48334e-05	98.026
1	3.48334e-05	8.24965e-05	98.026
2	8.24965e-05	0.000147715	96.0529
3	0.000147715	0.000236954	176.211
4	0.000236954	0.000359061	353.778
5	0.000359061	0.000526141	546.631
6	0.000526141	0.00075476	878.235
7	0.00075476	0.00106758	1951.82
8	0.00106758	0.00149562	2296.37
9	0.00149562	0.00208132	3060.54
10	0.00208132	0.00288273	2091.24
11	0.00288273	0.00397932	528.917
12	0.00397932	0.00547979	356.503
13	0.00547979	0.00753292	1.05736
14	0.00753292	0.0103422	1.05736
15	0.0103422	inf	1.05736
