AIC = 2896778.4027218762785

y0 2.4187521213367979556
y0_prime 0
y1 1.1015205114860608937
y1_prime 0
y2 1.2741917402026092798
y2_prime 0
y3 2.7373069623772785519
y3_prime 0
rho 1.9696759745869422584e-05
theta 0.0048592070570573865293
