time_index	left_time_boundary	right_time_boundary	lambda
0	0	1.71605e-06	0.951987
1	1.71605e-06	4.69363e-06	0.951987
2	4.69363e-06	9.86017e-06	0.951987
3	9.86017e-06	1.88249e-05	0.951987
4	1.88249e-05	3.43799e-05	0.951987
5	3.43799e-05	6.13701e-05	0.951987
6	6.13701e-05	0.000108202	0.951987
7	0.000108202	0.000189462	0.951987
8	0.000189462	0.00033046	52.8821
9	0.00033046	0.000575112	189.987
10	0.000575112	0.000999618	170.855
11	0.000999618	0.0017362	217.835
12	0.0017362	0.00301427	419.796
13	0.00301427	0.00523191	531.442
14	0.00523191	0.00907982	531.442
15	0.00907982	inf	531.442
