0.000659612	-12710036.98	0,1.62463e-06,3.76468e-06,6.58365e-06,1.02969e-05,1.51882e-05,2.16313e-05,3.01185e-05,4.12981e-05,5.60246e-05,7.54229e-05,0.000100975,0.000134634,0.000178971,0.000237375,0.000314306,0.000415644,0.000549131,0.000724966,0.000956585,0.00126169,0.00166358,0.00219297,0.00289031,0.00380888,0.00501887,0.00661273,0.00871223,0.0114778,0.0151207,0.0199194,0.0262404,inf	8736.52,8736.52,4784.28,2954.66,1816.38,1230.45,919.523,719.451,577.263,473.857,407.625,372.896,356.999,348.573,343.946,344.038,349.005,357.977,370.171,384.761,401.482,418.807,432.984,440.648,442.379,442.184,441.226,444.177,444.177,493.819,493.819,493.819
0.000741556	-12703104.27	0,1.62463e-06,3.76468e-06,6.58365e-06,1.02969e-05,1.51882e-05,2.16313e-05,3.01185e-05,4.12981e-05,5.60246e-05,7.54229e-05,0.000100975,0.000134634,0.000178971,0.000237375,0.000314306,0.000415644,0.000549131,0.000724966,0.000956585,0.00126169,0.00166358,0.00219297,0.00289031,0.00380888,0.00501887,0.00661273,0.00871223,0.0114778,0.0151207,0.0199194,0.0262404,inf	14094.9,14094.9,7416.04,4215.44,2362.15,1518.81,1095.54,823.881,628.065,485.43,398.202,356.088,338.322,327.898,321.041,320.518,326.854,338.637,354.532,373.187,394.512,416.814,435.113,444.605,446.243,446.04,444.895,451.631,451.631,558.833,558.833,558.833
0.00081919	-12698448.68	0,1.62463e-06,3.76468e-06,6.58365e-06,1.02969e-05,1.51882e-05,2.16313e-05,3.01185e-05,4.12981e-05,5.60246e-05,7.54229e-05,0.000100975,0.000134634,0.000178971,0.000237375,0.000314306,0.000415644,0.000549131,0.000724966,0.000956585,0.00126169,0.00166358,0.00219297,0.00289031,0.00380888,0.00501887,0.00661273,0.00871223,0.0114778,0.0151207,0.0199194,0.0262404,inf	14756.3,14756.3,7954.5,4414,2405.17,1552.86,1133.17,854.638,643.209,484.938,390.966,349.189,333.433,322.954,314.851,313.868,320.851,333.872,351.099,370.828,393.25,416.822,436.107,445.616,446.723,446.712,445.844,456.932,456.932,632.718,632.718,632.718
0.000892396	-12694816.42	0,1.62463e-06,3.76468e-06,6.58365e-06,1.02969e-05,1.51882e-05,2.16313e-05,3.01185e-05,4.12981e-05,5.60246e-05,7.54229e-05,0.000100975,0.000134634,0.000178971,0.000237375,0.000314306,0.000415644,0.000549131,0.000724966,0.000956585,0.00126169,0.00166358,0.00219297,0.00289031,0.00380888,0.00501887,0.00661273,0.00871223,0.0114778,0.0151207,0.0199194,0.0262404,inf	14390.4,14390.4,7919.43,4305.72,2305.47,1510.15,1124.81,858.529,643.973,478.794,383.518,344.902,332.541,322.778,313.96,312.755,320.236,333.955,351.62,371.296,393.49,416.903,435.945,444.771,445.196,445.423,445.031,460.781,460.781,722.032,722.032,722.032
0.000961466	-12691878.17	0,1.62463e-06,3.76468e-06,6.58365e-06,1.02969e-05,1.51882e-05,2.16313e-05,3.01185e-05,4.12981e-05,5.60246e-05,7.54229e-05,0.000100975,0.000134634,0.000178971,0.000237375,0.000314306,0.000415644,0.000549131,0.000724966,0.000956585,0.00126169,0.00166358,0.00219297,0.00289031,0.00380888,0.00501887,0.00661273,0.00871223,0.0114778,0.0151207,0.0199194,0.0262404,inf	14013.9,14013.9,7801.04,4138.68,2179.63,1450.09,1102.84,852.677,638.574,469.944,375.716,341.383,332.897,324.163,314.934,313.698,321.66,335.856,353.569,372.725,394.148,416.8,435.068,442.91,442.576,442.985,443.107,463.672,463.672,839.481,839.481,839.481
0.00102675	-12689458.33	0,1.62463e-06,3.76468e-06,6.58365e-06,1.02969e-05,1.51882e-05,2.16313e-05,3.01185e-05,4.12981e-05,5.60246e-05,7.54229e-05,0.000100975,0.000134634,0.000178971,0.000237375,0.000314306,0.000415644,0.000549131,0.000724966,0.000956585,0.00126169,0.00166358,0.00219297,0.00289031,0.00380888,0.00501887,0.00661273,0.00871223,0.0114778,0.0151207,0.0199194,0.0262404,inf	13752.9,13752.9,7699.48,3973.37,2058.95,1390.89,1078.7,843.912,630.742,460.056,367.918,338.249,333.711,326.078,316.6,315.453,323.898,338.46,356.035,374.476,394.909,416.553,433.823,440.555,439.411,439.901,440.49,465.937,465.937,1016.29,1016.29,1016.29
0.00108856	-12687440.11	0,1.62463e-06,3.76468e-06,6.58365e-06,1.02969e-05,1.51882e-05,2.16313e-05,3.01185e-05,4.12981e-05,5.60246e-05,7.54229e-05,0.000100975,0.000134634,0.000178971,0.000237375,0.000314306,0.000415644,0.000549131,0.000724966,0.000956585,0.00126169,0.00166358,0.00219297,0.00289031,0.00380888,0.00501887,0.00661273,0.00871223,0.0114778,0.0151207,0.0199194,0.0262404,inf	13577.7,13577.7,7624.46,3821.67,1950.65,1337.75,1056.46,835.093,622.269,450.052,360.446,335.48,334.769,328.18,318.516,317.523,326.441,341.3,358.643,376.3,395.677,416.23,432.424,438.004,436.017,436.471,437.439,467.802,467.802,1369.37,1369.37,1369.37
0.00114721	-12685741.35	0,1.62463e-06,3.76468e-06,6.58365e-06,1.02969e-05,1.51882e-05,2.16313e-05,3.01185e-05,4.12981e-05,5.60246e-05,7.54229e-05,0.000100975,0.000134634,0.000178971,0.000237375,0.000314306,0.000415644,0.000549131,0.000724966,0.000956585,0.00126169,0.00166358,0.00219297,0.00289031,0.00380888,0.00501887,0.00661273,0.00871223,0.0114778,0.0151207,0.0199194,0.0262404,inf	13451.6,13451.6,7569.13,3683.71,1855,1291.55,1037.38,827.356,613.989,440.402,353.483,333.111,336.018,330.352,320.509,319.688,329.059,344.164,361.229,378.091,396.418,415.879,430.992,435.423,432.57,432.872,434.109,469.446,469.446,2908.3,2908.3,2908.3
0.00114721	-12684305.25	0,1.62463e-06,3.76468e-06,6.58365e-06,1.02969e-05,1.51882e-05,2.16313e-05,3.01185e-05,4.12981e-05,5.60246e-05,7.54229e-05,0.000100975,0.000134634,0.000178971,0.000237375,0.000314306,0.000415644,0.000549131,0.000724966,0.000956585,0.00126169,0.00166358,0.00219297,0.00289031,0.00380888,0.00501887,0.00661273,0.00871223,0.0114778,0.0151207,0.0199194,0.0262404,inf	13158.1,13158.1,7416.6,3507.6,1746.45,1234.86,1007.7,809.835,597.969,425.449,342.398,326.647,332.808,327.946,318.008,317.326,326.93,341.972,358.463,374.348,391.527,409.904,424.178,427.733,425.033,425.626,427.569,468.421,468.421,64696.7,64696.7,64696.7
0.00114721	-12684266.76	0,1.62463e-06,3.76468e-06,6.58365e-06,1.02969e-05,1.51882e-05,2.16313e-05,3.01185e-05,4.12981e-05,5.60246e-05,7.54229e-05,0.000100975,0.000134634,0.000178971,0.000237375,0.000314306,0.000415644,0.000549131,0.000724966,0.000956585,0.00126169,0.00166358,0.00219297,0.00289031,0.00380888,0.00501887,0.00661273,0.00871223,0.0114778,0.0151207,0.0199194,0.0262404,inf	13158.2,13158.2,7416.61,3449.9,1697.26,1216.05,1005.34,811.68,594.412,418.136,336.405,324.105,332.942,328.418,318.092,317.465,327.397,342.575,358.724,373.83,390.002,407.337,420.488,423.061,419.673,420.135,422.409,468.556,468.556,64699.8,64699.8,64699.8
0.00114721	-12684246.78	0,1.62463e-06,3.76468e-06,6.58365e-06,1.02969e-05,1.51882e-05,2.16313e-05,3.01185e-05,4.12981e-05,5.60246e-05,7.54229e-05,0.000100975,0.000134634,0.000178971,0.000237375,0.000314306,0.000415644,0.000549131,0.000724966,0.000956585,0.00126169,0.00166358,0.00219297,0.00289031,0.00380888,0.00501887,0.00661273,0.00871223,0.0114778,0.0151207,0.0199194,0.0262404,inf	13158.5,13158.5,7416.61,3421.52,1663.49,1206.86,1009.85,818.34,593.86,412.601,331.458,322.147,333.375,328.947,318.155,317.623,328.054,343.592,359.533,373.83,389.814,406.329,418.595,420.166,415.895,415.902,418.257,468.556,468.556,64702.1,64702.1,64702.1
0.00114721	-12684237.34	0,1.62463e-06,3.76468e-06,6.58365e-06,1.02969e-05,1.51882e-05,2.16313e-05,3.01185e-05,4.12981e-05,5.60246e-05,7.54229e-05,0.000100975,0.000134634,0.000178971,0.000237375,0.000314306,0.000415644,0.000549131,0.000724966,0.000956585,0.00126169,0.00166358,0.00219297,0.00289031,0.00380888,0.00501887,0.00661273,0.00871223,0.0114778,0.0151207,0.0199194,0.0262404,inf	13158.6,13158.6,7416.61,3406.49,1636.29,1201.4,1016.95,826.913,594.564,407.884,326.991,320.374,333.774,329.367,317.988,317.53,328.481,344.517,359.893,373.83,389.814,406.133,417.721,418.368,413.153,412.559,414.78,469.902,469.902,64702.9,64702.9,64702.9
0.00114721	-12684235.00	0,1.62463e-06,3.76468e-06,6.58365e-06,1.02969e-05,1.51882e-05,2.16313e-05,3.01185e-05,4.12981e-05,5.60246e-05,7.54229e-05,0.000100975,0.000134634,0.000178971,0.000237375,0.000314306,0.000415644,0.000549131,0.000724966,0.000956585,0.00126169,0.00166358,0.00219297,0.00289031,0.00380888,0.00501887,0.00661273,0.00871223,0.0114778,0.0151207,0.0199194,0.0262404,inf	13158.9,13158.9,7416.61,3398.15,1612.19,1197.42,1025.05,836.363,594.568,403.756,322.937,318.791,334.197,329.691,317.691,317.279,328.757,345.343,360.175,373.83,389.814,406.133,417.466,417.275,411.107,409.826,411.782,471.636,471.636,64703.2,64703.2,64703.2
0.00114721	-12684234.92	0,1.62463e-06,3.76468e-06,6.58365e-06,1.02969e-05,1.51882e-05,2.16313e-05,3.01185e-05,4.12981e-05,5.60246e-05,7.54229e-05,0.000100975,0.000134634,0.000178971,0.000237375,0.000314306,0.000415644,0.000549131,0.000724966,0.000956585,0.00126169,0.00166358,0.00219297,0.00289031,0.00380888,0.00501887,0.00661273,0.00871223,0.0114778,0.0151207,0.0199194,0.0262404,inf	13159,13159,7416.61,3394.03,1589.88,1194.05,1033.6,842.941,594.568,400.135,319.263,317.443,334.748,330.044,317.335,316.927,328.757,346.07,360.606,373.83,389.814,406.133,417.466,416.662,409.554,407.537,409.141,473.452,473.452,64703.2,64703.2,64703.2
0.00114721	-12684235.63	0,1.62463e-06,3.76468e-06,6.58365e-06,1.02969e-05,1.51882e-05,2.16313e-05,3.01185e-05,4.12981e-05,5.60246e-05,7.54229e-05,0.000100975,0.000134634,0.000178971,0.000237375,0.000314306,0.000415644,0.000549131,0.000724966,0.000956585,0.00126169,0.00166358,0.00219297,0.00289031,0.00380888,0.00501887,0.00661273,0.00871223,0.0114778,0.0151207,0.0199194,0.0262404,inf	13159.1,13159.1,7416.61,3393.43,1569.17,1191.36,1042.7,846.842,594.568,397.008,315.961,316.356,335.438,330.431,316.956,316.508,328.824,346.71,360.945,373.83,389.814,406.133,417.466,416.392,408.367,405.585,406.813,473.452,473.452,64704.1,64704.1,64704.1
0.00114721	-12684233.37	0,1.62463e-06,3.76468e-06,6.58365e-06,1.02969e-05,1.51882e-05,2.16313e-05,3.01185e-05,4.12981e-05,5.60246e-05,7.54229e-05,0.000100975,0.000134634,0.000178971,0.000237375,0.000314306,0.000415644,0.000549131,0.000724966,0.000956585,0.00126169,0.00166358,0.00219297,0.00289031,0.00380888,0.00501887,0.00661273,0.00871223,0.0114778,0.0151207,0.0199194,0.0262404,inf	13159.3,13159.3,7416.62,3393.43,1549.82,1189.28,1052.43,849.025,594.637,394.313,312.993,315.456,336.247,330.856,316.564,316.035,328.813,347.269,361.286,373.83,389.814,406.133,417.466,416.392,407.485,403.927,404.736,473.452,473.452,64704.8,64704.8,64704.8
0.00114721	-12684231.38	0,1.62463e-06,3.76468e-06,6.58365e-06,1.02969e-05,1.51882e-05,2.16313e-05,3.01185e-05,4.12981e-05,5.60246e-05,7.54229e-05,0.000100975,0.000134634,0.000178971,0.000237375,0.000314306,0.000415644,0.000549131,0.000724966,0.000956585,0.00126169,0.00166358,0.00219297,0.00289031,0.00380888,0.00501887,0.00661273,0.00871223,0.0114778,0.0151207,0.0199194,0.0262404,inf	13159.4,13159.4,7416.62,3393.43,1531.59,1187.71,1062.67,850.138,594.637,391.985,310.288,314.74,337.159,331.312,316.166,315.529,328.741,347.758,361.286,374.081,389.814,406.133,417.466,416.392,406.844,402.506,402.838,474.549,474.549,64704.8,64704.8,64704.8
0.00114721	-12684231.77	0,1.62463e-06,3.76468e-06,6.58365e-06,1.02969e-05,1.51882e-05,2.16313e-05,3.01185e-05,4.12981e-05,5.60246e-05,7.54229e-05,0.000100975,0.000134634,0.000178971,0.000237375,0.000314306,0.000415644,0.000549131,0.000724966,0.000956585,0.00126169,0.00166358,0.00219297,0.00289031,0.00380888,0.00501887,0.00661273,0.00871223,0.0114778,0.0151207,0.0199194,0.0262404,inf	13159.5,13159.5,7416.62,3393.43,1514.29,1186.53,1073.35,850.19,594.707,389.974,307.819,314.164,338.172,331.817,315.781,315.01,328.636,348.207,361.565,374.081,389.814,406.133,417.466,416.392,406.387,401.263,401.092,475.509,475.509,64704.8,64704.8,64704.8
0.00114721	-12684232.18	0,1.62463e-06,3.76468e-06,6.58365e-06,1.02969e-05,1.51882e-05,2.16313e-05,3.01185e-05,4.12981e-05,5.60246e-05,7.54229e-05,0.000100975,0.000134634,0.000178971,0.000237375,0.000314306,0.000415644,0.000549131,0.000724966,0.000956585,0.00126169,0.00166358,0.00219297,0.00289031,0.00380888,0.00501887,0.00661273,0.00871223,0.0114778,0.0151207,0.0199194,0.0262404,inf	13159.8,13159.8,7416.62,3393.43,1497.74,1185.63,1083.57,850.194,594.707,388.208,305.507,313.691,339.246,332.339,315.393,314.487,328.495,348.211,362.135,374.081,389.814,406.133,417.466,416.392,406.088,400.173,399.477,476.366,476.366,64704.8,64704.8,64704.8
0.00114721	-12684232.47	0,1.62463e-06,3.76468e-06,6.58365e-06,1.02969e-05,1.51882e-05,2.16313e-05,3.01185e-05,4.12981e-05,5.60246e-05,7.54229e-05,0.000100975,0.000134634,0.000178971,0.000237375,0.000314306,0.000415644,0.000549131,0.000724966,0.000956585,0.00126169,0.00166358,0.00219297,0.00289031,0.00380888,0.00501887,0.00661273,0.00871223,0.0114778,0.0151207,0.0199194,0.0262404,inf	13159.8,13159.8,7416.62,3393.43,1481.83,1184.92,1093.27,850.194,594.707,386.654,303.35,313.325,340.385,332.902,315.028,313.968,328.34,348.579,362.354,374.081,389.814,406.133,417.466,416.392,405.922,399.213,397.973,477.129,477.129,64704.8,64704.8,64704.8
