time_index	left_time_boundary	right_time_boundary	lambda
0	0	4.18663e-06	645.588
1	4.18663e-06	1.1451e-05	645.588
2	1.1451e-05	2.40558e-05	133.766
3	2.40558e-05	4.59269e-05	395.303
4	4.59269e-05	8.38764e-05	535.41
5	8.38764e-05	0.000149724	366.247
6	0.000149724	0.00026398	393.237
7	0.00026398	0.00046223	294.926
8	0.00046223	0.000806222	306.327
9	0.000806222	0.0014031	310.95
10	0.0014031	0.00243876	409.752
11	0.00243876	0.00423579	457.307
12	0.00423579	0.00735389	525.261
13	0.00735389	0.0127642	197.429
14	0.0127642	0.022152	197.429
15	0.022152	inf	197.429
