AIC = 841161.12660217075609

y0 2.3091146993904101059e-08
y0_prime 0
y1 0.75204341224144954925
y1_prime 0
y2 1.9420960371233655373
y2_prime 0
y3 2.1570028955932976089
y3_prime 0
rho 0.0083790217142278907575
theta 0.0070985348721625714241
