0.000500827	-10992187.73	0,1.38293e-06,3.20459e-06,5.60417e-06,8.76501e-06,1.29286e-05,1.84131e-05,2.56376e-05,3.5154e-05,4.76895e-05,6.42019e-05,8.59528e-05,0.000114604,0.000152345,0.000202059,0.000267545,0.000353806,0.000467434,0.00061711,0.00081427,0.00107398,0.00141608,0.00186671,0.00246031,0.00324222,0.00427219,0.00562892,0.00741607,0.00977019,0.0128712,0.0169559,0.0223365,inf	9264.05,9264.05,7596.39,3972.17,3224.01,1288.42,452.541,218.152,103.108,75.3485,82.8545,98.9563,110.504,106.657,101.619,110.149,133.2,169.271,219.763,287.397,373.027,470.113,556.567,601.126,595.604,563.949,529.037,483.233,483.233,260.43,260.43,260.43
0.000530776	-10977462.06	0,1.38293e-06,3.20459e-06,5.60417e-06,8.76501e-06,1.29286e-05,1.84131e-05,2.56376e-05,3.5154e-05,4.76895e-05,6.42019e-05,8.59528e-05,0.000114604,0.000152345,0.000202059,0.000267545,0.000353806,0.000467434,0.00061711,0.00081427,0.00107398,0.00141608,0.00186671,0.00246031,0.00324222,0.00427219,0.00562892,0.00741607,0.00977019,0.0128712,0.0169559,0.0223365,inf	12367.1,12367.1,12256.5,5882.83,5716.27,1572.32,336.445,101.607,30.3225,21.7882,31.5336,50.1654,65.8157,55.0932,38.6741,38.9306,54.7537,86.5039,139.531,220.32,331.484,466.479,597.181,670.969,663.524,605.9,539.731,459.303,459.303,4.92576,4.92576,4.92576
0.000560025	-10974970.55	0,1.38293e-06,3.20459e-06,5.60417e-06,8.76501e-06,1.29286e-05,1.84131e-05,2.56376e-05,3.5154e-05,4.76895e-05,6.42019e-05,8.59528e-05,0.000114604,0.000152345,0.000202059,0.000267545,0.000353806,0.000467434,0.00061711,0.00081427,0.00107398,0.00141608,0.00186671,0.00246031,0.00324222,0.00427219,0.00562892,0.00741607,0.00977019,0.0128712,0.0169559,0.0223365,inf	12289.8,12289.8,13779.2,6470.01,7636.65,1619.15,243.388,51.0329,11.309,9.20491,18.6608,40.4281,63.0663,45.7522,21.4899,17.6541,27.3058,52.294,101.836,186.556,310.55,466.777,624.835,720.384,717.125,645.715,568.317,552.626,552.626,2.6621,2.6621,2.6621
0.0005878	-10972909.25	0,1.38293e-06,3.20459e-06,5.60417e-06,8.76501e-06,1.29286e-05,1.84131e-05,2.56376e-05,3.5154e-05,4.76895e-05,6.42019e-05,8.59528e-05,0.000114604,0.000152345,0.000202059,0.000267545,0.000353806,0.000467434,0.00061711,0.00081427,0.00107398,0.00141608,0.00186671,0.00246031,0.00324222,0.00427219,0.00562892,0.00741607,0.00977019,0.0128712,0.0169559,0.0223365,inf	11813.3,11813.3,14076.2,6439.81,9018.07,1531.71,172.11,26.1406,4.62195,4.49273,12.9438,37.8288,69.5305,45.3128,14.7021,9.47416,15.446,35.0317,80.4793,166.375,298.001,466.941,640.978,749.717,749.294,664.477,573.521,597.405,597.405,3.26048,3.26048,3.26048
0.000614063	-10971769.55	0,1.38293e-06,3.20459e-06,5.60417e-06,8.76501e-06,1.29286e-05,1.84131e-05,2.56376e-05,3.5154e-05,4.76895e-05,6.42019e-05,8.59528e-05,0.000114604,0.000152345,0.000202059,0.000267545,0.000353806,0.000467434,0.00061711,0.00081427,0.00107398,0.00141608,0.00186671,0.00246031,0.00324222,0.00427219,0.00562892,0.00741607,0.00977019,0.0128712,0.0169559,0.0223365,inf	11475.3,11475.3,14032.1,6173.75,9995.81,1378.87,119.417,13.3277,1.93734,2.29873,9.41437,36.5368,77.949,46.8995,11.1733,5.72819,9.5986,25.28,67.2212,153.609,290.666,468.029,651.531,768.049,769.639,672.684,569.154,618.094,618.094,2.50364,2.50364,2.50364
0.000639023	-10971086.13	0,1.38293e-06,3.20459e-06,5.60417e-06,8.76501e-06,1.29286e-05,1.84131e-05,2.56376e-05,3.5154e-05,4.76895e-05,6.42019e-05,8.59528e-05,0.000114604,0.000152345,0.000202059,0.000267545,0.000353806,0.000467434,0.00061711,0.00081427,0.00107398,0.00141608,0.00186671,0.00246031,0.00324222,0.00427219,0.00562892,0.00741607,0.00977019,0.0128712,0.0169559,0.0223365,inf	11271.6,11271.6,13938.8,5837.15,10691.6,1202.82,81.64,6.72634,0.816226,1.19763,6.95874,35.3217,86.1119,48.5702,8.97195,3.77459,6.41114,19.2939,58.4393,145.241,286.613,469.889,658.77,779.528,782.576,674.875,560.768,631.235,631.235,3.20405,3.20405,3.20405
0.000662962	-10970497.30	0,1.38293e-06,3.20459e-06,5.60417e-06,8.76501e-06,1.29286e-05,1.84131e-05,2.56376e-05,3.5154e-05,4.76895e-05,6.42019e-05,8.59528e-05,0.000114604,0.000152345,0.000202059,0.000267545,0.000353806,0.000467434,0.00061711,0.00081427,0.00107398,0.00141608,0.00186671,0.00246031,0.00324222,0.00427219,0.00562892,0.00741607,0.00977019,0.0128712,0.0169559,0.0223365,inf	11145.7,11145.7,13878.7,5497.03,11189.7,1026.71,55.1377,3.35291,0.509788,0.631518,5.19826,34.052,93.4553,49.7825,7.43726,2.65247,4.53203,15.3798,52.3487,139.68,284.751,472.366,663.972,786.634,790.728,673.426,550.435,640.311,640.311,2.45794,2.45794,2.45794
0.000686057	-10970063.44	0,1.38293e-06,3.20459e-06,5.60417e-06,8.76501e-06,1.29286e-05,1.84131e-05,2.56376e-05,3.5154e-05,4.76895e-05,6.42019e-05,8.59528e-05,0.000114604,0.000152345,0.000202059,0.000267545,0.000353806,0.000467434,0.00061711,0.00081427,0.00107398,0.00141608,0.00186671,0.00246031,0.00324222,0.00427219,0.00562892,0.00741607,0.00977019,0.0128712,0.0169559,0.0223365,inf	11056.6,11056.6,13864.4,5177.93,11543.3,862.057,36.8291,1.65294,0.509786,0.509786,3.92748,32.8106,99.9692,50.4289,6.29113,1.95848,3.35205,12.6894,47.9742,135.987,284.359,475.228,667.74,790.736,795.582,669.696,539.427,649.729,649.729,3.2062,3.2062,3.2062
0.000708498	-10969605.66	0,1.38293e-06,3.20459e-06,5.60417e-06,8.76501e-06,1.29286e-05,1.84131e-05,2.56376e-05,3.5154e-05,4.76895e-05,6.42019e-05,8.59528e-05,0.000114604,0.000152345,0.000202059,0.000267545,0.000353806,0.000467434,0.00061711,0.00081427,0.00107398,0.00141608,0.00186671,0.00246031,0.00324222,0.00427219,0.00562892,0.00741607,0.00977019,0.0128712,0.0169559,0.0223365,inf	10982.6,10982.6,13892.9,4888.48,11785.7,714.01,24.3328,0.801288,0.509786,0.509786,3.00641,31.6793,105.786,50.5443,5.39654,1.50381,2.57212,10.7653,44.7539,133.6,285.011,478.38,670.567,792.867,798.248,664.56,528.14,657.946,657.946,2.47102,2.47102,2.47102
0.000730375	-10969254.04	0,1.38293e-06,3.20459e-06,5.60417e-06,8.76501e-06,1.29286e-05,1.84131e-05,2.56376e-05,3.5154e-05,4.76895e-05,6.42019e-05,8.59528e-05,0.000114604,0.000152345,0.000202059,0.000267545,0.000353806,0.000467434,0.00061711,0.00081427,0.00107398,0.00141608,0.00186671,0.00246031,0.00324222,0.00427219,0.00562892,0.00741607,0.00977019,0.0128712,0.0169559,0.0223365,inf	10915.3,10915.3,13955.7,4630.12,11940.3,584.494,15.9035,0.509787,0.509786,0.509786,2.33412,30.7114,111.057,50.2026,4.67757,1.19144,2.03398,9.34343,42.3365,132.14,286.379,481.669,672.644,793.563,799.333,658.551,517.034,667.502,667.502,3.18847,3.18847,3.18847
0.000751808	-10968852.89	0,1.38293e-06,3.20459e-06,5.60417e-06,8.76501e-06,1.29286e-05,1.84131e-05,2.56376e-05,3.5154e-05,4.76895e-05,6.42019e-05,8.59528e-05,0.000114604,0.000152345,0.000202059,0.000267545,0.000353806,0.000467434,0.00061711,0.00081427,0.00107398,0.00141608,0.00186671,0.00246031,0.00324222,0.00427219,0.00562892,0.00741607,0.00977019,0.0128712,0.0169559,0.0223365,inf	10851.7,10851.7,14046.2,4401.76,12023.8,473.43,10.2728,0.509787,0.509786,0.509786,1.83965,29.9333,115.908,49.4864,4.08764,0.968309,1.64912,8.26486,40.5006,131.366,288.274,485.062,674.222,793.333,799.383,652.045,506.122,676.045,676.045,2.52423,2.52423,2.52423
0.000772834	-10968541.49	0,1.38293e-06,3.20459e-06,5.60417e-06,8.76501e-06,1.29286e-05,1.84131e-05,2.56376e-05,3.5154e-05,4.76895e-05,6.42019e-05,8.59528e-05,0.000114604,0.000152345,0.000202059,0.000267545,0.000353806,0.000467434,0.00061711,0.00081427,0.00107398,0.00141608,0.00186671,0.00246031,0.00324222,0.00427219,0.00562892,0.00741607,0.00977019,0.0128712,0.0169559,0.0223365,inf	10790.1,10790.1,14157.3,4201.93,12048.5,379.713,6.56589,0.509787,0.509786,0.509786,1.47216,29.3502,120.422,48.4642,3.59529,0.800224,1.36543,7.4282,39.0935,131.098,290.525,488.457,675.359,792.395,798.661,645.272,495.622,685.775,685.775,3.14839,3.14839,3.14839
0.000793534	-10968179.85	0,1.38293e-06,3.20459e-06,5.60417e-06,8.76501e-06,1.29286e-05,1.84131e-05,2.56376e-05,3.5154e-05,4.76895e-05,6.42019e-05,8.59528e-05,0.000114604,0.000152345,0.000202059,0.000267545,0.000353806,0.000467434,0.00061711,0.00081427,0.00107398,0.00141608,0.00186671,0.00246031,0.00324222,0.00427219,0.00562892,0.00741607,0.00977019,0.0128712,0.0169559,0.0223365,inf	10730.1,10730.1,14284.3,4028.31,12026.2,301.746,4.15043,0.509787,0.509786,0.509786,1.19651,28.9584,124.661,47.2036,3.17983,0.672734,1.15087,6.76758,38.0142,131.218,293.044,491.852,676.203,791.028,797.46,638.401,485.454,694.468,694.468,2.60016,2.60016,2.60016
0.000813918	-10967894.07	0,1.38293e-06,3.20459e-06,5.60417e-06,8.76501e-06,1.29286e-05,1.84131e-05,2.56376e-05,3.5154e-05,4.76895e-05,6.42019e-05,8.59528e-05,0.000114604,0.000152345,0.000202059,0.000267545,0.000353806,0.000467434,0.00061711,0.00081427,0.00107398,0.00141608,0.00186671,0.00246031,0.00324222,0.00427219,0.00562892,0.00741607,0.00977019,0.0128712,0.0169559,0.0223365,inf	10671.6,10671.6,14422.3,3878.55,11964.3,237.72,2.5921,0.509787,0.509786,0.509786,0.986603,28.7531,128.656,45.7579,2.82554,0.573562,0.984993,6.23788,37.1871,131.631,295.733,495.182,676.765,789.315,795.891,631.533,475.733,704.038,704.038,3.09988,3.09988,3.09988
0.00083404	-10967566.62	0,1.38293e-06,3.20459e-06,5.60417e-06,8.76501e-06,1.29286e-05,1.84131e-05,2.56376e-05,3.5154e-05,4.76895e-05,6.42019e-05,8.59528e-05,0.000114604,0.000152345,0.000202059,0.000267545,0.000353806,0.000467434,0.00061711,0.00081427,0.00107398,0.00141608,0.00186671,0.00246031,0.00324222,0.00427219,0.00562892,0.00741607,0.00977019,0.0128712,0.0169559,0.0223365,inf	10616.5,10616.5,14570.3,3751.06,11870.9,185.765,1.60107,0.509787,0.509786,0.509786,0.821793,28.726,132.423,44.1724,2.52047,0.509786,0.850771,5.80809,36.5606,132.276,298.548,498.458,677.143,787.418,794.118,624.744,466.373,712.652,712.652,2.68385,2.68385,2.68385
0.000853901	-10967300.23	0,1.38293e-06,3.20459e-06,5.60417e-06,8.76501e-06,1.29286e-05,1.84131e-05,2.56376e-05,3.5154e-05,4.76895e-05,6.42019e-05,8.59528e-05,0.000114604,0.000152345,0.000202059,0.000267545,0.000353806,0.000467434,0.00061711,0.00081427,0.00107398,0.00141608,0.00186671,0.00246031,0.00324222,0.00427219,0.00562892,0.00741607,0.00977019,0.0128712,0.0169559,0.0223365,inf	10563,10563,14723.1,3643.47,11751.7,144.045,0.979026,0.509787,0.509786,0.509786,0.694061,28.8716,135.972,42.485,2.2556,0.509786,0.743443,5.45564,36.0936,133.097,301.434,501.637,677.332,785.368,792.187,618.075,457.43,721.845,721.845,3.0556,3.0556,3.0556
0.000873535	-10967003.77	0,1.38293e-06,3.20459e-06,5.60417e-06,8.76501e-06,1.29286e-05,1.84131e-05,2.56376e-05,3.5154e-05,4.76895e-05,6.42019e-05,8.59528e-05,0.000114604,0.000152345,0.000202059,0.000267545,0.000353806,0.000467434,0.00061711,0.00081427,0.00107398,0.00141608,0.00186671,0.00246031,0.00324222,0.00427219,0.00562892,0.00741607,0.00977019,0.0128712,0.0169559,0.0223365,inf	10512.9,10512.9,14879.1,3554.46,11612.5,110.853,0.527681,0.509787,0.509786,0.509786,0.594424,29.1848,139.291,40.7145,2.02197,0.509786,0.656201,5.16419,35.7567,134.059,304.367,504.733,677.397,783.256,790.191,611.557,448.834,730.24,730.24,2.76453,2.76453,2.76453
0.000892939	-10966753.93	0,1.38293e-06,3.20459e-06,5.60417e-06,8.76501e-06,1.29286e-05,1.84131e-05,2.56376e-05,3.5154e-05,4.76895e-05,6.42019e-05,8.59528e-05,0.000114604,0.000152345,0.000202059,0.000267545,0.000353806,0.000467434,0.00061711,0.00081427,0.00107398,0.00141608,0.00186671,0.00246031,0.00324222,0.00427219,0.00562892,0.00741607,0.00977019,0.0128712,0.0169559,0.0223365,inf	10465.1,10465.1,15035.5,3482.66,11457.9,84.7157,0.509804,0.509787,0.509786,0.509786,0.516029,29.6659,142.392,38.8955,1.81578,0.509786,0.584485,4.92154,35.5261,135.129,307.313,507.721,677.333,781.094,788.146,605.205,440.607,738.965,738.965,3.02308,3.02308,3.02308
0.000912137	-10966485.17	0,1.38293e-06,3.20459e-06,5.60417e-06,8.76501e-06,1.29286e-05,1.84131e-05,2.56376e-05,3.5154e-05,4.76895e-05,6.42019e-05,8.59528e-05,0.000114604,0.000152345,0.000202059,0.000267545,0.000353806,0.000467434,0.00061711,0.00081427,0.00107398,0.00141608,0.00186671,0.00246031,0.00324222,0.00427219,0.00562892,0.00741607,0.00977019,0.0128712,0.0169559,0.0223365,inf	10421.6,10421.6,15191.5,3426.49,11291.1,64.3172,0.509804,0.509787,0.509786,0.509786,0.509787,30.3147,145.28,37.0589,1.63343,0.509786,0.524989,4.7188,35.3851,136.288,310.263,510.615,677.182,778.934,786.106,599.027,432.698,747.064,747.064,2.83551,2.83551,2.83551
0.000931125	-10966250.50	0,1.38293e-06,3.20459e-06,5.60417e-06,8.76501e-06,1.29286e-05,1.84131e-05,2.56376e-05,3.5154e-05,4.76895e-05,6.42019e-05,8.59528e-05,0.000114604,0.000152345,0.000202059,0.000267545,0.000353806,0.000467434,0.00061711,0.00081427,0.00107398,0.00141608,0.00186671,0.00246031,0.00324222,0.00427219,0.00562892,0.00741607,0.00977019,0.0128712,0.0169559,0.0223365,inf	10379.6,10379.6,15344,3384.81,11115.4,48.5198,0.509804,0.509787,0.509786,0.509786,0.509787,31.13,147.946,35.2237,1.47162,0.509786,0.509786,4.54895,35.3189,137.514,313.196,513.4,676.941,776.78,784.075,593.025,425.11,755.305,755.305,3.00484,3.00484,3.00484
