0.000521148	-10991393.55	0,3.20459e-06,8.76501e-06,1.84131e-05,3.5154e-05,6.42019e-05,0.000114604,0.000202059,0.000353806,0.00061711,0.00107398,0.00186671,0.00324222,0.00562892,0.00977019,0.0169559,inf	6410.16,6410.16,2020.83,283.479,77.3044,90.1073,105.459,101.69,147.797,244.287,411.539,625.822,607.013,449.28,449.28,449.28
0.000568848	-10975571.82	0,3.20459e-06,8.76501e-06,1.84131e-05,3.5154e-05,6.42019e-05,0.000114604,0.000202059,0.000353806,0.00061711,0.00107398,0.00186671,0.00324222,0.00562892,0.00977019,0.0169559,inf	9997.29,9997.29,2867.63,147.44,21.1717,42.0833,59.6546,36.3995,70.0728,173.198,379.404,701.943,684.337,384.646,384.646,384.646
0.000612036	-10971374.83	0,3.20459e-06,8.76501e-06,1.84131e-05,3.5154e-05,6.42019e-05,0.000114604,0.000202059,0.000353806,0.00061711,0.00107398,0.00186671,0.00324222,0.00562892,0.00977019,0.0169559,inf	11265.4,11265.4,3363.76,78.3526,8.20801,31.667,53.4869,17.6784,40.7235,140.707,362.637,745.872,740.441,323.353,323.353,323.353
0.000650104	-10969554.65	0,3.20459e-06,8.76501e-06,1.84131e-05,3.5154e-05,6.42019e-05,0.000114604,0.000202059,0.000353806,0.00061711,0.00107398,0.00186671,0.00324222,0.00562892,0.00977019,0.0169559,inf	11676.1,11676.1,3616.54,41.0511,3.67464,28.5118,55.447,10.3389,26.8509,123.146,353.446,770.658,782.381,269.546,269.546,269.546
0.000684151	-10968566.05	0,3.20459e-06,8.76501e-06,1.84131e-05,3.5154e-05,6.42019e-05,0.000114604,0.000202059,0.000353806,0.00061711,0.00107398,0.00186671,0.00324222,0.00562892,0.00977019,0.0169559,inf	11825.7,11825.7,3708.54,20.9581,1.74096,27.3625,58.9656,6.77072,19.3084,112.88,348.707,784.252,816.341,223.795,223.795,223.795
0.000715079	-10968014.30	0,3.20459e-06,8.76501e-06,1.84131e-05,3.5154e-05,6.42019e-05,0.000114604,0.000202059,0.000353806,0.00061711,0.00107398,0.00186671,0.00324222,0.00562892,0.00977019,0.0169559,inf	11912.9,11912.9,3706.86,10.4449,0.848723,27.0191,62.2309,4.76939,14.7797,106.669,346.738,791.011,846.972,185.326,185.326,185.326
0.000743392	-10967796.92	0,3.20459e-06,8.76501e-06,1.84131e-05,3.5154e-05,6.42019e-05,0.000114604,0.000202059,0.000353806,0.00061711,0.00107398,0.00186671,0.00324222,0.00562892,0.00977019,0.0169559,inf	12001,12001,3658.28,5.11005,0.509786,27.1911,64.849,3.53625,11.8545,102.951,346.643,793.125,877.676,153.054,153.054,153.054
0.000769345	-10967894.54	0,3.20459e-06,8.76501e-06,1.84131e-05,3.5154e-05,6.42019e-05,0.000114604,0.000202059,0.000353806,0.00061711,0.00107398,0.00186671,0.00324222,0.00562892,0.00977019,0.0169559,inf	12094.8,12094.8,3586.4,2.46372,0.509786,27.7639,66.779,2.72174,9.8463,100.79,347.643,791.88,911.163,126.062,126.062,126.062
0.000792934	-10968305.87	0,3.20459e-06,8.76501e-06,1.84131e-05,3.5154e-05,6.42019e-05,0.000114604,0.000202059,0.000353806,0.00061711,0.00107398,0.00186671,0.00324222,0.00562892,0.00977019,0.0169559,inf	12199.6,12199.6,3507.51,1.17522,0.509786,28.7002,68.1595,2.156,8.40225,99.6815,349.347,787.767,949.465,103.615,103.615,103.615
0.000813983	-10969018.34	0,3.20459e-06,8.76501e-06,1.84131e-05,3.5154e-05,6.42019e-05,0.000114604,0.000202059,0.000353806,0.00061711,0.00107398,0.00186671,0.00324222,0.00562892,0.00977019,0.0169559,inf	12314.6,12314.6,3430.1,0.557137,0.509786,29.9672,69.1348,1.74721,7.32339,99.3131,351.513,780.901,994.134,85.0588,85.0588,85.0588
0.000832198	-10969997.96	0,3.20459e-06,8.76501e-06,1.84131e-05,3.5154e-05,6.42019e-05,0.000114604,0.000202059,0.000353806,0.00061711,0.00107398,0.00186671,0.00324222,0.00562892,0.00977019,0.0169559,inf	12436.1,12436.1,3358.34,0.509787,0.509786,31.5156,69.8178,1.44202,6.49004,99.4844,353.994,771.207,1046.33,69.6147,69.6147,69.6147
0.000847245	-10971208.22	0,3.20459e-06,8.76501e-06,1.84131e-05,3.5154e-05,6.42019e-05,0.000114604,0.000202059,0.000353806,0.00061711,0.00107398,0.00186671,0.00324222,0.00562892,0.00977019,0.0169559,inf	12558.6,12558.6,3294.75,0.509787,0.509786,33.2777,70.2942,1.20756,5.82628,100.06,356.712,758.593,1107.25,56.3536,56.3536,56.3536
0.000858769	-10972651.23	0,3.20459e-06,8.76501e-06,1.84131e-05,3.5154e-05,6.42019e-05,0.000114604,0.000202059,0.000353806,0.00061711,0.00107398,0.00186671,0.00324222,0.00562892,0.00977019,0.0169559,inf	12676.9,12676.9,3241.41,0.509787,0.509786,35.1773,70.6386,1.02307,5.28157,100.94,359.621,743.035,1179.2,44.3122,44.3122,44.3122
0.000866247	-10974407.24	0,3.20459e-06,8.76501e-06,1.84131e-05,3.5154e-05,6.42019e-05,0.000114604,0.000202059,0.000353806,0.00061711,0.00107398,0.00186671,0.00324222,0.00562892,0.00977019,0.0169559,inf	12786.5,12786.5,3200.43,0.509787,0.509786,37.1229,70.9171,0.872624,4.82115,102.047,362.68,724.52,1268.03,32.564,32.564,32.564
0.000868594	-10976678.07	0,3.20459e-06,8.76501e-06,1.84131e-05,3.5154e-05,6.42019e-05,0.000114604,0.000202059,0.000353806,0.00061711,0.00107398,0.00186671,0.00324222,0.00562892,0.00977019,0.0169559,inf	12884.7,12884.7,3175.47,0.509787,0.509786,39.0185,71.2163,0.750002,4.42013,103.307,365.807,702.86,1389.57,20.5028,20.5028,20.5028
0.000863827	-10979783.16	0,3.20459e-06,8.76501e-06,1.84131e-05,3.5154e-05,6.42019e-05,0.000114604,0.000202059,0.000353806,0.00061711,0.00107398,0.00186671,0.00324222,0.00562892,0.00977019,0.0169559,inf	12974.3,12974.3,3173.65,0.509787,0.509786,40.7515,71.656,0.649356,4.06015,104.646,368.842,677.465,1590.71,9.15862,9.15862,9.15862
0.000852681	-10983573.76	0,3.20459e-06,8.76501e-06,1.84131e-05,3.5154e-05,6.42019e-05,0.000114604,0.000202059,0.000353806,0.00061711,0.00107398,0.00186671,0.00324222,0.00562892,0.00977019,0.0169559,inf	13052.7,13052.7,3198.83,0.509787,0.509786,42.0877,72.3211,0.566268,3.72314,105.896,371.084,646.615,1945.48,1.68803,1.68803,1.68803
0.000841851	-10986138.86	0,3.20459e-06,8.76501e-06,1.84131e-05,3.5154e-05,6.42019e-05,0.000114604,0.000202059,0.000353806,0.00061711,0.00107398,0.00186671,0.00324222,0.00562892,0.00977019,0.0169559,inf	13118.3,13118.3,3245.33,0.509787,0.509786,42.6837,72.9434,0.509786,3.39125,106.741,371.377,609.264,2279.37,3.91834,3.91834,3.91834
0.000833281	-10985791.22	0,3.20459e-06,8.76501e-06,1.84131e-05,3.5154e-05,6.42019e-05,0.000114604,0.000202059,0.000353806,0.00061711,0.00107398,0.00186671,0.00324222,0.00562892,0.00977019,0.0169559,inf	13133.1,13133.1,3287.5,0.509787,0.509786,42.6301,73.4719,0.509786,3.08037,107.716,372.329,573.517,2437.47,0.509786,0.509786,0.509786
0.000827514	-10986324.43	0,3.20459e-06,8.76501e-06,1.84131e-05,3.5154e-05,6.42019e-05,0.000114604,0.000202059,0.000353806,0.00061711,0.00107398,0.00186671,0.00324222,0.00562892,0.00977019,0.0169559,inf	13114.7,13114.7,3320.55,0.509787,0.509786,42.1608,73.8885,0.509786,2.79482,109.069,375.434,541.797,2431.45,4.34777,4.34777,4.34777
