time_index	left_time_boundary	right_time_boundary	lambda
0	0	2.08939e-06	674.058
1	2.08939e-06	5.71479e-06	674.058
2	5.71479e-06	1.20054e-05	684.632
3	1.20054e-05	2.29204e-05	1036.14
4	2.29204e-05	4.18596e-05	811.706
5	4.18596e-05	7.47219e-05	709.974
6	7.47219e-05	0.000131743	878.958
7	0.000131743	0.000230682	814.717
8	0.000230682	0.000402356	713.428
9	0.000402356	0.000700234	723.25
10	0.000700234	0.0012171	845.976
11	0.0012171	0.00211393	810.989
12	0.00211393	0.00367006	338.335
13	0.00367006	0.00637017	97992.2
14	0.00637017	0.0110552	97992.2
15	0.0110552	inf	97992.2
