0.000321802	-171915.14	0,4.73262e-05,0.000112083,0.000200692,0.000321936,0.000487835,0.000714839,0.00102545,0.00145047,0.00203202,0.00282777,0.00391661,0.00540648,0.00744509,0.0102346,0.0140514,inf	643.681,643.681,754.412,776.313,746.168,751.168,802.325,802.215,787.403,790.711,799.63,812.99,698.754,341.468,341.468,341.468
0.000321282	-171913.59	0,4.73262e-05,0.000112083,0.000200692,0.000321936,0.000487835,0.000714839,0.00102545,0.00145047,0.00203202,0.00282777,0.00391661,0.00540648,0.00744509,0.0102346,0.0140514,inf	585.501,585.501,760.267,791.854,725.218,727.769,819.799,816.786,788.446,797.143,819.45,859.595,666.4,57.5464,57.5464,57.5464
0.000320913	-171943.88	0,4.73262e-05,0.000112083,0.000200692,0.000321936,0.000487835,0.000714839,0.00102545,0.00145047,0.00203202,0.00282777,0.00391661,0.00540648,0.00744509,0.0102346,0.0140514,inf	554.701,554.701,773.659,813.276,710.062,708.005,835.168,827.677,787.033,803.091,847.047,956.802,751.323,20.2747,20.2747,20.2747
0.000319127	-171952.66	0,4.73262e-05,0.000112083,0.000200692,0.000321936,0.000487835,0.000714839,0.00102545,0.00145047,0.00203202,0.00282777,0.00391661,0.00540648,0.00744509,0.0102346,0.0140514,inf	533.719,533.719,783.809,832.929,696.052,689.222,846.862,833.464,780.439,801.538,864.265,1057.73,815.499,14.2597,14.2597,14.2597
0.000317456	-171951.29	0,4.73262e-05,0.000112083,0.000200692,0.000321936,0.000487835,0.000714839,0.00102545,0.00145047,0.00203202,0.00282777,0.00391661,0.00540648,0.00744509,0.0102346,0.0140514,inf	519.647,519.647,791.864,852.454,684.366,672.777,857.948,837.677,771.937,795.102,870.185,1139.09,799.618,9.19142,9.19142,9.19142
0.000315879	-171954.93	0,4.73262e-05,0.000112083,0.000200692,0.000321936,0.000487835,0.000714839,0.00102545,0.00145047,0.00203202,0.00282777,0.00391661,0.00540648,0.00744509,0.0102346,0.0140514,inf	509.548,509.548,796.798,870.917,674.248,658.229,868.968,841.802,764.013,787.998,872.515,1221.21,756.313,5.2386,5.2386,5.2386
0.00031435	-171959.10	0,4.73262e-05,0.000112083,0.000200692,0.000321936,0.000487835,0.000714839,0.00102545,0.00145047,0.00203202,0.00282777,0.00391661,0.00540648,0.00744509,0.0102346,0.0140514,inf	502.219,502.219,798.92,888.187,665.252,645.049,879.6,845.814,756.924,781.001,872.946,1311.2,700.581,3.18452,3.18452,3.18452
0.00031289	-171961.97	0,4.73262e-05,0.000112083,0.000200692,0.000321936,0.000487835,0.000714839,0.00102545,0.00145047,0.00203202,0.00282777,0.00391661,0.00540648,0.00744509,0.0102346,0.0140514,inf	496.961,496.961,798.744,904.39,657.162,632.926,889.626,849.591,750.579,774.123,871.4,1409.1,645.955,3.39958,3.39958,3.39958
0.000311546	-171963.42	0,4.73262e-05,0.000112083,0.000200692,0.000321936,0.000487835,0.000714839,0.00102545,0.00145047,0.00203202,0.00282777,0.00391661,0.00540648,0.00744509,0.0102346,0.0140514,inf	493.288,493.288,796.796,919.727,649.889,621.715,899.003,853.107,744.892,767.253,867.344,1510.76,604.888,3.33674,3.33674,3.33674
0.000310342	-171964.38	0,4.73262e-05,0.000112083,0.000200692,0.000321936,0.000487835,0.000714839,0.00102545,0.00145047,0.00203202,0.00282777,0.00391661,0.00540648,0.00744509,0.0102346,0.0140514,inf	490.817,490.817,793.448,934.291,643.326,611.291,907.701,856.36,739.837,760.424,860.655,1608.56,567.068,3.46768,3.46768,3.46768
0.000309289	-171965.16	0,4.73262e-05,0.000112083,0.000200692,0.000321936,0.000487835,0.000714839,0.00102545,0.00145047,0.00203202,0.00282777,0.00391661,0.00540648,0.00744509,0.0102346,0.0140514,inf	489.279,489.279,789.047,948.199,637.406,601.588,915.775,859.434,735.511,753.924,851.937,1699.16,535.696,3.45211,3.45211,3.45211
0.000308387	-171965.81	0,4.73262e-05,0.000112083,0.000200692,0.000321936,0.000487835,0.000714839,0.00102545,0.00145047,0.00203202,0.00282777,0.00391661,0.00540648,0.00744509,0.0102346,0.0140514,inf	488.461,488.461,783.857,961.504,632.051,592.53,923.23,862.34,731.93,747.951,841.75,1778.97,509.493,3.5415,3.5415,3.5415
0.000307632	-171966.25	0,4.73262e-05,0.000112083,0.000200692,0.000321936,0.000487835,0.000714839,0.00102545,0.00145047,0.00203202,0.00282777,0.00391661,0.00540648,0.00744509,0.0102346,0.0140514,inf	488.2,488.2,778.096,974.258,627.197,584.063,930.084,865.08,729.084,742.667,830.644,1846.38,489.585,3.54033,3.54033,3.54033
0.000307013	-171966.55	0,4.73262e-05,0.000112083,0.000200692,0.000321936,0.000487835,0.000714839,0.00102545,0.00145047,0.00203202,0.00282777,0.00391661,0.00540648,0.00744509,0.0102346,0.0140514,inf	488.361,488.361,771.934,986.496,622.791,576.138,936.354,867.626,726.923,738.17,819.081,1901.1,474.524,3.60115,3.60115,3.60115
0.000306517	-171966.67	0,4.73262e-05,0.000112083,0.000200692,0.000321936,0.000487835,0.000714839,0.00102545,0.00145047,0.00203202,0.00282777,0.00391661,0.00540648,0.00744509,0.0102346,0.0140514,inf	488.845,488.845,765.504,998.243,618.783,568.72,942.064,869.955,725.378,734.505,807.416,1944.47,463.997,3.60216,3.60216,3.60216
0.000306126	-171966.68	0,4.73262e-05,0.000112083,0.000200692,0.000321936,0.000487835,0.000714839,0.00102545,0.00145047,0.00203202,0.00282777,0.00391661,0.00540648,0.00744509,0.0102346,0.0140514,inf	489.57,489.57,758.911,1009.51,615.134,561.781,947.247,872.035,724.359,731.665,795.901,1978.46,456.515,3.64063,3.64063,3.64063
0.000305826	-171966.60	0,4.73262e-05,0.000112083,0.000200692,0.000321936,0.000487835,0.000714839,0.00102545,0.00145047,0.00203202,0.00282777,0.00391661,0.00540648,0.00744509,0.0102346,0.0140514,inf	490.467,490.467,752.234,1020.33,611.809,555.295,951.945,873.844,723.772,729.609,784.679,2005.19,451.519,3.64074,3.64074,3.64074
0.000305599	-171966.47	0,4.73262e-05,0.000112083,0.000200692,0.000321936,0.000487835,0.000714839,0.00102545,0.00145047,0.00203202,0.00282777,0.00391661,0.00540648,0.00744509,0.0102346,0.0140514,inf	491.49,491.49,745.542,1030.68,608.776,549.243,956.207,875.371,723.526,728.271,773.83,2026.57,448.004,3.66378,3.66378,3.66378
0.000305435	-171966.29	0,4.73262e-05,0.000112083,0.000200692,0.000321936,0.000487835,0.000714839,0.00102545,0.00145047,0.00203202,0.00282777,0.00391661,0.00540648,0.00744509,0.0102346,0.0140514,inf	492.601,492.601,738.886,1040.6,606.009,543.603,960.081,876.612,723.535,727.574,763.374,2044.05,445.654,3.66331,3.66331,3.66331
0.000305319	-171966.11	0,4.73262e-05,0.000112083,0.000200692,0.000321936,0.000487835,0.000714839,0.00102545,0.00145047,0.00203202,0.00282777,0.00391661,0.00540648,0.00744509,0.0102346,0.0140514,inf	493.771,493.771,732.299,1050.07,603.48,538.356,963.62,877.574,723.729,727.443,753.31,2058.74,443.939,3.67681,3.67681,3.67681
