time_index	left_time_boundary	right_time_boundary	lambda
0	0	2.6526e-06	85.5644
1	2.6526e-06	6.09531e-06	85.5644
2	6.09531e-06	1.05635e-05	278.834
3	1.05635e-05	1.63626e-05	285.713
4	1.63626e-05	2.3889e-05	230.035
5	2.3889e-05	3.36574e-05	184.448
6	3.36574e-05	4.63353e-05	165.36
7	4.63353e-05	6.27896e-05	162.828
8	6.27896e-05	8.41451e-05	163.909
9	8.41451e-05	0.000111862	160.862
10	0.000111862	0.000147834	153.442
11	0.000147834	0.000194521	144.675
12	0.000194521	0.000255115	138.19
13	0.000255115	0.000333758	137.738
14	0.000333758	0.000435825	146.424
15	0.000435825	0.000568295	166.343
16	0.000568295	0.000740224	198.6
17	0.000740224	0.000963363	244.285
18	0.000963363	0.00125297	306.589
19	0.00125297	0.00162884	391.43
20	0.00162884	0.00211667	501.306
21	0.00211667	0.0027498	611.092
22	0.0027498	0.00357152	669.15
23	0.00357152	0.00463801	672.683
24	0.00463801	0.00602217	629.552
25	0.00602217	0.00781862	552.988
26	0.00781862	0.0101502	472.445
27	0.0101502	0.0131762	386.116
28	0.0131762	0.0171036	386.116
29	0.0171036	0.0222008	315.252
30	0.0222008	0.0288164	315.252
31	0.0288164	inf	315.252
