time_index	left_time_boundary	right_time_boundary	lambda
0	0	1.0443e-06	0.675093
1	1.0443e-06	2.41989e-06	0.675093
2	2.41989e-06	4.2319e-06	0.675095
3	4.2319e-06	6.61875e-06	0.675094
4	6.61875e-06	9.76284e-06	0.675095
5	9.76284e-06	1.39044e-05	0.6751
6	1.39044e-05	1.93598e-05	64.4351
7	1.93598e-05	2.6546e-05	14.773
8	2.6546e-05	3.6012e-05	80.4737
9	3.6012e-05	4.8481e-05	234.85
10	4.8481e-05	6.49058e-05	1.48053
11	6.49058e-05	8.65414e-05	1.74699
12	8.65414e-05	0.000115041	176.44
13	0.000115041	0.000152582	12.9121
14	0.000152582	0.000202032	22.708
15	0.000202032	0.000267171	143.467
16	0.000267171	0.000352975	212.687
17	0.000352975	0.000466	288.408
18	0.000466	0.000614883	552.913
19	0.000614883	0.000810998	760.644
20	0.000810998	0.00106933	690.773
21	0.00106933	0.00140962	638.623
22	0.00140962	0.00185786	821.874
23	0.00185786	0.00244831	1171.74
24	0.00244831	0.00322608	1200.33
25	0.00322608	0.00425059	804.902
26	0.00425059	0.00560013	476.161
27	0.00560013	0.0073778	879.792
28	0.0073778	0.00971944	879.792
29	0.00971944	0.012804	8.61944
30	0.012804	0.0168671	8.61944
31	0.0168671	inf	8.61944
