0.000347713	-1103024.26	0,5.84248e-06,1.31722e-05,2.23678e-05,3.39042e-05,4.83773e-05,6.65346e-05,8.9314e-05,0.000117892,0.000153745,0.000198725,0.000255154,0.000325948,0.000414763,0.000526187,0.000665975,0.000841347,0.00106136,0.00133738,0.00168367,0.0021181,0.00266312,0.00334688,0.0042047,0.00528089,0.00663102,0.00832485,0.0104498,0.0131158,0.0164604,inf	725.254,725.254,725.254,725.254,725.254,725.254,725.254,725.254,725.254,725.254,725.254,725.254,725.254,725.254,725.254,725.254,725.254,725.254,725.254,725.254,725.254,725.254,725.254,725.254,725.254,725.254,725.254,725.254,725.254,725.254
0.000351244	-1103023.11	0,5.84248e-06,1.31722e-05,2.23678e-05,3.39042e-05,4.83773e-05,6.65346e-05,8.9314e-05,0.000117892,0.000153745,0.000198725,0.000255154,0.000325948,0.000414763,0.000526187,0.000665975,0.000841347,0.00106136,0.00133738,0.00168367,0.0021181,0.00266312,0.00334688,0.0042047,0.00528089,0.00663102,0.00832485,0.0104498,0.0131158,0.0164604,inf	724.74,724.74,724.74,724.74,724.74,724.74,724.74,724.74,724.74,724.74,724.74,724.74,724.74,724.74,724.74,724.74,724.74,724.74,724.74,724.74,724.74,724.74,724.74,724.74,724.74,724.74,724.74,724.74,724.74,724.74
0.000354839	-1103021.83	0,5.84248e-06,1.31722e-05,2.23678e-05,3.39042e-05,4.83773e-05,6.65346e-05,8.9314e-05,0.000117892,0.000153745,0.000198725,0.000255154,0.000325948,0.000414763,0.000526187,0.000665975,0.000841347,0.00106136,0.00133738,0.00168367,0.0021181,0.00266312,0.00334688,0.0042047,0.00528089,0.00663102,0.00832485,0.0104498,0.0131158,0.0164604,inf	724.409,724.409,724.409,724.409,724.409,724.409,724.409,724.409,724.409,724.409,724.409,724.409,724.409,724.409,724.409,724.409,724.409,724.409,724.409,724.409,724.409,724.409,724.409,724.409,724.409,724.409,724.409,724.409,724.409,724.409
0.000358484	-1103020.48	0,5.84248e-06,1.31722e-05,2.23678e-05,3.39042e-05,4.83773e-05,6.65346e-05,8.9314e-05,0.000117892,0.000153745,0.000198725,0.000255154,0.000325948,0.000414763,0.000526187,0.000665975,0.000841347,0.00106136,0.00133738,0.00168367,0.0021181,0.00266312,0.00334688,0.0042047,0.00528089,0.00663102,0.00832485,0.0104498,0.0131158,0.0164604,inf	724.161,724.161,724.161,724.161,724.161,724.161,724.161,724.161,724.161,724.161,724.161,724.161,724.161,724.161,724.161,724.161,724.161,724.161,724.161,724.161,724.161,724.161,724.161,724.161,724.161,724.161,724.161,724.161,724.161,724.161
0.000362175	-1103019.08	0,5.84248e-06,1.31722e-05,2.23678e-05,3.39042e-05,4.83773e-05,6.65346e-05,8.9314e-05,0.000117892,0.000153745,0.000198725,0.000255154,0.000325948,0.000414763,0.000526187,0.000665975,0.000841347,0.00106136,0.00133738,0.00168367,0.0021181,0.00266312,0.00334688,0.0042047,0.00528089,0.00663102,0.00832485,0.0104498,0.0131158,0.0164604,inf	723.949,723.949,723.949,723.949,723.949,723.949,723.949,723.949,723.949,723.949,723.949,723.949,723.949,723.949,723.949,723.949,723.949,723.949,723.949,723.949,723.949,723.949,723.949,723.949,723.949,723.949,723.949,723.949,723.949,723.949
0.000365907	-1103017.64	0,5.84248e-06,1.31722e-05,2.23678e-05,3.39042e-05,4.83773e-05,6.65346e-05,8.9314e-05,0.000117892,0.000153745,0.000198725,0.000255154,0.000325948,0.000414763,0.000526187,0.000665975,0.000841347,0.00106136,0.00133738,0.00168367,0.0021181,0.00266312,0.00334688,0.0042047,0.00528089,0.00663102,0.00832485,0.0104498,0.0131158,0.0164604,inf	723.752,723.752,723.752,723.752,723.752,723.752,723.752,723.752,723.752,723.752,723.752,723.752,723.752,723.752,723.752,723.752,723.752,723.752,723.752,723.752,723.752,723.752,723.752,723.752,723.752,723.752,723.752,723.752,723.752,723.752
0.000369681	-1103016.18	0,5.84248e-06,1.31722e-05,2.23678e-05,3.39042e-05,4.83773e-05,6.65346e-05,8.9314e-05,0.000117892,0.000153745,0.000198725,0.000255154,0.000325948,0.000414763,0.000526187,0.000665975,0.000841347,0.00106136,0.00133738,0.00168367,0.0021181,0.00266312,0.00334688,0.0042047,0.00528089,0.00663102,0.00832485,0.0104498,0.0131158,0.0164604,inf	723.562,723.562,723.562,723.562,723.562,723.562,723.562,723.562,723.562,723.562,723.562,723.562,723.562,723.562,723.562,723.562,723.562,723.562,723.562,723.562,723.562,723.562,723.562,723.562,723.562,723.562,723.562,723.562,723.562,723.562
0.000373494	-1103014.70	0,5.84248e-06,1.31722e-05,2.23678e-05,3.39042e-05,4.83773e-05,6.65346e-05,8.9314e-05,0.000117892,0.000153745,0.000198725,0.000255154,0.000325948,0.000414763,0.000526187,0.000665975,0.000841347,0.00106136,0.00133738,0.00168367,0.0021181,0.00266312,0.00334688,0.0042047,0.00528089,0.00663102,0.00832485,0.0104498,0.0131158,0.0164604,inf	723.374,723.374,723.374,723.374,723.374,723.374,723.374,723.374,723.374,723.374,723.374,723.374,723.374,723.374,723.374,723.374,723.374,723.374,723.374,723.374,723.374,723.374,723.374,723.374,723.374,723.374,723.374,723.374,723.374,723.374
0.000377346	-1103013.20	0,5.84248e-06,1.31722e-05,2.23678e-05,3.39042e-05,4.83773e-05,6.65346e-05,8.9314e-05,0.000117892,0.000153745,0.000198725,0.000255154,0.000325948,0.000414763,0.000526187,0.000665975,0.000841347,0.00106136,0.00133738,0.00168367,0.0021181,0.00266312,0.00334688,0.0042047,0.00528089,0.00663102,0.00832485,0.0104498,0.0131158,0.0164604,inf	723.185,723.185,723.185,723.185,723.185,723.185,723.185,723.185,723.185,723.185,723.185,723.185,723.185,723.185,723.185,723.185,723.185,723.185,723.185,723.185,723.185,723.185,723.185,723.185,723.185,723.185,723.185,723.185,723.185,723.185
0.000381237	-1103011.69	0,5.84248e-06,1.31722e-05,2.23678e-05,3.39042e-05,4.83773e-05,6.65346e-05,8.9314e-05,0.000117892,0.000153745,0.000198725,0.000255154,0.000325948,0.000414763,0.000526187,0.000665975,0.000841347,0.00106136,0.00133738,0.00168367,0.0021181,0.00266312,0.00334688,0.0042047,0.00528089,0.00663102,0.00832485,0.0104498,0.0131158,0.0164604,inf	722.994,722.994,722.994,722.994,722.994,722.994,722.994,722.994,722.994,722.994,722.994,722.994,722.994,722.994,722.994,722.994,722.994,722.994,722.994,722.994,722.994,722.994,722.994,722.994,722.994,722.994,722.994,722.994,722.994,722.994
0.000385166	-1103010.15	0,5.84248e-06,1.31722e-05,2.23678e-05,3.39042e-05,4.83773e-05,6.65346e-05,8.9314e-05,0.000117892,0.000153745,0.000198725,0.000255154,0.000325948,0.000414763,0.000526187,0.000665975,0.000841347,0.00106136,0.00133738,0.00168367,0.0021181,0.00266312,0.00334688,0.0042047,0.00528089,0.00663102,0.00832485,0.0104498,0.0131158,0.0164604,inf	722.802,722.802,722.802,722.802,722.802,722.802,722.802,722.802,722.802,722.802,722.802,722.802,722.802,722.802,722.802,722.802,722.802,722.802,722.802,722.802,722.802,722.802,722.802,722.802,722.802,722.802,722.802,722.802,722.802,722.802
0.000389133	-1103008.60	0,5.84248e-06,1.31722e-05,2.23678e-05,3.39042e-05,4.83773e-05,6.65346e-05,8.9314e-05,0.000117892,0.000153745,0.000198725,0.000255154,0.000325948,0.000414763,0.000526187,0.000665975,0.000841347,0.00106136,0.00133738,0.00168367,0.0021181,0.00266312,0.00334688,0.0042047,0.00528089,0.00663102,0.00832485,0.0104498,0.0131158,0.0164604,inf	722.607,722.607,722.607,722.607,722.607,722.607,722.607,722.607,722.607,722.607,722.607,722.607,722.607,722.607,722.607,722.607,722.607,722.607,722.607,722.607,722.607,722.607,722.607,722.607,722.607,722.607,722.607,722.607,722.607,722.607
0.000393138	-1103007.04	0,5.84248e-06,1.31722e-05,2.23678e-05,3.39042e-05,4.83773e-05,6.65346e-05,8.9314e-05,0.000117892,0.000153745,0.000198725,0.000255154,0.000325948,0.000414763,0.000526187,0.000665975,0.000841347,0.00106136,0.00133738,0.00168367,0.0021181,0.00266312,0.00334688,0.0042047,0.00528089,0.00663102,0.00832485,0.0104498,0.0131158,0.0164604,inf	722.412,722.412,722.412,722.412,722.412,722.412,722.412,722.412,722.412,722.412,722.412,722.412,722.412,722.412,722.412,722.412,722.412,722.412,722.412,722.412,722.412,722.412,722.412,722.412,722.412,722.412,722.412,722.412,722.412,722.412
0.000397179	-1103005.46	0,5.84248e-06,1.31722e-05,2.23678e-05,3.39042e-05,4.83773e-05,6.65346e-05,8.9314e-05,0.000117892,0.000153745,0.000198725,0.000255154,0.000325948,0.000414763,0.000526187,0.000665975,0.000841347,0.00106136,0.00133738,0.00168367,0.0021181,0.00266312,0.00334688,0.0042047,0.00528089,0.00663102,0.00832485,0.0104498,0.0131158,0.0164604,inf	722.214,722.214,722.214,722.214,722.214,722.214,722.214,722.214,722.214,722.214,722.214,722.214,722.214,722.214,722.214,722.214,722.214,722.214,722.214,722.214,722.214,722.214,722.214,722.214,722.214,722.214,722.214,722.214,722.214,722.214
0.000401258	-1103003.86	0,5.84248e-06,1.31722e-05,2.23678e-05,3.39042e-05,4.83773e-05,6.65346e-05,8.9314e-05,0.000117892,0.000153745,0.000198725,0.000255154,0.000325948,0.000414763,0.000526187,0.000665975,0.000841347,0.00106136,0.00133738,0.00168367,0.0021181,0.00266312,0.00334688,0.0042047,0.00528089,0.00663102,0.00832485,0.0104498,0.0131158,0.0164604,inf	722.014,722.014,722.014,722.014,722.014,722.014,722.014,722.014,722.014,722.014,722.014,722.014,722.014,722.014,722.014,722.014,722.014,722.014,722.014,722.014,722.014,722.014,722.014,722.014,722.014,722.014,722.014,722.014,722.014,722.014
0.000405372	-1103002.26	0,5.84248e-06,1.31722e-05,2.23678e-05,3.39042e-05,4.83773e-05,6.65346e-05,8.9314e-05,0.000117892,0.000153745,0.000198725,0.000255154,0.000325948,0.000414763,0.000526187,0.000665975,0.000841347,0.00106136,0.00133738,0.00168367,0.0021181,0.00266312,0.00334688,0.0042047,0.00528089,0.00663102,0.00832485,0.0104498,0.0131158,0.0164604,inf	721.812,721.812,721.812,721.812,721.812,721.812,721.812,721.812,721.812,721.812,721.812,721.812,721.812,721.812,721.812,721.812,721.812,721.812,721.812,721.812,721.812,721.812,721.812,721.812,721.812,721.812,721.812,721.812,721.812,721.812
0.000409523	-1103000.63	0,5.84248e-06,1.31722e-05,2.23678e-05,3.39042e-05,4.83773e-05,6.65346e-05,8.9314e-05,0.000117892,0.000153745,0.000198725,0.000255154,0.000325948,0.000414763,0.000526187,0.000665975,0.000841347,0.00106136,0.00133738,0.00168367,0.0021181,0.00266312,0.00334688,0.0042047,0.00528089,0.00663102,0.00832485,0.0104498,0.0131158,0.0164604,inf	721.608,721.608,721.608,721.608,721.608,721.608,721.608,721.608,721.608,721.608,721.608,721.608,721.608,721.608,721.608,721.608,721.608,721.608,721.608,721.608,721.608,721.608,721.608,721.608,721.608,721.608,721.608,721.608,721.608,721.608
0.000413709	-1102999.00	0,5.84248e-06,1.31722e-05,2.23678e-05,3.39042e-05,4.83773e-05,6.65346e-05,8.9314e-05,0.000117892,0.000153745,0.000198725,0.000255154,0.000325948,0.000414763,0.000526187,0.000665975,0.000841347,0.00106136,0.00133738,0.00168367,0.0021181,0.00266312,0.00334688,0.0042047,0.00528089,0.00663102,0.00832485,0.0104498,0.0131158,0.0164604,inf	721.403,721.403,721.403,721.403,721.403,721.403,721.403,721.403,721.403,721.403,721.403,721.403,721.403,721.403,721.403,721.403,721.403,721.403,721.403,721.403,721.403,721.403,721.403,721.403,721.403,721.403,721.403,721.403,721.403,721.403
0.00041793	-1102997.36	0,5.84248e-06,1.31722e-05,2.23678e-05,3.39042e-05,4.83773e-05,6.65346e-05,8.9314e-05,0.000117892,0.000153745,0.000198725,0.000255154,0.000325948,0.000414763,0.000526187,0.000665975,0.000841347,0.00106136,0.00133738,0.00168367,0.0021181,0.00266312,0.00334688,0.0042047,0.00528089,0.00663102,0.00832485,0.0104498,0.0131158,0.0164604,inf	721.196,721.196,721.196,721.196,721.196,721.196,721.196,721.196,721.196,721.196,721.196,721.196,721.196,721.196,721.196,721.196,721.196,721.196,721.196,721.196,721.196,721.196,721.196,721.196,721.196,721.196,721.196,721.196,721.196,721.196
0.000422185	-1102995.70	0,5.84248e-06,1.31722e-05,2.23678e-05,3.39042e-05,4.83773e-05,6.65346e-05,8.9314e-05,0.000117892,0.000153745,0.000198725,0.000255154,0.000325948,0.000414763,0.000526187,0.000665975,0.000841347,0.00106136,0.00133738,0.00168367,0.0021181,0.00266312,0.00334688,0.0042047,0.00528089,0.00663102,0.00832485,0.0104498,0.0131158,0.0164604,inf	720.987,720.987,720.987,720.987,720.987,720.987,720.987,720.987,720.987,720.987,720.987,720.987,720.987,720.987,720.987,720.987,720.987,720.987,720.987,720.987,720.987,720.987,720.987,720.987,720.987,720.987,720.987,720.987,720.987,720.987
