0.000345556	-1103025.93	0,5.43724e-06,1.21626e-05,2.04811e-05,3.07704e-05,4.34972e-05,5.9239e-05,7.871e-05,0.000102794,0.000132583,0.000169429,0.000215005,0.000271377,0.000341104,0.000427349,0.000534026,0.000665975,0.000829183,0.00103105,0.00128075,0.0015896,0.00197162,0.00244413,0.00302859,0.0037515,0.00464568,0.00575168,0.0071197,0.00881181,0.0109048,0.0134936,0.0166957,inf	221.084,221.084,655.623,936.658,1317.8,789.131,289.519,183.757,175.247,197.644,236.442,290.73,360.891,445.41,533.925,598.87,620.612,626.883,655.136,714.835,784.396,823.806,819.891,794.56,766.556,741.319,720.127,709.869,709.869,753.174,753.174,753.174
0.000353004	-1102493.86	0,5.43724e-06,1.21626e-05,2.04811e-05,3.07704e-05,4.34972e-05,5.9239e-05,7.871e-05,0.000102794,0.000132583,0.000169429,0.000215005,0.000271377,0.000341104,0.000427349,0.000534026,0.000665975,0.000829183,0.00103105,0.00128075,0.0015896,0.00197162,0.00244413,0.00302859,0.0037515,0.00464568,0.00575168,0.0071197,0.00881181,0.0109048,0.0134936,0.0166957,inf	62.7233,62.7233,542.227,1014.02,1946.55,849.87,152.659,65.003,60.669,76.9639,108.705,162.227,244.841,360.501,494.119,588.579,600.672,588.475,619.137,708.133,825.46,900.374,896.595,849.839,796.163,746.904,705.757,688.369,688.369,784.815,784.815,784.815
0.000360659	-1102330.06	0,5.43724e-06,1.21626e-05,2.04811e-05,3.07704e-05,4.34972e-05,5.9239e-05,7.871e-05,0.000102794,0.000132583,0.000169429,0.000215005,0.000271377,0.000341104,0.000427349,0.000534026,0.000665975,0.000829183,0.00103105,0.00128075,0.0015896,0.00197162,0.00244413,0.00302859,0.0037515,0.00464568,0.00575168,0.0071197,0.00881181,0.0109048,0.0134936,0.0166957,inf	17.7135,17.7135,434.085,993.105,2503.61,883.446,91.0666,27.3282,25.4428,35.6364,57.9415,103.236,186.498,321.185,491.824,608.46,600.856,563.955,590.356,697.124,850.587,957.56,956.749,892.16,815.292,743.636,684.339,662.953,662.953,820.988,820.988,820.988
0.000367821	-1102249.19	0,5.43724e-06,1.21626e-05,2.04811e-05,3.07704e-05,4.34972e-05,5.9239e-05,7.871e-05,0.000102794,0.000132583,0.000169429,0.000215005,0.000271377,0.000341104,0.000427349,0.000534026,0.000665975,0.000829183,0.00103105,0.00128075,0.0015896,0.00197162,0.00244413,0.00302859,0.0037515,0.00464568,0.00575168,0.0071197,0.00881181,0.0109048,0.0134936,0.0166957,inf	5.096,5.096,346.806,919.209,2943.64,887.808,57.308,12.689,12.0466,18.3125,33.4537,70.1557,149.935,298.005,502.792,639.338,607.204,544.259,564.694,683.506,865.315,1000.61,1004.12,924.38,826.38,733.884,658.342,635.555,635.555,862.563,862.563,862.563
0.000374489	-1102198.71	0,5.43724e-06,1.21626e-05,2.04811e-05,3.07704e-05,4.34972e-05,5.9239e-05,7.871e-05,0.000102794,0.000132583,0.000169429,0.000215005,0.000271377,0.000341104,0.000427349,0.000534026,0.000665975,0.000829183,0.00103105,0.00128075,0.0015896,0.00197162,0.00244413,0.00302859,0.0037515,0.00464568,0.00575168,0.0071197,0.00881181,0.0109048,0.0134936,0.0166957,inf	1.51682,1.51682,282.378,827.44,3272.63,871.17,37.0662,6.28874,6.20744,10.0911,20.2847,49.4779,123.96,281.567,518.66,674.421,615.225,526.838,541.386,669.107,873.773,1033.79,1041.99,949.049,831.595,719.716,629.844,607.685,607.685,910.759,910.759,910.759
0.000380764	-1102162.59	0,5.43724e-06,1.21626e-05,2.04811e-05,3.07704e-05,4.34972e-05,5.9239e-05,7.871e-05,0.000102794,0.000132583,0.000169429,0.000215005,0.000271377,0.000341104,0.000427349,0.000534026,0.000665975,0.000829183,0.00103105,0.00128075,0.0015896,0.00197162,0.00244413,0.00302859,0.0037515,0.00464568,0.00575168,0.0071197,0.00881181,0.0109048,0.0134936,0.0166957,inf	0.726172,0.726172,236.97,736.966,3516.29,842.218,24.3933,3.26413,3.3998,5.84123,12.7082,35.7095,104.11,268.214,535.886,710.747,623.234,510.834,520.22,655.033,878.592,1060.07,1072.83,968.129,832.623,702.753,600.413,580.41,580.41,967.274,967.274,967.274
0.000386741	-1102134.58	0,5.43724e-06,1.21626e-05,2.04811e-05,3.07704e-05,4.34972e-05,5.9239e-05,7.871e-05,0.000102794,0.000132583,0.000169429,0.000215005,0.000271377,0.000341104,0.000427349,0.000534026,0.000665975,0.000829183,0.00103105,0.00128075,0.0015896,0.00197162,0.00244413,0.00302859,0.0037515,0.00464568,0.00575168,0.0071197,0.00881181,0.0109048,0.0134936,0.0166957,inf	0.726171,0.726171,205.82,655.733,3700.2,807.013,16.252,1.75335,1.94659,3.50304,8.1487,26.1786,88.2821,256.387,552.833,746.895,630.572,495.915,501.052,641.848,881.375,1081.48,1098.4,983.077,830.742,684.219,571.178,554.434,554.434,1034.54,1034.54,1034.54
0.000392491	-1102111.79	0,5.43724e-06,1.21626e-05,2.04811e-05,3.07704e-05,4.34972e-05,5.9239e-05,7.871e-05,0.000102794,0.000132583,0.000169429,0.000215005,0.000271377,0.000341104,0.000427349,0.000534026,0.000665975,0.000829183,0.00103105,0.00128075,0.0015896,0.00197162,0.00244413,0.00302859,0.0037515,0.00464568,0.00575168,0.0071197,0.00881181,0.0109048,0.0134936,0.0166957,inf	0.726171,0.726171,184.95,585.623,3843.52,769.143,10.9338,0.945057,1.14768,2.1559,5.31652,19.4129,75.3429,245.407,568.752,782.158,637.006,481.926,483.718,629.789,883.076,1099.37,1119.97,994.964,826.909,665.027,542.913,530.182,530.182,1116.23,1116.23,1116.23
0.000398062	-1102092.71	0,5.43724e-06,1.21626e-05,2.04811e-05,3.07704e-05,4.34972e-05,5.9239e-05,7.871e-05,0.000102794,0.000132583,0.000169429,0.000215005,0.000271377,0.000341104,0.000427349,0.000534026,0.000665975,0.000829183,0.00103105,0.00128075,0.0015896,0.00197162,0.00244413,0.00302859,0.0037515,0.00464568,0.00575168,0.0071197,0.00881181,0.0109048,0.0134936,0.0166957,inf	0.72617,0.72617,171.519,525.992,3959.13,730.564,7.41422,0.72617,0.72617,1.35282,3.51648,14.5272,64.6065,234.986,583.337,816.199,642.493,468.773,468.041,618.91,884.249,1114.64,1138.43,1004.58,821.845,645.837,516.111,507.876,507.876,1218.21,1218.21,1218.21
0.00040349	-1102076.47	0,5.43724e-06,1.21626e-05,2.04811e-05,3.07704e-05,4.34972e-05,5.9239e-05,7.871e-05,0.000102794,0.000132583,0.000169429,0.000215005,0.000271377,0.000341104,0.000427349,0.000534026,0.000665975,0.000829183,0.00103105,0.00128075,0.0015896,0.00197162,0.00244413,0.00302859,0.0037515,0.00464568,0.00575168,0.0071197,0.00881181,0.0109048,0.0134936,0.0166957,inf	0.72617,0.72617,163.562,475.353,4055.27,692.33,5.05871,0.72617,0.72617,0.858916,2.35192,10.9539,55.614,225.016,596.51,848.879,647.067,456.385,453.843,609.169,885.215,1127.9,1154.43,1012.52,816.081,627.114,491.053,487.594,487.594,1350.71,1350.71,1350.71
0.000408796	-1102062.49	0,5.43724e-06,1.21626e-05,2.04811e-05,3.07704e-05,4.34972e-05,5.9239e-05,7.871e-05,0.000102794,0.000132583,0.000169429,0.000215005,0.000271377,0.000341104,0.000427349,0.000534026,0.000665975,0.000829183,0.00103105,0.00128075,0.0015896,0.00197162,0.00244413,0.00302859,0.0037515,0.00464568,0.00575168,0.0071197,0.00881181,0.0109048,0.0134936,0.0166957,inf	0.72617,0.72617,159.78,432.153,4137.04,654.941,3.46724,0.72617,0.72617,0.72617,1.58782,8.31477,48.0346,215.46,608.311,880.164,650.794,444.702,440.958,600.485,886.146,1139.56,1168.45,1019.21,810.006,609.167,467.868,469.322,469.322,1533.86,1533.86,1533.86
0.000413994	-1102050.34	0,5.43724e-06,1.21626e-05,2.04811e-05,3.07704e-05,4.34972e-05,5.9239e-05,7.871e-05,0.000102794,0.000132583,0.000169429,0.000215005,0.000271377,0.000341104,0.000427349,0.000534026,0.000665975,0.000829183,0.00103105,0.00128075,0.0015896,0.00197162,0.00244413,0.00302859,0.0037515,0.00464568,0.00575168,0.0071197,0.00881181,0.0109048,0.0134936,0.0166957,inf	0.72617,0.72617,159.295,394.953,4207.98,618.717,2.38618,0.72617,0.72617,0.72617,1.07765,6.34972,41.6167,206.316,618.843,910.086,653.753,433.669,429.231,592.758,887.136,1149.93,1180.82,1024.96,803.897,592.187,446.569,452.996,452.996,1815.99,1815.99,1815.99
0.000419095	-1102039.74	0,5.43724e-06,1.21626e-05,2.04811e-05,3.07704e-05,4.34972e-05,5.9239e-05,7.871e-05,0.000102794,0.000132583,0.000169429,0.000215005,0.000271377,0.000341104,0.000427349,0.000534026,0.000665975,0.000829183,0.00103105,0.00128075,0.0015896,0.00197162,0.00244413,0.00302859,0.0037515,0.00464568,0.00575168,0.0071197,0.00881181,0.0109048,0.0134936,0.0166957,inf	0.72617,0.72617,161.499,362.581,4270.25,583.82,1.64901,0.72617,0.72617,0.72617,0.736886,4.87654,36.1642,197.591,628.233,938.705,656.022,423.234,418.527,585.888,888.225,1159.2,1191.79,1030,797.939,576.27,427.101,438.54,438.54,2363.43,2363.43,2363.43
0.000424105	-1102030.48	0,5.43724e-06,1.21626e-05,2.04811e-05,3.07704e-05,4.34972e-05,5.9239e-05,7.871e-05,0.000102794,0.000132583,0.000169429,0.000215005,0.000271377,0.000341104,0.000427349,0.000534026,0.000665975,0.000829183,0.00103105,0.00128075,0.0015896,0.00197162,0.00244413,0.00302859,0.0037515,0.00464568,0.00575168,0.0071197,0.00881181,0.0109048,0.0134936,0.0166957,inf	0.72617,0.72617,165.977,334.064,4325.5,550.439,1.14089,0.72617,0.72617,0.72617,0.72617,3.76552,31.5187,189.292,636.614,966.103,657.679,413.352,408.728,579.781,889.428,1167.52,1201.55,1034.49,792.243,561.44,409.361,425.92,425.92,4394.37,4394.37,4394.37
0.000429027	-1102022.46	0,5.43724e-06,1.21626e-05,2.04811e-05,3.07704e-05,4.34972e-05,5.9239e-05,7.871e-05,0.000102794,0.000132583,0.000169429,0.000215005,0.000271377,0.000341104,0.000427349,0.000534026,0.000665975,0.000829183,0.00103105,0.00128075,0.0015896,0.00197162,0.00244413,0.00302859,0.0037515,0.00464568,0.00575168,0.0071197,0.00881181,0.0109048,0.0134936,0.0166957,inf	0.72617,0.72617,172.402,308.654,4374.59,518.505,0.792194,0.72617,0.72617,0.72617,0.72617,2.92242,27.5481,181.414,644.105,992.354,658.787,403.979,399.731,574.353,890.745,1174.99,1210.23,1038.49,786.833,547.649,393.225,415.245,415.245,60948.3,60948.3,60948.3
0.000429027	-1102015.39	0,5.43724e-06,1.21626e-05,2.04811e-05,3.07704e-05,4.34972e-05,5.9239e-05,7.871e-05,0.000102794,0.000132583,0.000169429,0.000215005,0.000271377,0.000341104,0.000427349,0.000534026,0.000665975,0.000829183,0.00103105,0.00128075,0.0015896,0.00197162,0.00244413,0.00302859,0.0037515,0.00464568,0.00575168,0.0071197,0.00881181,0.0109048,0.0134936,0.0166957,inf	0.72617,0.72617,179.52,284.17,4382.96,485.938,0.72617,0.72617,0.72617,0.72617,0.72617,2.27215,24.069,173.379,648.23,1012.8,657.044,394.016,390.545,568.21,889.781,1178.71,1215.65,1040.49,780.626,534.138,378.113,405.972,405.972,124377,124377,124377
