0.000565717	-275621.24	0,3.88237e-05,8.47149e-05,0.00013896,0.00020308,0.000278873,0.000368463,0.000474362,0.000599539,0.000747504,0.000922404,0.00112914,0.00137352,0.00166238,0.00200382,0.00240742,0.0028845,0.00344842,0.004115,0.00490292,0.00583427,0.00693517,0.00823648,0.00977469,0.0115929,0.0137421,0.0162826,0.0192855,0.0228351,0.0270308,inf	553.118,553.118,553.118,553.118,553.118,553.118,553.118,553.118,553.118,553.118,553.118,553.118,553.118,553.118,553.118,553.118,553.118,553.118,553.118,553.118,553.118,553.118,553.118,553.118,553.118,553.118,553.118,553.118,553.118,553.118
0.000592783	-275496.14	0,3.88237e-05,8.47149e-05,0.00013896,0.00020308,0.000278873,0.000368463,0.000474362,0.000599539,0.000747504,0.000922404,0.00112914,0.00137352,0.00166238,0.00200382,0.00240742,0.0028845,0.00344842,0.004115,0.00490292,0.00583427,0.00693517,0.00823648,0.00977469,0.0115929,0.0137421,0.0162826,0.0192855,0.0228351,0.0270308,inf	593.66,593.66,593.66,593.66,593.66,593.66,593.66,593.66,593.66,593.66,593.66,593.66,593.66,593.66,593.66,593.66,593.66,593.66,593.66,593.66,593.66,593.66,593.66,593.66,593.66,593.66,593.66,593.66,593.66,593.66
0.00061549	-275468.14	0,3.88237e-05,8.47149e-05,0.00013896,0.00020308,0.000278873,0.000368463,0.000474362,0.000599539,0.000747504,0.000922404,0.00112914,0.00137352,0.00166238,0.00200382,0.00240742,0.0028845,0.00344842,0.004115,0.00490292,0.00583427,0.00693517,0.00823648,0.00977469,0.0115929,0.0137421,0.0162826,0.0192855,0.0228351,0.0270308,inf	611.36,611.36,611.36,611.36,611.36,611.36,611.36,611.36,611.36,611.36,611.36,611.36,611.36,611.36,611.36,611.36,611.36,611.36,611.36,611.36,611.36,611.36,611.36,611.36,611.36,611.36,611.36,611.36,611.36,611.36
0.000636162	-275459.08	0,3.88237e-05,8.47149e-05,0.00013896,0.00020308,0.000278873,0.000368463,0.000474362,0.000599539,0.000747504,0.000922404,0.00112914,0.00137352,0.00166238,0.00200382,0.00240742,0.0028845,0.00344842,0.004115,0.00490292,0.00583427,0.00693517,0.00823648,0.00977469,0.0115929,0.0137421,0.0162826,0.0192855,0.0228351,0.0270308,inf	618.592,618.592,618.592,618.592,618.592,618.592,618.592,618.592,618.592,618.592,618.592,618.592,618.592,618.592,618.592,618.592,618.592,618.592,618.592,618.592,618.592,618.592,618.592,618.592,618.592,618.592,618.592,618.592,618.592,618.592
0.000656176	-275453.47	0,3.88237e-05,8.47149e-05,0.00013896,0.00020308,0.000278873,0.000368463,0.000474362,0.000599539,0.000747504,0.000922404,0.00112914,0.00137352,0.00166238,0.00200382,0.00240742,0.0028845,0.00344842,0.004115,0.00490292,0.00583427,0.00693517,0.00823648,0.00977469,0.0115929,0.0137421,0.0162826,0.0192855,0.0228351,0.0270308,inf	621.255,621.255,621.255,621.255,621.255,621.255,621.255,621.255,621.255,621.255,621.255,621.255,621.255,621.255,621.255,621.255,621.255,621.255,621.255,621.255,621.255,621.255,621.255,621.255,621.255,621.255,621.255,621.255,621.255,621.255
0.000676202	-275448.37	0,3.88237e-05,8.47149e-05,0.00013896,0.00020308,0.000278873,0.000368463,0.000474362,0.000599539,0.000747504,0.000922404,0.00112914,0.00137352,0.00166238,0.00200382,0.00240742,0.0028845,0.00344842,0.004115,0.00490292,0.00583427,0.00693517,0.00823648,0.00977469,0.0115929,0.0137421,0.0162826,0.0192855,0.0228351,0.0270308,inf	621.955,621.955,621.955,621.955,621.955,621.955,621.955,621.955,621.955,621.955,621.955,621.955,621.955,621.955,621.955,621.955,621.955,621.955,621.955,621.955,621.955,621.955,621.955,621.955,621.955,621.955,621.955,621.955,621.955,621.955
0.000696541	-275443.23	0,3.88237e-05,8.47149e-05,0.00013896,0.00020308,0.000278873,0.000368463,0.000474362,0.000599539,0.000747504,0.000922404,0.00112914,0.00137352,0.00166238,0.00200382,0.00240742,0.0028845,0.00344842,0.004115,0.00490292,0.00583427,0.00693517,0.00823648,0.00977469,0.0115929,0.0137421,0.0162826,0.0192855,0.0228351,0.0270308,inf	621.808,621.808,621.808,621.808,621.808,621.808,621.808,621.808,621.808,621.808,621.808,621.808,621.808,621.808,621.808,621.808,621.808,621.808,621.808,621.808,621.808,621.808,621.808,621.808,621.808,621.808,621.808,621.808,621.808,621.808
0.000717329	-275437.96	0,3.88237e-05,8.47149e-05,0.00013896,0.00020308,0.000278873,0.000368463,0.000474362,0.000599539,0.000747504,0.000922404,0.00112914,0.00137352,0.00166238,0.00200382,0.00240742,0.0028845,0.00344842,0.004115,0.00490292,0.00583427,0.00693517,0.00823648,0.00977469,0.0115929,0.0137421,0.0162826,0.0192855,0.0228351,0.0270308,inf	621.293,621.293,621.293,621.293,621.293,621.293,621.293,621.293,621.293,621.293,621.293,621.293,621.293,621.293,621.293,621.293,621.293,621.293,621.293,621.293,621.293,621.293,621.293,621.293,621.293,621.293,621.293,621.293,621.293,621.293
0.000738625	-275432.52	0,3.88237e-05,8.47149e-05,0.00013896,0.00020308,0.000278873,0.000368463,0.000474362,0.000599539,0.000747504,0.000922404,0.00112914,0.00137352,0.00166238,0.00200382,0.00240742,0.0028845,0.00344842,0.004115,0.00490292,0.00583427,0.00693517,0.00823648,0.00977469,0.0115929,0.0137421,0.0162826,0.0192855,0.0228351,0.0270308,inf	620.613,620.613,620.613,620.613,620.613,620.613,620.613,620.613,620.613,620.613,620.613,620.613,620.613,620.613,620.613,620.613,620.613,620.613,620.613,620.613,620.613,620.613,620.613,620.613,620.613,620.613,620.613,620.613,620.613,620.613
0.000760453	-275426.93	0,3.88237e-05,8.47149e-05,0.00013896,0.00020308,0.000278873,0.000368463,0.000474362,0.000599539,0.000747504,0.000922404,0.00112914,0.00137352,0.00166238,0.00200382,0.00240742,0.0028845,0.00344842,0.004115,0.00490292,0.00583427,0.00693517,0.00823648,0.00977469,0.0115929,0.0137421,0.0162826,0.0192855,0.0228351,0.0270308,inf	619.856,619.856,619.856,619.856,619.856,619.856,619.856,619.856,619.856,619.856,619.856,619.856,619.856,619.856,619.856,619.856,619.856,619.856,619.856,619.856,619.856,619.856,619.856,619.856,619.856,619.856,619.856,619.856,619.856,619.856
0.000782824	-275421.19	0,3.88237e-05,8.47149e-05,0.00013896,0.00020308,0.000278873,0.000368463,0.000474362,0.000599539,0.000747504,0.000922404,0.00112914,0.00137352,0.00166238,0.00200382,0.00240742,0.0028845,0.00344842,0.004115,0.00490292,0.00583427,0.00693517,0.00823648,0.00977469,0.0115929,0.0137421,0.0162826,0.0192855,0.0228351,0.0270308,inf	619.06,619.06,619.06,619.06,619.06,619.06,619.06,619.06,619.06,619.06,619.06,619.06,619.06,619.06,619.06,619.06,619.06,619.06,619.06,619.06,619.06,619.06,619.06,619.06,619.06,619.06,619.06,619.06,619.06,619.06
0.000805739	-275415.30	0,3.88237e-05,8.47149e-05,0.00013896,0.00020308,0.000278873,0.000368463,0.000474362,0.000599539,0.000747504,0.000922404,0.00112914,0.00137352,0.00166238,0.00200382,0.00240742,0.0028845,0.00344842,0.004115,0.00490292,0.00583427,0.00693517,0.00823648,0.00977469,0.0115929,0.0137421,0.0162826,0.0192855,0.0228351,0.0270308,inf	618.242,618.242,618.242,618.242,618.242,618.242,618.242,618.242,618.242,618.242,618.242,618.242,618.242,618.242,618.242,618.242,618.242,618.242,618.242,618.242,618.242,618.242,618.242,618.242,618.242,618.242,618.242,618.242,618.242,618.242
0.000829197	-275409.27	0,3.88237e-05,8.47149e-05,0.00013896,0.00020308,0.000278873,0.000368463,0.000474362,0.000599539,0.000747504,0.000922404,0.00112914,0.00137352,0.00166238,0.00200382,0.00240742,0.0028845,0.00344842,0.004115,0.00490292,0.00583427,0.00693517,0.00823648,0.00977469,0.0115929,0.0137421,0.0162826,0.0192855,0.0228351,0.0270308,inf	617.41,617.41,617.41,617.41,617.41,617.41,617.41,617.41,617.41,617.41,617.41,617.41,617.41,617.41,617.41,617.41,617.41,617.41,617.41,617.41,617.41,617.41,617.41,617.41,617.41,617.41,617.41,617.41,617.41,617.41
0.000853195	-275403.10	0,3.88237e-05,8.47149e-05,0.00013896,0.00020308,0.000278873,0.000368463,0.000474362,0.000599539,0.000747504,0.000922404,0.00112914,0.00137352,0.00166238,0.00200382,0.00240742,0.0028845,0.00344842,0.004115,0.00490292,0.00583427,0.00693517,0.00823648,0.00977469,0.0115929,0.0137421,0.0162826,0.0192855,0.0228351,0.0270308,inf	616.566,616.566,616.566,616.566,616.566,616.566,616.566,616.566,616.566,616.566,616.566,616.566,616.566,616.566,616.566,616.566,616.566,616.566,616.566,616.566,616.566,616.566,616.566,616.566,616.566,616.566,616.566,616.566,616.566,616.566
0.000877729	-275396.81	0,3.88237e-05,8.47149e-05,0.00013896,0.00020308,0.000278873,0.000368463,0.000474362,0.000599539,0.000747504,0.000922404,0.00112914,0.00137352,0.00166238,0.00200382,0.00240742,0.0028845,0.00344842,0.004115,0.00490292,0.00583427,0.00693517,0.00823648,0.00977469,0.0115929,0.0137421,0.0162826,0.0192855,0.0228351,0.0270308,inf	615.714,615.714,615.714,615.714,615.714,615.714,615.714,615.714,615.714,615.714,615.714,615.714,615.714,615.714,615.714,615.714,615.714,615.714,615.714,615.714,615.714,615.714,615.714,615.714,615.714,615.714,615.714,615.714,615.714,615.714
0.000902791	-275390.39	0,3.88237e-05,8.47149e-05,0.00013896,0.00020308,0.000278873,0.000368463,0.000474362,0.000599539,0.000747504,0.000922404,0.00112914,0.00137352,0.00166238,0.00200382,0.00240742,0.0028845,0.00344842,0.004115,0.00490292,0.00583427,0.00693517,0.00823648,0.00977469,0.0115929,0.0137421,0.0162826,0.0192855,0.0228351,0.0270308,inf	614.854,614.854,614.854,614.854,614.854,614.854,614.854,614.854,614.854,614.854,614.854,614.854,614.854,614.854,614.854,614.854,614.854,614.854,614.854,614.854,614.854,614.854,614.854,614.854,614.854,614.854,614.854,614.854,614.854,614.854
0.000928376	-275383.85	0,3.88237e-05,8.47149e-05,0.00013896,0.00020308,0.000278873,0.000368463,0.000474362,0.000599539,0.000747504,0.000922404,0.00112914,0.00137352,0.00166238,0.00200382,0.00240742,0.0028845,0.00344842,0.004115,0.00490292,0.00583427,0.00693517,0.00823648,0.00977469,0.0115929,0.0137421,0.0162826,0.0192855,0.0228351,0.0270308,inf	613.987,613.987,613.987,613.987,613.987,613.987,613.987,613.987,613.987,613.987,613.987,613.987,613.987,613.987,613.987,613.987,613.987,613.987,613.987,613.987,613.987,613.987,613.987,613.987,613.987,613.987,613.987,613.987,613.987,613.987
0.000954477	-275377.21	0,3.88237e-05,8.47149e-05,0.00013896,0.00020308,0.000278873,0.000368463,0.000474362,0.000599539,0.000747504,0.000922404,0.00112914,0.00137352,0.00166238,0.00200382,0.00240742,0.0028845,0.00344842,0.004115,0.00490292,0.00583427,0.00693517,0.00823648,0.00977469,0.0115929,0.0137421,0.0162826,0.0192855,0.0228351,0.0270308,inf	613.115,613.115,613.115,613.115,613.115,613.115,613.115,613.115,613.115,613.115,613.115,613.115,613.115,613.115,613.115,613.115,613.115,613.115,613.115,613.115,613.115,613.115,613.115,613.115,613.115,613.115,613.115,613.115,613.115,613.115
0.000981085	-275370.46	0,3.88237e-05,8.47149e-05,0.00013896,0.00020308,0.000278873,0.000368463,0.000474362,0.000599539,0.000747504,0.000922404,0.00112914,0.00137352,0.00166238,0.00200382,0.00240742,0.0028845,0.00344842,0.004115,0.00490292,0.00583427,0.00693517,0.00823648,0.00977469,0.0115929,0.0137421,0.0162826,0.0192855,0.0228351,0.0270308,inf	612.237,612.237,612.237,612.237,612.237,612.237,612.237,612.237,612.237,612.237,612.237,612.237,612.237,612.237,612.237,612.237,612.237,612.237,612.237,612.237,612.237,612.237,612.237,612.237,612.237,612.237,612.237,612.237,612.237,612.237
0.00100819	-275363.63	0,3.88237e-05,8.47149e-05,0.00013896,0.00020308,0.000278873,0.000368463,0.000474362,0.000599539,0.000747504,0.000922404,0.00112914,0.00137352,0.00166238,0.00200382,0.00240742,0.0028845,0.00344842,0.004115,0.00490292,0.00583427,0.00693517,0.00823648,0.00977469,0.0115929,0.0137421,0.0162826,0.0192855,0.0228351,0.0270308,inf	611.356,611.356,611.356,611.356,611.356,611.356,611.356,611.356,611.356,611.356,611.356,611.356,611.356,611.356,611.356,611.356,611.356,611.356,611.356,611.356,611.356,611.356,611.356,611.356,611.356,611.356,611.356,611.356,611.356,611.356
