0.000566019	-275621.66	0,3.62024e-05,7.85501e-05,0.000128086,0.000186031,0.000253813,0.0003331,0.000425846,0.000534335,0.000661241,0.000809689,0.000983336,0.00118646,0.00142406,0.001702,0.00202712,0.00240742,0.00285229,0.00337266,0.00398138,0.00469342,0.00552633,0.00650062,0.0076403,0.00897345,0.0105329,0.0123571,0.0144909,0.0169869,0.0199066,0.023322,0.0273171,inf	19.2037,19.2037,39.736,59.6637,82.9379,110.421,143.185,182.649,230.75,290.03,363.273,451.39,548.316,634.739,684.563,690.1,666.656,633.108,600.074,570.968,546.481,526.776,511.354,499.586,492.199,490.19,491.057,487.235,487.235,474.184,474.184,474.184
0.00061347	-275031.71	0,3.62024e-05,7.85501e-05,0.000128086,0.000186031,0.000253813,0.0003331,0.000425846,0.000534335,0.000661241,0.000809689,0.000983336,0.00118646,0.00142406,0.001702,0.00202712,0.00240742,0.00285229,0.00337266,0.00398138,0.00469342,0.00552633,0.00650062,0.0076403,0.00897345,0.0105329,0.0123571,0.0144909,0.0169869,0.0199066,0.023322,0.0273171,inf	1.08565,1.08565,4.65736,10.493,20.1775,35.3639,58.2618,91.7694,139.653,206.69,298.483,419.576,566.937,716.266,819.394,846.589,815.082,758.857,699.843,646.048,600.015,563.042,534.496,513.431,502.043,502.592,509.022,504.79,504.79,479.905,479.905,479.905
0.000661029	-274815.47	0,3.62024e-05,7.85501e-05,0.000128086,0.000186031,0.000253813,0.0003331,0.000425846,0.000534335,0.000661241,0.000809689,0.000983336,0.00118646,0.00142406,0.001702,0.00202712,0.00240742,0.00285229,0.00337266,0.00398138,0.00469342,0.00552633,0.00650062,0.0076403,0.00897345,0.0105329,0.0123571,0.0144909,0.0169869,0.0199066,0.023322,0.0273171,inf	0.468892,0.468892,0.643432,2.16295,5.71215,13.0675,27.057,51.8613,93.2072,158.276,255.178,391.175,566.385,756.69,901.292,950.888,919.044,848.877,770.905,697.368,633.345,581.99,542.86,515.089,502.747,509.21,524.323,522.09,522.09,486.686,486.686,486.686
0.00070674	-274710.54	0,3.62024e-05,7.85501e-05,0.000128086,0.000186031,0.000253813,0.0003331,0.000425846,0.000534335,0.000661241,0.000809689,0.000983336,0.00118646,0.00142406,0.001702,0.00202712,0.00240742,0.00285229,0.00337266,0.00398138,0.00469342,0.00552633,0.00650062,0.0076403,0.00897345,0.0105329,0.0123571,0.0144909,0.0169869,0.0199066,0.023322,0.0273171,inf	0.468892,0.468892,0.468892,0.502822,1.81197,5.36593,13.8264,31.8718,66.6882,127.726,225.474,369.26,561.385,778.758,953.132,1020.73,990.939,912.046,820.21,730.958,652.112,589.006,541.576,509.326,498.24,512.541,537.934,539.048,539.048,494.149,494.149,494.149
0.000750551	-274649.17	0,3.62024e-05,7.85501e-05,0.000128086,0.000186031,0.000253813,0.0003331,0.000425846,0.000534335,0.000661241,0.000809689,0.000983336,0.00118646,0.00142406,0.001702,0.00202712,0.00240742,0.00285229,0.00337266,0.00398138,0.00469342,0.00552633,0.00650062,0.0076403,0.00897345,0.0105329,0.0123571,0.0144909,0.0169869,0.0199066,0.023322,0.0273171,inf	0.468892,0.468892,0.468892,0.468892,0.630126,2.39911,7.62461,20.9175,50.348,107.32,204.558,353.053,556.467,792.442,987.745,1068.36,1040.69,955.971,853.752,751.897,660.894,588.309,534.523,499.561,491.148,514.122,550.317,555.366,555.366,501.723,501.723,501.723
0.000792752	-274607.94	0,3.62024e-05,7.85501e-05,0.000128086,0.000186031,0.000253813,0.0003331,0.000425846,0.000534335,0.000661241,0.000809689,0.000983336,0.00118646,0.00142406,0.001702,0.00202712,0.00240742,0.00285229,0.00337266,0.00398138,0.00469342,0.00552633,0.00650062,0.0076403,0.00897345,0.0105329,0.0123571,0.0144909,0.0169869,0.0199066,0.023322,0.0273171,inf	0.468892,0.468892,0.468892,0.468892,0.468892,1.15137,4.47689,14.4806,39.6776,93.0896,189.508,341.304,552.907,802.186,1012.08,1101.43,1075.14,986.212,876.022,763.986,663.057,582.907,524.366,488.024,483.088,514.864,561.725,570.792,570.792,508.985,508.985,508.985
0.000833651	-274577.25	0,3.62024e-05,7.85501e-05,0.000128086,0.000186031,0.000253813,0.0003331,0.000425846,0.000534335,0.000661241,0.000809689,0.000983336,0.00118646,0.00142406,0.001702,0.00202712,0.00240742,0.00285229,0.00337266,0.00398138,0.00469342,0.00552633,0.00650062,0.0076403,0.00897345,0.0105329,0.0123571,0.0144909,0.0169869,0.0199066,0.023322,0.0273171,inf	0.468892,0.468892,0.468892,0.468892,0.468892,0.586271,2.77084,10.4775,32.3798,82.8273,178.507,332.95,550.926,810.053,1029.99,1124.7,1098.88,1006.68,890.26,769.972,660.979,574.857,512.843,476.079,474.995,515.304,572.33,585.197,585.197,515.667,515.667,515.667
0.000873506	-274552.65	0,3.62024e-05,7.85501e-05,0.000128086,0.000186031,0.000253813,0.0003331,0.000425846,0.000534335,0.000661241,0.000809689,0.000983336,0.00118646,0.00142406,0.001702,0.00202712,0.00240742,0.00285229,0.00337266,0.00398138,0.00469342,0.00552633,0.00650062,0.0076403,0.00897345,0.0105329,0.0123571,0.0144909,0.0169869,0.0199066,0.023322,0.0273171,inf	0.468892,0.468892,0.468892,0.468892,0.468892,0.468892,1.79361,7.86789,27.1966,75.2298,170.389,327.186,550.407,817.03,1043.72,1141.17,1114.99,1020.13,898.782,771.815,656.316,565.526,501.037,464.509,467.38,515.751,582.275,598.554,598.554,521.667,521.667,521.667
0.000912518	-274531.87	0,3.62024e-05,7.85501e-05,0.000128086,0.000186031,0.000253813,0.0003331,0.000425846,0.000534335,0.000661241,0.000809689,0.000983336,0.00118646,0.00142406,0.001702,0.00202712,0.00240742,0.00285229,0.00337266,0.00398138,0.00469342,0.00552633,0.00650062,0.0076403,0.00897345,0.0105329,0.0123571,0.0144909,0.0169869,0.0199066,0.023322,0.0273171,inf	0.468892,0.468892,0.468892,0.468892,0.468892,0.468892,1.20681,6.09753,23.3985,69.4875,164.38,323.409,551.138,823.594,1054.59,1152.81,1125.6,1028.49,903.245,770.899,650.192,555.791,489.593,453.731,460.494,516.382,591.679,610.91,610.91,526.962,526.962,526.962
0.000950839	-274513.67	0,3.62024e-05,7.85501e-05,0.000128086,0.000186031,0.000253813,0.0003331,0.000425846,0.000534335,0.000661241,0.000809689,0.000983336,0.00118646,0.00142406,0.001702,0.00202712,0.00240742,0.00285229,0.00337266,0.00398138,0.00469342,0.00552633,0.00650062,0.0076403,0.00897345,0.0105329,0.0123571,0.0144909,0.0169869,0.0199066,0.023322,0.0273171,inf	0.468892,0.468892,0.468892,0.468892,0.468892,0.468892,0.834817,4.85501,20.5419,65.0782,159.95,321.176,552.905,829.972,1063.44,1160.92,1132.16,1033.13,904.831,768.201,643.366,546.197,478.861,443.933,454.434,517.287,600.64,622.351,622.351,531.571,531.571,531.571
0.000988586	-274497.32	0,3.62024e-05,7.85501e-05,0.000128086,0.000186031,0.000253813,0.0003331,0.000425846,0.000534335,0.000661241,0.000809689,0.000983336,0.00118646,0.00142406,0.001702,0.00202712,0.00240742,0.00285229,0.00337266,0.00398138,0.00469342,0.00552633,0.00650062,0.0076403,0.00897345,0.0105329,0.0123571,0.0144909,0.0169869,0.0199066,0.023322,0.0273171,inf	0.468892,0.468892,0.468892,0.468892,0.468892,0.468892,0.594738,3.95718,18.3459,61.6529,156.728,320.155,555.516,836.266,1070.78,1166.42,1135.73,1035.04,904.392,764.398,636.329,537.063,469.012,435.171,449.212,518.507,609.251,632.98,632.98,535.588,535.588,535.588
0.00102585	-274482.37	0,3.62024e-05,7.85501e-05,0.000128086,0.000186031,0.000253813,0.0003331,0.000425846,0.000534335,0.000661241,0.000809689,0.000983336,0.00118646,0.00142406,0.001702,0.00202712,0.00240742,0.00285229,0.00337266,0.00398138,0.00469342,0.00552633,0.00650062,0.0076403,0.00897345,0.0105329,0.0123571,0.0144909,0.0169869,0.0199066,0.023322,0.0273171,inf	0.468892,0.468892,0.468892,0.468892,0.468892,0.468892,0.468892,3.29179,16.6268,58.9707,154.446,320.094,558.808,842.513,1076.99,1169.92,1137.03,1034.93,902.535,759.958,629.396,528.561,460.101,427.421,444.792,520.051,617.585,642.912,642.912,539.09,539.09,539.09
0.00106269	-274468.54	0,3.62024e-05,7.85501e-05,0.000128086,0.000186031,0.000253813,0.0003331,0.000425846,0.000534335,0.000661241,0.000809689,0.000983336,0.00118646,0.00142406,0.001702,0.00202712,0.00240742,0.00285229,0.00337266,0.00398138,0.00469342,0.00552633,0.00650062,0.0076403,0.00897345,0.0105329,0.0123571,0.0144909,0.0169869,0.0199066,0.023322,0.0273171,inf	0.468892,0.468892,0.468892,0.468892,0.468892,0.468892,0.468892,2.78767,15.2595,56.8608,152.907,320.8,562.644,848.721,1082.29,1171.89,1136.63,1033.34,899.698,755.201,622.755,520.767,452.118,420.622,441.111,521.91,625.701,652.249,652.249,542.139,542.139,542.139
0.00109916	-274455.62	0,3.62024e-05,7.85501e-05,0.000128086,0.000186031,0.000253813,0.0003331,0.000425846,0.000534335,0.000661241,0.000809689,0.000983336,0.00118646,0.00142406,0.001702,0.00202712,0.00240742,0.00285229,0.00337266,0.00398138,0.00469342,0.00552633,0.00650062,0.0076403,0.00897345,0.0105329,0.0123571,0.0144909,0.0169869,0.0199066,0.023322,0.0273171,inf	0.468892,0.468892,0.468892,0.468892,0.468892,0.468892,0.468892,2.39811,14.1575,55.199,151.963,322.122,566.911,854.88,1086.84,1172.65,1134.92,1030.65,896.194,750.339,616.514,513.696,445.014,414.692,438.103,524.067,633.643,661.081,661.081,544.812,544.812,544.812
0.0011353	-274443.47	0,3.62024e-05,7.85501e-05,0.000128086,0.000186031,0.000253813,0.0003331,0.000425846,0.000534335,0.000661241,0.000809689,0.000983336,0.00118646,0.00142406,0.001702,0.00202712,0.00240742,0.00285229,0.00337266,0.00398138,0.00469342,0.00552633,0.00650062,0.0076403,0.00897345,0.0105329,0.0123571,0.0144909,0.0169869,0.0199066,0.023322,0.0273171,inf	0.468892,0.468892,0.468892,0.468892,0.468892,0.468892,0.468892,2.092,13.2598,53.8945,151.5,323.944,571.519,860.977,1090.78,1172.44,1132.19,1027.13,892.248,745.511,610.72,507.328,438.722,409.544,435.694,526.495,641.447,669.488,669.488,547.184,547.184,547.184
0.00117113	-274431.98	0,3.62024e-05,7.85501e-05,0.000128086,0.000186031,0.000253813,0.0003331,0.000425846,0.000534335,0.000661241,0.000809689,0.000983336,0.00118646,0.00142406,0.001702,0.00202712,0.00240742,0.00285229,0.00337266,0.00398138,0.00469342,0.00552633,0.00650062,0.0076403,0.00897345,0.0105329,0.0123571,0.0144909,0.0169869,0.0199066,0.023322,0.0273171,inf	0.468892,0.468892,0.468892,0.468892,0.468892,0.468892,0.468892,1.84776,12.5216,52.8787,151.432,326.173,576.395,866.999,1094.2,1171.47,1128.69,1023.01,888.021,740.806,605.388,501.622,433.167,405.094,433.815,529.169,649.141,677.538,677.538,549.304,549.304,549.304
0.00120668	-274421.09	0,3.62024e-05,7.85501e-05,0.000128086,0.000186031,0.000253813,0.0003331,0.000425846,0.000534335,0.000661241,0.000809689,0.000983336,0.00118646,0.00142406,0.001702,0.00202712,0.00240742,0.00285229,0.00337266,0.00398138,0.00469342,0.00552633,0.00650062,0.0076403,0.00897345,0.0105329,0.0123571,0.0144909,0.0169869,0.0199066,0.023322,0.0273171,inf	0.468892,0.468892,0.468892,0.468892,0.468892,0.468892,0.468892,1.65023,11.9102,52.0992,151.692,328.736,581.48,872.931,1097.15,1169.87,1124.58,1018.44,883.627,736.274,600.512,496.526,428.274,401.259,432.404,532.061,656.745,685.289,685.289,551.233,551.233,551.233
0.00124196	-274410.71	0,3.62024e-05,7.85501e-05,0.000128086,0.000186031,0.000253813,0.0003331,0.000425846,0.000534335,0.000661241,0.000809689,0.000983336,0.00118646,0.00142406,0.001702,0.00202712,0.00240742,0.00285229,0.00337266,0.00398138,0.00469342,0.00552633,0.00650062,0.0076403,0.00897345,0.0105329,0.0123571,0.0144909,0.0169869,0.0199066,0.023322,0.0273171,inf	0.468892,0.468892,0.468892,0.468892,0.468892,0.468892,0.468892,1.48862,11.4007,51.5153,152.225,331.574,586.725,878.76,1099.7,1167.75,1120.01,1013.55,879.146,731.944,596.067,491.986,423.97,397.966,431.402,535.145,664.276,692.788,692.788,553.002,553.002,553.002
0.00127698	-274400.82	0,3.62024e-05,7.85501e-05,0.000128086,0.000186031,0.000253813,0.0003331,0.000425846,0.000534335,0.000661241,0.000809689,0.000983336,0.00118646,0.00142406,0.001702,0.00202712,0.00240742,0.00285229,0.00337266,0.00398138,0.00469342,0.00552633,0.00650062,0.0076403,0.00897345,0.0105329,0.0123571,0.0144909,0.0169869,0.0199066,0.023322,0.0273171,inf	0.468892,0.468892,0.468892,0.468892,0.468892,0.468892,0.468892,1.35491,10.9744,51.0954,152.987,334.639,592.089,884.479,1101.9,1165.22,1115.07,1008.42,874.637,727.828,592.025,487.946,420.188,395.149,430.758,538.396,671.744,700.074,700.074,554.635,554.635,554.635
0.00131176	-274391.36	0,3.62024e-05,7.85501e-05,0.000128086,0.000186031,0.000253813,0.0003331,0.000425846,0.000534335,0.000661241,0.000809689,0.000983336,0.00118646,0.00142406,0.001702,0.00202712,0.00240742,0.00285229,0.00337266,0.00398138,0.00469342,0.00552633,0.00650062,0.0076403,0.00897345,0.0105329,0.0123571,0.0144909,0.0169869,0.0199066,0.023322,0.0273171,inf	0.468892,0.468892,0.468892,0.468892,0.468892,0.468892,0.468892,1.24328,10.6165,50.8135,153.944,337.891,597.542,890.077,1103.77,1162.33,1109.85,1003.13,870.139,723.925,588.354,484.352,416.867,392.749,430.425,541.793,679.158,707.178,707.178,556.164,556.164,556.164
