0.000585421	-275612.61	0,7.85501e-05,0.000186031,0.0003331,0.000534335,0.000809689,0.00118646,0.001702,0.00240742,0.00337266,0.00469342,0.00650062,0.00897345,0.0123571,0.0169869,0.023322,inf	43.1129,43.1129,95.0429,158.986,251.904,394.617,603.165,726.839,672.909,602.783,550.816,524.882,517.453,516.464,516.464,516.464
0.000650199	-274973.97	0,7.85501e-05,0.000186031,0.0003331,0.000534335,0.000809689,0.00118646,0.001702,0.00240742,0.00337266,0.00469342,0.00650062,0.00897345,0.0123571,0.0169869,0.023322,inf	5.72067,5.72067,27.4318,73.3168,165.952,339.004,642.215,891.076,823.655,705.44,607.416,562.2,557.756,570.175,570.175,570.175
0.000711641	-274755.85	0,7.85501e-05,0.000186031,0.0003331,0.000534335,0.000809689,0.00118646,0.001702,0.00240742,0.00337266,0.00469342,0.00650062,0.00897345,0.0123571,0.0169869,0.023322,inf	0.922455,0.922455,9.43522,39.2372,121.287,301.568,649.594,990.189,927.836,778.968,641.808,584.044,592.678,634.314,634.314,634.314
0.000768464	-274656.32	0,7.85501e-05,0.000186031,0.0003331,0.000534335,0.000809689,0.00118646,0.001702,0.00240742,0.00337266,0.00469342,0.00650062,0.00897345,0.0123571,0.0169869,0.023322,inf	0.468892,0.468892,3.68689,23.3059,95.2034,276.643,648.316,1051.17,999.09,830.104,659.799,595.13,625.311,713.822,713.822,713.822
0.0008213	-274600.88	0,7.85501e-05,0.000186031,0.0003331,0.000534335,0.000809689,0.00118646,0.001702,0.00240742,0.00337266,0.00469342,0.00650062,0.00897345,0.0123571,0.0169869,0.023322,inf	0.468892,0.468892,1.59193,14.9834,78.74,259.895,645.654,1089.77,1047.79,864.682,666.298,599.258,657.922,816.992,816.992,816.992
0.000870958	-274564.83	0,7.85501e-05,0.000186031,0.0003331,0.000534335,0.000809689,0.00118646,0.001702,0.00240742,0.00337266,0.00469342,0.00650062,0.00897345,0.0123571,0.0169869,0.023322,inf	0.468892,0.468892,0.745086,10.2518,67.7492,248.605,643.829,1114.75,1080.94,887.118,665.017,599.175,692.235,962.312,962.312,962.312
0.000918117	-274538.43	0,7.85501e-05,0.000186031,0.0003331,0.000534335,0.000809689,0.00118646,0.001702,0.00240742,0.00337266,0.00469342,0.00650062,0.00897345,0.0123571,0.0169869,0.023322,inf	0.468892,0.468892,0.468892,7.37498,60.0992,241.075,643.398,1131.12,1103.17,900.659,658.655,596.779,729.736,1204.91,1204.91,1204.91
0.000963306	-274517.36	0,7.85501e-05,0.000186031,0.0003331,0.000534335,0.000809689,0.00118646,0.001702,0.00240742,0.00337266,0.00469342,0.00650062,0.00897345,0.0123571,0.0169869,0.023322,inf	0.468892,0.468892,0.468892,5.52721,54.6031,236.213,644.362,1141.84,1117.59,907.689,649.132,593.347,771.999,1838.45,1838.45,1838.45
0.00100693	-274499.47	0,7.85501e-05,0.000186031,0.0003331,0.000534335,0.000809689,0.00118646,0.001702,0.00240742,0.00337266,0.00469342,0.00650062,0.00897345,0.0123571,0.0169869,0.023322,inf	0.468892,0.468892,0.468892,4.28526,50.5588,233.293,646.552,1148.76,1126.35,909.962,637.789,589.732,821.213,7570.49,7570.49,7570.49
0.00100693	-274483.63	0,7.85501e-05,0.000186031,0.0003331,0.000534335,0.000809689,0.00118646,0.001702,0.00240742,0.00337266,0.00469342,0.00650062,0.00897345,0.0123571,0.0169869,0.023322,inf	0.468892,0.468892,0.468892,3.41326,47.4544,230.964,642.811,1137.01,1122.43,902.791,622.008,583.678,878.366,65749.6,65749.6,65749.6
