time_index	left_time_boundary	right_time_boundary	lambda
0	0	4.60535e-06	196.017
1	4.60535e-06	1.04671e-05	196.017
2	1.04671e-05	1.79279e-05	98.0862
3	1.79279e-05	2.7424e-05	15.3929
4	2.7424e-05	3.95108e-05	25.5863
5	3.95108e-05	5.48948e-05	76.4228
6	5.48948e-05	7.44758e-05	174.936
7	7.44758e-05	9.93984e-05	253.905
8	9.93984e-05	0.00013112	247.955
9	0.00013112	0.000171496	203.782
10	0.000171496	0.000222886	188.351
11	0.000222886	0.000288295	189.268
12	0.000288295	0.000371549	185.056
13	0.000371549	0.000477515	183.139
14	0.000477515	0.000612388	189.021
15	0.000612388	0.000784056	195.321
16	0.000784056	0.00100256	219.154
17	0.00100256	0.00128066	274.346
18	0.00128066	0.00163464	366.012
19	0.00163464	0.00208518	484.087
20	0.00208518	0.00265863	582.972
21	0.00265863	0.00338853	612.245
22	0.00338853	0.00431754	593.507
23	0.00431754	0.00549999	565.637
24	0.00549999	0.00700501	520.669
25	0.00700501	0.00892062	465.748
26	0.00892062	0.0113588	436.332
27	0.0113588	0.0144621	421.909
28	0.0144621	0.0184121	421.909
29	0.0184121	0.0234396	62908.1
30	0.0234396	0.0298386	62908.1
31	0.0298386	inf	62908.1
