LogLikelihood = -205822.21523205688572

y0 0.97514437745000759339
y0_prime 0
y1 0.99346243432826153441
y1_prime 0
y2 0.90136832613838613337
y2_prime 0
y3 1.9113342836668389957
y3_prime 0
rho 0.00023439897183808746338
rho.alpha 0.96901420725785480936
r_ii 0.99993301737381468097
theta 0.00048959698908953013397
