LogLikelihood = -205843.05175104166847

y0 0.91821238966203788667
y0_prime 0
y1 0.97679119376717793433
y1_prime 0
y2 0.9722425455009398032
y2_prime 0
y3 1.8819123390256327077
y3_prime 0
rho 0.00014966682365120308152
theta 0.00048959698908953013397
