9.87782e-06	-7553.89	0,1.35275e-06,3.20373e-06,5.73646e-06,9.20203e-06,1.3944e-05,2.04326e-05,2.93109e-05,4.14593e-05,5.80821e-05,8.08274e-05,0.00011195,0.000154536,0.000212806,0.000292539,0.000401638,inf	3436.11,3436.11,9275.69,17699.4,27272.1,34822.8,35705.5,30921.8,27221.8,26317.5,27132.4,27851.1,38784.2,53849.4,53849.4,53849.4
1.05569e-05	-7550.43	0,1.35275e-06,3.20373e-06,5.73646e-06,9.20203e-06,1.3944e-05,2.04326e-05,2.93109e-05,4.14593e-05,5.80821e-05,8.08274e-05,0.00011195,0.000154536,0.000212806,0.000292539,0.000401638,inf	555.916,555.916,3952.55,12884.3,26402.8,38955.3,40521.4,32258.2,26660.8,25368.1,26928.6,28339.7,62058.5,175253,175253,175253
1.05569e-05	-7549.39	0,1.35275e-06,3.20373e-06,5.73646e-06,9.20203e-06,1.3944e-05,2.04326e-05,2.93109e-05,4.14593e-05,5.80821e-05,8.08274e-05,0.00011195,0.000154536,0.000212806,0.000292539,0.000401638,inf	100.632,100.632,1864.25,9899.59,25177.4,40698.7,42418,32158.2,25723.7,24238,26350.7,28907.9,138581,3.77662e+06,3.77662e+06,3.77662e+06
