LogLikelihood = -251971.54242318778415

y0 0.59069714935601047578
y0_prime 0
y1 0.67014121774908741447
y1_prime 0
y2 0.91215390965536391477
y2_prime 0
y3 1.61199004463311657
y3_prime 0
rho 0.0012425437896196149523
theta 0.0040866770767058009303
