LogLikelihood = -876213.982342401403

y0 7.1125613832672096045e-08
y0_prime 0
y1 0.00014899811507783898047
y1_prime 0
y2 0.0061381986427098455053
y2_prime 0
y3 3583.7697828983718864
y3_prime 0
rho 1.9896038471088044067e-07
theta 0.0025298087962887499253
