0.000747115	-14317484.83	0,1.81863e-06,4.21421e-06,7.36978e-06,1.15265e-05,1.70018e-05,2.42143e-05,3.37148e-05,4.62295e-05,6.27143e-05,8.4429e-05,0.000113033,0.000150711,0.000200342,0.000265719,0.000351836,0.000465275,0.000614701,0.000811533,0.00107081,0.00141234,0.00186222,0.00245483,0.00323544,0.00426369,0.00561816,0.00740234,0.00975254,0.0128483,0.0169263,0.0222979,0.0293737,inf	5.82324,5.82324,12.8828,20.9589,31.4132,44.7206,61.3113,81.5062,105.397,132.687,162.495,193.262,222.836,249.258,272.319,293.808,315.818,338.508,361.491,385.35,410.59,433.913,447.93,448.417,439.375,424.72,405.742,386.408,386.408,374.295,374.295,374.295
0.000845574	-14306705.31	0,1.81863e-06,4.21421e-06,7.36978e-06,1.15265e-05,1.70018e-05,2.42143e-05,3.37148e-05,4.62295e-05,6.27143e-05,8.4429e-05,0.000113033,0.000150711,0.000200342,0.000265719,0.000351836,0.000465275,0.000614701,0.000811533,0.00107081,0.00141234,0.00186222,0.00245483,0.00323544,0.00426369,0.00561816,0.00740234,0.00975254,0.0128483,0.0169263,0.0222979,0.0293737,inf	0.387686,0.387686,0.703929,1.87704,4.21638,8.51847,15.8734,27.6257,45.1638,69.5006,100.589,136.71,174.101,208.199,237.528,264.896,293.541,322.956,352.114,382.563,416.792,451.993,477.231,482.868,471.766,447.964,414.12,380.231,380.231,360.325,360.325,360.325
0.000939	-14300124.57	0,1.81863e-06,4.21421e-06,7.36978e-06,1.15265e-05,1.70018e-05,2.42143e-05,3.37148e-05,4.62295e-05,6.27143e-05,8.4429e-05,0.000113033,0.000150711,0.000200342,0.000265719,0.000351836,0.000465275,0.000614701,0.000811533,0.00107081,0.00141234,0.00186222,0.00245483,0.00323544,0.00426369,0.00561816,0.00740234,0.00975254,0.0128483,0.0169263,0.0222979,0.0293737,inf	0.387657,0.387657,0.387655,0.387655,0.755086,2.15508,5.41795,12.1788,24.6997,45.3682,75.5363,114.095,156.208,194.678,226.777,256.507,287.921,319.446,349.39,380.35,416.878,457.615,490.51,501.983,491.98,462.352,416.885,372.119,372.119,346.544,346.544,346.544
0.00102801	-14295177.45	0,1.81863e-06,4.21421e-06,7.36978e-06,1.15265e-05,1.70018e-05,2.42143e-05,3.37148e-05,4.62295e-05,6.27143e-05,8.4429e-05,0.000113033,0.000150711,0.000200342,0.000265719,0.000351836,0.000465275,0.000614701,0.000811533,0.00107081,0.00141234,0.00186222,0.00245483,0.00323544,0.00426369,0.00561816,0.00740234,0.00975254,0.0128483,0.0169263,0.0222979,0.0293737,inf	0.387657,0.387657,0.387655,0.387655,0.387654,0.642995,2.19596,6.30378,15.6138,33.5812,62.985,103.633,149.826,191.674,225.387,256.406,289.302,321.193,349.803,378.855,414.79,457.744,495.627,512.352,504.69,471.213,416.587,363.618,363.618,333.365,333.365,333.365
0.00111326	-14291124.36	0,1.81863e-06,4.21421e-06,7.36978e-06,1.15265e-05,1.70018e-05,2.42143e-05,3.37148e-05,4.62295e-05,6.27143e-05,8.4429e-05,0.000113033,0.000150711,0.000200342,0.000265719,0.000351836,0.000465275,0.000614701,0.000811533,0.00107081,0.00141234,0.00186222,0.00245483,0.00323544,0.00426369,0.00561816,0.00740234,0.00975254,0.0128483,0.0169263,0.0222979,0.0293737,inf	0.387657,0.387657,0.387655,0.387655,0.387654,0.387654,0.99995,3.62962,10.8345,26.8515,55.7919,98.4898,148.487,193.16,227.945,259.907,293.823,325.35,351.746,377.927,412.019,455.461,496.539,517.674,512.72,476.61,414.7,355.451,355.451,320.974,320.974,320.974
0.00119526	-14287673.20	0,1.81863e-06,4.21421e-06,7.36978e-06,1.15265e-05,1.70018e-05,2.42143e-05,3.37148e-05,4.62295e-05,6.27143e-05,8.4429e-05,0.000113033,0.000150711,0.000200342,0.000265719,0.000351836,0.000465275,0.000614701,0.000811533,0.00107081,0.00141234,0.00186222,0.00245483,0.00323544,0.00426369,0.00561816,0.00740234,0.00975254,0.0128483,0.0169263,0.0222979,0.0293737,inf	0.387657,0.387657,0.387654,0.387655,0.387654,0.387654,0.493629,2.2573,8.02658,22.6054,51.3112,96.0202,149.555,196.583,232.117,264.937,299.718,330.573,354.416,377.397,409.146,452.174,495.273,520.026,517.776,479.811,412.055,347.92,347.92,309.426,309.426,309.426
0.00127437	-14284675.53	0,1.81863e-06,4.21421e-06,7.36978e-06,1.15265e-05,1.70018e-05,2.42143e-05,3.37148e-05,4.62295e-05,6.27143e-05,8.4429e-05,0.000113033,0.000150711,0.000200342,0.000265719,0.000351836,0.000465275,0.000614701,0.000811533,0.00107081,0.00141234,0.00186222,0.00245483,0.00323544,0.00426369,0.00561816,0.00740234,0.00975254,0.0128483,0.0169263,0.0222979,0.0293737,inf	0.387657,0.387657,0.387654,0.387655,0.387654,0.387654,0.387654,1.49162,6.25019,19.7578,48.4017,95.0644,151.843,200.772,236.831,270.52,306.132,336.195,357.393,377.135,406.392,448.544,492.89,520.601,520.897,481.604,409.115,341.119,341.119,298.707,298.707,298.707
0.00135086	-14282040.16	0,1.81863e-06,4.21421e-06,7.36978e-06,1.15265e-05,1.70018e-05,2.42143e-05,3.37148e-05,4.62295e-05,6.27143e-05,8.4429e-05,0.000113033,0.000150711,0.000200342,0.000265719,0.000351836,0.000465275,0.000614701,0.000811533,0.00107081,0.00141234,0.00186222,0.00245483,0.00323544,0.00426369,0.00561816,0.00740234,0.00975254,0.0128483,0.0169263,0.0222979,0.0293737,inf	0.387657,0.387657,0.387654,0.387655,0.387654,0.387654,0.387654,1.03592,5.06725,17.7789,46.5101,95.0693,154.783,205.176,241.588,276.192,312.639,341.874,360.454,377.048,403.833,444.88,489.961,520.098,522.737,482.481,406.136,335.042,335.042,288.763,288.763,288.763
0.00142493	-14279703.65	0,1.81863e-06,4.21421e-06,7.36978e-06,1.15265e-05,1.70018e-05,2.42143e-05,3.37148e-05,4.62295e-05,6.27143e-05,8.4429e-05,0.000113033,0.000150711,0.000200342,0.000265719,0.000351836,0.000465275,0.000614701,0.000811533,0.00107081,0.00141234,0.00186222,0.00245483,0.00323544,0.00426369,0.00561816,0.00740234,0.00975254,0.0128483,0.0169263,0.0222979,0.0293737,inf	0.387657,0.387657,0.387654,0.387655,0.387654,0.387654,0.387654,0.751271,4.25056,16.3861,45.3417,95.7534,158.093,209.537,246.169,281.734,319.03,347.438,363.479,377.074,401.483,441.327,486.798,518.939,523.711,482.761,403.255,329.643,329.643,279.525,279.525,279.525
0.00149675	-14277618.49	0,1.81863e-06,4.21421e-06,7.36978e-06,1.15265e-05,1.70018e-05,2.42143e-05,3.37148e-05,4.62295e-05,6.27143e-05,8.4429e-05,0.000113033,0.000150711,0.000200342,0.000265719,0.000351836,0.000465275,0.000614701,0.000811533,0.00107081,0.00141234,0.00186222,0.00245483,0.00323544,0.00426369,0.00561816,0.00740234,0.00975254,0.0128483,0.0169263,0.0222979,0.0293737,inf	0.387657,0.387657,0.387654,0.387655,0.387654,0.387654,0.387654,0.558678,3.67316,15.4106,44.7246,96.9613,161.63,213.744,250.489,287.055,325.207,352.801,366.404,377.167,399.329,437.947,483.573,517.384,524.092,482.647,400.539,324.856,324.856,270.92,270.92,270.92
0.00156645	-14275747.52	0,1.81863e-06,4.21421e-06,7.36978e-06,1.15265e-05,1.70018e-05,2.42143e-05,3.37148e-05,4.62295e-05,6.27143e-05,8.4429e-05,0.000113033,0.000150711,0.000200342,0.000265719,0.000351836,0.000465275,0.000614701,0.000811533,0.00107081,0.00141234,0.00186222,0.00245483,0.00323544,0.00426369,0.00561816,0.00740234,0.00975254,0.0128483,0.0169263,0.0222979,0.0293737,inf	0.387657,0.387657,0.387654,0.387655,0.387654,0.387654,0.387654,0.430322,3.25817,14.747,44.5499,98.5984,165.315,217.753,254.526,292.122,331.126,357.924,369.195,377.299,397.354,434.759,480.382,515.596,524.063,482.276,398.02,320.614,320.614,262.88,262.88,262.88
0.00163416	-14274060.87	0,1.81863e-06,4.21421e-06,7.36978e-06,1.15265e-05,1.70018e-05,2.42143e-05,3.37148e-05,4.62295e-05,6.27143e-05,8.4429e-05,0.000113033,0.000150711,0.000200342,0.000265719,0.000351836,0.000465275,0.000614701,0.000811533,0.00107081,0.00141234,0.00186222,0.00245483,0.00323544,0.00426369,0.00561816,0.00740234,0.00975254,0.0128483,0.0169263,0.0222979,0.0293737,inf	0.387657,0.387657,0.387654,0.387655,0.387654,0.387654,0.387654,0.387654,2.95732,14.3253,44.7438,100.603,169.104,221.552,258.289,296.932,336.777,362.795,371.839,377.447,395.534,431.765,477.274,513.678,523.747,481.738,395.704,316.855,316.855,255.336,255.336,255.336
0.00169996	-14272534.08	0,1.81863e-06,4.21421e-06,7.36978e-06,1.15265e-05,1.70018e-05,2.42143e-05,3.37148e-05,4.62295e-05,6.27143e-05,8.4429e-05,0.000113033,0.000150711,0.000200342,0.000265719,0.000351836,0.000465275,0.000614701,0.000811533,0.00107081,0.00141234,0.00186222,0.00245483,0.00323544,0.00426369,0.00561816,0.00740234,0.00975254,0.0128483,0.0169263,0.0222979,0.0293737,inf	0.387657,0.387657,0.387654,0.387655,0.387654,0.387654,0.387654,0.387654,2.73879,14.0961,45.2522,102.928,172.964,225.146,261.8,301.498,342.162,367.412,374.33,377.598,393.851,428.955,474.277,511.698,523.23,481.095,393.59,313.52,313.52,248.229,248.229,248.229
0.00176397	-14271146.88	0,1.81863e-06,4.21421e-06,7.36978e-06,1.15265e-05,1.70018e-05,2.42143e-05,3.37148e-05,4.62295e-05,6.27143e-05,8.4429e-05,0.000113033,0.000150711,0.000200342,0.000265719,0.000351836,0.000465275,0.000614701,0.000811533,0.00107081,0.00141234,0.00186222,0.00245483,0.00323544,0.00426369,0.00561816,0.00740234,0.00975254,0.0128483,0.0169263,0.0222979,0.0293737,inf	0.387657,0.387657,0.387654,0.387655,0.387654,0.387654,0.387654,0.387654,2.58142,14.0251,46.0337,105.535,176.872,228.545,265.081,305.836,347.291,371.783,376.67,377.742,392.285,426.317,471.401,509.698,522.574,480.388,391.667,310.559,310.559,241.506,241.506,241.506
0.00182625	-14269882.25	0,1.81863e-06,4.21421e-06,7.36978e-06,1.15265e-05,1.70018e-05,2.42143e-05,3.37148e-05,4.62295e-05,6.27143e-05,8.4429e-05,0.000113033,0.000150711,0.000200342,0.000265719,0.000351836,0.000465275,0.000614701,0.000811533,0.00107081,0.00141234,0.00186222,0.00245483,0.00323544,0.00426369,0.00561816,0.00740234,0.00975254,0.0128483,0.0169263,0.0222979,0.0293737,inf	0.387657,0.387657,0.387654,0.387655,0.387654,0.387654,0.387654,0.387654,2.47126,14.0867,47.0569,108.393,180.807,231.762,268.158,309.964,352.177,375.918,378.863,377.873,390.823,423.836,468.65,507.709,521.82,479.645,389.922,307.926,307.926,235.119,235.119,235.119
0.00188689	-14268725.84	0,1.81863e-06,4.21421e-06,7.36978e-06,1.15265e-05,1.70018e-05,2.42143e-05,3.37148e-05,4.62295e-05,6.27143e-05,8.4429e-05,0.000113033,0.000150711,0.000200342,0.000265719,0.000351836,0.000465275,0.000614701,0.000811533,0.00107081,0.00141234,0.00186222,0.00245483,0.00323544,0.00426369,0.00561816,0.00740234,0.00975254,0.0128483,0.0169263,0.0222979,0.0293737,inf	0.387657,0.387657,0.387654,0.387655,0.387654,0.387654,0.387654,0.387654,2.39788,14.2627,48.2962,111.473,184.75,234.805,271.054,313.901,356.837,379.832,380.917,377.987,389.451,421.501,466.022,505.747,521.002,478.888,388.342,305.585,305.585,229.026,229.026,229.026
0.00194596	-14267665.40	0,1.81863e-06,4.21421e-06,7.36978e-06,1.15265e-05,1.70018e-05,2.42143e-05,3.37148e-05,4.62295e-05,6.27143e-05,8.4429e-05,0.000113033,0.000150711,0.000200342,0.000265719,0.000351836,0.000465275,0.000614701,0.000811533,0.00107081,0.00141234,0.00186222,0.00245483,0.00323544,0.00426369,0.00561816,0.00740234,0.00975254,0.0128483,0.0169263,0.0222979,0.0293737,inf	0.387657,0.387657,0.387654,0.387655,0.387654,0.387654,0.387654,0.387654,2.35349,14.5385,49.7294,114.749,188.685,237.687,273.787,317.664,361.284,383.537,382.838,378.082,388.158,419.297,463.514,503.824,520.14,478.129,386.913,303.5,303.5,223.19,223.19,223.19
0.00200352	-14266690.45	0,1.81863e-06,4.21421e-06,7.36978e-06,1.15265e-05,1.70018e-05,2.42143e-05,3.37148e-05,4.62295e-05,6.27143e-05,8.4429e-05,0.000113033,0.000150711,0.000200342,0.000265719,0.000351836,0.000465275,0.000614701,0.000811533,0.00107081,0.00141234,0.00186222,0.00245483,0.00323544,0.00426369,0.00561816,0.00740234,0.00975254,0.0128483,0.0169263,0.0222979,0.0293737,inf	0.387657,0.387657,0.387654,0.387655,0.387654,0.387654,0.387654,0.387654,2.33314,14.9026,51.3377,118.196,192.594,240.418,276.375,321.269,365.534,387.046,384.634,378.158,386.935,417.213,461.12,501.949,519.253,477.378,385.622,301.645,301.645,217.577,217.577,217.577
0.00205964	-14265791.95	0,1.81863e-06,4.21421e-06,7.36978e-06,1.15265e-05,1.70018e-05,2.42143e-05,3.37148e-05,4.62295e-05,6.27143e-05,8.4429e-05,0.000113033,0.000150711,0.000200342,0.000265719,0.000351836,0.000465275,0.000614701,0.000811533,0.00107081,0.00141234,0.00186222,0.00245483,0.00323544,0.00426369,0.00561816,0.00740234,0.00975254,0.0128483,0.0169263,0.0222979,0.0293737,inf	0.387657,0.387657,0.387654,0.387655,0.387654,0.387654,0.387654,0.387654,2.33253,15.3455,53.1047,121.79,196.464,243.005,278.834,324.728,369.6,390.372,386.316,378.213,385.774,415.239,458.834,500.125,518.352,476.642,384.459,299.995,299.995,212.159,212.159,212.159
0.00211437	-14264962.08	0,1.81863e-06,4.21421e-06,7.36978e-06,1.15265e-05,1.70018e-05,2.42143e-05,3.37148e-05,4.62295e-05,6.27143e-05,8.4429e-05,0.000113033,0.000150711,0.000200342,0.000265719,0.000351836,0.000465275,0.000614701,0.000811533,0.00107081,0.00141234,0.00186222,0.00245483,0.00323544,0.00426369,0.00561816,0.00740234,0.00975254,0.0128483,0.0169263,0.0222979,0.0293737,inf	0.387657,0.387657,0.387654,0.387655,0.387654,0.387654,0.387654,0.387654,2.34865,15.8601,55.016,125.51,200.281,245.458,281.177,328.054,373.494,393.528,387.888,378.249,384.67,413.366,456.65,498.355,517.447,475.925,383.41,298.529,298.529,206.908,206.908,206.908
