LogLikelihood = -303570.53158791968599

y0 0.9697550191441109968
y0_prime 0
y1 0.76848668164137623471
y1_prime 0
y2 1.0739917286024693865
y2_prime 0
y3 1.9487130361298534709
y3_prime 0
rho 0.00049989389665473446273
theta 0.0050325201300805205359
