AIC = 606054.8277651402168

y0 1.0533426820001949853
y0_prime 0
y1 1.0952855861957990768
y1_prime 0
y2 0.80853346286787497466
y2_prime 0
y3 1.6687097443895955173
y3_prime 0
rho 0.0033707168388912803897
rho.alpha 0.18571812820104921515
r_ii 0.99994417609895802634
theta 0.0050325201300805205359
