0.000682556	-13392009.83	0,1.67818e-06,3.88877e-06,6.80065e-06,1.06363e-05,1.56889e-05,2.23443e-05,3.11112e-05,4.26594e-05,5.78712e-05,7.7909e-05,0.000104304,0.000139072,0.000184871,0.000245199,0.000324666,0.000429344,0.000567231,0.000748862,0.000988116,0.00130327,0.00171841,0.00226525,0.00298558,0.00393443,0.0051843,0.00683069,0.0089994,0.0118561,0.0156191,0.020576,0.0271053,inf	20.9402,20.9402,43.1695,65.5582,91.407,120.83,153.092,185.105,211.336,226.459,228.451,220.951,211.583,209.733,220.296,242.613,275.186,317.163,367.027,420.759,469.595,500.057,503.763,488.303,467.488,448.509,432.318,426.185,426.185,482.275,482.275,482.275
0.000768901	-13380831.10	0,1.67818e-06,3.88877e-06,6.80065e-06,1.06363e-05,1.56889e-05,2.23443e-05,3.11112e-05,4.26594e-05,5.78712e-05,7.7909e-05,0.000104304,0.000139072,0.000184871,0.000245199,0.000324666,0.000429344,0.000567231,0.000748862,0.000988116,0.00130327,0.00171841,0.00226525,0.00298558,0.00393443,0.0051843,0.00683069,0.0089994,0.0118561,0.0156191,0.020576,0.0271053,inf	2.07966,2.07966,8.78778,20.099,38.7261,66.9224,105.867,151.556,192.135,213.433,209.218,187.193,162.302,150.249,156.97,181.075,221.106,276.586,345.477,421.984,494.035,541.61,549.377,526.645,494.097,462.757,434.87,426.433,426.433,553.947,553.947,553.947
0.000850857	-13374798.74	0,1.67818e-06,3.88877e-06,6.80065e-06,1.06363e-05,1.56889e-05,2.23443e-05,3.11112e-05,4.26594e-05,5.78712e-05,7.7909e-05,0.000104304,0.000139072,0.000184871,0.000245199,0.000324666,0.000429344,0.000567231,0.000748862,0.000988116,0.00130327,0.00171841,0.00226525,0.00298558,0.00393443,0.0051843,0.00683069,0.0089994,0.0118561,0.0156191,0.020576,0.0271053,inf	0.420118,0.420118,2.15437,7.40442,19.6587,44.258,86.9564,146.325,204.65,235.146,224.728,186.829,146.629,125.892,128.833,152.394,195.261,257.424,336.156,424.009,507.195,563.068,573.05,546.904,507.926,468.491,432.136,423.749,423.749,640.906,640.906,640.906
0.000928687	-13370487.03	0,1.67818e-06,3.88877e-06,6.80065e-06,1.06363e-05,1.56889e-05,2.23443e-05,3.11112e-05,4.26594e-05,5.78712e-05,7.7909e-05,0.000104304,0.000139072,0.000184871,0.000245199,0.000324666,0.000429344,0.000567231,0.000748862,0.000988116,0.00130327,0.00171841,0.00226525,0.00298558,0.00393443,0.0051843,0.00683069,0.0089994,0.0118561,0.0156191,0.020576,0.0271053,inf	0.420098,0.420098,0.540955,2.81223,10.2713,30.0266,72.9635,143.604,220.985,263.612,248.428,194.892,140.747,113.413,113.854,137.044,181.789,248.411,333.236,427.134,515.256,574.223,584.693,556.834,514.352,469.464,426.857,419.881,419.881,754.676,754.676,754.676
0.00100298	-13367005.54	0,1.67818e-06,3.88877e-06,6.80065e-06,1.06363e-05,1.56889e-05,2.23443e-05,3.11112e-05,4.26594e-05,5.78712e-05,7.7909e-05,0.000104304,0.000139072,0.000184871,0.000245199,0.000324666,0.000429344,0.000567231,0.000748862,0.000988116,0.00130327,0.00171841,0.00226525,0.00298558,0.00393443,0.0051843,0.00683069,0.0089994,0.0118561,0.0156191,0.020576,0.0271053,inf	0.420098,0.420098,0.420096,1.06681,5.34689,20.2273,60.4813,138.411,233.458,289.743,271.767,204.034,137.966,105.879,104.895,128.187,174.7,244.911,333.983,431.125,520.818,579.918,589.711,560.913,516.554,467.867,420.531,415.743,415.743,922.765,922.765,922.765
0.00107422	-13364042.40	0,1.67818e-06,3.88877e-06,6.80065e-06,1.06363e-05,1.56889e-05,2.23443e-05,3.11112e-05,4.26594e-05,5.78712e-05,7.7909e-05,0.000104304,0.000139072,0.000184871,0.000245199,0.000324666,0.000429344,0.000567231,0.000748862,0.000988116,0.00130327,0.00171841,0.00226525,0.00298558,0.00393443,0.0051843,0.00683069,0.0089994,0.0118561,0.0156191,0.020576,0.0271053,inf	0.420098,0.420098,0.420096,0.420122,2.78227,13.5566,49.6022,131.041,240.913,310.939,291.919,211.928,136.104,100.74,99.1031,122.897,171.258,244.645,336.899,435.658,525.018,582.597,591.03,561.672,516.364,464.939,413.936,411.792,411.792,1241.71,1241.71,1241.71
0.00114276	-13361458.30	0,1.67818e-06,3.88877e-06,6.80065e-06,1.06363e-05,1.56889e-05,2.23443e-05,3.11112e-05,4.26594e-05,5.78712e-05,7.7909e-05,0.000104304,0.000139072,0.000184871,0.000245199,0.000324666,0.000429344,0.000567231,0.000748862,0.000988116,0.00130327,0.00171841,0.00226525,0.00298558,0.00393443,0.0051843,0.00683069,0.0089994,0.0118561,0.0156191,0.020576,0.0271053,inf	0.420098,0.420098,0.420096,0.42011,1.4622,9.1296,40.6026,122.827,244.425,327.258,308.372,218.013,134.426,96.9176,95.1544,119.74,170.045,246.36,341.102,440.457,528.38,583.541,590.262,560.55,514.833,461.366,407.449,408.257,408.257,2445.83,2445.83,2445.83
0.00120886	-13359178.84	0,1.67818e-06,3.88877e-06,6.80065e-06,1.06363e-05,1.56889e-05,2.23443e-05,3.11112e-05,4.26594e-05,5.78712e-05,7.7909e-05,0.000104304,0.000139072,0.000184871,0.000245199,0.000324666,0.000429344,0.000567231,0.000748862,0.000988116,0.00130327,0.00171841,0.00226525,0.00298558,0.00393443,0.0051843,0.00683069,0.0089994,0.0118561,0.0156191,0.020576,0.0271053,inf	0.420098,0.420098,0.420096,0.42011,0.772123,6.22753,33.4398,114.842,245.47,339.654,321.467,222.348,132.698,93.8928,92.3645,117.941,170.259,249.316,346.044,445.323,531.163,583.451,588.312,558.369,512.558,457.511,401.225,405.293,405.293,46308.5,46308.5,46308.5
0.00120886	-13357146.70	0,1.67818e-06,3.88877e-06,6.80065e-06,1.06363e-05,1.56889e-05,2.23443e-05,3.11112e-05,4.26594e-05,5.78712e-05,7.7909e-05,0.000104304,0.000139072,0.000184871,0.000245199,0.000324666,0.000429344,0.000567231,0.000748862,0.000988116,0.00130327,0.00171841,0.00226525,0.00298558,0.00393443,0.0051843,0.00683069,0.0089994,0.0118561,0.0156191,0.020576,0.0271053,inf	0.420098,0.420098,0.420096,0.42011,0.420654,4.27326,27.5074,106.303,242.077,344.585,327.413,222.273,129.213,90.2568,89.226,115.587,169.225,249.663,346.371,443.337,525.295,573.885,577.849,549.282,504.809,449.535,392.36,400.427,400.427,62636.9,62636.9,62636.9
