0.000638054	-285159.75	0,8.6995e-05,0.000206032,0.000368911,0.000591782,0.000896739,0.00131402,0.00188498,0.00266625,0.00373526,0.00519801,0.0071995,0.00993818,0.0136856,0.0188131,0.0258293,inf	427.423,427.423,316.131,318.744,333.173,350.236,372.646,400.452,421.572,426.687,433.572,436.289,450.662,516.649,516.649,516.649
0.000689363	-285089.52	0,8.6995e-05,0.000206032,0.000368911,0.000591782,0.000896739,0.00131402,0.00188498,0.00266625,0.00373526,0.00519801,0.0071995,0.00993818,0.0136856,0.0188131,0.0258293,inf	473.195,473.195,285.141,291.89,310.537,330.47,358.275,396.149,424.281,428.757,440.112,445.094,474.964,647.057,647.057,647.057
0.000738805	-285055.22	0,8.6995e-05,0.000206032,0.000368911,0.000591782,0.000896739,0.00131402,0.00188498,0.00266625,0.00373526,0.00519801,0.0071995,0.00993818,0.0136856,0.0188131,0.0258293,inf	505.695,505.695,269.068,283.341,304.513,323.954,352.881,395.736,426.275,428.475,443.194,450.171,496.504,861.227,861.227,861.227
0.000785651	-285030.05	0,8.6995e-05,0.000206032,0.000368911,0.000591782,0.000896739,0.00131402,0.00188498,0.00266625,0.00373526,0.00519801,0.0071995,0.00993818,0.0136856,0.0188131,0.0258293,inf	522.917,522.917,257.466,280.943,304.066,321.798,350.39,396.188,427.148,426.557,443.851,452.504,516.122,1375.71,1375.71,1375.71
0.000829977	-285010.09	0,8.6995e-05,0.000206032,0.000368911,0.000591782,0.000896739,0.00131402,0.00188498,0.00266625,0.00373526,0.00519801,0.0071995,0.00993818,0.0136856,0.0188131,0.0258293,inf	530.489,530.489,248.06,281.181,305.827,321.293,349.023,396.81,427.211,423.687,442.895,452.87,534.641,4861.31,4861.31,4861.31
0.000829977	-284993.90	0,8.6995e-05,0.000206032,0.000368911,0.000591782,0.000896739,0.00131402,0.00188498,0.00266625,0.00373526,0.00519801,0.0071995,0.00993818,0.0136856,0.0188131,0.0258293,inf	524.168,524.168,236.758,278.524,303.845,316.676,343.177,391.758,420.654,415.908,436.947,448.816,550.373,59590,59590,59590
0.000829977	-284996.18	0,8.6995e-05,0.000206032,0.000368911,0.000591782,0.000896739,0.00131402,0.00188498,0.00266625,0.00373526,0.00519801,0.0071995,0.00993818,0.0136856,0.0188131,0.0258293,inf	524.169,524.169,229.454,279.298,305.172,315.372,340.708,389.948,417.391,410.342,432.577,445.664,559.176,59590,59590,59590
0.000829977	-284997.69	0,8.6995e-05,0.000206032,0.000368911,0.000591782,0.000896739,0.00131402,0.00188498,0.00266625,0.00373526,0.00519801,0.0071995,0.00993818,0.0136856,0.0188131,0.0258293,inf	524.169,524.169,223.306,280.649,305.188,314.952,339.43,389.801,415.91,406.312,429.31,443.201,565.14,59590,59590,59590
0.000829977	-284998.65	0,8.6995e-05,0.000206032,0.000368911,0.000591782,0.000896739,0.00131402,0.00188498,0.00266625,0.00373526,0.00519801,0.0071995,0.00993818,0.0136856,0.0188131,0.0258293,inf	524.17,524.17,218.059,282.467,306.662,314.952,338.728,390.314,415.403,403.234,426.782,441.215,569.288,59590,59590,59590
0.000829977	-284999.22	0,8.6995e-05,0.000206032,0.000368911,0.000591782,0.000896739,0.00131402,0.00188498,0.00266625,0.00373526,0.00519801,0.0071995,0.00993818,0.0136856,0.0188131,0.0258293,inf	524.17,524.17,213.29,284.187,307.952,314.903,338.135,390.774,415.403,400.789,424.783,439.575,572.508,59590,59590,59590
0.000829977	-284999.62	0,8.6995e-05,0.000206032,0.000368911,0.000591782,0.000896739,0.00131402,0.00188498,0.00266625,0.00373526,0.00519801,0.0071995,0.00993818,0.0136856,0.0188131,0.0258293,inf	524.17,524.17,208.945,285.827,309.074,314.757,337.583,391.255,415.403,398.819,423.187,438.201,575.134,59590,59590,59590
0.000829977	-284999.95	0,8.6995e-05,0.000206032,0.000368911,0.000591782,0.000896739,0.00131402,0.00188498,0.00266625,0.00373526,0.00519801,0.0071995,0.00993818,0.0136856,0.0188131,0.0258293,inf	524.171,524.171,204.982,287.408,310.035,314.535,337.065,391.752,415.403,397.224,421.912,437.04,577.286,59590,59590,59590
0.000829977	-285000.21	0,8.6995e-05,0.000206032,0.000368911,0.000591782,0.000896739,0.00131402,0.00188498,0.00266625,0.00373526,0.00519801,0.0071995,0.00993818,0.0136856,0.0188131,0.0258293,inf	524.172,524.172,201.357,288.947,310.847,314.257,336.568,392.264,415.403,395.928,420.896,436.051,579.057,59590,59590,59590
0.000829977	-285000.41	0,8.6995e-05,0.000206032,0.000368911,0.000591782,0.000896739,0.00131402,0.00188498,0.00266625,0.00373526,0.00519801,0.0071995,0.00993818,0.0136856,0.0188131,0.0258293,inf	524.173,524.173,198.033,290.456,311.519,313.939,336.104,392.773,415.403,394.87,420.088,435.2,580.516,59590,59590,59590
0.000829977	-285000.57	0,8.6995e-05,0.000206032,0.000368911,0.000591782,0.000896739,0.00131402,0.00188498,0.00266625,0.00373526,0.00519801,0.0071995,0.00993818,0.0136856,0.0188131,0.0258293,inf	524.178,524.178,194.977,291.943,312.065,313.591,335.658,392.773,415.777,393.994,419.445,434.461,581.742,59590,59590,59590
0.000829977	-285000.69	0,8.6995e-05,0.000206032,0.000368911,0.000591782,0.000896739,0.00131402,0.00188498,0.00266625,0.00373526,0.00519801,0.0071995,0.00993818,0.0136856,0.0188131,0.0258293,inf	524.179,524.179,192.161,293.409,312.065,313.26,335.28,393.395,415.777,393.269,418.934,433.817,581.742,59590.3,59590.3,59590.3
0.000829977	-285000.77	0,8.6995e-05,0.000206032,0.000368911,0.000591782,0.000896739,0.00131402,0.00188498,0.00266625,0.00373526,0.00519801,0.0071995,0.00993818,0.0136856,0.0188131,0.0258293,inf	524.179,524.179,189.592,294.942,312.065,312.952,334.919,393.921,415.777,392.663,418.537,433.248,582.606,59590.3,59590.3,59590.3
0.000829977	-285000.84	0,8.6995e-05,0.000206032,0.000368911,0.000591782,0.000896739,0.00131402,0.00188498,0.00266625,0.00373526,0.00519801,0.0071995,0.00993818,0.0136856,0.0188131,0.0258293,inf	524.179,524.179,187.217,296.506,312.181,312.665,334.574,393.921,416.076,392.147,418.228,432.739,583.34,59590.3,59590.3,59590.3
0.000829977	-285000.90	0,8.6995e-05,0.000206032,0.000368911,0.000591782,0.000896739,0.00131402,0.00188498,0.00266625,0.00373526,0.00519801,0.0071995,0.00993818,0.0136856,0.0188131,0.0258293,inf	524.182,524.182,184.992,298.054,312.229,312.416,334.285,393.931,416.323,391.709,417.989,432.279,583.974,59590.3,59590.3,59590.3
0.000829977	-285000.94	0,8.6995e-05,0.000206032,0.000368911,0.000591782,0.000896739,0.00131402,0.00188498,0.00266625,0.00373526,0.00519801,0.0071995,0.00993818,0.0136856,0.0188131,0.0258293,inf	524.182,524.182,182.898,299.58,312.229,312.199,334.048,394.222,416.323,391.34,417.811,431.86,584.52,59590.3,59590.3,59590.3
