0.000725488	-4599001.32	0,4.54925e-06,1.03396e-05,1.77095e-05,2.709e-05,3.90295e-05,5.42262e-05,7.35686e-05,9.81877e-05,0.000129523,0.000169407,0.000220171,0.000284784,0.000367023,0.000471698,0.000604929,0.000774505,0.000990343,0.00126506,0.00161473,0.00205978,0.00262625,0.00334725,0.00426494,0.00543299,0.00691968,0.00881195,0.0112204,0.014286,0.0181878,0.0231541,0.0294752,inf	588.331,588.331,457.587,397.459,378.795,371.335,369.682,369.191,367.276,364.479,362.377,361.864,362.568,364.291,367.426,372.572,380.289,390.576,402.453,413.433,421.769,426.34,426.727,424.752,420.797,414.366,404.476,386.877,386.877,379.938,379.938,379.938
0.000819342	-4596554.44	0,4.54925e-06,1.03396e-05,1.77095e-05,2.709e-05,3.90295e-05,5.42262e-05,7.35686e-05,9.81877e-05,0.000129523,0.000169407,0.000220171,0.000284784,0.000367023,0.000471698,0.000604929,0.000774505,0.000990343,0.00126506,0.00161473,0.00205978,0.00262625,0.00334725,0.00426494,0.00543299,0.00691968,0.00881195,0.0112204,0.014286,0.0181878,0.0231541,0.0294752,inf	714.861,714.861,487.313,397.194,373.661,365.764,365.944,366.323,363.029,357.781,353.686,352.07,352.031,353.253,356.463,362.648,372.663,386.586,403.127,418.714,431.062,438.51,440.157,438.504,433.257,422.776,405.381,374.226,374.226,363.282,363.282,363.282
0.000907196	-4594773.31	0,4.54925e-06,1.03396e-05,1.77095e-05,2.709e-05,3.90295e-05,5.42262e-05,7.35686e-05,9.81877e-05,0.000129523,0.000169407,0.000220171,0.000284784,0.000367023,0.000471698,0.000604929,0.000774505,0.000990343,0.00126506,0.00161473,0.00205978,0.00262625,0.00334725,0.00426494,0.00543299,0.00691968,0.00881195,0.0112204,0.014286,0.0181878,0.0231541,0.0294752,inf	775.978,775.978,490.918,388.991,367.143,362.227,366.11,368.403,364.632,357.963,352.867,350.746,350.111,350.621,353.308,359.403,369.892,384.924,403.12,420.398,434.451,443.475,446.363,445.899,440.677,427.584,404.424,362.827,362.827,349.845,349.845,349.845
0.000989642	-4593390.21	0,4.54925e-06,1.03396e-05,1.77095e-05,2.709e-05,3.90295e-05,5.42262e-05,7.35686e-05,9.81877e-05,0.000129523,0.000169407,0.000220171,0.000284784,0.000367023,0.000471698,0.000604929,0.000774505,0.000990343,0.00126506,0.00161473,0.00205978,0.00262625,0.00334725,0.00426494,0.00543299,0.00691968,0.00881195,0.0112204,0.014286,0.0181878,0.0231541,0.0294752,inf	798.969,798.969,481.085,376.344,358.483,357.589,365.628,370.113,366.375,359.12,353.907,351.932,351.109,351.149,353.354,359.093,369.389,384.465,402.941,420.503,435.02,444.758,448.647,449.635,445.079,430.269,402.626,352.927,352.927,339.211,339.211,339.211
0.00106728	-4592279.86	0,4.54925e-06,1.03396e-05,1.77095e-05,2.709e-05,3.90295e-05,5.42262e-05,7.35686e-05,9.81877e-05,0.000129523,0.000169407,0.000220171,0.000284784,0.000367023,0.000471698,0.000604929,0.000774505,0.000990343,0.00126506,0.00161473,0.00205978,0.00262625,0.00334725,0.00426494,0.00543299,0.00691968,0.00881195,0.0112204,0.014286,0.0181878,0.0231541,0.0294752,inf	806.644,806.644,467.665,363.667,350.043,353.047,364.923,371.324,367.72,360.34,355.562,354.147,353.431,353.227,355.071,360.389,370.195,384.795,402.859,419.979,434.272,444.168,448.801,451.253,447.658,431.708,400.536,344.483,344.483,330.889,330.889,330.889
0.00114059	-4591369.97	0,4.54925e-06,1.03396e-05,1.77095e-05,2.709e-05,3.90295e-05,5.42262e-05,7.35686e-05,9.81877e-05,0.000129523,0.000169407,0.000220171,0.000284784,0.000367023,0.000471698,0.000604929,0.000774505,0.000990343,0.00126506,0.00161473,0.00205978,0.00262625,0.00334725,0.00426494,0.00543299,0.00691968,0.00881195,0.0112204,0.014286,0.0181878,0.0231541,0.0294752,inf	808.422,808.422,454.193,352.37,342.601,349.022,364.15,371.998,368.435,361.183,357.176,356.575,356.171,355.918,357.542,362.468,371.674,385.56,402.874,419.193,432.892,442.605,447.771,451.61,449.098,432.396,398.42,337.325,337.325,324.422,324.422,324.422
0.00120996	-4590613.17	0,4.54925e-06,1.03396e-05,1.77095e-05,2.709e-05,3.90295e-05,5.42262e-05,7.35686e-05,9.81877e-05,0.000129523,0.000169407,0.000220171,0.000284784,0.000367023,0.000471698,0.000604929,0.000774505,0.000990343,0.00126506,0.00161473,0.00205978,0.00262625,0.00334725,0.00426494,0.00543299,0.00691968,0.00881195,0.0112204,0.014286,0.0181878,0.0231541,0.0294752,inf	808.14,808.14,441.982,342.945,336.523,345.832,363.615,372.381,368.673,361.663,358.607,358.948,358.974,358.809,360.331,364.916,373.49,386.559,402.967,418.318,431.228,440.553,446.092,451.209,449.814,432.626,396.404,331.264,331.264,319.425,319.425,319.425
0.00127573	-4589976.39	0,4.54925e-06,1.03396e-05,1.77095e-05,2.709e-05,3.90295e-05,5.42262e-05,7.35686e-05,9.81877e-05,0.000129523,0.000169407,0.000220171,0.000284784,0.000367023,0.000471698,0.000604929,0.000774505,0.000990343,0.00126506,0.00161473,0.00205978,0.00262625,0.00334725,0.00426494,0.00543299,0.00691968,0.00881195,0.0112204,0.014286,0.0181878,0.0231541,0.0294752,inf	807.102,807.102,431.264,335.327,331.838,343.601,363.495,372.681,368.633,361.899,359.869,361.189,361.696,361.708,363.214,367.507,375.454,387.674,403.115,417.433,429.459,438.274,444.067,450.351,450.062,432.576,394.542,326.12,326.12,315.593,315.593,315.593
0.0013382	-4589435.49	0,4.54925e-06,1.03396e-05,1.77095e-05,2.709e-05,3.90295e-05,5.42262e-05,7.35686e-05,9.81877e-05,0.000129523,0.000169407,0.000220171,0.000284784,0.000367023,0.000471698,0.000604929,0.000774505,0.000990343,0.00126506,0.00161473,0.00205978,0.00262625,0.00334725,0.00426494,0.00543299,0.00691968,0.00881195,0.0112204,0.014286,0.0181878,0.0231541,0.0294752,inf	805.603,805.603,421.896,329.276,328.418,342.312,363.854,373.034,368.458,361.998,361.011,363.292,364.286,364.524,366.073,370.115,377.456,388.83,403.298,416.574,427.68,435.917,441.877,449.222,450.002,432.354,392.849,321.74,321.74,312.686,312.686,312.686
0.00139763	-4588972.35	0,4.54925e-06,1.03396e-05,1.77095e-05,2.709e-05,3.90295e-05,5.42262e-05,7.35686e-05,9.81877e-05,0.000129523,0.000169407,0.000220171,0.000284784,0.000367023,0.000471698,0.000604929,0.000774505,0.000990343,0.00126506,0.00161473,0.00205978,0.00262625,0.00334725,0.00426494,0.00543299,0.00691968,0.00881195,0.0112204,0.014286,0.0181878,0.0231541,0.0294752,inf	803.642,803.642,413.647,324.519,326.076,341.859,364.689,373.502,368.248,362.045,362.08,365.271,366.731,367.214,368.844,372.67,379.432,389.984,403.5,415.756,425.938,433.563,439.626,447.938,449.74,432.028,391.323,317.992,317.992,310.515,310.515,310.515
0.00145424	-4588573.02	0,4.54925e-06,1.03396e-05,1.77095e-05,2.709e-05,3.90295e-05,5.42262e-05,7.35686e-05,9.81877e-05,0.000129523,0.000169407,0.000220171,0.000284784,0.000367023,0.000471698,0.000604929,0.000774505,0.000990343,0.00126506,0.00161473,0.00205978,0.00262625,0.00334725,0.00426494,0.00543299,0.00691968,0.00881195,0.0112204,0.014286,0.0181878,0.0231541,0.0294752,inf	801.313,801.313,406.218,320.781,324.611,342.122,365.947,374.11,368.06,362.095,363.115,367.146,369.032,369.764,371.498,375.132,381.344,391.108,403.71,414.985,424.259,431.26,437.378,446.571,449.343,431.64,389.953,314.769,314.769,308.933,308.933,308.933
0.00150823	-4588226.62	0,4.54925e-06,1.03396e-05,1.77095e-05,2.709e-05,3.90295e-05,5.42262e-05,7.35686e-05,9.81877e-05,0.000129523,0.000169407,0.000220171,0.000284784,0.000367023,0.000471698,0.000604929,0.000774505,0.000990343,0.00126506,0.00161473,0.00205978,0.00262625,0.00334725,0.00426494,0.00543299,0.00691968,0.00881195,0.0112204,0.014286,0.0181878,0.0231541,0.0294752,inf	798.654,798.654,399.419,317.826,323.846,342.976,367.566,374.851,367.923,362.183,364.142,368.936,371.198,372.171,374.018,377.482,383.174,392.188,403.921,414.261,422.654,429.032,435.17,445.17,448.859,431.217,388.724,311.985,311.985,307.826,307.826,307.826
0.00155977	-4587924.51	0,4.54925e-06,1.03396e-05,1.77095e-05,2.709e-05,3.90295e-05,5.42262e-05,7.35686e-05,9.81877e-05,0.000129523,0.000169407,0.000220171,0.000284784,0.000367023,0.000471698,0.000604929,0.000774505,0.000990343,0.00126506,0.00161473,0.00205978,0.00262625,0.00334725,0.00426494,0.00543299,0.00691968,0.00881195,0.0112204,0.014286,0.0181878,0.0231541,0.0294752,inf	795.767,795.767,393.088,315.467,323.628,344.312,369.472,375.705,367.85,362.329,365.177,370.654,373.24,374.438,376.403,379.71,384.911,393.215,404.127,413.582,421.127,426.891,433.024,443.764,448.317,430.776,387.619,309.567,309.567,307.101,307.101,307.101
0.00160904	-4587659.76	0,4.54925e-06,1.03396e-05,1.77095e-05,2.709e-05,3.90295e-05,5.42262e-05,7.35686e-05,9.81877e-05,0.000129523,0.000169407,0.000220171,0.000284784,0.000367023,0.000471698,0.000604929,0.000774505,0.000990343,0.00126506,0.00161473,0.00205978,0.00262625,0.00334725,0.00426494,0.00543299,0.00691968,0.00881195,0.0112204,0.014286,0.0181878,0.0231541,0.0294752,inf	792.763,792.763,387.126,313.564,323.829,346.027,371.599,376.642,367.843,362.544,366.232,372.314,375.17,376.57,378.651,381.815,386.551,394.186,404.326,412.946,419.678,424.844,430.953,442.372,447.739,430.327,386.625,307.456,307.456,306.687,306.687,306.687
0.00165618	-4587426.74	0,4.54925e-06,1.03396e-05,1.77095e-05,2.709e-05,3.90295e-05,5.42262e-05,7.35686e-05,9.81877e-05,0.000129523,0.000169407,0.000220171,0.000284784,0.000367023,0.000471698,0.000604929,0.000774505,0.000990343,0.00126506,0.00161473,0.00205978,0.00262625,0.00334725,0.00426494,0.00543299,0.00691968,0.00881195,0.0112204,0.014286,0.0181878,0.0231541,0.0294752,inf	789.719,789.719,381.433,312.009,324.35,348.032,373.891,377.647,367.899,362.83,367.313,373.923,376.998,378.578,380.769,383.799,388.095,395.101,404.516,412.35,418.306,422.891,428.962,441.008,447.142,429.879,385.728,305.605,305.605,306.526,306.526,306.526
0.00170131	-4587220.85	0,4.54925e-06,1.03396e-05,1.77095e-05,2.709e-05,3.90295e-05,5.42262e-05,7.35686e-05,9.81877e-05,0.000129523,0.000169407,0.000220171,0.000284784,0.000367023,0.000471698,0.000604929,0.000774505,0.000990343,0.00126506,0.00161473,0.00205978,0.00262625,0.00334725,0.00426494,0.00543299,0.00691968,0.00881195,0.0112204,0.014286,0.0181878,0.0231541,0.0294752,inf	786.754,786.754,375.99,310.733,325.112,350.253,376.308,378.698,368.013,363.187,368.423,375.49,378.733,380.468,382.762,385.665,389.547,395.96,404.698,411.792,417.007,421.03,427.052,439.678,446.534,429.436,384.916,303.974,303.974,306.573,306.573,306.573
0.00174457	-4587038.29	0,4.54925e-06,1.03396e-05,1.77095e-05,2.709e-05,3.90295e-05,5.42262e-05,7.35686e-05,9.81877e-05,0.000129523,0.000169407,0.000220171,0.000284784,0.000367023,0.000471698,0.000604929,0.000774505,0.000990343,0.00126506,0.00161473,0.00205978,0.00262625,0.00334725,0.00426494,0.00543299,0.00691968,0.00881195,0.0112204,0.014286,0.0181878,0.0231541,0.0294752,inf	783.91,783.91,370.733,309.646,326.049,352.639,378.792,379.771,368.177,363.61,369.561,377.019,380.381,382.249,384.638,387.42,390.908,396.766,404.869,411.269,415.777,419.259,425.225,438.388,445.924,429.001,384.179,302.532,302.532,306.791,306.791,306.791
0.00178606	-4586875.89	0,4.54925e-06,1.03396e-05,1.77095e-05,2.709e-05,3.90295e-05,5.42262e-05,7.35686e-05,9.81877e-05,0.000129523,0.000169407,0.000220171,0.000284784,0.000367023,0.000471698,0.000604929,0.000774505,0.000990343,0.00126506,0.00161473,0.00205978,0.00262625,0.00334725,0.00426494,0.00543299,0.00691968,0.00881195,0.0112204,0.014286,0.0181878,0.0231541,0.0294752,inf	781.192,781.192,365.644,308.715,327.12,355.144,381.316,380.85,368.383,364.098,370.725,378.513,381.951,383.928,386.402,389.069,392.186,397.522,405.032,410.778,414.612,417.572,423.477,437.139,445.317,428.575,383.507,301.25,301.25,307.151,307.151,307.151
0.00182588	-4586731.00	0,4.54925e-06,1.03396e-05,1.77095e-05,2.709e-05,3.90295e-05,5.42262e-05,7.35686e-05,9.81877e-05,0.000129523,0.000169407,0.000220171,0.000284784,0.000367023,0.000471698,0.000604929,0.000774505,0.000990343,0.00126506,0.00161473,0.00205978,0.00262625,0.00334725,0.00426494,0.00543299,0.00691968,0.00881195,0.0112204,0.014286,0.0181878,0.0231541,0.0294752,inf	778.681,778.681,360.705,307.911,328.277,357.723,383.854,381.918,368.626,364.642,371.914,379.975,383.448,385.512,388.063,390.619,393.384,398.229,405.185,410.317,413.509,415.968,421.806,435.934,444.717,428.159,382.892,300.106,300.106,307.626,307.626,307.626
0.00186413	-4586601.38	0,4.54925e-06,1.03396e-05,1.77095e-05,2.709e-05,3.90295e-05,5.42262e-05,7.35686e-05,9.81877e-05,0.000129523,0.000169407,0.000220171,0.000284784,0.000367023,0.000471698,0.000604929,0.000774505,0.000990343,0.00126506,0.00161473,0.00205978,0.00262625,0.00334725,0.00426494,0.00543299,0.00691968,0.00881195,0.0112204,0.014286,0.0181878,0.0231541,0.0294752,inf	776.371,776.371,355.913,307.204,329.497,360.356,386.384,382.965,368.897,365.24,373.125,381.408,384.878,387.008,389.627,392.076,394.507,398.893,405.331,409.884,412.463,414.44,420.21,434.771,444.126,427.755,382.328,299.083,299.083,308.199,308.199,308.199
