time_index	left_time_boundary	right_time_boundary	lambda
0	0	9.87701e-06	456.583
1	9.87701e-06	2.20939e-05	456.583
2	2.20939e-05	3.7205e-05	196.284
3	3.7205e-05	5.58959e-05	347.761
4	5.58959e-05	7.90148e-05	305.804
5	7.90148e-05	0.00010761	299.17
6	0.00010761	0.000142981	334.849
7	0.000142981	0.00018673	381.493
8	0.00018673	0.000240844	410.251
9	0.000240844	0.000307777	408.95
10	0.000307777	0.000390567	396.799
11	0.000390567	0.00049297	389.265
12	0.00049297	0.000619632	384.058
13	0.000619632	0.000776301	379.297
14	0.000776301	0.000970084	378.233
15	0.000970084	0.00120978	383.694
16	0.00120978	0.00150625	396.13
17	0.00150625	0.00187296	409.761
18	0.00187296	0.00232655	418.048
19	0.00232655	0.00288758	420.914
20	0.00288758	0.00358154	419.865
21	0.00358154	0.00443988	421.178
22	0.00443988	0.00550158	429.504
23	0.00550158	0.00681479	439.869
24	0.00681479	0.0084391	440.922
25	0.0084391	0.0104482	421.309
26	0.0104482	0.0129333	374.224
27	0.0129333	0.0160071	286.888
28	0.0160071	0.0198091	286.888
29	0.0198091	0.0245117	255.017
30	0.0245117	0.0303285	255.017
31	0.0303285	inf	255.017
