time_index	left_time_boundary	right_time_boundary	lambda
0	0	4.09578e-06	528.229
1	4.09578e-06	1.12026e-05	528.229
2	1.12026e-05	2.35338e-05	301.268
3	2.35338e-05	4.49304e-05	246.265
4	4.49304e-05	8.20564e-05	416.084
5	8.20564e-05	0.000146476	388.346
6	0.000146476	0.000258252	369.789
7	0.000258252	0.0004522	381.826
8	0.0004522	0.000788728	394.347
9	0.000788728	0.00137265	410.655
10	0.00137265	0.00238584	403.661
11	0.00238584	0.00414388	374.439
12	0.00414388	0.00719432	459.137
13	0.00719432	0.0124873	365.536
14	0.0124873	0.0216713	365.536
15	0.0216713	inf	365.536
