0.000754218	-13822634.18	0,4.09578e-06,1.12026e-05,2.35338e-05,4.49304e-05,8.20564e-05,0.000146476,0.000258252,0.0004522,0.000788728,0.00137265,0.00238584,0.00414388,0.00719432,0.0124873,0.0216713,inf	479.84,479.84,368.171,352.304,361.89,364.867,357.742,357.46,364.488,383.42,411.285,427.242,431.707,410.875,410.875,410.875
0.000869136	-13813855.60	0,4.09578e-06,1.12026e-05,2.35338e-05,4.49304e-05,8.20564e-05,0.000146476,0.000258252,0.0004522,0.000788728,0.00137265,0.00238584,0.00414388,0.00719432,0.0124873,0.0216713,inf	532.722,532.722,358.209,336.313,358.727,363.955,350.33,347.728,355.097,378.677,414.056,435.574,449.249,413.846,413.846,413.846
0.000973584	-13807982.64	0,4.09578e-06,1.12026e-05,2.35338e-05,4.49304e-05,8.20564e-05,0.000146476,0.000258252,0.0004522,0.000788728,0.00137265,0.00238584,0.00414388,0.00719432,0.0124873,0.0216713,inf	553.492,553.492,346.735,323.101,359.953,368.141,350.528,346.89,353.824,378.055,413.869,435.679,458.631,412.374,412.374,412.374
0.00106943	-13803649.44	0,4.09578e-06,1.12026e-05,2.35338e-05,4.49304e-05,8.20564e-05,0.000146476,0.000258252,0.0004522,0.000788728,0.00137265,0.00238584,0.00414388,0.00719432,0.0124873,0.0216713,inf	558.59,558.59,335.092,310.454,361.101,372.065,352.338,348.917,355.661,379.29,412.815,432.403,463.604,408.9,408.9,408.9
0.00115804	-13800296.77	0,4.09578e-06,1.12026e-05,2.35338e-05,4.49304e-05,8.20564e-05,0.000146476,0.000258252,0.0004522,0.000788728,0.00137265,0.00238584,0.00414388,0.00719432,0.0124873,0.0216713,inf	558.112,558.112,325.136,298.956,361.909,374.838,354.144,351.783,358.711,381.388,411.605,427.822,466.12,404.652,404.652,404.652
0.00124045	-13797628.63	0,4.09578e-06,1.12026e-05,2.35338e-05,4.49304e-05,8.20564e-05,0.000146476,0.000258252,0.0004522,0.000788728,0.00137265,0.00238584,0.00414388,0.00719432,0.0124873,0.0216713,inf	556.348,556.348,317.523,289.102,362.857,376.691,355.635,354.784,362.17,383.859,410.466,422.848,467.233,400.245,400.245,400.245
0.00131743	-13795463.93	0,4.09578e-06,1.12026e-05,2.35338e-05,4.49304e-05,8.20564e-05,0.000146476,0.000258252,0.0004522,0.000788728,0.00137265,0.00238584,0.00414388,0.00719432,0.0124873,0.0216713,inf	554.525,554.525,312.089,280.961,364.29,377.98,356.84,357.674,365.676,386.448,409.458,417.887,467.53,395.978,395.978,395.978
0.00138959	-13793682.08	0,4.09578e-06,1.12026e-05,2.35338e-05,4.49304e-05,8.20564e-05,0.000146476,0.000258252,0.0004522,0.000788728,0.00137265,0.00238584,0.00414388,0.00719432,0.0124873,0.0216713,inf	552.795,552.795,308.398,274.359,366.347,378.971,357.856,360.377,369.059,389.021,408.583,413.117,467.347,391.987,391.987,391.987
0.00145742	-13792198.37	0,4.09578e-06,1.12026e-05,2.35338e-05,4.49304e-05,8.20564e-05,0.000146476,0.000258252,0.0004522,0.000788728,0.00137265,0.00238584,0.00414388,0.00719432,0.0124873,0.0216713,inf	551.042,551.042,305.99,269.045,369.03,379.827,358.768,362.884,372.246,391.506,407.826,408.609,466.886,388.324,388.324,388.324
0.00152133	-13790951.07	0,4.09578e-06,1.12026e-05,2.35338e-05,4.49304e-05,8.20564e-05,0.000146476,0.000258252,0.0004522,0.000788728,0.00137265,0.00238584,0.00414388,0.00719432,0.0124873,0.0216713,inf	549.1,549.1,304.469,264.758,372.268,380.636,359.638,365.206,375.208,393.869,407.169,404.382,466.264,384.997,384.997,384.997
0.00158168	-13789893.98	0,4.09578e-06,1.12026e-05,2.35338e-05,4.49304e-05,8.20564e-05,0.000146476,0.000258252,0.0004522,0.000788728,0.00137265,0.00238584,0.00414388,0.00719432,0.0124873,0.0216713,inf	546.995,546.995,303.535,261.275,375.96,381.437,360.505,367.362,377.943,396.096,406.596,400.432,465.556,381.993,381.993,381.993
0.00163877	-13788991.82	0,4.09578e-06,1.12026e-05,2.35338e-05,4.49304e-05,8.20564e-05,0.000146476,0.000258252,0.0004522,0.000788728,0.00137265,0.00238584,0.00414388,0.00719432,0.0124873,0.0216713,inf	544.702,544.702,302.972,258.413,380.002,382.245,361.393,369.372,380.457,398.183,406.093,396.744,464.807,379.289,379.289,379.289
0.00169285	-13788217.16	0,4.09578e-06,1.12026e-05,2.35338e-05,4.49304e-05,8.20564e-05,0.000146476,0.000258252,0.0004522,0.000788728,0.00137265,0.00238584,0.00414388,0.00719432,0.0124873,0.0216713,inf	542.318,542.318,302.632,256.033,384.298,383.062,362.314,371.253,382.764,400.134,405.65,393.299,464.043,376.86,376.86,376.86
0.00174417	-13787548.37	0,4.09578e-06,1.12026e-05,2.35338e-05,4.49304e-05,8.20564e-05,0.000146476,0.000258252,0.0004522,0.000788728,0.00137265,0.00238584,0.00414388,0.00719432,0.0124873,0.0216713,inf	539.94,539.94,302.409,254.022,388.766,383.88,363.275,373.02,384.879,401.956,405.258,390.077,463.283,374.679,374.679,374.679
0.00179291	-13786968.23	0,4.09578e-06,1.12026e-05,2.35338e-05,4.49304e-05,8.20564e-05,0.000146476,0.000258252,0.0004522,0.000788728,0.00137265,0.00238584,0.00414388,0.00719432,0.0124873,0.0216713,inf	537.63,537.63,302.24,252.297,393.332,384.69,364.276,374.687,386.817,403.657,404.909,387.058,462.536,372.721,372.721,372.721
0.00183927	-13786462.81	0,4.09578e-06,1.12026e-05,2.35338e-05,4.49304e-05,8.20564e-05,0.000146476,0.000258252,0.0004522,0.000788728,0.00137265,0.00238584,0.00414388,0.00719432,0.0124873,0.0216713,inf	535.394,535.394,302.084,250.797,397.946,385.483,365.315,376.263,388.593,405.246,404.599,384.225,461.808,370.963,370.963,370.963
0.0018834	-13786020.81	0,4.09578e-06,1.12026e-05,2.35338e-05,4.49304e-05,8.20564e-05,0.000146476,0.000258252,0.0004522,0.000788728,0.00137265,0.00238584,0.00414388,0.00719432,0.0124873,0.0216713,inf	533.332,533.332,301.919,249.474,402.559,386.251,366.39,377.758,390.222,406.733,404.322,381.56,461.104,369.383,369.383,369.383
0.00192547	-13785632.93	0,4.09578e-06,1.12026e-05,2.35338e-05,4.49304e-05,8.20564e-05,0.000146476,0.000258252,0.0004522,0.000788728,0.00137265,0.00238584,0.00414388,0.00719432,0.0124873,0.0216713,inf	531.458,531.458,301.726,248.293,407.135,386.987,367.497,379.18,391.717,408.124,404.075,379.05,460.424,367.963,367.963,367.963
0.00196559	-13785291.48	0,4.09578e-06,1.12026e-05,2.35338e-05,4.49304e-05,8.20564e-05,0.000146476,0.000258252,0.0004522,0.000788728,0.00137265,0.00238584,0.00414388,0.00719432,0.0124873,0.0216713,inf	529.73,529.73,301.512,247.23,411.651,387.687,368.632,380.534,393.088,409.429,403.856,376.68,459.768,366.685,366.685,366.685
0.0020039	-13784990.06	0,4.09578e-06,1.12026e-05,2.35338e-05,4.49304e-05,8.20564e-05,0.000146476,0.000258252,0.0004522,0.000788728,0.00137265,0.00238584,0.00414388,0.00719432,0.0124873,0.0216713,inf	528.229,528.229,301.268,246.265,416.084,388.346,369.789,381.826,394.347,410.655,403.661,374.439,459.137,365.536,365.536,365.536
