0.000720042	-14076756.53	0,4.11771e-06,1.12625e-05,2.36598e-05,4.51709e-05,8.24958e-05,0.00014726,0.000259635,0.000454621,0.000792951,0.00138,0.00239862,0.00416607,0.00723284,0.0125541,0.0217874,inf	242.807,242.807,305.704,272.565,233.711,219.844,218.236,224.85,255.162,327.843,469.129,493.146,444.018,416.473,416.473,416.473
0.000805311	-14063407.60	0,4.11771e-06,1.12625e-05,2.36598e-05,4.51709e-05,8.24958e-05,0.00014726,0.000259635,0.000454621,0.000792951,0.00138,0.00239862,0.00416607,0.00723284,0.0125541,0.0217874,inf	218.242,218.242,352.56,293.306,221.457,194.143,181.799,177.651,206.616,295.508,498.823,544.981,469.791,421.498,421.498,421.498
0.000882965	-14057865.59	0,4.11771e-06,1.12625e-05,2.36598e-05,4.51709e-05,8.24958e-05,0.00014726,0.000259635,0.000454621,0.000792951,0.00138,0.00239862,0.00416607,0.00723284,0.0125541,0.0217874,inf	188.429,188.429,398.282,325.701,230.46,196.663,176.202,161.13,185.103,278.21,511.451,571.897,483.092,419,419,419
0.000954848	-14054592.75	0,4.11771e-06,1.12625e-05,2.36598e-05,4.51709e-05,8.24958e-05,0.00014726,0.000259635,0.000454621,0.000792951,0.00138,0.00239862,0.00416607,0.00723284,0.0125541,0.0217874,inf	151.44,151.44,419.122,345.142,238.156,204.894,179.948,155.472,174.703,268.646,517.441,585.517,489.745,413.349,413.349,413.349
0.00102253	-14052227.36	0,4.11771e-06,1.12625e-05,2.36598e-05,4.51709e-05,8.24958e-05,0.00014726,0.000259635,0.000454621,0.000792951,0.00138,0.00239862,0.00416607,0.00723284,0.0125541,0.0217874,inf	117.672,117.672,420.857,350.201,239.962,212.435,186.429,154.258,169.631,263.417,520.612,591.927,492.919,406.715,406.715,406.715
0.00108702	-14050329.89	0,4.11771e-06,1.12625e-05,2.36598e-05,4.51709e-05,8.24958e-05,0.00014726,0.000259635,0.000454621,0.000792951,0.00138,0.00239862,0.00416607,0.00723284,0.0125541,0.0217874,inf	91.435,91.435,414.418,346.018,236.628,217.678,193.299,155.003,167.413,260.789,522.53,594.281,494.254,400.06,400.06,400.06
0.00114897	-14048723.78	0,4.11771e-06,1.12625e-05,2.36598e-05,4.51709e-05,8.24958e-05,0.00014726,0.000259635,0.000454621,0.000792951,0.00138,0.00239862,0.00416607,0.00723284,0.0125541,0.0217874,inf	72.3683,72.3683,407.144,337.496,229.998,220.597,199.689,156.599,166.825,259.789,523.836,594.274,494.605,393.782,393.782,393.782
0.0012088	-14047323.57	0,4.11771e-06,1.12625e-05,2.36598e-05,4.51709e-05,8.24958e-05,0.00014726,0.000259635,0.000454621,0.000792951,0.00138,0.00239862,0.00416607,0.00723284,0.0125541,0.0217874,inf	58.7382,58.7382,402.391,327.757,221.701,221.66,205.328,158.523,167.213,259.84,524.803,592.859,494.429,388.013,388.013,388.013
0.00126676	-14046081.13	0,4.11771e-06,1.12625e-05,2.36598e-05,4.51709e-05,8.24958e-05,0.00014726,0.000259635,0.000454621,0.000792951,0.00138,0.00239862,0.00416607,0.00723284,0.0125541,0.0217874,inf	48.876,48.876,401.115,318.395,212.854,221.412,210.195,160.517,168.201,260.585,525.554,590.592,493.972,382.772,382.772,382.772
0.00132307	-14044965.89	0,4.11771e-06,1.12625e-05,2.36598e-05,4.51709e-05,8.24958e-05,0.00014726,0.000259635,0.000454621,0.000792951,0.00138,0.00239862,0.00416607,0.00723284,0.0125541,0.0217874,inf	41.5332,41.5332,403.077,310.038,204.129,220.318,214.364,162.456,169.564,261.797,526.151,587.811,493.368,378.028,378.028,378.028
0.00137786	-14043956.65	0,4.11771e-06,1.12625e-05,2.36598e-05,4.51709e-05,8.24958e-05,0.00014726,0.000259635,0.000454621,0.000792951,0.00138,0.00239862,0.00416607,0.00723284,0.0125541,0.0217874,inf	35.9018,35.9018,407.633,302.843,195.892,218.743,217.94,164.282,171.163,263.325,526.626,584.725,492.691,373.732,373.732,373.732
0.00143124	-14043037.76	0,4.11771e-06,1.12625e-05,2.36598e-05,4.51709e-05,8.24958e-05,0.00014726,0.000259635,0.000454621,0.000792951,0.00138,0.00239862,0.00416607,0.00723284,0.0125541,0.0217874,inf	31.4251,31.4251,414.053,296.713,188.31,216.946,221.027,165.971,172.906,265.067,527,581.468,491.983,369.832,369.832,369.832
0.00148329	-14042197.04	0,4.11771e-06,1.12625e-05,2.36598e-05,4.51709e-05,8.24958e-05,0.00014726,0.000259635,0.000454621,0.000792951,0.00138,0.00239862,0.00416607,0.00723284,0.0125541,0.0217874,inf	27.7571,27.7571,421.656,291.487,181.443,215.108,223.716,167.518,174.735,266.953,527.286,578.129,491.267,366.281,366.281,366.281
0.0015341	-14041424.77	0,4.11771e-06,1.12625e-05,2.36598e-05,4.51709e-05,8.24958e-05,0.00014726,0.000259635,0.000454621,0.000792951,0.00138,0.00239862,0.00416607,0.00723284,0.0125541,0.0217874,inf	24.6794,24.6794,429.898,287.004,175.285,213.351,226.087,168.926,176.61,268.933,527.496,574.765,490.554,363.033,363.033,363.033
0.00158372	-14040712.97	0,4.11771e-06,1.12625e-05,2.36598e-05,4.51709e-05,8.24958e-05,0.00014726,0.000259635,0.000454621,0.000792951,0.00138,0.00239862,0.00416607,0.00723284,0.0125541,0.0217874,inf	22.0494,22.0494,438.375,283.092,169.798,211.749,228.201,170.204,178.503,270.973,527.639,571.415,489.851,360.051,360.051,360.051
0.00163222	-14040054.93	0,4.11771e-06,1.12625e-05,2.36598e-05,4.51709e-05,8.24958e-05,0.00014726,0.000259635,0.000454621,0.000792951,0.00138,0.00239862,0.00416607,0.00723284,0.0125541,0.0217874,inf	19.7722,19.7722,446.78,279.642,164.926,210.349,230.11,171.361,180.395,273.046,527.723,568.106,489.162,357.303,357.303,357.303
0.00167963	-14039445.01	0,4.11771e-06,1.12625e-05,2.36598e-05,4.51709e-05,8.24958e-05,0.00014726,0.000259635,0.000454621,0.000792951,0.00138,0.00239862,0.00416607,0.00723284,0.0125541,0.0217874,inf	17.7839,17.7839,454.927,276.531,160.614,209.174,231.852,172.407,182.274,275.134,527.755,564.854,488.488,354.759,354.759,354.759
0.001726	-14038878.32	0,4.11771e-06,1.12625e-05,2.36598e-05,4.51709e-05,8.24958e-05,0.00014726,0.000259635,0.000454621,0.000792951,0.00138,0.00239862,0.00416607,0.00723284,0.0125541,0.0217874,inf	16.0396,16.0396,462.671,273.694,156.804,208.236,233.458,173.351,184.129,277.224,527.741,561.671,487.83,352.397,352.397,352.397
0.00177138	-14038350.68	0,4.11771e-06,1.12625e-05,2.36598e-05,4.51709e-05,8.24958e-05,0.00014726,0.000259635,0.000454621,0.000792951,0.00138,0.00239862,0.00416607,0.00723284,0.0125541,0.0217874,inf	14.5045,14.5045,469.968,271.064,153.44,207.531,234.952,174.202,185.955,279.305,527.687,558.563,487.188,350.196,350.196,350.196
0.0018158	-14037858.40	0,4.11771e-06,1.12625e-05,2.36598e-05,4.51709e-05,8.24958e-05,0.00014726,0.000259635,0.000454621,0.000792951,0.00138,0.00239862,0.00416607,0.00723284,0.0125541,0.0217874,inf	13.15,13.15,476.77,268.597,150.474,207.056,236.354,174.97,187.748,281.371,527.598,555.535,486.561,348.137,348.137,348.137
