0.00066964	-307514.87	0,4.18936e-05,9.08986e-05,0.000148222,0.000215277,0.000293713,0.000385465,0.000492791,0.000618336,0.000765192,0.000936976,0.00113792,0.00137298,0.00164793,0.00196956,0.00234579,0.00278588,0.00330068,0.00390286,0.00460727,0.00543124,0.00639509,0.00752255,0.0088414,0.0103841,0.0121887,0.0142996,0.0167689,0.0196573,0.023036,0.0269883,0.0316114,inf	381.849,381.849,193.435,201.441,214.792,225.611,238.478,257.63,283.928,316.091,354.073,396.96,441.445,481.249,508.622,518.75,513.504,498.888,480.746,462.261,445.229,431.024,419.297,408.189,394.432,374.722,349.529,324.715,324.715,341.093,341.093,341.093
0.00072437	-307243.53	0,4.18936e-05,9.08986e-05,0.000148222,0.000215277,0.000293713,0.000385465,0.000492791,0.000618336,0.000765192,0.000936976,0.00113792,0.00137298,0.00164793,0.00196956,0.00234579,0.00278588,0.00330068,0.00390286,0.00460727,0.00543124,0.00639509,0.00752255,0.0088414,0.0103841,0.0121887,0.0142996,0.0167689,0.0196573,0.023036,0.0269883,0.0316114,inf	428.53,428.53,135.269,147.131,160.927,168.469,178.774,199.034,230.621,271.771,323.057,384.214,451.763,517.21,567.334,590.48,585.856,562.546,531.303,498.354,467.595,442.1,421.128,400.846,374.661,337.164,291.798,251.718,251.718,284.378,284.378,284.378
0.000776751	-307128.25	0,4.18936e-05,9.08986e-05,0.000148222,0.000215277,0.000293713,0.000385465,0.000492791,0.000618336,0.000765192,0.000936976,0.00113792,0.00137298,0.00164793,0.00196956,0.00234579,0.00278588,0.00330068,0.00390286,0.00460727,0.00543124,0.00639509,0.00752255,0.0088414,0.0103841,0.0121887,0.0142996,0.0167689,0.0196573,0.023036,0.0269883,0.0316114,inf	473.442,473.442,112.532,129.493,143.211,145.882,151.665,170.065,202.402,246.426,303.204,373.083,453.046,534.192,600.491,634.903,632.828,604.396,563.812,519.756,478.244,444.114,416.185,388.675,352.084,300.551,242.144,195.605,195.605,240.88,240.88,240.88
0.000826637	-307063.22	0,4.18936e-05,9.08986e-05,0.000148222,0.000215277,0.000293713,0.000385465,0.000492791,0.000618336,0.000765192,0.000936976,0.00113792,0.00137298,0.00164793,0.00196956,0.00234579,0.00278588,0.00330068,0.00390286,0.00460727,0.00543124,0.00639509,0.00752255,0.0088414,0.0103841,0.0121887,0.0142996,0.0167689,0.0196573,0.023036,0.0269883,0.0316114,inf	504.608,504.608,101.5,124.85,139.085,136.732,138.012,154.278,186.281,231.179,290.396,364.703,451.571,542.331,619.671,662.791,663.489,631.906,584.537,531.933,482.126,441.62,408.759,375.934,331.359,270.008,204.724,157.068,157.068,211.783,211.783,211.783
0.00087445	-307018.63	0,4.18936e-05,9.08986e-05,0.000148222,0.000215277,0.000293713,0.000385465,0.000492791,0.000618336,0.000765192,0.000936976,0.00113792,0.00137298,0.00164793,0.00196956,0.00234579,0.00278588,0.00330068,0.00390286,0.00460727,0.00543124,0.00639509,0.00752255,0.0088414,0.0103841,0.0121887,0.0142996,0.0167689,0.0196573,0.023036,0.0269883,0.0316114,inf	521.147,521.147,94.9489,125.684,141.028,133.694,130.829,145.26,176.769,221.848,282.164,358.763,449.524,546.204,631.028,680.647,683.814,650.211,597.83,538.641,482.536,437.53,401.468,365.074,314.788,246.977,178.488,131.8,131.8,194.504,194.504,194.504
0.000920582	-306983.99	0,4.18936e-05,9.08986e-05,0.000148222,0.000215277,0.000293713,0.000385465,0.000492791,0.000618336,0.000765192,0.000936976,0.00113792,0.00137298,0.00164793,0.00196956,0.00234579,0.00278588,0.00330068,0.00390286,0.00460727,0.00543124,0.00639509,0.00752255,0.0088414,0.0103841,0.0121887,0.0142996,0.0167689,0.0196573,0.023036,0.0269883,0.0316114,inf	525.889,525.889,90.1951,128.948,145.871,133.653,127.055,140.047,171.164,216.195,276.973,354.715,447.62,547.922,637.815,692.243,697.474,662.556,606.433,542.172,481.362,433.351,395.478,356.931,302.695,230.549,160.509,115.153,115.153,185.398,185.398,185.398
0.000965326	-306954.91	0,4.18936e-05,9.08986e-05,0.000148222,0.000215277,0.000293713,0.000385465,0.000492791,0.000618336,0.000765192,0.000936976,0.00113792,0.00137298,0.00164793,0.00196956,0.00234579,0.00278588,0.00330068,0.00390286,0.00460727,0.00543124,0.00639509,0.00752255,0.0088414,0.0103841,0.0121887,0.0142996,0.0167689,0.0196573,0.023036,0.0269883,0.0316114,inf	522.525,522.525,86.1521,133.2,152.05,135.101,125.185,137.114,168,212.927,273.844,352.067,446.049,548.496,641.804,699.787,706.709,670.934,611.999,543.829,479.553,429.679,391.037,351.388,294.421,219.135,148.117,103.852,103.852,181.495,181.495,181.495
0.00100889	-306929.27	0,4.18936e-05,9.08986e-05,0.000148222,0.000215277,0.000293713,0.000385465,0.000492791,0.000618336,0.000765192,0.000936976,0.00113792,0.00137298,0.00164793,0.00196956,0.00234579,0.00278588,0.00330068,0.00390286,0.00460727,0.00543124,0.00639509,0.00752255,0.0088414,0.0103841,0.0121887,0.0142996,0.0167689,0.0196573,0.023036,0.0269883,0.0316114,inf	514.283,514.283,82.3776,137.702,158.716,137.243,124.414,135.611,166.428,211.261,272.143,350.445,444.823,548.435,644.007,704.616,712.913,676.585,615.522,544.333,477.539,426.645,387.979,347.969,289.08,211.299,139.419,95.8834,95.8834,180.802,180.802,180.802
0.00105142	-306906.01	0,4.18936e-05,9.08986e-05,0.000148222,0.000215277,0.000293713,0.000385465,0.000492791,0.000618336,0.000765192,0.000936976,0.00113792,0.00137298,0.00164793,0.00196956,0.00234579,0.00278588,0.00330068,0.00390286,0.00460727,0.00543124,0.00639509,0.00752255,0.0088414,0.0103841,0.0121887,0.0142996,0.0167689,0.0196573,0.023036,0.0269883,0.0316114,inf	503.549,503.549,78.7112,142.072,165.39,139.639,124.29,135.037,165.927,210.699,271.447,349.571,443.899,548.011,645.032,707.573,716.984,680.309,617.621,544.091,475.495,424.189,386.016,346.153,285.882,205.964,133.177,90.0526,90.0526,182.07,182.07,182.07
0.00109303	-306884.55	0,4.18936e-05,9.08986e-05,0.000148222,0.000215277,0.000293713,0.000385465,0.000492791,0.000618336,0.000765192,0.000936976,0.00113792,0.00137298,0.00164793,0.00196956,0.00234579,0.00278588,0.00330068,0.00390286,0.00460727,0.00543124,0.00639509,0.00752255,0.0088414,0.0103841,0.0121887,0.0142996,0.0167689,0.0196573,0.023036,0.0269883,0.0316114,inf	491.896,491.896,75.1138,146.119,171.8,142.049,124.547,135.087,166.168,210.917,271.472,349.248,443.224,547.375,645.261,709.213,719.523,682.637,618.698,543.344,473.484,422.201,384.871,345.5,284.214,202.372,128.6,85.6394,85.6394,184.535,184.535,184.535
0.00113379	-306864.56	0,4.18936e-05,9.08986e-05,0.000148222,0.000215277,0.000293713,0.000385465,0.000492791,0.000618336,0.000765192,0.000936976,0.00113792,0.00137298,0.00164793,0.00196956,0.00234579,0.00278588,0.00330068,0.00390286,0.00460727,0.00543124,0.00639509,0.00752255,0.0088414,0.0103841,0.0121887,0.0142996,0.0167689,0.0196573,0.023036,0.0269883,0.0316114,inf	480.281,480.281,71.5963,149.764,177.801,144.341,125.029,135.562,166.934,211.693,272.018,349.333,442.749,546.619,644.945,709.911,720.947,683.94,619.027,542.245,471.525,420.572,384.316,345.667,283.625,200.001,125.174,82.1985,82.1985,187.725,187.725,187.725
0.00117379	-306845.85	0,4.18936e-05,9.08986e-05,0.000148222,0.000215277,0.000293713,0.000385465,0.000492791,0.000618336,0.000765192,0.000936976,0.00113792,0.00137298,0.00164793,0.00196956,0.00234579,0.00278588,0.00330068,0.00390286,0.00460727,0.00543124,0.00639509,0.00752255,0.0088414,0.0103841,0.0121887,0.0142996,0.0167689,0.0196573,0.023036,0.0269883,0.0316114,inf	469.235,469.235,68.1866,152.992,183.329,146.449,125.638,136.335,168.078,212.877,272.946,349.72,442.433,545.796,644.252,709.932,721.549,684.481,618.8,540.895,469.621,419.211,384.174,346.399,283.789,198.494,122.563,79.447,79.447,191.348,191.348,191.348
0.00121305	-306828.27	0,4.18936e-05,9.08986e-05,0.000148222,0.000215277,0.000293713,0.000385465,0.000492791,0.000618336,0.000765192,0.000936976,0.00113792,0.00137298,0.00164793,0.00196956,0.00234579,0.00278588,0.00330068,0.00390286,0.00460727,0.00543124,0.00639509,0.00752255,0.0088414,0.0103841,0.0121887,0.0142996,0.0167689,0.0196573,0.023036,0.0269883,0.0316114,inf	459.015,459.015,64.9116,155.828,188.365,148.346,126.316,137.319,169.498,214.36,274.155,350.33,442.242,544.94,643.299,709.461,721.544,684.452,618.158,539.366,467.769,418.048,384.317,347.513,284.475,197.599,120.539,77.1988,77.1988,195.219,195.219,195.219
0.00125164	-306811.71	0,4.18936e-05,9.08986e-05,0.000148222,0.000215277,0.000293713,0.000385465,0.000492791,0.000618336,0.000765192,0.000936976,0.00113792,0.00137298,0.00164793,0.00196956,0.00234579,0.00278588,0.00330068,0.00390286,0.00460727,0.00543124,0.00639509,0.00752255,0.0088414,0.0103841,0.0121887,0.0142996,0.0167689,0.0196573,0.023036,0.0269883,0.0316114,inf	449.711,449.711,61.7942,158.312,192.922,150.028,127.029,138.454,171.12,216.063,275.569,351.106,442.148,544.072,642.168,708.636,721.09,683.995,617.206,537.71,465.965,417.032,384.651,348.875,285.517,197.145,118.948,75.3278,75.3278,199.221,199.221,199.221
0.00128956	-306796.09	0,4.18936e-05,9.08986e-05,0.000148222,0.000215277,0.000293713,0.000385465,0.000492791,0.000618336,0.000765192,0.000936976,0.00113792,0.00137298,0.00164793,0.00196956,0.00234579,0.00278588,0.00330068,0.00390286,0.00460727,0.00543124,0.00639509,0.00752255,0.0088414,0.0103841,0.0121887,0.0142996,0.0167689,0.0196573,0.023036,0.0269883,0.0316114,inf	441.327,441.327,58.8488,160.492,197.03,151.502,127.753,139.697,172.892,217.928,277.132,352.001,442.129,543.203,640.918,707.553,720.3,683.217,616.023,535.969,464.208,416.123,385.108,350.39,286.796,197.006,117.682,73.7462,73.7462,203.282,203.282,203.282
0.00132686	-306781.33	0,4.18936e-05,9.08986e-05,0.000148222,0.000215277,0.000293713,0.000385465,0.000492791,0.000618336,0.000765192,0.000936976,0.00113792,0.00137298,0.00164793,0.00196956,0.00234579,0.00278588,0.00330068,0.00390286,0.00460727,0.00543124,0.00639509,0.00752255,0.0088414,0.0103841,0.0121887,0.0142996,0.0167689,0.0196573,0.023036,0.0269883,0.0316114,inf	433.806,433.806,56.0845,162.417,200.725,152.783,128.476,141.019,174.774,219.91,278.802,352.982,442.167,542.343,639.589,706.288,719.265,682.2,614.668,534.17,462.495,415.295,385.641,351.992,288.227,197.093,116.662,72.3916,72.3916,207.352,207.352,207.352
0.00136355	-306767.38	0,4.18936e-05,9.08986e-05,0.000148222,0.000215277,0.000293713,0.000385465,0.000492791,0.000618336,0.000765192,0.000936976,0.00113792,0.00137298,0.00164793,0.00196956,0.00234579,0.00278588,0.00330068,0.00390286,0.00460727,0.00543124,0.00639509,0.00752255,0.0088414,0.0103841,0.0121887,0.0142996,0.0167689,0.0196573,0.023036,0.0269883,0.0316114,inf	427.082,427.082,53.503,164.135,204.047,153.888,129.191,142.397,176.736,221.976,280.545,354.021,442.246,541.494,638.211,704.895,718.05,681.004,613.188,532.338,460.824,414.526,386.215,353.632,289.747,197.341,115.832,71.2181,71.2181,211.403,211.403,211.403
0.00139966	-306754.17	0,4.18936e-05,9.08986e-05,0.000148222,0.000215277,0.000293713,0.000385465,0.000492791,0.000618336,0.000765192,0.000936976,0.00113792,0.00137298,0.00164793,0.00196956,0.00234579,0.00278588,0.00330068,0.00390286,0.00460727,0.00543124,0.00639509,0.00752255,0.0088414,0.0103841,0.0121887,0.0142996,0.0167689,0.0196573,0.023036,0.0269883,0.0316114,inf	421.07,421.07,51.1009,165.686,207.034,154.835,129.892,143.815,178.755,224.099,282.336,355.098,442.356,540.661,636.808,703.414,716.705,679.677,611.618,530.49,459.194,413.804,386.807,355.275,291.313,197.704,115.152,70.1919,70.1919,215.415,215.415,215.415
0.0014352	-306741.64	0,4.18936e-05,9.08986e-05,0.000148222,0.000215277,0.000293713,0.000385465,0.000492791,0.000618336,0.000765192,0.000936976,0.00113792,0.00137298,0.00164793,0.00196956,0.00234579,0.00278588,0.00330068,0.00390286,0.00460727,0.00543124,0.00639509,0.00752255,0.0088414,0.0103841,0.0121887,0.0142996,0.0167689,0.0196573,0.023036,0.0269883,0.0316114,inf	415.689,415.689,48.873,167.107,209.723,155.64,130.578,145.259,180.814,226.259,284.155,356.196,442.485,539.843,635.394,701.876,715.27,678.258,609.988,528.638,457.604,413.117,387.399,356.898,292.891,198.147,114.589,69.2868,69.2868,219.378,219.378,219.378
0.00147018	-306729.76	0,4.18936e-05,9.08986e-05,0.000148222,0.000215277,0.000293713,0.000385465,0.000492791,0.000618336,0.000765192,0.000936976,0.00113792,0.00137298,0.00164793,0.00196956,0.00234579,0.00278588,0.00330068,0.00390286,0.00460727,0.00543124,0.00639509,0.00752255,0.0088414,0.0103841,0.0121887,0.0142996,0.0167689,0.0196573,0.023036,0.0269883,0.0316114,inf	410.866,410.866,46.8109,168.43,212.148,156.319,131.246,146.721,182.897,228.441,285.986,357.303,442.628,539.042,633.981,700.305,713.773,676.773,608.317,526.795,456.054,412.458,387.98,358.484,294.46,198.643,114.12,68.4833,68.4833,223.284,223.284,223.284
