0.000681112	-1854219.37	0,9.8167e-06,2.1959e-05,3.69778e-05,5.55546e-05,7.85323e-05,0.000106953,0.000142108,0.00018559,0.000239373,0.000305898,0.000388182,0.00048996,0.000615848,0.000771561,0.000964161,0.00120239,0.00149705,0.00186153,0.00231234,0.00286995,0.00355967,0.00441277,0.00546798,0.00677318,0.00838757,0.0103844,0.0128543,0.0159093,0.0196881,0.0243621,0.0301433,inf	331.325,331.325,334.025,315.791,286.225,257.977,234.728,223.15,220.373,222.733,229.227,240.158,257.054,281.304,313.672,354.558,403.319,454.684,496.08,512.657,504.002,484.186,462.492,440.433,418.156,396.832,375.982,337.253,337.253,281.258,281.258,281.258
0.000741867	-1852618.62	0,9.8167e-06,2.1959e-05,3.69778e-05,5.55546e-05,7.85323e-05,0.000106953,0.000142108,0.00018559,0.000239373,0.000305898,0.000388182,0.00048996,0.000615848,0.000771561,0.000964161,0.00120239,0.00149705,0.00186153,0.00231234,0.00286995,0.00355967,0.00441277,0.00546798,0.00677318,0.00838757,0.0103844,0.0128543,0.0159093,0.0196881,0.0243621,0.0301433,inf	358.449,358.449,386.163,356.178,300.756,247.708,204.292,181.883,173.085,171.228,174.459,183.564,201.19,229.696,270.711,325.705,395.493,474.977,546.208,580.524,570.343,538.574,501.644,461.898,420.404,380.886,341.999,268.644,268.644,187.078,187.078,187.078
0.000799959	-1851921.67	0,9.8167e-06,2.1959e-05,3.69778e-05,5.55546e-05,7.85323e-05,0.000106953,0.000142108,0.00018559,0.000239373,0.000305898,0.000388182,0.00048996,0.000615848,0.000771561,0.000964161,0.00120239,0.00149705,0.00186153,0.00231234,0.00286995,0.00355967,0.00441277,0.00546798,0.00677318,0.00838757,0.0103844,0.0128543,0.0159093,0.0196881,0.0243621,0.0301433,inf	366.531,366.531,440.083,410.892,336.396,262.492,202.19,171.82,158.56,152.983,152.456,158.361,174.16,202.815,246.45,307.252,387.237,482.45,573.235,621.587,612.438,573.754,526.38,472.697,415.262,361.063,307.463,210.309,210.309,139.348,139.348,139.348
0.00085537	-1851522.51	0,9.8167e-06,2.1959e-05,3.69778e-05,5.55546e-05,7.85323e-05,0.000106953,0.000142108,0.00018559,0.000239373,0.000305898,0.000388182,0.00048996,0.000615848,0.000771561,0.000964161,0.00120239,0.00149705,0.00186153,0.00231234,0.00286995,0.00355967,0.00441277,0.00546798,0.00677318,0.00838757,0.0103844,0.0128543,0.0159093,0.0196881,0.0243621,0.0301433,inf	346.068,346.068,467.784,451.946,368.511,280.039,206.997,171.416,155.288,146.912,143.085,145.973,159.704,187.588,231.941,295.351,380.643,484.951,588.354,646.848,639.382,596.872,542.512,478.153,408.236,343.368,279.758,171.704,171.704,123.014,123.014,123.014
0.000908417	-1851251.01	0,9.8167e-06,2.1959e-05,3.69778e-05,5.55546e-05,7.85323e-05,0.000106953,0.000142108,0.00018559,0.000239373,0.000305898,0.000388182,0.00048996,0.000615848,0.000771561,0.000964161,0.00120239,0.00149705,0.00186153,0.00231234,0.00286995,0.00355967,0.00441277,0.00546798,0.00677318,0.00838757,0.0103844,0.0128543,0.0159093,0.0196881,0.0243621,0.0301433,inf	312.796,312.796,470.402,474.482,390.832,294.062,212.494,174.124,156.486,146.12,139.48,139.737,151.621,178.633,223.063,287.687,375.833,485.506,597.043,662.619,656.852,612.478,553.669,481.405,402.195,330.283,260.735,148.416,148.416,119.775,119.775,119.775
0.000959447	-1851039.92	0,9.8167e-06,2.1959e-05,3.69778e-05,5.55546e-05,7.85323e-05,0.000106953,0.000142108,0.00018559,0.000239373,0.000305898,0.000388182,0.00048996,0.000615848,0.000771561,0.000964161,0.00120239,0.00149705,0.00186153,0.00231234,0.00286995,0.00355967,0.00441277,0.00546798,0.00677318,0.00838757,0.0103844,0.0128543,0.0159093,0.0196881,0.0243621,0.0301433,inf	279.819,279.819,457.506,482.164,403.551,303.262,216.708,177.519,159.483,147.8,138.767,136.761,147.09,173.347,217.653,282.826,372.488,485.3,602.032,672.423,668.156,623.153,561.688,483.672,397.666,321.294,248.304,133.913,133.913,121.305,121.305,121.305
0.00100877	-1850861.26	0,9.8167e-06,2.1959e-05,3.69778e-05,5.55546e-05,7.85323e-05,0.000106953,0.000142108,0.00018559,0.000239373,0.000305898,0.000388182,0.00048996,0.000615848,0.000771561,0.000964161,0.00120239,0.00149705,0.00186153,0.00231234,0.00286995,0.00355967,0.00441277,0.00546798,0.00677318,0.00838757,0.0103844,0.0128543,0.0159093,0.0196881,0.0243621,0.0301433,inf	252.87,252.87,437.735,480.307,408.885,308.053,219.169,180.651,163.092,150.639,139.573,135.624,144.675,170.34,214.484,279.869,370.265,484.828,604.78,678.332,675.305,630.435,567.54,485.37,394.398,315.267,240.236,124.321,124.321,124.457,124.457,124.457
0.00105662	-1850703.28	0,9.8167e-06,2.1959e-05,3.69778e-05,5.55546e-05,7.85323e-05,0.000106953,0.000142108,0.00018559,0.000239373,0.000305898,0.000388182,0.00048996,0.000615848,0.000771561,0.000964161,0.00120239,0.00149705,0.00186153,0.00231234,0.00286995,0.00355967,0.00441277,0.00546798,0.00677318,0.00838757,0.0103844,0.0128543,0.0159093,0.0196881,0.0243621,0.0301433,inf	232.999,232.999,416.562,473.323,409.184,309.353,219.973,183.177,166.754,153.97,141.177,135.564,143.578,168.811,212.817,278.236,368.89,484.303,606.125,681.635,679.594,635.316,571.824,486.667,392.058,311.284,235.021,117.619,117.619,128.036,128.036,128.036
0.00110319	-1850560.42	0,9.8167e-06,2.1959e-05,3.69778e-05,5.55546e-05,7.85323e-05,0.000106953,0.000142108,0.00018559,0.000239373,0.000305898,0.000388182,0.00048996,0.000615848,0.000771561,0.000964161,0.00120239,0.00149705,0.00186153,0.00231234,0.00286995,0.00355967,0.00441277,0.00546798,0.00677318,0.00838757,0.0103844,0.0128543,0.0159093,0.0196881,0.0243621,0.0301433,inf	219.341,219.341,396.799,464.188,406.365,308.086,219.402,185.024,170.209,157.436,143.178,136.143,143.33,168.275,212.187,277.542,368.152,483.816,606.57,683.164,681.888,638.473,574.945,487.657,390.385,308.715,231.71,112.73,112.73,131.576,131.576,131.576
0.00114862	-1850429.57	0,9.8167e-06,2.1959e-05,3.69778e-05,5.55546e-05,7.85323e-05,0.000106953,0.000142108,0.00018559,0.000239373,0.000305898,0.000388182,0.00048996,0.000615848,0.000771561,0.000964161,0.00120239,0.00149705,0.00186153,0.00231234,0.00286995,0.00355967,0.00441277,0.00546798,0.00677318,0.00838757,0.0103844,0.0128543,0.0159093,0.0196881,0.0243621,0.0301433,inf	210.553,210.553,379.619,454.698,401.802,305.038,217.773,186.238,173.35,160.842,145.347,137.101,143.641,168.42,212.286,277.523,367.89,483.401,606.426,683.47,682.776,640.379,577.189,488.402,389.189,307.133,229.705,109.041,109.041,134.903,134.903,134.903
0.00119303	-1850308.76	0,9.8167e-06,2.1959e-05,3.69778e-05,5.55546e-05,7.85323e-05,0.000106953,0.000142108,0.00018559,0.000239373,0.000305898,0.000388182,0.00048996,0.000615848,0.000771561,0.000964161,0.00120239,0.00149705,0.00186153,0.00231234,0.00286995,0.00355967,0.00441277,0.00546798,0.00677318,0.00838757,0.0103844,0.0128543,0.0159093,0.0196881,0.0243621,0.0301433,inf	205.336,205.336,365.293,445.834,396.412,300.818,215.381,186.915,176.149,164.09,147.548,138.276,144.324,169.04,212.905,277.993,367.987,483.065,605.894,682.926,682.668,641.367,578.764,488.95,388.334,306.247,228.616,106.183,106.183,137.958,137.958,137.958
0.0012365	-1850196.64	0,9.8167e-06,2.1959e-05,3.69778e-05,5.55546e-05,7.85323e-05,0.000106953,0.000142108,0.00018559,0.000239373,0.000305898,0.000388182,0.00048996,0.000615848,0.000771561,0.000964161,0.00120239,0.00149705,0.00186153,0.00231234,0.00286995,0.00355967,0.00441277,0.00546798,0.00677318,0.00838757,0.0103844,0.0128543,0.0159093,0.0196881,0.0243621,0.0301433,inf	202.668,202.668,353.697,438.05,390.779,295.88,212.474,187.162,178.618,167.13,149.704,139.566,145.256,169.996,213.899,278.821,368.351,482.804,605.102,681.788,681.85,641.679,579.823,489.334,387.725,305.855,228.179,103.921,103.921,140.737,140.737,140.737
0.00127909	-1850092.17	0,9.8167e-06,2.1959e-05,3.69778e-05,5.55546e-05,7.85323e-05,0.000106953,0.000142108,0.00018559,0.000239373,0.000305898,0.000388182,0.00048996,0.000615848,0.000771561,0.000964161,0.00120239,0.00149705,0.00186153,0.00231234,0.00286995,0.00355967,0.00441277,0.00546798,0.00677318,0.00838757,0.0103844,0.0128543,0.0159093,0.0196881,0.0243621,0.0301433,inf	201.712,201.712,344.484,431.506,385.236,290.537,209.248,187.079,180.79,169.948,151.772,140.907,146.354,171.189,215.164,279.909,368.915,482.608,604.136,680.236,680.528,641.489,580.481,489.582,387.292,305.817,228.216,102.1,102.1,143.254,143.254,143.254
0.00132087	-1849994.52	0,9.8167e-06,2.1959e-05,3.69778e-05,5.55546e-05,7.85323e-05,0.000106953,0.000142108,0.00018559,0.000239373,0.000305898,0.000388182,0.00048996,0.000615848,0.000771561,0.000964161,0.00120239,0.00149705,0.00186153,0.00231234,0.00286995,0.00355967,0.00441277,0.00546798,0.00677318,0.00838757,0.0103844,0.0128543,0.0159093,0.0196881,0.0243621,0.0301433,inf	201.898,201.898,337.293,426.188,379.978,285.019,205.856,186.759,182.706,172.544,153.729,142.259,147.56,172.552,216.625,281.186,369.626,482.466,603.056,678.395,678.848,640.926,580.825,489.714,386.984,306.028,228.596,100.613,100.613,145.532,145.532,145.532
0.00136187	-1849903.05	0,9.8167e-06,2.1959e-05,3.69778e-05,5.55546e-05,7.85323e-05,0.000106953,0.000142108,0.00018559,0.000239373,0.000305898,0.000388182,0.00048996,0.000615848,0.000771561,0.000964161,0.00120239,0.00149705,0.00186153,0.00231234,0.00286995,0.00355967,0.00441277,0.00546798,0.00677318,0.00838757,0.0103844,0.0128543,0.0159093,0.0196881,0.0243621,0.0301433,inf	202.784,202.784,331.785,422.004,375.103,279.479,202.412,186.278,184.404,174.928,155.566,143.595,148.835,174.033,218.227,282.6,370.444,482.369,601.901,676.36,676.92,640.086,580.921,489.749,386.763,306.415,229.227,99.3858,99.3858,147.595,147.595,147.595
0.00140214	-1849817.17	0,9.8167e-06,2.1959e-05,3.69778e-05,5.55546e-05,7.85323e-05,0.000106953,0.000142108,0.00018559,0.000239373,0.000305898,0.000388182,0.00048996,0.000615848,0.000771561,0.000964161,0.00120239,0.00149705,0.00186153,0.00231234,0.00286995,0.00355967,0.00441277,0.00546798,0.00677318,0.00838757,0.0103844,0.0128543,0.0159093,0.0196881,0.0243621,0.0301433,inf	204.056,204.056,327.647,418.829,370.625,274.017,198.998,185.701,185.925,177.117,157.279,144.9,150.151,175.597,219.929,284.109,371.339,482.307,600.699,674.194,674.821,639.041,580.819,489.702,386.603,306.924,230.041,98.3621,98.3621,149.466,149.466,149.466
0.0014417	-1849736.41	0,9.8167e-06,2.1959e-05,3.69778e-05,5.55546e-05,7.85323e-05,0.000106953,0.000142108,0.00018559,0.000239373,0.000305898,0.000388182,0.00048996,0.000615848,0.000771561,0.000964161,0.00120239,0.00149705,0.00186153,0.00231234,0.00286995,0.00355967,0.00441277,0.00546798,0.00677318,0.00838757,0.0103844,0.0128543,0.0159093,0.0196881,0.0243621,0.0301433,inf	205.479,205.479,324.615,416.519,366.557,268.687,195.676,185.076,187.3,179.127,158.873,146.163,151.489,177.217,221.699,285.683,372.288,482.272,599.471,671.947,672.61,637.845,580.561,489.583,386.483,307.513,230.988,97.5014,97.5014,151.166,151.166,151.166
0.0014806	-1849660.34	0,9.8167e-06,2.1959e-05,3.69778e-05,5.55546e-05,7.85323e-05,0.000106953,0.000142108,0.00018559,0.000239373,0.000305898,0.000388182,0.00048996,0.000615848,0.000771561,0.000964161,0.00120239,0.00149705,0.00186153,0.00231234,0.00286995,0.00355967,0.00441277,0.00546798,0.00677318,0.00838757,0.0103844,0.0128543,0.0159093,0.0196881,0.0243621,0.0301433,inf	206.923,206.923,322.473,414.942,362.864,263.542,192.488,184.445,188.561,180.974,160.352,147.38,152.835,178.872,223.514,287.3,373.271,482.258,598.23,669.654,670.329,636.54,580.178,489.403,386.386,308.154,232.029,96.7731,96.7731,152.715,152.715,152.715
0.00151884	-1849588.58	0,9.8167e-06,2.1959e-05,3.69778e-05,5.55546e-05,7.85323e-05,0.000106953,0.000142108,0.00018559,0.000239373,0.000305898,0.000388182,0.00048996,0.000615848,0.000771561,0.000964161,0.00120239,0.00149705,0.00186153,0.00231234,0.00286995,0.00355967,0.00441277,0.00546798,0.00677318,0.00838757,0.0103844,0.0128543,0.0159093,0.0196881,0.0243621,0.0301433,inf	208.304,208.304,321.04,413.98,359.522,258.602,189.458,183.836,189.732,182.676,161.723,148.548,154.178,180.547,225.356,288.941,374.276,482.259,596.987,667.343,668.013,635.158,579.696,489.17,386.304,308.823,233.136,96.1534,96.1534,154.131,154.131,154.131
0.00155645	-1849520.80	0,9.8167e-06,2.1959e-05,3.69778e-05,5.55546e-05,7.85323e-05,0.000106953,0.000142108,0.00018559,0.000239373,0.000305898,0.000388182,0.00048996,0.000615848,0.000771561,0.000964161,0.00120239,0.00149705,0.00186153,0.00231234,0.00286995,0.00355967,0.00441277,0.00546798,0.00677318,0.00838757,0.0103844,0.0128543,0.0159093,0.0196881,0.0243621,0.0301433,inf	209.558,209.558,320.169,413.517,356.497,253.876,186.604,183.272,190.833,184.247,162.993,149.667,155.511,182.231,227.211,290.593,375.29,482.272,595.749,665.031,665.684,633.724,579.133,488.891,386.226,309.504,234.286,95.6238,95.6238,155.427,155.427,155.427
