0.000682716	-307504.86	0,9.08986e-05,0.000215277,0.000385465,0.000618336,0.000936976,0.00137298,0.00196956,0.00278588,0.00390286,0.00543124,0.00752255,0.0103841,0.0142996,0.0196573,0.0269883,inf	227.402,227.402,218.723,245.404,298.011,377.316,476.585,533.133,504.739,462.259,428.632,398.296,363.97,331.779,331.779,331.779
0.000747745	-307222.68	0,9.08986e-05,0.000215277,0.000385465,0.000618336,0.000936976,0.00137298,0.00196956,0.00278588,0.00390286,0.00543124,0.00752255,0.0103841,0.0142996,0.0196573,0.0269883,inf	197.746,197.746,163.191,185.571,247.851,353.036,504.076,610.334,566.078,495.058,436.763,383.318,325.042,271.713,271.713,271.713
0.000808486	-307106.42	0,9.08986e-05,0.000215277,0.000385465,0.000618336,0.000936976,0.00137298,0.00196956,0.00278588,0.00390286,0.00543124,0.00752255,0.0103841,0.0142996,0.0196573,0.0269883,inf	200.654,200.654,142.057,157.109,220.508,335.491,514.232,656.979,602.613,512.755,437.041,367.502,293.838,228.849,228.849,228.849
0.000865614	-307040.87	0,9.08986e-05,0.000215277,0.000385465,0.000618336,0.000936976,0.00137298,0.00196956,0.00278588,0.00390286,0.00543124,0.00752255,0.0103841,0.0142996,0.0196573,0.0269883,inf	212.106,212.106,133.3,141.898,204.603,323.435,517.687,686.254,624.377,522.005,434.279,354.161,270.806,200.731,200.731,200.731
0.000920008	-306995.50	0,9.08986e-05,0.000215277,0.000385465,0.000618336,0.000936976,0.00137298,0.00196956,0.00278588,0.00390286,0.00543124,0.00752255,0.0103841,0.0142996,0.0196573,0.0269883,inf	224.169,224.169,129.741,133.268,195.117,315.297,518.518,705.39,637.388,526.691,430.883,344.133,254.493,183.117,183.117,183.117
0.000972284	-306959.97	0,9.08986e-05,0.000215277,0.000385465,0.000618336,0.000936976,0.00137298,0.00196956,0.00278588,0.00390286,0.00543124,0.00752255,0.0103841,0.0142996,0.0196573,0.0269883,inf	234.041,234.041,128.599,128.307,189.531,309.889,518.322,718.304,645.077,528.898,427.828,337.144,243.143,172.389,172.389,172.389
0.00102284	-306930.00	0,9.08986e-05,0.000215277,0.000385465,0.000618336,0.000936976,0.00137298,0.00196956,0.00278588,0.00390286,0.00543124,0.00752255,0.0103841,0.0142996,0.0196573,0.0269883,inf	241.073,241.073,128.675,125.578,186.456,306.39,517.737,727.194,649.415,529.712,425.385,332.577,235.283,166.045,166.045,166.045
0.00107194	-306903.54	0,9.08986e-05,0.000215277,0.000385465,0.000618336,0.000936976,0.00137298,0.00196956,0.00278588,0.00390286,0.00543124,0.00752255,0.0103841,0.0142996,0.0196573,0.0269883,inf	245.507,245.507,129.407,124.298,185.069,304.237,517.022,733.356,651.567,529.7,423.54,329.814,229.829,162.476,162.476,162.476
0.00111977	-306879.55	0,9.08986e-05,0.000215277,0.000385465,0.000618336,0.000936976,0.00137298,0.00196956,0.00278588,0.00390286,0.00543124,0.00752255,0.0103841,0.0142996,0.0196573,0.0269883,inf	247.868,247.868,130.505,123.999,184.849,303.045,516.28,737.599,652.253,529.172,422.186,328.349,226.021,160.673,160.673,160.673
0.00116645	-306857.47	0,9.08986e-05,0.000215277,0.000385465,0.000618336,0.000936976,0.00137298,0.00196956,0.00278588,0.00390286,0.00543124,0.00752255,0.0103841,0.0142996,0.0196573,0.0269883,inf	248.691,248.691,131.807,124.385,185.454,302.54,515.546,740.456,651.938,528.308,421.209,327.801,223.342,160,160,160
0.00121208	-306836.96	0,9.08986e-05,0.000215277,0.000385465,0.000618336,0.000936976,0.00137298,0.00196956,0.00278588,0.00390286,0.00543124,0.00752255,0.0103841,0.0142996,0.0196573,0.0269883,inf	248.433,248.433,133.212,125.258,186.65,302.531,514.835,742.292,650.934,527.216,420.51,327.89,221.441,160.049,160.049,160.049
0.00125673	-306817.82	0,9.08986e-05,0.000215277,0.000385465,0.000618336,0.000936976,0.00137298,0.00196956,0.00278588,0.00390286,0.00543124,0.00752255,0.0103841,0.0142996,0.0196573,0.0269883,inf	247.449,247.449,134.654,126.477,188.27,302.878,514.146,743.366,649.455,525.971,420.012,328.419,220.077,160.562,160.562,160.562
0.00130047	-306799.90	0,9.08986e-05,0.000215277,0.000385465,0.000618336,0.000936976,0.00137298,0.00196956,0.00278588,0.00390286,0.00543124,0.00752255,0.0103841,0.0142996,0.0196573,0.0269883,inf	246.002,246.002,136.088,127.945,190.194,303.48,513.479,743.865,647.652,524.621,419.66,329.244,219.087,161.369,161.369,161.369
0.00134333	-306783.09	0,9.08986e-05,0.000215277,0.000385465,0.000618336,0.000936976,0.00137298,0.00196956,0.00278588,0.00390286,0.00543124,0.00752255,0.0103841,0.0142996,0.0196573,0.0269883,inf	244.285,244.285,137.482,129.588,192.335,304.263,512.829,743.929,645.632,523.203,419.412,330.264,218.356,162.357,162.357,162.357
0.00138536	-306767.29	0,9.08986e-05,0.000215277,0.000385465,0.000618336,0.000936976,0.00137298,0.00196956,0.00278588,0.00390286,0.00543124,0.00752255,0.0103841,0.0142996,0.0196573,0.0269883,inf	242.433,242.433,138.816,131.353,194.629,305.172,512.194,743.662,643.474,521.743,419.237,331.408,217.805,163.454,163.454,163.454
0.0014266	-306752.42	0,9.08986e-05,0.000215277,0.000385465,0.000618336,0.000936976,0.00137298,0.00196956,0.00278588,0.00390286,0.00543124,0.00752255,0.0103841,0.0142996,0.0196573,0.0269883,inf	240.541,240.541,140.076,133.2,197.025,306.166,511.572,743.144,641.233,520.26,419.113,332.624,217.377,164.611,164.611,164.611
0.00146707	-306738.41	0,9.08986e-05,0.000215277,0.000385465,0.000618336,0.000936976,0.00137298,0.00196956,0.00278588,0.00390286,0.00543124,0.00752255,0.0103841,0.0142996,0.0196573,0.0269883,inf	238.673,238.673,141.252,135.1,199.489,307.215,510.961,742.434,638.95,518.768,419.025,333.874,217.034,165.795,165.795,165.795
0.0015068	-306725.19	0,9.08986e-05,0.000215277,0.000385465,0.000618336,0.000936976,0.00137298,0.00196956,0.00278588,0.00390286,0.00543124,0.00752255,0.0103841,0.0142996,0.0196573,0.0269883,inf	236.873,236.873,142.341,137.03,201.992,308.296,510.36,741.581,636.655,517.277,418.962,335.133,216.747,166.985,166.985,166.985
0.0015458	-306712.72	0,9.08986e-05,0.000215277,0.000385465,0.000618336,0.000936976,0.00137298,0.00196956,0.00278588,0.00390286,0.00543124,0.00752255,0.0103841,0.0142996,0.0196573,0.0269883,inf	235.17,235.17,143.341,138.974,204.513,309.393,509.768,740.621,634.369,515.796,418.915,336.38,216.495,168.166,168.166,168.166
0.00158411	-306700.93	0,9.08986e-05,0.000215277,0.000385465,0.000618336,0.000936976,0.00137298,0.00196956,0.00278588,0.00390286,0.00543124,0.00752255,0.0103841,0.0142996,0.0196573,0.0269883,inf	233.578,233.578,144.253,140.918,207.037,310.492,509.185,739.581,632.108,514.331,418.877,337.604,216.264,169.331,169.331,169.331
