time_index	left_time_boundary	right_time_boundary	lambda
0	0	6.48912e-07	1.08644
1	6.48912e-07	1.50369e-06	1.08644
2	1.50369e-06	2.62965e-06	1.08645
3	2.62965e-06	4.11281e-06	1.08643
4	4.11281e-06	6.0665e-06	1.08653
5	6.0665e-06	8.64001e-06	26.3968
6	8.64001e-06	1.20299e-05	237.757
7	1.20299e-05	1.64953e-05	433.003
8	1.64953e-05	2.23774e-05	326.899
9	2.23774e-05	3.01255e-05	252.369
10	3.01255e-05	4.03317e-05	263.234
11	4.03317e-05	5.37757e-05	284.163
12	5.37757e-05	7.14849e-05	269.59
13	7.14849e-05	9.48124e-05	216.644
14	9.48124e-05	0.00012554	205.163
15	0.00012554	0.000166017	248.287
16	0.000166017	0.000219334	255.171
17	0.000219334	0.000289567	227.004
18	0.000289567	0.00038208	275.104
19	0.00038208	0.000503944	454.924
20	0.000503944	0.000664468	837.024
21	0.000664468	0.000875918	1574.86
22	0.000875918	0.00115445	2686.68
23	0.00115445	0.00152135	3426.27
24	0.00152135	0.00200464	3136.91
25	0.00200464	0.00264126	1843.08
26	0.00264126	0.00347985	1272.07
27	0.00347985	0.00458447	859.371
28	0.00458447	0.00603954	859.371
29	0.00603954	0.00795622	720.923
30	0.00795622	0.010481	720.923
31	0.010481	inf	720.923
