0.000654187	-4548118.33	0,4.84071e-06,1.11019e-05,1.92003e-05,2.96751e-05,4.32236e-05,6.07478e-05,8.34143e-05,0.000112732,0.000150653,0.000199701,0.000263141,0.000345198,0.000451333,0.000588612,0.000766174,0.00099584,0.0012929,0.00167713,0.0021741,0.00281691,0.00364834,0.00472374,0.00611471,0.00791384,0.0102409,0.0132508,0.017144,0.0221795,0.0286927,inf	418.332,418.332,418.332,418.332,418.332,418.332,418.332,418.332,418.332,418.332,418.332,418.332,418.332,418.332,418.332,418.332,418.332,418.332,418.332,418.332,418.332,418.332,418.332,418.332,418.332,418.332,418.332,418.332,418.332,418.332
0.000686252	-4547778.66	0,4.84071e-06,1.11019e-05,1.92003e-05,2.96751e-05,4.32236e-05,6.07478e-05,8.34143e-05,0.000112732,0.000150653,0.000199701,0.000263141,0.000345198,0.000451333,0.000588612,0.000766174,0.00099584,0.0012929,0.00167713,0.0021741,0.00281691,0.00364834,0.00472374,0.00611471,0.00791384,0.0102409,0.0132508,0.017144,0.0221795,0.0286927,inf	424.382,424.382,424.382,424.382,424.382,424.382,424.382,424.382,424.382,424.382,424.382,424.382,424.382,424.382,424.382,424.382,424.382,424.382,424.382,424.382,424.382,424.382,424.382,424.382,424.382,424.382,424.382,424.382,424.382,424.382
0.00071621	-4547540.42	0,4.84071e-06,1.11019e-05,1.92003e-05,2.96751e-05,4.32236e-05,6.07478e-05,8.34143e-05,0.000112732,0.000150653,0.000199701,0.000263141,0.000345198,0.000451333,0.000588612,0.000766174,0.00099584,0.0012929,0.00167713,0.0021741,0.00281691,0.00364834,0.00472374,0.00611471,0.00791384,0.0102409,0.0132508,0.017144,0.0221795,0.0286927,inf	426.738,426.738,426.738,426.738,426.738,426.738,426.738,426.738,426.738,426.738,426.738,426.738,426.738,426.738,426.738,426.738,426.738,426.738,426.738,426.738,426.738,426.738,426.738,426.738,426.738,426.738,426.738,426.738,426.738,426.738
0.000744812	-4547338.20	0,4.84071e-06,1.11019e-05,1.92003e-05,2.96751e-05,4.32236e-05,6.07478e-05,8.34143e-05,0.000112732,0.000150653,0.000199701,0.000263141,0.000345198,0.000451333,0.000588612,0.000766174,0.00099584,0.0012929,0.00167713,0.0021741,0.00281691,0.00364834,0.00472374,0.00611471,0.00791384,0.0102409,0.0132508,0.017144,0.0221795,0.0286927,inf	427.451,427.451,427.451,427.451,427.451,427.451,427.451,427.451,427.451,427.451,427.451,427.451,427.451,427.451,427.451,427.451,427.451,427.451,427.451,427.451,427.451,427.451,427.451,427.451,427.451,427.451,427.451,427.451,427.451,427.451
0.000772435	-4547156.47	0,4.84071e-06,1.11019e-05,1.92003e-05,2.96751e-05,4.32236e-05,6.07478e-05,8.34143e-05,0.000112732,0.000150653,0.000199701,0.000263141,0.000345198,0.000451333,0.000588612,0.000766174,0.00099584,0.0012929,0.00167713,0.0021741,0.00281691,0.00364834,0.00472374,0.00611471,0.00791384,0.0102409,0.0132508,0.017144,0.0221795,0.0286927,inf	427.44,427.44,427.44,427.44,427.44,427.44,427.44,427.44,427.44,427.44,427.44,427.44,427.44,427.44,427.44,427.44,427.44,427.44,427.44,427.44,427.44,427.44,427.44,427.44,427.44,427.44,427.44,427.44,427.44,427.44
0.000799266	-4546990.41	0,4.84071e-06,1.11019e-05,1.92003e-05,2.96751e-05,4.32236e-05,6.07478e-05,8.34143e-05,0.000112732,0.000150653,0.000199701,0.000263141,0.000345198,0.000451333,0.000588612,0.000766174,0.00099584,0.0012929,0.00167713,0.0021741,0.00281691,0.00364834,0.00472374,0.00611471,0.00791384,0.0102409,0.0132508,0.017144,0.0221795,0.0286927,inf	427.113,427.113,427.113,427.113,427.113,427.113,427.113,427.113,427.113,427.113,427.113,427.113,427.113,427.113,427.113,427.113,427.113,427.113,427.113,427.113,427.113,427.113,427.113,427.113,427.113,427.113,427.113,427.113,427.113,427.113
0.000825402	-4546837.74	0,4.84071e-06,1.11019e-05,1.92003e-05,2.96751e-05,4.32236e-05,6.07478e-05,8.34143e-05,0.000112732,0.000150653,0.000199701,0.000263141,0.000345198,0.000451333,0.000588612,0.000766174,0.00099584,0.0012929,0.00167713,0.0021741,0.00281691,0.00364834,0.00472374,0.00611471,0.00791384,0.0102409,0.0132508,0.017144,0.0221795,0.0286927,inf	426.654,426.654,426.654,426.654,426.654,426.654,426.654,426.654,426.654,426.654,426.654,426.654,426.654,426.654,426.654,426.654,426.654,426.654,426.654,426.654,426.654,426.654,426.654,426.654,426.654,426.654,426.654,426.654,426.654,426.654
0.0008509	-4546696.94	0,4.84071e-06,1.11019e-05,1.92003e-05,2.96751e-05,4.32236e-05,6.07478e-05,8.34143e-05,0.000112732,0.000150653,0.000199701,0.000263141,0.000345198,0.000451333,0.000588612,0.000766174,0.00099584,0.0012929,0.00167713,0.0021741,0.00281691,0.00364834,0.00472374,0.00611471,0.00791384,0.0102409,0.0132508,0.017144,0.0221795,0.0286927,inf	426.143,426.143,426.143,426.143,426.143,426.143,426.143,426.143,426.143,426.143,426.143,426.143,426.143,426.143,426.143,426.143,426.143,426.143,426.143,426.143,426.143,426.143,426.143,426.143,426.143,426.143,426.143,426.143,426.143,426.143
0.000875793	-4546566.76	0,4.84071e-06,1.11019e-05,1.92003e-05,2.96751e-05,4.32236e-05,6.07478e-05,8.34143e-05,0.000112732,0.000150653,0.000199701,0.000263141,0.000345198,0.000451333,0.000588612,0.000766174,0.00099584,0.0012929,0.00167713,0.0021741,0.00281691,0.00364834,0.00472374,0.00611471,0.00791384,0.0102409,0.0132508,0.017144,0.0221795,0.0286927,inf	425.617,425.617,425.617,425.617,425.617,425.617,425.617,425.617,425.617,425.617,425.617,425.617,425.617,425.617,425.617,425.617,425.617,425.617,425.617,425.617,425.617,425.617,425.617,425.617,425.617,425.617,425.617,425.617,425.617,425.617
0.000900106	-4546446.18	0,4.84071e-06,1.11019e-05,1.92003e-05,2.96751e-05,4.32236e-05,6.07478e-05,8.34143e-05,0.000112732,0.000150653,0.000199701,0.000263141,0.000345198,0.000451333,0.000588612,0.000766174,0.00099584,0.0012929,0.00167713,0.0021741,0.00281691,0.00364834,0.00472374,0.00611471,0.00791384,0.0102409,0.0132508,0.017144,0.0221795,0.0286927,inf	425.093,425.093,425.093,425.093,425.093,425.093,425.093,425.093,425.093,425.093,425.093,425.093,425.093,425.093,425.093,425.093,425.093,425.093,425.093,425.093,425.093,425.093,425.093,425.093,425.093,425.093,425.093,425.093,425.093,425.093
0.00092386	-4546334.28	0,4.84071e-06,1.11019e-05,1.92003e-05,2.96751e-05,4.32236e-05,6.07478e-05,8.34143e-05,0.000112732,0.000150653,0.000199701,0.000263141,0.000345198,0.000451333,0.000588612,0.000766174,0.00099584,0.0012929,0.00167713,0.0021741,0.00281691,0.00364834,0.00472374,0.00611471,0.00791384,0.0102409,0.0132508,0.017144,0.0221795,0.0286927,inf	424.578,424.578,424.578,424.578,424.578,424.578,424.578,424.578,424.578,424.578,424.578,424.578,424.578,424.578,424.578,424.578,424.578,424.578,424.578,424.578,424.578,424.578,424.578,424.578,424.578,424.578,424.578,424.578,424.578,424.578
0.000947071	-4546230.28	0,4.84071e-06,1.11019e-05,1.92003e-05,2.96751e-05,4.32236e-05,6.07478e-05,8.34143e-05,0.000112732,0.000150653,0.000199701,0.000263141,0.000345198,0.000451333,0.000588612,0.000766174,0.00099584,0.0012929,0.00167713,0.0021741,0.00281691,0.00364834,0.00472374,0.00611471,0.00791384,0.0102409,0.0132508,0.017144,0.0221795,0.0286927,inf	424.075,424.075,424.075,424.075,424.075,424.075,424.075,424.075,424.075,424.075,424.075,424.075,424.075,424.075,424.075,424.075,424.075,424.075,424.075,424.075,424.075,424.075,424.075,424.075,424.075,424.075,424.075,424.075,424.075,424.075
0.000969755	-4546133.48	0,4.84071e-06,1.11019e-05,1.92003e-05,2.96751e-05,4.32236e-05,6.07478e-05,8.34143e-05,0.000112732,0.000150653,0.000199701,0.000263141,0.000345198,0.000451333,0.000588612,0.000766174,0.00099584,0.0012929,0.00167713,0.0021741,0.00281691,0.00364834,0.00472374,0.00611471,0.00791384,0.0102409,0.0132508,0.017144,0.0221795,0.0286927,inf	423.586,423.586,423.586,423.586,423.586,423.586,423.586,423.586,423.586,423.586,423.586,423.586,423.586,423.586,423.586,423.586,423.586,423.586,423.586,423.586,423.586,423.586,423.586,423.586,423.586,423.586,423.586,423.586,423.586,423.586
0.000991928	-4546043.25	0,4.84071e-06,1.11019e-05,1.92003e-05,2.96751e-05,4.32236e-05,6.07478e-05,8.34143e-05,0.000112732,0.000150653,0.000199701,0.000263141,0.000345198,0.000451333,0.000588612,0.000766174,0.00099584,0.0012929,0.00167713,0.0021741,0.00281691,0.00364834,0.00472374,0.00611471,0.00791384,0.0102409,0.0132508,0.017144,0.0221795,0.0286927,inf	423.111,423.111,423.111,423.111,423.111,423.111,423.111,423.111,423.111,423.111,423.111,423.111,423.111,423.111,423.111,423.111,423.111,423.111,423.111,423.111,423.111,423.111,423.111,423.111,423.111,423.111,423.111,423.111,423.111,423.111
0.0010136	-4545959.04	0,4.84071e-06,1.11019e-05,1.92003e-05,2.96751e-05,4.32236e-05,6.07478e-05,8.34143e-05,0.000112732,0.000150653,0.000199701,0.000263141,0.000345198,0.000451333,0.000588612,0.000766174,0.00099584,0.0012929,0.00167713,0.0021741,0.00281691,0.00364834,0.00472374,0.00611471,0.00791384,0.0102409,0.0132508,0.017144,0.0221795,0.0286927,inf	422.65,422.65,422.65,422.65,422.65,422.65,422.65,422.65,422.65,422.65,422.65,422.65,422.65,422.65,422.65,422.65,422.65,422.65,422.65,422.65,422.65,422.65,422.65,422.65,422.65,422.65,422.65,422.65,422.65,422.65
0.00103479	-4545880.35	0,4.84071e-06,1.11019e-05,1.92003e-05,2.96751e-05,4.32236e-05,6.07478e-05,8.34143e-05,0.000112732,0.000150653,0.000199701,0.000263141,0.000345198,0.000451333,0.000588612,0.000766174,0.00099584,0.0012929,0.00167713,0.0021741,0.00281691,0.00364834,0.00472374,0.00611471,0.00791384,0.0102409,0.0132508,0.017144,0.0221795,0.0286927,inf	422.202,422.202,422.202,422.202,422.202,422.202,422.202,422.202,422.202,422.202,422.202,422.202,422.202,422.202,422.202,422.202,422.202,422.202,422.202,422.202,422.202,422.202,422.202,422.202,422.202,422.202,422.202,422.202,422.202,422.202
0.00105551	-4545806.74	0,4.84071e-06,1.11019e-05,1.92003e-05,2.96751e-05,4.32236e-05,6.07478e-05,8.34143e-05,0.000112732,0.000150653,0.000199701,0.000263141,0.000345198,0.000451333,0.000588612,0.000766174,0.00099584,0.0012929,0.00167713,0.0021741,0.00281691,0.00364834,0.00472374,0.00611471,0.00791384,0.0102409,0.0132508,0.017144,0.0221795,0.0286927,inf	421.768,421.768,421.768,421.768,421.768,421.768,421.768,421.768,421.768,421.768,421.768,421.768,421.768,421.768,421.768,421.768,421.768,421.768,421.768,421.768,421.768,421.768,421.768,421.768,421.768,421.768,421.768,421.768,421.768,421.768
0.00107577	-4545737.81	0,4.84071e-06,1.11019e-05,1.92003e-05,2.96751e-05,4.32236e-05,6.07478e-05,8.34143e-05,0.000112732,0.000150653,0.000199701,0.000263141,0.000345198,0.000451333,0.000588612,0.000766174,0.00099584,0.0012929,0.00167713,0.0021741,0.00281691,0.00364834,0.00472374,0.00611471,0.00791384,0.0102409,0.0132508,0.017144,0.0221795,0.0286927,inf	421.346,421.346,421.346,421.346,421.346,421.346,421.346,421.346,421.346,421.346,421.346,421.346,421.346,421.346,421.346,421.346,421.346,421.346,421.346,421.346,421.346,421.346,421.346,421.346,421.346,421.346,421.346,421.346,421.346,421.346
0.00109558	-4545673.19	0,4.84071e-06,1.11019e-05,1.92003e-05,2.96751e-05,4.32236e-05,6.07478e-05,8.34143e-05,0.000112732,0.000150653,0.000199701,0.000263141,0.000345198,0.000451333,0.000588612,0.000766174,0.00099584,0.0012929,0.00167713,0.0021741,0.00281691,0.00364834,0.00472374,0.00611471,0.00791384,0.0102409,0.0132508,0.017144,0.0221795,0.0286927,inf	420.937,420.937,420.937,420.937,420.937,420.937,420.937,420.937,420.937,420.937,420.937,420.937,420.937,420.937,420.937,420.937,420.937,420.937,420.937,420.937,420.937,420.937,420.937,420.937,420.937,420.937,420.937,420.937,420.937,420.937
0.00111496	-4545612.56	0,4.84071e-06,1.11019e-05,1.92003e-05,2.96751e-05,4.32236e-05,6.07478e-05,8.34143e-05,0.000112732,0.000150653,0.000199701,0.000263141,0.000345198,0.000451333,0.000588612,0.000766174,0.00099584,0.0012929,0.00167713,0.0021741,0.00281691,0.00364834,0.00472374,0.00611471,0.00791384,0.0102409,0.0132508,0.017144,0.0221795,0.0286927,inf	420.54,420.54,420.54,420.54,420.54,420.54,420.54,420.54,420.54,420.54,420.54,420.54,420.54,420.54,420.54,420.54,420.54,420.54,420.54,420.54,420.54,420.54,420.54,420.54,420.54,420.54,420.54,420.54,420.54,420.54
