0.000661218	-1850634.57	0,9.94103e-06,2.22371e-05,3.74461e-05,5.62582e-05,7.95269e-05,0.000108308,0.000143907,0.00018794,0.000242405,0.000309772,0.000393098,0.000496165,0.000623648,0.000781332,0.000976372,0.00121762,0.00151601,0.0018851,0.00234162,0.0029063,0.00360475,0.00446866,0.00553723,0.00685895,0.00849379,0.0105159,0.0130171,0.0161108,0.0199374,0.0246706,0.030525,inf	98.877,98.877,131.989,150.12,181.39,216.77,248.311,258.466,260.586,266.57,271.894,279.042,289.445,303.358,322.116,344.31,368.56,394.551,419.883,439.308,448.499,448.41,443.163,435.642,425.216,412.67,399.957,377.712,377.712,332.994,332.994,332.994
0.00069374	-1850067.32	0,9.94103e-06,2.22371e-05,3.74461e-05,5.62582e-05,7.95269e-05,0.000108308,0.000143907,0.00018794,0.000242405,0.000309772,0.000393098,0.000496165,0.000623648,0.000781332,0.000976372,0.00121762,0.00151601,0.0018851,0.00234162,0.0029063,0.00360475,0.00446866,0.00553723,0.00685895,0.00849379,0.0105159,0.0130171,0.0161108,0.0199374,0.0246706,0.030525,inf	59.1097,59.1097,86.6068,95.9367,130.599,176.301,224.424,234.308,230.357,234.726,236.876,241.982,252.273,267.976,291.693,321.256,354.766,392.558,431.631,463.447,479.833,481.365,474.426,463.065,444.732,421.333,397.691,357.185,357.185,286.382,286.382,286.382
0.000724175	-1849846.34	0,9.94103e-06,2.22371e-05,3.74461e-05,5.62582e-05,7.95269e-05,0.000108308,0.000143907,0.00018794,0.000242405,0.000309772,0.000393098,0.000496165,0.000623648,0.000781332,0.000976372,0.00121762,0.00151601,0.0018851,0.00234162,0.0029063,0.00360475,0.00446866,0.00553723,0.00685895,0.00849379,0.0105159,0.0130171,0.0161108,0.0199374,0.0246706,0.030525,inf	50.8945,50.8945,75.7403,75.8131,111.262,163.717,227.751,236.059,225.62,228.359,226.58,228.561,236.81,251.546,276.496,308.813,346.293,390.081,437.148,476.877,498.393,501.935,495.265,482.453,458.087,425.376,392.542,337.755,337.755,250.85,250.85,250.85
0.000752578	-1849722.71	0,9.94103e-06,2.22371e-05,3.74461e-05,5.62582e-05,7.95269e-05,0.000108308,0.000143907,0.00018794,0.000242405,0.000309772,0.000393098,0.000496165,0.000623648,0.000781332,0.000976372,0.00121762,0.00151601,0.0018851,0.00234162,0.0029063,0.00360475,0.00446866,0.00553723,0.00685895,0.00849379,0.0105159,0.0130171,0.0161108,0.0199374,0.0246706,0.030525,inf	49.6393,49.6393,73.6298,65.202,100.631,157.792,237.397,243.879,227.846,230.017,224.886,224.127,230.145,243.282,268.253,301.527,340.68,387.656,439.549,484.304,509.244,514.603,509.159,496.349,467.305,426.6,386.118,320.455,320.455,222.315,222.315,222.315
0.000779302	-1849636.36	0,9.94103e-06,2.22371e-05,3.74461e-05,5.62582e-05,7.95269e-05,0.000108308,0.000143907,0.00018794,0.000242405,0.000309772,0.000393098,0.000496165,0.000623648,0.000781332,0.000976372,0.00121762,0.00151601,0.0018851,0.00234162,0.0029063,0.00360475,0.00446866,0.00553723,0.00685895,0.00849379,0.0105159,0.0130171,0.0161108,0.0199374,0.0246706,0.030525,inf	50.1914,50.1914,74.2677,58.3198,93.1939,153.213,247.267,251.77,231.301,233.987,226.32,223.483,227.522,239.051,263.665,297.138,336.875,385.575,440.461,488.377,515.458,522.269,518.465,506.528,473.804,426.225,379.416,305.609,305.609,198.171,198.171,198.171
0.000804653	-1849568.05	0,9.94103e-06,2.22371e-05,3.74461e-05,5.62582e-05,7.95269e-05,0.000108308,0.000143907,0.00018794,0.000242405,0.000309772,0.000393098,0.000496165,0.000623648,0.000781332,0.000976372,0.00121762,0.00151601,0.0018851,0.00234162,0.0029063,0.00360475,0.00446866,0.00553723,0.00685895,0.00849379,0.0105159,0.0130171,0.0161108,0.0199374,0.0246706,0.030525,inf	51.0995,51.0995,75.9002,53.4558,87.4298,148.816,255.779,258.044,234.177,238.215,228.764,224.483,226.879,236.979,261.164,294.511,334.297,383.92,440.699,490.557,518.856,526.741,524.715,514.174,478.532,425.035,373.012,293.202,293.202,176.654,176.654,176.654
0.000828851	-1849510.34	0,9.94103e-06,2.22371e-05,3.74461e-05,5.62582e-05,7.95269e-05,0.000108308,0.000143907,0.00018794,0.000242405,0.000309772,0.000393098,0.000496165,0.000623648,0.000781332,0.000976372,0.00121762,0.00151601,0.0018851,0.00234162,0.0029063,0.00360475,0.00446866,0.00553723,0.00685895,0.00849379,0.0105159,0.0130171,0.0161108,0.0199374,0.0246706,0.030525,inf	51.8429,51.8429,77.9282,49.9517,82.8461,144.55,262.865,262.516,236.061,242.008,231.369,226.166,227.23,236.117,259.912,293.005,332.576,382.673,440.662,491.657,520.514,529.143,528.9,520.071,482.111,423.519,367.223,283.1,283.1,156.465,156.465,156.465
0.000852056	-1849459.92	0,9.94103e-06,2.22371e-05,3.74461e-05,5.62582e-05,7.95269e-05,0.000108308,0.000143907,0.00018794,0.000242405,0.000309772,0.000393098,0.000496165,0.000623648,0.000781332,0.000976372,0.00121762,0.00151601,0.0018851,0.00234162,0.0029063,0.00360475,0.00446866,0.00553723,0.00685895,0.00849379,0.0105159,0.0130171,0.0161108,0.0199374,0.0246706,0.030525,inf	52.2905,52.2905,80.1588,47.4694,79.1982,140.577,268.884,265.479,237.021,245.198,233.812,228.082,228.074,235.951,259.433,292.23,331.461,381.779,440.545,492.133,521.082,530.185,531.664,524.739,484.953,421.984,362.226,275.174,275.174,136.531,136.531,136.531
0.000874377	-1849415.15	0,9.94103e-06,2.22371e-05,3.74461e-05,5.62582e-05,7.95269e-05,0.000108308,0.000143907,0.00018794,0.000242405,0.000309772,0.000393098,0.000496165,0.000623648,0.000781332,0.000976372,0.00121762,0.00151601,0.0018851,0.00234162,0.0029063,0.00360475,0.00446866,0.00553723,0.00685895,0.00849379,0.0105159,0.0130171,0.0161108,0.0199374,0.0246706,0.030525,inf	52.4848,52.4848,82.5032,45.7776,76.304,137.019,274.218,267.306,237.254,247.814,235.988,230.019,229.143,236.188,259.436,291.94,330.779,381.173,440.438,492.247,520.957,530.321,533.434,528.531,487.337,420.631,358.137,269.387,269.387,115.862,115.862,115.862
0.000895897	-1849375.21	0,9.94103e-06,2.22371e-05,3.74461e-05,5.62582e-05,7.95269e-05,0.000108308,0.000143907,0.00018794,0.000242405,0.000309772,0.000393098,0.000496165,0.000623648,0.000781332,0.000976372,0.00121762,0.00151601,0.0018851,0.00234162,0.0029063,0.00360475,0.00446866,0.00553723,0.00685895,0.00849379,0.0105159,0.0130171,0.0161108,0.0199374,0.0246706,0.030525,inf	52.3509,52.3509,84.8904,44.7018,74.0024,133.926,279.165,268.311,236.964,249.95,237.886,231.884,230.295,236.654,259.741,291.971,330.407,380.798,440.377,492.149,520.388,529.844,534.5,531.691,489.461,419.617,355.082,265.893,265.893,93.6147,93.6147,93.6147
0.000916676	-1849339.99	0,9.94103e-06,2.22371e-05,3.74461e-05,5.62582e-05,7.95269e-05,0.000108308,0.000143907,0.00018794,0.000242405,0.000309772,0.000393098,0.000496165,0.000623648,0.000781332,0.000976372,0.00121762,0.00151601,0.0018851,0.00234162,0.0029063,0.00360475,0.00446866,0.00553723,0.00685895,0.00849379,0.0105159,0.0130171,0.0161108,0.0199374,0.0246706,0.030525,inf	51.9889,51.9889,87.2862,44.1054,72.1535,131.295,283.923,268.74,236.324,251.707,239.532,233.637,231.45,237.245,260.234,292.216,330.258,380.607,440.376,491.932,519.532,528.952,535.062,534.405,491.495,419.117,353.303,265.252,265.252,70.0799,70.0799,70.0799
0.00093676	-1849310.35	0,9.94103e-06,2.22371e-05,3.74461e-05,5.62582e-05,7.95269e-05,0.000108308,0.000143907,0.00018794,0.000242405,0.000309772,0.000393098,0.000496165,0.000623648,0.000781332,0.000976372,0.00121762,0.00151601,0.0018851,0.00234162,0.0029063,0.00360475,0.00446866,0.00553723,0.00685895,0.00849379,0.0105159,0.0130171,0.0161108,0.0199374,0.0246706,0.030525,inf	51.4489,51.4489,89.6618,43.8904,70.6401,129.095,288.615,268.762,235.461,253.173,240.967,235.268,232.569,237.897,260.84,292.601,330.272,380.559,440.435,491.646,518.491,527.778,535.265,536.82,493.617,419.393,353.28,268.858,268.858,49.3242,49.3242,49.3242
0.000956149	-1849287.20	0,9.94103e-06,2.22371e-05,3.74461e-05,5.62582e-05,7.95269e-05,0.000108308,0.000143907,0.00018794,0.000242405,0.000309772,0.000393098,0.000496165,0.000623648,0.000781332,0.000976372,0.00121762,0.00151601,0.0018851,0.00234162,0.0029063,0.00360475,0.00446866,0.00553723,0.00685895,0.00849379,0.0105159,0.0130171,0.0161108,0.0199374,0.0246706,0.030525,inf	50.8029,50.8029,91.9895,43.9656,69.3621,127.276,293.306,268.5,234.467,254.42,242.224,236.777,233.628,238.567,261.506,293.072,330.395,380.617,440.538,491.309,517.312,526.385,535.177,539.002,495.917,420.642,355.506,278.964,278.964,35.6613,35.6613,35.6613
0.000974816	-1849267.25	0,9.94103e-06,2.22371e-05,3.74461e-05,5.62582e-05,7.95269e-05,0.000108308,0.000143907,0.00018794,0.000242405,0.000309772,0.000393098,0.000496165,0.000623648,0.000781332,0.000976372,0.00121762,0.00151601,0.0018851,0.00234162,0.0029063,0.00360475,0.00446866,0.00553723,0.00685895,0.00849379,0.0105159,0.0130171,0.0161108,0.0199374,0.0246706,0.030525,inf	50.0463,50.0463,94.2344,44.267,68.2394,125.777,298.007,268.022,233.401,255.497,243.33,238.166,234.61,239.224,262.19,293.584,330.586,380.741,440.662,490.913,515.998,524.771,534.753,540.82,498.141,422.474,359.482,296.514,296.514,27.1675,27.1675,27.1675
0.000992779	-1849246.55	0,9.94103e-06,2.22371e-05,3.74461e-05,5.62582e-05,7.95269e-05,0.000108308,0.000143907,0.00018794,0.000242405,0.000309772,0.000393098,0.000496165,0.000623648,0.000781332,0.000976372,0.00121762,0.00151601,0.0018851,0.00234162,0.0029063,0.00360475,0.00446866,0.00553723,0.00685895,0.00849379,0.0105159,0.0130171,0.0161108,0.0199374,0.0246706,0.030525,inf	49.227,49.227,96.3807,44.7375,67.2165,124.549,302.719,267.381,232.301,256.446,244.313,239.443,235.512,239.853,262.873,294.115,330.823,380.918,440.802,490.472,514.57,522.941,533.95,542.099,499.889,424.15,363.951,320.675,320.675,20.9904,20.9904,20.9904
0.00101009	-1849225.33	0,9.94103e-06,2.22371e-05,3.74461e-05,5.62582e-05,7.95269e-05,0.000108308,0.000143907,0.00018794,0.000242405,0.000309772,0.000393098,0.000496165,0.000623648,0.000781332,0.000976372,0.00121762,0.00151601,0.0018851,0.00234162,0.0029063,0.00360475,0.00446866,0.00553723,0.00685895,0.00849379,0.0105159,0.0130171,0.0161108,0.0199374,0.0246706,0.030525,inf	48.403,48.403,98.4219,45.339,66.2506,123.55,307.441,266.616,231.202,257.302,245.197,240.624,236.341,240.451,263.546,294.656,331.099,381.149,440.978,490.022,513.077,520.948,532.796,542.79,500.947,425.176,367.911,350.48,350.48,15.7488,15.7488,15.7488
0.00102681	-1849205.06	0,9.94103e-06,2.22371e-05,3.74461e-05,5.62582e-05,7.95269e-05,0.000108308,0.000143907,0.00018794,0.000242405,0.000309772,0.000393098,0.000496165,0.000623648,0.000781332,0.000976372,0.00121762,0.00151601,0.0018851,0.00234162,0.0029063,0.00360475,0.00446866,0.00553723,0.00685895,0.00849379,0.0105159,0.0130171,0.0161108,0.0199374,0.0246706,0.030525,inf	47.6149,47.6149,100.344,46.0416,65.3118,122.745,312.159,265.753,230.123,258.092,246.004,241.72,237.101,241.016,264.205,295.203,331.412,381.437,441.204,489.6,511.578,518.866,531.368,542.941,501.271,425.329,370.754,384.957,384.957,11.1866,11.1866,11.1866
0.001043	-1849185.63	0,9.94103e-06,2.22371e-05,3.74461e-05,5.62582e-05,7.95269e-05,0.000108308,0.000143907,0.00018794,0.000242405,0.000309772,0.000393098,0.000496165,0.000623648,0.000781332,0.000976372,0.00121762,0.00151601,0.0018851,0.00234162,0.0029063,0.00360475,0.00446866,0.00553723,0.00685895,0.00849379,0.0105159,0.0130171,0.0161108,0.0199374,0.0246706,0.030525,inf	46.8437,46.8437,102.143,46.8182,64.3827,122.107,316.865,264.813,229.084,258.838,246.753,242.742,237.799,241.549,264.845,295.751,331.758,381.782,441.494,489.235,510.121,516.761,529.75,542.629,500.877,424.479,372.001,421.712,421.712,7.89134,7.89134,7.89134
0.00105876	-1849163.99	0,9.94103e-06,2.22371e-05,3.74461e-05,5.62582e-05,7.95269e-05,0.000108308,0.000143907,0.00018794,0.000242405,0.000309772,0.000393098,0.000496165,0.000623648,0.000781332,0.000976372,0.00121762,0.00151601,0.0018851,0.00234162,0.0029063,0.00360475,0.00446866,0.00553723,0.00685895,0.00849379,0.0105159,0.0130171,0.0161108,0.0199374,0.0246706,0.030525,inf	46.0679,46.0679,103.826,47.6474,63.4499,121.616,321.555,263.813,228.09,259.553,247.456,243.7,238.439,242.046,265.462,296.293,332.129,382.181,441.852,488.949,508.745,514.693,528.024,541.947,499.819,422.57,371.335,456.382,456.382,6.23479,6.23479,6.23479
0.00107413	-1849140.14	0,9.94103e-06,2.22371e-05,3.74461e-05,5.62582e-05,7.95269e-05,0.000108308,0.000143907,0.00018794,0.000242405,0.000309772,0.000393098,0.000496165,0.000623648,0.000781332,0.000976372,0.00121762,0.00151601,0.0018851,0.00234162,0.0029063,0.00360475,0.00446866,0.00553723,0.00685895,0.00849379,0.0105159,0.0130171,0.0161108,0.0199374,0.0246706,0.030525,inf	45.381,45.381,105.403,48.5222,62.5101,121.258,326.226,262.774,227.151,260.251,248.124,244.601,239.023,242.507,266.049,296.82,332.517,382.623,442.274,488.748,507.477,512.714,526.276,541.024,498.256,419.77,368.92,485.151,485.151,5.54267,5.54267,5.54267
