0.00065154	-4548129.28	0,4.50032e-06,1.02283e-05,1.7519e-05,2.67986e-05,3.86097e-05,5.36429e-05,7.27772e-05,9.71315e-05,0.00012813,0.000167584,0.000217802,0.00028172,0.000363075,0.000466624,0.000598422,0.000766174,0.00097969,0.00125145,0.00159736,0.00203762,0.002598,0.00331124,0.00421907,0.00537455,0.00684525,0.00871716,0.0110997,0.0141323,0.0179922,0.022905,0.0291581,inf	364.92,364.92,203.268,338.444,381.849,347.423,287.852,254.453,266.312,274.953,274.986,278.602,284.118,288.286,295.931,308.732,326.838,348.978,373.414,400.042,426.094,444.182,449.694,446.477,440.341,432.714,424.045,405.275,405.275,349.42,349.42,349.42
0.000685472	-4546883.65	0,4.50032e-06,1.02283e-05,1.7519e-05,2.67986e-05,3.86097e-05,5.36429e-05,7.27772e-05,9.71315e-05,0.00012813,0.000167584,0.000217802,0.00028172,0.000363075,0.000466624,0.000598422,0.000766174,0.00097969,0.00125145,0.00159736,0.00203762,0.002598,0.00331124,0.00421907,0.00537455,0.00684525,0.00871716,0.0110997,0.0141323,0.0179922,0.022905,0.0291581,inf	370.302,370.302,127.56,347.471,443.23,379.69,267.602,214.379,237.572,250.892,246.674,249.195,253.718,254.273,260.325,274.566,297.363,326.765,360.194,398.517,438.504,468.116,478.309,474.507,465.9,453.579,438.108,401.675,401.675,305.988,305.988,305.988
0.000717483	-4546370.01	0,4.50032e-06,1.02283e-05,1.7519e-05,2.67986e-05,3.86097e-05,5.36429e-05,7.27772e-05,9.71315e-05,0.00012813,0.000167584,0.000217802,0.00028172,0.000363075,0.000466624,0.000598422,0.000766174,0.00097969,0.00125145,0.00159736,0.00203762,0.002598,0.00331124,0.00421907,0.00537455,0.00684525,0.00871716,0.0110997,0.0141323,0.0179922,0.022905,0.0291581,inf	368.178,368.178,80.8956,348.906,501.115,416.4,258.541,195.228,231.921,250.506,242.261,244.212,247.427,243.381,246.299,259.518,283.476,315.614,352.728,396.803,444.834,481.846,495.611,492.487,483.628,468.632,447.781,395.158,395.158,271.483,271.483,271.483
0.000747524	-4546065.62	0,4.50032e-06,1.02283e-05,1.7519e-05,2.67986e-05,3.86097e-05,5.36429e-05,7.27772e-05,9.71315e-05,0.00012813,0.000167584,0.000217802,0.00028172,0.000363075,0.000466624,0.000598422,0.000766174,0.00097969,0.00125145,0.00159736,0.00203762,0.002598,0.00331124,0.00421907,0.00537455,0.00684525,0.00871716,0.0110997,0.0141323,0.0179922,0.022905,0.0291581,inf	361.587,361.587,51.0678,338.294,542.024,443.009,247.635,180.899,231.597,255.751,244.125,246.575,249.112,240.775,240.603,252.345,276.375,309.52,348.045,395.033,447.859,489.56,505.82,503.835,495.95,479.599,454.418,387.174,387.174,243.664,243.664,243.664
0.000775897	-4545844.93	0,4.50032e-06,1.02283e-05,1.7519e-05,2.67986e-05,3.86097e-05,5.36429e-05,7.27772e-05,9.71315e-05,0.00012813,0.000167584,0.000217802,0.00028172,0.000363075,0.000466624,0.000598422,0.000766174,0.00097969,0.00125145,0.00159736,0.00203762,0.002598,0.00331124,0.00421907,0.00537455,0.00684525,0.00871716,0.0110997,0.0141323,0.0179922,0.022905,0.0291581,inf	354.676,354.676,32.4511,322.156,569.423,460.116,234.357,168.202,232.161,261.539,247.005,250.837,253.38,241.346,238.516,248.893,272.702,306.139,345.012,393.442,449.169,493.769,511.627,510.847,504.566,487.724,459.004,378.675,378.675,220.776,220.776,220.776
0.000802885	-4545666.61	0,4.50032e-06,1.02283e-05,1.7519e-05,2.67986e-05,3.86097e-05,5.36429e-05,7.27772e-05,9.71315e-05,0.00012813,0.000167584,0.000217802,0.00028172,0.000363075,0.000466624,0.000598422,0.000766174,0.00097969,0.00125145,0.00159736,0.00203762,0.002598,0.00331124,0.00421907,0.00537455,0.00684525,0.00871716,0.0110997,0.0141323,0.0179922,0.022905,0.0291581,inf	348.414,348.414,20.8932,305.289,588.659,470.912,220.098,156.705,232.696,266.538,249.329,255.12,258.202,243.067,238.066,247.344,270.918,304.357,343.061,392.138,449.62,495.925,514.685,515.008,510.624,493.866,462.224,370.245,370.245,201.54,201.54,201.54
0.000828701	-4545514.21	0,4.50032e-06,1.02283e-05,1.7519e-05,2.67986e-05,3.86097e-05,5.36429e-05,7.27772e-05,9.71315e-05,0.00012813,0.000167584,0.000217802,0.00028172,0.000363075,0.000466624,0.000598422,0.000766174,0.00097969,0.00125145,0.00159736,0.00203762,0.002598,0.00331124,0.00421907,0.00537455,0.00684525,0.00871716,0.0110997,0.0141323,0.0179922,0.022905,0.0291581,inf	342.68,342.68,13.652,289.816,603.381,477.924,205.958,146.445,233.221,270.594,250.759,258.84,262.814,245.088,238.356,246.814,270.236,303.565,341.854,391.136,449.663,496.87,516.012,517.277,514.896,498.611,464.551,362.228,362.228,185.046,185.046,185.046
0.0008535	-4545380.08	0,4.50032e-06,1.02283e-05,1.7519e-05,2.67986e-05,3.86097e-05,5.36429e-05,7.27772e-05,9.71315e-05,0.00012813,0.000167584,0.000217802,0.00028172,0.000363075,0.000466624,0.000598422,0.000766174,0.00097969,0.00125145,0.00159736,0.00203762,0.002598,0.00331124,0.00421907,0.00537455,0.00684525,0.00871716,0.0110997,0.0141323,0.0179922,0.022905,0.0291581,inf	337.634,337.634,9.04607,276.399,615.558,482.64,192.522,137.436,233.94,273.892,251.378,261.9,266.968,247.055,238.955,246.84,270.214,303.407,341.168,390.411,449.531,497.094,516.238,518.273,517.9,502.362,466.308,354.817,354.817,170.646,170.646,170.646
0.000877396	-4545260.10	0,4.50032e-06,1.02283e-05,1.7519e-05,2.67986e-05,3.86097e-05,5.36429e-05,7.27772e-05,9.71315e-05,0.00012813,0.000167584,0.000217802,0.00028172,0.000363075,0.000466624,0.000598422,0.000766174,0.00097969,0.00125145,0.00159736,0.00203762,0.002598,0.00331124,0.00421907,0.00537455,0.00684525,0.00871716,0.0110997,0.0141323,0.0179922,0.022905,0.0291581,inf	332.714,332.714,6.06728,265,626.112,485.836,180.019,129.611,235.004,276.657,251.368,264.371,270.622,248.833,239.654,247.168,270.594,303.659,340.85,389.922,449.343,496.89,515.758,518.405,519.991,505.399,467.719,348.115,348.115,157.884,157.884,157.884
0.000900473	-4545151.76	0,4.50032e-06,1.02283e-05,1.7519e-05,2.67986e-05,3.86097e-05,5.36429e-05,7.27772e-05,9.71315e-05,0.00012813,0.000167584,0.000217802,0.00028172,0.000363075,0.000466624,0.000598422,0.000766174,0.00097969,0.00125145,0.00159736,0.00203762,0.002598,0.00331124,0.00421907,0.00537455,0.00684525,0.00871716,0.0110997,0.0141323,0.0179922,0.022905,0.0291581,inf	328.179,328.179,4.1195,255.401,635.457,487.915,168.497,122.849,236.507,279.071,250.913,266.371,273.818,250.384,240.351,247.656,271.218,304.174,340.794,389.625,449.158,496.432,514.826,517.946,521.415,507.917,468.938,342.167,342.167,146.439,146.439,146.439
0.000922797	-4545053.39	0,4.50032e-06,1.02283e-05,1.7519e-05,2.67986e-05,3.86097e-05,5.36429e-05,7.27772e-05,9.71315e-05,0.00012813,0.000167584,0.000217802,0.00028172,0.000363075,0.000466624,0.000598422,0.000766174,0.00097969,0.00125145,0.00159736,0.00203762,0.002598,0.00331124,0.00421907,0.00537455,0.00684525,0.00871716,0.0110997,0.0141323,0.0179922,0.022905,0.0291581,inf	323.878,323.878,2.82472,247.41,643.805,489.077,157.921,117.018,238.479,281.259,250.153,268.017,276.624,251.714,240.998,248.22,271.985,304.858,340.922,389.483,449.001,495.827,513.606,517.079,522.343,510.052,470.071,336.989,336.989,136.09,136.09,136.09
0.00094442	-4544963.73	0,4.50032e-06,1.02283e-05,1.7519e-05,2.67986e-05,3.86097e-05,5.36429e-05,7.27772e-05,9.71315e-05,0.00012813,0.000167584,0.000217802,0.00028172,0.000363075,0.000466624,0.000598422,0.000766174,0.00097969,0.00125145,0.00159736,0.00203762,0.002598,0.00331124,0.00421907,0.00537455,0.00684525,0.00871716,0.0110997,0.0141323,0.0179922,0.022905,0.0291581,inf	319.8,319.8,1.9497,240.788,651.245,489.43,148.217,111.989,240.915,283.3,249.194,269.406,279.108,252.845,241.579,248.812,272.833,305.645,341.179,389.462,448.883,495.14,512.205,515.931,522.898,511.902,471.193,332.578,332.578,126.694,126.694,126.694
0.000965382	-4544881.80	0,4.50032e-06,1.02283e-05,1.7519e-05,2.67986e-05,3.86097e-05,5.36429e-05,7.27772e-05,9.71315e-05,0.00012813,0.000167584,0.000217802,0.00028172,0.000363075,0.000466624,0.000598422,0.000766174,0.00097969,0.00125145,0.00159736,0.00203762,0.002598,0.00331124,0.00421907,0.00537455,0.00684525,0.00871716,0.0110997,0.0141323,0.0179922,0.022905,0.0291581,inf	315.926,315.926,1.35991,235.363,657.908,489.061,139.299,107.643,243.782,285.235,248.116,270.614,281.331,253.806,242.088,249.405,273.721,306.491,341.525,389.536,448.806,494.411,510.694,514.588,523.166,513.536,472.352,328.921,328.921,118.165,118.165,118.165
0.00098572	-4544806.79	0,4.50032e-06,1.02283e-05,1.7519e-05,2.67986e-05,3.86097e-05,5.36429e-05,7.27772e-05,9.71315e-05,0.00012813,0.000167584,0.000217802,0.00028172,0.000363075,0.000466624,0.000598422,0.000766174,0.00097969,0.00125145,0.00159736,0.00203762,0.002598,0.00331124,0.00421907,0.00537455,0.00684525,0.00871716,0.0110997,0.0141323,0.0179922,0.022905,0.0291581,inf	312.185,312.185,0.953707,231.003,663.812,488.027,131.094,103.873,247.036,287.086,246.961,271.698,283.344,254.622,242.527,249.982,274.621,307.366,341.932,389.683,448.767,493.666,509.122,513.112,523.209,515.001,473.579,325.994,325.994,110.461,110.461,110.461
0.00100546	-4544738.00	0,4.50032e-06,1.02283e-05,1.7519e-05,2.67986e-05,3.86097e-05,5.36429e-05,7.27772e-05,9.71315e-05,0.00012813,0.000167584,0.000217802,0.00028172,0.000363075,0.000466624,0.000598422,0.000766174,0.00097969,0.00125145,0.00159736,0.00203762,0.002598,0.00331124,0.00421907,0.00537455,0.00684525,0.00871716,0.0110997,0.0141323,0.0179922,0.022905,0.0291581,inf	308.691,308.691,0.514047,227.577,669.057,486.407,123.527,100.596,250.632,288.855,245.772,272.702,285.189,255.317,242.903,250.537,275.516,308.25,342.378,389.887,448.763,492.92,507.52,511.544,523.073,516.328,474.886,323.769,323.769,103.57,103.57,103.57
0.00102464	-4544674.77	0,4.50032e-06,1.02283e-05,1.7519e-05,2.67986e-05,3.86097e-05,5.36429e-05,7.27772e-05,9.71315e-05,0.00012813,0.000167584,0.000217802,0.00028172,0.000363075,0.000466624,0.000598422,0.000766174,0.00097969,0.00125145,0.00159736,0.00203762,0.002598,0.00331124,0.00421907,0.00537455,0.00684525,0.00871716,0.0110997,0.0141323,0.0179922,0.022905,0.0291581,inf	305.331,305.331,0.404153,225.015,673.757,484.257,116.531,97.7383,254.523,290.537,244.565,273.654,286.898,255.913,243.223,251.063,276.396,309.129,342.849,390.134,448.789,492.183,505.91,509.914,522.79,517.537,476.276,322.207,322.207,97.4884,97.4884,97.4884
0.00104327	-4544616.53	0,4.50032e-06,1.02283e-05,1.7519e-05,2.67986e-05,3.86097e-05,5.36429e-05,7.27772e-05,9.71315e-05,0.00012813,0.000167584,0.000217802,0.00028172,0.000363075,0.000466624,0.000598422,0.000766174,0.00097969,0.00125145,0.00159736,0.00203762,0.002598,0.00331124,0.00421907,0.00537455,0.00684525,0.00871716,0.0110997,0.0141323,0.0179922,0.022905,0.0291581,inf	302.142,302.142,0.404153,223.187,677.92,481.635,110.054,95.236,258.666,292.133,243.355,274.578,288.497,256.425,243.493,251.56,277.254,309.993,343.333,390.415,448.841,491.461,504.306,508.245,522.382,518.64,477.737,321.255,321.255,92.2111,92.2111,92.2111
0.00106137	-4544562.72	0,4.50032e-06,1.02283e-05,1.7519e-05,2.67986e-05,3.86097e-05,5.36429e-05,7.27772e-05,9.71315e-05,0.00012813,0.000167584,0.000217802,0.00028172,0.000363075,0.000466624,0.000598422,0.000766174,0.00097969,0.00125145,0.00159736,0.00203762,0.002598,0.00331124,0.00421907,0.00537455,0.00684525,0.00871716,0.0110997,0.0141323,0.0179922,0.022905,0.0291581,inf	299.082,299.082,0.404153,222.034,681.633,478.6,104.05,93.0425,263.018,293.628,242.158,275.49,290.007,256.868,243.719,252.028,278.085,310.836,343.822,390.72,448.916,490.757,502.719,506.549,521.866,519.639,479.248,320.851,320.851,87.7152,87.7152,87.7152
0.00107897	-4544512.83	0,4.50032e-06,1.02283e-05,1.7519e-05,2.67986e-05,3.86097e-05,5.36429e-05,7.27772e-05,9.71315e-05,0.00012813,0.000167584,0.000217802,0.00028172,0.000363075,0.000466624,0.000598422,0.000766174,0.00097969,0.00125145,0.00159736,0.00203762,0.002598,0.00331124,0.00421907,0.00537455,0.00684525,0.00871716,0.0110997,0.0141323,0.0179922,0.022905,0.0291581,inf	296.253,296.253,0.404153,221.481,684.922,475.221,98.4711,91.1095,267.54,295.02,240.971,276.4,291.444,257.252,243.907,252.466,278.888,311.655,344.31,391.044,449.01,490.074,501.155,504.84,521.254,520.534,480.783,320.918,320.918,83.9551,83.9551,83.9551
0.00109608	-4544466.40	0,4.50032e-06,1.02283e-05,1.7519e-05,2.67986e-05,3.86097e-05,5.36429e-05,7.27772e-05,9.71315e-05,0.00012813,0.000167584,0.000217802,0.00028172,0.000363075,0.000466624,0.000598422,0.000766174,0.00097969,0.00125145,0.00159736,0.00203762,0.002598,0.00331124,0.00421907,0.00537455,0.00684525,0.00871716,0.0110997,0.0141323,0.0179922,0.022905,0.0291581,inf	293.502,293.502,0.404153,221.479,687.862,471.556,93.2813,89.4068,272.203,296.302,239.801,277.314,292.819,257.588,244.061,252.877,279.66,312.446,344.795,391.382,449.121,489.415,499.62,503.125,520.554,521.321,482.308,321.373,321.373,80.8629,80.8629,80.8629
