0.000652784	-13690145.49	0,1.74972e-06,4.05454e-06,7.09056e-06,1.10898e-05,1.63577e-05,2.32969e-05,3.24375e-05,4.4478e-05,6.03383e-05,8.12302e-05,0.00010875,0.000145001,0.000192752,0.000255652,0.000338506,0.000447647,0.000591412,0.000780786,0.00103024,0.00135883,0.00179167,0.00236182,0.00311286,0.00410215,0.00540531,0.00712188,0.00938304,0.0123615,0.016285,0.0214531,0.0282608,inf	435.184,435.184,928.127,233.347,257.399,288.58,298.467,284.1,267.581,253.791,248.321,255.007,264.402,275.249,286.567,293.284,300.57,313.003,331.604,355.749,384.109,414.462,439.066,449.683,446.819,440.144,434.7,437.038,437.038,477.147,477.147,477.147
0.000685529	-13686531.62	0,1.74972e-06,4.05454e-06,7.09056e-06,1.10898e-05,1.63577e-05,2.32969e-05,3.24375e-05,4.4478e-05,6.03383e-05,8.12302e-05,0.00010875,0.000145001,0.000192752,0.000255652,0.000338506,0.000447647,0.000591412,0.000780786,0.00103024,0.00135883,0.00179167,0.00236182,0.00311286,0.00410215,0.00540531,0.00712188,0.00938304,0.0123615,0.016285,0.0214531,0.0282608,inf	276.16,276.16,1267.48,155.501,223.612,285.683,308.899,283.404,252.918,226.43,213.531,221.066,232.355,246.048,260.142,264.324,268.627,281.286,304.059,335.97,375.406,420.395,459.622,478.44,475.281,465.991,458.634,468.561,468.561,581.594,581.594,581.594
0.000716037	-13685108.01	0,1.74972e-06,4.05454e-06,7.09056e-06,1.10898e-05,1.63577e-05,2.32969e-05,3.24375e-05,4.4478e-05,6.03383e-05,8.12302e-05,0.00010875,0.000145001,0.000192752,0.000255652,0.000338506,0.000447647,0.000591412,0.000780786,0.00103024,0.00135883,0.00179167,0.00236182,0.00311286,0.00410215,0.00540531,0.00712188,0.00938304,0.0123615,0.016285,0.0214531,0.0282608,inf	148.835,148.835,1430.47,105.256,202.882,292.628,331.059,297.774,257.226,220.69,202.511,211.606,224.623,240.936,257.252,257.633,257.228,267.609,290.876,325.558,369.877,422.62,470.775,495.516,493.081,483.508,476.598,498.499,498.499,751.515,751.515,751.515
0.000744384	-13684302.51	0,1.74972e-06,4.05454e-06,7.09056e-06,1.10898e-05,1.63577e-05,2.32969e-05,3.24375e-05,4.4478e-05,6.03383e-05,8.12302e-05,0.00010875,0.000145001,0.000192752,0.000255652,0.000338506,0.000447647,0.000591412,0.000780786,0.00103024,0.00135883,0.00179167,0.00236182,0.00311286,0.00410215,0.00540531,0.00712188,0.00938304,0.0123615,0.016285,0.0214531,0.0282608,inf	76.9071,76.9071,1494.61,71.7317,184.909,295.701,347.838,309.469,262.455,218.318,196.812,208.199,223.223,242.653,261.71,258.519,253.469,261.255,283.986,319.568,366.051,423.046,476.658,505.433,503.911,495.235,490.244,527.811,527.811,1125.62,1125.62,1125.62
0.000770934	-13683738.85	0,1.74972e-06,4.05454e-06,7.09056e-06,1.10898e-05,1.63577e-05,2.32969e-05,3.24375e-05,4.4478e-05,6.03383e-05,8.12302e-05,0.00010875,0.000145001,0.000192752,0.000255652,0.000338506,0.000447647,0.000591412,0.000780786,0.00103024,0.00135883,0.00179167,0.00236182,0.00311286,0.00410215,0.00540531,0.00712188,0.00938304,0.0123615,0.016285,0.0214531,0.0282608,inf	39.9488,39.9488,1514.51,49.665,169.782,295.46,358.493,316.652,265.719,215.717,192.202,206.1,223.087,245.907,268.193,261.974,252.804,258.286,280.3,316.04,363.391,422.728,479.627,510.987,510.213,502.943,500.755,557.273,557.273,2919.41,2919.41,2919.41
0.000770934	-13683294.51	0,1.74972e-06,4.05454e-06,7.09056e-06,1.10898e-05,1.63577e-05,2.32969e-05,3.24375e-05,4.4478e-05,6.03383e-05,8.12302e-05,0.00010875,0.000145001,0.000192752,0.000255652,0.000338506,0.000447647,0.000591412,0.000780786,0.00103024,0.00135883,0.00179167,0.00236182,0.00311286,0.00410215,0.00540531,0.00712188,0.00938304,0.0123615,0.016285,0.0214531,0.0282608,inf	20.9744,20.9744,1499.04,34.7161,156.052,290.75,361.217,317.258,264.57,210.41,185.953,202.08,220.542,246.473,271.99,263.426,250.94,254.599,275.859,311.202,358.39,418.483,476.954,510.112,510.494,505.319,506.93,585.883,585.883,59900.4,59900.4,59900.4
