0.000669652	-8571088.65	0,6.10641e-06,1.63924e-05,3.37187e-05,6.2904e-05,0.000112065,0.000194876,0.000334366,0.000569331,0.000965119,0.00163181,0.00275481,0.00464646,0.00783287,0.0132002,0.0222413,inf	378.216,378.216,296.604,291.644,248.866,266.802,278.644,290.076,312.014,354.664,418.044,452.186,447.464,493.402,493.402,493.402
0.000710943	-8568574.48	0,6.10641e-06,1.63924e-05,3.37187e-05,6.2904e-05,0.000112065,0.000194876,0.000334366,0.000569331,0.000965119,0.00163181,0.00275481,0.00464646,0.00783287,0.0132002,0.0222413,inf	405.045,405.045,294.655,293.716,214.894,241.37,253.59,261.274,283.303,336.636,424.918,478.352,477.298,613.407,613.407,613.407
0.000746688	-8567812.49	0,6.10641e-06,1.63924e-05,3.37187e-05,6.2904e-05,0.000112065,0.000194876,0.000334366,0.000569331,0.000965119,0.00163181,0.00275481,0.00464646,0.00783287,0.0132002,0.0222413,inf	413.877,413.877,298.721,308.976,201.772,238.299,251.23,253.801,272.036,327.885,426.927,490.059,495.319,796.466,796.466,796.466
0.000777796	-8567535.15	0,6.10641e-06,1.63924e-05,3.37187e-05,6.2904e-05,0.000112065,0.000194876,0.000334366,0.000569331,0.000965119,0.00163181,0.00275481,0.00464646,0.00783287,0.0132002,0.0222413,inf	410.252,410.252,297.85,321.525,192.804,240.047,254.929,253.293,267.511,323.402,427.109,493.713,505.544,1183.36,1183.36,1183.36
0.000805046	-8567489.21	0,6.10641e-06,1.63924e-05,3.37187e-05,6.2904e-05,0.000112065,0.000194876,0.000334366,0.000569331,0.000965119,0.00163181,0.00275481,0.00464646,0.00783287,0.0132002,0.0222413,inf	403.141,403.141,293.772,330.08,184.817,242.157,259.722,255.067,265.939,321.215,426.728,492.47,510.472,2965.88,2965.88,2965.88
0.000805046	-8567640.78	0,6.10641e-06,1.63924e-05,3.37187e-05,6.2904e-05,0.000112065,0.000194876,0.000334366,0.000569331,0.000965119,0.00163181,0.00275481,0.00464646,0.00783287,0.0132002,0.0222413,inf	393.716,393.716,286.827,333.667,176.279,242.016,262.323,255.774,264.179,318.247,421.773,483.761,509.438,50226.7,50226.7,50226.7
0.000805046	-8567901.96	0,6.10641e-06,1.63924e-05,3.37187e-05,6.2904e-05,0.000112065,0.000194876,0.000334366,0.000569331,0.000965119,0.00163181,0.00275481,0.00464646,0.00783287,0.0132002,0.0222413,inf	391.482,391.482,282.458,337.416,169.158,241.834,264.611,255.97,263.87,317.643,419.997,476.173,508.972,50228,50228,50228
0.000805046	-8567886.38	0,6.10641e-06,1.63924e-05,3.37187e-05,6.2904e-05,0.000112065,0.000194876,0.000334366,0.000569331,0.000965119,0.00163181,0.00275481,0.00464646,0.00783287,0.0132002,0.0222413,inf	391.19,391.19,279.173,339.501,163.143,241.613,266.355,256.27,263.87,317.643,419.997,470.599,509.095,50228.7,50228.7,50228.7
0.000805046	-8567879.22	0,6.10641e-06,1.63924e-05,3.37187e-05,6.2904e-05,0.000112065,0.000194876,0.000334366,0.000569331,0.000965119,0.00163181,0.00275481,0.00464646,0.00783287,0.0132002,0.0222413,inf	391.19,391.19,276.924,340.838,158.152,241.458,267.64,256.607,263.87,317.643,419.997,466.342,509.617,50229.2,50229.2,50229.2
0.000805046	-8567876.96	0,6.10641e-06,1.63924e-05,3.37187e-05,6.2904e-05,0.000112065,0.000194876,0.000334366,0.000569331,0.000965119,0.00163181,0.00275481,0.00464646,0.00783287,0.0132002,0.0222413,inf	391.196,391.196,275.49,341.69,154.011,241.396,268.566,256.946,263.87,317.643,419.997,463.084,509.617,50229.6,50229.6,50229.6
0.000805046	-8567874.59	0,6.10641e-06,1.63924e-05,3.37187e-05,6.2904e-05,0.000112065,0.000194876,0.000334366,0.000569331,0.000965119,0.00163181,0.00275481,0.00464646,0.00783287,0.0132002,0.0222413,inf	391.196,391.196,274.689,342.166,150.566,241.426,269.209,257.274,263.847,317.657,419.997,460.595,509.617,50229.9,50229.9,50229.9
0.000805046	-8567873.33	0,6.10641e-06,1.63924e-05,3.37187e-05,6.2904e-05,0.000112065,0.000194876,0.000334366,0.000569331,0.000965119,0.00163181,0.00275481,0.00464646,0.00783287,0.0132002,0.0222413,inf	391.196,391.196,274.356,342.364,147.694,241.545,269.636,257.579,263.803,317.683,419.997,458.642,510.749,50229.9,50229.9,50229.9
0.000805046	-8567876.84	0,6.10641e-06,1.63924e-05,3.37187e-05,6.2904e-05,0.000112065,0.000194876,0.000334366,0.000569331,0.000965119,0.00163181,0.00275481,0.00464646,0.00783287,0.0132002,0.0222413,inf	391.197,391.197,274.356,342.365,145.293,241.745,269.903,257.821,263.744,317.728,419.997,457.075,511.656,50229.9,50229.9,50229.9
0.000805046	-8567879.81	0,6.10641e-06,1.63924e-05,3.37187e-05,6.2904e-05,0.000112065,0.000194876,0.000334366,0.000569331,0.000965119,0.00163181,0.00275481,0.00464646,0.00783287,0.0132002,0.0222413,inf	391.198,391.198,274.356,342.365,143.279,242.015,270.056,257.982,263.675,317.796,419.997,455.814,512.386,50229.9,50229.9,50229.9
0.000805046	-8567882.27	0,6.10641e-06,1.63924e-05,3.37187e-05,6.2904e-05,0.000112065,0.000194876,0.000334366,0.000569331,0.000965119,0.00163181,0.00275481,0.00464646,0.00783287,0.0132002,0.0222413,inf	391.198,391.198,274.357,342.365,141.571,242.338,270.133,258.091,263.6,317.872,419.997,454.799,512.989,50229.9,50229.9,50229.9
0.000805046	-8567884.36	0,6.10641e-06,1.63924e-05,3.37187e-05,6.2904e-05,0.000112065,0.000194876,0.000334366,0.000569331,0.000965119,0.00163181,0.00275481,0.00464646,0.00783287,0.0132002,0.0222413,inf	391.198,391.198,274.357,342.365,140.114,242.697,270.158,258.168,263.523,317.948,419.997,453.999,512.989,50230,50230,50230
0.000805046	-8567884.33	0,6.10641e-06,1.63924e-05,3.37187e-05,6.2904e-05,0.000112065,0.000194876,0.000334366,0.000569331,0.000965119,0.00163181,0.00275481,0.00464646,0.00783287,0.0132002,0.0222413,inf	391.2,391.2,274.357,342.365,138.856,243.077,270.146,258.168,263.444,318.043,419.997,453.38,513.357,50230,50230,50230
0.000805046	-8567885.63	0,6.10641e-06,1.63924e-05,3.37187e-05,6.2904e-05,0.000112065,0.000194876,0.000334366,0.000569331,0.000965119,0.00163181,0.00275481,0.00464646,0.00783287,0.0132002,0.0222413,inf	391.2,391.2,274.357,342.365,137.764,243.077,270.116,258.22,263.368,318.157,419.997,452.874,513.657,50230,50230,50230
0.000805046	-8567886.71	0,6.10641e-06,1.63924e-05,3.37187e-05,6.2904e-05,0.000112065,0.000194876,0.000334366,0.000569331,0.000965119,0.00163181,0.00275481,0.00464646,0.00783287,0.0132002,0.0222413,inf	391.2,391.2,274.358,342.365,136.863,243.573,270.105,258.22,263.288,318.211,419.997,452.46,513.902,50230,50230,50230
0.000805046	-8567887.61	0,6.10641e-06,1.63924e-05,3.37187e-05,6.2904e-05,0.000112065,0.000194876,0.000334366,0.000569331,0.000965119,0.00163181,0.00275481,0.00464646,0.00783287,0.0132002,0.0222413,inf	391.2,391.2,274.358,342.365,136.046,244.026,270.069,258.252,263.218,318.253,419.997,452.123,514.103,50230,50230,50230
