time_index	left_time_boundary	right_time_boundary	lambda
0	0	1.49426e-06	1.09337
1	1.49426e-06	4.08702e-06	1.09337
2	4.08702e-06	8.58583e-06	16.0778
3	8.58583e-06	1.63919e-05	297.037
4	1.63919e-05	2.99366e-05	103.575
5	2.99366e-05	5.34385e-05	158.993
6	5.34385e-05	9.42178e-05	304.081
7	9.42178e-05	0.000164976	221.667
8	0.000164976	0.000287751	230.271
9	0.000287751	0.000500784	313.409
10	0.000500784	0.000870426	1187.22
11	0.000870426	0.00151181	3243.33
12	0.00151181	0.0026247	2036.01
13	0.0026247	0.00455573	1385.79
14	0.00455573	0.00790633	1385.79
15	0.00790633	inf	1385.79
