time_index	left_time_boundary	right_time_boundary	lambda
0	0	3.44993e-05	30.0242
1	3.44993e-05	8.17052e-05	30.0242
2	8.17052e-05	0.000146298	320.352
3	0.000146298	0.000234681	145.273
4	0.000234681	0.000355617	159.442
5	0.000355617	0.000521095	305.759
6	0.000521095	0.000747521	877.857
7	0.000747521	0.00105734	2814.08
8	0.00105734	0.00148128	2325.43
9	0.00148128	0.00206135	2411.4
10	0.00206135	0.00285508	3047.25
11	0.00285508	0.00394115	2562.82
12	0.00394115	0.00542723	1719.22
13	0.00542723	0.00746066	1122.37
14	0.00746066	0.010243	1122.37
15	0.010243	inf	1122.37
