0.000238444	-136548.71	0,3.44993e-05,8.17052e-05,0.000146298,0.000234681,0.000355617,0.000521095,0.000747521,0.00105734,0.00148128,0.00206135,0.00285508,0.00394115,0.00542723,0.00746066,0.010243,inf	199.227,199.227,315.554,416.251,568.388,818.477,1228.95,1635.06,1570.08,1449.6,1373.32,1277.07,1179.17,1077.86,1077.86,1077.86
0.000248322	-136253.88	0,3.44993e-05,8.17052e-05,0.000146298,0.000234681,0.000355617,0.000521095,0.000747521,0.00105734,0.00148128,0.00206135,0.00285508,0.00394115,0.00542723,0.00746066,0.010243,inf	92.34,92.34,175.767,242.686,382.717,662.777,1216.2,1982.93,1914.14,1756.52,1658.58,1473.5,1276.97,1083.45,1083.45,1083.45
0.000257609	-136155.97	0,3.44993e-05,8.17052e-05,0.000146298,0.000234681,0.000355617,0.000521095,0.000747521,0.00105734,0.00148128,0.00206135,0.00285508,0.00394115,0.00542723,0.00746066,0.010243,inf	71.4075,71.4075,141.761,177.567,293.199,564.753,1167.07,2190.39,2124.49,1983,1913.92,1654.19,1364.52,1092.46,1092.46,1092.46
0.000265857	-136114.24	0,3.44993e-05,8.17052e-05,0.000146298,0.000234681,0.000355617,0.000521095,0.000747521,0.00105734,0.00148128,0.00206135,0.00285508,0.00394115,0.00542723,0.00746066,0.010243,inf	69.6382,69.6382,138.997,149.492,244.487,500.556,1118.07,2320.76,2247.66,2144.16,2139.09,1819.33,1443.06,1104.6,1104.6,1104.6
0.000273287	-136093.17	0,3.44993e-05,8.17052e-05,0.000146298,0.000234681,0.000355617,0.000521095,0.000747521,0.00105734,0.00148128,0.00206135,0.00285508,0.00394115,0.00542723,0.00746066,0.010243,inf	73.0931,73.0931,148.573,136.662,215.644,456.53,1076.5,2408.64,2317.62,2256.33,2335.13,1968.64,1512.38,1117.79,1117.79,1117.79
0.000280142	-136081.13	0,3.44993e-05,8.17052e-05,0.000146298,0.000234681,0.000355617,0.000521095,0.000747521,0.00105734,0.00148128,0.00206135,0.00285508,0.00394115,0.00542723,0.00746066,0.010243,inf	76.881,76.881,163.588,130.881,197.435,425.035,1042.59,2472.31,2355.67,2332.84,2503.24,2101.46,1571.99,1130.33,1130.33,1130.33
0.000286599	-136073.60	0,3.44993e-05,8.17052e-05,0.000146298,0.000234681,0.000355617,0.000521095,0.000747521,0.00105734,0.00148128,0.00206135,0.00285508,0.00394115,0.00542723,0.00746066,0.010243,inf	78.9857,78.9857,180.763,128.612,185.366,401.661,1015.05,2521.58,2374.64,2383.76,2644.78,2217.23,1621.7,1141.06,1141.06,1141.06
0.000292773	-136068.55	0,3.44993e-05,8.17052e-05,0.000146298,0.000234681,0.000355617,0.000521095,0.000747521,0.00105734,0.00148128,0.00206135,0.00285508,0.00394115,0.00542723,0.00746066,0.010243,inf	78.8511,78.8511,198.322,128.178,177.073,383.76,992.525,2561.85,2382.24,2416.46,2761.46,2315.74,1661.75,1149.48,1149.48,1149.48
0.000298739	-136064.96	0,3.44993e-05,8.17052e-05,0.000146298,0.000234681,0.000355617,0.000521095,0.000747521,0.00105734,0.00148128,0.00206135,0.00285508,0.00394115,0.00542723,0.00746066,0.010243,inf	76.6977,76.6977,215.27,128.732,171.23,369.674,973.874,2596.16,2383.14,2436.31,2855.35,2397.25,1692.84,1155.39,1155.39,1155.39
0.000304545	-136062.30	0,3.44993e-05,8.17052e-05,0.000146298,0.000234681,0.000355617,0.000521095,0.000747521,0.00105734,0.00148128,0.00206135,0.00285508,0.00394115,0.00542723,0.00746066,0.010243,inf	73.0559,73.0559,231.094,129.823,167.053,358.328,958.227,2626.27,2380.19,2447.15,2928.83,2462.58,1715.84,1158.89,1158.89,1158.89
0.000310221	-136060.24	0,3.44993e-05,8.17052e-05,0.000146298,0.000234681,0.000355617,0.000521095,0.000747521,0.00105734,0.00148128,0.00206135,0.00285508,0.00394115,0.00542723,0.00746066,0.010243,inf	68.4776,68.4776,245.545,131.2,164.052,349.002,944.924,2653.24,2375.12,2451.78,2984.46,2512.95,1731.86,1160.15,1160.15,1160.15
0.000315787	-136058.60	0,3.44993e-05,8.17052e-05,0.000146298,0.000234681,0.000355617,0.000521095,0.000747521,0.00105734,0.00148128,0.00206135,0.00285508,0.00394115,0.00542723,0.00746066,0.010243,inf	63.4328,63.4328,258.556,132.725,161.91,341.196,933.468,2677.68,2369.02,2452.18,3024.84,2549.93,1742.09,1159.55,1159.55,1159.55
0.000321257	-136057.24	0,3.44993e-05,8.17052e-05,0.000146298,0.000234681,0.000355617,0.000521095,0.000747521,0.00105734,0.00148128,0.00206135,0.00285508,0.00394115,0.00542723,0.00746066,0.010243,inf	58.2714,58.2714,270.151,134.316,160.412,334.557,923.487,2700.03,2362.53,2449.78,3052.44,2575.29,1747.54,1157.44,1157.44,1157.44
0.000326638	-136056.10	0,3.44993e-05,8.17052e-05,0.000146298,0.000234681,0.000355617,0.000521095,0.000747521,0.00105734,0.00148128,0.00206135,0.00285508,0.00394115,0.00542723,0.00746066,0.010243,inf	53.2323,53.2323,280.41,135.929,159.41,328.832,914.697,2720.56,2356.07,2445.6,3069.56,2590.84,1749.25,1154.24,1154.24,1154.24
0.000331937	-136055.11	0,3.44993e-05,8.17052e-05,0.000146298,0.000234681,0.000355617,0.000521095,0.000747521,0.00105734,0.00148128,0.00206135,0.00285508,0.00394115,0.00542723,0.00746066,0.010243,inf	48.4566,48.4566,289.443,137.54,158.799,323.831,906.886,2739.47,2349.86,2440.36,3078.23,2598.3,1748.05,1150.11,1150.11,1150.11
0.000337157	-136054.23	0,3.44993e-05,8.17052e-05,0.000146298,0.000234681,0.000355617,0.000521095,0.000747521,0.00105734,0.00148128,0.00206135,0.00285508,0.00394115,0.00542723,0.00746066,0.010243,inf	44.02,44.02,297.369,139.135,158.5,319.414,899.887,2756.9,2344.04,2434.57,3080.22,2599.25,1744.64,1145.25,1145.25,1145.25
0.000342302	-136053.45	0,3.44993e-05,8.17052e-05,0.000146298,0.000234681,0.000355617,0.000521095,0.000747521,0.00105734,0.00148128,0.00206135,0.00285508,0.00394115,0.00542723,0.00746066,0.010243,inf	39.9607,39.9607,304.316,140.707,158.455,315.473,893.575,2772.97,2338.68,2428.58,3077.01,2595.08,1739.65,1139.92,1139.92,1139.92
0.000347374	-136052.75	0,3.44993e-05,8.17052e-05,0.000146298,0.000234681,0.000355617,0.000521095,0.000747521,0.00105734,0.00148128,0.00206135,0.00285508,0.00394115,0.00542723,0.00746066,0.010243,inf	36.2864,36.2864,310.39,142.254,158.619,311.925,887.85,2787.8,2333.79,2422.62,3069.81,2586.99,1733.49,1134.17,1134.17,1134.17
0.000352374	-136052.10	0,3.44993e-05,8.17052e-05,0.000146298,0.000234681,0.000355617,0.000521095,0.000747521,0.00105734,0.00148128,0.00206135,0.00285508,0.00394115,0.00542723,0.00746066,0.010243,inf	32.9805,32.9805,315.703,143.777,158.958,308.705,882.631,2801.48,2329.38,2416.86,3059.62,2575.97,1726.6,1128.3,1128.3,1128.3
0.000357304	-136051.50	0,3.44993e-05,8.17052e-05,0.000146298,0.000234681,0.000355617,0.000521095,0.000747521,0.00105734,0.00148128,0.00206135,0.00285508,0.00394115,0.00542723,0.00746066,0.010243,inf	30.0242,30.0242,320.352,145.273,159.442,305.759,877.857,2814.08,2325.43,2411.4,3047.25,2562.82,1719.22,1122.37,1122.37,1122.37
