time_index	left_time_boundary	right_time_boundary	lambda
0	0	2.51719e-05	0.674362
1	2.51719e-05	5.46168e-05	0.674362
2	5.46168e-05	8.906e-05	0.674362
3	8.906e-05	0.00012935	0.674362
4	0.00012935	0.000176479	0.674362
5	0.000176479	0.000231608	8.67257
6	0.000231608	0.000296095	56.3074
7	0.000296095	0.00037153	203.095
8	0.00037153	0.000459769	486.092
9	0.000459769	0.000562986	869.865
10	0.000562986	0.000683725	1242.59
11	0.000683725	0.000824959	1443.12
12	0.000824959	0.000990168	1388.31
13	0.000990168	0.00118342	1172.64
14	0.00118342	0.00140948	930.091
15	0.00140948	0.00167391	728.668
16	0.00167391	0.00198323	583.748
17	0.00198323	0.00234505	489.365
18	0.00234505	0.0027683	435.507
19	0.0027683	0.00326339	411.902
20	0.00326339	0.00384252	408.78
21	0.00384252	0.00451996	418.323
22	0.00451996	0.00531239	436.373
23	0.00531239	0.00623934	463.012
24	0.00623934	0.00732364	498.556
25	0.00732364	0.008592	537.009
26	0.008592	0.0100757	565.665
27	0.0100757	0.0118112	574.444
28	0.0118112	0.0138413	574.444
29	0.0138413	0.016216	536.981
30	0.016216	0.0189939	536.981
31	0.0189939	inf	536.981
