0.000439933	-199974.23	0,2.51719e-05,5.46168e-05,8.906e-05,0.00012935,0.000176479,0.000231608,0.000296095,0.00037153,0.000459769,0.000562986,0.000683725,0.000824959,0.000990168,0.00118342,0.00140948,0.00167391,0.00198323,0.00234505,0.0027683,0.00326339,0.00384252,0.00451996,0.00531239,0.00623934,0.00732364,0.008592,0.0100757,0.0118112,0.0138413,0.016216,0.0189939,inf	51.6882,51.6882,105.049,153.82,207.348,266.892,334.374,411.82,500.027,596.6,693.015,772.798,818.746,825.808,802.668,763.687,721.595,684.149,655.324,636.278,625.799,621.608,622.007,627.096,637.517,651.296,663.809,674.024,674.024,701.644,701.644,701.644
0.000514973	-199691.26	0,2.51719e-05,5.46168e-05,8.906e-05,0.00012935,0.000176479,0.000231608,0.000296095,0.00037153,0.000459769,0.000562986,0.000683725,0.000824959,0.000990168,0.00118342,0.00140948,0.00167391,0.00198323,0.00234505,0.0027683,0.00326339,0.00384252,0.00451996,0.00531239,0.00623934,0.00732364,0.008592,0.0100757,0.0118112,0.0138413,0.016216,0.0189939,inf	5.64244,5.64244,23.2687,49.4316,88.2562,142.304,215.024,310.376,430.782,573.273,723.574,851.641,923.754,928.434,881.658,810.514,737.74,675.861,630.231,601.432,586.606,581.736,584.108,593.937,612.08,635.264,656.169,673.248,673.248,718.403,718.403,718.403
0.000591245	-199501.95	0,2.51719e-05,5.46168e-05,8.906e-05,0.00012935,0.000176479,0.000231608,0.000296095,0.00037153,0.000459769,0.000562986,0.000683725,0.000824959,0.000990168,0.00118342,0.00140948,0.00167391,0.00198323,0.00234505,0.0027683,0.00326339,0.00384252,0.00451996,0.00531239,0.00623934,0.00732364,0.008592,0.0100757,0.0118112,0.0138413,0.016216,0.0189939,inf	0.732864,0.732864,6.13111,18.7454,43.8249,87.1305,155.504,256.271,394.396,566.809,754.162,914.707,1000.99,997.574,928.527,831.962,737.606,660.276,605.192,571.746,555.604,551.546,556.282,570.093,593.843,623.411,649.855,671.263,671.263,726.22,726.22,726.22
0.000667682	-199351.92	0,2.51719e-05,5.46168e-05,8.906e-05,0.00012935,0.000176479,0.000231608,0.000296095,0.00037153,0.000459769,0.000562986,0.000683725,0.000824959,0.000990168,0.00118342,0.00140948,0.00167391,0.00198323,0.00234505,0.0027683,0.00326339,0.00384252,0.00451996,0.00531239,0.00623934,0.00732364,0.008592,0.0100757,0.0118112,0.0138413,0.016216,0.0189939,inf	0.674362,0.674362,1.8321,7.99535,24.2159,58.5693,121.447,224.172,374.709,569.912,785.399,968.762,1061.21,1046.08,956.449,839.734,730.115,643.002,582.699,547.283,531.235,528.526,535.526,552.534,580.33,614.237,644.289,668.219,668.219,727.379,727.379,727.379
0.000743802	-199226.23	0,2.51719e-05,5.46168e-05,8.906e-05,0.00012935,0.000176479,0.000231608,0.000296095,0.00037153,0.000459769,0.000562986,0.000683725,0.000824959,0.000990168,0.00118342,0.00140948,0.00167391,0.00198323,0.00234505,0.0027683,0.00326339,0.00384252,0.00451996,0.00531239,0.00623934,0.00732364,0.008592,0.0100757,0.0118112,0.0138413,0.016216,0.0189939,inf	0.674362,0.674362,0.674362,3.74273,14.5331,42.2316,100.295,204.152,364.915,579.177,817.387,1017.17,1110.35,1081.41,972.975,840.135,719.586,626.258,563.188,527.219,511.909,510.678,519.69,539.221,569.939,606.796,639.156,664.347,664.347,723.812,723.812,723.812
0.000819282	-199118.14	0,2.51719e-05,5.46168e-05,8.906e-05,0.00012935,0.000176479,0.000231608,0.000296095,0.00037153,0.000459769,0.000562986,0.000683725,0.000824959,0.000990168,0.00118342,0.00140948,0.00167391,0.00198323,0.00234505,0.0027683,0.00326339,0.00384252,0.00451996,0.00531239,0.00623934,0.00732364,0.008592,0.0100757,0.0118112,0.0138413,0.016216,0.0189939,inf	0.674362,0.674362,0.674362,1.89203,9.32268,32.1671,86.3771,191.368,361.36,592.431,849.696,1061.36,1151.5,1107.68,982.239,836.402,707.961,610.723,546.353,510.6,496.311,496.524,507.27,528.778,561.608,600.461,634.242,659.824,659.824,716.943,716.943,716.943
0.000893916	-199023.82	0,2.51719e-05,5.46168e-05,8.906e-05,0.00012935,0.000176479,0.000231608,0.000296095,0.00037153,0.000459769,0.000562986,0.000683725,0.000824959,0.000990168,0.00118342,0.00140948,0.00167391,0.00198323,0.00234505,0.0027683,0.00326339,0.00384252,0.00451996,0.00531239,0.00623934,0.00732364,0.008592,0.0100757,0.0118112,0.0138413,0.016216,0.0189939,inf	0.674362,0.674362,0.674362,1.00142,6.32312,25.6171,76.8771,183.311,362.098,608.501,882.16,1102.31,1186.74,1127.64,986.846,830.427,696.23,596.589,531.802,496.678,483.508,485.063,497.278,520.327,554.675,594.855,629.44,654.812,654.812,707.793,707.793,707.793
0.000967537	-198940.65	0,2.51719e-05,5.46168e-05,8.906e-05,0.00012935,0.000176479,0.000231608,0.000296095,0.00037153,0.000459769,0.000562986,0.000683725,0.000824959,0.000990168,0.00118342,0.00140948,0.00167391,0.00198323,0.00234505,0.0027683,0.00326339,0.00384252,0.00451996,0.00531239,0.00623934,0.00732364,0.008592,0.0100757,0.0118112,0.0138413,0.016216,0.0189939,inf	0.674362,0.674362,0.674362,0.674362,4.49522,21.1573,70.2114,178.449,365.816,626.453,914.412,1140.42,1217.22,1142.83,988.25,823.169,684.779,583.754,519.107,484.835,472.796,475.568,489.016,513.26,548.687,589.715,624.671,649.417,649.417,697.065,697.065,697.065
0.00104002	-198866.78	0,2.51719e-05,5.46168e-05,8.906e-05,0.00012935,0.000176479,0.000231608,0.000296095,0.00037153,0.000459769,0.000562986,0.000683725,0.000824959,0.000990168,0.00118342,0.00140948,0.00167391,0.00198323,0.00234505,0.0027683,0.00326339,0.00384252,0.00451996,0.00531239,0.00623934,0.00732364,0.008592,0.0100757,0.0118112,0.0138413,0.016216,0.0189939,inf	0.674362,0.674362,0.674362,0.674362,3.32658,18.0073,65.4512,175.837,371.661,645.649,946.195,1175.94,1243.72,1154.35,987.398,815.199,673.772,572.072,507.917,474.612,463.671,467.532,482.009,507.17,543.346,584.873,619.89,643.722,643.722,685.251,685.251,685.251
0.00111127	-198800.78	0,2.51719e-05,5.46168e-05,8.906e-05,0.00012935,0.000176479,0.000231608,0.000296095,0.00037153,0.000459769,0.000562986,0.000683725,0.000824959,0.000990168,0.00118342,0.00140948,0.00167391,0.00198323,0.00234505,0.0027683,0.00326339,0.00384252,0.00451996,0.00531239,0.00623934,0.00732364,0.008592,0.0100757,0.0118112,0.0138413,0.016216,0.0189939,inf	0.674362,0.674362,0.674362,0.674362,2.54813,15.7154,62.0218,174.864,379.057,665.647,977.333,1209.07,1266.88,1162.98,984.931,806.866,663.274,561.397,497.957,465.669,455.771,460.598,475.924,501.779,538.452,580.222,615.075,637.792,637.792,672.699,672.699,672.699
0.00118124	-198741.51	0,2.51719e-05,5.46168e-05,8.906e-05,0.00012935,0.000176479,0.000231608,0.000296095,0.00037153,0.000459769,0.000562986,0.000683725,0.000824959,0.000990168,0.00118342,0.00140948,0.00167391,0.00198323,0.00234505,0.0027683,0.00326339,0.00384252,0.00451996,0.00531239,0.00623934,0.00732364,0.008592,0.0100757,0.0118112,0.0138413,0.016216,0.0189939,inf	0.674362,0.674362,0.674362,0.674362,2.01119,14.0075,59.555,175.118,387.607,686.14,1007.71,1240.02,1287.15,1169.29,981.303,798.391,653.3,551.599,489.015,457.754,448.83,454.508,470.531,496.897,533.873,575.693,610.216,631.685,631.685,659.65,659.65,659.65
0.00124989	-198688.04	0,2.51719e-05,5.46168e-05,8.906e-05,0.00012935,0.000176479,0.000231608,0.000296095,0.00037153,0.000459769,0.000562986,0.000683725,0.000824959,0.000990168,0.00118342,0.00140948,0.00167391,0.00198323,0.00234505,0.0027683,0.00326339,0.00384252,0.00451996,0.00531239,0.00623934,0.00732364,0.008592,0.0100757,0.0118112,0.0138413,0.016216,0.0189939,inf	0.674362,0.674362,0.674362,0.674362,1.62939,12.7094,57.8031,176.312,397.021,706.904,1037.27,1268.94,1304.95,1173.74,976.836,789.919,643.84,542.567,480.923,450.674,442.655,449.076,465.664,492.393,529.519,571.242,605.316,625.446,625.446,646.277,646.277,646.277
0.0013172	-198639.64	0,2.51719e-05,5.46168e-05,8.906e-05,0.00012935,0.000176479,0.000231608,0.000296095,0.00037153,0.000459769,0.000562986,0.000683725,0.000824959,0.000990168,0.00118342,0.00140948,0.00167391,0.00198323,0.00234505,0.0027683,0.00326339,0.00384252,0.00451996,0.00531239,0.00623934,0.00732364,0.008592,0.0100757,0.0118112,0.0138413,0.016216,0.0189939,inf	0.674362,0.674362,0.674362,0.674362,1.35061,11.7074,56.5958,178.24,407.088,727.775,1065.96,1295.98,1320.59,1176.68,971.769,781.542,634.873,534.208,473.552,444.285,437.099,444.167,461.204,488.175,525.332,566.845,600.38,619.114,619.114,632.709,632.709,632.709
0.00138317	-198595.65	0,2.51719e-05,5.46168e-05,8.906e-05,0.00012935,0.000176479,0.000231608,0.000296095,0.00037153,0.000459769,0.000562986,0.000683725,0.000824959,0.000990168,0.00118342,0.00140948,0.00167391,0.00198323,0.00234505,0.0027683,0.00326339,0.00384252,0.00451996,0.00531239,0.00623934,0.00732364,0.008592,0.0100757,0.0118112,0.0138413,0.016216,0.0189939,inf	0.674362,0.674362,0.674362,0.674362,1.12759,10.9244,55.8116,180.749,417.648,748.634,1093.77,1321.28,1334.35,1178.39,966.28,773.321,626.375,526.446,466.798,438.475,432.053,439.678,457.066,484.179,521.27,562.488,595.416,612.723,612.723,619.027,619.027,619.027
0.0014478	-198555.56	0,2.51719e-05,5.46168e-05,8.906e-05,0.00012935,0.000176479,0.000231608,0.000296095,0.00037153,0.000459769,0.000562986,0.000683725,0.000824959,0.000990168,0.00118342,0.00140948,0.00167391,0.00198323,0.00234505,0.0027683,0.00326339,0.00384252,0.00451996,0.00531239,0.00623934,0.00732364,0.008592,0.0100757,0.0118112,0.0138413,0.016216,0.0189939,inf	0.674362,0.674362,0.674362,0.674362,0.958906,10.3069,55.3618,183.725,428.579,769.393,1120.7,1344.97,1346.46,1179.08,960.501,765.295,618.317,519.216,460.578,433.157,427.43,435.533,453.186,480.357,517.308,558.162,590.437,606.3,606.3,605.3,605.3,605.3
0.00151112	-198518.91	0,2.51719e-05,5.46168e-05,8.906e-05,0.00012935,0.000176479,0.000231608,0.000296095,0.00037153,0.000459769,0.000562986,0.000683725,0.000824959,0.000990168,0.00118342,0.00140948,0.00167391,0.00198323,0.00234505,0.0027683,0.00326339,0.00384252,0.00451996,0.00531239,0.00623934,0.00732364,0.008592,0.0100757,0.0118112,0.0138413,0.016216,0.0189939,inf	0.674362,0.674362,0.674362,0.674362,0.828967,9.81673,55.1812,187.079,439.787,789.985,1146.75,1367.17,1357.11,1178.94,954.534,757.491,610.673,512.462,454.825,428.259,423.165,431.673,449.517,476.679,513.429,553.866,585.452,599.87,599.87,591.567,591.567,591.567
0.00157314	-198485.30	0,2.51719e-05,5.46168e-05,8.906e-05,0.00012935,0.000176479,0.000231608,0.000296095,0.00037153,0.000459769,0.000562986,0.000683725,0.000824959,0.000990168,0.00118342,0.00140948,0.00167391,0.00198323,0.00234505,0.0027683,0.00326339,0.00384252,0.00451996,0.00531239,0.00623934,0.00732364,0.008592,0.0100757,0.0118112,0.0138413,0.016216,0.0189939,inf	0.674362,0.674362,0.674362,0.674362,0.727031,9.42618,55.2199,190.743,451.197,810.36,1171.95,1387.99,1366.49,1178.12,948.458,749.921,603.418,506.137,449.484,423.727,419.205,428.054,446.025,473.12,509.619,549.601,580.473,593.453,593.453,577.856,577.856,577.856
0.0016339	-198454.41	0,2.51719e-05,5.46168e-05,8.906e-05,0.00012935,0.000176479,0.000231608,0.000296095,0.00037153,0.000459769,0.000562986,0.000683725,0.000824959,0.000990168,0.00118342,0.00140948,0.00167391,0.00198323,0.00234505,0.0027683,0.00326339,0.00384252,0.00451996,0.00531239,0.00623934,0.00732364,0.008592,0.0100757,0.0118112,0.0138413,0.016216,0.0189939,inf	0.674362,0.674362,0.674362,0.674362,0.674362,9.115,55.4398,194.662,462.748,830.483,1196.3,1407.53,1374.73,1176.73,942.33,742.593,596.528,500.202,444.509,419.513,415.509,424.64,442.683,469.663,505.873,545.367,575.509,587.067,587.067,564.185,564.185,564.185
0.00169342	-198425.95	0,2.51719e-05,5.46168e-05,8.906e-05,0.00012935,0.000176479,0.000231608,0.000296095,0.00037153,0.000459769,0.000562986,0.000683725,0.000824959,0.000990168,0.00118342,0.00140948,0.00167391,0.00198323,0.00234505,0.0027683,0.00326339,0.00384252,0.00451996,0.00531239,0.00623934,0.00732364,0.008592,0.0100757,0.0118112,0.0138413,0.016216,0.0189939,inf	0.674362,0.674362,0.674362,0.674362,0.674362,8.86777,55.8102,198.792,474.393,850.324,1219.84,1425.88,1381.97,1174.88,936.196,735.509,589.978,494.621,439.861,415.582,412.043,421.404,439.471,466.296,502.186,541.169,570.57,580.726,580.726,550.559,550.559,550.559
0.00175173	-198399.67	0,2.51719e-05,5.46168e-05,8.906e-05,0.00012935,0.000176479,0.000231608,0.000296095,0.00037153,0.000459769,0.000562986,0.000683725,0.000824959,0.000990168,0.00118342,0.00140948,0.00167391,0.00198323,0.00234505,0.0027683,0.00326339,0.00384252,0.00451996,0.00531239,0.00623934,0.00732364,0.008592,0.0100757,0.0118112,0.0138413,0.016216,0.0189939,inf	0.674362,0.674362,0.674362,0.674362,0.674362,8.67257,56.3074,203.095,486.092,869.865,1242.59,1443.12,1388.31,1172.64,930.091,728.668,583.748,489.365,435.507,411.902,408.78,418.323,436.373,463.012,498.556,537.009,565.665,574.444,574.444,536.981,536.981,536.981
