time_index	left_time_boundary	right_time_boundary	lambda
0	0	4.08709e-06	449.683
1	4.08709e-06	9.37349e-06	449.683
2	9.37349e-06	1.62111e-05	449.683
3	1.62111e-05	2.50552e-05	449.683
4	2.50552e-05	3.64944e-05	449.683
5	3.64944e-05	5.12904e-05	449.683
6	5.12904e-05	7.04281e-05	449.683
7	7.04281e-05	9.51815e-05	449.683
8	9.51815e-05	0.000127199	449.683
9	0.000127199	0.000168611	449.683
10	0.000168611	0.000222175	449.683
11	0.000222175	0.000291456	449.683
12	0.000291456	0.000381068	449.683
13	0.000381068	0.000496975	449.683
14	0.000496975	0.000646894	449.683
15	0.000646894	0.000840805	449.683
16	0.000840805	0.00109162	449.683
17	0.00109162	0.00141603	449.683
18	0.00141603	0.00183563	449.683
19	0.00183563	0.00237836	449.683
20	0.00237836	0.00308035	449.683
21	0.00308035	0.00398833	449.683
22	0.00398833	0.00516275	449.683
23	0.00516275	0.00668179	449.683
24	0.00668179	0.00864657	449.683
25	0.00864657	0.0111879	449.683
26	0.0111879	0.014475	449.683
27	0.014475	0.0187265	449.683
28	0.0187265	0.0242257	449.683
29	0.0242257	inf	449.683
