AIC = 2363876.1925778775476

y0 2.0249630132187044218
y0_prime 0
y1 0.38720126439881241698
y1_prime 0
y2 0.74697336759013910346
y2_prime 0
y3 4.3592128491588981731
y3_prime 0
rho 0.0013119593257830022663
theta 0.0048603731795382265971
