AIC = 1225124.2826485270634

y0 0.99253992638639754187
y0_prime 0
y1 1.0556552943286294788
y1_prime 0
y2 0.89248370862150938621
y2_prime 0
y3 1.7563809489300452604
y3_prime 0
rho 0.0028447328674232946408
theta 0.0050121120123381227018
