time_index	left_time_boundary	right_time_boundary	lambda
0	0	1.23137e-05	1281.1
1	1.23137e-05	3.22624e-05	1281.1
2	3.22624e-05	6.45798e-05	622.716
3	6.45798e-05	0.000116935	0.335686
4	0.000116935	0.000201752	0.335686
5	0.000201752	0.000339159	11.4372
6	0.000339159	0.000561761	317.203
7	0.000561761	0.000922385	128.088
8	0.000922385	0.00150661	70.8523
9	0.00150661	0.00245306	186.16
10	0.00245306	0.00398635	564.519
11	0.00398635	0.00647033	608.651
12	0.00647033	0.0104945	448.806
13	0.0104945	0.0170137	351.883
14	0.0170137	0.027575	351.883
15	0.027575	inf	351.883
