0.00079918	-16732704.15	0,2.17943e-06,5.05028e-06,8.8319e-06,1.38132e-05,2.03749e-05,2.90182e-05,4.04036e-05,5.54011e-05,7.51564e-05,0.000101179,0.000135457,0.000180611,0.000240089,0.000318436,0.000421638,0.000557582,0.000736654,0.000972535,0.00128325,0.00169254,0.00223167,0.00294185,0.00387733,0.00510958,0.00673277,0.00887091,0.0116874,0.0153974,0.0202843,0.0267217,0.0352013,inf	17.0181,17.0181,66.0671,150.874,247.071,325.9,303.417,209.486,126.862,100.06,100.679,109.978,108.161,112.784,129.248,151.365,172.931,193.353,218.259,254.333,307.408,376.468,432.241,436.314,412.174,386.759,367.71,354.997,354.997,358.467,358.467,358.467
0.00083451	-16710195.05	0,2.17943e-06,5.05028e-06,8.8319e-06,1.38132e-05,2.03749e-05,2.90182e-05,4.04036e-05,5.54011e-05,7.51564e-05,0.000101179,0.000135457,0.000180611,0.000240089,0.000318436,0.000421638,0.000557582,0.000736654,0.000972535,0.00128325,0.00169254,0.00223167,0.00294185,0.00387733,0.00510958,0.00673277,0.00887091,0.0116874,0.0153974,0.0202843,0.0267217,0.0352013,inf	1.20312,1.20312,17.4851,88.9013,235.895,418.065,396.036,224.263,90.3103,58.7557,61.1189,75.6146,65.3548,64.4789,80.9604,106.516,130.113,149.491,175.022,217.786,288.619,394.56,500.41,520.74,482.478,436.614,401.263,379.231,379.231,394.918,394.918,394.918
0.000867005	-16702236.97	0,2.17943e-06,5.05028e-06,8.8319e-06,1.38132e-05,2.03749e-05,2.90182e-05,4.04036e-05,5.54011e-05,7.51564e-05,0.000101179,0.000135457,0.000180611,0.000240089,0.000318436,0.000421638,0.000557582,0.000736654,0.000972535,0.00128325,0.00169254,0.00223167,0.00294185,0.00387733,0.00510958,0.00673277,0.00887091,0.0116874,0.0153974,0.0202843,0.0267217,0.0352013,inf	0.323492,0.323492,4.36334,47.8573,203.906,488.74,489.296,246.258,74.3724,43.7766,49.5001,71.4314,52.7226,47.4596,63.8119,92.1185,115.963,130.876,152.455,195.028,272.33,398.162,541.854,581.216,535.797,474.029,425.254,397.108,397.108,433.631,433.631,433.631
0.000895965	-16698698.65	0,2.17943e-06,5.05028e-06,8.8319e-06,1.38132e-05,2.03749e-05,2.90182e-05,4.04036e-05,5.54011e-05,7.51564e-05,0.000101179,0.000135457,0.000180611,0.000240089,0.000318436,0.000421638,0.000557582,0.000736654,0.000972535,0.00128325,0.00169254,0.00223167,0.00294185,0.00387733,0.00510958,0.00673277,0.00887091,0.0116874,0.0153974,0.0202843,0.0267217,0.0352013,inf	0.323478,0.323478,1.02663,23.8067,161.809,523.763,560.063,259.14,63.2155,35.592,44.8712,76.0068,48.2598,39.6352,56.6629,88.7397,113.135,122.834,139.473,179.878,259.313,396.265,567.401,624.525,575.829,501.559,441.789,410.1,410.1,476.169,476.169,476.169
0.000922107	-16696838.08	0,2.17943e-06,5.05028e-06,8.8319e-06,1.38132e-05,2.03749e-05,2.90182e-05,4.04036e-05,5.54011e-05,7.51564e-05,0.000101179,0.000135457,0.000180611,0.000240089,0.000318436,0.000421638,0.000557582,0.000736654,0.000972535,0.00128325,0.00169254,0.00223167,0.00294185,0.00387733,0.00510958,0.00673277,0.00887091,0.0116874,0.0153974,0.0202843,0.0267217,0.0352013,inf	0.323478,0.323478,0.323484,11.3799,122.747,534.124,609.887,263.144,54.0268,29.9195,42.2944,83.5467,46.3069,35.1002,53.3142,90.0967,115.565,119.881,131.542,169.298,249.074,392.486,583.496,655.913,605.908,521.571,452.748,419.461,419.461,524.629,524.629,524.629
0.000946171	-16695717.23	0,2.17943e-06,5.05028e-06,8.8319e-06,1.38132e-05,2.03749e-05,2.90182e-05,4.04036e-05,5.54011e-05,7.51564e-05,0.000101179,0.000135457,0.000180611,0.000240089,0.000318436,0.000421638,0.000557582,0.000736654,0.000972535,0.00128325,0.00169254,0.00223167,0.00294185,0.00387733,0.00510958,0.00673277,0.00887091,0.0116874,0.0153974,0.0202843,0.0267217,0.0352013,inf	0.323478,0.323478,0.323483,5.36154,91.3815,531.602,645.408,261.232,46.2211,25.5093,40.2846,91.7629,44.9833,31.8678,51.4644,93.5654,120.573,119.533,126.471,161.621,240.995,388.291,593.845,678.994,628.6,535.959,459.618,426.144,426.144,582.13,582.13,582.13
0.000968707	-16694965.46	0,2.17943e-06,5.05028e-06,8.8319e-06,1.38132e-05,2.03749e-05,2.90182e-05,4.04036e-05,5.54011e-05,7.51564e-05,0.000101179,0.000135457,0.000180611,0.000240089,0.000318436,0.000421638,0.000557582,0.000736654,0.000972535,0.00128325,0.00169254,0.00223167,0.00294185,0.00387733,0.00510958,0.00673277,0.00887091,0.0116874,0.0153974,0.0202843,0.0267217,0.0352013,inf	0.323478,0.323478,0.323478,2.52435,67.6791,523.459,672.178,255.875,39.6112,21.9249,38.404,99.6564,43.6368,29.1962,50.154,97.8708,126.79,120.534,123.106,155.871,234.566,384.27,600.614,696.202,645.803,546.163,463.519,430.85,430.85,654.07,654.07,654.07
0.000990103	-16694418.12	0,2.17943e-06,5.05028e-06,8.8319e-06,1.38132e-05,2.03749e-05,2.90182e-05,4.04036e-05,5.54011e-05,7.51564e-05,0.000101179,0.000135457,0.000180611,0.000240089,0.000318436,0.000421638,0.000557582,0.000736654,0.000972535,0.00128325,0.00169254,0.00223167,0.00294185,0.00387733,0.00510958,0.00673277,0.00887091,0.0116874,0.0153974,0.0202843,0.0267217,0.0352013,inf	0.323478,0.323478,0.323478,1.19315,50.1822,513.42,693.655,248.674,34.0584,18.9697,36.564,106.853,42.0894,26.8107,48.9776,102.352,133.465,122.209,120.797,151.45,229.401,380.643,605.1,709.186,658.895,553.26,465.283,434.097,434.097,751.57,751.57,751.57
0.00101062	-16693994.23	0,2.17943e-06,5.05028e-06,8.8319e-06,1.38132e-05,2.03749e-05,2.90182e-05,4.04036e-05,5.54011e-05,7.51564e-05,0.000101179,0.000135457,0.000180611,0.000240089,0.000318436,0.000421638,0.000557582,0.000736654,0.000972535,0.00128325,0.00169254,0.00223167,0.00294185,0.00387733,0.00510958,0.00673277,0.00887091,0.0116874,0.0153974,0.0202843,0.0267217,0.0352013,inf	0.323478,0.323478,0.323478,0.565841,37.3451,503.148,711.746,240.564,29.4193,16.5244,34.7865,113.288,40.3498,24.6183,47.7815,106.671,140.173,124.18,119.163,147.979,225.219,377.472,608.096,719.074,668.887,558.053,465.519,436.26,436.26,904.62,904.62,904.62
0.00103044	-16693650.32	0,2.17943e-06,5.05028e-06,8.8319e-06,1.38132e-05,2.03749e-05,2.90182e-05,4.04036e-05,5.54011e-05,7.51564e-05,0.000101179,0.000135457,0.000180611,0.000240089,0.000318436,0.000421638,0.000557582,0.000736654,0.000972535,0.00128325,0.00169254,0.00223167,0.00294185,0.00387733,0.00510958,0.00673277,0.00887091,0.0116874,0.0153974,0.0202843,0.0267217,0.0352013,inf	0.323478,0.323478,0.323478,0.323489,27.9265,493.358,727.493,232.059,25.55,14.4973,33.1073,119.035,38.4814,22.594,46.5271,110.671,146.678,126.237,117.972,145.205,221.81,374.749,610.105,726.656,676.518,561.134,464.675,437.609,437.609,1248.75,1248.75,1248.75
0.0010497	-16693361.26	0,2.17943e-06,5.05028e-06,8.8319e-06,1.38132e-05,2.03749e-05,2.90182e-05,4.04036e-05,5.54011e-05,7.51564e-05,0.000101179,0.000135457,0.000180611,0.000240089,0.000318436,0.000421638,0.000557582,0.000736654,0.000972535,0.00128325,0.00169254,0.00223167,0.00294185,0.00387733,0.00510958,0.00673277,0.00887091,0.0116874,0.0153974,0.0202843,0.0267217,0.0352013,inf	0.323478,0.323478,0.323478,0.323479,20.9917,484.306,741.383,223.431,22.32,12.8118,31.5538,124.205,36.5551,20.7335,45.2247,114.298,152.856,128.259,117.078,142.956,219.017,372.439,611.444,732.491,682.336,562.946,463.074,438.326,438.326,3405.61,3405.61,3405.61
0.0010497	-16693111.72	0,2.17943e-06,5.05028e-06,8.8319e-06,1.38132e-05,2.03749e-05,2.90182e-05,4.04036e-05,5.54011e-05,7.51564e-05,0.000101179,0.000135457,0.000180611,0.000240089,0.000318436,0.000421638,0.000557582,0.000736654,0.000972535,0.00128325,0.00169254,0.00223167,0.00294185,0.00387733,0.00510958,0.00673277,0.00887091,0.0116874,0.0153974,0.0202843,0.0267217,0.0352013,inf	0.323478,0.323478,0.323478,0.323479,15.789,473.836,750.135,213.889,19.5321,11.3566,30.0096,128.341,34.4908,18.9611,43.7293,117.077,158.009,129.713,116.017,140.692,216.062,369.124,609.234,734.439,685.033,562.606,460.074,437.836,437.836,48038.5,48038.5,48038.5
