0.000711129	-2022747.15	0,1.10582e-05,2.47361e-05,4.16543e-05,6.25804e-05,8.8464e-05,0.000120479,0.000160079,0.000209061,0.000269646,0.000344583,0.000437274,0.000551923,0.000693732,0.000869137,0.0010861,0.00135445,0.00168638,0.00209695,0.00260477,0.00323291,0.00400984,0.00497084,0.0061595,0.00762975,0.00944831,0.0116977,0.01448,0.0179213,0.022178,0.027443,0.0339554,inf	1736.73,1736.73,2735.69,1280.15,410.947,180.835,94.684,66.7999,62.9024,69.1173,81.0969,97.5901,118.593,144.726,176.974,216.343,263.223,317.133,376.561,432.822,464.52,465.265,449.78,430.399,411.644,393.726,378.433,366.889,366.889,355.251,355.251,355.251
0.000744535	-2019224.40	0,1.10582e-05,2.47361e-05,4.16543e-05,6.25804e-05,8.8464e-05,0.000120479,0.000160079,0.000209061,0.000269646,0.000344583,0.000437274,0.000551923,0.000693732,0.000869137,0.0010861,0.00135445,0.00168638,0.00209695,0.00260477,0.00323291,0.00400984,0.00497084,0.0061595,0.00762975,0.00944831,0.0116977,0.01448,0.0179213,0.022178,0.027443,0.0339554,inf	1755.22,1755.22,4903.21,1640.87,307.078,88.2272,31.3476,17.9577,16.5763,20.0891,27.565,39.6505,57.7336,83.632,119.345,166.558,226.025,298.292,384.876,478.076,540.82,550.094,526.121,491.222,454.957,418.987,388.848,367.581,367.581,346.619,346.619,346.619
0.000778613	-2018026.10	0,1.10582e-05,2.47361e-05,4.16543e-05,6.25804e-05,8.8464e-05,0.000120479,0.000160079,0.000209061,0.000269646,0.000344583,0.000437274,0.000551923,0.000693732,0.000869137,0.0010861,0.00135445,0.00168638,0.00209695,0.00260477,0.00323291,0.00400984,0.00497084,0.0061595,0.00762975,0.00944831,0.0116977,0.01448,0.0179213,0.022178,0.027443,0.0339554,inf	1273.67,1273.67,6182.89,1672.96,218.214,46.4666,12.2815,6.03986,5.51399,7.26598,11.4519,19.3863,33.3262,56.2455,91.2789,140.677,205.074,285.444,386.126,503.276,591.647,612.32,585.11,538.477,486.408,433.205,389.83,361.446,361.446,334.458,334.458,334.458
0.000810638	-2017478.88	0,1.10582e-05,2.47361e-05,4.16543e-05,6.25804e-05,8.8464e-05,0.000120479,0.000160079,0.000209061,0.000269646,0.000344583,0.000437274,0.000551923,0.000693732,0.000869137,0.0010861,0.00135445,0.00168638,0.00209695,0.00260477,0.00323291,0.00400984,0.00497084,0.0061595,0.00762975,0.00944831,0.0116977,0.01448,0.0179213,0.022178,0.027443,0.0339554,inf	848.862,848.862,6941.82,1597.8,158.14,26.4904,5.46522,2.38288,2.15889,3.0561,5.45123,10.72,21.4954,41.6621,75.4626,125.612,192.291,276.46,384.659,517.205,625.331,657.472,630.096,574.536,508.196,439.035,384.495,351.528,351.528,321.438,321.438,321.438
0.000840458	-2017185.93	0,1.10582e-05,2.47361e-05,4.16543e-05,6.25804e-05,8.8464e-05,0.000120479,0.000160079,0.000209061,0.000269646,0.000344583,0.000437274,0.000551923,0.000693732,0.000869137,0.0010861,0.00135445,0.00168638,0.00209695,0.00260477,0.00323291,0.00400984,0.00497084,0.0061595,0.00762975,0.00944831,0.0116977,0.01448,0.0179213,0.022178,0.027443,0.0339554,inf	551.899,551.899,7417.09,1491.66,117.656,16.0146,2.65499,1.04801,0.945727,1.42899,2.85975,6.47703,15.0141,33.0416,65.8361,116.455,184.365,270.247,382.361,524.772,647.757,690.339,664.428,601.929,522.669,439.078,375.497,340.048,340.048,308.962,308.962,308.962
0.000868388	-2017008.83	0,1.10582e-05,2.47361e-05,4.16543e-05,6.25804e-05,8.8464e-05,0.000120479,0.000160079,0.000209061,0.000269646,0.000344583,0.000437274,0.000551923,0.000693732,0.000869137,0.0010861,0.00135445,0.00168638,0.00209695,0.00260477,0.00323291,0.00400984,0.00497084,0.0061595,0.00762975,0.00944831,0.0116977,0.01448,0.0179213,0.022178,0.027443,0.0339554,inf	356.418,356.418,7726.28,1379.81,89.4975,10.0828,1.36839,0.495658,0.447217,0.720328,1.61081,4.18058,11.1293,27.5583,59.7117,110.87,179.563,266.043,379.976,528.64,662.713,714.425,690.789,622.781,531.828,435.424,364.735,328.378,328.378,297.607,297.607,297.607
0.00089478	-2016890.32	0,1.10582e-05,2.47361e-05,4.16543e-05,6.25804e-05,8.8464e-05,0.000120479,0.000160079,0.000209061,0.000269646,0.000344583,0.000437274,0.000551923,0.000693732,0.000869137,0.0010861,0.00135445,0.00168638,0.00209695,0.00260477,0.00323291,0.00400984,0.00497084,0.0061595,0.00762975,0.00944831,0.0116977,0.01448,0.0179213,0.022178,0.027443,0.0339554,inf	230.138,230.138,7932.49,1271.21,69.2657,6.5307,0.734586,0.357053,0.357053,0.38338,0.957094,2.83793,8.63264,23.8732,55.7275,107.589,176.864,263.296,377.769,530.287,672.618,732.19,711.197,638.75,537.243,429.605,353.443,317.284,317.284,287.532,287.532,287.532
0.000919933	-2016803.95	0,1.10582e-05,2.47361e-05,4.16543e-05,6.25804e-05,8.8464e-05,0.000120479,0.000160079,0.000209061,0.000269646,0.000344583,0.000437274,0.000551923,0.000693732,0.000869137,0.0010861,0.00135445,0.00168638,0.00209695,0.00260477,0.00323291,0.00400984,0.00497084,0.0061595,0.00762975,0.00944831,0.0116977,0.01448,0.0179213,0.022178,0.027443,0.0339554,inf	149.002,149.002,8071.91,1168.67,54.3116,4.31311,0.395944,0.357053,0.357053,0.357053,0.515877,2.00334,6.93564,21.2874,53.127,105.864,175.622,261.608,375.813,530.559,679.042,745.354,727.141,651.098,540.094,422.688,342.37,307.147,307.147,278.722,278.722,278.722
0.000944082	-2016736.43	0,1.10582e-05,2.47361e-05,4.16543e-05,6.25804e-05,8.8464e-05,0.000120479,0.000160079,0.000209061,0.000269646,0.000344583,0.000437274,0.000551923,0.000693732,0.000869137,0.0010861,0.00135445,0.00168638,0.00209695,0.00260477,0.00323291,0.00400984,0.00497084,0.0061595,0.00762975,0.00944831,0.0116977,0.01448,0.0179213,0.022178,0.027443,0.0339554,inf	96.8724,96.8724,8166.8,1073,43.0132,2.88798,0.357053,0.357053,0.357053,0.357053,0.357053,1.45869,5.72823,19.4095,51.461,105.224,175.408,260.688,374.1,529.962,683.023,755.127,739.715,660.762,541.243,415.378,331.936,298.112,298.112,271.082,271.082,271.082
0.000967409	-2016680.66	0,1.10582e-05,2.47361e-05,4.16543e-05,6.25804e-05,8.8464e-05,0.000120479,0.000160079,0.000209061,0.000269646,0.000344583,0.000437274,0.000551923,0.000693732,0.000869137,0.0010861,0.00135445,0.00168638,0.00209695,0.00260477,0.00323291,0.00400984,0.00497084,0.0061595,0.00762975,0.00944831,0.0116977,0.01448,0.0179213,0.022178,0.027443,0.0339554,inf	63.2954,63.2954,8230.8,983.969,34.3194,1.95213,0.357053,0.357053,0.357053,0.357053,0.357053,1.08886,4.83587,18.0058,50.4474,105.36,175.928,260.324,372.598,528.803,685.265,762.371,749.723,668.438,541.307,408.123,322.348,290.196,290.196,264.49,264.49,264.49
0.000990052	-2016632.62	0,1.10582e-05,2.47361e-05,4.16543e-05,6.25804e-05,8.8464e-05,0.000120479,0.000160079,0.000209061,0.000269646,0.000344583,0.000437274,0.000551923,0.000693732,0.000869137,0.0010861,0.00135445,0.00168638,0.00209695,0.00260477,0.00323291,0.00400984,0.00497084,0.0061595,0.00762975,0.00944831,0.0116977,0.01448,0.0179213,0.022178,0.027443,0.0339554,inf	41.5846,41.5846,8273.18,901.252,27.5393,1.32829,0.357053,0.357053,0.357053,0.357053,0.357053,0.829371,4.15501,16.9313,49.9014,106.06,176.975,260.358,371.268,527.279,686.254,767.707,757.759,674.639,540.717,401.19,313.678,283.345,283.345,258.83,258.83,258.83
0.00101212	-2016589.91	0,1.10582e-05,2.47361e-05,4.16543e-05,6.25804e-05,8.8464e-05,0.000120479,0.000160079,0.000209061,0.000269646,0.000344583,0.000437274,0.000551923,0.000693732,0.000869137,0.0010861,0.00135445,0.00168638,0.00209695,0.00260477,0.00323291,0.00400984,0.00497084,0.0061595,0.00762975,0.00944831,0.0116977,0.01448,0.0179213,0.022178,0.027443,0.0339554,inf	27.4844,27.4844,8300.11,824.415,22.1963,0.908289,0.357053,0.357053,0.357053,0.357053,0.357053,0.639765,3.62171,16.0923,49.6992,107.176,178.401,260.678,370.075,525.517,686.333,771.589,764.263,679.737,539.768,394.729,305.923,277.47,277.47,253.984,253.984,253.984
0.00103368	-2016551.10	0,1.10582e-05,2.47361e-05,4.16543e-05,6.25804e-05,8.8464e-05,0.000120479,0.000160079,0.000209061,0.000269646,0.000344583,0.000437274,0.000551923,0.000693732,0.000869137,0.0010861,0.00135445,0.00168638,0.00209695,0.00260477,0.00323291,0.00400984,0.00497084,0.0061595,0.00762975,0.00944831,0.0116977,0.01448,0.0179213,0.022178,0.027443,0.0339554,inf	18.2799,18.2799,8315.53,752.988,17.949,0.620255,0.357053,0.357053,0.357053,0.357053,0.357053,0.500449,3.19461,15.4262,49.7541,108.601,180.096,261.199,368.991,523.602,685.745,774.351,769.566,684.009,538.663,388.807,299.036,272.471,272.471,249.853,249.853,249.853
0.00105482	-2016515.25	0,1.10582e-05,2.47361e-05,4.16543e-05,6.25804e-05,8.8464e-05,0.000120479,0.000160079,0.000209061,0.000269646,0.000344583,0.000437274,0.000551923,0.000693732,0.000869137,0.0010861,0.00135445,0.00168638,0.00209695,0.00260477,0.00323291,0.00400984,0.00497084,0.0061595,0.00762975,0.00944831,0.0116977,0.01448,0.0179213,0.022178,0.027443,0.0339554,inf	12.239,12.239,8322.1,686.534,14.5481,0.424403,0.357053,0.357053,0.357053,0.357053,0.357053,0.396221,2.84592,14.8897,50.0043,110.256,181.982,261.858,367.99,521.593,684.669,776.243,773.914,687.652,537.527,383.442,292.945,268.244,268.244,246.343,246.343,246.343
0.00107557	-2016481.78	0,1.10582e-05,2.47361e-05,4.16543e-05,6.25804e-05,8.8464e-05,0.000120479,0.000160079,0.000209061,0.000269646,0.000344583,0.000437274,0.000551923,0.000693732,0.000869137,0.0010861,0.00135445,0.00168638,0.00209695,0.00260477,0.00323291,0.00400984,0.00497084,0.0061595,0.00762975,0.00944831,0.0116977,0.01448,0.0179213,0.022178,0.027443,0.0339554,inf	8.25105,8.25105,8321.8,624.692,11.8105,0.357053,0.357053,0.357053,0.357053,0.357053,0.357053,0.357053,2.55667,14.4522,50.4042,112.083,183.998,262.609,367.055,519.53,683.235,777.452,777.497,690.812,536.442,378.621,287.573,264.692,264.692,243.373,243.373,243.373
0.00109597	-2016450.26	0,1.10582e-05,2.47361e-05,4.16543e-05,6.25804e-05,8.8464e-05,0.000120479,0.000160079,0.000209061,0.000269646,0.000344583,0.000437274,0.000551923,0.000693732,0.000869137,0.0010861,0.00135445,0.00168638,0.00209695,0.00260477,0.00323291,0.00400984,0.00497084,0.0061595,0.00762975,0.00944831,0.0116977,0.01448,0.0179213,0.022178,0.027443,0.0339554,inf	5.60153,5.60153,8315.63,567.114,9.5939,0.357053,0.357053,0.357053,0.357053,0.357053,0.357053,0.357053,2.31333,14.0914,50.9194,114.036,186.098,263.416,366.17,517.442,681.539,778.124,780.459,693.595,535.454,374.312,282.843,261.725,261.725,240.872,240.872,240.872
0.00111605	-2016420.41	0,1.10582e-05,2.47361e-05,4.16543e-05,6.25804e-05,8.8464e-05,0.000120479,0.000160079,0.000209061,0.000269646,0.000344583,0.000437274,0.000551923,0.000693732,0.000869137,0.0010861,0.00135445,0.00168638,0.00209695,0.00260477,0.00323291,0.00400984,0.00497084,0.0061595,0.00762975,0.00944831,0.0116977,0.01448,0.0179213,0.022178,0.027443,0.0339554,inf	3.82945,3.82945,8304.56,513.535,7.79437,0.357053,0.357053,0.357053,0.357053,0.357053,0.357053,0.357053,2.10602,13.7909,51.524,116.081,188.248,264.253,365.324,515.348,679.655,778.369,782.91,696.079,534.587,370.476,278.678,259.261,259.261,238.776,238.776,238.776
0.00113584	-2016391.99	0,1.10582e-05,2.47361e-05,4.16543e-05,6.25804e-05,8.8464e-05,0.000120479,0.000160079,0.000209061,0.000269646,0.000344583,0.000437274,0.000551923,0.000693732,0.000869137,0.0010861,0.00135445,0.00168638,0.00209695,0.00260477,0.00323291,0.00400984,0.00497084,0.0061595,0.00762975,0.00944831,0.0116977,0.01448,0.0179213,0.022178,0.027443,0.0339554,inf	2.63822,2.63822,8289.51,463.753,6.3302,0.357053,0.357053,0.357053,0.357053,0.357053,0.357053,0.357053,1.92772,13.5389,52.1993,118.192,190.424,265.103,364.509,513.266,677.639,778.272,784.938,698.319,533.849,367.069,275.011,257.23,257.23,237.035,237.035,237.035
0.00115535	-2016364.84	0,1.10582e-05,2.47361e-05,4.16543e-05,6.25804e-05,8.8464e-05,0.000120479,0.000160079,0.000209061,0.000269646,0.000344583,0.000437274,0.000551923,0.000693732,0.000869137,0.0010861,0.00135445,0.00168638,0.00209695,0.00260477,0.00323291,0.00400984,0.00497084,0.0061595,0.00762975,0.00944831,0.0116977,0.01448,0.0179213,0.022178,0.027443,0.0339554,inf	1.83065,1.83065,8270.91,417.58,5.13686,0.357053,0.357053,0.357053,0.357053,0.357053,0.357053,0.357053,1.77295,13.3264,52.9304,120.349,192.606,265.953,363.721,511.205,675.533,777.903,786.611,700.356,533.241,364.048,271.778,255.57,255.57,235.601,235.601,235.601
0.0011746	-2016338.83	0,1.10582e-05,2.47361e-05,4.16543e-05,6.25804e-05,8.8464e-05,0.000120479,0.000160079,0.000209061,0.000269646,0.000344583,0.000437274,0.000551923,0.000693732,0.000869137,0.0010861,0.00135445,0.00168638,0.00209695,0.00260477,0.00323291,0.00400984,0.00497084,0.0061595,0.00762975,0.00944831,0.0116977,0.01448,0.0179213,0.022178,0.027443,0.0339554,inf	1.28148,1.28148,8249.1,374.835,4.16209,0.357053,0.357053,0.357053,0.357053,0.357053,0.357053,0.357053,1.63759,13.1465,53.706,122.537,194.78,266.791,362.953,509.174,673.368,777.314,787.984,702.222,532.755,361.371,268.924,254.228,254.228,234.435,234.435,234.435
