0.000529281	-1524731.15	0,1.7902e-05,4.52908e-05,8.71935e-05,0.000151302,0.000249382,0.000399438,0.000629013,0.000980245,0.0015176,0.00233972,0.0035975,0.00552182,0.00846587,0.0129701,0.0198611,inf	98.8962,98.8962,244.983,455.656,675.568,666.374,596.071,423.79,340.625,377.523,511.86,566.395,539.108,555.039,555.039,555.039
0.000558591	-1523879.99	0,1.7902e-05,4.52908e-05,8.71935e-05,0.000151302,0.000249382,0.000399438,0.000629013,0.000980245,0.0015176,0.00233972,0.0035975,0.00552182,0.00846587,0.0129701,0.0198611,inf	20.1552,20.1552,119.236,381.22,774.429,785.701,690.124,383.891,265.666,323.195,529.094,628.872,575.485,618.905,618.905,618.905
0.000587897	-1523496.32	0,1.7902e-05,4.52908e-05,8.71935e-05,0.000151302,0.000249382,0.000399438,0.000629013,0.000980245,0.0015176,0.00233972,0.0035975,0.00552182,0.00846587,0.0129701,0.0198611,inf	4.31346,4.31346,59.7614,312.855,818.165,855.508,769.015,356.234,221.447,291.764,541.36,680.244,602.092,686.892,686.892,686.892
0.000615515	-1523291.39	0,1.7902e-05,4.52908e-05,8.71935e-05,0.000151302,0.000249382,0.000399438,0.000629013,0.000980245,0.0015176,0.00233972,0.0035975,0.00552182,0.00846587,0.0129701,0.0198611,inf	0.855307,0.855307,31.4711,260.481,835.751,891.835,834.482,335.046,192.47,271.516,549.109,722.061,620.317,763.375,763.375,763.375
0.0006411	-1523170.41	0,1.7902e-05,4.52908e-05,8.71935e-05,0.000151302,0.000249382,0.000399438,0.000629013,0.000980245,0.0015176,0.00233972,0.0035975,0.00552182,0.00846587,0.0129701,0.0198611,inf	0.493358,0.493358,17.4826,222.561,843.536,907.758,889.486,317.875,172.165,257.687,553.44,756.103,631.843,855.792,855.792,855.792
0.000664703	-1523093.80	0,1.7902e-05,4.52908e-05,8.71935e-05,0.000151302,0.000249382,0.000399438,0.000629013,0.000980245,0.0015176,0.00233972,0.0035975,0.00552182,0.00846587,0.0129701,0.0198611,inf	0.493357,0.493357,10.2119,195.469,848.961,911.475,936.353,303.413,157.254,247.937,555.33,783.909,638.23,978.39,978.39,978.39
0.000686481	-1523042.78	0,1.7902e-05,4.52908e-05,8.71935e-05,0.000151302,0.000249382,0.000399438,0.000629013,0.000980245,0.0015176,0.00233972,0.0035975,0.00552182,0.00846587,0.0129701,0.0198611,inf	0.493357,0.493357,6.23575,176.084,855.011,907.825,976.754,290.88,145.919,240.965,555.51,806.701,640.827,1165.55,1165.55,1165.55
0.000706603	-1523007.86	0,1.7902e-05,4.52908e-05,8.71935e-05,0.000151302,0.000249382,0.000399438,0.000629013,0.000980245,0.0015176,0.00233972,0.0035975,0.00552182,0.00846587,0.0129701,0.0198611,inf	0.493357,0.493357,3.95579,162.139,862.655,899.676,1011.91,279.78,137.071,235.986,554.494,825.409,640.799,1540.96,1540.96,1540.96
0.000725207	-1522984.73	0,1.7902e-05,4.52908e-05,8.71935e-05,0.000151302,0.000249382,0.000399438,0.000629013,0.000980245,0.0015176,0.00233972,0.0035975,0.00552182,0.00846587,0.0129701,0.0198611,inf	0.493357,0.493357,2.59179,152.062,872.018,888.767,1042.76,269.787,130.019,232.489,552.62,840.695,639.249,3072.93,3072.93,3072.93
0.000725207	-1522973.62	0,1.7902e-05,4.52908e-05,8.71935e-05,0.000151302,0.000249382,0.000399438,0.000629013,0.000980245,0.0015176,0.00233972,0.0035975,0.00552182,0.00846587,0.0129701,0.0198611,inf	0.493357,0.493357,1.73453,143.896,875.442,869.242,1058.92,259.565,124.102,229.854,546.026,849.204,635.758,63474.7,63474.7,63474.7
