0.000870188	-395665.65	0,5.9795e-05,0.000130475,0.000214022,0.000312778,0.000429511,0.000567495,0.000730597,0.000923391,0.00115128,0.00142066,0.00173907,0.00211545,0.00256034,0.00308622,0.00370783,0.00444261,0.00531114,0.00633778,0.00755131,0.00898576,0.0106813,0.0126856,0.0150547,0.017855,0.0211652,0.0250779,0.0297029,0.0351698,0.041632,inf	363.397,363.397,363.397,363.397,363.397,363.397,363.397,363.397,363.397,363.397,363.397,363.397,363.397,363.397,363.397,363.397,363.397,363.397,363.397,363.397,363.397,363.397,363.397,363.397,363.397,363.397,363.397,363.397,363.397,363.397
0.000908999	-395460.36	0,5.9795e-05,0.000130475,0.000214022,0.000312778,0.000429511,0.000567495,0.000730597,0.000923391,0.00115128,0.00142066,0.00173907,0.00211545,0.00256034,0.00308622,0.00370783,0.00444261,0.00531114,0.00633778,0.00755131,0.00898576,0.0106813,0.0126856,0.0150547,0.017855,0.0211652,0.0250779,0.0297029,0.0351698,0.041632,inf	390.905,390.905,390.905,390.905,390.905,390.905,390.905,390.905,390.905,390.905,390.905,390.905,390.905,390.905,390.905,390.905,390.905,390.905,390.905,390.905,390.905,390.905,390.905,390.905,390.905,390.905,390.905,390.905,390.905,390.905
0.000939996	-395418.91	0,5.9795e-05,0.000130475,0.000214022,0.000312778,0.000429511,0.000567495,0.000730597,0.000923391,0.00115128,0.00142066,0.00173907,0.00211545,0.00256034,0.00308622,0.00370783,0.00444261,0.00531114,0.00633778,0.00755131,0.00898576,0.0106813,0.0126856,0.0150547,0.017855,0.0211652,0.0250779,0.0297029,0.0351698,0.041632,inf	402.448,402.448,402.448,402.448,402.448,402.448,402.448,402.448,402.448,402.448,402.448,402.448,402.448,402.448,402.448,402.448,402.448,402.448,402.448,402.448,402.448,402.448,402.448,402.448,402.448,402.448,402.448,402.448,402.448,402.448
0.000967288	-395405.58	0,5.9795e-05,0.000130475,0.000214022,0.000312778,0.000429511,0.000567495,0.000730597,0.000923391,0.00115128,0.00142066,0.00173907,0.00211545,0.00256034,0.00308622,0.00370783,0.00444261,0.00531114,0.00633778,0.00755131,0.00898576,0.0106813,0.0126856,0.0150547,0.017855,0.0211652,0.0250779,0.0297029,0.0351698,0.041632,inf	406.917,406.917,406.917,406.917,406.917,406.917,406.917,406.917,406.917,406.917,406.917,406.917,406.917,406.917,406.917,406.917,406.917,406.917,406.917,406.917,406.917,406.917,406.917,406.917,406.917,406.917,406.917,406.917,406.917,406.917
0.000993176	-395396.41	0,5.9795e-05,0.000130475,0.000214022,0.000312778,0.000429511,0.000567495,0.000730597,0.000923391,0.00115128,0.00142066,0.00173907,0.00211545,0.00256034,0.00308622,0.00370783,0.00444261,0.00531114,0.00633778,0.00755131,0.00898576,0.0106813,0.0126856,0.0150547,0.017855,0.0211652,0.0250779,0.0297029,0.0351698,0.041632,inf	408.402,408.402,408.402,408.402,408.402,408.402,408.402,408.402,408.402,408.402,408.402,408.402,408.402,408.402,408.402,408.402,408.402,408.402,408.402,408.402,408.402,408.402,408.402,408.402,408.402,408.402,408.402,408.402,408.402,408.402
0.00101872	-395387.59	0,5.9795e-05,0.000130475,0.000214022,0.000312778,0.000429511,0.000567495,0.000730597,0.000923391,0.00115128,0.00142066,0.00173907,0.00211545,0.00256034,0.00308622,0.00370783,0.00444261,0.00531114,0.00633778,0.00755131,0.00898576,0.0106813,0.0126856,0.0150547,0.017855,0.0211652,0.0250779,0.0297029,0.0351698,0.041632,inf	408.647,408.647,408.647,408.647,408.647,408.647,408.647,408.647,408.647,408.647,408.647,408.647,408.647,408.647,408.647,408.647,408.647,408.647,408.647,408.647,408.647,408.647,408.647,408.647,408.647,408.647,408.647,408.647,408.647,408.647
0.00104438	-395378.63	0,5.9795e-05,0.000130475,0.000214022,0.000312778,0.000429511,0.000567495,0.000730597,0.000923391,0.00115128,0.00142066,0.00173907,0.00211545,0.00256034,0.00308622,0.00370783,0.00444261,0.00531114,0.00633778,0.00755131,0.00898576,0.0106813,0.0126856,0.0150547,0.017855,0.0211652,0.0250779,0.0297029,0.0351698,0.041632,inf	408.379,408.379,408.379,408.379,408.379,408.379,408.379,408.379,408.379,408.379,408.379,408.379,408.379,408.379,408.379,408.379,408.379,408.379,408.379,408.379,408.379,408.379,408.379,408.379,408.379,408.379,408.379,408.379,408.379,408.379
0.00107035	-395369.51	0,5.9795e-05,0.000130475,0.000214022,0.000312778,0.000429511,0.000567495,0.000730597,0.000923391,0.00115128,0.00142066,0.00173907,0.00211545,0.00256034,0.00308622,0.00370783,0.00444261,0.00531114,0.00633778,0.00755131,0.00898576,0.0106813,0.0126856,0.0150547,0.017855,0.0211652,0.0250779,0.0297029,0.0351698,0.041632,inf	407.898,407.898,407.898,407.898,407.898,407.898,407.898,407.898,407.898,407.898,407.898,407.898,407.898,407.898,407.898,407.898,407.898,407.898,407.898,407.898,407.898,407.898,407.898,407.898,407.898,407.898,407.898,407.898,407.898,407.898
0.00109671	-395360.26	0,5.9795e-05,0.000130475,0.000214022,0.000312778,0.000429511,0.000567495,0.000730597,0.000923391,0.00115128,0.00142066,0.00173907,0.00211545,0.00256034,0.00308622,0.00370783,0.00444261,0.00531114,0.00633778,0.00755131,0.00898576,0.0106813,0.0126856,0.0150547,0.017855,0.0211652,0.0250779,0.0297029,0.0351698,0.041632,inf	407.328,407.328,407.328,407.328,407.328,407.328,407.328,407.328,407.328,407.328,407.328,407.328,407.328,407.328,407.328,407.328,407.328,407.328,407.328,407.328,407.328,407.328,407.328,407.328,407.328,407.328,407.328,407.328,407.328,407.328
0.00112349	-395350.92	0,5.9795e-05,0.000130475,0.000214022,0.000312778,0.000429511,0.000567495,0.000730597,0.000923391,0.00115128,0.00142066,0.00173907,0.00211545,0.00256034,0.00308622,0.00370783,0.00444261,0.00531114,0.00633778,0.00755131,0.00898576,0.0106813,0.0126856,0.0150547,0.017855,0.0211652,0.0250779,0.0297029,0.0351698,0.041632,inf	406.722,406.722,406.722,406.722,406.722,406.722,406.722,406.722,406.722,406.722,406.722,406.722,406.722,406.722,406.722,406.722,406.722,406.722,406.722,406.722,406.722,406.722,406.722,406.722,406.722,406.722,406.722,406.722,406.722,406.722
0.00115069	-395341.48	0,5.9795e-05,0.000130475,0.000214022,0.000312778,0.000429511,0.000567495,0.000730597,0.000923391,0.00115128,0.00142066,0.00173907,0.00211545,0.00256034,0.00308622,0.00370783,0.00444261,0.00531114,0.00633778,0.00755131,0.00898576,0.0106813,0.0126856,0.0150547,0.017855,0.0211652,0.0250779,0.0297029,0.0351698,0.041632,inf	406.1,406.1,406.1,406.1,406.1,406.1,406.1,406.1,406.1,406.1,406.1,406.1,406.1,406.1,406.1,406.1,406.1,406.1,406.1,406.1,406.1,406.1,406.1,406.1,406.1,406.1,406.1,406.1,406.1,406.1
0.00117831	-395331.97	0,5.9795e-05,0.000130475,0.000214022,0.000312778,0.000429511,0.000567495,0.000730597,0.000923391,0.00115128,0.00142066,0.00173907,0.00211545,0.00256034,0.00308622,0.00370783,0.00444261,0.00531114,0.00633778,0.00755131,0.00898576,0.0106813,0.0126856,0.0150547,0.017855,0.0211652,0.0250779,0.0297029,0.0351698,0.041632,inf	405.473,405.473,405.473,405.473,405.473,405.473,405.473,405.473,405.473,405.473,405.473,405.473,405.473,405.473,405.473,405.473,405.473,405.473,405.473,405.473,405.473,405.473,405.473,405.473,405.473,405.473,405.473,405.473,405.473,405.473
0.00120636	-395322.39	0,5.9795e-05,0.000130475,0.000214022,0.000312778,0.000429511,0.000567495,0.000730597,0.000923391,0.00115128,0.00142066,0.00173907,0.00211545,0.00256034,0.00308622,0.00370783,0.00444261,0.00531114,0.00633778,0.00755131,0.00898576,0.0106813,0.0126856,0.0150547,0.017855,0.0211652,0.0250779,0.0297029,0.0351698,0.041632,inf	404.844,404.844,404.844,404.844,404.844,404.844,404.844,404.844,404.844,404.844,404.844,404.844,404.844,404.844,404.844,404.844,404.844,404.844,404.844,404.844,404.844,404.844,404.844,404.844,404.844,404.844,404.844,404.844,404.844,404.844
0.00123481	-395312.76	0,5.9795e-05,0.000130475,0.000214022,0.000312778,0.000429511,0.000567495,0.000730597,0.000923391,0.00115128,0.00142066,0.00173907,0.00211545,0.00256034,0.00308622,0.00370783,0.00444261,0.00531114,0.00633778,0.00755131,0.00898576,0.0106813,0.0126856,0.0150547,0.017855,0.0211652,0.0250779,0.0297029,0.0351698,0.041632,inf	404.215,404.215,404.215,404.215,404.215,404.215,404.215,404.215,404.215,404.215,404.215,404.215,404.215,404.215,404.215,404.215,404.215,404.215,404.215,404.215,404.215,404.215,404.215,404.215,404.215,404.215,404.215,404.215,404.215,404.215
0.00126367	-395303.07	0,5.9795e-05,0.000130475,0.000214022,0.000312778,0.000429511,0.000567495,0.000730597,0.000923391,0.00115128,0.00142066,0.00173907,0.00211545,0.00256034,0.00308622,0.00370783,0.00444261,0.00531114,0.00633778,0.00755131,0.00898576,0.0106813,0.0126856,0.0150547,0.017855,0.0211652,0.0250779,0.0297029,0.0351698,0.041632,inf	403.587,403.587,403.587,403.587,403.587,403.587,403.587,403.587,403.587,403.587,403.587,403.587,403.587,403.587,403.587,403.587,403.587,403.587,403.587,403.587,403.587,403.587,403.587,403.587,403.587,403.587,403.587,403.587,403.587,403.587
0.00129293	-395293.34	0,5.9795e-05,0.000130475,0.000214022,0.000312778,0.000429511,0.000567495,0.000730597,0.000923391,0.00115128,0.00142066,0.00173907,0.00211545,0.00256034,0.00308622,0.00370783,0.00444261,0.00531114,0.00633778,0.00755131,0.00898576,0.0106813,0.0126856,0.0150547,0.017855,0.0211652,0.0250779,0.0297029,0.0351698,0.041632,inf	402.961,402.961,402.961,402.961,402.961,402.961,402.961,402.961,402.961,402.961,402.961,402.961,402.961,402.961,402.961,402.961,402.961,402.961,402.961,402.961,402.961,402.961,402.961,402.961,402.961,402.961,402.961,402.961,402.961,402.961
0.00132257	-395283.57	0,5.9795e-05,0.000130475,0.000214022,0.000312778,0.000429511,0.000567495,0.000730597,0.000923391,0.00115128,0.00142066,0.00173907,0.00211545,0.00256034,0.00308622,0.00370783,0.00444261,0.00531114,0.00633778,0.00755131,0.00898576,0.0106813,0.0126856,0.0150547,0.017855,0.0211652,0.0250779,0.0297029,0.0351698,0.041632,inf	402.337,402.337,402.337,402.337,402.337,402.337,402.337,402.337,402.337,402.337,402.337,402.337,402.337,402.337,402.337,402.337,402.337,402.337,402.337,402.337,402.337,402.337,402.337,402.337,402.337,402.337,402.337,402.337,402.337,402.337
0.00135259	-395273.78	0,5.9795e-05,0.000130475,0.000214022,0.000312778,0.000429511,0.000567495,0.000730597,0.000923391,0.00115128,0.00142066,0.00173907,0.00211545,0.00256034,0.00308622,0.00370783,0.00444261,0.00531114,0.00633778,0.00755131,0.00898576,0.0106813,0.0126856,0.0150547,0.017855,0.0211652,0.0250779,0.0297029,0.0351698,0.041632,inf	401.716,401.716,401.716,401.716,401.716,401.716,401.716,401.716,401.716,401.716,401.716,401.716,401.716,401.716,401.716,401.716,401.716,401.716,401.716,401.716,401.716,401.716,401.716,401.716,401.716,401.716,401.716,401.716,401.716,401.716
0.00138299	-395263.96	0,5.9795e-05,0.000130475,0.000214022,0.000312778,0.000429511,0.000567495,0.000730597,0.000923391,0.00115128,0.00142066,0.00173907,0.00211545,0.00256034,0.00308622,0.00370783,0.00444261,0.00531114,0.00633778,0.00755131,0.00898576,0.0106813,0.0126856,0.0150547,0.017855,0.0211652,0.0250779,0.0297029,0.0351698,0.041632,inf	401.096,401.096,401.096,401.096,401.096,401.096,401.096,401.096,401.096,401.096,401.096,401.096,401.096,401.096,401.096,401.096,401.096,401.096,401.096,401.096,401.096,401.096,401.096,401.096,401.096,401.096,401.096,401.096,401.096,401.096
0.00141374	-395254.12	0,5.9795e-05,0.000130475,0.000214022,0.000312778,0.000429511,0.000567495,0.000730597,0.000923391,0.00115128,0.00142066,0.00173907,0.00211545,0.00256034,0.00308622,0.00370783,0.00444261,0.00531114,0.00633778,0.00755131,0.00898576,0.0106813,0.0126856,0.0150547,0.017855,0.0211652,0.0250779,0.0297029,0.0351698,0.041632,inf	400.479,400.479,400.479,400.479,400.479,400.479,400.479,400.479,400.479,400.479,400.479,400.479,400.479,400.479,400.479,400.479,400.479,400.479,400.479,400.479,400.479,400.479,400.479,400.479,400.479,400.479,400.479,400.479,400.479,400.479
