time_index	left_time_boundary	right_time_boundary	lambda
0	0	2.57366e-06	462.838
1	2.57366e-06	5.97249e-06	462.838
2	5.97249e-06	1.04611e-05	462.838
3	1.04611e-05	1.63888e-05	462.838
4	1.63888e-05	2.4217e-05	462.838
5	2.4217e-05	3.45552e-05	462.838
6	3.45552e-05	4.8208e-05	462.838
7	4.8208e-05	6.62382e-05	462.838
8	6.62382e-05	9.00492e-05	462.838
9	9.00492e-05	0.000121495	462.838
10	0.000121495	0.000163022	462.838
11	0.000163022	0.000217864	462.838
12	0.000217864	0.00029029	462.838
13	0.00029029	0.000385937	462.838
14	0.000385937	0.00051225	462.838
15	0.00051225	0.000679062	462.838
16	0.000679062	0.000899358	462.838
17	0.000899358	0.00119029	462.838
18	0.00119029	0.00157449	462.838
19	0.00157449	0.00208188	462.838
20	0.00208188	0.00275195	462.838
21	0.00275195	0.00363686	462.838
22	0.00363686	0.00480549	462.838
23	0.00480549	0.0063488	462.838
24	0.0063488	0.00838694	462.838
25	0.00838694	0.0110785	462.838
26	0.0110785	0.0146331	462.838
27	0.0146331	0.0193274	462.838
28	0.0193274	0.0255268	462.838
29	0.0255268	inf	462.838
