0.00055412	-264759.66	0,7.94662e-05,0.000188201,0.000336985,0.000540567,0.000819133,0.0012003,0.00172185,0.0024355,0.003412,0.00474815,0.00657644,0.0090781,0.0125012,0.017185,0.023594,inf	287.411,287.411,295.573,300.926,321.915,350.125,377.178,401.005,430.404,454.02,463.983,445.695,456.353,517.514,517.514,517.514
0.000580527	-264698.51	0,7.94662e-05,0.000188201,0.000336985,0.000540567,0.000819133,0.0012003,0.00172185,0.0024355,0.003412,0.00474815,0.00657644,0.0090781,0.0125012,0.017185,0.023594,inf	251.484,251.484,260.097,260.637,286.904,323.809,356.494,382.988,421.24,454.829,469.098,433.857,451.383,575.268,575.268,575.268
0.000608351	-264684.61	0,7.94662e-05,0.000188201,0.000336985,0.000540567,0.000819133,0.0012003,0.00172185,0.0024355,0.003412,0.00474815,0.00657644,0.0090781,0.0125012,0.017185,0.023594,inf	245.356,245.356,254.299,247.906,276.672,318.062,351.608,375.916,417.769,457.324,474.194,423.932,446.614,636.903,636.903,636.903
0.000635852	-264672.61	0,7.94662e-05,0.000188201,0.000336985,0.000540567,0.000819133,0.0012003,0.00172185,0.0024355,0.003412,0.00474815,0.00657644,0.0090781,0.0125012,0.017185,0.023594,inf	246.592,246.592,256.908,243.132,273.956,318.458,351.403,372.113,415.781,459.73,478.51,415.045,441.777,703.437,703.437,703.437
0.000662625	-264661.11	0,7.94662e-05,0.000188201,0.000336985,0.000540567,0.000819133,0.0012003,0.00172185,0.0024355,0.003412,0.00474815,0.00657644,0.0090781,0.0125012,0.017185,0.023594,inf	249.339,249.339,261.932,240.837,273.803,320.811,352.659,369.397,414.161,461.713,482.019,406.942,436.888,776.372,776.372,776.372
0.000688583	-264650.59	0,7.94662e-05,0.000188201,0.000336985,0.000540567,0.000819133,0.0012003,0.00172185,0.0024355,0.003412,0.00474815,0.00657644,0.0090781,0.0125012,0.017185,0.023594,inf	252.089,252.089,267.506,239.315,274.598,323.763,354.346,367.098,412.623,463.286,484.842,399.521,432.007,857.944,857.944,857.944
0.000713728	-264641.15	0,7.94662e-05,0.000188201,0.000336985,0.000540567,0.000819133,0.0012003,0.00172185,0.0024355,0.003412,0.00474815,0.00657644,0.0090781,0.0125012,0.017185,0.023594,inf	254.547,254.547,273.045,238.014,275.773,326.846,356.12,364.998,411.108,464.528,487.112,392.712,427.182,951.69,951.69,951.69
0.000738089	-264632.72	0,7.94662e-05,0.000188201,0.000336985,0.000540567,0.000819133,0.0012003,0.00172185,0.0024355,0.003412,0.00474815,0.00657644,0.0090781,0.0125012,0.017185,0.023594,inf	256.743,256.743,278.379,236.756,277.113,329.896,357.858,363.023,409.617,465.515,488.938,386.453,422.446,1063.76,1063.76,1063.76
0.000761697	-264625.20	0,7.94662e-05,0.000188201,0.000336985,0.000540567,0.000819133,0.0012003,0.00172185,0.0024355,0.003412,0.00474815,0.00657644,0.0090781,0.0125012,0.017185,0.023594,inf	258.756,258.756,283.473,235.491,278.526,332.853,359.52,361.146,408.158,466.306,490.402,380.684,417.812,1206.26,1206.26,1206.26
0.000784586	-264618.47	0,7.94662e-05,0.000188201,0.000336985,0.000540567,0.000819133,0.0012003,0.00172185,0.0024355,0.003412,0.00474815,0.00657644,0.0090781,0.0125012,0.017185,0.023594,inf	260.651,260.651,288.327,234.205,279.972,335.697,361.092,359.351,406.739,466.941,491.563,375.346,413.285,1408.56,1408.56,1408.56
0.000806786	-264612.44	0,7.94662e-05,0.000188201,0.000336985,0.000540567,0.000819133,0.0012003,0.00172185,0.0024355,0.003412,0.00474815,0.00657644,0.0090781,0.0125012,0.017185,0.023594,inf	262.47,262.47,292.958,232.9,281.428,338.424,362.572,357.632,405.364,467.449,492.46,370.375,408.849,1774.13,1774.13,1774.13
0.000828318	-264607.02	0,7.94662e-05,0.000188201,0.000336985,0.000540567,0.000819133,0.0012003,0.00172185,0.0024355,0.003412,0.00474815,0.00657644,0.0090781,0.0125012,0.017185,0.023594,inf	264.24,264.24,297.379,231.581,282.882,341.035,363.961,355.98,404.029,467.837,493.097,365.689,404.468,3055.08,3055.08,3055.08
0.000849196	-264602.16	0,7.94662e-05,0.000188201,0.000336985,0.000540567,0.000819133,0.0012003,0.00172185,0.0024355,0.003412,0.00474815,0.00657644,0.0090781,0.0125012,0.017185,0.023594,inf	265.977,265.977,301.601,230.252,284.325,343.537,365.262,354.384,402.717,468.075,493.398,361.132,400.033,36680,36680,36680
0.000849196	-264597.83	0,7.94662e-05,0.000188201,0.000336985,0.000540567,0.000819133,0.0012003,0.00172185,0.0024355,0.003412,0.00474815,0.00657644,0.0090781,0.0125012,0.017185,0.023594,inf	265.06,265.06,303.063,227.23,283.622,343.277,363.762,350.617,398.89,465.454,490.889,355.336,394.426,65346.9,65346.9,65346.9
0.000849196	-264599.35	0,7.94662e-05,0.000188201,0.000336985,0.000540567,0.000819133,0.0012003,0.00172185,0.0024355,0.003412,0.00474815,0.00657644,0.0090781,0.0125012,0.017185,0.023594,inf	264.084,264.084,303.162,224.813,283.793,344.282,363.773,348.273,396.625,464.264,489.65,350.458,389.242,65350.3,65350.3,65350.3
0.000849196	-264600.27	0,7.94662e-05,0.000188201,0.000336985,0.000540567,0.000819133,0.0012003,0.00172185,0.0024355,0.003412,0.00474815,0.00657644,0.0090781,0.0125012,0.017185,0.023594,inf	263.485,263.485,303.162,222.675,284.176,344.336,363.773,346.624,395.212,463.92,489.23,346.23,384.389,65353.2,65353.2,65353.2
0.000849196	-264600.90	0,7.94662e-05,0.000188201,0.000336985,0.000540567,0.000819133,0.0012003,0.00172185,0.0024355,0.003412,0.00474815,0.00657644,0.0090781,0.0125012,0.017185,0.023594,inf	263.227,263.227,303.442,220.814,284.835,344.849,363.773,345.457,394.319,464.093,489.354,342.482,379.803,65355.5,65355.5,65355.5
0.000849196	-264601.26	0,7.94662e-05,0.000188201,0.000336985,0.000540567,0.000819133,0.0012003,0.00172185,0.0024355,0.003412,0.00474815,0.00657644,0.0090781,0.0125012,0.017185,0.023594,inf	263.082,263.082,303.505,219.08,285.564,345.283,363.773,344.552,393.73,464.095,489.867,339.099,375.44,65357.7,65357.7,65357.7
0.000849196	-264601.54	0,7.94662e-05,0.000188201,0.000336985,0.000540567,0.000819133,0.0012003,0.00172185,0.0024355,0.003412,0.00474815,0.00657644,0.0090781,0.0125012,0.017185,0.023594,inf	263.053,263.053,303.549,217.464,286.342,345.576,363.773,343.827,393.332,464.773,489.867,336.044,371.278,65359.6,65359.6,65359.6
0.000849196	-264601.73	0,7.94662e-05,0.000188201,0.000336985,0.000540567,0.000819133,0.0012003,0.00172185,0.0024355,0.003412,0.00474815,0.00657644,0.0090781,0.0125012,0.017185,0.023594,inf	263.058,263.058,303.549,215.955,287.159,345.786,363.773,343.214,393.069,465.293,489.867,333.268,367.302,65361.5,65361.5,65361.5
