0.000562409	-11934271.20	0,1.5285e-06,3.54191e-06,6.19407e-06,9.68763e-06,1.42895e-05,2.03513e-05,2.83363e-05,3.88544e-05,5.27094e-05,7.09599e-05,9.50003e-05,0.000126668,0.000168381,0.000223328,0.000295707,0.000391049,0.000516637,0.000682068,0.000899981,0.00118703,0.00156514,0.00206321,0.00271928,0.0035835,0.00472189,0.00622143,0.0081967,0.0107986,0.014226,0.0187407,0.0246877,inf	27531.5,27531.5,4798.41,1375.53,617.284,329.799,247.942,250.17,256.963,259.168,268.048,282.031,291.926,289.922,291.912,295.577,303.955,318.01,335.896,356.706,379.638,404.844,434.007,462.925,477.625,475.716,466.129,468.517,468.517,513.788,513.788,513.788
0.000591379	-11930539.25	0,1.5285e-06,3.54191e-06,6.19407e-06,9.68763e-06,1.42895e-05,2.03513e-05,2.83363e-05,3.88544e-05,5.27094e-05,7.09599e-05,9.50003e-05,0.000126668,0.000168381,0.000223328,0.000295707,0.000391049,0.000516637,0.000682068,0.000899981,0.00118703,0.00156514,0.00206321,0.00271928,0.0035835,0.00472189,0.00622143,0.0081967,0.0107986,0.014226,0.0187407,0.0246877,inf	37393.1,37393.1,4157.65,1293.18,574.453,282.851,188.234,209.918,220.467,217.604,228.215,250.825,265.403,255.621,255.037,255.839,263.421,279.877,301.838,327.688,356.101,387.744,427.106,469.907,492.28,487.403,469.358,474.693,474.693,573.711,573.711,573.711
0.000620761	-11929440.92	0,1.5285e-06,3.54191e-06,6.19407e-06,9.68763e-06,1.42895e-05,2.03513e-05,2.83363e-05,3.88544e-05,5.27094e-05,7.09599e-05,9.50003e-05,0.000126668,0.000168381,0.000223328,0.000295707,0.000391049,0.000516637,0.000682068,0.000899981,0.00118703,0.00156514,0.00206321,0.00271928,0.0035835,0.00472189,0.00622143,0.0081967,0.0107986,0.014226,0.0187407,0.0246877,inf	38794.7,38794.7,3340.78,1274.33,592.288,274.806,163.031,202.616,214.78,205.482,217.09,248.795,267.793,250.02,247.117,244.752,250.467,267.455,290.679,317.933,347.433,380.413,424.155,475.436,502.861,495.127,469.976,478.921,478.921,642.865,642.865,642.865
0.000649292	-11928721.96	0,1.5285e-06,3.54191e-06,6.19407e-06,9.68763e-06,1.42895e-05,2.03513e-05,2.83363e-05,3.88544e-05,5.27094e-05,7.09599e-05,9.50003e-05,0.000126668,0.000168381,0.000223328,0.000295707,0.000391049,0.000516637,0.000682068,0.000899981,0.00118703,0.00156514,0.00206321,0.00271928,0.0035835,0.00472189,0.00622143,0.0081967,0.0107986,0.014226,0.0187407,0.0246877,inf	38651.2,38651.2,2695.05,1288.47,627.502,273.151,145.224,202.229,215.054,199.367,211.746,252.86,276.08,251.222,246.874,241.998,246.13,263.51,287.317,314.849,343.896,376.282,421.921,478.999,510.109,499.782,468.66,481.549,481.549,725.326,725.326,725.326
0.000676785	-11928134.62	0,1.5285e-06,3.54191e-06,6.19407e-06,9.68763e-06,1.42895e-05,2.03513e-05,2.83363e-05,3.88544e-05,5.27094e-05,7.09599e-05,9.50003e-05,0.000126668,0.000168381,0.000223328,0.000295707,0.000391049,0.000516637,0.000682068,0.000899981,0.00118703,0.00156514,0.00206321,0.00271928,0.0035835,0.00472189,0.00622143,0.0081967,0.0107986,0.014226,0.0187407,0.0246877,inf	38164.8,38164.8,2179.26,1309.13,664.181,269.841,129.637,203.38,216.131,194.39,207.224,257.492,284.336,253.478,248.449,241.764,244.794,262.771,287.041,314.488,342.482,373.451,419.755,481.052,514.974,502.281,466.087,482.983,482.983,828.489,828.489,828.489
0.00070328	-11927625.92	0,1.5285e-06,3.54191e-06,6.19407e-06,9.68763e-06,1.42895e-05,2.03513e-05,2.83363e-05,3.88544e-05,5.27094e-05,7.09599e-05,9.50003e-05,0.000126668,0.000168381,0.000223328,0.000295707,0.000391049,0.000516637,0.000682068,0.000899981,0.00118703,0.00156514,0.00206321,0.00271928,0.0035835,0.00472189,0.00622143,0.0081967,0.0107986,0.014226,0.0187407,0.0246877,inf	37594,37594,1762.08,1327.63,697.453,263.55,115.564,205.203,217.242,189.81,202.737,261.633,291.264,255.348,250.156,242.205,244.544,263.339,288.104,315.369,342.085,371.282,417.589,482.083,518.195,503.312,462.751,483.545,483.545,967.716,967.716,967.716
0.000728856	-11927175.54	0,1.5285e-06,3.54191e-06,6.19407e-06,9.68763e-06,1.42895e-05,2.03513e-05,2.83363e-05,3.88544e-05,5.27094e-05,7.09599e-05,9.50003e-05,0.000126668,0.000168381,0.000223328,0.000295707,0.000391049,0.000516637,0.000682068,0.000899981,0.00118703,0.00156514,0.00206321,0.00271928,0.0035835,0.00472189,0.00622143,0.0081967,0.0107986,0.014226,0.0187407,0.0246877,inf	37006.8,37006.8,1423.29,1341.44,726.088,254.744,102.985,207.663,218.439,185.659,198.378,265.353,296.854,256.628,251.575,242.73,244.679,264.454,289.775,316.861,342.233,369.522,415.467,482.456,520.294,503.355,458.985,483.469,483.469,1183.66,1183.66,1183.66
0.000753592	-11926772.52	0,1.5285e-06,3.54191e-06,6.19407e-06,9.68763e-06,1.42895e-05,2.03513e-05,2.83363e-05,3.88544e-05,5.27094e-05,7.09599e-05,9.50003e-05,0.000126668,0.000168381,0.000223328,0.000295707,0.000391049,0.000516637,0.000682068,0.000899981,0.00118703,0.00156514,0.00206321,0.00271928,0.0035835,0.00472189,0.00622143,0.0081967,0.0107986,0.014226,0.0187407,0.0246877,inf	36426,36426,1147.95,1350.22,749.941,244.046,91.8323,210.747,219.801,182.008,194.302,268.899,301.38,257.429,252.671,243.169,244.931,265.789,291.716,318.66,342.697,368.051,413.429,482.414,521.622,502.733,455,482.917,482.917,1649.44,1649.44,1649.44
0.000777548	-11926410.23	0,1.5285e-06,3.54191e-06,6.19407e-06,9.68763e-06,1.42895e-05,2.03513e-05,2.83363e-05,3.88544e-05,5.27094e-05,7.09599e-05,9.50003e-05,0.000126668,0.000168381,0.000223328,0.000295707,0.000391049,0.000516637,0.000682068,0.000899981,0.00118703,0.00156514,0.00206321,0.00271928,0.0035835,0.00472189,0.00622143,0.0081967,0.0107986,0.014226,0.0187407,0.0246877,inf	35859.2,35859.2,924.514,1354.27,769.391,232.081,82.0103,214.36,221.344,178.848,190.582,272.46,305.115,257.91,253.506,243.495,245.198,267.188,293.757,320.603,343.348,366.797,411.498,482.113,522.409,501.654,450.914,481.984,481.984,4221.57,4221.57,4221.57
0.000777548	-11926085.25	0,1.5285e-06,3.54191e-06,6.19407e-06,9.68763e-06,1.42895e-05,2.03513e-05,2.83363e-05,3.88544e-05,5.27094e-05,7.09599e-05,9.50003e-05,0.000126668,0.000168381,0.000223328,0.000295707,0.000391049,0.000516637,0.000682068,0.000899981,0.00118703,0.00156514,0.00206321,0.00271928,0.0035835,0.00472189,0.00622143,0.0081967,0.0107986,0.014226,0.0187407,0.0246877,inf	34813.9,34813.9,735.508,1339.63,776.639,217.146,72.6155,216.132,220.699,174.332,185.336,273.345,305.161,255.665,251.708,241.432,243.186,266.138,293.147,319.747,341.176,362.787,406.456,478.152,519.485,497.599,444.853,479.083,479.083,68744.1,68744.1,68744.1
0.000777548	-11926074.78	0,1.5285e-06,3.54191e-06,6.19407e-06,9.68763e-06,1.42895e-05,2.03513e-05,2.83363e-05,3.88544e-05,5.27094e-05,7.09599e-05,9.50003e-05,0.000126668,0.000168381,0.000223328,0.000295707,0.000391049,0.000516637,0.000682068,0.000899981,0.00118703,0.00156514,0.00206321,0.00271928,0.0035835,0.00472189,0.00622143,0.0081967,0.0107986,0.014226,0.0187407,0.0246877,inf	34814.1,34814.1,602.655,1359.72,801.923,207.368,65.2156,220.07,221.988,171.257,181.355,275.539,306.542,254.585,251.096,240.494,242.267,266.27,293.89,320.461,340.751,360.621,403.46,475.977,518.059,494.769,439.809,476.66,476.66,68747.5,68747.5,68747.5
0.000777548	-11926070.12	0,1.5285e-06,3.54191e-06,6.19407e-06,9.68763e-06,1.42895e-05,2.03513e-05,2.83363e-05,3.88544e-05,5.27094e-05,7.09599e-05,9.50003e-05,0.000126668,0.000168381,0.000223328,0.000295707,0.000391049,0.000516637,0.000682068,0.000899981,0.00118703,0.00156514,0.00206321,0.00271928,0.0035835,0.00472189,0.00622143,0.0081967,0.0107986,0.014226,0.0187407,0.0246877,inf	34814.2,34814.2,494.876,1380.7,829.041,198.686,58.6946,224.348,223.722,168.659,177.755,277.906,308.064,253.693,250.695,239.736,241.489,266.528,294.882,320.837,340.751,359.279,401.408,474.911,517.701,492.871,435.548,474.656,474.656,68750.1,68750.1,68750.1
0.000777548	-11926068.96	0,1.5285e-06,3.54191e-06,6.19407e-06,9.68763e-06,1.42895e-05,2.03513e-05,2.83363e-05,3.88544e-05,5.27094e-05,7.09599e-05,9.50003e-05,0.000126668,0.000168381,0.000223328,0.000295707,0.000391049,0.000516637,0.000682068,0.000899981,0.00118703,0.00156514,0.00206321,0.00271928,0.0035835,0.00472189,0.00622143,0.0081967,0.0107986,0.014226,0.0187407,0.0246877,inf	34814.4,34814.4,406.345,1398.76,855.313,190.433,52.8357,228.55,223.722,166.315,174.38,280.281,309.58,252.876,250.399,239.057,240.712,266.825,295.946,320.965,340.751,358.393,399.939,474.507,517.997,491.582,431.836,472.953,472.953,68752.1,68752.1,68752.1
0.000777548	-11926068.91	0,1.5285e-06,3.54191e-06,6.19407e-06,9.68763e-06,1.42895e-05,2.03513e-05,2.83363e-05,3.88544e-05,5.27094e-05,7.09599e-05,9.50003e-05,0.000126668,0.000168381,0.000223328,0.000295707,0.000391049,0.000516637,0.000682068,0.000899981,0.00118703,0.00156514,0.00206321,0.00271928,0.0035835,0.00472189,0.00622143,0.0081967,0.0107986,0.014226,0.0187407,0.0246877,inf	34814.7,34814.7,333.484,1413.01,880.509,182.582,47.5926,232.955,225.962,164.319,171.243,282.667,311.078,252.118,250.189,238.438,239.976,267.091,296.749,320.974,340.751,357.775,398.795,474.473,518.716,490.7,428.527,471.477,471.477,68753.7,68753.7,68753.7
0.000777548	-11926069.20	0,1.5285e-06,3.54191e-06,6.19407e-06,9.68763e-06,1.42895e-05,2.03513e-05,2.83363e-05,3.88544e-05,5.27094e-05,7.09599e-05,9.50003e-05,0.000126668,0.000168381,0.000223328,0.000295707,0.000391049,0.000516637,0.000682068,0.000899981,0.00118703,0.00156514,0.00206321,0.00271928,0.0035835,0.00472189,0.00622143,0.0081967,0.0107986,0.014226,0.0187407,0.0246877,inf	34814.7,34814.7,273.435,1423.08,904.132,174.9,42.8223,236.928,228.069,162.424,168.216,284.97,312.507,251.401,250.062,237.887,239.269,267.376,296.772,321.469,340.751,357.333,397.853,474.665,519.308,490.11,425.524,470.175,470.175,68755.1,68755.1,68755.1
0.000777548	-11926069.62	0,1.5285e-06,3.54191e-06,6.19407e-06,9.68763e-06,1.42895e-05,2.03513e-05,2.83363e-05,3.88544e-05,5.27094e-05,7.09599e-05,9.50003e-05,0.000126668,0.000168381,0.000223328,0.000295707,0.000391049,0.000516637,0.000682068,0.000899981,0.00118703,0.00156514,0.00206321,0.00271928,0.0035835,0.00472189,0.00622143,0.0081967,0.0107986,0.014226,0.0187407,0.0246877,inf	34814.8,34814.8,224.067,1429.4,926.331,167.512,38.4958,240.565,230.111,160.653,165.304,287.21,313.725,250.741,250.043,237.436,238.625,267.689,297.276,321.469,340.751,356.999,397.042,475.013,519.639,489.77,422.779,469.021,469.021,68756.3,68756.3,68756.3
0.000777548	-11926070.21	0,1.5285e-06,3.54191e-06,6.19407e-06,9.68763e-06,1.42895e-05,2.03513e-05,2.83363e-05,3.88544e-05,5.27094e-05,7.09599e-05,9.50003e-05,0.000126668,0.000168381,0.000223328,0.000295707,0.000391049,0.000516637,0.000682068,0.000899981,0.00118703,0.00156514,0.00206321,0.00271928,0.0035835,0.00472189,0.00622143,0.0081967,0.0107986,0.014226,0.0187407,0.0246877,inf	34815,34815,183.478,1432.54,947.334,160.408,34.5824,243.854,230.127,158.971,162.483,289.364,313.739,250.099,250.08,237.034,237.991,268.005,298.045,321.469,340.751,356.758,396.337,475.489,519.779,489.631,420.26,467.997,467.997,68757.4,68757.4,68757.4
0.000777548	-11926070.78	0,1.5285e-06,3.54191e-06,6.19407e-06,9.68763e-06,1.42895e-05,2.03513e-05,2.83363e-05,3.88544e-05,5.27094e-05,7.09599e-05,9.50003e-05,0.000126668,0.000168381,0.000223328,0.000295707,0.000391049,0.000516637,0.000682068,0.000899981,0.00118703,0.00156514,0.00206321,0.00271928,0.0035835,0.00472189,0.00622143,0.0081967,0.0107986,0.014226,0.0187407,0.0246877,inf	34815.3,34815.3,150.166,1433.16,966.062,153.704,31.0918,247.311,232.37,157.597,159.905,291.656,313.771,249.538,250.188,236.668,237.365,268.291,298.045,321.469,341.025,356.574,395.707,475.489,520.214,489.637,417.935,467.086,467.086,68758.4,68758.4,68758.4
0.000777548	-11926071.30	0,1.5285e-06,3.54191e-06,6.19407e-06,9.68763e-06,1.42895e-05,2.03513e-05,2.83363e-05,3.88544e-05,5.27094e-05,7.09599e-05,9.50003e-05,0.000126668,0.000168381,0.000223328,0.000295707,0.000391049,0.000516637,0.000682068,0.000899981,0.00118703,0.00156514,0.00206321,0.00271928,0.0035835,0.00472189,0.00622143,0.0081967,0.0107986,0.014226,0.0187407,0.0246877,inf	34815.4,34815.4,122.875,1431.69,982.927,147.313,27.9309,250.297,234.441,156.277,157.434,293.983,314.098,249.057,250.188,236.383,236.795,268.612,298.045,321.469,341.215,356.447,395.146,475.987,520.214,489.637,415.786,466.274,466.274,68759.2,68759.2,68759.2
0.000777548	-11926071.99	0,1.5285e-06,3.54191e-06,6.19407e-06,9.68763e-06,1.42895e-05,2.03513e-05,2.83363e-05,3.88544e-05,5.27094e-05,7.09599e-05,9.50003e-05,0.000126668,0.000168381,0.000223328,0.000295707,0.000391049,0.000516637,0.000682068,0.000899981,0.00118703,0.00156514,0.00206321,0.00271928,0.0035835,0.00472189,0.00622143,0.0081967,0.0107986,0.014226,0.0187407,0.0246877,inf	34815.4,34815.4,100.544,1429.04,997.835,141.267,25.0722,252.9,236.372,155.012,155.047,296.293,314.404,248.628,250.469,236.167,236.269,268.955,298.045,321.472,341.3,356.349,394.626,476.427,520.223,489.637,413.799,465.555,465.555,68760,68760,68760
