LogLikelihood = -743.77233101291176354

y0 4.4233853157445290148e-09
y0_prime 0
y1 0.8087038761186897684
y1_prime 0
y2 1.7729417032149235034
y2_prime 0
y3 2.691497329947396544
y3_prime 0
rho 0.0072102268877630463703
rho.alpha 24220.126275836344576
r_ii 0.99999019125712429457
theta 5.9575583542840802951e-06
