LogLikelihood = -743.75115597533670098

y0 3.3297449806563428732e-10
y0_prime 0
y1 1.2157198426237778577
y1_prime 0
y2 1.6202224005099803428
y2_prime 0
y3 1.7672113750580098479
y3_prime 0
rho 0.14108799076170672193
theta 5.9575583542840802951e-06
