LogLikelihood = -838812.40900846000295

y0 0.98039818773247433548
y0_prime 0
y1 1.0714513867047639195
y1_prime 0
y2 0.87995332407810311626
y2_prime 0
y3 1.6331490696103210247
y3_prime 0
rho 0.0015274860326878125175
rho.alpha 0.68278142030802146945
r_ii 0.9999151915529504997
theta 0.0024725262911675619133
