LogLikelihood = -286903.32838428107789

y0 0.56599302568657527956
y0_prime 0
y1 0.86042873136267239431
y1_prime 0
y2 0.98483723225784725042
y2_prime 0
y3 1.8203848939350124603
y3_prime 0
rho 0.0015015869192854770179
theta 0.0046734486038654803747
