0.000575276	-45120789.69	0,4.58321e-06,1.04167e-05,1.78417e-05,2.72922e-05,3.93209e-05,5.4631e-05,7.41178e-05,9.89207e-05,0.00013049,0.000170671,0.000221814,0.00028691,0.000369763,0.00047522,0.000609445,0.000780287,0.000997737,0.00127451,0.00162678,0.00207516,0.00264585,0.00337224,0.00429678,0.00547355,0.00697134,0.00887774,0.0113042,0.0143926,0.0183236,0.0233269,0.0296952,inf	263.399,263.399,305.566,299.635,277.987,316.549,352.266,360.038,361.47,365.845,374.605,386.309,393.251,395.07,395.285,395.947,397.237,398.879,400.057,400.218,399.48,398.026,396.249,394.661,394.356,394.952,392.974,385.876,385.876,418.011,418.011,418.011
0.000528015	-45112940.27	0,4.58321e-06,1.04167e-05,1.78417e-05,2.72922e-05,3.93209e-05,5.4631e-05,7.41178e-05,9.89207e-05,0.00013049,0.000170671,0.000221814,0.00028691,0.000369763,0.00047522,0.000609445,0.000780287,0.000997737,0.00127451,0.00162678,0.00207516,0.00264585,0.00337224,0.00429678,0.00547355,0.00697134,0.00887774,0.0113042,0.0143926,0.0183236,0.0233269,0.0296952,inf	255.135,255.135,310.675,293.253,237.792,290.074,350.291,357.119,352.279,354.033,364.803,383.238,394.153,395.596,394.437,394.69,396.577,399.574,402.042,402.693,401.687,399.322,396.286,393.535,393.318,394.913,391.212,377.13,377.13,443.781,443.781,443.781
0.000487472	-45106551.42	0,4.58321e-06,1.04167e-05,1.78417e-05,2.72922e-05,3.93209e-05,5.4631e-05,7.41178e-05,9.89207e-05,0.00013049,0.000170671,0.000221814,0.00028691,0.000369763,0.00047522,0.000609445,0.000780287,0.000997737,0.00127451,0.00162678,0.00207516,0.00264585,0.00337224,0.00429678,0.00547355,0.00697134,0.00887774,0.0113042,0.0143926,0.0183236,0.0233269,0.0296952,inf	261.517,261.517,329.413,308.833,219.029,277.719,361.63,365.897,352.863,350.005,360.197,383.268,397.117,397.303,394.048,393.325,395.312,399.338,403.045,404.313,403.308,400.407,396.498,392.896,393.072,396.011,390.85,369.88,369.88,474.802,474.802,474.802
0.000452955	-45101452.27	0,4.58321e-06,1.04167e-05,1.78417e-05,2.72922e-05,3.93209e-05,5.4631e-05,7.41178e-05,9.89207e-05,0.00013049,0.000170671,0.000221814,0.00028691,0.000369763,0.00047522,0.000609445,0.000780287,0.000997737,0.00127451,0.00162678,0.00207516,0.00264585,0.00337224,0.00429678,0.00547355,0.00697134,0.00887774,0.0113042,0.0143926,0.0183236,0.0233269,0.0296952,inf	268.127,268.127,344.743,330.027,207.47,268.027,375.924,377.916,356.576,348.804,357.329,384.004,400.55,399.258,393.7,391.795,393.587,398.372,403.225,405.141,404.282,401.109,396.614,392.386,393.174,397.722,391.37,363.638,363.638,512.157,512.157,512.157
0.000423834	-45097480.77	0,4.58321e-06,1.04167e-05,1.78417e-05,2.72922e-05,3.93209e-05,5.4631e-05,7.41178e-05,9.89207e-05,0.00013049,0.000170671,0.000221814,0.00028691,0.000369763,0.00047522,0.000609445,0.000780287,0.000997737,0.00127451,0.00162678,0.00207516,0.00264585,0.00337224,0.00429678,0.00547355,0.00697134,0.00887774,0.0113042,0.0143926,0.0183236,0.0233269,0.0296952,inf	274.518,274.518,354.612,353.012,199.54,258.382,390.223,390.689,361.495,349.042,355.365,384.974,404.226,401.46,393.579,390.426,391.806,397.072,402.915,405.415,404.736,401.451,396.565,391.853,393.38,399.707,392.428,358.109,358.109,557.559,557.559,557.559
0.00039947	-45094463.37	0,4.58321e-06,1.04167e-05,1.78417e-05,2.72922e-05,3.93209e-05,5.4631e-05,7.41178e-05,9.89207e-05,0.00013049,0.000170671,0.000221814,0.00028691,0.000369763,0.00047522,0.000609445,0.000780287,0.000997737,0.00127451,0.00162678,0.00207516,0.00264585,0.00337224,0.00429678,0.00547355,0.00697134,0.00887774,0.0113042,0.0143926,0.0183236,0.0233269,0.0296952,inf	281.064,281.064,359.598,376.355,193.879,248.228,403.406,403.15,366.732,350.045,353.874,385.905,407.944,403.808,393.696,389.334,390.165,395.667,402.336,405.321,404.796,401.492,396.351,391.236,393.555,401.735,393.784,353.094,353.094,613.74,613.74,613.74
0.000379241	-45092225.56	0,4.58321e-06,1.04167e-05,1.78417e-05,2.72922e-05,3.93209e-05,5.4631e-05,7.41178e-05,9.89207e-05,0.00013049,0.000170671,0.000221814,0.00028691,0.000369763,0.00047522,0.000609445,0.000780287,0.000997737,0.00127451,0.00162678,0.00207516,0.00264585,0.00337224,0.00429678,0.00547355,0.00697134,0.00887774,0.0113042,0.0143926,0.0183236,0.0233269,0.0296952,inf	287.704,287.704,360.817,399.31,189.871,237.645,415.097,414.819,371.846,351.447,352.631,386.643,411.55,406.183,393.994,388.532,388.743,394.287,401.633,405.002,404.577,401.31,396.008,390.532,393.635,403.661,395.273,348.457,348.457,685.358,685.358,685.358
0.000362559	-45090603.68	0,4.58321e-06,1.04167e-05,1.78417e-05,2.72922e-05,3.93209e-05,5.4631e-05,7.41178e-05,9.89207e-05,0.00013049,0.000170671,0.000221814,0.00028691,0.000369763,0.00047522,0.000609445,0.000780287,0.000997737,0.00127451,0.00162678,0.00207516,0.00264585,0.00337224,0.00429678,0.00547355,0.00697134,0.00887774,0.0113042,0.0143926,0.0183236,0.0233269,0.0296952,inf	294.152,294.152,359.303,421.311,187.104,226.877,425.248,425.48,376.613,353.047,351.515,387.114,414.937,408.482,394.394,387.981,387.558,392.995,400.9,404.564,404.179,400.983,395.589,389.765,393.604,405.404,396.794,344.097,344.097,781.244,781.244,781.244
0.000348882	-45089453.63	0,4.58321e-06,1.04167e-05,1.78417e-05,2.72922e-05,3.93209e-05,5.4631e-05,7.41178e-05,9.89207e-05,0.00013049,0.000170671,0.000221814,0.00028691,0.000369763,0.00047522,0.000609445,0.000780287,0.000997737,0.00127451,0.00162678,0.00207516,0.00264585,0.00337224,0.00429678,0.00547355,0.00697134,0.00887774,0.0113042,0.0143926,0.0183236,0.0233269,0.0296952,inf	300.313,300.313,355.935,441.954,185.286,216.176,433.955,435.071,380.922,354.729,350.463,387.303,418.048,410.626,394.826,387.634,386.6,391.82,400.194,404.082,403.679,400.577,395.145,388.973,393.473,406.927,398.283,339.933,339.933,920.96,920.96,920.96
0.000337724	-45088655.50	0,4.58321e-06,1.04167e-05,1.78417e-05,2.72922e-05,3.93209e-05,5.4631e-05,7.41178e-05,9.89207e-05,0.00013049,0.000170671,0.000221814,0.00028691,0.000369763,0.00047522,0.000609445,0.000780287,0.000997737,0.00127451,0.00162678,0.00207516,0.00264585,0.00337224,0.00429678,0.00547355,0.00697134,0.00887774,0.0113042,0.0143926,0.0183236,0.0233269,0.0296952,inf	305.998,305.998,351.442,460.937,184.223,205.745,441.381,443.592,384.726,356.421,349.454,387.225,420.864,412.573,395.238,387.438,385.842,390.772,399.546,403.606,403.136,400.141,394.715,388.189,393.263,408.225,399.7,335.878,335.878,1160.78,1160.78,1160.78
0.000328659	-45088114.79	0,4.58321e-06,1.04167e-05,1.78417e-05,2.72922e-05,3.93209e-05,5.4631e-05,7.41178e-05,9.89207e-05,0.00013049,0.000170671,0.000221814,0.00028691,0.000369763,0.00047522,0.000609445,0.000780287,0.000997737,0.00127451,0.00162678,0.00207516,0.00264585,0.00337224,0.00429678,0.00547355,0.00697134,0.00887774,0.0113042,0.0143926,0.0183236,0.0233269,0.0296952,inf	311.147,311.147,346.301,478.08,183.747,195.729,447.715,451.084,388.016,358.087,348.481,386.913,423.388,414.303,395.596,387.354,385.255,389.845,398.973,403.166,402.588,399.711,394.328,387.439,392.998,409.301,401.012,331.808,331.808,1769.55,1769.55,1769.55
0.00032132	-45087760.78	0,4.58321e-06,1.04167e-05,1.78417e-05,2.72922e-05,3.93209e-05,5.4631e-05,7.41178e-05,9.89207e-05,0.00013049,0.000170671,0.000221814,0.00028691,0.000369763,0.00047522,0.000609445,0.000780287,0.000997737,0.00127451,0.00162678,0.00207516,0.00264585,0.00337224,0.00429678,0.00547355,0.00697134,0.00887774,0.0113042,0.0143926,0.0183236,0.0233269,0.0296952,inf	315.737,315.737,340.958,493.326,183.735,186.22,453.124,457.617,390.809,359.71,347.545,386.41,425.642,415.819,395.877,387.347,384.81,389.029,398.479,402.779,402.059,399.308,393.997,386.739,392.692,410.16,402.145,327.481,327.481,6365.02,6365.02,6365.02
0.000321292	-45087540.48	0,4.58321e-06,1.04167e-05,1.78417e-05,2.72922e-05,3.93209e-05,5.4631e-05,7.41178e-05,9.89207e-05,0.00013049,0.000170671,0.000221814,0.00028691,0.000369763,0.00047522,0.000609445,0.000780287,0.000997737,0.00127451,0.00162678,0.00207516,0.00264585,0.00337224,0.00429678,0.00547355,0.00697134,0.00887774,0.0113042,0.0143926,0.0183236,0.0233269,0.0296952,inf	321.236,321.236,337.317,509.128,184.984,178.064,459.987,465.627,395.159,363.181,348.457,387.783,430.038,419.522,398.362,389.646,386.719,390.546,400.329,404.671,403.642,400.825,395.389,387.517,393.637,412.037,404.12,323.393,323.393,63220.6,63220.6,63220.6
0.000321292	-45087545.92	0,4.58321e-06,1.04167e-05,1.78417e-05,2.72922e-05,3.93209e-05,5.4631e-05,7.41178e-05,9.89207e-05,0.00013049,0.000170671,0.000221814,0.00028691,0.000369763,0.00047522,0.000609445,0.000780287,0.000997737,0.00127451,0.00162678,0.00207516,0.00264585,0.00337224,0.00429678,0.00547355,0.00697134,0.00887774,0.0113042,0.0143926,0.0183236,0.0233269,0.0296952,inf	321.236,321.236,331.416,513.875,184.934,169.598,463.657,467.993,395.159,363.181,347.617,387.237,430.985,419.522,398.362,389.646,386.719,390.546,400.329,404.671,403.642,400.825,395.389,387.517,393.637,412.037,404.12,319.309,319.309,63223.1,63223.1,63223.1
0.000321292	-45087543.15	0,4.58321e-06,1.04167e-05,1.78417e-05,2.72922e-05,3.93209e-05,5.4631e-05,7.41178e-05,9.89207e-05,0.00013049,0.000170671,0.000221814,0.00028691,0.000369763,0.00047522,0.000609445,0.000780287,0.000997737,0.00127451,0.00162678,0.00207516,0.00264585,0.00337224,0.00429678,0.00547355,0.00697134,0.00887774,0.0113042,0.0143926,0.0183236,0.0233269,0.0296952,inf	321.236,321.236,327.072,517.349,184.934,161.955,467.255,469.884,395.159,363.181,346.847,386.703,431.88,419.522,398.362,389.646,386.719,390.546,400.329,404.671,403.642,400.825,395.389,387.517,393.637,412.037,404.12,315.877,315.877,63225.2,63225.2,63225.2
0.000321291	-45087541.26	0,4.58321e-06,1.04167e-05,1.78417e-05,2.72922e-05,3.93209e-05,5.4631e-05,7.41178e-05,9.89207e-05,0.00013049,0.000170671,0.000221814,0.00028691,0.000369763,0.00047522,0.000609445,0.000780287,0.000997737,0.00127451,0.00162678,0.00207516,0.00264585,0.00337224,0.00429678,0.00547355,0.00697134,0.00887774,0.0113042,0.0143926,0.0183236,0.0233269,0.0296952,inf	321.236,321.236,323.918,519.845,184.934,155.015,470.791,471.39,395.159,363.181,346.142,386.182,432.725,419.522,398.362,389.646,386.719,390.546,400.329,404.671,403.642,400.825,395.389,387.517,393.637,412.037,404.12,312.985,312.985,63227,63227,63227
0.000321291	-45087539.95	0,4.58321e-06,1.04167e-05,1.78417e-05,2.72922e-05,3.93209e-05,5.4631e-05,7.41178e-05,9.89207e-05,0.00013049,0.000170671,0.000221814,0.00028691,0.000369763,0.00047522,0.000609445,0.000780287,0.000997737,0.00127451,0.00162678,0.00207516,0.00264585,0.00337224,0.00429678,0.00547355,0.00697134,0.00887774,0.0113042,0.0143926,0.0183236,0.0233269,0.0296952,inf	321.236,321.236,321.631,521.662,184.934,148.697,474.254,472.57,395.159,363.181,345.505,385.675,433.516,419.522,398.362,389.646,386.719,390.546,400.329,404.671,403.642,400.825,395.389,387.517,393.637,412.037,404.12,310.542,310.542,63228.5,63228.5,63228.5
0.000321291	-45087539.10	0,4.58321e-06,1.04167e-05,1.78417e-05,2.72922e-05,3.93209e-05,5.4631e-05,7.41178e-05,9.89207e-05,0.00013049,0.000170671,0.000221814,0.00028691,0.000369763,0.00047522,0.000609445,0.000780287,0.000997737,0.00127451,0.00162678,0.00207516,0.00264585,0.00337224,0.00429678,0.00547355,0.00697134,0.00887774,0.0113042,0.0143926,0.0183236,0.0233269,0.0296952,inf	321.236,321.236,320.024,523.04,184.934,142.903,477.648,473.479,395.159,363.181,344.933,385.185,434.254,419.522,398.362,389.646,386.719,390.546,400.329,404.671,403.642,400.825,395.389,387.517,393.637,412.037,404.12,308.475,308.475,63229.8,63229.8,63229.8
0.00032129	-45087538.55	0,4.58321e-06,1.04167e-05,1.78417e-05,2.72922e-05,3.93209e-05,5.4631e-05,7.41178e-05,9.89207e-05,0.00013049,0.000170671,0.000221814,0.00028691,0.000369763,0.00047522,0.000609445,0.000780287,0.000997737,0.00127451,0.00162678,0.00207516,0.00264585,0.00337224,0.00429678,0.00547355,0.00697134,0.00887774,0.0113042,0.0143926,0.0183236,0.0233269,0.0296952,inf	321.236,321.236,318.908,523.947,184.934,137.585,480.968,474.153,395.159,363.181,344.422,384.708,434.944,419.522,398.362,389.646,386.719,390.546,400.329,404.671,403.642,400.825,395.389,387.517,393.637,412.037,404.12,306.723,306.723,63230.8,63230.8,63230.8
0.00032129	-45087538.20	0,4.58321e-06,1.04167e-05,1.78417e-05,2.72922e-05,3.93209e-05,5.4631e-05,7.41178e-05,9.89207e-05,0.00013049,0.000170671,0.000221814,0.00028691,0.000369763,0.00047522,0.000609445,0.000780287,0.000997737,0.00127451,0.00162678,0.00207516,0.00264585,0.00337224,0.00429678,0.00547355,0.00697134,0.00887774,0.0113042,0.0143926,0.0183236,0.0233269,0.0296952,inf	321.236,321.236,318.2,524.545,184.934,132.681,484.204,474.638,395.159,363.181,343.969,384.246,435.587,419.522,398.362,389.646,386.719,390.546,400.329,404.671,403.642,400.825,395.389,387.517,393.637,412.037,404.12,305.235,305.235,63231.8,63231.8,63231.8
