time_index	left_time_boundary	right_time_boundary	lambda
0	0	2.67882e-06	607.049
1	2.67882e-06	6.15556e-06	607.049
2	6.15556e-06	1.06679e-05	73.9592
3	1.06679e-05	1.65243e-05	683.973
4	1.65243e-05	2.41252e-05	671.789
5	2.41252e-05	3.39901e-05	264.779
6	3.39901e-05	4.67934e-05	185.133
7	4.67934e-05	6.34103e-05	448.53
8	6.34103e-05	8.49769e-05	403.643
9	8.49769e-05	0.000112967	388.045
10	0.000112967	0.000149295	395.735
11	0.000149295	0.000196444	386.464
12	0.000196444	0.000257637	372.494
13	0.000257637	0.000337057	424.269
14	0.000337057	0.000440134	417.698
15	0.000440134	0.000573913	388.272
16	0.000573913	0.000747541	387.585
17	0.000747541	0.000972887	398.818
18	0.000972887	0.00126536	390.791
19	0.00126536	0.00164494	396.823
20	0.00164494	0.00213759	400.726
21	0.00213759	0.00277698	392.343
22	0.00277698	0.00360683	395.311
23	0.00360683	0.00468386	393.685
24	0.00468386	0.0060817	382.288
25	0.0060817	0.00789591	402.575
26	0.00789591	0.0102505	434.801
27	0.0102505	0.0133065	306
28	0.0133065	0.0172727	306
29	0.0172727	0.0224203	780.883
30	0.0224203	0.0291012	780.883
31	0.0291012	inf	780.883
