0.000288583	-7619499.19	0,2.03102e-06,5.55514e-06,1.167e-05,2.22801e-05,4.06903e-05,7.26345e-05,0.000128062,0.000224237,0.000391115,0.000680672,0.0011831,0.00205487,0.00356753,0.00619221,0.0107464,inf	27.0249,27.0249,76.956,205.077,492.495,328.788,281.403,468.446,789.878,853.153,612.318,781.906,858.136,786.306,786.306,786.306
0.000270816	-7616768.51	0,2.03102e-06,5.55514e-06,1.167e-05,2.22801e-05,4.06903e-05,7.26345e-05,0.000128062,0.000224237,0.000391115,0.000680672,0.0011831,0.00205487,0.00356753,0.00619221,0.0107464,inf	1.05491,1.05491,8.80596,67.8082,467.866,223.554,116.494,303.799,806.917,951.396,497.747,773.447,907.241,772.491,772.491,772.491
0.000254084	-7614953.73	0,2.03102e-06,5.55514e-06,1.167e-05,2.22801e-05,4.06903e-05,7.26345e-05,0.000128062,0.000224237,0.000391115,0.000680672,0.0011831,0.00205487,0.00356753,0.00619221,0.0107464,inf	0.804351,0.804351,1.02619,23.2317,488.883,199.719,52.1947,201.135,802.291,1054.54,414.729,767.777,947.304,760.292,760.292,760.292
0.000237749	-7613545.40	0,2.03102e-06,5.55514e-06,1.167e-05,2.22801e-05,4.06903e-05,7.26345e-05,0.000128062,0.000224237,0.000391115,0.000680672,0.0011831,0.00205487,0.00356753,0.00619221,0.0107464,inf	0.804351,0.804351,0.80435,7.87983,509.537,203.02,24.6827,133.807,774.101,1148.08,349.854,762.536,978.397,749.296,749.296,749.296
0.000221774	-7612402.51	0,2.03102e-06,5.55514e-06,1.167e-05,2.22801e-05,4.06903e-05,7.26345e-05,0.000128062,0.000224237,0.000391115,0.000680672,0.0011831,0.00205487,0.00356753,0.00619221,0.0107464,inf	0.80435,0.80435,0.80435,2.65836,522.413,218.339,12.1763,89.2394,730.784,1227.38,297.527,757.232,1001.69,739.484,739.484,739.484
0.00020628	-7611450.25	0,2.03102e-06,5.55514e-06,1.167e-05,2.22801e-05,4.06903e-05,7.26345e-05,0.000128062,0.000224237,0.000391115,0.000680672,0.0011831,0.00205487,0.00356753,0.00619221,0.0107464,inf	0.80435,0.80435,0.80435,0.900664,528.875,240.028,6.22223,59.6314,680.31,1291.61,254.682,751.698,1018.59,730.857,730.857,730.857
0.000191405	-7610644.09	0,2.03102e-06,5.55514e-06,1.167e-05,2.22801e-05,4.06903e-05,7.26345e-05,0.000128062,0.000224237,0.000391115,0.000680672,0.0011831,0.00205487,0.00356753,0.00619221,0.0107464,inf	0.80435,0.80435,0.80435,0.80435,531.69,265.459,3.28196,39.8859,628.178,1341.36,219.41,745.711,1030.22,723.307,723.307,723.307
0.000177299	-7609958.46	0,2.03102e-06,5.55514e-06,1.167e-05,2.22801e-05,4.06903e-05,7.26345e-05,0.000128062,0.000224237,0.000391115,0.000680672,0.0011831,0.00205487,0.00356753,0.00619221,0.0107464,inf	0.80435,0.80435,0.80435,0.80435,533.203,293.265,1.78544,26.6488,577.5,1378.21,190.235,739.186,1038.03,716.836,716.836,716.836
0.000164066	-7609372.57	0,2.03102e-06,5.55514e-06,1.167e-05,2.22801e-05,4.06903e-05,7.26345e-05,0.000128062,0.000224237,0.000391115,0.000680672,0.0011831,0.00205487,0.00356753,0.00619221,0.0107464,inf	0.80435,0.80435,0.80435,0.80435,534.761,322.543,1.00278,17.7437,530.006,1403.82,166.126,731.926,1043.01,711.336,711.336,711.336
0.000151783	-7608874.20	0,2.03102e-06,5.55514e-06,1.167e-05,2.22801e-05,4.06903e-05,7.26345e-05,0.000128062,0.000224237,0.000391115,0.000680672,0.0011831,0.00205487,0.00356753,0.00619221,0.0107464,inf	0.80435,0.80435,0.80435,0.80435,536.733,352.729,0.80435,11.7473,486.545,1419.83,146.291,723.832,1045.96,706.702,706.702,706.702
0.000140501	-7608453.78	0,2.03102e-06,5.55514e-06,1.167e-05,2.22801e-05,4.06903e-05,7.26345e-05,0.000128062,0.000224237,0.000391115,0.000680672,0.0011831,0.00205487,0.00356753,0.00619221,0.0107464,inf	0.80435,0.80435,0.80435,0.80435,538.613,383.076,0.80435,7.71218,447.308,1428.17,130.06,714.973,1047.8,702.898,702.898,702.898
0.000130217	-7608100.72	0,2.03102e-06,5.55514e-06,1.167e-05,2.22801e-05,4.06903e-05,7.26345e-05,0.000128062,0.000224237,0.000391115,0.000680672,0.0011831,0.00205487,0.00356753,0.00619221,0.0107464,inf	0.80435,0.80435,0.80435,0.80435,540.524,413.475,0.80435,5.01571,412.533,1429.6,116.981,705.272,1048.67,699.743,699.743,699.743
0.000120921	-7607810.72	0,2.03102e-06,5.55514e-06,1.167e-05,2.22801e-05,4.06903e-05,7.26345e-05,0.000128062,0.000224237,0.000391115,0.000680672,0.0011831,0.00205487,0.00356753,0.00619221,0.0107464,inf	0.80435,0.80435,0.80435,0.80435,542.342,443.785,0.80435,3.22743,382.11,1425.51,106.645,694.932,1049.01,697.163,697.163,697.163
0.000112578	-7607575.38	0,2.03102e-06,5.55514e-06,1.167e-05,2.22801e-05,4.06903e-05,7.26345e-05,0.000128062,0.000224237,0.000391115,0.000680672,0.0011831,0.00205487,0.00356753,0.00619221,0.0107464,inf	0.80435,0.80435,0.80435,0.80435,543.994,473.887,0.80435,2.05243,355.804,1417.06,98.6993,684.14,1049.17,695.079,695.079,695.079
0.000105133	-7607386.92	0,2.03102e-06,5.55514e-06,1.167e-05,2.22801e-05,4.06903e-05,7.26345e-05,0.000128062,0.000224237,0.000391115,0.000680672,0.0011831,0.00205487,0.00356753,0.00619221,0.0107464,inf	0.80435,0.80435,0.80435,0.80435,545.336,503.64,0.80435,1.10627,333.307,1405.24,92.8425,673.083,1049.37,693.414,693.414,693.414
9.85223e-05	-7607237.88	0,2.03102e-06,5.55514e-06,1.167e-05,2.22801e-05,4.06903e-05,7.26345e-05,0.000128062,0.000224237,0.000391115,0.000680672,0.0011831,0.00205487,0.00356753,0.00619221,0.0107464,inf	0.80435,0.80435,0.80435,0.80435,546.104,532.887,0.80435,0.80435,314.295,1390.93,88.8126,661.939,1049.74,692.092,692.092,692.092
9.26747e-05	-7607121.55	0,2.03102e-06,5.55514e-06,1.167e-05,2.22801e-05,4.06903e-05,7.26345e-05,0.000128062,0.000224237,0.000391115,0.000680672,0.0011831,0.00205487,0.00356753,0.00619221,0.0107464,inf	0.80435,0.80435,0.80435,0.80435,545.922,561.357,0.80435,0.80435,298.349,1374.9,86.3752,650.871,1050.37,691.044,691.044,691.044
8.75164e-05	-7607031.59	0,2.03102e-06,5.55514e-06,1.167e-05,2.22801e-05,4.06903e-05,7.26345e-05,0.000128062,0.000224237,0.000391115,0.000680672,0.0011831,0.00205487,0.00356753,0.00619221,0.0107464,inf	0.80435,0.80435,0.80435,0.80435,544.709,588.763,0.80435,0.80435,285.087,1357.82,85.3163,640.017,1051.3,690.205,690.205,690.205
8.29757e-05	-7606962.49	0,2.03102e-06,5.55514e-06,1.167e-05,2.22801e-05,4.06903e-05,7.26345e-05,0.000128062,0.000224237,0.000391115,0.000680672,0.0011831,0.00205487,0.00356753,0.00619221,0.0107464,inf	0.80435,0.80435,0.80435,0.80435,542.47,614.958,0.80435,0.80435,274.154,1340.25,85.4339,629.49,1052.54,689.52,689.52,689.52
7.89846e-05	-7606909.71	0,2.03102e-06,5.55514e-06,1.167e-05,2.22801e-05,4.06903e-05,7.26345e-05,0.000128062,0.000224237,0.000391115,0.000680672,0.0011831,0.00205487,0.00356753,0.00619221,0.0107464,inf	0.80435,0.80435,0.80435,0.80435,539.301,639.83,0.80435,0.80435,265.212,1322.67,86.5336,619.38,1054.08,688.94,688.94,688.94
