time_index	left_time_boundary	right_time_boundary	lambda
0	0	2.03102e-06	0.80435
1	2.03102e-06	5.55514e-06	0.80435
2	5.55514e-06	1.167e-05	0.80435
3	1.167e-05	2.22801e-05	0.80435
4	2.22801e-05	4.06903e-05	539.301
5	4.06903e-05	7.26345e-05	639.83
6	7.26345e-05	0.000128062	0.80435
7	0.000128062	0.000224237	0.80435
8	0.000224237	0.000391115	265.212
9	0.000391115	0.000680672	1322.67
10	0.000680672	0.0011831	86.5336
11	0.0011831	0.00205487	619.38
12	0.00205487	0.00356753	1054.08
13	0.00356753	0.00619221	688.94
14	0.00619221	0.0107464	688.94
15	0.0107464	inf	688.94
