AIC = 667557.73295310314279

y0 0.3650107761961813857
y0_prime 0
y1 1.2291327579535988868
y1_prime 0
y2 0.80290364134127056861
y2_prime 0
y3 1.4533601174268728773
y3_prime 0
rho 0.0090868075446173344339
rho.alpha 0.2861094359691911948
r_ii 0.99982604062639168774
theta 0.005507312180032743372
