0.000377795	-176532.21	0,4.78604e-05,0.000113349,0.000202957,0.000325569,0.000493342,0.000722908,0.00103703,0.00146684,0.00205496,0.00285969,0.00396081,0.0054675,0.00752913,0.0103501,0.01421,inf	734.482,734.482,706.992,674.521,712.718,754.688,806.831,851.37,862.777,845.059,822.787,787.54,806.996,1012.51,1012.51,1012.51
0.000425949	-176447.86	0,4.78604e-05,0.000113349,0.000202957,0.000325569,0.000493342,0.000722908,0.00103703,0.00146684,0.00205496,0.00285969,0.00396081,0.0054675,0.00752913,0.0103501,0.01421,inf	748.83,748.83,693.091,628.746,683.93,739.407,812.798,884.921,910.029,887.257,851.179,788.05,827.471,1383.81,1383.81,1383.81
0.000470101	-176391.55	0,4.78604e-05,0.000113349,0.000202957,0.000325569,0.000493342,0.000722908,0.00103703,0.00146684,0.00205496,0.00285969,0.00396081,0.0054675,0.00752913,0.0103501,0.01421,inf	769.986,769.986,693.925,604.604,670.893,728.972,809.518,897.444,933.729,911.498,865.767,780.264,838.402,2181.34,2181.34,2181.34
0.00051092	-176349.20	0,4.78604e-05,0.000113349,0.000202957,0.000325569,0.000493342,0.000722908,0.00103703,0.00146684,0.00205496,0.00285969,0.00396081,0.0054675,0.00752913,0.0103501,0.01421,inf	786.729,786.729,698.734,591.196,666.702,722.584,803.708,900.4,945.052,925.753,872.518,768.668,844.371,6211.56,6211.56,6211.56
0.00051092	-176315.68	0,4.78604e-05,0.000113349,0.000202957,0.000325569,0.000493342,0.000722908,0.00103703,0.00146684,0.00205496,0.00285969,0.00396081,0.0054675,0.00752913,0.0103501,0.01421,inf	782.631,782.631,690.226,572.516,654.213,704.406,781.408,881.054,933.057,920.659,863.294,747.703,841.142,108234,108234,108234
0.00051092	-176313.55	0,4.78604e-05,0.000113349,0.000202957,0.000325569,0.000493342,0.000722908,0.00103703,0.00146684,0.00205496,0.00285969,0.00396081,0.0054675,0.00752913,0.0103501,0.01421,inf	782.632,782.632,690.226,564.944,654.087,698.437,770.552,871.173,927.576,919.764,857.537,729.893,839.28,108242,108242,108242
0.00051092	-176312.56	0,4.78604e-05,0.000113349,0.000202957,0.000325569,0.000493342,0.000722908,0.00103703,0.00146684,0.00205496,0.00285969,0.00396081,0.0054675,0.00752913,0.0103501,0.01421,inf	782.632,782.632,690.23,560.399,657.409,696.952,764.431,865.497,925.397,921.409,853.969,714.462,837.752,108247,108247,108247
0.00051092	-176312.07	0,4.78604e-05,0.000113349,0.000202957,0.000325569,0.000493342,0.000722908,0.00103703,0.00146684,0.00205496,0.00285969,0.00396081,0.0054675,0.00752913,0.0103501,0.01421,inf	782.632,782.632,690.23,556.688,660.121,696.952,760.386,861.914,924.773,924.411,851.703,700.702,836.37,108251,108251,108251
0.00051092	-176311.79	0,4.78604e-05,0.000113349,0.000202957,0.000325569,0.000493342,0.000722908,0.00103703,0.00146684,0.00205496,0.00285969,0.00396081,0.0054675,0.00752913,0.0103501,0.01421,inf	782.635,782.635,690.23,553.438,662.496,696.952,757.453,859.428,925.074,924.411,850.416,688.216,835.033,108255,108255,108255
0.00051092	-176311.55	0,4.78604e-05,0.000113349,0.000202957,0.000325569,0.000493342,0.000722908,0.00103703,0.00146684,0.00205496,0.00285969,0.00396081,0.0054675,0.00752913,0.0103501,0.01421,inf	782.636,782.636,690.23,550.533,664.62,696.952,755.306,857.731,926.055,925.438,849.962,676.916,833.775,108258,108258,108258
0.00051092	-176311.39	0,4.78604e-05,0.000113349,0.000202957,0.000325569,0.000493342,0.000722908,0.00103703,0.00146684,0.00205496,0.00285969,0.00396081,0.0054675,0.00752913,0.0103501,0.01421,inf	782.636,782.636,690.23,547.896,666.547,696.952,753.615,856.46,927.409,925.466,850.122,666.554,832.534,108260,108260,108260
0.00051092	-176311.27	0,4.78604e-05,0.000113349,0.000202957,0.000325569,0.000493342,0.000722908,0.00103703,0.00146684,0.00205496,0.00285969,0.00396081,0.0054675,0.00752913,0.0103501,0.01421,inf	782.637,782.637,690.23,545.477,666.547,698.244,752.259,855.489,928.843,925.466,850.122,657.056,831.318,108263,108263,108263
0.00051092	-176311.17	0,4.78604e-05,0.000113349,0.000202957,0.000325569,0.000493342,0.000722908,0.00103703,0.00146684,0.00205496,0.00285969,0.00396081,0.0054675,0.00752913,0.0103501,0.01421,inf	782.637,782.637,690.23,543.375,668.083,698.244,751.088,854.726,928.852,926.324,850.122,648.333,830.124,108265,108265,108265
0.00051092	-176311.06	0,4.78604e-05,0.000113349,0.000202957,0.000325569,0.000493342,0.000722908,0.00103703,0.00146684,0.00205496,0.00285969,0.00396081,0.0054675,0.00752913,0.0103501,0.01421,inf	782.638,782.638,690.23,541.432,669.503,698.244,750.162,854.208,929.724,926.324,850.122,640.31,828.949,108267,108267,108267
0.00051092	-176310.98	0,4.78604e-05,0.000113349,0.000202957,0.000325569,0.000493342,0.000722908,0.00103703,0.00146684,0.00205496,0.00285969,0.00396081,0.0054675,0.00752913,0.0103501,0.01421,inf	782.641,782.641,690.23,539.621,670.827,698.244,749.382,853.842,930.409,926.324,850.122,632.932,827.8,108270,108270,108270
0.00051092	-176310.90	0,4.78604e-05,0.000113349,0.000202957,0.000325569,0.000493342,0.000722908,0.00103703,0.00146684,0.00205496,0.00285969,0.00396081,0.0054675,0.00752913,0.0103501,0.01421,inf	782.641,782.641,690.23,537.924,672.067,698.244,748.719,853.604,930.937,926.324,850.122,626.143,826.678,108271,108271,108271
0.00051092	-176310.84	0,4.78604e-05,0.000113349,0.000202957,0.000325569,0.000493342,0.000722908,0.00103703,0.00146684,0.00205496,0.00285969,0.00396081,0.0054675,0.00752913,0.0103501,0.01421,inf	782.644,782.644,690.23,536.329,673.233,698.244,748.148,853.472,931.338,926.324,850.122,619.893,825.585,108273,108273,108273
0.00051092	-176310.78	0,4.78604e-05,0.000113349,0.000202957,0.000325569,0.000493342,0.000722908,0.00103703,0.00146684,0.00205496,0.00285969,0.00396081,0.0054675,0.00752913,0.0103501,0.01421,inf	782.644,782.644,690.23,534.824,674.333,698.244,747.653,853.441,931.34,926.533,850.122,614.134,824.518,108275,108275,108275
0.00051092	-176310.72	0,4.78604e-05,0.000113349,0.000202957,0.000325569,0.000493342,0.000722908,0.00103703,0.00146684,0.00205496,0.00285969,0.00396081,0.0054675,0.00752913,0.0103501,0.01421,inf	782.647,782.647,690.23,533.4,675.373,698.244,747.226,853.5,931.525,926.533,850.122,608.823,823.478,108276,108276,108276
0.00051092	-176310.67	0,4.78604e-05,0.000113349,0.000202957,0.000325569,0.000493342,0.000722908,0.00103703,0.00146684,0.00205496,0.00285969,0.00396081,0.0054675,0.00752913,0.0103501,0.01421,inf	782.648,782.648,690.23,532.047,675.373,698.966,746.847,853.62,931.639,926.533,850.122,603.924,822.466,108278,108278,108278
