0.000684996	-8590305.67	0,2.67305e-06,6.14232e-06,1.0645e-05,1.64888e-05,2.40733e-05,3.39169e-05,4.66927e-05,6.32739e-05,8.47941e-05,0.000112724,0.000148974,0.000196021,0.000257083,0.000336332,0.000439187,0.000572678,0.000745933,0.000970793,0.00126263,0.0016414,0.00213299,0.00277101,0.00359907,0.00467378,0.00606862,0.00787892,0.0102285,0.0132778,0.0172355,0.0223721,0.0290386,inf	84.3509,84.3509,187.38,256.194,301.707,333.599,349.408,355.483,356.958,351.132,339.072,328.289,322.737,323.556,330.065,339.691,352.269,367.553,384.965,402.354,416.284,423.312,422.005,416.21,410.119,404.788,402.026,409.934,409.934,463.636,463.636,463.636
0.000738095	-8588456.17	0,2.67305e-06,6.14232e-06,1.0645e-05,1.64888e-05,2.40733e-05,3.39169e-05,4.66927e-05,6.32739e-05,8.47941e-05,0.000112724,0.000148974,0.000196021,0.000257083,0.000336332,0.000439187,0.000572678,0.000745933,0.000970793,0.00126263,0.0016414,0.00213299,0.00277101,0.00359907,0.00467378,0.00606862,0.00787892,0.0102285,0.0132778,0.0172355,0.0223721,0.0290386,inf	22.9221,22.9221,113.544,204.715,273.302,327.047,354.922,365.922,368.944,357.225,333.171,311.786,299.723,298.413,306.175,318.32,334.913,355.786,380.464,405.834,426.705,437.381,434.885,425.384,415.604,406.781,402.358,418.419,418.419,545.324,545.324,545.324
0.000787251	-8587238.76	0,2.67305e-06,6.14232e-06,1.0645e-05,1.64888e-05,2.40733e-05,3.39169e-05,4.66927e-05,6.32739e-05,8.47941e-05,0.000112724,0.000148974,0.000196021,0.000257083,0.000336332,0.000439187,0.000572678,0.000745933,0.000970793,0.00126263,0.0016414,0.00213299,0.00277101,0.00359907,0.00467378,0.00606862,0.00787892,0.0102285,0.0132778,0.0172355,0.0223721,0.0290386,inf	6.7582,6.7582,74.7802,172.645,253.985,324.512,363.496,380.688,387.475,371.854,337.83,307.952,290.92,288.062,296.411,309.376,327.424,350.57,378.628,407.973,432.49,445.069,441.512,429.58,417.523,406.262,400.728,424.539,424.539,654.613,654.613,654.613
0.000832932	-8586316.71	0,2.67305e-06,6.14232e-06,1.0645e-05,1.64888e-05,2.40733e-05,3.39169e-05,4.66927e-05,6.32739e-05,8.47941e-05,0.000112724,0.000148974,0.000196021,0.000257083,0.000336332,0.000439187,0.000572678,0.000745933,0.000970793,0.00126263,0.0016414,0.00213299,0.00277101,0.00359907,0.00467378,0.00606862,0.00787892,0.0102285,0.0132778,0.0172355,0.0223721,0.0290386,inf	2.10167,2.10167,51.9765,149.604,236.379,318.506,366.686,390.44,402.555,384.948,343.197,307.031,286.722,283.308,292.418,305.774,324.336,348.364,378.01,409.34,435.761,449.255,444.725,431.132,417.624,404.525,398.137,429.049,429.049,820.151,820.151,820.151
0.00087559	-8585579.24	0,2.67305e-06,6.14232e-06,1.0645e-05,1.64888e-05,2.40733e-05,3.39169e-05,4.66927e-05,6.32739e-05,8.47941e-05,0.000112724,0.000148974,0.000196021,0.000257083,0.000336332,0.000439187,0.000572678,0.000745933,0.000970793,0.00126263,0.0016414,0.00213299,0.00277101,0.00359907,0.00467378,0.00606862,0.00787892,0.0102285,0.0132778,0.0172355,0.0223721,0.0290386,inf	0.68326,0.68326,38.0807,133.271,220.972,310.303,365.239,394.991,413,394.688,347.047,306.391,284.156,281.008,291.149,304.802,323.487,347.746,378.065,410.309,437.659,451.497,446.066,431.296,416.832,402.25,395.117,432.431,432.431,1144.56,1144.56,1144.56
0.000915586	-8584973.63	0,2.67305e-06,6.14232e-06,1.0645e-05,1.64888e-05,2.40733e-05,3.39169e-05,4.66927e-05,6.32739e-05,8.47941e-05,0.000112724,0.000148974,0.000196021,0.000257083,0.000336332,0.000439187,0.000572678,0.000745933,0.000970793,0.00126263,0.0016414,0.00213299,0.00277101,0.00359907,0.00467378,0.00606862,0.00787892,0.0102285,0.0132778,0.0172355,0.0223721,0.0290386,inf	0.39798,0.39798,29.3719,122.265,208.472,301.862,361.271,396.012,419.797,401.441,349.23,305.408,282.215,279.912,291.283,305.226,323.854,348.017,378.513,411.067,438.781,452.63,446.37,430.743,415.631,399.779,391.932,434.99,434.99,2412.8,2412.8,2412.8
0.000953204	-8584469.39	0,2.67305e-06,6.14232e-06,1.0645e-05,1.64888e-05,2.40733e-05,3.39169e-05,4.66927e-05,6.32739e-05,8.47941e-05,0.000112724,0.000148974,0.000196021,0.000257083,0.000336332,0.000439187,0.000572678,0.000745933,0.000970793,0.00126263,0.0016414,0.00213299,0.00277101,0.00359907,0.00467378,0.00606862,0.00787892,0.0102285,0.0132778,0.0172355,0.0223721,0.0290386,inf	0.39798,0.39798,23.7558,115.339,198.943,294.371,356.392,395.036,424.151,405.99,350.09,304.03,280.545,279.464,292.179,306.414,324.896,348.793,379.184,411.698,439.446,453.113,446.093,429.829,414.264,397.27,388.69,436.911,436.911,60325.6,60325.6,60325.6
0.000953204	-8584043.39	0,2.67305e-06,6.14232e-06,1.0645e-05,1.64888e-05,2.40733e-05,3.39169e-05,4.66927e-05,6.32739e-05,8.47941e-05,0.000112724,0.000148974,0.000196021,0.000257083,0.000336332,0.000439187,0.000572678,0.000745933,0.000970793,0.00126263,0.0016414,0.00213299,0.00277101,0.00359907,0.00467378,0.00606862,0.00787892,0.0102285,0.0132778,0.0172355,0.0223721,0.0290386,inf	0.39798,0.39798,19.7912,110.31,190.007,285.228,347.762,388.897,422.366,404.55,346.168,299.03,275.946,276.295,290.222,304.574,322.654,345.942,375.745,407.701,435.134,448.704,441.589,425.504,409.94,392.374,383.568,436.588,436.588,60930.3,60930.3,60930.3
