0.000675851	-1827273.36	0,9.82784e-06,2.19839e-05,3.70198e-05,5.56177e-05,7.86214e-05,0.000107075,0.000142269,0.0001858,0.000239645,0.000306245,0.000388622,0.000490516,0.000616547,0.000772436,0.000965255,0.00120375,0.00149875,0.00186364,0.00231496,0.00287321,0.00356371,0.00441778,0.00547419,0.00678086,0.00839709,0.0103962,0.0128689,0.0159274,0.0197104,0.0243897,0.0301775,inf	406.438,406.438,389.315,393.805,404.911,398.076,368.706,337.24,321.325,317.164,320.549,329.666,342.026,356.026,371.275,387.713,403.716,417.753,428.174,432.397,430.519,425.64,420.859,416.432,412.781,413.261,417.144,429.188,429.188,478.617,478.617,478.617
0.000725874	-1826865.81	0,9.82784e-06,2.19839e-05,3.70198e-05,5.56177e-05,7.86214e-05,0.000107075,0.000142269,0.0001858,0.000239645,0.000306245,0.000388622,0.000490516,0.000616547,0.000772436,0.000965255,0.00120375,0.00149875,0.00186364,0.00231496,0.00287321,0.00356371,0.00441778,0.00547419,0.00678086,0.00839709,0.0103962,0.0128689,0.0159274,0.0197104,0.0243897,0.0301775,inf	419.048,419.048,393.594,411.404,442.664,434.216,378.007,320.979,293.881,285.72,289.172,301.477,318.474,337.664,358.836,382.275,405.471,426.37,442.549,449.249,446.021,438.041,430.598,423.6,417.786,419.672,428.095,454.097,454.097,583.661,583.661,583.661
0.000772102	-1826610.36	0,9.82784e-06,2.19839e-05,3.70198e-05,5.56177e-05,7.86214e-05,0.000107075,0.000142269,0.0001858,0.000239645,0.000306245,0.000388622,0.000490516,0.000616547,0.000772436,0.000965255,0.00120375,0.00149875,0.00186364,0.00231496,0.00287321,0.00356371,0.00441778,0.00547419,0.00678086,0.00839709,0.0103962,0.0128689,0.0159274,0.0197104,0.0243897,0.0301775,inf	415.752,415.752,383.954,418.775,476.613,472.193,392.666,315.43,281.349,270.887,274.421,288.649,308.029,329.483,353.219,379.927,406.494,430.855,450.299,458.385,454.031,443.959,435.041,426.505,419.344,422.951,436.025,477.18,477.18,746.727,746.727,746.727
0.000814998	-1826420.36	0,9.82784e-06,2.19839e-05,3.70198e-05,5.56177e-05,7.86214e-05,0.000107075,0.000142269,0.0001858,0.000239645,0.000306245,0.000388622,0.000490516,0.000616547,0.000772436,0.000965255,0.00120375,0.00149875,0.00186364,0.00231496,0.00287321,0.00356371,0.00441778,0.00547419,0.00678086,0.00839709,0.0103962,0.0128689,0.0159274,0.0197104,0.0243897,0.0301775,inf	405.471,405.471,363.923,414.07,500.148,503.723,404.633,311.978,274.067,262.733,266.792,282.667,303.573,326.07,350.899,379.115,407.155,433.202,454.507,463.292,457.905,446.317,436.581,427.067,418.986,424.331,441.891,499.012,499.012,1068.91,1068.91,1068.91
0.000855021	-1826268.34	0,9.82784e-06,2.19839e-05,3.70198e-05,5.56177e-05,7.86214e-05,0.000107075,0.000142269,0.0001858,0.000239645,0.000306245,0.000388622,0.000490516,0.000616547,0.000772436,0.000965255,0.00120375,0.00149875,0.00186364,0.00231496,0.00287321,0.00356371,0.00441778,0.00547419,0.00678086,0.00839709,0.0103962,0.0128689,0.0159274,0.0197104,0.0243897,0.0301775,inf	396.063,396.063,340.205,401.829,514.71,528.274,412.737,308.509,268.967,257.742,262.703,280.167,302.201,325.153,350.358,379.172,407.674,434.44,456.796,465.861,459.497,446.738,436.55,426.363,417.581,424.542,446.309,520.044,520.044,2210.95,2210.95,2210.95
0.000892537	-1826142.48	0,9.82784e-06,2.19839e-05,3.70198e-05,5.56177e-05,7.86214e-05,0.000107075,0.000142269,0.0001858,0.000239645,0.000306245,0.000388622,0.000490516,0.000616547,0.000772436,0.000965255,0.00120375,0.00149875,0.00186364,0.00231496,0.00287321,0.00356371,0.00441778,0.00547419,0.00678086,0.00839709,0.0103962,0.0128689,0.0159274,0.0197104,0.0243897,0.0301775,inf	390.485,390.485,316.844,386.123,523.12,547.233,417.515,304.633,264.924,254.438,260.549,279.578,302.51,325.604,350.815,379.731,408.137,435.086,458.021,467.118,459.823,446.119,435.688,424.991,415.613,424.019,449.671,540.65,540.65,31787.3,31787.3,31787.3
0.000892537	-1826036.29	0,9.82784e-06,2.19839e-05,3.70198e-05,5.56177e-05,7.86214e-05,0.000107075,0.000142269,0.0001858,0.000239645,0.000306245,0.000388622,0.000490516,0.000616547,0.000772436,0.000965255,0.00120375,0.00149875,0.00186364,0.00231496,0.00287321,0.00356371,0.00441778,0.00547419,0.00678086,0.00839709,0.0103962,0.0128689,0.0159274,0.0197104,0.0243897,0.0301775,inf	384.496,384.496,292.192,365.275,521.573,555.379,414.703,296.789,258.335,249.075,256.379,276.67,300.05,322.834,347.569,375.993,403.741,430.424,453.663,462.97,455.401,441.524,431.422,420.693,411.134,420.995,450.4,559.244,559.244,68611.1,68611.1,68611.1
0.000892537	-1826035.82	0,9.82784e-06,2.19839e-05,3.70198e-05,5.56177e-05,7.86214e-05,0.000107075,0.000142269,0.0001858,0.000239645,0.000306245,0.000388622,0.000490516,0.000616547,0.000772436,0.000965255,0.00120375,0.00149875,0.00186364,0.00231496,0.00287321,0.00356371,0.00441778,0.00547419,0.00678086,0.00839709,0.0103962,0.0128689,0.0159274,0.0197104,0.0243897,0.0301775,inf	384.815,384.815,275.134,350.687,526.126,569.743,414.703,292.502,254.821,246.473,254.792,276.312,300.159,322.663,346.976,374.978,402.106,428.503,451.953,461.267,453.134,438.775,428.647,417.593,407.611,418.664,451.649,562.484,562.484,68611.1,68611.1,68611.1
0.000892537	-1826035.84	0,9.82784e-06,2.19839e-05,3.70198e-05,5.56177e-05,7.86214e-05,0.000107075,0.000142269,0.0001858,0.000239645,0.000306245,0.000388622,0.000490516,0.000616547,0.000772436,0.000965255,0.00120375,0.00149875,0.00186364,0.00231496,0.00287321,0.00356371,0.00441778,0.00547419,0.00678086,0.00839709,0.0103962,0.0128689,0.0159274,0.0197104,0.0243897,0.0301775,inf	385.095,385.095,261.117,337.689,531.224,581.525,414.703,289.041,252.141,244.62,253.874,276.589,300.914,323.184,347.155,374.843,401.457,427.66,451.385,460.697,451.973,437.005,426.813,415.34,404.786,416.844,453.258,564.337,564.337,68611.1,68611.1,68611.1
0.000892537	-1826035.77	0,9.82784e-06,2.19839e-05,3.70198e-05,5.56177e-05,7.86214e-05,0.000107075,0.000142269,0.0001858,0.000239645,0.000306245,0.000388622,0.000490516,0.000616547,0.000772436,0.000965255,0.00120375,0.00149875,0.00186364,0.00231496,0.00287321,0.00356371,0.00441778,0.00547419,0.00678086,0.00839709,0.0103962,0.0128689,0.0159274,0.0197104,0.0243897,0.0301775,inf	385.14,385.14,249.425,325.947,536.461,591.149,414.703,285.962,249.846,243.061,253.104,276.956,301.738,323.807,347.493,374.946,401.136,427.233,451.321,460.712,451.392,435.856,425.584,413.645,402.434,415.376,455.124,565.417,565.417,68611.1,68611.1,68611.1
0.000892537	-1826035.62	0,9.82784e-06,2.19839e-05,3.70198e-05,5.56177e-05,7.86214e-05,0.000107075,0.000142269,0.0001858,0.000239645,0.000306245,0.000388622,0.000490516,0.000616547,0.000772436,0.000965255,0.00120375,0.00149875,0.00186364,0.00231496,0.00287321,0.00356371,0.00441778,0.00547419,0.00678086,0.00839709,0.0103962,0.0128689,0.0159274,0.0197104,0.0243897,0.0301775,inf	385.19,385.19,239.635,315.262,541.872,598.931,414.703,283.171,247.826,241.687,252.438,277.315,302.517,324.372,347.495,375.063,400.895,426.956,451.466,461.007,451.155,435.089,424.752,412.333,400.415,414.157,457.181,566.015,566.015,68611.1,68611.1,68611.1
0.000892537	-1826035.46	0,9.82784e-06,2.19839e-05,3.70198e-05,5.56177e-05,7.86214e-05,0.000107075,0.000142269,0.0001858,0.000239645,0.000306245,0.000388622,0.000490516,0.000616547,0.000772436,0.000965255,0.00120375,0.00149875,0.00186364,0.00231496,0.00287321,0.00356371,0.00441778,0.00547419,0.00678086,0.00839709,0.0103962,0.0128689,0.0159274,0.0197104,0.0243897,0.0301775,inf	385.382,385.382,231.412,305.489,547.501,605.113,414.703,280.667,246.073,240.496,251.846,277.688,303.263,324.891,347.77,375.174,400.675,426.734,451.708,461.007,451.116,434.565,424.191,411.294,398.638,413.12,459.387,566.306,566.306,68611.1,68611.1,68611.1
0.000892537	-1826035.35	0,9.82784e-06,2.19839e-05,3.70198e-05,5.56177e-05,7.86214e-05,0.000107075,0.000142269,0.0001858,0.000239645,0.000306245,0.000388622,0.000490516,0.000616547,0.000772436,0.000965255,0.00120375,0.00149875,0.00186364,0.00231496,0.00287321,0.00356371,0.00441778,0.00547419,0.00678086,0.00839709,0.0103962,0.0128689,0.0159274,0.0197104,0.0243897,0.0301775,inf	385.599,385.599,224.46,296.492,553.333,609.953,414.703,278.398,244.533,239.422,251.307,278.054,303.944,325.33,347.973,375.24,400.444,426.535,452.007,461.108,451.117,434.222,423.835,410.463,397.047,412.266,459.387,567.188,567.188,68611.1,68611.1,68611.1
0.000892537	-1826035.19	0,9.82784e-06,2.19839e-05,3.70198e-05,5.56177e-05,7.86214e-05,0.000107075,0.000142269,0.0001858,0.000239645,0.000306245,0.000388622,0.000490516,0.000616547,0.000772436,0.000965255,0.00120375,0.00149875,0.00186364,0.00231496,0.00287321,0.00356371,0.00441778,0.00547419,0.00678086,0.00839709,0.0103962,0.0128689,0.0159274,0.0197104,0.0243897,0.0301775,inf	385.75,385.75,218.568,288.167,559.367,613.629,414.703,276.352,243.191,238.497,250.823,278.398,304.574,325.704,348.116,375.264,400.193,426.33,452.335,461.208,451.12,434.012,423.641,409.809,395.624,411.516,461.425,567.188,567.188,68611.1,68611.1,68611.1
0.000892537	-1826035.11	0,9.82784e-06,2.19839e-05,3.70198e-05,5.56177e-05,7.86214e-05,0.000107075,0.000142269,0.0001858,0.000239645,0.000306245,0.000388622,0.000490516,0.000616547,0.000772436,0.000965255,0.00120375,0.00149875,0.00186364,0.00231496,0.00287321,0.00356371,0.00441778,0.00547419,0.00678086,0.00839709,0.0103962,0.0128689,0.0159274,0.0197104,0.0243897,0.0301775,inf	385.907,385.907,213.536,280.432,565.603,616.303,414.703,274.516,242.03,237.685,250.39,278.737,305.167,326.028,348.214,375.257,399.926,426.13,452.674,461.304,451.12,433.891,423.56,409.276,394.314,410.89,461.425,567.81,567.81,68611.1,68611.1,68611.1
0.000892537	-1826035.00	0,9.82784e-06,2.19839e-05,3.70198e-05,5.56177e-05,7.86214e-05,0.000107075,0.000142269,0.0001858,0.000239645,0.000306245,0.000388622,0.000490516,0.000616547,0.000772436,0.000965255,0.00120375,0.00149875,0.00186364,0.00231496,0.00287321,0.00356371,0.00441778,0.00547419,0.00678086,0.00839709,0.0103962,0.0128689,0.0159274,0.0197104,0.0243897,0.0301775,inf	386.099,386.099,209.237,273.206,572.027,618.104,414.703,272.864,241.027,236.965,250.012,279.074,305.728,326.314,348.278,375.229,399.65,425.928,453.019,461.304,451.189,433.845,423.576,408.856,393.116,410.335,462.889,567.81,567.81,68611.1,68611.1,68611.1
0.000892537	-1826034.94	0,9.82784e-06,2.19839e-05,3.70198e-05,5.56177e-05,7.86214e-05,0.000107075,0.000142269,0.0001858,0.000239645,0.000306245,0.000388622,0.000490516,0.000616547,0.000772436,0.000965255,0.00120375,0.00149875,0.00186364,0.00231496,0.00287321,0.00356371,0.00441778,0.00547419,0.00678086,0.00839709,0.0103962,0.0128689,0.0159274,0.0197104,0.0243897,0.0301775,inf	386.101,386.101,205.56,266.404,578.683,619.178,414.703,271.391,240.162,236.335,249.664,279.409,306.264,326.569,348.327,375.197,399.372,425.72,453.366,461.304,451.246,433.842,423.578,408.515,391.994,409.866,464.181,567.81,567.81,68611.1,68611.1,68611.1
0.000892537	-1826034.89	0,9.82784e-06,2.19839e-05,3.70198e-05,5.56177e-05,7.86214e-05,0.000107075,0.000142269,0.0001858,0.000239645,0.000306245,0.000388622,0.000490516,0.000616547,0.000772436,0.000965255,0.00120375,0.00149875,0.00186364,0.00231496,0.00287321,0.00356371,0.00441778,0.00547419,0.00678086,0.00839709,0.0103962,0.0128689,0.0159274,0.0197104,0.0243897,0.0301775,inf	386.101,386.101,202.404,259.985,585.504,619.178,415.041,270.058,239.419,235.783,249.347,279.737,306.774,326.797,348.356,375.156,399.092,425.515,453.715,461.361,451.246,433.842,423.578,408.243,390.937,409.452,465.351,567.81,567.81,68611.1,68611.1,68611.1
0.000892537	-1826034.84	0,9.82784e-06,2.19839e-05,3.70198e-05,5.56177e-05,7.86214e-05,0.000107075,0.000142269,0.0001858,0.000239645,0.000306245,0.000388622,0.000490516,0.000616547,0.000772436,0.000965255,0.00120375,0.00149875,0.00186364,0.00231496,0.00287321,0.00356371,0.00441778,0.00547419,0.00678086,0.00839709,0.0103962,0.0128689,0.0159274,0.0197104,0.0243897,0.0301775,inf	386.101,386.101,199.702,253.899,592.274,619.178,415.042,268.844,238.775,235.293,249.052,280.057,307.259,326.999,348.369,375.109,398.813,425.31,454.065,461.41,451.246,433.842,423.578,408.033,389.941,409.086,466.409,567.81,567.81,68611.1,68611.1,68611.1
0.000892537	-1826034.80	0,9.82784e-06,2.19839e-05,3.70198e-05,5.56177e-05,7.86214e-05,0.000107075,0.000142269,0.0001858,0.000239645,0.000306245,0.000388622,0.000490516,0.000616547,0.000772436,0.000965255,0.00120375,0.00149875,0.00186364,0.00231496,0.00287321,0.00356371,0.00441778,0.00547419,0.00678086,0.00839709,0.0103962,0.0128689,0.0159274,0.0197104,0.0243897,0.0301775,inf	386.101,386.101,197.379,248.1,598.565,619.178,415.042,267.744,238.225,234.861,248.778,280.368,307.723,327.181,348.37,375.059,398.536,425.108,454.414,461.445,451.246,433.842,423.578,407.878,388.998,408.763,467.368,567.81,567.81,68611.1,68611.1,68611.1
