time_index	left_time_boundary	right_time_boundary	lambda
0	0	2.64275e-06	2013.26
1	2.64275e-06	6.07269e-06	2013.26
2	6.07269e-06	1.05243e-05	587.11
3	1.05243e-05	1.63019e-05	203.777
4	1.63019e-05	2.38004e-05	418.828
5	2.38004e-05	3.35325e-05	465.288
6	3.35325e-05	4.61634e-05	317.67
7	4.61634e-05	6.25566e-05	300.315
8	6.25566e-05	8.38329e-05	330.976
9	8.38329e-05	0.000111447	364.113
10	0.000111447	0.000147285	382.432
11	0.000147285	0.000193799	350.959
12	0.000193799	0.000254168	323.465
13	0.000254168	0.000332519	329.282
14	0.000332519	0.000434208	350.365
15	0.000434208	0.000566187	364.414
16	0.000566187	0.000737477	373.718
17	0.000737477	0.000959789	377.146
18	0.000959789	0.00124832	380.272
19	0.00124832	0.00162279	392.42
20	0.00162279	0.00210881	419.837
21	0.00210881	0.0027396	448.415
22	0.0027396	0.00355827	453.849
23	0.00355827	0.0046208	447.507
24	0.0046208	0.00599982	437.155
25	0.00599982	0.00778961	396.086
26	0.00778961	0.0101125	378.558
27	0.0101125	0.0131273	430.015
28	0.0131273	0.0170401	430.015
29	0.0170401	0.0221185	356.086
30	0.0221185	0.0287094	356.086
31	0.0287094	inf	356.086
