time_index	left_time_boundary	right_time_boundary	lambda
0	0	9.39386e-05	427
1	9.39386e-05	0.000222476	427
2	0.000222476	0.000398356	376.193
3	0.000398356	0.000639015	378.862
4	0.000639015	0.000968313	318.903
5	0.000968313	0.0014189	381.418
6	0.0014189	0.00203543	427.897
7	0.00203543	0.00287905	439.504
8	0.00287905	0.00403339	386.727
9	0.00403339	0.00561289	391.17
10	0.00561289	0.00777413	425.963
11	0.00777413	0.0107314	392.014
12	0.0107314	0.0147779	218.57
13	0.0147779	0.0203147	335.251
14	0.0203147	0.0278909	335.251
15	0.0278909	inf	335.251
