time_index	left_time_boundary	right_time_boundary	lambda
0	0	1.74879e-06	7.91639
1	1.74879e-06	4.05238e-06	7.91639
2	4.05238e-06	7.08678e-06	1911.88
3	7.08678e-06	1.10838e-05	1618.99
4	1.10838e-05	1.6349e-05	601.21
5	1.6349e-05	2.32844e-05	385.171
6	2.32844e-05	3.24202e-05	290.927
7	3.24202e-05	4.44543e-05	269.487
8	4.44543e-05	6.03061e-05	344.072
9	6.03061e-05	8.11869e-05	384.322
10	8.11869e-05	0.000108692	384.069
11	0.000108692	0.000144923	390.862
12	0.000144923	0.000192649	369.382
13	0.000192649	0.000255515	348.385
14	0.000255515	0.000338326	352.017
15	0.000338326	0.000447408	357.871
16	0.000447408	0.000591097	357.946
17	0.000591097	0.00078037	366.371
18	0.00078037	0.00102969	370.245
19	0.00102969	0.00135811	379.552
20	0.00135811	0.00179071	403.563
21	0.00179071	0.00236056	435.542
22	0.00236056	0.0031112	452.564
23	0.0031112	0.00409997	433.762
24	0.00409997	0.00540243	417.55
25	0.00540243	0.00711809	430.434
26	0.00711809	0.00937804	444.063
27	0.00937804	0.012355	424.135
28	0.012355	0.0162763	424.135
29	0.0162763	0.0214417	148.911
30	0.0214417	0.0282458	148.911
31	0.0282458	inf	148.911
