time_index	left_time_boundary	right_time_boundary	lambda
0	0	1.03017e-05	496.298
1	1.03017e-05	2.69909e-05	496.298
2	2.69909e-05	5.40278e-05	53.0983
3	5.40278e-05	9.78284e-05	241.878
4	9.78284e-05	0.000168787	407.732
5	0.000168787	0.000283742	331.474
6	0.000283742	0.000469972	357.705
7	0.000469972	0.000771672	372.186
8	0.000771672	0.00126043	379.406
9	0.00126043	0.00205225	402.102
10	0.00205225	0.003335	466.744
11	0.003335	0.00541311	431.9
12	0.00541311	0.00877972	375.689
13	0.00877972	0.0142337	280.161
14	0.0142337	0.0230694	280.161
15	0.0230694	inf	280.161
