0.000619053	-279822.76	0,3.83977e-05,8.33134e-05,0.000135854,0.000197312,0.000269204,0.000353299,0.000451669,0.000566738,0.000701339,0.000858789,0.00104297,0.00125841,0.00151042,0.00180521,0.00215004,0.00255341,0.00302525,0.00357718,0.00422281,0.00497803,0.00586144,0.00689482,0.00810361,0.0095176,0.0111716,0.0131064,0.0153696,0.018017,0.0211138,0.0247362,0.0289736,inf	484.705,484.705,292.762,287.251,279.782,273.664,274.417,281.338,292.473,308.576,330.87,359.961,395.186,433.373,468.407,493.536,505.75,506.988,500.955,491.218,481.239,473.753,469.165,465.088,460.02,455.272,452.239,459.749,459.749,518.063,518.063,518.063
0.000676861	-279638.67	0,3.83977e-05,8.33134e-05,0.000135854,0.000197312,0.000269204,0.000353299,0.000451669,0.000566738,0.000701339,0.000858789,0.00104297,0.00125841,0.00151042,0.00180521,0.00215004,0.00255341,0.00302525,0.00357718,0.00422281,0.00497803,0.00586144,0.00689482,0.00810361,0.0095176,0.0111716,0.0131064,0.0153696,0.018017,0.0211138,0.0247362,0.0289736,inf	579.494,579.494,264.878,259.696,245.504,230.941,227.121,232.475,243.633,261.949,289.582,327.95,376.877,432.618,486.427,527.009,547.724,550.364,540.436,523.783,506.643,494.124,486.807,479.899,470.698,461.982,456.441,472.015,472.015,598.379,598.379,598.379
0.000733018	-279548.04	0,3.83977e-05,8.33134e-05,0.000135854,0.000197312,0.000269204,0.000353299,0.000451669,0.000566738,0.000701339,0.000858789,0.00104297,0.00125841,0.00151042,0.00180521,0.00215004,0.00255341,0.00302525,0.00357718,0.00422281,0.00497803,0.00586144,0.00689482,0.00810361,0.0095176,0.0111716,0.0131064,0.0153696,0.018017,0.0211138,0.0247362,0.0289736,inf	652.942,652.942,257.415,257.85,239.394,217.489,209.447,212.335,221.642,239.344,268.302,310.51,366.252,431.719,496.854,547.464,574.059,577.89,565.403,543.886,521.74,506.027,497.312,488.566,476.183,464.277,456.619,479.761,479.761,683.314,683.314,683.314
0.000786853	-279487.59	0,3.83977e-05,8.33134e-05,0.000135854,0.000197312,0.000269204,0.000353299,0.000451669,0.000566738,0.000701339,0.000858789,0.00104297,0.00125841,0.00151042,0.00180521,0.00215004,0.00255341,0.00302525,0.00357718,0.00422281,0.00497803,0.00586144,0.00689482,0.00810361,0.0095176,0.0111716,0.0131064,0.0153696,0.018017,0.0211138,0.0247362,0.0289736,inf	692.566,692.566,252.319,262.281,241.88,214.01,202.655,203.239,210.394,226.758,255.723,299.653,359.151,430.436,502.711,559.876,590.367,594.943,580.586,555.538,529.881,512.233,503.007,493.181,478.455,464.038,454.559,484.293,484.293,774.155,774.155,774.155
0.000838507	-279441.43	0,3.83977e-05,8.33134e-05,0.000135854,0.000197312,0.000269204,0.000353299,0.000451669,0.000566738,0.000701339,0.000858789,0.00104297,0.00125841,0.00151042,0.00180521,0.00215004,0.00255341,0.00302525,0.00357718,0.00422281,0.00497803,0.00586144,0.00689482,0.00810361,0.0095176,0.0111716,0.0131064,0.0153696,0.018017,0.0211138,0.0247362,0.0289736,inf	706.154,706.154,246.104,267.746,247.172,214.564,200.733,199.328,204.396,219.279,247.779,292.48,354.177,429.101,505.987,567.429,600.37,605.222,589.328,561.602,533.451,514.709,505.555,495.223,478.855,462.484,451.419,486.648,486.648,872.822,872.822,872.822
0.000888243	-279403.47	0,3.83977e-05,8.33134e-05,0.000135854,0.000197312,0.000269204,0.000353299,0.000451669,0.000566738,0.000701339,0.000858789,0.00104297,0.00125841,0.00151042,0.00180521,0.00215004,0.00255341,0.00302525,0.00357718,0.00422281,0.00497803,0.00586144,0.00689482,0.00810361,0.0095176,0.0111716,0.0131064,0.0153696,0.018017,0.0211138,0.0247362,0.0289736,inf	704.255,704.255,238.586,272.659,253.129,216.817,201.211,198.123,201.268,214.72,242.602,287.617,350.653,427.921,507.825,572.024,606.384,611.114,593.841,563.995,534.043,514.77,506.067,495.658,478.213,460.329,447.868,487.565,487.565,982.312,982.312,982.312
0.000936299	-279370.91	0,3.83977e-05,8.33134e-05,0.000135854,0.000197312,0.000269204,0.000353299,0.000451669,0.000566738,0.000701339,0.000858789,0.00104297,0.00125841,0.00151042,0.00180521,0.00215004,0.00255341,0.00302525,0.00357718,0.00422281,0.00497803,0.00586144,0.00689482,0.00810361,0.0095176,0.0111716,0.0131064,0.0153696,0.018017,0.0211138,0.0247362,0.0289736,inf	694.759,694.759,230.237,276.579,258.866,219.71,202.904,198.41,199.815,211.949,239.19,284.295,348.171,426.978,508.863,574.79,609.845,614.143,595.568,563.976,532.704,513.274,505.268,495.102,477.021,457.969,444.272,487.551,487.551,1107.58,1107.58,1107.58
0.000982865	-279342.27	0,3.83977e-05,8.33134e-05,0.000135854,0.000197312,0.000269204,0.000353299,0.000451669,0.000566738,0.000701339,0.000858789,0.00104297,0.00125841,0.00151042,0.00180521,0.00215004,0.00255341,0.00302525,0.00357718,0.00422281,0.00497803,0.00586144,0.00689482,0.00810361,0.0095176,0.0111716,0.0131064,0.0153696,0.018017,0.0211138,0.0247362,0.0289736,inf	682.36,682.36,221.521,279.469,264.014,222.726,205.194,199.532,199.38,210.325,236.961,282.045,346.459,426.283,509.457,576.409,611.651,615.287,595.451,562.376,530.123,510.784,503.629,493.942,475.565,455.614,440.815,486.933,486.933,1257.69,1257.69,1257.69
0.00102809	-279316.68	0,3.83977e-05,8.33134e-05,0.000135854,0.000197312,0.000269204,0.000353299,0.000451669,0.000566738,0.000701339,0.000858789,0.00104297,0.00125841,0.00151042,0.00180521,0.00215004,0.00255341,0.00302525,0.00357718,0.00422281,0.00497803,0.00586144,0.00689482,0.00810361,0.0095176,0.0111716,0.0131064,0.0153696,0.018017,0.0211138,0.0247362,0.0289736,inf	669.631,669.631,212.792,281.445,268.452,225.617,207.745,201.119,199.577,209.461,235.547,280.563,345.325,425.821,509.811,577.298,612.37,615.183,594.114,559.746,526.755,507.671,501.459,492.422,474.009,453.367,437.583,485.931,485.931,1451.79,1451.79,1451.79
0.0010721	-279293.59	0,3.83977e-05,8.33134e-05,0.000135854,0.000197312,0.000269204,0.000353299,0.000451669,0.000566738,0.000701339,0.000858789,0.00104297,0.00125841,0.00151042,0.00180521,0.00215004,0.00255341,0.00302525,0.00357718,0.00422281,0.00497803,0.00586144,0.00689482,0.00810361,0.0095176,0.0111716,0.0131064,0.0153696,0.018017,0.0211138,0.0247362,0.0289736,inf	657.807,657.807,204.285,282.673,272.178,228.275,210.372,202.954,200.171,209.114,234.713,279.641,344.63,425.561,510.038,577.718,612.372,614.248,591.971,556.455,522.902,504.178,498.96,490.696,472.442,451.271,434.602,484.681,484.681,1741.92,1741.92,1741.92
0.00111498	-279272.60	0,3.83977e-05,8.33134e-05,0.000135854,0.000197312,0.000269204,0.000353299,0.000451669,0.000566738,0.000701339,0.000858789,0.00104297,0.00125841,0.00151042,0.00180521,0.00215004,0.00255341,0.00302525,0.00357718,0.00422281,0.00497803,0.00586144,0.00689482,0.00810361,0.0095176,0.0111716,0.0131064,0.0153696,0.018017,0.0211138,0.0247362,0.0289736,inf	647.377,647.377,196.146,283.32,275.253,230.665,212.976,204.907,201.016,209.124,234.296,279.136,344.27,425.473,510.204,577.836,611.898,612.763,589.303,552.751,518.763,500.468,496.268,488.861,470.914,449.34,431.871,483.266,483.266,2367.91,2367.91,2367.91
0.0011568	-279253.42	0,3.83977e-05,8.33134e-05,0.000135854,0.000197312,0.000269204,0.000353299,0.000451669,0.000566738,0.000701339,0.000858789,0.00104297,0.00125841,0.00151042,0.00180521,0.00215004,0.00255341,0.00302525,0.00357718,0.00422281,0.00497803,0.00586144,0.00689482,0.00810361,0.0095176,0.0111716,0.0131064,0.0153696,0.018017,0.0211138,0.0247362,0.0289736,inf	638.457,638.457,188.453,283.541,277.757,232.789,215.503,206.9,202.015,209.383,234.185,278.943,344.17,425.527,510.347,577.758,611.11,610.918,586.3,548.801,514.476,496.65,493.471,486.976,469.444,447.564,429.365,481.71,481.71,6265.07,6265.07,6265.07
0.0011568	-279235.81	0,3.83977e-05,8.33134e-05,0.000135854,0.000197312,0.000269204,0.000353299,0.000451669,0.000566738,0.000701339,0.000858789,0.00104297,0.00125841,0.00151042,0.00180521,0.00215004,0.00255341,0.00302525,0.00357718,0.00422281,0.00497803,0.00586144,0.00689482,0.00810361,0.0095176,0.0111716,0.0131064,0.0153696,0.018017,0.0211138,0.0247362,0.0289736,inf	623.584,623.584,179.402,280.535,276.859,232.243,215.687,206.75,201.051,207.716,231.968,276.214,340.84,421.461,505.514,572.292,605.187,604.598,579.572,541.817,507.581,490.586,488.525,483.147,466.29,444.324,425.608,478.453,478.453,91485,91485,91485
0.0011568	-279235.09	0,3.83977e-05,8.33134e-05,0.000135854,0.000197312,0.000269204,0.000353299,0.000451669,0.000566738,0.000701339,0.000858789,0.00104297,0.00125841,0.00151042,0.00180521,0.00215004,0.00255341,0.00302525,0.00357718,0.00422281,0.00497803,0.00586144,0.00689482,0.00810361,0.0095176,0.0111716,0.0131064,0.0153696,0.018017,0.0211138,0.0247362,0.0289736,inf	618.911,618.911,172.776,280.111,278.078,233.275,217.272,207.929,201.367,207.341,231.134,275.038,339.302,419.471,503.032,569.354,601.737,600.685,575.016,536.646,502.344,485.876,484.818,480.424,464.124,441.97,422.613,475.656,475.656,91493,91493,91493
0.0011568	-279234.84	0,3.83977e-05,8.33134e-05,0.000135854,0.000197312,0.000269204,0.000353299,0.000451669,0.000566738,0.000701339,0.000858789,0.00104297,0.00125841,0.00151042,0.00180521,0.00215004,0.00255341,0.00302525,0.00357718,0.00422281,0.00497803,0.00586144,0.00689482,0.00810361,0.0095176,0.0111716,0.0131064,0.0153696,0.018017,0.0211138,0.0247362,0.0289736,inf	617.229,617.229,166.839,280.034,279.442,234.391,218.997,208.787,201.367,207.341,230.824,274.523,338.599,418.522,501.793,567.84,599.809,598.202,571.78,532.732,498.195,482.134,481.977,478.485,462.667,440.263,420.197,473.295,473.295,91499,91499,91499
0.0011568	-279234.72	0,3.83977e-05,8.33134e-05,0.000135854,0.000197312,0.000269204,0.000353299,0.000451669,0.000566738,0.000701339,0.000858789,0.00104297,0.00125841,0.00151042,0.00180521,0.00215004,0.00255341,0.00302525,0.00357718,0.00422281,0.00497803,0.00586144,0.00689482,0.00810361,0.0095176,0.0111716,0.0131064,0.0153696,0.018017,0.0211138,0.0247362,0.0289736,inf	616.98,616.98,161.296,279.97,280.667,235.361,220.512,208.798,201.367,207.341,230.737,274.323,338.323,418.136,501.278,567.159,598.822,596.671,569.473,529.674,494.814,479.079,479.757,477.114,461.728,439.032,418.209,471.263,471.263,91503.7,91503.7,91503.7
0.0011568	-279234.63	0,3.83977e-05,8.33134e-05,0.000135854,0.000197312,0.000269204,0.000353299,0.000451669,0.000566738,0.000701339,0.000858789,0.00104297,0.00125841,0.00151042,0.00180521,0.00215004,0.00255341,0.00302525,0.00357718,0.00422281,0.00497803,0.00586144,0.00689482,0.00810361,0.0095176,0.0111716,0.0131064,0.0153696,0.018017,0.0211138,0.0247362,0.0289736,inf	617.573,617.573,156.051,279.854,281.732,236.18,221.907,208.798,201.367,207.341,230.737,274.278,338.269,418.054,501.161,566.981,598.423,595.767,567.794,527.215,491.983,476.522,477.995,476.166,461.177,438.159,416.548,469.482,469.482,91507.4,91507.4,91507.4
0.0011568	-279234.56	0,3.83977e-05,8.33134e-05,0.000135854,0.000197312,0.000269204,0.000353299,0.000451669,0.000566738,0.000701339,0.000858789,0.00104297,0.00125841,0.00151042,0.00180521,0.00215004,0.00255341,0.00302525,0.00357718,0.00422281,0.00497803,0.00586144,0.00689482,0.00810361,0.0095176,0.0111716,0.0131064,0.0153696,0.018017,0.0211138,0.0247362,0.0289736,inf	618.072,618.072,151.107,279.761,282.689,236.864,223.322,208.798,201.367,207.341,230.737,274.278,338.269,418.054,501.161,566.981,598.392,595.279,566.551,525.183,489.554,474.337,476.578,475.541,460.922,437.559,415.14,467.9,467.9,91510.4,91510.4,91510.4
0.0011568	-279234.50	0,3.83977e-05,8.33134e-05,0.000135854,0.000197312,0.000269204,0.000353299,0.000451669,0.000566738,0.000701339,0.000858789,0.00104297,0.00125841,0.00151042,0.00180521,0.00215004,0.00255341,0.00302525,0.00357718,0.00422281,0.00497803,0.00586144,0.00689482,0.00810361,0.0095176,0.0111716,0.0131064,0.0153696,0.018017,0.0211138,0.0247362,0.0289736,inf	618.654,618.654,146.45,279.695,283.542,237.411,224.656,208.887,201.367,207.341,230.737,274.278,338.269,418.054,501.161,566.981,598.392,595.085,565.627,523.474,487.433,472.439,475.431,475.166,460.896,437.173,413.933,466.478,466.478,91512.8,91512.8,91512.8
0.0011568	-279234.46	0,3.83977e-05,8.33134e-05,0.000135854,0.000197312,0.000269204,0.000353299,0.000451669,0.000566738,0.000701339,0.000858789,0.00104297,0.00125841,0.00151042,0.00180521,0.00215004,0.00255341,0.00302525,0.00357718,0.00422281,0.00497803,0.00586144,0.00689482,0.00810361,0.0095176,0.0111716,0.0131064,0.0153696,0.018017,0.0211138,0.0247362,0.0289736,inf	618.818,618.818,142.085,279.725,284.3,237.86,224.66,210.002,201.479,207.341,230.737,274.278,338.269,418.054,501.161,566.981,598.392,595.085,564.956,522.022,485.559,470.773,474.499,474.99,461.055,436.958,412.888,465.185,465.185,91514.9,91514.9,91514.9
