0.000227784	-134665.81	0,1.55876e-05,3.38212e-05,5.51499e-05,8.00991e-05,0.000109284,0.000143422,0.000183355,0.000230068,0.000284709,0.000348626,0.000423393,0.000510851,0.000613156,0.000732827,0.000872812,0.00103656,0.0012281,0.00145216,0.00171425,0.00202083,0.00237946,0.00279896,0.00328967,0.00386368,0.00453512,0.00532055,0.0062393,0.00731401,0.00857115,0.0100417,0.0117618,inf	46.0068,46.0068,94.3861,138.728,185.616,235.68,292.573,362.109,450.927,566.409,718.289,919.331,1176.78,1465.62,1702.94,1803.42,1777.53,1692.54,1595.85,1508.64,1437.83,1382.09,1337.57,1301.58,1273.11,1251.93,1237.8,1229.31,1229.31,1230.43,1230.43,1230.43
0.000235637	-134279.96	0,1.55876e-05,3.38212e-05,5.51499e-05,8.00991e-05,0.000109284,0.000143422,0.000183355,0.000230068,0.000284709,0.000348626,0.000423393,0.000510851,0.000613156,0.000732827,0.000872812,0.00103656,0.0012281,0.00145216,0.00171425,0.00202083,0.00237946,0.00279896,0.00328967,0.00386368,0.00453512,0.00532055,0.0062393,0.00731401,0.00857115,0.0100417,0.0117618,inf	2.76829,2.76829,11.9831,26.2678,46.4091,72.1256,106.175,155.396,229.635,341.254,507.271,753.067,1108.67,1578.21,2064.4,2360.58,2391.04,2265.55,2089.37,1918.53,1776.8,1664.84,1575.5,1503.87,1448.76,1410.29,1388.12,1380.8,1380.8,1398.57,1398.57,1398.57
0.000244525	-134138.01	0,1.55876e-05,3.38212e-05,5.51499e-05,8.00991e-05,0.000109284,0.000143422,0.000183355,0.000230068,0.000284709,0.000348626,0.000423393,0.000510851,0.000613156,0.000732827,0.000872812,0.00103656,0.0012281,0.00145216,0.00171425,0.00202083,0.00237946,0.00279896,0.00328967,0.00386368,0.00453512,0.00532055,0.0062393,0.00731401,0.00857115,0.0100417,0.0117618,inf	1.08901,1.08901,2.05911,6.86753,15.7108,28.3554,46.5186,76.6299,130.015,222.628,376.922,626.758,1018.35,1587.41,2265.78,2768.04,2896.86,2772.03,2542.74,2300.94,2094.11,1928.87,1796.59,1691.49,1613.3,1562.86,1539.75,1544.33,1544.33,1599.33,1599.33,1599.33
0.000252977	-134071.95	0,1.55876e-05,3.38212e-05,5.51499e-05,8.00991e-05,0.000109284,0.000143422,0.000183355,0.000230068,0.000284709,0.000348626,0.000423393,0.000510851,0.000613156,0.000732827,0.000872812,0.00103656,0.0012281,0.00145216,0.00171425,0.00202083,0.00237946,0.00279896,0.00328967,0.00386368,0.00453512,0.00532055,0.0062393,0.00731401,0.00857115,0.0100417,0.0117618,inf	1.08901,1.08901,1.08901,2.52627,7.34264,14.5017,24.5495,42.6993,80.0536,154.395,292.179,533.596,936.277,1561.08,2381.43,3072.31,3312.4,3214.68,2955.32,2656.16,2391.4,2176.83,2004.51,1869.4,1772.69,1715.94,1698.46,1725.31,1725.31,1845.42,1845.42,1845.42
0.000260744	-134036.26	0,1.55876e-05,3.38212e-05,5.51499e-05,8.00991e-05,0.000109284,0.000143422,0.000183355,0.000230068,0.000284709,0.000348626,0.000423393,0.000510851,0.000613156,0.000732827,0.000872812,0.00103656,0.0012281,0.00145216,0.00171425,0.00202083,0.00237946,0.00279896,0.00328967,0.00386368,0.00453512,0.00532055,0.0062393,0.00731401,0.00857115,0.0100417,0.0117618,inf	1.08901,1.08901,1.08901,1.29203,4.6967,9.62516,15.5759,26.6792,52.9754,112.549,234.482,463.859,866.876,1523.75,2450.24,3308.3,3659.66,3604.5,3332.93,2988.75,2673.18,2413.71,2205.36,2045.07,1935.53,1878.34,1873.02,1933.18,1933.18,2162.32,2162.32,2162.32
0.000267847	-134014.83	0,1.55876e-05,3.38212e-05,5.51499e-05,8.00991e-05,0.000109284,0.000143422,0.000183355,0.000230068,0.000284709,0.000348626,0.000423393,0.000510851,0.000613156,0.000732827,0.000872812,0.00103656,0.0012281,0.00145216,0.00171425,0.00202083,0.00237946,0.00279896,0.00328967,0.00386368,0.00453512,0.00532055,0.0062393,0.00731401,0.00857115,0.0100417,0.0117618,inf	1.08901,1.08901,1.08901,1.08901,3.9401,8.04259,11.676,18.4795,37.3076,85.5224,193.632,410.48,808.975,1484.45,2492.07,3498.11,3955.94,3952.17,3682.06,3303.61,2943.96,2644.39,2405.16,2226.18,2111.03,2060.34,2074.77,2183.15,2183.15,2615.96,2615.96,2615.96
0.000274371	-134000.94	0,1.55876e-05,3.38212e-05,5.51499e-05,8.00991e-05,0.000109284,0.000143422,0.000183355,0.000230068,0.000284709,0.000348626,0.000423393,0.000510851,0.000613156,0.000732827,0.000872812,0.00103656,0.0012281,0.00145216,0.00171425,0.00202083,0.00237946,0.00279896,0.00328967,0.00386368,0.00453512,0.00532055,0.0062393,0.00731401,0.00857115,0.0100417,0.0117618,inf	1.08901,1.08901,1.08901,1.08901,4.05816,8.02445,9.99477,13.9296,27.6716,67.2716,163.736,368.72,760.522,1446.52,2517.5,3655.58,4213.72,4266.4,4008.41,3605.12,3207.79,2873.3,2609.66,2420.59,2309.4,2274.48,2319.41,2501.38,2501.38,3389.16,3389.16,3389.16
0.000280401	-133991.38	0,1.55876e-05,3.38212e-05,5.51499e-05,8.00991e-05,0.000109284,0.000143422,0.000183355,0.000230068,0.000284709,0.000348626,0.000423393,0.000510851,0.000613156,0.000732827,0.000872812,0.00103656,0.0012281,0.00145216,0.00171425,0.00202083,0.00237946,0.00279896,0.00328967,0.00386368,0.00453512,0.00532055,0.0062393,0.00731401,0.00857115,0.0100417,0.0117618,inf	1.08901,1.08901,1.08901,1.08901,4.7719,8.98812,9.35929,11.1666,21.3832,54.4551,141.233,335.407,719.649,1411.12,2532.49,3789.57,4441.87,4553.96,4316.77,3897.16,3468.28,3104.63,2824.75,2636.96,2543.08,2538.29,2632.05,2938.63,2938.63,5545.58,5545.58,5545.58
0.000286011	-133984.48	0,1.55876e-05,3.38212e-05,5.51499e-05,8.00991e-05,0.000109284,0.000143422,0.000183355,0.000230068,0.000284709,0.000348626,0.000423393,0.000510851,0.000613156,0.000732827,0.000872812,0.00103656,0.0012281,0.00145216,0.00171425,0.00202083,0.00237946,0.00279896,0.00328967,0.00386368,0.00453512,0.00532055,0.0062393,0.00731401,0.00857115,0.0100417,0.0117618,inf	1.08901,1.08901,1.08901,1.08901,5.98883,10.6621,9.195,9.30517,17.0428,45.1377,123.884,308.381,684.853,1378.53,2540.56,3905.96,4646.75,4820.08,4611.12,4183.17,3729,3342.81,3057.07,2886.37,2829.85,2879.28,3058.59,3615.57,3615.57,26694.3,26694.3,26694.3
0.000291262	-133979.31	0,1.55876e-05,3.38212e-05,5.51499e-05,8.00991e-05,0.000109284,0.000143422,0.000183355,0.000230068,0.000284709,0.000348626,0.000423393,0.000510851,0.000613156,0.000732827,0.000872812,0.00103656,0.0012281,0.00145216,0.00171425,0.00202083,0.00237946,0.00279896,0.00328967,0.00386368,0.00453512,0.00532055,0.0062393,0.00731401,0.00857115,0.0100417,0.0117618,inf	1.08901,1.08901,1.08901,1.08901,7.6187,12.8044,9.17386,7.9181,13.8992,38.1617,110.236,286.135,654.961,1348.66,2543.87,4008.78,4833.05,5068.86,4894.84,4466.4,3993.61,3592.73,3314.74,3183.69,3198.16,3348.26,3700.93,4939.23,4939.23,170469,170469,170469
0.000296201	-133975.33	0,1.55876e-05,3.38212e-05,5.51499e-05,8.00991e-05,0.000109284,0.000143422,0.000183355,0.000230068,0.000284709,0.000348626,0.000423393,0.000510851,0.000613156,0.000732827,0.000872812,0.00103656,0.0012281,0.00145216,0.00171425,0.00202083,0.00237946,0.00279896,0.00328967,0.00386368,0.00453512,0.00532055,0.0062393,0.00731401,0.00857115,0.0100417,0.0117618,inf	1.08901,1.08901,1.08901,1.08901,9.52392,15.1572,9.12056,6.80894,11.5402,32.8125,99.3128,267.594,629.065,1321.31,2543.82,4100.89,5004.26,5303.55,5170.85,4750,4266.1,3860.37,3608.67,3552.22,3698.34,4056.45,4854.46,9735.64,9735.64,18219.4,18219.4,18219.4
0.000300868	-133972.20	0,1.55876e-05,3.38212e-05,5.51499e-05,8.00991e-05,0.000109284,0.000143422,0.000183355,0.000230068,0.000284709,0.000348626,0.000423393,0.000510851,0.000613156,0.000732827,0.000872812,0.00103656,0.0012281,0.00145216,0.00171425,0.00202083,0.00237946,0.00279896,0.00328967,0.00386368,0.00453512,0.00532055,0.0062393,0.00731401,0.00857115,0.0100417,0.0117618,inf	1.08901,1.08901,1.08901,1.08901,11.5544,17.5054,8.97212,5.89189,9.72685,28.6309,90.4468,251.978,606.46,1296.22,2541.32,4184.35,5163.07,5526.77,5441.72,5037.15,4551,4153.21,3954.23,4030.35,4436.19,5320.31,7993.29,123924,123924,123016,123016,123016
0.000305292	-133969.70	0,1.55876e-05,3.38212e-05,5.51499e-05,8.00991e-05,0.000109284,0.000143422,0.000183355,0.000230068,0.000284709,0.000348626,0.000423393,0.000510851,0.000613156,0.000732827,0.000872812,0.00103656,0.0012281,0.00145216,0.00171425,0.00202083,0.00237946,0.00279896,0.00328967,0.00386368,0.00453512,0.00532055,0.0062393,0.00731401,0.00857115,0.0100417,0.0117618,inf	1.08901,1.08901,1.08901,1.08901,13.5875,19.7125,8.73073,5.12575,8.3092,25.3111,83.1635,238.705,586.591,1273.15,2536.98,4260.7,5311.55,5740.68,5709.82,5331.21,4853.65,4481.09,4374.74,4690.52,5691.04,8598.46,34778.2,66795.2,66795.2,13147.7,13147.7,13147.7
0.000309502	-133967.67	0,1.55876e-05,3.38212e-05,5.51499e-05,8.00991e-05,0.000109284,0.000143422,0.000183355,0.000230068,0.000284709,0.000348626,0.000423393,0.000510851,0.000613156,0.000732827,0.000872812,0.00103656,0.0012281,0.00145216,0.00171425,0.00202083,0.00237946,0.00279896,0.00328967,0.00386368,0.00453512,0.00532055,0.0062393,0.00731401,0.00857115,0.0100417,0.0117618,inf	1.08901,1.08901,1.08901,1.08901,15.5464,21.7205,8.42401,4.48468,7.18651,22.6396,77.1181,227.335,569.017,1251.86,2531.24,4331.11,5451.37,5947.08,5977.34,5635.75,5180.6,4857.44,4908.26,5692.18,8570.06,32078.9,506494,36002.8,36002.8,19263.5,19263.5,19263.5
0.00031352	-133966.00	0,1.55876e-05,3.38212e-05,5.51499e-05,8.00991e-05,0.000109284,0.000143422,0.000183355,0.000230068,0.000284709,0.000348626,0.000423393,0.000510851,0.000613156,0.000732827,0.000872812,0.00103656,0.0012281,0.00145216,0.00171425,0.00202083,0.00237946,0.00279896,0.00328967,0.00386368,0.00453512,0.00532055,0.0062393,0.00731401,0.00857115,0.0100417,0.0117618,inf	1.08901,1.08901,1.08901,1.08901,17.3924,23.5219,8.08165,3.94865,6.28736,20.4668,72.0584,217.536,553.422,1232.3,2524.79,4396.29,5583.67,6147.34,6246.26,5954.72,5540,5301.73,5623.34,7496,22888.9,236752,19914.4,19405.6,19405.6,52363.7,52363.7,52363.7
0.000317362	-133964.62	0,1.55876e-05,3.38212e-05,5.51499e-05,8.00991e-05,0.000109284,0.000143422,0.000183355,0.000230068,0.000284709,0.000348626,0.000423393,0.000510851,0.000613156,0.000732827,0.000872812,0.00103656,0.0012281,0.00145216,0.00171425,0.00202083,0.00237946,0.00279896,0.00328967,0.00386368,0.00453512,0.00532055,0.0062393,0.00731401,0.00857115,0.0100417,0.0117618,inf	1.08901,1.08901,1.08901,1.08901,19.1135,25.1327,7.72741,3.49976,5.55954,18.6801,67.7876,209.03,539.471,1214.11,2517.44,4457.14,5709.71,6342.93,6518.77,6292.87,5942.78,5843.91,6662.23,12311.8,576410,9308.65,52300.4,52750,52750,10383.1,10383.1,10383.1
0.000321045	-133963.47	0,1.55876e-05,3.38212e-05,5.51499e-05,8.00991e-05,0.000109284,0.000143422,0.000183355,0.000230068,0.000284709,0.000348626,0.000423393,0.000510851,0.000613156,0.000732827,0.000872812,0.00103656,0.0012281,0.00145216,0.00171425,0.00202083,0.00237946,0.00279896,0.00328967,0.00386368,0.00453512,0.00532055,0.0062393,0.00731401,0.00857115,0.0100417,0.0117618,inf	1.08901,1.08901,1.08901,1.08901,20.7109,26.5809,7.37712,3.12284,4.96492,17.1979,64.1593,201.607,526.931,1197.14,2509.35,4514.23,5830.4,6535.02,6797.02,6655.73,6403.67,6533.42,8394.56,49926.5,809335,17270.1,2056.36,2074.04,2074.04,5596.52,5596.52,5596.52
0.00032458	-133962.50	0,1.55876e-05,3.38212e-05,5.51499e-05,8.00991e-05,0.000109284,0.000143422,0.000183355,0.000230068,0.000284709,0.000348626,0.000423393,0.000510851,0.000613156,0.000732827,0.000872812,0.00103656,0.0012281,0.00145216,0.00171425,0.00202083,0.00237946,0.00279896,0.00328967,0.00386368,0.00453512,0.00532055,0.0062393,0.00731401,0.00857115,0.0100417,0.0117618,inf	1.08901,1.08901,1.08901,1.08901,22.1929,27.8928,7.0408,2.80537,4.47456,15.9584,61.0581,195.096,515.582,1181.11,2500.3,4568.25,5946.71,6724.8,7083.34,7050.16,6943.88,7461.33,12288.5,824056,1251.17,1845.8,8189.9,15325.2,15325.2,41353,41353,41353
0.000327984	-133961.67	0,1.55876e-05,3.38212e-05,5.51499e-05,8.00991e-05,0.000109284,0.000143422,0.000183355,0.000230068,0.000284709,0.000348626,0.000423393,0.000510851,0.000613156,0.000732827,0.000872812,0.00103656,0.0012281,0.00145216,0.00171425,0.00202083,0.00237946,0.00279896,0.00328967,0.00386368,0.00453512,0.00532055,0.0062393,0.00731401,0.00857115,0.0100417,0.0117618,inf	1.08901,1.08901,1.08901,1.08901,23.5681,29.0963,6.72343,2.53701,4.0673,14.9161,58.4006,189.378,505.337,1166.19,2491.12,4619.23,6058.96,6912.98,7379.9,7484.58,7595.46,8822.82,31600.3,1.15932e+06,49.1937,72.5734,322.012,602.558,602.558,1625.93,1625.93,1625.93
0.000331266	-133960.96	0,1.55876e-05,3.38212e-05,5.51499e-05,8.00991e-05,0.000109284,0.000143422,0.000183355,0.000230068,0.000284709,0.000348626,0.000423393,0.000510851,0.000613156,0.000732827,0.000872812,0.00103656,0.0012281,0.00145216,0.00171425,0.00202083,0.00237946,0.00279896,0.00328967,0.00386368,0.00453512,0.00532055,0.0062393,0.00731401,0.00857115,0.0100417,0.0117618,inf	1.08901,1.08901,1.08901,1.08901,24.8477,30.21,6.42794,2.30878,3.72621,14.0338,56.112,184.332,496.019,1152.13,2481.5,4667.65,6167.86,7100.57,7689.4,7970.31,8410.64,11161.4,990701,45582.4,9244.95,13638.7,60515.6,8260.31,8260.31,4419.73,4419.73,4419.73
