0.000229216	-6052289.52	0,6.4669e-07,1.49854e-06,2.62064e-06,4.09873e-06,6.04573e-06,8.61042e-06,1.19888e-05,1.64389e-05,2.23008e-05,3.00223e-05,4.01936e-05,5.35916e-05,7.12402e-05,9.44877e-05,0.00012511,0.000165448,0.000218583,0.000288575,0.000380772,0.000502218,0.000662193,0.000872919,0.0011505,0.00151614,0.00199778,0.00263222,0.00346793,0.00456877,0.00601886,0.00792898,0.0104451,inf	523.431,523.431,552.504,376.43,206.818,121.009,102.499,108.026,115.547,121.643,128.932,140.766,159.405,185.928,221.761,270.308,338.066,436.262,584.753,818.078,1178.97,1608.84,1765.71,1657.72,1520.51,1411.38,1330.95,1258.08,1258.08,1177.54,1177.54,1177.54
0.00023842	-6035597.84	0,6.4669e-07,1.49854e-06,2.62064e-06,4.09873e-06,6.04573e-06,8.61042e-06,1.19888e-05,1.64389e-05,2.23008e-05,3.00223e-05,4.01936e-05,5.35916e-05,7.12402e-05,9.44877e-05,0.00012511,0.000165448,0.000218583,0.000288575,0.000380772,0.000502218,0.000662193,0.000872919,0.0011505,0.00151614,0.00199778,0.00263222,0.00346793,0.00456877,0.00601886,0.00792898,0.0104451,inf	850.839,850.839,974.669,481.978,168.541,71.5539,56.2969,59.4403,60.6926,57.1794,52.2974,49.9905,52.607,61.075,76.5745,102.712,147.696,227.411,371.947,637.772,1118.86,1855.25,2268.46,2148.15,1921.86,1719.65,1563.78,1415.82,1415.82,1242.48,1242.48,1242.48
0.000248159	-6029628.19	0,6.4669e-07,1.49854e-06,2.62064e-06,4.09873e-06,6.04573e-06,8.61042e-06,1.19888e-05,1.64389e-05,2.23008e-05,3.00223e-05,4.01936e-05,5.35916e-05,7.12402e-05,9.44877e-05,0.00012511,0.000165448,0.000218583,0.000288575,0.000380772,0.000502218,0.000662193,0.000872919,0.0011505,0.00151614,0.00199778,0.00263222,0.00346793,0.00456877,0.00601886,0.00792898,0.0104451,inf	1106.15,1106.15,1496.35,636.687,189.87,78.1391,64.8059,70.4349,68.9248,57.7368,44.4771,35.3339,31.828,33.1896,39.1633,52.0782,79.121,136.683,259.894,519.328,1041.38,1960.71,2607.94,2534.04,2270.85,2002.15,1783.19,1563.5,1563.5,1293.38,1293.38,1293.38
0.000257195	-6026912.03	0,6.4669e-07,1.49854e-06,2.62064e-06,4.09873e-06,6.04573e-06,8.61042e-06,1.19888e-05,1.64389e-05,2.23008e-05,3.00223e-05,4.01936e-05,5.35916e-05,7.12402e-05,9.44877e-05,0.00012511,0.000165448,0.000218583,0.000288575,0.000380772,0.000502218,0.000662193,0.000872919,0.0011505,0.00151614,0.00199778,0.00263222,0.00346793,0.00456877,0.00601886,0.00792898,0.0104451,inf	1106.75,1106.75,1865.12,748.936,214.603,93.6428,85.581,98.6663,95.84,74.6444,50.9502,35.1586,27.6328,25.4436,26.8951,33.1319,49.7211,91.4363,194.671,439.329,974.567,2004.13,2835.22,2829.57,2567.4,2258.65,1991.19,1706.17,1706.17,1340.21,1340.21,1340.21
0.000265453	-6025471.51	0,6.4669e-07,1.49854e-06,2.62064e-06,4.09873e-06,6.04573e-06,8.61042e-06,1.19888e-05,1.64389e-05,2.23008e-05,3.00223e-05,4.01936e-05,5.35916e-05,7.12402e-05,9.44877e-05,0.00012511,0.000165448,0.000218583,0.000288575,0.000380772,0.000502218,0.000662193,0.000872919,0.0011505,0.00151614,0.00199778,0.00263222,0.00346793,0.00456877,0.00601886,0.00792898,0.0104451,inf	938.86,938.86,1986.05,765.853,216.547,102.782,105.81,132.773,132.508,100.411,64.0987,40.5084,28.8624,23.8195,22.3488,24.7667,35.2592,66.4404,153.832,383.246,921.298,2020.89,2989.41,3054.62,2817.31,2491.52,2190.69,1848.41,1848.41,1389.11,1389.11,1389.11
0.00027306	-6024620.04	0,6.4669e-07,1.49854e-06,2.62064e-06,4.09873e-06,6.04573e-06,8.61042e-06,1.19888e-05,1.64389e-05,2.23008e-05,3.00223e-05,4.01936e-05,5.35916e-05,7.12402e-05,9.44877e-05,0.00012511,0.000165448,0.000218583,0.000288575,0.000380772,0.000502218,0.000662193,0.000872919,0.0011505,0.00151614,0.00199778,0.00263222,0.00346793,0.00456877,0.00601886,0.00792898,0.0104451,inf	749.553,749.553,1952.18,706.734,193.868,99.919,117.094,162.821,171.289,130.655,81.2032,48.9329,32.6701,24.6948,20.7486,20.5739,27.2809,51.4276,126.736,342.566,879.61,2026.59,3095.67,3226.14,3027.21,2703.37,2384.2,1993.71,1993.71,1442.95,1442.95,1442.95
0.000280154	-6024075.01	0,6.4669e-07,1.49854e-06,2.62064e-06,4.09873e-06,6.04573e-06,8.61042e-06,1.19888e-05,1.64389e-05,2.23008e-05,3.00223e-05,4.01936e-05,5.35916e-05,7.12402e-05,9.44877e-05,0.00012511,0.000165448,0.000218583,0.000288575,0.000380772,0.000502218,0.000662193,0.000872919,0.0011505,0.00151614,0.00199778,0.00263222,0.00346793,0.00456877,0.00601886,0.00792898,0.0104451,inf	605.04,605.04,1885.84,616.512,157.937,86.9771,116.318,181.271,204.476,160.645,99.9125,59.0637,37.9116,26.8007,20.4656,18.2711,22.4504,41.7713,107.89,312.189,847.064,2028.22,3169.79,3357.1,3203.13,2896.44,2573.69,2144.77,2144.77,1503.08,1503.08,1503.08
0.000286849	-6023704.33	0,6.4669e-07,1.49854e-06,2.62064e-06,4.09873e-06,6.04573e-06,8.61042e-06,1.19888e-05,1.64389e-05,2.23008e-05,3.00223e-05,4.01936e-05,5.35916e-05,7.12402e-05,9.44877e-05,0.00012511,0.000165448,0.000218583,0.000288575,0.000380772,0.000502218,0.000662193,0.000872919,0.0011505,0.00151614,0.00199778,0.00263222,0.00346793,0.00456877,0.00601886,0.00792898,0.0104451,inf	509.961,509.961,1852.41,525.795,120.563,69.3829,105.703,185.755,227.035,186.429,118.16,69.8906,43.9701,29.5922,20.8557,16.9331,19.3079,35.2076,94.2685,288.95,821.603,2028.94,3221.84,3457.16,3350.26,3072.52,2760.62,2303.8,2303.8,1570.36,1570.36,1570.36
0.000293232	-6023439.76	0,6.4669e-07,1.49854e-06,2.62064e-06,4.09873e-06,6.04573e-06,8.61042e-06,1.19888e-05,1.64389e-05,2.23008e-05,3.00223e-05,4.01936e-05,5.35916e-05,7.12402e-05,9.44877e-05,0.00012511,0.000165448,0.000218583,0.000288575,0.000380772,0.000502218,0.000662193,0.000872919,0.0011505,0.00151614,0.00199778,0.00263222,0.00346793,0.00456877,0.00601886,0.00792898,0.0104451,inf	449.771,449.771,1864.62,445.424,88.1853,51.9594,89.8217,178.481,237.698,205.812,134.488,80.6835,50.4661,32.8036,21.6304,16.1413,17.1507,30.5461,84.1065,270.806,801.633,2030.14,3258.4,3533.48,3472.94,3233.03,2946.14,2473.05,2473.05,1645.38,1645.38,1645.38
0.000299368	-6023243.19	0,6.4669e-07,1.49854e-06,2.62064e-06,4.09873e-06,6.04573e-06,8.61042e-06,1.19888e-05,1.64389e-05,2.23008e-05,3.00223e-05,4.01936e-05,5.35916e-05,7.12402e-05,9.44877e-05,0.00012511,0.000165448,0.000218583,0.000288575,0.000380772,0.000502218,0.000662193,0.000872919,0.0011505,0.00151614,0.00199778,0.00263222,0.00346793,0.00456877,0.00601886,0.00792898,0.0104451,inf	409.241,409.241,1910.32,376.087,62.6859,37.2363,72.7906,163.624,238,218.27,148.101,90.944,57.1536,36.2914,22.6492,15.6869,15.61,27.1162,76.3235,256.394,785.95,2032.33,3283.87,3591.44,3574.84,3379.09,3131,2654.79,2654.79,1728.65,1728.65,1728.65
0.000305308	-6023092.02	0,6.4669e-07,1.49854e-06,2.62064e-06,4.09873e-06,6.04573e-06,8.61042e-06,1.19888e-05,1.64389e-05,2.23008e-05,3.00223e-05,4.01936e-05,5.35916e-05,7.12402e-05,9.44877e-05,0.00012511,0.000165448,0.000218583,0.000288575,0.000380772,0.000502218,0.000662193,0.000872919,0.0011505,0.00151614,0.00199778,0.00263222,0.00346793,0.00456877,0.00601886,0.00792898,0.0104451,inf	378.649,378.649,1972.43,315.872,43.7026,25.947,57.1633,145.189,230.625,224.381,158.695,100.351,63.855,39.9643,23.834,15.454,14.4762,24.5194,70.2296,244.78,773.637,2035.66,3301.26,3635.09,3659.04,3511.59,3315.74,2851.87,2851.87,1818.44,1818.44,1818.44
0.000311089	-6022972.22	0,6.4669e-07,1.49854e-06,2.62064e-06,4.09873e-06,6.04573e-06,8.61042e-06,1.19888e-05,1.64389e-05,2.23008e-05,3.00223e-05,4.01936e-05,5.35916e-05,7.12402e-05,9.44877e-05,0.00012511,0.000165448,0.000218583,0.000288575,0.000380772,0.000502218,0.000662193,0.000872919,0.0011505,0.00151614,0.00199778,0.00263222,0.00346793,0.00456877,0.00601886,0.00792898,0.0104451,inf	352.453,352.453,2037.84,263.843,30.1047,17.7862,44.0398,126.086,218.336,225.25,166.318,108.713,70.4353,43.759,25.1367,15.3739,13.6223,22.5064,65.3676,235.302,764,2040.06,3312.68,3667.51,3728.15,3631.29,3500.69,3067.94,3067.94,1920.95,1920.95,1920.95
0.000316742	-6022874.71	0,6.4669e-07,1.49854e-06,2.62064e-06,4.09873e-06,6.04573e-06,8.61042e-06,1.19888e-05,1.64389e-05,2.23008e-05,3.00223e-05,4.01936e-05,5.35916e-05,7.12402e-05,9.44877e-05,0.00012511,0.000165448,0.000218583,0.000288575,0.000380772,0.000502218,0.000662193,0.000872919,0.0011505,0.00151614,0.00199778,0.00263222,0.00346793,0.00456877,0.00601886,0.00792898,0.0104451,inf	328.264,328.264,2099.43,219.065,20.5907,12.0984,33.6063,108.091,203.443,222.123,171.205,115.92,76.7889,47.6208,26.5238,15.4016,12.9676,20.9141,61.4255,227.482,756.502,2045.42,3319.65,3691.08,3784.41,3738.83,3685.94,3307.97,3307.97,2035.57,2035.57,2035.57
0.00032229	-6022793.47	0,6.4669e-07,1.49854e-06,2.62064e-06,4.09873e-06,6.04573e-06,8.61042e-06,1.19888e-05,1.64389e-05,2.23008e-05,3.00223e-05,4.01936e-05,5.35916e-05,7.12402e-05,9.44877e-05,0.00012511,0.000165448,0.000218583,0.000288575,0.000380772,0.000502218,0.000662193,0.000872919,0.0011505,0.00151614,0.00199778,0.00263222,0.00346793,0.00456877,0.00601886,0.00792898,0.0104451,inf	305.072,305.072,2153.83,181.217,14.052,8.2223,25.5692,92.0696,187.628,216.15,173.688,121.937,82.8282,51.5062,27.9699,15.5082,12.4595,19.6333,58.1841,220.969,750.73,2051.57,3323.25,3707.63,3829.71,3834.85,3871.39,3579.01,3579.01,2164.49,2164.49,2164.49
0.000327751	-6022724.36	0,6.4669e-07,1.49854e-06,2.62064e-06,4.09873e-06,6.04573e-06,8.61042e-06,1.19888e-05,1.64389e-05,2.23008e-05,3.00223e-05,4.01936e-05,5.35916e-05,7.12402e-05,9.44877e-05,0.00012511,0.000165448,0.000218583,0.000288575,0.000380772,0.000502218,0.000662193,0.000872919,0.0011505,0.00151614,0.00199778,0.00263222,0.00346793,0.00456877,0.00601886,0.00792898,0.0104451,inf	282.451,282.451,2200.46,149.462,9.60746,5.60917,19.5009,78.313,172.033,208.323,174.163,126.782,88.4888,55.3736,29.4569,15.6726,12.0608,18.5884,55.4861,215.5,746.359,2058.35,3324.29,3718.61,3865.67,3919.91,4056.84,3892.69,3892.69,2311.04,2311.04,2311.04
0.000333139	-6022664.46	0,6.4669e-07,1.49854e-06,2.62064e-06,4.09873e-06,6.04573e-06,8.61042e-06,1.19888e-05,1.64389e-05,2.23008e-05,3.00223e-05,4.01936e-05,5.35916e-05,7.12402e-05,9.44877e-05,0.00012511,0.000165448,0.000218583,0.000288575,0.000380772,0.000502218,0.000662193,0.000872919,0.0011505,0.00151614,0.00199778,0.00263222,0.00346793,0.00456877,0.00601886,0.00792898,0.0104451,inf	260.519,260.519,2239.78,123.204,6.60224,3.8613,14.9698,66.7661,157.349,199.443,173,130.503,93.7252,59.1938,30.9697,15.8808,11.7457,17.7252,53.2162,210.876,743.134,2065.63,3323.37,3725.16,3893.68,3994.61,4241.77,4267.53,4267.53,2503.37,2503.37,2503.37
0.000338467	-6022611.71	0,6.4669e-07,1.49854e-06,2.62064e-06,4.09873e-06,6.04573e-06,8.61042e-06,1.19888e-05,1.64389e-05,2.23008e-05,3.00223e-05,4.01936e-05,5.35916e-05,7.12402e-05,9.44877e-05,0.00012511,0.000165448,0.000218583,0.000288575,0.000380772,0.000502218,0.000662193,0.000872919,0.0011505,0.00151614,0.00199778,0.00263222,0.00346793,0.00456877,0.00601886,0.00792898,0.0104451,inf	239.404,239.404,2272.56,101.63,4.57431,2.68873,11.6025,57.2226,143.959,190.102,170.553,133.183,98.5062,62.9393,32.4962,16.1221,11.4963,17.005,51.2887,206.941,740.85,2073.28,3320.96,3728.18,3914.94,4059.54,4425.53,4739.14,4739.14,2699.49,2699.49,2699.49
0.000343743	-6022564.58	0,6.4669e-07,1.49854e-06,2.62064e-06,4.09873e-06,6.04573e-06,8.61042e-06,1.19888e-05,1.64389e-05,2.23008e-05,3.00223e-05,4.01936e-05,5.35916e-05,7.12402e-05,9.44877e-05,0.00012511,0.000165448,0.000218583,0.000288575,0.000380772,0.000502218,0.000662193,0.000872919,0.0011505,0.00151614,0.00199778,0.00263222,0.00346793,0.00456877,0.00601886,0.00792898,0.0104451,inf	219.248,219.248,2300.59,84.0425,3.19589,1.89778,9.09967,49.4149,132.006,180.75,167.144,134.92,102.821,66.5896,34.0285,16.3886,11.2988,16.3987,49.639,203.574,739.347,2081.19,3317.38,3728.36,3930.47,4115.28,4607.06,5387.08,5387.08,2923.3,2923.3,2923.3
0.000348975	-6022521.94	0,6.4669e-07,1.49854e-06,2.62064e-06,4.09873e-06,6.04573e-06,8.61042e-06,1.19888e-05,1.64389e-05,2.23008e-05,3.00223e-05,4.01936e-05,5.35916e-05,7.12402e-05,9.44877e-05,0.00012511,0.000165448,0.000218583,0.000288575,0.000380772,0.000502218,0.000662193,0.000872919,0.0011505,0.00151614,0.00199778,0.00263222,0.00346793,0.00456877,0.00601886,0.00792898,0.0104451,inf	200.123,200.123,2323.61,69.6972,2.26037,1.35884,7.23616,43.0561,121.515,171.682,163.048,135.818,106.667,70.129,35.5592,16.675,11.1431,15.8842,48.2166,200.682,738.493,2089.26,3312.92,3726.3,3941.13,4162.46,4785.16,6450.27,6450.27,3708.68,3708.68,3708.68
0.000354169	-6022482.94	0,6.4669e-07,1.49854e-06,2.62064e-06,4.09873e-06,6.04573e-06,8.61042e-06,1.19888e-05,1.64389e-05,2.23008e-05,3.00223e-05,4.01936e-05,5.35916e-05,7.12402e-05,9.44877e-05,0.00012511,0.000165448,0.000218583,0.000288575,0.000380772,0.000502218,0.000662193,0.000872919,0.0011505,0.00151614,0.00199778,0.00263222,0.00346793,0.00456877,0.00601886,0.00792898,0.0104451,inf	182.11,182.11,2343.27,57.9867,1.61905,1.09016,5.83828,37.9025,112.428,163.084,158.476,135.983,110.052,73.5451,37.083,16.977,11.022,15.4453,46.9826,198.189,738.183,2097.43,3307.77,3722.45,3947.69,4201.69,4957.92,9328.69,9328.69,14073.1,14073.1,14073.1
