AIC = 395899.08673066756455

y0 0.00078944996269368584649
y0_prime 0
y1 2.7133716988505405254
y1_prime 0
y2 0.042498299972506564659
y2_prime 0
y3 1.7004004248957298451
y3_prime 0
rho 0.0024786159063478721727
rho.alpha 1.0918551360268597961
r_ii 1
theta 0.0029656672636336691047
