6.99518e-05	-1862098.42	0,4.0203e-07,1.09961e-06,2.31001e-06,4.41024e-06,8.05442e-06,1.43776e-05,2.53493e-05,4.43866e-05,7.74192e-05,0.000134736,0.000234188,0.000406751,0.000706174,0.00122572,0.0021272,inf	5324.25,5324.25,5025.28,3711.95,3872.98,4227.86,4183.65,4019.24,3952.33,4159.56,4485.36,4754.44,4531.96,3828.71,3828.71,3828.71
7.65603e-05	-1861803.95	0,4.0203e-07,1.09961e-06,2.31001e-06,4.41024e-06,8.05442e-06,1.43776e-05,2.53493e-05,4.43866e-05,7.74192e-05,0.000134736,0.000234188,0.000406751,0.000706174,0.00122572,0.0021272,inf	5939.45,5939.45,5517.25,3328.84,3673.27,4365.4,4288.52,3974.63,3808.3,4075.11,4541.86,5126.87,4769.78,3599.43,3599.43,3599.43
8.20486e-05	-1861661.36	0,4.0203e-07,1.09961e-06,2.31001e-06,4.41024e-06,8.05442e-06,1.43776e-05,2.53493e-05,4.43866e-05,7.74192e-05,0.000134736,0.000234188,0.000406751,0.000706174,0.00122572,0.0021272,inf	6231.1,6231.1,5800.82,2990.4,3491.93,4497.65,4409.29,3980.07,3723.75,3995.83,4488.88,5350.05,4884.98,3406.45,3406.45,3406.45
8.67862e-05	-1861561.33	0,4.0203e-07,1.09961e-06,2.31001e-06,4.41024e-06,8.05442e-06,1.43776e-05,2.53493e-05,4.43866e-05,7.74192e-05,0.000134736,0.000234188,0.000406751,0.000706174,0.00122572,0.0021272,inf	6366.66,6366.66,5984.85,2698.28,3317.3,4601.4,4517.95,4008.27,3682.32,3943.5,4403.76,5500.47,4935.84,3250.59,3250.59,3250.59
9.09744e-05	-1861484.08	0,4.0203e-07,1.09961e-06,2.31001e-06,4.41024e-06,8.05442e-06,1.43776e-05,2.53493e-05,4.43866e-05,7.74192e-05,0.000134736,0.000234188,0.000406751,0.000706174,0.00122572,0.0021272,inf	6434.24,6434.24,6131.32,2452.37,3152.43,4674.48,4603.08,4041.57,3666.45,3914.36,4310.68,5613.29,4952.32,3126.03,3126.03,3126.03
9.47328e-05	-1861423.13	0,4.0203e-07,1.09961e-06,2.31001e-06,4.41024e-06,8.05442e-06,1.43776e-05,2.53493e-05,4.43866e-05,7.74192e-05,0.000134736,0.000234188,0.000406751,0.000706174,0.00122572,0.0021272,inf	6471.2,6471.2,6270.46,2248.99,3003.04,4724.29,4664.63,4072.15,3665.08,3902.29,4217.31,5705.56,4949.81,3026.45,3026.45,3026.45
9.81388e-05	-1861374.75	0,4.0203e-07,1.09961e-06,2.31001e-06,4.41024e-06,8.05442e-06,1.43776e-05,2.53493e-05,4.43866e-05,7.74192e-05,0.000134736,0.000234188,0.000406751,0.000706174,0.00122572,0.0021272,inf	6488.06,6488.06,6411.72,2081.55,2871.98,4759.78,4706.65,4097.3,3671.86,3902.41,4125.92,5786.11,4936.31,2946.46,2946.46,2946.46
0.000101247	-1861336.26	0,4.0203e-07,1.09961e-06,2.31001e-06,4.41024e-06,8.05442e-06,1.43776e-05,2.53493e-05,4.43866e-05,7.74192e-05,0.000134736,0.000234188,0.000406751,0.000706174,0.00122572,0.0021272,inf	6487.64,6487.64,6555.71,1943.12,2759.48,4787.84,4733.72,4116.5,3683.03,3911.26,4037,5859.79,4916.09,2881.82,2881.82,2881.82
0.000104098	-1861305.57	0,4.0203e-07,1.09961e-06,2.31001e-06,4.41024e-06,8.05442e-06,1.43776e-05,2.53493e-05,4.43866e-05,7.74192e-05,0.000134736,0.000234188,0.000406751,0.000706174,0.00122572,0.0021272,inf	6469.92,6469.92,6699.44,1827.42,2664.2,4813.16,4749.88,4130.14,3696.38,3926.45,3950.45,5929.45,4891.45,2829.23,2829.23,2829.23
0.000106723	-1861281.09	0,4.0203e-07,1.09961e-06,2.31001e-06,4.41024e-06,8.05442e-06,1.43776e-05,2.53493e-05,4.43866e-05,7.74192e-05,0.000134736,0.000234188,0.000406751,0.000706174,0.00122572,0.0021272,inf	6434.84,6434.84,6838.99,1729.4,2583.97,4838.42,4758.26,4138.93,3710.6,3946.32,3866.02,5996.86,4863.66,2786.19,2786.19,2786.19
0.00010915	-1861261.58	0,4.0203e-07,1.09961e-06,2.31001e-06,4.41024e-06,8.05442e-06,1.43776e-05,2.53493e-05,4.43866e-05,7.74192e-05,0.000134736,0.000234188,0.000406751,0.000706174,0.00122572,0.0021272,inf	6387.68,6387.68,6972.19,1645.03,2516.51,4865.31,4761.16,4143.64,3724.87,3969.72,3783.42,6063.18,4833.43,2750.78,2750.78,2750.78
0.000111399	-1861246.10	0,4.0203e-07,1.09961e-06,2.31001e-06,4.41024e-06,8.05442e-06,1.43776e-05,2.53493e-05,4.43866e-05,7.74192e-05,0.000134736,0.000234188,0.000406751,0.000706174,0.00122572,0.0021272,inf	6331.18,6331.18,7097.52,1571.18,2459.64,4894.25,4760.19,4144.92,3738.71,3995.81,3702.4,6129.2,4801.16,2721.52,2721.52,2721.52
0.00011349	-1861233.92	0,4.0203e-07,1.09961e-06,2.31001e-06,4.41024e-06,8.05442e-06,1.43776e-05,2.53493e-05,4.43866e-05,7.74192e-05,0.000134736,0.000234188,0.000406751,0.000706174,0.00122572,0.0021272,inf	6267.32,6267.32,7212.2,1505.7,2411.57,4925.58,4756.64,4143.41,3751.84,4023.97,3622.73,6195.5,4767.11,2697.25,2697.25,2697.25
0.000115439	-1861224.46	0,4.0203e-07,1.09961e-06,2.31001e-06,4.41024e-06,8.05442e-06,1.43776e-05,2.53493e-05,4.43866e-05,7.74192e-05,0.000134736,0.000234188,0.000406751,0.000706174,0.00122572,0.0021272,inf	6200.64,6200.64,7316.77,1446.8,2370.73,4959.01,4751.31,4139.61,3764.08,4053.75,3544.22,6262.5,4731.39,2677.1,2677.1,2677.1
0.00011726	-1861217.29	0,4.0203e-07,1.09961e-06,2.31001e-06,4.41024e-06,8.05442e-06,1.43776e-05,2.53493e-05,4.43866e-05,7.74192e-05,0.000134736,0.000234188,0.000406751,0.000706174,0.00122572,0.0021272,inf	6134.57,6134.57,7411.14,1393.38,2335.81,4994.36,4744.81,4133.97,3775.3,4084.75,3466.73,6330.51,4694.1,2660.35,2660.35,2660.35
0.000118965	-1861212.07	0,4.0203e-07,1.09961e-06,2.31001e-06,4.41024e-06,8.05442e-06,1.43776e-05,2.53493e-05,4.43866e-05,7.74192e-05,0.000134736,0.000234188,0.000406751,0.000706174,0.00122572,0.0021272,inf	6070.13,6070.13,7495.21,1344.38,2305.65,5031.31,4737.61,4126.85,3785.49,4116.72,3390.12,6399.79,4655.3,2646.45,2646.45,2646.45
0.000120567	-1861208.52	0,4.0203e-07,1.09961e-06,2.31001e-06,4.41024e-06,8.05442e-06,1.43776e-05,2.53493e-05,4.43866e-05,7.74192e-05,0.000134736,0.000234188,0.000406751,0.000706174,0.00122572,0.0021272,inf	6010.2,6010.2,7569.9,1299.03,2279.42,5069.54,4730.03,4118.63,3794.64,4149.42,3314.26,6470.53,4615,2634.96,2634.96,2634.96
0.000122074	-1861206.42	0,4.0203e-07,1.09961e-06,2.31001e-06,4.41024e-06,8.05442e-06,1.43776e-05,2.53493e-05,4.43866e-05,7.74192e-05,0.000134736,0.000234188,0.000406751,0.000706174,0.00122572,0.0021272,inf	5954.33,5954.33,7634.91,1256.86,2256.38,5108.6,4722.33,4109.51,3802.76,4182.63,3239.08,6542.89,4573.24,2625.51,2625.51,2625.51
0.000123497	-1861205.61	0,4.0203e-07,1.09961e-06,2.31001e-06,4.41024e-06,8.05442e-06,1.43776e-05,2.53493e-05,4.43866e-05,7.74192e-05,0.000134736,0.000234188,0.000406751,0.000706174,0.00122572,0.0021272,inf	5904.24,5904.24,7692.68,1217.32,2235.8,5148.18,4714.68,4099.77,3809.86,4216.21,3164.5,6616.99,4530.03,2617.82,2617.82,2617.82
0.000124842	-1861205.95	0,4.0203e-07,1.09961e-06,2.31001e-06,4.41024e-06,8.05442e-06,1.43776e-05,2.53493e-05,4.43866e-05,7.74192e-05,0.000134736,0.000234188,0.000406751,0.000706174,0.00122572,0.0021272,inf	5859.9,5859.9,7743.23,1180.2,2217.37,5188.12,4707.27,4089.58,3815.99,4250,3090.45,6692.91,4485.37,2611.64,2611.64,2611.64
