6.76405e-05	-1862131.14	0,1.73495e-07,4.0203e-07,7.03068e-07,1.09961e-06,1.62196e-06,2.31001e-06,3.21636e-06,4.41024e-06,5.98287e-06,8.05442e-06,1.07832e-05,1.43776e-05,1.91124e-05,2.53493e-05,3.35648e-05,4.43866e-05,5.86417e-05,7.74192e-05,0.000102154,0.000134736,0.000177654,0.000234188,0.000308657,0.000406751,0.000535966,0.000706174,0.00093038,0.00122572,0.00161475,0.0021272,0.00280222,inf	1649.13,1649.13,4584.49,6258.55,5753.67,4426.49,3747.85,3630.48,3702.76,3881.56,4073.36,4165.3,4141.78,4064.84,3979.53,3911.11,3865.88,3875.27,3950.01,4079.89,4221,4303.48,4340.69,4396.52,4406.21,4225.58,4031.43,4224.09,4224.09,3967.96,3967.96,3967.96
7.30105e-05	-1861853.86	0,1.73495e-07,4.0203e-07,7.03068e-07,1.09961e-06,1.62196e-06,2.31001e-06,3.21636e-06,4.41024e-06,5.98287e-06,8.05442e-06,1.07832e-05,1.43776e-05,1.91124e-05,2.53493e-05,3.35648e-05,4.43866e-05,5.86417e-05,7.74192e-05,0.000102154,0.000134736,0.000177654,0.000234188,0.000308657,0.000406751,0.000535966,0.000706174,0.00093038,0.00122572,0.00161475,0.0021272,0.00280222,inf	587.686,587.686,4367.04,8095.42,7039.57,4462.93,3402.58,3259.66,3408.76,3749.66,4124.07,4310.18,4271.4,4129.64,3972.4,3843.25,3749.16,3744.91,3848.65,4047.98,4269.83,4394.35,4456.85,4581.53,4627.65,4292.05,3947.2,4335.94,4335.94,3850.19,3850.19,3850.19
7.78136e-05	-1861667.85	0,1.73495e-07,4.0203e-07,7.03068e-07,1.09961e-06,1.62196e-06,2.31001e-06,3.21636e-06,4.41024e-06,5.98287e-06,8.05442e-06,1.07832e-05,1.43776e-05,1.91124e-05,2.53493e-05,3.35648e-05,4.43866e-05,5.86417e-05,7.74192e-05,0.000102154,0.000134736,0.000177654,0.000234188,0.000308657,0.000406751,0.000535966,0.000706174,0.00093038,0.00122572,0.00161475,0.0021272,0.00280222,inf	195.689,195.689,3800.52,9515.07,7965.99,4335.35,3072.4,2934.93,3147.09,3625.84,4168.69,4448.94,4403.69,4211.41,3998.72,3822.15,3685.89,3663.43,3778.1,4017.5,4285.14,4423.75,4497.25,4687.99,4779.67,4308.04,3845.29,4415.78,4415.78,3723.68,3723.68,3723.68
8.21644e-05	-1861527.68	0,1.73495e-07,4.0203e-07,7.03068e-07,1.09961e-06,1.62196e-06,2.31001e-06,3.21636e-06,4.41024e-06,5.98287e-06,8.05442e-06,1.07832e-05,1.43776e-05,1.91124e-05,2.53493e-05,3.35648e-05,4.43866e-05,5.86417e-05,7.74192e-05,0.000102154,0.000134736,0.000177654,0.000234188,0.000308657,0.000406751,0.000535966,0.000706174,0.00093038,0.00122572,0.00161475,0.0021272,0.00280222,inf	63.2992,63.2992,3155.09,10614.9,8650.18,4147.76,2781.9,2656.09,2913.48,3502.94,4194.78,4563.8,4517.51,4286.98,4033.78,3822.67,3652.66,3613.39,3732.06,3996.97,4290.68,4426.38,4500.57,4751.36,4890.99,4297.64,3741.19,4474.2,4474.2,3595.89,3595.89,3595.89
8.61401e-05	-1861416.69	0,1.73495e-07,4.0203e-07,7.03068e-07,1.09961e-06,1.62196e-06,2.31001e-06,3.21636e-06,4.41024e-06,5.98287e-06,8.05442e-06,1.07832e-05,1.43776e-05,1.91124e-05,2.53493e-05,3.35648e-05,4.43866e-05,5.86417e-05,7.74192e-05,0.000102154,0.000134736,0.000177654,0.000234188,0.000308657,0.000406751,0.000535966,0.000706174,0.00093038,0.00122572,0.00161475,0.0021272,0.00280222,inf	20.1007,20.1007,2553.37,11493.9,9186.92,3953.48,2538.2,2422.47,2708.92,3384.93,4205.45,4653.94,4608.66,4348.93,4067.14,3832.01,3636.01,3582.79,3703.03,3985.93,4294.21,4416.87,4485.12,4790.16,4977.71,4273.7,3641.48,4518.14,4518.14,3470.68,3470.68,3470.68
8.97953e-05	-1861326.59	0,1.73495e-07,4.0203e-07,7.03068e-07,1.09961e-06,1.62196e-06,2.31001e-06,3.21636e-06,4.41024e-06,5.98287e-06,8.05442e-06,1.07832e-05,1.43776e-05,1.91124e-05,2.53493e-05,3.35648e-05,4.43866e-05,5.86417e-05,7.74192e-05,0.000102154,0.000134736,0.000177654,0.000234188,0.000308657,0.000406751,0.000535966,0.000706174,0.00093038,0.00122572,0.00161475,0.0021272,0.00280222,inf	6.38044,6.38044,2035.9,12213.4,9633.58,3774.14,2338.35,2229.32,2533.33,3276.63,4207.23,4724.47,4679.46,4396.72,4095.21,3844.23,3628.46,3564.21,3685.45,3982.28,4298.13,4401.7,4459.95,4814.43,5049.1,4243.14,3548.64,4552.25,4552.25,3349.79,3349.79,3349.79
9.31712e-05	-1861252.34	0,1.73495e-07,4.0203e-07,7.03068e-07,1.09961e-06,1.62196e-06,2.31001e-06,3.21636e-06,4.41024e-06,5.98287e-06,8.05442e-06,1.07832e-05,1.43776e-05,1.91124e-05,2.53493e-05,3.35648e-05,4.43866e-05,5.86417e-05,7.74192e-05,0.000102154,0.000134736,0.000177654,0.000234188,0.000308657,0.000406751,0.000535966,0.000706174,0.00093038,0.00122572,0.00161475,0.0021272,0.00280222,inf	4.06351,4.06351,1604.58,12809.8,10020.5,3615.68,2175.45,2070.64,2384.29,3180.81,4205.58,4781.14,4734.1,4432.25,4117.47,3856.65,3625.95,3553.19,3675.55,3984.02,4303.06,4383.9,4429.72,4829.8,5110.64,4209.68,3463.25,4579.64,4579.64,3233.78,3233.78,3233.78
9.63e-05	-1861190.51	0,1.73495e-07,4.0203e-07,7.03068e-07,1.09961e-06,1.62196e-06,2.31001e-06,3.21636e-06,4.41024e-06,5.98287e-06,8.05442e-06,1.07832e-05,1.43776e-05,1.91124e-05,2.53493e-05,3.35648e-05,4.43866e-05,5.86417e-05,7.74192e-05,0.000102154,0.000134736,0.000177654,0.000234188,0.000308657,0.000406751,0.000535966,0.000706174,0.00093038,0.00122572,0.00161475,0.0021272,0.00280222,inf	4.06351,4.06351,1259.62,13300.8,10361.8,3477.59,2042.55,1939.71,2258.55,3098,4204.4,4828.32,4776.47,4457.9,4134.4,3868.12,3626.18,3546.9,3670.79,3989.61,4308.97,4364.96,4396.95,4839.57,5165.7,4175.35,3385.06,4602.48,4602.48,3122.51,3122.51,3122.51
9.92079e-05	-1861138.59	0,1.73495e-07,4.0203e-07,7.03068e-07,1.09961e-06,1.62196e-06,2.31001e-06,3.21636e-06,4.41024e-06,5.98287e-06,8.05442e-06,1.07832e-05,1.43776e-05,1.91124e-05,2.53493e-05,3.35648e-05,4.43866e-05,5.86417e-05,7.74192e-05,0.000102154,0.000134736,0.000177654,0.000234188,0.000308657,0.000406751,0.000535966,0.000706174,0.00093038,0.00122572,0.00161475,0.0021272,0.00280222,inf	4.06351,4.06351,983.86,13698.9,10664.1,3356.81,1933,1831.09,2152.33,3027.84,4205.9,4869.45,4809.75,4475.93,4146.89,3878.27,3627.83,3543.59,3669.53,3997.93,4315.7,4345.59,4363.02,4845.72,5216.39,4141.21,3313.5,4622.29,4622.29,3015.48,3015.48,3015.48
0.000101917	-1861094.69	0,1.73495e-07,4.0203e-07,7.03068e-07,1.09961e-06,1.62196e-06,2.31001e-06,3.21636e-06,4.41024e-06,5.98287e-06,8.05442e-06,1.07832e-05,1.43776e-05,1.91124e-05,2.53493e-05,3.35648e-05,4.43866e-05,5.86417e-05,7.74192e-05,0.000102154,0.000134736,0.000177654,0.000234188,0.000308657,0.000406751,0.000535966,0.000706174,0.00093038,0.00122572,0.00161475,0.0021272,0.00280222,inf	4.06351,4.06351,765.815,14015.5,10933.9,3250.39,1841.9,1740.23,2062.22,2969.12,4211.04,4906.9,4836.38,4488.06,4155.81,3887.06,3630.14,3542.16,3670.62,4008.15,4323.04,4326.18,4328.71,4849.49,5264.07,4107.81,3247.88,4640.15,4640.15,2912.03,2912.03,2912.03
0.000104444	-1861057.37	0,1.73495e-07,4.0203e-07,7.03068e-07,1.09961e-06,1.62196e-06,2.31001e-06,3.21636e-06,4.41024e-06,5.98287e-06,8.05442e-06,1.07832e-05,1.43776e-05,1.91124e-05,2.53493e-05,3.35648e-05,4.43866e-05,5.86417e-05,7.74192e-05,0.000102154,0.000134736,0.000177654,0.000234188,0.000308657,0.000406751,0.000535966,0.000706174,0.00093038,0.00122572,0.00161475,0.0021272,0.00280222,inf	4.06351,4.06351,594.769,14260.3,11175,3155.73,1765.08,1663.54,1985.49,2920.42,4220.15,4941.94,4858.08,4495.7,4161.86,3894.57,3632.69,3541.87,3673.3,4019.74,4330.83,4306.92,4294.47,4851.64,5309.64,4075.37,3187.52,4656.83,4656.83,2811.37,2811.37,2811.37
0.000106807	-1861025.48	0,1.73495e-07,4.0203e-07,7.03068e-07,1.09961e-06,1.62196e-06,2.31001e-06,3.21636e-06,4.41024e-06,5.98287e-06,8.05442e-06,1.07832e-05,1.43776e-05,1.91124e-05,2.53493e-05,3.35648e-05,4.43866e-05,5.86417e-05,7.74192e-05,0.000102154,0.000134736,0.000177654,0.000234188,0.000308657,0.000406751,0.000535966,0.000706174,0.00093038,0.00122572,0.00161475,0.0021272,0.00280222,inf	4.06351,4.06351,460.587,14445.3,11388.2,3070.2,1699.65,1598.1,1919.67,2880.2,4233.16,4975.45,4875.99,4499.92,4165.68,3900.97,3635.21,3542.25,3677.06,4032.26,4338.95,4287.93,4260.54,4852.7,5353.71,4043.99,3131.81,4672.93,4672.93,2712.63,2712.63,2712.63
0.000109019	-1860998.10	0,1.73495e-07,4.0203e-07,7.03068e-07,1.09961e-06,1.62196e-06,2.31001e-06,3.21636e-06,4.41024e-06,5.98287e-06,8.05442e-06,1.07832e-05,1.43776e-05,1.91124e-05,2.53493e-05,3.35648e-05,4.43866e-05,5.86417e-05,7.74192e-05,0.000102154,0.000134736,0.000177654,0.000234188,0.000308657,0.000406751,0.000535966,0.000706174,0.00093038,0.00122572,0.00161475,0.0021272,0.00280222,inf	4.06351,4.06351,356.49,14581.7,11579.1,2992.36,1643.31,1541.68,1862.82,2847.41,4249.65,5007.91,4891.07,4501.54,4167.82,3906.39,3637.57,3543,3681.5,4045.43,4347.3,4269.26,4227.08,4852.99,5396.72,4013.65,3080.19,4688.92,4688.92,2614.9,2614.9,2614.9
0.000111093	-1860974.53	0,1.73495e-07,4.0203e-07,7.03068e-07,1.09961e-06,1.62196e-06,2.31001e-06,3.21636e-06,4.41024e-06,5.98287e-06,8.05442e-06,1.07832e-05,1.43776e-05,1.91124e-05,2.53493e-05,3.35648e-05,4.43866e-05,5.86417e-05,7.74192e-05,0.000102154,0.000134736,0.000177654,0.000234188,0.000308657,0.000406751,0.000535966,0.000706174,0.00093038,0.00122572,0.00161475,0.0021272,0.00280222,inf	4.06351,4.06351,275.693,14676.9,11750.3,2920.85,1594.25,1492.47,1813.32,2820.62,4269.02,5039.54,4903.86,4501.14,4168.57,3911.01,3639.68,3543.89,3686.41,4059.07,4355.81,4250.92,4194.16,4852.75,5438.96,3984.3,3032.16,4705.17,4705.17,2517.2,2517.2,2517.2
0.000113038	-1860954.17	0,1.73495e-07,4.0203e-07,7.03068e-07,1.09961e-06,1.62196e-06,2.31001e-06,3.21636e-06,4.41024e-06,5.98287e-06,8.05442e-06,1.07832e-05,1.43776e-05,1.91124e-05,2.53493e-05,3.35648e-05,4.43866e-05,5.86417e-05,7.74192e-05,0.000102154,0.000134736,0.000177654,0.000234188,0.000308657,0.000406751,0.000535966,0.000706174,0.00093038,0.00122572,0.00161475,0.0021272,0.00280222,inf	4.06351,4.06351,213.211,14738.7,11904.3,2855.21,1551.36,1449.37,1769.9,2798.96,4291.02,5070.49,4914.82,4499.24,4168.35,3914.95,3641.53,3544.8,3691.59,4073.01,4364.45,4232.94,4161.8,4852.11,5480.64,3955.83,2987.3,4722.02,4722.02,2418.4,2418.4,2418.4
0.000114866	-1860936.54	0,1.73495e-07,4.0203e-07,7.03068e-07,1.09961e-06,1.62196e-06,2.31001e-06,3.21636e-06,4.41024e-06,5.98287e-06,8.05442e-06,1.07832e-05,1.43776e-05,1.91124e-05,2.53493e-05,3.35648e-05,4.43866e-05,5.86417e-05,7.74192e-05,0.000102154,0.000134736,0.000177654,0.000234188,0.000308657,0.000406751,0.000535966,0.000706174,0.00093038,0.00122572,0.00161475,0.0021272,0.00280222,inf	4.06351,4.06351,165.144,14774.3,12042.8,2793.91,1513.15,1411.1,1731.56,2781.62,4315.06,5100.85,4924.28,4496.16,4167.38,3918.34,3643.09,3545.62,3696.91,4087.17,4373.18,4215.3,4130.02,4851.2,5521.93,3928.17,2945.24,4739.78,4739.78,2317.23,2317.23,2317.23
0.000116584	-1860921.27	0,1.73495e-07,4.0203e-07,7.03068e-07,1.09961e-06,1.62196e-06,2.31001e-06,3.21636e-06,4.41024e-06,5.98287e-06,8.05442e-06,1.07832e-05,1.43776e-05,1.91124e-05,2.53493e-05,3.35648e-05,4.43866e-05,5.86417e-05,7.74192e-05,0.000102154,0.000134736,0.000177654,0.000234188,0.000308657,0.000406751,0.000535966,0.000706174,0.00093038,0.00122572,0.00161475,0.0021272,0.00280222,inf	4.06351,4.06351,128.17,14790.1,12169,2736.49,1478.98,1376.88,1697.26,2767.69,4340.63,5130.58,4932.47,4492.15,4165.85,3921.27,3644.34,3546.3,3702.26,4101.45,4381.98,4198.02,4098.82,4850.07,5562.95,3901.21,2905.66,4758.8,4758.8,2212.14,2212.14,2212.14
0.0001182	-1860908.04	0,1.73495e-07,4.0203e-07,7.03068e-07,1.09961e-06,1.62196e-06,2.31001e-06,3.21636e-06,4.41024e-06,5.98287e-06,8.05442e-06,1.07832e-05,1.43776e-05,1.91124e-05,2.53493e-05,3.35648e-05,4.43866e-05,5.86417e-05,7.74192e-05,0.000102154,0.000134736,0.000177654,0.000234188,0.000308657,0.000406751,0.000535966,0.000706174,0.00093038,0.00122572,0.00161475,0.0021272,0.00280222,inf	4.06351,4.06351,99.2389,14790,12283.7,2682.64,1448.12,1346.03,1666.5,2756.74,4367.57,5159.42,4939.59,4487.5,4163.98,3923.86,3645.33,3546.78,3707.61,4115.8,4390.83,4181.08,4068.19,4848.78,5603.79,3874.87,2868.3,4779.46,4779.46,2101.16,2101.16,2101.16
0.000119723	-1860896.61	0,1.73495e-07,4.0203e-07,7.03068e-07,1.09961e-06,1.62196e-06,2.31001e-06,3.21636e-06,4.41024e-06,5.98287e-06,8.05442e-06,1.07832e-05,1.43776e-05,1.91124e-05,2.53493e-05,3.35648e-05,4.43866e-05,5.86417e-05,7.74192e-05,0.000102154,0.000134736,0.000177654,0.000234188,0.000308657,0.000406751,0.000535966,0.000706174,0.00093038,0.00122572,0.00161475,0.0021272,0.00280222,inf	4.06351,4.06351,77.1501,14778.8,12388.2,2631.44,1420.2,1318,1638.61,2748.21,4395.45,5187.6,4945.78,4482.29,4161.81,3926.14,3646.03,3547.04,3712.88,4130.19,4399.73,4164.46,4038.09,4847.38,5644.52,3849.07,2832.91,4802.27,4802.27,1981.64,1981.64,1981.64
0.000121157	-1860886.82	0,1.73495e-07,4.0203e-07,7.03068e-07,1.09961e-06,1.62196e-06,2.31001e-06,3.21636e-06,4.41024e-06,5.98287e-06,8.05442e-06,1.07832e-05,1.43776e-05,1.91124e-05,2.53493e-05,3.35648e-05,4.43866e-05,5.86417e-05,7.74192e-05,0.000102154,0.000134736,0.000177654,0.000234188,0.000308657,0.000406751,0.000535966,0.000706174,0.00093038,0.00122572,0.00161475,0.0021272,0.00280222,inf	4.06351,4.06351,59.9568,14758.8,12484.6,2583.22,1394.57,1292.4,1613.17,2741.52,4423.98,5215,4951.19,4476.75,4159.48,3928.19,3646.47,3547.06,3718.05,4144.6,4408.7,4148.17,4008.51,4845.87,5685.2,3823.73,2799.31,4827.88,4827.88,1849.76,1849.76,1849.76
