time_index	left_time_boundary	right_time_boundary	lambda
0	0	7.82105e-06	6743.93
1	7.82105e-06	1.85227e-05	6743.93
2	1.85227e-05	3.3166e-05	3015.24
3	3.3166e-05	5.32025e-05	2034.72
4	5.32025e-05	8.06189e-05	3293.2
5	8.06189e-05	0.000118133	3615.56
6	0.000118133	0.000169464	4820.02
7	0.000169464	0.000239702	4806.05
8	0.000239702	0.000335808	3832.84
9	0.000335808	0.000467313	3231.83
10	0.000467313	0.000647252	3744.9
11	0.000647252	0.000893465	6004.25
12	0.000893465	0.00123036	12491.6
13	0.00123036	0.00169135	658695
14	0.00169135	0.00232211	658695
15	0.00232211	inf	658695
