time_index	left_time_boundary	right_time_boundary	lambda
0	0	3.79313e-05	698.934
1	3.79313e-05	8.23014e-05	698.934
2	8.23014e-05	0.000134203	142.566
3	0.000134203	0.000194916	466.171
4	0.000194916	0.000265934	345.597
5	0.000265934	0.000349007	301.546
6	0.000349007	0.000446183	338.052
7	0.000446183	0.000559853	350.112
8	0.000559853	0.00069282	340.731
9	0.00069282	0.000848357	327.152
10	0.000848357	0.0010303	328.613
11	0.0010303	0.00124312	346.853
12	0.00124312	0.00149207	367.828
13	0.00149207	0.00178328	383.7
14	0.00178328	0.00212393	402.902
15	0.00212393	0.00252239	430.654
16	0.00252239	0.0029885	455.414
17	0.0029885	0.00353373	465.929
18	0.00353373	0.00417151	465.544
19	0.00417151	0.00491756	466.989
20	0.00491756	0.00579024	480.612
21	0.00579024	0.00681107	498.664
22	0.00681107	0.00800518	486.041
23	0.00800518	0.00940199	413.822
24	0.00940199	0.0110359	303.364
25	0.0110359	0.0129472	201.971
26	0.0129472	0.0151829	131.069
27	0.0151829	0.0177981	75.8423
28	0.0177981	0.0208573	75.8423
29	0.0208573	0.0244357	210.99
30	0.0244357	0.0286216	210.99
31	0.0286216	inf	210.99
