0.000551313	-83260272.45	0,6.07752e-06,1.63148e-05,3.35591e-05,6.26064e-05,0.000111535,0.000193954,0.000332784,0.000566637,0.000960552,0.00162408,0.00274178,0.00462448,0.0077958,0.0131378,0.022136,inf	399.493,399.493,364.689,384.395,376.243,377.207,390.126,400.555,406.828,405.339,397.473,393.07,392.509,384.97,384.97,384.97
0.000494898	-83240741.80	0,6.07752e-06,1.63148e-05,3.35591e-05,6.26064e-05,0.000111535,0.000193954,0.000332784,0.000566637,0.000960552,0.00162408,0.00274178,0.00462448,0.0077958,0.0131378,0.022136,inf	427.623,427.623,364.818,397.636,378.018,370.668,386.218,399.703,409.871,408.84,396.295,390.143,389.809,375.708,375.708,375.708
0.00044919	-83226309.88	0,6.07752e-06,1.63148e-05,3.35591e-05,6.26064e-05,0.000111535,0.000193954,0.000332784,0.000566637,0.000960552,0.00162408,0.00274178,0.00462448,0.0077958,0.0131378,0.022136,inf	452.6,452.6,370.651,415.664,387.957,371.018,385.789,398.644,410.754,411,395.737,389.749,390.643,370.613,370.613,370.613
0.000412353	-83215715.78	0,6.07752e-06,1.63148e-05,3.35591e-05,6.26064e-05,0.000111535,0.000193954,0.000332784,0.000566637,0.000960552,0.00162408,0.00274178,0.00462448,0.0077958,0.0131378,0.022136,inf	472.139,472.139,376.903,432.002,400.054,374.252,387.409,397.873,410.393,411.998,394.962,390.186,393.148,367.729,367.729,367.729
0.000382963	-83208175.02	0,6.07752e-06,1.63148e-05,3.35591e-05,6.26064e-05,0.000111535,0.000193954,0.000332784,0.000566637,0.000960552,0.00162408,0.00274178,0.00462448,0.0077958,0.0131378,0.022136,inf	487.647,487.647,382.868,445.092,411.955,378.418,390.149,397.591,409.512,412.309,393.89,390.708,396.284,365.991,365.991,365.991
0.00035977	-83203002.01	0,6.07752e-06,1.63148e-05,3.35591e-05,6.26064e-05,0.000111535,0.000193954,0.000332784,0.000566637,0.000960552,0.00162408,0.00274178,0.00462448,0.0077958,0.0131378,0.022136,inf	500.086,500.086,388.637,454.976,422.733,382.514,393.335,397.741,408.493,412.303,392.658,391.048,399.481,364.825,364.825,364.825
0.000341657	-83199580.90	0,6.07752e-06,1.63148e-05,3.35591e-05,6.26064e-05,0.000111535,0.000193954,0.000332784,0.000566637,0.000960552,0.00162408,0.00274178,0.00462448,0.0077958,0.0131378,0.022136,inf	509.975,509.975,394.23,462.144,432.099,386.072,396.52,398.179,407.5,412.193,391.422,391.16,402.45,363.94,363.94,363.94
0.000327636	-83197393.83	0,6.07752e-06,1.63148e-05,3.35591e-05,6.26064e-05,0.000111535,0.000193954,0.000332784,0.000566637,0.000960552,0.00162408,0.00274178,0.00462448,0.0077958,0.0131378,0.022136,inf	517.653,517.653,399.577,467.151,440.048,388.924,399.449,398.768,406.586,412.081,390.288,391.087,405.068,363.197,363.197,363.197
0.000316865	-83196037.48	0,6.07752e-06,1.63148e-05,3.35591e-05,6.26064e-05,0.000111535,0.000193954,0.000332784,0.000566637,0.000960552,0.00162408,0.00274178,0.00462448,0.0077958,0.0131378,0.022136,inf	523.408,523.408,404.559,470.5,446.712,391.085,402.001,399.408,405.766,412.004,389.311,390.89,407.301,362.543,362.543,362.543
0.00030864	-83195218.68	0,6.07752e-06,1.63148e-05,3.35591e-05,6.26064e-05,0.000111535,0.000193954,0.000332784,0.000566637,0.000960552,0.00162408,0.00274178,0.00462448,0.0077958,0.0131378,0.022136,inf	527.631,527.631,409.14,472.605,452.251,392.631,404.15,400.039,405.038,411.968,388.506,390.628,409.166,361.959,361.959,361.959
0.00030239	-83194736.21	0,6.07752e-06,1.63148e-05,3.35591e-05,6.26064e-05,0.000111535,0.000193954,0.000332784,0.000566637,0.000960552,0.00162408,0.00274178,0.00462448,0.0077958,0.0131378,0.022136,inf	530.6,530.6,413.232,473.801,456.841,393.675,405.913,400.63,404.396,411.966,387.866,390.342,410.701,361.439,361.439,361.439
0.000297657	-83194458.29	0,6.07752e-06,1.63148e-05,3.35591e-05,6.26064e-05,0.000111535,0.000193954,0.000332784,0.000566637,0.000960552,0.00162408,0.00274178,0.00462448,0.0077958,0.0131378,0.022136,inf	532.614,532.614,416.83,474.342,460.639,394.332,407.333,401.164,403.834,411.989,387.369,390.059,411.952,360.983,360.983,360.983
0.000294085	-83194301.83	0,6.07752e-06,1.63148e-05,3.35591e-05,6.26064e-05,0.000111535,0.000193954,0.000332784,0.000566637,0.000960552,0.00162408,0.00274178,0.00462448,0.0077958,0.0131378,0.022136,inf	533.933,533.933,419.953,474.424,463.78,394.702,408.462,401.637,403.346,412.027,386.992,389.794,412.963,360.589,360.589,360.589
0.000291401	-83194215.98	0,6.07752e-06,1.63148e-05,3.35591e-05,6.26064e-05,0.000111535,0.000193954,0.000332784,0.000566637,0.000960552,0.00162408,0.00274178,0.00462448,0.0077958,0.0131378,0.022136,inf	535.033,535.033,422.86,474.467,466.642,395.065,409.544,402.21,403.028,412.111,386.705,389.582,413.829,360.287,360.287,360.287
0.000289376	-83194171.28	0,6.07752e-06,1.63148e-05,3.35591e-05,6.26064e-05,0.000111535,0.000193954,0.000332784,0.000566637,0.000960552,0.00162408,0.00274178,0.00462448,0.0077958,0.0131378,0.022136,inf	535.428,535.428,425.105,474.008,468.778,395.064,410.229,402.573,402.67,412.155,386.486,389.374,414.493,360.006,360.006,360.006
0.000287855	-83194148.51	0,6.07752e-06,1.63148e-05,3.35591e-05,6.26064e-05,0.000111535,0.000193954,0.000332784,0.000566637,0.000960552,0.00162408,0.00274178,0.00462448,0.0077958,0.0131378,0.022136,inf	535.586,535.586,426.992,473.419,470.522,394.942,410.727,402.858,402.346,412.195,386.331,389.189,415.013,359.764,359.764,359.764
0.000286712	-83194137.74	0,6.07752e-06,1.63148e-05,3.35591e-05,6.26064e-05,0.000111535,0.000193954,0.000332784,0.000566637,0.000960552,0.00162408,0.00274178,0.00462448,0.0077958,0.0131378,0.022136,inf	535.6,535.6,428.594,472.798,471.989,394.768,411.102,403.097,402.068,412.234,386.224,389.03,415.423,359.56,359.56,359.56
0.000285856	-83194133.35	0,6.07752e-06,1.63148e-05,3.35591e-05,6.26064e-05,0.000111535,0.000193954,0.000332784,0.000566637,0.000960552,0.00162408,0.00274178,0.00462448,0.0077958,0.0131378,0.022136,inf	535.549,535.549,429.95,472.165,473.22,394.572,411.387,403.304,401.831,412.272,386.151,388.895,415.747,359.392,359.392,359.392
0.000285259	-83194132.25	0,6.07752e-06,1.63148e-05,3.35591e-05,6.26064e-05,0.000111535,0.000193954,0.000332784,0.000566637,0.000960552,0.00162408,0.00274178,0.00462448,0.0077958,0.0131378,0.022136,inf	535.55,535.55,431.225,471.677,474.431,394.507,411.777,403.691,401.86,412.592,386.37,389.03,416.185,359.361,359.361,359.361
0.00028478	-83194134.02	0,6.07752e-06,1.63148e-05,3.35591e-05,6.26064e-05,0.000111535,0.000193954,0.000332784,0.000566637,0.000960552,0.00162408,0.00274178,0.00462448,0.0077958,0.0131378,0.022136,inf	535.373,535.373,432.163,471.069,475.307,394.3,411.938,403.85,401.68,412.611,386.33,388.96,416.416,359.256,359.256,359.256
