time_index	left_time_boundary	right_time_boundary	lambda
0	0	9.61311e-06	2.52779
1	9.61311e-06	2.15036e-05	2.52779
2	2.15036e-05	3.62109e-05	61.0247
3	3.62109e-05	5.44025e-05	334.896
4	5.44025e-05	7.69036e-05	269.547
5	7.69036e-05	0.000104735	340.592
6	0.000104735	0.00013916	292.082
7	0.00013916	0.000181741	359.333
8	0.000181741	0.000234409	367.91
9	0.000234409	0.000299553	351.074
10	0.000299553	0.000380131	312.61
11	0.000380131	0.000479798	280.225
12	0.000479798	0.000603076	268.605
13	0.000603076	0.000755559	273.466
14	0.000755559	0.000944165	285.86
15	0.000944165	0.00117745	301.85
16	0.00117745	0.00146601	327.247
17	0.00146601	0.00182292	359.554
18	0.00182292	0.00226438	401.127
19	0.00226438	0.00281043	450.6
20	0.00281043	0.00348584	489.262
21	0.00348584	0.00432126	504.851
22	0.00432126	0.00535458	503.182
23	0.00535458	0.0066327	483.5
24	0.0066327	0.00821362	443.665
25	0.00821362	0.010169	401.901
26	0.010169	0.0125877	410.793
27	0.0125877	0.0155794	452.91
28	0.0155794	0.0192798	452.91
29	0.0192798	0.0238568	310.433
30	0.0238568	0.0295181	310.433
31	0.0295181	inf	310.433
