0.000651457	-13641341.58	0,1.74315e-06,4.03932e-06,7.06394e-06,1.10481e-05,1.62963e-05,2.32094e-05,3.23157e-05,4.4311e-05,6.01117e-05,8.09252e-05,0.000108342,0.000144456,0.000192028,0.000254692,0.000337235,0.000445966,0.000589191,0.000777854,0.00102637,0.00135373,0.00178494,0.00235295,0.00310117,0.00408675,0.00538501,0.00709514,0.00934781,0.0123151,0.0162238,0.0213726,0.0281547,inf	78.904,78.904,115.756,198.381,195.098,208.121,229.982,229.819,239.715,256.354,270.066,285.685,298.133,302.714,303.254,303.512,307.834,317.374,333.211,354.019,379.92,408.386,432.446,443.128,440.591,431.798,420.313,411.574,411.574,408.58,408.58,408.58
0.000685641	-13638227.71	0,1.74315e-06,4.03932e-06,7.06394e-06,1.10481e-05,1.62963e-05,2.32094e-05,3.23157e-05,4.4311e-05,6.01117e-05,8.09252e-05,0.000108342,0.000144456,0.000192028,0.000254692,0.000337235,0.000445966,0.000589191,0.000777854,0.00102637,0.00135373,0.00178494,0.00235295,0.00310117,0.00408675,0.00538501,0.00709514,0.00934781,0.0123151,0.0162238,0.0213726,0.0281547,inf	33.9887,33.9887,66.9672,187.502,164.986,176.398,207.757,195.536,202.6,223.642,240.309,262.917,281.534,285.542,281.659,276.626,277.922,287.194,306.374,333.355,369.292,411.367,449.477,467.855,464.69,450.303,429.866,414.65,414.65,409.876,409.876,409.876
0.00071801	-13636834.68	0,1.74315e-06,4.03932e-06,7.06394e-06,1.10481e-05,1.62963e-05,2.32094e-05,3.23157e-05,4.4311e-05,6.01117e-05,8.09252e-05,0.000108342,0.000144456,0.000192028,0.000254692,0.000337235,0.000445966,0.000589191,0.000777854,0.00102637,0.00135373,0.00178494,0.00235295,0.00310117,0.00408675,0.00538501,0.00709514,0.00934781,0.0123151,0.0162238,0.0213726,0.0281547,inf	17.8568,17.8568,46.0499,202.334,157.026,169.42,210.734,185.159,189.308,213.456,231.473,260.237,284.852,288.431,280.303,269.985,267.453,274.592,293.889,322.584,362.945,412.337,459.198,483.155,480.332,462.408,434.962,415.023,415.023,409.256,409.256,409.256
0.0007485	-13635948.41	0,1.74315e-06,4.03932e-06,7.06394e-06,1.10481e-05,1.62963e-05,2.32094e-05,3.23157e-05,4.4311e-05,6.01117e-05,8.09252e-05,0.000108342,0.000144456,0.000192028,0.000254692,0.000337235,0.000445966,0.000589191,0.000777854,0.00102637,0.00135373,0.00178494,0.00235295,0.00310117,0.00408675,0.00538501,0.00709514,0.00934781,0.0123151,0.0162238,0.0213726,0.0281547,inf	9.77653,9.77653,32.6876,219.605,150.554,166.772,218.127,179.491,181.687,208.388,226.905,261.333,291.98,295.876,284.532,269.977,264.139,269.063,287.555,316.298,358.626,412.139,464.575,492.515,490.413,470.204,437.181,413.799,413.799,407.511,407.511,407.511
0.000777371	-13635285.07	0,1.74315e-06,4.03932e-06,7.06394e-06,1.10481e-05,1.62963e-05,2.32094e-05,3.23157e-05,4.4311e-05,6.01117e-05,8.09252e-05,0.000108342,0.000144456,0.000192028,0.000254692,0.000337235,0.000445966,0.000589191,0.000777854,0.00102637,0.00135373,0.00178494,0.00235295,0.00310117,0.00408675,0.00538501,0.00709514,0.00934781,0.0123151,0.0162238,0.0213726,0.0281547,inf	5.39226,5.39226,23.2941,234.915,142.85,164.813,225.788,174.857,175.994,204.733,222.955,262.276,298.573,303.319,289.769,272.11,263.729,266.809,284.307,312.447,355.555,411.423,467.434,498.168,496.875,475.143,437.602,411.702,411.702,405.18,405.18,405.18
0.000804872	-13634745.87	0,1.74315e-06,4.03932e-06,7.06394e-06,1.10481e-05,1.62963e-05,2.32094e-05,3.23157e-05,4.4311e-05,6.01117e-05,8.09252e-05,0.000108342,0.000144456,0.000192028,0.000254692,0.000337235,0.000445966,0.000589191,0.000777854,0.00102637,0.00135373,0.00178494,0.00235295,0.00310117,0.00408675,0.00538501,0.00709514,0.00934781,0.0123151,0.0162238,0.0213726,0.0281547,inf	2.98229,2.98229,16.5893,247.935,134.171,163.06,233.082,170.693,171.516,201.872,219.114,262.476,303.738,309.555,294.561,274.748,264.528,266.204,282.761,310.063,353.356,410.549,468.836,501.493,500.97,478.184,436.926,409.187,409.187,402.612,402.612,402.612
0.000831196	-13634287.53	0,1.74315e-06,4.03932e-06,7.06394e-06,1.10481e-05,1.62963e-05,2.32094e-05,3.23157e-05,4.4311e-05,6.01117e-05,8.09252e-05,0.000108342,0.000144456,0.000192028,0.000254692,0.000337235,0.000445966,0.000589191,0.000777854,0.00102637,0.00135373,0.00178494,0.00235295,0.00310117,0.00408675,0.00538501,0.00709514,0.00934781,0.0123151,0.0162238,0.0213726,0.0281547,inf	1.64592,1.64592,11.8337,258.905,125.093,161.508,239.976,166.942,168.089,199.788,215.521,262.159,307.608,314.48,298.54,277.291,265.796,266.468,282.213,308.622,351.793,409.689,469.389,503.337,503.502,479.961,435.604,406.53,406.53,400.022,400.022,400.022
0.000856484	-13633887.81	0,1.74315e-06,4.03932e-06,7.06394e-06,1.10481e-05,1.62963e-05,2.32094e-05,3.23157e-05,4.4311e-05,6.01117e-05,8.09252e-05,0.000108342,0.000144456,0.000192028,0.000254692,0.000337235,0.000445966,0.000589191,0.000777854,0.00102637,0.00135373,0.00178494,0.00235295,0.00310117,0.00408675,0.00538501,0.00709514,0.00934781,0.0123151,0.0162238,0.0213726,0.0281547,inf	0.908912,0.908912,8.41618,268.11,116.006,160.15,246.438,163.547,165.586,198.475,212.343,261.649,310.532,318.308,301.711,279.54,267.2,267.195,282.264,307.806,350.703,408.917,469.446,504.225,504.987,480.89,433.919,403.893,403.893,397.542,397.542,397.542
0.000880841	-13633533.74	0,1.74315e-06,4.03932e-06,7.06394e-06,1.10481e-05,1.62963e-05,2.32094e-05,3.23157e-05,4.4311e-05,6.01117e-05,8.09252e-05,0.000108342,0.000144456,0.000192028,0.000254692,0.000337235,0.000445966,0.000589191,0.000777854,0.00102637,0.00135373,0.00178494,0.00235295,0.00310117,0.00408675,0.00538501,0.00709514,0.00934781,0.0123151,0.0162238,0.0213726,0.0281547,inf	0.4973,0.4973,6.00431,275.882,107.156,158.98,252.4,160.411,163.836,197.867,209.65,261.177,312.838,321.304,304.199,281.458,268.587,268.162,282.682,307.414,349.968,408.256,469.211,504.488,505.764,481.245,432.052,401.372,401.372,395.246,395.246,395.246
0.000904347	-13633216.96	0,1.74315e-06,4.03932e-06,7.06394e-06,1.10481e-05,1.62963e-05,2.32094e-05,3.23157e-05,4.4311e-05,6.01117e-05,8.09252e-05,0.000108342,0.000144456,0.000192028,0.000254692,0.000337235,0.000445966,0.000589191,0.000777854,0.00102637,0.00135373,0.00178494,0.00235295,0.00310117,0.00408675,0.00538501,0.00709514,0.00934781,0.0123151,0.0162238,0.0213726,0.0281547,inf	0.404471,0.404471,4.29958,282.401,98.729,157.99,257.816,157.455,162.691,197.865,207.446,260.888,314.768,323.698,306.141,283.064,269.888,269.241,283.319,307.311,349.499,407.706,468.806,504.339,506.058,481.213,430.115,399.015,399.015,393.173,393.173,393.173
0.000927064	-13632931.59	0,1.74315e-06,4.03932e-06,7.06394e-06,1.10481e-05,1.62963e-05,2.32094e-05,3.23157e-05,4.4311e-05,6.01117e-05,8.09252e-05,0.000108342,0.000144456,0.000192028,0.000254692,0.000337235,0.000445966,0.000589191,0.000777854,0.00102637,0.00135373,0.00178494,0.00235295,0.00310117,0.00408675,0.00538501,0.00709514,0.00934781,0.0123151,0.0162238,0.0213726,0.0281547,inf	0.404471,0.404471,3.0763,287.962,90.7982,157.191,262.638,154.6,162.009,198.354,205.687,260.837,316.487,325.668,307.663,284.402,271.077,270.358,284.082,307.406,349.23,407.257,468.303,503.915,506.018,480.918,428.178,396.847,396.847,391.339,391.339,391.339
0.000949044	-13632673.23	0,1.74315e-06,4.03932e-06,7.06394e-06,1.10481e-05,1.62963e-05,2.32094e-05,3.23157e-05,4.4311e-05,6.01117e-05,8.09252e-05,0.000108342,0.000144456,0.000192028,0.000254692,0.000337235,0.000445966,0.000589191,0.000777854,0.00102637,0.00135373,0.00178494,0.00235295,0.00310117,0.00408675,0.00538501,0.00709514,0.00934781,0.0123151,0.0162238,0.0213726,0.0281547,inf	0.404471,0.404471,2.21852,292.679,83.4348,156.59,266.88,151.793,161.674,199.227,204.307,261.044,318.098,327.345,308.867,285.516,272.151,271.473,284.914,307.637,349.112,406.895,467.746,503.308,505.747,480.445,426.284,394.873,394.873,389.746,389.746,389.746
0.000970329	-13632438.43	0,1.74315e-06,4.03932e-06,7.06394e-06,1.10481e-05,1.62963e-05,2.32094e-05,3.23157e-05,4.4311e-05,6.01117e-05,8.09252e-05,0.000108342,0.000144456,0.000192028,0.000254692,0.000337235,0.000445966,0.000589191,0.000777854,0.00102637,0.00135373,0.00178494,0.00235295,0.00310117,0.00408675,0.00538501,0.00709514,0.00934781,0.0123151,0.0162238,0.0213726,0.0281547,inf	0.404471,0.404471,1.60363,296.699,76.6459,156.193,270.533,149.009,161.602,200.387,203.248,261.498,319.662,328.823,309.833,286.447,273.116,272.559,285.775,307.96,349.107,406.607,467.162,502.579,505.314,479.852,424.456,393.091,393.091,388.386,388.386,388.386
0.000990954	-13632224.39	0,1.74315e-06,4.03932e-06,7.06394e-06,1.10481e-05,1.62963e-05,2.32094e-05,3.23157e-05,4.4311e-05,6.01117e-05,8.09252e-05,0.000108342,0.000144456,0.000192028,0.000254692,0.000337235,0.000445966,0.000589191,0.000777854,0.00102637,0.00135373,0.00178494,0.00235295,0.00310117,0.00408675,0.00538501,0.00709514,0.00934781,0.0123151,0.0162238,0.0213726,0.0281547,inf	0.404471,0.404471,1.16065,300.169,70.4413,156.025,273.651,146.228,161.718,201.761,202.448,262.176,321.215,330.163,310.62,287.23,273.979,273.605,286.64,308.344,349.188,406.382,466.567,501.771,504.771,479.18,422.706,391.493,391.493,387.249,387.249,387.249
0.00101095	-13632028.79	0,1.74315e-06,4.03932e-06,7.06394e-06,1.10481e-05,1.62963e-05,2.32094e-05,3.23157e-05,4.4311e-05,6.01117e-05,8.09252e-05,0.000108342,0.000144456,0.000192028,0.000254692,0.000337235,0.000445966,0.000589191,0.000777854,0.00102637,0.00135373,0.00178494,0.00235295,0.00310117,0.00408675,0.00538501,0.00709514,0.00934781,0.0123151,0.0162238,0.0213726,0.0281547,inf	0.404471,0.404471,0.842322,303.202,64.7949,156.108,276.283,143.448,161.972,203.284,201.857,263.047,322.772,331.409,311.274,287.893,274.752,274.603,287.493,308.767,349.335,406.208,465.972,500.914,504.151,478.457,421.042,390.068,390.068,386.32,386.32,386.32
0.00103035	-13631849.65	0,1.74315e-06,4.03932e-06,7.06394e-06,1.10481e-05,1.62963e-05,2.32094e-05,3.23157e-05,4.4311e-05,6.01117e-05,8.09252e-05,0.000108342,0.000144456,0.000192028,0.000254692,0.000337235,0.000445966,0.000589191,0.000777854,0.00102637,0.00135373,0.00178494,0.00235295,0.00310117,0.00408675,0.00538501,0.00709514,0.00934781,0.0123151,0.0162238,0.0213726,0.0281547,inf	0.404471,0.404471,0.612026,305.827,59.6658,156.444,278.46,140.673,162.319,204.905,201.431,264.081,324.342,332.593,311.83,288.459,275.446,275.551,288.326,309.215,349.53,406.078,465.384,500.026,503.478,477.703,419.462,388.802,388.802,385.583,385.583,385.583
0.00104918	-13631685.30	0,1.74315e-06,4.03932e-06,7.06394e-06,1.10481e-05,1.62963e-05,2.32094e-05,3.23157e-05,4.4311e-05,6.01117e-05,8.09252e-05,0.000108342,0.000144456,0.000192028,0.000254692,0.000337235,0.000445966,0.000589191,0.000777854,0.00102637,0.00135373,0.00178494,0.00235295,0.00310117,0.00408675,0.00538501,0.00709514,0.00934781,0.0123151,0.0162238,0.0213726,0.0281547,inf	0.404471,0.404471,0.44573,308.098,54.9993,157.037,280.224,137.915,162.753,206.59,201.135,265.253,325.924,333.732,312.313,288.949,276.07,276.45,289.13,309.675,349.764,405.984,464.805,499.123,502.772,476.931,417.966,387.682,387.682,385.022,385.022,385.022
0.00106746	-13631534.26	0,1.74315e-06,4.03932e-06,7.06394e-06,1.10481e-05,1.62963e-05,2.32094e-05,3.23157e-05,4.4311e-05,6.01117e-05,8.09252e-05,0.000108342,0.000144456,0.000192028,0.000254692,0.000337235,0.000445966,0.000589191,0.000777854,0.00102637,0.00135373,0.00178494,0.00235295,0.00310117,0.00408675,0.00538501,0.00709514,0.00934781,0.0123151,0.0162238,0.0213726,0.0281547,inf	0.404471,0.404471,0.40448,310.063,50.7746,157.868,281.632,135.184,163.238,208.31,200.938,266.535,327.513,334.836,312.742,289.375,276.632,277.3,289.904,310.141,350.026,405.919,464.24,498.215,502.044,476.151,416.55,386.696,386.696,384.623,384.623,384.623
0.0010852	-13631395.25	0,1.74315e-06,4.03932e-06,7.06394e-06,1.10481e-05,1.62963e-05,2.32094e-05,3.23157e-05,4.4311e-05,6.01117e-05,8.09252e-05,0.000108342,0.000144456,0.000192028,0.000254692,0.000337235,0.000445966,0.000589191,0.000777854,0.00102637,0.00135373,0.00178494,0.00235295,0.00310117,0.00408675,0.00538501,0.00709514,0.00934781,0.0123151,0.0162238,0.0213726,0.0281547,inf	0.404471,0.404471,0.40448,311.757,46.9402,158.934,282.706,132.483,163.78,210.042,200.819,267.907,329.107,335.92,313.131,289.752,277.142,278.103,290.644,310.606,350.308,405.881,463.688,497.31,501.305,475.369,415.21,385.832,385.832,384.372,384.372,384.372
0.00110245	-13631267.14	0,1.74315e-06,4.03932e-06,7.06394e-06,1.10481e-05,1.62963e-05,2.32094e-05,3.23157e-05,4.4311e-05,6.01117e-05,8.09252e-05,0.000108342,0.000144456,0.000192028,0.000254692,0.000337235,0.000445966,0.000589191,0.000777854,0.00102637,0.00135373,0.00178494,0.00235295,0.00310117,0.00408675,0.00538501,0.00709514,0.00934781,0.0123151,0.0162238,0.0213726,0.0281547,inf	0.404471,0.404471,0.40444,313.149,43.4573,160.243,283.497,129.828,164.355,211.763,200.757,269.346,330.697,336.985,313.492,290.088,277.605,278.863,291.352,311.067,350.607,405.863,463.15,496.412,500.561,474.591,413.939,385.078,385.078,384.254,384.254,384.254
0.0011192	-13631148.95	0,1.74315e-06,4.03932e-06,7.06394e-06,1.10481e-05,1.62963e-05,2.32094e-05,3.23157e-05,4.4311e-05,6.01117e-05,8.09252e-05,0.000108342,0.000144456,0.000192028,0.000254692,0.000337235,0.000445966,0.000589191,0.000777854,0.00102637,0.00135373,0.00178494,0.00235295,0.00310117,0.00408675,0.00538501,0.00709514,0.00934781,0.0123151,0.0162238,0.0213726,0.0281547,inf	0.404471,0.404471,0.404439,314.355,40.292,161.774,284.018,127.223,164.976,213.476,200.741,270.841,332.282,338.035,313.829,290.39,278.028,279.581,292.026,311.521,350.917,405.863,462.628,495.526,499.817,473.819,412.734,384.423,384.423,384.257,384.257,384.257
0.00113548	-13631039.78	0,1.74315e-06,4.03932e-06,7.06394e-06,1.10481e-05,1.62963e-05,2.32094e-05,3.23157e-05,4.4311e-05,6.01117e-05,8.09252e-05,0.000108342,0.000144456,0.000192028,0.000254692,0.000337235,0.000445966,0.000589191,0.000777854,0.00102637,0.00135373,0.00178494,0.00235295,0.00310117,0.00408675,0.00538501,0.00709514,0.00934781,0.0123151,0.0162238,0.0213726,0.0281547,inf	0.404471,0.404471,0.404439,315.32,37.4045,163.514,284.299,124.673,165.628,215.158,200.758,272.37,333.851,339.071,314.15,290.664,278.413,280.26,292.667,311.967,351.235,405.878,462.12,494.653,499.078,473.056,411.59,383.858,383.858,384.371,384.371,384.371
0.00115131	-13630938.85	0,1.74315e-06,4.03932e-06,7.06394e-06,1.10481e-05,1.62963e-05,2.32094e-05,3.23157e-05,4.4311e-05,6.01117e-05,8.09252e-05,0.000108342,0.000144456,0.000192028,0.000254692,0.000337235,0.000445966,0.000589191,0.000777854,0.00102637,0.00135373,0.00178494,0.00235295,0.00310117,0.00408675,0.00538501,0.00709514,0.00934781,0.0123151,0.0162238,0.0213726,0.0281547,inf	0.404471,0.404471,0.404439,316.143,34.7656,165.461,284.366,122.189,166.312,216.81,200.802,273.926,335.403,340.096,314.459,290.915,278.768,280.902,293.278,312.402,351.559,405.906,461.627,493.797,498.346,472.303,410.501,383.374,383.374,384.583,384.583,384.583
0.00116671	-13630845.46	0,1.74315e-06,4.03932e-06,7.06394e-06,1.10481e-05,1.62963e-05,2.32094e-05,3.23157e-05,4.4311e-05,6.01117e-05,8.09252e-05,0.000108342,0.000144456,0.000192028,0.000254692,0.000337235,0.000445966,0.000589191,0.000777854,0.00102637,0.00135373,0.00178494,0.00235295,0.00310117,0.00408675,0.00538501,0.00709514,0.00934781,0.0123151,0.0162238,0.0213726,0.0281547,inf	0.404471,0.404471,0.404439,316.796,32.3519,167.592,284.238,119.768,167.021,218.426,200.861,275.498,336.934,341.105,314.76,291.148,279.095,281.511,293.857,312.825,351.886,405.946,461.148,492.959,497.623,471.562,409.464,382.963,382.963,384.885,384.885,384.885
0.00118168	-13630758.96	0,1.74315e-06,4.03932e-06,7.06394e-06,1.10481e-05,1.62963e-05,2.32094e-05,3.23157e-05,4.4311e-05,6.01117e-05,8.09252e-05,0.000108342,0.000144456,0.000192028,0.000254692,0.000337235,0.000445966,0.000589191,0.000777854,0.00102637,0.00135373,0.00178494,0.00235295,0.00310117,0.00408675,0.00538501,0.00709514,0.00934781,0.0123151,0.0162238,0.0213726,0.0281547,inf	0.404471,0.404471,0.404439,317.294,30.1424,169.881,283.922,117.417,167.758,220.003,200.934,277.082,338.442,342.105,315.053,291.364,279.397,282.088,294.408,313.238,352.215,405.994,460.684,492.138,496.911,470.833,408.474,382.619,382.619,385.269,385.269,385.269
0.00119624	-13630678.79	0,1.74315e-06,4.03932e-06,7.06394e-06,1.10481e-05,1.62963e-05,2.32094e-05,3.23157e-05,4.4311e-05,6.01117e-05,8.09252e-05,0.000108342,0.000144456,0.000192028,0.000254692,0.000337235,0.000445966,0.000589191,0.000777854,0.00102637,0.00135373,0.00178494,0.00235295,0.00310117,0.00408675,0.00538501,0.00709514,0.00934781,0.0123151,0.0162238,0.0213726,0.0281547,inf	0.404471,0.404471,0.404439,317.668,28.1052,172.33,283.444,115.137,168.534,221.539,201.014,278.666,339.924,343.09,315.342,291.567,279.677,282.635,294.931,313.638,352.544,406.05,460.233,491.337,496.211,470.116,407.528,382.333,382.333,385.727,385.727,385.727
0.00121041	-13630604.44	0,1.74315e-06,4.03932e-06,7.06394e-06,1.10481e-05,1.62963e-05,2.32094e-05,3.23157e-05,4.4311e-05,6.01117e-05,8.09252e-05,0.000108342,0.000144456,0.000192028,0.000254692,0.000337235,0.000445966,0.000589191,0.000777854,0.00102637,0.00135373,0.00178494,0.00235295,0.00310117,0.00408675,0.00538501,0.00709514,0.00934781,0.0123151,0.0162238,0.0213726,0.0281547,inf	0.404471,0.404471,0.404439,317.868,26.2293,174.922,282.801,112.931,169.335,223.034,201.099,280.248,341.376,344.06,315.626,291.757,279.937,283.154,295.427,314.027,352.873,406.114,459.796,490.555,495.524,469.411,406.622,382.101,382.101,386.251,386.251,386.251
0.0012242	-13630535.43	0,1.74315e-06,4.03932e-06,7.06394e-06,1.10481e-05,1.62963e-05,2.32094e-05,3.23157e-05,4.4311e-05,6.01117e-05,8.09252e-05,0.000108342,0.000144456,0.000192028,0.000254692,0.000337235,0.000445966,0.000589191,0.000777854,0.00102637,0.00135373,0.00178494,0.00235295,0.00310117,0.00408675,0.00538501,0.00709514,0.00934781,0.0123151,0.0162238,0.0213726,0.0281547,inf	0.404471,0.404471,0.404439,317.944,24.5023,177.647,282.018,110.793,170.169,224.488,201.189,281.821,342.797,345.017,315.907,291.938,280.179,283.647,295.898,314.403,353.2,406.183,459.372,489.793,494.85,468.719,405.753,381.917,381.917,386.835,386.835,386.835
0.00123762	-13630471.35	0,1.74315e-06,4.03932e-06,7.06394e-06,1.10481e-05,1.62963e-05,2.32094e-05,3.23157e-05,4.4311e-05,6.01117e-05,8.09252e-05,0.000108342,0.000144456,0.000192028,0.000254692,0.000337235,0.000445966,0.000589191,0.000777854,0.00102637,0.00135373,0.00178494,0.00235295,0.00310117,0.00408675,0.00538501,0.00709514,0.00934781,0.0123151,0.0162238,0.0213726,0.0281547,inf	0.404471,0.404471,0.404439,317.95,22.9008,180.486,281.091,108.729,171.033,225.899,201.28,283.383,344.186,345.961,316.186,292.111,280.405,284.115,296.346,314.768,353.526,406.258,458.961,489.049,494.19,468.04,404.918,381.777,381.777,387.474,387.474,387.474
0.00125068	-13630411.82	0,1.74315e-06,4.03932e-06,7.06394e-06,1.10481e-05,1.62963e-05,2.32094e-05,3.23157e-05,4.4311e-05,6.01117e-05,8.09252e-05,0.000108342,0.000144456,0.000192028,0.000254692,0.000337235,0.000445966,0.000589191,0.000777854,0.00102637,0.00135373,0.00178494,0.00235295,0.00310117,0.00408675,0.00538501,0.00709514,0.00934781,0.0123151,0.0162238,0.0213726,0.0281547,inf	0.404471,0.404471,0.404439,317.908,21.427,183.43,280.037,106.732,171.925,227.269,201.371,284.933,345.543,346.888,316.463,292.275,280.616,284.56,296.771,315.121,353.849,406.336,458.561,488.325,493.545,467.373,404.115,381.677,381.677,388.162,388.162,388.162
0.0012634	-13630356.48	0,1.74315e-06,4.03932e-06,7.06394e-06,1.10481e-05,1.62963e-05,2.32094e-05,3.23157e-05,4.4311e-05,6.01117e-05,8.09252e-05,0.000108342,0.000144456,0.000192028,0.000254692,0.000337235,0.000445966,0.000589191,0.000777854,0.00102637,0.00135373,0.00178494,0.00235295,0.00310117,0.00408675,0.00538501,0.00709514,0.00934781,0.0123151,0.0162238,0.0213726,0.0281547,inf	0.404471,0.404471,0.404439,317.769,20.0528,186.458,278.877,104.806,172.85,228.599,201.464,286.465,346.867,347.799,316.738,292.432,280.813,284.984,297.174,315.463,354.169,406.419,458.174,487.62,492.913,466.718,403.341,381.612,381.612,388.894,388.894,388.894
0.00127579	-13630305.02	0,1.74315e-06,4.03932e-06,7.06394e-06,1.10481e-05,1.62963e-05,2.32094e-05,3.23157e-05,4.4311e-05,6.01117e-05,8.09252e-05,0.000108342,0.000144456,0.000192028,0.000254692,0.000337235,0.000445966,0.000589191,0.000777854,0.00102637,0.00135373,0.00178494,0.00235295,0.00310117,0.00408675,0.00538501,0.00709514,0.00934781,0.0123151,0.0162238,0.0213726,0.0281547,inf	0.404471,0.404471,0.404439,317.517,18.774,189.575,277.593,102.949,173.798,229.884,201.554,287.978,348.156,348.695,317.012,292.584,280.999,285.387,297.557,315.794,354.485,406.505,457.797,486.934,492.296,466.076,402.594,381.579,381.579,389.668,389.668,389.668
0.00128786	-13630257.14	0,1.74315e-06,4.03932e-06,7.06394e-06,1.10481e-05,1.62963e-05,2.32094e-05,3.23157e-05,4.4311e-05,6.01117e-05,8.09252e-05,0.000108342,0.000144456,0.000192028,0.000254692,0.000337235,0.000445966,0.000589191,0.000777854,0.00102637,0.00135373,0.00178494,0.00235295,0.00310117,0.00408675,0.00538501,0.00709514,0.00934781,0.0123151,0.0162238,0.0213726,0.0281547,inf	0.404471,0.404471,0.404439,317.242,17.5822,192.763,276.218,101.162,174.776,231.129,201.641,289.471,349.413,349.577,317.284,292.731,281.173,285.771,297.92,316.114,354.799,406.594,457.432,486.266,491.693,465.445,401.872,381.575,381.575,390.477,390.477,390.477
0.00129961	-13630212.59	0,1.74315e-06,4.03932e-06,7.06394e-06,1.10481e-05,1.62963e-05,2.32094e-05,3.23157e-05,4.4311e-05,6.01117e-05,8.09252e-05,0.000108342,0.000144456,0.000192028,0.000254692,0.000337235,0.000445966,0.000589191,0.000777854,0.00102637,0.00135373,0.00178494,0.00235295,0.00310117,0.00408675,0.00538501,0.00709514,0.00934781,0.0123151,0.0162238,0.0213726,0.0281547,inf	0.404471,0.404471,0.404439,316.866,16.475,196.014,274.739,99.4335,175.781,232.332,201.724,290.942,350.637,350.441,317.555,292.872,281.337,286.137,298.265,316.424,355.108,406.685,457.077,485.616,491.105,464.826,401.173,381.598,381.598,391.32,391.32,391.32
0.00131106	-13630171.11	0,1.74315e-06,4.03932e-06,7.06394e-06,1.10481e-05,1.62963e-05,2.32094e-05,3.23157e-05,4.4311e-05,6.01117e-05,8.09252e-05,0.000108342,0.000144456,0.000192028,0.000254692,0.000337235,0.000445966,0.000589191,0.000777854,0.00102637,0.00135373,0.00178494,0.00235295,0.00310117,0.00408675,0.00538501,0.00709514,0.00934781,0.0123151,0.0162238,0.0213726,0.0281547,inf	0.404471,0.404471,0.404439,316.447,15.442,199.32,273.188,97.7628,176.815,233.498,201.807,292.391,351.828,351.289,317.825,293.009,281.493,286.486,298.592,316.724,355.414,406.778,456.733,484.985,490.531,464.218,400.496,381.644,381.644,392.193,392.193,392.193
0.00132221	-13630132.49	0,1.74315e-06,4.03932e-06,7.06394e-06,1.10481e-05,1.62963e-05,2.32094e-05,3.23157e-05,4.4311e-05,6.01117e-05,8.09252e-05,0.000108342,0.000144456,0.000192028,0.000254692,0.000337235,0.000445966,0.000589191,0.000777854,0.00102637,0.00135373,0.00178494,0.00235295,0.00310117,0.00408675,0.00538501,0.00709514,0.00934781,0.0123151,0.0162238,0.0213726,0.0281547,inf	0.404471,0.404471,0.404439,316.003,14.4809,202.673,271.549,96.1558,177.878,234.623,201.885,293.818,352.985,352.122,318.093,293.141,281.64,286.819,298.903,317.014,355.716,406.872,456.398,484.37,489.97,463.622,399.84,381.712,381.712,393.093,393.093,393.093
0.00133308	-13630096.52	0,1.74315e-06,4.03932e-06,7.06394e-06,1.10481e-05,1.62963e-05,2.32094e-05,3.23157e-05,4.4311e-05,6.01117e-05,8.09252e-05,0.000108342,0.000144456,0.000192028,0.000254692,0.000337235,0.000445966,0.000589191,0.000777854,0.00102637,0.00135373,0.00178494,0.00235295,0.00310117,0.00408675,0.00538501,0.00709514,0.00934781,0.0123151,0.0162238,0.0213726,0.0281547,inf	0.404471,0.404471,0.404439,315.517,13.5818,206.05,269.83,94.6072,178.962,235.709,201.96,295.218,354.11,352.938,318.36,293.269,281.778,287.137,299.198,317.295,356.013,406.968,456.073,483.773,489.424,463.036,399.202,381.8,381.8,394.018,394.018,394.018
0.00134367	-13630063.02	0,1.74315e-06,4.03932e-06,7.06394e-06,1.10481e-05,1.62963e-05,2.32094e-05,3.23157e-05,4.4311e-05,6.01117e-05,8.09252e-05,0.000108342,0.000144456,0.000192028,0.000254692,0.000337235,0.000445966,0.000589191,0.000777854,0.00102637,0.00135373,0.00178494,0.00235295,0.00310117,0.00408675,0.00538501,0.00709514,0.00934781,0.0123151,0.0162238,0.0213726,0.0281547,inf	0.404471,0.404471,0.404439,314.997,12.7392,209.459,268.044,93.1143,180.07,236.755,202.031,296.595,355.202,353.739,318.625,293.395,281.91,287.44,299.477,317.566,356.306,407.065,455.757,483.191,488.891,462.461,398.582,381.905,381.905,394.964,394.964,394.964
0.001354	-13630031.80	0,1.74315e-06,4.03932e-06,7.06394e-06,1.10481e-05,1.62963e-05,2.32094e-05,3.23157e-05,4.4311e-05,6.01117e-05,8.09252e-05,0.000108342,0.000144456,0.000192028,0.000254692,0.000337235,0.000445966,0.000589191,0.000777854,0.00102637,0.00135373,0.00178494,0.00235295,0.00310117,0.00408675,0.00538501,0.00709514,0.00934781,0.0123151,0.0162238,0.0213726,0.0281547,inf	0.404471,0.404471,0.404439,314.419,11.9484,212.874,266.204,91.673,181.204,237.767,202.101,297.951,356.263,354.523,318.889,293.516,282.034,287.73,299.743,317.829,356.595,407.163,455.45,482.627,488.372,461.897,397.979,382.026,382.026,395.931,395.931,395.931
0.00136407	-13630002.71	0,1.74315e-06,4.03932e-06,7.06394e-06,1.10481e-05,1.62963e-05,2.32094e-05,3.23157e-05,4.4311e-05,6.01117e-05,8.09252e-05,0.000108342,0.000144456,0.000192028,0.000254692,0.000337235,0.000445966,0.000589191,0.000777854,0.00102637,0.00135373,0.00178494,0.00235295,0.00310117,0.00408675,0.00538501,0.00709514,0.00934781,0.0123151,0.0162238,0.0213726,0.0281547,inf	0.404471,0.404471,0.404439,313.849,11.2044,216.316,264.302,90.2856,182.358,238.739,202.169,299.281,357.294,355.292,319.151,293.634,282.153,288.007,299.995,318.083,356.88,407.262,455.152,482.078,487.866,461.343,397.391,382.161,382.161,396.917,396.917,396.917
