LogLikelihood = -854999.11911274422891

y0 0.99016618399701605835
y0_prime 0
y1 0.89439608102771306353
y1_prime 0
y2 1.0314747041950818041
y2_prime 0
y3 1.8138483620087177961
y3_prime 0
rho 0.0009579655406543299747
theta 0.0025128020197620021085
