LogLikelihood = -208779.80402288647019

y0 0.76584631584840279217
y0_prime 0
y1 0.81415532473280571857
y1_prime 0
y2 0.58849280691462435566
y2_prime 0
y3 1.3258603036264529074
y3_prime 0
rho 0.00021375761575254378162
theta 0.0034772201080328383679
