time_index	left_time_boundary	right_time_boundary	lambda
0	0	1.04679e-05	3.51853
1	1.04679e-05	2.47912e-05	3.51853
2	2.47912e-05	4.439e-05	3.51853
3	4.439e-05	7.12073e-05	22.7358
4	7.12073e-05	0.000107902	376.628
5	0.000107902	0.000158112	1846.02
6	0.000158112	0.000226814	10974.4
7	0.000226814	0.000320821	11465
8	0.000320821	0.000449453	4838.39
9	0.000449453	0.00062546	2348.41
10	0.00062546	0.000866295	916.201
11	0.000866295	0.00119583	285.916
12	0.00119583	0.00164674	131.045
13	0.00164674	0.00226373	1458.8
14	0.00226373	0.00310796	1458.8
15	0.00310796	inf	1458.8
