8.13867e-05	-47938.36	0,4.82445e-06,1.04679e-05,1.70692e-05,2.47912e-05,3.38239e-05,4.439e-05,5.67496e-05,7.12073e-05,8.81192e-05,0.000107902,0.000131043,0.000158112,0.000189776,0.000226814,0.000270141,0.000320821,0.000380105,0.000449453,0.000530572,0.00062546,0.000736457,0.000866295,0.00101817,0.00119583,0.00140365,0.00164674,0.0019311,0.00226373,0.00265282,0.00310796,0.00364036,inf	149.77,149.77,309.477,466.75,653.322,876.748,1146.94,1475.95,1874.61,2351.36,2922.51,3613.67,4391.9,5019.03,5163.85,4876.07,4423.31,3967.77,3567.52,3231.13,2944.81,2695.87,2479.8,2292.53,2133.79,2016.71,1966.78,2072.36,2072.36,2764.17,2764.17,2764.17
9.47292e-05	-47816.84	0,4.82445e-06,1.04679e-05,1.70692e-05,2.47912e-05,3.38239e-05,4.439e-05,5.67496e-05,7.12073e-05,8.81192e-05,0.000107902,0.000131043,0.000158112,0.000189776,0.000226814,0.000270141,0.000320821,0.000380105,0.000449453,0.000530572,0.00062546,0.000736457,0.000866295,0.00101817,0.00119583,0.00140365,0.00164674,0.0019311,0.00226373,0.00265282,0.00310796,0.00364036,inf	8.77065,8.77065,37.6194,85.5826,166.992,297.356,497.879,795.664,1219.28,1794.13,2556.13,3568.07,4835.38,6003.29,6353.97,5835.65,4973.61,4118.49,3397.28,2822.68,2363.15,1992.81,1697.11,1463.55,1286.87,1174.44,1143.72,1299.05,1299.05,2311.44,2311.44,2311.44
0.000109429	-47730.40	0,4.82445e-06,1.04679e-05,1.70692e-05,2.47912e-05,3.38239e-05,4.439e-05,5.67496e-05,7.12073e-05,8.81192e-05,0.000107902,0.000131043,0.000158112,0.000189776,0.000226814,0.000270141,0.000320821,0.000380105,0.000449453,0.000530572,0.00062546,0.000736457,0.000866295,0.00101817,0.00119583,0.00140365,0.00164674,0.0019311,0.00226373,0.00265282,0.00310796,0.00364036,inf	3.51853,3.51853,4.02068,18.5251,50.0144,117.12,247.898,483.409,872.951,1463.89,2312.29,3510.75,5108.92,6700.39,7232.53,6519.77,5312.82,4138.74,3189.31,2472.83,1934.64,1530.23,1229.14,1008.07,854.387,766.683,753.037,911.12,911.12,2080.02,2080.02,2080.02
0.000124797	-47671.32	0,4.82445e-06,1.04679e-05,1.70692e-05,2.47912e-05,3.38239e-05,4.439e-05,5.67496e-05,7.12073e-05,8.81192e-05,0.000107902,0.000131043,0.000158112,0.000189776,0.000226814,0.000270141,0.000320821,0.000380105,0.000449453,0.000530572,0.00062546,0.000736457,0.000866295,0.00101817,0.00119583,0.00140365,0.00164674,0.0019311,0.00226373,0.00265282,0.00310796,0.00364036,inf	3.51853,3.51853,3.51853,4.58851,17.0295,51.8824,137.005,320.748,669.649,1253.54,2149.13,3473.72,5316.46,7247.82,7930.73,7056.49,5569.85,4149.98,3042.41,2242.63,1669.74,1259.62,967.954,763.921,629.83,558.508,552.53,700.109,700.109,1974.96,1974.96,1974.96
0.000140452	-47631.42	0,4.82445e-06,1.04679e-05,1.70692e-05,2.47912e-05,3.38239e-05,4.439e-05,5.67496e-05,7.12073e-05,8.81192e-05,0.000107902,0.000131043,0.000158112,0.000189776,0.000226814,0.000270141,0.000320821,0.000380105,0.000449453,0.000530572,0.00062546,0.000736457,0.000866295,0.00101817,0.00119583,0.00140365,0.00164674,0.0019311,0.00226373,0.00265282,0.00310796,0.00364036,inf	3.51853,3.51853,3.51853,3.51853,6.3836,25.371,82.4379,228.025,540.987,1111.54,2036.45,3454.05,5487.55,7698.4,8505.73,7500.02,5790.93,4182.5,2961.78,2107.16,1513.47,1100.76,815.561,622.641,500.785,438.795,435.656,570.972,570.972,1933.24,1933.24,1933.24
0.000156237	-47602.42	0,4.82445e-06,1.04679e-05,1.70692e-05,2.47912e-05,3.38239e-05,4.439e-05,5.67496e-05,7.12073e-05,8.81192e-05,0.000107902,0.000131043,0.000158112,0.000189776,0.000226814,0.000270141,0.000320821,0.000380105,0.000449453,0.000530572,0.00062546,0.000736457,0.000866295,0.00101817,0.00119583,0.00140365,0.00164674,0.0019311,0.00226373,0.00265282,0.00310796,0.00364036,inf	3.51853,3.51853,3.51853,3.51853,3.51853,13.4993,53.2272,171.295,454.721,1011.22,1956.22,3446.15,5633.15,8076.29,8982.95,7868.63,5983.76,4231.13,2927.39,2032.66,1421.77,1003.87,720.349,533.434,418.945,362.4,360.04,484.124,484.124,1923.78,1923.78,1923.78
0.000172093	-47579.67	0,4.82445e-06,1.04679e-05,1.70692e-05,2.47912e-05,3.38239e-05,4.439e-05,5.67496e-05,7.12073e-05,8.81192e-05,0.000107902,0.000131043,0.000158112,0.000189776,0.000226814,0.000270141,0.000320821,0.000380105,0.000449453,0.000530572,0.00062546,0.000736457,0.000866295,0.00101817,0.00119583,0.00140365,0.00164674,0.0019311,0.00226373,0.00265282,0.00310796,0.00364036,inf	3.51853,3.51853,3.51853,3.51853,3.51853,7.72446,36.4608,134.571,394.272,937.993,1898.12,3446.63,5760.18,8397.91,9379.94,8172.52,6148.51,4286.58,2921.82,1996.07,1368.77,942.661,657.114,472.836,362.836,309.656,307.229,421.584,421.584,1931.46,1931.46,1931.46
0.000187994	-47560.81	0,4.82445e-06,1.04679e-05,1.70692e-05,2.47912e-05,3.38239e-05,4.439e-05,5.67496e-05,7.12073e-05,8.81192e-05,0.000107902,0.000131043,0.000158112,0.000189776,0.000226814,0.000270141,0.000320821,0.000380105,0.000449453,0.000530572,0.00062546,0.000736457,0.000866295,0.00101817,0.00119583,0.00140365,0.00164674,0.0019311,0.00226373,0.00265282,0.00310796,0.00364036,inf	3.51853,3.51853,3.51853,3.51853,3.51853,4.16351,26.2595,109.683,350.438,883.295,1855.88,3453.6,5873.91,8676.22,9711.8,8421.15,6286.24,4342.53,2933.64,1983.43,1339.87,903.151,613.01,429.233,322.01,271.049,268.228,374.256,374.256,1948.55,1948.55,1948.55
0.000203931	-47544.55	0,4.82445e-06,1.04679e-05,1.70692e-05,2.47912e-05,3.38239e-05,4.439e-05,5.67496e-05,7.12073e-05,8.81192e-05,0.000107902,0.000131043,0.000158112,0.000189776,0.000226814,0.000270141,0.000320821,0.000380105,0.000449453,0.000530572,0.00062546,0.000736457,0.000866295,0.00101817,0.00119583,0.00140365,0.00164674,0.0019311,0.00226373,0.00265282,0.00310796,0.00364036,inf	3.51853,3.51853,3.51853,3.51853,3.51853,3.51853,19.7376,92.1728,317.793,841.811,1825.49,3465.85,5978.2,8921.3,9991.4,8623.65,6399.43,4395.56,2955.8,1986.28,1326.61,877.518,581.035,396.399,290.912,241.513,238.199,337.091,337.091,1970.91,1970.91,1970.91
0.000219895	-47530.19	0,4.82445e-06,1.04679e-05,1.70692e-05,2.47912e-05,3.38239e-05,4.439e-05,5.67496e-05,7.12073e-05,8.81192e-05,0.000107902,0.000131043,0.000158112,0.000189776,0.000226814,0.000270141,0.000320821,0.000380105,0.000449453,0.000530572,0.00062546,0.000736457,0.000866295,0.00101817,0.00119583,0.00140365,0.00164674,0.0019311,0.00226373,0.00265282,0.00310796,0.00364036,inf	3.51853,3.51853,3.51853,3.51853,3.51853,3.51853,15.3865,79.4551,292.941,810.007,1804.12,3482.43,6075.7,9140.72,10229.2,8788.16,6491.13,4444.03,2983.9,1999.29,1323.78,861.111,557.109,370.746,266.353,218.13,214.324,307.065,307.065,1996.2,1996.2,1996.2
0.00023588	-47517.26	0,4.82445e-06,1.04679e-05,1.70692e-05,2.47912e-05,3.38239e-05,4.439e-05,5.67496e-05,7.12073e-05,8.81192e-05,0.000107902,0.000131043,0.000158112,0.000189776,0.000226814,0.000270141,0.000320821,0.000380105,0.000449453,0.000530572,0.00062546,0.000736457,0.000866295,0.00101817,0.00119583,0.00140365,0.00164674,0.0019311,0.00226373,0.00265282,0.00310796,0.00364036,inf	3.51853,3.51853,3.51853,3.51853,3.51853,3.51853,12.3756,69.9676,273.686,785.482,1789.78,3502.55,6168.22,9340.13,10433.4,8921.62,6564.42,4487.3,3015.15,2019.01,1328.07,851.016,538.714,350.078,246.386,199.108,194.855,282.255,282.255,2023.08,2023.08,2023.08
0.00025188	-47505.47	0,4.82445e-06,1.04679e-05,1.70692e-05,2.47912e-05,3.38239e-05,4.439e-05,5.67496e-05,7.12073e-05,8.81192e-05,0.000107902,0.000131043,0.000158112,0.000189776,0.000226814,0.000270141,0.000320821,0.000380105,0.000449453,0.000530572,0.00062546,0.000736457,0.000866295,0.00101817,0.00119583,0.00140365,0.00164674,0.0019311,0.00226373,0.00265282,0.00310796,0.00364036,inf	3.51853,3.51853,3.51853,3.51853,3.51853,3.51853,10.2247,62.7272,258.553,766.535,1780.97,3525.59,6256.98,9523.64,10610.6,9029.69,6622.13,4525.27,3047.73,2043.08,1337.24,845.319,524.221,332.988,229.758,183.29,178.651,261.38,261.38,2050.76,2050.76,2050.76
0.000267891	-47494.61	0,4.82445e-06,1.04679e-05,1.70692e-05,2.47912e-05,3.38239e-05,4.439e-05,5.67496e-05,7.12073e-05,8.81192e-05,0.000107902,0.000131043,0.000158112,0.000189776,0.000226814,0.000270141,0.000320821,0.000380105,0.000449453,0.000530572,0.00062546,0.000736457,0.000866295,0.00101817,0.00119583,0.00140365,0.00164674,0.0019311,0.00226373,0.00265282,0.00310796,0.00364036,inf	3.51853,3.51853,3.51853,3.51853,3.51853,3.51853,8.64543,57.0953,246.524,751.938,1776.56,3550.97,6342.77,9694.31,10765.7,9116.99,6666.72,4558.13,3080.45,2069.87,1349.75,842.714,512.536,318.532,215.63,169.892,164.936,243.549,243.549,2078.76,2078.76,2078.76
0.000283906	-47484.55	0,4.82445e-06,1.04679e-05,1.70692e-05,2.47912e-05,3.38239e-05,4.439e-05,5.67496e-05,7.12073e-05,8.81192e-05,0.000107902,0.000131043,0.000158112,0.000189776,0.000226814,0.000270141,0.000320821,0.000380105,0.000449453,0.000530572,0.00062546,0.000736457,0.000866295,0.00101817,0.00119583,0.00140365,0.00164674,0.0019311,0.00226373,0.00265282,0.00310796,0.00364036,inf	3.51853,3.51853,3.51853,3.51853,3.51853,3.51853,7.4572,52.6407,236.875,740.78,1775.68,3578.23,6426.13,9854.42,10902.7,9187.23,6700.29,4586.2,3112.52,2098.21,1364.5,842.283,502.898,306.06,203.424,158.372,153.161,228.126,228.126,2106.79,2106.79,2106.79
0.000299921	-47475.17	0,4.82445e-06,1.04679e-05,1.70692e-05,2.47912e-05,3.38239e-05,4.439e-05,5.67496e-05,7.12073e-05,8.81192e-05,0.000107902,0.000131043,0.000158112,0.000189776,0.000226814,0.000270141,0.000320821,0.000380105,0.000449453,0.000530572,0.00062546,0.000736457,0.000866295,0.00101817,0.00119583,0.00140365,0.00164674,0.0019311,0.00226373,0.00265282,0.00310796,0.00364036,inf	3.51853,3.51853,3.51853,3.51853,3.51853,3.51853,6.48352,49.0647,229.082,732.372,1777.64,3606.98,6507.42,10005.7,11024.6,9243.41,6724.64,4609.86,3143.42,2127.25,1380.68,843.365,494.765,295.113,192.724,148.338,142.932,214.642,214.642,2134.68,2134.68,2134.68
0.00031593	-47466.39	0,4.82445e-06,1.04679e-05,1.70692e-05,2.47912e-05,3.38239e-05,4.439e-05,5.67496e-05,7.12073e-05,8.81192e-05,0.000107902,0.000131043,0.000158112,0.000189776,0.000226814,0.000270141,0.000320821,0.000380105,0.000449453,0.000530572,0.00062546,0.000736457,0.000866295,0.00101817,0.00119583,0.00140365,0.00164674,0.0019311,0.00226373,0.00265282,0.00310796,0.00364036,inf	3.51853,3.51853,3.51853,3.51853,3.51853,3.51853,5.72491,46.1593,222.756,726.192,1781.92,3636.89,6586.89,10149.4,11133.8,9287.96,6741.28,4629.53,3172.82,2156.4,1397.69,845.468,487.744,285.355,183.23,139.502,133.955,202.744,202.744,2162.34,2162.34,2162.34
0.000331928	-47458.14	0,4.82445e-06,1.04679e-05,1.70692e-05,2.47912e-05,3.38239e-05,4.439e-05,5.67496e-05,7.12073e-05,8.81192e-05,0.000107902,0.000131043,0.000158112,0.000189776,0.000226814,0.000270141,0.000320821,0.000380105,0.000449453,0.000530572,0.00062546,0.000736457,0.000866295,0.00101817,0.00119583,0.00140365,0.00164674,0.0019311,0.00226373,0.00265282,0.00310796,0.00364036,inf	3.51853,3.51853,3.51853,3.51853,3.51853,3.51853,5.12343,43.7739,217.612,721.83,1788.09,3667.69,6664.7,10286.7,11232.4,9322.86,6751.47,4645.61,3200.55,2185.2,1415.09,848.234,481.545,276.539,174.717,131.648,126.007,192.162,192.162,2189.72,2189.72,2189.72
0.00034791	-47450.37	0,4.82445e-06,1.04679e-05,1.70692e-05,2.47912e-05,3.38239e-05,4.439e-05,5.67496e-05,7.12073e-05,8.81192e-05,0.000107902,0.000131043,0.000158112,0.000189776,0.000226814,0.000270141,0.000320821,0.000380105,0.000449453,0.000530572,0.00062546,0.000736457,0.000866295,0.00101817,0.00119583,0.00140365,0.00164674,0.0019311,0.00226373,0.00265282,0.00310796,0.00364036,inf	3.51853,3.51853,3.51853,3.51853,3.51853,3.51853,4.63958,41.7974,213.421,718.962,1795.79,3699.14,6740.99,10418.3,11321.8,9349.73,6756.28,4658.49,3226.5,2213.33,1432.55,851.387,475.95,268.481,167.013,124.609,118.916,182.684,182.684,2216.78,2216.78,2216.78
0.000363872	-47443.03	0,4.82445e-06,1.04679e-05,1.70692e-05,2.47912e-05,3.38239e-05,4.439e-05,5.67496e-05,7.12073e-05,8.81192e-05,0.000107902,0.000131043,0.000158112,0.000189776,0.000226814,0.000270141,0.000320821,0.000380105,0.000449453,0.000530572,0.00062546,0.000736457,0.000866295,0.00101817,0.00119583,0.00140365,0.00164674,0.0019311,0.00226373,0.00265282,0.00310796,0.00364036,inf	3.51853,3.51853,3.51853,3.51853,3.51853,3.51853,4.24452,40.1462,210.016,717.336,1804.75,3731.07,6815.85,10544.9,11403.4,9369.89,6756.61,4668.52,3250.63,2240.56,1449.79,854.716,470.796,261.04,159.986,118.257,112.547,174.142,174.142,2243.54,2243.54,2243.54
0.000379809	-47436.08	0,4.82445e-06,1.04679e-05,1.70692e-05,2.47912e-05,3.38239e-05,4.439e-05,5.67496e-05,7.12073e-05,8.81192e-05,0.000107902,0.000131043,0.000158112,0.000189776,0.000226814,0.000270141,0.000320821,0.000380105,0.000449453,0.000530572,0.00062546,0.000736457,0.000866295,0.00101817,0.00119583,0.00140365,0.00164674,0.0019311,0.00226373,0.00265282,0.00310796,0.00364036,inf	3.51853,3.51853,3.51853,3.51853,3.51853,3.51853,3.9182,38.7583,207.258,716.743,1814.74,3763.32,6889.34,10666.9,11478.2,9384.44,6753.21,4676.04,3272.98,2266.75,1466.65,858.062,465.959,254.107,153.534,112.488,106.793,166.401,166.401,2269.99,2269.99,2269.99
