AIC = 786698.34225219395012

y0 1.856714737589010737e-10
y0_prime 0
y1 1.5863759426595911428
y1_prime 0
y2 1.9155048613927720957
y2_prime 0
y3 3.6053560883770567891
y3_prime 0
rho 1.0100400648140930304
theta 0.0065251386546961789858
