AIC = 1952956.9532095447648

y0 4.4660206264547359114e-10
y0_prime 0
y1 0.056922754698064841061
y1_prime 0
y2 17.935836467674192818
y2_prime 0
y3 29.922998657278963464
y3_prime 0
rho 2.3132859598702617829e-08
theta 0.0039455827144081034169
