AIC = 2738491.6537570818327

y0 5.4875928928660192335e-10
y0_prime 0
y1 0.80528501444020605948
y1_prime 0
y2 1.5863291159496606397
y2_prime 0
y3 1.7962488999106325238
y3_prime 0
rho 6.3459119269398030269e-12
theta 0.0044586017198269519216
