0.000708962	-4700104.75	0,4.89798e-06,1.12332e-05,1.94275e-05,3.00262e-05,4.3735e-05,6.14666e-05,8.44012e-05,0.000114066,0.000152435,0.000202063,0.000266255,0.000349282,0.000456673,0.000595576,0.000775239,0.00100762,0.0013082,0.00169697,0.00219982,0.00285023,0.0036915,0.00477963,0.00618706,0.00800747,0.0103621,0.0134076,0.0173468,0.0224419,0.0290322,inf	456.322,456.322,456.322,456.322,456.322,456.322,456.322,456.322,456.322,456.322,456.322,456.322,456.322,456.322,456.322,456.322,456.322,456.322,456.322,456.322,456.322,456.322,456.322,456.322,456.322,456.322,456.322,456.322,456.322,456.322
0.000785824	-4697621.72	0,4.89798e-06,1.12332e-05,1.94275e-05,3.00262e-05,4.3735e-05,6.14666e-05,8.44012e-05,0.000114066,0.000152435,0.000202063,0.000266255,0.000349282,0.000456673,0.000595576,0.000775239,0.00100762,0.0013082,0.00169697,0.00219982,0.00285023,0.0036915,0.00477963,0.00618706,0.00800747,0.0103621,0.0134076,0.0173468,0.0224419,0.0290322,inf	481.094,481.094,481.094,481.094,481.094,481.094,481.094,481.094,481.094,481.094,481.094,481.094,481.094,481.094,481.094,481.094,481.094,481.094,481.094,481.094,481.094,481.094,481.094,481.094,481.094,481.094,481.094,481.094,481.094,481.094
0.000858678	-4696332.10	0,4.89798e-06,1.12332e-05,1.94275e-05,3.00262e-05,4.3735e-05,6.14666e-05,8.44012e-05,0.000114066,0.000152435,0.000202063,0.000266255,0.000349282,0.000456673,0.000595576,0.000775239,0.00100762,0.0013082,0.00169697,0.00219982,0.00285023,0.0036915,0.00477963,0.00618706,0.00800747,0.0103621,0.0134076,0.0173468,0.0224419,0.0290322,inf	490.256,490.256,490.256,490.256,490.256,490.256,490.256,490.256,490.256,490.256,490.256,490.256,490.256,490.256,490.256,490.256,490.256,490.256,490.256,490.256,490.256,490.256,490.256,490.256,490.256,490.256,490.256,490.256,490.256,490.256
0.000930008	-4695302.78	0,4.89798e-06,1.12332e-05,1.94275e-05,3.00262e-05,4.3735e-05,6.14666e-05,8.44012e-05,0.000114066,0.000152435,0.000202063,0.000266255,0.000349282,0.000456673,0.000595576,0.000775239,0.00100762,0.0013082,0.00169697,0.00219982,0.00285023,0.0036915,0.00477963,0.00618706,0.00800747,0.0103621,0.0134076,0.0173468,0.0224419,0.0290322,inf	492.535,492.535,492.535,492.535,492.535,492.535,492.535,492.535,492.535,492.535,492.535,492.535,492.535,492.535,492.535,492.535,492.535,492.535,492.535,492.535,492.535,492.535,492.535,492.535,492.535,492.535,492.535,492.535,492.535,492.535
0.00100118	-4694347.91	0,4.89798e-06,1.12332e-05,1.94275e-05,3.00262e-05,4.3735e-05,6.14666e-05,8.44012e-05,0.000114066,0.000152435,0.000202063,0.000266255,0.000349282,0.000456673,0.000595576,0.000775239,0.00100762,0.0013082,0.00169697,0.00219982,0.00285023,0.0036915,0.00477963,0.00618706,0.00800747,0.0103621,0.0134076,0.0173468,0.0224419,0.0290322,inf	491.897,491.897,491.897,491.897,491.897,491.897,491.897,491.897,491.897,491.897,491.897,491.897,491.897,491.897,491.897,491.897,491.897,491.897,491.897,491.897,491.897,491.897,491.897,491.897,491.897,491.897,491.897,491.897,491.897,491.897
0.00107279	-4693432.25	0,4.89798e-06,1.12332e-05,1.94275e-05,3.00262e-05,4.3735e-05,6.14666e-05,8.44012e-05,0.000114066,0.000152435,0.000202063,0.000266255,0.000349282,0.000456673,0.000595576,0.000775239,0.00100762,0.0013082,0.00169697,0.00219982,0.00285023,0.0036915,0.00477963,0.00618706,0.00800747,0.0103621,0.0134076,0.0173468,0.0224419,0.0290322,inf	490.063,490.063,490.063,490.063,490.063,490.063,490.063,490.063,490.063,490.063,490.063,490.063,490.063,490.063,490.063,490.063,490.063,490.063,490.063,490.063,490.063,490.063,490.063,490.063,490.063,490.063,490.063,490.063,490.063,490.063
0.00114506	-4692549.46	0,4.89798e-06,1.12332e-05,1.94275e-05,3.00262e-05,4.3735e-05,6.14666e-05,8.44012e-05,0.000114066,0.000152435,0.000202063,0.000266255,0.000349282,0.000456673,0.000595576,0.000775239,0.00100762,0.0013082,0.00169697,0.00219982,0.00285023,0.0036915,0.00477963,0.00618706,0.00800747,0.0103621,0.0134076,0.0173468,0.0224419,0.0290322,inf	487.777,487.777,487.777,487.777,487.777,487.777,487.777,487.777,487.777,487.777,487.777,487.777,487.777,487.777,487.777,487.777,487.777,487.777,487.777,487.777,487.777,487.777,487.777,487.777,487.777,487.777,487.777,487.777,487.777,487.777
0.00121802	-4691698.39	0,4.89798e-06,1.12332e-05,1.94275e-05,3.00262e-05,4.3735e-05,6.14666e-05,8.44012e-05,0.000114066,0.000152435,0.000202063,0.000266255,0.000349282,0.000456673,0.000595576,0.000775239,0.00100762,0.0013082,0.00169697,0.00219982,0.00285023,0.0036915,0.00477963,0.00618706,0.00800747,0.0103621,0.0134076,0.0173468,0.0224419,0.0290322,inf	485.359,485.359,485.359,485.359,485.359,485.359,485.359,485.359,485.359,485.359,485.359,485.359,485.359,485.359,485.359,485.359,485.359,485.359,485.359,485.359,485.359,485.359,485.359,485.359,485.359,485.359,485.359,485.359,485.359,485.359
0.00129162	-4690878.67	0,4.89798e-06,1.12332e-05,1.94275e-05,3.00262e-05,4.3735e-05,6.14666e-05,8.44012e-05,0.000114066,0.000152435,0.000202063,0.000266255,0.000349282,0.000456673,0.000595576,0.000775239,0.00100762,0.0013082,0.00169697,0.00219982,0.00285023,0.0036915,0.00477963,0.00618706,0.00800747,0.0103621,0.0134076,0.0173468,0.0224419,0.0290322,inf	482.948,482.948,482.948,482.948,482.948,482.948,482.948,482.948,482.948,482.948,482.948,482.948,482.948,482.948,482.948,482.948,482.948,482.948,482.948,482.948,482.948,482.948,482.948,482.948,482.948,482.948,482.948,482.948,482.948,482.948
0.00136578	-4690089.85	0,4.89798e-06,1.12332e-05,1.94275e-05,3.00262e-05,4.3735e-05,6.14666e-05,8.44012e-05,0.000114066,0.000152435,0.000202063,0.000266255,0.000349282,0.000456673,0.000595576,0.000775239,0.00100762,0.0013082,0.00169697,0.00219982,0.00285023,0.0036915,0.00477963,0.00618706,0.00800747,0.0103621,0.0134076,0.0173468,0.0224419,0.0290322,inf	480.603,480.603,480.603,480.603,480.603,480.603,480.603,480.603,480.603,480.603,480.603,480.603,480.603,480.603,480.603,480.603,480.603,480.603,480.603,480.603,480.603,480.603,480.603,480.603,480.603,480.603,480.603,480.603,480.603,480.603
0.00144039	-4689331.35	0,4.89798e-06,1.12332e-05,1.94275e-05,3.00262e-05,4.3735e-05,6.14666e-05,8.44012e-05,0.000114066,0.000152435,0.000202063,0.000266255,0.000349282,0.000456673,0.000595576,0.000775239,0.00100762,0.0013082,0.00169697,0.00219982,0.00285023,0.0036915,0.00477963,0.00618706,0.00800747,0.0103621,0.0134076,0.0173468,0.0224419,0.0290322,inf	478.348,478.348,478.348,478.348,478.348,478.348,478.348,478.348,478.348,478.348,478.348,478.348,478.348,478.348,478.348,478.348,478.348,478.348,478.348,478.348,478.348,478.348,478.348,478.348,478.348,478.348,478.348,478.348,478.348,478.348
0.00151535	-4688602.43	0,4.89798e-06,1.12332e-05,1.94275e-05,3.00262e-05,4.3735e-05,6.14666e-05,8.44012e-05,0.000114066,0.000152435,0.000202063,0.000266255,0.000349282,0.000456673,0.000595576,0.000775239,0.00100762,0.0013082,0.00169697,0.00219982,0.00285023,0.0036915,0.00477963,0.00618706,0.00800747,0.0103621,0.0134076,0.0173468,0.0224419,0.0290322,inf	476.188,476.188,476.188,476.188,476.188,476.188,476.188,476.188,476.188,476.188,476.188,476.188,476.188,476.188,476.188,476.188,476.188,476.188,476.188,476.188,476.188,476.188,476.188,476.188,476.188,476.188,476.188,476.188,476.188,476.188
0.00159058	-4687902.28	0,4.89798e-06,1.12332e-05,1.94275e-05,3.00262e-05,4.3735e-05,6.14666e-05,8.44012e-05,0.000114066,0.000152435,0.000202063,0.000266255,0.000349282,0.000456673,0.000595576,0.000775239,0.00100762,0.0013082,0.00169697,0.00219982,0.00285023,0.0036915,0.00477963,0.00618706,0.00800747,0.0103621,0.0134076,0.0173468,0.0224419,0.0290322,inf	474.126,474.126,474.126,474.126,474.126,474.126,474.126,474.126,474.126,474.126,474.126,474.126,474.126,474.126,474.126,474.126,474.126,474.126,474.126,474.126,474.126,474.126,474.126,474.126,474.126,474.126,474.126,474.126,474.126,474.126
0.00166599	-4687230.00	0,4.89798e-06,1.12332e-05,1.94275e-05,3.00262e-05,4.3735e-05,6.14666e-05,8.44012e-05,0.000114066,0.000152435,0.000202063,0.000266255,0.000349282,0.000456673,0.000595576,0.000775239,0.00100762,0.0013082,0.00169697,0.00219982,0.00285023,0.0036915,0.00477963,0.00618706,0.00800747,0.0103621,0.0134076,0.0173468,0.0224419,0.0290322,inf	472.157,472.157,472.157,472.157,472.157,472.157,472.157,472.157,472.157,472.157,472.157,472.157,472.157,472.157,472.157,472.157,472.157,472.157,472.157,472.157,472.157,472.157,472.157,472.157,472.157,472.157,472.157,472.157,472.157,472.157
0.00174148	-4686584.65	0,4.89798e-06,1.12332e-05,1.94275e-05,3.00262e-05,4.3735e-05,6.14666e-05,8.44012e-05,0.000114066,0.000152435,0.000202063,0.000266255,0.000349282,0.000456673,0.000595576,0.000775239,0.00100762,0.0013082,0.00169697,0.00219982,0.00285023,0.0036915,0.00477963,0.00618706,0.00800747,0.0103621,0.0134076,0.0173468,0.0224419,0.0290322,inf	470.279,470.279,470.279,470.279,470.279,470.279,470.279,470.279,470.279,470.279,470.279,470.279,470.279,470.279,470.279,470.279,470.279,470.279,470.279,470.279,470.279,470.279,470.279,470.279,470.279,470.279,470.279,470.279,470.279,470.279
0.00181699	-4685965.24	0,4.89798e-06,1.12332e-05,1.94275e-05,3.00262e-05,4.3735e-05,6.14666e-05,8.44012e-05,0.000114066,0.000152435,0.000202063,0.000266255,0.000349282,0.000456673,0.000595576,0.000775239,0.00100762,0.0013082,0.00169697,0.00219982,0.00285023,0.0036915,0.00477963,0.00618706,0.00800747,0.0103621,0.0134076,0.0173468,0.0224419,0.0290322,inf	468.485,468.485,468.485,468.485,468.485,468.485,468.485,468.485,468.485,468.485,468.485,468.485,468.485,468.485,468.485,468.485,468.485,468.485,468.485,468.485,468.485,468.485,468.485,468.485,468.485,468.485,468.485,468.485,468.485,468.485
0.00189245	-4685370.81	0,4.89798e-06,1.12332e-05,1.94275e-05,3.00262e-05,4.3735e-05,6.14666e-05,8.44012e-05,0.000114066,0.000152435,0.000202063,0.000266255,0.000349282,0.000456673,0.000595576,0.000775239,0.00100762,0.0013082,0.00169697,0.00219982,0.00285023,0.0036915,0.00477963,0.00618706,0.00800747,0.0103621,0.0134076,0.0173468,0.0224419,0.0290322,inf	466.772,466.772,466.772,466.772,466.772,466.772,466.772,466.772,466.772,466.772,466.772,466.772,466.772,466.772,466.772,466.772,466.772,466.772,466.772,466.772,466.772,466.772,466.772,466.772,466.772,466.772,466.772,466.772,466.772,466.772
0.00196779	-4684800.34	0,4.89798e-06,1.12332e-05,1.94275e-05,3.00262e-05,4.3735e-05,6.14666e-05,8.44012e-05,0.000114066,0.000152435,0.000202063,0.000266255,0.000349282,0.000456673,0.000595576,0.000775239,0.00100762,0.0013082,0.00169697,0.00219982,0.00285023,0.0036915,0.00477963,0.00618706,0.00800747,0.0103621,0.0134076,0.0173468,0.0224419,0.0290322,inf	465.135,465.135,465.135,465.135,465.135,465.135,465.135,465.135,465.135,465.135,465.135,465.135,465.135,465.135,465.135,465.135,465.135,465.135,465.135,465.135,465.135,465.135,465.135,465.135,465.135,465.135,465.135,465.135,465.135,465.135
0.00204296	-4684252.87	0,4.89798e-06,1.12332e-05,1.94275e-05,3.00262e-05,4.3735e-05,6.14666e-05,8.44012e-05,0.000114066,0.000152435,0.000202063,0.000266255,0.000349282,0.000456673,0.000595576,0.000775239,0.00100762,0.0013082,0.00169697,0.00219982,0.00285023,0.0036915,0.00477963,0.00618706,0.00800747,0.0103621,0.0134076,0.0173468,0.0224419,0.0290322,inf	463.57,463.57,463.57,463.57,463.57,463.57,463.57,463.57,463.57,463.57,463.57,463.57,463.57,463.57,463.57,463.57,463.57,463.57,463.57,463.57,463.57,463.57,463.57,463.57,463.57,463.57,463.57,463.57,463.57,463.57
0.00211791	-4683727.42	0,4.89798e-06,1.12332e-05,1.94275e-05,3.00262e-05,4.3735e-05,6.14666e-05,8.44012e-05,0.000114066,0.000152435,0.000202063,0.000266255,0.000349282,0.000456673,0.000595576,0.000775239,0.00100762,0.0013082,0.00169697,0.00219982,0.00285023,0.0036915,0.00477963,0.00618706,0.00800747,0.0103621,0.0134076,0.0173468,0.0224419,0.0290322,inf	462.072,462.072,462.072,462.072,462.072,462.072,462.072,462.072,462.072,462.072,462.072,462.072,462.072,462.072,462.072,462.072,462.072,462.072,462.072,462.072,462.072,462.072,462.072,462.072,462.072,462.072,462.072,462.072,462.072,462.072
