0.000709281	-14057736.72	0,1.75949e-06,4.07717e-06,7.13013e-06,1.11516e-05,1.6449e-05,2.34269e-05,3.26185e-05,4.47262e-05,6.0675e-05,8.16835e-05,0.000109357,0.00014581,0.000193827,0.000257078,0.000340395,0.000450145,0.000594712,0.000785143,0.00103599,0.00136641,0.00180167,0.002375,0.00313023,0.00412505,0.00543547,0.00716163,0.0094354,0.0124305,0.0163759,0.0215728,0.0284186,inf	661.15,661.15,555.638,396.978,285.415,217.464,190.935,189.258,193.367,194.821,193.34,191.37,191.299,194.649,202.467,215.806,236.063,265.369,306.635,363.152,434.607,503.635,532.493,515.981,486.642,460.679,440.287,426.702,426.702,419.798,419.798,419.798
0.000797833	-14039080.44	0,1.75949e-06,4.07717e-06,7.13013e-06,1.11516e-05,1.6449e-05,2.34269e-05,3.26185e-05,4.47262e-05,6.0675e-05,8.16835e-05,0.000109357,0.00014581,0.000193827,0.000257078,0.000340395,0.000450145,0.000594712,0.000785143,0.00103599,0.00136641,0.00180167,0.002375,0.00313023,0.00412505,0.00543547,0.00716163,0.0094354,0.0124305,0.0163759,0.0215728,0.0284186,inf	1009.24,1009.24,839.183,500.419,296.169,195.568,164.818,166.408,172.341,171.011,163.086,153.443,146.253,143.819,147.553,158.898,179.866,213.639,264.717,339.105,440.906,552.889,612.072,592.919,547.035,502.932,466.683,443.634,443.634,432.682,432.682,432.682
0.000883038	-14030625.10	0,1.75949e-06,4.07717e-06,7.13013e-06,1.11516e-05,1.6449e-05,2.34269e-05,3.26185e-05,4.47262e-05,6.0675e-05,8.16835e-05,0.000109357,0.00014581,0.000193827,0.000257078,0.000340395,0.000450145,0.000594712,0.000785143,0.00103599,0.00136641,0.00180167,0.002375,0.00313023,0.00412505,0.00543547,0.00716163,0.0094354,0.0124305,0.0163759,0.0215728,0.0284186,inf	1167,1167,1041.45,565.094,302.299,189.989,163.678,173.143,184.099,181.454,167.326,149.993,135.831,127.78,127.248,135.593,154.944,188.934,242.78,323.855,439.39,575.914,658.109,641.857,587.734,531.44,483.211,453.833,453.833,440.353,440.353,440.353
0.000964671	-14025481.88	0,1.75949e-06,4.07717e-06,7.13013e-06,1.11516e-05,1.6449e-05,2.34269e-05,3.26185e-05,4.47262e-05,6.0675e-05,8.16835e-05,0.000109357,0.00014581,0.000193827,0.000257078,0.000340395,0.000450145,0.000594712,0.000785143,0.00103599,0.00136641,0.00180167,0.002375,0.00313023,0.00412505,0.00543547,0.00716163,0.0094354,0.0124305,0.0163759,0.0215728,0.0284186,inf	1154.7,1154.7,1130.35,575.238,288.747,179.476,162.326,182.632,201.666,199.927,180.75,156.456,136.053,123.197,119.175,125.063,142.86,176.31,230.844,314.432,436.211,586.384,684.284,672.292,614.566,550.129,492.912,459.385,459.385,444.045,444.045,444.045
0.00104335	-14021728.85	0,1.75949e-06,4.07717e-06,7.13013e-06,1.11516e-05,1.6449e-05,2.34269e-05,3.26185e-05,4.47262e-05,6.0675e-05,8.16835e-05,0.000109357,0.00014581,0.000193827,0.000257078,0.000340395,0.000450145,0.000594712,0.000785143,0.00103599,0.00136641,0.00180167,0.002375,0.00313023,0.00412505,0.00543547,0.00716163,0.0094354,0.0124305,0.0163759,0.0215728,0.0284186,inf	1079.25,1079.25,1151.38,550.536,261.104,162.244,155.446,187.2,216.15,217.56,195.153,165.265,139.72,122.991,116.287,120.373,137.043,169.976,224.525,308.829,433.164,590.626,698.665,690.695,631.824,561.929,497.981,461.788,461.788,444.825,444.825,444.825
0.00111968	-14018683.18	0,1.75949e-06,4.07717e-06,7.13013e-06,1.11516e-05,1.6449e-05,2.34269e-05,3.26185e-05,4.47262e-05,6.0675e-05,8.16835e-05,0.000109357,0.00014581,0.000193827,0.000257078,0.000340395,0.000450145,0.000594712,0.000785143,0.00103599,0.00136641,0.00180167,0.002375,0.00313023,0.00412505,0.00543547,0.00716163,0.0094354,0.0124305,0.0163759,0.0215728,0.0284186,inf	1004.12,1004.12,1150.5,512.326,228.303,141.685,143.954,185.803,224.942,231.138,207.41,173.574,144.148,124.492,115.831,118.686,134.65,167.251,221.596,305.765,430.704,591.669,705.902,701.227,642.47,568.912,499.929,462.076,462.076,443.549,443.549,443.549
0.00119413	-14016057.78	0,1.75949e-06,4.07717e-06,7.13013e-06,1.11516e-05,1.6449e-05,2.34269e-05,3.26185e-05,4.47262e-05,6.0675e-05,8.16835e-05,0.000109357,0.00014581,0.000193827,0.000257078,0.000340395,0.000450145,0.000594712,0.000785143,0.00103599,0.00136641,0.00180167,0.002375,0.00313023,0.00412505,0.00543547,0.00716163,0.0094354,0.0124305,0.0163759,0.0215728,0.0284186,inf	947.981,947.981,1151.25,472.776,196.348,121.173,130.277,179.92,228.361,240.103,216.611,180.378,148.286,126.576,116.582,118.671,134.28,166.739,220.818,304.414,428.874,591.028,708.719,706.551,648.527,572.518,499.784,460.954,460.954,440.873,440.873,440.873
0.00126705	-14013714.54	0,1.75949e-06,4.07717e-06,7.13013e-06,1.11516e-05,1.6449e-05,2.34269e-05,3.26185e-05,4.47262e-05,6.0675e-05,8.16835e-05,0.000109357,0.00014581,0.000193827,0.000257078,0.000340395,0.000450145,0.000594712,0.000785143,0.00103599,0.00136641,0.00180167,0.002375,0.00313023,0.00412505,0.00543547,0.00716163,0.0094354,0.0124305,0.0163759,0.0215728,0.0284186,inf	910.069,910.069,1160.66,436.539,167.887,102.659,116.441,171.534,227.787,245.097,222.862,185.487,151.77,128.75,117.941,119.641,135.173,167.647,221.446,304.234,427.591,589.495,708.756,708.395,651.379,573.755,498.246,458.91,458.91,437.281,437.281,437.281
0.00133867	-14011579.28	0,1.75949e-06,4.07717e-06,7.13013e-06,1.11516e-05,1.6449e-05,2.34269e-05,3.26185e-05,4.47262e-05,6.0675e-05,8.16835e-05,0.000109357,0.00014581,0.000193827,0.000257078,0.000340395,0.000450145,0.000594712,0.000785143,0.00103599,0.00136641,0.00180167,0.002375,0.00313023,0.00412505,0.00543547,0.00716163,0.0094354,0.0124305,0.0163759,0.0215728,0.0284186,inf	884.33,884.33,1178.12,404.438,143.616,86.8608,103.663,162.265,224.725,247.123,226.671,189.048,154.526,130.8,119.596,121.21,136.881,169.492,223.013,304.859,426.752,587.501,707.031,707.896,651.984,573.329,495.793,456.275,456.275,433.13,433.13,433.13
0.00140917	-14009608.25	0,1.75949e-06,4.07717e-06,7.13013e-06,1.11516e-05,1.6449e-05,2.34269e-05,3.26185e-05,4.47262e-05,6.0675e-05,8.16835e-05,0.000109357,0.00014581,0.000193827,0.000257078,0.000340395,0.000450145,0.000594712,0.000785143,0.00103599,0.00136641,0.00180167,0.002375,0.00313023,0.00412505,0.00543547,0.00716163,0.0094354,0.0124305,0.0163759,0.0215728,0.0284186,inf	865.195,865.195,1200.78,376.087,123.336,73.8137,92.4795,153.185,220.408,247.16,228.622,191.329,156.604,132.642,121.381,123.146,139.127,171.963,225.209,306.038,426.259,585.285,704.191,705.82,651.012,571.742,492.754,453.276,453.276,428.675,428.675,428.675
0.00147869	-14007773.48	0,1.75949e-06,4.07717e-06,7.13013e-06,1.11516e-05,1.6449e-05,2.34269e-05,3.26185e-05,4.47262e-05,6.0675e-05,8.16835e-05,0.000109357,0.00014581,0.000193827,0.000257078,0.000340395,0.000450145,0.000594712,0.000785143,0.00103599,0.00136641,0.00180167,0.002375,0.00313023,0.00412505,0.00543547,0.00716163,0.0094354,0.0124305,0.0163759,0.0215728,0.0284186,inf	848.896,848.896,1225.64,350.832,106.553,63.2221,83.0107,144.897,215.707,245.994,229.241,192.604,158.096,134.255,123.198,125.308,141.729,174.856,227.826,307.595,426.031,582.982,700.654,702.686,648.936,569.349,489.355,450.072,450.072,424.092,424.092,424.092
0.00154731	-14006055.79	0,1.75949e-06,4.07717e-06,7.13013e-06,1.11516e-05,1.6449e-05,2.34269e-05,3.26185e-05,4.47262e-05,6.0675e-05,8.16835e-05,0.000109357,0.00014581,0.000193827,0.000257078,0.000340395,0.000450145,0.000594712,0.000785143,0.00103599,0.00136641,0.00180167,0.002375,0.00313023,0.00412505,0.00543547,0.00716163,0.0094354,0.0124305,0.0163759,0.0215728,0.0284186,inf	833.318,833.318,1250.56,328.102,92.6904,54.6858,75.1602,137.684,211.195,244.211,228.962,193.117,159.104,135.646,124.998,127.603,144.567,178.027,230.719,309.406,426.003,580.669,696.696,698.855,646.096,566.409,485.754,446.771,446.771,419.505,419.505,419.505
0.0016151	-14004441.17	0,1.75949e-06,4.07717e-06,7.13013e-06,1.11516e-05,1.6449e-05,2.34269e-05,3.26185e-05,4.47262e-05,6.0675e-05,8.16835e-05,0.000109357,0.00014581,0.000193827,0.000257078,0.000340395,0.000450145,0.000594712,0.000785143,0.00103599,0.00136641,0.00180167,0.002375,0.00313023,0.00412505,0.00543547,0.00716163,0.0094354,0.0124305,0.0163759,0.0215728,0.0284186,inf	817.708,817.708,1274.15,307.492,81.2246,47.8316,68.7316,131.629,207.191,242.208,228.106,193.072,159.724,136.834,126.75,129.971,147.556,181.378,233.784,311.382,426.124,578.392,692.503,694.576,642.735,563.106,482.059,443.448,443.448,414.994,414.994,414.994
0.0016821	-14002918.85	0,1.75949e-06,4.07717e-06,7.13013e-06,1.11516e-05,1.6449e-05,2.34269e-05,3.26185e-05,4.47262e-05,6.0675e-05,8.16835e-05,0.000109357,0.00014581,0.000193827,0.000257078,0.000340395,0.000450145,0.000594712,0.000785143,0.00103599,0.00136641,0.00180167,0.002375,0.00313023,0.00412505,0.00543547,0.00716163,0.0094354,0.0124305,0.0163759,0.0215728,0.0284186,inf	801.661,801.661,1295.51,288.692,71.7207,42.3206,63.5144,126.696,203.865,240.241,226.911,192.629,160.038,137.844,128.443,132.371,150.636,184.835,236.949,313.459,426.356,576.175,688.199,690.026,639.028,559.574,478.347,440.154,440.154,410.612,410.612,410.612
0.00174836	-14001480.16	0,1.75949e-06,4.07717e-06,7.13013e-06,1.11516e-05,1.6449e-05,2.34269e-05,3.26185e-05,4.47262e-05,6.0675e-05,8.16835e-05,0.000109357,0.00014581,0.000193827,0.000257078,0.000340395,0.000450145,0.000594712,0.000785143,0.00103599,0.00136641,0.00180167,0.002375,0.00313023,0.00412505,0.00543547,0.00716163,0.0094354,0.0124305,0.0163759,0.0215728,0.0284186,inf	785.539,785.539,1314.24,271.487,63.7994,37.8668,59.3156,122.815,201.284,238.476,225.545,191.909,160.116,138.704,130.071,134.778,153.765,188.35,240.162,315.591,426.668,574.031,683.867,685.328,635.104,555.911,474.667,436.921,436.921,406.391,406.391,406.391
0.00181389	-14000117.93	0,1.75949e-06,4.07717e-06,7.13013e-06,1.11516e-05,1.6449e-05,2.34269e-05,3.26185e-05,4.47262e-05,6.0675e-05,8.16835e-05,0.000109357,0.00014581,0.000193827,0.000257078,0.000340395,0.000450145,0.000594712,0.000785143,0.00103599,0.00136641,0.00180167,0.002375,0.00313023,0.00412505,0.00543547,0.00716163,0.0094354,0.0124305,0.0163759,0.0215728,0.0284186,inf	769.651,769.651,1330.14,255.634,57.1556,34.251,55.9541,119.88,199.455,236.989,224.119,191.009,160.015,139.437,131.634,137.173,156.914,191.883,243.384,317.743,427.037,571.966,679.565,680.572,631.057,552.188,471.056,433.773,433.773,402.348,402.348,402.348
0.00187872	-13998826.04	0,1.75949e-06,4.07717e-06,7.13013e-06,1.11516e-05,1.6449e-05,2.34269e-05,3.26185e-05,4.47262e-05,6.0675e-05,8.16835e-05,0.000109357,0.00014581,0.000193827,0.000257078,0.000340395,0.000450145,0.000594712,0.000785143,0.00103599,0.00136641,0.00180167,0.002375,0.00313023,0.00412505,0.00543547,0.00716163,0.0094354,0.0124305,0.0163759,0.0215728,0.0284186,inf	754.392,754.392,1343.02,240.986,51.549,31.2946,53.282,117.787,198.345,235.827,222.706,189.996,159.783,140.066,133.135,139.545,160.059,195.407,246.589,319.892,427.446,569.982,675.331,675.819,626.955,548.455,467.535,430.723,430.723,398.494,398.494,398.494
0.00194287	-13997599.16	0,1.75949e-06,4.07717e-06,7.13013e-06,1.11516e-05,1.6449e-05,2.34269e-05,3.26185e-05,4.47262e-05,6.0675e-05,8.16835e-05,0.000109357,0.00014581,0.000193827,0.000257078,0.000340395,0.000450145,0.000594712,0.000785143,0.00103599,0.00136641,0.00180167,0.002375,0.00313023,0.00412505,0.00543547,0.00716163,0.0094354,0.0124305,0.0163759,0.0215728,0.0284186,inf	739.958,739.958,1352.94,227.382,46.7767,28.8625,51.1826,116.433,197.901,234.993,221.352,188.922,159.455,140.61,134.58,141.889,163.186,198.904,249.756,322.021,427.882,568.078,671.188,671.114,622.847,544.749,464.119,427.778,427.778,394.828,394.828,394.828
0.00200635	-13996432.61	0,1.75949e-06,4.07717e-06,7.13013e-06,1.11516e-05,1.6449e-05,2.34269e-05,3.26185e-05,4.47262e-05,6.0675e-05,8.16835e-05,0.000109357,0.00014581,0.000193827,0.000257078,0.000340395,0.000450145,0.000594712,0.000785143,0.00103599,0.00136641,0.00180167,0.002375,0.00313023,0.00412505,0.00543547,0.00716163,0.0094354,0.0124305,0.0163759,0.0215728,0.0284186,inf	726.731,726.731,1360,214.715,42.6881,26.8514,49.5578,115.724,198.066,234.478,220.084,187.822,159.062,141.087,135.973,144.198,166.284,202.357,252.871,324.117,428.333,566.252,667.153,666.486,618.769,541.097,460.817,424.942,424.942,391.349,391.349,391.349
0.00206916	-13995322.20	0,1.75949e-06,4.07717e-06,7.13013e-06,1.11516e-05,1.6449e-05,2.34269e-05,3.26185e-05,4.47262e-05,6.0675e-05,8.16835e-05,0.000109357,0.00014581,0.000193827,0.000257078,0.000340395,0.000450145,0.000594712,0.000785143,0.00103599,0.00136641,0.00180167,0.002375,0.00313023,0.00412505,0.00543547,0.00716163,0.0094354,0.0124305,0.0163759,0.0215728,0.0284186,inf	714.924,714.924,1364.4,202.894,39.1613,25.1756,48.3267,115.585,198.773,234.257,218.916,186.723,158.627,141.512,137.32,146.471,169.343,205.757,255.925,326.17,428.792,564.501,663.235,661.956,614.748,537.517,457.632,422.216,422.216,388.05,388.05,388.05
