0.000698797	-311874.95	0,4.22649e-05,9.17043e-05,0.000149536,0.000217185,0.000296317,0.000388881,0.000497159,0.000623817,0.000771974,0.000945282,0.00114801,0.00138515,0.00166254,0.00198702,0.00236658,0.00281058,0.00332994,0.00393746,0.00464811,0.00547939,0.00645178,0.00758923,0.00891977,0.0104762,0.0122968,0.0144264,0.0169175,0.0198316,0.0232402,0.0272275,0.0318917,inf	137.174,137.174,172.478,188.712,203.74,219.639,237.088,256.902,280.041,307.381,340.264,379.674,424.368,469.133,504.612,523.011,523.653,512.7,497.468,482.616,469.711,457.924,446.163,434.455,423.602,413.976,405.418,396.476,396.476,385.682,385.682,385.682
0.000778884	-311482.46	0,4.22649e-05,9.17043e-05,0.000149536,0.000217185,0.000296317,0.000388881,0.000497159,0.000623817,0.000771974,0.000945282,0.00114801,0.00138515,0.00166254,0.00198702,0.00236658,0.00281058,0.00332994,0.00393746,0.00464811,0.00547939,0.00645178,0.00758923,0.00891977,0.0104762,0.0122968,0.0144264,0.0169175,0.0198316,0.0232402,0.0272275,0.0318917,inf	90.736,90.736,125.266,137.435,149.626,164.653,182.817,204.744,231.73,265.215,307.578,361.199,425.899,495.891,557.367,595.039,603.188,589.534,566.42,542.713,521.514,501.112,479.54,457.367,436.606,418.106,401.656,384.615,384.615,363.708,363.708,363.708
0.000856662	-311299.08	0,4.22649e-05,9.17043e-05,0.000149536,0.000217185,0.000296317,0.000388881,0.000497159,0.000623817,0.000771974,0.000945282,0.00114801,0.00138515,0.00166254,0.00198702,0.00236658,0.00281058,0.00332994,0.00393746,0.00464811,0.00547939,0.00645178,0.00758923,0.00891977,0.0104762,0.0122968,0.0144264,0.0169175,0.0198316,0.0232402,0.0272275,0.0318917,inf	80.0773,80.0773,115.676,122.934,131.014,143.541,160.242,181.377,208.364,242.977,288.271,347.587,421.756,505.541,583.615,636.166,652.755,640.444,614.295,586.181,560.237,533.753,504.077,472.676,443.013,416.5,393.037,369.096,369.096,338.992,338.992,338.992
0.000931621	-311185.75	0,4.22649e-05,9.17043e-05,0.000149536,0.000217185,0.000296317,0.000388881,0.000497159,0.000623817,0.000771974,0.000945282,0.00114801,0.00138515,0.00166254,0.00198702,0.00236658,0.00281058,0.00332994,0.00393746,0.00464811,0.00547939,0.00645178,0.00758923,0.00891977,0.0104762,0.0122968,0.0144264,0.0169175,0.0198316,0.0232402,0.0272275,0.0318917,inf	78.4966,78.4966,118.066,120.799,125.106,135.37,150.532,170.417,196.472,230.679,276.557,338.069,416.757,508.034,596.245,659.179,683.006,673.52,647.05,617.376,589.098,558.368,521.944,482.405,444.774,411.116,381.611,352.123,352.123,313.584,313.584,313.584
0.00100411	-311102.57	0,4.22649e-05,9.17043e-05,0.000149536,0.000217185,0.000296317,0.000388881,0.000497159,0.000623817,0.000771974,0.000945282,0.00114801,0.00138515,0.00166254,0.00198702,0.00236658,0.00281058,0.00332994,0.00393746,0.00464811,0.00547939,0.00645178,0.00758923,0.00891977,0.0104762,0.0122968,0.0144264,0.0169175,0.0198316,0.0232402,0.0272275,0.0318917,inf	78.8508,78.8508,124.572,123.34,124.469,132.997,146.931,165.655,190.611,223.921,269.446,331.558,412.253,507.47,601.672,671.494,700.933,694.553,669.163,639.643,610.592,576.903,534.8,488.055,443.3,403.345,368.778,335.084,335.084,288.465,288.465,288.465
0.00107456	-311035.03	0,4.22649e-05,9.17043e-05,0.000149536,0.000217185,0.000296317,0.000388881,0.000497159,0.000623817,0.000771974,0.000945282,0.00114801,0.00138515,0.00166254,0.00198702,0.00236658,0.00281058,0.00332994,0.00393746,0.00464811,0.00547939,0.00645178,0.00758923,0.00891977,0.0104762,0.0122968,0.0144264,0.0169175,0.0198316,0.0232402,0.0272275,0.0318917,inf	78.7764,78.7764,131.985,127.474,126.095,133.433,146.501,164.277,188.189,220.472,265.26,327.191,408.54,505.623,603.163,677.354,710.913,707.428,683.778,655.402,626.555,590.807,543.864,490.715,439.6,394.156,355.461,318.781,318.781,263.905,263.905,263.905
0.00114332	-310976.90	0,4.22649e-05,9.17043e-05,0.000149536,0.000217185,0.000296317,0.000388881,0.000497159,0.000623817,0.000771974,0.000945282,0.00114801,0.00138515,0.00166254,0.00198702,0.00236658,0.00281058,0.00332994,0.00393746,0.00464811,0.00547939,0.00645178,0.00758923,0.00891977,0.0104762,0.0122968,0.0144264,0.0169175,0.0198316,0.0232402,0.0272275,0.0318917,inf	77.6868,77.6868,138.901,131.831,128.616,135.266,147.808,164.858,187.841,219.102,263,324.356,405.596,503.291,602.454,679.235,715.698,714.725,693.075,666.381,638.336,601.156,550.045,491.183,434.399,384.222,342.251,303.642,303.642,239.777,239.777,239.777
0.00121065	-310925.15	0,4.22649e-05,9.17043e-05,0.000149536,0.000217185,0.000296317,0.000388881,0.000497159,0.000623817,0.000771974,0.000945282,0.00114801,0.00138515,0.00166254,0.00198702,0.00236658,0.00281058,0.00332994,0.00393746,0.00464811,0.00547939,0.00645178,0.00758923,0.00891977,0.0104762,0.0122968,0.0144264,0.0169175,0.0198316,0.0232402,0.0272275,0.0318917,inf	75.7098,75.7098,144.781,135.817,131.378,137.78,150.092,166.616,188.794,219.084,262.048,322.625,403.314,500.845,600.506,678.627,717.045,718.176,698.571,673.824,646.928,608.757,554.023,490.052,428.229,374.013,329.518,289.866,289.866,215.717,215.717,215.717
0.00127676	-310878.12	0,4.22649e-05,9.17043e-05,0.000149536,0.000217185,0.000296317,0.000388881,0.000497159,0.000623817,0.000771974,0.000945282,0.00114801,0.00138515,0.00166254,0.00198702,0.00236658,0.00281058,0.00332994,0.00393746,0.00464811,0.00547939,0.00645178,0.00758923,0.00891977,0.0104762,0.0122968,0.0144264,0.0169175,0.0198316,0.0232402,0.0272275,0.0318917,inf	73.1954,73.1954,149.528,139.208,134.073,140.596,152.926,169.1,190.587,219.971,262.003,321.7,401.577,498.455,597.867,676.453,716.102,718.956,701.333,678.633,653.071,614.222,556.317,487.772,421.482,363.86,317.495,277.539,277.539,191.178,191.178,191.178
0.00134179	-310834.79	0,4.22649e-05,9.17043e-05,0.000149536,0.000217185,0.000296317,0.000388881,0.000497159,0.000623817,0.000771974,0.000945282,0.00114801,0.00138515,0.00166254,0.00198702,0.00236658,0.00281058,0.00332994,0.00393746,0.00464811,0.00547939,0.00645178,0.00758923,0.00891977,0.0104762,0.0122968,0.0144264,0.0169175,0.0198316,0.0232402,0.0272275,0.0318917,inf	70.4855,70.4855,153.249,141.967,136.567,143.509,156.065,172.033,192.927,221.471,262.595,321.367,400.279,496.193,594.86,673.297,713.629,717.878,702.122,681.47,657.327,618.024,557.333,484.693,414.463,354.008,306.329,266.694,266.694,165.435,165.435,165.435
0.00140585	-310794.55	0,4.22649e-05,9.17043e-05,0.000149536,0.000217185,0.000296317,0.000388881,0.000497159,0.000623817,0.000771974,0.000945282,0.00114801,0.00138515,0.00166254,0.00198702,0.00236658,0.00281058,0.00332994,0.00393746,0.00464811,0.00547939,0.00645178,0.00758923,0.00891977,0.0104762,0.0122968,0.0144264,0.0169175,0.0198316,0.0232402,0.0272275,0.0318917,inf	67.8373,67.8373,156.126,144.138,138.81,146.41,159.358,175.238,195.624,223.391,263.638,321.47,399.329,494.084,591.676,669.536,710.144,715.511,701.486,682.828,660.126,620.539,557.395,481.099,407.417,344.648,296.147,257.394,257.394,137.543,137.543,137.543
0.00146902	-310756.94	0,4.22649e-05,9.17043e-05,0.000149536,0.000217185,0.000296317,0.000388881,0.000497159,0.000623817,0.000771974,0.000945282,0.00114801,0.00138515,0.00166254,0.00198702,0.00236658,0.00281058,0.00332994,0.00393746,0.00464811,0.00547939,0.00645178,0.00758923,0.00891977,0.0104762,0.0122968,0.0144264,0.0169175,0.0198316,0.0232402,0.0272275,0.0318917,inf	65.4138,65.4138,158.351,145.802,140.8,149.242,162.713,178.602,198.551,225.595,265.002,321.895,398.654,492.13,588.434,665.42,706.001,712.259,699.828,683.081,661.808,622.069,556.779,477.242,400.576,335.981,287.108,249.826,249.826,106.607,106.607,106.607
0.00153136	-310721.69	0,4.22649e-05,9.17043e-05,0.000149536,0.000217185,0.000296317,0.000388881,0.000497159,0.000623817,0.000771974,0.000945282,0.00114801,0.00138515,0.00166254,0.00198702,0.00236658,0.00281058,0.00332994,0.00393746,0.00464811,0.00547939,0.00645178,0.00758923,0.00891977,0.0104762,0.0122968,0.0144264,0.0169175,0.0198316,0.0232402,0.0272275,0.0318917,inf	63.3016,63.3016,160.1,147.045,142.555,151.977,166.073,182.049,201.618,227.99,266.591,322.558,398.197,490.324,585.203,661.115,701.448,708.414,697.448,682.521,662.652,622.885,555.753,473.398,394.229,328.315,279.56,244.557,244.557,74.6567,74.6567,74.6567
0.00159294	-310688.63	0,4.22649e-05,9.17043e-05,0.000149536,0.000217185,0.000296317,0.000388881,0.000497159,0.000623817,0.000771974,0.000945282,0.00114801,0.00138515,0.00166254,0.00198702,0.00236658,0.00281058,0.00332994,0.00393746,0.00464811,0.00547939,0.00645178,0.00758923,0.00891977,0.0104762,0.0122968,0.0144264,0.0169175,0.0198316,0.0232402,0.0272275,0.0318917,inf	61.5376,61.5376,161.518,147.951,144.102,154.605,169.403,185.525,204.765,230.507,268.336,323.396,397.91,488.654,582.028,656.735,696.663,704.193,694.58,681.389,662.911,623.265,554.637,469.958,388.867,322.277,274.343,243.285,243.285,54.6225,54.6225,54.6225
0.00165376	-310657.55	0,4.22649e-05,9.17043e-05,0.000149536,0.000217185,0.000296317,0.000388881,0.000497159,0.000623817,0.000771974,0.000945282,0.00114801,0.00138515,0.00166254,0.00198702,0.00236658,0.00281058,0.00332994,0.00393746,0.00464811,0.00547939,0.00645178,0.00758923,0.00891977,0.0104762,0.0122968,0.0144264,0.0169175,0.0198316,0.0232402,0.0272275,0.0318917,inf	60.1214,60.1214,162.72,148.591,145.472,157.124,172.68,188.994,207.946,233.096,270.184,324.356,397.752,487.099,578.925,652.346,691.756,699.736,691.373,679.836,662.738,623.362,553.592,467.102,384.698,318.107,271.793,247.284,247.284,51.5029,51.5029,51.5029
0.00171384	-310627.84	0,4.22649e-05,9.17043e-05,0.000149536,0.000217185,0.000296317,0.000388881,0.000497159,0.000623817,0.000771974,0.000945282,0.00114801,0.00138515,0.00166254,0.00198702,0.00236658,0.00281058,0.00332994,0.00393746,0.00464811,0.00547939,0.00645178,0.00758923,0.00891977,0.0104762,0.0122968,0.0144264,0.0169175,0.0198316,0.0232402,0.0272275,0.0318917,inf	59.0363,59.0363,163.789,149.026,146.691,159.537,175.89,192.431,211.128,235.719,272.093,325.396,397.686,485.636,575.893,647.972,686.775,695.099,687.874,677.877,662.081,623.01,552.274,464.226,380.76,314.361,269.76,252.189,252.189,51.8178,51.8178,51.8178
0.00177322	-310599.55	0,4.22649e-05,9.17043e-05,0.000149536,0.000217185,0.000296317,0.000388881,0.000497159,0.000623817,0.000771974,0.000945282,0.00114801,0.00138515,0.00166254,0.00198702,0.00236658,0.00281058,0.00332994,0.00393746,0.00464811,0.00547939,0.00645178,0.00758923,0.00891977,0.0104762,0.0122968,0.0144264,0.0169175,0.0198316,0.0232402,0.0272275,0.0318917,inf	58.2531,58.2531,164.791,149.305,147.788,161.852,179.026,195.821,214.291,238.352,274.038,326.493,397.692,484.257,572.943,643.652,681.785,690.362,684.166,675.589,661.004,622.234,550.64,461.197,376.806,310.639,267.64,256.602,256.602,52.1283,52.1283,52.1283
0.00183191	-310572.66	0,4.22649e-05,9.17043e-05,0.000149536,0.000217185,0.000296317,0.000388881,0.000497159,0.000623817,0.000771974,0.000945282,0.00114801,0.00138515,0.00166254,0.00198702,0.00236658,0.00281058,0.00332994,0.00393746,0.00464811,0.00547939,0.00645178,0.00758923,0.00891977,0.0104762,0.0122968,0.0144264,0.0169175,0.0198316,0.0232402,0.0272275,0.0318917,inf	57.7391,57.7391,165.771,149.471,148.785,164.079,182.087,199.155,217.42,240.978,276,327.629,397.758,482.956,570.086,639.418,676.839,685.595,680.331,673.065,659.6,621.127,548.773,458.08,372.887,306.991,265.497,260.616,260.616,52.513,52.513,52.513
0.00188994	-310547.07	0,4.22649e-05,9.17043e-05,0.000149536,0.000217185,0.000296317,0.000388881,0.000497159,0.000623817,0.000771974,0.000945282,0.00114801,0.00138515,0.00166254,0.00198702,0.00236658,0.00281058,0.00332994,0.00393746,0.00464811,0.00547939,0.00645178,0.00758923,0.00891977,0.0104762,0.0122968,0.0144264,0.0169175,0.0198316,0.0232402,0.0272275,0.0318917,inf	57.4618,57.4618,166.76,149.553,149.702,166.225,185.071,202.425,220.506,243.585,277.965,328.789,397.87,481.729,567.326,635.288,671.973,680.849,676.431,670.372,657.944,619.76,546.732,454.923,369.037,303.442,263.364,264.28,264.28,52.9592,52.9592,52.9592
0.00194733	-310522.68	0,4.22649e-05,9.17043e-05,0.000149536,0.000217185,0.000296317,0.000388881,0.000497159,0.000623817,0.000771974,0.000945282,0.00114801,0.00138515,0.00166254,0.00198702,0.00236658,0.00281058,0.00332994,0.00393746,0.00464811,0.00547939,0.00645178,0.00758923,0.00891977,0.0104762,0.0122968,0.0144264,0.0169175,0.0198316,0.0232402,0.0272275,0.0318917,inf	57.3894,57.3894,167.779,149.578,150.556,168.297,187.979,205.626,223.541,246.161,279.921,329.96,398.017,480.566,564.664,631.276,667.211,676.159,672.51,667.563,656.096,618.191,544.568,451.759,365.276,300.007,261.262,267.634,267.634,53.4571,53.4571,53.4571
