LogLikelihood = -131888.16717522099498

y0 0.26906810014166421263
y0_prime 0
y1 0.16507293860257671314
y1_prime 0
y2 2.2013728903602984843
y2_prime 0
y3 115.91250402071027281
y3_prime 0
rho 6.505569049449745568e-05
theta 0.0018147228479657301348
