time_index	left_time_boundary	right_time_boundary	lambda
0	0	9.04565e-07	0.779383
1	9.04565e-07	2.0961e-06	0.779383
2	2.0961e-06	3.66565e-06	11.5392
3	3.66565e-06	5.73314e-06	266.105
4	5.73314e-06	8.45653e-06	426.182
5	8.45653e-06	1.20439e-05	703.473
6	1.20439e-05	1.67694e-05	1288.23
7	1.67694e-05	2.2994e-05	1041.95
8	2.2994e-05	3.11934e-05	660.05
9	3.11934e-05	4.19941e-05	609.223
10	4.19941e-05	5.62212e-05	636.468
11	5.62212e-05	7.49619e-05	652.615
12	7.49619e-05	9.9648e-05	680.519
13	9.9648e-05	0.000132166	711.131
14	0.000132166	0.000175	727.349
15	0.000175	0.000231423	725.285
16	0.000231423	0.000305746	725.985
17	0.000305746	0.000403648	737.32
18	0.000403648	0.000532609	753.325
19	0.000532609	0.000702483	774.968
20	0.000702483	0.000926249	800.394
21	0.000926249	0.00122101	812.924
22	0.00122101	0.00160927	809.186
23	0.00160927	0.00212072	809.034
24	0.00212072	0.00279441	815.231
25	0.00279441	0.00368184	792.703
26	0.00368184	0.00485081	739.236
27	0.00485081	0.00639062	622.978
28	0.00639062	0.00841895	622.978
29	0.00841895	0.0110907	290.909
30	0.0110907	0.0146102	290.909
31	0.0146102	inf	290.909
