AIC = 480756.48370563297067

y0 1.2223596462470066922e-12
y0_prime 0
y1 1.6343240161859484694
y1_prime 0
y2 1.0105956912432845218
y2_prime 0
y3 1.0296996002343785648
y3_prime 0
rho 0.0053433038627572265397
theta 0.0036945944591783965241
