time_index	left_time_boundary	right_time_boundary	lambda
0	0	9.13643e-05	267.391
1	9.13643e-05	0.000216379	267.391
2	0.000216379	0.000387439	221.541
3	0.000387439	0.000621503	350.626
4	0.000621503	0.000941776	342.945
5	0.000941776	0.00138001	357.49
6	0.00138001	0.00197965	420.049
7	0.00197965	0.00280015	451.409
8	0.00280015	0.00392286	414.757
9	0.00392286	0.00545907	368.057
10	0.00545907	0.00756109	397.871
11	0.00756109	0.0104373	511.736
12	0.0104373	0.0143729	666.869
13	0.0143729	0.019758	56672.6
14	0.019758	0.0271265	56672.6
15	0.0271265	inf	56672.6
