0.00067758	-1811872.16	0,2.18513e-05,5.52823e-05,0.000106429,0.00018468,0.000304398,0.000487558,0.000767778,0.00119649,0.0018524,0.00285588,0.00439114,0.00673997,0.0103335,0.0158313,0.0242426,inf	451.594,451.594,456.359,362.161,340.29,353.315,360.864,379.295,407.939,432.67,434.913,424.626,422.992,485.43,485.43,485.43
0.000729595	-1811516.38	0,2.18513e-05,5.52823e-05,0.000106429,0.00018468,0.000304398,0.000487558,0.000767778,0.00119649,0.0018524,0.00285588,0.00439114,0.00673997,0.0103335,0.0158313,0.0242426,inf	482.179,482.179,515.124,348.045,315.954,338.231,344.524,367.743,408.302,445.881,449.631,433.201,431.314,581.339,581.339,581.339
0.000775793	-1811318.33	0,2.18513e-05,5.52823e-05,0.000106429,0.00018468,0.000304398,0.000487558,0.000767778,0.00119649,0.0018524,0.00285588,0.00439114,0.00673997,0.0103335,0.0158313,0.0242426,inf	486.371,486.371,562.076,338.85,304.06,335.555,338.253,361.822,407.666,451.973,456.147,435.464,433.453,704.826,704.826,704.826
0.000817384	-1811187.14	0,2.18513e-05,5.52823e-05,0.000106429,0.00018468,0.000304398,0.000487558,0.000767778,0.00119649,0.0018524,0.00285588,0.00439114,0.00673997,0.0103335,0.0158313,0.0242426,inf	474.255,474.255,596.82,329.994,296.965,337.909,336.37,358.704,406.923,454.735,458.473,434.366,431.94,891.136,891.136,891.136
0.00085523	-1811096.84	0,2.18513e-05,5.52823e-05,0.000106429,0.00018468,0.000304398,0.000487558,0.000767778,0.00119649,0.0018524,0.00285588,0.00439114,0.00673997,0.0103335,0.0158313,0.0242426,inf	455.389,455.389,622.604,320.822,292.007,342.382,336.5,357.081,406.34,455.924,458.624,431.385,428.182,1283.58,1283.58,1283.58
0.000889964	-1811042.94	0,2.18513e-05,5.52823e-05,0.000106429,0.00018468,0.000304398,0.000487558,0.000767778,0.00119649,0.0018524,0.00285588,0.00439114,0.00673997,0.0103335,0.0158313,0.0242426,inf	435.292,435.292,642.422,311.489,288.14,347.69,337.538,356.284,405.969,456.363,457.576,427.12,422.88,3119.3,3119.3,3119.3
0.000889964	-1811025.86	0,2.18513e-05,5.52823e-05,0.000106429,0.00018468,0.000304398,0.000487558,0.000767778,0.00119649,0.0018524,0.00285588,0.00439114,0.00673997,0.0103335,0.0158313,0.0242426,inf	412.907,412.907,652.131,299.533,282.394,349.931,335.865,352.701,401.85,451.142,451.104,418.348,414.152,52068.1,52068.1,52068.1
0.000889964	-1811062.20	0,2.18513e-05,5.52823e-05,0.000106429,0.00018468,0.000304398,0.000487558,0.000767778,0.00119649,0.0018524,0.00285588,0.00439114,0.00673997,0.0103335,0.0158313,0.0242426,inf	396.58,396.58,652.441,290.372,278.265,353.953,336.144,351.508,400.547,449.287,447.256,410.904,406.364,52072.1,52072.1,52072.1
0.000889964	-1811052.30	0,2.18513e-05,5.52823e-05,0.000106429,0.00018468,0.000304398,0.000487558,0.000767778,0.00119649,0.0018524,0.00285588,0.00439114,0.00673997,0.0103335,0.0158313,0.0242426,inf	386.557,386.557,661.755,283.309,274.84,358.114,336.144,350.958,400.443,449.25,445.398,405.224,399.638,52075,52075,52075
0.000889964	-1811045.16	0,2.18513e-05,5.52823e-05,0.000106429,0.00018468,0.000304398,0.000487558,0.000767778,0.00119649,0.0018524,0.00285588,0.00439114,0.00673997,0.0103335,0.0158313,0.0242426,inf	377.979,377.979,661.913,276.983,271.565,362.016,336.497,350.478,400.693,449.25,444.736,400.747,393.693,52077.4,52077.4,52077.4
0.000889964	-1811039.61	0,2.18513e-05,5.52823e-05,0.000106429,0.00018468,0.000304398,0.000487558,0.000767778,0.00119649,0.0018524,0.00285588,0.00439114,0.00673997,0.0103335,0.0158313,0.0242426,inf	372.832,372.832,666.685,271.963,268.626,365.676,336.598,349.935,401.05,449.295,444.736,397.165,388.355,52079.4,52079.4,52079.4
0.000889964	-1811035.02	0,2.18513e-05,5.52823e-05,0.000106429,0.00018468,0.000304398,0.000487558,0.000767778,0.00119649,0.0018524,0.00285588,0.00439114,0.00673997,0.0103335,0.0158313,0.0242426,inf	368.69,368.69,670.588,267.603,265.831,369.058,336.478,349.308,401.446,449.394,444.736,394.288,383.505,52081.1,52081.1,52081.1
0.000889964	-1811031.19	0,2.18513e-05,5.52823e-05,0.000106429,0.00018468,0.000304398,0.000487558,0.000767778,0.00119649,0.0018524,0.00285588,0.00439114,0.00673997,0.0103335,0.0158313,0.0242426,inf	365.242,365.242,673.888,263.726,263.169,369.134,336.111,348.585,401.836,450.145,444.736,391.999,379.063,52082.7,52082.7,52082.7
0.000889964	-1811027.87	0,2.18513e-05,5.52823e-05,0.000106429,0.00018468,0.000304398,0.000487558,0.000767778,0.00119649,0.0018524,0.00285588,0.00439114,0.00673997,0.0103335,0.0158313,0.0242426,inf	362.682,362.682,676.418,260.834,261.219,369.186,335.985,347.94,402.193,450.147,445.078,390.157,374.961,52084,52084,52084
0.000889964	-1811025.05	0,2.18513e-05,5.52823e-05,0.000106429,0.00018468,0.000304398,0.000487558,0.000767778,0.00119649,0.0018524,0.00285588,0.00439114,0.00673997,0.0103335,0.0158313,0.0242426,inf	360.814,360.814,678.041,258.702,259.784,371.035,335.985,347.398,402.547,450.147,445.078,388.719,371.148,52085.3,52085.3,52085.3
0.000889964	-1811022.57	0,2.18513e-05,5.52823e-05,0.000106429,0.00018468,0.000304398,0.000487558,0.000767778,0.00119649,0.0018524,0.00285588,0.00439114,0.00673997,0.0103335,0.0158313,0.0242426,inf	359.384,359.384,679.588,256.859,258.416,372.716,335.985,346.843,402.91,450.147,445.078,387.642,367.591,52086.4,52086.4,52086.4
0.000889964	-1811020.37	0,2.18513e-05,5.52823e-05,0.000106429,0.00018468,0.000304398,0.000487558,0.000767778,0.00119649,0.0018524,0.00285588,0.00439114,0.00673997,0.0103335,0.0158313,0.0242426,inf	358.249,358.249,680.574,255.265,257.111,374.25,335.977,346.285,403.279,450.147,445.078,386.869,364.253,52087.4,52087.4,52087.4
0.000889964	-1811018.39	0,2.18513e-05,5.52823e-05,0.000106429,0.00018468,0.000304398,0.000487558,0.000767778,0.00119649,0.0018524,0.00285588,0.00439114,0.00673997,0.0103335,0.0158313,0.0242426,inf	357.43,357.43,681.285,253.912,255.88,375.633,335.927,345.73,403.66,450.147,445.079,386.352,361.104,52088.3,52088.3,52088.3
0.000889964	-1811016.58	0,2.18513e-05,5.52823e-05,0.000106429,0.00018468,0.000304398,0.000487558,0.000767778,0.00119649,0.0018524,0.00285588,0.00439114,0.00673997,0.0103335,0.0158313,0.0242426,inf	356.878,356.878,681.765,252.785,254.729,376.867,335.855,345.176,404.05,450.149,445.079,386.05,358.118,52089.1,52089.1,52089.1
0.000889964	-1811014.92	0,2.18513e-05,5.52823e-05,0.000106429,0.00018468,0.000304398,0.000487558,0.000767778,0.00119649,0.0018524,0.00285588,0.00439114,0.00673997,0.0103335,0.0158313,0.0242426,inf	356.501,356.501,682.093,251.825,253.635,376.901,335.74,344.613,404.472,450.345,445.079,385.927,355.273,52089.8,52089.8,52089.8
