0.000678276	-4520514.14	0,1.01977e-05,2.67183e-05,5.34822e-05,9.68406e-05,0.000167082,0.000280877,0.000465227,0.00076388,0.00124771,0.00203152,0.00330133,0.00535845,0.00869106,0.01409,0.0228364,inf	603.61,603.61,552.387,437.615,378.325,353.745,349.944,357.795,380.033,413.086,437.775,429.237,413.798,434.888,434.888,434.888
0.000732657	-4519537.21	0,1.01977e-05,2.67183e-05,5.34822e-05,9.68406e-05,0.000167082,0.000280877,0.000465227,0.00076388,0.00124771,0.00203152,0.00330133,0.00535845,0.00869106,0.01409,0.0228364,inf	691.591,691.591,655.464,463.887,374.618,338.047,331.781,339.654,368.724,415.547,453.995,440.177,414.209,457.903,457.903,457.903
0.000781183	-4518949.20	0,1.01977e-05,2.67183e-05,5.34822e-05,9.68406e-05,0.000167082,0.000280877,0.000465227,0.00076388,0.00124771,0.00203152,0.00330133,0.00535845,0.00869106,0.01409,0.0228364,inf	701.375,701.375,714.686,476.419,374.201,332.692,326.187,332.309,363.18,415.958,462.231,444.528,410.82,476.164,476.164,476.164
0.000825094	-4518525.83	0,1.01977e-05,2.67183e-05,5.34822e-05,9.68406e-05,0.000167082,0.000280877,0.000465227,0.00076388,0.00124771,0.00203152,0.00330133,0.00535845,0.00869106,0.01409,0.0228364,inf	678.762,678.762,745.865,478.933,373.229,330.691,325.608,329.683,360.48,415.672,466.518,445.581,405.792,490.952,490.952,490.952
0.000865267	-4518195.79	0,1.01977e-05,2.67183e-05,5.34822e-05,9.68406e-05,0.000167082,0.000280877,0.000465227,0.00076388,0.00124771,0.00203152,0.00330133,0.00535845,0.00869106,0.01409,0.0228364,inf	649.002,649.002,761.987,475.637,371.301,329.754,327.148,329.277,359.296,415.2,468.809,445.002,400.178,503.157,503.157,503.157
0.000902307	-4517928.78	0,1.01977e-05,2.67183e-05,5.34822e-05,9.68406e-05,0.000167082,0.000280877,0.000465227,0.00076388,0.00124771,0.00203152,0.00330133,0.00535845,0.00869106,0.01409,0.0228364,inf	621.854,621.854,770.706,469.375,368.725,329.09,329.564,329.936,358.949,414.72,470.069,443.642,394.481,513.402,513.402,513.402
0.000936648	-4517708.43	0,1.01977e-05,2.67183e-05,5.34822e-05,9.68406e-05,0.000167082,0.000280877,0.000465227,0.00076388,0.00124771,0.00203152,0.00330133,0.00535845,0.00869106,0.01409,0.0228364,inf	599.857,599.857,775.958,461.818,365.856,328.442,332.29,331.088,359.065,414.283,470.788,441.941,388.937,522.131,522.131,522.131
0.000968613	-4517524.28	0,1.01977e-05,2.67183e-05,5.34822e-05,9.68406e-05,0.000167082,0.000280877,0.000465227,0.00076388,0.00124771,0.00203152,0.00330133,0.00535845,0.00869106,0.01409,0.0228364,inf	582.858,582.858,779.633,453.884,362.963,327.749,335.069,332.441,359.435,413.895,471.221,440.13,383.648,529.665,529.665,529.665
0.000998456	-4517368.99	0,1.01977e-05,2.67183e-05,5.34822e-05,9.68406e-05,0.000167082,0.000280877,0.000465227,0.00076388,0.00124771,0.00203152,0.00330133,0.00535845,0.00869106,0.01409,0.0228364,inf	569.961,569.961,782.568,446.057,360.217,327.018,337.786,333.845,359.936,413.548,471.502,438.327,378.652,536.243,536.243,536.243
0.00102638	-4517237.09	0,1.01977e-05,2.67183e-05,5.34822e-05,9.68406e-05,0.000167082,0.000280877,0.000465227,0.00076388,0.00124771,0.00203152,0.00330133,0.00535845,0.00869106,0.01409,0.0228364,inf	560.185,560.185,785.126,438.573,357.719,326.272,340.394,335.222,360.498,413.232,471.706,436.595,373.953,542.046,542.046,542.046
0.00105256	-4517124.38	0,1.01977e-05,2.67183e-05,5.34822e-05,9.68406e-05,0.000167082,0.000280877,0.000465227,0.00076388,0.00124771,0.00203152,0.00330133,0.00535845,0.00869106,0.01409,0.0228364,inf	552.732,552.732,787.433,431.526,355.514,325.532,342.876,336.534,361.08,412.938,471.871,434.963,369.54,547.214,547.214,547.214
0.00107715	-4517027.58	0,1.01977e-05,2.67183e-05,5.34822e-05,9.68406e-05,0.000167082,0.000280877,0.000465227,0.00076388,0.00124771,0.00203152,0.00330133,0.00535845,0.00869106,0.01409,0.0228364,inf	546.99,546.99,789.541,424.953,353.615,324.814,345.229,337.765,361.658,412.658,472.021,433.442,365.397,551.854,551.854,551.854
0.00110026	-4516944.07	0,1.01977e-05,2.67183e-05,5.34822e-05,9.68406e-05,0.000167082,0.000280877,0.000465227,0.00076388,0.00124771,0.00203152,0.00330133,0.00535845,0.00869106,0.01409,0.0228364,inf	542.512,542.512,791.443,418.84,352.016,324.129,347.46,338.908,362.218,412.386,472.166,432.036,361.503,556.053,556.053,556.053
0.00112202	-4516871.75	0,1.01977e-05,2.67183e-05,5.34822e-05,9.68406e-05,0.000167082,0.000280877,0.000465227,0.00076388,0.00124771,0.00203152,0.00330133,0.00535845,0.00869106,0.01409,0.0228364,inf	538.967,538.967,793.146,413.168,350.701,323.48,349.577,339.965,362.754,412.119,472.314,430.742,357.839,559.881,559.881,559.881
0.00114252	-4516808.89	0,1.01977e-05,2.67183e-05,5.34822e-05,9.68406e-05,0.000167082,0.000280877,0.000465227,0.00076388,0.00124771,0.00203152,0.00330133,0.00535845,0.00869106,0.01409,0.0228364,inf	536.155,536.155,794.648,407.898,349.647,322.87,351.586,340.938,363.261,411.853,472.466,429.554,354.386,563.392,563.392,563.392
0.00116185	-4516754.08	0,1.01977e-05,2.67183e-05,5.34822e-05,9.68406e-05,0.000167082,0.000280877,0.000465227,0.00076388,0.00124771,0.00203152,0.00330133,0.00535845,0.00869106,0.01409,0.0228364,inf	533.905,533.905,795.959,402.996,348.828,322.296,353.497,341.833,363.741,411.588,472.624,428.467,351.125,566.634,566.634,566.634
0.00118009	-4516706.16	0,1.01977e-05,2.67183e-05,5.34822e-05,9.68406e-05,0.000167082,0.000280877,0.000465227,0.00076388,0.00124771,0.00203152,0.00330133,0.00535845,0.00869106,0.01409,0.0228364,inf	532.079,532.079,797.075,398.427,348.219,321.756,355.315,342.655,364.192,411.322,472.787,427.474,348.042,569.645,569.645,569.645
0.00119733	-4516664.15	0,1.01977e-05,2.67183e-05,5.34822e-05,9.68406e-05,0.000167082,0.000280877,0.000465227,0.00076388,0.00124771,0.00203152,0.00330133,0.00535845,0.00869106,0.01409,0.0228364,inf	530.606,530.606,798.017,394.162,347.798,321.247,357.048,343.411,364.616,411.055,472.957,426.568,345.12,572.456,572.456,572.456
0.00121362	-4516627.25	0,1.01977e-05,2.67183e-05,5.34822e-05,9.68406e-05,0.000167082,0.000280877,0.000465227,0.00076388,0.00124771,0.00203152,0.00330133,0.00535845,0.00869106,0.01409,0.0228364,inf	529.41,529.41,798.796,390.17,347.542,320.763,358.701,344.105,365.015,410.786,473.131,425.743,342.348,575.095,575.095,575.095
0.00122902	-4516594.76	0,1.01977e-05,2.67183e-05,5.34822e-05,9.68406e-05,0.000167082,0.000280877,0.000465227,0.00076388,0.00124771,0.00203152,0.00330133,0.00535845,0.00869106,0.01409,0.0228364,inf	528.453,528.453,799.438,386.426,347.431,320.302,360.28,344.743,365.392,410.515,473.309,424.993,339.712,577.583,577.583,577.583
