time_index	left_time_boundary	right_time_boundary	lambda
0	0	2.18513e-05	356.501
1	2.18513e-05	5.52823e-05	356.501
2	5.52823e-05	0.000106429	682.093
3	0.000106429	0.00018468	251.825
4	0.00018468	0.000304398	253.635
5	0.000304398	0.000487558	376.901
6	0.000487558	0.000767778	335.74
7	0.000767778	0.00119649	344.613
8	0.00119649	0.0018524	404.472
9	0.0018524	0.00285588	450.345
10	0.00285588	0.00439114	445.079
11	0.00439114	0.00673997	385.927
12	0.00673997	0.0103335	355.273
13	0.0103335	0.0158313	52089.8
14	0.0158313	0.0242426	52089.8
15	0.0242426	inf	52089.8
