LogLikelihood = -168214.06923114371602

y0 0.90538385833352219567
y0_prime 0
y1 1.0387788622189553234
y1_prime 0
y2 0.90269963382593609857
y2_prime 0
y3 1.6693361635351768868
y3_prime 0
rho 0.001343682547465665806
theta 0.0024743350249623800689
