0.000249378	-6076228.79	0,1.51493e-06,4.14354e-06,8.70457e-06,1.66186e-05,3.03506e-05,5.41776e-05,9.55208e-05,0.000167257,0.00029173,0.000507709,0.000882463,0.00153272,0.002661,0.00461873,0.00801567,inf	242.974,242.974,327.749,246.388,226.936,258.723,297.328,359.961,491.877,744.699,1327.05,1661.95,1485.13,1475.19,1475.19,1475.19
0.000267737	-6063877.10	0,1.51493e-06,4.14354e-06,8.70457e-06,1.66186e-05,3.03506e-05,5.41776e-05,9.55208e-05,0.000167257,0.00029173,0.000507709,0.000882463,0.00153272,0.002661,0.00461873,0.00801567,inf	169.183,169.183,360.378,204.112,149.951,168.249,180.219,209.197,322.753,593.876,1350.11,2039.66,1845.26,2022.4,2022.4,2022.4
0.000282367	-6060186.28	0,1.51493e-06,4.14354e-06,8.70457e-06,1.66186e-05,3.03506e-05,5.41776e-05,9.55208e-05,0.000167257,0.00029173,0.000507709,0.000882463,0.00153272,0.002661,0.00461873,0.00801567,inf	128.502,128.502,449.491,223.07,143.34,164.466,158.697,161.977,254.25,514.826,1318.88,2271.13,2155.61,3005.9,3005.9,3005.9
0.000294131	-6058732.61	0,1.51493e-06,4.14354e-06,8.70457e-06,1.66186e-05,3.03506e-05,5.41776e-05,9.55208e-05,0.000167257,0.00029173,0.000507709,0.000882463,0.00153272,0.002661,0.00461873,0.00801567,inf	88.5574,88.5574,509.45,239.837,145.613,180.208,161.665,145.455,222.594,469.962,1281.49,2413.92,2425.87,6698.42,6698.42,6698.42
0.000294131	-6058044.20	0,1.51493e-06,4.14354e-06,8.70457e-06,1.66186e-05,3.03506e-05,5.41776e-05,9.55208e-05,0.000167257,0.00029173,0.000507709,0.000882463,0.00153272,0.002661,0.00461873,0.00801567,inf	57.4124,57.4124,533.642,244.409,144.666,199.006,172.213,140.654,207.609,443.899,1242.29,2479.65,2653.29,134562,134562,134562
0.000294131	-6057802.32	0,1.51493e-06,4.14354e-06,8.70457e-06,1.66186e-05,3.03506e-05,5.41776e-05,9.55208e-05,0.000167257,0.00029173,0.000507709,0.000882463,0.00153272,0.002661,0.00461873,0.00801567,inf	36.4684,36.4684,545.316,242.495,139.545,203.606,172.213,140.342,200.265,428.323,1216.87,2500.91,2653.29,134562,134562,134562
0.000294131	-6057772.60	0,1.51493e-06,4.14354e-06,8.70457e-06,1.66186e-05,3.03506e-05,5.41776e-05,9.55208e-05,0.000167257,0.00029173,0.000507709,0.000882463,0.00153272,0.002661,0.00461873,0.00801567,inf	23.1013,23.1013,555.842,241.467,135.022,206.573,172.213,140.342,197.1,419.101,1202.45,2512.89,2653.29,134562,134562,134562
0.000294131	-6057759.98	0,1.51493e-06,4.14354e-06,8.70457e-06,1.66186e-05,3.03506e-05,5.41776e-05,9.55208e-05,0.000167257,0.00029173,0.000507709,0.000882463,0.00153272,0.002661,0.00461873,0.00801567,inf	14.5962,14.5962,562.577,241.02,130.913,209.091,172.213,140.342,196.156,413.379,1194.27,2519.27,2653.53,134562,134562,134562
