0.000585658	-1835773.94	0,1.08971e-05,2.45682e-05,4.17194e-05,6.32366e-05,9.02311e-05,0.000124097,0.000166584,0.000219887,0.000286758,0.000370652,0.000475902,0.000607943,0.000773598,0.00098142,0.00124215,0.00156924,0.0019796,0.00249442,0.0031403,0.00395058,0.00496713,0.00624245,0.00784242,0.00984967,0.0123679,0.0155271,0.0194906,0.024463,0.0307011,inf	388.953,388.953,388.953,388.953,388.953,388.953,388.953,388.953,388.953,388.953,388.953,388.953,388.953,388.953,388.953,388.953,388.953,388.953,388.953,388.953,388.953,388.953,388.953,388.953,388.953,388.953,388.953,388.953,388.953,388.953
0.000537068	-1835443.53	0,1.08971e-05,2.45682e-05,4.17194e-05,6.32366e-05,9.02311e-05,0.000124097,0.000166584,0.000219887,0.000286758,0.000370652,0.000475902,0.000607943,0.000773598,0.00098142,0.00124215,0.00156924,0.0019796,0.00249442,0.0031403,0.00395058,0.00496713,0.00624245,0.00784242,0.00984967,0.0123679,0.0155271,0.0194906,0.024463,0.0307011,inf	389.267,389.267,389.267,389.267,389.267,389.267,389.267,389.267,389.267,389.267,389.267,389.267,389.267,389.267,389.267,389.267,389.267,389.267,389.267,389.267,389.267,389.267,389.267,389.267,389.267,389.267,389.267,389.267,389.267,389.267
0.000495546	-1835173.61	0,1.08971e-05,2.45682e-05,4.17194e-05,6.32366e-05,9.02311e-05,0.000124097,0.000166584,0.000219887,0.000286758,0.000370652,0.000475902,0.000607943,0.000773598,0.00098142,0.00124215,0.00156924,0.0019796,0.00249442,0.0031403,0.00395058,0.00496713,0.00624245,0.00784242,0.00984967,0.0123679,0.0155271,0.0194906,0.024463,0.0307011,inf	389.781,389.781,389.781,389.781,389.781,389.781,389.781,389.781,389.781,389.781,389.781,389.781,389.781,389.781,389.781,389.781,389.781,389.781,389.781,389.781,389.781,389.781,389.781,389.781,389.781,389.781,389.781,389.781,389.781,389.781
0.000460364	-1834958.63	0,1.08971e-05,2.45682e-05,4.17194e-05,6.32366e-05,9.02311e-05,0.000124097,0.000166584,0.000219887,0.000286758,0.000370652,0.000475902,0.000607943,0.000773598,0.00098142,0.00124215,0.00156924,0.0019796,0.00249442,0.0031403,0.00395058,0.00496713,0.00624245,0.00784242,0.00984967,0.0123679,0.0155271,0.0194906,0.024463,0.0307011,inf	390.264,390.264,390.264,390.264,390.264,390.264,390.264,390.264,390.264,390.264,390.264,390.264,390.264,390.264,390.264,390.264,390.264,390.264,390.264,390.264,390.264,390.264,390.264,390.264,390.264,390.264,390.264,390.264,390.264,390.264
0.000430811	-1834791.76	0,1.08971e-05,2.45682e-05,4.17194e-05,6.32366e-05,9.02311e-05,0.000124097,0.000166584,0.000219887,0.000286758,0.000370652,0.000475902,0.000607943,0.000773598,0.00098142,0.00124215,0.00156924,0.0019796,0.00249442,0.0031403,0.00395058,0.00496713,0.00624245,0.00784242,0.00984967,0.0123679,0.0155271,0.0194906,0.024463,0.0307011,inf	390.627,390.627,390.627,390.627,390.627,390.627,390.627,390.627,390.627,390.627,390.627,390.627,390.627,390.627,390.627,390.627,390.627,390.627,390.627,390.627,390.627,390.627,390.627,390.627,390.627,390.627,390.627,390.627,390.627,390.627
0.000406194	-1834665.41	0,1.08971e-05,2.45682e-05,4.17194e-05,6.32366e-05,9.02311e-05,0.000124097,0.000166584,0.000219887,0.000286758,0.000370652,0.000475902,0.000607943,0.000773598,0.00098142,0.00124215,0.00156924,0.0019796,0.00249442,0.0031403,0.00395058,0.00496713,0.00624245,0.00784242,0.00984967,0.0123679,0.0155271,0.0194906,0.024463,0.0307011,inf	390.854,390.854,390.854,390.854,390.854,390.854,390.854,390.854,390.854,390.854,390.854,390.854,390.854,390.854,390.854,390.854,390.854,390.854,390.854,390.854,390.854,390.854,390.854,390.854,390.854,390.854,390.854,390.854,390.854,390.854
0.000385842	-1834571.94	0,1.08971e-05,2.45682e-05,4.17194e-05,6.32366e-05,9.02311e-05,0.000124097,0.000166584,0.000219887,0.000286758,0.000370652,0.000475902,0.000607943,0.000773598,0.00098142,0.00124215,0.00156924,0.0019796,0.00249442,0.0031403,0.00395058,0.00496713,0.00624245,0.00784242,0.00984967,0.0123679,0.0155271,0.0194906,0.024463,0.0307011,inf	390.96,390.96,390.96,390.96,390.96,390.96,390.96,390.96,390.96,390.96,390.96,390.96,390.96,390.96,390.96,390.96,390.96,390.96,390.96,390.96,390.96,390.96,390.96,390.96,390.96,390.96,390.96,390.96,390.96,390.96
0.000369131	-1834504.26	0,1.08971e-05,2.45682e-05,4.17194e-05,6.32366e-05,9.02311e-05,0.000124097,0.000166584,0.000219887,0.000286758,0.000370652,0.000475902,0.000607943,0.000773598,0.00098142,0.00124215,0.00156924,0.0019796,0.00249442,0.0031403,0.00395058,0.00496713,0.00624245,0.00784242,0.00984967,0.0123679,0.0155271,0.0194906,0.024463,0.0307011,inf	390.974,390.974,390.974,390.974,390.974,390.974,390.974,390.974,390.974,390.974,390.974,390.974,390.974,390.974,390.974,390.974,390.974,390.974,390.974,390.974,390.974,390.974,390.974,390.974,390.974,390.974,390.974,390.974,390.974,390.974
0.000355488	-1834456.16	0,1.08971e-05,2.45682e-05,4.17194e-05,6.32366e-05,9.02311e-05,0.000124097,0.000166584,0.000219887,0.000286758,0.000370652,0.000475902,0.000607943,0.000773598,0.00098142,0.00124215,0.00156924,0.0019796,0.00249442,0.0031403,0.00395058,0.00496713,0.00624245,0.00784242,0.00984967,0.0123679,0.0155271,0.0194906,0.024463,0.0307011,inf	390.926,390.926,390.926,390.926,390.926,390.926,390.926,390.926,390.926,390.926,390.926,390.926,390.926,390.926,390.926,390.926,390.926,390.926,390.926,390.926,390.926,390.926,390.926,390.926,390.926,390.926,390.926,390.926,390.926,390.926
0.000344406	-1834422.51	0,1.08971e-05,2.45682e-05,4.17194e-05,6.32366e-05,9.02311e-05,0.000124097,0.000166584,0.000219887,0.000286758,0.000370652,0.000475902,0.000607943,0.000773598,0.00098142,0.00124215,0.00156924,0.0019796,0.00249442,0.0031403,0.00395058,0.00496713,0.00624245,0.00784242,0.00984967,0.0123679,0.0155271,0.0194906,0.024463,0.0307011,inf	390.839,390.839,390.839,390.839,390.839,390.839,390.839,390.839,390.839,390.839,390.839,390.839,390.839,390.839,390.839,390.839,390.839,390.839,390.839,390.839,390.839,390.839,390.839,390.839,390.839,390.839,390.839,390.839,390.839,390.839
0.00033544	-1834399.29	0,1.08971e-05,2.45682e-05,4.17194e-05,6.32366e-05,9.02311e-05,0.000124097,0.000166584,0.000219887,0.000286758,0.000370652,0.000475902,0.000607943,0.000773598,0.00098142,0.00124215,0.00156924,0.0019796,0.00249442,0.0031403,0.00395058,0.00496713,0.00624245,0.00784242,0.00984967,0.0123679,0.0155271,0.0194906,0.024463,0.0307011,inf	390.734,390.734,390.734,390.734,390.734,390.734,390.734,390.734,390.734,390.734,390.734,390.734,390.734,390.734,390.734,390.734,390.734,390.734,390.734,390.734,390.734,390.734,390.734,390.734,390.734,390.734,390.734,390.734,390.734,390.734
0.000328212	-1834383.42	0,1.08971e-05,2.45682e-05,4.17194e-05,6.32366e-05,9.02311e-05,0.000124097,0.000166584,0.000219887,0.000286758,0.000370652,0.000475902,0.000607943,0.000773598,0.00098142,0.00124215,0.00156924,0.0019796,0.00249442,0.0031403,0.00395058,0.00496713,0.00624245,0.00784242,0.00984967,0.0123679,0.0155271,0.0194906,0.024463,0.0307011,inf	390.624,390.624,390.624,390.624,390.624,390.624,390.624,390.624,390.624,390.624,390.624,390.624,390.624,390.624,390.624,390.624,390.624,390.624,390.624,390.624,390.624,390.624,390.624,390.624,390.624,390.624,390.624,390.624,390.624,390.624
0.0003224	-1834372.67	0,1.08971e-05,2.45682e-05,4.17194e-05,6.32366e-05,9.02311e-05,0.000124097,0.000166584,0.000219887,0.000286758,0.000370652,0.000475902,0.000607943,0.000773598,0.00098142,0.00124215,0.00156924,0.0019796,0.00249442,0.0031403,0.00395058,0.00496713,0.00624245,0.00784242,0.00984967,0.0123679,0.0155271,0.0194906,0.024463,0.0307011,inf	390.519,390.519,390.519,390.519,390.519,390.519,390.519,390.519,390.519,390.519,390.519,390.519,390.519,390.519,390.519,390.519,390.519,390.519,390.519,390.519,390.519,390.519,390.519,390.519,390.519,390.519,390.519,390.519,390.519,390.519
0.000317739	-1834365.41	0,1.08971e-05,2.45682e-05,4.17194e-05,6.32366e-05,9.02311e-05,0.000124097,0.000166584,0.000219887,0.000286758,0.000370652,0.000475902,0.000607943,0.000773598,0.00098142,0.00124215,0.00156924,0.0019796,0.00249442,0.0031403,0.00395058,0.00496713,0.00624245,0.00784242,0.00984967,0.0123679,0.0155271,0.0194906,0.024463,0.0307011,inf	390.421,390.421,390.421,390.421,390.421,390.421,390.421,390.421,390.421,390.421,390.421,390.421,390.421,390.421,390.421,390.421,390.421,390.421,390.421,390.421,390.421,390.421,390.421,390.421,390.421,390.421,390.421,390.421,390.421,390.421
0.000314007	-1834360.53	0,1.08971e-05,2.45682e-05,4.17194e-05,6.32366e-05,9.02311e-05,0.000124097,0.000166584,0.000219887,0.000286758,0.000370652,0.000475902,0.000607943,0.000773598,0.00098142,0.00124215,0.00156924,0.0019796,0.00249442,0.0031403,0.00395058,0.00496713,0.00624245,0.00784242,0.00984967,0.0123679,0.0155271,0.0194906,0.024463,0.0307011,inf	390.335,390.335,390.335,390.335,390.335,390.335,390.335,390.335,390.335,390.335,390.335,390.335,390.335,390.335,390.335,390.335,390.335,390.335,390.335,390.335,390.335,390.335,390.335,390.335,390.335,390.335,390.335,390.335,390.335,390.335
0.00031103	-1834357.25	0,1.08971e-05,2.45682e-05,4.17194e-05,6.32366e-05,9.02311e-05,0.000124097,0.000166584,0.000219887,0.000286758,0.000370652,0.000475902,0.000607943,0.000773598,0.00098142,0.00124215,0.00156924,0.0019796,0.00249442,0.0031403,0.00395058,0.00496713,0.00624245,0.00784242,0.00984967,0.0123679,0.0155271,0.0194906,0.024463,0.0307011,inf	390.303,390.303,390.303,390.303,390.303,390.303,390.303,390.303,390.303,390.303,390.303,390.303,390.303,390.303,390.303,390.303,390.303,390.303,390.303,390.303,390.303,390.303,390.303,390.303,390.303,390.303,390.303,390.303,390.303,390.303
0.000308649	-1834355.04	0,1.08971e-05,2.45682e-05,4.17194e-05,6.32366e-05,9.02311e-05,0.000124097,0.000166584,0.000219887,0.000286758,0.000370652,0.000475902,0.000607943,0.000773598,0.00098142,0.00124215,0.00156924,0.0019796,0.00249442,0.0031403,0.00395058,0.00496713,0.00624245,0.00784242,0.00984967,0.0123679,0.0155271,0.0194906,0.024463,0.0307011,inf	390.247,390.247,390.247,390.247,390.247,390.247,390.247,390.247,390.247,390.247,390.247,390.247,390.247,390.247,390.247,390.247,390.247,390.247,390.247,390.247,390.247,390.247,390.247,390.247,390.247,390.247,390.247,390.247,390.247,390.247
0.000306749	-1834353.55	0,1.08971e-05,2.45682e-05,4.17194e-05,6.32366e-05,9.02311e-05,0.000124097,0.000166584,0.000219887,0.000286758,0.000370652,0.000475902,0.000607943,0.000773598,0.00098142,0.00124215,0.00156924,0.0019796,0.00249442,0.0031403,0.00395058,0.00496713,0.00624245,0.00784242,0.00984967,0.0123679,0.0155271,0.0194906,0.024463,0.0307011,inf	390.19,390.19,390.19,390.19,390.19,390.19,390.19,390.19,390.19,390.19,390.19,390.19,390.19,390.19,390.19,390.19,390.19,390.19,390.19,390.19,390.19,390.19,390.19,390.19,390.19,390.19,390.19,390.19,390.19,390.19
0.000305233	-1834352.52	0,1.08971e-05,2.45682e-05,4.17194e-05,6.32366e-05,9.02311e-05,0.000124097,0.000166584,0.000219887,0.000286758,0.000370652,0.000475902,0.000607943,0.000773598,0.00098142,0.00124215,0.00156924,0.0019796,0.00249442,0.0031403,0.00395058,0.00496713,0.00624245,0.00784242,0.00984967,0.0123679,0.0155271,0.0194906,0.024463,0.0307011,inf	390.14,390.14,390.14,390.14,390.14,390.14,390.14,390.14,390.14,390.14,390.14,390.14,390.14,390.14,390.14,390.14,390.14,390.14,390.14,390.14,390.14,390.14,390.14,390.14,390.14,390.14,390.14,390.14,390.14,390.14
0.000304025	-1834351.82	0,1.08971e-05,2.45682e-05,4.17194e-05,6.32366e-05,9.02311e-05,0.000124097,0.000166584,0.000219887,0.000286758,0.000370652,0.000475902,0.000607943,0.000773598,0.00098142,0.00124215,0.00156924,0.0019796,0.00249442,0.0031403,0.00395058,0.00496713,0.00624245,0.00784242,0.00984967,0.0123679,0.0155271,0.0194906,0.024463,0.0307011,inf	390.098,390.098,390.098,390.098,390.098,390.098,390.098,390.098,390.098,390.098,390.098,390.098,390.098,390.098,390.098,390.098,390.098,390.098,390.098,390.098,390.098,390.098,390.098,390.098,390.098,390.098,390.098,390.098,390.098,390.098
