time_index	left_time_boundary	right_time_boundary	lambda
0	0	1.77223e-06	300.042
1	1.77223e-06	4.1067e-06	300.042
2	4.1067e-06	7.18177e-06	79.9881
3	7.18177e-06	1.12324e-05	296.931
4	1.12324e-05	1.65681e-05	337.604
5	1.65681e-05	2.35966e-05	443.464
6	2.35966e-05	3.28548e-05	450.72
7	3.28548e-05	4.50501e-05	454.311
8	4.50501e-05	6.11144e-05	562.067
9	6.11144e-05	8.22751e-05	710.132
10	8.22751e-05	0.000110149	837.162
11	0.000110149	0.000146866	894.979
12	0.000146866	0.000195231	864.853
13	0.000195231	0.00025894	773.154
14	0.00025894	0.000342861	659.918
15	0.000342861	0.000453405	552.44
16	0.000453405	0.00059902	464.143
17	0.00059902	0.00079083	398.803
18	0.00079083	0.00104349	354.519
19	0.00104349	0.00137631	326.937
20	0.00137631	0.00181472	311.524
21	0.00181472	0.0023922	304.603
22	0.0023922	0.0031529	303.542
23	0.0031529	0.00415492	306.742
24	0.00415492	0.00547484	313.491
25	0.00547484	0.0072135	323.523
26	0.0072135	0.00950374	336.573
27	0.00950374	0.0125206	358.293
28	0.0125206	0.0164945	358.293
29	0.0164945	0.0217291	406.392
30	0.0217291	0.0286244	406.392
31	0.0286244	inf	406.392
