0.000724361	-8645585.65	0,2.88752e-06,6.70083e-06,1.17368e-05,1.83874e-05,2.71703e-05,3.87691e-05,5.40869e-05,7.43158e-05,0.000101031,0.000136311,0.000182902,0.000244432,0.00032569,0.000433001,0.000574718,0.000761873,0.00100903,0.00133544,0.0017665,0.00233576,0.00308755,0.00408037,0.00539151,0.00712303,0.00940972,0.0124296,0.0164176,0.0216844,0.0286397,inf	410.218,410.218,410.218,410.218,410.218,410.218,410.218,410.218,410.218,410.218,410.218,410.218,410.218,410.218,410.218,410.218,410.218,410.218,410.218,410.218,410.218,410.218,410.218,410.218,410.218,410.218,410.218,410.218,410.218,410.218
0.000811514	-8641709.23	0,2.88752e-06,6.70083e-06,1.17368e-05,1.83874e-05,2.71703e-05,3.87691e-05,5.40869e-05,7.43158e-05,0.000101031,0.000136311,0.000182902,0.000244432,0.00032569,0.000433001,0.000574718,0.000761873,0.00100903,0.00133544,0.0017665,0.00233576,0.00308755,0.00408037,0.00539151,0.00712303,0.00940972,0.0124296,0.0164176,0.0216844,0.0286397,inf	415.445,415.445,415.445,415.445,415.445,415.445,415.445,415.445,415.445,415.445,415.445,415.445,415.445,415.445,415.445,415.445,415.445,415.445,415.445,415.445,415.445,415.445,415.445,415.445,415.445,415.445,415.445,415.445,415.445,415.445
0.000892934	-8638716.05	0,2.88752e-06,6.70083e-06,1.17368e-05,1.83874e-05,2.71703e-05,3.87691e-05,5.40869e-05,7.43158e-05,0.000101031,0.000136311,0.000182902,0.000244432,0.00032569,0.000433001,0.000574718,0.000761873,0.00100903,0.00133544,0.0017665,0.00233576,0.00308755,0.00408037,0.00539151,0.00712303,0.00940972,0.0124296,0.0164176,0.0216844,0.0286397,inf	417.033,417.033,417.033,417.033,417.033,417.033,417.033,417.033,417.033,417.033,417.033,417.033,417.033,417.033,417.033,417.033,417.033,417.033,417.033,417.033,417.033,417.033,417.033,417.033,417.033,417.033,417.033,417.033,417.033,417.033
0.000969406	-8636305.68	0,2.88752e-06,6.70083e-06,1.17368e-05,1.83874e-05,2.71703e-05,3.87691e-05,5.40869e-05,7.43158e-05,0.000101031,0.000136311,0.000182902,0.000244432,0.00032569,0.000433001,0.000574718,0.000761873,0.00100903,0.00133544,0.0017665,0.00233576,0.00308755,0.00408037,0.00539151,0.00712303,0.00940972,0.0124296,0.0164176,0.0216844,0.0286397,inf	417.063,417.063,417.063,417.063,417.063,417.063,417.063,417.063,417.063,417.063,417.063,417.063,417.063,417.063,417.063,417.063,417.063,417.063,417.063,417.063,417.063,417.063,417.063,417.063,417.063,417.063,417.063,417.063,417.063,417.063
0.00104148	-8634324.75	0,2.88752e-06,6.70083e-06,1.17368e-05,1.83874e-05,2.71703e-05,3.87691e-05,5.40869e-05,7.43158e-05,0.000101031,0.000136311,0.000182902,0.000244432,0.00032569,0.000433001,0.000574718,0.000761873,0.00100903,0.00133544,0.0017665,0.00233576,0.00308755,0.00408037,0.00539151,0.00712303,0.00940972,0.0124296,0.0164176,0.0216844,0.0286397,inf	416.437,416.437,416.437,416.437,416.437,416.437,416.437,416.437,416.437,416.437,416.437,416.437,416.437,416.437,416.437,416.437,416.437,416.437,416.437,416.437,416.437,416.437,416.437,416.437,416.437,416.437,416.437,416.437,416.437,416.437
0.00110956	-8632674.91	0,2.88752e-06,6.70083e-06,1.17368e-05,1.83874e-05,2.71703e-05,3.87691e-05,5.40869e-05,7.43158e-05,0.000101031,0.000136311,0.000182902,0.000244432,0.00032569,0.000433001,0.000574718,0.000761873,0.00100903,0.00133544,0.0017665,0.00233576,0.00308755,0.00408037,0.00539151,0.00712303,0.00940972,0.0124296,0.0164176,0.0216844,0.0286397,inf	415.554,415.554,415.554,415.554,415.554,415.554,415.554,415.554,415.554,415.554,415.554,415.554,415.554,415.554,415.554,415.554,415.554,415.554,415.554,415.554,415.554,415.554,415.554,415.554,415.554,415.554,415.554,415.554,415.554,415.554
0.00117398	-8631286.36	0,2.88752e-06,6.70083e-06,1.17368e-05,1.83874e-05,2.71703e-05,3.87691e-05,5.40869e-05,7.43158e-05,0.000101031,0.000136311,0.000182902,0.000244432,0.00032569,0.000433001,0.000574718,0.000761873,0.00100903,0.00133544,0.0017665,0.00233576,0.00308755,0.00408037,0.00539151,0.00712303,0.00940972,0.0124296,0.0164176,0.0216844,0.0286397,inf	414.59,414.59,414.59,414.59,414.59,414.59,414.59,414.59,414.59,414.59,414.59,414.59,414.59,414.59,414.59,414.59,414.59,414.59,414.59,414.59,414.59,414.59,414.59,414.59,414.59,414.59,414.59,414.59,414.59,414.59
0.001235	-8630107.34	0,2.88752e-06,6.70083e-06,1.17368e-05,1.83874e-05,2.71703e-05,3.87691e-05,5.40869e-05,7.43158e-05,0.000101031,0.000136311,0.000182902,0.000244432,0.00032569,0.000433001,0.000574718,0.000761873,0.00100903,0.00133544,0.0017665,0.00233576,0.00308755,0.00408037,0.00539151,0.00712303,0.00940972,0.0124296,0.0164176,0.0216844,0.0286397,inf	413.623,413.623,413.623,413.623,413.623,413.623,413.623,413.623,413.623,413.623,413.623,413.623,413.623,413.623,413.623,413.623,413.623,413.623,413.623,413.623,413.623,413.623,413.623,413.623,413.623,413.623,413.623,413.623,413.623,413.623
0.00129287	-8629098.45	0,2.88752e-06,6.70083e-06,1.17368e-05,1.83874e-05,2.71703e-05,3.87691e-05,5.40869e-05,7.43158e-05,0.000101031,0.000136311,0.000182902,0.000244432,0.00032569,0.000433001,0.000574718,0.000761873,0.00100903,0.00133544,0.0017665,0.00233576,0.00308755,0.00408037,0.00539151,0.00712303,0.00940972,0.0124296,0.0164176,0.0216844,0.0286397,inf	412.689,412.689,412.689,412.689,412.689,412.689,412.689,412.689,412.689,412.689,412.689,412.689,412.689,412.689,412.689,412.689,412.689,412.689,412.689,412.689,412.689,412.689,412.689,412.689,412.689,412.689,412.689,412.689,412.689,412.689
0.00134779	-8628229.22	0,2.88752e-06,6.70083e-06,1.17368e-05,1.83874e-05,2.71703e-05,3.87691e-05,5.40869e-05,7.43158e-05,0.000101031,0.000136311,0.000182902,0.000244432,0.00032569,0.000433001,0.000574718,0.000761873,0.00100903,0.00133544,0.0017665,0.00233576,0.00308755,0.00408037,0.00539151,0.00712303,0.00940972,0.0124296,0.0164176,0.0216844,0.0286397,inf	411.8,411.8,411.8,411.8,411.8,411.8,411.8,411.8,411.8,411.8,411.8,411.8,411.8,411.8,411.8,411.8,411.8,411.8,411.8,411.8,411.8,411.8,411.8,411.8,411.8,411.8,411.8,411.8,411.8,411.8
0.00139996	-8627475.72	0,2.88752e-06,6.70083e-06,1.17368e-05,1.83874e-05,2.71703e-05,3.87691e-05,5.40869e-05,7.43158e-05,0.000101031,0.000136311,0.000182902,0.000244432,0.00032569,0.000433001,0.000574718,0.000761873,0.00100903,0.00133544,0.0017665,0.00233576,0.00308755,0.00408037,0.00539151,0.00712303,0.00940972,0.0124296,0.0164176,0.0216844,0.0286397,inf	410.962,410.962,410.962,410.962,410.962,410.962,410.962,410.962,410.962,410.962,410.962,410.962,410.962,410.962,410.962,410.962,410.962,410.962,410.962,410.962,410.962,410.962,410.962,410.962,410.962,410.962,410.962,410.962,410.962,410.962
0.00144956	-8626818.96	0,2.88752e-06,6.70083e-06,1.17368e-05,1.83874e-05,2.71703e-05,3.87691e-05,5.40869e-05,7.43158e-05,0.000101031,0.000136311,0.000182902,0.000244432,0.00032569,0.000433001,0.000574718,0.000761873,0.00100903,0.00133544,0.0017665,0.00233576,0.00308755,0.00408037,0.00539151,0.00712303,0.00940972,0.0124296,0.0164176,0.0216844,0.0286397,inf	410.174,410.174,410.174,410.174,410.174,410.174,410.174,410.174,410.174,410.174,410.174,410.174,410.174,410.174,410.174,410.174,410.174,410.174,410.174,410.174,410.174,410.174,410.174,410.174,410.174,410.174,410.174,410.174,410.174,410.174
0.00149674	-8626243.65	0,2.88752e-06,6.70083e-06,1.17368e-05,1.83874e-05,2.71703e-05,3.87691e-05,5.40869e-05,7.43158e-05,0.000101031,0.000136311,0.000182902,0.000244432,0.00032569,0.000433001,0.000574718,0.000761873,0.00100903,0.00133544,0.0017665,0.00233576,0.00308755,0.00408037,0.00539151,0.00712303,0.00940972,0.0124296,0.0164176,0.0216844,0.0286397,inf	409.434,409.434,409.434,409.434,409.434,409.434,409.434,409.434,409.434,409.434,409.434,409.434,409.434,409.434,409.434,409.434,409.434,409.434,409.434,409.434,409.434,409.434,409.434,409.434,409.434,409.434,409.434,409.434,409.434,409.434
0.00154166	-8625737.43	0,2.88752e-06,6.70083e-06,1.17368e-05,1.83874e-05,2.71703e-05,3.87691e-05,5.40869e-05,7.43158e-05,0.000101031,0.000136311,0.000182902,0.000244432,0.00032569,0.000433001,0.000574718,0.000761873,0.00100903,0.00133544,0.0017665,0.00233576,0.00308755,0.00408037,0.00539151,0.00712303,0.00940972,0.0124296,0.0164176,0.0216844,0.0286397,inf	408.739,408.739,408.739,408.739,408.739,408.739,408.739,408.739,408.739,408.739,408.739,408.739,408.739,408.739,408.739,408.739,408.739,408.739,408.739,408.739,408.739,408.739,408.739,408.739,408.739,408.739,408.739,408.739,408.739,408.739
0.00158445	-8625290.14	0,2.88752e-06,6.70083e-06,1.17368e-05,1.83874e-05,2.71703e-05,3.87691e-05,5.40869e-05,7.43158e-05,0.000101031,0.000136311,0.000182902,0.000244432,0.00032569,0.000433001,0.000574718,0.000761873,0.00100903,0.00133544,0.0017665,0.00233576,0.00308755,0.00408037,0.00539151,0.00712303,0.00940972,0.0124296,0.0164176,0.0216844,0.0286397,inf	408.087,408.087,408.087,408.087,408.087,408.087,408.087,408.087,408.087,408.087,408.087,408.087,408.087,408.087,408.087,408.087,408.087,408.087,408.087,408.087,408.087,408.087,408.087,408.087,408.087,408.087,408.087,408.087,408.087,408.087
0.00162524	-8624893.44	0,2.88752e-06,6.70083e-06,1.17368e-05,1.83874e-05,2.71703e-05,3.87691e-05,5.40869e-05,7.43158e-05,0.000101031,0.000136311,0.000182902,0.000244432,0.00032569,0.000433001,0.000574718,0.000761873,0.00100903,0.00133544,0.0017665,0.00233576,0.00308755,0.00408037,0.00539151,0.00712303,0.00940972,0.0124296,0.0164176,0.0216844,0.0286397,inf	407.475,407.475,407.475,407.475,407.475,407.475,407.475,407.475,407.475,407.475,407.475,407.475,407.475,407.475,407.475,407.475,407.475,407.475,407.475,407.475,407.475,407.475,407.475,407.475,407.475,407.475,407.475,407.475,407.475,407.475
0.00166415	-8624540.39	0,2.88752e-06,6.70083e-06,1.17368e-05,1.83874e-05,2.71703e-05,3.87691e-05,5.40869e-05,7.43158e-05,0.000101031,0.000136311,0.000182902,0.000244432,0.00032569,0.000433001,0.000574718,0.000761873,0.00100903,0.00133544,0.0017665,0.00233576,0.00308755,0.00408037,0.00539151,0.00712303,0.00940972,0.0124296,0.0164176,0.0216844,0.0286397,inf	406.899,406.899,406.899,406.899,406.899,406.899,406.899,406.899,406.899,406.899,406.899,406.899,406.899,406.899,406.899,406.899,406.899,406.899,406.899,406.899,406.899,406.899,406.899,406.899,406.899,406.899,406.899,406.899,406.899,406.899
0.00170128	-8624225.16	0,2.88752e-06,6.70083e-06,1.17368e-05,1.83874e-05,2.71703e-05,3.87691e-05,5.40869e-05,7.43158e-05,0.000101031,0.000136311,0.000182902,0.000244432,0.00032569,0.000433001,0.000574718,0.000761873,0.00100903,0.00133544,0.0017665,0.00233576,0.00308755,0.00408037,0.00539151,0.00712303,0.00940972,0.0124296,0.0164176,0.0216844,0.0286397,inf	406.357,406.357,406.357,406.357,406.357,406.357,406.357,406.357,406.357,406.357,406.357,406.357,406.357,406.357,406.357,406.357,406.357,406.357,406.357,406.357,406.357,406.357,406.357,406.357,406.357,406.357,406.357,406.357,406.357,406.357
0.00173674	-8623942.87	0,2.88752e-06,6.70083e-06,1.17368e-05,1.83874e-05,2.71703e-05,3.87691e-05,5.40869e-05,7.43158e-05,0.000101031,0.000136311,0.000182902,0.000244432,0.00032569,0.000433001,0.000574718,0.000761873,0.00100903,0.00133544,0.0017665,0.00233576,0.00308755,0.00408037,0.00539151,0.00712303,0.00940972,0.0124296,0.0164176,0.0216844,0.0286397,inf	405.846,405.846,405.846,405.846,405.846,405.846,405.846,405.846,405.846,405.846,405.846,405.846,405.846,405.846,405.846,405.846,405.846,405.846,405.846,405.846,405.846,405.846,405.846,405.846,405.846,405.846,405.846,405.846,405.846,405.846
0.00177061	-8623689.38	0,2.88752e-06,6.70083e-06,1.17368e-05,1.83874e-05,2.71703e-05,3.87691e-05,5.40869e-05,7.43158e-05,0.000101031,0.000136311,0.000182902,0.000244432,0.00032569,0.000433001,0.000574718,0.000761873,0.00100903,0.00133544,0.0017665,0.00233576,0.00308755,0.00408037,0.00539151,0.00712303,0.00940972,0.0124296,0.0164176,0.0216844,0.0286397,inf	405.364,405.364,405.364,405.364,405.364,405.364,405.364,405.364,405.364,405.364,405.364,405.364,405.364,405.364,405.364,405.364,405.364,405.364,405.364,405.364,405.364,405.364,405.364,405.364,405.364,405.364,405.364,405.364,405.364,405.364
