time_index	left_time_boundary	right_time_boundary	lambda
0	0	1.91453e-06	404.918
1	1.91453e-06	4.48321e-06	404.918
2	4.48321e-06	7.92952e-06	404.918
3	7.92952e-06	1.25533e-05	404.918
4	1.25533e-05	1.8757e-05	404.918
5	1.8757e-05	2.70802e-05	404.918
6	2.70802e-05	3.82472e-05	404.918
7	3.82472e-05	5.32296e-05	404.918
8	5.32296e-05	7.33311e-05	404.918
9	7.33311e-05	0.000100301	404.918
10	0.000100301	0.000136485	404.918
11	0.000136485	0.000185032	404.918
12	0.000185032	0.000250166	404.918
13	0.000250166	0.000337555	404.918
14	0.000337555	0.000454802	404.918
15	0.000454802	0.000612109	404.918
16	0.000612109	0.000823163	404.918
17	0.000823163	0.00110633	404.918
18	0.00110633	0.00148624	404.918
19	0.00148624	0.00199596	404.918
20	0.00199596	0.00267983	404.918
21	0.00267983	0.00359736	404.918
22	0.00359736	0.00482838	404.918
23	0.00482838	0.00648001	404.918
24	0.00648001	0.00869595	404.918
25	0.00869595	0.011669	404.918
26	0.011669	0.0156579	404.918
27	0.0156579	0.0210096	404.918
28	0.0210096	0.0281899	404.918
29	0.0281899	inf	404.918
