0.000713795	-1837842.05	0,1.0606e-05,2.39118e-05,4.06047e-05,6.15469e-05,8.78202e-05,0.000120782,0.000162133,0.000214012,0.000279096,0.000360748,0.000463186,0.0005917,0.000752928,0.000955197,0.00120896,0.00152731,0.00192671,0.00242777,0.00305639,0.00384503,0.00483441,0.00607566,0.00763288,0.00958649,0.0120374,0.0151123,0.0189698,0.0238093,0.0298808,inf	410.224,410.224,410.224,410.224,410.224,410.224,410.224,410.224,410.224,410.224,410.224,410.224,410.224,410.224,410.224,410.224,410.224,410.224,410.224,410.224,410.224,410.224,410.224,410.224,410.224,410.224,410.224,410.224,410.224,410.224
0.000797085	-1837049.78	0,1.0606e-05,2.39118e-05,4.06047e-05,6.15469e-05,8.78202e-05,0.000120782,0.000162133,0.000214012,0.000279096,0.000360748,0.000463186,0.0005917,0.000752928,0.000955197,0.00120896,0.00152731,0.00192671,0.00242777,0.00305639,0.00384503,0.00483441,0.00607566,0.00763288,0.00958649,0.0120374,0.0151123,0.0189698,0.0238093,0.0298808,inf	414.219,414.219,414.219,414.219,414.219,414.219,414.219,414.219,414.219,414.219,414.219,414.219,414.219,414.219,414.219,414.219,414.219,414.219,414.219,414.219,414.219,414.219,414.219,414.219,414.219,414.219,414.219,414.219,414.219,414.219
0.000875514	-1836424.29	0,1.0606e-05,2.39118e-05,4.06047e-05,6.15469e-05,8.78202e-05,0.000120782,0.000162133,0.000214012,0.000279096,0.000360748,0.000463186,0.0005917,0.000752928,0.000955197,0.00120896,0.00152731,0.00192671,0.00242777,0.00305639,0.00384503,0.00483441,0.00607566,0.00763288,0.00958649,0.0120374,0.0151123,0.0189698,0.0238093,0.0298808,inf	415.477,415.477,415.477,415.477,415.477,415.477,415.477,415.477,415.477,415.477,415.477,415.477,415.477,415.477,415.477,415.477,415.477,415.477,415.477,415.477,415.477,415.477,415.477,415.477,415.477,415.477,415.477,415.477,415.477,415.477
0.000949599	-1835915.50	0,1.0606e-05,2.39118e-05,4.06047e-05,6.15469e-05,8.78202e-05,0.000120782,0.000162133,0.000214012,0.000279096,0.000360748,0.000463186,0.0005917,0.000752928,0.000955197,0.00120896,0.00152731,0.00192671,0.00242777,0.00305639,0.00384503,0.00483441,0.00607566,0.00763288,0.00958649,0.0120374,0.0151123,0.0189698,0.0238093,0.0298808,inf	415.526,415.526,415.526,415.526,415.526,415.526,415.526,415.526,415.526,415.526,415.526,415.526,415.526,415.526,415.526,415.526,415.526,415.526,415.526,415.526,415.526,415.526,415.526,415.526,415.526,415.526,415.526,415.526,415.526,415.526
0.00101972	-1835494.63	0,1.0606e-05,2.39118e-05,4.06047e-05,6.15469e-05,8.78202e-05,0.000120782,0.000162133,0.000214012,0.000279096,0.000360748,0.000463186,0.0005917,0.000752928,0.000955197,0.00120896,0.00152731,0.00192671,0.00242777,0.00305639,0.00384503,0.00483441,0.00607566,0.00763288,0.00958649,0.0120374,0.0151123,0.0189698,0.0238093,0.0298808,inf	415.043,415.043,415.043,415.043,415.043,415.043,415.043,415.043,415.043,415.043,415.043,415.043,415.043,415.043,415.043,415.043,415.043,415.043,415.043,415.043,415.043,415.043,415.043,415.043,415.043,415.043,415.043,415.043,415.043,415.043
0.00108619	-1835142.30	0,1.0606e-05,2.39118e-05,4.06047e-05,6.15469e-05,8.78202e-05,0.000120782,0.000162133,0.000214012,0.000279096,0.000360748,0.000463186,0.0005917,0.000752928,0.000955197,0.00120896,0.00152731,0.00192671,0.00242777,0.00305639,0.00384503,0.00483441,0.00607566,0.00763288,0.00958649,0.0120374,0.0151123,0.0189698,0.0238093,0.0298808,inf	414.335,414.335,414.335,414.335,414.335,414.335,414.335,414.335,414.335,414.335,414.335,414.335,414.335,414.335,414.335,414.335,414.335,414.335,414.335,414.335,414.335,414.335,414.335,414.335,414.335,414.335,414.335,414.335,414.335,414.335
0.00114926	-1834844.46	0,1.0606e-05,2.39118e-05,4.06047e-05,6.15469e-05,8.78202e-05,0.000120782,0.000162133,0.000214012,0.000279096,0.000360748,0.000463186,0.0005917,0.000752928,0.000955197,0.00120896,0.00152731,0.00192671,0.00242777,0.00305639,0.00384503,0.00483441,0.00607566,0.00763288,0.00958649,0.0120374,0.0151123,0.0189698,0.0238093,0.0298808,inf	413.545,413.545,413.545,413.545,413.545,413.545,413.545,413.545,413.545,413.545,413.545,413.545,413.545,413.545,413.545,413.545,413.545,413.545,413.545,413.545,413.545,413.545,413.545,413.545,413.545,413.545,413.545,413.545,413.545,413.545
0.00120916	-1834590.57	0,1.0606e-05,2.39118e-05,4.06047e-05,6.15469e-05,8.78202e-05,0.000120782,0.000162133,0.000214012,0.000279096,0.000360748,0.000463186,0.0005917,0.000752928,0.000955197,0.00120896,0.00152731,0.00192671,0.00242777,0.00305639,0.00384503,0.00483441,0.00607566,0.00763288,0.00958649,0.0120374,0.0151123,0.0189698,0.0238093,0.0298808,inf	412.738,412.738,412.738,412.738,412.738,412.738,412.738,412.738,412.738,412.738,412.738,412.738,412.738,412.738,412.738,412.738,412.738,412.738,412.738,412.738,412.738,412.738,412.738,412.738,412.738,412.738,412.738,412.738,412.738,412.738
0.00126608	-1834372.56	0,1.0606e-05,2.39118e-05,4.06047e-05,6.15469e-05,8.78202e-05,0.000120782,0.000162133,0.000214012,0.000279096,0.000360748,0.000463186,0.0005917,0.000752928,0.000955197,0.00120896,0.00152731,0.00192671,0.00242777,0.00305639,0.00384503,0.00483441,0.00607566,0.00763288,0.00958649,0.0120374,0.0151123,0.0189698,0.0238093,0.0298808,inf	411.946,411.946,411.946,411.946,411.946,411.946,411.946,411.946,411.946,411.946,411.946,411.946,411.946,411.946,411.946,411.946,411.946,411.946,411.946,411.946,411.946,411.946,411.946,411.946,411.946,411.946,411.946,411.946,411.946,411.946
0.00132022	-1834184.14	0,1.0606e-05,2.39118e-05,4.06047e-05,6.15469e-05,8.78202e-05,0.000120782,0.000162133,0.000214012,0.000279096,0.000360748,0.000463186,0.0005917,0.000752928,0.000955197,0.00120896,0.00152731,0.00192671,0.00242777,0.00305639,0.00384503,0.00483441,0.00607566,0.00763288,0.00958649,0.0120374,0.0151123,0.0189698,0.0238093,0.0298808,inf	411.182,411.182,411.182,411.182,411.182,411.182,411.182,411.182,411.182,411.182,411.182,411.182,411.182,411.182,411.182,411.182,411.182,411.182,411.182,411.182,411.182,411.182,411.182,411.182,411.182,411.182,411.182,411.182,411.182,411.182
0.00137175	-1834020.34	0,1.0606e-05,2.39118e-05,4.06047e-05,6.15469e-05,8.78202e-05,0.000120782,0.000162133,0.000214012,0.000279096,0.000360748,0.000463186,0.0005917,0.000752928,0.000955197,0.00120896,0.00152731,0.00192671,0.00242777,0.00305639,0.00384503,0.00483441,0.00607566,0.00763288,0.00958649,0.0120374,0.0151123,0.0189698,0.0238093,0.0298808,inf	410.453,410.453,410.453,410.453,410.453,410.453,410.453,410.453,410.453,410.453,410.453,410.453,410.453,410.453,410.453,410.453,410.453,410.453,410.453,410.453,410.453,410.453,410.453,410.453,410.453,410.453,410.453,410.453,410.453,410.453
0.00142083	-1833877.20	0,1.0606e-05,2.39118e-05,4.06047e-05,6.15469e-05,8.78202e-05,0.000120782,0.000162133,0.000214012,0.000279096,0.000360748,0.000463186,0.0005917,0.000752928,0.000955197,0.00120896,0.00152731,0.00192671,0.00242777,0.00305639,0.00384503,0.00483441,0.00607566,0.00763288,0.00958649,0.0120374,0.0151123,0.0189698,0.0238093,0.0298808,inf	409.761,409.761,409.761,409.761,409.761,409.761,409.761,409.761,409.761,409.761,409.761,409.761,409.761,409.761,409.761,409.761,409.761,409.761,409.761,409.761,409.761,409.761,409.761,409.761,409.761,409.761,409.761,409.761,409.761,409.761
0.0014676	-1833751.51	0,1.0606e-05,2.39118e-05,4.06047e-05,6.15469e-05,8.78202e-05,0.000120782,0.000162133,0.000214012,0.000279096,0.000360748,0.000463186,0.0005917,0.000752928,0.000955197,0.00120896,0.00152731,0.00192671,0.00242777,0.00305639,0.00384503,0.00483441,0.00607566,0.00763288,0.00958649,0.0120374,0.0151123,0.0189698,0.0238093,0.0298808,inf	409.105,409.105,409.105,409.105,409.105,409.105,409.105,409.105,409.105,409.105,409.105,409.105,409.105,409.105,409.105,409.105,409.105,409.105,409.105,409.105,409.105,409.105,409.105,409.105,409.105,409.105,409.105,409.105,409.105,409.105
0.0015122	-1833640.66	0,1.0606e-05,2.39118e-05,4.06047e-05,6.15469e-05,8.78202e-05,0.000120782,0.000162133,0.000214012,0.000279096,0.000360748,0.000463186,0.0005917,0.000752928,0.000955197,0.00120896,0.00152731,0.00192671,0.00242777,0.00305639,0.00384503,0.00483441,0.00607566,0.00763288,0.00958649,0.0120374,0.0151123,0.0189698,0.0238093,0.0298808,inf	408.484,408.484,408.484,408.484,408.484,408.484,408.484,408.484,408.484,408.484,408.484,408.484,408.484,408.484,408.484,408.484,408.484,408.484,408.484,408.484,408.484,408.484,408.484,408.484,408.484,408.484,408.484,408.484,408.484,408.484
0.00155476	-1833542.51	0,1.0606e-05,2.39118e-05,4.06047e-05,6.15469e-05,8.78202e-05,0.000120782,0.000162133,0.000214012,0.000279096,0.000360748,0.000463186,0.0005917,0.000752928,0.000955197,0.00120896,0.00152731,0.00192671,0.00242777,0.00305639,0.00384503,0.00483441,0.00607566,0.00763288,0.00958649,0.0120374,0.0151123,0.0189698,0.0238093,0.0298808,inf	407.897,407.897,407.897,407.897,407.897,407.897,407.897,407.897,407.897,407.897,407.897,407.897,407.897,407.897,407.897,407.897,407.897,407.897,407.897,407.897,407.897,407.897,407.897,407.897,407.897,407.897,407.897,407.897,407.897,407.897
0.0015954	-1833455.29	0,1.0606e-05,2.39118e-05,4.06047e-05,6.15469e-05,8.78202e-05,0.000120782,0.000162133,0.000214012,0.000279096,0.000360748,0.000463186,0.0005917,0.000752928,0.000955197,0.00120896,0.00152731,0.00192671,0.00242777,0.00305639,0.00384503,0.00483441,0.00607566,0.00763288,0.00958649,0.0120374,0.0151123,0.0189698,0.0238093,0.0298808,inf	407.341,407.341,407.341,407.341,407.341,407.341,407.341,407.341,407.341,407.341,407.341,407.341,407.341,407.341,407.341,407.341,407.341,407.341,407.341,407.341,407.341,407.341,407.341,407.341,407.341,407.341,407.341,407.341,407.341,407.341
0.00163422	-1833377.52	0,1.0606e-05,2.39118e-05,4.06047e-05,6.15469e-05,8.78202e-05,0.000120782,0.000162133,0.000214012,0.000279096,0.000360748,0.000463186,0.0005917,0.000752928,0.000955197,0.00120896,0.00152731,0.00192671,0.00242777,0.00305639,0.00384503,0.00483441,0.00607566,0.00763288,0.00958649,0.0120374,0.0151123,0.0189698,0.0238093,0.0298808,inf	406.815,406.815,406.815,406.815,406.815,406.815,406.815,406.815,406.815,406.815,406.815,406.815,406.815,406.815,406.815,406.815,406.815,406.815,406.815,406.815,406.815,406.815,406.815,406.815,406.815,406.815,406.815,406.815,406.815,406.815
0.00167132	-1833307.96	0,1.0606e-05,2.39118e-05,4.06047e-05,6.15469e-05,8.78202e-05,0.000120782,0.000162133,0.000214012,0.000279096,0.000360748,0.000463186,0.0005917,0.000752928,0.000955197,0.00120896,0.00152731,0.00192671,0.00242777,0.00305639,0.00384503,0.00483441,0.00607566,0.00763288,0.00958649,0.0120374,0.0151123,0.0189698,0.0238093,0.0298808,inf	406.318,406.318,406.318,406.318,406.318,406.318,406.318,406.318,406.318,406.318,406.318,406.318,406.318,406.318,406.318,406.318,406.318,406.318,406.318,406.318,406.318,406.318,406.318,406.318,406.318,406.318,406.318,406.318,406.318,406.318
0.00170681	-1833245.57	0,1.0606e-05,2.39118e-05,4.06047e-05,6.15469e-05,8.78202e-05,0.000120782,0.000162133,0.000214012,0.000279096,0.000360748,0.000463186,0.0005917,0.000752928,0.000955197,0.00120896,0.00152731,0.00192671,0.00242777,0.00305639,0.00384503,0.00483441,0.00607566,0.00763288,0.00958649,0.0120374,0.0151123,0.0189698,0.0238093,0.0298808,inf	405.847,405.847,405.847,405.847,405.847,405.847,405.847,405.847,405.847,405.847,405.847,405.847,405.847,405.847,405.847,405.847,405.847,405.847,405.847,405.847,405.847,405.847,405.847,405.847,405.847,405.847,405.847,405.847,405.847,405.847
0.00174076	-1833189.44	0,1.0606e-05,2.39118e-05,4.06047e-05,6.15469e-05,8.78202e-05,0.000120782,0.000162133,0.000214012,0.000279096,0.000360748,0.000463186,0.0005917,0.000752928,0.000955197,0.00120896,0.00152731,0.00192671,0.00242777,0.00305639,0.00384503,0.00483441,0.00607566,0.00763288,0.00958649,0.0120374,0.0151123,0.0189698,0.0238093,0.0298808,inf	405.4,405.4,405.4,405.4,405.4,405.4,405.4,405.4,405.4,405.4,405.4,405.4,405.4,405.4,405.4,405.4,405.4,405.4,405.4,405.4,405.4,405.4,405.4,405.4,405.4,405.4,405.4,405.4,405.4,405.4
