time_index	left_time_boundary	right_time_boundary	lambda
0	0	1.04022e-05	357.751
1	1.04022e-05	2.72542e-05	357.751
2	2.72542e-05	5.45548e-05	476.051
3	5.45548e-05	9.87828e-05	329.876
4	9.87828e-05	0.000170433	330.833
5	0.000170433	0.00028651	405.645
6	0.00028651	0.000474557	347.728
7	0.000474557	0.0007792	327.208
8	0.0007792	0.00127273	383.614
9	0.00127273	0.00207227	420.206
10	0.00207227	0.00336754	412.057
11	0.00336754	0.00546592	364.087
12	0.00546592	0.00886537	344.304
13	0.00886537	0.0143726	50255.2
14	0.0143726	0.0232944	50255.2
15	0.0232944	inf	50255.2
