0.00073186	-307993.69	0,9.25969e-05,0.000219299,0.000392666,0.000629888,0.000954482,0.00139863,0.00200636,0.00283793,0.00397578,0.00553272,0.0076631,0.0105781,0.0145668,0.0200246,0.0274925,inf	362.822,362.822,355.743,350.536,357.499,374.71,400.177,421.124,431.303,431.566,431.999,432.881,437.696,496.589,496.589,496.589
0.000828028	-307829.41	0,9.25969e-05,0.000219299,0.000392666,0.000629888,0.000954482,0.00139863,0.00200636,0.00283793,0.00397578,0.00553272,0.0076631,0.0105781,0.0145668,0.0200246,0.0274925,inf	361.337,361.337,350.893,337.358,344.236,366.278,401.312,431.232,447.406,449.718,453.833,458.348,473.854,650.811,650.811,650.811
0.000916745	-307718.42	0,9.25969e-05,0.000219299,0.000392666,0.000629888,0.000954482,0.00139863,0.00200636,0.00283793,0.00397578,0.00553272,0.0076631,0.0105781,0.0145668,0.0200246,0.0274925,inf	363.331,363.331,354.884,333.859,339.689,362.784,401.414,434.849,454.219,458.795,467.66,477.07,509.705,978.873,978.873,978.873
0.000998766	-307635.96	0,9.25969e-05,0.000219299,0.000392666,0.000629888,0.000954482,0.00139863,0.00200636,0.00283793,0.00397578,0.00553272,0.0076631,0.0105781,0.0145668,0.0200246,0.0274925,inf	363.684,363.684,360.956,333.789,338.818,361.551,401.127,435.355,456.104,462.604,476.263,491.109,549.087,2361.66,2361.66,2361.66
0.000998766	-307571.86	0,9.25969e-05,0.000219299,0.000392666,0.000629888,0.000954482,0.00139863,0.00200636,0.00283793,0.00397578,0.00553272,0.0076631,0.0105781,0.0145668,0.0200246,0.0274925,inf	355.509,355.509,359.733,328.072,332.533,353.819,392.206,425.547,447.213,456.571,475.636,497.277,592.948,55924.5,55924.5,55924.5
0.000998766	-307573.04	0,9.25969e-05,0.000219299,0.000392666,0.000629888,0.000954482,0.00139863,0.00200636,0.00283793,0.00397578,0.00553272,0.0076631,0.0105781,0.0145668,0.0200246,0.0274925,inf	352.652,352.652,363.017,327.334,331.532,351.506,388.653,420.197,441.551,452.507,475.943,504.224,592.948,55924.5,55924.5,55924.5
0.000998766	-307573.10	0,9.25969e-05,0.000219299,0.000392666,0.000629888,0.000954482,0.00139863,0.00200636,0.00283793,0.00397578,0.00553272,0.0076631,0.0105781,0.0145668,0.0200246,0.0274925,inf	350.2,350.2,363.017,327.321,331.928,351.1,387.306,417.223,437.782,449.605,476.98,507.782,592.948,55924.5,55924.5,55924.5
0.000998766	-307573.16	0,9.25969e-05,0.000219299,0.000392666,0.000629888,0.000954482,0.00139863,0.00200636,0.00283793,0.00397578,0.00553272,0.0076631,0.0105781,0.0145668,0.0200246,0.0274925,inf	348.64,348.64,364.999,327.321,331.928,351.1,387.034,415.504,435.097,447.392,478.488,509.457,592.948,55924.5,55924.5,55924.5
0.000998766	-307573.20	0,9.25969e-05,0.000219299,0.000392666,0.000629888,0.000954482,0.00139863,0.00200636,0.00283793,0.00397578,0.00553272,0.0076631,0.0105781,0.0145668,0.0200246,0.0274925,inf	347.204,347.204,366.436,327.321,331.928,351.1,387.034,414.515,433.083,445.613,480.318,510.138,592.948,55924.5,55924.5,55924.5
0.000998766	-307573.26	0,9.25969e-05,0.000219299,0.000392666,0.000629888,0.000954482,0.00139863,0.00200636,0.00283793,0.00397578,0.00553272,0.0076631,0.0105781,0.0145668,0.0200246,0.0274925,inf	345.992,345.992,367.65,327.321,331.928,351.1,387.034,413.997,431.515,444.12,482.382,510.177,592.955,55924.5,55924.5,55924.5
0.000998766	-307573.33	0,9.25969e-05,0.000219299,0.000392666,0.000629888,0.000954482,0.00139863,0.00200636,0.00283793,0.00397578,0.00553272,0.0076631,0.0105781,0.0145668,0.0200246,0.0274925,inf	344.976,344.976,367.651,327.243,332.528,351.1,387.034,413.799,430.253,442.836,484.071,510.177,592.955,55924.5,55924.5,55924.5
0.000998766	-307573.36	0,9.25969e-05,0.000219299,0.000392666,0.000629888,0.000954482,0.00139863,0.00200636,0.00283793,0.00397578,0.00553272,0.0076631,0.0105781,0.0145668,0.0200246,0.0274925,inf	344.336,344.336,368.714,327.139,332.604,351.1,387.034,413.799,429.215,441.713,485.447,510.177,592.955,55924.5,55924.5,55924.5
0.000998766	-307573.38	0,9.25969e-05,0.000219299,0.000392666,0.000629888,0.000954482,0.00139863,0.00200636,0.00283793,0.00397578,0.00553272,0.0076631,0.0105781,0.0145668,0.0200246,0.0274925,inf	343.714,343.714,368.714,326.917,333.1,351.1,387.034,413.799,428.357,440.717,486.632,510.177,592.955,55924.5,55924.5,55924.5
0.000998766	-307573.40	0,9.25969e-05,0.000219299,0.000392666,0.000629888,0.000954482,0.00139863,0.00200636,0.00283793,0.00397578,0.00553272,0.0076631,0.0105781,0.0145668,0.0200246,0.0274925,inf	343.34,343.34,368.714,326.664,333.484,351.1,387.034,413.799,427.649,439.868,486.632,510.177,593.489,55924.5,55924.5,55924.5
0.000998766	-307573.32	0,9.25969e-05,0.000219299,0.000392666,0.000629888,0.000954482,0.00139863,0.00200636,0.00283793,0.00397578,0.00553272,0.0076631,0.0105781,0.0145668,0.0200246,0.0274925,inf	343.121,343.121,368.933,326.402,333.676,351.1,387.034,413.799,427.105,439.156,486.633,510.769,593.489,55924.5,55924.5,55924.5
0.000998766	-307573.30	0,9.25969e-05,0.000219299,0.000392666,0.000629888,0.000954482,0.00139863,0.00200636,0.00283793,0.00397578,0.00553272,0.0076631,0.0105781,0.0145668,0.0200246,0.0274925,inf	342.959,342.959,369.095,326.132,333.873,351.1,387.034,413.799,426.689,438.521,487.32,510.769,593.489,55924.5,55924.5,55924.5
0.000998766	-307573.31	0,9.25969e-05,0.000219299,0.000392666,0.000629888,0.000954482,0.00139863,0.00200636,0.00283793,0.00397578,0.00553272,0.0076631,0.0105781,0.0145668,0.0200246,0.0274925,inf	342.845,342.845,369.209,325.859,334.072,351.1,387.034,413.799,426.355,437.965,487.32,511.195,593.489,55924.5,55924.5,55924.5
0.000998766	-307573.30	0,9.25969e-05,0.000219299,0.000392666,0.000629888,0.000954482,0.00139863,0.00200636,0.00283793,0.00397578,0.00553272,0.0076631,0.0105781,0.0145668,0.0200246,0.0274925,inf	342.774,342.774,369.281,325.589,334.27,351.1,387.034,413.799,426.109,437.462,487.82,511.195,593.489,55924.5,55924.5,55924.5
0.000998766	-307573.31	0,9.25969e-05,0.000219299,0.000392666,0.000629888,0.000954482,0.00139863,0.00200636,0.00283793,0.00397578,0.00553272,0.0076631,0.0105781,0.0145668,0.0200246,0.0274925,inf	342.733,342.733,369.286,325.322,334.485,351.1,387.034,413.799,425.919,437.016,487.82,511.195,593.717,55924.5,55924.5,55924.5
0.000998766	-307573.28	0,9.25969e-05,0.000219299,0.000392666,0.000629888,0.000954482,0.00139863,0.00200636,0.00283793,0.00397578,0.00553272,0.0076631,0.0105781,0.0145668,0.0200246,0.0274925,inf	342.733,342.733,369.286,325.062,334.675,351.1,387.034,413.799,425.792,436.623,488.174,511.195,593.717,55924.5,55924.5,55924.5
