0.000718483	-307998.95	0,4.57664e-05,9.98641e-05,0.00016381,0.000239396,0.000328743,0.000434354,0.00055919,0.000706752,0.000881176,0.00108735,0.00133106,0.00161914,0.00195965,0.00236216,0.00283793,0.00340032,0.00406508,0.00485086,0.00577968,0.00687759,0.00817536,0.00970938,0.0115226,0.013666,0.0161996,0.0191943,0.0227342,0.0269185,0.0318646,inf	407.741,407.741,407.741,407.741,407.741,407.741,407.741,407.741,407.741,407.741,407.741,407.741,407.741,407.741,407.741,407.741,407.741,407.741,407.741,407.741,407.741,407.741,407.741,407.741,407.741,407.741,407.741,407.741,407.741,407.741
0.000803209	-307863.00	0,4.57664e-05,9.98641e-05,0.00016381,0.000239396,0.000328743,0.000434354,0.00055919,0.000706752,0.000881176,0.00108735,0.00133106,0.00161914,0.00195965,0.00236216,0.00283793,0.00340032,0.00406508,0.00485086,0.00577968,0.00687759,0.00817536,0.00970938,0.0115226,0.013666,0.0161996,0.0191943,0.0227342,0.0269185,0.0318646,inf	412.066,412.066,412.066,412.066,412.066,412.066,412.066,412.066,412.066,412.066,412.066,412.066,412.066,412.066,412.066,412.066,412.066,412.066,412.066,412.066,412.066,412.066,412.066,412.066,412.066,412.066,412.066,412.066,412.066,412.066
0.000883197	-307755.73	0,4.57664e-05,9.98641e-05,0.00016381,0.000239396,0.000328743,0.000434354,0.00055919,0.000706752,0.000881176,0.00108735,0.00133106,0.00161914,0.00195965,0.00236216,0.00283793,0.00340032,0.00406508,0.00485086,0.00577968,0.00687759,0.00817536,0.00970938,0.0115226,0.013666,0.0161996,0.0191943,0.0227342,0.0269185,0.0318646,inf	413.796,413.796,413.796,413.796,413.796,413.796,413.796,413.796,413.796,413.796,413.796,413.796,413.796,413.796,413.796,413.796,413.796,413.796,413.796,413.796,413.796,413.796,413.796,413.796,413.796,413.796,413.796,413.796,413.796,413.796
0.000958875	-307668.74	0,4.57664e-05,9.98641e-05,0.00016381,0.000239396,0.000328743,0.000434354,0.00055919,0.000706752,0.000881176,0.00108735,0.00133106,0.00161914,0.00195965,0.00236216,0.00283793,0.00340032,0.00406508,0.00485086,0.00577968,0.00687759,0.00817536,0.00970938,0.0115226,0.013666,0.0161996,0.0191943,0.0227342,0.0269185,0.0318646,inf	414.312,414.312,414.312,414.312,414.312,414.312,414.312,414.312,414.312,414.312,414.312,414.312,414.312,414.312,414.312,414.312,414.312,414.312,414.312,414.312,414.312,414.312,414.312,414.312,414.312,414.312,414.312,414.312,414.312,414.312
0.00103059	-307597.01	0,4.57664e-05,9.98641e-05,0.00016381,0.000239396,0.000328743,0.000434354,0.00055919,0.000706752,0.000881176,0.00108735,0.00133106,0.00161914,0.00195965,0.00236216,0.00283793,0.00340032,0.00406508,0.00485086,0.00577968,0.00687759,0.00817536,0.00970938,0.0115226,0.013666,0.0161996,0.0191943,0.0227342,0.0269185,0.0318646,inf	414.248,414.248,414.248,414.248,414.248,414.248,414.248,414.248,414.248,414.248,414.248,414.248,414.248,414.248,414.248,414.248,414.248,414.248,414.248,414.248,414.248,414.248,414.248,414.248,414.248,414.248,414.248,414.248,414.248,414.248
0.00109862	-307537.15	0,4.57664e-05,9.98641e-05,0.00016381,0.000239396,0.000328743,0.000434354,0.00055919,0.000706752,0.000881176,0.00108735,0.00133106,0.00161914,0.00195965,0.00236216,0.00283793,0.00340032,0.00406508,0.00485086,0.00577968,0.00687759,0.00817536,0.00970938,0.0115226,0.013666,0.0161996,0.0191943,0.0227342,0.0269185,0.0318646,inf	413.903,413.903,413.903,413.903,413.903,413.903,413.903,413.903,413.903,413.903,413.903,413.903,413.903,413.903,413.903,413.903,413.903,413.903,413.903,413.903,413.903,413.903,413.903,413.903,413.903,413.903,413.903,413.903,413.903,413.903
0.00116323	-307486.69	0,4.57664e-05,9.98641e-05,0.00016381,0.000239396,0.000328743,0.000434354,0.00055919,0.000706752,0.000881176,0.00108735,0.00133106,0.00161914,0.00195965,0.00236216,0.00283793,0.00340032,0.00406508,0.00485086,0.00577968,0.00687759,0.00817536,0.00970938,0.0115226,0.013666,0.0161996,0.0191943,0.0227342,0.0269185,0.0318646,inf	413.424,413.424,413.424,413.424,413.424,413.424,413.424,413.424,413.424,413.424,413.424,413.424,413.424,413.424,413.424,413.424,413.424,413.424,413.424,413.424,413.424,413.424,413.424,413.424,413.424,413.424,413.424,413.424,413.424,413.424
0.00122464	-307443.78	0,4.57664e-05,9.98641e-05,0.00016381,0.000239396,0.000328743,0.000434354,0.00055919,0.000706752,0.000881176,0.00108735,0.00133106,0.00161914,0.00195965,0.00236216,0.00283793,0.00340032,0.00406508,0.00485086,0.00577968,0.00687759,0.00817536,0.00970938,0.0115226,0.013666,0.0161996,0.0191943,0.0227342,0.0269185,0.0318646,inf	412.882,412.882,412.882,412.882,412.882,412.882,412.882,412.882,412.882,412.882,412.882,412.882,412.882,412.882,412.882,412.882,412.882,412.882,412.882,412.882,412.882,412.882,412.882,412.882,412.882,412.882,412.882,412.882,412.882,412.882
0.00128304	-307407.04	0,4.57664e-05,9.98641e-05,0.00016381,0.000239396,0.000328743,0.000434354,0.00055919,0.000706752,0.000881176,0.00108735,0.00133106,0.00161914,0.00195965,0.00236216,0.00283793,0.00340032,0.00406508,0.00485086,0.00577968,0.00687759,0.00817536,0.00970938,0.0115226,0.013666,0.0161996,0.0191943,0.0227342,0.0269185,0.0318646,inf	412.318,412.318,412.318,412.318,412.318,412.318,412.318,412.318,412.318,412.318,412.318,412.318,412.318,412.318,412.318,412.318,412.318,412.318,412.318,412.318,412.318,412.318,412.318,412.318,412.318,412.318,412.318,412.318,412.318,412.318
0.00133863	-307375.37	0,4.57664e-05,9.98641e-05,0.00016381,0.000239396,0.000328743,0.000434354,0.00055919,0.000706752,0.000881176,0.00108735,0.00133106,0.00161914,0.00195965,0.00236216,0.00283793,0.00340032,0.00406508,0.00485086,0.00577968,0.00687759,0.00817536,0.00970938,0.0115226,0.013666,0.0161996,0.0191943,0.0227342,0.0269185,0.0318646,inf	411.752,411.752,411.752,411.752,411.752,411.752,411.752,411.752,411.752,411.752,411.752,411.752,411.752,411.752,411.752,411.752,411.752,411.752,411.752,411.752,411.752,411.752,411.752,411.752,411.752,411.752,411.752,411.752,411.752,411.752
0.00139159	-307347.90	0,4.57664e-05,9.98641e-05,0.00016381,0.000239396,0.000328743,0.000434354,0.00055919,0.000706752,0.000881176,0.00108735,0.00133106,0.00161914,0.00195965,0.00236216,0.00283793,0.00340032,0.00406508,0.00485086,0.00577968,0.00687759,0.00817536,0.00970938,0.0115226,0.013666,0.0161996,0.0191943,0.0227342,0.0269185,0.0318646,inf	411.194,411.194,411.194,411.194,411.194,411.194,411.194,411.194,411.194,411.194,411.194,411.194,411.194,411.194,411.194,411.194,411.194,411.194,411.194,411.194,411.194,411.194,411.194,411.194,411.194,411.194,411.194,411.194,411.194,411.194
0.00144207	-307323.95	0,4.57664e-05,9.98641e-05,0.00016381,0.000239396,0.000328743,0.000434354,0.00055919,0.000706752,0.000881176,0.00108735,0.00133106,0.00161914,0.00195965,0.00236216,0.00283793,0.00340032,0.00406508,0.00485086,0.00577968,0.00687759,0.00817536,0.00970938,0.0115226,0.013666,0.0161996,0.0191943,0.0227342,0.0269185,0.0318646,inf	410.652,410.652,410.652,410.652,410.652,410.652,410.652,410.652,410.652,410.652,410.652,410.652,410.652,410.652,410.652,410.652,410.652,410.652,410.652,410.652,410.652,410.652,410.652,410.652,410.652,410.652,410.652,410.652,410.652,410.652
0.00149021	-307302.98	0,4.57664e-05,9.98641e-05,0.00016381,0.000239396,0.000328743,0.000434354,0.00055919,0.000706752,0.000881176,0.00108735,0.00133106,0.00161914,0.00195965,0.00236216,0.00283793,0.00340032,0.00406508,0.00485086,0.00577968,0.00687759,0.00817536,0.00970938,0.0115226,0.013666,0.0161996,0.0191943,0.0227342,0.0269185,0.0318646,inf	410.127,410.127,410.127,410.127,410.127,410.127,410.127,410.127,410.127,410.127,410.127,410.127,410.127,410.127,410.127,410.127,410.127,410.127,410.127,410.127,410.127,410.127,410.127,410.127,410.127,410.127,410.127,410.127,410.127,410.127
0.00153616	-307284.53	0,4.57664e-05,9.98641e-05,0.00016381,0.000239396,0.000328743,0.000434354,0.00055919,0.000706752,0.000881176,0.00108735,0.00133106,0.00161914,0.00195965,0.00236216,0.00283793,0.00340032,0.00406508,0.00485086,0.00577968,0.00687759,0.00817536,0.00970938,0.0115226,0.013666,0.0161996,0.0191943,0.0227342,0.0269185,0.0318646,inf	409.623,409.623,409.623,409.623,409.623,409.623,409.623,409.623,409.623,409.623,409.623,409.623,409.623,409.623,409.623,409.623,409.623,409.623,409.623,409.623,409.623,409.623,409.623,409.623,409.623,409.623,409.623,409.623,409.623,409.623
0.00158005	-307268.24	0,4.57664e-05,9.98641e-05,0.00016381,0.000239396,0.000328743,0.000434354,0.00055919,0.000706752,0.000881176,0.00108735,0.00133106,0.00161914,0.00195965,0.00236216,0.00283793,0.00340032,0.00406508,0.00485086,0.00577968,0.00687759,0.00817536,0.00970938,0.0115226,0.013666,0.0161996,0.0191943,0.0227342,0.0269185,0.0318646,inf	409.14,409.14,409.14,409.14,409.14,409.14,409.14,409.14,409.14,409.14,409.14,409.14,409.14,409.14,409.14,409.14,409.14,409.14,409.14,409.14,409.14,409.14,409.14,409.14,409.14,409.14,409.14,409.14,409.14,409.14
0.00162198	-307253.79	0,4.57664e-05,9.98641e-05,0.00016381,0.000239396,0.000328743,0.000434354,0.00055919,0.000706752,0.000881176,0.00108735,0.00133106,0.00161914,0.00195965,0.00236216,0.00283793,0.00340032,0.00406508,0.00485086,0.00577968,0.00687759,0.00817536,0.00970938,0.0115226,0.013666,0.0161996,0.0191943,0.0227342,0.0269185,0.0318646,inf	408.677,408.677,408.677,408.677,408.677,408.677,408.677,408.677,408.677,408.677,408.677,408.677,408.677,408.677,408.677,408.677,408.677,408.677,408.677,408.677,408.677,408.677,408.677,408.677,408.677,408.677,408.677,408.677,408.677,408.677
0.00166208	-307240.95	0,4.57664e-05,9.98641e-05,0.00016381,0.000239396,0.000328743,0.000434354,0.00055919,0.000706752,0.000881176,0.00108735,0.00133106,0.00161914,0.00195965,0.00236216,0.00283793,0.00340032,0.00406508,0.00485086,0.00577968,0.00687759,0.00817536,0.00970938,0.0115226,0.013666,0.0161996,0.0191943,0.0227342,0.0269185,0.0318646,inf	408.235,408.235,408.235,408.235,408.235,408.235,408.235,408.235,408.235,408.235,408.235,408.235,408.235,408.235,408.235,408.235,408.235,408.235,408.235,408.235,408.235,408.235,408.235,408.235,408.235,408.235,408.235,408.235,408.235,408.235
0.00170044	-307229.49	0,4.57664e-05,9.98641e-05,0.00016381,0.000239396,0.000328743,0.000434354,0.00055919,0.000706752,0.000881176,0.00108735,0.00133106,0.00161914,0.00195965,0.00236216,0.00283793,0.00340032,0.00406508,0.00485086,0.00577968,0.00687759,0.00817536,0.00970938,0.0115226,0.013666,0.0161996,0.0191943,0.0227342,0.0269185,0.0318646,inf	407.813,407.813,407.813,407.813,407.813,407.813,407.813,407.813,407.813,407.813,407.813,407.813,407.813,407.813,407.813,407.813,407.813,407.813,407.813,407.813,407.813,407.813,407.813,407.813,407.813,407.813,407.813,407.813,407.813,407.813
0.00173716	-307219.25	0,4.57664e-05,9.98641e-05,0.00016381,0.000239396,0.000328743,0.000434354,0.00055919,0.000706752,0.000881176,0.00108735,0.00133106,0.00161914,0.00195965,0.00236216,0.00283793,0.00340032,0.00406508,0.00485086,0.00577968,0.00687759,0.00817536,0.00970938,0.0115226,0.013666,0.0161996,0.0191943,0.0227342,0.0269185,0.0318646,inf	407.411,407.411,407.411,407.411,407.411,407.411,407.411,407.411,407.411,407.411,407.411,407.411,407.411,407.411,407.411,407.411,407.411,407.411,407.411,407.411,407.411,407.411,407.411,407.411,407.411,407.411,407.411,407.411,407.411,407.411
0.00177232	-307210.06	0,4.57664e-05,9.98641e-05,0.00016381,0.000239396,0.000328743,0.000434354,0.00055919,0.000706752,0.000881176,0.00108735,0.00133106,0.00161914,0.00195965,0.00236216,0.00283793,0.00340032,0.00406508,0.00485086,0.00577968,0.00687759,0.00817536,0.00970938,0.0115226,0.013666,0.0161996,0.0191943,0.0227342,0.0269185,0.0318646,inf	407.026,407.026,407.026,407.026,407.026,407.026,407.026,407.026,407.026,407.026,407.026,407.026,407.026,407.026,407.026,407.026,407.026,407.026,407.026,407.026,407.026,407.026,407.026,407.026,407.026,407.026,407.026,407.026,407.026,407.026
