LogLikelihood = -858707.94527490145992

y0 0.8777347931307781792
y0_prime 0
y1 1.16113750555281392
y1_prime 0
y2 0.8382289717463554668
y2_prime 0
y3 1.768680544811674249
y3_prime 0
rho 0.0014505618971978749727
rho.alpha 21.219596029479760091
r_ii 0.99998130568430787513
theta 0.002527840860850347985
