LogLikelihood = -858710.69893676019274

y0 0.86985717424110420293
y0_prime 0
y1 1.1554506862157605251
y1_prime 0
y2 0.84539631897319877929
y2_prime 0
y3 1.7620565731307256119
y3_prime 0
rho 0.0014087518979763234781
theta 0.002527840860850347985
