time_index	left_time_boundary	right_time_boundary	lambda
0	0	1.67517e-06	0.420851
1	1.67517e-06	3.88179e-06	0.420851
2	3.88179e-06	6.78845e-06	0.420852
3	6.78845e-06	1.06172e-05	0.420852
4	1.06172e-05	1.56607e-05	0.420852
5	1.56607e-05	2.23042e-05	0.420851
6	2.23042e-05	3.10554e-05	0.420851
7	3.10554e-05	4.25828e-05	2.68946
8	4.25828e-05	5.77674e-05	58.2135
9	5.77674e-05	7.77691e-05	200.721
10	7.77691e-05	0.000104116	216.8
11	0.000104116	0.000138822	144.008
12	0.000138822	0.000184539	106.296
13	0.000184539	0.000244759	119.315
14	0.000244759	0.000324083	175.42
15	0.000324083	0.000428573	262.531
16	0.000428573	0.000566213	354.795
17	0.000566213	0.000747518	424.811
18	0.000747518	0.000986342	466.374
19	0.000986342	0.00130093	488.936
20	0.00130093	0.00171533	496.895
21	0.00171533	0.00226119	492.508
22	0.00226119	0.00298022	480.097
23	0.00298022	0.00392737	460.154
24	0.00392737	0.005175	434.205
25	0.005175	0.00681843	407.995
26	0.00681843	0.00898325	371.541
27	0.00898325	0.0118348	292.405
28	0.0118348	0.0155911	292.405
29	0.0155911	0.020539	319.464
30	0.020539	0.0270567	319.464
31	0.0270567	inf	319.464
