0.000645259	-8462810.67	0,2.65773e-06,6.10711e-06,1.05839e-05,1.63943e-05,2.39353e-05,3.37225e-05,4.6425e-05,6.29112e-05,8.4308e-05,0.000112078,0.00014812,0.000194898,0.000255609,0.000334404,0.000436669,0.000569395,0.000741657,0.000965228,0.00125539,0.00163199,0.00212076,0.00275512,0.00357844,0.00464699,0.00603383,0.00783376,0.0101698,0.0132017,0.0171367,0.0222438,0.0288722,inf	106.303,106.303,255.739,422.069,548.563,585.028,560.11,510.326,456.329,419.995,406.626,406.695,403.464,396.69,391.876,389.051,388.328,390.87,395.834,401.633,407.319,411.949,414.09,414.528,412.292,408.976,399.002,390.809,390.809,444.719,444.719,444.719
0.000662842	-8462588.44	0,2.65773e-06,6.10711e-06,1.05839e-05,1.63943e-05,2.39353e-05,3.37225e-05,4.6425e-05,6.29112e-05,8.4308e-05,0.000112078,0.00014812,0.000194898,0.000255609,0.000334404,0.000436669,0.000569395,0.000741657,0.000965228,0.00125539,0.00163199,0.00212076,0.00275512,0.00357844,0.00464699,0.00603383,0.00783376,0.0101698,0.0132017,0.0171367,0.0222438,0.0288722,inf	23.5652,23.5652,134.045,357.973,599.421,688.892,652.557,567.006,475.367,419.038,403.2,409.565,406.938,396.149,388.192,383.078,381.069,384.488,391.916,400.78,409.808,417.539,421.397,422.818,419.558,414.29,395.771,381.425,381.425,486.785,486.785,486.785
0.000678222	-8462462.83	0,2.65773e-06,6.10711e-06,1.05839e-05,1.63943e-05,2.39353e-05,3.37225e-05,4.6425e-05,6.29112e-05,8.4308e-05,0.000112078,0.00014812,0.000194898,0.000255609,0.000334404,0.000436669,0.000569395,0.000741657,0.000965228,0.00125539,0.00163199,0.00212076,0.00275512,0.00357844,0.00464699,0.00603383,0.00783376,0.0101698,0.0132017,0.0171367,0.0222438,0.0288722,inf	4.96085,4.96085,66.2408,282.791,604.145,746.648,706.918,596.601,478.456,410.688,396.775,411.596,411.053,397.531,387.362,380.395,376.997,380.571,389.192,399.597,410.517,420.227,425.271,427.751,424.098,417.745,391.865,372.858,372.858,526.347,526.347,526.347
0.000691898	-8462378.56	0,2.65773e-06,6.10711e-06,1.05839e-05,1.63943e-05,2.39353e-05,3.37225e-05,4.6425e-05,6.29112e-05,8.4308e-05,0.000112078,0.00014812,0.000194898,0.000255609,0.000334404,0.000436669,0.000569395,0.000741657,0.000965228,0.00125539,0.00163199,0.00212076,0.00275512,0.00357844,0.00464699,0.00603383,0.00783376,0.0101698,0.0132017,0.0171367,0.0222438,0.0288722,inf	1.03681,1.03681,32.3878,219.019,591.357,781.545,741.58,613.028,474.869,399.933,389.478,413.227,415.231,399.623,387.855,379.447,374.785,378.261,387.457,398.574,410.532,421.481,427.274,430.731,427.03,420.174,387.899,365.303,365.303,563.331,563.331,563.331
0.000704184	-8462316.99	0,2.65773e-06,6.10711e-06,1.05839e-05,1.63943e-05,2.39353e-05,3.37225e-05,4.6425e-05,6.29112e-05,8.4308e-05,0.000112078,0.00014812,0.000194898,0.000255609,0.000334404,0.000436669,0.000569395,0.000741657,0.000965228,0.00125539,0.00163199,0.00212076,0.00275512,0.00357844,0.00464699,0.00603383,0.00783376,0.0101698,0.0132017,0.0171367,0.0222438,0.0288722,inf	0.400282,0.400282,15.9442,169.448,573.312,805.319,765.94,623.025,468.698,388.774,382.113,414.559,419.105,401.744,388.812,379.323,373.603,376.943,386.423,397.803,410.299,422.008,428.227,432.537,428.983,422.036,384.152,358.736,358.736,597.68,597.68,597.68
0.000715292	-8462270.19	0,2.65773e-06,6.10711e-06,1.05839e-05,1.63943e-05,2.39353e-05,3.37225e-05,4.6425e-05,6.29112e-05,8.4308e-05,0.000112078,0.00014812,0.000194898,0.000255609,0.000334404,0.000436669,0.000569395,0.000741657,0.000965228,0.00125539,0.00163199,0.00212076,0.00275512,0.00357844,0.00464699,0.00603383,0.00783376,0.0101698,0.0132017,0.0171367,0.0222438,0.0288722,inf	0.400282,0.400282,7.94544,131.798,554.644,823.374,784.559,629.823,461.779,378.052,375.046,415.688,422.557,403.602,389.818,379.546,372.98,376.232,385.865,397.261,410.004,422.167,428.575,433.612,430.318,423.586,380.732,353.056,353.056,629.337,629.337,629.337
0.000725379	-8462233.98	0,2.65773e-06,6.10711e-06,1.05839e-05,1.63943e-05,2.39353e-05,3.37225e-05,4.6425e-05,6.29112e-05,8.4308e-05,0.000112078,0.00014812,0.000194898,0.000255609,0.000334404,0.000436669,0.000569395,0.000741657,0.000965228,0.00125539,0.00163199,0.00212076,0.00275512,0.00357844,0.00464699,0.00603383,0.00783376,0.0101698,0.0132017,0.0171367,0.0222438,0.0288722,inf	0.400282,0.400282,4.01585,103.268,536.911,838.165,799.65,634.982,454.934,368.106,368.443,416.716,425.596,405.112,390.695,379.878,372.654,375.892,385.624,396.904,409.721,422.14,428.568,434.218,431.249,424.965,377.664,348.142,348.142,658.249,658.249,658.249
0.000734566	-8462205.74	0,2.65773e-06,6.10711e-06,1.05839e-05,1.63943e-05,2.39353e-05,3.37225e-05,4.6425e-05,6.29112e-05,8.4308e-05,0.000112078,0.00014812,0.000194898,0.000255609,0.000334404,0.000436669,0.000569395,0.000741657,0.000965228,0.00125539,0.00163199,0.00212076,0.00275512,0.00357844,0.00464699,0.00603383,0.00783376,0.0101698,0.0132017,0.0171367,0.0222438,0.0288722,inf	0.400282,0.400282,2.0615,81.5252,520.528,850.806,812.302,639.259,448.508,359.027,362.371,417.723,428.284,406.281,391.391,380.209,372.482,375.779,385.594,396.686,409.479,422.024,428.352,434.513,431.905,426.253,374.936,343.881,343.881,684.376,684.376,684.376
0.000742952	-8462183.65	0,2.65773e-06,6.10711e-06,1.05839e-05,1.63943e-05,2.39353e-05,3.37225e-05,4.6425e-05,6.29112e-05,8.4308e-05,0.000112078,0.00014812,0.000194898,0.000255609,0.000334404,0.000436669,0.000569395,0.000741657,0.000965228,0.00125539,0.00163199,0.00212076,0.00275512,0.00357844,0.00464699,0.00603383,0.00783376,0.0101698,0.0132017,0.0171367,0.0222438,0.0288722,inf	0.400282,0.400282,1.06772,64.8127,505.49,861.805,823.099,643.024,442.622,350.803,356.835,418.769,430.686,407.152,391.901,380.492,372.386,375.805,385.702,396.57,409.285,421.873,428.012,434.595,432.367,427.492,372.519,340.173,340.173,707.698,707.698,707.698
0.000750618	-8462166.36	0,2.65773e-06,6.10711e-06,1.05839e-05,1.63943e-05,2.39353e-05,3.37225e-05,4.6425e-05,6.29112e-05,8.4308e-05,0.000112078,0.00014812,0.000194898,0.000255609,0.000334404,0.000436669,0.000569395,0.000741657,0.000965228,0.00125539,0.00163199,0.00212076,0.00275512,0.00357844,0.00464699,0.00603383,0.00783376,0.0101698,0.0132017,0.0171367,0.0222438,0.0288722,inf	0.400282,0.400282,0.560949,51.8682,491.728,871.494,832.346,646.469,437.302,343.374,351.811,419.888,432.864,407.775,392.246,380.713,372.325,375.917,385.901,396.527,409.135,421.715,427.601,434.53,432.685,428.708,370.378,336.934,336.934,728.227,728.227,728.227
0.000757636	-8462152.86	0,2.65773e-06,6.10711e-06,1.05839e-05,1.63943e-05,2.39353e-05,3.37225e-05,4.6425e-05,6.29112e-05,8.4308e-05,0.000112078,0.00014812,0.000194898,0.000255609,0.000334404,0.000436669,0.000569395,0.000741657,0.000965228,0.00125539,0.00163199,0.00212076,0.00275512,0.00357844,0.00464699,0.00603383,0.00783376,0.0101698,0.0132017,0.0171367,0.0222438,0.0288722,inf	0.400282,0.400282,0.400271,41.7573,479.097,880.065,840.289,649.686,432.509,336.663,347.254,421.094,434.863,408.198,392.452,380.872,372.274,376.077,386.156,396.534,409.026,421.566,427.151,434.358,432.895,429.912,368.479,334.093,334.093,746.014,746.014,746.014
0.000764065	-8462142.36	0,2.65773e-06,6.10711e-06,1.05839e-05,1.63943e-05,2.39353e-05,3.37225e-05,4.6425e-05,6.29112e-05,8.4308e-05,0.000112078,0.00014812,0.000194898,0.000255609,0.000334404,0.000436669,0.000569395,0.000741657,0.000965228,0.00125539,0.00163199,0.00212076,0.00275512,0.00357844,0.00464699,0.00603383,0.00783376,0.0101698,0.0132017,0.0171367,0.0222438,0.0288722,inf	0.400282,0.400282,0.400271,33.7961,467.498,887.648,847.062,652.728,428.204,330.586,343.118,422.393,436.719,408.458,392.547,380.977,372.223,376.266,386.444,396.576,408.951,421.433,426.684,434.11,433.019,431.112,366.79,331.593,331.593,761.152,761.152,761.152
0.000769961	-8462134.26	0,2.65773e-06,6.10711e-06,1.05839e-05,1.63943e-05,2.39353e-05,3.37225e-05,4.6425e-05,6.29112e-05,8.4308e-05,0.000112078,0.00014812,0.000194898,0.000255609,0.000334404,0.000436669,0.000569395,0.000741657,0.000965228,0.00125539,0.00163199,0.00212076,0.00275512,0.00357844,0.00464699,0.00603383,0.00783376,0.0101698,0.0132017,0.0171367,0.0222438,0.0288722,inf	0.400282,0.400282,0.400271,27.4923,456.808,894.407,852.82,655.631,424.328,325.062,339.351,423.778,438.458,408.588,392.553,381.037,372.165,376.468,386.749,396.639,408.904,421.321,426.214,433.807,433.073,432.311,365.282,329.384,329.384,773.772,773.772,773.772
0.000775354	-8462128.05	0,2.65773e-06,6.10711e-06,1.05839e-05,1.63943e-05,2.39353e-05,3.37225e-05,4.6425e-05,6.29112e-05,8.4308e-05,0.000112078,0.00014812,0.000194898,0.000255609,0.000334404,0.000436669,0.000569395,0.000741657,0.000965228,0.00125539,0.00163199,0.00212076,0.00275512,0.00357844,0.00464699,0.00603383,0.00783376,0.0101698,0.0132017,0.0171367,0.0222438,0.0288722,inf	0.400282,0.400282,0.400271,22.4645,446.78,899.961,857.229,658.081,420.626,319.862,335.744,425.04,439.897,408.435,392.329,380.915,371.975,376.565,386.969,396.644,408.833,421.202,425.732,433.45,433.061,433.495,363.916,327.412,327.412,784.029,784.029,784.029
0.000780318	-8462123.22	0,2.65773e-06,6.10711e-06,1.05839e-05,1.63943e-05,2.39353e-05,3.37225e-05,4.6425e-05,6.29112e-05,8.4308e-05,0.000112078,0.00014812,0.000194898,0.000255609,0.000334404,0.000436669,0.000569395,0.000741657,0.000965228,0.00125539,0.00163199,0.00212076,0.00275512,0.00357844,0.00464699,0.00603383,0.00783376,0.0101698,0.0132017,0.0171367,0.0222438,0.0288722,inf	0.400282,0.400282,0.400271,18.443,437.785,905.411,861.285,660.766,417.476,315.236,332.568,426.545,441.422,408.347,392.183,380.88,371.873,376.741,387.255,396.707,408.819,421.132,425.28,433.075,433.008,434.686,362.692,325.665,325.665,792.132,792.132,792.132
0.000784882	-8462119.73	0,2.65773e-06,6.10711e-06,1.05839e-05,1.63943e-05,2.39353e-05,3.37225e-05,4.6425e-05,6.29112e-05,8.4308e-05,0.000112078,0.00014812,0.000194898,0.000255609,0.000334404,0.000436669,0.000569395,0.000741657,0.000965228,0.00125539,0.00163199,0.00212076,0.00275512,0.00357844,0.00464699,0.00603383,0.00783376,0.0101698,0.0132017,0.0171367,0.0222438,0.0288722,inf	0.400282,0.400282,0.400271,15.206,429.529,910.375,864.682,663.411,414.657,311.006,329.662,428.141,442.91,408.228,392.034,380.858,371.793,376.937,387.555,396.787,408.832,421.093,424.847,432.681,432.916,435.881,361.587,324.113,324.113,798.294,798.294,798.294
0.000789077	-8462117.24	0,2.65773e-06,6.10711e-06,1.05839e-05,1.63943e-05,2.39353e-05,3.37225e-05,4.6425e-05,6.29112e-05,8.4308e-05,0.000112078,0.00014812,0.000194898,0.000255609,0.000334404,0.000436669,0.000569395,0.000741657,0.000965228,0.00125539,0.00163199,0.00212076,0.00275512,0.00357844,0.00464699,0.00603383,0.00783376,0.0101698,0.0132017,0.0171367,0.0222438,0.0288722,inf	0.400282,0.400282,0.400271,12.5822,421.902,914.891,867.435,665.976,412.105,307.098,326.97,429.787,444.336,408.061,391.866,380.83,371.716,377.135,387.853,396.869,408.862,421.077,424.432,432.273,432.788,437.076,360.582,322.73,322.73,802.738,802.738,802.738
0.000792935	-8462115.52	0,2.65773e-06,6.10711e-06,1.05839e-05,1.63943e-05,2.39353e-05,3.37225e-05,4.6425e-05,6.29112e-05,8.4308e-05,0.000112078,0.00014812,0.000194898,0.000255609,0.000334404,0.000436669,0.000569395,0.000741657,0.000965228,0.00125539,0.00163199,0.00212076,0.00275512,0.00357844,0.00464699,0.00603383,0.00783376,0.0101698,0.0132017,0.0171367,0.0222438,0.0288722,inf	0.400282,0.400282,0.400271,10.4397,414.921,919.038,869.612,668.468,409.785,303.474,324.456,431.461,445.695,407.848,391.677,380.795,371.637,377.328,388.141,396.948,408.903,421.083,424.037,431.854,432.627,438.27,359.663,321.497,321.497,805.681,805.681,805.681
0.000796484	-8462114.41	0,2.65773e-06,6.10711e-06,1.05839e-05,1.63943e-05,2.39353e-05,3.37225e-05,4.6425e-05,6.29112e-05,8.4308e-05,0.000112078,0.00014812,0.000194898,0.000255609,0.000334404,0.000436669,0.000569395,0.000741657,0.000965228,0.00125539,0.00163199,0.00212076,0.00275512,0.00357844,0.00464699,0.00603383,0.00783376,0.0101698,0.0132017,0.0171367,0.0222438,0.0288722,inf	0.400282,0.400282,0.400271,8.69687,408.467,922.864,871.288,670.9,407.681,300.102,322.098,433.155,446.99,407.593,391.474,380.756,371.555,377.513,388.417,397.02,408.952,421.108,423.662,431.428,432.437,439.464,358.818,320.396,320.396,807.343,807.343,807.343
0.000799749	-8462113.77	0,2.65773e-06,6.10711e-06,1.05839e-05,1.63943e-05,2.39353e-05,3.37225e-05,4.6425e-05,6.29112e-05,8.4308e-05,0.000112078,0.00014812,0.000194898,0.000255609,0.000334404,0.000436669,0.000569395,0.000741657,0.000965228,0.00125539,0.00163199,0.00212076,0.00275512,0.00357844,0.00464699,0.00603383,0.00783376,0.0101698,0.0132017,0.0171367,0.0222438,0.0288722,inf	0.400282,0.400282,0.400271,7.26229,402.561,926.436,872.525,673.29,405.771,296.95,319.874,434.86,448.226,407.306,391.263,380.714,371.471,377.69,388.679,397.084,409.007,421.152,423.308,430.999,432.222,440.655,358.035,319.411,319.411,807.917,807.917,807.917
