time_index	left_time_boundary	right_time_boundary	lambda
0	0	4.4919e-05	205.373
1	4.4919e-05	9.74629e-05	205.373
2	9.74629e-05	0.000158926	285.059
3	0.000158926	0.000230823	158.17
4	0.000230823	0.000314924	178.62
5	0.000314924	0.000413301	331.875
6	0.000413301	0.000528378	400.175
7	0.000528378	0.000662989	389.796
8	0.000662989	0.000820451	379.126
9	0.000820451	0.00100464	360.679
10	0.00100464	0.0012201	354.413
11	0.0012201	0.00147213	351.608
12	0.00147213	0.00176694	363.955
13	0.00176694	0.0021118	405.009
14	0.0021118	0.00251519	457.412
15	0.00251519	0.00298707	480.278
16	0.00298707	0.00353904	466.055
17	0.00353904	0.00418471	445.811
18	0.00418471	0.00493998	418.65
19	0.00493998	0.00582347	378.736
20	0.00582347	0.00685692	355.681
21	0.00685692	0.0080658	364.887
22	0.0080658	0.00947989	404.005
23	0.00947989	0.011134	419.74
24	0.011134	0.0130689	383.413
25	0.0130689	0.0153323	303.882
26	0.0153323	0.0179799	248.821
27	0.0179799	0.0210769	386.846
28	0.0210769	0.0246996	386.846
29	0.0246996	0.0289373	78242.9
30	0.0289373	0.0338943	78242.9
31	0.0338943	inf	78242.9
