0.000650347	-8462756.98	0,6.10711e-06,1.63943e-05,3.37225e-05,6.29112e-05,0.000112078,0.000194898,0.000334404,0.000569395,0.000965228,0.00163199,0.00275512,0.00464699,0.00783376,0.0132017,0.0222438,inf	321.64,321.64,592.17,543.146,438.742,412.515,405.153,394.93,392.951,402.246,409.88,417.754,429.178,358.659,358.659,358.659
0.000670803	-8462549.16	0,6.10711e-06,1.63943e-05,3.37225e-05,6.29112e-05,0.000112078,0.000194898,0.000334404,0.000569395,0.000965228,0.00163199,0.00275512,0.00464699,0.00783376,0.0132017,0.0222438,inf	206.881,206.881,688.394,617.766,443.464,413.915,407.842,391.486,387.231,401.287,411.582,425.101,453.995,326.283,326.283,326.283
0.000687921	-8462500.88	0,6.10711e-06,1.63943e-05,3.37225e-05,6.29112e-05,0.000112078,0.000194898,0.000334404,0.000569395,0.000965228,0.00163199,0.00275512,0.00464699,0.00783376,0.0132017,0.0222438,inf	124.884,124.884,734.077,658.171,436.539,412.639,410.873,390.351,383.983,400.698,410.692,426.862,476.268,301.502,301.502,301.502
0.000702631	-8462521.22	0,6.10711e-06,1.63943e-05,3.37225e-05,6.29112e-05,0.000112078,0.000194898,0.000334404,0.000569395,0.000965228,0.00163199,0.00275512,0.00464699,0.00783376,0.0132017,0.0222438,inf	74.394,74.394,755.648,681.998,425.816,410.6,413.914,390.337,382.293,400.892,409.113,425.342,496.702,282.427,282.427,282.427
0.00071545	-8462575.66	0,6.10711e-06,1.63943e-05,3.37225e-05,6.29112e-05,0.000112078,0.000194898,0.000334404,0.000569395,0.000965228,0.00163199,0.00275512,0.00464699,0.00783376,0.0132017,0.0222438,inf	44.497,44.497,765.691,697.677,414.33,408.417,416.632,390.66,381.406,401.721,407.562,421.811,515.631,267.537,267.537,267.537
0.000726714	-8462647.22	0,6.10711e-06,1.63943e-05,3.37225e-05,6.29112e-05,0.000112078,0.000194898,0.000334404,0.000569395,0.000965228,0.00163199,0.00275512,0.00464699,0.00783376,0.0132017,0.0222438,inf	26.8583,26.8583,769.977,709.26,403.29,406.375,418.937,390.951,380.871,402.981,406.311,417.023,533.23,255.72,255.72,255.72
0.000736668	-8462726.70	0,6.10711e-06,1.63943e-05,3.37225e-05,6.29112e-05,0.000112078,0.000194898,0.000334404,0.000569395,0.000965228,0.00163199,0.00275512,0.00464699,0.00783376,0.0132017,0.0222438,inf	16.3722,16.3722,771.205,718.642,393.127,404.613,420.871,391.082,380.443,404.502,405.451,411.453,549.61,246.178,246.178,246.178
0.000745503	-8462808.95	0,6.10711e-06,1.63943e-05,3.37225e-05,6.29112e-05,0.000112078,0.000194898,0.000334404,0.000569395,0.000965228,0.00163199,0.00275512,0.00464699,0.00783376,0.0132017,0.0222438,inf	10.0655,10.0655,770.651,726.756,383.935,403.191,422.513,391.034,379.996,406.156,404.995,405.417,564.861,238.346,238.346,238.346
0.000753376	-8462891.01	0,6.10711e-06,1.63943e-05,3.37225e-05,6.29112e-05,0.000112078,0.000194898,0.000334404,0.000569395,0.000965228,0.00163199,0.00275512,0.00464699,0.00783376,0.0132017,0.0222438,inf	6.23468,6.23468,768.993,734.013,375.666,402.112,423.944,390.837,379.472,407.849,404.925,399.128,579.062,231.819,231.819,231.819
0.000760414	-8462971.24	0,6.10711e-06,1.63943e-05,3.37225e-05,6.29112e-05,0.000112078,0.000194898,0.000334404,0.000569395,0.000965228,0.00163199,0.00275512,0.00464699,0.00783376,0.0132017,0.0222438,inf	3.88133,3.88133,766.598,740.63,368.215,401.348,425.225,390.533,378.85,409.515,405.206,392.732,592.294,226.302,226.302,226.302
0.000766729	-8463048.73	0,6.10711e-06,1.63943e-05,3.37225e-05,6.29112e-05,0.000112078,0.000194898,0.000334404,0.000569395,0.000965228,0.00163199,0.00275512,0.00464699,0.00783376,0.0132017,0.0222438,inf	2.42986,2.42986,763.757,746.72,361.475,400.859,426.403,390.169,378.13,411.107,405.802,386.332,604.631,221.58,221.58,221.58
0.000772412	-8463123.03	0,6.10711e-06,1.63943e-05,3.37225e-05,6.29112e-05,0.000112078,0.000194898,0.000334404,0.000569395,0.000965228,0.00163199,0.00275512,0.00464699,0.00783376,0.0132017,0.0222438,inf	1.52956,1.52956,760.671,752.363,355.34,400.598,427.509,389.78,377.321,412.591,406.676,379.995,616.147,217.493,217.493,217.493
0.000777543	-8463193.93	0,6.10711e-06,1.63943e-05,3.37225e-05,6.29112e-05,0.000112078,0.000194898,0.000334404,0.000569395,0.000965228,0.00163199,0.00275512,0.00464699,0.00783376,0.0132017,0.0222438,inf	0.966209,0.966209,757.46,757.579,349.725,400.518,428.559,389.398,376.439,413.946,407.791,373.77,626.912,213.92,213.92,213.92
0.000782174	-8463261.41	0,6.10711e-06,1.63943e-05,3.37225e-05,6.29112e-05,0.000112078,0.000194898,0.000334404,0.000569395,0.000965228,0.00163199,0.00275512,0.00464699,0.00783376,0.0132017,0.0222438,inf	0.520789,0.520789,753.983,762.164,344.434,400.449,429.434,388.946,375.438,415.133,409.078,367.687,636.949,210.754,210.754,210.754
0.000786389	-8463325.30	0,6.10711e-06,1.63943e-05,3.37225e-05,6.29112e-05,0.000112078,0.000194898,0.000334404,0.000569395,0.000965228,0.00163199,0.00275512,0.00464699,0.00783376,0.0132017,0.0222438,inf	0.40028,0.40028,750.825,766.679,339.638,400.599,430.374,388.617,374.447,416.202,410.565,361.775,646.376,207.947,207.947,207.947
0.00079023	-8463386.12	0,6.10711e-06,1.63943e-05,3.37225e-05,6.29112e-05,0.000112078,0.000194898,0.000334404,0.000569395,0.000965228,0.00163199,0.00275512,0.00464699,0.00783376,0.0132017,0.0222438,inf	0.40027,0.40027,747.808,770.925,335.195,400.85,431.301,388.369,373.444,417.123,412.211,356.037,655.238,205.438,205.438,205.438
0.000793736	-8463443.90	0,6.10711e-06,1.63943e-05,3.37225e-05,6.29112e-05,0.000112078,0.000194898,0.000334404,0.000569395,0.000965228,0.00163199,0.00275512,0.00464699,0.00783376,0.0132017,0.0222438,inf	0.40027,0.40027,744.881,774.882,331.045,401.152,432.19,388.192,372.434,417.89,413.99,350.476,663.58,203.178,203.178,203.178
0.000796945	-8463498.78	0,6.10711e-06,1.63943e-05,3.37225e-05,6.29112e-05,0.000112078,0.000194898,0.000334404,0.000569395,0.000965228,0.00163199,0.00275512,0.00464699,0.00783376,0.0132017,0.0222438,inf	0.40027,0.40027,742.089,778.583,327.154,401.483,433.033,388.086,371.428,418.505,415.879,345.093,671.448,201.131,201.131,201.131
0.000799889	-8463550.94	0,6.10711e-06,1.63943e-05,3.37225e-05,6.29112e-05,0.000112078,0.000194898,0.000334404,0.000569395,0.000965228,0.00163199,0.00275512,0.00464699,0.00783376,0.0132017,0.0222438,inf	0.40027,0.40027,739.462,782.065,323.498,401.828,433.823,388.051,370.435,418.972,417.861,339.887,678.879,199.266,199.266,199.266
0.000802595	-8463600.54	0,6.10711e-06,1.63943e-05,3.37225e-05,6.29112e-05,0.000112078,0.000194898,0.000334404,0.000569395,0.000965228,0.00163199,0.00275512,0.00464699,0.00783376,0.0132017,0.0222438,inf	0.40027,0.40027,736.97,785.339,320.056,402.175,434.558,388.087,369.466,419.297,419.92,334.853,685.911,197.559,197.559,197.559
