time_index	left_time_boundary	right_time_boundary	lambda
0	0	1.76757e-06	225.155
1	1.76757e-06	4.09589e-06	225.155
2	4.09589e-06	7.16287e-06	108.45
3	7.16287e-06	1.12028e-05	1416.61
4	1.12028e-05	1.65245e-05	663.607
5	1.65245e-05	2.35344e-05	349.819
6	2.35344e-05	3.27683e-05	280.762
7	3.27683e-05	4.49315e-05	284.707
8	4.49315e-05	6.09535e-05	338.391
9	6.09535e-05	8.20585e-05	338.478
10	8.20585e-05	0.000109859	295.03
11	0.000109859	0.000146479	264.71
12	0.000146479	0.000194717	260.707
13	0.000194717	0.000258259	275.913
14	0.000258259	0.000341958	291.569
15	0.000341958	0.000452212	303.398
16	0.000452212	0.000597443	322.273
17	0.000597443	0.000788748	343.874
18	0.000788748	0.00104074	362.852
19	0.00104074	0.00137269	382.597
20	0.00137269	0.00180994	405.986
21	0.00180994	0.00238591	429.803
22	0.00238591	0.0031446	447.362
23	0.0031446	0.00414399	454.989
24	0.00414399	0.00546043	461.726
25	0.00546043	0.00719451	451.447
26	0.00719451	0.00947872	407.37
27	0.00947872	0.0124876	332.389
28	0.0124876	0.016451	332.389
29	0.016451	0.0216719	208.722
30	0.0216719	0.028549	208.722
31	0.028549	inf	208.722
