LogLikelihood = -125032.36733207717771

y0 5.4724011575131077525e-08
y0_prime 0
y1 1.6391836508218708968
y1_prime 0
y2 1.8933454766561907956
y2_prime 0
y3 4.6714935395863292911
y3_prime 0
rho 1.2436302165856158997
theta 0.0016944843853223890209
