0.000604151	-12119413.56	0,3.61838e-06,9.89679e-06,2.07907e-05,3.96933e-05,7.2492e-05,0.000129402,0.00022815,0.000399492,0.000696794,0.00121266,0.00210775,0.00366087,0.00635576,0.0110318,0.0191453,inf	5132.06,5132.06,895.15,441.559,430.104,425.192,402.273,388.055,387.653,398.987,405.08,424.057,450.467,444.957,444.957,444.957
0.000654035	-12115993.70	0,3.61838e-06,9.89679e-06,2.07907e-05,3.96933e-05,7.2492e-05,0.000129402,0.00022815,0.000399492,0.000696794,0.00121266,0.00210775,0.00366087,0.00635576,0.0110318,0.0191453,inf	7110.7,7110.7,772.681,381.444,425.671,433.544,398.475,376.192,375.082,391.576,393.33,413.624,452.363,438.992,438.992,438.992
0.000699415	-12114047.84	0,3.61838e-06,9.89679e-06,2.07907e-05,3.96933e-05,7.2492e-05,0.000129402,0.00022815,0.000399492,0.000696794,0.00121266,0.00210775,0.00366087,0.00635576,0.0110318,0.0191453,inf	7506.55,7506.55,622.683,330.991,422.952,443.772,400.137,373.295,372.574,393.473,389.769,407.742,454.127,432.658,432.658,432.658
0.000740132	-12112605.73	0,3.61838e-06,9.89679e-06,2.07907e-05,3.96933e-05,7.2492e-05,0.000129402,0.00022815,0.000399492,0.000696794,0.00121266,0.00210775,0.00366087,0.00635576,0.0110318,0.0191453,inf	7545.06,7545.06,509.05,292.799,420.764,451.693,401.22,371.889,372.18,397.286,388.602,403.5,455.436,426.199,426.199,426.199
0.000776631	-12111492.28	0,3.61838e-06,9.89679e-06,2.07907e-05,3.96933e-05,7.2492e-05,0.000129402,0.00022815,0.000399492,0.000696794,0.00121266,0.00210775,0.00366087,0.00635576,0.0110318,0.0191453,inf	7509.48,7509.48,425.955,264.117,419.431,457.656,401.381,370.741,372.199,401.237,388.248,400.051,456.405,419.889,419.889,419.889
0.000809421	-12110616.91	0,3.61838e-06,9.89679e-06,2.07907e-05,3.96933e-05,7.2492e-05,0.000129402,0.00022815,0.000399492,0.000696794,0.00121266,0.00210775,0.00366087,0.00635576,0.0110318,0.0191453,inf	7456.56,7456.56,363.756,242.289,419.065,462.341,401.009,369.745,372.268,404.887,388.207,397.09,457.177,413.9,413.9,413.9
0.000838962	-12109919.31	0,3.61838e-06,9.89679e-06,2.07907e-05,3.96933e-05,7.2492e-05,0.000129402,0.00022815,0.000399492,0.000696794,0.00121266,0.00210775,0.00366087,0.00635576,0.0110318,0.0191453,inf	7399.91,7399.91,315.762,225.377,419.544,466.175,400.407,368.932,372.319,408.153,388.296,394.479,457.853,408.316,408.316,408.316
0.000865648	-12109357.11	0,3.61838e-06,9.89679e-06,2.07907e-05,3.96933e-05,7.2492e-05,0.000129402,0.00022815,0.000399492,0.000696794,0.00121266,0.00210775,0.00366087,0.00635576,0.0110318,0.0191453,inf	7342.89,7342.89,277.671,212.035,420.665,469.384,399.736,368.322,372.347,411.047,388.439,392.138,458.497,403.165,403.165,403.165
0.000889816	-12108899.66	0,3.61838e-06,9.89679e-06,2.07907e-05,3.96933e-05,7.2492e-05,0.000129402,0.00022815,0.000399492,0.000696794,0.00121266,0.00210775,0.00366087,0.00635576,0.0110318,0.0191453,inf	7287.66,7287.66,246.735,201.327,422.233,472.09,399.071,367.909,372.355,413.606,388.602,390.013,459.143,398.441,398.441,398.441
0.000911752	-12108524.32	0,3.61838e-06,9.89679e-06,2.07907e-05,3.96933e-05,7.2492e-05,0.000129402,0.00022815,0.000399492,0.000696794,0.00121266,0.00210775,0.00366087,0.00635576,0.0110318,0.0191453,inf	7236.24,7236.24,221.104,192.615,424.096,474.367,398.446,367.675,372.346,415.87,388.772,388.064,459.81,394.124,394.124,394.124
0.000931699	-12108214.08	0,3.61838e-06,9.89679e-06,2.07907e-05,3.96933e-05,7.2492e-05,0.000129402,0.00022815,0.000399492,0.000696794,0.00121266,0.00210775,0.00366087,0.00635576,0.0110318,0.0191453,inf	7186.59,7186.59,199.51,185.44,426.139,476.266,397.869,367.595,372.324,417.879,388.942,386.262,460.505,390.184,390.184,390.184
0.000949868	-12107955.93	0,3.61838e-06,9.89679e-06,2.07907e-05,3.96933e-05,7.2492e-05,0.000129402,0.00022815,0.000399492,0.000696794,0.00121266,0.00210775,0.00366087,0.00635576,0.0110318,0.0191453,inf	7141.18,7141.18,181.068,179.475,428.271,477.831,397.342,367.648,372.289,419.667,389.11,384.583,461.23,386.587,386.587,386.587
0.000966443	-12107739.84	0,3.61838e-06,9.89679e-06,2.07907e-05,3.96933e-05,7.2492e-05,0.000129402,0.00022815,0.000399492,0.000696794,0.00121266,0.00210775,0.00366087,0.00635576,0.0110318,0.0191453,inf	7099.86,7099.86,165.136,174.484,430.448,479.107,396.863,367.81,372.242,421.264,389.275,383.009,461.983,383.302,383.302,383.302
0.000981583	-12107557.96	0,3.61838e-06,9.89679e-06,2.07907e-05,3.96933e-05,7.2492e-05,0.000129402,0.00022815,0.000399492,0.000696794,0.00121266,0.00210775,0.00366087,0.00635576,0.0110318,0.0191453,inf	7061.75,7061.75,151.222,170.273,432.627,480.12,396.423,368.061,372.184,422.694,389.439,381.524,462.76,380.297,380.297,380.297
0.000995429	-12107404.09	0,3.61838e-06,9.89679e-06,2.07907e-05,3.96933e-05,7.2492e-05,0.000129402,0.00022815,0.000399492,0.000696794,0.00121266,0.00210775,0.00366087,0.00635576,0.0110318,0.0191453,inf	7026.26,7026.26,138.961,166.704,434.779,480.905,396.02,368.385,372.113,423.979,389.602,380.116,463.559,377.545,377.545,377.545
0.0010081	-12107273.32	0,3.61838e-06,9.89679e-06,2.07907e-05,3.96933e-05,7.2492e-05,0.000129402,0.00022815,0.000399492,0.000696794,0.00121266,0.00210775,0.00366087,0.00635576,0.0110318,0.0191453,inf	6993.78,6993.78,128.094,163.673,436.894,481.496,395.647,368.767,372.031,425.138,389.767,378.775,464.373,375.019,375.019,375.019
0.00101972	-12107161.68	0,3.61838e-06,9.89679e-06,2.07907e-05,3.96933e-05,7.2492e-05,0.000129402,0.00022815,0.000399492,0.000696794,0.00121266,0.00210775,0.00366087,0.00635576,0.0110318,0.0191453,inf	6964.16,6964.16,118.384,161.089,438.96,481.918,395.301,369.196,371.936,426.186,389.935,377.494,465.2,372.697,372.697,372.697
0.00103037	-12107066.00	0,3.61838e-06,9.89679e-06,2.07907e-05,3.96933e-05,7.2492e-05,0.000129402,0.00022815,0.000399492,0.000696794,0.00121266,0.00210775,0.00366087,0.00635576,0.0110318,0.0191453,inf	6936.82,6936.82,109.658,158.887,440.968,482.196,394.977,369.66,371.829,427.137,390.107,376.265,466.036,370.558,370.558,370.558
0.00104015	-12106983.67	0,3.61838e-06,9.89679e-06,2.07907e-05,3.96933e-05,7.2492e-05,0.000129402,0.00022815,0.000399492,0.000696794,0.00121266,0.00210775,0.00366087,0.00635576,0.0110318,0.0191453,inf	6911.32,6911.32,101.783,157.001,442.916,482.348,394.673,370.151,371.71,428.001,390.285,375.084,466.878,368.583,368.583,368.583
0.00104913	-12106912.58	0,3.61838e-06,9.89679e-06,2.07907e-05,3.96933e-05,7.2492e-05,0.000129402,0.00022815,0.000399492,0.000696794,0.00121266,0.00210775,0.00366087,0.00635576,0.0110318,0.0191453,inf	6888.86,6888.86,94.6449,155.393,444.806,482.398,394.386,370.663,371.579,428.789,390.469,373.944,467.722,366.756,366.756,366.756
