time_index	left_time_boundary	right_time_boundary	lambda
0	0	3.61838e-06	6888.86
1	3.61838e-06	9.89679e-06	6888.86
2	9.89679e-06	2.07907e-05	94.6449
3	2.07907e-05	3.96933e-05	155.393
4	3.96933e-05	7.2492e-05	444.806
5	7.2492e-05	0.000129402	482.398
6	0.000129402	0.00022815	394.386
7	0.00022815	0.000399492	370.663
8	0.000399492	0.000696794	371.579
9	0.000696794	0.00121266	428.789
10	0.00121266	0.00210775	390.469
11	0.00210775	0.00366087	373.944
12	0.00366087	0.00635576	467.722
13	0.00635576	0.0110318	366.756
14	0.0110318	0.0191453	366.756
15	0.0191453	inf	366.756
