0.000587023	-269706.66	0,3.75574e-05,8.14902e-05,0.000132881,0.000192994,0.000263313,0.000345567,0.000441785,0.000554335,0.000685991,0.000839995,0.00102014,0.00123087,0.00147737,0.00176571,0.00210299,0.00249753,0.00295905,0.0034989,0.0041304,0.00486909,0.00573317,0.00674394,0.00792628,0.00930932,0.0109271,0.0128196,0.0150332,0.0176227,0.0206517,0.0241949,0.0283395,inf	284.43,284.43,269.621,313.55,334.522,346.477,357.911,370.563,382.795,393.358,401.903,409.235,416.063,422.035,426.307,429.04,431.682,435.576,440.354,444.095,445.909,446.728,446.862,446.348,446.48,447.971,452.314,471.078,471.078,530.68,530.68,530.68
0.000621953	-269651.21	0,3.75574e-05,8.14902e-05,0.000132881,0.000192994,0.000263313,0.000345567,0.000441785,0.000554335,0.000685991,0.000839995,0.00102014,0.00123087,0.00147737,0.00176571,0.00210299,0.00249753,0.00295905,0.0034989,0.0041304,0.00486909,0.00573317,0.00674394,0.00792628,0.00930932,0.0109271,0.0128196,0.0150332,0.0176227,0.0206517,0.0241949,0.0283395,inf	257.11,257.11,215.005,282.09,310.261,322.596,335.45,351.885,368.381,382.294,392.821,401.465,409.531,416.343,420.394,422.088,424.172,429.095,436.134,441.718,444.122,444.959,444.731,443.364,443.092,445.204,452.784,488.447,488.447,614.394,614.394,614.394
0.000654694	-269617.35	0,3.75574e-05,8.14902e-05,0.000132881,0.000192994,0.000263313,0.000345567,0.000441785,0.000554335,0.000685991,0.000839995,0.00102014,0.00123087,0.00147737,0.00176571,0.00210299,0.00249753,0.00295905,0.0034989,0.0041304,0.00486909,0.00573317,0.00674394,0.00792628,0.00930932,0.0109271,0.0128196,0.0150332,0.0176227,0.0206517,0.0241949,0.0283395,inf	254.754,254.754,188.262,274.818,307.231,317.19,329.259,347.5,366.415,381.974,392.968,401.61,409.725,416.3,419.223,419.185,420.127,425.43,434.019,440.862,443.507,444.16,443.475,441.201,440.302,442.568,452.748,504.06,504.06,707.477,707.477,707.477
0.00068482	-269589.86	0,3.75574e-05,8.14902e-05,0.000132881,0.000192994,0.000263313,0.000345567,0.000441785,0.000554335,0.000685991,0.000839995,0.00102014,0.00123087,0.00147737,0.00176571,0.00210299,0.00249753,0.00295905,0.0034989,0.0041304,0.00486909,0.00573317,0.00674394,0.00792628,0.00930932,0.0109271,0.0128196,0.0150332,0.0176227,0.0206517,0.0241949,0.0283395,inf	256.974,256.974,170.602,274.89,310.229,316.76,327.407,346.846,367.571,384.206,395.228,403.558,411.468,417.585,419.245,417.44,417.217,422.756,432.627,440.489,443.255,443.677,442.539,439.376,437.734,439.859,452.202,518.172,518.172,815.925,815.925,815.925
0.000712415	-269567.11	0,3.75574e-05,8.14902e-05,0.000132881,0.000192994,0.000263313,0.000345567,0.000441785,0.000554335,0.000685991,0.000839995,0.00102014,0.00123087,0.00147737,0.00176571,0.00210299,0.00249753,0.00295905,0.0034989,0.0041304,0.00486909,0.00573317,0.00674394,0.00792628,0.00930932,0.0109271,0.0128196,0.0150332,0.0176227,0.0206517,0.0241949,0.0283395,inf	259.291,259.291,157.032,277.682,315.065,317.665,326.731,347.148,369.414,386.878,397.784,405.75,413.431,419.082,419.522,416.064,414.774,420.527,431.541,440.287,443.122,443.31,441.747,437.729,435.278,437.059,451.241,531.023,531.023,949.664,949.664,949.664
0.000737676	-269548.20	0,3.75574e-05,8.14902e-05,0.000132881,0.000192994,0.000263313,0.000345567,0.000441785,0.000554335,0.000685991,0.000839995,0.00102014,0.00123087,0.00147737,0.00176571,0.00210299,0.00249753,0.00295905,0.0034989,0.0041304,0.00486909,0.00573317,0.00674394,0.00792628,0.00930932,0.0109271,0.0128196,0.0150332,0.0176227,0.0206517,0.0241949,0.0283395,inf	260.91,260.91,145.842,281.687,320.417,318.829,326.324,347.636,371.294,389.446,400.181,407.801,415.289,420.51,419.808,414.827,412.583,418.557,430.619,440.157,443.032,442.993,441.04,436.204,432.901,434.192,449.96,542.81,542.81,1128.77,1128.77,1128.77
0.000760813	-269532.37	0,3.75574e-05,8.14902e-05,0.000132881,0.000192994,0.000263313,0.000345567,0.000441785,0.000554335,0.000685991,0.000839995,0.00102014,0.00123087,0.00147737,0.00176571,0.00210299,0.00249753,0.00295905,0.0034989,0.0041304,0.00486909,0.00573317,0.00674394,0.00792628,0.00930932,0.0109271,0.0128196,0.0150332,0.0176227,0.0206517,0.0241949,0.0283395,inf	261.841,261.841,136.274,286.318,325.814,319.915,325.925,348.1,373.049,391.795,402.336,409.645,416.98,421.815,420.048,413.664,410.566,416.77,429.807,440.064,442.96,442.707,440.394,434.775,430.592,431.288,448.439,553.69,553.69,1406.15,1406.15,1406.15
0.000782022	-269519.03	0,3.75574e-05,8.14902e-05,0.000132881,0.000192994,0.000263313,0.000345567,0.000441785,0.000554335,0.000685991,0.000839995,0.00102014,0.00123087,0.00147737,0.00176571,0.00210299,0.00249753,0.00295905,0.0034989,0.0041304,0.00486909,0.00573317,0.00674394,0.00792628,0.00930932,0.0109271,0.0128196,0.0150332,0.0176227,0.0206517,0.0241949,0.0283395,inf	262.297,262.297,127.915,291.299,331.074,320.817,325.46,348.494,374.657,393.922,404.259,411.292,418.514,422.999,420.238,412.554,408.689,415.131,429.081,439.998,442.9,442.445,439.8,433.43,428.349,428.371,446.737,563.778,563.778,2009.18,2009.18,2009.18
0.000801483	-269507.71	0,3.75574e-05,8.14902e-05,0.000132881,0.000192994,0.000263313,0.000345567,0.000441785,0.000554335,0.000685991,0.000839995,0.00102014,0.00123087,0.00147737,0.00176571,0.00210299,0.00249753,0.00295905,0.0034989,0.0041304,0.00486909,0.00573317,0.00674394,0.00792628,0.00930932,0.0109271,0.0128196,0.0150332,0.0176227,0.0206517,0.0241949,0.0283395,inf	262.424,262.424,120.499,296.475,336.109,321.509,324.915,348.813,376.129,395.852,405.977,412.768,419.911,424.081,420.384,411.49,406.93,413.616,428.427,439.954,442.85,442.205,439.253,432.159,426.169,425.457,444.9,573.143,573.143,5419.93,5419.93,5419.93
0.000801483	-269498.05	0,3.75574e-05,8.14902e-05,0.000132881,0.000192994,0.000263313,0.000345567,0.000441785,0.000554335,0.000685991,0.000839995,0.00102014,0.00123087,0.00147737,0.00176571,0.00210299,0.00249753,0.00295905,0.0034989,0.0041304,0.00486909,0.00573317,0.00674394,0.00792628,0.00930932,0.0109271,0.0128196,0.0150332,0.0176227,0.0206517,0.0241949,0.0283395,inf	260.046,260.046,112.983,299.367,338.159,319.465,321.791,346.394,374.615,394.635,404.538,411.151,418.29,422.266,417.875,408.102,403.128,410.199,425.912,438.131,441.191,440.537,437.444,429.785,422.986,421.583,442.048,580.749,580.749,93521.4,93521.4,93521.4
0.000801483	-269497.17	0,3.75574e-05,8.14902e-05,0.000132881,0.000192994,0.000263313,0.000345567,0.000441785,0.000554335,0.000685991,0.000839995,0.00102014,0.00123087,0.00147737,0.00176571,0.00210299,0.00249753,0.00295905,0.0034989,0.0041304,0.00486909,0.00573317,0.00674394,0.00792628,0.00930932,0.0109271,0.0128196,0.0150332,0.0176227,0.0206517,0.0241949,0.0283395,inf	259.286,259.286,106.315,303.127,340.582,318.45,319.807,345.229,374.455,394.846,404.571,411.046,418.222,422.023,416.904,406.166,400.673,408.019,424.524,437.324,440.434,439.671,436.358,428.015,420.369,418.197,439.602,585.499,585.499,93521.4,93521.4,93521.4
0.000801483	-269496.59	0,3.75574e-05,8.14902e-05,0.000132881,0.000192994,0.000263313,0.000345567,0.000441785,0.000554335,0.000685991,0.000839995,0.00102014,0.00123087,0.00147737,0.00176571,0.00210299,0.00249753,0.00295905,0.0034989,0.0041304,0.00486909,0.00573317,0.00674394,0.00792628,0.00930932,0.0109271,0.0128196,0.0150332,0.0176227,0.0206517,0.0241949,0.0283395,inf	259.128,259.128,100.133,307,341.941,317.589,318.055,344.331,374.591,395.387,404.571,411.388,418.681,422.21,416.597,404.914,398.894,406.488,423.751,437.088,440.199,439.284,435.702,426.68,418.136,415.185,437.45,589.094,589.094,93521.4,93521.4,93521.4
0.000801483	-269496.22	0,3.75574e-05,8.14902e-05,0.000132881,0.000192994,0.000263313,0.000345567,0.000441785,0.000554335,0.000685991,0.000839995,0.00102014,0.00123087,0.00147737,0.00176571,0.00210299,0.00249753,0.00295905,0.0034989,0.0041304,0.00486909,0.00573317,0.00674394,0.00792628,0.00930932,0.0109271,0.0128196,0.0150332,0.0176227,0.0206517,0.0241949,0.0283395,inf	259.181,259.181,94.3853,311.018,342.679,316.828,316.425,343.514,374.786,396.01,405.079,411.408,419.07,422.21,416.597,404.02,397.49,405.329,423.336,437.189,440.277,439.194,435.333,425.639,416.195,412.448,435.513,591.999,591.999,93521.4,93521.4,93521.4
0.000801483	-269495.95	0,3.75574e-05,8.14902e-05,0.000132881,0.000192994,0.000263313,0.000345567,0.000441785,0.000554335,0.000685991,0.000839995,0.00102014,0.00123087,0.00147737,0.00176571,0.00210299,0.00249753,0.00295905,0.0034989,0.0041304,0.00486909,0.00573317,0.00674394,0.00792628,0.00930932,0.0109271,0.0128196,0.0150332,0.0176227,0.0206517,0.0241949,0.0283395,inf	259.204,259.204,89.0393,315.179,343.029,316.158,314.886,342.787,375.018,396.643,405.62,411.69,419.071,422.21,416.597,403.353,396.326,404.406,423.144,437.5,440.551,439.294,435.166,424.802,414.465,409.92,433.741,594.439,594.439,93521.4,93521.4,93521.4
0.000801483	-269495.77	0,3.75574e-05,8.14902e-05,0.000132881,0.000192994,0.000263313,0.000345567,0.000441785,0.000554335,0.000685991,0.000839995,0.00102014,0.00123087,0.00147737,0.00176571,0.00210299,0.00249753,0.00295905,0.0034989,0.0041304,0.00486909,0.00573317,0.00674394,0.00792628,0.00930932,0.0109271,0.0128196,0.0150332,0.0176227,0.0206517,0.0241949,0.0283395,inf	259.242,259.242,84.0521,319.443,343.029,315.564,313.432,342.101,375.265,397.275,406.166,411.867,419.074,422.21,416.597,402.847,395.329,403.643,423.096,437.942,440.945,439.514,435.136,424.111,412.897,407.555,432.102,596.548,596.548,93521.4,93521.4,93521.4
0.000801483	-269495.63	0,3.75574e-05,8.14902e-05,0.000132881,0.000192994,0.000263313,0.000345567,0.000441785,0.000554335,0.000685991,0.000839995,0.00102014,0.00123087,0.00147737,0.00176571,0.00210299,0.00249753,0.00295905,0.0034989,0.0041304,0.00486909,0.00573317,0.00674394,0.00792628,0.00930932,0.0109271,0.0128196,0.0150332,0.0176227,0.0206517,0.0241949,0.0283395,inf	259.258,259.258,79.3889,323.429,343.029,315.046,312.054,341.458,375.525,397.903,406.706,411.872,419.148,422.21,416.597,402.456,394.45,402.985,423.141,437.96,441.413,439.808,435.184,423.527,411.454,405.324,430.569,598.483,598.483,93521.4,93521.4,93521.4
0.000801483	-269495.50	0,3.75574e-05,8.14902e-05,0.000132881,0.000192994,0.000263313,0.000345567,0.000441785,0.000554335,0.000685991,0.000839995,0.00102014,0.00123087,0.00147737,0.00176571,0.00210299,0.00249753,0.00295905,0.0034989,0.0041304,0.00486909,0.00573317,0.00674394,0.00792628,0.00930932,0.0109271,0.0128196,0.0150332,0.0176227,0.0206517,0.0241949,0.0283395,inf	259.305,259.305,75.0382,327.318,343.029,314.599,310.745,340.841,375.803,398.522,407.238,411.877,419.161,422.21,416.597,402.165,393.672,402.423,423.267,438.553,441.714,439.808,435.184,423.043,410.124,403.213,429.132,600.262,600.262,93521.4,93521.4,93521.4
0.000801483	-269495.40	0,3.75574e-05,8.14902e-05,0.000132881,0.000192994,0.000263313,0.000345567,0.000441785,0.000554335,0.000685991,0.000839995,0.00102014,0.00123087,0.00147737,0.00176571,0.00210299,0.00249753,0.00295905,0.0034989,0.0041304,0.00486909,0.00573317,0.00674394,0.00792628,0.00930932,0.0109271,0.0128196,0.0150332,0.0176227,0.0206517,0.0241949,0.0283395,inf	259.321,259.321,70.9394,330.822,343.029,314.2,309.488,340.27,376.073,399.126,407.238,412.302,419.161,422.21,416.597,401.941,392.962,401.92,423.442,439.19,441.726,439.903,435.184,422.647,408.898,401.212,427.785,601.917,601.917,93521.4,93521.4,93521.4
0.000801483	-269495.30	0,3.75574e-05,8.14902e-05,0.000132881,0.000192994,0.000263313,0.000345567,0.000441785,0.000554335,0.000685991,0.000839995,0.00102014,0.00123087,0.00147737,0.00176571,0.00210299,0.00249753,0.00295905,0.0034989,0.0041304,0.00486909,0.00573317,0.00674394,0.00792628,0.00930932,0.0109271,0.0128196,0.0150332,0.0176227,0.0206517,0.0241949,0.0283395,inf	259.338,259.338,67.0967,334.107,343.029,313.867,308.289,339.725,376.372,399.722,407.239,412.648,419.161,422.21,416.597,401.769,392.306,401.465,423.658,439.839,441.726,439.903,435.184,422.335,407.768,399.314,426.521,603.457,603.457,93521.4,93521.4,93521.4
0.000801483	-269495.22	0,3.75574e-05,8.14902e-05,0.000132881,0.000192994,0.000263313,0.000345567,0.000441785,0.000554335,0.000685991,0.000839995,0.00102014,0.00123087,0.00147737,0.00176571,0.00210299,0.00249753,0.00295905,0.0034989,0.0041304,0.00486909,0.00573317,0.00674394,0.00792628,0.00930932,0.0109271,0.0128196,0.0150332,0.0176227,0.0206517,0.0241949,0.0283395,inf	259.363,259.363,63.4908,337.19,343.029,313.591,307.154,339.214,376.673,400.308,407.239,412.93,419.161,422.21,416.597,401.641,391.694,401.049,423.906,439.851,442.181,439.903,435.184,422.099,406.727,397.512,425.332,604.89,604.89,93521.4,93521.4,93521.4
