time_index	left_time_boundary	right_time_boundary	lambda
0	0	8.14902e-05	249.749
1	8.14902e-05	0.000192994	249.749
2	0.000192994	0.000345567	345.302
3	0.000345567	0.000554335	325.867
4	0.000554335	0.000839995	406.196
5	0.000839995	0.00123087	433.311
6	0.00123087	0.00176571	425.812
7	0.00176571	0.00249753	396.583
8	0.00249753	0.0034989	373.549
9	0.0034989	0.00486909	427.874
10	0.00486909	0.00674394	504.994
11	0.00674394	0.00930932	444.108
12	0.00930932	0.0128196	332.194
13	0.0128196	0.0176227	720.284
14	0.0176227	0.0241949	720.284
15	0.0241949	inf	720.284
