time_index	left_time_boundary	right_time_boundary	lambda
0	0	1.03509e-05	250.757
1	1.03509e-05	2.71197e-05	250.757
2	2.71197e-05	5.42857e-05	619.292
3	5.42857e-05	9.82954e-05	528.506
4	9.82954e-05	0.000169593	454.566
5	0.000169593	0.000285096	246.851
6	0.000285096	0.000472216	362.156
7	0.000472216	0.000775355	421.57
8	0.000775355	0.00126645	349.839
9	0.00126645	0.00206204	401.638
10	0.00206204	0.00335092	487.118
11	0.00335092	0.00543895	335.91
12	0.00543895	0.00882162	448.692
13	0.00882162	0.0143017	137.525
14	0.0143017	0.0231795	137.525
15	0.0231795	inf	137.525
