0.000650889	-303835.36	0,4.26626e-05,9.25673e-05,0.000150943,0.000219228,0.000299105,0.000392541,0.000501837,0.000629687,0.000779239,0.000954177,0.00115881,0.00139818,0.00167819,0.00200572,0.00238885,0.00283702,0.00336127,0.00397451,0.00469184,0.00553095,0.00651249,0.00766065,0.0090037,0.0105747,0.0124125,0.0145621,0.0170767,0.0200182,0.0234589,0.0274837,0.0321917,inf	494.736,494.736,432.021,392.318,386.443,376.935,375.021,378.61,382.594,391.611,403.267,414.552,423.709,430.097,432.541,431.548,428.754,425.677,424.202,424.855,425.96,426.016,425.501,424.398,420.294,415,415.08,430.117,430.117,591.257,591.257,591.257
0.000668035	-303821.00	0,4.26626e-05,9.25673e-05,0.000150943,0.000219228,0.000299105,0.000392541,0.000501837,0.000629687,0.000779239,0.000954177,0.00115881,0.00139818,0.00167819,0.00200572,0.00238885,0.00283702,0.00336127,0.00397451,0.00469184,0.00553095,0.00651249,0.00766065,0.0090037,0.0105747,0.0124125,0.0145621,0.0170767,0.0200182,0.0234589,0.0274837,0.0321917,inf	546.805,546.805,451.554,386.3,381.153,363.422,358.814,362.874,366.99,380.46,399.18,417.874,433.455,444.702,449.2,447.667,443.063,438.2,436.662,439.399,442.971,444.248,444.327,443.161,435.239,424.292,424.147,458.197,458.197,1058.43,1058.43,1058.43
0.000681997	-303817.65	0,4.26626e-05,9.25673e-05,0.000150943,0.000219228,0.000299105,0.000392541,0.000501837,0.000629687,0.000779239,0.000954177,0.00115881,0.00139818,0.00167819,0.00200572,0.00238885,0.00283702,0.00336127,0.00397451,0.00469184,0.00553095,0.00651249,0.00766065,0.0090037,0.0105747,0.0124125,0.0145621,0.0170767,0.0200182,0.0234589,0.0274837,0.0321917,inf	573.125,573.125,465.554,382.829,382.184,357.06,349.797,353.03,355.507,371.107,394.247,417.807,437.682,452.22,457.883,455.532,449.269,443.029,441.877,447.098,453.542,456.433,457.571,456.855,445.186,428.242,427.417,485.089,485.089,3152.18,3152.18,3152.18
0.000681997	-303816.32	0,4.26626e-05,9.25673e-05,0.000150943,0.000219228,0.000299105,0.000392541,0.000501837,0.000629687,0.000779239,0.000954177,0.00115881,0.00139818,0.00167819,0.00200572,0.00238885,0.00283702,0.00336127,0.00397451,0.00469184,0.00553095,0.00651249,0.00766065,0.0090037,0.0105747,0.0124125,0.0145621,0.0170767,0.0200182,0.0234589,0.0274837,0.0321917,inf	581.118,581.118,473.24,378.327,384.479,352.86,343.381,345.327,345.455,361.999,388.031,414.885,437.685,454.472,460.731,457.443,449.703,442.407,441.886,449.69,459.095,463.752,466.182,466.212,450.869,427.737,425.854,512.293,512.293,82174.2,82174.2,82174.2
0.000681997	-303817.07	0,4.26626e-05,9.25673e-05,0.000150943,0.000219228,0.000299105,0.000392541,0.000501837,0.000629687,0.000779239,0.000954177,0.00115881,0.00139818,0.00167819,0.00200572,0.00238885,0.00283702,0.00336127,0.00397451,0.00469184,0.00553095,0.00651249,0.00766065,0.0090037,0.0105747,0.0124125,0.0145621,0.0170767,0.0200182,0.0234589,0.0274837,0.0321917,inf	581.134,581.134,473.24,375.599,384.886,352.306,340.969,341.611,339.048,356.008,384.221,413.584,438.552,456.952,463.337,458.807,449.413,440.942,440.908,451.131,459.27,463.752,467.483,466.212,450.869,425.392,422.38,514.451,514.451,82174.2,82174.2,82174.2
0.000681997	-303816.91	0,4.26626e-05,9.25673e-05,0.000150943,0.000219228,0.000299105,0.000392541,0.000501837,0.000629687,0.000779239,0.000954177,0.00115881,0.00139818,0.00167819,0.00200572,0.00238885,0.00283702,0.00336127,0.00397451,0.00469184,0.00553095,0.00651249,0.00766065,0.0090037,0.0105747,0.0124125,0.0145621,0.0170767,0.0200182,0.0234589,0.0274837,0.0321917,inf	581.146,581.146,473.241,374.42,385.893,352.306,340.675,340.004,334.57,351.652,381.629,413.041,439.753,459.392,465.766,459.396,448.922,439.344,439.835,452.488,459.27,464.509,467.483,466.212,450.869,423.096,419.047,516.528,516.528,82174.2,82174.2,82174.2
0.000681997	-303816.82	0,4.26626e-05,9.25673e-05,0.000150943,0.000219228,0.000299105,0.000392541,0.000501837,0.000629687,0.000779239,0.000954177,0.00115881,0.00139818,0.00167819,0.00200572,0.00238885,0.00283702,0.00336127,0.00397451,0.00469184,0.00553095,0.00651249,0.00766065,0.0090037,0.0105747,0.0124125,0.0145621,0.0170767,0.0200182,0.0234589,0.0274837,0.0321917,inf	581.155,581.155,473.268,373.811,386.415,352.306,340.675,339.496,331.127,348.174,379.65,412.813,441,461.719,467.166,459.396,448.297,437.687,438.736,453.817,460.272,464.537,467.483,466.212,450.869,420.888,415.898,516.528,516.528,82175.7,82175.7,82175.7
0.000681997	-303816.72	0,4.26626e-05,9.25673e-05,0.000150943,0.000219228,0.000299105,0.000392541,0.000501837,0.000629687,0.000779239,0.000954177,0.00115881,0.00139818,0.00167819,0.00200572,0.00238885,0.00283702,0.00336127,0.00397451,0.00469184,0.00553095,0.00651249,0.00766065,0.0090037,0.0105747,0.0124125,0.0145621,0.0170767,0.0200182,0.0234589,0.0274837,0.0321917,inf	581.159,581.159,473.268,373.545,386.641,352.306,340.675,339.496,328.379,345.287,378.082,412.746,442.216,463.981,467.614,459.396,447.64,436.045,437.655,455.144,461.304,464.537,467.483,466.212,450.869,418.79,412.933,518.402,518.402,82175.7,82175.7,82175.7
0.000681997	-303816.64	0,4.26626e-05,9.25673e-05,0.000150943,0.000219228,0.000299105,0.000392541,0.000501837,0.000629687,0.000779239,0.000954177,0.00115881,0.00139818,0.00167819,0.00200572,0.00238885,0.00283702,0.00336127,0.00397451,0.00469184,0.00553095,0.00651249,0.00766065,0.0090037,0.0105747,0.0124125,0.0145621,0.0170767,0.0200182,0.0234589,0.0274837,0.0321917,inf	581.171,581.171,473.268,373.522,386.661,352.306,340.675,339.496,326.131,342.831,376.81,412.804,443.463,466.005,467.614,459.396,447.005,434.454,436.617,456.484,462.25,464.537,467.483,466.212,450.869,416.775,410.112,520.193,520.193,82175.7,82175.7,82175.7
0.000681997	-303816.56	0,4.26626e-05,9.25673e-05,0.000150943,0.000219228,0.000299105,0.000392541,0.000501837,0.000629687,0.000779239,0.000954177,0.00115881,0.00139818,0.00167819,0.00200572,0.00238885,0.00283702,0.00336127,0.00397451,0.00469184,0.00553095,0.00651249,0.00766065,0.0090037,0.0105747,0.0124125,0.0145621,0.0170767,0.0200182,0.0234589,0.0274837,0.0321917,inf	581.179,581.179,473.268,373.522,386.661,352.306,340.675,339.496,324.278,340.71,375.762,412.975,444.734,467.426,467.614,459.396,446.416,432.932,435.634,457.85,462.274,465.214,467.483,466.212,450.869,414.839,407.426,521.895,521.895,82175.7,82175.7,82175.7
0.000681997	-303816.48	0,4.26626e-05,9.25673e-05,0.000150943,0.000219228,0.000299105,0.000392541,0.000501837,0.000629687,0.000779239,0.000954177,0.00115881,0.00139818,0.00167819,0.00200572,0.00238885,0.00283702,0.00336127,0.00397451,0.00469184,0.00553095,0.00651249,0.00766065,0.0090037,0.0105747,0.0124125,0.0145621,0.0170767,0.0200182,0.0234589,0.0274837,0.0321917,inf	581.205,581.205,473.268,373.522,386.661,352.306,340.675,339.496,322.746,338.858,374.889,413.238,446.026,468.364,467.614,459.396,445.894,431.495,434.721,459.257,462.294,465.214,467.938,466.212,450.869,412.974,404.864,523.532,523.532,82175.7,82175.7,82175.7
0.000681997	-303816.40	0,4.26626e-05,9.25673e-05,0.000150943,0.000219228,0.000299105,0.000392541,0.000501837,0.000629687,0.000779239,0.000954177,0.00115881,0.00139818,0.00167819,0.00200572,0.00238885,0.00283702,0.00336127,0.00397451,0.00469184,0.00553095,0.00651249,0.00766065,0.0090037,0.0105747,0.0124125,0.0145621,0.0170767,0.0200182,0.0234589,0.0274837,0.0321917,inf	581.213,581.213,473.268,373.522,386.661,352.306,340.675,339.496,321.475,337.225,374.153,413.574,447.339,468.909,467.614,459.396,445.443,430.143,433.878,460.706,462.314,465.214,468.26,466.212,450.869,411.177,402.418,525.101,525.101,82175.7,82175.7,82175.7
0.000681997	-303816.34	0,4.26626e-05,9.25673e-05,0.000150943,0.000219228,0.000299105,0.000392541,0.000501837,0.000629687,0.000779239,0.000954177,0.00115881,0.00139818,0.00167819,0.00200572,0.00238885,0.00283702,0.00336127,0.00397451,0.00469184,0.00553095,0.00651249,0.00766065,0.0090037,0.0105747,0.0124125,0.0145621,0.0170767,0.0200182,0.0234589,0.0274837,0.0321917,inf	581.219,581.219,473.268,373.522,386.661,352.306,340.675,339.496,320.416,335.768,373.528,413.966,448.667,468.909,467.811,459.396,445.06,428.87,433.098,462.191,462.335,465.454,468.26,466.212,450.869,409.449,400.084,526.603,526.603,82175.7,82175.7,82175.7
0.000681997	-303816.28	0,4.26626e-05,9.25673e-05,0.000150943,0.000219228,0.000299105,0.000392541,0.000501837,0.000629687,0.000779239,0.000954177,0.00115881,0.00139818,0.00167819,0.00200572,0.00238885,0.00283702,0.00336127,0.00397451,0.00469184,0.00553095,0.00651249,0.00766065,0.0090037,0.0105747,0.0124125,0.0145621,0.0170767,0.0200182,0.0234589,0.0274837,0.0321917,inf	581.229,581.229,473.27,373.522,386.661,352.306,340.675,339.496,319.536,334.46,372.979,414.418,449.969,468.909,467.811,459.396,444.736,427.662,432.366,463.699,462.357,465.584,468.26,466.212,450.869,407.79,397.86,528.038,528.038,82175.7,82175.7,82175.7
0.000681997	-303816.23	0,4.26626e-05,9.25673e-05,0.000150943,0.000219228,0.000299105,0.000392541,0.000501837,0.000629687,0.000779239,0.000954177,0.00115881,0.00139818,0.00167819,0.00200572,0.00238885,0.00283702,0.00336127,0.00397451,0.00469184,0.00553095,0.00651249,0.00766065,0.0090037,0.0105747,0.0124125,0.0145621,0.0170767,0.0200182,0.0234589,0.0274837,0.0321917,inf	581.243,581.243,473.27,373.522,386.661,352.306,340.675,339.496,318.799,333.266,372.514,414.889,451.045,468.909,467.811,459.396,444.471,426.516,431.678,465.229,462.409,465.584,468.26,466.212,450.869,406.199,395.74,529.409,529.409,82175.7,82175.7,82175.7
0.000681997	-303816.18	0,4.26626e-05,9.25673e-05,0.000150943,0.000219228,0.000299105,0.000392541,0.000501837,0.000629687,0.000779239,0.000954177,0.00115881,0.00139818,0.00167819,0.00200572,0.00238885,0.00283702,0.00336127,0.00397451,0.00469184,0.00553095,0.00651249,0.00766065,0.0090037,0.0105747,0.0124125,0.0145621,0.0170767,0.0200182,0.0234589,0.0274837,0.0321917,inf	581.254,581.254,473.283,373.522,386.661,352.306,340.675,339.496,318.185,332.172,372.101,415.397,451.925,468.909,467.811,459.396,444.259,425.426,431.034,465.244,463.661,465.584,468.26,466.212,450.869,404.674,393.72,530.719,530.719,82175.7,82175.7,82175.7
0.000681997	-303816.12	0,4.26626e-05,9.25673e-05,0.000150943,0.000219228,0.000299105,0.000392541,0.000501837,0.000629687,0.000779239,0.000954177,0.00115881,0.00139818,0.00167819,0.00200572,0.00238885,0.00283702,0.00336127,0.00397451,0.00469184,0.00553095,0.00651249,0.00766065,0.0090037,0.0105747,0.0124125,0.0145621,0.0170767,0.0200182,0.0234589,0.0274837,0.0321917,inf	581.255,581.255,473.288,373.522,386.661,352.306,340.675,339.496,317.677,331.153,371.759,415.923,452.633,468.909,467.811,459.396,444.121,424.414,430.448,466.57,463.661,465.584,468.26,466.212,450.869,403.208,391.791,531.973,531.973,82175.7,82175.7,82175.7
0.000681997	-303816.08	0,4.26626e-05,9.25673e-05,0.000150943,0.000219228,0.000299105,0.000392541,0.000501837,0.000629687,0.000779239,0.000954177,0.00115881,0.00139818,0.00167819,0.00200572,0.00238885,0.00283702,0.00336127,0.00397451,0.00469184,0.00553095,0.00651249,0.00766065,0.0090037,0.0105747,0.0124125,0.0145621,0.0170767,0.0200182,0.0234589,0.0274837,0.0321917,inf	581.255,581.255,473.288,373.522,386.661,352.306,340.675,339.496,317.257,330.215,371.446,416.475,452.637,469.39,467.811,459.396,444.028,423.447,429.895,467.808,463.661,465.584,468.26,466.212,450.869,401.803,389.951,533.171,533.171,82175.7,82175.7,82175.7
0.000681997	-303816.04	0,4.26626e-05,9.25673e-05,0.000150943,0.000219228,0.000299105,0.000392541,0.000501837,0.000629687,0.000779239,0.000954177,0.00115881,0.00139818,0.00167819,0.00200572,0.00238885,0.00283702,0.00336127,0.00397451,0.00469184,0.00553095,0.00651249,0.00766065,0.0090037,0.0105747,0.0124125,0.0145621,0.0170767,0.0200182,0.0234589,0.0274837,0.0321917,inf	581.282,581.282,473.288,373.522,386.661,352.306,340.675,339.496,316.931,329.357,371.193,417.052,453.039,469.39,467.811,459.396,443.971,422.519,429.369,468.972,463.661,465.584,468.26,466.212,450.869,400.459,388.198,534.314,534.314,82175.7,82175.7,82175.7
0.000681997	-303816.01	0,4.26626e-05,9.25673e-05,0.000150943,0.000219228,0.000299105,0.000392541,0.000501837,0.000629687,0.000779239,0.000954177,0.00115881,0.00139818,0.00167819,0.00200572,0.00238885,0.00283702,0.00336127,0.00397451,0.00469184,0.00553095,0.00651249,0.00766065,0.0090037,0.0105747,0.0124125,0.0145621,0.0170767,0.0200182,0.0234589,0.0274837,0.0321917,inf	581.309,581.309,473.288,373.522,386.661,352.306,340.675,339.496,316.67,328.551,370.972,417.644,453.337,469.39,467.811,459.396,443.954,421.632,428.872,470.055,463.661,465.584,468.26,466.212,450.869,399.173,386.525,535.407,535.407,82175.7,82175.7,82175.7
