AIC = 269679.10865511640441

y0 0.1345502455097138117
y0_prime 0
y1 0.35658983051136772247
y1_prime 0
y2 2.3362634689102739216
y2_prime 0
y3 23.681062829713443563
y3_prime 0
rho 0.0013529409807976698187
rho.alpha 0.20551911144093837347
r_ii 0.99977242129998711295
theta 0.0018592396288961299949
