LogLikelihood = -131704.5559599007247

y0 5.8233437656015377295e-10
y0_prime 0
y1 1.1182238954926575492
y1_prime 0
y2 1.680953805716054239
y2_prime 0
y3 2.8297170558212902947
y3_prime 0
rho 0.22848694921386489276
theta 0.0017999904179216471688
