LogLikelihood = -127946.29504366885521

y0 0.46019680839235999059
y0_prime 0
y1 0.34693981163512221944
y1_prime 0
y2 1.8373851753607688408
y2_prime 0
y3 17.391165334249659935
y3_prime 0
rho 0.00010721482040932940041
theta 0.0017672356235812127379
