AIC = 583672.88602298975457

y0 0.87098132042886733384
y0_prime 0
y1 0.87735377192270369573
y1_prime 0
y2 0.98245032764479778287
y2_prime 0
y3 1.6959645442180404373
y3_prime 0
rho 0.0018132076789547663803
theta 0.0047603516921466545661
