time_index	left_time_boundary	right_time_boundary	lambda
0	0	2.08698e-05	0.813377
1	2.08698e-05	4.52822e-05	0.813377
2	4.52822e-05	7.38386e-05	0.813377
3	7.38386e-05	0.000107242	0.813377
4	0.000107242	0.000146317	0.813377
5	0.000146317	0.000192024	0.813377
6	0.000192024	0.000245489	0.813377
7	0.000245489	0.000308031	0.813377
8	0.000308031	0.000381189	0.813377
9	0.000381189	0.000466766	0.813377
10	0.000466766	0.000566869	2.02085
11	0.000566869	0.000683965	25.6588
12	0.000683965	0.000820937	174.144
13	0.000820937	0.000981161	682.571
14	0.000981161	0.00116858	1903.17
15	0.00116858	0.00138782	3949.05
16	0.00138782	0.00164427	5512.33
17	0.00164427	0.00194426	5978.43
18	0.00194426	0.00229516	5306.76
19	0.00229516	0.00270564	4481.57
20	0.00270564	0.00318579	3555.39
21	0.00318579	0.00374745	2580.63
22	0.00374745	0.00440444	1862.73
23	0.00440444	0.00517297	1454.48
24	0.00517297	0.00607195	1266.16
25	0.00607195	0.00712353	1211.1
26	0.00712353	0.00835362	1205.44
27	0.00835362	0.00979252	1093.52
28	0.00979252	0.0114757	1093.52
29	0.0114757	0.0134445	460.205
30	0.0134445	0.0157476	460.205
31	0.0157476	inf	460.205
