0.000260639	-8066751.47	0,2.21479e-06,6.05776e-06,1.27259e-05,2.4296e-05,4.43719e-05,7.92064e-05,0.000139649,0.000244526,0.000426503,0.000742259,0.00129014,0.0022408,0.00389032,0.00675248,0.0117187,inf	16.3548,16.3548,18.1824,35.5992,72.1436,159.761,390.045,416.658,350.555,531.55,1020.56,751.458,696.055,813.441,813.441,813.441
0.000191904	-8053966.27	0,2.21479e-06,6.05776e-06,1.27259e-05,2.4296e-05,4.43719e-05,7.92064e-05,0.000139649,0.000244526,0.000426503,0.000742259,0.00129014,0.0022408,0.00389032,0.00675248,0.0117187,inf	1.09576,1.09576,0.737612,1.23437,5.01088,23.9464,167.256,250.006,181.075,366.28,1275.9,756.136,646.328,906.731,906.731,906.731
0.000132139	-8043308.72	0,2.21479e-06,6.05776e-06,1.27259e-05,2.4296e-05,4.43719e-05,7.92064e-05,0.000139649,0.000244526,0.000426503,0.000742259,0.00129014,0.0022408,0.00389032,0.00675248,0.0117187,inf	1.09576,1.09576,0.737612,0.737612,0.737612,2.34138,45.9408,139.812,103.76,240.378,1417.66,780.57,587.653,1031.55,1031.55,1031.55
8.54182e-05	-8034330.62	0,2.21479e-06,6.05776e-06,1.27259e-05,2.4296e-05,4.43719e-05,7.92064e-05,0.000139649,0.000244526,0.000426503,0.000742259,0.00129014,0.0022408,0.00389032,0.00675248,0.0117187,inf	1.09576,1.09576,0.737612,0.737612,0.737612,0.737612,7.80958,74.08,67.2264,146.3,1433.75,908.014,516.333,1238.64,1238.64,1238.64
5.37407e-05	-8027031.78	0,2.21479e-06,6.05776e-06,1.27259e-05,2.4296e-05,4.43719e-05,7.92064e-05,0.000139649,0.000244526,0.000426503,0.000742259,0.00129014,0.0022408,0.00389032,0.00675248,0.0117187,inf	1.09576,1.09576,0.737612,0.737612,0.737612,0.737612,1.1474,38.3944,47.9727,78.9534,1357.68,1454.11,425.205,1711.11,1711.11,1711.11
3.43986e-05	-8021034.64	0,2.21479e-06,6.05776e-06,1.27259e-05,2.4296e-05,4.43719e-05,7.92064e-05,0.000139649,0.000244526,0.000426503,0.000742259,0.00129014,0.0022408,0.00389032,0.00675248,0.0117187,inf	1.09576,1.09576,0.737612,0.737612,0.737612,0.737612,0.737825,17.6339,35.0617,38.3513,1218.42,3667.93,317.677,3718.28,3718.28,3718.28
3.43985e-05	-8014793.40	0,2.21479e-06,6.05776e-06,1.27259e-05,2.4296e-05,4.43719e-05,7.92064e-05,0.000139649,0.000244526,0.000426503,0.000742259,0.00129014,0.0022408,0.00389032,0.00675248,0.0117187,inf	1.09576,1.09576,0.737612,0.737612,0.737612,0.737612,0.737825,10.257,25.4108,17.8168,1264.2,11045.7,235.635,90954.6,90954.6,90954.6
