0.000629766	-15883241.13	0,2.15749e-06,4.99944e-06,8.74299e-06,1.36742e-05,2.01698e-05,2.87261e-05,3.99969e-05,5.48434e-05,7.43998e-05,0.000100161,0.000134094,0.000178792,0.000237672,0.00031523,0.000417394,0.000551969,0.000729238,0.000962745,0.00127033,0.0016755,0.00220921,0.00291223,0.00383829,0.00505814,0.00666499,0.00878161,0.0115697,0.0152424,0.0200801,0.0264527,0.0348469,inf	2.49188,2.49188,6.21457,14.0772,97.5511,20.4575,38.213,37.4778,58.7882,137.321,170.337,153.222,260.763,313.105,181.917,163.08,198.042,209.733,158.437,123.474,125.016,157.107,228.859,353.405,434.803,431.836,414.571,392.372,392.372,352.937,352.937,352.937
0.000547287	-15837019.92	0,2.15749e-06,4.99944e-06,8.74299e-06,1.36742e-05,2.01698e-05,2.87261e-05,3.99969e-05,5.48434e-05,7.43998e-05,0.000100161,0.000134094,0.000178792,0.000237672,0.00031523,0.000417394,0.000551969,0.000729238,0.000962745,0.00127033,0.0016755,0.00220921,0.00291223,0.00383829,0.00505814,0.00666499,0.00878161,0.0115697,0.0152424,0.0200801,0.0264527,0.0348469,inf	0.326768,0.326768,0.326786,0.340475,6.85673,0.812975,3.73347,2.85594,7.03222,50.8892,82.2496,52.2608,138.12,259.236,89.1645,66.352,115.664,166.396,85.8621,50.4465,57.1505,92.8832,178.438,366.612,541.851,548.227,516.655,466.815,466.815,368.793,368.793,368.793
0.000480605	-15814932.53	0,2.15749e-06,4.99944e-06,8.74299e-06,1.36742e-05,2.01698e-05,2.87261e-05,3.99969e-05,5.48434e-05,7.43998e-05,0.000100161,0.000134094,0.000178792,0.000237672,0.00031523,0.000417394,0.000551969,0.000729238,0.000962745,0.00127033,0.0016755,0.00220921,0.00291223,0.00383829,0.00505814,0.00666499,0.00878161,0.0115697,0.0152424,0.0200801,0.0264527,0.0348469,inf	0.326767,0.326767,0.326768,0.326771,0.612135,0.326768,0.397406,0.326779,0.607855,12.0195,38.9143,16.9472,52.3209,174.407,43.6745,21.6286,57.0934,138.619,49.1742,20.8751,27.7716,58.9883,144.734,368.019,641.904,671.939,632.099,548.597,548.597,372.039,372.039,372.039
0.000421815	-15801830.58	0,2.15749e-06,4.99944e-06,8.74299e-06,1.36742e-05,2.01698e-05,2.87261e-05,3.99969e-05,5.48434e-05,7.43998e-05,0.000100161,0.000134094,0.000178792,0.000237672,0.00031523,0.000417394,0.000551969,0.000729238,0.000962745,0.00127033,0.0016755,0.00220921,0.00291223,0.00383829,0.00505814,0.00666499,0.00878161,0.0115697,0.0152424,0.0200801,0.0264527,0.0348469,inf	0.326767,0.326767,0.326768,0.326771,0.332079,0.326767,0.397406,0.326769,0.326767,1.4061,10.7278,3.26491,13.4005,95.8403,22.8341,5.6576,23.1924,112.229,30.6933,8.60316,13.738,38.4777,119.635,362.484,735.61,804.68,766.964,640.867,640.867,366.074,366.074,366.074
0.000368462	-15792994.30	0,2.15749e-06,4.99944e-06,8.74299e-06,1.36742e-05,2.01698e-05,2.87261e-05,3.99969e-05,5.48434e-05,7.43998e-05,0.000100161,0.000134094,0.000178792,0.000237672,0.00031523,0.000417394,0.000551969,0.000729238,0.000962745,0.00127033,0.0016755,0.00220921,0.00291223,0.00383829,0.00505814,0.00666499,0.00878161,0.0115697,0.0152424,0.0200801,0.0264527,0.0348469,inf	0.326767,0.326767,0.326767,0.326768,0.332079,0.326767,0.397406,0.326769,0.326767,0.326767,3.18387,0.44271,2.2111,42.3358,10.7755,1.19093,7.74437,87.547,21.8893,3.47087,6.73487,25.1547,99.6336,353.45,824.776,950.864,936.879,752.375,752.375,356.168,356.168,356.168
0.000319552	-15786392.71	0,2.15749e-06,4.99944e-06,8.74299e-06,1.36742e-05,2.01698e-05,2.87261e-05,3.99969e-05,5.48434e-05,7.43998e-05,0.000100161,0.000134094,0.000178792,0.000237672,0.00031523,0.000417394,0.000551969,0.000729238,0.000962745,0.00127033,0.0016755,0.00220921,0.00291223,0.00383829,0.00505814,0.00666499,0.00878161,0.0115697,0.0152424,0.0200801,0.0264527,0.0348469,inf	0.326767,0.326767,0.326767,0.326768,0.332079,0.326767,0.51235,0.326769,0.326767,0.326767,1.52904,0.327332,0.326767,14.0411,3.61923,0.326767,2.15398,66.9411,18.1503,1.33945,3.20911,16.2053,82.9395,343.021,911.163,1117.9,1182.45,904.558,904.558,346.576,346.576,346.576
0.000274703	-15781058.12	0,2.15749e-06,4.99944e-06,8.74299e-06,1.36742e-05,2.01698e-05,2.87261e-05,3.99969e-05,5.48434e-05,7.43998e-05,0.000100161,0.000134094,0.000178792,0.000237672,0.00031523,0.000417394,0.000551969,0.000729238,0.000962745,0.00127033,0.0016755,0.00220921,0.00291223,0.00383829,0.00505814,0.00666499,0.00878161,0.0115697,0.0152424,0.0200801,0.0264527,0.0348469,inf	0.326767,0.326767,0.326767,0.326768,0.332079,0.326767,1.42475,0.326769,0.326767,0.326767,1.03723,0.327332,0.326767,3.02832,0.7008,0.326767,0.509808,51.6323,17.0464,0.481681,1.46577,10.15,68.5578,332.41,996.411,1318.19,1643.84,1160.85,1160.85,339.635,339.635,339.635
0.000233805	-15776522.73	0,2.15749e-06,4.99944e-06,8.74299e-06,1.36742e-05,2.01698e-05,2.87261e-05,3.99969e-05,5.48434e-05,7.43998e-05,0.000100161,0.000134094,0.000178792,0.000237672,0.00031523,0.000417394,0.000551969,0.000729238,0.000962745,0.00127033,0.0016755,0.00220921,0.00291223,0.00383829,0.00505814,0.00666499,0.00878161,0.0115697,0.0152424,0.0200801,0.0264527,0.0348469,inf	0.326767,0.326767,0.326767,0.326767,0.332079,0.326767,4.23684,0.326769,0.326767,0.326767,0.854031,0.327332,0.326767,0.410619,0.326798,0.326767,0.326767,40.0318,16.8644,0.326767,0.631912,6.10169,55.8951,322.194,1082.19,1573.46,3247.49,1832.39,1832.39,333.945,333.945,333.945
0.000196884	-15772553.49	0,2.15749e-06,4.99944e-06,8.74299e-06,1.36742e-05,2.01698e-05,2.87261e-05,3.99969e-05,5.48434e-05,7.43998e-05,0.000100161,0.000134094,0.000178792,0.000237672,0.00031523,0.000417394,0.000551969,0.000729238,0.000962745,0.00127033,0.0016755,0.00220921,0.00291223,0.00383829,0.00505814,0.00666499,0.00878161,0.0115697,0.0152424,0.0200801,0.0264527,0.0348469,inf	0.326767,0.326767,0.326767,0.326767,0.332079,0.326767,13.4278,0.326769,0.326767,0.326767,0.741505,0.327332,0.326767,0.327615,0.326798,0.326767,0.326767,30.1084,16.163,0.326767,0.326767,3.47374,44.6152,312.504,1170.49,1924.71,36169.2,7147.91,7147.91,1330.01,1330.01,1330.01
0.000164041	-15769028.64	0,2.15749e-06,4.99944e-06,8.74299e-06,1.36742e-05,2.01698e-05,2.87261e-05,3.99969e-05,5.48434e-05,7.43998e-05,0.000100161,0.000134094,0.000178792,0.000237672,0.00031523,0.000417394,0.000551969,0.000729238,0.000962745,0.00127033,0.0016755,0.00220921,0.00291223,0.00383829,0.00505814,0.00666499,0.00878161,0.0115697,0.0152424,0.0200801,0.0264527,0.0348469,inf	0.326767,0.326767,0.326767,0.326767,0.332079,0.326767,36.6196,0.326769,0.326767,0.326767,0.676593,0.327332,0.326767,0.327615,0.326798,0.326767,0.326767,20.5728,13.5882,0.326767,0.326767,1.84857,34.5759,303.139,1264.37,2483.66,258061,55.7275,55.7275,52.2936,52.2936,52.2936
