0.000351742	-175778.02	0,2.14824e-05,4.66114e-05,7.60061e-05,0.000110391,0.000150612,0.00019766,0.000252696,0.000317073,0.000392379,0.000480467,0.000583509,0.000704042,0.000845035,0.00100996,0.00120289,0.00142856,0.00169254,0.00200133,0.00236254,0.00278506,0.00327931,0.00385745,0.00453373,0.00532482,0.00625019,0.00733264,0.00859884,0.01008,0.0118125,0.0138392,0.0162099,inf	227.313,227.313,320.984,355.372,382.163,407.892,437.186,474.164,521.661,582.206,658.773,752.222,856.04,951.711,1016.68,1042.44,1036.55,1011.44,978.498,944.753,912.453,883.088,859.035,841.921,829.048,817.251,808.15,806.185,806.185,819.548,819.548,819.548
0.000389955	-175572.43	0,2.14824e-05,4.66114e-05,7.60061e-05,0.000110391,0.000150612,0.00019766,0.000252696,0.000317073,0.000392379,0.000480467,0.000583509,0.000704042,0.000845035,0.00100996,0.00120289,0.00142856,0.00169254,0.00200133,0.00236254,0.00278506,0.00327931,0.00385745,0.00453373,0.00532482,0.00625019,0.00733264,0.00859884,0.01008,0.0118125,0.0138392,0.0162099,inf	126.455,126.455,230.202,259.972,279.946,299.355,324.613,361.699,414.926,488.431,587.706,716.694,870.242,1024.2,1141.07,1198.81,1202.1,1168,1115.7,1058.24,1000.38,946.304,902.24,871.906,849.372,828.545,813.457,814.084,814.084,846.892,846.892,846.892
0.000427327	-175479.92	0,2.14824e-05,4.66114e-05,7.60061e-05,0.000110391,0.000150612,0.00019766,0.000252696,0.000317073,0.000392379,0.000480467,0.000583509,0.000704042,0.000845035,0.00100996,0.00120289,0.00142856,0.00169254,0.00200133,0.00236254,0.00278506,0.00327931,0.00385745,0.00453373,0.00532482,0.00625019,0.00733264,0.00859884,0.01008,0.0118125,0.0138392,0.0162099,inf	95.5706,95.5706,215.421,239.774,250.575,260.639,278.047,309.939,361.338,437.221,544.545,689.329,868.306,1056.1,1207.74,1291.82,1308.25,1273.94,1211.74,1138.4,1060.83,986.533,926.392,886.071,856.216,828.447,809.699,815.805,815.805,871.328,871.328,871.328
0.00046349	-175423.87	0,2.14824e-05,4.66114e-05,7.60061e-05,0.000110391,0.000150612,0.00019766,0.000252696,0.000317073,0.000392379,0.000480467,0.000583509,0.000704042,0.000845035,0.00100996,0.00120289,0.00142856,0.00169254,0.00200133,0.00236254,0.00278506,0.00327931,0.00385745,0.00453373,0.00532482,0.00625019,0.00733264,0.00859884,0.01008,0.0118125,0.0138392,0.0162099,inf	81.9032,81.9032,225.722,245.773,247.299,247.849,257.299,283.532,331.708,407.099,517.406,669.841,862.455,1069.81,1243.37,1346.45,1375.17,1344.42,1277.85,1193.93,1101.1,1010.4,937.536,889.639,854.014,820.741,799.892,813.011,813.011,892.485,892.485,892.485
0.000498601	-175382.83	0,2.14824e-05,4.66114e-05,7.60061e-05,0.000110391,0.000150612,0.00019766,0.000252696,0.000317073,0.000392379,0.000480467,0.000583509,0.000704042,0.000845035,0.00100996,0.00120289,0.00142856,0.00169254,0.00200133,0.00236254,0.00278506,0.00327931,0.00385745,0.00453373,0.00532482,0.00625019,0.00733264,0.00859884,0.01008,0.0118125,0.0138392,0.0162099,inf	72.8203,72.8203,245.276,262.362,254.933,246.286,248.332,269.433,314.506,388.746,500.139,656.483,856.582,1075.14,1261.95,1377.83,1416.59,1390.63,1322.72,1231.66,1126.89,1022.95,940.098,886.361,845.966,808.165,786.214,806.943,806.943,910.272,910.272,910.272
0.000532869	-175349.27	0,2.14824e-05,4.66114e-05,7.60061e-05,0.000110391,0.000150612,0.00019766,0.000252696,0.000317073,0.000392379,0.000480467,0.000583509,0.000704042,0.000845035,0.00100996,0.00120289,0.00142856,0.00169254,0.00200133,0.00236254,0.00278506,0.00327931,0.00385745,0.00453373,0.00532482,0.00625019,0.00733264,0.00859884,0.01008,0.0118125,0.0138392,0.0162099,inf	64.6271,64.6271,266.926,282.716,267.092,249.849,245.21,261.903,304.375,377.509,489.28,647.678,851.841,1076.53,1270.87,1394.87,1441.3,1420.18,1352.55,1256.59,1142.39,1027.79,937.135,878.798,834.286,792.637,770.191,798.553,798.553,924.726,924.726,924.726
0.000566467	-175320.09	0,2.14824e-05,4.66114e-05,7.60061e-05,0.000110391,0.000150612,0.00019766,0.000252696,0.000317073,0.000392379,0.000480467,0.000583509,0.000704042,0.000845035,0.00100996,0.00120289,0.00142856,0.00169254,0.00200133,0.00236254,0.00278506,0.00327931,0.00385745,0.00453373,0.00532482,0.00625019,0.00733264,0.00859884,0.01008,0.0118125,0.0138392,0.0162099,inf	56.4855,56.4855,287.02,303.383,280.725,255.696,245.145,258.145,298.568,370.852,482.767,642.245,848.461,1076.12,1274.15,1402.88,1454.91,1438.2,1371.66,1272.3,1150.61,1027.45,930.723,868.673,820.484,775.467,752.9,788.564,788.564,936.047,936.047,936.047
0.000599523	-175293.85	0,2.14824e-05,4.66114e-05,7.60061e-05,0.000110391,0.000150612,0.00019766,0.000252696,0.000317073,0.000392379,0.000480467,0.000583509,0.000704042,0.000845035,0.00100996,0.00120289,0.00142856,0.00169254,0.00200133,0.00236254,0.00278506,0.00327931,0.00385745,0.00453373,0.00532482,0.00625019,0.00733264,0.00859884,0.01008,0.0118125,0.0138392,0.0162099,inf	48.526,48.526,303.887,322.646,294.329,262.441,246.734,256.69,295.57,367.296,479.313,639.329,846.357,1074.94,1274.11,1405.1,1461.04,1448.17,1383.09,1281.37,1153.69,1023.7,922.26,857.136,805.582,757.565,735.081,777.528,777.528,944.468,944.468,944.468
0.000632129	-175269.78	0,2.14824e-05,4.66114e-05,7.60061e-05,0.000110391,0.000150612,0.00019766,0.000252696,0.000317073,0.000392379,0.000480467,0.000583509,0.000704042,0.000845035,0.00100996,0.00120289,0.00142856,0.00169254,0.00200133,0.00236254,0.00278506,0.00327931,0.00385745,0.00453373,0.00532482,0.00625019,0.00733264,0.00859884,0.01008,0.0118125,0.0138392,0.0162099,inf	41.089,41.089,317.057,339.762,307.2,269.398,249.244,256.719,294.486,365.922,478.071,638.306,845.353,1073.51,1272.06,1403.56,1462.07,1452.45,1388.99,1285.64,1153.18,1017.78,912.683,844.955,790.271,739.543,717.251,765.877,765.877,950.292,950.292,950.292
0.000664352	-175247.43	0,2.14824e-05,4.66114e-05,7.60061e-05,0.000110391,0.000150612,0.00019766,0.000252696,0.000317073,0.000392379,0.000480467,0.000583509,0.000704042,0.000845035,0.00100996,0.00120289,0.00142856,0.00169254,0.00200133,0.00236254,0.00278506,0.00327931,0.00385745,0.00453373,0.00532482,0.00625019,0.00733264,0.00859884,0.01008,0.0118125,0.0138392,0.0162099,inf	34.4307,34.4307,326.735,354.544,319.057,276.237,252.276,257.746,294.759,366.132,478.46,638.718,845.256,1072.08,1268.81,1399.58,1459.62,1452.7,1390.88,1286.44,1150.2,1010.54,902.622,832.637,775.014,721.808,699.762,753.933,753.933,953.831,953.831,953.831
0.000696239	-175226.52	0,2.14824e-05,4.66114e-05,7.60061e-05,0.000110391,0.000150612,0.00019766,0.000252696,0.000317073,0.000392379,0.000480467,0.000583509,0.000704042,0.000845035,0.00100996,0.00120289,0.00142856,0.00169254,0.00200133,0.00236254,0.00278506,0.00327931,0.00385745,0.00453373,0.00532482,0.00625019,0.00733264,0.00859884,0.01008,0.0118125,0.0138392,0.0162099,inf	28.6712,28.6712,333.444,367.109,329.837,282.812,255.601,259.468,296.019,367.512,480.068,640.219,845.887,1070.75,1264.84,1393.99,1454.78,1450.09,1389.87,1284.76,1145.54,1002.57,892.493,820.515,760.114,704.629,682.843,741.953,741.953,955.436,955.436,955.436
0.000727824	-175206.84	0,2.14824e-05,4.66114e-05,7.60061e-05,0.000110391,0.000150612,0.00019766,0.000252696,0.000317073,0.000392379,0.000480467,0.000583509,0.000704042,0.000845035,0.00100996,0.00120289,0.00142856,0.00169254,0.00200133,0.00236254,0.00278506,0.00327931,0.00385745,0.00453373,0.00532482,0.00625019,0.00733264,0.00859884,0.01008,0.0118125,0.0138392,0.0162099,inf	23.813,23.813,337.814,377.705,339.588,289.064,259.085,261.685,298.011,369.773,482.595,642.547,847.091,1069.57,1260.47,1387.37,1448.31,1445.45,1386.77,1281.31,1139.79,994.294,882.566,808.799,745.762,688.173,666.641,730.12,730.12,955.41,955.41,955.41
0.000759129	-175188.25	0,2.14824e-05,4.66114e-05,7.60061e-05,0.000110391,0.000150612,0.00019766,0.000252696,0.000317073,0.000392379,0.000480467,0.000583509,0.000704042,0.000845035,0.00100996,0.00120289,0.00142856,0.00169254,0.00200133,0.00236254,0.00278506,0.00327931,0.00385745,0.00453373,0.00532482,0.00625019,0.00733264,0.00859884,0.01008,0.0118125,0.0138392,0.0162099,inf	19.7849,19.7849,340.443,386.624,348.404,294.981,262.645,264.258,300.554,372.698,485.813,645.497,848.739,1068.55,1255.89,1380.11,1440.74,1439.38,1382.17,1276.61,1133.36,985.983,873.015,797.619,732.075,672.538,651.242,718.569,718.569,954.043,954.043,954.043
0.000790171	-175170.65	0,2.14824e-05,4.66114e-05,7.60061e-05,0.000110391,0.000150612,0.00019766,0.000252696,0.000317073,0.000392379,0.000480467,0.000583509,0.000704042,0.000845035,0.00100996,0.00120289,0.00142856,0.00169254,0.00200133,0.00236254,0.00278506,0.00327931,0.00385745,0.00453373,0.00532482,0.00625019,0.00733264,0.00859884,0.01008,0.0118125,0.0138392,0.0162099,inf	16.4846,16.4846,341.857,394.154,356.391,300.57,266.225,267.088,303.51,376.126,489.552,648.913,850.723,1067.66,1251.2,1372.46,1432.45,1432.31,1376.5,1271.07,1126.56,977.831,863.944,787.049,719.116,657.769,636.685,707.394,707.394,951.607,951.607,951.607
0.000820962	-175153.94	0,2.14824e-05,4.66114e-05,7.60061e-05,0.000110391,0.000150612,0.00019766,0.000252696,0.000317073,0.000392379,0.000480467,0.000583509,0.000704042,0.000845035,0.00100996,0.00120289,0.00142856,0.00169254,0.00200133,0.00236254,0.00278506,0.00327931,0.00385745,0.00453373,0.00532482,0.00625019,0.00733264,0.00859884,0.01008,0.0118125,0.0138392,0.0162099,inf	13.7985,13.7985,342.482,400.559,363.655,305.844,269.79,270.1,306.779,379.934,493.68,652.671,852.957,1066.9,1246.49,1364.62,1423.71,1424.57,1370.1,1264.97,1119.61,969.961,855.412,777.124,706.911,643.877,622.982,696.662,696.662,948.335,948.335,948.335
0.000851509	-175138.05	0,2.14824e-05,4.66114e-05,7.60061e-05,0.000110391,0.000150612,0.00019766,0.000252696,0.000317073,0.000392379,0.000480467,0.000583509,0.000704042,0.000845035,0.00100996,0.00120289,0.00142856,0.00169254,0.00200133,0.00236254,0.00278506,0.00327931,0.00385745,0.00453373,0.00532482,0.00625019,0.00733264,0.00859884,0.01008,0.0118125,0.0138392,0.0162099,inf	11.6201,11.6201,342.662,406.064,370.292,310.826,273.315,273.241,310.281,384.025,498.093,656.676,855.368,1066.23,1241.81,1356.69,1414.71,1416.39,1363.2,1258.52,1112.65,962.453,847.443,767.852,695.463,630.852,610.123,686.411,686.411,944.438,944.438,944.438
0.000881818	-175122.91	0,2.14824e-05,4.66114e-05,7.60061e-05,0.000110391,0.000150612,0.00019766,0.000252696,0.000317073,0.000392379,0.000480467,0.000583509,0.000704042,0.000845035,0.00100996,0.00120289,0.00142856,0.00169254,0.00200133,0.00236254,0.00278506,0.00327931,0.00385745,0.00453373,0.00532482,0.00625019,0.00733264,0.00859884,0.01008,0.0118125,0.0138392,0.0162099,inf	9.85456,9.85456,342.658,410.859,376.384,315.533,276.78,276.468,313.956,388.326,502.711,660.851,857.902,1065.65,1237.19,1348.77,1405.59,1407.95,1355.98,1251.87,1105.79,955.349,840.044,759.224,684.754,618.669,598.08,676.662,676.662,940.066,940.066,940.066
0.000911892	-175108.49	0,2.14824e-05,4.66114e-05,7.60061e-05,0.000110391,0.000150612,0.00019766,0.000252696,0.000317073,0.000392379,0.000480467,0.000583509,0.000704042,0.000845035,0.00100996,0.00120289,0.00142856,0.00169254,0.00200133,0.00236254,0.00278506,0.00327931,0.00385745,0.00453373,0.00532482,0.00625019,0.00733264,0.00859884,0.01008,0.0118125,0.0138392,0.0162099,inf	8.42255,8.42255,342.661,415.097,382.006,319.986,280.175,279.748,317.755,392.779,507.471,665.138,860.514,1065.13,1232.65,1340.92,1396.45,1399.37,1348.58,1245.16,1099.11,948.672,833.202,751.218,674.757,607.288,586.822,667.423,667.423,935.375,935.375,935.375
0.000941734	-175094.72	0,2.14824e-05,4.66114e-05,7.60061e-05,0.000110391,0.000150612,0.00019766,0.000252696,0.000317073,0.000392379,0.000480467,0.000583509,0.000704042,0.000845035,0.00100996,0.00120289,0.00142856,0.00169254,0.00200133,0.00236254,0.00278506,0.00327931,0.00385745,0.00453373,0.00532482,0.00625019,0.00733264,0.00859884,0.01008,0.0118125,0.0138392,0.0162099,inf	7.25816,7.25816,342.815,418.906,387.215,324.198,283.49,283.054,321.64,397.336,512.324,669.49,863.168,1064.66,1228.19,1333.18,1387.37,1390.74,1341.1,1238.45,1092.66,942.427,826.896,743.807,665.438,596.669,576.306,658.691,658.691,930.474,930.474,930.474
0.000971344	-175081.56	0,2.14824e-05,4.66114e-05,7.60061e-05,0.000110391,0.000150612,0.00019766,0.000252696,0.000317073,0.000392379,0.000480467,0.000583509,0.000704042,0.000845035,0.00100996,0.00120289,0.00142856,0.00169254,0.00200133,0.00236254,0.00278506,0.00327931,0.00385745,0.00453373,0.00532482,0.00625019,0.00733264,0.00859884,0.01008,0.0118125,0.0138392,0.0162099,inf	6.30806,6.30806,343.22,422.38,392.065,328.188,286.72,286.369,325.582,401.962,517.23,673.87,865.837,1064.23,1223.83,1325.58,1378.39,1382.14,1333.6,1231.81,1086.45,936.609,821.102,736.956,656.76,586.767,566.491,650.456,650.456,925.458,925.458,925.458
