LogLikelihood = -208205.17332285901648

y0 0.8394964098077071224
y0_prime 0
y1 1.0860627949055197128
y1_prime 0
y2 0.943051444950106732
y2_prime 0
y3 1.8412714931978788613
y3_prime 0
rho 0.00013529736039504474234
theta 0.00049573816222581233541
