time_index	left_time_boundary	right_time_boundary	lambda
0	0	4.21192e-06	10.8569
1	4.21192e-06	1.15202e-05	10.8569
2	1.15202e-05	2.42012e-05	439.07
3	2.42012e-05	4.62044e-05	398.437
4	4.62044e-05	8.43832e-05	413.516
5	8.43832e-05	0.000150629	564.984
6	0.000150629	0.000265575	336.361
7	0.000265575	0.000465023	345.539
8	0.000465023	0.000811093	379.776
9	0.000811093	0.00141158	420.76
10	0.00141158	0.0024535	411.437
11	0.0024535	0.00426138	446.571
12	0.00426138	0.00739833	308.545
13	0.00739833	0.0128414	312.961
14	0.0128414	0.0222858	312.961
15	0.0222858	inf	312.961
