0.000574453	-299939.54	0,4.27519e-05,9.2761e-05,0.000151259,0.000219687,0.000299731,0.000393362,0.000502887,0.000631004,0.000780869,0.000956174,0.00116124,0.00140111,0.0016817,0.00200992,0.00239385,0.00284296,0.00336831,0.00398283,0.00470166,0.00554252,0.00652612,0.00767668,0.00902254,0.0105969,0.0124384,0.0145926,0.0171125,0.0200601,0.023508,0.0275412,0.0322591,inf	360.298,360.298,482.838,345.804,341.052,349.481,366.739,389.799,405.878,410.926,410.392,408.761,408.138,409.453,411.374,411.79,409.66,405.218,399.668,394.989,392.858,393.374,397.871,406.228,410.401,410.678,419.863,393.025,393.025,1.44825,1.44825,1.44825
0.000525261	-299889.00	0,4.27519e-05,9.2761e-05,0.000151259,0.000219687,0.000299731,0.000393362,0.000502887,0.000631004,0.000780869,0.000956174,0.00116124,0.00140111,0.0016817,0.00200992,0.00239385,0.00284296,0.00336831,0.00398283,0.00470166,0.00554252,0.00652612,0.00767668,0.00902254,0.0105969,0.0124384,0.0145926,0.0171125,0.0200601,0.023508,0.0275412,0.0322591,inf	340.983,340.983,576.943,318.241,309.967,319.643,344.335,383.017,411.788,419.75,417.175,413.15,411.655,414.605,419.373,421.428,418.323,410.377,400.046,391.335,387.719,389.129,398.286,416.141,425.527,428.739,464.372,374.817,374.817,0.397058,0.397058,0.397058
0.000482375	-299844.22	0,4.27519e-05,9.2761e-05,0.000151259,0.000219687,0.000299731,0.000393362,0.000502887,0.000631004,0.000780869,0.000956174,0.00116124,0.00140111,0.0016817,0.00200992,0.00239385,0.00284296,0.00336831,0.00398283,0.00470166,0.00554252,0.00652612,0.00767668,0.00902254,0.0105969,0.0124384,0.0145926,0.0171125,0.0200601,0.023508,0.0275412,0.0322591,inf	330.743,330.743,664.412,301.837,292.389,300.325,327.144,376.971,416.61,426.184,420.577,413.682,411.034,415.572,423.584,428.014,424.729,413.955,399.402,387.037,382.251,384.532,397.853,425.349,439.069,443.515,516.017,335.322,335.322,0.397058,0.397058,0.397058
0.00044554	-299809.02	0,4.27519e-05,9.2761e-05,0.000151259,0.000219687,0.000299731,0.000393362,0.000502887,0.000631004,0.000780869,0.000956174,0.00116124,0.00140111,0.0016817,0.00200992,0.00239385,0.00284296,0.00336831,0.00398283,0.00470166,0.00554252,0.00652612,0.00767668,0.00902254,0.0105969,0.0124384,0.0145926,0.0171125,0.0200601,0.023508,0.0275412,0.0322591,inf	326.653,326.653,738.773,291.466,283.023,287.785,313.495,371.5,421.101,431.55,422.324,412.346,408.309,414.186,425.485,432.694,429.803,416.746,398.463,382.741,377.014,380.103,397.025,434.317,451.563,455.895,583.174,289.333,289.333,0.397058,0.397058,0.397058
0.00041429	-299782.13	0,4.27519e-05,9.2761e-05,0.000151259,0.000219687,0.000299731,0.000393362,0.000502887,0.000631004,0.000780869,0.000956174,0.00116124,0.00140111,0.0016817,0.00200992,0.00239385,0.00284296,0.00336831,0.00398283,0.00470166,0.00554252,0.00652612,0.00767668,0.00902254,0.0105969,0.0124384,0.0145926,0.0171125,0.0200601,0.023508,0.0275412,0.0322591,inf	327.151,327.151,799.643,285.035,279.324,280.103,302.519,366.564,425.733,436.642,423.464,410.363,404.752,411.595,425.964,436.1,433.997,419.104,397.548,378.716,372.203,376.008,395.9,443.076,462.87,465.628,676.198,239.947,239.947,0.397058,0.397058,0.397058
0.000388016	-299762.28	0,4.27519e-05,9.2761e-05,0.000151259,0.000219687,0.000299731,0.000393362,0.000502887,0.000631004,0.000780869,0.000956174,0.00116124,0.00140111,0.0016817,0.00200992,0.00239385,0.00284296,0.00336831,0.00398283,0.00470166,0.00554252,0.00652612,0.00767668,0.00902254,0.0105969,0.0124384,0.0145926,0.0171125,0.0200601,0.023508,0.0275412,0.0322591,inf	329.751,329.751,846.564,280.721,279.144,275.487,293.055,361.468,430.081,441.315,424.137,408.102,400.866,408.304,425.396,438.443,437.416,421.085,396.714,375.007,367.824,372.245,394.438,451.483,472.581,471.983,811.554,186.515,186.515,0.397058,0.397058,0.397058
0.00036613	-299748.14	0,4.27519e-05,9.2761e-05,0.000151259,0.000219687,0.000299731,0.000393362,0.000502887,0.000631004,0.000780869,0.000956174,0.00116124,0.00140111,0.0016817,0.00200992,0.00239385,0.00284296,0.00336831,0.00398283,0.00470166,0.00554252,0.00652612,0.00767668,0.00902254,0.0105969,0.0124384,0.0145926,0.0171125,0.0200601,0.023508,0.0275412,0.0322591,inf	333.609,333.609,882.394,277.942,281.541,273.177,284.747,356.187,434.224,445.741,424.644,405.968,397.124,404.785,424.156,439.965,440.196,422.765,396.02,371.655,363.882,368.811,392.621,459.396,480.219,473.977,1015.71,128.498,128.498,0.397058,0.397058,0.397058
0.000348057	-299738.47	0,4.27519e-05,9.2761e-05,0.000151259,0.000219687,0.000299731,0.000393362,0.000502887,0.000631004,0.000780869,0.000956174,0.00116124,0.00140111,0.0016817,0.00200992,0.00239385,0.00284296,0.00336831,0.00398283,0.00470166,0.00554252,0.00652612,0.00767668,0.00902254,0.0105969,0.0124384,0.0145926,0.0171125,0.0200601,0.023508,0.0275412,0.0322591,inf	337.968,337.968,909.523,276.196,285.749,272.577,277.31,350.693,438.16,449.958,425.102,404.151,393.78,401.329,422.504,440.842,442.433,424.189,395.491,368.674,360.362,365.695,390.44,466.668,485.245,470.28,1292.28,70.7068,70.7068,0.397058,0.397058,0.397058
0.000333257	-299732.17	0,4.27519e-05,9.2761e-05,0.000151259,0.000219687,0.000299731,0.000393362,0.000502887,0.000631004,0.000780869,0.000956174,0.00116124,0.00140111,0.0016817,0.00200992,0.00239385,0.00284296,0.00336831,0.00398283,0.00470166,0.00554252,0.00652612,0.00767668,0.00902254,0.0105969,0.0124384,0.0145926,0.0171125,0.0200601,0.023508,0.0275412,0.0322591,inf	342.352,342.352,929.922,275.094,291.18,273.239,270.546,345.01,441.895,453.963,425.548,402.725,390.957,398.115,420.631,441.232,444.23,425.412,395.155,366.084,357.277,362.934,388,473.396,487.607,460.039,1316.95,30.5206,30.5206,0.397058,0.397058,0.397058
0.00032117	-299728.31	0,4.27519e-05,9.2761e-05,0.000151259,0.000219687,0.000299731,0.000393362,0.000502887,0.000631004,0.000780869,0.000956174,0.00116124,0.00140111,0.0016817,0.00200992,0.00239385,0.00284296,0.00336831,0.00398283,0.00470166,0.00554252,0.00652612,0.00767668,0.00902254,0.0105969,0.0124384,0.0145926,0.0171125,0.0200601,0.023508,0.0275412,0.0322591,inf	346.474,346.474,945.156,274.336,297.359,274.829,264.33,339.204,445.462,457.76,425.984,401.689,388.682,395.234,418.674,441.27,445.697,426.514,395.076,363.96,354.74,360.768,385.857,480.974,490.152,449.345,1095.16,19.8688,19.8688,0.397058,0.397058,0.397058
0.000311285	-299726.51	0,4.27519e-05,9.2761e-05,0.000151259,0.000219687,0.000299731,0.000393362,0.000502887,0.000631004,0.000780869,0.000956174,0.00116124,0.00140111,0.0016817,0.00200992,0.00239385,0.00284296,0.00336831,0.00398283,0.00470166,0.00554252,0.00652612,0.00767668,0.00902254,0.0105969,0.0124384,0.0145926,0.0171125,0.0200601,0.023508,0.0275412,0.0322591,inf	350.173,350.173,956.422,273.685,303.913,277.074,258.552,333.327,448.869,461.319,426.363,400.976,386.904,392.696,416.7,441.036,446.884,427.507,395.227,362.262,352.725,359.241,384.293,490.597,495.757,445.731,1093.85,21.438,21.438,0.397058,0.397058,0.397058
0.000303262	-299724.93	0,4.27519e-05,9.2761e-05,0.000151259,0.000219687,0.000299731,0.000393362,0.000502887,0.000631004,0.000780869,0.000956174,0.00116124,0.00140111,0.0016817,0.00200992,0.00239385,0.00284296,0.00336831,0.00398283,0.00470166,0.00554252,0.00652612,0.00767668,0.00902254,0.0105969,0.0124384,0.0145926,0.0171125,0.0200601,0.023508,0.0275412,0.0322591,inf	353.381,353.381,964.68,272.982,310.544,279.757,253.124,327.397,452.07,464.551,426.595,400.501,385.565,390.49,414.741,440.561,447.768,428.29,395.418,360.722,350.848,357.779,382.373,500.171,500.087,440.438,1100.35,21.2547,21.2547,0.397058,0.397058,0.397058
0.000296773	-299724.14	0,4.27519e-05,9.2761e-05,0.000151259,0.000219687,0.000299731,0.000393362,0.000502887,0.000631004,0.000780869,0.000956174,0.00116124,0.00140111,0.0016817,0.00200992,0.00239385,0.00284296,0.00336831,0.00398283,0.00470166,0.00554252,0.00652612,0.00767668,0.00902254,0.0105969,0.0124384,0.0145926,0.0171125,0.0200601,0.023508,0.0275412,0.0322591,inf	356.147,356.147,970.765,272.154,317.079,282.772,248.03,321.513,455.142,467.498,426.687,400.234,384.632,388.625,412.872,439.958,448.46,428.946,395.694,359.371,349.137,356.408,380.156,509.758,503.161,433.6,1087.58,20.44,20.44,0.397058,0.397058,0.397058
0.000291533	-299723.94	0,4.27519e-05,9.2761e-05,0.000151259,0.000219687,0.000299731,0.000393362,0.000502887,0.000631004,0.000780869,0.000956174,0.00116124,0.00140111,0.0016817,0.00200992,0.00239385,0.00284296,0.00336831,0.00398283,0.00470166,0.00554252,0.00652612,0.00767668,0.00902254,0.0105969,0.0124384,0.0145926,0.0171125,0.0200601,0.023508,0.0275412,0.0322591,inf	358.473,358.473,975.264,271.153,323.385,286.018,243.248,315.739,458.133,470.184,426.633,400.128,384.047,387.077,411.123,439.291,449.022,429.522,396.075,358.218,347.613,355.168,377.746,519.627,505.495,426.444,1079.68,20.0708,20.0708,0.397058,0.397058,0.397058
0.000287311	-299724.00	0,4.27519e-05,9.2761e-05,0.000151259,0.000219687,0.000299731,0.000393362,0.000502887,0.000631004,0.000780869,0.000956174,0.00116124,0.00140111,0.0016817,0.00200992,0.00239385,0.00284296,0.00336831,0.00398283,0.00470166,0.00554252,0.00652612,0.00767668,0.00902254,0.0105969,0.0124384,0.0145926,0.0171125,0.0200601,0.023508,0.0275412,0.0322591,inf	360.421,360.421,978.604,269.945,329.361,289.42,238.755,310.119,461.077,472.618,426.418,400.133,383.747,385.805,409.499,438.595,449.489,430.029,396.545,357.237,346.248,354.029,375.131,529.758,507.004,418.929,1075.58,19.8472,19.8472,0.397058,0.397058,0.397058
0.000283915	-299724.21	0,4.27519e-05,9.2761e-05,0.000151259,0.000219687,0.000299731,0.000393362,0.000502887,0.000631004,0.000780869,0.000956174,0.00116124,0.00140111,0.0016817,0.00200992,0.00239385,0.00284296,0.00336831,0.00398283,0.00470166,0.00554252,0.00652612,0.00767668,0.00902254,0.0105969,0.0124384,0.0145926,0.0171125,0.0200601,0.023508,0.0275412,0.0322591,inf	362.022,362.022,981.118,268.529,334.95,292.919,234.529,304.681,463.998,474.821,426.04,400.209,383.681,384.773,408,437.896,449.884,430.478,397.088,356.404,345.025,352.972,372.313,540.163,507.653,411.072,1072.53,19.6765,19.6765,0.397058,0.397058,0.397058
0.000281199	-299724.49	0,4.27519e-05,9.2761e-05,0.000151259,0.000219687,0.000299731,0.000393362,0.000502887,0.000631004,0.000780869,0.000956174,0.00116124,0.00140111,0.0016817,0.00200992,0.00239385,0.00284296,0.00336831,0.00398283,0.00470166,0.00554252,0.00652612,0.00767668,0.00902254,0.0105969,0.0124384,0.0145926,0.0171125,0.0200601,0.023508,0.0275412,0.0322591,inf	363.605,363.605,983.72,267.091,340.325,296.646,230.678,299.612,467.168,477.039,425.681,400.472,383.915,384.039,406.702,437.28,450.289,430.925,397.729,355.726,343.948,351.999,369.306,550.914,507.501,403.002,1070.71,19.5806,19.5806,0.397058,0.397058,0.397058
0.000279011	-299724.79	0,4.27519e-05,9.2761e-05,0.000151259,0.000219687,0.000299731,0.000393362,0.000502887,0.000631004,0.000780869,0.000956174,0.00116124,0.00140111,0.0016817,0.00200992,0.00239385,0.00284296,0.00336831,0.00398283,0.00470166,0.00554252,0.00652612,0.00767668,0.00902254,0.0105969,0.0124384,0.0145926,0.0171125,0.0200601,0.023508,0.0275412,0.0322591,inf	364.655,364.655,985.192,265.299,345.059,300.224,226.936,294.603,470.14,478.868,425.014,400.627,384.195,383.393,405.442,436.626,450.599,431.282,398.387,355.136,342.968,351.074,366.106,562.017,506.539,394.786,1069.92,19.5432,19.5432,0.397058,0.397058,0.397058
0.000277257	-299725.08	0,4.27519e-05,9.2761e-05,0.000151259,0.000219687,0.000299731,0.000393362,0.000502887,0.000631004,0.000780869,0.000956174,0.00116124,0.00140111,0.0016817,0.00200992,0.00239385,0.00284296,0.00336831,0.00398283,0.00470166,0.00554252,0.00652612,0.00767668,0.00902254,0.0105969,0.0124384,0.0145926,0.0171125,0.0200601,0.023508,0.0275412,0.0322591,inf	365.476,365.476,986.334,263.336,349.332,303.773,223.38,289.772,473.084,480.474,424.166,400.757,384.568,382.873,404.27,435.991,450.868,431.584,399.072,354.635,342.086,350.195,362.731,573.527,504.805,386.499,1070,19.5547,19.5547,0.397058,0.397058,0.397058
0.000275851	-299725.35	0,4.27519e-05,9.2761e-05,0.000151259,0.000219687,0.000299731,0.000393362,0.000502887,0.000631004,0.000780869,0.000956174,0.00116124,0.00140111,0.0016817,0.00200992,0.00239385,0.00284296,0.00336831,0.00398283,0.00470166,0.00554252,0.00652612,0.00767668,0.00902254,0.0105969,0.0124384,0.0145926,0.0171125,0.0200601,0.023508,0.0275412,0.0322591,inf	366.125,366.125,987.34,261.256,353.196,307.307,220.02,285.146,476.051,481.914,423.184,400.88,385.032,382.473,403.191,435.392,451.114,431.843,399.781,354.213,341.296,349.357,359.186,585.493,502.327,378.194,1070.72,19.6048,19.6048,0.397058,0.397058,0.397058
