LogLikelihood = -1188368.8023296569008

y0 0.74780947134775277441
y0_prime 0
y1 0.86168291434217758606
y1_prime 0
y2 0.7266139062979410923
y2_prime 0
y3 1.404777122681458712
y3_prime 0
rho 0.00021293290277293785355
rho.alpha 0.81985849209513195213
r_ii 0.99991845772203580278
theta 0.0039454385435611551841
