time_index	left_time_boundary	right_time_boundary	lambda
0	0	1.04514e-05	196.487
1	1.04514e-05	2.7383e-05	196.487
2	2.7383e-05	5.48127e-05	176.447
3	5.48127e-05	9.92497e-05	261.389
4	9.92497e-05	0.000171239	240.564
5	0.000171239	0.000287864	275.341
6	0.000287864	0.0004768	282.097
7	0.0004768	0.000782882	284.548
8	0.000782882	0.00127875	319.573
9	0.00127875	0.00208206	359.785
10	0.00208206	0.00338345	446.694
11	0.00338345	0.00549175	502.563
12	0.00549175	0.00890726	394.675
13	0.00890726	0.0144405	321.689
14	0.0144405	0.0234045	321.689
15	0.0234045	inf	321.689
