time_index	left_time_boundary	right_time_boundary	lambda
0	0	1.00096e-05	156.61
1	1.00096e-05	2.23904e-05	156.61
2	2.23904e-05	3.77043e-05	212.833
3	3.77043e-05	5.66461e-05	99.7817
4	5.66461e-05	8.00752e-05	219.925
5	8.00752e-05	0.000109055	243.481
6	0.000109055	0.0001449	209.367
7	0.0001449	0.000189236	238.277
8	0.000189236	0.000244076	271.593
9	0.000244076	0.000311907	281.582
10	0.000311907	0.000395808	274.371
11	0.000395808	0.000499586	269.994
12	0.000499586	0.000627948	271.558
13	0.000627948	0.000786719	284.386
14	0.000786719	0.000983104	305.413
15	0.000983104	0.00122601	326.323
16	0.00122601	0.00152647	346.315
17	0.00152647	0.0018981	370.001
18	0.0018981	0.00235777	402.106
19	0.00235777	0.00292634	440.784
20	0.00292634	0.0036296	477.923
21	0.0036296	0.00449947	501.791
22	0.00449947	0.00557541	502.999
23	0.00557541	0.00690625	487.379
24	0.00690625	0.00855236	463.407
25	0.00855236	0.0105884	438.591
26	0.0105884	0.0131069	422.438
27	0.0131069	0.0162219	413.587
28	0.0162219	0.0200749	413.587
29	0.0200749	0.0248407	749.03
30	0.0248407	0.0307355	749.03
31	0.0307355	inf	749.03
