time_index	left_time_boundary	right_time_boundary	lambda
0	0	4.59846e-06	272.322
1	4.59846e-06	1.04514e-05	272.322
2	1.04514e-05	1.7901e-05	14.4026
3	1.7901e-05	2.7383e-05	330.163
4	2.7383e-05	3.94516e-05	145.747
5	3.94516e-05	5.48127e-05	167.157
6	5.48127e-05	7.43643e-05	241.255
7	7.43643e-05	9.92497e-05	264.148
8	9.92497e-05	0.000130924	247.82
9	0.000130924	0.000171239	231.624
10	0.000171239	0.000222552	249.105
11	0.000222552	0.000287864	280.755
12	0.000287864	0.000370993	283.118
13	0.000370993	0.0004768	272.912
14	0.0004768	0.000611472	272.956
15	0.000611472	0.000782882	283.522
16	0.000782882	0.00100105	302.456
17	0.00100105	0.00127875	323.539
18	0.00127875	0.00163219	346.798
19	0.00163219	0.00208206	377.509
20	0.00208206	0.00265465	418.826
21	0.00265465	0.00338345	465.92
22	0.00338345	0.00431107	502.514
23	0.00431107	0.00549175	508.546
24	0.00549175	0.00699453	484.252
25	0.00699453	0.00890726	439.605
26	0.00890726	0.0113418	394.839
27	0.0113418	0.0144405	369.545
28	0.0144405	0.0183845	369.545
29	0.0183845	0.0234045	561.856
30	0.0234045	0.029794	561.856
31	0.029794	inf	561.856
