0.000670666	-4588564.42	0,1.03942e-05,2.72332e-05,5.4513e-05,9.8707e-05,0.000170303,0.00028629,0.000474193,0.000778602,0.00127175,0.00207067,0.00336495,0.00546172,0.00885856,0.0143615,0.0232765,inf	484.574,484.574,346.739,381.6,381.53,357.252,348.717,354.999,379.56,407.256,419.761,402.758,369.567,317.902,317.902,317.902
0.000710615	-4588020.92	0,1.03942e-05,2.72332e-05,5.4513e-05,9.8707e-05,0.000170303,0.00028629,0.000474193,0.000778602,0.00127175,0.00207067,0.00336495,0.00546172,0.00885856,0.0143615,0.0232765,inf	547.793,547.793,315.9,391.076,394.448,349.476,331.809,337.013,372.313,414.031,434.913,407.894,355.23,279.811,279.811,279.811
0.00074745	-4587701.18	0,1.03942e-05,2.72332e-05,5.4513e-05,9.8707e-05,0.000170303,0.00028629,0.000474193,0.000778602,0.00127175,0.00207067,0.00336495,0.00546172,0.00885856,0.0143615,0.0232765,inf	579.469,579.469,285.07,400.372,410.48,349.544,324.996,327.76,368.538,417.77,444.639,412.177,348.093,258.553,258.553,258.553
0.000781214	-4587469.71	0,1.03942e-05,2.72332e-05,5.4513e-05,9.8707e-05,0.000170303,0.00028629,0.000474193,0.000778602,0.00127175,0.00207067,0.00336495,0.00546172,0.00885856,0.0143615,0.0232765,inf	592.709,592.709,254.869,405.756,424.012,351.287,322.192,322.623,366.472,419.614,450.658,415.445,344.912,245.619,245.619,245.619
0.000812172	-4587283.85	0,1.03942e-05,2.72332e-05,5.4513e-05,9.8707e-05,0.000170303,0.00028629,0.000474193,0.000778602,0.00127175,0.00207067,0.00336495,0.00546172,0.00885856,0.0143615,0.0232765,inf	598.117,598.117,227.221,407.985,434.278,352.974,321.202,319.754,365.474,420.423,454.242,417.77,343.941,237.286,237.286,237.286
0.000840615	-4587127.35	0,1.03942e-05,2.72332e-05,5.4513e-05,9.8707e-05,0.000170303,0.00028629,0.000474193,0.000778602,0.00127175,0.00207067,0.00336495,0.00546172,0.00885856,0.0143615,0.0232765,inf	601.09,601.09,202.919,408.367,441.725,354.151,321.075,318.234,365.196,420.702,456.253,419.297,344.204,231.682,231.682,231.682
0.00086681	-4586992.91	0,1.03942e-05,2.72332e-05,5.4513e-05,9.8707e-05,0.000170303,0.00028629,0.000474193,0.000778602,0.00127175,0.00207067,0.00336495,0.00546172,0.00885856,0.0143615,0.0232765,inf	603.663,603.663,181.956,407.927,447.003,354.777,321.355,317.541,365.41,420.731,457.258,420.187,345.141,227.784,227.784,227.784
0.000890992	-4586876.47	0,1.03942e-05,2.72332e-05,5.4513e-05,9.8707e-05,0.000170303,0.00028629,0.000474193,0.000778602,0.00127175,0.00207067,0.00336495,0.00546172,0.00885856,0.0143615,0.0232765,inf	606.346,606.346,163.974,407.316,450.694,354.931,321.81,317.358,365.952,420.655,457.629,420.582,346.427,224.991,224.991,224.991
0.000913363	-4586775.28	0,1.03942e-05,2.72332e-05,5.4513e-05,9.8707e-05,0.000170303,0.00028629,0.000474193,0.000778602,0.00127175,0.00207067,0.00336495,0.00546172,0.00885856,0.0143615,0.0232765,inf	609.117,609.117,148.524,406.91,453.247,354.723,322.318,317.484,366.704,420.55,457.605,420.603,347.872,222.939,222.939,222.939
0.000934097	-4586687.18	0,1.03942e-05,2.72332e-05,5.4513e-05,9.8707e-05,0.000170303,0.00028629,0.000474193,0.000778602,0.00127175,0.00207067,0.00336495,0.00546172,0.00885856,0.0143615,0.0232765,inf	611.798,611.798,135.182,406.89,454.99,354.254,322.82,317.794,367.583,420.45,457.344,420.347,349.367,221.396,221.396,221.396
0.000953348	-4586610.35	0,1.03942e-05,2.72332e-05,5.4513e-05,9.8707e-05,0.000170303,0.00028629,0.000474193,0.000778602,0.00127175,0.00207067,0.00336495,0.00546172,0.00885856,0.0143615,0.0232765,inf	614.244,614.244,123.585,407.325,456.157,353.61,323.289,318.204,368.529,420.37,456.949,419.89,350.847,220.21,220.21,220.21
0.000971248	-4586543.26	0,1.03942e-05,2.72332e-05,5.4513e-05,9.8707e-05,0.000170303,0.00028629,0.000474193,0.000778602,0.00127175,0.00207067,0.00336495,0.00546172,0.00885856,0.0143615,0.0232765,inf	616.333,616.333,113.421,408.215,456.907,352.857,323.714,318.662,369.501,420.315,456.485,419.289,352.277,219.281,219.281,219.281
0.000987911	-4586484.56	0,1.03942e-05,2.72332e-05,5.4513e-05,9.8707e-05,0.000170303,0.00028629,0.000474193,0.000778602,0.00127175,0.00207067,0.00336495,0.00546172,0.00885856,0.0143615,0.0232765,inf	618.037,618.037,104.448,409.521,457.351,352.047,324.094,319.136,370.472,420.284,455.994,418.59,353.64,218.539,218.539,218.539
0.00100344	-4586433.12	0,1.03942e-05,2.72332e-05,5.4513e-05,9.8707e-05,0.000170303,0.00028629,0.000474193,0.000778602,0.00127175,0.00207067,0.00336495,0.00546172,0.00885856,0.0143615,0.0232765,inf	619.36,619.36,96.4705,411.191,457.566,351.217,324.435,319.604,371.421,420.274,455.505,417.825,354.927,217.936,217.936,217.936
0.00101793	-4586387.96	0,1.03942e-05,2.72332e-05,5.4513e-05,9.8707e-05,0.000170303,0.00028629,0.000474193,0.000778602,0.00127175,0.00207067,0.00336495,0.00546172,0.00885856,0.0143615,0.0232765,inf	620.337,620.337,89.3308,413.165,457.602,350.394,324.74,320.055,372.337,420.28,455.032,417.02,356.136,217.438,217.438,217.438
0.00103146	-4586348.22	0,1.03942e-05,2.72332e-05,5.4513e-05,9.8707e-05,0.000170303,0.00028629,0.000474193,0.000778602,0.00127175,0.00207067,0.00336495,0.00546172,0.00885856,0.0143615,0.0232765,inf	620.993,620.993,82.8991,415.381,457.495,349.596,325.016,320.481,373.212,420.299,454.587,416.194,357.267,217.021,217.021,217.021
0.00104411	-4586313.18	0,1.03942e-05,2.72332e-05,5.4513e-05,9.8707e-05,0.000170303,0.00028629,0.000474193,0.000778602,0.00127175,0.00207067,0.00336495,0.00546172,0.00885856,0.0143615,0.0232765,inf	621.406,621.406,77.0742,417.787,457.271,348.837,325.269,320.88,374.042,420.327,454.175,415.36,358.324,216.665,216.665,216.665
0.00105594	-4586282.23	0,1.03942e-05,2.72332e-05,5.4513e-05,9.8707e-05,0.000170303,0.00028629,0.000474193,0.000778602,0.00127175,0.00207067,0.00336495,0.00546172,0.00885856,0.0143615,0.0232765,inf	621.578,621.578,71.7753,420.336,456.947,348.124,325.503,321.249,374.826,420.362,453.798,414.53,359.31,216.359,216.359,216.359
0.00106701	-4586254.82	0,1.03942e-05,2.72332e-05,5.4513e-05,9.8707e-05,0.000170303,0.00028629,0.000474193,0.000778602,0.00127175,0.00207067,0.00336495,0.00546172,0.00885856,0.0143615,0.0232765,inf	621.575,621.575,66.9311,422.984,456.539,347.466,325.723,321.588,375.562,420.4,453.456,413.709,360.231,216.092,216.092,216.092
0.00107737	-4586230.50	0,1.03942e-05,2.72332e-05,5.4513e-05,9.8707e-05,0.000170303,0.00028629,0.000474193,0.000778602,0.00127175,0.00207067,0.00336495,0.00546172,0.00885856,0.0143615,0.0232765,inf	621.444,621.444,62.4884,425.694,456.059,346.861,325.933,321.9,376.253,420.439,453.149,412.905,361.09,215.857,215.857,215.857
