time_index	left_time_boundary	right_time_boundary	lambda
0	0	4.57331e-06	516.656
1	4.57331e-06	1.03942e-05	516.656
2	1.03942e-05	1.78032e-05	1309.07
3	1.78032e-05	2.72332e-05	246.436
4	2.72332e-05	3.92359e-05	68.7129
5	3.92359e-05	5.4513e-05	90.4082
6	5.4513e-05	7.39577e-05	243.268
7	7.39577e-05	9.8707e-05	517.141
8	9.8707e-05	0.000130208	518.735
9	0.000130208	0.000170303	404.617
10	0.000170303	0.000221335	349.987
11	0.000221335	0.00028629	340.621
12	0.00028629	0.000368964	336.092
13	0.000368964	0.000474193	308.543
14	0.000474193	0.000608128	304.893
15	0.000608128	0.000778602	330.683
16	0.000778602	0.000995581	361.773
17	0.000995581	0.00127175	383.487
18	0.00127175	0.00162327	405.071
19	0.00162327	0.00207067	428.685
20	0.00207067	0.00264014	448.362
21	0.00264014	0.00336495	460.9
22	0.00336495	0.0042875	453.656
23	0.0042875	0.00546172	429.652
24	0.00546172	0.00695628	410.937
25	0.00695628	0.00885856	390.109
26	0.00885856	0.0112798	345.155
27	0.0112798	0.0143615	260.118
28	0.0143615	0.018284	260.118
29	0.018284	0.0232765	378.377
30	0.0232765	0.0296311	378.377
31	0.0296311	inf	378.377
