LogLikelihood = -2621.2339294596163199

y0 3.2298516599793639942e-08
y0_prime 0
y1 0.97707195054180995264
y1_prime 0
y2 1.6869049152423498672
y2_prime 0
y3 1.9526474605747374813
y3_prime 0
rho 0.064881395321774976148
rho.alpha 1.670861367391555552
r_ii 0.99530948022494325489
theta 2.2604139531234350788e-05
