AIC = 2983864.0894312281162

y0 0.84263288477182129999
y0_prime 0
y1 0.98990509338113474858
y1_prime 0
y2 1.0346123064692895888
y2_prime 0
y3 1.6461559629813089511
y3_prime 0
rho 0.00077282083276024619509
theta 0.0049221436262894061042
