LogLikelihood = -306443.19146305794129

y0 0.80813701427904416352
y0_prime 0
y1 1.1307381237929934326
y1_prime 0
y2 0.87535254226193603966
y2_prime 0
y3 1.7205397837074785095
y3_prime 0
rho 0.0027542777635117124749
theta 0.005019633129578655005
