5.10142e-05	-37541.45	0,8.26025e-06,1.95629e-05,3.50284e-05,5.61902e-05,8.51461e-05,0.000124767,0.000178981,0.000253162,0.000354666,0.000493555,0.000683599,0.000943639,0.00129946,0.00178632,0.00245251,inf	8955.83,8955.83,5721.08,3618.18,3301.98,3861.49,4488.13,4910.33,4794.62,4950.97,5034.64,4158.41,5702.83,8257.9,8257.9,8257.9
4.64419e-05	-37531.03	0,8.26025e-06,1.95629e-05,3.50284e-05,5.61902e-05,8.51461e-05,0.000124767,0.000178981,0.000253162,0.000354666,0.000493555,0.000683599,0.000943639,0.00129946,0.00178632,0.00245251,inf	11501.8,11501.8,6689.94,3097.49,2606.51,3491.33,4502.04,5269.37,4961.6,5375.43,5727.55,3662.08,7395.7,26510.5,26510.5,26510.5
4.6439e-05	-37525.12	0,8.26025e-06,1.95629e-05,3.50284e-05,5.61902e-05,8.51461e-05,0.000124767,0.000178981,0.000253162,0.000354666,0.000493555,0.000683599,0.000943639,0.00129946,0.00178632,0.00245251,inf	13024.2,13024.2,7966.91,2877.82,2202.26,3336.29,4628.4,5735.32,5099.29,5846.96,6769.72,3120.93,9838.79,623306,623306,623306
4.6439e-05	-37525.52	0,8.26025e-06,1.95629e-05,3.50284e-05,5.61902e-05,8.51461e-05,0.000124767,0.000178981,0.000253162,0.000354666,0.000493555,0.000683599,0.000943639,0.00129946,0.00178632,0.00245251,inf	13024.2,13024.2,7966.91,2644.35,1886.54,3197.93,4673.41,5966.16,5075.66,5864.23,6769.72,2583.91,10231.2,623306,623306,623306
4.6439e-05	-37525.15	0,8.26025e-06,1.95629e-05,3.50284e-05,5.61902e-05,8.51461e-05,0.000124767,0.000178981,0.000253162,0.000354666,0.000493555,0.000683599,0.000943639,0.00129946,0.00178632,0.00245251,inf	13024.2,13024.2,7966.92,2521.94,1668.77,3112.16,4713.9,6102.3,5021.62,5903.72,6769.72,2217.35,10499.1,623306,623306,623306
4.6439e-05	-37524.99	0,8.26025e-06,1.95629e-05,3.50284e-05,5.61902e-05,8.51461e-05,0.000124767,0.000178981,0.000253162,0.000354666,0.000493555,0.000683599,0.000943639,0.00129946,0.00178632,0.00245251,inf	13024.2,13024.2,7966.93,2464.47,1508.43,3060,4755.79,6173.18,4952.98,5956.73,6769.72,1953.93,10691.7,623306,623306,623306
4.6439e-05	-37524.93	0,8.26025e-06,1.95629e-05,3.50284e-05,5.61902e-05,8.51461e-05,0.000124767,0.000178981,0.000253162,0.000354666,0.000493555,0.000683599,0.000943639,0.00129946,0.00178632,0.00245251,inf	13024.2,13024.2,7966.95,2446.69,1383.69,3029.64,4801.58,6206.57,4879.42,6012.16,6769.72,1756.82,10835.7,623306,623306,623306
4.6439e-05	-37524.91	0,8.26025e-06,1.95629e-05,3.50284e-05,5.61902e-05,8.51461e-05,0.000124767,0.000178981,0.000253162,0.000354666,0.000493555,0.000683599,0.000943639,0.00129946,0.00178632,0.00245251,inf	13024.2,13024.2,7966.96,2446.69,1281.87,3012.18,4850.91,6219.59,4806.08,6065.77,6769.72,1604.55,10947,623306,623306,623306
4.6439e-05	-37524.90	0,8.26025e-06,1.95629e-05,3.50284e-05,5.61902e-05,8.51461e-05,0.000124767,0.000178981,0.000253162,0.000354666,0.000493555,0.000683599,0.000943639,0.00129946,0.00178632,0.00245251,inf	13024.2,13024.2,7966.97,2446.69,1195.64,3002.71,4902.74,6220.42,4735.32,6117.48,6769.72,1484.09,10759.2,623391,623391,623391
4.6439e-05	-37524.92	0,8.26025e-06,1.95629e-05,3.50284e-05,5.61902e-05,8.51461e-05,0.000124767,0.000178981,0.000253162,0.000354666,0.000493555,0.000683599,0.000943639,0.00129946,0.00178632,0.00245251,inf	13024.2,13024.2,7967.02,2446.69,1121.09,2998.45,4945.67,6220.42,4668.18,6166.55,6769.72,1387.92,10370.2,623533,623533,623533
4.6439e-05	-37524.96	0,8.26025e-06,1.95629e-05,3.50284e-05,5.61902e-05,8.51461e-05,0.000124767,0.000178981,0.000253162,0.000354666,0.000493555,0.000683599,0.000943639,0.00129946,0.00178632,0.00245251,inf	13024.2,13024.2,7967.06,2446.69,1055.84,2998.46,4980.52,6220.42,4604.7,6212.94,6769.72,1311.11,9901.66,623695,623695,623695
4.6439e-05	-37525.02	0,8.26025e-06,1.95629e-05,3.50284e-05,5.61902e-05,8.51461e-05,0.000124767,0.000178981,0.000253162,0.000354666,0.000493555,0.000683599,0.000943639,0.00129946,0.00178632,0.00245251,inf	13024.2,13024.2,7967.1,2446.69,998.14,3002.03,5008.72,6220.42,4540.66,6259.75,6769.72,1249.85,9424.72,623855,623855,623855
4.6439e-05	-37525.09	0,8.26025e-06,1.95629e-05,3.50284e-05,5.61902e-05,8.51461e-05,0.000124767,0.000178981,0.000253162,0.000354666,0.000493555,0.000683599,0.000943639,0.00129946,0.00178632,0.00245251,inf	13024.2,13024.2,7967.13,2446.69,946.636,3008.66,5031.39,6220.42,4479.59,6304.38,6769.72,1201.12,8973.22,624005,624005,624005
4.6439e-05	-37525.17	0,8.26025e-06,1.95629e-05,3.50284e-05,5.61902e-05,8.51461e-05,0.000124767,0.000178981,0.000253162,0.000354666,0.000493555,0.000683599,0.000943639,0.00129946,0.00178632,0.00245251,inf	13024.2,13024.2,7967.13,2446.69,900.263,3017.62,5031.56,6233.61,4427.13,6342.72,6769.72,1162.59,8560.85,624141,624141,624141
4.6439e-05	-37525.24	0,8.26025e-06,1.95629e-05,3.50284e-05,5.61902e-05,8.51461e-05,0.000124767,0.000178981,0.000253162,0.000354666,0.000493555,0.000683599,0.000943639,0.00129946,0.00178632,0.00245251,inf	13024.2,13024.2,7967.14,2446.69,858.564,3030.8,5044.2,6233.61,4376.92,6379.42,6769.72,1132.42,8191.48,624262,624262,624262
4.6439e-05	-37525.32	0,8.26025e-06,1.95629e-05,3.50284e-05,5.61902e-05,8.51461e-05,0.000124767,0.000178981,0.000253162,0.000354666,0.000493555,0.000683599,0.000943639,0.00129946,0.00178632,0.00245251,inf	13024.2,13024.2,7967.17,2446.69,820.361,3045.56,5053.82,6233.61,4329.8,6413.85,6769.72,1109.09,7863.85,624368,624368,624368
4.6439e-05	-37525.40	0,8.26025e-06,1.95629e-05,3.50284e-05,5.61902e-05,8.51461e-05,0.000124767,0.000178981,0.000253162,0.000354666,0.000493555,0.000683599,0.000943639,0.00129946,0.00178632,0.00245251,inf	13024.2,13024.2,7967.18,2446.69,785.147,3061.61,5060.89,6233.61,4285.58,6446.17,6769.72,1091.41,7574.91,624461,624461,624461
4.6439e-05	-37525.47	0,8.26025e-06,1.95629e-05,3.50284e-05,5.61902e-05,8.51461e-05,0.000124767,0.000178981,0.000253162,0.000354666,0.000493555,0.000683599,0.000943639,0.00129946,0.00178632,0.00245251,inf	13024.2,13024.2,7967.19,2446.69,752.503,3078.68,5065.85,6233.61,4240.87,6478.85,6769.72,1078.36,7320.99,624542,624542,624542
4.6439e-05	-37525.54	0,8.26025e-06,1.95629e-05,3.50284e-05,5.61902e-05,8.51461e-05,0.000124767,0.000178981,0.000253162,0.000354666,0.000493555,0.000683599,0.000943639,0.00129946,0.00178632,0.00245251,inf	13024.2,13024.2,7967.19,2446.69,722.092,3096.6,5069,6233.61,4202.21,6507.1,6769.72,1069.12,7098.27,624613,624613,624613
4.6439e-05	-37525.61	0,8.26025e-06,1.95629e-05,3.50284e-05,5.61902e-05,8.51461e-05,0.000124767,0.000178981,0.000253162,0.000354666,0.000493555,0.000683599,0.000943639,0.00129946,0.00178632,0.00245251,inf	13024.2,13024.2,7967.19,2446.69,693.63,3115.17,5070.63,6233.61,4165.96,6533.6,6769.72,1063,6903.44,624674,624674,624674
