LogLikelihood = -170817.08899597305572

y0 0.3684961958547342542
y0_prime 0
y1 0.84935439024170977795
y1_prime 0
y2 0.8908311474874806013
y2_prime 0
y3 1.2106119460955890865
y3_prime 0
rho 0.0014486956897653135035
rho.alpha 0.14502665994416927275
r_ii 0.99990892419363142096
theta 0.0025221920600101903169
