0.000687335	-13714718.11	0,1.75832e-06,4.07446e-06,7.1254e-06,1.11442e-05,1.6438e-05,2.34113e-05,3.25968e-05,4.46965e-05,6.06347e-05,8.16293e-05,0.000109284,0.000145713,0.000193699,0.000256907,0.000340169,0.000449846,0.000594317,0.000784622,0.0010353,0.00136551,0.00180047,0.00237342,0.00312815,0.00412231,0.00543186,0.00715687,0.00942914,0.0124223,0.016365,0.0215585,0.0283997,inf	104.028,104.028,195.393,264.733,330.573,389.767,414.082,394.586,366.379,352.681,349.138,348.714,347.659,346.237,346.532,348.303,352.569,360.208,371.613,386.609,403.832,419.744,430.004,431.828,425.819,415.855,404.971,404.438,404.438,447.518,447.518,447.518
0.000746335	-13711080.41	0,1.75832e-06,4.07446e-06,7.1254e-06,1.11442e-05,1.6438e-05,2.34113e-05,3.25968e-05,4.46965e-05,6.06347e-05,8.16293e-05,0.000109284,0.000145713,0.000193699,0.000256907,0.000340169,0.000449846,0.000594317,0.000784622,0.0010353,0.00136551,0.00180047,0.00237342,0.00312815,0.00412231,0.00543186,0.00715687,0.00942914,0.0124223,0.016365,0.0215585,0.0283997,inf	30.5869,30.5869,107.475,195.121,299.352,409.501,458.538,419.083,367.175,345.046,340.6,340.614,338.038,334.033,332.316,332.308,335.913,344.641,359.208,379.621,404.322,428.432,445.343,449.476,440.048,422.948,403.906,404.903,404.903,501.09,501.09,501.09
0.000800654	-13708641.79	0,1.75832e-06,4.07446e-06,7.1254e-06,1.11442e-05,1.6438e-05,2.34113e-05,3.25968e-05,4.46965e-05,6.06347e-05,8.16293e-05,0.000109284,0.000145713,0.000193699,0.000256907,0.000340169,0.000449846,0.000594317,0.000784622,0.0010353,0.00136551,0.00180047,0.00237342,0.00312815,0.00412231,0.00543186,0.00715687,0.00942914,0.0124223,0.016365,0.0215585,0.0283997,inf	9.21957,9.21957,60.2699,145.102,269.824,422.751,496.292,438.174,367.729,341.814,339.243,341.523,338.631,333.062,329.768,327.824,329.952,338.105,353.219,375.516,403.566,432.019,453.262,459.552,448.049,425.585,400.347,404.088,404.088,566.91,566.91,566.91
0.000850928	-13706786.50	0,1.75832e-06,4.07446e-06,7.1254e-06,1.11442e-05,1.6438e-05,2.34113e-05,3.25968e-05,4.46965e-05,6.06347e-05,8.16293e-05,0.000109284,0.000145713,0.000193699,0.000256907,0.000340169,0.000449846,0.000594317,0.000784622,0.0010353,0.00136551,0.00180047,0.00237342,0.00312815,0.00412231,0.00543186,0.00715687,0.00942914,0.0124223,0.016365,0.0215585,0.0283997,inf	2.84499,2.84499,34.3795,108.618,241.583,428.192,523.709,448.165,363.595,336.927,337.794,343.433,341.18,335.111,331.006,327.608,328.387,335.598,350.324,372.996,402.406,433.115,457.193,465.314,452.439,425.749,395.712,402.874,402.874,654.103,654.103,654.103
0.000897717	-13705298.57	0,1.75832e-06,4.07446e-06,7.1254e-06,1.11442e-05,1.6438e-05,2.34113e-05,3.25968e-05,4.46965e-05,6.06347e-05,8.16293e-05,0.000109284,0.000145713,0.000193699,0.000256907,0.000340169,0.000449846,0.000594317,0.000784622,0.0010353,0.00136551,0.00180047,0.00237342,0.00312815,0.00412231,0.00543186,0.00715687,0.00942914,0.0124223,0.016365,0.0215585,0.0283997,inf	0.902083,0.902083,20.1211,82.5369,216.887,429.91,544.172,451.793,356.223,330.443,335.3,344.644,343.51,337.686,333.392,329.057,328.817,335.108,349.119,371.476,401.221,433.001,458.949,468.579,454.713,424.558,390.726,401.675,401.675,782.698,782.698,782.698
0.000941456	-13704073.66	0,1.75832e-06,4.07446e-06,7.1254e-06,1.11442e-05,1.6438e-05,2.34113e-05,3.25968e-05,4.46965e-05,6.06347e-05,8.16293e-05,0.000109284,0.000145713,0.000193699,0.000256907,0.000340169,0.000449846,0.000594317,0.000784622,0.0010353,0.00136551,0.00180047,0.00237342,0.00312815,0.00412231,0.00543186,0.00715687,0.00942914,0.0124223,0.016365,0.0215585,0.0283997,inf	0.400971,0.400971,12.1248,63.9724,196.356,430.805,560.956,451.85,347.42,323.314,332.137,345.074,345.178,340.037,335.969,331.113,330.178,335.685,348.896,370.617,400.148,432.306,459.496,470.365,455.726,422.639,385.738,400.671,400.671,1013.41,1013.41,1013.41
0.000982478	-13703050.30	0,1.75832e-06,4.07446e-06,7.1254e-06,1.11442e-05,1.6438e-05,2.34113e-05,3.25968e-05,4.46965e-05,6.06347e-05,8.16293e-05,0.000109284,0.000145713,0.000193699,0.000256907,0.000340169,0.000449846,0.000594317,0.000784622,0.0010353,0.00136551,0.00180047,0.00237342,0.00312815,0.00412231,0.00543186,0.00715687,0.00942914,0.0124223,0.016365,0.0215585,0.0283997,inf	0.400954,0.400954,7.51953,50.6114,179.624,432.284,575.991,450.128,338.361,316.277,328.794,344.985,346.235,341.99,338.394,333.319,331.958,336.835,349.255,370.198,399.217,431.342,459.361,471.259,455.976,420.337,380.895,399.931,399.931,1682.91,1682.91,1682.91
0.00102105	-13702188.83	0,1.75832e-06,4.07446e-06,7.1254e-06,1.11442e-05,1.6438e-05,2.34113e-05,3.25968e-05,4.46965e-05,6.06347e-05,8.16293e-05,0.000109284,0.000145713,0.000193699,0.000256907,0.000340169,0.000449846,0.000594317,0.000784622,0.0010353,0.00136551,0.00180047,0.00237342,0.00312815,0.00412231,0.00543186,0.00715687,0.00942914,0.0124223,0.016365,0.0215585,0.0283997,inf	0.400954,0.400954,4.78579,40.7964,165.951,434.694,590.131,447.555,329.655,309.742,325.607,344.641,346.839,343.564,340.561,335.474,333.895,338.283,349.961,370.076,398.422,430.268,458.838,471.599,455.748,417.83,376.224,399.469,399.469,9259.23,9259.23,9259.23
0.00102105	-13701459.19	0,1.75832e-06,4.07446e-06,7.1254e-06,1.11442e-05,1.6438e-05,2.34113e-05,3.25968e-05,4.46965e-05,6.06347e-05,8.16293e-05,0.000109284,0.000145713,0.000193699,0.000256907,0.000340169,0.000449846,0.000594317,0.000784622,0.0010353,0.00136551,0.00180047,0.00237342,0.00312815,0.00412231,0.00543186,0.00715687,0.00942914,0.0124223,0.016365,0.0215585,0.0283997,inf	0.400954,0.400954,3.09206,33.1013,153.1,433.554,597.53,440.017,318.265,300.766,319.44,340.656,343.514,341.201,338.832,333.906,332.286,336.281,347.199,366.332,393.729,424.999,453.961,467.804,451.866,412.62,369.774,397.584,397.584,59776.4,59776.4,59776.4
