time_index	left_time_boundary	right_time_boundary	lambda
0	0	1.55899e-05	1.08884
1	1.55899e-05	3.38262e-05	1.08884
2	3.38262e-05	5.51582e-05	2.00981
3	5.51582e-05	8.01112e-05	228.036
4	8.01112e-05	0.0001093	630.743
5	0.0001093	0.000143444	492.858
6	0.000143444	0.000183383	397.066
7	0.000183383	0.000230102	374.124
8	0.000230102	0.000284752	386.056
9	0.000284752	0.000348679	426.687
10	0.000348679	0.000423457	474.617
11	0.000423457	0.000510928	545.959
12	0.000510928	0.000613248	706.587
13	0.000613248	0.000732937	1026.1
14	0.000732937	0.000872943	1555.83
15	0.000872943	0.00103672	2340.22
16	0.00103672	0.00122829	3310.42
17	0.00122829	0.00145238	3992.42
18	0.00145238	0.00171451	3895.72
19	0.00171451	0.00202114	3133.41
20	0.00202114	0.00237982	2345.57
21	0.00237982	0.00279938	1653.73
22	0.00279938	0.00329016	1068.76
23	0.00329016	0.00386426	707.044
24	0.00386426	0.00453581	538.398
25	0.00453581	0.00532135	491.092
26	0.00532135	0.00624024	517.349
27	0.00624024	0.00731511	634.311
28	0.00731511	0.00857244	634.311
29	0.00857244	0.0100432	680.361
30	0.0100432	0.0117636	680.361
31	0.0117636	inf	680.361
