LogLikelihood = -962263.00978675228544

y0 42.699620566478877493
y0_prime 0
y1 30.994709747196662164
y1_prime 0
y2 5.0367526805898279338e-12
y2_prime 0
y3 4.7177145391976331723
y3_prime 0
rho 3.2900836999401573462e-08
theta 0.0029276862750117829681
