LogLikelihood = -1297410.9406804072205

y0 0.44464835365654997723
y0_prime 0
y1 0.89465608064507429198
y1_prime 0
y2 0.65178130921779542373
y2_prime 0
y3 1.443244368733130667
y3_prime 0
rho 0.0032108114440186756068
rho.alpha 0.29107807995725398786
r_ii 0.99988717448158925816
theta 0.0042321484395078925664
