LogLikelihood = -1298525.8708236096427

y0 0.66298764893363026918
y0_prime 0
y1 0.68661827320618951109
y1_prime 0
y2 0.85600634217985638319
y2_prime 0
y3 1.8482078971923052713
y3_prime 0
rho 0.0011794884850404908656
theta 0.0042321484395078925664
