time_index	left_time_boundary	right_time_boundary	lambda
0	0	1.58136e-06	23392.8
1	1.58136e-06	3.66441e-06	23392.8
2	3.66441e-06	6.4083e-06	90.0458
3	6.4083e-06	1.00227e-05	3682.82
4	1.00227e-05	1.47837e-05	194.063
5	1.47837e-05	2.10552e-05	27.6075
6	2.10552e-05	2.93163e-05	18.1756
7	2.93163e-05	4.01982e-05	34.8615
8	4.01982e-05	5.45324e-05	126.447
9	5.45324e-05	7.34141e-05	272.786
10	7.34141e-05	9.8286e-05	337.959
11	9.8286e-05	0.000131048	331.906
12	0.000131048	0.000174205	258.715
13	0.000174205	0.000231052	189.436
14	0.000231052	0.000305935	230.621
15	0.000305935	0.000404573	288.93
16	0.000404573	0.000534505	265.887
17	0.000534505	0.000705658	273.095
18	0.000705658	0.000931108	299.199
19	0.000931108	0.00122808	326.732
20	0.00122808	0.00161927	362.024
21	0.00161927	0.00213456	395.882
22	0.00213456	0.00281333	425.631
23	0.00281333	0.00370744	467.226
24	0.00370744	0.0048852	503.074
25	0.0048852	0.0064366	506.974
26	0.0064366	0.00848019	465.822
27	0.00848019	0.0111721	389
28	0.0111721	0.014718	389
29	0.014718	0.0193889	305.622
30	0.0193889	0.0255415	305.622
31	0.0255415	inf	305.622
