time_index	left_time_boundary	right_time_boundary	lambda
0	0	9.53587e-05	60.6351
1	9.53587e-05	0.000225839	60.6351
2	0.000225839	0.000404378	270.566
3	0.000404378	0.000648675	290.855
4	0.000648675	0.000982951	333.357
5	0.000982951	0.00144034	295.06
6	0.00144034	0.0020662	339.821
7	0.0020662	0.00292258	448.855
8	0.00292258	0.00409436	447.905
9	0.00409436	0.00569774	444.513
10	0.00569774	0.00789166	396.989
11	0.00789166	0.0108936	447.414
12	0.0108936	0.0150013	663.174
13	0.0150013	0.0206218	54287.8
14	0.0206218	0.0283125	54287.8
15	0.0283125	inf	54287.8
