0.00068571	-316235.01	0,9.53587e-05,0.000225839,0.000404378,0.000648675,0.000982951,0.00144034,0.0020662,0.00292258,0.00409436,0.00569774,0.00789166,0.0108936,0.0150013,0.0206218,0.0283125,inf	187.005,187.005,271.981,309.27,340.117,354.828,381.027,409.941,417.376,413.541,404.663,402.04,423.921,463.879,463.879,463.879
0.000724035	-316168.38	0,9.53587e-05,0.000225839,0.000404378,0.000648675,0.000982951,0.00144034,0.0020662,0.00292258,0.00409436,0.00569774,0.00789166,0.0108936,0.0150013,0.0206218,0.0283125,inf	129.716,129.716,244.579,289.466,328.899,341.087,377.377,423.548,435.254,429.978,415.426,412.974,462.856,574.145,574.145,574.145
0.000760181	-316138.97	0,9.53587e-05,0.000225839,0.000404378,0.000648675,0.000982951,0.00144034,0.0020662,0.00292258,0.00409436,0.00569774,0.00789166,0.0108936,0.0150013,0.0206218,0.0283125,inf	105.55,105.55,240.202,285.457,327.583,332.615,373.386,431.123,445.157,439.599,421.143,420.625,504.265,758.118,758.118,758.118
0.000794376	-316120.20	0,9.53587e-05,0.000225839,0.000404378,0.000648675,0.000982951,0.00144034,0.0020662,0.00292258,0.00409436,0.00569774,0.00789166,0.0108936,0.0150013,0.0206218,0.0283125,inf	92.8636,92.8636,243.567,286.754,329.744,326.488,369.443,435.496,450.529,445.148,423.694,426.151,549.62,1200.42,1200.42,1200.42
0.000826982	-316106.14	0,9.53587e-05,0.000225839,0.000404378,0.000648675,0.000982951,0.00144034,0.0020662,0.00292258,0.00409436,0.00569774,0.00789166,0.0108936,0.0150013,0.0206218,0.0283125,inf	85.1968,85.1968,249.505,289.766,333.163,321.704,365.85,438.211,453.326,448.25,424.242,430.275,600.698,4058.62,4058.62,4058.62
0.000826982	-316094.82	0,9.53587e-05,0.000225839,0.000404378,0.000648675,0.000982951,0.00144034,0.0020662,0.00292258,0.00409436,0.00569774,0.00789166,0.0108936,0.0150013,0.0206218,0.0283125,inf	79.2292,79.2292,252.933,289.573,332.871,314.4,358.937,435.245,450.234,446.373,420.929,431.486,658.409,54287.8,54287.8,54287.8
0.000826982	-316095.42	0,9.53587e-05,0.000225839,0.000404378,0.000648675,0.000982951,0.00144034,0.0020662,0.00292258,0.00409436,0.00569774,0.00789166,0.0108936,0.0150013,0.0206218,0.0283125,inf	74.8303,74.8303,256.604,289.686,333.357,309.8,354.765,434.753,448.829,445.298,418.083,433.009,660.887,54287.8,54287.8,54287.8
0.000826982	-316095.93	0,9.53587e-05,0.000225839,0.000404378,0.000648675,0.000982951,0.00144034,0.0020662,0.00292258,0.00409436,0.00569774,0.00789166,0.0108936,0.0150013,0.0206218,0.0283125,inf	71.4765,71.4765,259.996,289.905,333.357,306.574,352.031,435.555,448.286,444.792,415.638,434.709,661.911,54287.8,54287.8,54287.8
0.000826982	-316096.26	0,9.53587e-05,0.000225839,0.000404378,0.000648675,0.000982951,0.00144034,0.0020662,0.00292258,0.00409436,0.00569774,0.00789166,0.0108936,0.0150013,0.0206218,0.0283125,inf	68.881,68.881,262.932,289.905,333.357,304.179,350.056,436.971,448.112,444.562,413.432,436.51,662.185,54287.8,54287.8,54287.8
0.000826982	-316096.48	0,9.53587e-05,0.000225839,0.000404378,0.000648675,0.000982951,0.00144034,0.0020662,0.00292258,0.00409436,0.00569774,0.00789166,0.0108936,0.0150013,0.0206218,0.0283125,inf	66.8559,66.8559,264.957,289.905,333.357,302.306,348.495,438.67,448.09,444.468,411.391,438.186,662.185,54287.8,54287.8,54287.8
0.000826982	-316096.65	0,9.53587e-05,0.000225839,0.000404378,0.000648675,0.000982951,0.00144034,0.0020662,0.00292258,0.00409436,0.00569774,0.00789166,0.0108936,0.0150013,0.0206218,0.0283125,inf	65.3006,65.3006,266.855,289.905,333.357,300.787,347.168,440.451,448.065,444.439,409.479,439.587,662.201,54287.8,54287.8,54287.8
0.000826982	-316096.80	0,9.53587e-05,0.000225839,0.000404378,0.000648675,0.000982951,0.00144034,0.0020662,0.00292258,0.00409436,0.00569774,0.00789166,0.0108936,0.0150013,0.0206218,0.0283125,inf	64.0814,64.0814,268.073,289.905,333.357,299.522,345.984,441.992,448.024,444.461,407.707,439.588,663.15,54287.8,54287.8,54287.8
0.000826982	-316096.97	0,9.53587e-05,0.000225839,0.000404378,0.000648675,0.000982951,0.00144034,0.0020662,0.00292258,0.00409436,0.00569774,0.00789166,0.0108936,0.0150013,0.0206218,0.0283125,inf	63.145,63.145,269.01,289.905,333.357,298.477,344.925,443.324,447.989,444.487,406.047,440.801,663.15,54287.8,54287.8,54287.8
0.000826982	-316097.10	0,9.53587e-05,0.000225839,0.000404378,0.000648675,0.000982951,0.00144034,0.0020662,0.00292258,0.00409436,0.00569774,0.00789166,0.0108936,0.0150013,0.0206218,0.0283125,inf	62.4251,62.4251,269.729,289.905,333.357,297.621,343.974,444.476,447.951,444.487,404.487,441.937,663.164,54287.8,54287.8,54287.8
0.000826982	-316097.23	0,9.53587e-05,0.000225839,0.000404378,0.000648675,0.000982951,0.00144034,0.0020662,0.00292258,0.00409436,0.00569774,0.00789166,0.0108936,0.0150013,0.0206218,0.0283125,inf	61.871,61.871,269.729,290.559,333.357,296.933,343.12,445.467,447.921,444.509,403.025,443.006,663.164,54287.8,54287.8,54287.8
0.000826982	-316097.35	0,9.53587e-05,0.000225839,0.000404378,0.000648675,0.000982951,0.00144034,0.0020662,0.00292258,0.00409436,0.00569774,0.00789166,0.0108936,0.0150013,0.0206218,0.0283125,inf	61.4627,61.4627,269.734,290.855,333.357,296.356,342.337,446.325,447.911,444.509,401.654,444.019,663.164,54287.8,54287.8,54287.8
0.000826982	-316097.46	0,9.53587e-05,0.000225839,0.000404378,0.000648675,0.000982951,0.00144034,0.0020662,0.00292258,0.00409436,0.00569774,0.00789166,0.0108936,0.0150013,0.0206218,0.0283125,inf	61.1694,61.1694,270.028,290.855,333.357,295.891,341.623,447.094,447.905,444.513,400.37,444.957,663.164,54287.8,54287.8,54287.8
0.000826982	-316097.56	0,9.53587e-05,0.000225839,0.000404378,0.000648675,0.000982951,0.00144034,0.0020662,0.00292258,0.00409436,0.00569774,0.00789166,0.0108936,0.0150013,0.0206218,0.0283125,inf	60.9437,60.9437,270.255,290.855,333.357,295.53,340.971,447.764,447.905,444.513,399.167,445.822,663.174,54287.8,54287.8,54287.8
0.000826982	-316097.66	0,9.53587e-05,0.000225839,0.000404378,0.000648675,0.000982951,0.00144034,0.0020662,0.00292258,0.00409436,0.00569774,0.00789166,0.0108936,0.0150013,0.0206218,0.0283125,inf	60.7696,60.7696,270.43,290.855,333.357,295.258,340.373,448.347,447.905,444.513,398.042,446.644,663.174,54287.8,54287.8,54287.8
0.000826982	-316097.75	0,9.53587e-05,0.000225839,0.000404378,0.000648675,0.000982951,0.00144034,0.0020662,0.00292258,0.00409436,0.00569774,0.00789166,0.0108936,0.0150013,0.0206218,0.0283125,inf	60.6351,60.6351,270.566,290.855,333.357,295.06,339.821,448.855,447.905,444.513,396.989,447.414,663.174,54287.8,54287.8,54287.8
