0.000588829	-12338704.53	0,3.66441e-06,1.00227e-05,2.10552e-05,4.01982e-05,7.34141e-05,0.000131048,0.000231052,0.000404573,0.000705658,0.00122808,0.00213456,0.00370744,0.0064366,0.0111721,0.0193889,inf	5049.01,5049.01,545.913,211.071,259.303,292.05,281.588,290.103,312.269,347.685,397.103,453.781,460.122,428.366,428.366,428.366
0.000622822	-12335382.21	0,3.66441e-06,1.00227e-05,2.10552e-05,4.01982e-05,7.34141e-05,0.000131048,0.000231052,0.000404573,0.000705658,0.00122808,0.00213456,0.00370744,0.0064366,0.0111721,0.0193889,inf	6685.27,6685.27,356.185,131.116,217.784,273.289,248.818,254.423,278.164,321.474,384.56,462.474,470.955,414.464,414.464,414.464
0.000655648	-12334276.80	0,3.66441e-06,1.00227e-05,2.10552e-05,4.01982e-05,7.34141e-05,0.000131048,0.000231052,0.000404573,0.000705658,0.00122808,0.00213456,0.00370744,0.0064366,0.0111721,0.0193889,inf	6986.8,6986.8,242.048,94.8022,205.619,280.241,242.105,245.434,267.457,312.584,380.071,467.577,478.005,402.598,402.598,402.598
0.000686705	-12333539.94	0,3.66441e-06,1.00227e-05,2.10552e-05,4.01982e-05,7.34141e-05,0.000131048,0.000231052,0.000404573,0.000705658,0.00122808,0.00213456,0.00370744,0.0064366,0.0111721,0.0193889,inf	6953.74,6953.74,174.192,74.1769,201.116,291.308,241.065,244.243,264.265,309.521,378.055,469.933,482.572,392.615,392.615,392.615
0.000716137	-12332947.18	0,3.66441e-06,1.00227e-05,2.10552e-05,4.01982e-05,7.34141e-05,0.000131048,0.000231052,0.000404573,0.000705658,0.00122808,0.00213456,0.00370744,0.0064366,0.0111721,0.0193889,inf	6831.04,6831.04,131.443,61.0725,199.097,301.305,240.626,245.498,263.825,308.803,377.036,470.58,485.606,384.339,384.339,384.339
0.000744144	-12332442.60	0,3.66441e-06,1.00227e-05,2.10552e-05,4.01982e-05,7.34141e-05,0.000131048,0.000231052,0.000404573,0.000705658,0.00122808,0.00213456,0.00370744,0.0064366,0.0111721,0.0193889,inf	6685.69,6685.69,103.118,52.2391,198.282,309.42,239.654,247.489,264.443,309.143,376.537,470.215,487.679,377.53,377.53,377.53
0.000770886	-12332002.90	0,3.66441e-06,1.00227e-05,2.10552e-05,4.01982e-05,7.34141e-05,0.000131048,0.000231052,0.000404573,0.000705658,0.00122808,0.00213456,0.00370744,0.0064366,0.0111721,0.0193889,inf	6537.73,6537.73,83.5449,46.0866,198.317,315.939,238.084,249.655,265.45,309.993,376.366,469.258,489.123,371.944,371.944,371.944
0.000796481	-12331614.85	0,3.66441e-06,1.00227e-05,2.10552e-05,4.01982e-05,7.34141e-05,0.000131048,0.000231052,0.000404573,0.000705658,0.00122808,0.00213456,0.00370744,0.0064366,0.0111721,0.0193889,inf	6394.25,6394.25,69.5428,41.6938,199.043,321.306,236.088,251.819,266.561,311.091,376.422,467.955,490.136,367.358,367.358,367.358
0.000821022	-12331269.63	0,3.66441e-06,1.00227e-05,2.10552e-05,4.01982e-05,7.34141e-05,0.000131048,0.000231052,0.000404573,0.000705658,0.00122808,0.00213456,0.00370744,0.0064366,0.0111721,0.0193889,inf	6257.69,6257.69,59.199,38.5002,200.328,325.874,233.846,253.936,267.652,312.301,376.646,466.457,490.835,363.583,363.583,363.583
0.000844581	-12330960.72	0,3.66441e-06,1.00227e-05,2.10552e-05,4.01982e-05,7.34141e-05,0.000131048,0.000231052,0.000404573,0.000705658,0.00122808,0.00213456,0.00370744,0.0064366,0.0111721,0.0193889,inf	6128.33,6128.33,51.3368,36.1471,202.045,329.885,231.49,256.003,268.665,313.546,376.994,464.852,491.297,360.466,360.466,360.466
0.000867219	-12330683.06	0,3.66441e-06,1.00227e-05,2.10552e-05,4.01982e-05,7.34141e-05,0.000131048,0.000231052,0.000404573,0.000705658,0.00122808,0.00213456,0.00370744,0.0064366,0.0111721,0.0193889,inf	6006.94,6006.94,45.2019,34.4014,204.074,333.494,229.111,258.031,269.58,314.784,377.439,463.198,491.571,357.882,357.882,357.882
0.000888987	-12330432.58	0,3.66441e-06,1.00227e-05,2.10552e-05,4.01982e-05,7.34141e-05,0.000131048,0.000231052,0.000404573,0.000705658,0.00122808,0.00213456,0.00370744,0.0064366,0.0111721,0.0193889,inf	5893.45,5893.45,40.3045,33.0925,206.318,336.797,226.767,260.03,270.39,315.99,377.957,461.532,491.696,355.731,355.731,355.731
0.000909933	-12330205.93	0,3.66441e-06,1.00227e-05,2.10552e-05,4.01982e-05,7.34141e-05,0.000131048,0.000231052,0.000404573,0.000705658,0.00122808,0.00213456,0.00370744,0.0064366,0.0111721,0.0193889,inf	5786.95,5786.95,36.3032,32.1168,208.7,339.859,224.488,262.009,271.096,317.15,378.532,459.876,491.697,353.933,353.933,353.933
0.000930099	-12330000.31	0,3.66441e-06,1.00227e-05,2.10552e-05,4.01982e-05,7.34141e-05,0.000131048,0.000231052,0.000404573,0.000705658,0.00122808,0.00213456,0.00370744,0.0064366,0.0111721,0.0193889,inf	5687.29,5687.29,32.9675,31.3903,211.161,342.718,222.293,263.974,271.704,318.258,379.151,458.248,491.596,352.425,352.425,352.425
0.000949522	-12329813.32	0,3.66441e-06,1.00227e-05,2.10552e-05,4.01982e-05,7.34141e-05,0.000131048,0.000231052,0.000404573,0.000705658,0.00122808,0.00213456,0.00370744,0.0064366,0.0111721,0.0193889,inf	5594.14,5594.14,30.1513,30.8597,213.657,345.4,220.193,265.93,272.221,319.309,379.805,456.656,491.41,351.155,351.155,351.155
0.000968238	-12329642.93	0,3.66441e-06,1.00227e-05,2.10552e-05,4.01982e-05,7.34141e-05,0.000131048,0.000231052,0.000404573,0.000705658,0.00122808,0.00213456,0.00370744,0.0064366,0.0111721,0.0193889,inf	5506.44,5506.44,27.7275,30.4789,216.154,347.921,218.188,267.878,272.652,320.303,380.484,455.108,491.154,350.082,350.082,350.082
0.00098628	-12329487.36	0,3.66441e-06,1.00227e-05,2.10552e-05,4.01982e-05,7.34141e-05,0.000131048,0.000231052,0.000404573,0.000705658,0.00122808,0.00213456,0.00370744,0.0064366,0.0111721,0.0193889,inf	5424.38,5424.38,25.6194,30.2169,218.631,350.299,216.279,269.819,273.007,321.24,381.184,453.608,490.839,349.173,349.173,349.173
0.00100368	-12329345.10	0,3.66441e-06,1.00227e-05,2.10552e-05,4.01982e-05,7.34141e-05,0.000131048,0.000231052,0.000404573,0.000705658,0.00122808,0.00213456,0.00370744,0.0064366,0.0111721,0.0193889,inf	5347.61,5347.61,23.7604,30.0492,221.075,352.544,214.462,271.753,273.291,322.12,381.898,452.157,490.476,348.4,348.4,348.4
0.00102046	-12329214.78	0,3.66441e-06,1.00227e-05,2.10552e-05,4.01982e-05,7.34141e-05,0.000131048,0.000231052,0.000404573,0.000705658,0.00122808,0.00213456,0.00370744,0.0064366,0.0111721,0.0193889,inf	5275.39,5275.39,22.1031,29.9613,223.475,354.663,212.733,273.681,273.51,322.948,382.622,450.757,490.073,347.742,347.742,347.742
0.00103666	-12329095.23	0,3.66441e-06,1.00227e-05,2.10552e-05,4.01982e-05,7.34141e-05,0.000131048,0.000231052,0.000404573,0.000705658,0.00122808,0.00213456,0.00370744,0.0064366,0.0111721,0.0193889,inf	5207.7,5207.7,20.6162,29.9348,225.828,356.666,211.087,275.601,273.672,323.724,383.353,449.408,489.636,347.18,347.18,347.18
