0.000224813	-133152.98	0,1.53882e-05,3.33886e-05,5.44446e-05,7.90748e-05,0.000107886,0.000141588,0.000181011,0.000227126,0.000281068,0.000344168,0.000417979,0.000504319,0.000605315,0.000723455,0.00086165,0.0010233,0.0012124,0.00143359,0.00169233,0.00199499,0.00234903,0.00276316,0.0032476,0.00381427,0.00447713,0.00525251,0.00615951,0.00722048,0.00846154,0.00991327,0.0116114,inf	123.91,123.91,161.724,162.696,183.113,223.893,280.208,352.113,443.594,560.964,713.003,911.71,1167.42,1464.48,1719.83,1827.5,1792.08,1696.03,1594.22,1502.41,1422.77,1356.42,1304.32,1265.38,1235.64,1210.57,1187.11,1157.17,1157.17,1094.46,1094.46,1094.46
0.000232668	-132773.24	0,1.53882e-05,3.33886e-05,5.44446e-05,7.90748e-05,0.000107886,0.000141588,0.000181011,0.000227126,0.000281068,0.000344168,0.000417979,0.000504319,0.000605315,0.000723455,0.00086165,0.0010233,0.0012124,0.00143359,0.00169233,0.00199499,0.00234903,0.00276316,0.0032476,0.00381427,0.00447713,0.00525251,0.00615951,0.00722048,0.00846154,0.00991327,0.0116114,inf	71.3707,71.3707,94.889,62.7422,54.0153,67.4016,98.3127,148.218,224.104,337.047,502.569,743.746,1092.6,1567.96,2083.66,2396.21,2401.85,2243.48,2049.74,1865.18,1700.89,1564.89,1463.01,1392.66,1342.36,1300.05,1258.93,1204,1204,1088.2,1088.2,1088.2
0.000241486	-132634.75	0,1.53882e-05,3.33886e-05,5.44446e-05,7.90748e-05,0.000107886,0.000141588,0.000181011,0.000227126,0.000281068,0.000344168,0.000417979,0.000504319,0.000605315,0.000723455,0.00086165,0.0010233,0.0012124,0.00143359,0.00169233,0.00199499,0.00234903,0.00276316,0.0032476,0.00381427,0.00447713,0.00525251,0.00615951,0.00722048,0.00846154,0.00991327,0.0116114,inf	84.6911,84.6911,109.274,42.5707,23.6229,26.2581,41.4669,71.8519,126.545,220.4,374.344,618.933,1000.73,1572.04,2286.88,2814.27,2897.85,2706.75,2436.94,2165.68,1918.38,1716.11,1572.36,1481.48,1421.34,1370.22,1317.49,1242.78,1242.78,1083.61,1083.61,1083.61
0.000249858	-132570.43	0,1.53882e-05,3.33886e-05,5.44446e-05,7.90748e-05,0.000107886,0.000141588,0.000181011,0.000227126,0.000281068,0.000344168,0.000417979,0.000504319,0.000605315,0.000723455,0.00086165,0.0010233,0.0012124,0.00143359,0.00169233,0.00199499,0.00234903,0.00276316,0.0032476,0.00381427,0.00447713,0.00525251,0.00615951,0.00722048,0.00846154,0.00991327,0.0116114,inf	107.912,107.912,138.154,33.5466,12.6731,12.4107,20.281,38.8562,77.6244,153.463,291.426,527.78,919.004,1543.02,2404.34,3127.78,3297.25,3088.3,2753.02,2400.81,2074.99,1813.58,1637.74,1536.51,1475.64,1422.89,1363.7,1273.95,1273.95,1080.14,1080.14,1080.14
0.000257568	-132535.74	0,1.53882e-05,3.33886e-05,5.44446e-05,7.90748e-05,0.000107886,0.000141588,0.000181011,0.000227126,0.000281068,0.000344168,0.000417979,0.000504319,0.000605315,0.000723455,0.00086165,0.0010233,0.0012124,0.00143359,0.00169233,0.00199499,0.00234903,0.00276316,0.0032476,0.00381427,0.00447713,0.00525251,0.00615951,0.00722048,0.00846154,0.00991327,0.0116114,inf	126.882,126.882,168.284,27.8177,7.76407,6.77249,11.1285,22.9004,50.8171,112.263,235.064,459.981,850.728,1504.56,2475.34,3371.84,3622.42,3400.14,3004.6,2576.28,2178.48,1867.21,1668.8,1565.01,1509.81,1460.68,1399.17,1298.5,1298.5,1077.13,1077.13,1077.13
0.000264658	-132514.99	0,1.53882e-05,3.33886e-05,5.44446e-05,7.90748e-05,0.000107886,0.000141588,0.000181011,0.000227126,0.000281068,0.000344168,0.000417979,0.000504319,0.000605315,0.000723455,0.00086165,0.0010233,0.0012124,0.00143359,0.00169233,0.00199499,0.00234903,0.00276316,0.0032476,0.00381427,0.00447713,0.00525251,0.00615951,0.00722048,0.00846154,0.00991327,0.0116114,inf	138.26,138.26,197.658,23.8634,5.2055,4.07993,6.63598,14.4106,35.0216,85.4403,195.135,408.339,794.305,1465.19,2519.96,3568.89,3891.31,3654.67,3200.96,2701.21,2239.61,1888.51,1675.58,1574.31,1528.48,1486.37,1425.62,1317.35,1317.35,1074.58,1074.58,1074.58
0.000271214	-132501.58	0,1.53882e-05,3.33886e-05,5.44446e-05,7.90748e-05,0.000107886,0.000141588,0.000181011,0.000227126,0.000281068,0.000344168,0.000417979,0.000504319,0.000605315,0.000723455,0.00086165,0.0010233,0.0012124,0.00143359,0.00169233,0.00199499,0.00234903,0.00276316,0.0032476,0.00381427,0.00447713,0.00525251,0.00615951,0.00722048,0.00846154,0.00991327,0.0116114,inf	141.813,141.813,225.051,20.8338,3.68556,2.61861,4.19289,9.52823,25.1448,67.1641,165.867,368.119,747.497,1427.95,2548.85,3732.99,4117.01,3862.53,3351.45,2785.46,2269.22,1887.9,1666.68,1570.74,1535.86,1502.57,1444.73,1331.68,1331.68,1072.52,1072.52,1072.52
0.00027732	-132492.40	0,1.53882e-05,3.33886e-05,5.44446e-05,7.90748e-05,0.000107886,0.000141588,0.000181011,0.000227126,0.000281068,0.000344168,0.000417979,0.000504319,0.000605315,0.000723455,0.00086165,0.0010233,0.0012124,0.00143359,0.00169233,0.00199499,0.00234903,0.00276316,0.0032476,0.00381427,0.00447713,0.00525251,0.00615951,0.00722048,0.00846154,0.00991327,0.0116114,inf	138.846,138.846,249.462,18.2941,2.69216,1.75044,2.76094,6.54707,18.668,54.2392,143.805,336.177,708.343,1393.8,2567.97,3873.17,4308.94,4032.34,3464.63,2838.22,2276.68,1873.59,1648.6,1559.2,1535.36,1511.54,1457.9,1342.32,1342.32,1070.11,1070.11,1070.11
0.000283046	-132485.84	0,1.53882e-05,3.33886e-05,5.44446e-05,7.90748e-05,0.000107886,0.000141588,0.000181011,0.000227126,0.000281068,0.000344168,0.000417979,0.000504319,0.000605315,0.000723455,0.00086165,0.0010233,0.0012124,0.00143359,0.00169233,0.00199499,0.00234903,0.00276316,0.0032476,0.00381427,0.00447713,0.00525251,0.00615951,0.00722048,0.00846154,0.00991327,0.0116114,inf	131.382,131.382,270.566,16.0679,2.00361,1.20327,1.87608,4.64175,14.2547,44.8139,126.784,310.384,675.287,1362.86,2580.79,3995.41,4473.96,4171.05,3547.86,2867.37,2269.41,1851.56,1625.88,1543.2,1529.74,1515.22,1466.43,1349.87,1349.87,1067.2,1067.2,1067.2
0.00028845	-132480.96	0,1.53882e-05,3.33886e-05,5.44446e-05,7.90748e-05,0.000107886,0.000141588,0.000181011,0.000227126,0.000281068,0.000344168,0.000417979,0.000504319,0.000605315,0.000723455,0.00086165,0.0010233,0.0012124,0.00143359,0.00169233,0.00199499,0.00234903,0.00276316,0.0032476,0.00381427,0.00447713,0.00525251,0.00615951,0.00722048,0.00846154,0.00991327,0.0116114,inf	121.348,121.348,288.588,14.0902,1.50977,1.10311,1.30787,3.3793,11.1517,37.7631,113.395,289.257,647.123,1334.95,2589.42,4103.79,4617.12,4284.22,3607.34,2879.28,2252.93,1825.84,1601.46,1525.15,1520.91,1515.11,1471.48,1355.07,1355.07,1065.61,1065.61,1065.61
0.000293578	-132477.25	0,1.53882e-05,3.33886e-05,5.44446e-05,7.90748e-05,0.000107886,0.000141588,0.000181011,0.000227126,0.000281068,0.000344168,0.000417979,0.000504319,0.000605315,0.000723455,0.00086165,0.0010233,0.0012124,0.00143359,0.00169233,0.00199499,0.00234903,0.00276316,0.0032476,0.00381427,0.00447713,0.00525251,0.00615951,0.00722048,0.00846154,0.00991327,0.0116114,inf	110.141,110.141,303.69,12.3212,1.14743,1.10311,1.10311,2.51699,8.90961,32.3707,102.685,271.737,622.92,1309.76,2595.19,4201.19,4742.27,4376.34,3648.13,2878.96,2231.16,1799.03,1577.19,1506.65,1510.33,1512.39,1473.79,1358.41,1358.41,1063.76,1063.76,1063.76
0.000298467	-132474.34	0,1.53882e-05,3.33886e-05,5.44446e-05,7.90748e-05,0.000107886,0.000141588,0.000181011,0.000227126,0.000281068,0.000344168,0.000417979,0.000504319,0.000605315,0.000723455,0.00086165,0.0010233,0.0012124,0.00143359,0.00169233,0.00199499,0.00234903,0.00276316,0.0032476,0.00381427,0.00447713,0.00525251,0.00615951,0.00722048,0.00846154,0.00991327,0.0116114,inf	98.7539,98.7539,316.286,10.7463,1.10311,1.10311,1.10311,1.91273,7.25139,28.1683,93.9964,257.052,601.955,1286.98,2598.96,4289.71,4852.35,4451.03,3674.34,2870.16,2206.76,1772.74,1554.13,1488.65,1498.97,1507.94,1474.13,1360.28,1360.28,1062.06,1062.06,1062.06
0.000303149	-132472.02	0,1.53882e-05,3.33886e-05,5.44446e-05,7.90748e-05,0.000107886,0.000141588,0.000181011,0.000227126,0.000281068,0.000344168,0.000417979,0.000504319,0.000605315,0.000723455,0.00086165,0.0010233,0.0012124,0.00143359,0.00169233,0.00199499,0.00234903,0.00276316,0.0032476,0.00381427,0.00447713,0.00525251,0.00615951,0.00722048,0.00846154,0.00991327,0.0116114,inf	87.7627,87.7627,326.631,9.347,1.10311,1.10311,1.10311,1.47952,5.99979,24.8383,86.8603,244.631,583.663,1266.31,2601.29,4370.89,4949.65,4511.23,3689.25,2855.72,2181.52,1747.86,1532.83,1471.69,1487.54,1502.43,1473.04,1361.07,1361.07,1060.38,1060.38,1060.38
0.000307648	-132470.14	0,1.53882e-05,3.33886e-05,5.44446e-05,7.90748e-05,0.000107886,0.000141588,0.000181011,0.000227126,0.000281068,0.000344168,0.000417979,0.000504319,0.000605315,0.000723455,0.00086165,0.0010233,0.0012124,0.00143359,0.00169233,0.00199499,0.00234903,0.00276316,0.0032476,0.00381427,0.00447713,0.00525251,0.00615951,0.00722048,0.00846154,0.00991327,0.0116114,inf	77.5708,77.5708,335.291,8.11721,1.10311,1.10311,1.10311,1.16311,5.03801,22.1617,80.9398,234.042,567.601,1247.5,2602.57,4445.91,5036.04,4559.37,3695.45,2837.67,2156.54,1724.87,1513.55,1456.1,1476.43,1496.31,1470.98,1361.11,1361.11,1058.62,1058.62,1058.62
0.000311986	-132468.58	0,1.53882e-05,3.33886e-05,5.44446e-05,7.90748e-05,0.000107886,0.000141588,0.000181011,0.000227126,0.000281068,0.000344168,0.000417979,0.000504319,0.000605315,0.000723455,0.00086165,0.0010233,0.0012124,0.00143359,0.00169233,0.00199499,0.00234903,0.00276316,0.0032476,0.00381427,0.00447713,0.00525251,0.00615951,0.00722048,0.00846154,0.00991327,0.0116114,inf	68.3056,68.3056,342.583,7.0422,1.10311,1.10311,1.10311,1.10311,4.28723,19.9841,75.9847,224.958,553.419,1230.32,2603.08,4515.69,5112.98,4597.41,3694.99,2817.51,2132.54,1703.96,1496.31,1441.98,1465.91,1489.94,1468.15,1360.5,1360.5,1057.23,1057.23,1057.23
0.000316181	-132467.28	0,1.53882e-05,3.33886e-05,5.44446e-05,7.90748e-05,0.000107886,0.000141588,0.000181011,0.000227126,0.000281068,0.000344168,0.000417979,0.000504319,0.000605315,0.000723455,0.00086165,0.0010233,0.0012124,0.00143359,0.00169233,0.00199499,0.00234903,0.00276316,0.0032476,0.00381427,0.00447713,0.00525251,0.00615951,0.00722048,0.00846154,0.00991327,0.0116114,inf	59.9721,59.9721,348.592,6.10336,1.10311,1.10311,1.10311,1.10311,3.69233,18.192,71.8052,217.116,540.827,1214.56,2602.98,4580.95,5181.69,4626.99,3689.48,2796.27,2109.87,1685.14,1481.06,1429.35,1456.1,1483.56,1464.93,1359.44,1359.44,1055.83,1055.83,1055.83
0.000320247	-132466.17	0,1.53882e-05,3.33886e-05,5.44446e-05,7.90748e-05,0.000107886,0.000141588,0.000181011,0.000227126,0.000281068,0.000344168,0.000417979,0.000504319,0.000605315,0.000723455,0.00086165,0.0010233,0.0012124,0.00143359,0.00169233,0.00199499,0.00234903,0.00276316,0.0032476,0.00381427,0.00447713,0.00525251,0.00615951,0.00722048,0.00846154,0.00991327,0.0116114,inf	52.5665,52.5665,353.559,5.28564,1.10311,1.10311,1.10311,1.10311,3.21516,16.7031,68.2576,210.315,529.594,1200.05,2602.44,4642.27,5243.19,4649.45,3680.18,2774.67,2088.74,1668.34,1467.69,1418.19,1447.12,1477.37,1461.44,1358.09,1358.09,1054.43,1054.43,1054.43
0.000324197	-132465.22	0,1.53882e-05,3.33886e-05,5.44446e-05,7.90748e-05,0.000107886,0.000141588,0.000181011,0.000227126,0.000281068,0.000344168,0.000417979,0.000504319,0.000605315,0.000723455,0.00086165,0.0010233,0.0012124,0.00143359,0.00169233,0.00199499,0.00234903,0.00276316,0.0032476,0.00381427,0.00447713,0.00525251,0.00615951,0.00722048,0.00846154,0.00991327,0.0116114,inf	46.0262,46.0262,357.637,4.57614,1.10311,1.10311,1.10311,1.10311,2.82779,15.4558,65.2317,204.394,519.533,1186.65,2601.53,4700.13,5298.31,4665.92,3668.05,2753.21,2069.22,1653.42,1456.04,1408.37,1438.96,1471.45,1457.85,1356.5,1356.5,1053.01,1053.01,1053.01
0.000328043	-132464.40	0,1.53882e-05,3.33886e-05,5.44446e-05,7.90748e-05,0.000107886,0.000141588,0.000181011,0.000227126,0.000281068,0.000344168,0.000417979,0.000504319,0.000605315,0.000723455,0.00086165,0.0010233,0.0012124,0.00143359,0.00169233,0.00199499,0.00234903,0.00276316,0.0032476,0.00381427,0.00447713,0.00525251,0.00615951,0.00722048,0.00846154,0.00991327,0.0116114,inf	40.276,40.276,360.969,3.96073,1.10311,1.10311,1.10311,1.10311,2.50986,14.4031,62.6405,199.223,510.487,1174.23,2600.34,4754.9,5347.77,4677.32,3653.87,2732.23,2051.27,1640.22,1445.92,1399.8,1431.61,1465.82,1454.2,1354.76,1354.76,1051.53,1051.53,1051.53
0.000331794	-132463.68	0,1.53882e-05,3.33886e-05,5.44446e-05,7.90748e-05,0.000107886,0.000141588,0.000181011,0.000227126,0.000281068,0.000344168,0.000417979,0.000504319,0.000605315,0.000723455,0.00086165,0.0010233,0.0012124,0.00143359,0.00169233,0.00199499,0.00234903,0.00276316,0.0032476,0.00381427,0.00447713,0.00525251,0.00615951,0.00722048,0.00846154,0.00991327,0.0116114,inf	35.2344,35.2344,363.635,3.42877,1.10311,1.10311,1.10311,1.10311,2.24671,13.5092,60.415,194.695,502.326,1162.68,2598.92,4806.93,5392.17,4684.46,3638.22,2711.94,2034.84,1628.59,1437.2,1392.38,1425.06,1460.58,1450.63,1352.94,1352.94,1050.26,1050.26,1050.26
