time_index	left_time_boundary	right_time_boundary	lambda
0	0	1.53882e-05	35.2344
1	1.53882e-05	3.33886e-05	35.2344
2	3.33886e-05	5.44446e-05	363.635
3	5.44446e-05	7.90748e-05	3.42877
4	7.90748e-05	0.000107886	1.10311
5	0.000107886	0.000141588	1.10311
6	0.000141588	0.000181011	1.10311
7	0.000181011	0.000227126	1.10311
8	0.000227126	0.000281068	2.24671
9	0.000281068	0.000344168	13.5092
10	0.000344168	0.000417979	60.415
11	0.000417979	0.000504319	194.695
12	0.000504319	0.000605315	502.326
13	0.000605315	0.000723455	1162.68
14	0.000723455	0.00086165	2598.92
15	0.00086165	0.0010233	4806.93
16	0.0010233	0.0012124	5392.17
17	0.0012124	0.00143359	4684.46
18	0.00143359	0.00169233	3638.22
19	0.00169233	0.00199499	2711.94
20	0.00199499	0.00234903	2034.84
21	0.00234903	0.00276316	1628.59
22	0.00276316	0.0032476	1437.2
23	0.0032476	0.00381427	1392.38
24	0.00381427	0.00447713	1425.06
25	0.00447713	0.00525251	1460.58
26	0.00525251	0.00615951	1450.63
27	0.00615951	0.00722048	1352.94
28	0.00722048	0.00846154	1352.94
29	0.00846154	0.00991327	1050.26
30	0.00991327	0.0116114	1050.26
31	0.0116114	inf	1050.26
