0.000231175	-6022484.88	0,6.42952e-07,1.48988e-06,2.60549e-06,4.07504e-06,6.01079e-06,8.56065e-06,1.19195e-05,1.63438e-05,2.21719e-05,2.98488e-05,3.99612e-05,5.32818e-05,7.08284e-05,9.39416e-05,0.000124387,0.000164492,0.00021732,0.000286907,0.000378571,0.000499315,0.000658365,0.000867874,0.00114385,0.00150738,0.00198623,0.002617,0.00344789,0.00454237,0.00598407,0.00788315,0.0103847,inf	22.4921,22.4921,45.1389,66.1978,87.6421,107.928,125.103,137.519,144.426,146.888,148.292,153.354,166.079,188.88,223.667,273.272,342.981,443.085,593.222,830.109,1207.34,1683.41,1850.59,1711.4,1556.7,1445.5,1373.04,1322.75,1322.75,1310.19,1310.19,1310.19
0.000243268	-6005312.98	0,6.42952e-07,1.48988e-06,2.60549e-06,4.07504e-06,6.01079e-06,8.56065e-06,1.19195e-05,1.63438e-05,2.21719e-05,2.98488e-05,3.99612e-05,5.32818e-05,7.08284e-05,9.39416e-05,0.000124387,0.000164492,0.00021732,0.000286907,0.000378571,0.000499315,0.000658365,0.000867874,0.00114385,0.00150738,0.00198623,0.002617,0.00344789,0.00454237,0.00598407,0.00788315,0.0103847,inf	3.11886,3.11886,12.4413,26.3101,45.0716,66.0862,84.732,95.7986,96.0961,86.8768,73.7573,63.1691,58.8975,62.4311,75.5099,101.862,148.802,230.821,376.573,643.229,1139.71,1968.59,2444.18,2260.68,1992,1785.76,1654.45,1574.03,1574.03,1615.38,1615.38,1615.38
0.000255458	-5999280.22	0,6.42952e-07,1.48988e-06,2.60549e-06,4.07504e-06,6.01079e-06,8.56065e-06,1.19195e-05,1.63438e-05,2.21719e-05,2.98488e-05,3.99612e-05,5.32818e-05,7.08284e-05,9.39416e-05,0.000124387,0.000164492,0.00021732,0.000286907,0.000378571,0.000499315,0.000658365,0.000867874,0.00114385,0.00150738,0.00198623,0.002617,0.00344789,0.00454237,0.00598407,0.00788315,0.0103847,inf	1.09652,1.09652,6.44409,19.7653,44.1611,77.8784,111.752,131.584,127.532,103.147,73.1587,50.2155,37.5327,33.34,36.662,49.4535,78.2093,138.186,262.376,519.725,1050.68,2092.64,2876.46,2713.94,2378.99,2104.55,1937.11,1857.74,1857.74,2114.62,2114.62,2114.62
0.00026652	-5996571.37	0,6.42952e-07,1.48988e-06,2.60549e-06,4.07504e-06,6.01079e-06,8.56065e-06,1.19195e-05,1.63438e-05,2.21719e-05,2.98488e-05,3.99612e-05,5.32818e-05,7.08284e-05,9.39416e-05,0.000124387,0.000164492,0.00021732,0.000286907,0.000378571,0.000499315,0.000658365,0.000867874,0.00114385,0.00150738,0.00198623,0.002617,0.00344789,0.00454237,0.00598407,0.00788315,0.0103847,inf	1.09651,1.09651,3.25535,14.6618,43.2607,93.2943,153.072,192.935,187.01,141.199,87.9062,50.7851,31.4863,23.5647,22.8945,29.3375,47.6274,91.7822,195.897,435.99,972.343,2142.06,3194.61,3083.02,2718.2,2402.73,2226.01,2191.61,2191.61,3252.85,3252.85,3252.85
0.00027643	-5995146.06	0,6.42952e-07,1.48988e-06,2.60549e-06,4.07504e-06,6.01079e-06,8.56065e-06,1.19195e-05,1.63438e-05,2.21719e-05,2.98488e-05,3.99612e-05,5.32818e-05,7.08284e-05,9.39416e-05,0.000124387,0.000164492,0.00021732,0.000286907,0.000378571,0.000499315,0.000658365,0.000867874,0.00114385,0.00150738,0.00198623,0.002617,0.00344789,0.00454237,0.00598407,0.00788315,0.0103847,inf	1.09651,1.09651,1.38724,9.13899,35.9688,96.0108,183.129,252.607,252.228,184.84,106.056,54.4812,29.5216,19.3238,16.7779,20.1014,32.4734,66.0955,154.292,376.994,908.115,2156.5,3435.75,3385.36,3015.72,2684.19,2528.82,2606.99,2606.99,9663.54,9663.54,9663.54
0.000285089	-5994308.98	0,6.42952e-07,1.48988e-06,2.60549e-06,4.07504e-06,6.01079e-06,8.56065e-06,1.19195e-05,1.63438e-05,2.21719e-05,2.98488e-05,3.99612e-05,5.32818e-05,7.08284e-05,9.39416e-05,0.000124387,0.000164492,0.00021732,0.000286907,0.000378571,0.000499315,0.000658365,0.000867874,0.00114385,0.00150738,0.00198623,0.002617,0.00344789,0.00454237,0.00598407,0.00788315,0.0103847,inf	1.09651,1.09651,1.09658,4.87349,25.7218,85.7176,192.077,294.288,309.047,226.18,124.08,59.1351,29.2202,17.3124,13.6746,15.2852,24.1498,50.7347,126.758,333.939,855.932,2153.56,3623.09,3635.22,3277.78,2952.99,2855.38,3167.94,3167.94,160865,160865,160865
