0.00024857	-6022018.43	0,1.48988e-06,4.07504e-06,8.56065e-06,1.63438e-05,2.98488e-05,5.32818e-05,9.39416e-05,0.000164492,0.000286907,0.000499315,0.000867874,0.00150738,0.002617,0.00454237,0.00788315,inf	50.3257,50.3257,95.9575,127.515,139.652,143.25,169.047,236.724,370.279,651.259,1597.91,1849.98,1522.79,1486.41,1486.41,1486.41
0.000272416	-6003744.25	0,1.48988e-06,4.07504e-06,8.56065e-06,1.63438e-05,2.98488e-05,5.32818e-05,9.39416e-05,0.000164492,0.000286907,0.000499315,0.000867874,0.00150738,0.002617,0.00454237,0.00788315,inf	16.3056,16.3056,56.1923,89.5677,87.7124,63.8383,57.6481,85.4753,179.009,450.241,1686.97,2404.29,1906.52,2025.69,2025.69,2025.69
0.000291556	-5998168.42	0,1.48988e-06,4.07504e-06,8.56065e-06,1.63438e-05,2.98488e-05,5.32818e-05,9.39416e-05,0.000164492,0.000286907,0.000499315,0.000867874,0.00150738,0.002617,0.00454237,0.00788315,inf	9.91211,9.91211,62.7102,122.422,109.284,55.4565,33.5165,42.9095,104.978,344.027,1651.39,2789.47,2235.38,3008.1,3008.1,3008.1
0.00030737	-5995769.53	0,1.48988e-06,4.07504e-06,8.56065e-06,1.63438e-05,2.98488e-05,5.32818e-05,9.39416e-05,0.000164492,0.000286907,0.000499315,0.000867874,0.00150738,0.002617,0.00454237,0.00788315,inf	5.88797,5.88797,70.0428,174.803,152.508,59.5337,25.6476,26.9692,70.2305,280.561,1592.39,3065.91,2517.39,6839.45,6839.45,6839.45
0.00030737	-5994508.72	0,1.48988e-06,4.07504e-06,8.56065e-06,1.63438e-05,2.98488e-05,5.32818e-05,9.39416e-05,0.000164492,0.000286907,0.000499315,0.000867874,0.00150738,0.002617,0.00454237,0.00788315,inf	2.94496,2.94496,67.4394,222.49,201.551,66.7169,22.5485,19.7931,52.0232,240.983,1519.61,3240.31,2745.14,136733,136733,136733
