0.000233322	-133148.65	0,3.33886e-05,7.90748e-05,0.000141588,0.000227126,0.000344168,0.000504319,0.000723455,0.0010233,0.00143359,0.00199499,0.00276316,0.00381427,0.00525251,0.00722048,0.00991327,inf	147.621,147.621,197.013,306.276,481.972,773.367,1325.5,1980.51,1770.94,1498.9,1282.68,1144.22,1089.47,1010.07,1010.07,1010.07
0.000249097	-132750.59	0,3.33886e-05,7.90748e-05,0.000141588,0.000227126,0.000344168,0.000504319,0.000723455,0.0010233,0.00143359,0.00199499,0.00276316,0.00381427,0.00525251,0.00722048,0.00991327,inf	70.6583,70.6583,57.0853,118.097,263.274,567.523,1264.8,2649.48,2338.7,1809.34,1359.93,1113.01,1045.35,930.125,930.125,930.125
0.000264946	-132614.17	0,3.33886e-05,7.90748e-05,0.000141588,0.000227126,0.000344168,0.000504319,0.000723455,0.0010233,0.00143359,0.00199499,0.00276316,0.00381427,0.00525251,0.00722048,0.00991327,inf	66.6806,66.6806,22.9918,54.529,161.322,437.904,1148.52,3132.13,2769.76,2009.98,1355.33,1048.82,991.883,864.914,864.914,864.914
0.000279742	-132555.00	0,3.33886e-05,7.90748e-05,0.000141588,0.000227126,0.000344168,0.000504319,0.000723455,0.0010233,0.00143359,0.00199499,0.00276316,0.00381427,0.00525251,0.00722048,0.00991327,inf	73.8556,73.8556,11.5539,28.9344,107.47,352.433,1037.74,3492.29,3084.32,2118.91,1309.78,981.422,941.854,812.873,812.873,812.873
0.000293451	-132525.44	0,3.33886e-05,7.90748e-05,0.000141588,0.000227126,0.000344168,0.000504319,0.000723455,0.0010233,0.00143359,0.00199499,0.00276316,0.00381427,0.00525251,0.00722048,0.00991327,inf	82.7758,82.7758,6.72512,17.0455,76.3231,293.221,943.176,3773.02,3309.71,2164.74,1252.64,923.347,899.973,771.596,771.596,771.596
0.000306229	-132509.15	0,3.33886e-05,7.90748e-05,0.000141588,0.000227126,0.000344168,0.000504319,0.000723455,0.0010233,0.00143359,0.00199499,0.00276316,0.00381427,0.00525251,0.00722048,0.00991327,inf	90.9128,90.9128,4.28389,10.8289,56.9748,250.417,864.099,4000.52,3469.19,2172.51,1198.47,877.411,866.838,738.755,738.755,738.755
0.000318243	-132499.52	0,3.33886e-05,7.90748e-05,0.000141588,0.000227126,0.000344168,0.000504319,0.000723455,0.0010233,0.00143359,0.00199499,0.00276316,0.00381427,0.00525251,0.00722048,0.00991327,inf	97.1186,97.1186,2.87893,7.27296,44.2619,218.362,797.739,4190.84,3580.37,2159.66,1152.46,842.614,841.459,712.423,712.423,712.423
0.000329637	-132493.49	0,3.33886e-05,7.90748e-05,0.000141588,0.000227126,0.000344168,0.000504319,0.000723455,0.0010233,0.00143359,0.00199499,0.00276316,0.00381427,0.00525251,0.00722048,0.00991327,inf	101.266,101.266,2.00384,5.10291,35.531,193.646,741.457,4354.18,3656.08,2136.93,1115.4,816.931,822.453,691.098,691.098,691.098
0.000340563	-132489.56	0,3.33886e-05,7.90748e-05,0.000141588,0.000227126,0.000344168,0.000504319,0.000723455,0.0010233,0.00143359,0.00199499,0.00276316,0.00381427,0.00525251,0.00722048,0.00991327,inf	103.824,103.824,1.43316,3.71466,29.3276,174.162,693.107,4498.48,3705.2,2110.23,1086.27,798.311,808.458,673.615,673.615,673.615
0.000351081	-132486.92	0,3.33886e-05,7.90748e-05,0.000141588,0.000227126,0.000344168,0.000504319,0.000723455,0.0010233,0.00143359,0.00199499,0.00276316,0.00381427,0.00525251,0.00722048,0.00991327,inf	105.212,105.212,1.10311,2.78996,24.7771,158.425,651.044,4627.02,3734.68,2082.96,1063.82,785.165,798.423,659.155,659.155,659.155
0.000361268	-132485.08	0,3.33886e-05,7.90748e-05,0.000141588,0.000227126,0.000344168,0.000504319,0.000723455,0.0010233,0.00143359,0.00199499,0.00276316,0.00381427,0.00525251,0.00722048,0.00991327,inf	105.831,105.831,1.10311,2.15379,21.3561,145.487,614.054,4743.09,3749.36,2056.71,1046.71,776.172,791.46,647.075,647.075,647.075
0.000371187	-132483.78	0,3.33886e-05,7.90748e-05,0.000141588,0.000227126,0.000344168,0.000504319,0.000723455,0.0010233,0.00143359,0.00199499,0.00276316,0.00381427,0.00525251,0.00722048,0.00991327,inf	105.858,105.858,1.10311,1.70334,18.729,134.682,581.201,4849.07,3752.8,2032.18,1033.79,770.331,786.861,636.89,636.89,636.89
0.00038089	-132482.84	0,3.33886e-05,7.90748e-05,0.000141588,0.000227126,0.000344168,0.000504319,0.000723455,0.0010233,0.00143359,0.00199499,0.00276316,0.00381427,0.00525251,0.00722048,0.00991327,inf	105.595,105.595,1.10311,1.37683,16.6761,125.534,551.767,4946.76,3747.64,2009.56,1024.15,766.877,784.085,628.221,628.221,628.221
0.00039042	-132482.14	0,3.33886e-05,7.90748e-05,0.000141588,0.000227126,0.000344168,0.000504319,0.000723455,0.0010233,0.00143359,0.00199499,0.00276316,0.00381427,0.00525251,0.00722048,0.00991327,inf	105.173,105.173,1.10311,1.13502,15.0474,117.694,525.192,5037.5,3735.87,1988.83,1017.06,765.239,782.712,620.775,620.775,620.775
0.000399811	-132481.62	0,3.33886e-05,7.90748e-05,0.000141588,0.000227126,0.000344168,0.000504319,0.000723455,0.0010233,0.00143359,0.00199499,0.00276316,0.00381427,0.00525251,0.00722048,0.00991327,inf	104.66,104.66,1.10311,1.10311,13.7392,110.905,501.039,5122.33,3718.99,1969.84,1011.96,764.984,782.417,614.326,614.326,614.326
0.000409095	-132481.23	0,3.33886e-05,7.90748e-05,0.000141588,0.000227126,0.000344168,0.000504319,0.000723455,0.0010233,0.00143359,0.00199499,0.00276316,0.00381427,0.00525251,0.00722048,0.00991327,inf	104.048,104.048,1.10311,1.10311,12.6758,104.964,478.945,5202.1,3698.15,1952.43,1008.42,765.785,782.949,608.698,608.698,608.698
0.000418298	-132480.93	0,3.33886e-05,7.90748e-05,0.000141588,0.000227126,0.000344168,0.000504319,0.000723455,0.0010233,0.00143359,0.00199499,0.00276316,0.00381427,0.00525251,0.00722048,0.00991327,inf	103.395,103.395,1.10311,1.10311,11.8036,99.7199,458.625,5277.48,3674.26,1936.4,1006.11,767.396,784.117,603.743,603.743,603.743
0.000427441	-132480.70	0,3.33886e-05,7.90748e-05,0.000141588,0.000227126,0.000344168,0.000504319,0.000723455,0.0010233,0.00143359,0.00199499,0.00276316,0.00381427,0.00525251,0.00722048,0.00991327,inf	102.732,102.732,1.10311,1.10311,11.0831,95.0535,439.849,5349,3648,1921.58,1004.76,769.628,785.769,599.349,599.349,599.349
0.000436543	-132480.53	0,3.33886e-05,7.90748e-05,0.000141588,0.000227126,0.000344168,0.000504319,0.000723455,0.0010233,0.00143359,0.00199499,0.00276316,0.00381427,0.00525251,0.00722048,0.00991327,inf	102.072,102.072,1.10311,1.10311,10.4846,90.871,422.425,5417.12,3619.94,1907.8,1004.18,772.337,787.791,595.417,595.417,595.417
0.000445619	-132480.39	0,3.33886e-05,7.90748e-05,0.000141588,0.000227126,0.000344168,0.000504319,0.000723455,0.0010233,0.00143359,0.00199499,0.00276316,0.00381427,0.00525251,0.00722048,0.00991327,inf	101.424,101.424,1.10311,1.10311,9.98529,87.0972,406.197,5482.2,3590.48,1894.91,1004.21,775.411,790.093,591.873,591.873,591.873
