LogLikelihood = -41327.249876414920436

y0 0.87144997010374214419
y0_prime 0
y1 0.85495272291963797517
y1_prime 0
y2 1.0712981639055894068
y2_prime 0
y3 2.0867903255689013164
y3_prime 0
rho 0.00089472792069782201927
rho.alpha 0.62347312176386537885
r_ii 0.99971518335325781912
theta 0.00048539300463376107301
