0.000654336	-300851.79	0,4.1807e-05,9.07107e-05,0.000147916,0.000214832,0.000293106,0.000384668,0.000491772,0.000617058,0.00076361,0.00093504,0.00113557,0.00137014,0.00164453,0.00196549,0.00234094,0.00278012,0.00329386,0.0038948,0.00459774,0.00542002,0.00638187,0.007507,0.00882312,0.0103627,0.0121635,0.0142701,0.0167342,0.0196167,0.0229884,0.0269325,0.0315461,inf	611.719,611.719,416.38,373.863,360.671,358.798,356.848,350.916,349.122,355.105,366.142,378.667,390.716,402.022,412.996,422.191,428.028,429.998,427.952,422.737,416.528,411.533,408.995,408.777,411.681,421.088,437.606,460.959,460.959,487.794,487.794,487.794
0.00069136	-300801.52	0,4.1807e-05,9.07107e-05,0.000147916,0.000214832,0.000293106,0.000384668,0.000491772,0.000617058,0.00076361,0.00093504,0.00113557,0.00137014,0.00164453,0.00196549,0.00234094,0.00278012,0.00329386,0.0038948,0.00459774,0.00542002,0.00638187,0.007507,0.00882312,0.0103627,0.0121635,0.0142701,0.0167342,0.0196167,0.0229884,0.0269325,0.0315461,inf	748.039,748.039,415.077,361.634,347.63,348.091,344.487,331.483,325.584,333.144,349.091,367.34,384.752,401.302,418.166,433.004,442.821,446.245,442.506,432.952,421.657,412.752,408.487,408.595,414.697,433.608,467.645,518.86,518.86,585.208,585.208,585.208
0.0007258	-300769.41	0,4.1807e-05,9.07107e-05,0.000147916,0.000214832,0.000293106,0.000384668,0.000491772,0.000617058,0.00076361,0.00093504,0.00113557,0.00137014,0.00164453,0.00196549,0.00234094,0.00278012,0.00329386,0.0038948,0.00459774,0.00542002,0.00638187,0.007507,0.00882312,0.0103627,0.0121635,0.0142701,0.0167342,0.0196167,0.0229884,0.0269325,0.0315461,inf	818.565,818.565,403.216,353.352,343.72,348.756,344.023,323.935,313.659,321.552,340.245,361.58,381.581,400.705,421.034,439.672,452.448,457.068,451.958,438.785,423.309,411.322,405.897,406.679,416.108,444.426,496.744,580.845,580.845,708.616,708.616,708.616
0.000757763	-300745.29	0,4.1807e-05,9.07107e-05,0.000147916,0.000214832,0.000293106,0.000384668,0.000491772,0.000617058,0.00076361,0.00093504,0.00113557,0.00137014,0.00164453,0.00196549,0.00234094,0.00278012,0.00329386,0.0038948,0.00459774,0.00542002,0.00638187,0.007507,0.00882312,0.0103627,0.0121635,0.0142701,0.0167342,0.0196167,0.0229884,0.0269325,0.0315461,inf	850.216,850.216,386.918,346.238,342.874,353.561,348.066,321.158,306.769,314.662,335.18,358.353,379.558,399.872,422.319,443.647,458.718,464.342,458.091,441.846,422.875,408.409,402.2,403.848,416.616,454.135,525.395,648.376,648.376,880.115,880.115,880.115
0.000787517	-300725.89	0,4.1807e-05,9.07107e-05,0.000147916,0.000214832,0.000293106,0.000384668,0.000491772,0.000617058,0.00076361,0.00093504,0.00113557,0.00137014,0.00164453,0.00196549,0.00234094,0.00278012,0.00329386,0.0038948,0.00459774,0.00542002,0.00638187,0.007507,0.00882312,0.0103627,0.0121635,0.0142701,0.0167342,0.0196167,0.0229884,0.0269325,0.0315461,inf	862.706,862.706,369.737,339.739,343.021,359.816,353.794,320.428,302.351,310.233,332.153,356.511,378.164,398.89,422.649,445.954,462.859,469.336,462.101,443.196,421.247,404.738,397.988,400.598,416.647,463.119,553.971,723.375,723.375,1162.18,1162.18,1162.18
0.000815312	-300709.75	0,4.1807e-05,9.07107e-05,0.000147916,0.000214832,0.000293106,0.000384668,0.000491772,0.000617058,0.00076361,0.00093504,0.00113557,0.00137014,0.00164453,0.00196549,0.00234094,0.00278012,0.00329386,0.0038948,0.00459774,0.00542002,0.00638187,0.007507,0.00882312,0.0103627,0.0121635,0.0142701,0.0167342,0.0196167,0.0229884,0.0269325,0.0315461,inf	866.565,866.565,353.226,333.711,343.36,366.38,359.982,320.554,299.248,307.221,330.345,355.524,377.185,397.867,422.434,447.24,465.651,472.861,464.757,443.508,418.974,400.739,393.605,397.213,416.447,471.622,582.768,808.522,808.522,1858.54,1858.54,1858.54
0.000841359	-300696.09	0,4.1807e-05,9.07107e-05,0.000147916,0.000214832,0.000293106,0.000384668,0.000491772,0.000617058,0.00076361,0.00093504,0.00113557,0.00137014,0.00164453,0.00196549,0.00234094,0.00278012,0.00329386,0.0038948,0.00459774,0.00542002,0.00638187,0.007507,0.00882312,0.0103627,0.0121635,0.0142701,0.0167342,0.0196167,0.0229884,0.0269325,0.0315461,inf	866.794,866.794,337.954,328.109,343.586,372.766,366.081,320.984,296.886,305.087,329.319,355.1,376.507,396.868,421.918,447.898,467.578,475.429,466.542,443.197,416.384,396.66,389.243,393.848,416.157,479.799,612.026,907.804,907.804,7160.66,7160.66,7160.66
0.000841359	-300684.37	0,4.1807e-05,9.07107e-05,0.000147916,0.000214832,0.000293106,0.000384668,0.000491772,0.000617058,0.00076361,0.00093504,0.00113557,0.00137014,0.00164453,0.00196549,0.00234094,0.00278012,0.00329386,0.0038948,0.00459774,0.00542002,0.00638187,0.007507,0.00882312,0.0103627,0.0121635,0.0142701,0.0167342,0.0196167,0.0229884,0.0269325,0.0315461,inf	856.794,856.794,320.903,319.774,340.239,375.019,368.154,318.333,292.163,300.683,325.772,351.842,372.758,392.624,417.926,444.867,465.75,474.448,465.222,440.389,411.885,391.097,383.621,389.318,414.672,486.562,640.744,1026.76,1026.76,83510.3,83510.3,83510.3
0.000841359	-300685.00	0,4.1807e-05,9.07107e-05,0.000147916,0.000214832,0.000293106,0.000384668,0.000491772,0.000617058,0.00076361,0.00093504,0.00113557,0.00137014,0.00164453,0.00196549,0.00234094,0.00278012,0.00329386,0.0038948,0.00459774,0.00542002,0.00638187,0.007507,0.00882312,0.0103627,0.0121635,0.0142701,0.0167342,0.0196167,0.0229884,0.0269325,0.0315461,inf	858.943,858.943,309.076,314.966,339.566,379.848,372.721,317.891,289.556,298.431,324.433,350.784,371.118,390.35,415.751,443.485,465.429,474.82,465.14,438.716,408.436,386.441,378.765,385.435,413.593,493.733,646.102,1026.76,1026.76,83510.3,83510.3,83510.3
0.000841359	-300685.42	0,4.1807e-05,9.07107e-05,0.000147916,0.000214832,0.000293106,0.000384668,0.000491772,0.000617058,0.00076361,0.00093504,0.00113557,0.00137014,0.00164453,0.00196549,0.00234094,0.00278012,0.00329386,0.0038948,0.00459774,0.00542002,0.00638187,0.007507,0.00882312,0.0103627,0.0121635,0.0142701,0.0167342,0.0196167,0.0229884,0.0269325,0.0315461,inf	862.426,862.426,299.026,311.012,339.06,384.805,376.692,317.866,287.542,296.903,323.917,350.601,370.352,388.918,414.369,442.842,465.803,475.872,465.232,437.675,405.603,382.437,374.542,382.078,412.902,501.349,648.254,1026.76,1026.76,83510.3,83510.3,83510.3
0.000841359	-300685.71	0,4.1807e-05,9.07107e-05,0.000147916,0.000214832,0.000293106,0.000384668,0.000491772,0.000617058,0.00076361,0.00093504,0.00113557,0.00137014,0.00164453,0.00196549,0.00234094,0.00278012,0.00329386,0.0038948,0.00459774,0.00542002,0.00638187,0.007507,0.00882312,0.0103627,0.0121635,0.0142701,0.0167342,0.0196167,0.0229884,0.0269325,0.0315461,inf	870.994,870.994,290.146,307.549,338.491,389.516,379.986,317.866,285.736,295.682,323.773,350.827,369.997,387.883,413.362,442.549,466.52,477.296,465.421,437.129,403.265,378.942,370.801,379.126,412.51,509.34,648.254,1026.76,1026.76,83510.2,83510.2,83510.2
0.000841359	-300685.92	0,4.1807e-05,9.07107e-05,0.000147916,0.000214832,0.000293106,0.000384668,0.000491772,0.000617058,0.00076361,0.00093504,0.00113557,0.00137014,0.00164453,0.00196549,0.00234094,0.00278012,0.00329386,0.0038948,0.00459774,0.00542002,0.00638187,0.007507,0.00882312,0.0103627,0.0121635,0.0142701,0.0167342,0.0196167,0.0229884,0.0269325,0.0315461,inf	871.985,871.985,281.946,304.384,337.797,393.942,383.124,317.828,284.008,294.606,323.814,351.253,369.841,387.036,412.523,442.405,466.587,478.912,465.452,436.864,401.29,375.836,367.437,376.494,412.373,516.146,648.254,1026.76,1026.76,83510.2,83510.2,83510.2
0.000841359	-300686.09	0,4.1807e-05,9.07107e-05,0.000147916,0.000214832,0.000293106,0.000384668,0.000491772,0.000617058,0.00076361,0.00093504,0.00113557,0.00137014,0.00164453,0.00196549,0.00234094,0.00278012,0.00329386,0.0038948,0.00459774,0.00542002,0.00638187,0.007507,0.00882312,0.0103627,0.0121635,0.0142701,0.0167342,0.0196167,0.0229884,0.0269325,0.0315461,inf	876.02,876.02,274.807,301.692,337.069,398.124,385.701,317.705,282.312,293.618,323.968,351.813,369.822,386.324,411.815,442.385,467.593,478.947,465.794,436.864,399.626,373.063,364.395,374.136,412.459,521.936,648.254,1026.76,1026.76,83510.2,83510.2,83510.2
0.000841359	-300686.25	0,4.1807e-05,9.07107e-05,0.000147916,0.000214832,0.000293106,0.000384668,0.000491772,0.000617058,0.00076361,0.00093504,0.00113557,0.00137014,0.00164453,0.00196549,0.00234094,0.00278012,0.00329386,0.0038948,0.00459774,0.00542002,0.00638187,0.007507,0.00882312,0.0103627,0.0121635,0.0142701,0.0167342,0.0196167,0.0229884,0.0269325,0.0315461,inf	877.011,877.011,268.376,299.326,336.285,402.084,387.801,317.494,280.63,292.68,324.193,352.448,369.879,385.689,411.18,442.436,467.636,479.983,465.794,436.864,398.235,370.581,361.634,372.017,412.736,526.934,648.254,1026.76,1026.76,83510.2,83510.2,83510.2
0.000841359	-300686.40	0,4.1807e-05,9.07107e-05,0.000147916,0.000214832,0.000293106,0.000384668,0.000491772,0.000617058,0.00076361,0.00093504,0.00113557,0.00137014,0.00164453,0.00196549,0.00234094,0.00278012,0.00329386,0.0038948,0.00459774,0.00542002,0.00638187,0.007507,0.00882312,0.0103627,0.0121635,0.0142701,0.0167342,0.0196167,0.0229884,0.0269325,0.0315461,inf	877.694,877.694,262.723,297.34,335.507,405.88,389.385,317.232,278.975,291.795,324.48,353.15,370.003,385.123,410.611,442.56,468.632,479.983,465.794,436.864,397.083,368.352,359.118,370.105,413.183,531.239,648.254,1026.76,1026.76,83510.2,83510.2,83510.2
0.000841359	-300686.53	0,4.1807e-05,9.07107e-05,0.000147916,0.000214832,0.000293106,0.000384668,0.000491772,0.000617058,0.00076361,0.00093504,0.00113557,0.00137014,0.00164453,0.00196549,0.00234094,0.00278012,0.00329386,0.0038948,0.00459774,0.00542002,0.00638187,0.007507,0.00882312,0.0103627,0.0121635,0.0142701,0.0167342,0.0196167,0.0229884,0.0269325,0.0315461,inf	879.179,879.179,257.749,295.695,334.751,409.554,390.481,316.937,277.348,290.948,324.804,353.884,370.153,384.585,410.075,442.717,469.503,479.983,465.794,436.864,396.146,366.351,356.82,368.376,413.781,534.923,648.254,1026.76,1026.76,83510.1,83510.1,83510.1
0.000841359	-300686.66	0,4.1807e-05,9.07107e-05,0.000147916,0.000214832,0.000293106,0.000384668,0.000491772,0.000617058,0.00076361,0.00093504,0.00113557,0.00137014,0.00164453,0.00196549,0.00234094,0.00278012,0.00329386,0.0038948,0.00459774,0.00542002,0.00638187,0.007507,0.00882312,0.0103627,0.0121635,0.0142701,0.0167342,0.0196167,0.0229884,0.0269325,0.0315461,inf	883.244,883.244,253.352,294.396,334.11,413.154,391.177,316.641,275.763,290.145,325.148,354.644,370.325,384.069,409.562,442.899,470.264,479.983,465.794,436.864,395.399,364.55,354.713,366.809,414.515,538.061,648.254,1026.76,1026.76,83510.1,83510.1,83510.1
0.000841359	-300686.77	0,4.1807e-05,9.07107e-05,0.000147916,0.000214832,0.000293106,0.000384668,0.000491772,0.000617058,0.00076361,0.00093504,0.00113557,0.00137014,0.00164453,0.00196549,0.00234094,0.00278012,0.00329386,0.0038948,0.00459774,0.00542002,0.00638187,0.007507,0.00882312,0.0103627,0.0121635,0.0142701,0.0167342,0.0196167,0.0229884,0.0269325,0.0315461,inf	886.232,886.232,249.166,293.156,333.333,416.664,391.877,316.351,274.224,289.386,325.523,355.429,370.512,383.569,409.066,443.102,470.924,479.983,465.794,436.864,394.818,362.924,352.773,365.382,415.368,540.72,648.254,1026.76,1026.76,83510.1,83510.1,83510.1
0.000841359	-300686.88	0,4.1807e-05,9.07107e-05,0.000147916,0.000214832,0.000293106,0.000384668,0.000491772,0.000617058,0.00076361,0.00093504,0.00113557,0.00137014,0.00164453,0.00196549,0.00234094,0.00278012,0.00329386,0.0038948,0.00459774,0.00542002,0.00638187,0.007507,0.00882312,0.0103627,0.0121635,0.0142701,0.0167342,0.0196167,0.0229884,0.0269325,0.0315461,inf	887.293,887.293,245.299,292.092,332.549,420.062,391.932,316.045,272.709,288.652,325.931,356.221,370.705,383.077,408.579,443.12,471.803,479.983,465.794,436.864,394.383,361.451,350.98,364.079,416.328,542.957,648.254,1026.76,1026.76,83510.1,83510.1,83510.1
0.000841359	-300686.96	0,4.1807e-05,9.07107e-05,0.000147916,0.000214832,0.000293106,0.000384668,0.000491772,0.000617058,0.00076361,0.00093504,0.00113557,0.00137014,0.00164453,0.00196549,0.00234094,0.00278012,0.00329386,0.0038948,0.00459774,0.00542002,0.00638187,0.007507,0.00882312,0.0103627,0.0121635,0.0142701,0.0167342,0.0196167,0.0229884,0.0269325,0.0315461,inf	890.279,890.279,241.809,291.251,331.817,423.483,391.932,315.79,271.255,287.965,326.364,357.027,370.715,382.589,408.095,443.341,471.807,480.52,465.794,436.864,394.073,360.111,349.315,362.883,417.384,544.826,648.254,1026.76,1026.76,83510,83510,83510
