time_index	left_time_boundary	right_time_boundary	lambda
0	0	1.58495e-06	31378.1
1	1.58495e-06	3.67273e-06	31378.1
2	3.67273e-06	6.42286e-06	11017.2
3	6.42286e-06	1.00455e-05	5646.13
4	1.00455e-05	1.48173e-05	2952.3
5	1.48173e-05	2.1103e-05	1531.33
6	2.1103e-05	2.93829e-05	856.744
7	2.93829e-05	4.02895e-05	490.811
8	4.02895e-05	5.46563e-05	349.91
9	5.46563e-05	7.35809e-05	324.022
10	7.35809e-05	9.85093e-05	350.645
11	9.85093e-05	0.000131346	348.088
12	0.000131346	0.0001746	374.769
13	0.0001746	0.000231577	376.601
14	0.000231577	0.00030663	340.049
15	0.00030663	0.000405493	337.078
16	0.000405493	0.000535719	318.019
17	0.000535719	0.000707261	297.46
18	0.000707261	0.000933223	318.128
19	0.000933223	0.00123087	356.305
20	0.00123087	0.00162295	384.276
21	0.00162295	0.00213941	413.737
22	0.00213941	0.00281972	445.683
23	0.00281972	0.00371586	458.837
24	0.00371586	0.0048963	427.647
25	0.0048963	0.00645123	375.156
26	0.00645123	0.00849945	362.469
27	0.00849945	0.0111975	529.744
28	0.0111975	0.0147514	529.744
29	0.0147514	0.0194329	66272.4
30	0.0194329	0.0255996	66272.4
31	0.0255996	inf	66272.4
