0.000598164	-12367327.55	0,1.58495e-06,3.67273e-06,6.42286e-06,1.00455e-05,1.48173e-05,2.1103e-05,2.93829e-05,4.02895e-05,5.46563e-05,7.35809e-05,9.85093e-05,0.000131346,0.0001746,0.000231577,0.00030663,0.000405493,0.000535719,0.000707261,0.000933223,0.00123087,0.00162295,0.00213941,0.00281972,0.00371586,0.0048963,0.00645123,0.00849945,0.0111975,0.0147514,0.0194329,0.0255996,inf	19316.3,19316.3,8297.41,4069.42,2361.29,1425.49,939.179,673.401,519.96,438.243,400.878,381.441,370.691,363.326,355.329,352.29,352.94,356.64,367.394,384.294,403.153,421.935,437.943,446.678,444.921,439.781,440.407,457.382,457.382,508.514,508.514,508.514
0.000636192	-12364690.99	0,1.58495e-06,3.67273e-06,6.42286e-06,1.00455e-05,1.48173e-05,2.1103e-05,2.93829e-05,4.02895e-05,5.46563e-05,7.35809e-05,9.85093e-05,0.000131346,0.0001746,0.000231577,0.00030663,0.000405493,0.000535719,0.000707261,0.000933223,0.00123087,0.00162295,0.00213941,0.00281972,0.00371586,0.0048963,0.00645123,0.00849945,0.0111975,0.0147514,0.0194329,0.0255996,inf	31957.5,31957.5,12382.1,5582.56,2992.51,1665.25,1019.23,683.616,505.555,419.64,385.377,367.51,357.935,349.133,335.621,329.51,327.886,329.974,343.457,366.58,392.187,417.789,440,451.44,445.822,435.43,436.087,468.584,468.584,584.562,584.562,584.562
0.000672447	-12363359.22	0,1.58495e-06,3.67273e-06,6.42286e-06,1.00455e-05,1.48173e-05,2.1103e-05,2.93829e-05,4.02895e-05,5.46563e-05,7.35809e-05,9.85093e-05,0.000131346,0.0001746,0.000231577,0.00030663,0.000405493,0.000535719,0.000707261,0.000933223,0.00123087,0.00162295,0.00213941,0.00281972,0.00371586,0.0048963,0.00645123,0.00849945,0.0111975,0.0147514,0.0194329,0.0255996,inf	33751.3,33751.3,12974,5824.56,3086.75,1682.54,1005.94,658.7,483.391,405.152,379.264,365.933,359.767,350.966,333.067,324.559,320.294,319.76,334.038,360.318,388.968,417.629,442.943,455.338,445.728,430.665,431.209,478.211,478.211,680.646,680.646,680.646
0.000706437	-12362328.24	0,1.58495e-06,3.67273e-06,6.42286e-06,1.00455e-05,1.48173e-05,2.1103e-05,2.93829e-05,4.02895e-05,5.46563e-05,7.35809e-05,9.85093e-05,0.000131346,0.0001746,0.000231577,0.00030663,0.000405493,0.000535719,0.000707261,0.000933223,0.00123087,0.00162295,0.00213941,0.00281972,0.00371586,0.0048963,0.00645123,0.00849945,0.0111975,0.0147514,0.0194329,0.0255996,inf	33370.4,33370.4,12807.5,5791.09,3068.31,1657,977.091,629.939,461.892,392.403,374.946,366.296,364.125,356.07,334.862,324.845,318.22,315.112,329.698,357.942,388.079,418.215,445.348,458.091,444.782,425.64,425.982,486.586,486.586,813.781,813.781,813.781
0.000738218	-12361483.59	0,1.58495e-06,3.67273e-06,6.42286e-06,1.00455e-05,1.48173e-05,2.1103e-05,2.93829e-05,4.02895e-05,5.46563e-05,7.35809e-05,9.85093e-05,0.000131346,0.0001746,0.000231577,0.00030663,0.000405493,0.000535719,0.000707261,0.000933223,0.00123087,0.00162295,0.00213941,0.00281972,0.00371586,0.0048963,0.00645123,0.00849945,0.0111975,0.0147514,0.0194329,0.0255996,inf	32811.4,32811.4,12515.7,5705.56,3028.03,1624.77,947.187,602.565,442.028,380.534,370.566,366.05,367.898,361.003,337.408,326.669,318.07,312.687,327.504,357.14,387.979,418.797,447.125,459.98,443.319,420.583,420.627,494.02,494.02,1030.85,1030.85,1030.85
0.000767955	-12360782.24	0,1.58495e-06,3.67273e-06,6.42286e-06,1.00455e-05,1.48173e-05,2.1103e-05,2.93829e-05,4.02895e-05,5.46563e-05,7.35809e-05,9.85093e-05,0.000131346,0.0001746,0.000231577,0.00030663,0.000405493,0.000535719,0.000707261,0.000933223,0.00123087,0.00162295,0.00213941,0.00281972,0.00371586,0.0048963,0.00645123,0.00849945,0.0111975,0.0147514,0.0194329,0.0255996,inf	32350.4,32350.4,12213.8,5614.12,2986.19,1594.26,919.864,578.035,424.33,369.743,366.143,365.001,370.612,365.03,339.748,328.878,318.636,311.295,326.379,357.083,388.174,419.238,448.421,461.296,441.598,415.644,415.284,500.749,500.749,1546.23,1546.23,1546.23
0.000795825	-12360196.10	0,1.58495e-06,3.67273e-06,6.42286e-06,1.00455e-05,1.48173e-05,2.1103e-05,2.93829e-05,4.02895e-05,5.46563e-05,7.35809e-05,9.85093e-05,0.000131346,0.0001746,0.000231577,0.00030663,0.000405493,0.000535719,0.000707261,0.000933223,0.00123087,0.00162295,0.00213941,0.00281972,0.00371586,0.0048963,0.00645123,0.00849945,0.0111975,0.0147514,0.0194329,0.0255996,inf	31986.2,31986.2,11920.8,5526.7,2947.6,1567.6,895.966,556.624,408.965,360.271,361.989,363.448,372.438,368.165,341.693,331.108,319.468,310.446,325.856,357.422,388.485,419.537,449.383,462.247,439.781,410.895,410.011,506.946,506.946,4952.62,4952.62,4952.62
0.000795825	-12359705.41	0,1.58495e-06,3.67273e-06,6.42286e-06,1.00455e-05,1.48173e-05,2.1103e-05,2.93829e-05,4.02895e-05,5.46563e-05,7.35809e-05,9.85093e-05,0.000131346,0.0001746,0.000231577,0.00030663,0.000405493,0.000535719,0.000707261,0.000933223,0.00123087,0.00162295,0.00213941,0.00281972,0.00371586,0.0048963,0.00645123,0.00849945,0.0111975,0.0147514,0.0194329,0.0255996,inf	31377.4,31377.4,11522.2,5390.36,2883.76,1529.38,866.7,532.842,391.927,348.695,354.766,358.071,369.895,366.844,339.828,329.919,317.218,306.899,322.554,354.512,385.112,415.832,446.155,459.264,434.991,404.049,402.927,510.819,510.819,66270.3,66270.3,66270.3
0.000795825	-12359730.41	0,1.58495e-06,3.67273e-06,6.42286e-06,1.00455e-05,1.48173e-05,2.1103e-05,2.93829e-05,4.02895e-05,5.46563e-05,7.35809e-05,9.85093e-05,0.000131346,0.0001746,0.000231577,0.00030663,0.000405493,0.000535719,0.000707261,0.000933223,0.00123087,0.00162295,0.00213941,0.00281972,0.00371586,0.0048963,0.00645123,0.00849945,0.0111975,0.0147514,0.0194329,0.0255996,inf	31377.5,31377.5,11436,5400.37,2897.46,1531.33,859.152,521.499,382.884,342.88,352.102,356.28,370.309,368.053,340.167,330.895,317.117,305.455,321.4,353.83,383.984,414.345,445.098,458.265,431.818,398.57,396.97,515.341,515.341,66270.3,66270.3,66270.3
0.000795825	-12359750.35	0,1.58495e-06,3.67273e-06,6.42286e-06,1.00455e-05,1.48173e-05,2.1103e-05,2.93829e-05,4.02895e-05,5.46563e-05,7.35809e-05,9.85093e-05,0.000131346,0.0001746,0.000231577,0.00030663,0.000405493,0.000535719,0.000707261,0.000933223,0.00123087,0.00162295,0.00213941,0.00281972,0.00371586,0.0048963,0.00645123,0.00849945,0.0111975,0.0147514,0.0194329,0.0255996,inf	31377.6,31377.6,11378.9,5426.92,2910.22,1531.33,856.744,513.591,376.224,338.717,350.513,355.119,370.968,369.419,340.67,332.154,317.434,304.537,320.868,353.866,383.654,413.744,445.009,458.334,429.809,394.153,391.859,518.59,518.59,66270.3,66270.3,66270.3
0.000795825	-12359765.47	0,1.58495e-06,3.67273e-06,6.42286e-06,1.00455e-05,1.48173e-05,2.1103e-05,2.93829e-05,4.02895e-05,5.46563e-05,7.35809e-05,9.85093e-05,0.000131346,0.0001746,0.000231577,0.00030663,0.000405493,0.000535719,0.000707261,0.000933223,0.00123087,0.00162295,0.00213941,0.00281972,0.00371586,0.0048963,0.00645123,0.00849945,0.0111975,0.0147514,0.0194329,0.0255996,inf	31377.6,31377.6,11330.3,5459.28,2913.68,1531.33,856.744,507.683,370.971,335.484,349.5,354.072,371.529,370.542,340.96,333.299,317.722,303.708,320.479,353.878,383.571,413.455,445.009,458.789,428.555,390.488,387.372,521.209,521.209,66270.3,66270.3,66270.3
0.000795825	-12359777.83	0,1.58495e-06,3.67273e-06,6.42286e-06,1.00455e-05,1.48173e-05,2.1103e-05,2.93829e-05,4.02895e-05,5.46563e-05,7.35809e-05,9.85093e-05,0.000131346,0.0001746,0.000231577,0.00030663,0.000405493,0.000535719,0.000707261,0.000933223,0.00123087,0.00162295,0.00213941,0.00281972,0.00371586,0.0048963,0.00645123,0.00849945,0.0111975,0.0147514,0.0194329,0.0255996,inf	31377.8,31377.8,11286.6,5492.43,2913.68,1531.33,856.744,503.212,366.744,332.938,348.878,353.154,372.004,371.485,340.96,334.343,317.745,302.927,320.16,354.208,383.613,413.342,445.263,458.789,427.863,387.402,383.427,521.209,521.209,66271.6,66271.6,66271.6
0.000795825	-12359787.53	0,1.58495e-06,3.67273e-06,6.42286e-06,1.00455e-05,1.48173e-05,2.1103e-05,2.93829e-05,4.02895e-05,5.46563e-05,7.35809e-05,9.85093e-05,0.000131346,0.0001746,0.000231577,0.00030663,0.000405493,0.000535719,0.000707261,0.000933223,0.00123087,0.00162295,0.00213941,0.00281972,0.00371586,0.0048963,0.00645123,0.00849945,0.0111975,0.0147514,0.0194329,0.0255996,inf	31377.8,31377.8,11247,5522.54,2913.68,1531.33,856.744,499.865,363.323,330.935,348.578,352.349,372.437,372.312,340.969,335.262,317.745,302.156,319.852,354.553,383.688,413.315,445.386,458.789,427.647,384.831,379.893,523.046,523.046,66271.6,66271.6,66271.6
0.000795825	-12359796.73	0,1.58495e-06,3.67273e-06,6.42286e-06,1.00455e-05,1.48173e-05,2.1103e-05,2.93829e-05,4.02895e-05,5.46563e-05,7.35809e-05,9.85093e-05,0.000131346,0.0001746,0.000231577,0.00030663,0.000405493,0.000535719,0.000707261,0.000933223,0.00123087,0.00162295,0.00213941,0.00281972,0.00371586,0.0048963,0.00645123,0.00849945,0.0111975,0.0147514,0.0194329,0.0255996,inf	31377.8,31377.8,11210.3,5550.39,2913.68,1531.33,856.744,497.361,360.5,329.322,348.513,351.624,372.82,373.036,340.888,335.992,317.745,301.396,319.554,354.902,383.777,413.34,445.454,458.789,427.647,382.642,376.69,524.64,524.64,66271.6,66271.6,66271.6
0.000795825	-12359804.75	0,1.58495e-06,3.67273e-06,6.42286e-06,1.00455e-05,1.48173e-05,2.1103e-05,2.93829e-05,4.02895e-05,5.46563e-05,7.35809e-05,9.85093e-05,0.000131346,0.0001746,0.000231577,0.00030663,0.000405493,0.000535719,0.000707261,0.000933223,0.00123087,0.00162295,0.00213941,0.00281972,0.00371586,0.0048963,0.00645123,0.00849945,0.0111975,0.0147514,0.0194329,0.0255996,inf	31377.8,31377.8,11175.5,5550.39,2933.74,1531.33,856.744,495.485,358.12,328.021,348.624,350.956,373.171,373.677,340.741,336.02,318.019,300.657,319.282,355.25,383.868,413.399,445.509,458.789,427.647,380.776,373.801,524.64,524.64,66272.4,66272.4,66272.4
0.000795825	-12359811.50	0,1.58495e-06,3.67273e-06,6.42286e-06,1.00455e-05,1.48173e-05,2.1103e-05,2.93829e-05,4.02895e-05,5.46563e-05,7.35809e-05,9.85093e-05,0.000131346,0.0001746,0.000231577,0.00030663,0.000405493,0.000535719,0.000707261,0.000933223,0.00123087,0.00162295,0.00213941,0.00281972,0.00371586,0.0048963,0.00645123,0.00849945,0.0111975,0.0147514,0.0194329,0.0255996,inf	31377.9,31377.9,11142.3,5575.62,2933.74,1531.33,856.744,494.006,356.075,326.951,348.883,350.359,373.533,374.318,340.602,336.396,318.019,299.942,319.004,355.591,383.954,413.48,445.522,458.789,427.647,379.22,371.159,525.893,525.893,66272.4,66272.4,66272.4
0.000795825	-12359818.20	0,1.58495e-06,3.67273e-06,6.42286e-06,1.00455e-05,1.48173e-05,2.1103e-05,2.93829e-05,4.02895e-05,5.46563e-05,7.35809e-05,9.85093e-05,0.000131346,0.0001746,0.000231577,0.00030663,0.000405493,0.000535719,0.000707261,0.000933223,0.00123087,0.00162295,0.00213941,0.00281972,0.00371586,0.0048963,0.00645123,0.00849945,0.0111975,0.0147514,0.0194329,0.0255996,inf	31377.9,31377.9,11110.1,5575.62,2952.29,1531.33,856.744,492.91,354.295,326.061,349.243,349.777,373.877,374.927,340.452,336.66,318.019,299.26,318.742,355.932,384.037,413.48,445.522,458.837,427.647,377.909,368.729,527.015,527.015,66272.4,66272.4,66272.4
0.000795825	-12359824.26	0,1.58495e-06,3.67273e-06,6.42286e-06,1.00455e-05,1.48173e-05,2.1103e-05,2.93829e-05,4.02895e-05,5.46563e-05,7.35809e-05,9.85093e-05,0.000131346,0.0001746,0.000231577,0.00030663,0.000405493,0.000535719,0.000707261,0.000933223,0.00123087,0.00162295,0.00213941,0.00281972,0.00371586,0.0048963,0.00645123,0.00849945,0.0111975,0.0147514,0.0194329,0.0255996,inf	31377.9,31377.9,11079,5599.21,2952.29,1531.33,856.744,491.975,352.664,325.275,349.649,349.202,374.184,375.507,340.298,336.888,318.019,298.608,318.505,355.932,384.113,413.597,445.632,458.837,427.647,376.811,366.485,528.023,528.023,66272.4,66272.4,66272.4
0.000795825	-12359829.72	0,1.58495e-06,3.67273e-06,6.42286e-06,1.00455e-05,1.48173e-05,2.1103e-05,2.93829e-05,4.02895e-05,5.46563e-05,7.35809e-05,9.85093e-05,0.000131346,0.0001746,0.000231577,0.00030663,0.000405493,0.000535719,0.000707261,0.000933223,0.00123087,0.00162295,0.00213941,0.00281972,0.00371586,0.0048963,0.00645123,0.00849945,0.0111975,0.0147514,0.0194329,0.0255996,inf	31378,31378,11048.1,5622.71,2952.29,1531.33,856.744,491.308,351.227,324.609,350.134,348.648,374.493,376.09,340.174,336.983,318.019,298.023,318.312,356.305,384.198,413.597,445.632,458.837,427.647,375.9,364.404,528.925,528.925,66272.4,66272.4,66272.4
0.000795825	-12359834.71	0,1.58495e-06,3.67273e-06,6.42286e-06,1.00455e-05,1.48173e-05,2.1103e-05,2.93829e-05,4.02895e-05,5.46563e-05,7.35809e-05,9.85093e-05,0.000131346,0.0001746,0.000231577,0.00030663,0.000405493,0.000535719,0.000707261,0.000933223,0.00123087,0.00162295,0.00213941,0.00281972,0.00371586,0.0048963,0.00645123,0.00849945,0.0111975,0.0147514,0.0194329,0.0255996,inf	31378.1,31378.1,11017.2,5646.13,2952.3,1531.33,856.744,490.811,349.91,324.022,350.645,348.088,374.769,376.601,340.049,337.078,318.019,297.46,318.128,356.305,384.276,413.737,445.683,458.837,427.647,375.156,362.469,529.744,529.744,66272.4,66272.4,66272.4
