0.000639091	-13330647.66	0,3.94831e-06,1.07992e-05,2.26865e-05,4.33126e-05,7.9102e-05,0.000141202,0.000248953,0.000435918,0.000760329,0.00132323,0.00229994,0.00399468,0.00693529,0.0120377,0.020891,inf	1385.67,1385.67,224.654,250.541,295.898,282.807,275.941,286.864,309.549,341.991,391.082,445.009,435.747,422.194,422.194,422.194
0.000675271	-13327455.83	0,3.94831e-06,1.07992e-05,2.26865e-05,4.33126e-05,7.9102e-05,0.000141202,0.000248953,0.000435918,0.000760329,0.00132323,0.00229994,0.00399468,0.00693529,0.0120377,0.020891,inf	1668.67,1668.67,150.17,211.275,289.181,263.921,246.13,255.977,282.022,319.732,383.312,464.182,448.095,426.016,426.016,426.016
0.000708931	-13326167.04	0,3.94831e-06,1.07992e-05,2.26865e-05,4.33126e-05,7.9102e-05,0.000141202,0.000248953,0.000435918,0.000760329,0.00132323,0.00229994,0.00399468,0.00693529,0.0120377,0.020891,inf	1707.21,1707.21,113.363,194.061,298.626,264.893,239.171,247.941,274.265,310.858,378.862,475.317,454.136,426.83,426.83,426.83
0.000740244	-13325334.32	0,3.94831e-06,1.07992e-05,2.26865e-05,4.33126e-05,7.9102e-05,0.000141202,0.000248953,0.000435918,0.000760329,0.00132323,0.00229994,0.00399468,0.00693529,0.0120377,0.020891,inf	1683.84,1683.84,92.473,182.825,307.237,268.253,237.839,246.819,273.235,306.953,375.658,481.875,456.539,426.053,426.053,426.053
0.00076966	-13324693.23	0,3.94831e-06,1.07992e-05,2.26865e-05,4.33126e-05,7.9102e-05,0.000141202,0.000248953,0.000435918,0.000760329,0.00132323,0.00229994,0.00399468,0.00693529,0.0120377,0.020891,inf	1647.39,1647.39,80.0444,174.524,312.648,270.415,237.646,247.85,274.731,305.231,373.18,485.889,456.899,424.533,424.533,424.533
0.000797525	-13324161.43	0,3.94831e-06,1.07992e-05,2.26865e-05,4.33126e-05,7.9102e-05,0.000141202,0.000248953,0.000435918,0.000760329,0.00132323,0.00229994,0.00399468,0.00693529,0.0120377,0.020891,inf	1610.22,1610.22,72.6585,168.407,315.663,271.164,237.461,249.445,277.168,304.571,371.223,488.474,456.125,422.737,422.737,422.737
0.000824069	-13323703.88	0,3.94831e-06,1.07992e-05,2.26865e-05,4.33126e-05,7.9102e-05,0.000141202,0.000248953,0.000435918,0.000760329,0.00132323,0.00229994,0.00399468,0.00693529,0.0120377,0.020891,inf	1574.76,1574.76,68.4535,164.034,317.263,270.957,237.099,251.072,279.895,304.456,369.664,490.239,454.728,420.907,420.907,420.907
0.000849449	-13323302.20	0,3.94831e-06,1.07992e-05,2.26865e-05,4.33126e-05,7.9102e-05,0.000141202,0.000248953,0.000435918,0.000760329,0.00132323,0.00229994,0.00399468,0.00693529,0.0120377,0.020891,inf	1541.48,1541.48,66.3612,161.019,318.134,270.231,236.617,252.572,282.633,304.625,368.412,491.514,452.995,419.163,419.163,419.163
0.000873777	-13322945.21	0,3.94831e-06,1.07992e-05,2.26865e-05,4.33126e-05,7.9102e-05,0.000141202,0.000248953,0.000435918,0.000760329,0.00132323,0.00229994,0.00399468,0.00693529,0.0120377,0.020891,inf	1510.18,1510.18,65.7122,159.005,318.668,269.283,236.105,253.917,285.265,304.937,367.399,492.489,451.094,417.56,417.56,417.56
0.000897132	-13322625.31	0,3.94831e-06,1.07992e-05,2.26865e-05,4.33126e-05,7.9102e-05,0.000141202,0.000248953,0.000435918,0.000760329,0.00132323,0.00229994,0.00399468,0.00693529,0.0120377,0.020891,inf	1480.71,1480.71,66.0805,157.678,319.04,268.279,235.63,255.125,287.746,305.315,366.57,493.269,449.12,416.117,416.117,416.117
0.000919581	-13322336.96	0,3.94831e-06,1.07992e-05,2.26865e-05,4.33126e-05,7.9102e-05,0.000141202,0.000248953,0.000435918,0.000760329,0.00132323,0.00229994,0.00399468,0.00693529,0.0120377,0.020891,inf	1453.1,1453.1,67.1738,156.856,319.349,267.309,235.236,256.224,290.065,305.713,365.887,493.918,447.13,414.834,414.834,414.834
0.000941175	-13322075.87	0,3.94831e-06,1.07992e-05,2.26865e-05,4.33126e-05,7.9102e-05,0.000141202,0.000248953,0.000435918,0.000760329,0.00132323,0.00229994,0.00399468,0.00693529,0.0120377,0.020891,inf	1427.21,1427.21,68.7961,156.362,319.6,266.412,234.941,257.236,292.226,306.107,365.318,494.477,445.155,413.702,413.702,413.702
0.00096196	-13321838.61	0,3.94831e-06,1.07992e-05,2.26865e-05,4.33126e-05,7.9102e-05,0.000141202,0.000248953,0.000435918,0.000760329,0.00132323,0.00229994,0.00399468,0.00693529,0.0120377,0.020891,inf	1402.73,1402.73,70.798,156.066,319.828,265.602,234.752,258.186,294.238,306.481,364.842,494.969,443.215,412.708,412.708,412.708
0.000981977	-13321622.35	0,3.94831e-06,1.07992e-05,2.26865e-05,4.33126e-05,7.9102e-05,0.000141202,0.000248953,0.000435918,0.000760329,0.00132323,0.00229994,0.00399468,0.00693529,0.0120377,0.020891,inf	1379.89,1379.89,73.0784,155.907,320.028,264.877,234.668,259.088,296.113,306.828,364.44,495.412,441.321,411.839,411.839,411.839
0.00100126	-13321424.71	0,3.94831e-06,1.07992e-05,2.26865e-05,4.33126e-05,7.9102e-05,0.000141202,0.000248953,0.000435918,0.000760329,0.00132323,0.00229994,0.00399468,0.00693529,0.0120377,0.020891,inf	1358.37,1358.37,75.5664,155.84,320.207,264.229,234.679,259.953,297.863,307.145,364.1,495.816,439.477,411.081,411.081,411.081
0.00101985	-13321243.69	0,3.94831e-06,1.07992e-05,2.26865e-05,4.33126e-05,7.9102e-05,0.000141202,0.000248953,0.000435918,0.000760329,0.00132323,0.00229994,0.00399468,0.00693529,0.0120377,0.020891,inf	1338.23,1338.23,78.1856,155.784,320.363,263.649,234.778,260.791,299.5,307.43,363.812,496.189,437.687,410.42,410.42,410.42
0.00103777	-13321077.53	0,3.94831e-06,1.07992e-05,2.26865e-05,4.33126e-05,7.9102e-05,0.000141202,0.000248953,0.000435918,0.000760329,0.00132323,0.00229994,0.00399468,0.00693529,0.0120377,0.020891,inf	1319.27,1319.27,80.8965,155.765,320.518,263.13,234.952,261.606,301.034,307.684,363.566,496.538,435.952,409.847,409.847,409.847
0.00105505	-13320924.74	0,3.94831e-06,1.07992e-05,2.26865e-05,4.33126e-05,7.9102e-05,0.000141202,0.000248953,0.000435918,0.000760329,0.00132323,0.00229994,0.00399468,0.00693529,0.0120377,0.020891,inf	1301.47,1301.47,83.6365,155.754,320.663,262.659,235.193,262.402,302.474,307.907,363.357,496.866,434.271,409.349,409.349,409.349
0.00107172	-13320783.99	0,3.94831e-06,1.07992e-05,2.26865e-05,4.33126e-05,7.9102e-05,0.000141202,0.000248953,0.000435918,0.000760329,0.00132323,0.00229994,0.00399468,0.00693529,0.0120377,0.020891,inf	1284.79,1284.79,86.3951,155.751,320.807,262.228,235.489,263.182,303.829,308.1,363.179,497.177,432.644,408.919,408.919,408.919
0.00108781	-13320654.13	0,3.94831e-06,1.07992e-05,2.26865e-05,4.33126e-05,7.9102e-05,0.000141202,0.000248953,0.000435918,0.000760329,0.00132323,0.00229994,0.00399468,0.00693529,0.0120377,0.020891,inf	1269.07,1269.07,89.1384,155.735,320.946,261.833,235.832,263.948,305.106,308.266,363.028,497.474,431.068,408.546,408.546,408.546
