LogLikelihood = -7365.6863486914753594

y0 0.036896605617473231253
y0_prime 0
y1 1.0295521033804997391
y1_prime 0
y2 1.4327092612975056429
y2_prime 0
y3 2.0299256314863285411
y3_prime 0
rho 3.303664600509145468e-05
theta 7.0320526561703356307e-05
