time_index	left_time_boundary	right_time_boundary	lambda
0	0	8.92501e-05	454.894
1	8.92501e-05	0.000211372	454.894
2	0.000211372	0.000378474	376.091
3	0.000378474	0.000607122	367.575
4	0.000607122	0.000919984	377.619
5	0.000919984	0.00134808	393.575
6	0.00134808	0.00193384	400.562
7	0.00193384	0.00273536	421.009
8	0.00273536	0.00383208	392.765
9	0.00383208	0.00533274	344.199
10	0.00533274	0.00738612	372.512
11	0.00738612	0.0101958	538.803
12	0.0101958	0.0140403	612.834
13	0.0140403	0.0193008	58039.9
14	0.0193008	0.0264988	58039.9
15	0.0264988	inf	58039.9
