AIC = 2344297.4438613075763

y0 0.99886790528421964819
y0_prime 0
y1 1.0011887525572078506
y1_prime 0
y2 0.89453553874081004338
y2_prime 0
y3 1.803517112799581934
y3_prime 0
rho 0.00028790090182991234747
theta 0.00490284321702681887
