LogLikelihood = -136362.73737285844982

y0 0.09377212710510160476
y0_prime 0
y1 0.43463552449631209784
y1_prime 0
y2 2.0927874340341503512
y2_prime 0
y3 14.264509998956286907
y3_prime 0
rho 0.00054893662005355936366
theta 0.0018826389387536801058
