0.000699556	-1802610.40	0,9.66729e-06,2.16248e-05,3.6415e-05,5.47091e-05,7.7337e-05,0.000105326,0.000139945,0.000182765,0.00023573,0.000301242,0.000382274,0.000482502,0.000606475,0.000759817,0.000949487,0.00118409,0.00147427,0.00183319,0.00227715,0.00282627,0.00350549,0.00434561,0.00538476,0.00667009,0.00825991,0.0102264,0.0126587,0.0156672,0.0193884,0.0239913,0.0296845,inf	378.951,378.951,343.168,318.905,334.262,349.012,356.617,357.109,354.491,353.776,356.103,359.864,364.746,372.154,381.935,393.223,405.634,418.192,428.762,434.421,435.357,434.004,430.4,425.717,421.249,416.513,413.482,419.654,419.654,458.997,458.997,458.997
0.00078219	-1801780.05	0,9.66729e-06,2.16248e-05,3.6415e-05,5.47091e-05,7.7337e-05,0.000105326,0.000139945,0.000182765,0.00023573,0.000301242,0.000382274,0.000482502,0.000606475,0.000759817,0.000949487,0.00118409,0.00147427,0.00183319,0.00227715,0.00282627,0.00350549,0.00434561,0.00538476,0.00667009,0.00825991,0.0102264,0.0126587,0.0156672,0.0193884,0.0239913,0.0296845,inf	399.288,399.288,329.232,287.322,313.819,339.053,351.048,349.391,342.107,338.583,340.31,344.044,349.39,358.843,371.913,387.29,404.748,423.002,438.728,447.209,448.85,447.379,442.231,435.208,428.357,420.649,415.738,428.068,428.068,509.379,509.379,509.379
0.000859858	-1801175.21	0,9.66729e-06,2.16248e-05,3.6415e-05,5.47091e-05,7.7337e-05,0.000105326,0.000139945,0.000182765,0.00023573,0.000301242,0.000382274,0.000482502,0.000606475,0.000759817,0.000949487,0.00118409,0.00147427,0.00183319,0.00227715,0.00282627,0.00350549,0.00434561,0.00538476,0.00667009,0.00825991,0.0102264,0.0126587,0.0156672,0.0193884,0.0239913,0.0296845,inf	420.099,420.099,320.194,267.438,304.561,339.722,355.923,352.073,340.507,334.581,335.571,338.626,343.477,353.494,367.722,384.617,404.25,425.213,443.433,453.15,455.169,453.999,448.311,440.255,432.26,422.722,416.661,434.846,434.846,560.62,560.62,560.62
0.000933032	-1800700.10	0,9.66729e-06,2.16248e-05,3.6415e-05,5.47091e-05,7.7337e-05,0.000105326,0.000139945,0.000182765,0.00023573,0.000301242,0.000382274,0.000482502,0.000606475,0.000759817,0.000949487,0.00118409,0.00147427,0.00183319,0.00227715,0.00282627,0.00350549,0.00434561,0.00538476,0.00667009,0.00825991,0.0102264,0.0126587,0.0156672,0.0193884,0.0239913,0.0296845,inf	435.843,435.843,310.112,251.298,298.204,342.731,363.064,357.274,342.156,334.569,335.151,337.533,341.738,351.832,366.345,383.641,404.117,426.287,445.558,455.586,457.695,456.907,451.155,442.79,434.382,423.746,416.991,440.646,440.646,613.842,613.842,613.842
0.00100216	-1800314.14	0,9.66729e-06,2.16248e-05,3.6415e-05,5.47091e-05,7.7337e-05,0.000105326,0.000139945,0.000182765,0.00023573,0.000301242,0.000382274,0.000482502,0.000606475,0.000759817,0.000949487,0.00118409,0.00147427,0.00183319,0.00227715,0.00282627,0.00350549,0.00434561,0.00538476,0.00667009,0.00825991,0.0102264,0.0126587,0.0156672,0.0193884,0.0239913,0.0296845,inf	447.534,447.534,299.039,237.233,292.725,345.762,369.926,362.393,344.427,335.871,336.415,338.296,341.948,351.98,366.4,383.589,404.257,426.839,446.357,456.164,458.16,457.723,452.136,443.873,435.486,424.228,417.068,445.812,445.812,670.306,670.306,670.306
0.00106761	-1799994.27	0,9.66729e-06,2.16248e-05,3.6415e-05,5.47091e-05,7.7337e-05,0.000105326,0.000139945,0.000182765,0.00023573,0.000301242,0.000382274,0.000482502,0.000606475,0.000759817,0.000949487,0.00118409,0.00147427,0.00183319,0.00227715,0.00282627,0.00350549,0.00434561,0.00538476,0.00667009,0.00825991,0.0102264,0.0126587,0.0156672,0.0193884,0.0239913,0.0296845,inf	457.05,457.05,287.991,225.031,287.896,348.464,375.974,366.768,346.519,337.537,338.334,339.892,343.133,353.073,367.229,384.073,404.6,427.154,446.458,455.741,457.49,457.344,452.029,444.102,435.997,424.429,417.049,450.533,450.533,731.603,731.603,731.603
0.00112972	-1799725.50	0,9.66729e-06,2.16248e-05,3.6415e-05,5.47091e-05,7.7337e-05,0.000105326,0.000139945,0.000182765,0.00023573,0.000301242,0.000382274,0.000482502,0.000606475,0.000759817,0.000949487,0.00118409,0.00147427,0.00183319,0.00227715,0.00282627,0.00350549,0.00434561,0.00538476,0.00667009,0.00825991,0.0102264,0.0126587,0.0156672,0.0193884,0.0239913,0.0296845,inf	465.352,465.352,277.589,214.631,283.811,350.964,381.246,370.34,348.239,339.227,340.477,341.854,344.812,354.664,368.479,384.871,405.084,427.362,446.184,454.776,456.195,456.277,451.282,443.823,436.156,424.486,417.005,454.92,454.92,799.965,799.965,799.965
0.00118876	-1799497.24	0,9.66729e-06,2.16248e-05,3.6415e-05,5.47091e-05,7.7337e-05,0.000105326,0.000139945,0.000182765,0.00023573,0.000301242,0.000382274,0.000482502,0.000606475,0.000759817,0.000949487,0.00118409,0.00147427,0.00183319,0.00227715,0.00282627,0.00350549,0.00434561,0.00538476,0.00667009,0.00825991,0.0102264,0.0126587,0.0156672,0.0193884,0.0239913,0.0296845,inf	472.941,472.941,268.119,205.894,280.545,353.442,385.909,373.221,349.591,340.828,342.657,343.955,346.729,356.506,369.947,385.847,405.66,427.52,445.707,453.52,454.562,454.818,450.16,443.243,436.105,424.468,416.965,459.039,459.039,878.814,878.814,878.814
0.00124497	-1799301.69	0,9.66729e-06,2.16248e-05,3.6415e-05,5.47091e-05,7.7337e-05,0.000105326,0.000139945,0.000182765,0.00023573,0.000301242,0.000382274,0.000482502,0.000606475,0.000759817,0.000949487,0.00118409,0.00147427,0.00183319,0.00227715,0.00282627,0.00350549,0.00434561,0.00538476,0.00667009,0.00825991,0.0102264,0.0126587,0.0156672,0.0193884,0.0239913,0.0296845,inf	479.867,479.867,259.612,198.628,278.103,356.026,390.125,375.544,350.633,342.313,344.791,346.079,348.746,358.455,371.514,386.913,406.288,427.653,445.123,452.118,452.758,453.144,448.825,442.485,435.925,424.413,416.938,462.933,462.933,974.041,974.041,974.041
0.00129854	-1799132.94	0,9.66729e-06,2.16248e-05,3.6415e-05,5.47091e-05,7.7337e-05,0.000105326,0.000139945,0.000182765,0.00023573,0.000301242,0.000382274,0.000482502,0.000606475,0.000759817,0.000949487,0.00118409,0.00147427,0.00183319,0.00227715,0.00282627,0.00350549,0.00434561,0.00538476,0.00667009,0.00825991,0.0102264,0.0126587,0.0156672,0.0193884,0.0239913,0.0296845,inf	486.148,486.148,252.032,192.634,276.44,358.788,394.012,377.437,351.435,343.688,346.848,348.169,350.78,360.426,373.105,388.016,406.943,427.774,444.485,450.653,450.881,451.361,447.376,441.628,435.668,424.339,416.924,466.63,466.63,1097.31,1097.31,1097.31
0.00134967	-1798986.40	0,9.66729e-06,2.16248e-05,3.6415e-05,5.47091e-05,7.7337e-05,0.000105326,0.000139945,0.000182765,0.00023573,0.000301242,0.000382274,0.000482502,0.000606475,0.000759817,0.000949487,0.00118409,0.00147427,0.00183319,0.00227715,0.00282627,0.00350549,0.00434561,0.00538476,0.00667009,0.00825991,0.0102264,0.0126587,0.0156672,0.0193884,0.0239913,0.0296845,inf	491.713,491.713,245.267,187.716,275.478,361.755,397.655,378.992,352.052,344.97,348.815,350.194,352.784,362.368,374.676,389.121,407.605,427.886,443.823,449.174,448.99,449.536,445.874,440.721,435.365,424.256,416.92,470.151,470.151,1277.44,1277.44,1277.44
0.00139852	-1798858.44	0,9.66729e-06,2.16248e-05,3.6415e-05,5.47091e-05,7.7337e-05,0.000105326,0.000139945,0.000182765,0.00023573,0.000301242,0.000382274,0.000482502,0.000606475,0.000759817,0.000949487,0.00118409,0.00147427,0.00183319,0.00227715,0.00282627,0.00350549,0.00434561,0.00538476,0.00667009,0.00825991,0.0102264,0.0126587,0.0156672,0.0193884,0.0239913,0.0296845,inf	496.564,496.564,239.227,183.701,275.143,364.928,401.105,380.282,352.536,346.176,350.693,352.14,354.731,364.252,376.201,390.207,408.261,427.992,443.157,447.709,447.119,447.71,444.36,439.792,435.035,424.167,416.921,473.508,473.508,1622.63,1622.63,1622.63
0.00144522	-1798746.20	0,9.66729e-06,2.16248e-05,3.6415e-05,5.47091e-05,7.7337e-05,0.000105326,0.000139945,0.000182765,0.00023573,0.000301242,0.000382274,0.000482502,0.000606475,0.000759817,0.000949487,0.00118409,0.00147427,0.00183319,0.00227715,0.00282627,0.00350549,0.00434561,0.00538476,0.00667009,0.00825991,0.0102264,0.0126587,0.0156672,0.0193884,0.0239913,0.0296845,inf	500.768,500.768,233.815,180.441,275.352,368.29,404.397,381.359,352.92,347.319,352.487,354.003,356.607,366.059,377.665,391.26,408.903,428.092,442.497,446.275,445.289,445.908,442.857,438.861,434.69,424.07,416.918,476.707,476.707,3118.72,3118.72,3118.72
0.00144522	-1798647.50	0,9.66729e-06,2.16248e-05,3.6415e-05,5.47091e-05,7.7337e-05,0.000105326,0.000139945,0.000182765,0.00023573,0.000301242,0.000382274,0.000482502,0.000606475,0.000759817,0.000949487,0.00118409,0.00147427,0.00183319,0.00227715,0.00282627,0.00350549,0.00434561,0.00538476,0.00667009,0.00825991,0.0102264,0.0126587,0.0156672,0.0193884,0.0239913,0.0296845,inf	499.427,499.427,226.754,176.118,273.365,368.215,403.585,378.551,349.808,345.027,350.744,352.305,354.909,364.207,375.406,388.547,405.723,424.337,438.083,441.391,440.378,441.336,438.904,435.755,432.394,422.286,415.485,478.379,478.379,69866.2,69866.2,69866.2
0.00144522	-1798637.27	0,9.66729e-06,2.16248e-05,3.6415e-05,5.47091e-05,7.7337e-05,0.000105326,0.000139945,0.000182765,0.00023573,0.000301242,0.000382274,0.000482502,0.000606475,0.000759817,0.000949487,0.00118409,0.00147427,0.00183319,0.00227715,0.00282627,0.00350549,0.00434561,0.00538476,0.00667009,0.00825991,0.0102264,0.0126587,0.0156672,0.0193884,0.0239913,0.0296845,inf	499.427,499.427,221.586,173.032,272.965,370.127,404.923,377.785,348.617,344.647,350.963,352.595,355.232,364.436,375.28,388.008,404.747,422.793,435.821,438.504,437.241,438.295,436.215,433.636,430.884,421.107,414.501,480.321,480.321,69867,69867,69867
0.00144522	-1798632.69	0,9.66729e-06,2.16248e-05,3.6415e-05,5.47091e-05,7.7337e-05,0.000105326,0.000139945,0.000182765,0.00023573,0.000301242,0.000382274,0.000482502,0.000606475,0.000759817,0.000949487,0.00118409,0.00147427,0.00183319,0.00227715,0.00282627,0.00350549,0.00434561,0.00538476,0.00667009,0.00825991,0.0102264,0.0126587,0.0156672,0.0193884,0.0239913,0.0296845,inf	499.528,499.528,217.144,170.257,272.718,370.13,406.27,377.058,347.49,344.359,351.347,353.149,355.925,364.507,375.289,388.008,404.663,422.255,434.633,436.689,435.115,436.122,434.293,432.187,429.912,420.345,413.826,482.326,482.326,69867,69867,69867
0.00144522	-1798630.42	0,9.66729e-06,2.16248e-05,3.6415e-05,5.47091e-05,7.7337e-05,0.000105326,0.000139945,0.000182765,0.00023573,0.000301242,0.000382274,0.000482502,0.000606475,0.000759817,0.000949487,0.00118409,0.00147427,0.00183319,0.00227715,0.00282627,0.00350549,0.00434561,0.00538476,0.00667009,0.00825991,0.0102264,0.0126587,0.0156672,0.0193884,0.0239913,0.0296845,inf	500.415,500.415,213.476,167.866,272.755,372.266,406.28,376.319,346.318,344.028,351.699,353.708,356.473,364.507,375.289,388.008,404.663,422.243,434.05,435.507,433.606,434.548,432.891,431.179,429.295,419.858,413.358,483.67,483.67,69867,69867,69867
0.00144522	-1798629.12	0,9.66729e-06,2.16248e-05,3.6415e-05,5.47091e-05,7.7337e-05,0.000105326,0.000139945,0.000182765,0.00023573,0.000301242,0.000382274,0.000482502,0.000606475,0.000759817,0.000949487,0.00118409,0.00147427,0.00183319,0.00227715,0.00282627,0.00350549,0.00434561,0.00538476,0.00667009,0.00825991,0.0102264,0.0126587,0.0156672,0.0193884,0.0239913,0.0296845,inf	500.703,500.703,210.282,165.699,272.942,372.266,407.713,375.586,345.138,343.676,352.018,354.246,357.039,364.507,375.289,388.008,404.663,422.243,433.837,434.731,432.5,433.379,431.848,430.473,428.921,419.559,413.032,484.595,484.595,69867,69867,69867
0.00144522	-1798628.35	0,9.66729e-06,2.16248e-05,3.6415e-05,5.47091e-05,7.7337e-05,0.000105326,0.000139945,0.000182765,0.00023573,0.000301242,0.000382274,0.000482502,0.000606475,0.000759817,0.000949487,0.00118409,0.00147427,0.00183319,0.00227715,0.00282627,0.00350549,0.00434561,0.00538476,0.00667009,0.00825991,0.0102264,0.0126587,0.0156672,0.0193884,0.0239913,0.0296845,inf	500.907,500.907,207.609,163.799,273.336,374.602,407.713,374.85,343.956,343.285,352.018,354.74,357.039,364.507,375.66,388.008,404.663,422.243,433.837,434.232,431.682,432.486,431.055,429.978,428.716,419.389,412.805,485.224,485.224,69867,69867,69867
0.00144522	-1798627.85	0,9.66729e-06,2.16248e-05,3.6415e-05,5.47091e-05,7.7337e-05,0.000105326,0.000139945,0.000182765,0.00023573,0.000301242,0.000382274,0.000482502,0.000606475,0.000759817,0.000949487,0.00118409,0.00147427,0.00183319,0.00227715,0.00282627,0.00350549,0.00434561,0.00538476,0.00667009,0.00825991,0.0102264,0.0126587,0.0156672,0.0193884,0.0239913,0.0296845,inf	501.317,501.317,205.267,162.048,273.822,376.591,407.713,374.191,342.814,342.918,352.301,355.236,357.363,364.507,375.66,388.008,404.663,422.243,433.837,433.915,431.06,431.787,430.44,429.631,428.629,419.31,412.65,485.66,485.66,69867,69867,69867
