time_index	left_time_boundary	right_time_boundary	lambda
0	0	1.60535e-06	31051.3
1	1.60535e-06	3.71999e-06	31051.3
2	3.71999e-06	6.50551e-06	225.364
3	6.50551e-06	1.01747e-05	1531.25
4	1.01747e-05	1.5008e-05	1409.1
5	1.5008e-05	2.13746e-05	134.19
6	2.13746e-05	2.9761e-05	89.6855
7	2.9761e-05	4.0808e-05	206.217
8	4.0808e-05	5.53596e-05	349.783
9	5.53596e-05	7.45277e-05	43.3806
10	7.45277e-05	9.97769e-05	40.7289
11	9.97769e-05	0.000133036	123.42
12	0.000133036	0.000176847	295.489
13	0.000176847	0.000234557	305.843
14	0.000234557	0.000310575	217.706
15	0.000310575	0.00041071	234.151
16	0.00041071	0.000542613	267.523
17	0.000542613	0.000716362	302.789
18	0.000716362	0.000945232	323.164
19	0.000945232	0.00124671	340.898
20	0.00124671	0.00164383	361.664
21	0.00164383	0.00216694	383.992
22	0.00216694	0.00285601	419.083
23	0.00285601	0.00376368	460.425
24	0.00376368	0.0049593	494.421
25	0.0049593	0.00653424	542.895
26	0.00653424	0.00860883	551.164
27	0.00860883	0.0113416	331.125
28	0.0113416	0.0149413	331.125
29	0.0149413	0.019683	303.601
30	0.019683	0.025929	303.601
31	0.025929	inf	303.601
