time_index	left_time_boundary	right_time_boundary	lambda
0	0	3.80739e-06	8075.55
1	3.80739e-06	1.04138e-05	8075.55
2	1.04138e-05	2.18768e-05	3.08589
3	2.18768e-05	4.17667e-05	130.365
4	4.17667e-05	7.62786e-05	864.057
5	7.62786e-05	0.000136162	538.424
6	0.000136162	0.000240068	316.548
7	0.000240068	0.000420359	361.059
8	0.000420359	0.000733191	419.72
9	0.000733191	0.001276	381.976
10	0.001276	0.00221785	329.705
11	0.00221785	0.0038521	525.834
12	0.0038521	0.00668775	323.219
13	0.00668775	0.011608	365.326
14	0.011608	0.0201454	365.326
15	0.0201454	inf	365.326
