time_index	left_time_boundary	right_time_boundary	lambda
0	0	9.91874e-06	453.68
1	9.91874e-06	2.21873e-05	453.68
2	2.21873e-05	3.73622e-05	233.392
3	3.73622e-05	5.61321e-05	321.481
4	5.61321e-05	7.93486e-05	313.996
5	7.93486e-05	0.000108065	298.068
6	0.000108065	0.000143585	290.633
7	0.000143585	0.000187519	298.933
8	0.000187519	0.000241861	321.14
9	0.000241861	0.000309077	334.508
10	0.000309077	0.000392217	331.945
11	0.000392217	0.000495053	322.297
12	0.000495053	0.00062225	315.201
13	0.00062225	0.000779581	318.457
14	0.000779581	0.000974183	332.129
15	0.000974183	0.00121489	351.277
16	0.00121489	0.00151262	372.606
17	0.00151262	0.00188088	395.279
18	0.00188088	0.00233638	418.457
19	0.00233638	0.00289979	439.627
20	0.00289979	0.00359667	454.98
21	0.00359667	0.00445864	460.649
22	0.00445864	0.00552482	455.843
23	0.00552482	0.00684358	443.455
24	0.00684358	0.00847476	426.063
25	0.00847476	0.0104924	404.615
26	0.0104924	0.0129879	384.148
27	0.0129879	0.0160747	399.7
28	0.0160747	0.0198928	399.7
29	0.0198928	0.0246153	2135.57
30	0.0246153	0.0304566	2135.57
31	0.0304566	inf	2135.57
