0.000668029	-8465427.57	0,2.62369e-06,6.02888e-06,1.04484e-05,1.61843e-05,2.36287e-05,3.32905e-05,4.58303e-05,6.21053e-05,8.32281e-05,0.000110643,0.000146223,0.000192401,0.000252335,0.00033012,0.000431076,0.000562102,0.000732156,0.000952864,0.00123931,0.00161109,0.0020936,0.00271983,0.0035326,0.00458747,0.00595654,0.00773341,0.0100396,0.0130326,0.0169172,0.0219589,0.0285023,inf	44.1378,44.1378,123.093,220.971,309.594,348.182,332.806,317.161,317.067,313.407,307.035,305.751,306.685,311.805,320.38,330.182,342.511,358.06,376.68,396.422,414.793,430.81,440.299,439.895,432.651,424.876,416.093,404.732,404.732,377.03,377.03,377.03
0.000717209	-8463449.29	0,2.62369e-06,6.02888e-06,1.04484e-05,1.61843e-05,2.36287e-05,3.32905e-05,4.58303e-05,6.21053e-05,8.32281e-05,0.000110643,0.000146223,0.000192401,0.000252335,0.00033012,0.000431076,0.000562102,0.000732156,0.000952864,0.00123931,0.00161109,0.0020936,0.00271983,0.0035326,0.00458747,0.00595654,0.00773341,0.0100396,0.0130326,0.0169172,0.0219589,0.0285023,inf	6.22796,6.22796,50.14,158.058,298.95,371.401,337.703,308.326,309.111,301.573,288.096,282.978,280.624,285.072,294.72,305.516,320.171,340.086,365.267,392.671,418.943,443.701,460.031,460.382,448.861,436.326,420.939,399.768,399.768,345,345,345
0.000763226	-8462319.14	0,2.62369e-06,6.02888e-06,1.04484e-05,1.61843e-05,2.36287e-05,3.32905e-05,4.58303e-05,6.21053e-05,8.32281e-05,0.000110643,0.000146223,0.000192401,0.000252335,0.00033012,0.000431076,0.000562102,0.000732156,0.000952864,0.00123931,0.00161109,0.0020936,0.00271983,0.0035326,0.00458747,0.00595654,0.00773341,0.0100396,0.0130326,0.0169172,0.0219589,0.0285023,inf	0.924861,0.924861,22.606,120.249,295.03,400.308,348.064,309.04,313.87,304.538,286.061,278.382,273.245,276.874,286.542,296.515,311.018,332.071,359.811,390.311,420,449.734,470.98,472.369,458.217,442.694,422.122,392.004,392.004,310.944,310.944,310.944
0.000806477	-8461496.04	0,2.62369e-06,6.02888e-06,1.04484e-05,1.61843e-05,2.36287e-05,3.32905e-05,4.58303e-05,6.21053e-05,8.32281e-05,0.000110643,0.000146223,0.000192401,0.000252335,0.00033012,0.000431076,0.000562102,0.000732156,0.000952864,0.00123931,0.00161109,0.0020936,0.00271983,0.0035326,0.00458747,0.00595654,0.00773341,0.0100396,0.0130326,0.0169172,0.0219589,0.0285023,inf	0.405466,0.405466,10.9909,94.4901,288.45,422.731,352.425,307.487,318.366,308.798,287.268,278.406,271.489,274.961,284.769,293.63,307.342,328.453,357.146,388.689,419.611,452.202,476.988,479.341,463.447,445.955,421.105,382.405,382.405,276.285,276.285,276.285
0.000847414	-8460835.90	0,2.62369e-06,6.02888e-06,1.04484e-05,1.61843e-05,2.36287e-05,3.32905e-05,4.58303e-05,6.21053e-05,8.32281e-05,0.000110643,0.000146223,0.000192401,0.000252335,0.00033012,0.000431076,0.000562102,0.000732156,0.000952864,0.00123931,0.00161109,0.0020936,0.00271983,0.0035326,0.00458747,0.00595654,0.00773341,0.0100396,0.0130326,0.0169172,0.0219589,0.0285023,inf	0.405466,0.405466,5.852,77.0193,280.663,439.409,351.333,303.074,320.751,311.654,288.371,279.262,271.381,275.322,285.56,293.404,306.245,327.069,356.021,387.604,418.627,452.84,480.21,483.348,466.211,447.341,418.808,371.583,371.583,242.298,242.298,242.298
0.000886395	-8460284.31	0,2.62369e-06,6.02888e-06,1.04484e-05,1.61843e-05,2.36287e-05,3.32905e-05,4.58303e-05,6.21053e-05,8.32281e-05,0.000110643,0.000146223,0.000192401,0.000252335,0.00033012,0.000431076,0.000562102,0.000732156,0.000952864,0.00123931,0.00161109,0.0020936,0.00271983,0.0035326,0.00458747,0.00595654,0.00773341,0.0100396,0.0130326,0.0169172,0.0219589,0.0285023,inf	0.405466,0.405466,3.45658,65.3814,273.528,452.906,347.02,297.12,321.597,313.064,288.764,279.931,271.624,276.477,287.381,294.38,306.442,326.912,355.814,386.925,417.45,452.547,481.84,485.59,467.508,447.62,415.812,359.978,359.978,210.097,210.097,210.097
0.000923694	-8459815.75	0,2.62369e-06,6.02888e-06,1.04484e-05,1.61843e-05,2.36287e-05,3.32905e-05,4.58303e-05,6.21053e-05,8.32281e-05,0.000110643,0.000146223,0.000192401,0.000252335,0.00033012,0.000431076,0.000562102,0.000732156,0.000952864,0.00123931,0.00161109,0.0020936,0.00271983,0.0035326,0.00458747,0.00595654,0.00773341,0.0100396,0.0130326,0.0169172,0.0219589,0.0285023,inf	0.405466,0.405466,2.23899,57.7101,267.861,464.957,341.159,290.723,321.692,313.498,288.556,280.233,271.822,277.858,289.575,295.885,307.302,327.452,356.171,386.547,416.256,451.789,482.552,486.774,467.948,447.283,412.504,347.987,347.987,180.559,180.559,180.559
0.000959521	-8459416.55	0,2.62369e-06,6.02888e-06,1.04484e-05,1.61843e-05,2.36287e-05,3.32905e-05,4.58303e-05,6.21053e-05,8.32281e-05,0.000110643,0.000146223,0.000192401,0.000252335,0.00033012,0.000431076,0.000562102,0.000732156,0.000952864,0.00123931,0.00161109,0.0020936,0.00271983,0.0035326,0.00458747,0.00595654,0.00773341,0.0100396,0.0130326,0.0169172,0.0219589,0.0285023,inf	0.405466,0.405466,1.59642,52.7385,263.766,476.377,334.663,284.524,321.595,313.39,287.981,280.231,271.889,279.255,291.849,297.593,308.493,328.395,356.877,386.382,415.113,450.809,482.728,487.323,467.908,446.654,409.176,336.044,336.044,154.222,154.222,154.222
0.000994038	-8459078.97	0,2.62369e-06,6.02888e-06,1.04484e-05,1.61843e-05,2.36287e-05,3.32905e-05,4.58303e-05,6.21053e-05,8.32281e-05,0.000110643,0.000146223,0.000192401,0.000252335,0.00033012,0.000431076,0.000562102,0.000732156,0.000952864,0.00123931,0.00161109,0.0020936,0.00271983,0.0035326,0.00458747,0.00595654,0.00773341,0.0100396,0.0130326,0.0169172,0.0219589,0.0285023,inf	0.405466,0.405466,1.2348,49.5606,261.037,487.452,327.971,278.811,321.614,313.031,287.234,280.034,271.842,280.6,294.078,299.338,309.836,329.563,357.794,386.364,414.042,449.733,482.591,487.497,467.63,445.962,406.07,324.634,324.634,131.235,131.235,131.235
0.00102737	-8458798.44	0,2.62369e-06,6.02888e-06,1.04484e-05,1.61843e-05,2.36287e-05,3.32905e-05,4.58303e-05,6.21053e-05,8.32281e-05,0.000110643,0.000146223,0.000192401,0.000252335,0.00033012,0.000431076,0.000562102,0.000732156,0.000952864,0.00123931,0.00161109,0.0020936,0.00271983,0.0035326,0.00458747,0.00595654,0.00773341,0.0100396,0.0130326,0.0169172,0.0219589,0.0285023,inf	0.405466,0.405466,1.03488,47.6514,259.44,498.188,321.281,273.677,321.898,312.605,286.453,279.74,271.727,281.881,296.214,301.045,311.231,330.854,358.833,386.44,413.04,448.625,482.269,487.45,467.267,445.373,403.398,314.255,314.255,111.431,111.431,111.431
0.00105959	-8458571.93	0,2.62369e-06,6.02888e-06,1.04484e-05,1.61843e-05,2.36287e-05,3.32905e-05,4.58303e-05,6.21053e-05,8.32281e-05,0.000110643,0.000146223,0.000192401,0.000252335,0.00033012,0.000431076,0.000562102,0.000732156,0.000952864,0.00123931,0.00161109,0.0020936,0.00271983,0.0035326,0.00458747,0.00595654,0.00773341,0.0100396,0.0130326,0.0169172,0.0219589,0.0285023,inf	0.405466,0.405466,0.91776,46.5795,258.694,508.493,314.655,269.125,322.496,312.201,285.723,279.417,271.585,283.11,298.242,302.677,312.624,332.203,359.936,386.574,412.096,447.512,481.829,487.274,466.908,445,401.344,305.368,305.368,94.4906,94.4906,94.4906
0.00109076	-8458396.64	0,2.62369e-06,6.02888e-06,1.04484e-05,1.61843e-05,2.36287e-05,3.32905e-05,4.58303e-05,6.21053e-05,8.32281e-05,0.000110643,0.000146223,0.000192401,0.000252335,0.00033012,0.000431076,0.000562102,0.000732156,0.000952864,0.00123931,0.00161109,0.0020936,0.00271983,0.0035326,0.00458747,0.00595654,0.00773341,0.0100396,0.0130326,0.0169172,0.0219589,0.0285023,inf	0.405466,0.405466,0.866609,46.1059,258.629,518.256,308.115,265.113,323.403,311.863,285.088,279.111,271.447,284.302,300.162,304.218,313.986,333.569,361.064,386.736,411.197,446.402,481.308,487.013,466.597,444.911,400.047,298.36,298.36,80.1025,80.1025,80.1025
0.00112089	-8458268.71	0,2.62369e-06,6.02888e-06,1.04484e-05,1.61843e-05,2.36287e-05,3.32905e-05,4.58303e-05,6.21053e-05,8.32281e-05,0.000110643,0.000146223,0.000192401,0.000252335,0.00033012,0.000431076,0.000562102,0.000732156,0.000952864,0.00123931,0.00161109,0.0020936,0.00271983,0.0035326,0.00458747,0.00595654,0.00773341,0.0100396,0.0130326,0.0169172,0.0219589,0.0285023,inf	0.405466,0.405466,0.859617,46.0291,259.088,527.381,301.669,261.582,324.599,311.602,284.568,278.849,271.337,285.47,301.982,305.667,315.301,334.93,362.191,386.907,410.328,445.295,480.716,486.681,466.341,445.125,399.595,293.531,293.531,68.0508,68.0508,68.0508
0.00114999	-8458181.51	0,2.62369e-06,6.02888e-06,1.04484e-05,1.61843e-05,2.36287e-05,3.32905e-05,4.58303e-05,6.21053e-05,8.32281e-05,0.000110643,0.000146223,0.000192401,0.000252335,0.00033012,0.000431076,0.000562102,0.000732156,0.000952864,0.00123931,0.00161109,0.0020936,0.00271983,0.0035326,0.00458747,0.00595654,0.00773341,0.0100396,0.0130326,0.0169172,0.0219589,0.0285023,inf	0.405466,0.405466,0.889725,46.2786,259.97,535.83,295.317,258.476,326.031,311.417,284.167,278.644,271.266,286.621,303.707,307.024,316.564,336.27,363.302,387.074,409.479,444.185,480.055,486.271,466.116,445.618,400.003,291.08,291.08,58.1893,58.1893,58.1893
0.00117801	-8458124.15	0,2.62369e-06,6.02888e-06,1.04484e-05,1.61843e-05,2.36287e-05,3.32905e-05,4.58303e-05,6.21053e-05,8.32281e-05,0.000110643,0.000146223,0.000192401,0.000252335,0.00033012,0.000431076,0.000562102,0.000732156,0.000952864,0.00123931,0.00161109,0.0020936,0.00271983,0.0035326,0.00458747,0.00595654,0.00773341,0.0100396,0.0130326,0.0169172,0.0219589,0.0285023,inf	0.405466,0.405466,0.958943,46.7141,261.209,543.553,289.061,255.728,327.664,311.294,283.878,278.495,271.238,287.758,305.346,308.291,317.77,337.583,364.39,387.232,408.644,443.067,479.317,485.765,465.872,446.309,401.191,291.062,291.062,50.347,50.347,50.347
0.00120495	-8458082.15	0,2.62369e-06,6.02888e-06,1.04484e-05,1.61843e-05,2.36287e-05,3.32905e-05,4.58303e-05,6.21053e-05,8.32281e-05,0.000110643,0.000146223,0.000192401,0.000252335,0.00033012,0.000431076,0.000562102,0.000732156,0.000952864,0.00123931,0.00161109,0.0020936,0.00271983,0.0035326,0.00458747,0.00595654,0.00773341,0.0100396,0.0130326,0.0169172,0.0219589,0.0285023,inf	0.405466,0.405466,1.07636,47.3065,262.752,550.561,282.912,253.303,329.453,311.217,283.69,278.399,271.247,288.88,306.898,309.472,318.92,338.864,365.452,387.38,407.824,441.942,478.502,485.139,465.548,447.078,402.977,293.337,293.337,44.2613,44.2613,44.2613
0.0012308	-8458041.44	0,2.62369e-06,6.02888e-06,1.04484e-05,1.61843e-05,2.36287e-05,3.32905e-05,4.58303e-05,6.21053e-05,8.32281e-05,0.000110643,0.000146223,0.000192401,0.000252335,0.00033012,0.000431076,0.000562102,0.000732156,0.000952864,0.00123931,0.00161109,0.0020936,0.00271983,0.0035326,0.00458747,0.00595654,0.00773341,0.0100396,0.0130326,0.0169172,0.0219589,0.0285023,inf	0.405466,0.405466,1.2441,48.0086,264.59,556.855,276.886,251.156,331.366,311.173,283.588,278.348,271.289,289.983,308.367,310.57,320.014,340.115,366.49,387.522,407.023,440.817,477.611,484.375,465.078,447.779,405.1,297.576,297.576,39.5989,39.5989,39.5989
0.00125558	-8457992.93	0,2.62369e-06,6.02888e-06,1.04484e-05,1.61843e-05,2.36287e-05,3.32905e-05,4.58303e-05,6.21053e-05,8.32281e-05,0.000110643,0.000146223,0.000192401,0.000252335,0.00033012,0.000431076,0.000562102,0.000732156,0.000952864,0.00123931,0.00161109,0.0020936,0.00271983,0.0035326,0.00458747,0.00595654,0.00773341,0.0100396,0.0130326,0.0169172,0.0219589,0.0285023,inf	0.405464,0.405464,1.46839,48.759,266.67,562.473,270.988,249.268,333.377,311.151,283.56,278.334,271.357,291.063,309.754,311.586,321.055,341.335,367.509,387.669,406.252,439.705,476.659,483.472,464.417,448.283,407.281,303.319,303.319,36.0305,36.0305,36.0305
0.00127934	-8457933.79	0,2.62369e-06,6.02888e-06,1.04484e-05,1.61843e-05,2.36287e-05,3.32905e-05,4.58303e-05,6.21053e-05,8.32281e-05,0.000110643,0.000146223,0.000192401,0.000252335,0.00033012,0.000431076,0.000562102,0.000732156,0.000952864,0.00123931,0.00161109,0.0020936,0.00271983,0.0035326,0.00458747,0.00595654,0.00773341,0.0100396,0.0130326,0.0169172,0.0219589,0.0285023,inf	0.405464,0.405464,1.78233,49.5041,268.982,567.48,265.227,247.605,335.47,311.143,283.595,278.35,271.446,292.116,311.059,312.522,322.042,342.526,368.512,387.827,405.525,438.626,475.67,482.445,463.55,448.499,409.285,310.081,310.081,33.2844,33.2844,33.2844
0.00130214	-8457865.50	0,2.62369e-06,6.02888e-06,1.04484e-05,1.61843e-05,2.36287e-05,3.32905e-05,4.58303e-05,6.21053e-05,8.32281e-05,0.000110643,0.000146223,0.000192401,0.000252335,0.00033012,0.000431076,0.000562102,0.000732156,0.000952864,0.00123931,0.00161109,0.0020936,0.00271983,0.0035326,0.00458747,0.00595654,0.00773341,0.0100396,0.0130326,0.0169172,0.0219589,0.0285023,inf	0.405464,0.405464,2.20779,50.2072,271.521,571.917,259.612,246.146,337.629,311.145,283.684,278.394,271.553,293.143,312.284,313.381,322.976,343.687,369.503,388.004,404.851,437.598,474.673,481.323,462.487,448.387,410.949,317.419,317.419,31.1605,31.1605,31.1605
