0.000682328	-13610195.42	0,4.03082e-06,1.10249e-05,2.31605e-05,4.42177e-05,8.07548e-05,0.000144152,0.000254155,0.000445027,0.000776217,0.00135088,0.002348,0.00407815,0.00708021,0.0122892,0.0213276,inf	105.846,105.846,253.943,330.063,326.758,310.631,307.294,320.037,338.841,371.444,413.253,440.604,425.5,412.239,412.239,412.239
0.00074227	-13606757.77	0,4.03082e-06,1.10249e-05,2.31605e-05,4.42177e-05,8.07548e-05,0.000144152,0.000254155,0.000445027,0.000776217,0.00135088,0.002348,0.00407815,0.00708021,0.0122892,0.0213276,inf	39.553,39.553,209.637,335.701,326.76,294.632,284.079,297.881,318.183,359.788,416.132,458.113,434.485,412.893,412.893,412.893
0.000796985	-13604799.33	0,4.03082e-06,1.10249e-05,2.31605e-05,4.42177e-05,8.07548e-05,0.000144152,0.000254155,0.000445027,0.000776217,0.00135088,0.002348,0.00407815,0.00708021,0.0122892,0.0213276,inf	17.0922,17.0922,183.45,348.052,336.753,292.912,278.268,292.509,311.006,355.23,416.461,466.72,437.662,410.071,410.071,410.071
0.000847611	-13603372.91	0,4.03082e-06,1.10249e-05,2.31605e-05,4.42177e-05,8.07548e-05,0.000144152,0.000254155,0.000445027,0.000776217,0.00135088,0.002348,0.00407815,0.00708021,0.0122892,0.0213276,inf	8.26105,8.26105,163.964,355.928,344.69,292.85,277.116,292.605,308.893,353.7,415.809,470.937,437.986,405.482,405.482,405.482
0.000894974	-13602239.10	0,4.03082e-06,1.10249e-05,2.31605e-05,4.42177e-05,8.07548e-05,0.000144152,0.000254155,0.000445027,0.000776217,0.00135088,0.002348,0.00407815,0.00708021,0.0122892,0.0213276,inf	4.47821,4.47821,149.481,359.758,349.549,292.016,277.146,294.557,308.9,353.657,414.847,472.953,436.962,400.08,400.08,400.08
0.000939617	-13601304.42	0,4.03082e-06,1.10249e-05,2.31605e-05,4.42177e-05,8.07548e-05,0.000144152,0.000254155,0.000445027,0.000776217,0.00135088,0.002348,0.00407815,0.00708021,0.0122892,0.0213276,inf	2.7117,2.7117,139.23,361.409,352.345,290.337,277.397,297.07,309.828,354.39,413.832,473.841,435.352,394.392,394.392,394.392
0.000981908	-13600519.58	0,4.03082e-06,1.10249e-05,2.31605e-05,4.42177e-05,8.07548e-05,0.000144152,0.000254155,0.000445027,0.000776217,0.00135088,0.002348,0.00407815,0.00708021,0.0122892,0.0213276,inf	1.82776,1.82776,132.335,362.148,354.068,288.154,277.655,299.659,311.14,355.531,412.851,474.139,433.54,388.705,388.705,388.705
0.00102211	-13599853.22	0,4.03082e-06,1.10249e-05,2.31605e-05,4.42177e-05,8.07548e-05,0.000144152,0.000254155,0.000445027,0.000776217,0.00135088,0.002348,0.00407815,0.00708021,0.0122892,0.0213276,inf	1.37115,1.37115,128.029,362.585,355.32,285.777,277.915,302.149,312.584,356.879,411.923,474.123,431.72,383.176,383.176,383.176
0.00106042	-13599283.14	0,4.03082e-06,1.10249e-05,2.31605e-05,4.42177e-05,8.07548e-05,0.000144152,0.000254155,0.000445027,0.000776217,0.00135088,0.002348,0.00407815,0.00708021,0.0122892,0.0213276,inf	1.12627,1.12627,125.645,362.934,356.419,283.401,278.215,304.483,314.039,358.32,411.048,473.942,429.985,377.885,377.885,377.885
0.00109699	-13598792.65	0,4.03082e-06,1.10249e-05,2.31605e-05,4.42177e-05,8.07548e-05,0.000144152,0.000254155,0.000445027,0.000776217,0.00135088,0.002348,0.00407815,0.00708021,0.0122892,0.0213276,inf	1.0088,1.0088,124.716,363.259,357.509,281.137,278.592,306.655,315.449,359.787,410.215,473.675,428.376,372.869,372.869,372.869
0.00113195	-13598368.73	0,4.03082e-06,1.10249e-05,2.31605e-05,4.42177e-05,8.07548e-05,0.000144152,0.000254155,0.000445027,0.000776217,0.00135088,0.002348,0.00407815,0.00708021,0.0122892,0.0213276,inf	0.98755,0.98755,124.852,363.508,358.635,279.036,279.067,308.672,316.787,361.243,409.418,473.364,426.909,368.142,368.142,368.142
0.00116541	-13598001.00	0,4.03082e-06,1.10249e-05,2.31605e-05,4.42177e-05,8.07548e-05,0.000144152,0.000254155,0.000445027,0.000776217,0.00135088,0.002348,0.00407815,0.00708021,0.0122892,0.0213276,inf	1.03214,1.03214,125.767,363.659,359.805,277.117,279.652,310.55,318.045,362.665,408.648,473.034,425.583,363.701,363.701,363.701
0.00119748	-13597681.04	0,4.03082e-06,1.10249e-05,2.31605e-05,4.42177e-05,8.07548e-05,0.000144152,0.000254155,0.000445027,0.000776217,0.00135088,0.002348,0.00407815,0.00708021,0.0122892,0.0213276,inf	1.1572,1.1572,127.29,363.691,361.008,275.377,280.348,312.303,319.222,364.043,407.901,472.699,424.391,359.538,359.538,359.538
0.00122822	-13597401.92	0,4.03082e-06,1.10249e-05,2.31605e-05,4.42177e-05,8.07548e-05,0.000144152,0.000254155,0.000445027,0.000776217,0.00135088,0.002348,0.00407815,0.00708021,0.0122892,0.0213276,inf	1.37662,1.37662,129.242,363.591,362.232,273.808,281.149,313.943,320.32,365.371,407.173,472.366,423.325,355.639,355.639,355.639
0.00125773	-13597157.91	0,4.03082e-06,1.10249e-05,2.31605e-05,4.42177e-05,8.07548e-05,0.000144152,0.000254155,0.000445027,0.000776217,0.00135088,0.002348,0.00407815,0.00708021,0.0122892,0.0213276,inf	1.71735,1.71735,131.512,363.371,363.467,272.394,282.047,315.482,321.346,366.646,406.461,472.039,422.372,351.988,351.988,351.988
0.00128606	-13596944.20	0,4.03082e-06,1.10249e-05,2.31605e-05,4.42177e-05,8.07548e-05,0.000144152,0.000254155,0.000445027,0.000776217,0.00135088,0.002348,0.00407815,0.00708021,0.0122892,0.0213276,inf	2.22891,2.22891,133.977,363.02,364.689,271.117,283.033,316.928,322.303,367.87,405.764,471.72,421.522,348.57,348.57,348.57
0.00131329	-13596756.75	0,4.03082e-06,1.10249e-05,2.31605e-05,4.42177e-05,8.07548e-05,0.000144152,0.000254155,0.000445027,0.000776217,0.00135088,0.002348,0.00407815,0.00708021,0.0122892,0.0213276,inf	2.96683,2.96683,136.545,362.561,365.898,269.964,284.096,318.288,323.198,369.044,405.08,471.41,420.763,345.368,345.368,345.368
0.00133947	-13596592.14	0,4.03082e-06,1.10249e-05,2.31605e-05,4.42177e-05,8.07548e-05,0.000144152,0.000254155,0.000445027,0.000776217,0.00135088,0.002348,0.00407815,0.00708021,0.0122892,0.0213276,inf	3.9625,3.9625,139.131,362.028,367.084,268.92,285.225,319.569,324.034,370.169,404.41,471.11,420.086,342.366,342.366,342.366
0.00136465	-13596447.47	0,4.03082e-06,1.10249e-05,2.31605e-05,4.42177e-05,8.07548e-05,0.000144152,0.000254155,0.000445027,0.000776217,0.00135088,0.002348,0.00407815,0.00708021,0.0122892,0.0213276,inf	5.2274,5.2274,141.671,361.421,368.245,267.969,286.411,320.776,324.819,371.248,403.752,470.818,419.482,339.55,339.55,339.55
0.00138889	-13596320.26	0,4.03082e-06,1.10249e-05,2.31605e-05,4.42177e-05,8.07548e-05,0.000144152,0.000254155,0.000445027,0.000776217,0.00135088,0.002348,0.00407815,0.00708021,0.0122892,0.0213276,inf	6.69142,6.69142,144.155,360.774,369.38,267.102,287.644,321.914,325.554,372.285,403.107,470.536,418.942,336.907,336.907,336.907
