time_index	left_time_boundary	right_time_boundary	lambda
0	0	1.0291e-05	502.461
1	1.0291e-05	2.69626e-05	502.461
2	2.69626e-05	5.39713e-05	364.795
3	5.39713e-05	9.77261e-05	431.449
4	9.77261e-05	0.00016861	387.721
5	0.00016861	0.000283445	423.707
6	0.000283445	0.000469481	413.25
7	0.000469481	0.000770865	394.397
8	0.000770865	0.00125912	395.915
9	0.00125912	0.0020501	414.502
10	0.0020501	0.00333152	405.078
11	0.00333152	0.00540745	373.111
12	0.00540745	0.00877053	381.108
13	0.00877053	0.0142188	459.316
14	0.0142188	0.0230452	459.316
15	0.0230452	inf	459.316
