0.000676053	-3006518.66	0,9.13063e-05,0.000216242,0.000387193,0.000621109,0.000941179,0.00137914,0.0019784,0.00279838,0.00392037,0.0054556,0.00755629,0.0104307,0.0143638,0.0197455,0.0271093,inf	401.833,401.833,386.083,380.968,387.668,393.876,399.822,405.101,406.641,405.764,400.626,396.521,398.851,397.236,397.236,397.236
0.000727556	-3005966.35	0,9.13063e-05,0.000216242,0.000387193,0.000621109,0.000941179,0.00137914,0.0019784,0.00279838,0.00392037,0.0054556,0.00755629,0.0104307,0.0143638,0.0197455,0.0271093,inf	408.602,408.602,382.804,373.48,383.736,391.799,399.674,407.056,408.787,407.129,397.998,390.838,395.732,394.067,394.067,394.067
0.000774308	-3005552.13	0,9.13063e-05,0.000216242,0.000387193,0.000621109,0.000941179,0.00137914,0.0019784,0.00279838,0.00392037,0.0054556,0.00755629,0.0104307,0.0143638,0.0197455,0.0271093,inf	413.856,413.856,382.627,370.533,383.36,391.668,400.051,408.362,409.926,407.748,395.483,385.995,393.508,392.743,392.743,392.743
0.000816763	-3005232.63	0,9.13063e-05,0.000216242,0.000387193,0.000621109,0.000941179,0.00137914,0.0019784,0.00279838,0.00392037,0.0054556,0.00755629,0.0104307,0.0143638,0.0197455,0.0271093,inf	416.936,416.936,383.204,369.373,384.292,392.096,400.39,409.101,410.403,407.917,393.138,381.821,391.902,392.638,392.638,392.638
0.000855398	-3004982.02	0,9.13063e-05,0.000216242,0.000387193,0.000621109,0.000941179,0.00137914,0.0019784,0.00279838,0.00392037,0.0054556,0.00755629,0.0104307,0.0143638,0.0197455,0.0271093,inf	418.547,418.547,383.981,369.06,385.757,392.664,400.608,409.455,410.479,407.833,390.989,378.193,390.74,393.364,393.364,393.364
0.000890637	-3004782.74	0,9.13063e-05,0.000216242,0.000387193,0.000621109,0.000941179,0.00137914,0.0019784,0.00279838,0.00392037,0.0054556,0.00755629,0.0104307,0.0143638,0.0197455,0.0271093,inf	419.322,419.322,384.807,369.195,387.434,393.23,400.717,409.563,410.32,407.614,389.038,375.009,389.901,394.67,394.67,394.67
0.000922848	-3004622.45	0,9.13063e-05,0.000216242,0.000387193,0.000621109,0.000941179,0.00137914,0.0019784,0.00279838,0.00392037,0.0054556,0.00755629,0.0104307,0.0143638,0.0197455,0.0271093,inf	419.656,419.656,385.629,369.574,389.167,393.743,400.745,409.518,410.027,407.329,387.271,372.191,389.298,396.388,396.388,396.388
0.000952349	-3004492.25	0,9.13063e-05,0.000216242,0.000387193,0.000621109,0.000941179,0.00137914,0.0019784,0.00279838,0.00392037,0.0054556,0.00755629,0.0104307,0.0143638,0.0197455,0.0271093,inf	419.778,419.778,386.422,370.081,390.881,394.186,400.714,409.38,409.661,407.018,385.672,369.675,388.869,398.4,398.4,398.4
0.000979413	-3004385.59	0,9.13063e-05,0.000216242,0.000387193,0.000621109,0.000941179,0.00137914,0.0019784,0.00279838,0.00392037,0.0054556,0.00755629,0.0104307,0.0143638,0.0197455,0.0271093,inf	419.811,419.811,387.172,370.652,392.537,394.555,400.643,409.188,409.26,406.702,384.221,367.409,388.569,400.624,400.624,400.624
0.00100428	-3004297.56	0,9.13063e-05,0.000216242,0.000387193,0.000621109,0.000941179,0.00137914,0.0019784,0.00279838,0.00392037,0.0054556,0.00755629,0.0104307,0.0143638,0.0197455,0.0271093,inf	419.822,419.822,387.873,371.247,394.115,394.855,400.545,408.967,408.848,406.396,382.903,365.353,388.365,403.003,403.003,403.003
0.00102716	-3004224.44	0,9.13063e-05,0.000216242,0.000387193,0.000621109,0.000941179,0.00137914,0.0019784,0.00279838,0.00392037,0.0054556,0.00755629,0.0104307,0.0143638,0.0197455,0.0271093,inf	419.841,419.841,388.522,371.84,395.61,395.093,400.429,408.733,408.437,406.107,381.701,363.475,388.233,405.495,405.495,405.495
0.00104824	-3004163.34	0,9.13063e-05,0.000216242,0.000387193,0.000621109,0.000941179,0.00137914,0.0019784,0.00279838,0.00392037,0.0054556,0.00755629,0.0104307,0.0143638,0.0197455,0.0271093,inf	419.882,419.882,389.12,372.419,397.019,395.274,400.303,408.496,408.037,405.838,380.603,361.749,388.153,408.069,408.069,408.069
0.00106769	-3004112.01	0,9.13063e-05,0.000216242,0.000387193,0.000621109,0.000941179,0.00137914,0.0019784,0.00279838,0.00392037,0.0054556,0.00755629,0.0104307,0.0143638,0.0197455,0.0271093,inf	419.948,419.948,389.666,372.974,398.346,395.406,400.172,408.263,407.652,405.593,379.596,360.152,388.114,410.704,410.704,410.704
0.00108564	-3004068.69	0,9.13063e-05,0.000216242,0.000387193,0.000621109,0.000941179,0.00137914,0.0019784,0.00279838,0.00392037,0.0054556,0.00755629,0.0104307,0.0143638,0.0197455,0.0271093,inf	420.041,420.041,390.164,373.503,399.594,395.494,400.039,408.039,407.285,405.37,378.672,358.669,388.103,413.384,413.384,413.384
0.00110223	-3004031.96	0,9.13063e-05,0.000216242,0.000387193,0.000621109,0.000941179,0.00137914,0.0019784,0.00279838,0.00392037,0.0054556,0.00755629,0.0104307,0.0143638,0.0197455,0.0271093,inf	420.156,420.156,390.616,374.001,400.769,395.544,399.907,407.825,406.938,405.171,377.821,357.284,388.114,416.096,416.096,416.096
0.00111757	-3004000.71	0,9.13063e-05,0.000216242,0.000387193,0.000621109,0.000941179,0.00137914,0.0019784,0.00279838,0.00392037,0.0054556,0.00755629,0.0104307,0.0143638,0.0197455,0.0271093,inf	420.291,420.291,391.026,374.47,401.875,395.561,399.776,407.623,406.61,404.994,377.035,355.987,388.14,418.832,418.832,418.832
0.00113178	-3003974.01	0,9.13063e-05,0.000216242,0.000387193,0.000621109,0.000941179,0.00137914,0.0019784,0.00279838,0.00392037,0.0054556,0.00755629,0.0104307,0.0143638,0.0197455,0.0271093,inf	420.441,420.441,391.397,374.909,402.919,395.549,399.65,407.434,406.301,404.839,376.31,354.765,388.176,421.586,421.586,421.586
0.00114493	-3003951.14	0,9.13063e-05,0.000216242,0.000387193,0.000621109,0.000941179,0.00137914,0.0019784,0.00279838,0.00392037,0.0054556,0.00755629,0.0104307,0.0143638,0.0197455,0.0271093,inf	420.6,420.6,391.732,375.319,403.904,395.512,399.528,407.258,406.011,404.705,375.639,353.613,388.22,424.352,424.352,424.352
0.00115713	-3003931.47	0,9.13063e-05,0.000216242,0.000387193,0.000621109,0.000941179,0.00137914,0.0019784,0.00279838,0.00392037,0.0054556,0.00755629,0.0104307,0.0143638,0.0197455,0.0271093,inf	420.768,420.768,392.034,375.701,404.836,395.453,399.411,407.095,405.739,404.59,375.016,352.522,388.268,427.128,427.128,427.128
0.00116844	-3003914.51	0,9.13063e-05,0.000216242,0.000387193,0.000621109,0.000941179,0.00137914,0.0019784,0.00279838,0.00392037,0.0054556,0.00755629,0.0104307,0.0143638,0.0197455,0.0271093,inf	420.942,420.942,392.305,376.056,405.718,395.374,399.299,406.944,405.484,404.493,374.439,351.486,388.318,429.911,429.911,429.911
