0.000680417	-84684967.91	0,2.65023e-06,6.08986e-06,1.0554e-05,1.6348e-05,2.38677e-05,3.36273e-05,4.62939e-05,6.27335e-05,8.40699e-05,0.000111762,0.000147702,0.000194347,0.000254887,0.000333459,0.000435436,0.000567787,0.000739562,0.000962503,0.00125185,0.00162738,0.00211477,0.00274734,0.00356833,0.00463387,0.00601679,0.00781163,0.0101411,0.0131644,0.0170883,0.022181,0.0287906,inf	368.005,368.005,472.568,486.555,454.565,423.028,411.939,408.228,405.307,401.186,396.939,394.121,392.395,390.951,389.346,388.399,389.162,391.424,394.641,398.537,402.313,405.061,406.561,406.825,406.03,405.255,405.208,404.521,404.521,376.91,376.91,376.91
0.000732809	-84669295.45	0,2.65023e-06,6.08986e-06,1.0554e-05,1.6348e-05,2.38677e-05,3.36273e-05,4.62939e-05,6.27335e-05,8.40699e-05,0.000111762,0.000147702,0.000194347,0.000254887,0.000333459,0.000435436,0.000567787,0.000739562,0.000962503,0.00125185,0.00162738,0.00211477,0.00274734,0.00356833,0.00463387,0.00601679,0.00781163,0.0101411,0.0131644,0.0170883,0.022181,0.0287906,inf	315.417,315.417,502.002,536.211,479.325,427.022,412.903,410.714,408.59,403.324,397.338,393.703,391.671,389.63,386.726,384.636,385.296,388.251,392.606,398.041,403.34,407.118,409.13,409.378,408.045,406.944,407.245,406.295,406.295,355.505,355.505,355.505
0.000780443	-84657483.91	0,2.65023e-06,6.08986e-06,1.0554e-05,1.6348e-05,2.38677e-05,3.36273e-05,4.62939e-05,6.27335e-05,8.40699e-05,0.000111762,0.000147702,0.000194347,0.000254887,0.000333459,0.000435436,0.000567787,0.000739562,0.000962503,0.00125185,0.00162738,0.00211477,0.00274734,0.00356833,0.00463387,0.00601679,0.00781163,0.0101411,0.0131644,0.0170883,0.022181,0.0287906,inf	270.676,270.676,511.83,565.234,487.924,421.485,407.958,409.212,409.255,404.079,397.556,394.171,392.71,390.714,386.931,383.908,384.327,387.46,392.165,398.178,404.041,408.106,410.194,410.301,408.574,407.384,408.24,407.284,407.284,336.741,336.741,336.741
0.000823862	-84648332.01	0,2.65023e-06,6.08986e-06,1.0554e-05,1.6348e-05,2.38677e-05,3.36273e-05,4.62939e-05,6.27335e-05,8.40699e-05,0.000111762,0.000147702,0.000194347,0.000254887,0.000333459,0.000435436,0.000567787,0.000739562,0.000962503,0.00125185,0.00162738,0.00211477,0.00274734,0.00356833,0.00463387,0.00601679,0.00781163,0.0101411,0.0131644,0.0170883,0.022181,0.0287906,inf	238.102,238.102,514.799,584.545,489.12,412.46,400.947,406.048,408.476,403.717,397.105,394.443,393.991,392.41,388.049,384.315,384.522,387.644,392.362,398.511,404.483,408.479,410.428,410.324,408.276,407.115,408.629,407.838,407.838,320.18,320.18,320.18
0.000863553	-84641112.53	0,2.65023e-06,6.08986e-06,1.0554e-05,1.6348e-05,2.38677e-05,3.36273e-05,4.62939e-05,6.27335e-05,8.40699e-05,0.000111762,0.000147702,0.000194347,0.000254887,0.000333459,0.000435436,0.000567787,0.000739562,0.000962503,0.00125185,0.00162738,0.00211477,0.00274734,0.00356833,0.00463387,0.00601679,0.00781163,0.0101411,0.0131644,0.0170883,0.022181,0.0287906,inf	215.401,215.401,515.921,599.393,487.313,402.841,393.869,402.662,407.245,402.835,396.22,394.436,395.178,394.192,389.438,385.166,385.217,388.258,392.837,398.907,404.761,408.515,410.215,409.858,407.526,406.452,408.67,408.166,408.166,305.442,305.442,305.442
0.000899935	-84635339.29	0,2.65023e-06,6.08986e-06,1.0554e-05,1.6348e-05,2.38677e-05,3.36273e-05,4.62939e-05,6.27335e-05,8.40699e-05,0.000111762,0.000147702,0.000194347,0.000254887,0.000333459,0.000435436,0.000567787,0.000739562,0.000962503,0.00125185,0.00162738,0.00211477,0.00274734,0.00356833,0.00463387,0.00601679,0.00781163,0.0101411,0.0131644,0.0170883,0.022181,0.0287906,inf	199.677,199.677,516.672,611.994,484.362,393.77,387.508,399.695,406.093,401.815,395.135,394.243,396.225,395.902,390.862,386.175,386.121,389.055,393.428,399.316,404.94,408.37,409.77,409.135,406.539,405.576,408.517,408.393,408.393,292.208,292.208,292.208
0.000933362	-84630671.36	0,2.65023e-06,6.08986e-06,1.0554e-05,1.6348e-05,2.38677e-05,3.36273e-05,4.62939e-05,6.27335e-05,8.40699e-05,0.000111762,0.000147702,0.000194347,0.000254887,0.000333459,0.000435436,0.000567787,0.000739562,0.000962503,0.00125185,0.00162738,0.00211477,0.00274734,0.00356833,0.00463387,0.00601679,0.00781163,0.0101411,0.0131644,0.0170883,0.022181,0.0287906,inf	188.719,188.719,517.302,623.148,480.95,385.564,382.076,397.36,405.231,400.853,394.004,393.952,397.155,397.502,392.231,387.212,387.094,389.914,394.057,399.716,405.059,408.133,409.213,408.289,405.438,404.595,408.259,408.599,408.599,280.219,280.219,280.219
0.00096414	-84626862.13	0,2.65023e-06,6.08986e-06,1.0554e-05,1.6348e-05,2.38677e-05,3.36273e-05,4.62939e-05,6.27335e-05,8.40699e-05,0.000111762,0.000147702,0.000194347,0.000254887,0.000333459,0.000435436,0.000567787,0.000739562,0.000962503,0.00125185,0.00162738,0.00211477,0.00274734,0.00356833,0.00463387,0.00601679,0.00781163,0.0101411,0.0131644,0.0170883,0.022181,0.0287906,inf	181.061,181.061,517.733,633.151,477.341,378.221,377.547,395.659,404.717,400.032,392.905,393.622,397.998,398.99,393.514,388.221,388.066,390.775,394.681,400.094,405.14,407.854,408.611,407.394,404.296,403.57,407.953,408.83,408.83,269.263,269.263,269.263
0.00099253	-84623729.11	0,2.65023e-06,6.08986e-06,1.0554e-05,1.6348e-05,2.38677e-05,3.36273e-05,4.62939e-05,6.27335e-05,8.40699e-05,0.000111762,0.000147702,0.000194347,0.000254887,0.000333459,0.000435436,0.000567787,0.000739562,0.000962503,0.00125185,0.00162738,0.00211477,0.00274734,0.00356833,0.00463387,0.00601679,0.00781163,0.0101411,0.0131644,0.0170883,0.022181,0.0287906,inf	175.736,175.736,517.861,642.163,473.631,371.665,373.814,394.529,404.532,399.371,391.873,393.29,398.781,400.375,394.702,389.174,389.002,391.605,395.279,400.447,405.196,407.56,408.002,406.493,403.153,402.54,407.631,409.116,409.116,259.168,259.168,259.168
0.00101876	-84621134.74	0,2.65023e-06,6.08986e-06,1.0554e-05,1.6348e-05,2.38677e-05,3.36273e-05,4.62939e-05,6.27335e-05,8.40699e-05,0.000111762,0.000147702,0.000194347,0.000254887,0.000333459,0.000435436,0.000567787,0.000739562,0.000962503,0.00125185,0.00162738,0.00211477,0.00274734,0.00356833,0.00463387,0.00601679,0.00781163,0.0101411,0.0131644,0.0170883,0.022181,0.0287906,inf	172.089,172.089,517.665,650.332,469.869,365.775,370.736,393.882,404.636,398.861,390.921,392.978,399.52,401.671,395.799,390.061,389.886,392.388,395.84,400.771,405.235,407.267,407.408,405.613,402.034,401.525,407.312,409.476,409.476,249.792,249.792,249.792
0.00104303	-84618973.67	0,2.65023e-06,6.08986e-06,1.0554e-05,1.6348e-05,2.38677e-05,3.36273e-05,4.62939e-05,6.27335e-05,8.40699e-05,0.000111762,0.000147702,0.000194347,0.000254887,0.000333459,0.000435436,0.000567787,0.000739562,0.000962503,0.00125185,0.00162738,0.00211477,0.00274734,0.00356833,0.00463387,0.00601679,0.00781163,0.0101411,0.0131644,0.0170883,0.022181,0.0287906,inf	169.717,169.717,517.153,657.724,466.075,360.463,368.2,393.627,404.977,398.484,390.048,392.692,400.23,402.889,396.808,390.882,390.711,393.117,396.359,401.067,405.262,406.984,406.84,404.766,400.951,400.537,407.007,409.923,409.923,241.017,241.017,241.017
0.00106552	-84617164.25	0,2.65023e-06,6.08986e-06,1.0554e-05,1.6348e-05,2.38677e-05,3.36273e-05,4.62939e-05,6.27335e-05,8.40699e-05,0.000111762,0.000147702,0.000194347,0.000254887,0.000333459,0.000435436,0.000567787,0.000739562,0.000962503,0.00125185,0.00162738,0.00211477,0.00274734,0.00356833,0.00463387,0.00601679,0.00781163,0.0101411,0.0131644,0.0170883,0.022181,0.0287906,inf	168.296,168.296,516.342,664.45,462.262,355.624,366.107,393.685,405.504,398.217,389.246,392.437,400.919,404.04,397.74,391.636,391.476,393.791,396.837,401.335,405.28,406.716,406.305,403.959,399.91,399.582,406.724,410.465,410.465,232.747,232.747,232.747
0.00108638	-84615642.40	0,2.65023e-06,6.08986e-06,1.0554e-05,1.6348e-05,2.38677e-05,3.36273e-05,4.62939e-05,6.27335e-05,8.40699e-05,0.000111762,0.000147702,0.000194347,0.000254887,0.000333459,0.000435436,0.000567787,0.000739562,0.000962503,0.00125185,0.00162738,0.00211477,0.00274734,0.00356833,0.00463387,0.00601679,0.00781163,0.0101411,0.0131644,0.0170883,0.022181,0.0287906,inf	167.555,167.555,515.221,670.619,458.432,351.183,364.376,393.989,406.174,398.034,388.51,392.214,401.593,405.13,398.601,392.329,392.183,394.411,397.272,401.578,405.292,406.465,405.804,403.195,398.916,398.664,406.464,411.106,411.106,224.897,224.897,224.897
0.00110575	-84614357.39	0,2.65023e-06,6.08986e-06,1.0554e-05,1.6348e-05,2.38677e-05,3.36273e-05,4.62939e-05,6.27335e-05,8.40699e-05,0.000111762,0.000147702,0.000194347,0.000254887,0.000333459,0.000435436,0.000567787,0.000739562,0.000962503,0.00125185,0.00162738,0.00211477,0.00274734,0.00356833,0.00463387,0.00601679,0.00781163,0.0101411,0.0131644,0.0170883,0.022181,0.0287906,inf	167.384,167.384,513.989,676.365,454.647,347.095,362.934,394.482,406.948,397.917,387.829,392.018,402.251,406.168,399.397,392.965,392.835,394.98,397.669,401.796,405.3,406.232,405.339,402.476,397.968,397.783,406.229,411.851,411.851,217.395,217.395,217.395
0.00112375	-84613268.66	0,2.65023e-06,6.08986e-06,1.0554e-05,1.6348e-05,2.38677e-05,3.36273e-05,4.62939e-05,6.27335e-05,8.40699e-05,0.000111762,0.000147702,0.000194347,0.000254887,0.000333459,0.000435436,0.000567787,0.000739562,0.000962503,0.00125185,0.00162738,0.00211477,0.00274734,0.00356833,0.00463387,0.00601679,0.00781163,0.0101411,0.0131644,0.0170883,0.022181,0.0287906,inf	167.591,167.591,512.581,681.7,450.892,343.295,361.723,395.124,407.8,397.848,387.193,391.846,402.9,407.158,400.134,393.547,393.435,395.501,398.028,401.993,405.303,406.016,404.909,401.799,397.064,396.937,406.019,412.703,412.703,210.179,210.179,210.179
0.0011405	-84612343.59	0,2.65023e-06,6.08986e-06,1.0554e-05,1.6348e-05,2.38677e-05,3.36273e-05,4.62939e-05,6.27335e-05,8.40699e-05,0.000111762,0.000147702,0.000194347,0.000254887,0.000333459,0.000435436,0.000567787,0.000739562,0.000962503,0.00125185,0.00162738,0.00211477,0.00274734,0.00356833,0.00463387,0.00601679,0.00781163,0.0101411,0.0131644,0.0170883,0.022181,0.0287906,inf	168.122,168.122,511.058,686.729,447.179,339.763,360.72,395.87,408.703,397.813,386.593,391.696,403.536,408.102,400.818,394.082,393.987,395.977,398.354,402.169,405.305,405.819,404.512,401.165,396.204,396.125,405.832,413.666,413.666,203.192,203.192,203.192
0.00115609	-84611555.69	0,2.65023e-06,6.08986e-06,1.0554e-05,1.6348e-05,2.38677e-05,3.36273e-05,4.62939e-05,6.27335e-05,8.40699e-05,0.000111762,0.000147702,0.000194347,0.000254887,0.000333459,0.000435436,0.000567787,0.000739562,0.000962503,0.00125185,0.00162738,0.00211477,0.00274734,0.00356833,0.00463387,0.00601679,0.00781163,0.0101411,0.0131644,0.0170883,0.022181,0.0287906,inf	168.849,168.849,509.441,691.539,443.531,336.462,359.886,396.699,409.637,397.801,386.023,391.564,404.162,409.007,401.454,394.572,394.495,396.412,398.648,402.327,405.304,405.638,404.147,400.57,395.384,395.344,405.667,414.745,414.745,196.385,196.385,196.385
0.00117062	-84610883.41	0,2.65023e-06,6.08986e-06,1.0554e-05,1.6348e-05,2.38677e-05,3.36273e-05,4.62939e-05,6.27335e-05,8.40699e-05,0.000111762,0.000147702,0.000194347,0.000254887,0.000333459,0.000435436,0.000567787,0.000739562,0.000962503,0.00125185,0.00162738,0.00211477,0.00274734,0.00356833,0.00463387,0.00601679,0.00781163,0.0101411,0.0131644,0.0170883,0.022181,0.0287906,inf	169.754,169.754,507.752,696.127,439.948,333.365,359.18,397.589,410.587,397.802,385.478,391.447,404.778,409.874,402.044,395.022,394.963,396.809,398.914,402.469,405.302,405.474,403.813,400.013,394.603,394.594,405.523,415.943,415.943,189.711,189.711,189.711
0.00118417	-84610309.07	0,2.65023e-06,6.08986e-06,1.0554e-05,1.6348e-05,2.38677e-05,3.36273e-05,4.62939e-05,6.27335e-05,8.40699e-05,0.000111762,0.000147702,0.000194347,0.000254887,0.000333459,0.000435436,0.000567787,0.000739562,0.000962503,0.00125185,0.00162738,0.00211477,0.00274734,0.00356833,0.00463387,0.00601679,0.00781163,0.0101411,0.0131644,0.0170883,0.022181,0.0287906,inf	170.769,170.769,506.014,700.573,436.454,330.455,358.591,398.517,411.544,397.811,384.954,391.343,405.382,410.705,402.594,395.435,395.395,397.173,399.154,402.596,405.299,405.325,403.506,399.491,393.857,393.87,405.397,417.268,417.268,183.124,183.124,183.124
0.0011968	-84609818.18	0,2.65023e-06,6.08986e-06,1.0554e-05,1.6348e-05,2.38677e-05,3.36273e-05,4.62939e-05,6.27335e-05,8.40699e-05,0.000111762,0.000147702,0.000194347,0.000254887,0.000333459,0.000435436,0.000567787,0.000739562,0.000962503,0.00125185,0.00162738,0.00211477,0.00274734,0.00356833,0.00463387,0.00601679,0.00781163,0.0101411,0.0131644,0.0170883,0.022181,0.0287906,inf	171.838,171.838,504.25,704.879,433.007,327.711,358.101,399.47,412.498,397.823,384.445,391.247,405.974,411.504,403.107,395.814,395.793,397.505,399.37,402.709,405.295,405.191,403.227,399.003,393.145,393.171,405.287,418.726,418.726,176.583,176.583,176.583
