LogLikelihood = -175437.02588986459887

y0 0.81393793005354719838
y0_prime 0
y1 0.9916879351900144135
y1_prime 0
y2 0.97527167375265477745
y2_prime 0
y3 1.8833493814796020693
y3_prime 0
rho 0.0015159969323704260147
rho.alpha 0.49263117491312702345
r_ii 0.99988759981914054897
theta 0.0025928551145387259726
