0.000640317	-303067.40	0,9.09868e-05,0.000215485,0.000385839,0.000618935,0.000937885,0.00137431,0.00197147,0.00278858,0.00390665,0.00543651,0.00752985,0.0103942,0.0143135,0.0196764,0.0270145,inf	265.465,265.465,333.784,306.554,311.782,347.247,387.91,416.344,436.966,442.11,422.654,390.296,359.777,344.861,344.861,344.861
0.000664882	-303011.12	0,9.09868e-05,0.000215485,0.000385839,0.000618935,0.000937885,0.00137431,0.00197147,0.00278858,0.00390665,0.00543651,0.00752985,0.0103942,0.0143135,0.0196764,0.0270145,inf	228.054,228.054,340.716,275.915,275.78,325.287,384.043,424.016,457.93,470.186,435.459,377.588,328.243,305.119,305.119,305.119
0.000687985	-302988.58	0,9.09868e-05,0.000215485,0.000385839,0.000618935,0.000937885,0.00137431,0.00197147,0.00278858,0.00390665,0.00543651,0.00752985,0.0103942,0.0143135,0.0196764,0.0270145,inf	212.305,212.305,366.628,262.81,257.109,314.526,383.242,427.445,470.624,491.11,444.525,366.987,306.018,277.119,277.119,277.119
0.000709439	-302975.48	0,9.09868e-05,0.000215485,0.000385839,0.000618935,0.000937885,0.00137431,0.00197147,0.00278858,0.00390665,0.00543651,0.00752985,0.0103942,0.0143135,0.0196764,0.0270145,inf	202.122,202.122,395.981,255.182,245.688,308.743,383.571,428.175,477.93,506.983,451.164,358.595,290.421,256.533,256.533,256.533
0.000729459	-302966.48	0,9.09868e-05,0.000215485,0.000385839,0.000618935,0.000937885,0.00137431,0.00197147,0.00278858,0.00390665,0.00543651,0.00752985,0.0103942,0.0143135,0.0196764,0.0270145,inf	193.765,193.765,423.617,249.358,237.975,305.685,384.534,427.37,481.804,519.297,456.232,352.201,279.595,240.834,240.834,240.834
0.000748267	-302959.61	0,9.09868e-05,0.000215485,0.000385839,0.000618935,0.000937885,0.00137431,0.00197147,0.00278858,0.00390665,0.00543651,0.00752985,0.0103942,0.0143135,0.0196764,0.0270145,inf	186.491,186.491,447.981,244.139,232.441,304.316,385.935,425.736,483.484,529.05,460.237,347.47,272.234,228.457,228.457,228.457
0.000766039	-302953.99	0,9.09868e-05,0.000215485,0.000385839,0.000618935,0.000937885,0.00137431,0.00197147,0.00278858,0.00390665,0.00543651,0.00752985,0.0103942,0.0143135,0.0196764,0.0270145,inf	180.215,180.215,468.894,239.141,228.314,304.066,387.649,423.673,483.748,536.909,463.478,344.06,267.419,218.397,218.397,218.397
0.000782912	-302949.16	0,9.09868e-05,0.000215485,0.000385839,0.000618935,0.000937885,0.00137431,0.00197147,0.00278858,0.00390665,0.00543651,0.00752985,0.0103942,0.0143135,0.0196764,0.0270145,inf	174.918,174.918,486.682,234.261,225.154,304.578,389.579,421.408,483.092,543.333,466.136,341.67,264.499,209.983,209.983,209.983
0.000798988	-302944.88	0,9.09868e-05,0.000215485,0.000385839,0.000618935,0.000937885,0.00137431,0.00197147,0.00278858,0.00390665,0.00543651,0.00752985,0.0103942,0.0143135,0.0196764,0.0270145,inf	170.547,170.547,501.806,229.484,222.688,305.618,391.644,419.068,481.842,548.646,468.329,340.055,263.005,202.758,202.758,202.758
0.000814349	-302941.01	0,9.09868e-05,0.000215485,0.000385839,0.000618935,0.000937885,0.00137431,0.00197147,0.00278858,0.00390665,0.00543651,0.00752985,0.0103942,0.0143135,0.0196764,0.0270145,inf	167.002,167.002,514.72,224.823,220.731,307.022,393.782,416.725,480.212,553.085,470.136,339.022,262.599,196.402,196.402,196.402
0.000829058	-302937.46	0,9.09868e-05,0.000215485,0.000385839,0.000618935,0.000937885,0.00137431,0.00197147,0.00278858,0.00390665,0.00543651,0.00752985,0.0103942,0.0143135,0.0196764,0.0270145,inf	164.169,164.169,525.826,220.294,219.158,308.672,395.946,414.42,478.349,556.829,471.62,338.425,263.034,190.681,190.681,190.681
0.000843168	-302934.18	0,9.09868e-05,0.000215485,0.000385839,0.000618935,0.000937885,0.00137431,0.00197147,0.00278858,0.00390665,0.00543651,0.00752985,0.0103942,0.0143135,0.0196764,0.0270145,inf	161.931,161.931,535.456,215.91,217.88,310.485,398.1,412.178,476.353,560.012,472.829,338.15,264.126,185.422,185.422,185.422
0.000856722	-302931.14	0,9.09868e-05,0.000215485,0.000385839,0.000618935,0.000937885,0.00137431,0.00197147,0.00278858,0.00390665,0.00543651,0.00752985,0.0103942,0.0143135,0.0196764,0.0270145,inf	160.186,160.186,543.883,211.678,216.832,312.402,400.219,410.011,474.296,562.742,473.805,338.115,265.743,180.495,180.495,180.495
0.000869757	-302928.32	0,9.09868e-05,0.000215485,0.000385839,0.000618935,0.000937885,0.00137431,0.00197147,0.00278858,0.00390665,0.00543651,0.00752985,0.0103942,0.0143135,0.0196764,0.0270145,inf	158.841,158.841,551.325,207.603,215.964,314.378,402.284,407.924,472.224,565.099,474.58,338.257,267.787,175.792,175.792,175.792
0.000882303	-302925.70	0,9.09868e-05,0.000215485,0.000385839,0.000618935,0.000937885,0.00137431,0.00197147,0.00278858,0.00390665,0.00543651,0.00752985,0.0103942,0.0143135,0.0196764,0.0270145,inf	157.82,157.82,557.963,203.684,215.239,316.381,404.282,405.921,470.17,567.152,475.187,338.532,270.188,171.229,171.229,171.229
0.000894385	-302923.27	0,9.09868e-05,0.000215485,0.000385839,0.000618935,0.000937885,0.00137431,0.00197147,0.00278858,0.00390665,0.00543651,0.00752985,0.0103942,0.0143135,0.0196764,0.0270145,inf	157.061,157.061,563.931,199.919,214.631,318.388,406.205,404.001,468.158,568.951,475.651,338.909,272.898,166.727,166.727,166.727
0.000906028	-302921.00	0,9.09868e-05,0.000215485,0.000385839,0.000618935,0.000937885,0.00137431,0.00197147,0.00278858,0.00390665,0.00543651,0.00752985,0.0103942,0.0143135,0.0196764,0.0270145,inf	156.508,156.508,569.341,196.303,214.118,320.382,408.049,402.161,466.202,570.54,475.995,339.364,275.888,162.219,162.219,162.219
0.00091725	-302918.90	0,9.09868e-05,0.000215485,0.000385839,0.000618935,0.000937885,0.00137431,0.00197147,0.00278858,0.00390665,0.00543651,0.00752985,0.0103942,0.0143135,0.0196764,0.0270145,inf	156.12,156.12,574.285,192.831,213.682,322.352,409.81,400.399,464.311,571.951,476.238,339.884,279.145,157.634,157.634,157.634
0.000928068	-302916.96	0,9.09868e-05,0.000215485,0.000385839,0.000618935,0.000937885,0.00137431,0.00197147,0.00278858,0.00390665,0.00543651,0.00752985,0.0103942,0.0143135,0.0196764,0.0270145,inf	155.863,155.863,578.834,189.498,213.312,324.29,411.489,398.712,462.491,573.214,476.4,340.463,282.671,152.9,152.9,152.9
0.000938496	-302915.16	0,9.09868e-05,0.000215485,0.000385839,0.000618935,0.000937885,0.00137431,0.00197147,0.00278858,0.00390665,0.00543651,0.00752985,0.0103942,0.0143135,0.0196764,0.0270145,inf	155.711,155.711,583.044,186.297,212.996,326.189,413.085,397.096,460.745,574.35,476.496,341.099,286.485,147.934,147.934,147.934
