time_index	left_time_boundary	right_time_boundary	lambda
0	0	1.48836e-06	9303.99
1	1.48836e-06	3.4489e-06	9303.99
2	3.4489e-06	6.03142e-06	7339.3
3	6.03142e-06	9.43324e-06	5562.31
4	9.43324e-06	1.39143e-05	544.98
5	1.39143e-05	1.98169e-05	129.62
6	1.98169e-05	2.75922e-05	324.948
7	2.75922e-05	3.78341e-05	1030.67
8	3.78341e-05	5.13253e-05	293.058
9	5.13253e-05	6.90966e-05	181.773
10	6.90966e-05	9.25057e-05	195.502
11	9.25057e-05	0.000123341	320.311
12	0.000123341	0.00016396	311.426
13	0.00016396	0.000217464	243.55
14	0.000217464	0.000287943	234.9
15	0.000287943	0.00038078	300.508
16	0.00038078	0.000503071	280.461
17	0.000503071	0.000664158	251.497
18	0.000664158	0.000876349	254.163
19	0.000876349	0.00115586	280.725
20	0.00115586	0.00152404	338.2
21	0.00152404	0.00200903	400.408
22	0.00200903	0.00264788	440.93
23	0.00264788	0.0034894	468.31
24	0.0034894	0.0045979	519.18
25	0.0045979	0.00605806	529.186
26	0.00605806	0.00798147	471.694
27	0.00798147	0.0105151	437.91
28	0.0105151	0.0138524	437.91
29	0.0138524	0.0182486	70624.1
30	0.0182486	0.0240394	70624.1
31	0.0240394	inf	70624.1
