time_index	left_time_boundary	right_time_boundary	lambda
0	0	2.09501e-06	0.779791
1	2.09501e-06	5.73016e-06	0.779791
2	5.73016e-06	1.20377e-05	371.251
3	1.20377e-05	2.29821e-05	617.843
4	2.29821e-05	4.19722e-05	733.907
5	4.19722e-05	7.49229e-05	780.914
6	7.49229e-05	0.000132097	810.921
7	0.000132097	0.000231302	803.946
8	0.000231302	0.000403438	703.46
9	0.000403438	0.000702118	810.98
10	0.000702118	0.00122037	768.379
11	0.00122037	0.00211961	891.349
12	0.00211961	0.00367993	730.912
13	0.00367993	0.0063873	563.342
14	0.0063873	0.011085	563.342
15	0.011085	inf	563.342
