AIC = 2964570.7425083750859

y0 0.85928143775534093773
y0_prime 0
y1 0.98764486173057752794
y1_prime 0
y2 0.87617263508235554426
y2_prime 0
y3 1.6721678696783488505
y3_prime 0
rho 0.003316138576672005879
rho.alpha 1.2092722824888397781
r_ii 0.99970124839853014009
theta 0.0048413098977346784996
