AIC = 626643.4070212211227

y0 0.8390712908668308545
y0_prime 0
y1 1.2626734411027003002
y1_prime 0
y2 0.82498793811839066237
y2_prime 0
y3 1.8510255145254843612
y3_prime 0
rho 0.016527168017905217307
rho.alpha 0.5433658930121478825
r_ii 0.99998215992087313708
theta 0.0050691890807527117957
