0.000838016	-408361.36	0,0.000124457,0.000294753,0.000527771,0.000846614,0.00128289,0.00187986,0.00269669,0.00381438,0.00534373,0.00743636,0.0102997,0.0142177,0.0195788,0.0269144,0.0369519,inf	15.8138,15.8138,37.002,65.5254,111.118,191.641,353.484,549.754,509.139,448.254,410.636,386.907,373.835,375.125,375.125,375.125
0.000883496	-406486.17	0,0.000124457,0.000294753,0.000527771,0.000846614,0.00128289,0.00187986,0.00269669,0.00381438,0.00534373,0.00743636,0.0102997,0.0142177,0.0195788,0.0269144,0.0369519,inf	1.08713,1.08713,6.09212,18.9752,51.1289,128.822,325.261,734.683,710.915,612.395,543.101,497.517,475.417,499.576,499.576,499.576
0.000934741	-405839.59	0,0.000124457,0.000294753,0.000527771,0.000846614,0.00128289,0.00187986,0.00269669,0.00381438,0.00534373,0.00743636,0.0102997,0.0142177,0.0195788,0.0269144,0.0369519,inf	0.295938,0.295938,1.13364,6.1723,25.891,91.0042,285.787,858.587,884.493,781.177,697.198,639.023,621.729,756.218,756.218,756.218
0.000983503	-405550.24	0,0.000124457,0.000294753,0.000527771,0.000846614,0.00128289,0.00187986,0.00269669,0.00381438,0.00534373,0.00743636,0.0102997,0.0142177,0.0195788,0.0269144,0.0369519,inf	0.295938,0.295938,0.295938,2.19566,14.0766,67.1109,251.365,943.208,1032.77,957.906,889.241,844.136,886.696,1922.83,1922.83,1922.83
0.00102205	-405398.72	0,0.000124457,0.000294753,0.000527771,0.000846614,0.00128289,0.00187986,0.00269669,0.00381438,0.00534373,0.00743636,0.0102997,0.0142177,0.0195788,0.0269144,0.0369519,inf	0.295938,0.295938,0.295938,0.841647,8.1071,51.2906,223.807,999.989,1161.02,1150.86,1158.7,1224.54,1744.92,40696.6,40696.6,40696.6
