time_index	left_time_boundary	right_time_boundary	lambda
0	0	5.73599e-05	0.295938
1	5.73599e-05	0.000124457	0.295938
2	0.000124457	0.000202943	0.295938
3	0.000202943	0.000294753	0.295938
4	0.000294753	0.000402147	0.295938
5	0.000402147	0.000527771	0.295938
6	0.000527771	0.00067472	0.295938
7	0.00067472	0.000846614	0.295938
8	0.000846614	0.00104769	0.295938
9	0.00104769	0.00128289	0.295938
10	0.00128289	0.00155802	0.962621
11	0.00155802	0.00187986	10.1411
12	0.00187986	0.00225632	60.5976
13	0.00225632	0.00269669	229.392
14	0.00269669	0.00321182	672.579
15	0.00321182	0.00381438	1585.86
16	0.00381438	0.00451923	2301.49
17	0.00451923	0.00534373	3120.49
18	0.00534373	0.00630819	4863.92
19	0.00630819	0.00743636	166338
20	0.00743636	0.00875604	15278.4
21	0.00875604	0.0102997	49059.2
22	0.0102997	0.0121055	1991.23
23	0.0121055	0.0142177	3311.05
24	0.0142177	0.0166886	5633.64
25	0.0166886	0.0195788	5863.29
26	0.0195788	0.0229597	11616.2
27	0.0229597	0.0269144	15395.9
28	0.0269144	0.0315405	15395.9
29	0.0315405	0.0369519	10211.9
30	0.0369519	0.0432818	10211.9
31	0.0432818	inf	10211.9
