0.000345806	-7722491.73	0,8.9565e-07,2.07544e-06,3.62953e-06,5.67664e-06,8.3732e-06,1.19252e-05,1.66041e-05,2.27674e-05,3.0886e-05,4.15802e-05,5.56671e-05,7.42231e-05,9.8666e-05,0.000130863,0.000173275,0.000229142,0.000302733,0.00039967,0.00052736,0.00069556,0.000917121,0.00120897,0.00159341,0.00209982,0.00276688,0.00364556,0.004803,0.00632765,0.00833598,0.0109815,0.0144662,inf	475.973,475.973,585.804,551.385,519.264,535.806,599.764,685.114,747.155,763.599,764.754,763.607,762.116,763.192,761.518,759.331,760.108,763.895,768.574,773.62,777.527,780.323,786.365,795.304,806.457,813.111,814.609,833.529,833.529,981.174,981.174,981.174
0.000371464	-7721268.15	0,8.9565e-07,2.07544e-06,3.62953e-06,5.67664e-06,8.3732e-06,1.19252e-05,1.66041e-05,2.27674e-05,3.0886e-05,4.15802e-05,5.56671e-05,7.42231e-05,9.8666e-05,0.000130863,0.000173275,0.000229142,0.000302733,0.00039967,0.00052736,0.00069556,0.000917121,0.00120897,0.00159341,0.00209982,0.00276688,0.00364556,0.004803,0.00632765,0.00833598,0.0109815,0.0144662,inf	400.46,400.46,588.303,498.004,417.061,420.579,505.934,641.418,746.937,769.894,767.568,763.112,759.683,761.538,757.785,752.932,753.454,758.995,765.295,771.402,774.962,776.645,784.402,797.985,816.898,828.883,832.27,873.119,873.119,1291.06,1291.06,1291.06
0.000394724	-7720367.19	0,8.9565e-07,2.07544e-06,3.62953e-06,5.67664e-06,8.3732e-06,1.19252e-05,1.66041e-05,2.27674e-05,3.0886e-05,4.15802e-05,5.56671e-05,7.42231e-05,9.8666e-05,0.000130863,0.000173275,0.000229142,0.000302733,0.00039967,0.00052736,0.00069556,0.000917121,0.00120897,0.00159341,0.00209982,0.00276688,0.00364556,0.004803,0.00632765,0.00833598,0.0109815,0.0144662,inf	377.306,377.306,656.386,494.833,363.356,351.293,444.971,615.293,755.069,779.524,772.36,764.647,760.273,763.718,758.544,751.693,752.337,759.44,766.616,772.586,774.515,773.953,781.708,797.697,822.026,838.046,843.295,908.639,908.639,1955.23,1955.23,1955.23
0.000415842	-7719681.67	0,8.9565e-07,2.07544e-06,3.62953e-06,5.67664e-06,8.3732e-06,1.19252e-05,1.66041e-05,2.27674e-05,3.0886e-05,4.15802e-05,5.56671e-05,7.42231e-05,9.8666e-05,0.000130863,0.000173275,0.000229142,0.000302733,0.00039967,0.00052736,0.00069556,0.000917121,0.00120897,0.00159341,0.00209982,0.00276688,0.00364556,0.004803,0.00632765,0.00833598,0.0109815,0.0144662,inf	363.834,363.834,750.817,506.986,328.225,303.453,400.651,597.452,765.463,788.035,775.526,764.878,760.438,766.064,759.975,751.694,752.881,761.622,769.468,774.901,774.849,771.808,778.829,795.935,823.982,842.862,849.719,941.94,941.94,4695.96,4695.96,4695.96
0.000415842	-7719150.52	0,8.9565e-07,2.07544e-06,3.62953e-06,5.67664e-06,8.3732e-06,1.19252e-05,1.66041e-05,2.27674e-05,3.0886e-05,4.15802e-05,5.56671e-05,7.42231e-05,9.8666e-05,0.000130863,0.000173275,0.000229142,0.000302733,0.00039967,0.00052736,0.00069556,0.000917121,0.00120897,0.00159341,0.00209982,0.00276688,0.00364556,0.004803,0.00632765,0.00833598,0.0109815,0.0144662,inf	342.06,342.06,842.306,515.546,297.949,264.402,361.974,577.328,766.737,784.673,766.835,753.654,749.726,757.593,750.807,741.46,743.313,753.507,761.829,766.688,765.077,760.409,767.174,785.382,816.566,838.17,847.391,969.395,969.395,117092,117092,117092
0.000415842	-7719169.88	0,8.9565e-07,2.07544e-06,3.62953e-06,5.67664e-06,8.3732e-06,1.19252e-05,1.66041e-05,2.27674e-05,3.0886e-05,4.15802e-05,5.56671e-05,7.42231e-05,9.8666e-05,0.000130863,0.000173275,0.000229142,0.000302733,0.00039967,0.00052736,0.00069556,0.000917121,0.00120897,0.00159341,0.00209982,0.00276688,0.00364556,0.004803,0.00632765,0.00833598,0.0109815,0.0144662,inf	319.62,319.62,870.013,515.546,277.471,236.685,334.251,567.062,777.944,790.11,766.355,750.469,746.961,757.044,749.378,738.732,741.086,752.652,761.387,765.568,762.123,755.294,760.997,779,812.104,835.044,845.784,974.035,974.035,117092,117092,117092
0.000415842	-7719173.16	0,8.9565e-07,2.07544e-06,3.62953e-06,5.67664e-06,8.3732e-06,1.19252e-05,1.66041e-05,2.27674e-05,3.0886e-05,4.15802e-05,5.56671e-05,7.42231e-05,9.8666e-05,0.000130863,0.000173275,0.000229142,0.000302733,0.00039967,0.00052736,0.00069556,0.000917121,0.00120897,0.00159341,0.00209982,0.00276688,0.00364556,0.004803,0.00632765,0.00833598,0.0109815,0.0144662,inf	302.765,302.765,889.297,515.546,263.928,215.485,311.82,559.57,790.895,796.475,766.748,748.324,745.357,757.739,749.214,737.285,740.193,753.259,761.445,766.554,761.64,752.862,757.425,775.061,809.386,833.146,844.989,974.035,974.035,117093,117093,117093
0.000415842	-7719174.26	0,8.9565e-07,2.07544e-06,3.62953e-06,5.67664e-06,8.3732e-06,1.19252e-05,1.66041e-05,2.27674e-05,3.0886e-05,4.15802e-05,5.56671e-05,7.42231e-05,9.8666e-05,0.000130863,0.000173275,0.000229142,0.000302733,0.00039967,0.00052736,0.00069556,0.000917121,0.00120897,0.00159341,0.00209982,0.00276688,0.00364556,0.004803,0.00632765,0.00833598,0.0109815,0.0144662,inf	289.707,289.707,904.356,515.546,255.061,198.616,292.838,553.351,804.017,802.495,766.93,746.195,743.895,757.844,749.23,735.994,739.393,754.028,762.737,766.554,761.64,751.657,755.258,772.506,807.784,832.038,844.686,975.414,975.414,117093,117093,117093
0.000415842	-7719176.01	0,8.9565e-07,2.07544e-06,3.62953e-06,5.67664e-06,8.3732e-06,1.19252e-05,1.66041e-05,2.27674e-05,3.0886e-05,4.15802e-05,5.56671e-05,7.42231e-05,9.8666e-05,0.000130863,0.000173275,0.000229142,0.000302733,0.00039967,0.00052736,0.00069556,0.000917121,0.00120897,0.00159341,0.00209982,0.00276688,0.00364556,0.004803,0.00632765,0.00833598,0.0109815,0.0144662,inf	279.303,279.303,916.423,515.546,249.667,184.837,276.404,547.916,817.004,808.1,766.941,744.14,742.609,758.896,749.368,734.768,738.587,754.799,763.451,766.555,761.64,751.142,753.923,770.769,806.833,831.368,844.649,976.209,976.209,117093,117093,117093
0.000415842	-7719177.22	0,8.9565e-07,2.07544e-06,3.62953e-06,5.67664e-06,8.3732e-06,1.19252e-05,1.66041e-05,2.27674e-05,3.0886e-05,4.15802e-05,5.56671e-05,7.42231e-05,9.8666e-05,0.000130863,0.000173275,0.000229142,0.000302733,0.00039967,0.00052736,0.00069556,0.000917121,0.00120897,0.00159341,0.00209982,0.00276688,0.00364556,0.004803,0.00632765,0.00833598,0.0109815,0.0144662,inf	270.725,270.725,926.171,515.546,246.874,173.385,261.919,542.867,829.583,812.306,766.692,742.031,741.352,760.042,749.602,733.572,737.787,755.525,764.092,766.555,761.64,751.034,753.091,769.535,806.279,830.964,844.779,976.647,976.647,117093,117093,117093
0.000415842	-7719178.01	0,8.9565e-07,2.07544e-06,3.62953e-06,5.67664e-06,8.3732e-06,1.19252e-05,1.66041e-05,2.27674e-05,3.0886e-05,4.15802e-05,5.56671e-05,7.42231e-05,9.8666e-05,0.000130863,0.000173275,0.000229142,0.000302733,0.00039967,0.00052736,0.00069556,0.000917121,0.00120897,0.00159341,0.00209982,0.00276688,0.00364556,0.004803,0.00632765,0.00833598,0.0109815,0.0144662,inf	263.562,263.562,934.576,515.546,246.165,163.693,248.994,538.171,841.854,814.75,766.224,739.921,740.171,761.274,749.911,732.425,736.991,756.213,764.092,767.017,761.64,751.034,752.56,768.615,805.972,830.72,844.998,976.884,976.884,117093,117093,117093
0.000415842	-7719178.55	0,8.9565e-07,2.07544e-06,3.62953e-06,5.67664e-06,8.3732e-06,1.19252e-05,1.66041e-05,2.27674e-05,3.0886e-05,4.15802e-05,5.56671e-05,7.42231e-05,9.8666e-05,0.000130863,0.000173275,0.000229142,0.000302733,0.00039967,0.00052736,0.00069556,0.000917121,0.00120897,0.00159341,0.00209982,0.00276688,0.00364556,0.004803,0.00632765,0.00833598,0.0109815,0.0144662,inf	257.279,257.279,941.979,515.546,246.165,155.421,237.358,533.793,853.963,815.919,765.679,737.875,739.093,762.614,749.911,731.347,736.224,756.887,764.72,767.017,761.64,751.034,752.216,767.896,805.819,830.575,845.267,977.001,977.001,117093,117093,117093
0.000415842	-7719178.97	0,8.9565e-07,2.07544e-06,3.62953e-06,5.67664e-06,8.3732e-06,1.19252e-05,1.66041e-05,2.27674e-05,3.0886e-05,4.15802e-05,5.56671e-05,7.42231e-05,9.8666e-05,0.000130863,0.000173275,0.000229142,0.000302733,0.00039967,0.00052736,0.00069556,0.000917121,0.00120897,0.00159341,0.00209982,0.00276688,0.00364556,0.004803,0.00632765,0.00833598,0.0109815,0.0144662,inf	251.679,251.679,948.313,515.546,246.165,148.275,226.816,529.711,865.972,816.14,765.135,735.936,738.145,764.076,750.377,730.338,735.47,757.518,765.117,767.017,761.64,751.034,752,767.317,805.769,830.488,845.564,977.042,977.042,117093,117093,117093
0.000415842	-7719179.30	0,8.9565e-07,2.07544e-06,3.62953e-06,5.67664e-06,8.3732e-06,1.19252e-05,1.66041e-05,2.27674e-05,3.0886e-05,4.15802e-05,5.56671e-05,7.42231e-05,9.8666e-05,0.000130863,0.000173275,0.000229142,0.000302733,0.00039967,0.00052736,0.00069556,0.000917121,0.00120897,0.00159341,0.00209982,0.00276688,0.00364556,0.004803,0.00632765,0.00833598,0.0109815,0.0144662,inf	246.742,246.742,953.932,515.546,246.165,142.063,217.252,525.87,877.118,816.14,764.562,734.056,737.25,764.076,750.889,729.343,734.709,758.111,765.878,767.017,761.64,751.034,751.874,766.835,805.783,830.436,845.847,977.042,977.042,117093,117093,117093
0.000415842	-7719179.53	0,8.9565e-07,2.07544e-06,3.62953e-06,5.67664e-06,8.3732e-06,1.19252e-05,1.66041e-05,2.27674e-05,3.0886e-05,4.15802e-05,5.56671e-05,7.42231e-05,9.8666e-05,0.000130863,0.000173275,0.000229142,0.000302733,0.00039967,0.00052736,0.00069556,0.000917121,0.00120897,0.00159341,0.00209982,0.00276688,0.00364556,0.004803,0.00632765,0.00833598,0.0109815,0.0144662,inf	242.357,242.357,959.278,515.546,246.165,136.647,208.509,522.317,887.223,816.14,764.139,732.41,736.582,764.076,751.532,728.418,733.951,758.645,765.878,767.5,761.64,751.034,751.806,766.42,805.84,830.403,846.044,977.042,977.042,117093,117093,117093
0.000415842	-7719179.68	0,8.9565e-07,2.07544e-06,3.62953e-06,5.67664e-06,8.3732e-06,1.19252e-05,1.66041e-05,2.27674e-05,3.0886e-05,4.15802e-05,5.56671e-05,7.42231e-05,9.8666e-05,0.000130863,0.000173275,0.000229142,0.000302733,0.00039967,0.00052736,0.00069556,0.000917121,0.00120897,0.00159341,0.00209982,0.00276688,0.00364556,0.004803,0.00632765,0.00833598,0.0109815,0.0144662,inf	238.358,238.358,964.026,515.546,246.165,131.937,200.496,518.99,896.428,816.14,763.816,730.944,736.1,765.429,751.532,727.584,733.235,758.645,766.656,767.5,761.64,751.034,751.772,766.052,805.926,830.382,846.044,977.042,977.042,117093,117093,117093
0.000415842	-7719179.75	0,8.9565e-07,2.07544e-06,3.62953e-06,5.67664e-06,8.3732e-06,1.19252e-05,1.66041e-05,2.27674e-05,3.0886e-05,4.15802e-05,5.56671e-05,7.42231e-05,9.8666e-05,0.000130863,0.000173275,0.000229142,0.000302733,0.00039967,0.00052736,0.00069556,0.000917121,0.00120897,0.00159341,0.00209982,0.00276688,0.00364556,0.004803,0.00632765,0.00833598,0.0109815,0.0144662,inf	234.782,234.782,968.616,515.546,246.165,127.817,193.114,515.852,904.867,816.14,763.47,729.522,735.679,766.719,751.532,726.823,732.558,759.155,766.992,767.5,761.64,751.034,751.769,765.724,806.037,830.378,846.127,977.042,977.042,117093,117093,117093
0.000415842	-7719179.84	0,8.9565e-07,2.07544e-06,3.62953e-06,5.67664e-06,8.3732e-06,1.19252e-05,1.66041e-05,2.27674e-05,3.0886e-05,4.15802e-05,5.56671e-05,7.42231e-05,9.8666e-05,0.000130863,0.000173275,0.000229142,0.000302733,0.00039967,0.00052736,0.00069556,0.000917121,0.00120897,0.00159341,0.00209982,0.00276688,0.00364556,0.004803,0.00632765,0.00833598,0.0109815,0.0144662,inf	231.504,231.504,972.517,515.546,246.165,124.191,186.32,512.891,912.617,816.14,763.096,728.14,735.302,767.965,751.532,726.105,731.897,759.645,767.315,767.5,761.64,751.034,751.769,765.425,806.162,830.378,846.185,977.042,977.042,117093,117093,117093
0.000415842	-7719179.91	0,8.9565e-07,2.07544e-06,3.62953e-06,5.67664e-06,8.3732e-06,1.19252e-05,1.66041e-05,2.27674e-05,3.0886e-05,4.15802e-05,5.56671e-05,7.42231e-05,9.8666e-05,0.000130863,0.000173275,0.000229142,0.000302733,0.00039967,0.00052736,0.00069556,0.000917121,0.00120897,0.00159341,0.00209982,0.00276688,0.00364556,0.004803,0.00632765,0.00833598,0.0109815,0.0144662,inf	228.602,228.602,976.116,515.546,246.165,121.011,180.012,510.094,919.767,816.14,762.726,726.795,734.971,769.153,751.532,725.427,731.251,760.115,767.315,767.737,761.64,751.034,751.769,765.152,806.298,830.383,846.224,977.042,977.042,117093,117093,117093
0.000415842	-7719179.96	0,8.9565e-07,2.07544e-06,3.62953e-06,5.67664e-06,8.3732e-06,1.19252e-05,1.66041e-05,2.27674e-05,3.0886e-05,4.15802e-05,5.56671e-05,7.42231e-05,9.8666e-05,0.000130863,0.000173275,0.000229142,0.000302733,0.00039967,0.00052736,0.00069556,0.000917121,0.00120897,0.00159341,0.00209982,0.00276688,0.00364556,0.004803,0.00632765,0.00833598,0.0109815,0.0144662,inf	225.881,225.881,979.377,515.546,246.165,118.229,174.16,507.494,926.331,816.14,762.362,725.498,734.682,770.28,751.533,724.803,730.638,760.582,767.587,767.737,761.64,751.034,751.769,764.896,806.298,830.395,846.327,977.042,977.042,117093,117093,117093
