0.000349143	-7722374.64	0,2.07544e-06,5.67664e-06,1.19252e-05,2.27674e-05,4.15802e-05,7.42231e-05,0.000130863,0.000229142,0.00039967,0.00069556,0.00120897,0.00209982,0.00364556,0.00632765,0.0109815,inf	562.49,562.49,531.297,661.245,773.02,775.718,773.695,768.574,763.751,767.134,747.595,744.533,800.155,890.249,890.249,890.249
0.000377936	-7721164.41	0,2.07544e-06,5.67664e-06,1.19252e-05,2.27674e-05,4.15802e-05,7.42231e-05,0.000130863,0.000229142,0.00039967,0.00069556,0.00120897,0.00209982,0.00364556,0.00632765,0.0109815,inf	522.231,522.231,414.716,594.498,780.134,777.343,775.124,768.537,763.958,774.076,737.46,721.529,802.451,979.55,979.55,979.55
0.00040363	-7720355.73	0,2.07544e-06,5.67664e-06,1.19252e-05,2.27674e-05,4.15802e-05,7.42231e-05,0.000130863,0.000229142,0.00039967,0.00069556,0.00120897,0.00209982,0.00364556,0.00632765,0.0109815,inf	536.559,536.559,347.022,550.679,789.7,777.069,775.522,768.551,766.293,785.259,735.879,706.724,797.977,1058.48,1058.48,1058.48
0.000426498	-7719787.85	0,2.07544e-06,5.67664e-06,1.19252e-05,2.27674e-05,4.15802e-05,7.42231e-05,0.000130863,0.000229142,0.00039967,0.00069556,0.00120897,0.00209982,0.00364556,0.00632765,0.0109815,inf	568.389,568.389,301.863,520.269,800.406,775.588,775.05,767.407,767.629,795.841,737.237,696.397,789.521,1129.91,1129.91,1129.91
0.000446897	-7719382.51	0,2.07544e-06,5.67664e-06,1.19252e-05,2.27674e-05,4.15802e-05,7.42231e-05,0.000130863,0.000229142,0.00039967,0.00069556,0.00120897,0.00209982,0.00364556,0.00632765,0.0109815,inf	602.745,602.745,268.82,498.465,811.946,773.963,774.807,765.854,767.958,804.877,739.675,688.94,778.814,1196.09,1196.09,1196.09
0.000465155	-7719090.71	0,2.07544e-06,5.67664e-06,1.19252e-05,2.27674e-05,4.15802e-05,7.42231e-05,0.000130863,0.000229142,0.00039967,0.00069556,0.00120897,0.00209982,0.00364556,0.00632765,0.0109815,inf	633.742,633.742,243.171,482.377,823.778,772.492,775.256,764.426,767.642,812.352,742.475,683.49,766.897,1258.72,1258.72,1258.72
0.000481555	-7718880.56	0,2.07544e-06,5.67664e-06,1.19252e-05,2.27674e-05,4.15802e-05,7.42231e-05,0.000130863,0.000229142,0.00039967,0.00069556,0.00120897,0.00209982,0.00364556,0.00632765,0.0109815,inf	659.647,659.647,222.472,470.146,835.36,771.118,776.447,763.347,766.974,818.462,745.33,679.516,754.395,1319.2,1319.2,1319.2
0.000496333	-7718730.69	0,2.07544e-06,5.67664e-06,1.19252e-05,2.27674e-05,4.15802e-05,7.42231e-05,0.000130863,0.000229142,0.00039967,0.00069556,0.00120897,0.00209982,0.00364556,0.00632765,0.0109815,inf	680.839,680.839,205.403,460.667,846.318,769.701,778.267,762.673,766.142,823.426,748.098,676.657,741.68,1378.67,1378.67,1378.67
0.000509689	-7718626.44	0,2.07544e-06,5.67664e-06,1.19252e-05,2.27674e-05,4.15802e-05,7.42231e-05,0.000130863,0.000229142,0.00039967,0.00069556,0.00120897,0.00209982,0.00364556,0.00632765,0.0109815,inf	698.122,698.122,191.084,453.229,856.462,768.129,780.571,762.381,765.258,827.444,750.715,674.653,728.97,1438.16,1438.16,1438.16
0.000521791	-7718557.55	0,2.07544e-06,5.67664e-06,1.19252e-05,2.27674e-05,4.15802e-05,7.42231e-05,0.000130863,0.000229142,0.00039967,0.00069556,0.00120897,0.00209982,0.00364556,0.00632765,0.0109815,inf	712.302,712.302,178.904,447.35,865.745,766.328,783.212,762.417,764.391,830.684,753.155,673.311,716.39,1498.67,1498.67,1498.67
0.000532782	-7718516.76	0,2.07544e-06,5.67664e-06,1.19252e-05,2.27674e-05,4.15802e-05,7.42231e-05,0.000130863,0.000229142,0.00039967,0.00069556,0.00120897,0.00209982,0.00364556,0.00632765,0.0109815,inf	724.027,724.027,168.444,442.73,874.169,764.277,786.072,762.724,763.581,833.286,755.411,672.479,704.003,1561.24,1561.24,1561.24
0.000542785	-7718498.89	0,2.07544e-06,5.67664e-06,1.19252e-05,2.27674e-05,4.15802e-05,7.42231e-05,0.000130863,0.000229142,0.00039967,0.00069556,0.00120897,0.00209982,0.00364556,0.00632765,0.0109815,inf	733.883,733.883,159.376,439.16,881.812,761.974,789.057,763.243,762.848,835.365,757.485,672.04,691.835,1627.02,1627.02,1627.02
0.000551903	-7718500.29	0,2.07544e-06,5.67664e-06,1.19252e-05,2.27674e-05,4.15802e-05,7.42231e-05,0.000130863,0.000229142,0.00039967,0.00069556,0.00120897,0.00209982,0.00364556,0.00632765,0.0109815,inf	742.193,742.193,151.438,436.442,888.747,759.44,792.094,763.923,762.203,837.017,759.386,671.894,679.887,1697.41,1697.41,1697.41
0.000560228	-7718518.49	0,2.07544e-06,5.67664e-06,1.19252e-05,2.27674e-05,4.15802e-05,7.42231e-05,0.000130863,0.000229142,0.00039967,0.00069556,0.00120897,0.00209982,0.00364556,0.00632765,0.0109815,inf	749.304,749.304,144.437,434.466,895.086,756.702,795.126,764.718,761.649,838.318,761.124,671.96,668.14,1774.24,1774.24,1774.24
0.000567836	-7718551.95	0,2.07544e-06,5.67664e-06,1.19252e-05,2.27674e-05,4.15802e-05,7.42231e-05,0.000130863,0.000229142,0.00039967,0.00069556,0.00120897,0.00209982,0.00364556,0.00632765,0.0109815,inf	755.413,755.413,138.2,433.095,900.879,753.786,798.119,765.593,761.187,839.334,762.71,672.163,656.561,1859.95,1859.95,1859.95
0.000574795	-7718600.03	0,2.07544e-06,5.67664e-06,1.19252e-05,2.27674e-05,4.15802e-05,7.42231e-05,0.000130863,0.000229142,0.00039967,0.00069556,0.00120897,0.00209982,0.00364556,0.00632765,0.0109815,inf	760.725,760.725,132.598,432.236,906.222,750.732,801.043,766.518,760.814,840.118,764.156,672.435,645.105,1958.12,1958.12,1958.12
0.000581161	-7718662.91	0,2.07544e-06,5.67664e-06,1.19252e-05,2.27674e-05,4.15802e-05,7.42231e-05,0.000130863,0.000229142,0.00039967,0.00069556,0.00120897,0.00209982,0.00364556,0.00632765,0.0109815,inf	765.3,765.3,127.519,431.818,911.164,747.569,803.875,767.464,760.524,840.718,765.47,672.707,633.713,2074.26,2074.26,2074.26
0.000586983	-7718741.83	0,2.07544e-06,5.67664e-06,1.19252e-05,2.27674e-05,4.15802e-05,7.42231e-05,0.000130863,0.000229142,0.00039967,0.00069556,0.00120897,0.00209982,0.00364556,0.00632765,0.0109815,inf	769.32,769.32,122.895,431.771,915.772,744.327,806.603,768.413,760.314,841.171,766.659,672.901,622.31,2217.58,2217.58,2217.58
0.000592297	-7718839.42	0,2.07544e-06,5.67664e-06,1.19252e-05,2.27674e-05,4.15802e-05,7.42231e-05,0.000130863,0.000229142,0.00039967,0.00069556,0.00120897,0.00209982,0.00364556,0.00632765,0.0109815,inf	772.885,772.885,118.648,432.016,920.106,741.033,809.215,769.348,760.182,841.513,767.723,672.923,610.795,2404.97,2404.97,2404.97
0.000597127	-7718960.57	0,2.07544e-06,5.67664e-06,1.19252e-05,2.27674e-05,4.15802e-05,7.42231e-05,0.000130863,0.000229142,0.00039967,0.00069556,0.00120897,0.00209982,0.00364556,0.00632765,0.0109815,inf	776.009,776.009,114.727,432.497,924.198,737.705,811.706,770.253,760.124,841.773,768.652,672.642,599.029,2672,2672,2672
