time_index	left_time_boundary	right_time_boundary	lambda
0	0	5.7171e-05	0.644234
1	5.7171e-05	0.000135399	0.644234
2	0.000135399	0.000242439	0.644234
3	0.000242439	0.000388904	0.644234
4	0.000388904	0.000589315	3.67502
5	0.000589315	0.000863539	65.9378
6	0.000863539	0.00123876	405.253
7	0.00123876	0.00175219	2197.53
8	0.00175219	0.00245472	2469.2
9	0.00245472	0.003416	2584.64
10	0.003416	0.00473134	3144.63
11	0.00473134	0.00653113	2136.59
12	0.00653113	0.00899381	1755.88
13	0.00899381	0.0123635	2421.88
14	0.0123635	0.0169744	2421.88
15	0.0169744	inf	2421.88
