LogLikelihood = -665185.79359648469836

y0 0.18334238649314618663
y0_prime 0
y1 0.35894200014255212006
y1_prime 0
y2 1.8772330937994212707
y2_prime 0
y3 40.751490053558939053
y3_prime 0
rho 0.0008453804396046237131
rho.alpha 0.94311875504124975667
r_ii 0.99982176839085501463
theta 0.0018303716654298120715
