time_index	left_time_boundary	right_time_boundary	lambda
0	0	2.21913e-05	328.157
1	2.21913e-05	5.61425e-05	328.157
2	5.61425e-05	0.000108085	118.686
3	0.000108085	0.000187554	242.315
4	0.000187554	0.000309134	319.693
5	0.000309134	0.000495144	232.765
6	0.000495144	0.000779725	212.66
7	0.000779725	0.00121511	247.989
8	0.00121511	0.00188122	360.684
9	0.00188122	0.00290032	690.802
10	0.00290032	0.00445947	567.978
11	0.00445947	0.00684484	453.368
12	0.00684484	0.0104943	389.164
13	0.0104943	0.0160777	312.381
14	0.0160777	0.0246198	312.381
15	0.0246198	inf	312.381
