0.000658539	-13792506.91	0,4.10494e-06,1.12276e-05,2.35864e-05,4.50308e-05,8.22399e-05,0.000146803,0.000258829,0.000453211,0.000790491,0.00137572,0.00239118,0.00415314,0.00721041,0.0125152,0.0217198,inf	17.8987,17.8987,46.5626,97.7582,188.183,282.819,362.856,442.309,424.963,323.62,290.47,406.619,478.912,474.036,474.036,474.036
0.000693416	-13784953.14	0,4.10494e-06,1.12276e-05,2.35864e-05,4.50308e-05,8.22399e-05,0.000146803,0.000258829,0.000453211,0.000790491,0.00137572,0.00239118,0.00415314,0.00721041,0.0125152,0.0217198,inf	0.98455,0.98455,6.81419,30.9184,112.872,228.327,338.639,488.763,473.07,291.814,239.375,407.913,543.871,553.164,553.164,553.164
0.000726573	-13781343.11	0,4.10494e-06,1.12276e-05,2.35864e-05,4.50308e-05,8.22399e-05,0.000146803,0.000258829,0.000453211,0.000790491,0.00137572,0.00239118,0.00415314,0.00721041,0.0125152,0.0217198,inf	0.397973,0.397973,1.15859,11.7208,80.2285,198.362,314.416,520.243,520.044,273.988,209.092,405.04,595.057,638.786,638.786,638.786
0.000756991	-13779345.53	0,4.10494e-06,1.12276e-05,2.35864e-05,4.50308e-05,8.22399e-05,0.000146803,0.000258829,0.000453211,0.000790491,0.00137572,0.00239118,0.00415314,0.00721041,0.0125152,0.0217198,inf	0.397973,0.397973,0.397972,5.1056,64.9612,182.08,291.905,537.528,560.329,262.207,189.051,400.298,635.289,738.21,738.21,738.21
0.000784708	-13778159.96	0,4.10494e-06,1.12276e-05,2.35864e-05,4.50308e-05,8.22399e-05,0.000146803,0.000258829,0.000453211,0.000790491,0.00137572,0.00239118,0.00415314,0.00721041,0.0125152,0.0217198,inf	0.397972,0.397972,0.397972,2.46239,57.8319,174.218,272.772,545.229,593.659,253.702,174.941,394.9,666.892,866.077,866.077,866.077
0.000809963	-13777426.88	0,4.10494e-06,1.12276e-05,2.35864e-05,4.50308e-05,8.22399e-05,0.000146803,0.000258829,0.000453211,0.000790491,0.00137572,0.00239118,0.00415314,0.00721041,0.0125152,0.0217198,inf	0.397972,0.397972,0.397972,1.27461,54.9013,171.62,257.371,547.258,621.072,247.25,164.612,389.419,691.607,1059.18,1059.18,1059.18
0.000832952	-13776967.80	0,4.10494e-06,1.12276e-05,2.35864e-05,4.50308e-05,8.22399e-05,0.000146803,0.000258829,0.000453211,0.000790491,0.00137572,0.00239118,0.00415314,0.00721041,0.0125152,0.0217198,inf	0.397972,0.397972,0.397972,0.688211,54.2769,172.278,245.356,546.171,643.696,242.195,156.852,384.065,710.662,1458.86,1458.86,1458.86
0.000853742	-13776696.50	0,4.10494e-06,1.12276e-05,2.35864e-05,4.50308e-05,8.22399e-05,0.000146803,0.000258829,0.000453211,0.000790491,0.00137572,0.00239118,0.00415314,0.00721041,0.0125152,0.0217198,inf	0.397972,0.397972,0.397972,0.39798,54.9495,174.883,236.172,543.503,662.486,238.146,150.914,378.795,724.767,3266.78,3266.78,3266.78
0.000853742	-13776604.85	0,4.10494e-06,1.12276e-05,2.35864e-05,4.50308e-05,8.22399e-05,0.000146803,0.000258829,0.000453211,0.000790491,0.00137572,0.00239118,0.00415314,0.00721041,0.0125152,0.0217198,inf	0.397972,0.397972,0.397972,0.397973,56.057,177.65,228.101,536.708,672.553,234.083,146.314,371.094,731.486,49848.7,49848.7,49848.7
