LogLikelihood = -862614.6036999267526

y0 0.94327546042025123274
y0_prime 0
y1 1.0576098684250936355
y1_prime 0
y2 0.96463664680514304983
y2_prime 0
y3 1.6840526622158900061
y3_prime 0
rho 0.0014161288312460899776
rho.alpha 0.77429765300795527772
r_ii 0.99992650829352180963
theta 0.0025502446292810124033
