LogLikelihood = -1395115.8734103068709

y0 0.71308663780861958337
y0_prime 0
y1 0.82893016337693625761
y1_prime 0
y2 1.0262186155357548856
y2_prime 0
y3 1.2987421423533447307
y3_prime 0
rho 0.0079364379722065125228
theta 0.0044908515819513505213
