LogLikelihood = -43610.470746551844059

y0 0.50195644197346911408
y0_prime 0
y1 1.4229751222922633058
y1_prime 0
y2 0.76351807724277942491
y2_prime 0
y3 2.0578270422845399423
y3_prime 0
rho 0.00014081286653909279305
theta 0.00052252468949185620125
