time_index	left_time_boundary	right_time_boundary	lambda
0	0	8.36295e-06	0.472125
1	8.36295e-06	1.87071e-05	0.472125
2	1.87071e-05	3.15018e-05	0.472125
3	3.15018e-05	4.73275e-05	0.472125
4	4.73275e-05	6.69025e-05	0.472125
5	6.69025e-05	9.11147e-05	0.472125
6	9.11147e-05	0.000121063	0.472125
7	0.000121063	0.000158106	0.472125
8	0.000158106	0.000203924	0.472125
9	0.000203924	0.000260597	0.472125
10	0.000260597	0.000330696	3.04916
11	0.000330696	0.000417401	23.2378
12	0.000417401	0.000524647	83.9502
13	0.000524647	0.0006573	183.051
14	0.0006573	0.000821379	306.376
15	0.000821379	0.00102433	451.815
16	0.00102433	0.00127536	616.737
17	0.00127536	0.00158585	777.399
18	0.00158585	0.00196991	867.752
19	0.00196991	0.00244494	834.051
20	0.00244494	0.00303252	719.353
21	0.00303252	0.00375929	595.654
22	0.00375929	0.00465823	502.901
23	0.00465823	0.00577014	450.11
24	0.00577014	0.00714545	434.013
25	0.00714545	0.00884659	445.647
26	0.00884659	0.0109507	475.492
27	0.0109507	0.0135533	552.586
28	0.0135533	0.0167725	552.586
29	0.0167725	0.0207543	1397.91
30	0.0207543	0.0256794	1397.91
31	0.0256794	inf	1397.91
