0.000221816	-6745055.93	0,7.84023e-07,1.81678e-06,3.17717e-06,4.96914e-06,7.32962e-06,1.0439e-05,1.45347e-05,1.99299e-05,2.70366e-05,3.6398e-05,4.87292e-05,6.49725e-05,8.63689e-05,0.000114553,0.000151679,0.000200583,0.000265002,0.000349858,0.000461634,0.00060887,0.000802818,0.00105829,0.00139482,0.00183811,0.00242203,0.0031912,0.00420439,0.00553901,0.00729704,0.0096128,0.0126632,inf	55.7836,55.7836,769.557,844.638,38.2592,34.4305,38.3039,47.1934,62.368,85.3189,119.282,169.872,246.756,371.36,562.952,637.535,585.092,511.915,509.579,629.775,857.261,1070.8,1017.34,838.807,803.587,965.055,1081.16,1087.3,1087.3,1038.35,1038.35,1038.35
0.000173428	-6736165.90	0,7.84023e-07,1.81678e-06,3.17717e-06,4.96914e-06,7.32962e-06,1.0439e-05,1.45347e-05,1.99299e-05,2.70366e-05,3.6398e-05,4.87292e-05,6.49725e-05,8.63689e-05,0.000114553,0.000151679,0.000200583,0.000265002,0.000349858,0.000461634,0.00060887,0.000802818,0.00105829,0.00139482,0.00183811,0.00242203,0.0031912,0.00420439,0.00553901,0.00729704,0.0096128,0.0126632,inf	9.9617,9.9617,661.239,749.984,1.80549,1.40621,1.66274,2.4195,4.138,7.75071,15.4241,31.679,65.5136,143.055,358.094,503.08,434.563,322.989,293.779,445.649,810.829,1304.03,1205.5,773.606,693.308,1030.7,1327.14,1367,1367,1242.28,1242.28,1242.28
0.000130522	-6727974.82	0,7.84023e-07,1.81678e-06,3.17717e-06,4.96914e-06,7.32962e-06,1.0439e-05,1.45347e-05,1.99299e-05,2.70366e-05,3.6398e-05,4.87292e-05,6.49725e-05,8.63689e-05,0.000114553,0.000151679,0.000200583,0.000265002,0.000349858,0.000461634,0.00060887,0.000802818,0.00105829,0.00139482,0.00183811,0.00242203,0.0031912,0.00420439,0.00553901,0.00729704,0.0096128,0.0126632,inf	1.97529,1.97529,683.484,745.652,0.899207,0.899205,0.899205,0.899204,0.899205,0.899208,1.82656,5.60169,16.2418,48.0289,204.105,387.064,321.812,220.506,157.559,297.113,725.468,1556.61,1491.32,690.934,571.002,1098.43,1701.95,1868.58,1868.58,1610.18,1610.18,1610.18
9.33826e-05	-6720009.81	0,7.84023e-07,1.81678e-06,3.17717e-06,4.96914e-06,7.32962e-06,1.0439e-05,1.45347e-05,1.99299e-05,2.70366e-05,3.6398e-05,4.87292e-05,6.49725e-05,8.63689e-05,0.000114553,0.000151679,0.000200583,0.000265002,0.000349858,0.000461634,0.00060887,0.000802818,0.00105829,0.00139482,0.00183811,0.00242203,0.0031912,0.00420439,0.00553901,0.00729704,0.0096128,0.0126632,inf	1.14992,1.14992,694.643,771.316,0.899207,0.899204,0.899205,0.899204,0.899204,0.899205,0.899204,0.928543,3.79756,14.0433,93.8613,273.499,204.239,154.718,73.6386,180.462,606.141,1759.13,1956.77,587.437,445.663,1173.24,2430.67,3223.76,3223.76,2675.42,2675.42,2675.42
6.31056e-05	-6712454.69	0,7.84023e-07,1.81678e-06,3.17717e-06,4.96914e-06,7.32962e-06,1.0439e-05,1.45347e-05,1.99299e-05,2.70366e-05,3.6398e-05,4.87292e-05,6.49725e-05,8.63689e-05,0.000114553,0.000151679,0.000200583,0.000265002,0.000349858,0.000461634,0.00060887,0.000802818,0.00105829,0.00139482,0.00183811,0.00242203,0.0031912,0.00420439,0.00553901,0.00729704,0.0096128,0.0126632,inf	1.14992,1.14992,632.263,785.372,0.899207,0.899204,0.899205,0.899204,0.899204,0.899204,0.899204,0.899204,0.899205,3.09621,27.1408,160.755,101.853,86.8381,28.3306,97.8819,473.229,1828.39,2800.35,462.759,325.098,1264.1,4680.46,11140.9,11140.9,11604.2,11604.2,11604.2
4.0741e-05	-6705772.47	0,7.84023e-07,1.81678e-06,3.17717e-06,4.96914e-06,7.32962e-06,1.0439e-05,1.45347e-05,1.99299e-05,2.70366e-05,3.6398e-05,4.87292e-05,6.49725e-05,8.63689e-05,0.000114553,0.000151679,0.000200583,0.000265002,0.000349858,0.000461634,0.00060887,0.000802818,0.00105829,0.00139482,0.00183811,0.00242203,0.0031912,0.00420439,0.00553901,0.00729704,0.0096128,0.0126632,inf	1.14332,1.14332,2020.29,1.24972e+08,0.899207,0.899204,0.899204,0.899204,0.899204,0.899204,0.899204,0.899204,0.899204,0.899205,4.53142,78.2553,47.2748,36.4242,9.0231,47.0666,345.002,1729.97,4455.52,312.431,212.145,1395.55,19798.1,154828,154828,132.553,132.553,132.553
