0.000702217	-4672817.17	0,1.05598e-05,2.76671e-05,5.53815e-05,0.00010028,0.000173016,0.000290851,0.000481748,0.000791006,0.00129202,0.00210367,0.00341856,0.00554874,0.0089997,0.0145904,0.0236474,inf	179.822,179.822,296.197,315.111,312.528,313.018,321.514,335.7,364.242,407.703,434.967,425.508,410.296,415.087,415.087,415.087
0.000758142	-4671688.95	0,1.05598e-05,2.76671e-05,5.53815e-05,0.00010028,0.000173016,0.000290851,0.000481748,0.000791006,0.00129202,0.00210367,0.00341856,0.00554874,0.0089997,0.0145904,0.0236474,inf	115.548,115.548,285.264,310.257,299.097,294.011,301.117,314.124,349.912,412.639,455.809,442.295,418.634,431.026,431.026,431.026
0.000808128	-4671091.05	0,1.05598e-05,2.76671e-05,5.53815e-05,0.00010028,0.000173016,0.000290851,0.000481748,0.000791006,0.00129202,0.00210367,0.00341856,0.00554874,0.0089997,0.0145904,0.0236474,inf	84.0103,84.0103,288.172,317.087,299.693,290.803,296.155,304.784,341.606,413.793,465.869,450.187,421.43,442.225,442.225,442.225
0.000853733	-4670665.88	0,1.05598e-05,2.76671e-05,5.53815e-05,0.00010028,0.000173016,0.000290851,0.000481748,0.000791006,0.00129202,0.00210367,0.00341856,0.00554874,0.0089997,0.0145904,0.0236474,inf	65.4787,65.4787,291.585,322.945,302.253,292.026,296.839,300.724,336.601,413.813,470.758,453.54,421.383,450.483,450.483,450.483
0.000895954	-4670326.06	0,1.05598e-05,2.76671e-05,5.53815e-05,0.00010028,0.000173016,0.000290851,0.000481748,0.000791006,0.00129202,0.00210367,0.00341856,0.00554874,0.0089997,0.0145904,0.0236474,inf	53.9938,53.9938,293.698,325.837,303.886,294.168,299.657,299.162,333.536,413.595,473.088,454.553,419.897,456.841,456.841,456.841
0.000935415	-4670041.85	0,1.05598e-05,2.76671e-05,5.53815e-05,0.00010028,0.000173016,0.000290851,0.000481748,0.000791006,0.00129202,0.00210367,0.00341856,0.00554874,0.0089997,0.0145904,0.0236474,inf	46.7738,46.7738,295.104,326.379,304.272,296.156,303.214,298.835,331.654,413.417,474.106,454.347,417.705,461.914,461.914,461.914
0.000972522	-4669799.20	0,1.05598e-05,2.76671e-05,5.53815e-05,0.00010028,0.000173016,0.000290851,0.000481748,0.000791006,0.00129202,0.00210367,0.00341856,0.00554874,0.0089997,0.0145904,0.0236474,inf	42.2151,42.2151,296.47,325.517,303.734,297.739,306.931,299.12,330.513,413.346,474.432,453.512,415.194,466.076,466.076,466.076
0.00100756	-4669589.64	0,1.05598e-05,2.76671e-05,5.53815e-05,0.00010028,0.000173016,0.000290851,0.000481748,0.000791006,0.00129202,0.00210367,0.00341856,0.00554874,0.0089997,0.0145904,0.0236474,inf	39.3547,39.3547,298.163,323.964,302.646,298.927,310.565,299.697,329.846,413.377,474.381,452.361,412.57,469.566,469.566,469.566
0.00104074	-4669407.25	0,1.05598e-05,2.76671e-05,5.53815e-05,0.00010028,0.000173016,0.000290851,0.000481748,0.000791006,0.00129202,0.00210367,0.00341856,0.00554874,0.0089997,0.0145904,0.0236474,inf	37.5785,37.5785,300.27,322.16,301.299,299.802,314.025,300.395,329.486,413.488,474.123,451.067,409.946,472.541,472.541,472.541
0.00107223	-4669247.54	0,1.05598e-05,2.76671e-05,5.53815e-05,0.00010028,0.000173016,0.000290851,0.000481748,0.000791006,0.00129202,0.00210367,0.00341856,0.00554874,0.0089997,0.0145904,0.0236474,inf	36.4985,36.4985,302.754,320.341,299.888,300.449,317.283,301.121,329.328,413.655,473.752,449.725,407.38,475.113,475.113,475.113
0.00110216	-4669107.01	0,1.05598e-05,2.76671e-05,5.53815e-05,0.00010028,0.000173016,0.000290851,0.000481748,0.000791006,0.00129202,0.00210367,0.00341856,0.00554874,0.0089997,0.0145904,0.0236474,inf	35.8788,35.8788,305.505,318.62,298.527,300.94,320.341,301.827,329.303,413.86,473.322,448.39,404.902,477.36,477.36,477.36
0.00113064	-4668982.83	0,1.05598e-05,2.76671e-05,5.53815e-05,0.00010028,0.000173016,0.000290851,0.000481748,0.000791006,0.00129202,0.00210367,0.00341856,0.00554874,0.0089997,0.0145904,0.0236474,inf	35.5534,35.5534,308.41,317.044,297.282,301.326,323.211,302.487,329.367,414.088,472.862,447.089,402.526,479.34,479.34,479.34
0.00115779	-4668872.68	0,1.05598e-05,2.76671e-05,5.53815e-05,0.00010028,0.000173016,0.000290851,0.000481748,0.000791006,0.00129202,0.00210367,0.00341856,0.00554874,0.0089997,0.0145904,0.0236474,inf	35.4255,35.4255,311.379,315.627,296.183,301.648,325.909,303.09,329.491,414.328,472.391,445.838,400.257,481.099,481.099,481.099
0.00118367	-4668774.64	0,1.05598e-05,2.76671e-05,5.53815e-05,0.00010028,0.000173016,0.000290851,0.000481748,0.000791006,0.00129202,0.00210367,0.00341856,0.00554874,0.0089997,0.0145904,0.0236474,inf	35.4322,35.4322,314.322,314.362,295.242,301.929,328.452,303.631,329.656,414.574,471.921,444.645,398.095,482.671,482.671,482.671
0.00120838	-4668687.10	0,1.05598e-05,2.76671e-05,5.53815e-05,0.00010028,0.000173016,0.000290851,0.000481748,0.000791006,0.00129202,0.00210367,0.00341856,0.00554874,0.0089997,0.0145904,0.0236474,inf	35.5291,35.5291,317.193,313.237,294.457,302.187,330.855,304.109,329.846,414.82,471.458,443.513,396.036,484.086,484.086,484.086
0.00123199	-4668608.73	0,1.05598e-05,2.76671e-05,5.53815e-05,0.00010028,0.000173016,0.000290851,0.000481748,0.000791006,0.00129202,0.00210367,0.00341856,0.00554874,0.0089997,0.0145904,0.0236474,inf	35.6735,35.6735,319.949,312.235,293.82,302.434,333.131,304.527,330.054,415.064,471.006,442.442,394.076,485.365,485.365,485.365
0.00125455	-4668538.37	0,1.05598e-05,2.76671e-05,5.53815e-05,0.00010028,0.000173016,0.000290851,0.000481748,0.000791006,0.00129202,0.00210367,0.00341856,0.00554874,0.0089997,0.0145904,0.0236474,inf	35.8667,35.8667,322.574,311.344,293.319,302.676,335.293,304.888,330.273,415.302,470.568,441.431,392.209,486.528,486.528,486.528
0.00127613	-4668475.06	0,1.05598e-05,2.76671e-05,5.53815e-05,0.00010028,0.000173016,0.000290851,0.000481748,0.000791006,0.00129202,0.00210367,0.00341856,0.00554874,0.0089997,0.0145904,0.0236474,inf	36.0896,36.0896,325.054,310.549,292.942,302.918,337.351,305.194,330.499,415.533,470.144,440.477,390.43,487.591,487.591,487.591
0.00129678	-4668417.96	0,1.05598e-05,2.76671e-05,5.53815e-05,0.00010028,0.000173016,0.000290851,0.000481748,0.000791006,0.00129202,0.00210367,0.00341856,0.00554874,0.0089997,0.0145904,0.0236474,inf	36.3357,36.3357,327.386,309.837,292.673,303.16,339.314,305.452,330.728,415.758,469.736,439.578,388.734,488.566,488.566,488.566
0.00131655	-4668366.36	0,1.05598e-05,2.76671e-05,5.53815e-05,0.00010028,0.000173016,0.000290851,0.000481748,0.000791006,0.00129202,0.00210367,0.00341856,0.00554874,0.0089997,0.0145904,0.0236474,inf	36.6032,36.6032,329.57,309.196,292.502,303.405,341.189,305.663,330.958,415.974,469.343,438.73,387.116,489.464,489.464,489.464
