0.000691851	-1876683.61	0,1.0134e-05,2.26688e-05,3.81731e-05,5.73503e-05,8.10707e-05,0.000110411,0.000146701,0.000191589,0.00024711,0.000315785,0.000400729,0.000505797,0.000635755,0.0007965,0.000995326,0.00124125,0.00154544,0.0019217,0.00238708,0.00296272,0.00367473,0.00455541,0.00564473,0.00699211,0.00865868,0.0107201,0.0132698,0.0164236,0.0203245,0.0251495,0.0311176,inf	189.212,189.212,242.936,281.147,304.57,305.956,296.368,295.289,299.42,302.776,306.386,310.839,318.25,330.241,346.182,364.819,384.315,402.166,416.412,425.241,427.71,425.519,421.14,416.166,412.731,411.406,409.082,402.83,402.83,419.955,419.955,419.955
0.000739045	-1876241.35	0,1.0134e-05,2.26688e-05,3.81731e-05,5.73503e-05,8.10707e-05,0.000110411,0.000146701,0.000191589,0.00024711,0.000315785,0.000400729,0.000505797,0.000635755,0.0007965,0.000995326,0.00124125,0.00154544,0.0019217,0.00238708,0.00296272,0.00367473,0.00455541,0.00564473,0.00699211,0.00865868,0.0107201,0.0132698,0.0164236,0.0203245,0.0251495,0.0311176,inf	139.791,139.791,204.764,265.001,304.194,301.548,278.966,274.143,278.405,280.121,281.54,283.704,290.655,305.413,326.943,353.252,381.48,407.943,429.878,444.248,448.887,446.089,439.735,432.341,427.818,426.953,423.248,410.942,410.942,448.422,448.422,448.422
0.000782691	-1876004.53	0,1.0134e-05,2.26688e-05,3.81731e-05,5.73503e-05,8.10707e-05,0.000110411,0.000146701,0.000191589,0.00024711,0.000315785,0.000400729,0.000505797,0.000635755,0.0007965,0.000995326,0.00124125,0.00154544,0.0019217,0.00238708,0.00296272,0.00367473,0.00455541,0.00564473,0.00699211,0.00865868,0.0107201,0.0132698,0.0164236,0.0203245,0.0251495,0.0311176,inf	119.219,119.219,184.624,263.619,318.575,311.519,277.307,270.495,275.644,275.752,274.404,273.113,277.912,292.993,316.864,346.907,379.494,410.321,436.445,454.166,460.357,457.515,450.344,441.921,437.657,438.262,433.721,415.63,415.63,476.038,476.038,476.038
0.000823315	-1875837.45	0,1.0134e-05,2.26688e-05,3.81731e-05,5.73503e-05,8.10707e-05,0.000110411,0.000146701,0.000191589,0.00024711,0.000315785,0.000400729,0.000505797,0.000635755,0.0007965,0.000995326,0.00124125,0.00154544,0.0019217,0.00238708,0.00296272,0.00367473,0.00455541,0.00564473,0.00699211,0.00865868,0.0107201,0.0132698,0.0164236,0.0203245,0.0251495,0.0311176,inf	108.27,108.27,168.178,262.562,332.613,321.367,277.807,270.992,278.223,277.535,273.808,269.106,271.53,286.253,311.259,343.337,378.199,411.207,439.554,459.217,466.39,463.631,456.143,447.401,444.123,446.732,441.66,418.091,418.091,503.701,503.701,503.701
0.000861427	-1875704.23	0,1.0134e-05,2.26688e-05,3.81731e-05,5.73503e-05,8.10707e-05,0.000110411,0.000146701,0.000191589,0.00024711,0.000315785,0.000400729,0.000505797,0.000635755,0.0007965,0.000995326,0.00124125,0.00154544,0.0019217,0.00238708,0.00296272,0.00367473,0.00455541,0.00564473,0.00699211,0.00865868,0.0107201,0.0132698,0.0164236,0.0203245,0.0251495,0.0311176,inf	102.102,102.102,153.494,259.856,343.482,328.063,277.23,271.866,282.078,281.373,275.782,267.994,268.227,282.471,308.14,341.443,377.494,411.49,440.923,461.641,469.363,466.654,459.039,450.322,448.399,453.264,447.829,419.101,419.101,532.165,532.165,532.165
0.000897409	-1875592.11	0,1.0134e-05,2.26688e-05,3.81731e-05,5.73503e-05,8.10707e-05,0.000110411,0.000146701,0.000191589,0.00024711,0.000315785,0.000400729,0.000505797,0.000635755,0.0007965,0.000995326,0.00124125,0.00154544,0.0019217,0.00238708,0.00296272,0.00367473,0.00455541,0.00564473,0.00699211,0.00865868,0.0107201,0.0132698,0.0164236,0.0203245,0.0251495,0.0311176,inf	98.8317,98.8317,140.636,256.217,351.634,331.76,275.206,272.169,285.884,285.735,278.714,268.199,266.522,280.35,306.505,340.618,377.255,411.561,441.408,462.627,470.593,467.861,460.166,451.626,451.226,458.442,452.73,419.159,419.159,562.124,562.124,562.124
0.000931539	-1875495.28	0,1.0134e-05,2.26688e-05,3.81731e-05,5.73503e-05,8.10707e-05,0.000110411,0.000146701,0.000191589,0.00024711,0.000315785,0.000400729,0.000505797,0.000635755,0.0007965,0.000995326,0.00124125,0.00154544,0.0019217,0.00238708,0.00296272,0.00367473,0.00455541,0.00564473,0.00699211,0.00865868,0.0107201,0.0132698,0.0164236,0.0203245,0.0251495,0.0311176,inf	97.3867,97.3867,129.658,252.487,358.079,333.286,272.083,271.827,289.267,290.043,281.91,268.986,265.675,279.206,305.791,340.489,377.361,411.579,441.442,462.815,470.824,467.994,460.206,451.898,453.076,462.647,456.7,418.588,418.588,594.292,594.292,594.292
0.000964022	-1875410.51	0,1.0134e-05,2.26688e-05,3.81731e-05,5.73503e-05,8.10707e-05,0.000110411,0.000146701,0.000191589,0.00024711,0.000315785,0.000400729,0.000505797,0.000635755,0.0007965,0.000995326,0.00124125,0.00154544,0.0019217,0.00238708,0.00296272,0.00367473,0.00455541,0.00564473,0.00699211,0.00865868,0.0107201,0.0132698,0.0164236,0.0203245,0.0251495,0.0311176,inf	97.0574,97.0574,120.403,249.187,363.634,333.394,268.288,270.996,292.186,294.094,285.065,269.993,265.296,278.652,305.661,340.817,377.711,411.606,441.243,462.558,470.48,467.491,459.576,451.505,454.252,466.133,459.965,417.598,417.598,629.507,629.507,629.507
0.000995015	-1875335.66	0,1.0134e-05,2.26688e-05,3.81731e-05,5.73503e-05,8.10707e-05,0.000110411,0.000146701,0.000191589,0.00024711,0.000315785,0.000400729,0.000505797,0.000635755,0.0007965,0.000995326,0.00124125,0.00154544,0.0019217,0.00238708,0.00296272,0.00367473,0.00455541,0.00564473,0.00699211,0.00865868,0.0107201,0.0132698,0.0164236,0.0203245,0.0251495,0.0311176,inf	97.4089,97.4089,112.597,246.539,368.825,332.641,264.156,269.86,294.707,297.84,288.049,271.042,265.168,278.46,305.907,341.443,378.226,411.656,440.928,462.055,469.81,466.618,458.534,450.682,454.956,469.074,462.684,416.332,416.332,668.809,668.809,668.809
0.00102464	-1875269.18	0,1.0134e-05,2.26688e-05,3.81731e-05,5.73503e-05,8.10707e-05,0.000110411,0.000146701,0.000191589,0.00024711,0.000315785,0.000400729,0.000505797,0.000635755,0.0007965,0.000995326,0.00124125,0.00154544,0.0019217,0.00238708,0.00296272,0.00367473,0.00455541,0.00564473,0.00699211,0.00865868,0.0107201,0.0132698,0.0164236,0.0203245,0.0251495,0.0311176,inf	98.1262,98.1262,105.977,244.587,373.929,331.379,259.917,268.568,296.921,301.294,290.817,272.044,265.168,278.492,306.395,342.261,378.847,411.731,440.557,461.422,468.962,465.536,457.245,449.582,455.325,471.594,464.972,414.885,414.885,713.615,713.615,713.615
0.00105301	-1875209.87	0,1.0134e-05,2.26688e-05,3.81731e-05,5.73503e-05,8.10707e-05,0.000110411,0.000146701,0.000191589,0.00024711,0.000315785,0.000400729,0.000505797,0.000635755,0.0007965,0.000995326,0.00124125,0.00154544,0.0019217,0.00238708,0.00296272,0.00367473,0.00455541,0.00564473,0.00699211,0.00865868,0.0107201,0.0132698,0.0164236,0.0203245,0.0251495,0.0311176,inf	99.0062,99.0062,100.291,243.26,379.083,329.826,255.714,267.232,298.907,304.487,293.362,272.959,265.226,278.66,307.038,343.2,379.532,411.822,440.161,460.724,468.026,464.344,455.814,448.307,455.451,473.779,466.91,413.323,413.323,766.013,766.013,766.013
0.0010802	-1875156.75	0,1.0134e-05,2.26688e-05,3.81731e-05,5.73503e-05,8.10707e-05,0.000110411,0.000146701,0.000191589,0.00024711,0.000315785,0.000400729,0.000505797,0.000635755,0.0007965,0.000995326,0.00124125,0.00154544,0.0019217,0.00238708,0.00296272,0.00367473,0.00455541,0.00564473,0.00699211,0.00865868,0.0107201,0.0132698,0.0164236,0.0203245,0.0251495,0.0311176,inf	99.9333,99.9333,95.3479,242.474,384.322,328.106,251.637,265.928,300.733,307.462,295.695,273.772,265.304,278.912,307.78,344.212,380.252,411.924,439.757,460.002,467.057,463.107,454.309,446.925,455.4,475.694,468.561,411.694,411.694,829.306,829.306,829.306
0.00110629	-1875109.03	0,1.0134e-05,2.26688e-05,3.81731e-05,5.73503e-05,8.10707e-05,0.000110411,0.000146701,0.000191589,0.00024711,0.000315785,0.000400729,0.000505797,0.000635755,0.0007965,0.000995326,0.00124125,0.00154544,0.0019217,0.00238708,0.00296272,0.00367473,0.00455541,0.00564473,0.00699211,0.00865868,0.0107201,0.0132698,0.0164236,0.0203245,0.0251495,0.0311176,inf	100.837,100.837,90.9907,242.134,389.633,326.293,247.731,264.703,302.45,310.248,297.833,274.48,265.376,279.212,308.583,345.262,380.984,412.029,439.353,459.277,466.087,461.863,452.774,445.482,455.218,477.388,469.97,410.029,410.029,909.24,909.24,909.24
0.00113134	-1875066.04	0,1.0134e-05,2.26688e-05,3.81731e-05,5.73503e-05,8.10707e-05,0.000110411,0.000146701,0.000191589,0.00024711,0.000315785,0.000400729,0.000505797,0.000635755,0.0007965,0.000995326,0.00124125,0.00154544,0.0019217,0.00238708,0.00296272,0.00367473,0.00455541,0.00564473,0.00699211,0.00865868,0.0107201,0.0132698,0.0164236,0.0203245,0.0251495,0.0311176,inf	101.671,101.671,87.1039,242.156,394.997,324.428,244.018,263.585,304.098,312.879,299.794,275.087,265.433,279.538,309.419,346.33,381.714,412.132,438.955,458.564,465.136,460.636,451.239,444.009,454.939,478.897,471.172,408.355,408.355,1017.3,1017.3,1017.3
0.00115542	-1875027.20	0,1.0134e-05,2.26688e-05,3.81731e-05,5.73503e-05,8.10707e-05,0.000110411,0.000146701,0.000191589,0.00024711,0.000315785,0.000400729,0.000505797,0.000635755,0.0007965,0.000995326,0.00124125,0.00154544,0.0019217,0.00238708,0.00296272,0.00367473,0.00455541,0.00564473,0.00699211,0.00865868,0.0107201,0.0132698,0.0164236,0.0203245,0.0251495,0.0311176,inf	102.439,102.439,83.5974,242.461,400.363,322.53,240.504,262.588,305.703,315.378,301.599,275.599,265.467,279.876,310.274,347.399,382.434,412.23,438.564,457.87,464.216,459.441,449.721,442.529,454.588,480.248,472.196,406.691,406.691,1181.92,1181.92,1181.92
0.00117857	-1874992.05	0,1.0134e-05,2.26688e-05,3.81731e-05,5.73503e-05,8.10707e-05,0.000110411,0.000146701,0.000191589,0.00024711,0.000315785,0.000400729,0.000505797,0.000635755,0.0007965,0.000995326,0.00124125,0.00154544,0.0019217,0.00238708,0.00296272,0.00367473,0.00455541,0.00564473,0.00699211,0.00865868,0.0107201,0.0132698,0.0164236,0.0203245,0.0251495,0.0311176,inf	103.147,103.147,80.4006,242.98,405.712,320.609,237.189,261.72,307.284,317.765,303.263,276.026,265.477,280.218,311.134,348.458,383.135,412.319,438.18,457.201,463.335,458.288,448.234,441.054,454.181,481.464,473.058,405.052,405.052,1509.63,1509.63,1509.63
0.00120085	-1874960.19	0,1.0134e-05,2.26688e-05,3.81731e-05,5.73503e-05,8.10707e-05,0.000110411,0.000146701,0.000191589,0.00024711,0.000315785,0.000400729,0.000505797,0.000635755,0.0007965,0.000995326,0.00124125,0.00154544,0.0019217,0.00238708,0.00296272,0.00367473,0.00455541,0.00564473,0.00699211,0.00865868,0.0107201,0.0132698,0.0164236,0.0203245,0.0251495,0.0311176,inf	103.77,103.77,77.4649,243.669,411.002,318.676,234.063,260.98,308.851,320.054,304.799,276.372,265.462,280.557,311.991,349.503,383.814,412.397,437.805,456.557,462.494,457.18,446.783,439.596,453.731,482.555,473.769,403.457,403.457,2945.45,2945.45,2945.45
0.00120085	-1874931.34	0,1.0134e-05,2.26688e-05,3.81731e-05,5.73503e-05,8.10707e-05,0.000110411,0.000146701,0.000191589,0.00024711,0.000315785,0.000400729,0.000505797,0.000635755,0.0007965,0.000995326,0.00124125,0.00154544,0.0019217,0.00238708,0.00296272,0.00367473,0.00455541,0.00564473,0.00699211,0.00865868,0.0107201,0.0132698,0.0164236,0.0203245,0.0251495,0.0311176,inf	103.692,103.692,74.2986,243.004,413.623,314.779,229.717,258.79,308.531,320.31,304.4,275.046,263.922,279.326,311.113,348.603,382.395,410.318,435.283,453.864,459.812,454.486,443.977,436.958,452.139,482.471,473.399,401.266,401.266,66620.5,66620.5,66620.5
0.00120085	-1874926.89	0,1.0134e-05,2.26688e-05,3.81731e-05,5.73503e-05,8.10707e-05,0.000110411,0.000146701,0.000191589,0.00024711,0.000315785,0.000400729,0.000505797,0.000635755,0.0007965,0.000995326,0.00124125,0.00154544,0.0019217,0.00238708,0.00296272,0.00367473,0.00455541,0.00564473,0.00699211,0.00865868,0.0107201,0.0132698,0.0164236,0.0203245,0.0251495,0.0311176,inf	104.064,104.064,71.657,243.371,415.35,312.229,226.332,257.509,309.175,321.527,304.92,274.568,263.205,278.961,311.188,348.757,382.112,409.428,433.974,452.362,458.232,452.699,441.934,434.925,451.028,482.757,473.29,399.398,399.398,66622.8,66622.8,66622.8
0.00120085	-1874924.44	0,1.0134e-05,2.26688e-05,3.81731e-05,5.73503e-05,8.10707e-05,0.000110411,0.000146701,0.000191589,0.00024711,0.000315785,0.000400729,0.000505797,0.000635755,0.0007965,0.000995326,0.00124125,0.00154544,0.0019217,0.00238708,0.00296272,0.00367473,0.00455541,0.00564473,0.00699211,0.00865868,0.0107201,0.0132698,0.0164236,0.0203245,0.0251495,0.0311176,inf	104.298,104.298,69.3136,244.26,416.164,310.271,223.311,256.426,309.946,322.866,305.568,274.242,262.673,278.824,311.552,349.077,382.113,409.071,433.268,451.496,457.26,451.517,440.402,433.322,450.246,483.32,473.415,397.698,397.698,66624.5,66624.5,66624.5
