0.000700278	-8712481.65	0,6.23715e-06,1.67434e-05,3.44406e-05,6.42508e-05,0.000114465,0.000199048,0.000341525,0.00058152,0.000985782,0.00166674,0.00281379,0.00474594,0.00800057,0.0134828,0.0227175,inf	193.481,193.481,248.942,313.85,324.367,315.234,312.63,323.213,342.38,384.334,426.24,425.287,404.414,417.955,417.955,417.955
0.000755782	-8710431.26	0,6.23715e-06,1.67434e-05,3.44406e-05,6.42508e-05,0.000114465,0.000199048,0.000341525,0.00058152,0.000985782,0.00166674,0.00281379,0.00474594,0.00800057,0.0134828,0.0227175,inf	146.071,146.071,207.633,308.81,323.327,302.305,292.157,301.82,321.531,379.419,442.854,441.232,407.132,436.302,436.302,436.302
0.000805718	-8709298.60	0,6.23715e-06,1.67434e-05,3.44406e-05,6.42508e-05,0.000114465,0.000199048,0.000341525,0.00058152,0.000985782,0.00166674,0.00281379,0.00474594,0.00800057,0.0134828,0.0227175,inf	128.525,128.525,185.287,313.585,332.659,303.157,287.701,295.333,311.08,376.066,451.356,448.7,405.32,449.557,449.557,449.557
0.000851475	-8708482.12	0,6.23715e-06,1.67434e-05,3.44406e-05,6.42508e-05,0.000114465,0.000199048,0.000341525,0.00058152,0.000985782,0.00166674,0.00281379,0.00474594,0.00800057,0.0134828,0.0227175,inf	121.604,121.604,168.696,316.834,340.603,306.136,288.215,294.583,305.349,373.864,456.082,452.071,401.58,459.37,459.37,459.37
0.000893953	-8707830.45	0,6.23715e-06,1.67434e-05,3.44406e-05,6.42508e-05,0.000114465,0.000199048,0.000341525,0.00058152,0.000985782,0.00166674,0.00281379,0.00474594,0.00800057,0.0134828,0.0227175,inf	120.073,120.073,155.385,317.745,345.373,308.353,290.184,296.231,302.03,372.475,458.957,453.435,397.136,466.764,466.764,466.764
0.000933714	-8707288.27	0,6.23715e-06,1.67434e-05,3.44406e-05,6.42508e-05,0.000114465,0.000199048,0.000341525,0.00058152,0.000985782,0.00166674,0.00281379,0.00474594,0.00800057,0.0134828,0.0227175,inf	121.629,121.629,144.613,317.457,347.617,309.374,292.417,298.89,300.038,371.639,460.859,453.805,392.559,472.391,472.391,472.391
0.000971134	-8706827.86	0,6.23715e-06,1.67434e-05,3.44406e-05,6.42508e-05,0.000114465,0.000199048,0.000341525,0.00058152,0.000985782,0.00166674,0.00281379,0.00474594,0.00800057,0.0134828,0.0227175,inf	124.848,124.848,135.869,316.964,348.275,309.411,294.531,301.939,298.813,371.169,462.205,453.683,388.108,476.69,476.69,476.69
0.00100648	-8706432.05	0,6.23715e-06,1.67434e-05,3.44406e-05,6.42508e-05,0.000114465,0.000199048,0.000341525,0.00058152,0.000985782,0.00166674,0.00281379,0.00474594,0.00800057,0.0134828,0.0227175,inf	128.788,128.788,128.709,316.815,348.073,308.775,296.431,305.082,298.045,370.938,463.207,453.325,383.895,479.969,479.969,479.969
0.00103994	-8706088.81	0,6.23715e-06,1.67434e-05,3.44406e-05,6.42508e-05,0.000114465,0.000199048,0.000341525,0.00058152,0.000985782,0.00166674,0.00281379,0.00474594,0.00800057,0.0134828,0.0227175,inf	132.818,132.818,122.772,317.228,347.469,307.722,298.117,308.181,297.559,370.862,463.979,452.862,379.959,482.45,482.45,482.45
0.00107168	-8705789.18	0,6.23715e-06,1.67434e-05,3.44406e-05,6.42508e-05,0.000114465,0.000199048,0.000341525,0.00058152,0.000985782,0.00166674,0.00281379,0.00474594,0.00800057,0.0134828,0.0227175,inf	136.58,136.58,117.782,318.223,346.721,306.44,299.622,311.17,297.248,370.888,464.586,452.366,376.305,484.3,484.3,484.3
0.00110184	-8705526.14	0,6.23715e-06,1.67434e-05,3.44406e-05,6.42508e-05,0.000114465,0.000199048,0.000341525,0.00058152,0.000985782,0.00166674,0.00281379,0.00474594,0.00800057,0.0134828,0.0227175,inf	139.898,139.898,113.538,319.734,345.969,305.051,300.983,314.02,297.047,370.978,465.069,451.872,372.924,485.648,485.648,485.648
0.00113053	-8705294.15	0,6.23715e-06,1.67434e-05,3.44406e-05,6.42508e-05,0.000114465,0.000199048,0.000341525,0.00058152,0.000985782,0.00166674,0.00281379,0.00474594,0.00800057,0.0134828,0.0227175,inf	142.71,142.71,109.889,321.661,345.278,303.636,302.231,316.72,296.916,371.111,465.455,451.398,369.798,486.593,486.593,486.593
0.00115784	-8705088.69	0,6.23715e-06,1.67434e-05,3.44406e-05,6.42508e-05,0.000114465,0.000199048,0.000341525,0.00058152,0.000985782,0.00166674,0.00281379,0.00474594,0.00800057,0.0134828,0.0227175,inf	145.052,145.052,106.724,323.899,344.672,302.246,303.394,319.272,296.83,371.27,465.762,450.955,366.907,487.215,487.215,487.215
0.00118387	-8704906.05	0,6.23715e-06,1.67434e-05,3.44406e-05,6.42508e-05,0.000114465,0.000199048,0.000341525,0.00058152,0.000985782,0.00166674,0.00281379,0.00474594,0.00800057,0.0134828,0.0227175,inf	146.977,146.977,103.957,326.347,344.152,300.909,304.489,321.68,296.771,371.446,466.005,450.545,364.231,487.574,487.574,487.574
0.0012087	-8704743.17	0,6.23715e-06,1.67434e-05,3.44406e-05,6.42508e-05,0.000114465,0.000199048,0.000341525,0.00058152,0.000985782,0.00166674,0.00281379,0.00474594,0.00800057,0.0134828,0.0227175,inf	148.527,148.527,101.529,328.935,343.717,299.644,305.532,323.951,296.728,371.633,466.194,450.169,361.751,487.722,487.722,487.722
0.0012324	-8704597.45	0,6.23715e-06,1.67434e-05,3.44406e-05,6.42508e-05,0.000114465,0.000199048,0.000341525,0.00058152,0.000985782,0.00166674,0.00281379,0.00474594,0.00800057,0.0134828,0.0227175,inf	149.786,149.786,99.3858,331.584,343.354,298.457,306.534,326.092,296.695,371.824,466.337,449.825,359.449,487.701,487.701,487.701
0.00125503	-8704466.75	0,6.23715e-06,1.67434e-05,3.44406e-05,6.42508e-05,0.000114465,0.000199048,0.000341525,0.00058152,0.000985782,0.00166674,0.00281379,0.00474594,0.00800057,0.0134828,0.0227175,inf	150.798,150.798,97.4831,334.259,343.055,297.354,307.504,328.111,296.666,372.02,466.442,449.512,357.31,487.542,487.542,487.542
0.00127665	-8704349.21	0,6.23715e-06,1.67434e-05,3.44406e-05,6.42508e-05,0.000114465,0.000199048,0.000341525,0.00058152,0.000985782,0.00166674,0.00281379,0.00474594,0.00800057,0.0134828,0.0227175,inf	151.619,151.619,95.7929,336.912,342.807,296.33,308.446,330.016,296.637,372.217,466.514,449.228,355.319,487.274,487.274,487.274
0.00129733	-8704243.26	0,6.23715e-06,1.67434e-05,3.44406e-05,6.42508e-05,0.000114465,0.000199048,0.000341525,0.00058152,0.000985782,0.00166674,0.00281379,0.00474594,0.00800057,0.0134828,0.0227175,inf	152.285,152.285,94.2977,339.513,342.603,295.386,309.365,331.815,296.608,372.414,466.556,448.969,353.463,486.917,486.917,486.917
0.00131711	-8704147.55	0,6.23715e-06,1.67434e-05,3.44406e-05,6.42508e-05,0.000114465,0.000199048,0.000341525,0.00058152,0.000985782,0.00166674,0.00281379,0.00474594,0.00800057,0.0134828,0.0227175,inf	152.83,152.83,92.9642,342.047,342.435,294.517,310.263,333.513,296.576,372.611,466.574,448.735,351.73,486.492,486.492,486.492
