0.000697856	-3126695.59	0,4.24035e-05,9.2005e-05,0.000150026,0.000217897,0.000297288,0.000390157,0.000498789,0.000625862,0.000774506,0.000948382,0.00115177,0.00138969,0.00166799,0.00199354,0.00237434,0.00281979,0.00334086,0.00395037,0.00466335,0.00549735,0.00647293,0.00761412,0.00894902,0.0105105,0.0123371,0.0144737,0.016973,0.0198966,0.0233164,0.0273168,0.0319962,inf	211.612,211.612,182.379,184.777,193.51,206.344,222.986,243.731,269.425,301.028,338.974,382.626,429.338,473.115,505.88,522.133,522.388,511.735,495.996,479.399,464.067,450.544,438.592,427.687,417.379,407.407,397.777,387.12,387.12,378.02,378.02,378.02
0.00077587	-3122752.43	0,4.24035e-05,9.2005e-05,0.000150026,0.000217897,0.000297288,0.000390157,0.000498789,0.000625862,0.000774506,0.000948382,0.00115177,0.00138969,0.00166799,0.00199354,0.00237434,0.00281979,0.00334086,0.00395037,0.00466335,0.00549735,0.00647293,0.00761412,0.00894902,0.0105105,0.0123371,0.0144737,0.016973,0.0198966,0.0233164,0.0273168,0.0319962,inf	200.865,200.865,139.056,133.58,137.758,148.253,164.535,187.041,217.16,256.593,306.485,366.814,435.176,504.171,561.333,595.11,602.392,589.152,564.73,537.007,510.41,486.353,464.584,444.198,424.495,405.239,386.806,367.195,367.195,352.678,352.678,352.678
0.000851975	-3120948.91	0,4.24035e-05,9.2005e-05,0.000150026,0.000217897,0.000297288,0.000390157,0.000498789,0.000625862,0.000774506,0.000948382,0.00115177,0.00138969,0.00166799,0.00199354,0.00237434,0.00281979,0.00334086,0.00395037,0.00466335,0.00549735,0.00647293,0.00761412,0.00894902,0.0105105,0.0123371,0.0144737,0.016973,0.0198966,0.0233164,0.0273168,0.0319962,inf	220.217,220.217,129.844,117.919,117.681,125.044,139.204,160.672,191.193,232.931,287.441,355.123,434.092,517.002,589.767,637.174,652.518,640.647,612.245,577.601,543.08,511.009,481.236,452.617,424.43,396.766,370.651,343.995,343.995,326.731,326.731,326.731
0.000925571	-3119850.50	0,4.24035e-05,9.2005e-05,0.000150026,0.000217897,0.000297288,0.000390157,0.000498789,0.000625862,0.000774506,0.000948382,0.00115177,0.00138969,0.00166799,0.00199354,0.00237434,0.00281979,0.00334086,0.00395037,0.00466335,0.00549735,0.00647293,0.00761412,0.00894902,0.0105105,0.0123371,0.0144737,0.016973,0.0198966,0.0233164,0.0273168,0.0319962,inf	242.422,242.422,130.507,113.82,110.103,114.889,127.099,147.252,177.312,219.699,276.146,347.242,431.488,521.933,604.129,661.036,683.365,674.306,644.581,605.812,565.779,527.589,491.203,455.356,419.52,384.366,351.751,319.799,319.799,301.355,301.355,301.355
0.000996981	-3119050.21	0,4.24035e-05,9.2005e-05,0.000150026,0.000217897,0.000297288,0.000390157,0.000498789,0.000625862,0.000774506,0.000948382,0.00115177,0.00138969,0.00166799,0.00199354,0.00237434,0.00281979,0.00334086,0.00395037,0.00466335,0.00549735,0.00647293,0.00761412,0.00894902,0.0105105,0.0123371,0.0144737,0.016973,0.0198966,0.0233164,0.0273168,0.0319962,inf	258.865,258.865,134.056,114.195,107.841,110.636,121.302,140.345,169.852,212.363,269.625,342.257,429,523.324,610.951,674.117,701.914,695.936,666.293,625.183,581.322,538.399,496.449,454.182,411.454,369.72,331.747,295.994,295.994,277.092,277.092,277.092
0.00106662	-3118401.01	0,4.24035e-05,9.2005e-05,0.000150026,0.000217897,0.000297288,0.000390157,0.000498789,0.000625862,0.000774506,0.000948382,0.00115177,0.00138969,0.00166799,0.00199354,0.00237434,0.00281979,0.00334086,0.00395037,0.00466335,0.00549735,0.00647293,0.00761412,0.00894902,0.0105105,0.0123371,0.0144737,0.016973,0.0198966,0.0233164,0.0273168,0.0319962,inf	267.696,267.696,137.986,116.375,108.094,109.383,118.876,137.073,166.131,208.614,266.176,339.367,427.062,523.099,613.587,680.671,712.537,709.429,680.574,638.255,591.739,545.096,498.382,450.359,401.434,353.993,311.715,273.387,273.387,254.141,254.141,254.141
0.00113485	-3117840.46	0,4.24035e-05,9.2005e-05,0.000150026,0.000217897,0.000297288,0.000390157,0.000498789,0.000625862,0.000774506,0.000948382,0.00115177,0.00138969,0.00166799,0.00199354,0.00237434,0.00281979,0.00334086,0.00395037,0.00466335,0.00549735,0.00647293,0.00761412,0.00894902,0.0105105,0.0123371,0.0144737,0.016973,0.0198966,0.0233164,0.0273168,0.0319962,inf	269.956,269.956,141.368,119.208,109.597,109.769,118.393,135.98,164.728,207.158,264.767,337.971,425.713,522.142,613.831,683.184,717.974,717.372,689.633,646.827,598.479,548.866,498.009,444.794,390.317,337.992,292.353,252.43,252.43,232.52,232.52,232.52
0.00120193	-3117338.57	0,4.24035e-05,9.2005e-05,0.000150026,0.000217897,0.000297288,0.000390157,0.000498789,0.000625862,0.000774506,0.000948382,0.00115177,0.00138969,0.00166799,0.00199354,0.00237434,0.00281979,0.00334086,0.00395037,0.00466335,0.00549735,0.00647293,0.00761412,0.00894902,0.0105105,0.0123371,0.0144737,0.016973,0.0198966,0.0233164,0.0273168,0.0319962,inf	267.548,267.548,143.919,122.156,111.712,111.087,119.087,136.259,164.824,207.22,264.742,337.64,424.879,520.875,612.681,683.154,719.978,721.493,694.999,652.171,602.582,550.566,496.064,438.152,378.724,322.28,274.104,233.335,233.335,212.153,212.153,212.153
0.00126808	-3116879.44	0,4.24035e-05,9.2005e-05,0.000150026,0.000217897,0.000297288,0.000390157,0.000498789,0.000625862,0.000774506,0.000948382,0.00115177,0.00138969,0.00166799,0.00199354,0.00237434,0.00281979,0.00334086,0.00395037,0.00466335,0.00549735,0.00647293,0.00761412,0.00894902,0.0105105,0.0123371,0.0144737,0.016973,0.0198966,0.0233164,0.0273168,0.0319962,inf	262.289,262.289,145.624,124.964,114.094,112.937,120.511,137.427,165.918,208.307,265.666,338.063,424.461,519.503,610.715,681.508,719.689,722.967,697.743,655.201,604.803,550.823,493.09,430.927,367.112,307.246,257.232,216.167,216.167,192.913,192.913,192.913
0.00133343	-3116453.93	0,4.24035e-05,9.2005e-05,0.000150026,0.000217897,0.000297288,0.000390157,0.000498789,0.000625862,0.000774506,0.000948382,0.00115177,0.00138969,0.00166799,0.00199354,0.00237434,0.00281979,0.00334086,0.00395037,0.00466335,0.00549735,0.00647293,0.00761412,0.00894902,0.0105105,0.0123371,0.0144737,0.016973,0.0198966,0.0233164,0.0273168,0.0319962,inf	255.568,255.568,146.572,127.512,116.549,115.082,122.396,139.185,167.687,210.097,267.247,339.019,424.365,518.124,608.277,678.835,717.865,722.602,698.626,656.574,605.693,550.103,489.499,423.496,355.821,293.153,241.875,200.888,200.888,174.641,174.641,174.641
0.0013981	-3116056.37	0,4.24035e-05,9.2005e-05,0.000150026,0.000217897,0.000297288,0.000390157,0.000498789,0.000625862,0.000774506,0.000948382,0.00115177,0.00138969,0.00166799,0.00199354,0.00237434,0.00281979,0.00334086,0.00395037,0.00466335,0.00549735,0.00647293,0.00761412,0.00894902,0.0105105,0.0123371,0.0144737,0.016973,0.0198966,0.0233164,0.0273168,0.0319962,inf	248.347,248.347,146.889,129.759,118.969,117.377,124.567,141.334,169.918,212.372,269.283,340.352,424.512,516.782,605.576,675.517,715.017,720.963,698.19,656.772,605.661,548.755,485.6,416.143,345.098,280.171,228.079,187.404,187.404,157.169,157.169,157.169
0.00146218	-3115683.02	0,4.24035e-05,9.2005e-05,0.000150026,0.000217897,0.000297288,0.000390157,0.000498789,0.000625862,0.000774506,0.000948382,0.00115177,0.00138969,0.00166799,0.00199354,0.00237434,0.00281979,0.00334086,0.00395037,0.00466335,0.00549735,0.00647293,0.00761412,0.00894902,0.0105105,0.0123371,0.0144737,0.016973,0.0198966,0.0233164,0.0273168,0.0319962,inf	241.222,241.222,146.701,131.701,121.296,119.731,126.912,143.743,172.463,214.977,271.63,341.945,424.838,515.497,602.741,671.805,711.496,718.447,696.827,656.146,605.01,547.043,481.633,409.09,335.124,268.398,215.832,175.585,175.585,140.324,140.324,140.324
0.00152573	-3115331.28	0,4.24035e-05,9.2005e-05,0.000150026,0.000217897,0.000297288,0.000390157,0.000498789,0.000625862,0.000774506,0.000948382,0.00115177,0.00138969,0.00166799,0.00199354,0.00237434,0.00281979,0.00334086,0.00395037,0.00466335,0.00549735,0.00647293,0.00761412,0.00894902,0.0105105,0.0123371,0.0144737,0.016973,0.0198966,0.0233164,0.0273168,0.0319962,inf	234.538,234.538,146.128,133.359,123.501,122.09,129.357,146.323,175.222,217.807,274.185,343.712,425.294,514.271,599.852,667.867,707.542,715.335,694.821,654.955,603.966,545.168,477.785,402.504,326.022,257.88,205.083,165.292,165.292,123.929,123.929,123.929
0.00158877	-3114999.29	0,4.24035e-05,9.2005e-05,0.000150026,0.000217897,0.000297288,0.000390157,0.000498789,0.000625862,0.000774506,0.000948382,0.00115177,0.00138969,0.00166799,0.00199354,0.00237434,0.00281979,0.00334086,0.00395037,0.00466335,0.00549735,0.00647293,0.00761412,0.00894902,0.0105105,0.0123371,0.0144737,0.016973,0.0198966,0.0233164,0.0273168,0.0319962,inf	228.468,228.468,145.271,134.765,125.576,124.422,131.854,149.011,178.121,220.783,276.873,345.593,425.84,513.103,596.959,663.813,703.322,711.83,692.378,653.392,602.701,543.285,474.2,396.514,317.884,248.635,195.765,156.391,156.391,107.822,107.822,107.822
0.00165136	-3114685.73	0,4.24035e-05,9.2005e-05,0.000150026,0.000217897,0.000297288,0.000390157,0.000498789,0.000625862,0.000774506,0.000948382,0.00115177,0.00138969,0.00166799,0.00199354,0.00237434,0.00281979,0.00334086,0.00395037,0.00466335,0.00549735,0.00647293,0.00761412,0.00894902,0.0105105,0.0123371,0.0144737,0.016973,0.0198966,0.0233164,0.0273168,0.0319962,inf	223.075,223.075,144.214,135.955,127.524,126.709,134.37,151.763,181.108,223.849,279.641,347.54,426.445,511.986,594.092,659.716,698.953,708.075,689.651,651.6,601.343,541.515,470.997,391.229,310.779,240.665,187.816,148.77,148.77,91.8868,91.8868,91.8868
0.00171349	-3114389.83	0,4.24035e-05,9.2005e-05,0.000150026,0.000217897,0.000297288,0.000390157,0.000498789,0.000625862,0.000774506,0.000948382,0.00115177,0.00138969,0.00166799,0.00199354,0.00237434,0.00281979,0.00334086,0.00395037,0.00466335,0.00549735,0.00647293,0.00761412,0.00894902,0.0105105,0.0123371,0.0144737,0.016973,0.0198966,0.0233164,0.0273168,0.0319962,inf	218.358,218.358,143.03,136.963,129.352,128.941,136.883,154.549,184.145,226.965,282.447,349.518,427.083,510.912,591.265,655.625,694.514,704.173,686.751,649.687,599.997,539.961,468.282,386.753,304.782,233.994,181.207,142.368,142.368,76.1449,76.1449,76.1449
0.00177519	-3114111.51	0,4.24035e-05,9.2005e-05,0.000150026,0.000217897,0.000297288,0.000390157,0.000498789,0.000625862,0.000774506,0.000948382,0.00115177,0.00138969,0.00166799,0.00199354,0.00237434,0.00281979,0.00334086,0.00395037,0.00466335,0.00549735,0.00647293,0.00761412,0.00894902,0.0105105,0.0123371,0.0144737,0.016973,0.0198966,0.0233164,0.0273168,0.0319962,inf	214.282,214.282,141.773,137.822,131.072,131.116,139.378,157.345,187.204,230.098,285.261,351.501,427.735,509.872,588.487,651.569,690.06,700.197,683.762,647.74,598.751,538.723,466.175,383.214,300.01,228.704,175.983,137.216,137.216,60.9432,60.9432,60.9432
0.00183644	-3113851.68	0,4.24035e-05,9.2005e-05,0.000150026,0.000217897,0.000297288,0.000390157,0.000498789,0.000625862,0.000774506,0.000948382,0.00115177,0.00138969,0.00166799,0.00199354,0.00237434,0.00281979,0.00334086,0.00395037,0.00466335,0.00549735,0.00647293,0.00761412,0.00894902,0.0105105,0.0123371,0.0144737,0.016973,0.0198966,0.0233164,0.0273168,0.0319962,inf	210.792,210.792,140.486,138.567,132.699,133.231,141.848,160.136,190.264,233.227,288.06,353.467,428.385,508.855,585.759,647.566,685.627,696.202,680.748,645.834,597.695,537.918,464.834,380.811,296.673,224.995,172.334,133.539,133.539,47.1376,47.1376,47.1376
0.00189718	-3113612.06	0,4.24035e-05,9.2005e-05,0.000150026,0.000217897,0.000297288,0.000390157,0.000498789,0.000625862,0.000774506,0.000948382,0.00115177,0.00138969,0.00166799,0.00199354,0.00237434,0.00281979,0.00334086,0.00395037,0.00466335,0.00549735,0.00647293,0.00761412,0.00894902,0.0105105,0.0123371,0.0144737,0.016973,0.0198966,0.0233164,0.0273168,0.0319962,inf	207.825,207.825,139.202,139.221,134.244,135.29,144.284,162.909,193.309,236.33,290.824,355.397,429.013,507.848,583.073,643.618,681.233,692.222,677.759,644.031,596.919,537.681,464.461,379.818,295.103,223.226,170.643,131.865,131.865,35.7731,35.7731,35.7731
0.0019573	-3113393.21	0,4.24035e-05,9.2005e-05,0.000150026,0.000217897,0.000297288,0.000390157,0.000498789,0.000625862,0.000774506,0.000948382,0.00115177,0.00138969,0.00166799,0.00199354,0.00237434,0.00281979,0.00334086,0.00395037,0.00466335,0.00549735,0.00647293,0.00761412,0.00894902,0.0105105,0.0123371,0.0144737,0.016973,0.0198966,0.0233164,0.0273168,0.0319962,inf	205.32,205.32,137.945,139.808,135.719,137.294,146.682,165.655,196.325,239.395,293.538,357.276,429.606,506.835,580.414,639.717,676.878,688.265,674.81,642.359,596.465,538.096,465.21,380.478,295.623,223.795,171.392,132.956,132.956,27.229,27.229,27.229
