0.000945822	-417097.62	0,0.00012895,0.000305394,0.000546825,0.000877178,0.00132921,0.00194772,0.00279405,0.00395208,0.00553665,0.00770483,0.0106716,0.014731,0.0202856,0.0278861,0.0382859,inf	29.6455,29.6455,65.4216,108.796,170.368,255.174,357.749,411.281,390.418,353.25,322.512,302.047,299.804,334.929,334.929,334.929
0.00103245	-416228.19	0,0.00012895,0.000305394,0.000546825,0.000877178,0.00132921,0.00194772,0.00279405,0.00395208,0.00553665,0.00770483,0.0106716,0.014731,0.0202856,0.0278861,0.0382859,inf	4.36366,4.36366,21.0577,55.3494,121.574,230.501,384.421,487,463.425,401.865,344.887,306.699,307.544,401.89,401.89,401.89
0.00111461	-415920.19	0,0.00012895,0.000305394,0.000546825,0.000877178,0.00132921,0.00194772,0.00279405,0.00395208,0.00553665,0.00770483,0.0106716,0.014731,0.0202856,0.0278861,0.0382859,inf	0.768867,0.768867,8.0047,32.3663,95.0038,213.294,394.395,530.308,510.973,434.597,356.019,303.436,312.108,508.909,508.909,508.909
0.00119086	-415773.75	0,0.00012895,0.000305394,0.000546825,0.000877178,0.00132921,0.00194772,0.00279405,0.00395208,0.00553665,0.00770483,0.0106716,0.014731,0.0202856,0.0278861,0.0382859,inf	0.285627,0.285627,3.42622,20.8319,78.9933,201.963,398.958,555.393,541.532,456.122,359.702,295.826,316.281,737.73,737.73,737.73
0.00126212	-415688.80	0,0.00012895,0.000305394,0.000546825,0.000877178,0.00132921,0.00194772,0.00279405,0.00395208,0.00553665,0.00770483,0.0106716,0.014731,0.0202856,0.0278861,0.0382859,inf	0.285627,0.285627,1.60723,14.4038,68.6898,194.724,401.979,570.209,561.132,470.043,358.732,286.27,322.126,1713.41,1713.41,1713.41
0.00126212	-415631.85	0,0.00012895,0.000305394,0.000546825,0.000877178,0.00132921,0.00194772,0.00279405,0.00395208,0.00553665,0.00770483,0.0106716,0.014731,0.0202856,0.0278861,0.0382859,inf	0.285627,0.285627,0.807814,10.4817,61.4398,188.884,398.799,569.442,567.559,474.848,352.444,274.591,329.849,40174.1,40174.1,40174.1
