0.000922587	-417112.37	0,5.94307e-05,0.00012895,0.00021027,0.000305394,0.000416665,0.000546825,0.000699079,0.000877178,0.00108551,0.00132921,0.00161427,0.00194772,0.00233778,0.00279405,0.00332777,0.00395208,0.00468238,0.00553665,0.00653592,0.00770483,0.00907215,0.0106716,0.0125425,0.014731,0.017291,0.0202856,0.0237886,0.0278861,0.0326792,0.0382859,0.0448444,inf	13.0209,13.0209,27.1473,40.8976,56.8389,75.4654,97.4835,123.785,155.252,192.407,235.121,282.412,330.978,372.841,398.171,404.268,396.036,379.519,360.21,341.818,325.898,312.561,301.378,292.436,286.742,285.37,288.514,297.637,297.637,316.555,316.555,316.555
0.000989481	-416279.70	0,5.94307e-05,0.00012895,0.00021027,0.000305394,0.000416665,0.000546825,0.000699079,0.000877178,0.00108551,0.00132921,0.00161427,0.00194772,0.00233778,0.00279405,0.00332777,0.00395208,0.00468238,0.00553665,0.00653592,0.00770483,0.00907215,0.0106716,0.0125425,0.014731,0.017291,0.0202856,0.0237886,0.0278861,0.0326792,0.0382859,0.0448444,inf	0.808072,0.808072,3.53706,8.05054,15.4981,26.9938,44.0107,68.4142,102.203,146.873,202.862,269.626,344.093,415.579,466.139,485.528,477.544,450.882,416.023,381.441,351.23,325.931,304.807,288.352,278.797,278.132,286.56,307.505,307.505,350.52,350.52,350.52
0.0010559	-415972.59	0,5.94307e-05,0.00012895,0.00021027,0.000305394,0.000416665,0.000546825,0.000699079,0.000877178,0.00108551,0.00132921,0.00161427,0.00194772,0.00233778,0.00279405,0.00332777,0.00395208,0.00468238,0.00553665,0.00653592,0.00770483,0.00907215,0.0106716,0.0125425,0.014731,0.017291,0.0202856,0.0237886,0.0278861,0.0326792,0.0382859,0.0448444,inf	0.285627,0.285627,0.54035,1.85235,4.91627,11.1467,22.6699,42.4274,73.827,119.641,180.901,257.259,346.156,436.474,505.919,538.196,534.085,501.9,455.177,407.029,364.586,329.071,299.648,277.465,265.88,267.453,282.349,316.514,316.514,388.487,388.487,388.487
0.00111921	-415823.57	0,5.94307e-05,0.00012895,0.00021027,0.000305394,0.000416665,0.000546825,0.000699079,0.000877178,0.00108551,0.00132921,0.00161427,0.00194772,0.00233778,0.00279405,0.00332777,0.00395208,0.00468238,0.00553665,0.00653592,0.00770483,0.00907215,0.0106716,0.0125425,0.014731,0.017291,0.0202856,0.0237886,0.0278861,0.0326792,0.0382859,0.0448444,inf	0.285627,0.285627,0.285627,0.367298,1.74378,5.10826,12.8289,28.5372,56.9396,102.186,165.912,247.697,345.223,447.481,529.965,572.501,573.017,537.901,482.013,422.538,369.755,325.702,289.634,263.432,251.278,255.981,277.779,325.772,325.772,432.332,432.332,432.332
0.00117941	-415736.75	0,5.94307e-05,0.00012895,0.00021027,0.000305394,0.000416665,0.000546825,0.000699079,0.000877178,0.00108551,0.00132921,0.00161427,0.00194772,0.00233778,0.00279405,0.00332777,0.00395208,0.00468238,0.00553665,0.00653592,0.00770483,0.00907215,0.0106716,0.0125425,0.014731,0.017291,0.0202856,0.0237886,0.0278861,0.0326792,0.0382859,0.0448444,inf	0.285627,0.285627,0.285627,0.285627,0.676515,2.5426,7.81352,20.4314,46.155,90.4785,155.614,240.885,343.93,453.901,545.145,595.267,600.052,563.367,500.217,431.225,369.736,318.653,277.45,248.678,236.983,245.206,273.897,335.977,335.977,484.852,484.852,484.852
0.00123696	-415678.87	0,5.94307e-05,0.00012895,0.00021027,0.000305394,0.000416665,0.000546825,0.000699079,0.000877178,0.00108551,0.00132921,0.00161427,0.00194772,0.00233778,0.00279405,0.00332777,0.00395208,0.00468238,0.00553665,0.00653592,0.00770483,0.00907215,0.0106716,0.0125425,0.014731,0.017291,0.0202856,0.0237886,0.0278861,0.0326792,0.0382859,0.0448444,inf	0.285627,0.285627,0.285627,0.285627,0.285627,1.35388,5.04948,15.3714,38.8935,82.3657,148.527,236.297,343.077,458.103,555.128,610.665,619.061,581.539,512.505,435.471,366.666,309.859,264.803,234.583,223.986,235.801,271.161,347.518,347.518,550.642,550.642,550.642
0.00129229	-415636.26	0,5.94307e-05,0.00012895,0.00021027,0.000305394,0.000416665,0.000546825,0.000699079,0.000877178,0.00108551,0.00132921,0.00161427,0.00194772,0.00233778,0.00279405,0.00332777,0.00395208,0.00468238,0.00553665,0.00653592,0.00770483,0.00907215,0.0106716,0.0125425,0.014731,0.017291,0.0202856,0.0237886,0.0278861,0.0326792,0.0382859,0.0448444,inf	0.285627,0.285627,0.285627,0.285627,0.285627,0.762641,3.42642,12.038,33.7994,76.6176,143.689,233.421,342.841,461.185,561.923,621.23,632.586,594.652,520.792,436.937,361.99,300.551,252.672,221.806,212.652,227.95,269.685,360.595,360.595,638.329,638.329,638.329
0.00134577	-415602.63	0,5.94307e-05,0.00012895,0.00021027,0.000305394,0.000416665,0.000546825,0.000699079,0.000877178,0.00108551,0.00132921,0.00161427,0.00194772,0.00233778,0.00279405,0.00332777,0.00395208,0.00468238,0.00553665,0.00653592,0.00770483,0.00907215,0.0106716,0.0125425,0.014731,0.017291,0.0202856,0.0237886,0.0278861,0.0326792,0.0382859,0.0448444,inf	0.285627,0.285627,0.285627,0.285627,0.285627,0.411066,2.42162,9.74272,30.1069,72.4867,140.463,231.838,343.182,463.667,566.666,628.531,642.301,604.232,526.393,436.745,356.637,291.455,241.539,210.566,203.002,221.59,269.408,375.31,375.31,767.797,767.797,767.797
0.00139769	-415574.71	0,5.94307e-05,0.00012895,0.00021027,0.000305394,0.000416665,0.000546825,0.000699079,0.000877178,0.00108551,0.00132921,0.00161427,0.00194772,0.00233778,0.00279405,0.00332777,0.00395208,0.00468238,0.00553665,0.00653592,0.00770483,0.00907215,0.0106716,0.0125425,0.014731,0.017291,0.0202856,0.0237886,0.0278861,0.0326792,0.0382859,0.0448444,inf	0.285627,0.285627,0.285627,0.285627,0.285627,0.285627,1.77141,8.10353,27.361,69.5025,138.419,231.234,344.004,465.8,570.028,633.564,649.316,611.318,530.203,435.631,351.177,282.958,231.586,200.845,194.895,216.555,270.206,391.734,391.734,1003.45,1003.45,1003.45
0.00144825	-415550.72	0,5.94307e-05,0.00012895,0.00021027,0.000305394,0.000416665,0.000546825,0.000699079,0.000877178,0.00108551,0.00132921,0.00161427,0.00194772,0.00233778,0.00279405,0.00332777,0.00395208,0.00468238,0.00553665,0.00653592,0.00770483,0.00907215,0.0106716,0.0125425,0.014731,0.017291,0.0202856,0.0237886,0.0278861,0.0326792,0.0382859,0.0448444,inf	0.285627,0.285627,0.285627,0.285627,0.285627,0.285627,1.33436,6.89615,25.2764,67.3531,137.256,231.366,345.199,467.703,572.414,636.976,654.377,616.615,532.82,434.063,345.934,275.231,222.821,192.511,188.131,212.65,271.934,409.942,409.942,1767.48,1767.48,1767.48
0.00149761	-415529.57	0,5.94307e-05,0.00012895,0.00021027,0.000305394,0.000416665,0.000546825,0.000699079,0.000877178,0.00108551,0.00132921,0.00161427,0.00194772,0.00233778,0.00279405,0.00332777,0.00395208,0.00468238,0.00553665,0.00653592,0.00770483,0.00907215,0.0106716,0.0125425,0.014731,0.017291,0.0202856,0.0237886,0.0278861,0.0326792,0.0382859,0.0448444,inf	0.285627,0.285627,0.285627,0.285627,0.285627,0.285627,1.03085,5.98322,23.668,65.8266,136.759,232.054,346.673,469.435,574.085,639.198,657.994,620.608,534.639,432.327,341.075,268.318,215.165,185.395,182.505,209.691,274.454,430.025,430.025,14981.4,14981.4,14981.4
0.00154341	-415510.54	0,5.94307e-05,0.00012895,0.00021027,0.000305394,0.000416665,0.000546825,0.000699079,0.000877178,0.00108551,0.00132921,0.00161427,0.00194772,0.00233778,0.00279405,0.00332777,0.00395208,0.00468238,0.00553665,0.00653592,0.00770483,0.00907215,0.0106716,0.0125425,0.014731,0.017291,0.0202856,0.0237886,0.0278861,0.0326792,0.0382859,0.0448444,inf	0.285627,0.285627,0.285627,0.285627,0.285627,0.285627,0.813831,5.27584,22.4049,64.7534,136.723,233.065,348.188,470.804,574.964,640.299,660.334,623.479,535.807,430.504,336.604,262.142,208.464,179.29,177.803,207.485,277.619,452.1,452.1,59043.3,59043.3,59043.3
