0.000432758	-1331612.90	0,7.21631e-06,1.61422e-05,2.71826e-05,4.08385e-05,5.77295e-05,7.8622e-05,0.000104464,0.000136428,0.000175964,0.000224867,0.000285354,0.000360172,0.000452713,0.000567178,0.00070876,0.000883882,0.00110049,0.00136842,0.00169981,0.00210972,0.00261673,0.00324385,0.00401954,0.004979,0.00616574,0.00763363,0.00944927,0.011695,0.0144728,0.0179087,0.0221585,inf	3500.62,3500.62,3890.95,1877.91,1422.23,1785.5,2267.24,1934.3,1153.36,630.303,363.693,239.227,182.17,160.321,158.767,170.274,192.239,224.542,268.73,327.727,402.429,480.727,536.886,559.057,555.089,538.122,517.625,491.245,491.245,497.869,497.869,497.869
0.000452394	-1328398.32	0,7.21631e-06,1.61422e-05,2.71826e-05,4.08385e-05,5.77295e-05,7.8622e-05,0.000104464,0.000136428,0.000175964,0.000224867,0.000285354,0.000360172,0.000452713,0.000567178,0.00070876,0.000883882,0.00110049,0.00136842,0.00169981,0.00210972,0.00261673,0.00324385,0.00401954,0.004979,0.00616574,0.00763363,0.00944927,0.011695,0.0144728,0.0179087,0.0221585,inf	3996.37,3996.37,5760.25,1969.6,1384.59,2164.75,3581.28,3271.22,1575.74,616.62,255.832,129.035,81.8171,67.4322,70.0346,84.2298,109.748,148.334,202.715,276.995,374.114,480.629,558.863,587.444,574.478,538.473,496.678,445.47,445.47,457.083,457.083,457.083
0.000477423	-1327675.79	0,7.21631e-06,1.61422e-05,2.71826e-05,4.08385e-05,5.77295e-05,7.8622e-05,0.000104464,0.000136428,0.000175964,0.000224867,0.000285354,0.000360172,0.000452713,0.000567178,0.00070876,0.000883882,0.00110049,0.00136842,0.00169981,0.00210972,0.00261673,0.00324385,0.00401954,0.004979,0.00616574,0.00763363,0.00944927,0.011695,0.0144728,0.0179087,0.0221585,inf	3688.55,3688.55,6622.02,1666.95,1100.02,2057.07,4216.06,4263.52,1827.07,571.773,189.95,79.4999,43.547,34.0855,37.3726,50.3572,74.9966,115,174.215,257.121,367.455,490.7,581.03,611.662,589.728,535.837,474.627,403.072,403.072,422.035,422.035,422.035
0.00050277	-1327350.78	0,7.21631e-06,1.61422e-05,2.71826e-05,4.08385e-05,5.77295e-05,7.8622e-05,0.000104464,0.000136428,0.000175964,0.000224867,0.000285354,0.000360172,0.000452713,0.000567178,0.00070876,0.000883882,0.00110049,0.00136842,0.00169981,0.00210972,0.00261673,0.00324385,0.00401954,0.004979,0.00616574,0.00763363,0.00944927,0.011695,0.0144728,0.0179087,0.0221585,inf	3386.67,3386.67,7292.73,1360.55,844.805,1842.19,4482.66,4973.26,1963.18,518.765,146.648,53.3046,25.7359,19.2572,22.2987,33.4839,56.3921,96.5367,158.869,247.843,367.297,501.547,598.842,629.832,599.882,529.814,451.598,364.551,364.551,393.58,393.58,393.58
0.000527345	-1327153.33	0,7.21631e-06,1.61422e-05,2.71826e-05,4.08385e-05,5.77295e-05,7.8622e-05,0.000104464,0.000136428,0.000175964,0.000224867,0.000285354,0.000360172,0.000452713,0.000567178,0.00070876,0.000883882,0.00110049,0.00136842,0.00169981,0.00210972,0.00261673,0.00324385,0.00401954,0.004979,0.00616574,0.00763363,0.00944927,0.011695,0.0144728,0.0179087,0.0221585,inf	3160.36,3160.36,7935.85,1107.75,652.667,1636.39,4592.42,5502.14,2027,466.052,116.388,37.7896,16.2966,11.7223,14.3328,23.8607,45.0207,84.9466,149.657,243.332,369.463,511.117,612.236,642.864,606.007,521.565,428.828,330.688,330.688,372.005,372.005,372.005
0.00055092	-1327014.46	0,7.21631e-06,1.61422e-05,2.71826e-05,4.08385e-05,5.77295e-05,7.8622e-05,0.000104464,0.000136428,0.000175964,0.000224867,0.000285354,0.000360172,0.000452713,0.000567178,0.00070876,0.000883882,0.00110049,0.00136842,0.00169981,0.00210972,0.00261673,0.00324385,0.00401954,0.004979,0.00616574,0.00763363,0.00944927,0.011695,0.0144728,0.0179087,0.0221585,inf	2986.76,2986.76,8543.51,903.741,511.613,1463.22,4641.79,5917.47,2043.9,416.416,94.1574,27.8106,10.8211,7.52573,9.71901,17.8593,37.4564,77.0979,143.821,241.343,372.518,519.12,622.039,652.044,609.372,512.317,407.394,301.707,301.707,356.791,356.791,356.791
0.000573502	-1326908.75	0,7.21631e-06,1.61422e-05,2.71826e-05,4.08385e-05,5.77295e-05,7.8622e-05,0.000104464,0.000136428,0.000175964,0.000224867,0.000285354,0.000360172,0.000452713,0.000567178,0.00070876,0.000883882,0.00110049,0.00136842,0.00169981,0.00210972,0.00261673,0.00324385,0.00401954,0.004979,0.00616574,0.00763363,0.00944927,0.011695,0.0144728,0.0179087,0.0221585,inf	2849.18,2849.18,9090.44,738.452,407.22,1322.13,4671.77,6258.16,2028.78,370.667,77.1799,20.9921,7.43206,5.02757,6.86262,13.8694,32.1187,71.513,140.051,240.839,375.898,525.707,629.108,658.481,611.027,503.009,387.953,277.328,277.328,346.958,346.958,346.958
0.000595157	-1326824.42	0,7.21631e-06,1.61422e-05,2.71826e-05,4.08385e-05,5.77295e-05,7.8622e-05,0.000104464,0.000136428,0.000175964,0.000224867,0.000285354,0.000360172,0.000452713,0.000567178,0.00070876,0.000883882,0.00110049,0.00136842,0.00169981,0.00210972,0.00261673,0.00324385,0.00401954,0.004979,0.00616574,0.00763363,0.00944927,0.011695,0.0144728,0.0179087,0.0221585,inf	2740.16,2740.16,9563.62,604.014,328.745,1207.71,4699.81,6546.85,1990.96,328.945,63.8319,16.1223,5.23213,3.46377,5.00234,11.0851,28.1841,67.4021,137.641,241.274,379.357,531.109,634.135,663.006,611.732,494.248,370.77,256.988,256.988,341.417,341.417,341.417
0.000615959	-1326755.01	0,7.21631e-06,1.61422e-05,2.71826e-05,4.08385e-05,5.77295e-05,7.8622e-05,0.000104464,0.000136428,0.000175964,0.000224867,0.000285354,0.000360172,0.000452713,0.000567178,0.00070876,0.000883882,0.00110049,0.00136842,0.00169981,0.00210972,0.00261673,0.00324385,0.00401954,0.004979,0.00616574,0.00763363,0.00944927,0.011695,0.0144728,0.0179087,0.0221585,inf	2656.65,2656.65,9961.01,494.496,268.826,1114.45,4733.04,6796.96,1936.68,291.142,53.1101,12.5305,3.75261,2.44566,3.74122,9.06696,25.1845,64.3039,136.171,242.327,382.775,535.532,637.634,666.2,611.982,486.357,355.833,240.039,240.039,339.183,339.183,339.183
0.000635973	-1326696.54	0,7.21631e-06,1.61422e-05,2.71826e-05,4.08385e-05,5.77295e-05,7.8622e-05,0.000104464,0.000136428,0.000175964,0.000224867,0.000285354,0.000360172,0.000452713,0.000567178,0.00070876,0.000883882,0.00110049,0.00136842,0.00169981,0.00210972,0.00261673,0.00324385,0.00401954,0.004979,0.00616574,0.00763363,0.00944927,0.011695,0.0144728,0.0179087,0.0221585,inf	2596.71,2596.71,10287.5,405.26,222.34,1037.85,4774.2,7016.86,1870.41,257.057,44.3638,9.8182,2.73044,1.76192,2.85815,7.55826,22.8353,61.9305,135.379,243.801,386.09,539.143,639.971,668.456,612.078,479.463,342.968,225.862,225.862,339.448,339.448,339.448
0.000655258	-1326646.34	0,7.21631e-06,1.61422e-05,2.71826e-05,4.08385e-05,5.77295e-05,7.8622e-05,0.000104464,0.000136428,0.000175964,0.000224867,0.000285354,0.000360172,0.000452713,0.000567178,0.00070876,0.000883882,0.00110049,0.00136842,0.00169981,0.00210972,0.00261673,0.00324385,0.00401954,0.004979,0.00616574,0.00763363,0.00944927,0.011695,0.0144728,0.0179087,0.0221585,inf	2558.49,2558.49,10550.4,332.547,185.79,974.331,4824.05,7211.99,1795.54,226.449,37.15,7.73616,2.00947,1.29089,2.22293,6.40143,20.9547,60.0928,135.087,245.562,389.27,542.073,641.413,670.033,612.18,473.566,331.932,213.919,213.919,341.588,341.588,341.588
0.000673863	-1326602.55	0,7.21631e-06,1.61422e-05,2.71826e-05,4.08385e-05,5.77295e-05,7.8622e-05,0.000104464,0.000136428,0.000175964,0.000224867,0.000285354,0.000360172,0.000452713,0.000567178,0.00070876,0.000883882,0.00110049,0.00136842,0.00169981,0.00210972,0.00261673,0.00324385,0.00401954,0.004979,0.00616574,0.00763363,0.00944927,0.011695,0.0144728,0.0179087,0.0221585,inf	2540.1,2540.1,10758.2,273.297,156.663,921.217,4882.42,7385.92,1714.65,199.062,31.1533,6.11867,1.49258,0.954921,1.75558,5.49516,19.4215,58.662,135.173,247.522,392.299,544.427,642.148,671.101,612.366,468.596,322.468,203.769,203.769,345.139,345.139,345.139
0.00069183	-1326563.83	0,7.21631e-06,1.61422e-05,2.71826e-05,4.08385e-05,5.77295e-05,7.8622e-05,0.000104464,0.000136428,0.000175964,0.000224867,0.000285354,0.000360172,0.000452713,0.000567178,0.00070876,0.000883882,0.00110049,0.00136842,0.00169981,0.00210972,0.00261673,0.00324385,0.00401954,0.004979,0.00616574,0.00763363,0.00944927,0.011695,0.0144728,0.0179087,0.0221585,inf	2539.78,2539.78,10918.3,224.984,133.2,876.418,4948.84,7541.23,1629.84,174.634,26.142,4.85162,1.11724,0.715237,1.405,4.77203,18.1522,57.5468,135.552,249.618,395.17,546.29,642.322,671.775,612.664,464.456,314.332,195.057,195.057,349.758,349.758,349.758
0.000709198	-1326529.21	0,7.21631e-06,1.61422e-05,2.71826e-05,4.08385e-05,5.77295e-05,7.8622e-05,0.000104464,0.000136428,0.000175964,0.000224867,0.000285354,0.000360172,0.000452713,0.000567178,0.00070876,0.000883882,0.00110049,0.00136842,0.00169981,0.00210972,0.00261673,0.00324385,0.00401954,0.004979,0.00616574,0.00763363,0.00944927,0.011695,0.0144728,0.0179087,0.0221585,inf	2555.67,2555.67,11037.7,185.566,114.091,838.335,5022.65,7679.69,1542.74,152.909,21.9391,3.85316,0.837785,0.547144,1.13752,4.18574,17.0874,56.6813,136.16,251.806,397.884,547.732,642.043,672.136,613.071,461.037,307.309,187.504,187.504,355.196,355.196,355.196
0.000726001	-1326497.96	0,7.21631e-06,1.61422e-05,2.71826e-05,4.08385e-05,5.77295e-05,7.8622e-05,0.000104464,0.000136428,0.000175964,0.000224867,0.000285354,0.000360172,0.000452713,0.000567178,0.00070876,0.000883882,0.00110049,0.00136842,0.00169981,0.00210972,0.00261673,0.00324385,0.00401954,0.004979,0.00616574,0.00763363,0.00944927,0.011695,0.0144728,0.0179087,0.0221585,inf	2586.11,2586.11,11122.3,153.373,98.3792,805.767,5103.32,7802.87,1454.76,133.641,18.406,3.06321,0.631803,0.547144,0.926419,3.7038,16.184,56.0165,136.949,254.055,400.446,548.813,641.397,672.241,613.576,458.238,301.215,180.892,180.892,361.276,361.276,361.276
0.000742267	-1326469.57	0,7.21631e-06,1.61422e-05,2.71826e-05,4.08385e-05,5.77295e-05,7.8622e-05,0.000104464,0.000136428,0.000175964,0.000224867,0.000285354,0.000360172,0.000452713,0.000567178,0.00070876,0.000883882,0.00110049,0.00136842,0.00169981,0.00210972,0.00261673,0.00324385,0.00401954,0.004979,0.00616574,0.00763363,0.00944927,0.011695,0.0144728,0.0179087,0.0221585,inf	2629.37,2629.37,11177.1,127.033,85.358,777.7,5190.18,7911.43,1366.89,116.582,15.4303,2.43615,0.547144,0.547144,0.761411,3.30255,15.4092,55.5139,137.883,256.339,402.86,549.583,640.453,672.133,614.159,455.965,295.897,175.047,175.047,367.868,367.868,367.868
0.000758025	-1326443.59	0,7.21631e-06,1.61422e-05,2.71826e-05,4.08385e-05,5.77295e-05,7.8622e-05,0.000104464,0.000136428,0.000175964,0.000224867,0.000285354,0.000360172,0.000452713,0.000567178,0.00070876,0.000883882,0.00110049,0.00136842,0.00169981,0.00210972,0.00261673,0.00324385,0.00401954,0.004979,0.00616574,0.00763363,0.00944927,0.011695,0.0144728,0.0179087,0.0221585,inf	2683.88,2683.88,11206.5,105.451,74.4768,753.395,5282.79,8006.32,1280.02,101.512,12.9224,1.93762,0.547144,0.547144,0.630902,2.96482,14.7388,55.1448,138.932,258.642,405.136,550.086,639.268,671.847,614.803,454.135,291.226,169.836,169.836,374.883,374.883,374.883
0.0007733	-1326419.68	0,7.21631e-06,1.61422e-05,2.71826e-05,4.08385e-05,5.77295e-05,7.8622e-05,0.000104464,0.000136428,0.000175964,0.000224867,0.000285354,0.000360172,0.000452713,0.000567178,0.00070876,0.000883882,0.00110049,0.00136842,0.00169981,0.00210972,0.00261673,0.00324385,0.00401954,0.004979,0.00616574,0.00763363,0.00944927,0.011695,0.0144728,0.0179087,0.0221585,inf	2748.3,2748.3,11214.4,87.7381,65.3195,732.257,5380.68,8088.14,1194.88,88.2281,10.8085,1.54073,0.547144,0.547144,0.547144,2.6777,14.154,54.8864,140.076,260.952,407.282,550.361,637.888,671.412,615.489,452.679,287.099,165.15,165.15,382.256,382.256,382.256
0.000788117	-1326397.57	0,7.21631e-06,1.61422e-05,2.71826e-05,4.08385e-05,5.77295e-05,7.8622e-05,0.000104464,0.000136428,0.000175964,0.000224867,0.000285354,0.000360172,0.000452713,0.000567178,0.00070876,0.000883882,0.00110049,0.00136842,0.00169981,0.00210972,0.00261673,0.00324385,0.00401954,0.004979,0.00616574,0.00763363,0.00944927,0.011695,0.0144728,0.0179087,0.0221585,inf	2821.23,2821.23,11203.6,73.1706,57.5582,713.811,5483.58,8157.68,1112.08,76.5462,9.028,1.22478,0.547144,0.547144,0.547144,2.43147,13.6402,54.7208,141.297,263.258,409.306,550.44,636.353,670.85,616.204,451.536,283.427,160.906,160.906,389.945,389.945,389.945
0.000802495	-1326377.08	0,7.21631e-06,1.61422e-05,2.71826e-05,4.08385e-05,5.77295e-05,7.8622e-05,0.000104464,0.000136428,0.000175964,0.000224867,0.000285354,0.000360172,0.000452713,0.000567178,0.00070876,0.000883882,0.00110049,0.00136842,0.00169981,0.00210972,0.00261673,0.00324385,0.00401954,0.004979,0.00616574,0.00763363,0.00944927,0.011695,0.0144728,0.0179087,0.0221585,inf	2901.44,2901.44,11177.1,61.1664,50.944,697.664,5591.04,8215.12,1032.05,66.2909,7.5296,0.969007,0.547144,0.547144,0.547144,2.21853,13.1853,54.6325,142.578,265.553,411.215,550.351,634.695,670.181,616.935,450.656,280.14,157.033,157.033,397.921,397.921,397.921
