time_index	left_time_boundary	right_time_boundary	lambda
0	0	1.71937e-06	0.410031
1	1.71937e-06	3.98422e-06	0.410031
2	3.98422e-06	6.96758e-06	0.410031
3	6.96758e-06	1.08974e-05	0.410031
4	1.08974e-05	1.6074e-05	0.410031
5	1.6074e-05	2.28928e-05	25.7739
6	2.28928e-05	3.18749e-05	325.459
7	3.18749e-05	4.37065e-05	671.257
8	4.37065e-05	5.92917e-05	152.384
9	5.92917e-05	7.98213e-05	351.654
10	7.98213e-05	0.000106864	612.745
11	0.000106864	0.000142486	499.619
12	0.000142486	0.000189408	196.638
13	0.000189408	0.000251217	373.693
14	0.000251217	0.000332635	456.334
15	0.000332635	0.000439883	386.229
16	0.000439883	0.000581154	358.652
17	0.000581154	0.000767244	352.961
18	0.000767244	0.00101237	438.135
19	0.00101237	0.00133526	427.901
20	0.00133526	0.00176059	518.573
21	0.00176059	0.00232086	420.773
22	0.00232086	0.00305887	481.577
23	0.00305887	0.00403101	354.706
24	0.00403101	0.00531156	314.172
25	0.00531156	0.00699836	768.723
26	0.00699836	0.0092203	379.401
27	0.0092203	0.0121471	322.609
28	0.0121471	0.0160025	322.609
29	0.0160025	0.021081	197.499
30	0.021081	0.0277707	197.499
31	0.0277707	inf	197.499
