0.000534334	-8236749.33	0,5.98082e-06,1.60552e-05,3.30252e-05,6.16102e-05,0.00010976,0.000190867,0.000327489,0.000557621,0.000945268,0.00159824,0.00269815,0.00455089,0.00767176,0.0129287,0.0217838,inf	112.615,112.615,282.836,282.574,366.272,341.918,368.584,393.49,429.133,444.083,429.1,410.109,432.307,385.699,385.699,385.699
0.000466888	-8233888.60	0,5.98082e-06,1.60552e-05,3.30252e-05,6.16102e-05,0.00010976,0.000190867,0.000327489,0.000557621,0.000945268,0.00159824,0.00269815,0.00455089,0.00767176,0.0129287,0.0217838,inf	51.1304,51.1304,284.652,245.105,383.901,317.883,350.126,378.164,433.948,463.374,439.937,406.289,460.971,362.773,362.773,362.773
0.000410222	-8231659.68	0,5.98082e-06,1.60552e-05,3.30252e-05,6.16102e-05,0.00010976,0.000190867,0.000327489,0.000557621,0.000945268,0.00159824,0.00269815,0.00455089,0.00767176,0.0129287,0.0217838,inf	26.0131,26.0131,312.388,228.369,420.138,311.873,345.029,367.318,432.721,474.227,446.572,399.559,494.935,340.392,340.392,340.392
0.00036392	-8229993.61	0,5.98082e-06,1.60552e-05,3.30252e-05,6.16102e-05,0.00010976,0.000190867,0.000327489,0.000557621,0.000945268,0.00159824,0.00269815,0.00455089,0.00767176,0.0129287,0.0217838,inf	12.849,12.849,342.972,216.732,458.38,313.149,347.21,360.853,429.24,480.284,451.446,390.95,533.002,319.008,319.008,319.008
0.000326968	-8228847.68	0,5.98082e-06,1.60552e-05,3.30252e-05,6.16102e-05,0.00010976,0.000190867,0.000327489,0.000557621,0.000945268,0.00159824,0.00269815,0.00455089,0.00767176,0.0129287,0.0217838,inf	5.93707,5.93707,370.974,207.416,492.582,317.36,353.204,358.015,425.215,483.449,455.66,381.142,573.141,299.381,299.381,299.381
0.00029807	-8228147.20	0,5.98082e-06,1.60552e-05,3.30252e-05,6.16102e-05,0.00010976,0.000190867,0.000327489,0.000557621,0.000945268,0.00159824,0.00269815,0.00455089,0.00767176,0.0129287,0.0217838,inf	2.55798,2.55798,395.223,200.024,520.662,322.371,360.662,357.8,421.356,484.754,459.656,370.751,612.942,282.233,282.233,282.233
0.00027586	-8227790.34	0,5.98082e-06,1.60552e-05,3.30252e-05,6.16102e-05,0.00010976,0.000190867,0.000327489,0.000557621,0.000945268,0.00159824,0.00269815,0.00455089,0.00767176,0.0129287,0.0217838,inf	1.03646,1.03646,415.49,194.416,542.492,327.183,368.066,359.285,417.945,484.844,463.58,360.362,650.202,267.964,267.964,267.964
0.000259036	-8227669.15	0,5.98082e-06,1.60552e-05,3.30252e-05,6.16102e-05,0.00010976,0.000190867,0.000327489,0.000557621,0.000945268,0.00159824,0.00269815,0.00455089,0.00767176,0.0129287,0.0217838,inf	0.40885,0.40885,431.974,190.361,558.886,331.394,374.552,361.728,415.074,484.156,467.442,350.475,683.371,256.565,256.565,256.565
0.000246438	-8227689.48	0,5.98082e-06,1.60552e-05,3.30252e-05,6.16102e-05,0.00010976,0.000190867,0.000327489,0.000557621,0.000945268,0.00159824,0.00269815,0.00455089,0.00767176,0.0129287,0.0217838,inf	0.408722,0.408722,445.016,187.554,570.881,334.916,379.748,364.582,412.737,482.997,471.196,341.439,711.71,247.732,247.732,247.732
0.000237091	-8227781.41	0,5.98082e-06,1.60552e-05,3.30252e-05,6.16102e-05,0.00010976,0.000190867,0.000327489,0.000557621,0.000945268,0.00159824,0.00269815,0.00455089,0.00767176,0.0129287,0.0217838,inf	0.408722,0.408722,455.029,185.699,579.493,337.808,383.606,367.485,410.889,481.58,474.771,333.448,735.167,241.026,241.026,241.026
0.000230205	-8227899.79	0,5.98082e-06,1.60552e-05,3.30252e-05,6.16102e-05,0.00010976,0.000190867,0.000327489,0.000557621,0.000945268,0.00159824,0.00269815,0.00455089,0.00767176,0.0129287,0.0217838,inf	0.408722,0.408722,462.537,184.545,585.587,340.181,386.27,370.22,409.472,480.051,478.102,326.554,754.14,235.995,235.995,235.995
0.000225157	-8228019.10	0,5.98082e-06,1.60552e-05,3.30252e-05,6.16102e-05,0.00010976,0.000190867,0.000327489,0.000557621,0.000945268,0.00159824,0.00269815,0.00455089,0.00767176,0.0129287,0.0217838,inf	0.408722,0.408722,468.041,183.893,589.821,342.147,387.955,372.67,408.417,478.506,481.139,320.719,769.239,232.243,232.243,232.243
0.000221471	-8228127.00	0,5.98082e-06,1.60552e-05,3.30252e-05,6.16102e-05,0.00010976,0.000190867,0.000327489,0.000557621,0.000945268,0.00159824,0.00269815,0.00455089,0.00767176,0.0129287,0.0217838,inf	0.408721,0.408721,471.964,183.591,592.695,343.798,388.899,374.795,407.662,477.009,483.859,315.847,781.126,229.45,229.45,229.45
0.000218786	-8228218.99	0,5.98082e-06,1.60552e-05,3.30252e-05,6.16102e-05,0.00010976,0.000190867,0.000327489,0.000557621,0.000945268,0.00159824,0.00269815,0.00455089,0.00767176,0.0129287,0.0217838,inf	0.408721,0.408721,474.728,183.527,594.606,345.211,389.306,376.589,407.152,475.602,486.256,311.82,790.419,227.368,227.368,227.368
0.000216839	-8228294.70	0,5.98082e-06,1.60552e-05,3.30252e-05,6.16102e-05,0.00010976,0.000190867,0.000327489,0.000557621,0.000945268,0.00159824,0.00269815,0.00455089,0.00767176,0.0129287,0.0217838,inf	0.408721,0.408721,476.812,183.698,596.067,346.591,389.513,378.205,406.914,474.32,488.413,308.518,797.696,225.838,225.838,225.838
0.000215421	-8228355.98	0,5.98082e-06,1.60552e-05,3.30252e-05,6.16102e-05,0.00010976,0.000190867,0.000327489,0.000557621,0.000945268,0.00159824,0.00269815,0.00455089,0.00767176,0.0129287,0.0217838,inf	0.408721,0.408721,478,183.868,596.709,347.65,389.319,379.418,406.745,473.12,490.219,305.811,803.326,224.673,224.673,224.673
0.000214392	-8228404.49	0,5.98082e-06,1.60552e-05,3.30252e-05,6.16102e-05,0.00010976,0.000190867,0.000327489,0.000557621,0.000945268,0.00159824,0.00269815,0.00455089,0.00767176,0.0129287,0.0217838,inf	0.408721,0.408721,478.728,184.091,596.974,348.568,388.959,380.371,406.677,472.052,491.746,303.608,807.693,223.79,223.79,223.79
0.000213644	-8228442.68	0,5.98082e-06,1.60552e-05,3.30252e-05,6.16102e-05,0.00010976,0.000190867,0.000327489,0.000557621,0.000945268,0.00159824,0.00269815,0.00455089,0.00767176,0.0129287,0.0217838,inf	0.408721,0.408721,479.155,184.352,597.026,349.391,388.534,381.12,406.689,471.116,493.034,301.821,811.086,223.122,223.122,223.122
0.000213102	-8228472.65	0,5.98082e-06,1.60552e-05,3.30252e-05,6.16102e-05,0.00010976,0.000190867,0.000327489,0.000557621,0.000945268,0.00159824,0.00269815,0.00455089,0.00767176,0.0129287,0.0217838,inf	0.408721,0.408721,479.364,184.63,596.919,350.131,388.094,381.703,406.758,470.301,494.117,300.374,813.725,222.615,222.615,222.615
0.000212709	-8228496.10	0,5.98082e-06,1.60552e-05,3.30252e-05,6.16102e-05,0.00010976,0.000190867,0.000327489,0.000557621,0.000945268,0.00159824,0.00269815,0.00455089,0.00767176,0.0129287,0.0217838,inf	0.408721,0.408721,479.433,184.913,596.703,350.793,387.668,382.153,406.864,469.595,495.023,299.204,815.782,222.228,222.228,222.228
