0.000230768	-131584.76	0,1.52629e-05,3.31166e-05,5.4001e-05,7.84305e-05,0.000107007,0.000140434,0.000179536,0.000225275,0.000278778,0.000341363,0.000414573,0.000500209,0.000600383,0.00071756,0.000854629,0.00101496,0.00120252,0.00142191,0.00167854,0.00197873,0.00232989,0.00274065,0.00322114,0.00378319,0.00444065,0.00520971,0.00610932,0.00716164,0.00839259,0.00983249,0.0115168,inf	203.388,203.388,342.843,396.663,425.188,452.68,491.226,544.171,611.804,697.714,810.081,957.327,1141.34,1346.64,1533.47,1649.83,1672.06,1632.5,1569.37,1503.58,1444.31,1392.65,1347.15,1307.93,1275.64,1249.39,1228.3,1210.91,1210.91,1200.89,1200.89,1200.89
0.000241967	-131340.64	0,1.52629e-05,3.31166e-05,5.4001e-05,7.84305e-05,0.000107007,0.000140434,0.000179536,0.000225275,0.000278778,0.000341363,0.000414573,0.000500209,0.000600383,0.00071756,0.000854629,0.00101496,0.00120252,0.00142191,0.00167854,0.00197873,0.00232989,0.00274065,0.00322114,0.00378319,0.00444065,0.00520971,0.00610932,0.00716164,0.00839259,0.00983249,0.0115168,inf	80.9165,80.9165,224.266,279.548,290.735,296.347,317.505,360.556,425.509,516.444,646.072,831.091,1085.18,1404.92,1746.42,2011.25,2110.33,2072.4,1970.22,1852.38,1742.71,1645.29,1558.69,1485.41,1427.44,1381.34,1344.07,1314.62,1314.62,1306.79,1306.79,1306.79
0.00025329	-131250.84	0,1.52629e-05,3.31166e-05,5.4001e-05,7.84305e-05,0.000107007,0.000140434,0.000179536,0.000225275,0.000278778,0.000341363,0.000414573,0.000500209,0.000600383,0.00071756,0.000854629,0.00101496,0.00120252,0.00142191,0.00167854,0.00197873,0.00232989,0.00274065,0.00322114,0.00378319,0.00444065,0.00520971,0.00610932,0.00716164,0.00839259,0.00983249,0.0115168,inf	45.75,45.75,207.419,273.041,266.293,248.868,251.753,281.497,336.242,419.538,546.686,739.665,1020.93,1401.06,1848.51,2244.64,2435.45,2423.31,2302.49,2147.78,1999.2,1864.73,1744.59,1645.91,1572.1,1514.53,1466.36,1428.99,1428.99,1433.59,1433.59,1433.59
0.000263942	-131209.30	0,1.52629e-05,3.31166e-05,5.4001e-05,7.84305e-05,0.000107007,0.000140434,0.000179536,0.000225275,0.000278778,0.000341363,0.000414573,0.000500209,0.000600383,0.00071756,0.000854629,0.00101496,0.00120252,0.00142191,0.00167854,0.00197873,0.00232989,0.00274065,0.00322114,0.00378319,0.00444065,0.00520971,0.00610932,0.00716164,0.00839259,0.00983249,0.0115168,inf	29.1042,29.1042,216.623,302.26,276.805,236.399,223.696,242.704,288.093,362.362,482.458,673.786,964.814,1377.5,1896.12,2398.56,2677.72,2701.01,2573.94,2393.74,2216.11,2052.93,1907.38,1793.16,1714.63,1654.78,1600.88,1558.91,1558.91,1586.63,1586.63,1586.63
0.000273872	-131186.70	0,1.52629e-05,3.31166e-05,5.4001e-05,7.84305e-05,0.000107007,0.000140434,0.000179536,0.000225275,0.000278778,0.000341363,0.000414573,0.000500209,0.000600383,0.00071756,0.000854629,0.00101496,0.00120252,0.00142191,0.00167854,0.00197873,0.00232989,0.00274065,0.00322114,0.00378319,0.00444065,0.00520971,0.00610932,0.00716164,0.00839259,0.00983249,0.0115168,inf	18.6983,18.6983,229.738,343.668,299.886,237.194,211.461,222.323,260.153,326.27,438.764,625.281,918.44,1348.96,1916.2,2503.27,2861.73,2922.41,2795.49,2597.39,2398.27,2213.43,2050.18,1930.34,1858.67,1806.44,1752.3,1709.23,1709.23,1774.98,1774.98,1774.98
0.000283168	-131172.84	0,1.52629e-05,3.31166e-05,5.4001e-05,7.84305e-05,0.000107007,0.000140434,0.000179536,0.000225275,0.000278778,0.000341363,0.000414573,0.000500209,0.000600383,0.00071756,0.000854629,0.00101496,0.00120252,0.00142191,0.00167854,0.00197873,0.00232989,0.00274065,0.00322114,0.00378319,0.00444065,0.00520971,0.00610932,0.00716164,0.00839259,0.00983249,0.0115168,inf	11.6724,11.6724,237.9,386.081,326.476,243.296,206.809,211.484,243.266,302.393,407.835,588.692,880.472,1320.65,1921.85,2576.53,3004.44,3100.87,2976.94,2765.82,2550.76,2350,2175.91,2059.91,2006.97,1973.23,1925.32,1885.53,1885.53,2014.56,2014.56,2014.56
0.000291931	-131163.57	0,1.52629e-05,3.31166e-05,5.4001e-05,7.84305e-05,0.000107007,0.000140434,0.000179536,0.000225275,0.000278778,0.000341363,0.000414573,0.000500209,0.000600383,0.00071756,0.000854629,0.00101496,0.00120252,0.00142191,0.00167854,0.00197873,0.00232989,0.00274065,0.00322114,0.00378319,0.00444065,0.00520971,0.00610932,0.00716164,0.00839259,0.00983249,0.0115168,inf	7.02992,7.02992,238.46,423.91,352.54,251.449,206.194,206.111,232.956,286.112,385.288,560.496,849.262,1294.34,1919.72,2628.97,3117.18,3246.3,3126.2,2905.15,2678.2,2466.1,2287.17,2183.85,2161.74,2159.07,2125.56,2095.51,2095.51,2332.02,2332.02,2332.02
0.000300246	-131156.94	0,1.52629e-05,3.31166e-05,5.4001e-05,7.84305e-05,0.000107007,0.000140434,0.000179536,0.000225275,0.000278778,0.000341363,0.000414573,0.000500209,0.000600383,0.00071756,0.000854629,0.00101496,0.00120252,0.00142191,0.00167854,0.00197873,0.00232989,0.00274065,0.00322114,0.00378319,0.00444065,0.00520971,0.00610932,0.00716164,0.00839259,0.00983249,0.0115168,inf	4.10164,4.10164,231.997,454.908,376.367,260.228,207.905,204.122,226.836,274.831,368.494,538.376,823.401,1270.49,1913.36,2667.14,3207.68,3365.97,3249.52,3020.46,2784.6,2564.83,2386.18,2303.69,2325.09,2368.64,2361.13,2351.47,2351.47,2794.48,2794.48,2794.48
0.000308182	-131151.92	0,1.52629e-05,3.31166e-05,5.4001e-05,7.84305e-05,0.000107007,0.000140434,0.000179536,0.000225275,0.000278778,0.000341363,0.000414573,0.000500209,0.000600383,0.00071756,0.000854629,0.00101496,0.00120252,0.00142191,0.00167854,0.00197873,0.00232989,0.00274065,0.00322114,0.00378319,0.00444065,0.00520971,0.00610932,0.00716164,0.00839259,0.00983249,0.0115168,inf	2.33624,2.33624,220.372,478.754,397.384,268.973,211.029,204.35,223.523,266.988,355.793,520.762,801.772,1249.08,1904.72,2695.22,3281.27,3465.24,3351.74,3115.93,2873.36,2648.83,2474.84,2420.72,2499.22,2608.22,2644.06,2673.59,2673.59,3601.39,3601.39,3601.39
0.000315794	-131147.97	0,1.52629e-05,3.31166e-05,5.4001e-05,7.84305e-05,0.000107007,0.000140434,0.000179536,0.000225275,0.000278778,0.000341363,0.000414573,0.000500209,0.000600383,0.00071756,0.000854629,0.00101496,0.00120252,0.00142191,0.00167854,0.00197873,0.00232989,0.00274065,0.00322114,0.00378319,0.00444065,0.00520971,0.00610932,0.00716164,0.00839259,0.00983249,0.0115168,inf	1.25924,1.25924,205.588,496.065,415.514,277.357,215.026,206.087,222.162,261.59,346.085,506.561,783.514,1229.91,1894.92,2716.01,3341.77,3548.16,3436.71,3194.94,2947.31,2720.35,2554.74,2536.01,2686.54,2886.82,2994.35,3099.12,3099.12,5961.49,5961.49,5961.49
0.000323125	-131144.73	0,1.52629e-05,3.31166e-05,5.4001e-05,7.84305e-05,0.000107007,0.000140434,0.000179536,0.000225275,0.000278778,0.000341363,0.000414573,0.000500209,0.000600383,0.00071756,0.000854629,0.00101496,0.00120252,0.00142191,0.00167854,0.00197873,0.00232989,0.00274065,0.00322114,0.00378319,0.00444065,0.00520971,0.00610932,0.00716164,0.00839259,0.00983249,0.0115168,inf	1.11218,1.11218,189.327,507.846,430.933,285.212,219.55,208.873,222.196,257.973,338.614,494.987,767.961,1212.71,1884.6,2731.4,3391.94,3617.79,3507.45,3260.26,3008.84,2781.3,2627.17,2650.41,2890.03,3218.05,3447.98,3714.17,3714.17,32410,32410,32410
0.000330208	-131142.00	0,1.52629e-05,3.31166e-05,5.4001e-05,7.84305e-05,0.000107007,0.000140434,0.000179536,0.000225275,0.000278778,0.000341363,0.000414573,0.000500209,0.000600383,0.00071756,0.000854629,0.00101496,0.00120252,0.00142191,0.00167854,0.00197873,0.00232989,0.00274065,0.00322114,0.00378319,0.00444065,0.00520971,0.00610932,0.00716164,0.00839259,0.00983249,0.0115168,inf	1.11218,1.11218,172.781,515.135,443.873,292.442,224.36,212.393,223.242,255.681,332.849,485.466,754.597,1197.25,1874.15,2742.71,3433.84,3676.52,3566.38,3314.16,3059.91,2833.29,2693.24,2764.71,3113.35,3624.15,4080.4,4762.62,4762.62,213333,213333,213333
0.000337073	-131139.65	0,1.52629e-05,3.31166e-05,5.4001e-05,7.84305e-05,0.000107007,0.000140434,0.000179536,0.000225275,0.000278778,0.000341363,0.000414573,0.000500209,0.000600383,0.00071756,0.000854629,0.00101496,0.00120252,0.00142191,0.00167854,0.00197873,0.00232989,0.00274065,0.00322114,0.00378319,0.00444065,0.00520971,0.00610932,0.00716164,0.00839259,0.00983249,0.0115168,inf	1.11218,1.11218,156.762,518.927,454.616,298.999,229.291,216.424,225.031,254.389,328.4,477.572,743.021,1183.28,1863.78,2750.92,3469.05,3726.22,3615.46,3358.49,3102.17,2877.67,2753.83,2879.55,3361.2,4144.2,5089.14,7545.38,7545.38,61978.4,61978.4,61978.4
0.00034374	-131137.59	0,1.52629e-05,3.31166e-05,5.4001e-05,7.84305e-05,0.000107007,0.000140434,0.000179536,0.000225275,0.000278778,0.000341363,0.000414573,0.000500209,0.000600383,0.00071756,0.000854629,0.00101496,0.00120252,0.00142191,0.00167854,0.00197873,0.00232989,0.00274065,0.00322114,0.00378319,0.00444065,0.00520971,0.00610932,0.00716164,0.00839259,0.00983249,0.0115168,inf	1.11218,1.11218,141.74,520.088,463.439,304.869,234.225,220.805,227.37,253.86,324.983,470.98,732.918,1170.6,1853.63,2756.71,3498.77,3768.38,3656.26,3394.78,3136.99,2915.54,2809.74,2995.54,3639.92,4859.36,7287.92,32419.6,32419.6,61978.4,61978.4,61978.4
0.000350228	-131135.75	0,1.52629e-05,3.31166e-05,5.4001e-05,7.84305e-05,0.000107007,0.000140434,0.000179536,0.000225275,0.000278778,0.000341363,0.000414573,0.000500209,0.000600383,0.00071756,0.000854629,0.00101496,0.00120252,0.00142191,0.00167854,0.00197873,0.00232989,0.00274065,0.00322114,0.00378319,0.00444065,0.00520971,0.00610932,0.00716164,0.00839259,0.00983249,0.0115168,inf	1.11218,1.11218,127.954,519.329,470.595,310.054,239.073,225.415,230.115,253.92,322.382,465.442,724.039,1159.06,1843.77,2760.63,3523.95,3804.19,3690.1,3424.3,3165.52,2947.88,2861.57,3113.17,3958.32,5972.94,18831.4,299839,299839,483.205,483.205,483.205
0.000356553	-131134.09	0,1.52629e-05,3.31166e-05,5.4001e-05,7.84305e-05,0.000107007,0.000140434,0.000179536,0.000225275,0.000278778,0.000341363,0.000414573,0.000500209,0.000600383,0.00071756,0.000854629,0.00101496,0.00120252,0.00142191,0.00167854,0.00197873,0.00232989,0.00274065,0.00322114,0.00378319,0.00444065,0.00520971,0.00610932,0.00716164,0.00839259,0.00983249,0.0115168,inf	1.11218,1.11218,115.49,517.236,476.313,314.569,243.774,230.163,233.157,254.436,320.433,460.765,716.185,1148.49,1834.24,2763.06,3545.36,3834.64,3718.05,3448.12,3188.72,2975.46,2909.82,3232.9,4329.37,8271.59,443251,2337.65,2337.65,18006.2,18006.2,18006.2
0.000362727	-131132.58	0,1.52629e-05,3.31166e-05,5.4001e-05,7.84305e-05,0.000107007,0.000140434,0.000179536,0.000225275,0.000278778,0.000341363,0.000414573,0.000500209,0.000600383,0.00071756,0.000854629,0.00101496,0.00120252,0.00142191,0.00167854,0.00197873,0.00232989,0.00274065,0.00322114,0.00378319,0.00444065,0.00520971,0.00610932,0.00716164,0.00839259,0.00983249,0.0115168,inf	1.11218,1.11218,104.332,514.254,480.796,318.438,248.285,234.981,236.415,255.309,319.009,456.799,709.195,1138.78,1825.06,2764.32,3563.58,3860.53,3741,3467.11,3207.4,2998.94,2954.91,3355.17,4772.75,18883.2,781082,91.9121,91.9121,140.383,140.383,140.383
