LogLikelihood = -863359.97903376957402

y0 1.0180067181036025481
y0_prime 0
y1 1.0485144810472919463
y1_prime 0
y2 0.90681420274852631014
y2_prime 0
y3 1.7476080402914386802
y3_prime 0
rho 0.00074199668449621467535
rho.alpha 20.165287189203098706
r_ii 0.99994832159368818303
theta 0.0025615647482032377624
