LogLikelihood = -173477.69212663566577

y0 0.89122090713640678139
y0_prime 0
y1 1.083585417316327959
y1_prime 0
y2 0.92548897424954490454
y2_prime 0
y3 1.6343579577507361122
y3_prime 0
rho 0.00071753263874970850834
theta 0.0025769329547391086124
