0.000377281	-8915823.64	0,1.0533e-06,2.44076e-06,4.26838e-06,6.67582e-06,9.84701e-06,1.40243e-05,1.95267e-05,2.67749e-05,3.63224e-05,4.8899e-05,6.54654e-05,8.72875e-05,0.000116033,0.000153897,0.000203774,0.000269475,0.000356018,0.000470018,0.000620184,0.000817989,0.00107855,0.00142177,0.00187388,0.00246942,0.00325389,0.00428723,0.00564841,0.00744141,0.00980324,0.0129144,0.0170125,inf	5215.67,5215.67,5737.46,3161.4,2560.72,956.688,212.073,104.283,77.8076,64.7228,70.2691,88.3288,117.379,156.77,202.008,241.222,258.883,274.234,316.003,398.244,535.004,724.24,878.76,885.683,819.749,754.348,705.145,678.336,678.336,565.966,565.966,565.966
0.000392267	-8903282.80	0,1.0533e-06,2.44076e-06,4.26838e-06,6.67582e-06,9.84701e-06,1.40243e-05,1.95267e-05,2.67749e-05,3.63224e-05,4.8899e-05,6.54654e-05,8.72875e-05,0.000116033,0.000153897,0.000203774,0.000269475,0.000356018,0.000470018,0.000620184,0.000817989,0.00107855,0.00142177,0.00187388,0.00246942,0.00325389,0.00428723,0.00564841,0.00744141,0.00980324,0.0129144,0.0170125,inf	6634.43,6634.43,8545.19,3735.14,3800.27,867.782,106.514,46.3942,24.8956,12.1839,11.7654,17.9624,32.9048,61.5915,105.482,153.069,160.359,158.183,195.109,286.863,461.072,742.034,1027.94,1054.29,934.398,810.397,716.408,669.469,669.469,443.771,443.771,443.771
0.000407195	-8899073.22	0,1.0533e-06,2.44076e-06,4.26838e-06,6.67582e-06,9.84701e-06,1.40243e-05,1.95267e-05,2.67749e-05,3.63224e-05,4.8899e-05,6.54654e-05,8.72875e-05,0.000116033,0.000153897,0.000203774,0.000269475,0.000356018,0.000470018,0.000620184,0.000817989,0.00107855,0.00142177,0.00187388,0.00246942,0.00325389,0.00428723,0.00564841,0.00744141,0.00980324,0.0129144,0.0170125,inf	6639.64,6639.64,9588.88,3456.37,4523.03,744.172,70.7929,33.1581,12.1706,2.93551,2.36659,4.47418,11.7378,31.7735,72.7399,129.994,127.117,107.64,135.21,223.042,409.277,741.064,1131.37,1177.58,1014.17,839.9,707.546,646.728,646.728,310.361,310.361,310.361
0.000420804	-8897149.40	0,1.0533e-06,2.44076e-06,4.26838e-06,6.67582e-06,9.84701e-06,1.40243e-05,1.95267e-05,2.67749e-05,3.63224e-05,4.8899e-05,6.54654e-05,8.72875e-05,0.000116033,0.000153897,0.000203774,0.000269475,0.000356018,0.000470018,0.000620184,0.000817989,0.00107855,0.00142177,0.00187388,0.00246942,0.00325389,0.00428723,0.00564841,0.00744141,0.00980324,0.0129144,0.0170125,inf	6457.54,6457.54,10076.6,2986.28,4938.56,634.051,54.2566,29.2633,7.0903,0.780152,0.669323,1.25316,4.82901,19.2187,58.5371,128.806,116.159,81.7128,101.044,182.041,371.12,733.412,1205.96,1267.55,1067.52,850.421,686.082,616.027,616.027,155.428,155.428,155.428
0.000433462	-8896034.81	0,1.0533e-06,2.44076e-06,4.26838e-06,6.67582e-06,9.84701e-06,1.40243e-05,1.95267e-05,2.67749e-05,3.63224e-05,4.8899e-05,6.54654e-05,8.72875e-05,0.000116033,0.000153897,0.000203774,0.000269475,0.000356018,0.000470018,0.000620184,0.000817989,0.00107855,0.00142177,0.00187388,0.00246942,0.00325389,0.00428723,0.00564841,0.00744141,0.00980324,0.0129144,0.0170125,inf	6310.09,6310.09,10390,2527.14,5187.22,544.03,44.9619,28.546,4.45331,0.669323,0.669323,0.669323,2.15756,12.7003,51.0843,137.296,114.527,66.8707,79.7538,153.865,342.158,724.213,1262.99,1334.74,1102.9,849.693,659.69,585.413,585.413,92.7652,92.7652,92.7652
0.000445268	-8895400.14	0,1.0533e-06,2.44076e-06,4.26838e-06,6.67582e-06,9.84701e-06,1.40243e-05,1.95267e-05,2.67749e-05,3.63224e-05,4.8899e-05,6.54654e-05,8.72875e-05,0.000116033,0.000153897,0.000203774,0.000269475,0.000356018,0.000470018,0.000620184,0.000817989,0.00107855,0.00142177,0.00187388,0.00246942,0.00325389,0.00428723,0.00564841,0.00744141,0.00980324,0.0129144,0.0170125,inf	6201.31,6201.31,10610.2,2124.47,5334.18,470.041,38.7593,29.0958,2.86666,0.669323,0.669323,0.669323,1.01169,8.81117,46.4216,150.646,117.163,57.6225,65.5825,133.533,319.583,715.236,1308.63,1386.04,1126.39,843.49,634.289,568.798,568.798,89.6525,89.6525,89.6525
0.000456326	-8894985.53	0,1.0533e-06,2.44076e-06,4.26838e-06,6.67582e-06,9.84701e-06,1.40243e-05,1.95267e-05,2.67749e-05,3.63224e-05,4.8899e-05,6.54654e-05,8.72875e-05,0.000116033,0.000153897,0.000203774,0.000269475,0.000356018,0.000470018,0.000620184,0.000817989,0.00107855,0.00142177,0.00187388,0.00246942,0.00325389,0.00428723,0.00564841,0.00744141,0.00980324,0.0129144,0.0170125,inf	6116.58,6116.58,10759.7,1783.79,5416.39,408.395,34.165,30.2162,1.85106,0.669323,0.669323,0.669323,0.669323,6.28172,42.9926,166.349,121.681,51.4275,55.626,118.271,301.539,706.977,1346.14,1425.05,1140.35,832.696,608.784,555.988,555.988,96.1246,96.1246,96.1246
0.000466845	-8894664.80	0,1.0533e-06,2.44076e-06,4.26838e-06,6.67582e-06,9.84701e-06,1.40243e-05,1.95267e-05,2.67749e-05,3.63224e-05,4.8899e-05,6.54654e-05,8.72875e-05,0.000116033,0.000153897,0.000203774,0.000269475,0.000356018,0.000470018,0.000620184,0.000817989,0.00107855,0.00142177,0.00187388,0.00246942,0.00325389,0.00428723,0.00564841,0.00744141,0.00980324,0.0129144,0.0170125,inf	6045.49,6045.49,10855.1,1500.3,5457.23,356.753,30.4794,31.5387,1.18601,0.669323,0.669323,0.669323,0.669323,4.5541,40.1532,182.948,126.876,47.0222,48.3212,106.456,286.845,699.681,1378.05,1455.06,1147.49,819.075,583.747,543.863,543.863,106.144,106.144,106.144
0.000476977	-8894402.74	0,1.0533e-06,2.44076e-06,4.26838e-06,6.67582e-06,9.84701e-06,1.40243e-05,1.95267e-05,2.67749e-05,3.63224e-05,4.8899e-05,6.54654e-05,8.72875e-05,0.000116033,0.000153897,0.000203774,0.000269475,0.000356018,0.000470018,0.000620184,0.000817989,0.00107855,0.00142177,0.00187388,0.00246942,0.00325389,0.00428723,0.00564841,0.00744141,0.00980324,0.0129144,0.0170125,inf	5985.33,5985.33,10905.8,1265.97,5470.39,312.463,27.3214,32.8178,0.748645,0.669323,0.669323,0.669323,0.669323,3.34217,37.6478,199.589,132.11,43.7279,42.7671,97.0743,274.685,693.366,1406.05,1478.48,1149.99,804.187,559.939,531.999,531.999,117.628,117.628,117.628
0.000486822	-8894182.34	0,1.0533e-06,2.44076e-06,4.26838e-06,6.67582e-06,9.84701e-06,1.40243e-05,1.95267e-05,2.67749e-05,3.63224e-05,4.8899e-05,6.54654e-05,8.72875e-05,0.000116033,0.000153897,0.000203774,0.000269475,0.000356018,0.000470018,0.000620184,0.000817989,0.00107855,0.00142177,0.00187388,0.00246942,0.00325389,0.00428723,0.00564841,0.00744141,0.00980324,0.0129144,0.0170125,inf	5934.53,5934.53,10921.1,1072.4,5464.52,274.664,24.5473,33.903,0.669323,0.669323,0.669323,0.669323,0.669323,2.47953,35.3845,215.799,137.049,41.1572,38.4167,89.463,264.474,687.944,1431.21,1497,1149.46,789.163,537.884,520.676,520.676,129.449,129.449,129.449
0.000496445	-8893993.79	0,1.0533e-06,2.44076e-06,4.26838e-06,6.67582e-06,9.84701e-06,1.40243e-05,1.95267e-05,2.67749e-05,3.63224e-05,4.8899e-05,6.54654e-05,8.72875e-05,0.000116033,0.000153897,0.000203774,0.000269475,0.000356018,0.000470018,0.000620184,0.000817989,0.00107855,0.00142177,0.00187388,0.00246942,0.00325389,0.00428723,0.00564841,0.00744141,0.00980324,0.0129144,0.0170125,inf	5892.39,5892.39,10907.8,912.256,5444.44,242.165,22.0335,34.6522,0.669323,0.669323,0.669323,0.669323,0.669323,1.8594,33.3347,231.348,141.527,39.0778,34.9228,83.1745,255.789,683.292,1454.23,1511.83,1147.02,774.729,517.839,510.237,510.237,140.987,140.987,140.987
0.000505887	-8893830.57	0,1.0533e-06,2.44076e-06,4.26838e-06,6.67582e-06,9.84701e-06,1.40243e-05,1.95267e-05,2.67749e-05,3.63224e-05,4.8899e-05,6.54654e-05,8.72875e-05,0.000116033,0.000153897,0.000203774,0.000269475,0.000356018,0.000470018,0.000620184,0.000817989,0.00107855,0.00142177,0.00187388,0.00246942,0.00325389,0.00428723,0.00564841,0.00744141,0.00980324,0.0129144,0.0170125,inf	5858.51,5858.51,10872.2,779.558,5414.92,213.373,19.7413,35.0645,0.669323,0.669323,0.669323,0.669323,0.669323,1.41028,31.4891,246.147,145.474,37.3437,32.0569,77.8973,248.317,679.289,1475.54,1523.77,1143.43,761.297,499.848,500.893,500.893,151.951,151.951,151.951
0.000515174	-8893687.96	0,1.0533e-06,2.44076e-06,4.26838e-06,6.67582e-06,9.84701e-06,1.40243e-05,1.95267e-05,2.67749e-05,3.63224e-05,4.8899e-05,6.54654e-05,8.72875e-05,0.000116033,0.000153897,0.000203774,0.000269475,0.000356018,0.000470018,0.000620184,0.000817989,0.00107855,0.00142177,0.00187388,0.00246942,0.00325389,0.00428723,0.00564841,0.00744141,0.00980324,0.0129144,0.0170125,inf	5831.59,5831.59,10818.5,669.348,5378.25,188.058,17.711,35.2039,0.669323,0.669323,0.669323,0.669323,0.669323,1.08081,29.8432,260.2,148.875,35.8601,29.6634,73.4087,241.822,675.824,1495.44,1533.4,1139.17,749.06,483.825,492.712,492.712,162.23,162.23,162.23
0.000524323	-8893562.32	0,1.0533e-06,2.44076e-06,4.26838e-06,6.67582e-06,9.84701e-06,1.40243e-05,1.95267e-05,2.67749e-05,3.63224e-05,4.8899e-05,6.54654e-05,8.72875e-05,0.000116033,0.000153897,0.000203774,0.000269475,0.000356018,0.000470018,0.000620184,0.000817989,0.00107855,0.00142177,0.00187388,0.00246942,0.00325389,0.00428723,0.00564841,0.00744141,0.00980324,0.0129144,0.0170125,inf	5812.2,5812.2,10752.2,577.562,5336.29,165.934,15.8959,35.1124,0.669323,0.669323,0.669323,0.669323,0.669323,0.838139,28.3919,273.554,151.743,34.5629,27.6335,69.5463,236.126,672.805,1514.14,1541.14,1134.54,738.068,469.609,485.667,485.667,171.806,171.806,171.806
0.000533344	-8893450.74	0,1.0533e-06,2.44076e-06,4.26838e-06,6.67582e-06,9.84701e-06,1.40243e-05,1.95267e-05,2.67749e-05,3.63224e-05,4.8899e-05,6.54654e-05,8.72875e-05,0.000116033,0.000153897,0.000203774,0.000269475,0.000356018,0.000470018,0.000620184,0.000817989,0.00107855,0.00142177,0.00187388,0.00246942,0.00325389,0.00428723,0.00564841,0.00744141,0.00980324,0.0129144,0.0170125,inf	5797.66,5797.66,10674.8,500.817,5290.56,146.504,14.2922,34.8295,0.669323,0.669323,0.669323,0.669323,0.669323,0.669326,27.1267,286.277,154.104,33.4079,25.8892,66.1892,231.092,670.16,1531.79,1547.28,1129.76,728.291,457.014,479.676,479.676,180.704,180.704,180.704
0.000542245	-8893350.90	0,1.0533e-06,2.44076e-06,4.26838e-06,6.67582e-06,9.84701e-06,1.40243e-05,1.95267e-05,2.67749e-05,3.63224e-05,4.8899e-05,6.54654e-05,8.72875e-05,0.000116033,0.000153897,0.000203774,0.000269475,0.000356018,0.000470018,0.000620184,0.000817989,0.00107855,0.00142177,0.00187388,0.00246942,0.00325389,0.00428723,0.00564841,0.00744141,0.00980324,0.0129144,0.0170125,inf	5788.95,5788.95,10589.8,436.399,5241.53,129.24,12.886,34.3883,0.669323,0.669323,0.669323,0.669323,0.669323,0.669323,26.037,298.442,155.996,32.3635,24.3729,63.2455,226.614,667.829,1548.49,1552.06,1124.92,719.654,445.851,474.635,474.635,188.964,188.964,188.964
0.000551031	-8893260.91	0,1.0533e-06,2.44076e-06,4.26838e-06,6.67582e-06,9.84701e-06,1.40243e-05,1.95267e-05,2.67749e-05,3.63224e-05,4.8899e-05,6.54654e-05,8.72875e-05,0.000116033,0.000153897,0.000203774,0.000269475,0.000356018,0.000470018,0.000620184,0.000817989,0.00107855,0.00142177,0.00187388,0.00246942,0.00325389,0.00428723,0.00564841,0.00744141,0.00980324,0.0129144,0.0170125,inf	5785.71,5785.71,10498.5,382.314,5190.69,113.452,11.6463,33.8182,0.669323,0.669323,0.669323,0.669323,0.669323,0.669323,25.106,310.108,157.453,31.407,23.0414,60.6444,222.607,665.766,1564.36,1555.65,1120.1,712.06,435.939,470.436,470.436,196.633,196.633,196.633
0.000559707	-8893179.18	0,1.0533e-06,2.44076e-06,4.26838e-06,6.67582e-06,9.84701e-06,1.40243e-05,1.95267e-05,2.67749e-05,3.63224e-05,4.8899e-05,6.54654e-05,8.72875e-05,0.000116033,0.000153897,0.000203774,0.000269475,0.000356018,0.000470018,0.000620184,0.000817989,0.00107855,0.00142177,0.00187388,0.00246942,0.00325389,0.00428723,0.00564841,0.00744141,0.00980324,0.0129144,0.0170125,inf	5785.32,5785.32,10403,336.646,5139.34,99.7503,10.5587,33.1545,0.669323,0.669323,0.669323,0.669323,0.669323,0.669323,24.324,321.347,158.512,30.5212,21.8623,58.3301,219.003,663.935,1579.46,1558.22,1115.34,705.407,427.119,466.975,466.975,203.755,203.755,203.755
0.000568275	-8893104.42	0,1.0533e-06,2.44076e-06,4.26838e-06,6.67582e-06,9.84701e-06,1.40243e-05,1.95267e-05,2.67749e-05,3.63224e-05,4.8899e-05,6.54654e-05,8.72875e-05,0.000116033,0.000153897,0.000203774,0.000269475,0.000356018,0.000470018,0.000620184,0.000817989,0.00107855,0.00142177,0.00187388,0.00246942,0.00325389,0.00428723,0.00564841,0.00744141,0.00980324,0.0129144,0.0170125,inf	5790.57,5790.57,10305,298.01,5086.68,87.2978,9.60139,32.4102,0.669323,0.669323,0.669323,0.669323,0.669323,0.669323,23.6807,332.216,159.208,29.6934,20.8097,56.2586,215.749,662.304,1593.86,1559.87,1110.65,699.596,419.246,464.158,464.158,210.375,210.375,210.375
0.000576739	-8893035.62	0,1.0533e-06,2.44076e-06,4.26838e-06,6.67582e-06,9.84701e-06,1.40243e-05,1.95267e-05,2.67749e-05,3.63224e-05,4.8899e-05,6.54654e-05,8.72875e-05,0.000116033,0.000153897,0.000203774,0.000269475,0.000356018,0.000470018,0.000620184,0.000817989,0.00107855,0.00142177,0.00187388,0.00246942,0.00325389,0.00428723,0.00564841,0.00744141,0.00980324,0.0129144,0.0170125,inf	5798.34,5798.34,10204.7,265.282,5033.92,76.2289,8.76796,31.6106,0.669323,0.669323,0.669323,0.669323,0.669323,0.669323,23.1672,342.763,159.574,28.9137,19.8634,54.3942,212.799,660.853,1607.64,1560.72,1106.06,694.532,412.196,461.898,461.898,216.533,216.533,216.533
