5.86897e-05	-42174.85	0,9.34233e-06,2.21256e-05,3.96171e-05,6.3551e-05,9.63001e-05,0.000141111,0.000202427,0.000286326,0.000401127,0.00055821,0.000773149,0.00106725,0.00146968,0.00202033,0.00277379,inf	2866.45,2866.45,2725.69,3435.92,3654.88,3673.97,3734.5,4005.1,4193.17,4533.26,4884.85,5576.03,5621.86,4070.64,4070.64,4070.64
5.41631e-05	-42170.14	0,9.34233e-06,2.21256e-05,3.96171e-05,6.3551e-05,9.63001e-05,0.000141111,0.000202427,0.000286326,0.000401127,0.00055821,0.000773149,0.00106725,0.00146968,0.00202033,0.00277379,inf	2769.32,2769.32,2204.68,3246.17,3571.23,3538.43,3566.66,4001.16,4299.75,5014.97,5936.3,8657.65,8604.91,2995.49,2995.49,2995.49
4.97349e-05	-42170.65	0,9.34233e-06,2.21256e-05,3.96171e-05,6.3551e-05,9.63001e-05,0.000141111,0.000202427,0.000286326,0.000401127,0.00055821,0.000773149,0.00106725,0.00146968,0.00202033,0.00277379,inf	2896.89,2896.89,1921.85,3124.98,3534.14,3457.45,3426.45,3975.95,4323.32,5437.28,7305.73,16411.2,10272.1,1588.52,1588.52,1588.52
4.55415e-05	-42175.22	0,9.34233e-06,2.21256e-05,3.96171e-05,6.3551e-05,9.63001e-05,0.000141111,0.000202427,0.000286326,0.000401127,0.00055821,0.000773149,0.00106725,0.00146968,0.00202033,0.00277379,inf	3083.38,3083.38,1757.82,3009.9,3497.32,3406.81,3310.5,3953.8,4298.68,5844.54,9609.17,34891.8,3015.01,1323.36,1323.36,1323.36
4.17424e-05	-42182.45	0,9.34233e-06,2.21256e-05,3.96171e-05,6.3551e-05,9.63001e-05,0.000141111,0.000202427,0.000286326,0.000401127,0.00055821,0.000773149,0.00106725,0.00146968,0.00202033,0.00277379,inf	3284.8,3284.8,1668.18,2890.9,3456.86,3381.3,3215.09,3944.22,4240.6,6294.75,14783.5,49081,902.929,1322.04,1322.04,1322.04
3.80767e-05	-42192.18	0,9.34233e-06,2.21256e-05,3.96171e-05,6.3551e-05,9.63001e-05,0.000141111,0.000202427,0.000286326,0.000401127,0.00055821,0.000773149,0.00106725,0.00146968,0.00202033,0.00277379,inf	3472.34,3472.34,1622.7,2762.46,3411.44,3373.41,3129.17,3938.94,4140.33,6874.95,27242.9,180199,516.523,1349.09,1349.09,1349.09
3.48793e-05	-42209.14	0,9.34233e-06,2.21256e-05,3.96171e-05,6.3551e-05,9.63001e-05,0.000141111,0.000202427,0.000286326,0.000401127,0.00055821,0.000773149,0.00106725,0.00146968,0.00202033,0.00277379,inf	3678.03,3678.03,1616.84,2634.14,3352.33,3375.01,3049.85,3937.7,3982.97,7719.84,53296.1,2.43424e+06,492.513,524.745,524.745,524.745
