time_index	left_time_boundary	right_time_boundary	lambda
0	0	4.30572e-06	3.94243
1	4.30572e-06	9.34233e-06	3.94243
2	9.34233e-06	1.52339e-05	335.903
3	1.52339e-05	2.21256e-05	9100.38
4	2.21256e-05	3.01871e-05	1554.97
5	3.01871e-05	3.96171e-05	1893.41
6	3.96171e-05	5.06478e-05	987.493
7	5.06478e-05	6.3551e-05	3217.03
8	6.3551e-05	7.86445e-05	3591.95
9	7.86445e-05	9.63001e-05	4592.68
10	9.63001e-05	0.000116953	3204.13
11	0.000116953	0.000141111	3904.6
12	0.000141111	0.000169371	4277.55
13	0.000169371	0.000202427	3046.27
14	0.000202427	0.000241095	3347.02
15	0.000241095	0.000286326	4697.08
16	0.000286326	0.000339236	3924.51
17	0.000339236	0.000401127	3506.35
18	0.000401127	0.000473524	5055.39
19	0.000473524	0.00055821	4827.03
20	0.00055821	0.000657272	3075.79
21	0.000657272	0.000773149	4945.71
22	0.000773149	0.000908697	68451.2
23	0.000908697	0.00106725	30.6856
24	0.00106725	0.00125273	9.03869
25	0.00125273	0.00146968	3.94243
26	0.00146968	0.00172347	3.94243
27	0.00172347	0.00202033	3.94243
28	0.00202033	0.00236759	3.94243
29	0.00236759	0.00277379	1640.89
30	0.00277379	0.00324895	1640.89
31	0.00324895	inf	1640.89
