0.000183129	-5457984.83	0,1.35716e-06,3.71204e-06,7.79808e-06,1.4888e-05,2.71899e-05,4.85356e-05,8.55734e-05,0.000149839,0.00026135,0.000454837,0.000790565,0.0013731,0.00238388,0.00413774,0.00718093,inf	8.94062,8.94062,21.9315,44.3992,91.6626,232.649,371.696,548.757,631.179,884.201,1042.58,1622.59,1922.19,1996.35,1996.35,1996.35
0.000158995	-5449099.65	0,1.35716e-06,3.71204e-06,7.79808e-06,1.4888e-05,2.71899e-05,4.85356e-05,8.55734e-05,0.000149839,0.00026135,0.000454837,0.000790565,0.0013731,0.00238388,0.00413774,0.00718093,inf	1.20373,1.20373,1.20373,1.60147,7.00248,64.6778,138.817,325.319,412.732,769.822,915.357,1781.74,3120.11,4721.09,4721.09,4721.09
0.000132105	-5444793.16	0,1.35716e-06,3.71204e-06,7.79808e-06,1.4888e-05,2.71899e-05,4.85356e-05,8.55734e-05,0.000149839,0.00026135,0.000454837,0.000790565,0.0013731,0.00238388,0.00413774,0.00718093,inf	1.20373,1.20373,1.20373,1.20373,1.20373,22.4113,54.4619,208.067,290.79,735.438,834.823,1754.97,6371.76,63302.3,63302.3,63302.3
0.000132104	-5441423.02	0,1.35716e-06,3.71204e-06,7.79808e-06,1.4888e-05,2.71899e-05,4.85356e-05,8.55734e-05,0.000149839,0.00026135,0.000454837,0.000790565,0.0013731,0.00238388,0.00413774,0.00718093,inf	1.20373,1.20373,1.20373,1.20373,1.20373,3.78768,21.4003,142.443,212.476,767.045,790.211,1719.64,36589.4,143124,143124,143124
