LogLikelihood = -164795.46577122373856

y0 0.69985863640583545475
y0_prime 0
y1 0.73653608184588226226
y1_prime 0
y2 1.149356274306982062
y2_prime 0
y3 2.048366339601184194
y3_prime 0
rho 0.0001683867265116525925
theta 0.0024260597601576867378
