LogLikelihood = -42133.557185269870388

y0 0.56189316286179580295
y0_prime 0
y1 1.1111091668402688359
y1_prime 0
y2 0.85618700338260000926
y2_prime 0
y3 2.0617476320410670354
y3_prime 0
rho 3.2953309938009984321e-05
rho.alpha 0.72705824114301753625
r_ii 0.99992478186804156781
theta 0.00050720114427302992206
