LogLikelihood = -134323.97868066394585

y0 4.5836703503820092335e-10
y0_prime 0
y1 0.52780913341818369577
y1_prime 0
y2 2.083708714012971086
y2_prime 0
y3 7.8803158701903877059
y3_prime 0
rho 0.0040206850333892908689
theta 0.001842914699562499042
