3.45739e-05	-26706.53	0,2.46793e-06,5.35479e-06,8.7317e-06,1.26818e-05,1.73025e-05,2.27075e-05,2.90301e-05,3.64259e-05,4.50771e-05,5.51968e-05,6.70344e-05,8.08814e-05,9.7079e-05,0.000116026,0.000138189,0.000164115,0.000194441,0.000229916,0.000271412,0.000319952,0.000376732,0.00044315,0.000520842,0.000611723,0.000718031,0.000842385,0.000987848,0.001158,0.00135704,0.00158987,0.00186222,inf	173.455,173.455,366.736,560.844,792.954,1072.88,1414.33,1837.71,2375.02,3077.02,4024.36,5339.96,7159.65,9444.83,11592.6,12618,12467.2,11790.7,10993.9,10240,9606.74,9111.67,8728.76,8423.11,8171.36,7962.08,7789.9,7620,7620,7426.86,7426.86,7426.86
3.5045e-05	-26625.62	0,2.46793e-06,5.35479e-06,8.7317e-06,1.26818e-05,1.73025e-05,2.27075e-05,2.90301e-05,3.64259e-05,4.50771e-05,5.51968e-05,6.70344e-05,8.08814e-05,9.7079e-05,0.000116026,0.000138189,0.000164115,0.000194441,0.000229916,0.000271412,0.000319952,0.000376732,0.00044315,0.000520842,0.000611723,0.000718031,0.000842385,0.000987848,0.001158,0.00135704,0.00158987,0.00186222,inf	6.87824,6.87824,23.6437,56.0853,113.472,209.391,364.223,608.781,990.89,1586.16,2518.46,3996.05,6341.31,9889.6,14337,17590,18212.7,17234,15664.1,14031.9,12645.4,11592.1,10797.2,10161.1,9629.18,9184.35,8823.16,8479.14,8479.14,8104.46,8104.46,8104.46
3.58874e-05	-26596.48	0,2.46793e-06,5.35479e-06,8.7317e-06,1.26818e-05,1.73025e-05,2.27075e-05,2.90301e-05,3.64259e-05,4.50771e-05,5.51968e-05,6.70344e-05,8.08814e-05,9.7079e-05,0.000116026,0.000138189,0.000164115,0.000194441,0.000229916,0.000271412,0.000319952,0.000376732,0.00044315,0.000520842,0.000611723,0.000718031,0.000842385,0.000987848,0.001158,0.00135704,0.00158987,0.00186222,inf	6.87823,6.87823,6.87823,6.87823,17.5059,44.1318,101.41,217.941,444.96,871.406,1649.34,3039.86,5478.43,9598.2,15771.4,21602.4,23663.8,22857.2,20660.8,18096.9,15890.5,14270.4,13079.2,12112,11278.9,10570.8,10002.7,9483.96,9483.96,8953.27,8953.27,8953.27
3.67503e-05	-26583.16	0,2.46793e-06,5.35479e-06,8.7317e-06,1.26818e-05,1.73025e-05,2.27075e-05,2.90301e-05,3.64259e-05,4.50771e-05,5.51968e-05,6.70344e-05,8.08814e-05,9.7079e-05,0.000116026,0.000138189,0.000164115,0.000194441,0.000229916,0.000271412,0.000319952,0.000376732,0.00044315,0.000520842,0.000611723,0.000718031,0.000842385,0.000987848,0.001158,0.00135704,0.00158987,0.00186222,inf	6.87823,6.87823,6.87823,6.87823,6.87823,8.75081,29.8915,82.4386,210.405,501.216,1120.38,2365.26,4747.49,9104.53,16505.1,24971.4,28921.7,28730.3,26039.8,22459.2,19355.1,17178.6,15631.9,14344.5,13184.2,12173.5,11371.3,10673,10673,10021.4,10021.4,10021.4
3.75528e-05	-26576.05	0,2.46793e-06,5.35479e-06,8.7317e-06,1.26818e-05,1.73025e-05,2.27075e-05,2.90301e-05,3.64259e-05,4.50771e-05,5.51968e-05,6.70344e-05,8.08814e-05,9.7079e-05,0.000116026,0.000138189,0.000164115,0.000194441,0.000229916,0.000271412,0.000319952,0.000376732,0.00044315,0.000520842,0.000611723,0.000718031,0.000842385,0.000987848,0.001158,0.00135704,0.00158987,0.00186222,inf	6.87823,6.87823,6.87823,6.87823,6.87823,6.87823,9.23336,32.5936,103.629,298.787,783.402,1877.25,4147.7,8575.62,16847.4,27971.1,34227,35134.8,32050.2,27275.7,23140.6,20416.5,18572.1,16979,15450.9,14074.8,12995.4,12103.6,12103.6,11386.6,11386.6,11386.6
3.82825e-05	-26571.80	0,2.46793e-06,5.35479e-06,8.7317e-06,1.26818e-05,1.73025e-05,2.27075e-05,2.90301e-05,3.64259e-05,4.50771e-05,5.51968e-05,6.70344e-05,8.08814e-05,9.7079e-05,0.000116026,0.000138189,0.000164115,0.000194441,0.000229916,0.000271412,0.000319952,0.000376732,0.00044315,0.000520842,0.000611723,0.000718031,0.000842385,0.000987848,0.001158,0.00135704,0.00158987,0.00186222,inf	6.87823,6.87823,6.87823,6.87823,6.87823,6.87823,6.87823,13.3681,52.7652,183.314,560.584,1514.29,3653.19,8062.73,16949.9,30787.5,39861.3,42537.8,39159.4,32856.3,27451.7,24175.9,22111.3,20226.7,18256.4,16408.6,14988.1,13884.1,13884.1,13312.6,13312.6,13312.6
3.89459e-05	-26569.06	0,2.46793e-06,5.35479e-06,8.7317e-06,1.26818e-05,1.73025e-05,2.27075e-05,2.90301e-05,3.64259e-05,4.50771e-05,5.51968e-05,6.70344e-05,8.08814e-05,9.7079e-05,0.000116026,0.000138189,0.000164115,0.000194441,0.000229916,0.000271412,0.000319952,0.000376732,0.00044315,0.000520842,0.000611723,0.000718031,0.000842385,0.000987848,0.001158,0.00135704,0.00158987,0.00186222,inf	6.87823,6.87823,6.87823,6.87823,6.87823,6.87823,6.87823,6.87823,27.6216,115.151,408.7,1237.57,3240.07,7579.86,16890.5,33551.3,46165.7,51722.6,48234.3,39769.1,32658.5,28805,26642.1,24482.7,21927,19439.1,17521.6,16202.8,16202.8,15470.9,15470.9,15470.9
3.95554e-05	-26567.19	0,2.46793e-06,5.35479e-06,8.7317e-06,1.26818e-05,1.73025e-05,2.27075e-05,2.90301e-05,3.64259e-05,4.50771e-05,5.51968e-05,6.70344e-05,8.08814e-05,9.7079e-05,0.000116026,0.000138189,0.000164115,0.000194441,0.000229916,0.000271412,0.000319952,0.000376732,0.00044315,0.000520842,0.000611723,0.000718031,0.000842385,0.000987848,0.001158,0.00135704,0.00158987,0.00186222,inf	6.87823,6.87823,6.87823,6.87823,6.87823,6.87823,6.87823,6.87823,14.8014,73.7726,302.551,1022.1,2889.85,7128.42,16712.1,36366,53615.9,64195.2,61109.3,49154.4,39466.6,34984.3,32983.6,30612.3,27181.3,23620.5,21024,19687.3,19687.3,22667.4,22667.4,22667.4
4.0125e-05	-26565.87	0,2.46793e-06,5.35479e-06,8.7317e-06,1.26818e-05,1.73025e-05,2.27075e-05,2.90301e-05,3.64259e-05,4.50771e-05,5.51968e-05,6.70344e-05,8.08814e-05,9.7079e-05,0.000116026,0.000138189,0.000164115,0.000194441,0.000229916,0.000271412,0.000319952,0.000376732,0.00044315,0.000520842,0.000611723,0.000718031,0.000842385,0.000987848,0.001158,0.00135704,0.00158987,0.00186222,inf	6.87823,6.87823,6.87823,6.87823,6.87823,6.87823,6.87823,6.87823,8.08898,48.0457,226.793,851.243,2588.74,6705.57,16439.3,39326,62977.1,83493.6,82688.9,63764.4,49427.1,44269.5,43218.8,40959.7,35973.2,30268.5,27062.2,27822.9,27822.9,310742,310742,310742
4.06694e-05	-26564.92	0,2.46793e-06,5.35479e-06,8.7317e-06,1.26818e-05,1.73025e-05,2.27075e-05,2.90301e-05,3.64259e-05,4.50771e-05,5.51968e-05,6.70344e-05,8.08814e-05,9.7079e-05,0.000116026,0.000138189,0.000164115,0.000194441,0.000229916,0.000271412,0.000319952,0.000376732,0.00044315,0.000520842,0.000611723,0.000718031,0.000842385,0.000987848,0.001158,0.00135704,0.00158987,0.00186222,inf	6.87823,6.87823,6.87823,6.87823,6.87823,6.87823,6.87823,6.87823,6.87823,31.7286,171.765,713.656,2326.44,6307.27,16086.6,42529.9,75668.3,121024,132656,92772.1,66922.9,61364.1,65051.6,66344.4,54813,42638.2,199964,381416,381416,310742,310742,310742
4.1205e-05	-26564.23	0,2.46793e-06,5.35479e-06,8.7317e-06,1.26818e-05,1.73025e-05,2.27075e-05,2.90301e-05,3.64259e-05,4.50771e-05,5.51968e-05,6.70344e-05,8.08814e-05,9.7079e-05,0.000116026,0.000138189,0.000164115,0.000194441,0.000229916,0.000271412,0.000319952,0.000376732,0.00044315,0.000520842,0.000611723,0.000718031,0.000842385,0.000987848,0.001158,0.00135704,0.00158987,0.00186222,inf	6.87823,6.87823,6.87823,6.87823,6.87823,6.87823,6.87823,6.87823,6.87823,21.1975,131.171,601.312,2095.11,5929.22,15662.6,46093.2,94831,241254,384429,191613,111588,110575,155311,490222,405017,584517,292980,1.0368e+06,1.0368e+06,12217.8,12217.8,12217.8
4.17502e-05	-26563.75	0,2.46793e-06,5.35479e-06,8.7317e-06,1.26818e-05,1.73025e-05,2.27075e-05,2.90301e-05,3.64259e-05,4.50771e-05,5.51968e-05,6.70344e-05,8.08814e-05,9.7079e-05,0.000116026,0.000138189,0.000164115,0.000194441,0.000229916,0.000271412,0.000319952,0.000376732,0.00044315,0.000520842,0.000611723,0.000718031,0.000842385,0.000987848,0.001158,0.00135704,0.00158987,0.00186222,inf	6.87823,6.87823,6.87823,6.87823,6.87823,6.87823,6.87823,6.87823,6.87823,14.297,100.832,508.472,1888.76,5567.34,15172.2,50162.6,129554,2.07804e+06,1.26335e+07,674959,60146.2,59600,83713,264231,43287.3,22982.1,11519.4,8083.22,8083.22,6585.44,6585.44,6585.44
4.23219e-05	-26563.42	0,2.46793e-06,5.35479e-06,8.7317e-06,1.26818e-05,1.73025e-05,2.27075e-05,2.90301e-05,3.64259e-05,4.50771e-05,5.51968e-05,6.70344e-05,8.08814e-05,9.7079e-05,0.000116026,0.000138189,0.000164115,0.000194441,0.000229916,0.000271412,0.000319952,0.000376732,0.00044315,0.000520842,0.000611723,0.000718031,0.000842385,0.000987848,0.001158,0.00135704,0.00158987,0.00186222,inf	6.87823,6.87823,6.87823,6.87823,6.87823,6.87823,6.87823,6.87823,6.87823,9.7174,77.8825,430.862,1702.54,5217.51,14617.1,54935.2,222109,1.84233e+07,30.1925,111.52,370.319,1263.08,1774.1,3018.29,12576,18149.6,39650.5,87510.3,87510.3,5200.7,5200.7,5200.7
4.29666e-05	-26563.26	0,2.46793e-06,5.35479e-06,8.7317e-06,1.26818e-05,1.73025e-05,2.27075e-05,2.90301e-05,3.64259e-05,4.50771e-05,5.51968e-05,6.70344e-05,8.08814e-05,9.7079e-05,0.000116026,0.000138189,0.000164115,0.000194441,0.000229916,0.000271412,0.000319952,0.000376732,0.00044315,0.000520842,0.000611723,0.000718031,0.000842385,0.000987848,0.001158,0.00135704,0.00158987,0.00186222,inf	6.87823,6.87823,6.87823,6.87823,6.87823,6.87823,6.87823,6.87823,6.87823,6.87823,60.326,365.224,1532.37,4875.32,13996.3,60671.7,918101,1.95281e+07,7.58088,7.43352,7.0203,9.84741,13.8315,23.5316,98.0469,141.5,309.129,682.259,682.259,2422.65,2422.65,2422.65
