AIC = 2466417.6195021276362

y0 1.0245371608895523785
y0_prime 0
y1 1.0656921956644707095
y1_prime 0
y2 0.89459898396732906445
y2_prime 0
y3 1.776546012999586921
y3_prime 0
rho 0.00030703822136157700104
theta 0.005192887759803139873
