AIC = 1339809.0115376040339

y0 0.20350374144815983057
y0_prime 0
y1 0.61253720995057281407
y1_prime 0
y2 1.6974254010175560126
y2_prime 0
y3 13.316097526447748578
y3_prime 0
rho 0.015752837043735368194
rho.alpha 0.53276818905749090405
r_ii 0.99991919072278201419
theta 0.0018397133792199932799
