AIC = 2983645.9709429675713

y0 0.97315880630718765154
y0_prime 0
y1 1.0519569141943148072
y1_prime 0
y2 0.87985315622033266614
y2_prime 0
y3 1.7088621295652881571
y3_prime 0
rho 0.0018219748122346320594
rho.alpha 0.65801303616544470909
r_ii 0.99998308865267371282
theta 0.0049217878748606001468
