time_index	left_time_boundary	right_time_boundary	lambda
0	0	4.19372e-05	129.718
1	4.19372e-05	9.09933e-05	129.718
2	9.09933e-05	0.000148377	959.751
3	0.000148377	0.000215501	343.898
4	0.000215501	0.000294019	540.54
5	0.000294019	0.000385866	515.992
6	0.000385866	0.000493304	560.164
7	0.000493304	0.00061898	298.804
8	0.00061898	0.000765989	203.584
9	0.000765989	0.000937953	314.868
10	0.000937953	0.00113911	492.156
11	0.00113911	0.00137441	515.968
12	0.00137441	0.00164965	468.279
13	0.00164965	0.00197162	404.34
14	0.00197162	0.00234824	364.672
15	0.00234824	0.00278878	355.539
16	0.00278878	0.00330412	373.882
17	0.00330412	0.00390693	410.104
18	0.00390693	0.00461207	393.219
19	0.00461207	0.0054369	348.692
20	0.0054369	0.00640175	349.351
21	0.00640175	0.00753039	346.208
22	0.00753039	0.00885061	356.549
23	0.00885061	0.0103949	419.26
24	0.0103949	0.0122014	493.155
25	0.0122014	0.0143145	255.314
26	0.0143145	0.0167864	247.953
27	0.0167864	0.0196778	241.54
28	0.0196778	0.02306	241.54
29	0.02306	0.0270164	6.21845
30	0.0270164	0.0316444	6.21845
31	0.0316444	inf	6.21845
