LogLikelihood = -6657.5868222233893903

y0 4.7324477712980555774e-09
y0_prime 0
y1 0.30085000409874329552
y1_prime 0
y2 2.5960059883148609572
y2_prime 0
y3 3.077444535497994238
y3_prime 0
rho 4.9943828916492150435e-06
rho.alpha 0.10096920803375274145
r_ii 0.99993580770772438893
theta 6.3547586517306896628e-05
