AIC = 548268.697375727701

y0 1.5681854124000548211e-06
y0_prime 0
y1 0.95093707555200734927
y1_prime 0
y2 1.7767854694990257158
y2_prime 0
y3 1.1182681863533541211
y3_prime 0
rho 0.0026501779781359304129
rho.alpha 1.1568353692662791676
r_ii 0.99999999999501221204
theta 0.004265278564254909241
