0.000660783	-45975831.29	0,4.55468e-06,1.03519e-05,1.77306e-05,2.71223e-05,3.9076e-05,5.42908e-05,7.36563e-05,9.83047e-05,0.000129677,0.000169609,0.000220433,0.000285123,0.000367461,0.000472261,0.00060565,0.000775429,0.000991524,0.00126657,0.00161665,0.00206224,0.00262938,0.00335124,0.00427003,0.00543947,0.00692793,0.00882246,0.0112338,0.014303,0.0182095,0.0231817,0.0295103,inf	243.725,243.725,269.192,303.81,275.453,262.441,262.993,262.432,266.737,272.973,278.711,285.94,293.57,301.051,309.39,319.926,333.715,351.202,372.085,395.337,418.177,435.603,443.289,441.351,433.9,424.904,416.467,407.4,407.4,395.615,395.615,395.615
0.000695738	-45964679.24	0,4.55468e-06,1.03519e-05,1.77306e-05,2.71223e-05,3.9076e-05,5.42908e-05,7.36563e-05,9.83047e-05,0.000129677,0.000169609,0.000220433,0.000285123,0.000367461,0.000472261,0.00060565,0.000775429,0.000991524,0.00126657,0.00161665,0.00206224,0.00262938,0.00335124,0.00427003,0.00543947,0.00692793,0.00882246,0.0112338,0.014303,0.0182095,0.0231817,0.0295103,inf	222.52,222.52,251.787,320.097,263.822,240.012,239.272,234.804,238.87,245.501,250.7,258.525,266.531,273.535,281.322,292.395,308.713,331.137,359.513,392.926,427.906,456.784,471.343,469.838,458.049,442.593,427.539,410.951,410.951,389.576,389.576,389.576
0.000728632	-45959811.57	0,4.55468e-06,1.03519e-05,1.77306e-05,2.71223e-05,3.9076e-05,5.42908e-05,7.36563e-05,9.83047e-05,0.000129677,0.000169609,0.000220433,0.000285123,0.000367461,0.000472261,0.00060565,0.000775429,0.000991524,0.00126657,0.00161665,0.00206224,0.00262938,0.00335124,0.00427003,0.00543947,0.00692793,0.00882246,0.0112338,0.014303,0.0182095,0.0231817,0.0295103,inf	215.052,215.052,241.611,346.839,265.041,235.698,235.786,228.422,233.058,240.266,244.887,253.099,260.85,266.265,271.877,281.26,297.159,320.725,351.961,390.245,432.102,468.601,488.811,488.791,474.601,454.491,434.243,411.423,411.423,382.206,382.206,382.206
0.000759514	-45956810.46	0,4.55468e-06,1.03519e-05,1.77306e-05,2.71223e-05,3.9076e-05,5.42908e-05,7.36563e-05,9.83047e-05,0.000129677,0.000169609,0.000220433,0.000285123,0.000367461,0.000472261,0.00060565,0.000775429,0.000991524,0.00126657,0.00161665,0.00206224,0.00262938,0.00335124,0.00427003,0.00543947,0.00692793,0.00882246,0.0112338,0.014303,0.0182095,0.0231817,0.0295103,inf	209.604,209.604,227.984,368.29,264.055,233.33,235.573,226.16,232.149,240.415,245.012,254.179,262.085,266.102,269.48,276.786,291.44,314.791,346.949,387.574,433.391,474.953,499.592,501.376,485.923,462.393,438.015,409.978,409.978,374.212,374.212,374.212
0.000788701	-45954586.92	0,4.55468e-06,1.03519e-05,1.77306e-05,2.71223e-05,3.9076e-05,5.42908e-05,7.36563e-05,9.83047e-05,0.000129677,0.000169609,0.000220433,0.000285123,0.000367461,0.000472261,0.00060565,0.000775429,0.000991524,0.00126657,0.00161665,0.00206224,0.00262938,0.00335124,0.00427003,0.00543947,0.00692793,0.00882246,0.0112338,0.014303,0.0182095,0.0231817,0.0295103,inf	205.777,205.777,212.777,384.35,259.991,230.496,235.335,224.226,231.871,241.361,246.309,256.899,265.435,268.496,269.982,275.36,288.639,311.298,343.513,385.171,433.243,478.144,506.164,509.728,493.671,467.571,439.865,407.401,407.401,366.028,366.028,366.028
0.000816474	-45952771.99	0,4.55468e-06,1.03519e-05,1.77306e-05,2.71223e-05,3.9076e-05,5.42908e-05,7.36563e-05,9.83047e-05,0.000129677,0.000169609,0.000220433,0.000285123,0.000367461,0.000472261,0.00060565,0.000775429,0.000991524,0.00126657,0.00161665,0.00206224,0.00262938,0.00335124,0.00427003,0.00543947,0.00692793,0.00882246,0.0112338,0.014303,0.0182095,0.0231817,0.0295103,inf	203.464,203.464,198.003,397.172,254.176,227.442,234.839,222.07,231.361,241.963,247.4,259.655,269.158,271.67,271.664,275.409,287.425,309.269,341.153,383.141,432.432,479.5,510.06,515.243,498.965,470.895,440.471,404.206,404.206,357.912,357.912,357.912
0.000843046	-45951213.60	0,4.55468e-06,1.03519e-05,1.77306e-05,2.71223e-05,3.9076e-05,5.42908e-05,7.36563e-05,9.83047e-05,0.000129677,0.000169609,0.000220433,0.000285123,0.000367461,0.000472261,0.00060565,0.000775429,0.000991524,0.00126657,0.00161665,0.00206224,0.00262938,0.00335124,0.00427003,0.00543947,0.00692793,0.00882246,0.0112338,0.014303,0.0182095,0.0231817,0.0295103,inf	202.139,202.139,184.48,408.249,247.638,224.619,234.368,219.845,230.639,242.112,248.009,261.985,272.635,274.906,273.764,276.181,287.115,308.166,339.56,381.491,431.357,479.784,512.231,518.832,502.557,472.951,440.29,400.72,400.72,350.015,350.015,350.015
0.000868569	-45949838.49	0,4.55468e-06,1.03519e-05,1.77306e-05,2.71223e-05,3.9076e-05,5.42908e-05,7.36563e-05,9.83047e-05,0.000129677,0.000169609,0.000220433,0.000285123,0.000367461,0.000472261,0.00060565,0.000775429,0.000991524,0.00126657,0.00161665,0.00206224,0.00262938,0.00335124,0.00427003,0.00543947,0.00692793,0.00882246,0.0112338,0.014303,0.0182095,0.0231817,0.0295103,inf	201.325,201.325,172.399,418.289,240.916,222.258,234.13,217.747,229.884,241.952,248.199,263.836,275.688,277.925,275.928,277.288,287.331,307.671,338.525,380.188,430.218,479.442,513.272,521.095,504.956,474.14,439.623,397.152,397.152,342.421,342.421,342.421
0.000893159	-45948606.18	0,4.55468e-06,1.03519e-05,1.77306e-05,2.71223e-05,3.9076e-05,5.42908e-05,7.36563e-05,9.83047e-05,0.000129677,0.000169609,0.000220433,0.000285123,0.000367461,0.000472261,0.00060565,0.000775429,0.000991524,0.00126657,0.00161665,0.00206224,0.00262938,0.00335124,0.00427003,0.00543947,0.00692793,0.00882246,0.0112338,0.014303,0.0182095,0.0231817,0.0295103,inf	200.704,200.704,161.637,427.542,234.233,220.418,234.216,215.885,229.237,241.646,248.11,265.283,278.315,280.637,277.999,278.527,287.853,307.577,337.899,379.18,429.112,478.736,513.565,522.432,506.51,474.736,438.672,393.63,393.63,335.17,335.17,335.17
0.000916901	-45947491.40	0,4.55468e-06,1.03519e-05,1.77306e-05,2.71223e-05,3.9076e-05,5.42908e-05,7.36563e-05,9.83047e-05,0.000129677,0.000169609,0.000220433,0.000285123,0.000367461,0.000472261,0.00060565,0.000775429,0.000991524,0.00126657,0.00161665,0.00206224,0.00262938,0.00335124,0.00427003,0.00543947,0.00692793,0.00882246,0.0112338,0.014303,0.0182095,0.0231817,0.0295103,inf	200.133,200.133,152.088,436.068,227.67,219.061,234.613,214.299,228.781,241.319,247.868,266.433,280.568,283.036,279.911,279.786,288.547,307.752,337.574,378.419,428.081,477.825,513.357,523.116,507.46,474.925,437.572,390.233,390.233,328.276,328.276,328.276
0.00093986	-45946476.75	0,4.55468e-06,1.03519e-05,1.77306e-05,2.71223e-05,3.9076e-05,5.42908e-05,7.36563e-05,9.83047e-05,0.000129677,0.000169609,0.000220433,0.000285123,0.000367461,0.000472261,0.00060565,0.000775429,0.000991524,0.00126657,0.00161665,0.00206224,0.00262938,0.00335124,0.00427003,0.00543947,0.00692793,0.00882246,0.0112338,0.014303,0.0182095,0.0231817,0.0295103,inf	199.551,199.551,143.598,443.899,221.257,218.112,235.275,212.981,228.546,241.047,247.573,267.378,282.517,285.148,281.643,281.008,289.328,308.105,337.471,377.858,427.14,476.804,512.812,523.333,507.976,474.84,436.412,387.007,387.007,321.737,321.737,321.737
0.000962091	-45945549.29	0,4.55468e-06,1.03519e-05,1.77306e-05,2.71223e-05,3.9076e-05,5.42908e-05,7.36563e-05,9.83047e-05,0.000129677,0.000169609,0.000220433,0.000285123,0.000367461,0.000472261,0.00060565,0.000775429,0.000991524,0.00126657,0.00161665,0.00206224,0.00262938,0.00335124,0.00427003,0.00543947,0.00692793,0.00882246,0.0112338,0.014303,0.0182095,0.0231817,0.0295103,inf	198.948,198.948,136.039,451.056,214.99,217.499,236.138,211.892,228.53,240.87,247.286,268.194,284.228,287.009,283.197,282.162,290.147,308.575,337.533,377.46,426.292,475.731,512.038,523.215,508.176,474.571,435.249,383.974,383.974,315.542,315.542,315.542
0.000983637	-45944698.77	0,4.55468e-06,1.03519e-05,1.77306e-05,2.71223e-05,3.9076e-05,5.42908e-05,7.36563e-05,9.83047e-05,0.000129677,0.000169609,0.000220433,0.000285123,0.000367461,0.000472261,0.00060565,0.000775429,0.000991524,0.00126657,0.00161665,0.00206224,0.00262938,0.00335124,0.00427003,0.00543947,0.00692793,0.00882246,0.0112338,0.014303,0.0182095,0.0231817,0.0295103,inf	198.32,198.32,129.331,457.541,208.888,217.148,237.141,210.995,228.714,240.802,247.046,268.937,285.754,288.656,284.584,283.235,290.969,309.119,337.716,377.193,425.531,474.641,511.112,522.854,508.146,474.182,434.123,381.145,381.145,309.672,309.672,309.672
0.00100453	-45943916.85	0,4.55468e-06,1.03519e-05,1.77306e-05,2.71223e-05,3.9076e-05,5.42908e-05,7.36563e-05,9.83047e-05,0.000129677,0.000169609,0.000220433,0.000285123,0.000367461,0.000472261,0.00060565,0.000775429,0.000991524,0.00126657,0.00161665,0.00206224,0.00262938,0.00335124,0.00427003,0.00543947,0.00692793,0.00882246,0.0112338,0.014303,0.0182095,0.0231817,0.0295103,inf	197.724,197.724,123.373,463.421,202.952,217.021,238.225,210.252,229.074,240.846,246.88,269.645,287.14,290.125,285.82,284.222,291.776,309.708,337.988,377.031,424.85,473.556,510.085,522.317,507.948,473.718,433.055,378.521,378.521,304.108,304.108,304.108
0.00102482	-45943196.47	0,4.55468e-06,1.03519e-05,1.77306e-05,2.71223e-05,3.9076e-05,5.42908e-05,7.36563e-05,9.83047e-05,0.000129677,0.000169609,0.000220433,0.000285123,0.000367461,0.000472261,0.00060565,0.000775429,0.000991524,0.00126657,0.00161665,0.00206224,0.00262938,0.00335124,0.00427003,0.00543947,0.00692793,0.00882246,0.0112338,0.014303,0.0182095,0.0231817,0.0295103,inf	197.078,197.078,118.096,468.706,197.188,217.058,239.349,209.622,229.579,240.994,246.794,270.343,288.421,291.444,286.923,285.125,292.555,310.321,338.324,376.954,424.241,472.489,508.993,521.653,507.627,473.211,432.061,376.098,376.098,298.828,298.828,298.828
0.00104451	-45942531.59	0,4.55468e-06,1.03519e-05,1.77306e-05,2.71223e-05,3.9076e-05,5.42908e-05,7.36563e-05,9.83047e-05,0.000129677,0.000169609,0.000220433,0.000285123,0.000367461,0.000472261,0.00060565,0.000775429,0.000991524,0.00126657,0.00161665,0.00206224,0.00262938,0.00335124,0.00427003,0.00543947,0.00692793,0.00882246,0.0112338,0.014303,0.0182095,0.0231817,0.0295103,inf	196.481,196.481,113.427,473.483,191.606,217.243,240.484,209.08,230.206,241.235,246.793,271.051,289.622,292.638,287.906,285.948,293.299,310.944,338.709,376.945,423.695,471.448,507.862,520.895,507.217,472.683,431.147,373.866,373.866,293.812,293.812,293.812
0.00106364	-45941916.97	0,4.55468e-06,1.03519e-05,1.77306e-05,2.71223e-05,3.9076e-05,5.42908e-05,7.36563e-05,9.83047e-05,0.000129677,0.000169609,0.000220433,0.000285123,0.000367461,0.000472261,0.00060565,0.000775429,0.000991524,0.00126657,0.00161665,0.00206224,0.00262938,0.00335124,0.00427003,0.00543947,0.00692793,0.00882246,0.0112338,0.014303,0.0182095,0.0231817,0.0295103,inf	195.865,195.865,109.329,477.8,186.222,217.549,241.599,208.601,230.927,241.556,246.872,271.778,290.762,293.728,288.785,286.696,294.005,311.567,339.126,376.991,423.205,470.436,506.71,520.072,506.742,472.149,430.316,371.816,371.816,289.037,289.037,289.037
0.00108223	-45941347.98	0,4.55468e-06,1.03519e-05,1.77306e-05,2.71223e-05,3.9076e-05,5.42908e-05,7.36563e-05,9.83047e-05,0.000129677,0.000169609,0.000220433,0.000285123,0.000367461,0.000472261,0.00060565,0.000775429,0.000991524,0.00126657,0.00161665,0.00206224,0.00262938,0.00335124,0.00427003,0.00543947,0.00692793,0.00882246,0.0112338,0.014303,0.0182095,0.0231817,0.0295103,inf	195.274,195.274,105.71,481.701,181.038,217.965,242.681,208.168,231.721,241.943,247.028,272.528,291.857,294.73,289.572,287.373,294.672,312.183,339.568,377.081,422.766,469.458,505.549,519.203,506.22,471.619,429.567,369.938,369.938,284.485,284.485,284.485
0.00110031	-45940820.56	0,4.55468e-06,1.03519e-05,1.77306e-05,2.71223e-05,3.9076e-05,5.42908e-05,7.36563e-05,9.83047e-05,0.000129677,0.000169609,0.000220433,0.000285123,0.000367461,0.000472261,0.00060565,0.000775429,0.000991524,0.00126657,0.00161665,0.00206224,0.00262938,0.00335124,0.00427003,0.00543947,0.00692793,0.00882246,0.0112338,0.014303,0.0182095,0.0231817,0.0295103,inf	194.747,194.747,102.531,485.243,176.05,218.473,243.713,207.765,232.57,242.382,247.253,273.305,292.917,295.658,290.278,287.987,295.3,312.787,340.025,377.207,422.369,468.512,504.39,518.302,505.665,471.1,428.9,368.219,368.219,280.137,280.137,280.137
0.00111788	-45940331.08	0,4.55468e-06,1.03519e-05,1.77306e-05,2.71223e-05,3.9076e-05,5.42908e-05,7.36563e-05,9.83047e-05,0.000129677,0.000169609,0.000220433,0.000285123,0.000367461,0.000472261,0.00060565,0.000775429,0.000991524,0.00126657,0.00161665,0.00206224,0.00262938,0.00335124,0.00427003,0.00543947,0.00692793,0.00882246,0.0112338,0.014303,0.0182095,0.0231817,0.0295103,inf	194.199,194.199,99.76,488.441,171.27,219.069,244.694,207.386,233.461,242.862,247.54,274.108,293.95,296.522,290.913,288.543,295.889,313.376,340.491,377.363,422.012,467.599,503.238,517.38,505.088,470.597,428.31,366.649,366.649,275.977,275.977,275.977
