0.000527227	-12957001.12	0,3.91583e-06,1.07104e-05,2.24999e-05,4.29563e-05,7.84513e-05,0.00014004,0.000246905,0.000432332,0.000754075,0.00131234,0.00228102,0.00396182,0.00687824,0.0119386,0.0207192,inf	206.392,206.392,282.787,286.608,302.479,362.039,385.848,394.38,421.164,424.264,416.245,394.349,398.171,380.046,380.046,380.046
0.000471843	-12953759.84	0,3.91583e-06,1.07104e-05,2.24999e-05,4.29563e-05,7.84513e-05,0.00014004,0.000246905,0.000432332,0.000754075,0.00131234,0.00228102,0.00396182,0.00687824,0.0119386,0.0207192,inf	188.88,188.88,277.529,265.718,265.421,352.87,381.823,382.127,425.606,431.292,421.278,383.28,393.286,359.665,359.665,359.665
0.000427697	-12951566.50	0,3.91583e-06,1.07104e-05,2.24999e-05,4.29563e-05,7.84513e-05,0.00014004,0.000246905,0.000432332,0.000754075,0.00131234,0.00228102,0.00396182,0.00687824,0.0119386,0.0207192,inf	193.785,193.785,292.209,269.6,250.26,357.074,387.436,373.803,427.933,434.846,426.652,376.678,395.046,347.511,347.511,347.511
0.000392307	-12949978.40	0,3.91583e-06,1.07104e-05,2.24999e-05,4.29563e-05,7.84513e-05,0.00014004,0.000246905,0.000432332,0.000754075,0.00131234,0.00228102,0.00396182,0.00687824,0.0119386,0.0207192,inf	200.836,200.836,307.1,279.257,242.549,364.578,396.745,367.96,429.158,435.607,430.982,371.759,399.63,339.741,339.741,339.741
0.000364098	-12948844.28	0,3.91583e-06,1.07104e-05,2.24999e-05,4.29563e-05,7.84513e-05,0.00014004,0.000246905,0.000432332,0.000754075,0.00131234,0.00228102,0.00396182,0.00687824,0.0119386,0.0207192,inf	207.614,207.614,318.973,289.479,237.813,371.793,407.11,363.897,430.179,434.768,434.252,367.584,405.002,334.474,334.474,334.474
0.000341825	-12948063.08	0,3.91583e-06,1.07104e-05,2.24999e-05,4.29563e-05,7.84513e-05,0.00014004,0.000246905,0.000432332,0.000754075,0.00131234,0.00228102,0.00396182,0.00687824,0.0119386,0.0207192,inf	213.649,213.649,328.137,298.815,234.54,377.555,417.201,361.033,431.359,433.167,436.734,363.918,410.117,330.746,330.746,330.746
0.000324409	-12947546.11	0,3.91583e-06,1.07104e-05,2.24999e-05,4.29563e-05,7.84513e-05,0.00014004,0.000246905,0.000432332,0.000754075,0.00131234,0.00228102,0.00396182,0.00687824,0.0119386,0.0207192,inf	218.939,218.939,335.192,306.96,232.184,381.689,426.378,358.925,432.744,431.283,438.672,360.744,414.511,328.042,328.042,328.042
0.000310913	-12947216.83	0,3.91583e-06,1.07104e-05,2.24999e-05,4.29563e-05,7.84513e-05,0.00014004,0.000246905,0.000432332,0.000754075,0.00131234,0.00228102,0.00396182,0.00687824,0.0119386,0.0207192,inf	223.406,223.406,340.677,313.874,230.499,384.389,434.385,357.264,434.269,429.363,440.225,358.074,418.05,326.063,326.063,326.063
0.000300532	-12947014.30	0,3.91583e-06,1.07104e-05,2.24999e-05,4.29563e-05,7.84513e-05,0.00014004,0.000246905,0.000432332,0.000754075,0.00131234,0.00228102,0.00396182,0.00687824,0.0119386,0.0207192,inf	227.232,227.232,344.936,319.637,229.346,385.965,441.202,355.86,435.847,427.535,441.49,355.893,420.779,324.618,324.618,324.618
0.000292597	-12946893.60	0,3.91583e-06,1.07104e-05,2.24999e-05,4.29563e-05,7.84513e-05,0.00014004,0.000246905,0.000432332,0.000754075,0.00131234,0.00228102,0.00396182,0.00687824,0.0119386,0.0207192,inf	230.261,230.261,348.191,324.361,228.617,386.725,446.906,354.605,437.409,425.859,442.524,354.157,422.82,323.573,323.573,323.573
0.000286562	-12946823.75	0,3.91583e-06,1.07104e-05,2.24999e-05,4.29563e-05,7.84513e-05,0.00014004,0.000246905,0.000432332,0.000754075,0.00131234,0.00228102,0.00396182,0.00687824,0.0119386,0.0207192,inf	232.722,232.722,350.663,328.158,228.223,386.92,451.646,353.442,438.905,424.36,443.371,352.802,424.313,322.825,322.825,322.825
0.00028199	-12946784.49	0,3.91583e-06,1.07104e-05,2.24999e-05,4.29563e-05,7.84513e-05,0.00014004,0.000246905,0.000432332,0.000754075,0.00131234,0.00228102,0.00396182,0.00687824,0.0119386,0.0207192,inf	234.819,234.819,352.517,331.149,228.074,386.731,455.565,352.345,440.306,423.045,444.061,351.762,425.389,322.294,322.294,322.294
0.000278536	-12946763.09	0,3.91583e-06,1.07104e-05,2.24999e-05,4.29563e-05,7.84513e-05,0.00014004,0.000246905,0.000432332,0.000754075,0.00131234,0.00228102,0.00396182,0.00687824,0.0119386,0.0207192,inf	236.078,236.078,353.89,333.487,228.112,386.312,458.802,351.304,441.595,421.906,444.622,350.972,426.156,321.921,321.921,321.921
0.000275942	-12946751.88	0,3.91583e-06,1.07104e-05,2.24999e-05,4.29563e-05,7.84513e-05,0.00014004,0.000246905,0.000432332,0.000754075,0.00131234,0.00228102,0.00396182,0.00687824,0.0119386,0.0207192,inf	237.453,237.453,355.112,335.446,228.4,385.947,461.698,350.469,442.905,420.975,445.105,350.377,426.764,321.695,321.695,321.695
0.000273984	-12946746.22	0,3.91583e-06,1.07104e-05,2.24999e-05,4.29563e-05,7.84513e-05,0.00014004,0.000246905,0.000432332,0.000754075,0.00131234,0.00228102,0.00396182,0.00687824,0.0119386,0.0207192,inf	238.295,238.295,355.831,336.756,228.644,385.298,463.902,349.54,443.967,420.13,445.473,349.92,427.16,321.518,321.518,321.518
0.000272512	-12946743.72	0,3.91583e-06,1.07104e-05,2.24999e-05,4.29563e-05,7.84513e-05,0.00014004,0.000246905,0.000432332,0.000754075,0.00131234,0.00228102,0.00396182,0.00687824,0.0119386,0.0207192,inf	238.951,238.951,356.354,337.685,228.935,384.606,465.719,348.644,444.889,419.408,445.771,349.579,427.425,321.387,321.387,321.387
0.000271407	-12946742.83	0,3.91583e-06,1.07104e-05,2.24999e-05,4.29563e-05,7.84513e-05,0.00014004,0.000246905,0.000432332,0.000754075,0.00131234,0.00228102,0.00396182,0.00687824,0.0119386,0.0207192,inf	239.566,239.566,356.754,338.369,229.261,383.923,467.245,347.807,445.702,418.8,446.012,349.327,427.606,321.293,321.293,321.293
0.000270579	-12946742.71	0,3.91583e-06,1.07104e-05,2.24999e-05,4.29563e-05,7.84513e-05,0.00014004,0.000246905,0.000432332,0.000754075,0.00131234,0.00228102,0.00396182,0.00687824,0.0119386,0.0207192,inf	239.98,239.98,357.021,338.839,229.602,383.274,468.54,347.035,446.418,418.289,446.209,349.14,427.729,321.227,321.227,321.227
0.000270005	-12946742.94	0,3.91583e-06,1.07104e-05,2.24999e-05,4.29563e-05,7.84513e-05,0.00014004,0.000246905,0.000432332,0.000754075,0.00131234,0.00228102,0.00396182,0.00687824,0.0119386,0.0207192,inf	239.98,239.98,357.347,339.249,230.018,382.758,469.857,346.443,447.324,418.135,446.722,349.218,428.035,321.285,321.285,321.285
0.000269543	-12946742.29	0,3.91583e-06,1.07104e-05,2.24999e-05,4.29563e-05,7.84513e-05,0.00014004,0.000246905,0.000432332,0.000754075,0.00131234,0.00228102,0.00396182,0.00687824,0.0119386,0.0207192,inf	239.98,239.98,357.548,339.453,230.367,382.164,470.834,345.769,447.885,417.751,446.845,349.11,428.126,321.264,321.264,321.264
