LogLikelihood = -186076.79064227055642

y0 0.0026872488283614516351
y0_prime 0
y1 0.90222847900496272455
y1_prime 0
y2 2.3146628615507678361
y2_prime 0
y3 10.030559602882366477
y3_prime 0
rho 3.4037146229348413939
rho.alpha 0.22575744922673290915
r_ii 0.99867469567511757411
theta 0.002690980564795897919
