0.00068147	-8597236.86	0,6.16288e-06,1.6544e-05,3.40305e-05,6.34857e-05,0.000113102,0.000196678,0.000337458,0.000574595,0.000974043,0.00164689,0.00278028,0.00468943,0.00790529,0.0133223,0.0224469,inf	505.303,505.303,559.082,434.784,383.221,353.675,335.873,338.707,356.14,382.258,410.74,415.694,422.388,377.577,377.577,377.577
0.000727444	-8595704.25	0,6.16288e-06,1.6544e-05,3.40305e-05,6.34857e-05,0.000113102,0.000196678,0.000337458,0.000574595,0.000974043,0.00164689,0.00278028,0.00468943,0.00790529,0.0133223,0.0224469,inf	524.446,524.446,679.591,464.017,393.323,349.572,318.663,319.977,342.799,378.035,417.888,423.443,440.817,359.396,359.396,359.396
0.000768602	-8594738.75	0,6.16288e-06,1.6544e-05,3.40305e-05,6.34857e-05,0.000113102,0.000196678,0.000337458,0.000574595,0.000974043,0.00164689,0.00278028,0.00468943,0.00790529,0.0133223,0.0224469,inf	490.777,490.777,748.753,472.671,401.566,352.793,313.018,313.06,338.124,376.928,421.307,425.346,454.676,343.41,343.41,343.41
0.000805835	-8594021.29	0,6.16288e-06,1.6544e-05,3.40305e-05,6.34857e-05,0.000113102,0.000196678,0.000337458,0.000574595,0.000974043,0.00164689,0.00278028,0.00468943,0.00790529,0.0133223,0.0224469,inf	444.832,444.832,786.034,467.901,405.42,356.623,310.98,310.538,336.887,377.127,422.938,424.307,465.648,329.83,329.83,329.83
0.000839831	-8593453.30	0,6.16288e-06,1.6544e-05,3.40305e-05,6.34857e-05,0.000113102,0.000196678,0.000337458,0.000574595,0.000974043,0.00164689,0.00278028,0.00468943,0.00790529,0.0133223,0.0224469,inf	403.708,403.708,807.666,456.621,406.201,359.703,310.127,309.829,337.153,377.965,423.74,421.807,474.703,318.433,318.433,318.433
0.000871074	-8592989.78	0,6.16288e-06,1.6544e-05,3.40305e-05,6.34857e-05,0.000113102,0.000196678,0.000337458,0.000574595,0.000974043,0.00164689,0.00278028,0.00468943,0.00790529,0.0133223,0.0224469,inf	371.245,371.245,822.404,442.884,405.325,361.957,309.658,309.898,338.082,379.125,424.165,418.6,482.403,308.881,308.881,308.881
0.000899921	-8592604.71	0,6.16288e-06,1.6544e-05,3.40305e-05,6.34857e-05,0.000113102,0.000196678,0.000337458,0.000574595,0.000974043,0.00164689,0.00278028,0.00468943,0.00790529,0.0133223,0.0224469,inf	346.754,346.754,834.073,428.704,403.736,363.577,309.308,310.297,339.277,380.437,424.429,415.084,489.089,300.849,300.849,300.849
0.000926641	-8592280.80	0,6.16288e-06,1.6544e-05,3.40305e-05,6.34857e-05,0.000113102,0.000196678,0.000337458,0.000574595,0.000974043,0.00164689,0.00278028,0.00468943,0.00790529,0.0133223,0.0224469,inf	328.598,328.598,844.193,414.977,401.981,364.766,308.997,310.825,340.54,381.804,424.632,411.47,494.977,294.054,294.054,294.054
0.000951453	-8592005.70	0,6.16288e-06,1.6544e-05,3.40305e-05,6.34857e-05,0.000113102,0.000196678,0.000337458,0.000574595,0.000974043,0.00164689,0.00278028,0.00468943,0.00790529,0.0133223,0.0224469,inf	315.19,315.19,853.265,402.064,400.347,365.672,308.712,311.389,341.775,383.172,424.823,407.875,500.215,288.267,288.267,288.267
0.000974534	-8591770.16	0,6.16288e-06,1.6544e-05,3.40305e-05,6.34857e-05,0.000113102,0.000196678,0.000337458,0.000574595,0.000974043,0.00164689,0.00278028,0.00468943,0.00790529,0.0133223,0.0224469,inf	305.344,305.344,861.408,390.063,398.958,366.394,308.455,311.947,342.934,384.506,425.023,404.361,504.908,283.304,283.304,283.304
0.000996039	-8591567.11	0,6.16288e-06,1.6544e-05,3.40305e-05,6.34857e-05,0.000113102,0.000196678,0.000337458,0.000574595,0.000974043,0.00164689,0.00278028,0.00468943,0.00790529,0.0133223,0.0224469,inf	298.149,298.149,868.611,378.971,397.874,366.996,308.235,312.482,343.996,385.79,425.243,400.964,509.134,279.018,279.018,279.018
0.0010161	-8591390.99	0,6.16288e-06,1.6544e-05,3.40305e-05,6.34857e-05,0.000113102,0.000196678,0.000337458,0.000574595,0.000974043,0.00164689,0.00278028,0.00468943,0.00790529,0.0133223,0.0224469,inf	292.983,292.983,874.912,368.726,397.093,367.514,308.056,312.989,344.954,387.014,425.486,397.701,512.956,275.293,275.293,275.293
0.00103484	-8591237.41	0,6.16288e-06,1.6544e-05,3.40305e-05,6.34857e-05,0.000113102,0.000196678,0.000337458,0.000574595,0.000974043,0.00164689,0.00278028,0.00468943,0.00790529,0.0133223,0.0224469,inf	289.382,289.382,880.37,359.265,396.6,367.969,307.922,313.468,345.809,388.174,425.752,394.581,516.425,272.035,272.035,272.035
0.00105235	-8591102.83	0,6.16288e-06,1.6544e-05,3.40305e-05,6.34857e-05,0.000113102,0.000196678,0.000337458,0.000574595,0.000974043,0.00164689,0.00278028,0.00468943,0.00790529,0.0133223,0.0224469,inf	286.992,286.992,885.014,350.515,396.362,368.371,307.832,313.919,346.565,389.269,426.04,391.605,519.583,269.17,269.17,269.17
0.00106874	-8590984.37	0,6.16288e-06,1.6544e-05,3.40305e-05,6.34857e-05,0.000113102,0.000196678,0.000337458,0.000574595,0.000974043,0.00164689,0.00278028,0.00468943,0.00790529,0.0133223,0.0224469,inf	285.56,285.56,888.953,342.409,396.352,368.726,307.786,314.347,347.23,390.299,426.348,388.772,522.466,266.637,266.637,266.637
0.00108408	-8590879.67	0,6.16288e-06,1.6544e-05,3.40305e-05,6.34857e-05,0.000113102,0.000196678,0.000337458,0.000574595,0.000974043,0.00164689,0.00278028,0.00468943,0.00790529,0.0133223,0.0224469,inf	284.876,284.876,892.243,334.884,396.534,369.034,307.78,314.754,347.81,391.266,426.674,386.079,525.104,264.386,264.386,264.386
0.00109846	-8590786.79	0,6.16288e-06,1.6544e-05,3.40305e-05,6.34857e-05,0.000113102,0.000196678,0.000337458,0.000574595,0.000974043,0.00164689,0.00278028,0.00468943,0.00790529,0.0133223,0.0224469,inf	284.788,284.788,894.977,327.891,396.882,369.296,307.813,315.142,348.313,392.173,427.015,383.519,527.523,262.377,262.377,262.377
0.00111194	-8590704.11	0,6.16288e-06,1.6544e-05,3.40305e-05,6.34857e-05,0.000113102,0.000196678,0.000337458,0.000574595,0.000974043,0.00164689,0.00278028,0.00468943,0.00790529,0.0133223,0.0224469,inf	285.17,285.17,897.239,321.376,397.369,369.515,307.88,315.515,348.745,393.022,427.368,381.088,529.747,260.577,260.577,260.577
0.00112459	-8590630.27	0,6.16288e-06,1.6544e-05,3.40305e-05,6.34857e-05,0.000113102,0.000196678,0.000337458,0.000574595,0.000974043,0.00164689,0.00278028,0.00468943,0.00790529,0.0133223,0.0224469,inf	285.917,285.917,899.072,315.295,397.97,369.688,307.979,315.874,349.114,393.817,427.732,378.78,531.795,258.958,258.958,258.958
0.00113646	-8590564.13	0,6.16288e-06,1.6544e-05,3.40305e-05,6.34857e-05,0.000113102,0.000196678,0.000337458,0.000574595,0.000974043,0.00164689,0.00278028,0.00468943,0.00790529,0.0133223,0.0224469,inf	286.937,286.937,900.57,309.613,398.671,369.816,308.107,316.222,349.426,394.56,428.105,376.588,533.686,257.496,257.496,257.496
