time_index	left_time_boundary	right_time_boundary	lambda
0	0	4.55031e-06	0.416288
1	4.55031e-06	1.0342e-05	0.416288
2	1.0342e-05	1.77136e-05	1468.97
3	1.77136e-05	2.70963e-05	771.982
4	2.70963e-05	3.90386e-05	392.565
5	3.90386e-05	5.42388e-05	329.367
6	5.42388e-05	7.35857e-05	411.903
7	7.35857e-05	9.82105e-05	530.863
8	9.82105e-05	0.000129553	524.632
9	0.000129553	0.000169446	401.577
10	0.000169446	0.000220222	317.55
11	0.000220222	0.00028485	293.293
12	0.00028485	0.000367109	304.393
13	0.000367109	0.000471808	312.665
14	0.000471808	0.00060507	319.662
15	0.00060507	0.000774686	336.457
16	0.000774686	0.000990574	349.039
17	0.000990574	0.00126536	364.853
18	0.00126536	0.0016151	395.892
19	0.0016151	0.00206026	432.522
20	0.00206026	0.00262686	450.545
21	0.00262686	0.00334803	440.904
22	0.00334803	0.00426594	430.261
23	0.00426594	0.00543425	446.038
24	0.00543425	0.00692129	483.356
25	0.00692129	0.00881401	488.153
26	0.00881401	0.0112231	403.824
27	0.0112231	0.0142893	272.599
28	0.0142893	0.018192	272.599
29	0.018192	0.0231595	389.585
30	0.0231595	0.029482	389.585
31	0.029482	inf	389.585
