0.00066347	-305001.96	0,4.24871e-05,9.21863e-05,0.000150322,0.000218326,0.000297874,0.000390925,0.000499772,0.000627095,0.000776032,0.00095025,0.00115404,0.00139243,0.00167128,0.00199747,0.00237902,0.00282535,0.00334744,0.00395815,0.00467254,0.00550819,0.00648569,0.00762912,0.00896665,0.0105312,0.0123614,0.0145022,0.0170065,0.0199358,0.0233624,0.0273706,0.0320593,inf	401.927,401.927,424.024,365.641,350.555,345.06,342.365,348.15,359.372,368.383,376.991,389.514,404.325,416.804,424.431,427.981,429.237,429.233,428.747,428.212,426.886,423.429,417.784,410.97,404.97,403.48,408.039,416.434,416.434,437.163,437.163,437.163
0.00069772	-304953.47	0,4.24871e-05,9.21863e-05,0.000150322,0.000218326,0.000297874,0.000390925,0.000499772,0.000627095,0.000776032,0.00095025,0.00115404,0.00139243,0.00167128,0.00199747,0.00237902,0.00282535,0.00334744,0.00395815,0.00467254,0.00550819,0.00648569,0.00762912,0.00896665,0.0105312,0.0123614,0.0145022,0.0170065,0.0199358,0.0233624,0.0273706,0.0320593,inf	408.458,408.458,469.395,361.151,336.1,325.324,317.911,325.347,341.809,353.509,364.408,382.722,405.834,425.639,437.55,442.922,444.995,445.528,445.71,446.125,445.057,439.576,429.48,416.854,405.822,403.666,413.257,430.749,430.749,476.074,476.074,476.074
0.000728737	-304924.44	0,4.24871e-05,9.21863e-05,0.000150322,0.000218326,0.000297874,0.000390925,0.000499772,0.000627095,0.000776032,0.00095025,0.00115404,0.00139243,0.00167128,0.00199747,0.00237902,0.00282535,0.00334744,0.00395815,0.00467254,0.00550819,0.00648569,0.00762912,0.00896665,0.0105312,0.0123614,0.0145022,0.0170065,0.0199358,0.0233624,0.0273706,0.0320593,inf	404.849,404.849,513.063,362.905,332.54,317.802,305.803,314.087,333.823,345.852,356.614,377.851,406.098,430.412,444.571,450.552,452.921,454.034,455.308,457.315,457.293,450.632,436.902,419.236,403.962,401.658,416.277,442.927,442.927,516.673,516.673,516.673
0.000757055	-304903.00	0,4.24871e-05,9.21863e-05,0.000150322,0.000218326,0.000297874,0.000390925,0.000499772,0.000627095,0.000776032,0.00095025,0.00115404,0.00139243,0.00167128,0.00199747,0.00237902,0.00282535,0.00334744,0.00395815,0.00467254,0.00550819,0.00648569,0.00762912,0.00896665,0.0105312,0.0123614,0.0145022,0.0170065,0.0199358,0.0233624,0.0273706,0.0320593,inf	393.858,393.858,549.792,364.752,332.671,315.206,299.179,308.352,330.615,341.952,351.553,374.362,406.064,433.268,448.443,454.249,456.497,458.077,460.536,464.352,465.723,458.373,441.571,419.467,400.584,398.444,417.839,453.331,453.331,559.399,559.399,559.399
0.000783122	-304885.51	0,4.24871e-05,9.21863e-05,0.000150322,0.000218326,0.000297874,0.000390925,0.000499772,0.000627095,0.000776032,0.00095025,0.00115404,0.00139243,0.00167128,0.00199747,0.00237902,0.00282535,0.00334744,0.00395815,0.00467254,0.00550819,0.00648569,0.00762912,0.00896665,0.0105312,0.0123614,0.0145022,0.0170065,0.0199358,0.0233624,0.0273706,0.0320593,inf	379.9,379.9,579.396,365.148,333.96,314.707,295.225,305.521,329.992,340.158,348.167,371.88,406.092,435.225,450.668,455.81,457.649,459.561,463.164,468.804,471.692,463.935,444.464,418.397,396.414,394.62,418.427,462.242,462.242,604.714,604.714,604.714
0.000807268	-304870.59	0,4.24871e-05,9.21863e-05,0.000150322,0.000218326,0.000297874,0.000390925,0.000499772,0.000627095,0.000776032,0.00095025,0.00115404,0.00139243,0.00167128,0.00199747,0.00237902,0.00282535,0.00334744,0.00395815,0.00467254,0.00550819,0.00648569,0.00762912,0.00896665,0.0105312,0.0123614,0.0145022,0.0170065,0.0199358,0.0233624,0.0273706,0.0320593,inf	365.87,365.87,603.021,363.968,335.484,315.094,292.639,304.299,330.82,339.581,345.838,370.123,406.289,436.76,452.015,456.201,457.447,459.572,464.235,471.63,476.044,468.048,446.205,416.56,391.887,390.54,418.362,469.878,469.878,653.15,653.15,653.15
0.000829741	-304857.59	0,4.24871e-05,9.21863e-05,0.000150322,0.000218326,0.000297874,0.000390925,0.000499772,0.000627095,0.000776032,0.00095025,0.00115404,0.00139243,0.00167128,0.00199747,0.00237902,0.00282535,0.00334744,0.00395815,0.00467254,0.00550819,0.00648569,0.00762912,0.00896665,0.0105312,0.0123614,0.0145022,0.0170065,0.0199358,0.0233624,0.0273706,0.0320593,inf	353.19,353.19,621.949,361.491,336.939,315.825,290.775,303.995,332.467,339.707,344.187,368.879,406.66,438.098,452.887,455.951,456.491,458.74,464.37,473.418,479.315,471.182,447.193,414.288,387.26,386.41,417.853,476.42,476.42,705.345,705.345,705.345
0.000850731	-304846.14	0,4.24871e-05,9.21863e-05,0.000150322,0.000218326,0.000297874,0.000390925,0.000499772,0.000627095,0.000776032,0.00095025,0.00115404,0.00139243,0.00167128,0.00199747,0.00237902,0.00282535,0.00334744,0.00395815,0.00467254,0.00550819,0.00648569,0.00762912,0.00896665,0.0105312,0.0123614,0.0145022,0.0170065,0.0199358,0.0233624,0.0273706,0.0320593,inf	342.374,342.374,637.26,358.066,338.256,316.658,289.3,304.224,334.567,340.23,342.97,367.997,407.178,439.343,453.498,455.351,455.125,457.433,463.944,474.536,481.85,473.642,447.689,411.79,382.682,382.348,417.045,482.014,482.014,762.142,762.142,762.142
0.000870386	-304835.98	0,4.24871e-05,9.21863e-05,0.000150322,0.000218326,0.000297874,0.000390925,0.000499772,0.000627095,0.000776032,0.00095025,0.00115404,0.00139243,0.00167128,0.00199747,0.00237902,0.00282535,0.00334744,0.00395815,0.00467254,0.00550819,0.00648569,0.00762912,0.00896665,0.0105312,0.0123614,0.0145022,0.0170065,0.0199358,0.0233624,0.0273706,0.0320593,inf	333.461,333.461,649.767,354.008,339.456,317.488,288.034,304.759,336.899,340.962,342.033,367.368,407.808,440.541,453.964,454.568,453.549,455.87,463.186,475.219,483.877,475.633,447.863,409.197,378.238,378.42,416.033,486.785,486.785,824.686,824.686,824.686
0.000888828	-304826.92	0,4.24871e-05,9.21863e-05,0.000150322,0.000218326,0.000297874,0.000390925,0.000499772,0.000627095,0.000776032,0.00095025,0.00115404,0.00139243,0.00167128,0.00199747,0.00237902,0.00282535,0.00334744,0.00395815,0.00467254,0.00550819,0.00648569,0.00762912,0.00896665,0.0105312,0.0123614,0.0145022,0.0170065,0.0199358,0.0233624,0.0273706,0.0320593,inf	326.287,326.287,660.086,349.562,340.588,318.274,286.883,305.469,339.333,341.788,341.273,366.915,408.517,441.712,454.349,453.695,451.878,454.183,462.237,475.615,485.547,477.293,447.829,406.592,373.972,374.661,414.887,490.837,490.837,894.626,894.626,894.626
0.000906159	-304818.82	0,4.24871e-05,9.21863e-05,0.000150322,0.000218326,0.000297874,0.000390925,0.000499772,0.000627095,0.000776032,0.00095025,0.00115404,0.00139243,0.00167128,0.00199747,0.00237902,0.00282535,0.00334744,0.00395815,0.00467254,0.00550819,0.00648569,0.00762912,0.00896665,0.0105312,0.0123614,0.0145022,0.0170065,0.0199358,0.0233624,0.0273706,0.0320593,inf	320.615,320.615,668.667,344.916,341.701,319.008,285.794,306.275,341.788,342.638,340.624,366.585,409.281,442.865,454.687,452.787,450.181,452.449,461.187,475.823,486.96,478.715,447.662,404.023,369.905,371.085,413.652,494.257,494.257,974.423,974.423,974.423
0.000922466	-304811.55	0,4.24871e-05,9.21863e-05,0.000150322,0.000218326,0.000297874,0.000390925,0.000499772,0.000627095,0.000776032,0.00095025,0.00115404,0.00139243,0.00167128,0.00199747,0.00237902,0.00282535,0.00334744,0.00395815,0.00467254,0.00550819,0.00648569,0.00762912,0.00896665,0.0105312,0.0123614,0.0145022,0.0170065,0.0199358,0.0233624,0.0273706,0.0320593,inf	316.201,316.201,675.839,340.197,342.836,319.69,284.739,307.126,344.215,343.468,340.041,366.339,410.079,444.001,454.998,451.875,448.497,450.717,460.091,475.909,488.188,479.964,447.413,401.523,366.045,367.695,412.362,497.121,497.121,1068.11,1068.11,1068.11
0.000937825	-304805.00	0,4.24871e-05,9.21863e-05,0.000150322,0.000218326,0.000297874,0.000390925,0.000499772,0.000627095,0.000776032,0.00095025,0.00115404,0.00139243,0.00167128,0.00199747,0.00237902,0.00282535,0.00334744,0.00395815,0.00467254,0.00550819,0.00648569,0.00762912,0.00896665,0.0105312,0.0123614,0.0145022,0.0170065,0.0199358,0.0233624,0.0273706,0.0320593,inf	312.829,312.829,681.85,335.504,344.022,320.325,283.703,307.996,346.587,344.254,339.496,366.15,410.897,445.12,455.294,450.978,446.85,449.015,458.985,475.916,489.279,481.086,447.118,399.108,362.388,364.488,411.041,499.494,499.494,1182.84,1182.84,1182.84
0.000952305	-304799.09	0,4.24871e-05,9.21863e-05,0.000150322,0.000218326,0.000297874,0.000390925,0.000499772,0.000627095,0.000776032,0.00095025,0.00115404,0.00139243,0.00167128,0.00199747,0.00237902,0.00282535,0.00334744,0.00395815,0.00467254,0.00550819,0.00648569,0.00762912,0.00896665,0.0105312,0.0123614,0.0145022,0.0170065,0.0199358,0.0233624,0.0273706,0.0320593,inf	310.305,310.305,686.894,330.892,345.281,320.921,282.676,308.864,348.887,344.982,338.97,366,411.723,446.222,455.581,450.104,445.251,447.359,457.889,475.872,490.267,482.113,446.8,396.789,358.93,361.456,409.704,501.427,501.427,1333.04,1333.04,1333.04
0.000965965	-304793.73	0,4.24871e-05,9.21863e-05,0.000150322,0.000218326,0.000297874,0.000390925,0.000499772,0.000627095,0.000776032,0.00095025,0.00115404,0.00139243,0.00167128,0.00199747,0.00237902,0.00282535,0.00334744,0.00395815,0.00467254,0.00550819,0.00648569,0.00762912,0.00896665,0.0105312,0.0123614,0.0145022,0.0170065,0.0199358,0.0233624,0.0273706,0.0320593,inf	308.472,308.472,691.117,326.405,346.625,321.483,281.655,309.722,351.109,345.644,338.451,365.877,412.55,447.305,455.863,449.259,443.707,445.757,456.817,475.798,491.178,483.068,446.474,394.567,355.66,358.59,408.365,502.968,502.968,1555.63,1555.63,1555.63
0.000978861	-304788.88	0,4.24871e-05,9.21863e-05,0.000150322,0.000218326,0.000297874,0.000390925,0.000499772,0.000627095,0.000776032,0.00095025,0.00115404,0.00139243,0.00167128,0.00199747,0.00237902,0.00282535,0.00334744,0.00395815,0.00467254,0.00550819,0.00648569,0.00762912,0.00896665,0.0105312,0.0123614,0.0145022,0.0170065,0.0199358,0.0233624,0.0273706,0.0320593,inf	307.199,307.199,694.642,322.066,348.064,322.016,280.636,310.56,353.248,346.238,337.932,365.769,413.374,448.37,456.141,448.445,442.22,444.213,455.778,475.706,492.027,483.968,446.151,392.445,352.568,355.88,407.027,504.153,504.153,1998.03,1998.03,1998.03
0.000991042	-304784.46	0,4.24871e-05,9.21863e-05,0.000150322,0.000218326,0.000297874,0.000390925,0.000499772,0.000627095,0.000776032,0.00095025,0.00115404,0.00139243,0.00167128,0.00199747,0.00237902,0.00282535,0.00334744,0.00395815,0.00467254,0.00550819,0.00648569,0.00762912,0.00896665,0.0105312,0.0123614,0.0145022,0.0170065,0.0199358,0.0233624,0.0273706,0.0320593,inf	306.38,306.38,697.564,317.889,349.599,322.521,279.62,311.378,355.305,346.765,337.407,365.673,414.188,449.415,456.416,447.663,440.791,442.729,454.773,475.606,492.83,484.825,445.839,390.419,349.639,353.312,405.693,505.001,505.001,4135.15,4135.15,4135.15
0.000991042	-304780.43	0,4.24871e-05,9.21863e-05,0.000150322,0.000218326,0.000297874,0.000390925,0.000499772,0.000627095,0.000776032,0.00095025,0.00115404,0.00139243,0.00167128,0.00199747,0.00237902,0.00282535,0.00334744,0.00395815,0.00467254,0.00550819,0.00648569,0.00762912,0.00896665,0.0105312,0.0123614,0.0145022,0.0170065,0.0199358,0.0233624,0.0273706,0.0320593,inf	304.662,304.662,696.848,312.596,349.779,321.691,277.511,310.955,355.882,345.907,335.645,364.274,413.523,448.892,455.221,445.605,438.26,440.258,452.837,474.581,492.721,484.867,444.832,387.952,346.42,350.447,403.906,505.034,505.034,82630.8,82630.8,82630.8
0.000991042	-304779.70	0,4.24871e-05,9.21863e-05,0.000150322,0.000218326,0.000297874,0.000390925,0.000499772,0.000627095,0.000776032,0.00095025,0.00115404,0.00139243,0.00167128,0.00199747,0.00237902,0.00282535,0.00334744,0.00395815,0.00467254,0.00550819,0.00648569,0.00762912,0.00896665,0.0105312,0.0123614,0.0145022,0.0170065,0.0199358,0.0233624,0.0273706,0.0320593,inf	303.956,303.956,698.669,308.393,350.97,321.682,276.043,311.206,357.211,345.761,334.562,363.593,413.654,449.22,454.874,444.348,436.467,438.451,451.489,474.074,493.078,485.34,444.24,385.857,343.505,347.848,402.306,505.034,505.034,82633.3,82633.3,82633.3
0.000991042	-304779.33	0,4.24871e-05,9.21863e-05,0.000150322,0.000218326,0.000297874,0.000390925,0.000499772,0.000627095,0.000776032,0.00095025,0.00115404,0.00139243,0.00167128,0.00199747,0.00237902,0.00282535,0.00334744,0.00395815,0.00467254,0.00550819,0.00648569,0.00762912,0.00896665,0.0105312,0.0123614,0.0145022,0.0170065,0.0199358,0.0233624,0.0273706,0.0320593,inf	303.403,303.403,701.04,304.504,352.409,321.843,274.714,311.591,358.711,345.798,333.685,363.16,414.092,449.733,454.874,443.505,435.079,437.026,450.486,473.876,493.717,486.086,443.951,384.001,340.863,345.482,400.871,505.077,505.077,82635.4,82635.4,82635.4
