0.000648716	-12335586.85	0,3.65166e-06,9.98783e-06,2.0982e-05,4.00584e-05,7.31588e-05,0.000130593,0.000230249,0.000403166,0.000703203,0.00122381,0.00212714,0.00369455,0.00641422,0.0111332,0.0193214,inf	6711.06,6711.06,1765.16,625.735,371.923,348.092,350.205,355.018,361.122,380.763,413.627,434.544,430.215,408.788,408.788,408.788
0.000739383	-12327618.02	0,3.65166e-06,9.98783e-06,2.0982e-05,4.00584e-05,7.31588e-05,0.000130593,0.000230249,0.000403166,0.000703203,0.00122381,0.00212714,0.00369455,0.00641422,0.0111332,0.0193214,inf	10410.6,10410.6,1899.52,559.753,320.83,319.798,331.235,338.526,343.514,368.892,412.342,433.612,422.918,384.087,384.087,384.087
0.000825426	-12322429.76	0,3.65166e-06,9.98783e-06,2.0982e-05,4.00584e-05,7.31588e-05,0.000130593,0.000230249,0.000403166,0.000703203,0.00122381,0.00212714,0.00369455,0.00641422,0.0111332,0.0193214,inf	11243.8,11243.8,1738.81,488.865,288.885,309.48,328.944,337.6,339.778,367.483,415.972,434.002,419.194,366.233,366.233,366.233
0.000906244	-12318467.16	0,3.65166e-06,9.98783e-06,2.0982e-05,4.00584e-05,7.31588e-05,0.000130593,0.000230249,0.000403166,0.000703203,0.00122381,0.00212714,0.00369455,0.00641422,0.0111332,0.0193214,inf	11312.8,11312.8,1571.24,435.511,267.944,305.688,331.291,340.714,339.661,368.477,419.757,434.018,417.261,352.453,352.453,352.453
0.000982018	-12315353.34	0,3.65166e-06,9.98783e-06,2.0982e-05,4.00584e-05,7.31588e-05,0.000130593,0.000230249,0.000403166,0.000703203,0.00122381,0.00212714,0.00369455,0.00641422,0.0111332,0.0193214,inf	11199.8,11199.8,1431.28,395.482,253.353,304.651,334.929,344.866,340.606,370.018,422.909,433.534,416.378,341.325,341.325,341.325
0.0010531	-12312863.73	0,3.65166e-06,9.98783e-06,2.0982e-05,4.00584e-05,7.31588e-05,0.000130593,0.000230249,0.000403166,0.000703203,0.00122381,0.00212714,0.00369455,0.00641422,0.0111332,0.0193214,inf	11044.8,11044.8,1316.29,364.568,242.818,304.999,338.856,349.199,341.884,371.635,425.41,432.668,416.173,332.033,332.033,332.033
0.00111987	-12310844.11	0,3.65166e-06,9.98783e-06,2.0982e-05,4.00584e-05,7.31588e-05,0.000130593,0.000230249,0.000403166,0.000703203,0.00122381,0.00212714,0.00369455,0.00641422,0.0111332,0.0193214,inf	10885,10885,1220.49,340.048,235.108,306.143,342.753,353.446,343.253,373.202,427.377,431.544,416.431,324.072,324.072,324.072
0.00118268	-12309185.41	0,3.65166e-06,9.98783e-06,2.0982e-05,4.00584e-05,7.31588e-05,0.000130593,0.000230249,0.000403166,0.000703203,0.00122381,0.00212714,0.00369455,0.00641422,0.0111332,0.0193214,inf	10731,10731,1139.21,320.168,229.472,307.789,346.513,357.522,344.621,374.685,428.921,430.254,417.018,317.111,317.111,317.111
0.00124186	-12307808.74	0,3.65166e-06,9.98783e-06,2.0982e-05,4.00584e-05,7.31588e-05,0.000130593,0.000230249,0.000403166,0.000703203,0.00122381,0.00212714,0.00369455,0.00641422,0.0111332,0.0193214,inf	10586.5,10586.5,1069.11,303.767,225.413,309.761,350.1,361.399,345.948,376.081,430.134,428.862,417.845,310.928,310.928,310.928
0.0012977	-12306655.83	0,3.65166e-06,9.98783e-06,2.0982e-05,4.00584e-05,7.31588e-05,0.000130593,0.000230249,0.000403166,0.000703203,0.00122381,0.00212714,0.00369455,0.00641422,0.0111332,0.0193214,inf	10452.2,10452.2,1007.77,290.039,222.588,311.947,353.506,365.073,347.215,377.391,431.084,427.41,418.853,305.364,305.364,305.364
0.00135048	-12305682.79	0,3.65166e-06,9.98783e-06,2.0982e-05,4.00584e-05,7.31588e-05,0.000130593,0.000230249,0.000403166,0.000703203,0.00122381,0.00212714,0.00369455,0.00641422,0.0111332,0.0193214,inf	10327.9,10327.9,953.432,278.405,220.741,314.266,356.734,368.549,348.415,378.623,431.824,425.93,419.999,300.304,300.304,300.304
0.00140042	-12304856.05	0,3.65166e-06,9.98783e-06,2.0982e-05,4.00584e-05,7.31588e-05,0.000130593,0.000230249,0.000403166,0.000703203,0.00122381,0.00212714,0.00369455,0.00641422,0.0111332,0.0193214,inf	10213.1,10213.1,904.754,268.444,219.682,316.659,359.791,371.837,349.544,379.783,432.395,424.44,421.254,295.662,295.662,295.662
0.00144775	-12304149.54	0,3.65166e-06,9.98783e-06,2.0982e-05,4.00584e-05,7.31588e-05,0.000130593,0.000230249,0.000403166,0.000703203,0.00122381,0.00212714,0.00369455,0.00641422,0.0111332,0.0193214,inf	10107.1,10107.1,860.733,259.835,219.268,319.083,362.687,374.945,350.604,380.877,432.827,422.954,422.595,291.374,291.374,291.374
0.00149266	-12303542.72	0,3.65166e-06,9.98783e-06,2.0982e-05,4.00584e-05,7.31588e-05,0.000130593,0.000230249,0.000403166,0.000703203,0.00122381,0.00212714,0.00369455,0.00641422,0.0111332,0.0193214,inf	10009.3,10009.3,820.631,252.333,219.385,321.503,365.431,377.885,351.595,381.911,433.145,421.482,424.005,287.389,287.389,287.389
0.00153531	-12303019.24	0,3.65166e-06,9.98783e-06,2.0982e-05,4.00584e-05,7.31588e-05,0.000130593,0.000230249,0.000403166,0.000703203,0.00122381,0.00212714,0.00369455,0.00641422,0.0111332,0.0193214,inf	9918.96,9918.96,783.834,245.753,219.938,323.894,368.034,380.668,352.522,382.892,433.368,420.028,425.471,283.665,283.665,283.665
0.00157588	-12302565.94	0,3.65166e-06,9.98783e-06,2.0982e-05,4.00584e-05,7.31588e-05,0.000130593,0.000230249,0.000403166,0.000703203,0.00122381,0.00212714,0.00369455,0.00641422,0.0111332,0.0193214,inf	9835.28,9835.28,749.873,239.939,220.852,326.239,370.503,383.304,353.387,383.825,433.512,418.596,426.983,280.171,280.171,280.171
0.0016145	-12302172.15	0,3.65166e-06,9.98783e-06,2.0982e-05,4.00584e-05,7.31588e-05,0.000130593,0.000230249,0.000403166,0.000703203,0.00122381,0.00212714,0.00369455,0.00641422,0.0111332,0.0193214,inf	9757.63,9757.63,718.37,234.772,222.075,328.522,372.85,385.803,354.195,384.714,433.59,417.189,428.532,276.879,276.879,276.879
0.00165129	-12301829.08	0,3.65166e-06,9.98783e-06,2.0982e-05,4.00584e-05,7.31588e-05,0.000130593,0.000230249,0.000403166,0.000703203,0.00122381,0.00212714,0.00369455,0.00641422,0.0111332,0.0193214,inf	9685.93,9685.93,689.015,230.155,223.554,330.734,375.083,388.174,354.949,385.564,433.612,415.806,430.113,273.768,273.768,273.768
0.00168639	-12301529.52	0,3.65166e-06,9.98783e-06,2.0982e-05,4.00584e-05,7.31588e-05,0.000130593,0.000230249,0.000403166,0.000703203,0.00122381,0.00212714,0.00369455,0.00641422,0.0111332,0.0193214,inf	9618.97,9618.97,661.55,226.006,225.25,332.867,377.207,390.426,355.654,386.378,433.586,414.45,431.72,270.818,270.818,270.818
0.00171989	-12301267.45	0,3.65166e-06,9.98783e-06,2.0982e-05,4.00584e-05,7.31588e-05,0.000130593,0.000230249,0.000403166,0.000703203,0.00122381,0.00212714,0.00369455,0.00641422,0.0111332,0.0193214,inf	9556.71,9556.71,635.769,222.26,227.123,334.911,379.233,392.567,356.311,387.161,433.52,413.118,433.348,268.014,268.014,268.014
