0.000683704	-13866486.48	0,1.77854e-06,4.12131e-06,7.20733e-06,1.12724e-05,1.66271e-05,2.36805e-05,3.29717e-05,4.52104e-05,6.13319e-05,8.25679e-05,0.000110541,0.000147389,0.000195926,0.000259862,0.000344081,0.000455019,0.000601151,0.000793644,0.00104721,0.00138121,0.00182117,0.00240072,0.00316412,0.00416971,0.00549432,0.00723917,0.00953756,0.0125651,0.0165532,0.0218064,0.0287263,inf	280.266,280.266,377.575,405.898,413.967,368.821,313.652,310.406,313.231,310.747,312.52,315.383,314.912,315.221,316.215,318.911,326.224,337.299,351.372,368.026,386.325,404.29,418.711,425.007,424.72,422.096,415.412,393.248,393.248,370.675,370.675,370.675
0.000734842	-13863234.54	0,1.77854e-06,4.12131e-06,7.20733e-06,1.12724e-05,1.66271e-05,2.36805e-05,3.29717e-05,4.52104e-05,6.13319e-05,8.25679e-05,0.000110541,0.000147389,0.000195926,0.000259862,0.000344081,0.000455019,0.000601151,0.000793644,0.00104721,0.00138121,0.00182117,0.00240072,0.00316412,0.00416971,0.00549432,0.00723917,0.00953756,0.0125651,0.0165532,0.0218064,0.0287263,inf	223.335,223.335,386.287,442.923,470.142,385.458,293.646,296.055,302.665,297.747,300.308,303.978,300.565,298.217,296.056,296.233,304.01,317.581,335.607,357.617,382.637,408.471,430.705,441.327,442.104,439.518,428.504,386.637,386.637,348.441,348.441,348.441
0.000782811	-13861260.27	0,1.77854e-06,4.12131e-06,7.20733e-06,1.12724e-05,1.66271e-05,2.36805e-05,3.29717e-05,4.52104e-05,6.13319e-05,8.25679e-05,0.000110541,0.000147389,0.000195926,0.000259862,0.000344081,0.000455019,0.000601151,0.000793644,0.00104721,0.00138121,0.00182117,0.00240072,0.00316412,0.00416971,0.00549432,0.00723917,0.00953756,0.0125651,0.0165532,0.0218064,0.0287263,inf	179.888,179.888,380.33,458.725,511.033,393.089,278.08,290.769,302.546,296.535,301.144,306.516,300.953,296.673,291.529,288.931,296.086,310.13,329.223,352.912,380.422,409.878,436.553,450.143,452.461,451.299,437.504,378.495,378.495,329.977,329.977,329.977
0.000827838	-13859785.10	0,1.77854e-06,4.12131e-06,7.20733e-06,1.12724e-05,1.66271e-05,2.36805e-05,3.29717e-05,4.52104e-05,6.13319e-05,8.25679e-05,0.000110541,0.000147389,0.000195926,0.000259862,0.000344081,0.000455019,0.000601151,0.000793644,0.00104721,0.00138121,0.00182117,0.00240072,0.00316412,0.00416971,0.00549432,0.00723917,0.00953756,0.0125651,0.0165532,0.0218064,0.0287263,inf	149.346,149.346,368.259,459.394,537.017,390.361,261.44,285.561,302.424,295.85,303.18,310.911,304.154,298.996,291.677,286.919,293.542,307.588,326.773,350.689,378.832,409.83,439.012,454.567,458.459,459.371,443.808,370.032,370.032,315.01,315.01,315.01
0.000870299	-13858594.44	0,1.77854e-06,4.12131e-06,7.20733e-06,1.12724e-05,1.66271e-05,2.36805e-05,3.29717e-05,4.52104e-05,6.13319e-05,8.25679e-05,0.000110541,0.000147389,0.000195926,0.000259862,0.000344081,0.000455019,0.000601151,0.000793644,0.00104721,0.00138121,0.00182117,0.00240072,0.00316412,0.00416971,0.00549432,0.00723917,0.00953756,0.0125651,0.0165532,0.0218064,0.0287263,inf	129.074,129.074,357.151,453.919,555.215,382.229,245.135,280.299,301.364,294.094,304.194,314.442,307.121,301.888,293.133,286.881,293.287,307.302,326.246,349.771,377.669,409.118,439.639,456.43,461.751,464.996,448.35,361.892,361.892,303.055,303.055,303.055
0.000910513	-13857597.84	0,1.77854e-06,4.12131e-06,7.20733e-06,1.12724e-05,1.66271e-05,2.36805e-05,3.29717e-05,4.52104e-05,6.13319e-05,8.25679e-05,0.000110541,0.000147389,0.000195926,0.000259862,0.000344081,0.000455019,0.000601151,0.000793644,0.00104721,0.00138121,0.00182117,0.00240072,0.00316412,0.00416971,0.00549432,0.00723917,0.00953756,0.0125651,0.0165532,0.0218064,0.0287263,inf	116.028,116.028,348.923,446.703,570.06,371.963,230.341,275.778,299.996,291.633,304.232,316.822,309.247,304.437,294.785,287.579,294.068,308.132,326.743,349.614,376.844,408.15,439.288,456.789,463.342,468.983,451.733,354.376,354.376,293.595,293.595,293.595
0.000948728	-13856746.74	0,1.77854e-06,4.12131e-06,7.20733e-06,1.12724e-05,1.66271e-05,2.36805e-05,3.29717e-05,4.52104e-05,6.13319e-05,8.25679e-05,0.000110541,0.000147389,0.000195926,0.000259862,0.000344081,0.000455019,0.000601151,0.000793644,0.00104721,0.00138121,0.00182117,0.00240072,0.00316412,0.00416971,0.00549432,0.00723917,0.00953756,0.0125651,0.0165532,0.0218064,0.0287263,inf	107.61,107.61,343.301,439.246,583.486,361.064,217.419,272.431,298.868,288.985,303.728,318.331,310.601,306.479,296.285,288.518,295.315,309.525,327.8,349.918,376.284,407.126,438.424,456.262,463.851,471.854,454.344,347.592,347.592,286.16,286.16,286.16
0.000985137	-13856010.68	0,1.77854e-06,4.12131e-06,7.20733e-06,1.12724e-05,1.66271e-05,2.36805e-05,3.29717e-05,4.52104e-05,6.13319e-05,8.25679e-05,0.000110541,0.000147389,0.000195926,0.000259862,0.000344081,0.000455019,0.000601151,0.000793644,0.00104721,0.00138121,0.00182117,0.00240072,0.00316412,0.00416971,0.00549432,0.00723917,0.00953756,0.0125651,0.0165532,0.0218064,0.0287263,inf	102.316,102.316,339.431,431.884,596.002,350.065,206.286,270.347,298.241,286.476,303.041,319.294,311.387,308.071,297.551,289.496,296.757,311.19,329.159,350.503,375.929,406.136,437.303,455.213,463.663,473.945,456.434,341.544,341.544,280.354,280.354,280.354
0.0010199	-13855368.52	0,1.77854e-06,4.12131e-06,7.20733e-06,1.12724e-05,1.66271e-05,2.36805e-05,3.29717e-05,4.52104e-05,6.13319e-05,8.25679e-05,0.000110541,0.000147389,0.000195926,0.000259862,0.000344081,0.000455019,0.000601151,0.000793644,0.00104721,0.00138121,0.00182117,0.00240072,0.00316412,0.00416971,0.00549432,0.00723917,0.00953756,0.0125651,0.0165532,0.0218064,0.0287263,inf	98.9412,98.9412,336.756,424.623,607.696,339.094,196.693,269.414,298.16,284.271,302.392,319.956,311.801,309.317,298.593,290.432,298.256,312.968,330.668,351.255,375.727,405.218,436.068,453.86,463.02,475.481,458.161,336.187,336.187,275.853,275.853,275.853
0.00105313	-13854804.56	0,1.77854e-06,4.12131e-06,7.20733e-06,1.12724e-05,1.66271e-05,2.36805e-05,3.29717e-05,4.52104e-05,6.13319e-05,8.25679e-05,0.000110541,0.000147389,0.000195926,0.000259862,0.000344081,0.000455019,0.000601151,0.000793644,0.00104721,0.00138121,0.00182117,0.00240072,0.00316412,0.00416971,0.00549432,0.00723917,0.00953756,0.0125651,0.0165532,0.0218064,0.0287263,inf	97.4985,97.4985,334.867,417.491,618.603,328.232,188.387,269.456,298.577,282.41,301.9,320.473,311.987,310.316,299.45,291.3,299.74,314.768,332.237,352.101,375.64,404.383,434.798,452.337,462.08,476.612,459.632,331.457,331.457,272.394,272.394,272.394
0.00108494	-13854306.64	0,1.77854e-06,4.12131e-06,7.20733e-06,1.12724e-05,1.66271e-05,2.36805e-05,3.29717e-05,4.52104e-05,6.13319e-05,8.25679e-05,0.000110541,0.000147389,0.000195926,0.000259862,0.000344081,0.000455019,0.000601151,0.000793644,0.00104721,0.00138121,0.00182117,0.00240072,0.00316412,0.00416971,0.00549432,0.00723917,0.00953756,0.0125651,0.0165532,0.0218064,0.0287263,inf	97.17,97.17,333.365,410.465,628.693,317.453,181.126,270.291,299.394,280.876,301.614,320.944,312.045,311.146,300.162,292.096,301.178,316.538,333.809,352.991,375.637,403.631,433.537,450.728,460.948,477.442,460.915,327.28,327.28,269.771,269.771,269.771
0.00111543	-13853865.07	0,1.77854e-06,4.12131e-06,7.20733e-06,1.12724e-05,1.66271e-05,2.36805e-05,3.29717e-05,4.52104e-05,6.13319e-05,8.25679e-05,0.000110541,0.000147389,0.000195926,0.000259862,0.000344081,0.000455019,0.000601151,0.000793644,0.00104721,0.00138121,0.00182117,0.00240072,0.00316412,0.00416971,0.00549432,0.00723917,0.00953756,0.0125651,0.0165532,0.0218064,0.0287263,inf	97.8175,97.8175,332.155,403.622,637.954,306.794,174.712,271.763,300.518,279.628,301.539,321.423,312.044,311.866,300.766,292.826,302.553,318.252,335.35,353.895,375.696,402.957,432.311,449.084,459.691,478.043,462.056,323.589,323.589,267.816,267.816,267.816
0.00114467	-13853471.97	0,1.77854e-06,4.12131e-06,7.20733e-06,1.12724e-05,1.66271e-05,2.36805e-05,3.29717e-05,4.52104e-05,6.13319e-05,8.25679e-05,0.000110541,0.000147389,0.000195926,0.000259862,0.000344081,0.000455019,0.000601151,0.000793644,0.00104721,0.00138121,0.00182117,0.00240072,0.00316412,0.00416971,0.00549432,0.00723917,0.00953756,0.0125651,0.0165532,0.0218064,0.0287263,inf	99.2327,99.2327,331.004,397.045,646.492,296.263,168.997,273.725,301.842,278.616,301.667,321.934,312.028,312.52,301.291,293.5,303.859,319.893,336.842,354.791,375.798,402.355,431.132,447.44,458.359,478.469,463.086,320.319,320.319,266.399,266.399,266.399
0.00117274	-13853120.83	0,1.77854e-06,4.12131e-06,7.20733e-06,1.12724e-05,1.66271e-05,2.36805e-05,3.29717e-05,4.52104e-05,6.13319e-05,8.25679e-05,0.000110541,0.000147389,0.000195926,0.000259862,0.000344081,0.000455019,0.000601151,0.000793644,0.00104721,0.00138121,0.00182117,0.00240072,0.00316412,0.00416971,0.00549432,0.00723917,0.00953756,0.0125651,0.0165532,0.0218064,0.0287263,inf	101.278,101.278,329.885,390.77,654.39,285.902,163.863,276.071,303.291,277.794,301.972,322.487,312.021,313.134,301.76,294.126,305.095,321.456,338.272,355.666,375.933,401.816,430.007,445.815,456.982,478.756,464.027,317.415,317.415,265.416,265.416,265.416
0.0011997	-13852806.25	0,1.77854e-06,4.12131e-06,7.20733e-06,1.12724e-05,1.66271e-05,2.36805e-05,3.29717e-05,4.52104e-05,6.13319e-05,8.25679e-05,0.000110541,0.000147389,0.000195926,0.000259862,0.000344081,0.000455019,0.000601151,0.000793644,0.00104721,0.00138121,0.00182117,0.00240072,0.00316412,0.00416971,0.00549432,0.00723917,0.00953756,0.0125651,0.0165532,0.0218064,0.0287263,inf	103.855,103.855,328.728,384.835,661.699,275.746,159.234,278.713,304.807,277.113,302.427,323.079,312.033,313.73,302.19,294.711,306.264,322.938,339.636,356.513,376.09,401.335,428.937,444.224,455.583,478.933,464.893,314.828,314.828,264.78,264.78,264.78
0.00122562	-13852523.65	0,1.77854e-06,4.12131e-06,7.20733e-06,1.12724e-05,1.66271e-05,2.36805e-05,3.29717e-05,4.52104e-05,6.13319e-05,8.25679e-05,0.000110541,0.000147389,0.000195926,0.000259862,0.000344081,0.000455019,0.000601151,0.000793644,0.00104721,0.00138121,0.00182117,0.00240072,0.00316412,0.00416971,0.00549432,0.00723917,0.00953756,0.0125651,0.0165532,0.0218064,0.0287263,inf	106.909,106.909,327.51,379.265,668.469,265.81,155.021,281.589,306.332,276.551,303.015,323.712,312.077,314.319,302.593,295.262,307.37,324.34,340.93,357.327,376.262,400.905,427.924,442.673,454.18,479.023,465.696,312.515,312.515,264.428,264.428,264.428
0.00125054	-13852269.17	0,1.77854e-06,4.12131e-06,7.20733e-06,1.12724e-05,1.66271e-05,2.36805e-05,3.29717e-05,4.52104e-05,6.13319e-05,8.25679e-05,0.000110541,0.000147389,0.000195926,0.000259862,0.000344081,0.000455019,0.000601151,0.000793644,0.00104721,0.00138121,0.00182117,0.00240072,0.00316412,0.00416971,0.00549432,0.00723917,0.00953756,0.0125651,0.0165532,0.0218064,0.0287263,inf	110.269,110.269,326.151,374.124,674.773,256.116,151.175,284.64,307.833,276.071,303.707,324.375,312.152,314.91,302.979,295.786,308.417,325.664,342.156,358.105,376.446,400.521,426.965,441.169,452.782,479.041,466.443,310.441,310.441,264.304,264.304,264.304
0.00127452	-13852039.50	0,1.77854e-06,4.12131e-06,7.20733e-06,1.12724e-05,1.66271e-05,2.36805e-05,3.29717e-05,4.52104e-05,6.13319e-05,8.25679e-05,0.000110541,0.000147389,0.000195926,0.000259862,0.000344081,0.000455019,0.000601151,0.000793644,0.00104721,0.00138121,0.00182117,0.00240072,0.00316412,0.00416971,0.00549432,0.00723917,0.00953756,0.0125651,0.0165532,0.0218064,0.0287263,inf	113.919,113.919,324.614,369.361,680.667,246.69,147.647,287.836,309.28,275.653,304.486,325.06,312.258,315.508,303.353,296.287,309.408,326.914,343.314,358.846,376.636,400.179,426.059,439.713,451.398,479.001,467.143,308.573,308.573,264.365,264.365,264.365
0.0012976	-13851831.81	0,1.77854e-06,4.12131e-06,7.20733e-06,1.12724e-05,1.66271e-05,2.36805e-05,3.29717e-05,4.52104e-05,6.13319e-05,8.25679e-05,0.000110541,0.000147389,0.000195926,0.000259862,0.000344081,0.000455019,0.000601151,0.000793644,0.00104721,0.00138121,0.00182117,0.00240072,0.00316412,0.00416971,0.00549432,0.00723917,0.00953756,0.0125651,0.0165532,0.0218064,0.0287263,inf	117.801,117.801,322.9,365.044,686.187,237.551,144.413,291.129,310.648,275.276,305.334,325.763,312.396,316.115,303.721,296.768,310.347,328.093,344.407,359.55,376.83,399.874,425.204,438.307,450.034,478.913,467.798,306.886,306.886,264.575,264.575,264.575
0.00131983	-13851643.64	0,1.77854e-06,4.12131e-06,7.20733e-06,1.12724e-05,1.66271e-05,2.36805e-05,3.29717e-05,4.52104e-05,6.13319e-05,8.25679e-05,0.000110541,0.000147389,0.000195926,0.000259862,0.000344081,0.000455019,0.000601151,0.000793644,0.00104721,0.00138121,0.00182117,0.00240072,0.00316412,0.00416971,0.00549432,0.00723917,0.00953756,0.0125651,0.0165532,0.0218064,0.0287263,inf	121.845,121.845,321.025,361.128,691.353,228.713,141.426,294.505,311.928,274.929,306.24,326.475,312.56,316.732,304.084,297.232,311.239,329.206,345.437,360.217,377.026,399.602,424.397,436.95,448.693,478.787,468.415,305.357,305.357,264.906,264.906,264.906
