time_index	left_time_boundary	right_time_boundary	lambda
0	0	1.03919e-05	153.799
1	1.03919e-05	2.7227e-05	153.799
2	2.7227e-05	5.45005e-05	199.009
3	5.45005e-05	9.86844e-05	370.335
4	9.86844e-05	0.000170264	330.932
5	0.000170264	0.000286225	307.898
6	0.000286225	0.000474085	325.321
7	0.000474085	0.000778424	361.354
8	0.000778424	0.00127146	372.676
9	0.00127146	0.0020702	374.3
10	0.0020702	0.00336419	406.005
11	0.00336419	0.00546048	397.038
12	0.00546048	0.00885654	542.848
13	0.00885654	0.0143583	243.068
14	0.0143583	0.0232712	243.068
15	0.0232712	inf	243.068
