0.000658169	-298853.41	0,8.98799e-05,0.000212864,0.000381145,0.000611406,0.000926476,0.00135759,0.00194749,0.00275466,0.00385912,0.00537038,0.00743825,0.0102677,0.0141394,0.019437,0.0266858,inf	482.706,482.706,351.962,322.565,338.754,367.329,394.282,422.15,436.194,427.663,412.974,399.195,391.914,386.654,386.654,386.654
0.0007059	-298788.94	0,8.98799e-05,0.000212864,0.000381145,0.000611406,0.000926476,0.00135759,0.00194749,0.00275466,0.00385912,0.00537038,0.00743825,0.0102677,0.0141394,0.019437,0.0266858,inf	547.712,547.712,331.083,287.199,311.972,352.872,389.621,431.355,454.125,438.659,413.503,389.933,377.383,369.941,369.941,369.941
0.000751347	-298749.11	0,8.98799e-05,0.000212864,0.000381145,0.000611406,0.000926476,0.00135759,0.00194749,0.00275466,0.00385912,0.00537038,0.00743825,0.0102677,0.0141394,0.019437,0.0266858,inf	587.139,587.139,319.729,268.981,300.214,347.487,387.47,436.899,465.892,445.097,412.527,382.047,365.602,357.88,357.88,357.88
0.000794471	-298719.10	0,8.98799e-05,0.000212864,0.000381145,0.000611406,0.000926476,0.00135759,0.00194749,0.00275466,0.00385912,0.00537038,0.00743825,0.0102677,0.0141394,0.019437,0.0266858,inf	607.17,607.17,312.386,258.51,295.233,345.937,386.036,439.897,473.651,448.779,410.923,375.549,356.118,349.246,349.246,349.246
0.000835499	-298694.59	0,8.98799e-05,0.000212864,0.000381145,0.000611406,0.000926476,0.00135759,0.00194749,0.00275466,0.00385912,0.00537038,0.00743825,0.0102677,0.0141394,0.019437,0.0266858,inf	615.657,615.657,307.355,252.156,293.777,346.228,384.838,441.276,478.85,450.829,409.167,370.31,348.497,343.141,343.141,343.141
0.000874653	-298673.79	0,8.98799e-05,0.000212864,0.000381145,0.000611406,0.000926476,0.00135759,0.00194749,0.00275466,0.00385912,0.00537038,0.00743825,0.0102677,0.0141394,0.019437,0.0266858,inf	617.831,617.831,303.801,248.175,294.286,347.44,383.726,441.646,482.394,451.906,407.484,366.141,342.354,338.906,338.906,338.906
0.000912108	-298655.77	0,8.98799e-05,0.000212864,0.000381145,0.000611406,0.000926476,0.00135759,0.00194749,0.00275466,0.00385912,0.00537038,0.00743825,0.0102677,0.0141394,0.019437,0.0266858,inf	616.696,616.696,301.213,245.627,295.921,349.099,382.648,441.389,484.847,452.397,405.959,362.845,337.369,336.056,336.056,336.056
0.000948004	-298639.96	0,8.98799e-05,0.000212864,0.000381145,0.000611406,0.000926476,0.00135759,0.00194749,0.00275466,0.00385912,0.00537038,0.00743825,0.0102677,0.0141394,0.019437,0.0266858,inf	613.91,613.91,299.258,243.977,298.207,350.952,381.588,440.743,486.559,452.525,404.613,360.248,333.288,334.236,334.236,334.236
0.000982451	-298626.00	0,8.98799e-05,0.000212864,0.000381145,0.000611406,0.000926476,0.00135759,0.00194749,0.00275466,0.00385912,0.00537038,0.00743825,0.0102677,0.0141394,0.019437,0.0266858,inf	610.38,610.38,297.723,242.903,300.862,352.86,380.543,439.859,487.757,452.424,403.436,358.205,329.912,333.182,333.182,333.182
0.00101554	-298613.59	0,8.98799e-05,0.000212864,0.000381145,0.000611406,0.000926476,0.00135759,0.00194749,0.00275466,0.00385912,0.00537038,0.00743825,0.0102677,0.0141394,0.019437,0.0266858,inf	606.594,606.594,296.471,242.212,303.717,354.745,379.515,438.835,488.589,452.175,402.407,356.598,327.086,332.7,332.7,332.7
0.00104736	-298602.52	0,8.98799e-05,0.000212864,0.000381145,0.000611406,0.000926476,0.00135759,0.00194749,0.00275466,0.00385912,0.00537038,0.00743825,0.0102677,0.0141394,0.019437,0.0266858,inf	602.819,602.819,295.411,241.781,306.667,356.567,378.506,437.733,489.157,451.828,401.502,355.333,324.693,332.642,332.642,332.642
0.00107798	-298592.60	0,8.98799e-05,0.000212864,0.000381145,0.000611406,0.000926476,0.00135759,0.00194749,0.00275466,0.00385912,0.00537038,0.00743825,0.0102677,0.0141394,0.019437,0.0266858,inf	599.188,599.188,294.485,241.533,309.645,358.304,377.519,436.595,489.528,451.417,400.701,354.336,322.642,332.901,332.901,332.901
0.00110745	-298583.68	0,8.98799e-05,0.000212864,0.000381145,0.000611406,0.000926476,0.00135759,0.00194749,0.00275466,0.00385912,0.00537038,0.00743825,0.0102677,0.0141394,0.019437,0.0266858,inf	595.767,595.767,293.655,241.416,312.61,359.946,376.557,435.447,489.752,450.963,399.985,353.549,320.862,333.392,333.392,333.392
0.00113584	-298575.65	0,8.98799e-05,0.000212864,0.000381145,0.000611406,0.000926476,0.00135759,0.00194749,0.00275466,0.00385912,0.00537038,0.00743825,0.0102677,0.0141394,0.019437,0.0266858,inf	592.581,592.581,292.896,241.395,315.535,361.491,375.62,434.308,489.866,450.481,399.339,352.929,319.3,334.053,334.053,334.053
0.0011632	-298568.40	0,8.98799e-05,0.000212864,0.000381145,0.000611406,0.000926476,0.00135759,0.00194749,0.00275466,0.00385912,0.00537038,0.00743825,0.0102677,0.0141394,0.019437,0.0266858,inf	589.634,589.634,292.19,241.448,318.405,362.938,374.709,433.189,489.894,449.982,398.751,352.44,317.914,334.836,334.836,334.836
0.00118958	-298561.84	0,8.98799e-05,0.000212864,0.000381145,0.000611406,0.000926476,0.00135759,0.00194749,0.00275466,0.00385912,0.00537038,0.00743825,0.0102677,0.0141394,0.019437,0.0266858,inf	586.914,586.914,291.524,241.557,321.209,364.292,373.825,432.098,489.858,449.473,398.211,352.056,316.671,335.704,335.704,335.704
0.00121503	-298555.90	0,8.98799e-05,0.000212864,0.000381145,0.000611406,0.000926476,0.00135759,0.00194749,0.00275466,0.00385912,0.00537038,0.00743825,0.0102677,0.0141394,0.019437,0.0266858,inf	584.414,584.414,290.892,241.71,323.941,365.557,372.968,431.039,489.773,448.96,397.712,351.755,315.546,336.63,336.63,336.63
0.00123958	-298550.50	0,8.98799e-05,0.000212864,0.000381145,0.000611406,0.000926476,0.00135759,0.00194749,0.00275466,0.00385912,0.00537038,0.00743825,0.0102677,0.0141394,0.019437,0.0266858,inf	582.114,582.114,290.286,241.898,326.597,366.736,372.137,430.016,489.649,448.447,397.247,351.52,314.519,337.59,337.59,337.59
0.00126328	-298545.58	0,8.98799e-05,0.000212864,0.000381145,0.000611406,0.000926476,0.00135759,0.00194749,0.00275466,0.00385912,0.00537038,0.00743825,0.0102677,0.0141394,0.019437,0.0266858,inf	579.999,579.999,289.702,242.116,329.177,367.836,371.33,429.028,489.496,447.938,396.811,351.338,313.573,338.57,338.57,338.57
0.00128616	-298541.11	0,8.98799e-05,0.000212864,0.000381145,0.000611406,0.000926476,0.00135759,0.00194749,0.00275466,0.00385912,0.00537038,0.00743825,0.0102677,0.0141394,0.019437,0.0266858,inf	578.053,578.053,289.136,242.357,331.681,368.86,370.548,428.078,489.321,447.434,396.402,351.199,312.697,339.555,339.555,339.555
