0.000684463	-8629859.11	0,2.68422e-06,6.16798e-06,1.06894e-05,1.65577e-05,2.41738e-05,3.40586e-05,4.68877e-05,6.35382e-05,8.51483e-05,0.000113195,0.000149596,0.00019684,0.000258157,0.000337737,0.000441021,0.000575071,0.000749049,0.000974849,0.00126791,0.00164826,0.0021419,0.00278258,0.00361411,0.00469331,0.00609397,0.00791184,0.0102712,0.0133333,0.0173075,0.0224655,0.0291599,inf	62.0327,62.0327,152.43,225.661,276.294,308.471,320.431,314.274,311.917,315.58,318.598,319.377,319.823,319.808,321.813,328.419,337.965,350.087,364.83,381.374,398.359,413.21,421.924,423.428,421.877,419.539,413.08,396.075,396.075,390.104,390.104,390.104
0.000736225	-8627853.87	0,2.68422e-06,6.16798e-06,1.06894e-05,1.65577e-05,2.41738e-05,3.40586e-05,4.68877e-05,6.35382e-05,8.51483e-05,0.000113195,0.000149596,0.00019684,0.000258157,0.000337737,0.000441021,0.000575071,0.000749049,0.000974849,0.00126791,0.00164826,0.0021419,0.00278258,0.00361411,0.00469331,0.00609397,0.00791184,0.0102712,0.0133333,0.0173075,0.0224655,0.0291599,inf	13.4878,13.4878,81.6337,173.885,251.33,304.007,321.327,305.342,298.893,303.974,307.507,306.431,304.308,300.472,299.848,306.918,318.408,333.755,353.2,375.725,399.866,422.221,436.13,439.051,437.749,435.389,424.302,392.35,392.35,382.761,382.761,382.761
0.000784888	-8626609.13	0,2.68422e-06,6.16798e-06,1.06894e-05,1.65577e-05,2.41738e-05,3.40586e-05,4.68877e-05,6.35382e-05,8.51483e-05,0.000113195,0.000149596,0.00019684,0.000258157,0.000337737,0.000441021,0.000575071,0.000749049,0.000974849,0.00126791,0.00164826,0.0021419,0.00278258,0.00361411,0.00469331,0.00609397,0.00791184,0.0102712,0.0133333,0.0173075,0.0224655,0.0291599,inf	3.27369,3.27369,48.2411,144.579,240.839,310.299,331.25,305.676,296.852,304.639,309.664,307.567,303.496,296.032,292.664,299.287,310.988,327.08,348.018,372.74,400.06,426.446,443.522,447.584,447.333,446.183,431.701,386.842,386.842,375.308,375.308,375.308
0.000830665	-8625670.57	0,2.68422e-06,6.16798e-06,1.06894e-05,1.65577e-05,2.41738e-05,3.40586e-05,4.68877e-05,6.35382e-05,8.51483e-05,0.000113195,0.000149596,0.00019684,0.000258157,0.000337737,0.000441021,0.000575071,0.000749049,0.000974849,0.00126791,0.00164826,0.0021419,0.00278258,0.00361411,0.00469331,0.00609397,0.00791184,0.0102712,0.0133333,0.0173075,0.0224655,0.0291599,inf	0.649132,0.649132,29.9465,123.905,233.355,316.04,338.865,304.443,294.739,306.148,313.515,311.382,306.319,296.019,290.566,296.878,308.426,324.465,345.649,370.935,399.543,428.084,447.04,451.895,452.965,453.615,436.57,380.635,380.635,368.296,368.296,368.296
0.000873911	-8624909.60	0,2.68422e-06,6.16798e-06,1.06894e-05,1.65577e-05,2.41738e-05,3.40586e-05,4.68877e-05,6.35382e-05,8.51483e-05,0.000113195,0.000149596,0.00019684,0.000258157,0.000337737,0.000441021,0.000575071,0.000749049,0.000974849,0.00126791,0.00164826,0.0021419,0.00278258,0.00361411,0.00469331,0.00609397,0.00791184,0.0102712,0.0133333,0.0173075,0.0224655,0.0291599,inf	0.396341,0.396341,19.3375,108.678,227.722,320.628,343.587,300.923,291.211,306.502,316.537,314.982,309.643,297.228,290.371,296.691,308.096,323.833,344.744,369.829,398.758,428.378,448.373,453.701,456.111,458.805,439.769,374.345,374.345,361.964,361.964,361.964
0.000914927	-8624270.79	0,2.68422e-06,6.16798e-06,1.06894e-05,1.65577e-05,2.41738e-05,3.40586e-05,4.68877e-05,6.35382e-05,8.51483e-05,0.000113195,0.000149596,0.00019684,0.000258157,0.000337737,0.000441021,0.000575071,0.000749049,0.000974849,0.00126791,0.00164826,0.0021419,0.00278258,0.00361411,0.00469331,0.00609397,0.00791184,0.0102712,0.0133333,0.0173075,0.0224655,0.0291599,inf	0.396341,0.396341,12.938,97.3697,223.94,324.908,346.533,296.103,286.843,305.874,318.517,317.805,312.612,298.608,290.893,297.506,308.869,324.252,344.674,369.194,397.932,427.993,448.473,454.013,457.679,462.478,441.866,368.295,368.295,356.381,356.381,356.381
0.000953954	-8623724.00	0,2.68422e-06,6.16798e-06,1.06894e-05,1.65577e-05,2.41738e-05,3.40586e-05,4.68877e-05,6.35382e-05,8.51483e-05,0.000113195,0.000149596,0.00019684,0.000258157,0.000337737,0.000441021,0.000575071,0.000749049,0.000974849,0.00126791,0.00164826,0.0021419,0.00278258,0.00361411,0.00469331,0.00609397,0.00791184,0.0102712,0.0133333,0.0173075,0.0224655,0.0291599,inf	0.396341,0.396341,8.93106,88.8595,221.858,329.389,348.588,290.846,282.297,304.76,319.747,319.914,315.068,299.831,291.658,298.774,310.199,325.247,345.1,368.885,397.161,427.282,447.88,453.432,458.235,465.11,443.227,362.64,362.64,351.528,351.528,351.528
0.000991178	-8623250.25	0,2.68422e-06,6.16798e-06,1.06894e-05,1.65577e-05,2.41738e-05,3.40586e-05,4.68877e-05,6.35382e-05,8.51483e-05,0.000113195,0.000149596,0.00019684,0.000258157,0.000337737,0.000441021,0.000575071,0.000749049,0.000974849,0.00126791,0.00164826,0.0021419,0.00278258,0.00361411,0.00469331,0.00609397,0.00791184,0.0102712,0.0133333,0.0173075,0.0224655,0.0291599,inf	0.396341,0.396341,6.31312,82.3696,221.151,334.21,350.211,285.639,277.984,303.542,320.543,321.5,317.064,300.821,292.469,300.229,311.797,326.551,345.819,368.803,396.481,426.43,446.903,452.319,458.136,467.014,444.096,357.442,357.442,347.348,347.348,347.348
0.00102675	-8622836.27	0,2.68422e-06,6.16798e-06,1.06894e-05,1.65577e-05,2.41738e-05,3.40586e-05,4.68877e-05,6.35382e-05,8.51483e-05,0.000113195,0.000149596,0.00019684,0.000258157,0.000337737,0.000441021,0.000575071,0.000749049,0.000974849,0.00126791,0.00164826,0.0021419,0.00278258,0.00361411,0.00469331,0.00609397,0.00791184,0.0102712,0.0133333,0.0173075,0.0224655,0.0291599,inf	0.396341,0.396341,4.5751,77.3048,221.482,339.303,351.595,280.72,274.114,302.459,321.136,322.741,318.697,301.587,293.251,301.738,313.507,328.01,346.707,368.876,395.896,425.535,445.721,450.896,457.612,468.401,444.634,352.71,352.71,343.771,343.771,343.771
0.0010608	-8622472.24	0,2.68422e-06,6.16798e-06,1.06894e-05,1.65577e-05,2.41738e-05,3.40586e-05,4.68877e-05,6.35382e-05,8.51483e-05,0.000113195,0.000149596,0.00019684,0.000258157,0.000337737,0.000441021,0.000575071,0.000749049,0.000974849,0.00126791,0.00164826,0.0021419,0.00278258,0.00361411,0.00469331,0.00609397,0.00791184,0.0102712,0.0133333,0.0173075,0.0224655,0.0291599,inf	0.396341,0.396341,3.37979,73.2694,222.542,344.524,352.771,276.161,270.759,301.629,321.673,323.771,320.058,302.168,293.975,303.234,315.241,329.532,347.683,369.055,395.4,424.647,444.441,449.299,456.814,469.415,444.948,348.426,348.426,340.721,340.721,340.721
0.00109342	-8622150.49	0,2.68422e-06,6.16798e-06,1.06894e-05,1.65577e-05,2.41738e-05,3.40586e-05,4.68877e-05,6.35382e-05,8.51483e-05,0.000113195,0.000149596,0.00019684,0.000258157,0.000337737,0.000441021,0.000575071,0.000749049,0.000974849,0.00126791,0.00164826,0.0021419,0.00278258,0.00361411,0.00469331,0.00609397,0.00791184,0.0102712,0.0133333,0.0173075,0.0224655,0.0291599,inf	0.39632,0.39632,2.52923,70.0062,224.095,349.734,353.74,271.971,267.918,301.1,322.24,324.679,321.223,302.601,294.639,304.685,316.95,331.059,348.698,369.303,394.98,423.792,443.125,447.615,455.839,470.155,445.112,344.559,344.559,338.132,338.132,338.132
0.00112471	-8621864.91	0,2.68422e-06,6.16798e-06,1.06894e-05,1.65577e-05,2.41738e-05,3.40586e-05,4.68877e-05,6.35382e-05,8.51483e-05,0.000113195,0.000149596,0.00019684,0.000258157,0.000337737,0.000441021,0.000575071,0.000749049,0.000974849,0.00126791,0.00164826,0.0021419,0.00278258,0.00361411,0.00469331,0.00609397,0.00791184,0.0102712,0.0133333,0.0173075,0.0224655,0.0291599,inf	0.39632,0.39632,1.92249,67.3383,225.991,354.803,354.486,268.124,265.559,300.878,322.877,325.525,322.246,302.924,295.246,306.077,318.605,332.56,349.717,369.594,394.626,422.981,441.811,445.898,454.754,470.693,445.174,341.074,341.074,335.938,335.938,335.938
0.00115475	-8621610.53	0,2.68422e-06,6.16798e-06,1.06894e-05,1.65577e-05,2.41738e-05,3.40586e-05,4.68877e-05,6.35382e-05,8.51483e-05,0.000113195,0.000149596,0.00019684,0.000258157,0.000337737,0.000441021,0.000575071,0.000749049,0.000974849,0.00126791,0.00164826,0.0021419,0.00278258,0.00361411,0.00469331,0.00609397,0.00791184,0.0102712,0.0133333,0.0173075,0.0224655,0.0291599,inf	0.39632,0.39632,1.47895,65.1263,228.105,359.667,354.994,264.585,263.633,300.942,323.6,326.344,323.168,303.166,295.808,307.404,320.194,334.013,350.72,369.91,394.327,422.219,440.522,444.181,453.605,471.077,445.168,337.934,337.934,334.085,334.085,334.085
0.0011836	-8621383.20	0,2.68422e-06,6.16798e-06,1.06894e-05,1.65577e-05,2.41738e-05,3.40586e-05,4.68877e-05,6.35382e-05,8.51483e-05,0.000113195,0.000149596,0.00019684,0.000258157,0.000337737,0.000441021,0.000575071,0.000749049,0.000974849,0.00126791,0.00164826,0.0021419,0.00278258,0.00361411,0.00469331,0.00609397,0.00791184,0.0102712,0.0133333,0.0173075,0.0224655,0.0291599,inf	0.39632,0.39632,1.15188,63.289,230.374,364.289,355.259,261.318,262.086,301.265,324.413,327.158,324.018,303.347,296.329,308.667,321.71,335.408,351.693,370.239,394.074,421.507,439.269,442.487,452.422,471.346,445.117,335.103,335.103,332.525,332.525,332.525
0.00121135	-8621179.49	0,2.68422e-06,6.16798e-06,1.06894e-05,1.65577e-05,2.41738e-05,3.40586e-05,4.68877e-05,6.35382e-05,8.51483e-05,0.000113195,0.000149596,0.00019684,0.000258157,0.000337737,0.000441021,0.000575071,0.000749049,0.000974849,0.00126791,0.00164826,0.0021419,0.00278258,0.00361411,0.00469331,0.00609397,0.00791184,0.0102712,0.0133333,0.0173075,0.0224655,0.0291599,inf	0.39632,0.39632,0.907592,61.7622,232.748,368.65,355.283,258.291,260.873,301.812,325.302,327.976,324.813,303.485,296.82,309.868,323.151,336.741,352.631,370.572,393.86,420.843,438.06,440.829,451.225,471.525,445.038,332.549,332.549,331.218,331.218,331.218
0.00123803	-8620996.46	0,2.68422e-06,6.16798e-06,1.06894e-05,1.65577e-05,2.41738e-05,3.40586e-05,4.68877e-05,6.35382e-05,8.51483e-05,0.000113195,0.000149596,0.00019684,0.000258157,0.000337737,0.000441021,0.000575071,0.000749049,0.000974849,0.00126791,0.00164826,0.0021419,0.00278258,0.00361411,0.00469331,0.00609397,0.00791184,0.0102712,0.0133333,0.0173075,0.0224655,0.0291599,inf	0.39632,0.39632,0.716378,60.4977,235.204,372.739,355.077,255.473,259.945,302.55,326.261,328.802,325.569,303.595,297.286,311.01,324.519,338.008,353.527,370.903,393.678,420.225,436.897,439.215,450.029,471.635,444.941,330.242,330.242,330.125,330.125,330.125
0.00126372	-8620831.64	0,2.68422e-06,6.16798e-06,1.06894e-05,1.65577e-05,2.41738e-05,3.40586e-05,4.68877e-05,6.35382e-05,8.51483e-05,0.000113195,0.000149596,0.00019684,0.000258157,0.000337737,0.000441021,0.000575071,0.000749049,0.000974849,0.00126791,0.00164826,0.0021419,0.00278258,0.00361411,0.00469331,0.00609397,0.00791184,0.0102712,0.0133333,0.0173075,0.0224655,0.0291599,inf	0.39632,0.39632,0.571531,59.4626,237.713,376.556,354.666,252.838,259.262,303.449,327.272,329.638,326.294,303.683,297.732,312.098,325.815,339.21,354.38,371.228,393.524,419.65,435.782,437.65,448.844,471.69,444.834,328.155,328.155,329.218,329.218,329.218
0.00128845	-8620682.91	0,2.68422e-06,6.16798e-06,1.06894e-05,1.65577e-05,2.41738e-05,3.40586e-05,4.68877e-05,6.35382e-05,8.51483e-05,0.000113195,0.000149596,0.00019684,0.000258157,0.000337737,0.000441021,0.000575071,0.000749049,0.000974849,0.00126791,0.00164826,0.0021419,0.00278258,0.00361411,0.00469331,0.00609397,0.00791184,0.0102712,0.0133333,0.0173075,0.0224655,0.0291599,inf	0.39632,0.39632,0.460303,58.6207,240.275,380.137,354.066,250.366,258.792,304.481,328.324,330.482,326.996,303.758,298.162,313.136,327.043,340.349,355.191,371.544,393.393,419.114,434.715,436.135,447.677,471.703,444.722,326.265,326.265,328.47,328.47,328.47
0.00131228	-8620548.43	0,2.68422e-06,6.16798e-06,1.06894e-05,1.65577e-05,2.41738e-05,3.40586e-05,4.68877e-05,6.35382e-05,8.51483e-05,0.000113195,0.000149596,0.00019684,0.000258157,0.000337737,0.000441021,0.000575071,0.000749049,0.000974849,0.00126791,0.00164826,0.0021419,0.00278258,0.00361411,0.00469331,0.00609397,0.00791184,0.0102712,0.0133333,0.0173075,0.0224655,0.0291599,inf	0.39632,0.39632,0.396333,57.959,242.889,383.479,353.293,248.042,258.505,305.621,329.402,331.33,327.676,303.826,298.581,314.128,328.208,341.426,355.958,371.849,393.282,418.615,433.694,434.672,446.533,471.682,444.608,324.549,324.549,327.859,327.859,327.859
0.00133524	-8620426.62	0,2.68422e-06,6.16798e-06,1.06894e-05,1.65577e-05,2.41738e-05,3.40586e-05,4.68877e-05,6.35382e-05,8.51483e-05,0.000113195,0.000149596,0.00019684,0.000258157,0.000337737,0.000441021,0.000575071,0.000749049,0.000974849,0.00126791,0.00164826,0.0021419,0.00278258,0.00361411,0.00469331,0.00609397,0.00791184,0.0102712,0.0133333,0.0173075,0.0224655,0.0291599,inf	0.39632,0.39632,0.396333,57.454,245.524,386.589,352.36,245.853,258.378,306.849,330.498,332.18,328.338,303.889,298.989,315.077,329.312,342.445,356.684,372.143,393.189,418.15,432.719,433.26,445.413,471.634,444.495,322.991,322.991,327.364,327.364,327.364
