time_index	left_time_boundary	right_time_boundary	lambda
0	0	2.68422e-06	0.39632
1	2.68422e-06	6.16798e-06	0.39632
2	6.16798e-06	1.06894e-05	0.396333
3	1.06894e-05	1.65577e-05	57.454
4	1.65577e-05	2.41738e-05	245.524
5	2.41738e-05	3.40586e-05	386.589
6	3.40586e-05	4.68877e-05	352.36
7	4.68877e-05	6.35382e-05	245.853
8	6.35382e-05	8.51483e-05	258.378
9	8.51483e-05	0.000113195	306.849
10	0.000113195	0.000149596	330.498
11	0.000149596	0.00019684	332.18
12	0.00019684	0.000258157	328.338
13	0.000258157	0.000337737	303.889
14	0.000337737	0.000441021	298.989
15	0.000441021	0.000575071	315.077
16	0.000575071	0.000749049	329.312
17	0.000749049	0.000974849	342.445
18	0.000974849	0.00126791	356.684
19	0.00126791	0.00164826	372.143
20	0.00164826	0.0021419	393.189
21	0.0021419	0.00278258	418.15
22	0.00278258	0.00361411	432.719
23	0.00361411	0.00469331	433.26
24	0.00469331	0.00609397	445.413
25	0.00609397	0.00791184	471.634
26	0.00791184	0.0102712	444.495
27	0.0102712	0.0133333	322.991
28	0.0133333	0.0173075	322.991
29	0.0173075	0.0224655	327.364
30	0.0224655	0.0291599	327.364
31	0.0291599	inf	327.364
