LogLikelihood = -206586.50318228581455

y0 1.0410808520907206542
y0_prime 0
y1 0.96930961712539998043
y1_prime 0
y2 0.99910718809527954143
y2_prime 0
y3 1.6392334637728911417
y3_prime 0
rho 0.00015034696228494577814
theta 0.00049184482514795448312
