LogLikelihood = -653857.80686821229756

y0 0.19846034080329563731
y0_prime 0
y1 0.29036800802909895625
y1_prime 0
y2 2.3288853077438593786
y2_prime 0
y3 14.227202932248294687
y3_prime 0
rho 7.2911094185426161916e-05
theta 0.0018030940641337003978
