0.000710995	-13710706.45	0,1.75087e-06,4.05719e-06,7.0952e-06,1.1097e-05,1.63684e-05,2.33121e-05,3.24587e-05,4.4507e-05,6.03777e-05,8.12833e-05,0.000108821,0.000145095,0.000192878,0.000255819,0.000338728,0.000447939,0.000591799,0.000781297,0.00103091,0.00135972,0.00179284,0.00236337,0.00311489,0.00410484,0.00540884,0.00712654,0.00938918,0.0123696,0.0162956,0.0214671,0.0282793,inf	828.058,828.058,413.873,314.137,322.812,334.207,337.048,340.653,346.008,348.781,348.126,346.886,345.559,343.945,343.639,346.161,351.99,362.085,376.806,394.579,412.583,426.858,432.765,429.511,421.524,412.016,399.45,384.453,384.453,364.322,364.322,364.322
0.000795638	-13704171.78	0,1.75087e-06,4.05719e-06,7.0952e-06,1.1097e-05,1.63684e-05,2.33121e-05,3.24587e-05,4.4507e-05,6.03777e-05,8.12833e-05,0.000108821,0.000145095,0.000192878,0.000255819,0.000338728,0.000447939,0.000591799,0.000781297,0.00103091,0.00135972,0.00179284,0.00236337,0.00311489,0.00410484,0.00540884,0.00712654,0.00938918,0.0123696,0.0162956,0.0214671,0.0282793,inf	1153.53,1153.53,380.703,268.946,296.641,319.577,324.601,330.917,340.532,344.936,342.747,339.34,335.212,329.952,326.577,327.619,333.75,346.661,366.914,392.026,418.06,439.423,448.632,443.774,431.5,416.262,394.888,369.535,369.535,335.249,335.249,335.249
0.00087474	-13699466.67	0,1.75087e-06,4.05719e-06,7.0952e-06,1.1097e-05,1.63684e-05,2.33121e-05,3.24587e-05,4.4507e-05,6.03777e-05,8.12833e-05,0.000108821,0.000145095,0.000192878,0.000255819,0.000338728,0.000447939,0.000591799,0.000781297,0.00103091,0.00135972,0.00179284,0.00236337,0.00311489,0.00410484,0.00540884,0.00712654,0.00938918,0.0123696,0.0162956,0.0214671,0.0282793,inf	1320.17,1320.17,330.143,233.489,279.49,312.657,319.281,328.469,342.849,349.622,346.97,342.554,336.489,328.18,321.986,321.165,326.451,340.143,362.807,391.239,421.025,445.945,456.891,451.188,436.685,418.001,390.348,357.671,357.671,312.485,312.485,312.485
0.00094882	-13695804.37	0,1.75087e-06,4.05719e-06,7.0952e-06,1.1097e-05,1.63684e-05,2.33121e-05,3.24587e-05,4.4507e-05,6.03777e-05,8.12833e-05,0.000108821,0.000145095,0.000192878,0.000255819,0.000338728,0.000447939,0.000591799,0.000781297,0.00103091,0.00135972,0.00179284,0.00236337,0.00311489,0.00410484,0.00540884,0.00712654,0.00938918,0.0123696,0.0162956,0.0214671,0.0282793,inf	1393.49,1393.49,281.827,205.155,266.11,306.858,313.687,325.203,344.253,353.771,351.601,347.326,340.381,329.979,321.72,319.388,323.732,337.582,361.376,391.29,422.732,449.322,461.044,454.849,439.281,418.566,386.349,348.364,348.364,294.177,294.177,294.177
0.00101839	-13692852.53	0,1.75087e-06,4.05719e-06,7.0952e-06,1.1097e-05,1.63684e-05,2.33121e-05,3.24587e-05,4.4507e-05,6.03777e-05,8.12833e-05,0.000108821,0.000145095,0.000192878,0.000255819,0.000338728,0.000447939,0.000591799,0.000781297,0.00103091,0.00135972,0.00179284,0.00236337,0.00311489,0.00410484,0.00540884,0.00712654,0.00938918,0.0123696,0.0162956,0.0214671,0.0282793,inf	1425,1425,241.71,183.416,256.478,302.26,307.692,320.681,343.828,355.977,354.778,351.402,344.371,332.684,323.063,319.646,323.199,337.033,361.363,391.824,423.815,451.009,462.916,456.401,440.452,418.61,383.017,341.105,341.105,279.102,279.102,279.102
0.00108389	-13690423.49	0,1.75087e-06,4.05719e-06,7.0952e-06,1.1097e-05,1.63684e-05,2.33121e-05,3.24587e-05,4.4507e-05,6.03777e-05,8.12833e-05,0.000108821,0.000145095,0.000192878,0.000255819,0.000338728,0.000447939,0.000591799,0.000781297,0.00103091,0.00135972,0.00179284,0.00236337,0.00311489,0.00410484,0.00540884,0.00712654,0.00938918,0.0123696,0.0162956,0.0214671,0.0282793,inf	1438.09,1438.09,209.672,167.148,250.532,299.456,302.117,315.752,342.26,356.629,356.536,354.455,347.831,335.441,324.988,320.839,323.792,337.582,362.144,392.646,424.57,451.75,463.476,456.732,440.817,418.439,380.318,335.463,335.463,266.425,266.425,266.425
0.00114568	-13688395.12	0,1.75087e-06,4.05719e-06,7.0952e-06,1.1097e-05,1.63684e-05,2.33121e-05,3.24587e-05,4.4507e-05,6.03777e-05,8.12833e-05,0.000108821,0.000145095,0.000192878,0.000255819,0.000338728,0.000447939,0.000591799,0.000781297,0.00103091,0.00135972,0.00179284,0.00236337,0.00311489,0.00410484,0.00540884,0.00712654,0.00938918,0.0123696,0.0162956,0.0214671,0.0282793,inf	1441.82,1441.82,184.051,155.001,247.823,298.543,297.437,311.093,340.276,356.357,357.297,356.657,350.704,337.993,327.08,322.461,324.977,338.744,363.375,393.632,425.141,451.937,463.257,456.337,440.714,418.198,378.165,331.094,331.094,255.563,255.563,255.563
0.00120407	-13686681.82	0,1.75087e-06,4.05719e-06,7.0952e-06,1.1097e-05,1.63684e-05,2.33121e-05,3.24587e-05,4.4507e-05,6.03777e-05,8.12833e-05,0.000108821,0.000145095,0.000192878,0.000255819,0.000338728,0.000447939,0.000591799,0.000781297,0.00103091,0.00135972,0.00179284,0.00236337,0.00311489,0.00410484,0.00540884,0.00712654,0.00938918,0.0123696,0.0162956,0.0214671,0.0282793,inf	1439.6,1439.6,163.194,145.823,247.757,299.355,293.791,307.049,338.354,355.654,357.461,358.263,353.091,340.289,329.165,324.258,326.469,340.244,364.852,394.702,425.597,451.791,462.567,455.503,440.333,417.948,376.464,327.728,327.728,246.098,246.098,246.098
0.00125931	-13685220.94	0,1.75087e-06,4.05719e-06,7.0952e-06,1.1097e-05,1.63684e-05,2.33121e-05,3.24587e-05,4.4507e-05,6.03777e-05,8.12833e-05,0.000108821,0.000145095,0.000192878,0.000255819,0.000338728,0.000447939,0.000591799,0.000781297,0.00103091,0.00135972,0.00179284,0.00236337,0.00311489,0.00410484,0.00540884,0.00712654,0.00938918,0.0123696,0.0162956,0.0214671,0.0282793,inf	1433.23,1433.23,145.856,138.776,249.712,301.524,291.094,303.728,336.736,354.832,357.316,359.48,355.106,342.347,331.171,326.1,328.105,341.92,366.452,395.804,425.976,451.44,461.588,454.401,439.784,417.713,375.129,325.161,325.161,237.723,237.723,237.723
0.00131164	-13683965.27	0,1.75087e-06,4.05719e-06,7.0952e-06,1.1097e-05,1.63684e-05,2.33121e-05,3.24587e-05,4.4507e-05,6.03777e-05,8.12833e-05,0.000108821,0.000145095,0.000192878,0.000255819,0.000338728,0.000447939,0.000591799,0.000781297,0.00103091,0.00135972,0.00179284,0.00236337,0.00311489,0.00410484,0.00540884,0.00712654,0.00938918,0.0123696,0.0162956,0.0214671,0.0282793,inf	1423.48,1423.48,131.148,133.205,253.163,304.7,289.17,301.112,335.52,354.067,357.045,360.464,356.851,344.203,333.071,327.916,329.792,343.675,368.099,396.905,426.299,450.96,460.434,453.138,439.132,417.5,374.088,323.232,323.232,230.211,230.211,230.211
0.00136127	-13682878.47	0,1.75087e-06,4.05719e-06,7.0952e-06,1.1097e-05,1.63684e-05,2.33121e-05,3.24587e-05,4.4507e-05,6.03777e-05,8.12833e-05,0.000108821,0.000145095,0.000192878,0.000255819,0.000338728,0.000447939,0.000591799,0.000781297,0.00103091,0.00135972,0.00179284,0.00236337,0.00311489,0.00410484,0.00540884,0.00712654,0.00938918,0.0123696,0.0162956,0.0214671,0.0282793,inf	1411.83,1411.83,118.469,128.662,257.691,308.535,287.828,299.118,334.725,353.443,356.766,361.32,358.404,345.89,334.856,329.669,331.472,345.445,369.747,397.986,426.58,450.402,459.176,451.781,438.418,417.309,373.28,321.82,321.82,223.389,223.389,223.389
0.00140839	-13681932.06	0,1.75087e-06,4.05719e-06,7.0952e-06,1.1097e-05,1.63684e-05,2.33121e-05,3.24587e-05,4.4507e-05,6.03777e-05,8.12833e-05,0.000108821,0.000145095,0.000192878,0.000255819,0.000338728,0.000447939,0.000591799,0.000781297,0.00103091,0.00135972,0.00179284,0.00236337,0.00311489,0.00410484,0.00540884,0.00712654,0.00938918,0.0123696,0.0162956,0.0214671,0.0282793,inf	1398.87,1398.87,107.37,124.883,262.959,312.746,286.917,297.649,334.318,352.996,356.539,362.117,359.821,347.439,336.53,331.342,333.114,347.196,371.367,399.036,426.829,449.798,457.863,450.374,437.668,417.136,372.659,320.83,320.83,217.124,217.124,217.124
0.00145316	-13681103.44	0,1.75087e-06,4.05719e-06,7.0952e-06,1.1097e-05,1.63684e-05,2.33121e-05,3.24587e-05,4.4507e-05,6.03777e-05,8.12833e-05,0.000108821,0.000145095,0.000192878,0.000255819,0.000338728,0.000447939,0.000591799,0.000781297,0.00103091,0.00135972,0.00179284,0.00236337,0.00311489,0.00410484,0.00540884,0.00712654,0.00938918,0.0123696,0.0162956,0.0214671,0.0282793,inf	1385.25,1385.25,97.5421,121.615,268.701,317.151,286.284,296.595,334.257,352.734,356.399,362.895,361.141,348.876,338.098,332.922,334.697,348.903,372.942,400.049,427.053,449.17,456.525,448.947,436.899,416.976,372.185,320.189,320.189,211.312,211.312,211.312
0.00149573	-13680374.45	0,1.75087e-06,4.05719e-06,7.0952e-06,1.1097e-05,1.63684e-05,2.33121e-05,3.24587e-05,4.4507e-05,6.03777e-05,8.12833e-05,0.000108821,0.000145095,0.000192878,0.000255819,0.000338728,0.000447939,0.000591799,0.000781297,0.00103091,0.00135972,0.00179284,0.00236337,0.00311489,0.00410484,0.00540884,0.00712654,0.00938918,0.0123696,0.0162956,0.0214671,0.0282793,inf	1371.61,1371.61,88.8022,118.734,274.742,321.551,285.828,295.879,334.486,352.641,356.357,363.681,362.392,350.217,339.568,334.412,336.212,350.553,374.463,401.022,427.258,448.533,455.185,447.519,436.121,416.825,371.829,319.837,319.837,205.868,205.868,205.868
0.00153625	-13679730.30	0,1.75087e-06,4.05719e-06,7.0952e-06,1.1097e-05,1.63684e-05,2.33121e-05,3.24587e-05,4.4507e-05,6.03777e-05,8.12833e-05,0.000108821,0.000145095,0.000192878,0.000255819,0.000338728,0.000447939,0.000591799,0.000781297,0.00103091,0.00135972,0.00179284,0.00236337,0.00311489,0.00410484,0.00540884,0.00712654,0.00938918,0.0123696,0.0162956,0.0214671,0.0282793,inf	1358.08,1358.08,80.9688,116.15,280.911,325.833,285.457,295.434,334.963,352.703,356.415,364.489,363.596,351.48,340.944,335.809,337.654,352.139,375.924,401.953,427.448,447.897,453.857,446.104,435.342,416.68,371.567,319.729,319.729,200.726,200.726,200.726
0.00157484	-13679158.88	0,1.75087e-06,4.05719e-06,7.0952e-06,1.1097e-05,1.63684e-05,2.33121e-05,3.24587e-05,4.4507e-05,6.03777e-05,8.12833e-05,0.000108821,0.000145095,0.000192878,0.000255819,0.000338728,0.000447939,0.000591799,0.000781297,0.00103091,0.00135972,0.00179284,0.00236337,0.00311489,0.00410484,0.00540884,0.00712654,0.00938918,0.0123696,0.0162956,0.0214671,0.0282793,inf	1345.09,1345.09,73.9013,113.763,287.119,329.92,285.126,295.199,335.645,352.897,356.569,365.326,364.762,352.675,342.237,337.118,339.02,353.657,377.322,402.845,427.626,447.27,452.551,444.711,434.569,416.537,371.381,319.831,319.831,195.831,195.831,195.831
0.00161162	-13678650.18	0,1.75087e-06,4.05719e-06,7.0952e-06,1.1097e-05,1.63684e-05,2.33121e-05,3.24587e-05,4.4507e-05,6.03777e-05,8.12833e-05,0.000108821,0.000145095,0.000192878,0.000255819,0.000338728,0.000447939,0.000591799,0.000781297,0.00103091,0.00135972,0.00179284,0.00236337,0.00311489,0.00410484,0.00540884,0.00712654,0.00938918,0.0123696,0.0162956,0.0214671,0.0282793,inf	1332.74,1332.74,67.5401,111.533,293.299,333.742,284.793,295.132,336.486,353.201,356.809,366.194,365.898,353.81,343.45,338.341,340.31,355.104,378.659,403.698,427.795,446.657,451.273,443.346,433.803,416.395,371.255,320.112,320.112,191.137,191.137,191.137
0.0016467	-13678195.86	0,1.75087e-06,4.05719e-06,7.0952e-06,1.1097e-05,1.63684e-05,2.33121e-05,3.24587e-05,4.4507e-05,6.03777e-05,8.12833e-05,0.000108821,0.000145095,0.000192878,0.000255819,0.000338728,0.000447939,0.000591799,0.000781297,0.00103091,0.00135972,0.00179284,0.00236337,0.00311489,0.00410484,0.00540884,0.00712654,0.00938918,0.0123696,0.0162956,0.0214671,0.0282793,inf	1321.13,1321.13,61.774,109.442,299.385,337.297,284.431,295.196,337.462,353.596,357.128,367.093,367.011,354.893,344.592,339.484,341.528,356.483,379.934,404.515,427.957,446.061,450.028,442.012,433.049,416.252,371.177,320.552,320.552,186.604,186.604,186.604
0.00168018	-13677788.92	0,1.75087e-06,4.05719e-06,7.0952e-06,1.1097e-05,1.63684e-05,2.33121e-05,3.24587e-05,4.4507e-05,6.03777e-05,8.12833e-05,0.000108821,0.000145095,0.000192878,0.000255819,0.000338728,0.000447939,0.000591799,0.000781297,0.00103091,0.00135972,0.00179284,0.00236337,0.00311489,0.00410484,0.00540884,0.00712654,0.00938918,0.0123696,0.0162956,0.0214671,0.0282793,inf	1310.2,1310.2,56.5554,107.48,305.383,340.557,284.015,295.361,338.534,354.066,357.513,368.017,368.106,355.929,345.664,340.549,342.674,357.793,381.151,405.296,428.114,445.485,448.819,440.713,432.307,416.108,371.139,321.132,321.132,182.199,182.199,182.199
0.00171215	-13677423.45	0,1.75087e-06,4.05719e-06,7.0952e-06,1.1097e-05,1.63684e-05,2.33121e-05,3.24587e-05,4.4507e-05,6.03777e-05,8.12833e-05,0.000108821,0.000145095,0.000192878,0.000255819,0.000338728,0.000447939,0.000591799,0.000781297,0.00103091,0.00135972,0.00179284,0.00236337,0.00311489,0.00410484,0.00540884,0.00712654,0.00938918,0.0123696,0.0162956,0.0214671,0.0282793,inf	1299.97,1299.97,51.8304,105.611,311.25,343.508,283.55,295.611,339.691,354.591,357.955,368.967,369.183,356.924,346.675,341.543,343.753,359.038,382.31,406.043,428.267,444.929,447.646,439.45,431.579,415.96,371.133,321.84,321.84,177.893,177.893,177.893
0.00174269	-13677094.47	0,1.75087e-06,4.05719e-06,7.0952e-06,1.1097e-05,1.63684e-05,2.33121e-05,3.24587e-05,4.4507e-05,6.03777e-05,8.12833e-05,0.000108821,0.000145095,0.000192878,0.000255819,0.000338728,0.000447939,0.000591799,0.000781297,0.00103091,0.00135972,0.00179284,0.00236337,0.00311489,0.00410484,0.00540884,0.00712654,0.00938918,0.0123696,0.0162956,0.0214671,0.0282793,inf	1290.53,1290.53,47.5351,103.828,317,346.17,283.026,295.923,340.911,355.161,358.443,369.936,370.246,357.879,347.628,342.47,344.766,360.22,383.415,406.76,428.418,444.395,446.511,438.224,430.865,415.809,371.153,322.665,322.665,173.659,173.659,173.659
0.00177188	-13676797.71	0,1.75087e-06,4.05719e-06,7.0952e-06,1.1097e-05,1.63684e-05,2.33121e-05,3.24587e-05,4.4507e-05,6.03777e-05,8.12833e-05,0.000108821,0.000145095,0.000192878,0.000255819,0.000338728,0.000447939,0.000591799,0.000781297,0.00103091,0.00135972,0.00179284,0.00236337,0.00311489,0.00410484,0.00540884,0.00712654,0.00938918,0.0123696,0.0162956,0.0214671,0.0282793,inf	1281.67,1281.67,43.6148,102.127,322.611,348.562,282.449,296.287,342.175,355.758,358.973,370.922,371.293,358.799,348.526,343.333,345.717,361.342,384.467,407.447,428.568,443.883,445.413,437.034,430.167,415.655,371.194,323.599,323.599,169.473,169.473,169.473
0.0017998	-13676529.52	0,1.75087e-06,4.05719e-06,7.0952e-06,1.1097e-05,1.63684e-05,2.33121e-05,3.24587e-05,4.4507e-05,6.03777e-05,8.12833e-05,0.000108821,0.000145095,0.000192878,0.000255819,0.000338728,0.000447939,0.000591799,0.000781297,0.00103091,0.00135972,0.00179284,0.00236337,0.00311489,0.00410484,0.00540884,0.00712654,0.00938918,0.0123696,0.0162956,0.0214671,0.0282793,inf	1273.45,1273.45,40.0614,100.499,328.08,350.69,281.815,296.688,343.469,356.379,359.533,371.919,372.325,359.685,349.375,344.136,346.611,362.405,385.471,408.107,428.716,443.392,444.353,435.88,429.483,415.497,371.254,324.638,324.638,165.313,165.313,165.313
0.00182651	-13676286.78	0,1.75087e-06,4.05719e-06,7.0952e-06,1.1097e-05,1.63684e-05,2.33121e-05,3.24587e-05,4.4507e-05,6.03777e-05,8.12833e-05,0.000108821,0.000145095,0.000192878,0.000255819,0.000338728,0.000447939,0.000591799,0.000781297,0.00103091,0.00135972,0.00179284,0.00236337,0.00311489,0.00410484,0.00540884,0.00712654,0.00938918,0.0123696,0.0162956,0.0214671,0.0282793,inf	1265.71,1265.71,36.8232,98.9568,333.448,352.57,281.138,297.12,344.782,357.011,360.116,372.924,373.343,360.541,350.176,344.884,347.449,363.414,386.427,408.741,428.864,442.923,443.329,434.761,428.814,415.335,371.328,325.779,325.779,161.156,161.156,161.156
0.00185208	-13676066.80	0,1.75087e-06,4.05719e-06,7.0952e-06,1.1097e-05,1.63684e-05,2.33121e-05,3.24587e-05,4.4507e-05,6.03777e-05,8.12833e-05,0.000108821,0.000145095,0.000192878,0.000255819,0.000338728,0.000447939,0.000591799,0.000781297,0.00103091,0.00135972,0.00179284,0.00236337,0.00311489,0.00410484,0.00540884,0.00712654,0.00938918,0.0123696,0.0162956,0.0214671,0.0282793,inf	1258.54,1258.54,33.8675,97.4726,338.683,354.21,280.413,297.575,346.107,357.646,360.715,373.932,374.345,361.368,350.935,345.581,348.236,364.371,387.339,409.35,429.012,442.475,442.341,433.677,428.16,415.17,371.416,327.022,327.022,156.982,156.982,156.982
0.00187657	-13675867.29	0,1.75087e-06,4.05719e-06,7.0952e-06,1.1097e-05,1.63684e-05,2.33121e-05,3.24587e-05,4.4507e-05,6.03777e-05,8.12833e-05,0.000108821,0.000145095,0.000192878,0.000255819,0.000338728,0.000447939,0.000591799,0.000781297,0.00103091,0.00135972,0.00179284,0.00236337,0.00311489,0.00410484,0.00540884,0.00712654,0.00938918,0.0123696,0.0162956,0.0214671,0.0282793,inf	1251.77,1251.77,31.1777,96.0672,343.842,355.632,279.648,298.053,347.436,358.279,361.328,374.943,375.331,362.169,351.652,346.229,348.972,365.278,388.209,409.937,429.161,442.048,441.388,432.627,427.521,415.001,371.516,328.368,328.368,152.769,152.769,152.769
0.00190002	-13675686.25	0,1.75087e-06,4.05719e-06,7.0952e-06,1.1097e-05,1.63684e-05,2.33121e-05,3.24587e-05,4.4507e-05,6.03777e-05,8.12833e-05,0.000108821,0.000145095,0.000192878,0.000255819,0.000338728,0.000447939,0.000591799,0.000781297,0.00103091,0.00135972,0.00179284,0.00236337,0.00311489,0.00410484,0.00540884,0.00712654,0.00938918,0.0123696,0.0162956,0.0214671,0.0282793,inf	1245.37,1245.37,28.7069,94.7038,348.889,356.861,278.84,298.544,348.764,358.904,361.948,375.952,376.3,362.942,352.331,346.832,349.663,366.138,389.039,410.502,429.31,441.641,440.468,431.609,426.896,414.829,371.628,329.82,329.82,148.495,148.495,148.495
0.0019225	-13675521.99	0,1.75087e-06,4.05719e-06,7.0952e-06,1.1097e-05,1.63684e-05,2.33121e-05,3.24587e-05,4.4507e-05,6.03777e-05,8.12833e-05,0.000108821,0.000145095,0.000192878,0.000255819,0.000338728,0.000447939,0.000591799,0.000781297,0.00103091,0.00135972,0.00179284,0.00236337,0.00311489,0.00410484,0.00540884,0.00712654,0.00938918,0.0123696,0.0162956,0.0214671,0.0282793,inf	1239.33,1239.33,26.4668,93.404,353.857,357.901,278.007,299.052,350.081,359.517,362.567,376.958,377.255,363.692,352.975,347.392,350.311,366.955,389.831,411.047,429.459,441.254,439.58,430.623,426.284,414.653,371.75,331.385,331.385,144.137,144.137,144.137
0.00194405	-13675373.08	0,1.75087e-06,4.05719e-06,7.0952e-06,1.1097e-05,1.63684e-05,2.33121e-05,3.24587e-05,4.4507e-05,6.03777e-05,8.12833e-05,0.000108821,0.000145095,0.000192878,0.000255819,0.000338728,0.000447939,0.000591799,0.000781297,0.00103091,0.00135972,0.00179284,0.00236337,0.00311489,0.00410484,0.00540884,0.00712654,0.00938918,0.0123696,0.0162956,0.0214671,0.0282793,inf	1233.69,1233.69,24.3978,92.1581,358.737,358.772,277.135,299.563,351.392,360.113,363.184,377.955,378.195,364.417,353.586,347.914,350.918,367.729,390.588,411.572,429.61,440.885,438.723,429.665,425.685,414.475,371.883,333.07,333.07,139.669,139.669,139.669
0.00196471	-13675238.30	0,1.75087e-06,4.05719e-06,7.0952e-06,1.1097e-05,1.63684e-05,2.33121e-05,3.24587e-05,4.4507e-05,6.03777e-05,8.12833e-05,0.000108821,0.000145095,0.000192878,0.000255819,0.000338728,0.000447939,0.000591799,0.000781297,0.00103091,0.00135972,0.00179284,0.00236337,0.00311489,0.00410484,0.00540884,0.00712654,0.00938918,0.0123696,0.0162956,0.0214671,0.0282793,inf	1228.37,1228.37,22.4924,90.9672,363.528,359.487,276.24,300.077,352.684,360.695,363.797,378.946,379.119,365.12,354.166,348.398,351.486,368.463,391.311,412.08,429.761,440.533,437.895,428.737,425.098,414.295,372.027,334.887,334.887,135.063,135.063,135.063
0.00198453	-13675116.68	0,1.75087e-06,4.05719e-06,7.0952e-06,1.1097e-05,1.63684e-05,2.33121e-05,3.24587e-05,4.4507e-05,6.03777e-05,8.12833e-05,0.000108821,0.000145095,0.000192878,0.000255819,0.000338728,0.000447939,0.000591799,0.000781297,0.00103091,0.00135972,0.00179284,0.00236337,0.00311489,0.00410484,0.00540884,0.00712654,0.00938918,0.0123696,0.0162956,0.0214671,0.0282793,inf	1223.22,1223.22,20.7489,89.8307,368.245,360.063,275.333,300.6,353.959,361.253,364.404,379.927,380.026,365.804,354.716,348.848,352.018,369.16,392.001,412.57,429.913,440.199,437.095,427.835,424.523,414.112,372.185,336.85,336.85,130.289,130.289,130.289
0.00200354	-13675007.48	0,1.75087e-06,4.05719e-06,7.0952e-06,1.1097e-05,1.63684e-05,2.33121e-05,3.24587e-05,4.4507e-05,6.03777e-05,8.12833e-05,0.000108821,0.000145095,0.000192878,0.000255819,0.000338728,0.000447939,0.000591799,0.000781297,0.00103091,0.00135972,0.00179284,0.00236337,0.00311489,0.00410484,0.00540884,0.00712654,0.00938918,0.0123696,0.0162956,0.0214671,0.0282793,inf	1218.41,1218.41,19.1578,88.7185,372.894,360.502,274.407,301.132,355.217,361.786,364.999,380.896,380.916,366.467,355.238,349.266,352.516,369.821,392.661,413.044,430.066,439.881,436.321,426.959,423.959,413.927,372.357,338.979,338.979,125.31,125.31,125.31
0.00202179	-13674910.18	0,1.75087e-06,4.05719e-06,7.0952e-06,1.1097e-05,1.63684e-05,2.33121e-05,3.24587e-05,4.4507e-05,6.03777e-05,8.12833e-05,0.000108821,0.000145095,0.000192878,0.000255819,0.000338728,0.000447939,0.000591799,0.000781297,0.00103091,0.00135972,0.00179284,0.00236337,0.00311489,0.00410484,0.00540884,0.00712654,0.00938918,0.0123696,0.0162956,0.0214671,0.0282793,inf	1213.88,1213.88,17.6949,87.6412,377.474,360.831,273.458,301.677,356.457,362.296,365.583,381.854,381.791,367.112,355.735,349.654,352.982,370.448,393.293,413.502,430.219,439.578,435.573,426.106,423.405,413.742,372.547,341.298,341.298,120.084,120.084,120.084
0.0020393	-13674824.55	0,1.75087e-06,4.05719e-06,7.0952e-06,1.1097e-05,1.63684e-05,2.33121e-05,3.24587e-05,4.4507e-05,6.03777e-05,8.12833e-05,0.000108821,0.000145095,0.000192878,0.000255819,0.000338728,0.000447939,0.000591799,0.000781297,0.00103091,0.00135972,0.00179284,0.00236337,0.00311489,0.00410484,0.00540884,0.00712654,0.00938918,0.0123696,0.0162956,0.0214671,0.0282793,inf	1209.48,1209.48,16.3443,86.6042,381.987,361.041,272.505,302.219,357.675,362.778,366.154,382.794,382.647,367.736,356.208,350.013,353.418,371.044,393.897,413.946,430.373,439.289,434.848,425.276,422.86,413.558,372.758,343.84,343.84,114.563,114.563,114.563
0.00205612	-13674750.69	0,1.75087e-06,4.05719e-06,7.0952e-06,1.1097e-05,1.63684e-05,2.33121e-05,3.24587e-05,4.4507e-05,6.03777e-05,8.12833e-05,0.000108821,0.000145095,0.000192878,0.000255819,0.000338728,0.000447939,0.000591799,0.000781297,0.00103091,0.00135972,0.00179284,0.00236337,0.00311489,0.00410484,0.00540884,0.00712654,0.00938918,0.0123696,0.0162956,0.0214671,0.0282793,inf	1205.32,1205.32,15.1167,85.6062,386.442,361.138,271.544,302.771,358.865,363.233,366.709,383.723,383.488,368.343,356.658,350.347,353.825,371.609,394.475,414.376,430.528,439.014,434.145,424.466,422.323,413.374,372.995,346.648,346.648,108.689,108.689,108.689
0.00207226	-13674689.17	0,1.75087e-06,4.05719e-06,7.0952e-06,1.1097e-05,1.63684e-05,2.33121e-05,3.24587e-05,4.4507e-05,6.03777e-05,8.12833e-05,0.000108821,0.000145095,0.000192878,0.000255819,0.000338728,0.000447939,0.000591799,0.000781297,0.00103091,0.00135972,0.00179284,0.00236337,0.00311489,0.00410484,0.00540884,0.00712654,0.00938918,0.0123696,0.0162956,0.0214671,0.0282793,inf	1201.37,1201.37,13.9801,84.6336,390.837,361.145,270.581,303.319,360.033,363.662,367.248,384.635,384.312,368.933,357.086,350.655,354.206,372.146,395.029,414.793,430.683,438.751,433.462,423.675,421.794,413.193,373.265,349.777,349.777,102.394,102.394,102.394
0.00208776	-13674641.16	0,1.75087e-06,4.05719e-06,7.0952e-06,1.1097e-05,1.63684e-05,2.33121e-05,3.24587e-05,4.4507e-05,6.03777e-05,8.12833e-05,0.000108821,0.000145095,0.000192878,0.000255819,0.000338728,0.000447939,0.000591799,0.000781297,0.00103091,0.00135972,0.00179284,0.00236337,0.00311489,0.00410484,0.00540884,0.00712654,0.00938918,0.0123696,0.0162956,0.0214671,0.0282793,inf	1197.49,1197.49,12.9294,83.7027,395.186,361.076,269.62,303.876,361.177,364.064,367.769,385.532,385.12,369.506,357.495,350.941,354.562,372.656,395.559,415.197,430.838,438.499,432.798,422.901,421.271,413.017,373.577,353.306,353.306,95.6007,95.6007,95.6007
0.00210265	-13674608.74	0,1.75087e-06,4.05719e-06,7.0952e-06,1.1097e-05,1.63684e-05,2.33121e-05,3.24587e-05,4.4507e-05,6.03777e-05,8.12833e-05,0.000108821,0.000145095,0.000192878,0.000255819,0.000338728,0.000447939,0.000591799,0.000781297,0.00103091,0.00135972,0.00179284,0.00236337,0.00311489,0.00410484,0.00540884,0.00712654,0.00938918,0.0123696,0.0162956,0.0214671,0.0282793,inf	1193.8,1193.8,11.965,82.7845,399.46,360.903,268.65,304.438,362.295,364.435,368.273,386.41,385.911,370.064,357.885,351.205,354.895,373.14,396.068,415.589,430.992,438.256,432.15,422.142,420.753,412.85,373.944,357.343,357.343,88.2252,88.2252,88.2252
0.00211696	-13674595.40	0,1.75087e-06,4.05719e-06,7.0952e-06,1.1097e-05,1.63684e-05,2.33121e-05,3.24587e-05,4.4507e-05,6.03777e-05,8.12833e-05,0.000108821,0.000145095,0.000192878,0.000255819,0.000338728,0.000447939,0.000591799,0.000781297,0.00103091,0.00135972,0.00179284,0.00236337,0.00311489,0.00410484,0.00540884,0.00712654,0.00938918,0.0123696,0.0162956,0.0214671,0.0282793,inf	1190.36,1190.36,11.0719,81.8823,403.702,360.664,267.692,304.998,363.39,364.781,368.757,387.271,386.685,370.607,358.258,351.45,355.205,373.601,396.556,415.969,431.145,438.022,431.515,421.394,420.24,412.695,374.383,362.039,362.039,80.194,80.194,80.194
0.00213069	-13674606.61	0,1.75087e-06,4.05719e-06,7.0952e-06,1.1097e-05,1.63684e-05,2.33121e-05,3.24587e-05,4.4507e-05,6.03777e-05,8.12833e-05,0.000108821,0.000145095,0.000192878,0.000255819,0.000338728,0.000447939,0.000591799,0.000781297,0.00103091,0.00135972,0.00179284,0.00236337,0.00311489,0.00410484,0.00540884,0.00712654,0.00938918,0.0123696,0.0162956,0.0214671,0.0282793,inf	1187.08,1187.08,10.2468,81.0015,407.876,360.353,266.727,305.561,364.463,365.098,369.223,388.115,387.443,371.135,358.613,351.676,355.496,374.039,397.024,416.337,431.296,437.794,430.892,420.655,419.73,412.558,374.917,367.615,367.615,71.4861,71.4861,71.4861
