time_index	left_time_boundary	right_time_boundary	lambda
0	0	4.59508e-05	412.277
1	4.59508e-05	0.000100267	412.277
2	0.000100267	0.00016447	412.277
3	0.00016447	0.000240361	412.277
4	0.000240361	0.000330067	412.277
5	0.000330067	0.000436104	412.277
6	0.000436104	0.000561444	412.277
7	0.000561444	0.0007096	412.277
8	0.0007096	0.000884728	412.277
9	0.000884728	0.00109174	412.277
10	0.00109174	0.00133643	412.277
11	0.00133643	0.00162566	412.277
12	0.00162566	0.00196755	412.277
13	0.00196755	0.00237168	412.277
14	0.00237168	0.00284937	412.277
15	0.00284937	0.00341402	412.277
16	0.00341402	0.00408146	412.277
17	0.00408146	0.00487041	412.277
18	0.00487041	0.00580297	412.277
19	0.00580297	0.0069053	412.277
20	0.0069053	0.0082083	412.277
21	0.0082083	0.0097485	412.277
22	0.0097485	0.0115691	412.277
23	0.0115691	0.0137211	412.277
24	0.0137211	0.0162648	412.277
25	0.0162648	0.0192717	412.277
26	0.0192717	0.0228258	412.277
27	0.0228258	0.027027	412.277
28	0.027027	0.031993	412.277
29	0.031993	inf	412.277
