time_index	left_time_boundary	right_time_boundary	lambda
0	0	1.88564e-06	409.619
1	1.88564e-06	4.41556e-06	409.619
2	4.41556e-06	7.80986e-06	409.619
3	7.80986e-06	1.23639e-05	409.619
4	1.23639e-05	1.84739e-05	409.619
5	1.84739e-05	2.66715e-05	409.619
6	2.66715e-05	3.767e-05	409.619
7	3.767e-05	5.24264e-05	409.619
8	5.24264e-05	7.22245e-05	409.619
9	7.22245e-05	9.87871e-05	409.619
10	9.87871e-05	0.000134425	409.619
11	0.000134425	0.00018224	409.619
12	0.00018224	0.000246392	409.619
13	0.000246392	0.000332462	409.619
14	0.000332462	0.000447939	409.619
15	0.000447939	0.000602872	409.619
16	0.000602872	0.000810741	409.619
17	0.000810741	0.00108963	409.619
18	0.00108963	0.00146381	409.619
19	0.00146381	0.00196584	409.619
20	0.00196584	0.00263939	409.619
21	0.00263939	0.00354308	409.619
22	0.00354308	0.00475553	409.619
23	0.00475553	0.00638223	409.619
24	0.00638223	0.00856473	409.619
25	0.00856473	0.0114929	409.619
26	0.0114929	0.0154216	409.619
27	0.0154216	0.0206926	409.619
28	0.0206926	0.0277645	409.619
29	0.0277645	inf	409.619
