0.00978554	-13707219.90	0,1.75087e-06,4.05719e-06,7.0952e-06,1.1097e-05,1.63684e-05,2.33121e-05,3.24587e-05,4.4507e-05,6.03777e-05,8.12833e-05,0.000108821,0.000145095,0.000192878,0.000255819,0.000338728,0.000447939,0.000591799,0.000781297,0.00103091,0.00135972,0.00179284,0.00236337,0.00311489,0.00410484,0.00540884,0.00712654,0.00938918,0.0123696,0.0162956,0.0214671,0.0282793,inf	670.603,670.603,672.312,698.619,718.138,721.498,707.104,679.323,639.105,591.76,544.926,504.076,471.354,446.712,429.002,416.72,408.428,402.95,399.425,397.265,396.082,395.597,395.605,395.938,396.441,396.962,397.35,397.364,397.364,396.166,396.166,396.166
0.00964616	-13703765.75	0,1.75087e-06,4.05719e-06,7.0952e-06,1.1097e-05,1.63684e-05,2.33121e-05,3.24587e-05,4.4507e-05,6.03777e-05,8.12833e-05,0.000108821,0.000145095,0.000192878,0.000255819,0.000338728,0.000447939,0.000591799,0.000781297,0.00103091,0.00135972,0.00179284,0.00236337,0.00311489,0.00410484,0.00540884,0.00712654,0.00938918,0.0123696,0.0162956,0.0214671,0.0282793,inf	664.164,664.164,674.374,747.063,817.104,861.109,869.159,846.625,793.269,719.652,642.42,573.584,517.992,475.987,445.754,424.78,410.634,401.312,395.344,391.733,389.807,389.088,389.216,389.896,390.862,391.843,392.561,392.539,392.539,390.156,390.156,390.156
0.00951507	-13701753.81	0,1.75087e-06,4.05719e-06,7.0952e-06,1.1097e-05,1.63684e-05,2.33121e-05,3.24587e-05,4.4507e-05,6.03777e-05,8.12833e-05,0.000108821,0.000145095,0.000192878,0.000255819,0.000338728,0.000447939,0.000591799,0.000781297,0.00103091,0.00135972,0.00179284,0.00236337,0.00311489,0.00410484,0.00540884,0.00712654,0.00938918,0.0123696,0.0162956,0.0214671,0.0282793,inf	613.494,613.494,593.509,684.295,789.304,874.842,918.941,922.445,878.852,799.327,707.502,622.022,551.349,497.187,457.852,430.396,411.805,399.521,391.647,386.889,384.372,383.466,383.686,384.64,385.971,387.318,388.289,388.168,388.168,384.594,384.594,384.594
0.00939155	-13700329.04	0,1.75087e-06,4.05719e-06,7.0952e-06,1.1097e-05,1.63684e-05,2.33121e-05,3.24587e-05,4.4507e-05,6.03777e-05,8.12833e-05,0.000108821,0.000145095,0.000192878,0.000255819,0.000338728,0.000447939,0.000591799,0.000781297,0.00103091,0.00135972,0.00179284,0.00236337,0.00311489,0.00410484,0.00540884,0.00712654,0.00938918,0.0123696,0.0162956,0.0214671,0.0282793,inf	590.896,590.896,520.822,605.949,722.387,833.734,908.693,942.507,919.49,846.66,751.149,657.099,576.824,514.046,467.83,435.263,413.052,398.286,388.766,382.979,379.898,378.77,379.007,380.135,381.728,383.345,384.495,384.209,384.209,379.432,379.432,379.432
0.00927465	-13699221.75	0,1.75087e-06,4.05719e-06,7.0952e-06,1.1097e-05,1.63684e-05,2.33121e-05,3.24587e-05,4.4507e-05,6.03777e-05,8.12833e-05,0.000108821,0.000145095,0.000192878,0.000255819,0.000338728,0.000447939,0.000591799,0.000781297,0.00103091,0.00135972,0.00179284,0.00236337,0.00311489,0.00410484,0.00540884,0.00712654,0.00938918,0.0123696,0.0162956,0.0214671,0.0282793,inf	596.392,596.392,473.258,542.69,655.386,777.386,872.446,932.481,932.617,872.786,780.338,683.213,597.208,528.322,476.776,440.023,414.728,397.774,386.747,379.978,376.318,374.914,375.089,376.298,378.057,379.859,381.119,380.611,380.611,374.617,374.617,374.617
0.00916333	-13698319.59	0,1.75087e-06,4.05719e-06,7.0952e-06,1.1097e-05,1.63684e-05,2.33121e-05,3.24587e-05,4.4507e-05,6.03777e-05,8.12833e-05,0.000108821,0.000145095,0.000192878,0.000255819,0.000338728,0.000447939,0.000591799,0.000781297,0.00103091,0.00135972,0.00179284,0.00236337,0.00311489,0.00410484,0.00540884,0.00712654,0.00938918,0.0123696,0.0162956,0.0214671,0.0282793,inf	618.242,618.242,446.992,498.552,600.304,722.76,827.95,907.515,929.188,884.711,799.242,702.763,613.858,540.766,485.072,444.838,416.86,397.931,385.496,377.767,373.507,371.778,371.823,373.034,374.877,376.792,378.104,377.326,377.326,370.102,370.102,370.102
0.00905667	-13697560.34	0,1.75087e-06,4.05719e-06,7.0952e-06,1.1097e-05,1.63684e-05,2.33121e-05,3.24587e-05,4.4507e-05,6.03777e-05,8.12833e-05,0.000108821,0.000145095,0.000192878,0.000255819,0.000338728,0.000447939,0.000591799,0.000781297,0.00103091,0.00135972,0.00179284,0.00236337,0.00311489,0.00410484,0.00540884,0.00712654,0.00938918,0.0123696,0.0162956,0.0214671,0.0282793,inf	646.326,646.326,435.634,470.442,558.705,675.757,783.598,876.109,915.957,886.915,810.471,717.142,627.466,551.682,492.812,449.683,419.36,398.638,384.878,376.213,371.338,369.245,369.106,370.254,372.115,374.082,375.4,374.309,374.309,365.848,365.848,365.848
0.0089539	-13696904.09	0,1.75087e-06,4.05719e-06,7.0952e-06,1.1097e-05,1.63684e-05,2.33121e-05,3.24587e-05,4.4507e-05,6.03777e-05,8.12833e-05,0.000108821,0.000145095,0.000192878,0.000255819,0.000338728,0.000447939,0.000591799,0.000781297,0.00103091,0.00135972,0.00179284,0.00236337,0.00311489,0.00410484,0.00540884,0.00712654,0.00938918,0.0123696,0.0162956,0.0214671,0.0282793,inf	673.859,673.859,434.092,454.326,528.892,637.622,743.029,842.954,897.169,882.418,815.82,727.269,638.435,561.199,499.985,454.479,422.115,399.768,384.765,375.192,369.697,367.213,366.849,367.884,369.71,371.68,372.963,371.525,371.525,361.818,361.818,361.818
0.00885438	-13696323.64	0,1.75087e-06,4.05719e-06,7.0952e-06,1.1097e-05,1.63684e-05,2.33121e-05,3.24587e-05,4.4507e-05,6.03777e-05,8.12833e-05,0.000108821,0.000145095,0.000192878,0.000255819,0.000338728,0.000447939,0.000591799,0.000781297,0.00103091,0.00135972,0.00179284,0.00236337,0.00311489,0.00410484,0.00540884,0.00712654,0.00938918,0.0123696,0.0162956,0.0214671,0.0282793,inf	696.947,696.947,438.684,446.89,508.525,607.777,707.54,810.601,875.562,873.363,816.634,733.843,647.057,569.391,506.561,459.143,425.021,401.21,385.048,374.601,368.489,365.597,364.979,365.863,367.611,369.543,370.758,368.944,368.944,357.986,357.986,357.986
0.00875762	-13695799.95	0,1.75087e-06,4.05719e-06,7.0952e-06,1.1097e-05,1.63684e-05,2.33121e-05,3.24587e-05,4.4507e-05,6.03777e-05,8.12833e-05,0.000108821,0.000145095,0.000192878,0.000255819,0.000338728,0.000447939,0.000591799,0.000781297,0.00103091,0.00135972,0.00179284,0.00236337,0.00311489,0.00410484,0.00540884,0.00712654,0.00938918,0.0123696,0.0162956,0.0214671,0.0282793,inf	713.721,713.721,446.789,445.59,495.469,585.084,677.323,780.367,852.911,861.31,813.968,737.438,653.582,576.323,512.509,463.606,427.99,402.873,385.637,374.357,367.637,364.33,363.436,364.139,365.774,367.635,368.754,366.54,366.54,354.326,354.326,354.326
0.0086632	-13695319.36	0,1.75087e-06,4.05719e-06,7.0952e-06,1.1097e-05,1.63684e-05,2.33121e-05,3.24587e-05,4.4507e-05,6.03777e-05,8.12833e-05,0.000108821,0.000145095,0.000192878,0.000255819,0.000338728,0.000447939,0.000591799,0.000781297,0.00103091,0.00135972,0.00179284,0.00236337,0.00311489,0.00410484,0.00540884,0.00712654,0.00938918,0.0123696,0.0162956,0.0214671,0.0282793,inf	723.922,723.922,456.451,448.485,487.928,568.314,652.051,752.861,830.355,847.414,808.673,738.556,658.24,582.066,517.819,467.815,430.957,404.685,386.462,374.391,367.08,363.356,362.172,362.672,364.166,365.927,366.928,364.292,364.292,350.82,350.82,350.82
0.00857081	-13694871.98	0,1.75087e-06,4.05719e-06,7.0952e-06,1.1097e-05,1.63684e-05,2.33121e-05,3.24587e-05,4.4507e-05,6.03777e-05,8.12833e-05,0.000108821,0.000145095,0.000192878,0.000255819,0.000338728,0.000447939,0.000591799,0.000781297,0.00103091,0.00135972,0.00179284,0.00236337,0.00311489,0.00410484,0.00540884,0.00712654,0.00938918,0.0123696,0.0162956,0.0214671,0.0282793,inf	728.174,728.174,466.283,454.103,484.486,556.353,631.199,728.272,808.601,832.518,801.438,737.63,661.248,586.696,522.49,471.736,433.868,406.589,387.466,374.649,366.766,362.628,361.146,361.426,362.757,364.396,365.258,362.184,362.184,347.45,347.45,347.45
0.00848017	-13694450.45	0,1.75087e-06,4.05719e-06,7.0952e-06,1.1097e-05,1.63684e-05,2.33121e-05,3.24587e-05,4.4507e-05,6.03777e-05,8.12833e-05,0.000108821,0.000145095,0.000192878,0.000255819,0.000338728,0.000447939,0.000591799,0.000781297,0.00103091,0.00135972,0.00179284,0.00236337,0.00311489,0.00410484,0.00540884,0.00712654,0.00938918,0.0123696,0.0162956,0.0214671,0.0282793,inf	727.559,727.559,475.22,461.303,483.994,548.227,614.173,706.563,788.074,817.232,792.817,735.041,662.812,590.298,526.539,475.348,436.687,408.541,388.603,375.088,366.656,362.11,360.326,360.373,361.524,363.02,363.728,360.2,360.2,344.201,344.201,344.201
0.00839108	-13694049.30	0,1.75087e-06,4.05719e-06,7.0952e-06,1.1097e-05,1.63684e-05,2.33121e-05,3.24587e-05,4.4507e-05,6.03777e-05,8.12833e-05,0.000108821,0.000145095,0.000192878,0.000255819,0.000338728,0.000447939,0.000591799,0.000781297,0.00103091,0.00135972,0.00179284,0.00236337,0.00311489,0.00410484,0.00540884,0.00712654,0.00938918,0.0123696,0.0162956,0.0214671,0.0282793,inf	723.347,723.347,482.55,469.197,485.558,543.126,600.414,687.55,768.999,802.003,783.258,731.118,663.126,592.957,529.986,478.638,439.387,410.508,389.838,375.673,366.716,361.771,359.684,359.49,360.445,361.784,362.323,358.328,358.328,341.063,341.063,341.063
0.00830337	-13693664.38	0,1.75087e-06,4.05719e-06,7.0952e-06,1.1097e-05,1.63684e-05,2.33121e-05,3.24587e-05,4.4507e-05,6.03777e-05,8.12833e-05,0.000108821,0.000145095,0.000192878,0.000255819,0.000338728,0.000447939,0.000591799,0.000781297,0.00103091,0.00135972,0.00179284,0.00236337,0.00311489,0.00410484,0.00540884,0.00712654,0.00938918,0.0123696,0.0162956,0.0214671,0.0282793,inf	716.755,716.755,487.785,477.095,488.429,540.353,589.399,671.01,751.467,787.135,773.112,726.144,662.363,594.759,532.86,481.605,441.949,412.464,391.143,376.374,366.918,361.586,359.197,358.756,359.505,360.671,361.03,356.556,356.556,338.023,338.023,338.023
0.00821689	-13693292.48	0,1.75087e-06,4.05719e-06,7.0952e-06,1.1097e-05,1.63684e-05,2.33121e-05,3.24587e-05,4.4507e-05,6.03777e-05,8.12833e-05,0.000108821,0.000145095,0.000192878,0.000255819,0.000338728,0.000447939,0.000591799,0.000781297,0.00103091,0.00135972,0.00179284,0.00236337,0.00311489,0.00410484,0.00540884,0.00712654,0.00938918,0.0123696,0.0162956,0.0214671,0.0282793,inf	708.851,708.851,490.712,484.479,492.064,539.349,580.666,656.689,735.494,772.836,762.654,720.357,660.682,595.791,535.196,484.251,444.359,414.387,392.494,377.171,367.241,361.534,358.847,358.154,358.687,359.671,359.838,354.877,354.877,335.073,335.073,335.073
0.00813153	-13692931.13	0,1.75087e-06,4.05719e-06,7.0952e-06,1.1097e-05,1.63684e-05,2.33121e-05,3.24587e-05,4.4507e-05,6.03777e-05,8.12833e-05,0.000108821,0.000145095,0.000192878,0.000255819,0.000338728,0.000447939,0.000591799,0.000781297,0.00103091,0.00135972,0.00179284,0.00236337,0.00311489,0.00410484,0.00540884,0.00712654,0.00938918,0.0123696,0.0162956,0.0214671,0.0282793,inf	700.533,700.533,491.283,491.001,495.997,539.669,573.824,644.332,721.03,759.232,752.098,713.961,658.228,596.132,537.026,486.582,446.61,416.265,393.874,378.041,367.665,361.597,358.617,357.671,357.981,358.771,358.739,353.281,353.281,332.205,332.205,332.205
0.00804719	-13692578.41	0,1.75087e-06,4.05719e-06,7.0952e-06,1.1097e-05,1.63684e-05,2.33121e-05,3.24587e-05,4.4507e-05,6.03777e-05,8.12833e-05,0.000108821,0.000145095,0.000192878,0.000255819,0.000338728,0.000447939,0.000591799,0.000781297,0.00103091,0.00135972,0.00179284,0.00236337,0.00311489,0.00410484,0.00540884,0.00712654,0.00938918,0.0123696,0.0162956,0.0214671,0.0282793,inf	692.367,692.367,489.606,496.416,499.872,540.912,568.525,633.695,707.992,746.401,741.603,707.119,655.125,595.858,538.387,488.61,448.698,418.084,395.268,378.972,368.175,361.76,358.493,357.293,357.375,357.964,357.724,351.761,351.761,329.412,329.412,329.412
0.0079638	-13692232.79	0,1.75087e-06,4.05719e-06,7.0952e-06,1.1097e-05,1.63684e-05,2.33121e-05,3.24587e-05,4.4507e-05,6.03777e-05,8.12833e-05,0.000108821,0.000145095,0.000192878,0.000255819,0.000338728,0.000447939,0.000591799,0.000781297,0.00103091,0.00135972,0.00179284,0.00236337,0.00311489,0.00410484,0.00540884,0.00712654,0.00938918,0.0123696,0.0162956,0.0214671,0.0282793,inf	684.836,684.836,485.865,500.606,503.426,542.774,564.47,624.553,696.282,734.385,731.29,699.975,651.488,595.04,539.314,490.347,450.622,419.837,396.664,379.949,368.758,362.01,358.464,357.011,356.859,357.24,356.787,350.313,350.313,326.688,326.688,326.688
0.00788128	-13691893.06	0,1.75087e-06,4.05719e-06,7.0952e-06,1.1097e-05,1.63684e-05,2.33121e-05,3.24587e-05,4.4507e-05,6.03777e-05,8.12833e-05,0.000108821,0.000145095,0.000192878,0.000255819,0.000338728,0.000447939,0.000591799,0.000781297,0.00103091,0.00135972,0.00179284,0.00236337,0.00311489,0.00410484,0.00540884,0.00712654,0.00938918,0.0123696,0.0162956,0.0214671,0.0282793,inf	678.226,678.226,480.311,503.515,506.455,544.99,561.404,616.695,685.799,723.187,721.252,692.64,647.416,593.743,539.843,491.805,452.381,421.518,398.053,380.961,369.402,362.337,358.518,356.814,356.426,356.593,355.92,348.929,348.929,324.028,324.028,324.028
