LogLikelihood = -343845.84843971498776

y0 1.2702031227736254225e-10
y0_prime 0
y1 0.7368436138573480898
y1_prime 0
y2 1.7486134506233592667
y2_prime 0
y3 5.255559706264733677
y3_prime 0
rho 0.010160442995555411111
rho.alpha 0.92377885348806243471
r_ii 0.99186492978625528938
theta 0.0055699565157780930175
