0.000245028	-6031933.93	0,1.49597e-06,4.09169e-06,8.59563e-06,1.64106e-05,2.99708e-05,5.34995e-05,9.43254e-05,0.000165164,0.000288079,0.000501355,0.000871419,0.00151353,0.0026277,0.00456093,0.00791536,inf	51.4206,51.4206,116.497,157.055,183.84,210.222,239.379,296.796,420.691,688.095,1421.33,1733.82,1575.09,1499.27,1499.27,1499.27
0.000264271	-6016453.73	0,1.49597e-06,4.09169e-06,8.59563e-06,1.64106e-05,2.99708e-05,5.34995e-05,9.43254e-05,0.000165164,0.000288079,0.000501355,0.000871419,0.00151353,0.0026277,0.00456093,0.00791536,inf	13.0625,13.0625,64.9633,102.685,116.793,124.427,123.837,145.65,238.406,510.281,1462.93,2169.15,2075.53,2128.38,2128.38,2128.38
0.000280021	-6011605.55	0,1.49597e-06,4.09169e-06,8.59563e-06,1.64106e-05,2.99708e-05,5.34995e-05,9.43254e-05,0.000165164,0.000288079,0.000501355,0.000871419,0.00151353,0.0026277,0.00456093,0.00791536,inf	5.54609,5.54609,59.9236,111.675,125.735,124.215,101.757,100.362,165.682,416.351,1429.73,2443.54,2602.7,3644.84,3644.84,3644.84
0.000292916	-6009569.03	0,1.49597e-06,4.09169e-06,8.59563e-06,1.64106e-05,2.99708e-05,5.34995e-05,9.43254e-05,0.000165164,0.000288079,0.000501355,0.000871419,0.00151353,0.0026277,0.00456093,0.00791536,inf	2.40544,2.40544,56.3971,127.596,150.426,145.433,102.019,83.8187,130.91,361.163,1387.16,2615.49,3202.47,15648.3,15648.3,15648.3
0.000292916	-6008550.23	0,1.49597e-06,4.09169e-06,8.59563e-06,1.64106e-05,2.99708e-05,5.34995e-05,9.43254e-05,0.000165164,0.000288079,0.000501355,0.000871419,0.00151353,0.0026277,0.00456093,0.00791536,inf	1.18864,1.18864,48.7905,135.787,173.93,172.845,109.875,77.833,112.682,327.564,1340.2,2696.6,3969.94,135978,135978,135978
