LogLikelihood = -285032.91170020960271

y0 0.67635925599046864409
y0_prime 0
y1 1.0695503409975344322
y1_prime 0
y2 0.68102299218835438133
y2_prime 0
y3 1.6817057964273200987
y3_prime 0
rho 0.0055190974571517701502
rho.alpha 0.28827619606241106087
r_ii 0.99988951729190800322
theta 0.004723097453725503235
