LogLikelihood = -134476.92879039957188

y0 1.4684747429192124279
y0_prime 0
y1 0.60228327276802307022
y1_prime 0
y2 1.4652258004623244236
y2_prime 0
y3 3.9994692307273416176
y3_prime 0
rho 0.41458704003410296046
rho.alpha 0.4201887961288540696
r_ii 0.99936586846451547217
theta 0.0018453959810531877974
