LogLikelihood = -668067.80325094249565

y0 0.4599391211639209387
y0_prime 0
y1 0.27187458093435035167
y1_prime 0
y2 1.9582425192035017858
y2_prime 0
y3 18.032022643620663871
y3_prime 0
rho 0.018258874685503110463
rho.alpha 0.31654336845474667639
r_ii 0.98958431489639520073
theta 0.0018316250226883055811
