0.000235479	-6077009.96	0,6.51195e-07,1.50898e-06,2.6389e-06,4.12728e-06,6.08785e-06,8.6704e-06,1.20723e-05,1.65534e-05,2.24561e-05,3.02315e-05,4.04736e-05,5.39649e-05,7.17364e-05,9.51459e-05,0.000125982,0.000166601,0.000220106,0.000290585,0.000383424,0.000505717,0.000666806,0.000879,0.00115851,0.0015267,0.0020117,0.00265055,0.00349209,0.0046006,0.00606079,0.00798421,0.0105178,inf	60.4606,60.4606,117.394,165.875,208.415,236.466,242.809,229.058,209.043,198.206,200.141,209.42,223.103,243.663,274.95,321.35,389.072,486.935,631.482,852.805,1189.48,1593.44,1762.16,1671.04,1542.69,1436.48,1359.24,1304.24,1304.24,1278.6,1278.6,1278.6
0.000247276	-6061939.07	0,6.51195e-07,1.50898e-06,2.6389e-06,4.12728e-06,6.08785e-06,8.6704e-06,1.20723e-05,1.65534e-05,2.24561e-05,3.02315e-05,4.04736e-05,5.39649e-05,7.17364e-05,9.51459e-05,0.000125982,0.000166601,0.000220106,0.000290585,0.000383424,0.000505717,0.000666806,0.000879,0.00115851,0.0015267,0.0020117,0.00265055,0.00349209,0.0046006,0.00606079,0.00798421,0.0105178,inf	15.8635,15.8635,59.8925,119.156,186.644,236.714,242.698,205.57,158.386,128.762,117.357,113.126,110.758,113.031,124.281,149.893,198.825,284.192,430.932,687.238,1137.97,1834.3,2279.03,2188.29,1978.66,1779.3,1631.46,1539.46,1539.46,1538.23,1538.23,1538.23
0.000258751	-6056743.10	0,6.51195e-07,1.50898e-06,2.6389e-06,4.12728e-06,6.08785e-06,8.6704e-06,1.20723e-05,1.65534e-05,2.24561e-05,3.02315e-05,4.04736e-05,5.39649e-05,7.17364e-05,9.51459e-05,0.000125982,0.000166601,0.000220106,0.000290585,0.000383424,0.000505717,0.000666806,0.000879,0.00115851,0.0015267,0.0020117,0.00265055,0.00349209,0.0046006,0.00606079,0.00798421,0.0105178,inf	5.23039,5.23039,38.5209,108.723,214.947,310.533,327.806,262.027,182.64,136.226,116.529,103.974,91.2171,82.4272,81.6912,93.2341,125.518,192.436,323.15,576.18,1063.65,1935.79,2649.19,2612.62,2368.49,2093.68,1888.24,1791.37,1791.37,1943.77,1943.77,1943.77
0.000268942	-6054491.32	0,6.51195e-07,1.50898e-06,2.6389e-06,4.12728e-06,6.08785e-06,8.6704e-06,1.20723e-05,1.65534e-05,2.24561e-05,3.02315e-05,4.04736e-05,5.39649e-05,7.17364e-05,9.51459e-05,0.000125982,0.000166601,0.000220106,0.000290585,0.000383424,0.000505717,0.000666806,0.000879,0.00115851,0.0015267,0.0020117,0.00265055,0.00349209,0.0046006,0.00606079,0.00798421,0.0105178,inf	1.49943,1.49943,21.5848,87.0267,219.585,368.037,412.479,326.702,219.907,160.703,135.762,116.368,93.9144,76.0029,67.1395,70.2312,91.964,144.868,259.448,500.266,996.284,1972.97,2919.75,2959.03,2712.71,2375.4,2126.86,2073.31,2073.31,2813.27,2813.27,2813.27
0.000277908	-6053357.09	0,6.51195e-07,1.50898e-06,2.6389e-06,4.12728e-06,6.08785e-06,8.6704e-06,1.20723e-05,1.65534e-05,2.24561e-05,3.02315e-05,4.04736e-05,5.39649e-05,7.17364e-05,9.51459e-05,0.000125982,0.000166601,0.000220106,0.000290585,0.000383424,0.000505717,0.000666806,0.000879,0.00115851,0.0015267,0.0020117,0.00265055,0.00349209,0.0046006,0.00606079,0.00798421,0.0105178,inf	1.08263,1.08263,10.4093,60.1492,194.537,381.722,461.615,372.011,250.57,186.176,160.583,136.426,104.507,77.8468,62.2691,59.6729,74.7165,117.806,219.144,446.557,940.03,1979.76,3124.78,3245.64,3017.1,2624,2347.35,2409.24,2409.24,6648.62,6648.62,6648.62
0.000285664	-6052721.60	0,6.51195e-07,1.50898e-06,2.6389e-06,4.12728e-06,6.08785e-06,8.6704e-06,1.20723e-05,1.65534e-05,2.24561e-05,3.02315e-05,4.04736e-05,5.39649e-05,7.17364e-05,9.51459e-05,0.000125982,0.000166601,0.000220106,0.000290585,0.000383424,0.000505717,0.000666806,0.000879,0.00115851,0.0015267,0.0020117,0.00265055,0.00349209,0.0046006,0.00606079,0.00798421,0.0105178,inf	1.08262,1.08262,4.55621,37.8582,156.943,360.945,472.94,391.184,267.369,205.453,184.307,158.542,118.202,83.1858,61.5595,54.6568,65.1991,101.379,192.312,407.285,893.659,1971.27,3285,3486.57,3287.49,2840.08,2551,2842.99,2842.99,159074,159074,159074
