0.000253239	-6076492.87	0,1.50898e-06,4.12728e-06,8.6704e-06,1.65534e-05,3.02315e-05,5.39649e-05,9.51459e-05,0.000166601,0.000290585,0.000505717,0.000879,0.0015267,0.00265055,0.0046006,0.00798421,inf	129.883,129.883,220.518,228.475,193.541,196.905,223.825,285.194,415.453,689.685,1544.22,1834.05,1560.09,1481.87,1481.87,1481.87
0.000276904	-6059960.91	0,1.50898e-06,4.12728e-06,8.6704e-06,1.65534e-05,3.02315e-05,5.39649e-05,9.51459e-05,0.000166601,0.000290585,0.000505717,0.000879,0.0015267,0.00265055,0.0046006,0.00798421,inf	75.914,75.914,214,215.051,133.037,111.266,107.94,132.231,228.748,500.134,1620.78,2401.14,2020.62,1989.3,1989.3,1989.3
0.000295129	-6055164.56	0,1.50898e-06,4.12728e-06,8.6704e-06,1.65534e-05,3.02315e-05,5.39649e-05,9.51459e-05,0.000166601,0.000290585,0.000505717,0.000879,0.0015267,0.00265055,0.0046006,0.00798421,inf	56.2676,56.2676,269.585,280.002,144.978,107.055,84.4279,86.4033,154.023,398.148,1578.23,2819.12,2454.28,2755.98,2755.98,2755.98
0.000309463	-6053271.88	0,1.50898e-06,4.12728e-06,8.6704e-06,1.65534e-05,3.02315e-05,5.39649e-05,9.51459e-05,0.000166601,0.000290585,0.000505717,0.000879,0.0015267,0.00265055,0.0046006,0.00798421,inf	36.5583,36.5583,304.35,348.136,170.766,122.323,82.4068,69.2338,118.219,336.939,1509.54,3146.17,2873.48,4629.99,4629.99,4629.99
0.000321219	-6052382.54	0,1.50898e-06,4.12728e-06,8.6704e-06,1.65534e-05,3.02315e-05,5.39649e-05,9.51459e-05,0.000166601,0.000290585,0.000505717,0.000879,0.0015267,0.00265055,0.0046006,0.00798421,inf	20.6071,20.6071,300.84,391.486,194.311,143.663,87.7178,62.3131,99.128,297.358,1440.54,3417.23,3289.41,22609.1,22609.1,22609.1
0.000321219	-6051932.22	0,1.50898e-06,4.12728e-06,8.6704e-06,1.65534e-05,3.02315e-05,5.39649e-05,9.51459e-05,0.000166601,0.000290585,0.000505717,0.000879,0.0015267,0.00265055,0.0046006,0.00798421,inf	10.707,10.707,273.56,407.841,210.113,166.054,96.3615,60.1686,88.6827,271.458,1371.16,3630.23,3709.28,134753,134753,134753
