time_index	left_time_boundary	right_time_boundary	lambda
0	0	4.65164e-05	422.605
1	4.65164e-05	0.000110166	422.605
2	0.000110166	0.000197258	915.715
3	0.000197258	0.000316427	542.997
4	0.000316427	0.000479488	935.567
5	0.000479488	0.000702607	810.27
6	0.000702607	0.0010079	819.416
7	0.0010079	0.00142565	898.667
8	0.00142565	0.00199725	703.943
9	0.00199725	0.00277938	706.677
10	0.00277938	0.00384959	1267.08
11	0.00384959	0.00531397	1458.83
12	0.00531397	0.00731769	606.385
13	0.00731769	0.0100594	520.844
14	0.0100594	0.013811	520.844
15	0.013811	inf	520.844
