0.000719572	-1880736.07	0,2.23101e-05,5.6443e-05,0.000108664,0.000188557,0.000310789,0.000497794,0.000783898,0.00122162,0.00189129,0.00291585,0.00448334,0.00688148,0.0105505,0.0161637,0.0247516,inf	214.759,214.759,213.394,233.052,232.066,237.481,261.179,314.795,409.524,515.894,506.882,466.696,449.544,491.248,491.248,491.248
0.000803879	-1878818.16	0,2.23101e-05,5.6443e-05,0.000108664,0.000188557,0.000310789,0.000497794,0.000783898,0.00122162,0.00189129,0.00291585,0.00448334,0.00688148,0.0105505,0.0161637,0.0247516,inf	197.94,197.94,186.38,211.976,197.243,192.343,213.288,276.97,403.377,578.123,576.144,511.342,485.804,611.931,611.931,611.931
0.000880126	-1878092.39	0,2.23101e-05,5.6443e-05,0.000108664,0.000188557,0.000310789,0.000497794,0.000783898,0.00122162,0.00189129,0.00291585,0.00448334,0.00688148,0.0105505,0.0161637,0.0247516,inf	200.715,200.715,186.422,220.74,192.063,176.463,191.611,256.562,394.73,609.618,617.958,537.662,509.555,791.635,791.635,791.635
0.000949631	-1877715.88	0,2.23101e-05,5.6443e-05,0.000108664,0.000188557,0.000310789,0.000497794,0.000783898,0.00122162,0.00189129,0.00291585,0.00448334,0.00688148,0.0105505,0.0161637,0.0247516,inf	200.949,200.949,189.932,236.447,195.818,171.044,180.784,244.908,387.39,625.369,642.953,552.17,525.266,1154.36,1154.36,1154.36
0.00101398	-1877473.90	0,2.23101e-05,5.6443e-05,0.000108664,0.000188557,0.000310789,0.000497794,0.000783898,0.00122162,0.00189129,0.00291585,0.00448334,0.00688148,0.0105505,0.0161637,0.0247516,inf	196.229,196.229,190.911,251.805,202.001,169.921,175.237,238.18,381.876,632.857,657.571,559.075,536.092,2565.06,2565.06,2565.06
0.00101398	-1877294.47	0,2.23101e-05,5.6443e-05,0.000108664,0.000188557,0.000310789,0.000497794,0.000783898,0.00122162,0.00189129,0.00291585,0.00448334,0.00688148,0.0105505,0.0161637,0.0247516,inf	187.225,187.225,187.113,262.324,206.573,169.338,171.242,232.644,374.124,623.179,656.818,555.649,540.917,50923.3,50923.3,50923.3
0.00101398	-1877315.00	0,2.23101e-05,5.6443e-05,0.000108664,0.000188557,0.000310789,0.000497794,0.000783898,0.00122162,0.00189129,0.00291585,0.00448334,0.00688148,0.0105505,0.0161637,0.0247516,inf	180.313,180.313,181.92,269.836,206.593,169.338,169.407,229.964,369.96,617.522,657.722,552.601,540.917,50924.4,50924.4,50924.4
0.00101398	-1877312.87	0,2.23101e-05,5.6443e-05,0.000108664,0.000188557,0.000310789,0.000497794,0.000783898,0.00122162,0.00189129,0.00291585,0.00448334,0.00688148,0.0105505,0.0161637,0.0247516,inf	175.867,175.867,176.624,276.043,206.593,169.338,168.697,228.752,367.858,613.977,659.757,550.039,540.917,50925,50925,50925
0.00101398	-1877312.16	0,2.23101e-05,5.6443e-05,0.000108664,0.000188557,0.000310789,0.000497794,0.000783898,0.00122162,0.00189129,0.00291585,0.00448334,0.00688148,0.0105505,0.0161637,0.0247516,inf	173.083,173.083,171.32,281.313,206.593,169.338,168.513,228.257,366.774,611.656,659.757,547.74,543.339,50925,50925,50925
0.00101398	-1877312.22	0,2.23101e-05,5.6443e-05,0.000108664,0.000188557,0.000310789,0.000497794,0.000783898,0.00122162,0.00189129,0.00291585,0.00448334,0.00688148,0.0105505,0.0161637,0.0247516,inf	171.4,171.4,166.056,285.71,206.593,169.338,168.513,228.129,366.316,610.055,661.034,545.694,543.341,50925.4,50925.4,50925.4
0.00101398	-1877311.66	0,2.23101e-05,5.6443e-05,0.000108664,0.000188557,0.000310789,0.000497794,0.000783898,0.00122162,0.00189129,0.00291585,0.00448334,0.00688148,0.0105505,0.0161637,0.0247516,inf	170.493,170.493,160.923,285.71,209.123,169.338,168.513,228.129,366.137,608.838,661.868,543.782,543.357,50925.7,50925.7,50925.7
0.00101398	-1877311.05	0,2.23101e-05,5.6443e-05,0.000108664,0.000188557,0.000310789,0.000497794,0.000783898,0.00122162,0.00189129,0.00291585,0.00448334,0.00688148,0.0105505,0.0161637,0.0247516,inf	170.341,170.341,156.216,289.098,209.123,169.338,168.513,228.129,366.119,607.908,662.458,542.005,543.368,50926,50926,50926
0.00101398	-1877310.43	0,2.23101e-05,5.6443e-05,0.000108664,0.000188557,0.000310789,0.000497794,0.000783898,0.00122162,0.00189129,0.00291585,0.00448334,0.00688148,0.0105505,0.0161637,0.0247516,inf	170.341,170.341,151.651,292.082,209.123,169.338,168.513,228.129,366.119,607.198,662.921,540.344,544.445,50926,50926,50926
0.00101398	-1877310.24	0,2.23101e-05,5.6443e-05,0.000108664,0.000188557,0.000310789,0.000497794,0.000783898,0.00122162,0.00189129,0.00291585,0.00448334,0.00688148,0.0105505,0.0161637,0.0247516,inf	170.343,170.343,147.263,294.95,209.123,169.338,168.513,228.129,366.119,606.66,663.273,538.78,545.467,50926,50926,50926
0.00101398	-1877310.07	0,2.23101e-05,5.6443e-05,0.000108664,0.000188557,0.000310789,0.000497794,0.000783898,0.00122162,0.00189129,0.00291585,0.00448334,0.00688148,0.0105505,0.0161637,0.0247516,inf	170.343,170.343,143.05,297.705,209.123,169.338,168.513,228.129,366.119,606.263,663.533,537.32,545.467,50926.3,50926.3,50926.3
0.00101398	-1877309.54	0,2.23101e-05,5.6443e-05,0.000108664,0.000188557,0.000310789,0.000497794,0.000783898,0.00122162,0.00189129,0.00291585,0.00448334,0.00688148,0.0105505,0.0161637,0.0247516,inf	170.344,170.344,138.998,300.354,209.123,169.338,168.513,228.129,366.119,605.987,663.713,535.956,546.351,50926.3,50926.3,50926.3
0.00101398	-1877309.37	0,2.23101e-05,5.6443e-05,0.000108664,0.000188557,0.000310789,0.000497794,0.000783898,0.00122162,0.00189129,0.00291585,0.00448334,0.00688148,0.0105505,0.0161637,0.0247516,inf	170.345,170.345,135.108,302.897,209.123,169.338,168.513,228.129,366.119,605.805,663.832,534.675,547.182,50926.3,50926.3,50926.3
0.00101398	-1877309.20	0,2.23101e-05,5.6443e-05,0.000108664,0.000188557,0.000310789,0.000497794,0.000783898,0.00122162,0.00189129,0.00291585,0.00448334,0.00688148,0.0105505,0.0161637,0.0247516,inf	170.347,170.347,131.366,305.343,209.123,169.338,168.513,228.129,366.119,605.699,663.902,533.471,547.963,50926.3,50926.3,50926.3
0.00101398	-1877309.05	0,2.23101e-05,5.6443e-05,0.000108664,0.000188557,0.000310789,0.000497794,0.000783898,0.00122162,0.00189129,0.00291585,0.00448334,0.00688148,0.0105505,0.0161637,0.0247516,inf	170.349,170.349,127.769,307.694,209.123,169.338,168.513,228.129,366.119,605.652,663.932,532.341,548.696,50926.3,50926.3,50926.3
0.00101398	-1877308.90	0,2.23101e-05,5.6443e-05,0.000108664,0.000188557,0.000310789,0.000497794,0.000783898,0.00122162,0.00189129,0.00291585,0.00448334,0.00688148,0.0105505,0.0161637,0.0247516,inf	170.35,170.35,124.312,307.694,210.6,169.338,168.513,228.129,366.119,605.652,663.932,531.28,549.389,50926.3,50926.3,50926.3
