time_index	left_time_boundary	right_time_boundary	lambda
0	0	4.58754e-06	404.361
1	4.58754e-06	1.04266e-05	404.361
2	1.04266e-05	1.78585e-05	252.309
3	1.78585e-05	2.7318e-05	69.1105
4	2.7318e-05	3.9358e-05	71.0366
5	3.9358e-05	5.46826e-05	217.233
6	5.46826e-05	7.41878e-05	244.8
7	7.41878e-05	9.90141e-05	325.029
8	9.90141e-05	0.000130613	283.135
9	0.000130613	0.000170833	263.122
10	0.000170833	0.000222024	224.201
11	0.000222024	0.000287181	186.396
12	0.000287181	0.000370112	158.314
13	0.000370112	0.000475668	148.705
14	0.000475668	0.00061002	153.03
15	0.00061002	0.000781024	167.133
16	0.000781024	0.000998679	197.553
17	0.000998679	0.00127571	254.523
18	0.00127571	0.00162832	347.574
19	0.00162832	0.00207712	483.815
20	0.00207712	0.00264835	627.331
21	0.00264835	0.00337542	673.258
22	0.00337542	0.00430084	634.802
23	0.00430084	0.00547872	579.392
24	0.00547872	0.00697793	536.513
25	0.00697793	0.00888612	508.588
26	0.00888612	0.0113149	481.029
27	0.0113149	0.0144062	503.064
28	0.0144062	0.0183409	503.064
29	0.0183409	0.023349	63039
30	0.023349	0.0297233	63039
31	0.0297233	inf	63039
