0.000637323	-289748.19	0,3.96062e-05,8.59356e-05,0.000140129,0.000203522,0.000277677,0.000364418,0.000465885,0.000584575,0.000723412,0.000885818,0.00107579,0.00129801,0.00155796,0.00186203,0.00221771,0.00263377,0.00312046,0.00368977,0.00435571,0.0051347,0.00604592,0.00711182,0.00835866,0.00981715,0.0115232,0.0135189,0.0158533,0.018584,0.0217783,0.0255147,0.0298855,inf	600.31,600.31,355.725,288.6,266.298,268.241,275.783,284.233,296.789,315.934,341.597,372.843,408.212,444.486,476.465,499.158,509.266,507.322,498.274,487.152,477.009,469.191,463.139,457.726,453.067,449.263,437.52,340.344,340.344,1.5006,1.5006,1.5006
0.00069351	-289558.30	0,3.96062e-05,8.59356e-05,0.000140129,0.000203522,0.000277677,0.000364418,0.000465885,0.000584575,0.000723412,0.000885818,0.00107579,0.00129801,0.00155796,0.00186203,0.00221771,0.00263377,0.00312046,0.00368977,0.00435571,0.0051347,0.00604592,0.00711182,0.00835866,0.00981715,0.0115232,0.0135189,0.0158533,0.018584,0.0217783,0.0255147,0.0298855,inf	781.47,781.47,349.481,245.323,215.356,218.903,227.323,234.528,247.493,270.705,304.144,346.736,397.113,451.4,502.146,540.936,560.441,559.3,545.025,526.5,509.581,497.104,488.141,480.849,476.827,479.121,471.549,323.546,323.546,0.428594,0.428594,0.428594
0.000747536	-289462.46	0,3.96062e-05,8.59356e-05,0.000140129,0.000203522,0.000277677,0.000364418,0.000465885,0.000584575,0.000723412,0.000885818,0.00107579,0.00129801,0.00155796,0.00186203,0.00221771,0.00263377,0.00312046,0.00368977,0.00435571,0.0051347,0.00604592,0.00711182,0.00835866,0.00981715,0.0115232,0.0135189,0.0158533,0.018584,0.0217783,0.0255147,0.0298855,inf	904.849,904.849,347.933,223.549,193.043,199.898,208.554,212.754,223.716,247.467,283.786,331.434,389.286,453.407,515.413,565.011,591.839,592.283,574.987,551.523,530.037,514.713,504.306,496.373,494.25,504.313,499.831,301.386,301.386,0.428594,0.428594,0.428594
0.000798963	-289400.70	0,3.96062e-05,8.59356e-05,0.000140129,0.000203522,0.000277677,0.000364418,0.000465885,0.000584575,0.000723412,0.000885818,0.00107579,0.00129801,0.00155796,0.00186203,0.00221771,0.00263377,0.00312046,0.00368977,0.00435571,0.0051347,0.00604592,0.00711182,0.00835866,0.00981715,0.0115232,0.0135189,0.0158533,0.018584,0.0217783,0.0255147,0.0298855,inf	970.091,970.091,343.295,209.257,181.796,193.109,201.975,202.684,211.085,234.326,271.747,321.853,383.699,453.418,522.227,578.886,610.996,612.983,593.881,567.073,542.487,525.456,514.502,506.764,507.521,526.854,525.149,284.295,284.295,0.428594,0.428594,0.428594
0.000848017	-289354.19	0,3.96062e-05,8.59356e-05,0.000140129,0.000203522,0.000277677,0.000364418,0.000465885,0.000584575,0.000723412,0.000885818,0.00107579,0.00129801,0.00155796,0.00186203,0.00221771,0.00263377,0.00312046,0.00368977,0.00435571,0.0051347,0.00604592,0.00711182,0.00835866,0.00981715,0.0115232,0.0135189,0.0158533,0.018584,0.0217783,0.0255147,0.0298855,inf	996.685,996.685,336.046,198.446,175.802,192.26,201.316,198.352,204.136,226.572,264.377,315.725,379.783,452.736,525.639,586.816,622.576,625.809,605.575,576.45,549.715,531.653,520.644,513.594,517.827,547.339,547.526,273.344,273.344,0.428594,0.428594,0.428594
0.000894996	-289315.82	0,3.96062e-05,8.59356e-05,0.000140129,0.000203522,0.000277677,0.000364418,0.000465885,0.000584575,0.000723412,0.000885818,0.00107579,0.00129801,0.00155796,0.00186203,0.00221771,0.00263377,0.00312046,0.00368977,0.00435571,0.0051347,0.00604592,0.00711182,0.00835866,0.00981715,0.0115232,0.0135189,0.0158533,0.018584,0.0217783,0.0255147,0.0298855,inf	1001.68,1001.68,327.281,189.489,172.528,194.536,203.719,197.03,200.318,221.93,259.827,311.815,377.108,451.912,527.217,591.205,629.401,633.554,612.576,581.81,553.544,534.831,524.002,517.888,525.861,565.827,566.156,267.195,267.195,0.428594,0.428594,0.428594
0.000940154	-289282.59	0,3.96062e-05,8.59356e-05,0.000140129,0.000203522,0.000277677,0.000364418,0.000465885,0.000584575,0.000723412,0.000885818,0.00107579,0.00129801,0.00155796,0.00186203,0.00221771,0.00263377,0.00312046,0.00368977,0.00435571,0.0051347,0.00604592,0.00711182,0.00835866,0.00981715,0.0115232,0.0135189,0.0158533,0.018584,0.0217783,0.0255147,0.0298855,inf	995.816,995.816,317.709,181.584,170.698,198.474,207.692,197.31,198.301,219.177,257.064,309.385,375.356,451.167,527.793,593.44,633.196,637.986,616.502,584.552,555.158,536.001,525.439,520.356,532.12,582.383,580.695,264.663,264.663,0.428594,0.428594,0.428594
0.00098369	-289253.05	0,3.96062e-05,8.59356e-05,0.000140129,0.000203522,0.000277677,0.000364418,0.000465885,0.000584575,0.000723412,0.000885818,0.00107579,0.00129801,0.00155796,0.00186203,0.00221771,0.00263377,0.00312046,0.00368977,0.00435571,0.0051347,0.00604592,0.00711182,0.00835866,0.00981715,0.0115232,0.0135189,0.0158533,0.018584,0.0217783,0.0255147,0.0298855,inf	985.196,985.196,307.757,174.325,169.634,203.264,212.407,198.42,197.34,217.608,255.474,307.971,374.291,450.579,527.82,594.34,635.029,640.236,618.399,585.584,555.331,535.833,525.544,521.499,536.979,597.131,591.327,264.862,264.862,0.428594,0.428594,0.428594
0.00102576	-289226.40	0,3.96062e-05,8.59356e-05,0.000140129,0.000203522,0.000277677,0.000364418,0.000465885,0.000584575,0.000723412,0.000885818,0.00107579,0.00129801,0.00155796,0.00186203,0.00221771,0.00263377,0.00312046,0.00368977,0.00435571,0.0051347,0.00604592,0.00711182,0.00835866,0.00981715,0.0115232,0.0135189,0.0158533,0.018584,0.0217783,0.0255147,0.0298855,inf	973.053,973.053,297.687,167.51,168.973,208.442,217.387,199.922,197.006,216.804,254.673,307.271,373.74,450.163,527.547,594.402,635.578,641.033,618.953,585.501,554.569,534.772,524.72,521.671,540.722,610.237,598.553,267.112,267.112,0.428594,0.428594,0.428594
0.00106648	-289202.14	0,3.96062e-05,8.59356e-05,0.000140129,0.000203522,0.000277677,0.000364418,0.000465885,0.000584575,0.000723412,0.000885818,0.00107579,0.00129801,0.00155796,0.00186203,0.00221771,0.00263377,0.00312046,0.00368977,0.00435571,0.0051347,0.00604592,0.00711182,0.00835866,0.00981715,0.0115232,0.0135189,0.0158533,0.018584,0.0217783,0.0255147,0.0298855,inf	961.029,961.029,287.672,161.05,168.528,213.747,222.362,201.569,197.043,216.503,254.417,307.083,373.577,449.909,527.119,593.933,635.278,640.862,618.618,584.693,553.205,533.119,523.246,521.125,543.565,621.869,602.982,270.877,270.877,0.428594,0.428594,0.428594
0.00110595	-289179.92	0,3.96062e-05,8.59356e-05,0.000140129,0.000203522,0.000277677,0.000364418,0.000465885,0.000584575,0.000723412,0.000885818,0.00107579,0.00129801,0.00155796,0.00186203,0.00221771,0.00263377,0.00312046,0.00368977,0.00435571,0.0051347,0.00604592,0.00711182,0.00835866,0.00981715,0.0115232,0.0135189,0.0158533,0.018584,0.0217783,0.0255147,0.0298855,inf	949.876,949.876,277.826,154.909,168.206,219.033,227.177,203.217,197.294,216.538,254.544,307.265,373.708,449.798,526.615,593.129,634.417,640.041,617.696,583.422,551.461,531.076,521.318,520.045,545.673,632.191,605.196,275.748,275.748,0.428594,0.428594,0.428594
0.00114424	-289159.48	0,3.96062e-05,8.59356e-05,0.000140129,0.000203522,0.000277677,0.000364418,0.000465885,0.000584575,0.000723412,0.000885818,0.00107579,0.00129801,0.00155796,0.00186203,0.00221771,0.00263377,0.00312046,0.00368977,0.00435571,0.0051347,0.00604592,0.00711182,0.00835866,0.00981715,0.0115232,0.0135189,0.0158533,0.018584,0.0217783,0.0255147,0.0298855,inf	939.881,939.881,268.225,149.077,167.966,224.224,231.755,204.79,197.666,216.801,254.942,307.721,374.061,449.806,526.082,592.113,633.183,638.789,616.391,581.861,549.485,528.783,519.074,518.563,547.176,641.343,605.702,281.412,281.412,0.428594,0.428594,0.428594
0.00118143	-289140.61	0,3.96062e-05,8.59356e-05,0.000140129,0.000203522,0.000277677,0.000364418,0.000465885,0.000584575,0.000723412,0.000885818,0.00107579,0.00129801,0.00155796,0.00186203,0.00221771,0.00263377,0.00312046,0.00368977,0.00435571,0.0051347,0.00604592,0.00711182,0.00835866,0.00981715,0.0115232,0.0135189,0.0158533,0.018584,0.0217783,0.0255147,0.0298855,inf	931.084,931.084,258.919,143.552,167.796,229.283,236.055,206.247,198.098,217.22,255.537,308.377,374.584,449.913,525.543,590.967,631.707,637.254,614.845,580.129,547.377,526.334,516.611,516.777,548.17,649.453,604.906,287.641,287.641,0.428594,0.428594,0.428594
0.00121756	-289123.14	0,3.96062e-05,8.59356e-05,0.000140129,0.000203522,0.000277677,0.000364418,0.000465885,0.000584575,0.000723412,0.000885818,0.00107579,0.00129801,0.00155796,0.00186203,0.00221771,0.00263377,0.00312046,0.00368977,0.00435571,0.0051347,0.00604592,0.00711182,0.00835866,0.00981715,0.0115232,0.0135189,0.0158533,0.018584,0.0217783,0.0255147,0.0298855,inf	923.414,923.414,249.933,138.336,167.695,234.2,240.067,207.569,198.554,217.743,256.272,309.183,375.234,450.098,525.012,589.742,630.075,635.54,613.152,578.304,545.202,523.795,514.001,514.76,548.736,656.626,603.126,294.267,294.267,0.428594,0.428594,0.428594
0.0012527	-289106.94	0,3.96062e-05,8.59356e-05,0.000140129,0.000203522,0.000277677,0.000364418,0.000465885,0.000584575,0.000723412,0.000885818,0.00107579,0.00129801,0.00155796,0.00186203,0.00221771,0.00263377,0.00312046,0.00368977,0.00435571,0.0051347,0.00604592,0.00711182,0.00835866,0.00981715,0.0115232,0.0135189,0.0158533,0.018584,0.0217783,0.0255147,0.0298855,inf	916.753,916.753,241.282,133.425,167.669,238.973,243.791,208.749,199.01,218.338,257.108,310.098,375.98,450.345,524.497,588.475,628.349,633.718,611.38,576.442,543.008,521.212,511.295,512.567,548.935,662.953,600.602,301.169,301.169,0.428594,0.428594,0.428594
0.00128688	-289091.86	0,3.96062e-05,8.59356e-05,0.000140129,0.000203522,0.000277677,0.000364418,0.000465885,0.000584575,0.000723412,0.000885818,0.00107579,0.00129801,0.00155796,0.00186203,0.00221771,0.00263377,0.00312046,0.00368977,0.00435571,0.0051347,0.00604592,0.00711182,0.00835866,0.00981715,0.0115232,0.0135189,0.0158533,0.018584,0.0217783,0.0255147,0.0298855,inf	910.955,910.955,232.972,128.813,167.726,243.609,247.237,209.789,199.454,218.978,258.017,311.093,376.796,450.639,523.999,587.188,626.572,631.838,609.575,574.578,540.823,518.618,508.531,510.24,548.818,668.512,597.518,308.259,308.259,0.428594,0.428594,0.428594
0.00132014	-289077.81	0,3.96062e-05,8.59356e-05,0.000140129,0.000203522,0.000277677,0.000364418,0.000465885,0.000584575,0.000723412,0.000885818,0.00107579,0.00129801,0.00155796,0.00186203,0.00221771,0.00263377,0.00312046,0.00368977,0.00435571,0.0051347,0.00604592,0.00711182,0.00835866,0.00981715,0.0115232,0.0135189,0.0158533,0.018584,0.0217783,0.0255147,0.0298855,inf	905.906,905.906,225,124.492,167.873,248.118,250.418,210.695,199.876,219.648,258.976,312.146,377.664,450.97,523.519,585.899,624.774,629.936,607.769,572.737,538.669,516.035,505.735,507.813,548.427,673.37,594.008,315.472,315.472,0.428594,0.428594,0.428594
0.00135253	-289064.68	0,3.96062e-05,8.59356e-05,0.000140129,0.000203522,0.000277677,0.000364418,0.000465885,0.000584575,0.000723412,0.000885818,0.00107579,0.00129801,0.00155796,0.00186203,0.00221771,0.00263377,0.00312046,0.00368977,0.00435571,0.0051347,0.00604592,0.00711182,0.00835866,0.00981715,0.0115232,0.0135189,0.0158533,0.018584,0.0217783,0.0255147,0.0298855,inf	901.478,901.478,217.356,120.45,168.114,252.509,253.349,211.474,200.272,220.335,259.969,313.239,378.567,451.326,523.056,584.618,622.974,628.038,605.984,570.937,536.56,513.479,502.931,505.311,547.797,677.589,590.176,322.766,322.766,0.428594,0.428594,0.428594
0.00138407	-289052.40	0,3.96062e-05,8.59356e-05,0.000140129,0.000203522,0.000277677,0.000364418,0.000465885,0.000584575,0.000723412,0.000885818,0.00107579,0.00129801,0.00155796,0.00186203,0.00221771,0.00263377,0.00312046,0.00368977,0.00435571,0.0051347,0.00604592,0.00711182,0.00835866,0.00981715,0.0115232,0.0135189,0.0158533,0.018584,0.0217783,0.0255147,0.0298855,inf	897.573,897.573,210.034,116.675,168.453,256.792,256.047,212.134,200.637,221.029,260.985,314.359,379.493,451.702,522.61,583.351,621.19,626.161,604.236,569.187,534.503,510.961,500.132,502.755,546.955,681.218,586.1,330.107,330.107,0.428594,0.428594,0.428594
0.0014148	-289040.89	0,3.96062e-05,8.59356e-05,0.000140129,0.000203522,0.000277677,0.000364418,0.000465885,0.000584575,0.000723412,0.000885818,0.00107579,0.00129801,0.00155796,0.00186203,0.00221771,0.00263377,0.00312046,0.00368977,0.00435571,0.0051347,0.00604592,0.00711182,0.00835866,0.00981715,0.0115232,0.0135189,0.0158533,0.018584,0.0217783,0.0255147,0.0298855,inf	894.113,894.113,203.02,113.153,168.892,260.977,258.525,212.684,200.973,221.723,262.012,315.495,380.434,452.089,522.178,582.104,619.43,624.317,602.535,567.496,532.505,508.488,497.351,500.16,545.93,684.302,581.834,337.465,337.465,0.428594,0.428594,0.428594
