0.00088515	-7172723.03	0,1.78213e-05,4.66924e-05,9.34645e-05,0.000169237,0.00029199,0.000490855,0.000813021,0.00133494,0.00218047,0.00355025,0.00576934,0.00936433,0.0151883,0.0246234,0.0399085,inf	6.80435,6.80435,17.0873,35.3124,73.5331,163.618,187.908,263.335,163.664,115.768,172.191,300.365,302.386,307.818,307.818,307.818
0.000731207	-7155082.65	0,1.78213e-05,4.66924e-05,9.34645e-05,0.000169237,0.00029199,0.000490855,0.000813021,0.00133494,0.00218047,0.00355025,0.00576934,0.00936433,0.0151883,0.0246234,0.0399085,inf	0.231944,0.231944,1.08048,4.7716,20.9434,117.089,138.703,292.581,126.215,63.366,135.558,355.863,387.842,449.789,449.789,449.789
0.000586788	-7144447.30	0,1.78213e-05,4.66924e-05,9.34645e-05,0.000169237,0.00029199,0.000490855,0.000813021,0.00133494,0.00218047,0.00355025,0.00576934,0.00936433,0.0151883,0.0246234,0.0399085,inf	0.231944,0.231944,0.231944,0.535999,5.20846,84.8224,96.33,301.094,109.26,36.0641,112.893,394.04,498.367,928.965,928.965,928.965
0.000448253	-7136853.61	0,1.78213e-05,4.66924e-05,9.34645e-05,0.000169237,0.00029199,0.000490855,0.000813021,0.00133494,0.00218047,0.00355025,0.00576934,0.00936433,0.0151883,0.0246234,0.0399085,inf	0.231944,0.231944,0.231944,0.231944,1.14784,60.5552,64.1762,287.483,107.4,20.464,98.4481,415.234,663.305,10750.9,10750.9,10750.9
0.000448251	-7130576.52	0,1.78213e-05,4.66924e-05,9.34645e-05,0.000169237,0.00029199,0.000490855,0.000813021,0.00133494,0.00218047,0.00355025,0.00576934,0.00936433,0.0151883,0.0246234,0.0399085,inf	0.231944,0.231944,0.231944,0.231944,0.267199,53.5091,48.1273,294.825,119.654,9.73684,75.1336,477.538,986.909,29092.7,29092.7,29092.7
