0.000895273	-7173345.21	0,7.84111e-06,1.78213e-05,3.05242e-05,4.66924e-05,6.72714e-05,9.34645e-05,0.000126803,0.000169237,0.000223246,0.00029199,0.000379488,0.000490855,0.000632603,0.000813021,0.00104266,0.00133494,0.00170696,0.00218047,0.00278315,0.00355025,0.00452661,0.00576934,0.00735108,0.00936433,0.0119268,0.0151883,0.0193396,0.0246234,0.0313486,0.0399085,0.0508036,inf	2.7517,2.7517,5.70304,9.08663,13.66,19.9584,28.7358,41.1784,59.4304,87.8729,139.143,185.853,186.062,192.679,240.036,270.149,212.272,148.091,121.922,125.72,155.371,213.672,283.702,310.525,305.535,294.157,283.282,273.674,273.674,266.078,266.078,266.078
0.000749096	-7156471.59	0,7.84111e-06,1.78213e-05,3.05242e-05,4.66924e-05,6.72714e-05,9.34645e-05,0.000126803,0.000169237,0.000223246,0.00029199,0.000379488,0.000490855,0.000632603,0.000813021,0.00104266,0.00133494,0.00170696,0.00218047,0.00278315,0.00355025,0.00452661,0.00576934,0.00735108,0.00936433,0.0119268,0.0151883,0.0193396,0.0246234,0.0313486,0.0399085,0.0508036,inf	0.231945,0.231945,0.231945,0.306316,0.71021,1.56142,3.31117,6.88481,14.3279,30.6873,78.4797,149.675,144.12,141.038,223.554,324.864,207.604,93.8846,64.4149,72.2298,110.06,192.694,323.831,389.508,386.439,365.94,343.867,323.889,323.889,309.162,309.162,309.162
0.000622825	-7145581.09	0,7.84111e-06,1.78213e-05,3.05242e-05,4.66924e-05,6.72714e-05,9.34645e-05,0.000126803,0.000169237,0.000223246,0.00029199,0.000379488,0.000490855,0.000632603,0.000813021,0.00104266,0.00133494,0.00170696,0.00218047,0.00278315,0.00355025,0.00452661,0.00576934,0.00735108,0.00936433,0.0119268,0.0151883,0.0193396,0.0246234,0.0313486,0.0399085,0.0508036,inf	0.231944,0.231944,0.231944,0.231944,0.231944,0.231944,0.3167,0.977718,2.99348,9.17049,37.1476,112.214,108.115,90.2381,179.526,367.888,212.004,58.3725,33.3652,42.1093,79.8029,172.308,353.998,467.315,475.308,450.641,418.287,386.98,386.98,365.609,365.609,365.609
0.000511366	-7137823.74	0,7.84111e-06,1.78213e-05,3.05242e-05,4.66924e-05,6.72714e-05,9.34645e-05,0.000126803,0.000169237,0.000223246,0.00029199,0.000379488,0.000490855,0.000632603,0.000813021,0.00104266,0.00133494,0.00170696,0.00218047,0.00278315,0.00355025,0.00452661,0.00576934,0.00735108,0.00936433,0.0119268,0.0151883,0.0193396,0.0246234,0.0313486,0.0399085,0.0508036,inf	0.231944,0.231944,0.231944,0.231944,0.231944,0.231944,0.231944,0.231944,0.540952,2.35293,13.5658,74.0184,78.5989,51.3799,125.056,374.822,224.324,35.3511,16.643,24.2544,58.1065,153.593,376.376,544.19,575.022,556.513,517.286,472.562,472.562,444.205,444.205,444.205
0.000413202	-7131879.64	0,7.84111e-06,1.78213e-05,3.05242e-05,4.66924e-05,6.72714e-05,9.34645e-05,0.000126803,0.000169237,0.000223246,0.00029199,0.000379488,0.000490855,0.000632603,0.000813021,0.00104266,0.00133494,0.00170696,0.00218047,0.00278315,0.00355025,0.00452661,0.00576934,0.00735108,0.00936433,0.0119268,0.0151883,0.0193396,0.0246234,0.0313486,0.0399085,0.0508036,inf	0.231944,0.231944,0.231944,0.231944,0.231944,0.231944,0.231944,0.231944,0.231944,0.497536,3.71901,43.4435,55.1883,27.0548,76.1704,339.961,241.423,20.5465,7.83885,13.4984,41.8256,136.512,393.02,620.716,690.622,702.35,667.908,604.743,604.743,568.007,568.007,568.007
0.000328038	-7127082.07	0,7.84111e-06,1.78213e-05,3.05242e-05,4.66924e-05,6.72714e-05,9.34645e-05,0.000126803,0.000169237,0.000223246,0.00029199,0.000379488,0.000490855,0.000632603,0.000813021,0.00104266,0.00133494,0.00170696,0.00218047,0.00278315,0.00355025,0.00452661,0.00576934,0.00735108,0.00936433,0.0119268,0.0151883,0.0193396,0.0246234,0.0313486,0.0399085,0.0508036,inf	0.231944,0.231944,0.231944,0.231944,0.231944,0.231944,0.231944,0.231944,0.231944,0.231944,0.729956,25.325,38.3645,14.692,40.3785,276.948,253.72,11.2327,3.41351,7.11058,29.3139,120.629,405.954,696.829,829.876,938.284,961.45,867.959,867.959,838.555,838.555,838.555
0.000255628	-7123111.07	0,7.84111e-06,1.78213e-05,3.05242e-05,4.66924e-05,6.72714e-05,9.34645e-05,0.000126803,0.000169237,0.000223246,0.00029199,0.000379488,0.000490855,0.000632603,0.000813021,0.00104266,0.00133494,0.00170696,0.00218047,0.00278315,0.00355025,0.00452661,0.00576934,0.00735108,0.00936433,0.0119268,0.0151883,0.0193396,0.0246234,0.0313486,0.0399085,0.0508036,inf	0.231944,0.231944,0.231944,0.231944,0.231944,0.231944,0.231944,0.231944,0.231944,0.231944,0.231944,18.5735,29.9208,10.0549,18.2877,203.976,246.879,5.6826,1.34594,3.47481,19.6765,105.381,417.108,770.91,1004.12,1454.99,1945.03,1846.76,1846.76,2837.58,2837.58,2837.58
0.000195386	-7119809.50	0,7.84111e-06,1.78213e-05,3.05242e-05,4.66924e-05,6.72714e-05,9.34645e-05,0.000126803,0.000169237,0.000223246,0.00029199,0.000379488,0.000490855,0.000632603,0.000813021,0.00104266,0.00133494,0.00170696,0.00218047,0.00278315,0.00355025,0.00452661,0.00576934,0.00735108,0.00936433,0.0119268,0.0151883,0.0193396,0.0246234,0.0313486,0.0399085,0.0508036,inf	0.231944,0.231944,0.231944,0.231944,0.231944,0.231944,0.231944,0.231944,0.231944,0.231944,0.231944,20.17,31.3474,10.5389,6.84809,133.59,211.346,2.63623,0.469927,1.54447,12.4215,90.2626,427.885,839.274,1228.82,3702.69,17428.2,28410.9,28410.9,2240.92,2240.92,2240.92
0.000146559	-7117075.01	0,7.84111e-06,1.78213e-05,3.05242e-05,4.66924e-05,6.72714e-05,9.34645e-05,0.000126803,0.000169237,0.000223246,0.00029199,0.000379488,0.000490855,0.000632603,0.000813021,0.00104266,0.00133494,0.00170696,0.00218047,0.00278315,0.00355025,0.00452661,0.00576934,0.00735108,0.00936433,0.0119268,0.0151883,0.0193396,0.0246234,0.0313486,0.0399085,0.0508036,inf	0.231944,0.231944,0.231944,0.231944,0.231944,0.231944,0.231944,0.231944,0.231944,0.231944,0.231944,24.4121,33.3966,11.5258,1.97764,73.3467,151.166,1.12244,0.231944,0.612172,7.23162,74.9755,438.686,897.036,1524.7,165005,42844.2,43.921,43.921,47.4909,47.4909,47.4909
