0.000393482	-217054.18	0,5.88442e-05,0.000139362,0.000249535,0.000400286,0.000606562,0.000888812,0.00127502,0.00180347,0.00252656,0.00351598,0.00486981,0.00672228,0.00925703,0.0127254,0.0174712,inf	31.6394,31.6394,73.3335,129.843,223.649,396.34,748.742,1165.05,1058.19,921.383,819.761,749.288,718.531,726.021,726.021,726.021
0.000412893	-216171.38	0,5.88442e-05,0.000139362,0.000249535,0.000400286,0.000606562,0.000888812,0.00127502,0.00180347,0.00252656,0.00351598,0.00486981,0.00672228,0.00925703,0.0127254,0.0174712,inf	2.09018,2.09018,11.4173,35.5699,99.3191,263.178,690.394,1577.39,1456.86,1214.24,992.844,832.968,775.024,810.984,810.984,810.984
0.000435443	-215868.36	0,5.88442e-05,0.000139362,0.000249535,0.000400286,0.000606562,0.000888812,0.00127502,0.00180347,0.00252656,0.00351598,0.00486981,0.00672228,0.00925703,0.0127254,0.0174712,inf	0.625915,0.625915,2.00422,10.8886,48.41,183.372,604.786,1867.35,1782.77,1472.15,1119.66,862.741,784.154,856.803,856.803,856.803
0.000457426	-215734.02	0,5.88442e-05,0.000139362,0.000249535,0.000400286,0.000606562,0.000888812,0.00127502,0.00180347,0.00252656,0.00351598,0.00486981,0.00672228,0.00925703,0.0127254,0.0174712,inf	0.625915,0.625915,0.625915,3.62883,25.2594,133.16,528.938,2075.4,2040.47,1685.16,1196.04,851.443,759.761,859.695,859.695,859.695
0.000477964	-215664.53	0,5.88442e-05,0.000139362,0.000249535,0.000400286,0.000606562,0.000888812,0.00127502,0.00180347,0.00252656,0.00351598,0.00486981,0.00672228,0.00925703,0.0127254,0.0174712,inf	0.625915,0.625915,0.625915,1.29819,13.9184,99.9929,467.057,2229.83,2242.75,1852.85,1230.64,819.798,721.486,834.384,834.384,834.384
0.000496926	-215624.48	0,5.88442e-05,0.000139362,0.000249535,0.000400286,0.000606562,0.000888812,0.00127502,0.00180347,0.00252656,0.00351598,0.00486981,0.00672228,0.00925703,0.0127254,0.0174712,inf	0.625915,0.625915,0.625915,0.625915,8.02082,77.1443,417.041,2348.17,2401.74,1979.43,1236.83,782.98,682.147,798.219,798.219,798.219
0.000514411	-215599.44	0,5.88442e-05,0.000139362,0.000249535,0.000400286,0.000606562,0.000888812,0.00127502,0.00180347,0.00252656,0.00351598,0.00486981,0.00672228,0.00925703,0.0127254,0.0174712,inf	0.625915,0.625915,0.625915,0.625915,4.79816,60.8405,376.224,2441.43,2527.27,2071.16,1226.74,748.632,647.299,761.679,761.679,761.679
0.000530661	-215582.81	0,5.88442e-05,0.000139362,0.000249535,0.000400286,0.000606562,0.000888812,0.00127502,0.00180347,0.00252656,0.00351598,0.00486981,0.00672228,0.00925703,0.0127254,0.0174712,inf	0.625915,0.625915,0.625915,0.625915,2.96275,48.8668,342.373,2517.49,2626.8,2134.77,1208.92,719.486,618.405,729.132,729.132,729.132
0.000545783	-215571.14	0,5.88442e-05,0.000139362,0.000249535,0.000400286,0.000606562,0.000888812,0.00127502,0.00180347,0.00252656,0.00351598,0.00486981,0.00672228,0.00925703,0.0127254,0.0174712,inf	0.625915,0.625915,0.625915,0.625915,1.8791,39.8434,313.897,2580.29,2706.15,2176.54,1188.59,695.939,595.239,701.659,701.659,701.659
0.000559936	-215562.63	0,5.88442e-05,0.000139362,0.000249535,0.000400286,0.000606562,0.000888812,0.00127502,0.00180347,0.00252656,0.00351598,0.00486981,0.00672228,0.00925703,0.0127254,0.0174712,inf	0.625915,0.625915,0.625915,0.625915,1.21968,32.9011,289.614,2633.12,2769.74,2201.92,1168.6,677.439,576.995,679.119,679.119,679.119
0.000573258	-215556.21	0,5.88442e-05,0.000139362,0.000249535,0.000400286,0.000606562,0.000888812,0.00127502,0.00180347,0.00252656,0.00351598,0.00486981,0.00672228,0.00925703,0.0127254,0.0174712,inf	0.625915,0.625915,0.625915,0.625915,0.807829,27.4647,268.654,2678.29,2820.92,2215.28,1150.25,663.167,562.798,660.843,660.843,660.843
0.000585766	-215551.23	0,5.88442e-05,0.000139362,0.000249535,0.000400286,0.000606562,0.000888812,0.00127502,0.00180347,0.00252656,0.00351598,0.00486981,0.00672228,0.00925703,0.0127254,0.0174712,inf	0.625915,0.625915,0.625915,0.625915,0.625915,23.1429,250.441,2716.69,2862.27,2220,1134.02,652.289,551.833,646.08,646.08,646.08
0.000597746	-215547.31	0,5.88442e-05,0.000139362,0.000249535,0.000400286,0.000606562,0.000888812,0.00127502,0.00180347,0.00252656,0.00351598,0.00486981,0.00672228,0.00925703,0.0127254,0.0174712,inf	0.625915,0.625915,0.625915,0.625915,0.625915,19.6614,234.332,2751.18,2895.85,2218.78,1120.03,644.121,543.45,634.249,634.249,634.249
0.00060919	-215544.15	0,5.88442e-05,0.000139362,0.000249535,0.000400286,0.000606562,0.000888812,0.00127502,0.00180347,0.00252656,0.00351598,0.00486981,0.00672228,0.00925703,0.0127254,0.0174712,inf	0.625915,0.625915,0.625915,0.625915,0.625915,16.8231,220.014,2781.81,2923.07,2213.38,1108.05,638.047,537.099,624.74,624.74,624.74
0.000620164	-215541.55	0,5.88442e-05,0.000139362,0.000249535,0.000400286,0.000606562,0.000888812,0.00127502,0.00180347,0.00252656,0.00351598,0.00486981,0.00672228,0.00925703,0.0127254,0.0174712,inf	0.625915,0.625915,0.625915,0.625915,0.625915,14.4859,207.197,2809.28,2945.14,2205.18,1097.84,633.599,532.335,617.112,617.112,617.112
0.000630725	-215539.37	0,5.88442e-05,0.000139362,0.000249535,0.000400286,0.000606562,0.000888812,0.00127502,0.00180347,0.00252656,0.00351598,0.00486981,0.00672228,0.00925703,0.0127254,0.0174712,inf	0.625915,0.625915,0.625915,0.625915,0.625915,12.5444,195.649,2834.14,2963.02,2195.19,1089.17,630.408,528.822,611.011,611.011,611.011
0.000640919	-215537.53	0,5.88442e-05,0.000139362,0.000249535,0.000400286,0.000606562,0.000888812,0.00127502,0.00180347,0.00252656,0.00351598,0.00486981,0.00672228,0.00925703,0.0127254,0.0174712,inf	0.625915,0.625915,0.625915,0.625915,0.625915,10.9187,185.184,2856.79,2977.44,2184.11,1081.82,628.2,526.301,606.142,606.142,606.142
0.000650785	-215535.95	0,5.88442e-05,0.000139362,0.000249535,0.000400286,0.000606562,0.000888812,0.00127502,0.00180347,0.00252656,0.00351598,0.00486981,0.00672228,0.00925703,0.0127254,0.0174712,inf	0.625915,0.625915,0.625915,0.625915,0.625915,9.54773,175.654,2877.57,2989.01,2172.46,1075.58,626.754,524.567,602.252,602.252,602.252
0.000660358	-215534.58	0,5.88442e-05,0.000139362,0.000249535,0.000400286,0.000606562,0.000888812,0.00127502,0.00180347,0.00252656,0.00351598,0.00486981,0.00672228,0.00925703,0.0127254,0.0174712,inf	0.625915,0.625915,0.625915,0.625915,0.625915,8.38414,166.933,2896.73,2998.21,2160.58,1070.26,625.9,523.446,599.192,599.192,599.192
0.000669666	-215533.39	0,5.88442e-05,0.000139362,0.000249535,0.000400286,0.000606562,0.000888812,0.00127502,0.00180347,0.00252656,0.00351598,0.00486981,0.00672228,0.00925703,0.0127254,0.0174712,inf	0.625915,0.625915,0.625915,0.625915,0.625915,7.39076,158.922,2914.5,3005.43,2148.71,1065.73,625.511,522.806,596.779,596.779,596.779
