0.000840969	-2738005.64	0,1.61859e-05,3.62062e-05,6.09694e-05,9.15991e-05,0.000129485,0.000176346,0.000234309,0.000306003,0.000394681,0.000504367,0.000640039,0.000807851,0.00101542,0.00127216,0.00158972,0.00198251,0.00246836,0.0030693,0.00381261,0.00473201,0.00586922,0.00727583,0.00901567,0.0111677,0.0138295,0.0171219,0.0211943,0.0262315,0.032462,0.0401684,0.0497006,inf	7.0815,7.0815,15.6094,25.9162,40.314,60.4493,90.3623,139.999,230.733,227.524,170.43,188.125,240.661,284.728,254.61,186.066,142.45,128.652,138.465,170.992,227.553,290.304,319.207,318.938,309.854,299.269,289.862,280.957,280.957,272.307,272.307,272.307
0.000694825	-2731690.29	0,1.61859e-05,3.62062e-05,6.09694e-05,9.15991e-05,0.000129485,0.000176346,0.000234309,0.000306003,0.000394681,0.000504367,0.000640039,0.000807851,0.00101542,0.00127216,0.00158972,0.00198251,0.00246836,0.0030693,0.00381261,0.00473201,0.00586922,0.00727583,0.00901567,0.0111677,0.0138295,0.0171219,0.0211943,0.0262315,0.032462,0.0401684,0.0497006,inf	0.243945,0.243945,0.866271,2.52813,6.30013,14.0903,30.5893,70.7807,200.413,226.289,105.834,125.199,212.83,334.292,291.368,145.297,81.9075,69.2327,83.7495,126.12,209.16,327.545,395.818,401.382,385.44,363.665,343.182,323.133,323.133,303.226,303.226,303.226
0.000570704	-2727466.66	0,1.61859e-05,3.62062e-05,6.09694e-05,9.15991e-05,0.000129485,0.000176346,0.000234309,0.000306003,0.000394681,0.000504367,0.000640039,0.000807851,0.00101542,0.00127216,0.00158972,0.00198251,0.00246836,0.0030693,0.00381261,0.00473201,0.00586922,0.00727583,0.00901567,0.0111677,0.0138295,0.0171219,0.0211943,0.0262315,0.032462,0.0401684,0.0497006,inf	0.243938,0.243938,0.243938,0.243939,0.842405,2.79478,8.67374,29.4173,145.142,224.042,58.0122,70.8191,161.675,357.467,347.119,114.27,45.5865,36.8003,51.5297,94.8742,190.507,356.826,472.647,491.65,473.259,440.66,406.723,371.281,371.281,334.353,334.353,334.353
0.00046356	-2724385.10	0,1.61859e-05,3.62062e-05,6.09694e-05,9.15991e-05,0.000129485,0.000176346,0.000234309,0.000306003,0.000394681,0.000504367,0.000640039,0.000807851,0.00101542,0.00127216,0.00158972,0.00198251,0.00246836,0.0030693,0.00381261,0.00473201,0.00586922,0.00727583,0.00901567,0.0111677,0.0138295,0.0171219,0.0211943,0.0262315,0.032462,0.0401684,0.0497006,inf	0.243938,0.243938,0.243938,0.243938,0.243939,0.351375,1.92766,9.57348,82.9147,201.439,28.9984,34.3458,106.025,335.552,413.688,90.6298,24.3801,18.9236,31.3919,71.5219,172.544,379.941,550.268,592.163,579.786,538.819,486.862,427.155,427.155,361.245,361.245,361.245
0.000371415	-2722011.67	0,1.61859e-05,3.62062e-05,6.09694e-05,9.15991e-05,0.000129485,0.000176346,0.000234309,0.000306003,0.000394681,0.000504367,0.000640039,0.000807851,0.00101542,0.00127216,0.00158972,0.00198251,0.00246836,0.0030693,0.00381261,0.00473201,0.00586922,0.00727583,0.00901567,0.0111677,0.0138295,0.0171219,0.0211943,0.0262315,0.032462,0.0401684,0.0497006,inf	0.243938,0.243938,0.243938,0.243938,0.243938,0.243938,0.278145,2.3195,34.4762,156.156,14.4789,14.3487,60.5475,276.918,472.075,73.4637,12.4836,9.25453,18.5352,53.2577,155.416,398.652,629.824,706.676,718.385,677.946,597.627,494.116,494.116,378.129,378.129,378.129
0.000292994	-2720125.32	0,1.61859e-05,3.62062e-05,6.09694e-05,9.15991e-05,0.000129485,0.000176346,0.000234309,0.000306003,0.000394681,0.000504367,0.000640039,0.000807851,0.00101542,0.00127216,0.00158972,0.00198251,0.00246836,0.0030693,0.00381261,0.00473201,0.00586922,0.00727583,0.00901567,0.0111677,0.0138295,0.0171219,0.0211943,0.0262315,0.032462,0.0401684,0.0497006,inf	0.243938,0.243938,0.243938,0.243938,0.243938,0.243938,0.243938,0.407643,9.83924,106.311,8.73328,5.13626,30.1349,203.485,494.416,62.4371,6.10612,4.24002,10.4049,38.6154,138.846,414.559,712.327,839.445,918.528,912.891,775.889,578.948,578.948,379.412,379.412,379.412
0.000227193	-2718601.94	0,1.61859e-05,3.62062e-05,6.09694e-05,9.15991e-05,0.000129485,0.000176346,0.000234309,0.000306003,0.000394681,0.000504367,0.000640039,0.000807851,0.00101542,0.00127216,0.00158972,0.00198251,0.00246836,0.0030693,0.00381261,0.00473201,0.00586922,0.00727583,0.00901567,0.0111677,0.0138295,0.0171219,0.0211943,0.0262315,0.032462,0.0401684,0.0497006,inf	0.243938,0.243938,0.243938,0.243938,0.243938,0.243938,0.243938,0.243938,1.96551,69.2518,7.7118,1.55043,12.8831,133.092,464.754,57.2287,2.82627,1.79316,5.45445,26.8573,122.436,428.933,798.252,993.251,1260.23,1468.04,1163.14,697.533,697.533,364.545,364.545,364.545
0.000173181	-2717359.51	0,1.61859e-05,3.62062e-05,6.09694e-05,9.15991e-05,0.000129485,0.000176346,0.000234309,0.000306003,0.000394681,0.000504367,0.000640039,0.000807851,0.00101542,0.00127216,0.00158972,0.00198251,0.00246836,0.0030693,0.00381261,0.00473201,0.00586922,0.00727583,0.00901567,0.0111677,0.0138295,0.0171219,0.0211943,0.0262315,0.032462,0.0401684,0.0497006,inf	0.243938,0.243938,0.243938,0.243938,0.243938,0.243938,0.243938,0.243938,0.288833,51.1251,9.80048,0.382641,4.57022,75.6289,396.963,57.2418,1.20571,0.688188,2.62552,17.6392,105.876,442.512,887.521,1164.18,2071.71,4210.07,2869.68,895.317,895.317,397.117,397.117,397.117
0.000130055	-2716344.65	0,1.61859e-05,3.62062e-05,6.09694e-05,9.15991e-05,0.000129485,0.000176346,0.000234309,0.000306003,0.000394681,0.000504367,0.000640039,0.000807851,0.00101542,0.00127216,0.00158972,0.00198251,0.00246836,0.0030693,0.00381261,0.00473201,0.00586922,0.00727583,0.00901567,0.0111677,0.0138295,0.0171219,0.0211943,0.0262315,0.032462,0.0401684,0.0497006,inf	0.243938,0.243938,0.243938,0.243938,0.243938,0.243938,0.243938,0.243938,0.243938,52.931,16.3809,0.243938,1.28312,35.8244,323.061,61.3489,0.450907,0.243938,1.13856,10.7468,89.0001,455.234,979.381,1331.35,6496.76,210932,2845.34,35.2022,35.2022,42.4431,42.4431,42.4431
