AIC = 3128466.3570963218808

y0 0.5289101894665361181
y0_prime 0
y1 1.1700216865234274177
y1_prime 0
y2 0.66159356363923471633
y2_prime 0
y3 1.7228805777871629701
y3_prime 0
rho 0.0087411638111449668775
rho.alpha 0.24774742140281053038
r_ii 0.99992221709356021719
theta 0.0051225035190436366689
