time_index	left_time_boundary	right_time_boundary	lambda
0	0	8.58824e-05	344.975
1	8.58824e-05	0.000203397	344.975
2	0.000203397	0.000364193	524.544
3	0.000364193	0.000584213	281.032
4	0.000584213	0.00088527	384.843
5	0.00088527	0.00129721	431.947
6	0.00129721	0.00186087	409.842
7	0.00186087	0.00263214	403.795
8	0.00263214	0.00368748	454.442
9	0.00368748	0.00513152	411.191
10	0.00513152	0.00710742	340.962
11	0.00710742	0.00981107	422.073
12	0.00981107	0.0135105	553.67
13	0.0135105	0.0185725	127.724
14	0.0185725	0.0254989	127.724
15	0.0254989	inf	127.724
