time_index	left_time_boundary	right_time_boundary	lambda
0	0	1.61742e-06	8274.49
1	1.61742e-06	3.74797e-06	8274.49
2	3.74797e-06	6.55442e-06	4266.57
3	6.55442e-06	1.02512e-05	5857.55
4	1.02512e-05	1.51208e-05	1575.99
5	1.51208e-05	2.15353e-05	498.737
6	2.15353e-05	2.99848e-05	835.492
7	2.99848e-05	4.11148e-05	588.7
8	4.11148e-05	5.57759e-05	298.422
9	5.57759e-05	7.50881e-05	334.869
10	7.50881e-05	0.000100527	457.805
11	0.000100527	0.000134037	500.316
12	0.000134037	0.000178177	321.411
13	0.000178177	0.000236321	333.333
14	0.000236321	0.000312911	438.435
15	0.000312911	0.000413799	408.923
16	0.000413799	0.000546693	341.493
17	0.000546693	0.000721748	317.71
18	0.000721748	0.00095234	348.227
19	0.00095234	0.00125609	381.399
20	0.00125609	0.00165619	395.047
21	0.00165619	0.00218324	419.967
22	0.00218324	0.00287748	433.759
23	0.00287748	0.00379198	422.943
24	0.00379198	0.0049966	402.332
25	0.0049966	0.00658338	397.899
26	0.00658338	0.00867356	391.201
27	0.00867356	0.0114269	502.955
28	0.0114269	0.0150536	502.955
29	0.0150536	0.019831	64924.5
30	0.019831	0.026124	64924.5
31	0.026124	inf	64924.5
