0.000579463	-12512747.99	0,1.61742e-06,3.74797e-06,6.55442e-06,1.02512e-05,1.51208e-05,2.15353e-05,2.99848e-05,4.11148e-05,5.57759e-05,7.50881e-05,0.000100527,0.000134037,0.000178177,0.000236321,0.000312911,0.000413799,0.000546693,0.000721748,0.00095234,0.00125609,0.00165619,0.00218324,0.00287748,0.00379198,0.0049966,0.00658338,0.00867356,0.0114269,0.0150536,0.019831,0.026124,inf	5742.34,5742.34,3244.65,2491.39,1531.98,893.043,655.962,533.013,453.77,424.298,416.778,412.15,391.548,385.776,387.656,383.735,377.738,378.641,386.524,397.178,407.521,417.502,424.597,426.364,425.326,427.203,430.47,445.441,445.441,509.453,509.453,509.453
0.000588328	-12512167.95	0,1.61742e-06,3.74797e-06,6.55442e-06,1.02512e-05,1.51208e-05,2.15353e-05,2.99848e-05,4.11148e-05,5.57759e-05,7.50881e-05,0.000100527,0.000134037,0.000178177,0.000236321,0.000312911,0.000413799,0.000546693,0.000721748,0.00095234,0.00125609,0.00165619,0.00218324,0.00287748,0.00379198,0.0049966,0.00658338,0.00867356,0.0114269,0.0150536,0.019831,0.026124,inf	8595.22,8595.22,4755.06,3722.65,1919.46,964.914,693.877,543.398,442.916,417.402,420.02,420.053,384.104,376.259,381.983,374.129,360.612,359.352,370.308,385.703,400.057,414,423.421,423.903,420.017,422.087,427.07,455.343,455.343,617.245,617.245,617.245
0.000597212	-12512072.12	0,1.61742e-06,3.74797e-06,6.55442e-06,1.02512e-05,1.51208e-05,2.15353e-05,2.99848e-05,4.11148e-05,5.57759e-05,7.50881e-05,0.000100527,0.000134037,0.000178177,0.000236321,0.000312911,0.000413799,0.000546693,0.000721748,0.00095234,0.00125609,0.00165619,0.00218324,0.00287748,0.00379198,0.0049966,0.00658338,0.00867356,0.0114269,0.0150536,0.019831,0.026124,inf	8986.93,8986.93,5153.93,4297.09,1988.1,931.528,689.718,535.84,426.52,409.92,425.242,432.117,382.737,374.816,386.011,375.069,354.345,350.615,363.463,381.826,398.219,414.312,424.8,423.418,416.493,418.227,424.104,464.915,464.915,805.673,805.673,805.673
0.000605476	-12512039.32	0,1.61742e-06,3.74797e-06,6.55442e-06,1.02512e-05,1.51208e-05,2.15353e-05,2.99848e-05,4.11148e-05,5.57759e-05,7.50881e-05,0.000100527,0.000134037,0.000178177,0.000236321,0.000312911,0.000413799,0.000546693,0.000721748,0.00095234,0.00125609,0.00165619,0.00218324,0.00287748,0.00379198,0.0049966,0.00658338,0.00867356,0.0114269,0.0150536,0.019831,0.026124,inf	8821.49,8821.49,5205.4,4649.06,1969.59,881.385,680.844,527.026,410.158,401.62,428.817,442.727,381.003,374.156,391.849,378.644,351.37,345.429,359.811,380.388,397.969,415.497,426.703,423.52,413.769,414.968,421.169,474.262,474.262,1271.16,1271.16,1271.16
0.000613008	-12512035.02	0,1.61742e-06,3.74797e-06,6.55442e-06,1.02512e-05,1.51208e-05,2.15353e-05,2.99848e-05,4.11148e-05,5.57759e-05,7.50881e-05,0.000100527,0.000134037,0.000178177,0.000236321,0.000312911,0.000413799,0.000546693,0.000721748,0.00095234,0.00125609,0.00165619,0.00218324,0.00287748,0.00379198,0.0049966,0.00658338,0.00867356,0.0114269,0.0150536,0.019831,0.026124,inf	8613.77,8613.77,5151.02,4923.21,1927.77,833.808,675.302,520.653,395.363,393.204,430.824,451.328,377.984,372.828,397.566,382.732,349.536,341.71,357.483,379.843,398.131,416.726,428.566,423.799,411.516,412.072,418.114,483.7,483.7,3912.84,3912.84,3912.84
0.000613008	-12512052.18	0,1.61742e-06,3.74797e-06,6.55442e-06,1.02512e-05,1.51208e-05,2.15353e-05,2.99848e-05,4.11148e-05,5.57759e-05,7.50881e-05,0.000100527,0.000134037,0.000178177,0.000236321,0.000312911,0.000413799,0.000546693,0.000721748,0.00095234,0.00125609,0.00165619,0.00218324,0.00287748,0.00379198,0.0049966,0.00658338,0.00867356,0.0114269,0.0150536,0.019831,0.026124,inf	8423.05,8423.05,5037.85,5142.19,1872.48,789.12,671.896,515.425,381.162,383.921,430.424,456.854,372.672,369.502,401.386,385.414,346.965,337.581,354.611,378.379,397.012,416.43,428.952,423.008,408.659,408.524,414.168,492.918,492.918,64923.7,64923.7,64923.7
0.000613008	-12512102.24	0,1.61742e-06,3.74797e-06,6.55442e-06,1.02512e-05,1.51208e-05,2.15353e-05,2.99848e-05,4.11148e-05,5.57759e-05,7.50881e-05,0.000100527,0.000134037,0.000178177,0.000236321,0.000312911,0.000413799,0.000546693,0.000721748,0.00095234,0.00125609,0.00165619,0.00218324,0.00287748,0.00379198,0.0049966,0.00658338,0.00867356,0.0114269,0.0150536,0.019831,0.026124,inf	8328.45,8328.45,4934.53,5302.99,1829.18,754.621,676.44,515.928,370.813,377.26,431.587,463.526,368.186,366.853,405.989,389.125,345.605,334.764,352.969,377.942,396.681,416.747,429.921,422.836,406.485,405.658,410.662,495.295,495.295,64923.7,64923.7,64923.7
0.000613008	-12512109.15	0,1.61742e-06,3.74797e-06,6.55442e-06,1.02512e-05,1.51208e-05,2.15353e-05,2.99848e-05,4.11148e-05,5.57759e-05,7.50881e-05,0.000100527,0.000134037,0.000178177,0.000236321,0.000312911,0.000413799,0.000546693,0.000721748,0.00095234,0.00125609,0.00165619,0.00218324,0.00287748,0.00379198,0.0049966,0.00658338,0.00867356,0.0114269,0.0150536,0.019831,0.026124,inf	8283.62,8283.62,4835.84,5416.87,1791.6,725.268,684.713,518.984,362.156,371.556,432.895,470.02,363.503,363.877,406.353,392.828,344.551,332.435,351.8,377.854,396.557,417.197,431.059,422.943,404.961,403.493,407.728,497.083,497.083,64923.7,64923.7,64923.7
0.000613008	-12512113.32	0,1.61742e-06,3.74797e-06,6.55442e-06,1.02512e-05,1.51208e-05,2.15353e-05,2.99848e-05,4.11148e-05,5.57759e-05,7.50881e-05,0.000100527,0.000134037,0.000178177,0.000236321,0.000312911,0.000413799,0.000546693,0.000721748,0.00095234,0.00125609,0.00165619,0.00218324,0.00287748,0.00379198,0.0049966,0.00658338,0.00867356,0.0114269,0.0150536,0.019831,0.026124,inf	8274.19,8274.19,4747.52,5492.14,1759.85,699.762,695.748,523.939,354.865,366.822,434.729,476.994,359.27,361.262,410.891,393.612,343.841,330.493,350.942,377.936,396.463,417.605,431.678,422.943,403.878,401.843,405.261,497.083,497.083,64924.5,64924.5,64924.5
0.000613008	-12512113.86	0,1.61742e-06,3.74797e-06,6.55442e-06,1.02512e-05,1.51208e-05,2.15353e-05,2.99848e-05,4.11148e-05,5.57759e-05,7.50881e-05,0.000100527,0.000134037,0.000178177,0.000236321,0.000312911,0.000413799,0.000546693,0.000721748,0.00095234,0.00125609,0.00165619,0.00218324,0.00287748,0.00379198,0.0049966,0.00658338,0.00867356,0.0114269,0.0150536,0.019831,0.026124,inf	8274.19,8274.19,4670.28,5550.83,1732.68,676.741,707.991,529.627,348.14,362.358,436.386,483.733,354.961,358.494,415.382,393.982,343.37,328.841,350.317,378.144,396.401,418.002,432.036,422.943,403.169,400.64,403.174,498.2,498.2,64924.5,64924.5,64924.5
0.000613008	-12512116.88	0,1.61742e-06,3.74797e-06,6.55442e-06,1.02512e-05,1.51208e-05,2.15353e-05,2.99848e-05,4.11148e-05,5.57759e-05,7.50881e-05,0.000100527,0.000134037,0.000178177,0.000236321,0.000312911,0.000413799,0.000546693,0.000721748,0.00095234,0.00125609,0.00165619,0.00218324,0.00287748,0.00379198,0.0049966,0.00658338,0.00867356,0.0114269,0.0150536,0.019831,0.026124,inf	8274.22,8274.22,4602.75,5602.14,1709.04,655.357,720.86,535.65,341.776,358.057,437.816,483.928,350.554,355.607,419.864,396.252,343.1,327.412,349.854,378.144,396.342,418.374,432.354,422.943,402.72,399.745,401.354,499.096,499.096,64924.5,64924.5,64924.5
0.000613008	-12512119.12	0,1.61742e-06,3.74797e-06,6.55442e-06,1.02512e-05,1.51208e-05,2.15353e-05,2.99848e-05,4.11148e-05,5.57759e-05,7.50881e-05,0.000100527,0.000134037,0.000178177,0.000236321,0.000312911,0.000413799,0.000546693,0.000721748,0.00095234,0.00125609,0.00165619,0.00218324,0.00287748,0.00379198,0.0049966,0.00658338,0.00867356,0.0114269,0.0150536,0.019831,0.026124,inf	8274.28,8274.28,4544.06,5646.76,1688.76,635.614,734.72,542.464,336.248,354.578,440.013,487.651,346.473,352.724,424.066,396.509,342.787,326.062,349.487,378.481,396.286,418.724,432.495,422.943,402.462,399.087,399.749,499.835,499.835,64924.5,64924.5,64924.5
0.000613008	-12512120.64	0,1.61742e-06,3.74797e-06,6.55442e-06,1.02512e-05,1.51208e-05,2.15353e-05,2.99848e-05,4.11148e-05,5.57759e-05,7.50881e-05,0.000100527,0.000134037,0.000178177,0.000236321,0.000312911,0.000413799,0.000546693,0.000721748,0.00095234,0.00125609,0.00165619,0.00218324,0.00287748,0.00379198,0.0049966,0.00658338,0.00867356,0.0114269,0.0150536,0.019831,0.026124,inf	8274.28,8274.28,4491.8,5686.46,1670.01,616.552,748.285,549.119,330.852,351.271,442.256,490.958,342.508,349.879,424.066,399.883,342.602,324.854,349.215,378.847,396.206,419.045,432.567,422.943,402.345,398.614,398.316,500.444,500.444,64924.5,64924.5,64924.5
0.000613008	-12512121.70	0,1.61742e-06,3.74797e-06,6.55442e-06,1.02512e-05,1.51208e-05,2.15353e-05,2.99848e-05,4.11148e-05,5.57759e-05,7.50881e-05,0.000100527,0.000134037,0.000178177,0.000236321,0.000312911,0.000413799,0.000546693,0.000721748,0.00095234,0.00125609,0.00165619,0.00218324,0.00287748,0.00379198,0.0049966,0.00658338,0.00867356,0.0114269,0.0150536,0.019831,0.026124,inf	8274.32,8274.32,4445.5,5721.64,1652.87,598.149,761.639,555.695,325.699,348.232,444.744,493.537,338.84,347.216,424.066,403.023,342.397,323.679,348.967,379.203,396.102,419.329,432.674,422.943,402.332,398.287,397.024,500.951,500.951,64924.5,64924.5,64924.5
0.000613008	-12512122.27	0,1.61742e-06,3.74797e-06,6.55442e-06,1.02512e-05,1.51208e-05,2.15353e-05,2.99848e-05,4.11148e-05,5.57759e-05,7.50881e-05,0.000100527,0.000134037,0.000178177,0.000236321,0.000312911,0.000413799,0.000546693,0.000721748,0.00095234,0.00125609,0.00165619,0.00218324,0.00287748,0.00379198,0.0049966,0.00658338,0.00867356,0.0114269,0.0150536,0.019831,0.026124,inf	8274.35,8274.35,4404.64,5752.69,1637.16,580.269,774.795,562.146,320.748,345.46,447.51,495.447,335.48,344.725,427.894,403.023,342.168,322.533,348.74,379.549,395.967,419.572,432.823,422.943,402.332,398.071,395.848,501.39,501.39,64924.5,64924.5,64924.5
0.000613008	-12512122.57	0,1.61742e-06,3.74797e-06,6.55442e-06,1.02512e-05,1.51208e-05,2.15353e-05,2.99848e-05,4.11148e-05,5.57759e-05,7.50881e-05,0.000100527,0.000134037,0.000178177,0.000236321,0.000312911,0.000413799,0.000546693,0.000721748,0.00095234,0.00125609,0.00165619,0.00218324,0.00287748,0.00379198,0.0049966,0.00658338,0.00867356,0.0114269,0.0150536,0.019831,0.026124,inf	8274.4,8274.4,4368.44,5780.17,1622.53,562.855,787.41,568.296,315.878,342.813,450.358,497.177,332.243,342.28,427.894,405.848,342.046,321.5,348.589,379.919,395.817,419.78,432.924,422.943,402.332,397.947,394.769,501.774,501.774,64924.5,64924.5,64924.5
0.000613008	-12512122.84	0,1.61742e-06,3.74797e-06,6.55442e-06,1.02512e-05,1.51208e-05,2.15353e-05,2.99848e-05,4.11148e-05,5.57759e-05,7.50881e-05,0.000100527,0.000134037,0.000178177,0.000236321,0.000312911,0.000413799,0.000546693,0.000721748,0.00095234,0.00125609,0.00165619,0.00218324,0.00287748,0.00379198,0.0049966,0.00658338,0.00867356,0.0114269,0.0150536,0.019831,0.026124,inf	8274.4,8274.4,4336.84,5804.18,1608.96,545.978,799.663,574.25,311.147,340.36,450.507,497.177,329.25,339.97,432.071,406.482,341.901,320.488,348.452,380.28,395.643,419.954,433.062,422.943,402.332,397.899,393.775,502.112,502.112,64924.5,64924.5,64924.5
0.000613008	-12512122.99	0,1.61742e-06,3.74797e-06,6.55442e-06,1.02512e-05,1.51208e-05,2.15353e-05,2.99848e-05,4.11148e-05,5.57759e-05,7.50881e-05,0.000100527,0.000134037,0.000178177,0.000236321,0.000312911,0.000413799,0.000546693,0.000721748,0.00095234,0.00125609,0.00165619,0.00218324,0.00287748,0.00379198,0.0049966,0.00658338,0.00867356,0.0114269,0.0150536,0.019831,0.026124,inf	8274.42,8274.42,4309.69,5824.8,1597,529.795,812.026,579.427,306.822,338.409,454.171,497.359,326.471,337.693,435.424,406.482,341.722,319.5,348.326,380.636,395.447,419.967,433.335,422.943,402.332,397.899,392.854,502.414,502.414,64924.5,64924.5,64924.5
0.000613008	-12512122.95	0,1.61742e-06,3.74797e-06,6.55442e-06,1.02512e-05,1.51208e-05,2.15353e-05,2.99848e-05,4.11148e-05,5.57759e-05,7.50881e-05,0.000100527,0.000134037,0.000178177,0.000236321,0.000312911,0.000413799,0.000546693,0.000721748,0.00095234,0.00125609,0.00165619,0.00218324,0.00287748,0.00379198,0.0049966,0.00658338,0.00867356,0.0114269,0.0150536,0.019831,0.026124,inf	8274.48,8274.48,4286.33,5842.54,1585.92,513.993,823.876,584.384,302.518,336.513,454.197,500.316,323.839,335.455,435.424,408.923,341.631,318.605,348.276,381.021,395.253,419.967,433.537,422.943,402.332,397.899,391.997,502.694,502.694,64924.5,64924.5,64924.5
0.000613008	-12512123.03	0,1.61742e-06,3.74797e-06,6.55442e-06,1.02512e-05,1.51208e-05,2.15353e-05,2.99848e-05,4.11148e-05,5.57759e-05,7.50881e-05,0.000100527,0.000134037,0.000178177,0.000236321,0.000312911,0.000413799,0.000546693,0.000721748,0.00095234,0.00125609,0.00165619,0.00218324,0.00287748,0.00379198,0.0049966,0.00658338,0.00867356,0.0114269,0.0150536,0.019831,0.026124,inf	8274.49,8274.49,4266.57,5857.55,1575.99,498.737,835.492,588.7,298.422,334.869,457.805,500.316,321.411,333.333,438.435,408.923,341.493,317.71,348.227,381.399,395.047,419.967,433.759,422.943,402.332,397.899,391.201,502.955,502.955,64924.5,64924.5,64924.5
