0.000251977	-6808132.33	0,7.45184e-07,1.72678e-06,3.01978e-06,4.72298e-06,6.96653e-06,9.92183e-06,1.38147e-05,1.89426e-05,2.56973e-05,3.45949e-05,4.63152e-05,6.17539e-05,8.20904e-05,0.000108879,0.000144165,0.000190647,0.000251875,0.000332527,0.000438765,0.000578708,0.000763048,0.00100587,0.00132572,0.00174705,0.00230205,0.00303312,0.00399611,0.00526462,0.00693556,0.0091366,0.0120359,inf	2.07286,2.07286,4.60747,7.88568,12.4983,18.5137,25.631,33.6497,43.7187,59.7789,89.0928,140.689,161.315,148.878,171.831,222.563,300.318,412.675,568.848,771.398,1018.56,1293.86,1495.43,1493.19,1388.58,1286.68,1208.4,1145.11,1145.11,1118.4,1118.4,1118.4
0.000248715	-6791620.18	0,7.45184e-07,1.72678e-06,3.01978e-06,4.72298e-06,6.96653e-06,9.92183e-06,1.38147e-05,1.89426e-05,2.56973e-05,3.45949e-05,4.63152e-05,6.17539e-05,8.20904e-05,0.000108879,0.000144165,0.000190647,0.000251875,0.000332527,0.000438765,0.000578708,0.000763048,0.00100587,0.00132572,0.00174705,0.00230205,0.00303312,0.00399611,0.00526462,0.00693556,0.0091366,0.0120359,inf	0.946085,0.946085,0.946074,0.946075,0.946084,0.946077,0.953149,1.55276,2.43678,4.47111,9.83378,30.6034,64.3844,32.6548,41.8994,71.0415,128.044,230.767,398.836,642.119,976.539,1433.26,1905.57,2017.4,1860.42,1663.16,1499.63,1366,1366,1347.34,1347.34,1347.34
0.000245382	-6785978.35	0,7.45184e-07,1.72678e-06,3.01978e-06,4.72298e-06,6.96653e-06,9.92183e-06,1.38147e-05,1.89426e-05,2.56973e-05,3.45949e-05,4.63152e-05,6.17539e-05,8.20904e-05,0.000108879,0.000144165,0.000190647,0.000251875,0.000332527,0.000438765,0.000578708,0.000763048,0.00100587,0.00132572,0.00174705,0.00230205,0.00303312,0.00399611,0.00526462,0.00693556,0.0091366,0.0120359,inf	0.946085,0.946085,0.946072,0.946073,0.946072,0.946071,0.946071,0.946071,0.946071,0.946071,1.08806,6.81649,43.4449,8.56484,12.0313,26.6637,63.8269,147.704,306.519,553.46,915.19,1470.02,2191.75,2493.35,2349.63,2077.22,1822.8,1606.81,1606.81,1680.82,1680.82,1680.82
0.00024081	-6783577.59	0,7.45184e-07,1.72678e-06,3.01978e-06,4.72298e-06,6.96653e-06,9.92183e-06,1.38147e-05,1.89426e-05,2.56973e-05,3.45949e-05,4.63152e-05,6.17539e-05,8.20904e-05,0.000108879,0.000144165,0.000190647,0.000251875,0.000332527,0.000438765,0.000578708,0.000763048,0.00100587,0.00132572,0.00174705,0.00230205,0.00303312,0.00399611,0.00526462,0.00693556,0.0091366,0.0120359,inf	0.946085,0.946085,0.946072,0.946073,0.946072,0.946071,0.946071,0.946071,0.946071,0.946071,0.946071,1.56723,38.3948,2.59418,3.92354,11.2849,35.6803,104.49,252.784,493.499,858.764,1462.34,2394.38,2933.41,2870.13,2550.61,2188.31,1857.25,1857.25,2252.66,2252.66,2252.66
0.000235014	-6782378.47	0,7.45184e-07,1.72678e-06,3.01978e-06,4.72298e-06,6.96653e-06,9.92183e-06,1.38147e-05,1.89426e-05,2.56973e-05,3.45949e-05,4.63152e-05,6.17539e-05,8.20904e-05,0.000108879,0.000144165,0.000190647,0.000251875,0.000332527,0.000438765,0.000578708,0.000763048,0.00100587,0.00132572,0.00174705,0.00230205,0.00303312,0.00399611,0.00526462,0.00693556,0.0091366,0.0120359,inf	0.946073,0.946073,0.946072,0.946073,0.946071,0.946071,0.946071,0.946071,0.946071,0.946071,0.946071,0.946071,37.4959,0.946072,1.39941,5.2092,21.6921,79.6876,220.224,452.808,811.348,1435.5,2542,3357.9,3452.59,3127.11,2605.84,2079.07,2079.07,3716.18,3716.18,3716.18
0.000228195	-6781690.04	0,7.45184e-07,1.72678e-06,3.01978e-06,4.72298e-06,6.96653e-06,9.92183e-06,1.38147e-05,1.89426e-05,2.56973e-05,3.45949e-05,4.63152e-05,6.17539e-05,8.20904e-05,0.000108879,0.000144165,0.000190647,0.000251875,0.000332527,0.000438765,0.000578708,0.000763048,0.00100587,0.00132572,0.00174705,0.00230205,0.00303312,0.00399611,0.00526462,0.00693556,0.0091366,0.0120359,inf	0.946071,0.946071,0.946072,0.946073,0.946071,0.946071,0.946071,0.946071,0.946071,0.946071,0.946071,0.946071,37.8643,0.946071,0.946071,2.54763,13.9711,64.1552,200.08,425.251,772.343,1400.51,2651.96,3788.63,4150.83,3897.05,3073.4,2189.1,2189.1,15958.7,15958.7,15958.7
0.000220536	-6781240.78	0,7.45184e-07,1.72678e-06,3.01978e-06,4.72298e-06,6.96653e-06,9.92183e-06,1.38147e-05,1.89426e-05,2.56973e-05,3.45949e-05,4.63152e-05,6.17539e-05,8.20904e-05,0.000108879,0.000144165,0.000190647,0.000251875,0.000332527,0.000438765,0.000578708,0.000763048,0.00100587,0.00132572,0.00174705,0.00230205,0.00303312,0.00399611,0.00526462,0.00693556,0.0091366,0.0120359,inf	0.946071,0.946071,0.946072,0.946073,0.946071,0.946071,0.946071,0.946071,0.946071,0.946071,0.946071,0.946071,38.6261,0.946071,0.946071,1.28772,9.32117,53.5512,187.522,406.892,740.292,1362.3,2734.59,4250.03,5069,5092.44,3552.28,2097.87,2097.87,138194,138194,138194
