LogLikelihood = -171070.99730480468133

y0 0.73284040048446974502
y0_prime 0
y1 1.0992939111146209363
y1_prime 0
y2 0.99705036642159949878
y2_prime 0
y3 1.8858067829385332104
y3_prime 0
rho 0.00061064163979982681672
theta 0.0025228042501925732749
