LogLikelihood = -277544.52962410502369

y0 3.4127488506667782156e-07
y0_prime 0
y1 1.0022550728361685479
y1_prime 0
y2 1.5444892266552558979
y2_prime 0
y3 1.8020036665267755716
y3_prime 0
rho 0.0026230745918369700355
rho.alpha 0.84579664152383293718
r_ii 0.99999999830453023542
theta 0.0043271711865966308239
