0.000555559	-8398062.70	0,2.67013e-06,6.13559e-06,1.06333e-05,1.64707e-05,2.40469e-05,3.38798e-05,4.66416e-05,6.32046e-05,8.47012e-05,0.000112601,0.000148811,0.000195807,0.000256801,0.000335964,0.000438706,0.000572051,0.000745116,0.000969731,0.00126125,0.0016396,0.00213066,0.00276798,0.00359513,0.00466867,0.00606197,0.0078703,0.0102173,0.0132633,0.0172167,0.0223476,0.0290068,inf	26.4203,26.4203,101.364,207.249,270.657,285.218,294.638,335.704,342.659,360.478,381.872,382.57,377.73,375.327,381.141,385.947,393.384,398.223,401.059,404.222,409.435,413.361,413.058,409.87,407.765,409.506,411.508,392.121,392.121,347.884,347.884,347.884
0.000491468	-8395411.84	0,2.67013e-06,6.13559e-06,1.06333e-05,1.64707e-05,2.40469e-05,3.38798e-05,4.66416e-05,6.32046e-05,8.47012e-05,0.000112601,0.000148811,0.000195807,0.000256801,0.000335964,0.000438706,0.000572051,0.000745116,0.000969731,0.00126125,0.0016396,0.00213066,0.00276798,0.00359513,0.00466867,0.00606197,0.0078703,0.0102173,0.0132633,0.0172167,0.0223476,0.0290068,inf	2.04369,2.04369,34.9266,154.273,254.773,267.014,262.13,328.609,328.918,351.044,388.901,387.654,373.759,363.54,371.594,376.891,389.098,396.594,400.239,404.896,414.777,423.344,423.65,417.671,414.215,420.29,427.477,384.442,384.442,306.421,306.421,306.421
0.000435651	-8393158.50	0,2.67013e-06,6.13559e-06,1.06333e-05,1.64707e-05,2.40469e-05,3.38798e-05,4.66416e-05,6.32046e-05,8.47012e-05,0.000112601,0.000148811,0.000195807,0.000256801,0.000335964,0.000438706,0.000572051,0.000745116,0.000969731,0.00126125,0.0016396,0.00213066,0.00276798,0.00359513,0.00466867,0.00606197,0.0078703,0.0102173,0.0132633,0.0172167,0.0223476,0.0290068,inf	0.39842,0.39842,12.9195,127.734,267.097,275.358,248.34,338.795,328.66,349.422,403.812,402.181,378.446,357.727,366.907,370.292,386.083,395.225,398.37,403.103,416.828,430.298,431.744,422.912,418.259,431.083,447.577,375.293,375.293,272.187,272.187,272.187
0.000387988	-8391295.95	0,2.67013e-06,6.13559e-06,1.06333e-05,1.64707e-05,2.40469e-05,3.38798e-05,4.66416e-05,6.32046e-05,8.47012e-05,0.000112601,0.000148811,0.000195807,0.000256801,0.000335964,0.000438706,0.000572051,0.000745116,0.000969731,0.00126125,0.0016396,0.00213066,0.00276798,0.00359513,0.00466867,0.00606197,0.0078703,0.0102173,0.0132633,0.0172167,0.0223476,0.0290068,inf	0.398414,0.398414,4.71223,107.213,287.471,293.13,239.666,354.775,333.245,348.831,420.369,421.282,388.23,355.366,365.469,365.381,384.205,394.666,396.526,400.219,416.864,435.268,438.224,426.223,420.021,441.724,473.066,364.399,364.399,243.506,243.506,243.506
0.000348004	-8389816.44	0,2.67013e-06,6.13559e-06,1.06333e-05,1.64707e-05,2.40469e-05,3.38798e-05,4.66416e-05,6.32046e-05,8.47012e-05,0.000112601,0.000148811,0.000195807,0.000256801,0.000335964,0.000438706,0.000572051,0.000745116,0.000969731,0.00126125,0.0016396,0.00213066,0.00276798,0.00359513,0.00466867,0.00606197,0.0078703,0.0102173,0.0132633,0.0172167,0.0223476,0.0290068,inf	0.398412,0.398412,1.65119,88.5404,309.121,314.823,232.098,372.466,339.876,347.069,435.731,442.4,401.189,355.077,366.264,361.585,383.123,394.963,395.127,396.965,415.579,438.818,443.596,428.015,419.516,451.708,505.364,351.55,351.55,218.94,218.94,218.94
0.000315013	-8388694.93	0,2.67013e-06,6.13559e-06,1.06333e-05,1.64707e-05,2.40469e-05,3.38798e-05,4.66416e-05,6.32046e-05,8.47012e-05,0.000112601,0.000148811,0.000195807,0.000256801,0.000335964,0.000438706,0.000572051,0.000745116,0.000969731,0.00126125,0.0016396,0.00213066,0.00276798,0.00359513,0.00466867,0.00606197,0.0078703,0.0102173,0.0132633,0.0172167,0.0223476,0.0290068,inf	0.398412,0.398412,0.555895,71.5016,329.92,338.919,224.864,390.949,348.222,344.205,449.26,464.602,416.586,356.404,368.97,358.805,382.734,396.161,394.422,393.828,413.44,441.324,448.215,428.663,416.838,460.328,546.208,336.784,336.784,197.286,197.286,197.286
0.000288166	-8387891.14	0,2.67013e-06,6.13559e-06,1.06333e-05,1.64707e-05,2.40469e-05,3.38798e-05,4.66416e-05,6.32046e-05,8.47012e-05,0.000112601,0.000148811,0.000195807,0.000256801,0.000335964,0.000438706,0.000572051,0.000745116,0.000969731,0.00126125,0.0016396,0.00213066,0.00276798,0.00359513,0.00466867,0.00606197,0.0078703,0.0102173,0.0132633,0.0172167,0.0223476,0.0290068,inf	0.398412,0.398412,0.398419,56.2032,347.192,363.062,216.74,407.964,356.712,339.193,459.008,485.451,432.406,357.957,372.398,356.243,382.311,397.7,394.135,390.87,410.606,442.919,452.222,428.446,412.166,466.708,597.613,320.364,320.364,177.456,177.456,177.456
0.0002666	-8387355.87	0,2.67013e-06,6.13559e-06,1.06333e-05,1.64707e-05,2.40469e-05,3.38798e-05,4.66416e-05,6.32046e-05,8.47012e-05,0.000112601,0.000148811,0.000195807,0.000256801,0.000335964,0.000438706,0.000572051,0.000745116,0.000969731,0.00126125,0.0016396,0.00213066,0.00276798,0.00359513,0.00466867,0.00606197,0.0078703,0.0102173,0.0132633,0.0172167,0.0223476,0.0290068,inf	0.398412,0.398412,0.398419,43.1556,360.907,387.067,208.033,423.607,365.615,332.799,465.374,504.577,448.193,359.518,376.369,353.894,381.795,399.486,394.262,388.291,407.342,443.817,455.787,427.709,405.891,470.067,662.012,302.825,302.825,158.417,158.417,158.417
0.000249449	-8387040.04	0,2.67013e-06,6.13559e-06,1.06333e-05,1.64707e-05,2.40469e-05,3.38798e-05,4.66416e-05,6.32046e-05,8.47012e-05,0.000112601,0.000148811,0.000195807,0.000256801,0.000335964,0.000438706,0.000572051,0.000745116,0.000969731,0.00126125,0.0016396,0.00213066,0.00276798,0.00359513,0.00466867,0.00606197,0.0078703,0.0102173,0.0132633,0.0172167,0.0223476,0.0290068,inf	0.398412,0.398412,0.398419,32.4761,370.931,410.54,198.853,437.696,374.934,325.504,468.734,521.61,463.42,360.815,380.643,351.702,381.116,401.375,394.711,386.171,403.829,444.175,459.014,426.759,398.493,469.795,742.12,284.86,284.86,139.013,139.013,139.013
0.0002359	-8386901.12	0,2.67013e-06,6.13559e-06,1.06333e-05,1.64707e-05,2.40469e-05,3.38798e-05,4.66416e-05,6.32046e-05,8.47012e-05,0.000112601,0.000148811,0.000195807,0.000256801,0.000335964,0.000438706,0.000572051,0.000745116,0.000969731,0.00126125,0.0016396,0.00213066,0.00276798,0.00359513,0.00466867,0.00606197,0.0078703,0.0102173,0.0132633,0.0172167,0.0223476,0.0290068,inf	0.398412,0.398412,0.398419,24.0157,377.388,433.188,189.306,450.109,384.598,317.706,469.576,536.368,477.689,361.642,385.023,349.617,380.231,403.236,395.366,384.525,400.209,444.119,461.955,425.851,390.472,465.588,840.732,267.35,267.35,117.798,117.798,117.798
0.000225214	-8386908.02	0,2.67013e-06,6.13559e-06,1.06333e-05,1.64707e-05,2.40469e-05,3.38798e-05,4.66416e-05,6.32046e-05,8.47012e-05,0.000112601,0.000148811,0.000195807,0.000256801,0.000335964,0.000438706,0.000572051,0.000745116,0.000969731,0.00126125,0.0016396,0.00213066,0.00276798,0.00359513,0.00466867,0.00606197,0.0078703,0.0102173,0.0132633,0.0172167,0.0223476,0.0290068,inf	0.398412,0.398412,0.398419,17.5084,380.616,454.753,179.492,460.746,394.493,309.718,468.435,548.861,490.745,361.876,389.362,347.604,379.131,404.966,396.114,383.328,396.587,443.748,464.622,425.167,382.29,457.521,960.208,251.549,251.549,93.487,93.487,93.487
0.000216759	-8387043.24	0,2.67013e-06,6.13559e-06,1.06333e-05,1.64707e-05,2.40469e-05,3.38798e-05,4.66416e-05,6.32046e-05,8.47012e-05,0.000112601,0.000148811,0.000195807,0.000256801,0.000335964,0.000438706,0.000572051,0.000745116,0.000969731,0.00126125,0.0016396,0.00213066,0.00276798,0.00359513,0.00466867,0.00606197,0.0078703,0.0102173,0.0132633,0.0172167,0.0223476,0.0290068,inf	0.398412,0.398412,0.398419,12.613,381.076,475.189,169.563,469.641,404.561,301.784,465.856,559.259,502.503,361.485,393.573,345.653,377.846,406.506,396.868,382.534,393.042,443.142,467.006,424.832,374.336,446.055,1101.32,239.226,239.226,70.3261,70.3261,70.3261
0.000210055	-8387285.61	0,2.67013e-06,6.13559e-06,1.06333e-05,1.64707e-05,2.40469e-05,3.38798e-05,4.66416e-05,6.32046e-05,8.47012e-05,0.000112601,0.000148811,0.000195807,0.000256801,0.000335964,0.000438706,0.000572051,0.000745116,0.000969731,0.00126125,0.0016396,0.00213066,0.00276798,0.00359513,0.00466867,0.00606197,0.0078703,0.0102173,0.0132633,0.0172167,0.0223476,0.0290068,inf	0.398412,0.398412,0.398419,9.0142,379.305,494.561,159.661,476.875,414.77,294.118,462.397,567.93,513.076,360.544,397.66,343.797,376.452,407.861,397.586,382.12,389.657,442.392,469.105,424.92,366.913,431.949,1260.17,230.812,230.812,62.7461,62.7461,62.7461
0.000204803	-8387544.92	0,2.67013e-06,6.13559e-06,1.06333e-05,1.64707e-05,2.40469e-05,3.38798e-05,4.66416e-05,6.32046e-05,8.47012e-05,0.000112601,0.000148811,0.000195807,0.000256801,0.000335964,0.000438706,0.000572051,0.000745116,0.000969731,0.00126125,0.0016396,0.00213066,0.00276798,0.00359513,0.00466867,0.00606197,0.0078703,0.0102173,0.0132633,0.0172167,0.0223476,0.0290068,inf	0.398412,0.398412,0.398419,6.40123,375.819,513.004,149.926,482.614,425.143,286.885,458.566,575.346,522.727,359.211,401.689,342.093,375.045,409.078,398.272,382.077,386.516,441.612,470.948,425.46,360.217,416.079,1423.99,220.518,220.518,67.7754,67.7754,67.7754
0.000200763	-8387775.19	0,2.67013e-06,6.13559e-06,1.06333e-05,1.64707e-05,2.40469e-05,3.38798e-05,4.66416e-05,6.32046e-05,8.47012e-05,0.000112601,0.000148811,0.000195807,0.000256801,0.000335964,0.000438706,0.000572051,0.000745116,0.000969731,0.00126125,0.0016396,0.00213066,0.00276798,0.00359513,0.00466867,0.00606197,0.0078703,0.0102173,0.0132633,0.0172167,0.0223476,0.0290068,inf	0.398412,0.398412,0.398419,4.5211,371.04,530.555,140.44,486.936,435.563,280.083,454.576,581.706,531.525,357.525,405.648,340.549,373.684,410.186,398.914,382.371,383.662,440.887,472.574,426.477,354.435,399.462,1581.02,206.447,206.447,71.3009,71.3009,71.3009
0.000197675	-8388005.20	0,2.67013e-06,6.13559e-06,1.06333e-05,1.64707e-05,2.40469e-05,3.38798e-05,4.66416e-05,6.32046e-05,8.47012e-05,0.000112601,0.000148811,0.000195807,0.000256801,0.000335964,0.000438706,0.000572051,0.000745116,0.000969731,0.00126125,0.0016396,0.00213066,0.00276798,0.00359513,0.00466867,0.00606197,0.0078703,0.0102173,0.0132633,0.0172167,0.0223476,0.0290068,inf	0.398412,0.398412,0.398419,3.17838,365.266,547.23,131.246,489.878,445.889,273.671,450.504,587.045,539.421,355.469,409.476,339.129,372.377,411.174,399.471,382.923,381.079,440.233,473.961,427.937,349.69,382.934,1724.21,193.691,193.691,74.6693,74.6693,74.6693
0.000195343	-8388210.34	0,2.67013e-06,6.13559e-06,1.06333e-05,1.64707e-05,2.40469e-05,3.38798e-05,4.66416e-05,6.32046e-05,8.47012e-05,0.000112601,0.000148811,0.000195807,0.000256801,0.000335964,0.000438706,0.000572051,0.000745116,0.000969731,0.00126125,0.0016396,0.00213066,0.00276798,0.00359513,0.00466867,0.00606197,0.0078703,0.0102173,0.0132633,0.0172167,0.0223476,0.0290068,inf	0.398412,0.398412,0.398419,2.22866,359.077,563.556,122.509,492.005,456.429,267.848,446.824,591.979,546.899,353.334,413.436,338.023,371.345,412.249,400.075,383.777,378.804,439.698,475.126,429.785,346.015,367.013,1845.53,183.145,183.145,78.0613,78.0613,78.0613
0.00019359	-8388375.90	0,2.67013e-06,6.13559e-06,1.06333e-05,1.64707e-05,2.40469e-05,3.38798e-05,4.66416e-05,6.32046e-05,8.47012e-05,0.000112601,0.000148811,0.000195807,0.000256801,0.000335964,0.000438706,0.000572051,0.000745116,0.000969731,0.00126125,0.0016396,0.00213066,0.00276798,0.00359513,0.00466867,0.00606197,0.0078703,0.0102173,0.0132633,0.0172167,0.0223476,0.0290068,inf	0.398412,0.398412,0.398419,1.55691,352.1,578.644,114.067,492.615,466.385,262.155,442.892,595.685,553.197,350.654,416.977,336.819,370.208,413.052,400.429,384.683,376.701,439.198,475.961,431.847,343.34,351.992,1941.89,174.719,174.719,81.3007,81.3007,81.3007
0.000192293	-8388499.21	0,2.67013e-06,6.13559e-06,1.06333e-05,1.64707e-05,2.40469e-05,3.38798e-05,4.66416e-05,6.32046e-05,8.47012e-05,0.000112601,0.000148811,0.000195807,0.000256801,0.000335964,0.000438706,0.000572051,0.000745116,0.000969731,0.00126125,0.0016396,0.00213066,0.00276798,0.00359513,0.00466867,0.00606197,0.0078703,0.0102173,0.0132633,0.0172167,0.0223476,0.0290068,inf	0.398412,0.398412,0.398419,1.08881,344.799,593.054,106.058,492.274,476.079,256.785,439.112,598.712,558.766,347.699,420.334,335.669,369.13,413.74,400.647,385.683,374.806,438.785,476.499,434.045,341.611,338.037,2015.44,168.144,168.144,84.2957,84.2957,84.2957
0.000191348	-8388586.54	0,2.67013e-06,6.13559e-06,1.06333e-05,1.64707e-05,2.40469e-05,3.38798e-05,4.66416e-05,6.32046e-05,8.47012e-05,0.000112601,0.000148811,0.000195807,0.000256801,0.000335964,0.000438706,0.000572051,0.000745116,0.000969731,0.00126125,0.0016396,0.00213066,0.00276798,0.00359513,0.00466867,0.00606197,0.0078703,0.0102173,0.0132633,0.0172167,0.0223476,0.0290068,inf	0.398412,0.398412,0.398419,0.762748,337.374,606.893,98.4886,491.172,485.542,251.743,435.577,601.246,563.767,344.557,423.555,334.598,368.149,414.359,400.756,386.759,373.108,438.47,476.755,436.283,340.73,325.178,2070.9,163.057,163.057,87.0121,87.0121,87.0121
