LogLikelihood = -1318135.8561869047116

y0 0.59477669403279276317
y0_prime 0
y1 0.73464880263362231094
y1_prime 0
y2 0.87071180198006770112
y2_prime 0
y3 1.596946007050274563
y3_prime 0
rho 0.0014330804346906727675
theta 0.004326801730720692199
