LogLikelihood = -284842.67470795172267

y0 0.68118733687055854631
y0_prime 0
y1 0.83267922483831069425
y1_prime 0
y2 0.91008397026870713198
y2_prime 0
y3 1.8093000200020612489
y3_prime 0
rho 0.0015937216148617203322
theta 0.0047238486009648292252
