AIC = 3130943.7772778561339

y0 0.76601378255635277359
y0_prime 0
y1 1.015621365853397462
y1_prime 0
y2 1.0703390235954104437
y2_prime 0
y3 1.6445818967765006846
y3_prime 0
rho 0.0016247782438702949512
theta 0.0051556294940431433155
