0.000543625	-296359.13	0,9.09481e-05,0.000215394,0.000385674,0.000618672,0.000937486,0.00137372,0.00197064,0.0027874,0.00390499,0.0054342,0.00752665,0.0103898,0.0143074,0.019668,0.027003,inf	431.522,431.522,435.204,445.893,445.944,432.504,415.2,410.749,418.639,411.013,405.413,420.963,447.971,700.877,700.877,700.877
0.00047681	-296254.91	0,9.09481e-05,0.000215394,0.000385674,0.000618672,0.000937486,0.00137372,0.00197064,0.0027874,0.00390499,0.0054342,0.00752665,0.0103898,0.0143074,0.019668,0.027003,inf	444.059,444.059,437.768,460.015,463.336,443.639,414.178,408.228,428.64,413.601,404.123,437.626,489.045,1873.1,1873.1,1873.1
0.000419219	-296169.68	0,9.09481e-05,0.000215394,0.000385674,0.000618672,0.000937486,0.00137372,0.00197064,0.0027874,0.00390499,0.0054342,0.00752665,0.0103898,0.0143074,0.019668,0.027003,inf	461.547,461.547,434.534,466.534,470.561,448.032,409.351,402.239,437.56,414.239,403.241,458.138,536.034,45047.5,45047.5,45047.5
0.000419209	-296101.24	0,9.09481e-05,0.000215394,0.000385674,0.000618672,0.000937486,0.00137372,0.00197064,0.0027874,0.00390499,0.0054342,0.00752665,0.0103898,0.0143074,0.019668,0.027003,inf	506.45,506.45,450.482,495.118,496.31,470.817,419.496,407.868,461.114,424.165,412.241,494.448,607.56,56874.6,56874.6,56874.6
0.000419209	-296103.82	0,9.09481e-05,0.000215394,0.000385674,0.000618672,0.000937486,0.00137372,0.00197064,0.0027874,0.00390499,0.0054342,0.00752665,0.0103898,0.0143074,0.019668,0.027003,inf	506.45,506.45,449.129,496.108,496.31,470.817,419.496,405.936,462.526,424.165,412.241,494.448,607.56,56874.6,56874.6,56874.6
0.000419209	-296103.80	0,9.09481e-05,0.000215394,0.000385674,0.000618672,0.000937486,0.00137372,0.00197064,0.0027874,0.00390499,0.0054342,0.00752665,0.0103898,0.0143074,0.019668,0.027003,inf	506.45,506.45,448.002,496.931,496.31,470.817,419.496,404.236,463.769,424.165,412.241,494.448,607.56,56874.6,56874.6,56874.6
0.000419209	-296103.79	0,9.09481e-05,0.000215394,0.000385674,0.000618672,0.000937486,0.00137372,0.00197064,0.0027874,0.00390499,0.0054342,0.00752665,0.0103898,0.0143074,0.019668,0.027003,inf	506.45,506.45,447.066,497.615,496.31,470.817,419.496,402.738,464.863,424.165,412.241,494.448,607.56,56874.6,56874.6,56874.6
0.000419209	-296103.78	0,9.09481e-05,0.000215394,0.000385674,0.000618672,0.000937486,0.00137372,0.00197064,0.0027874,0.00390499,0.0054342,0.00752665,0.0103898,0.0143074,0.019668,0.027003,inf	506.45,506.45,446.285,498.186,496.31,470.817,419.496,401.442,464.87,424.853,412.241,494.448,607.56,56874.6,56874.6,56874.6
0.000419209	-296103.80	0,9.09481e-05,0.000215394,0.000385674,0.000618672,0.000937486,0.00137372,0.00197064,0.0027874,0.00390499,0.0054342,0.00752665,0.0103898,0.0143074,0.019668,0.027003,inf	506.45,506.45,445.638,498.66,496.31,470.817,419.496,400.388,465.621,424.853,412.241,494.455,607.56,56874.6,56874.6,56874.6
0.000419209	-296103.80	0,9.09481e-05,0.000215394,0.000385674,0.000618672,0.000937486,0.00137372,0.00197064,0.0027874,0.00390499,0.0054342,0.00752665,0.0103898,0.0143074,0.019668,0.027003,inf	506.45,506.45,445.096,499.055,496.31,470.817,419.496,399.461,466.299,424.853,412.241,494.455,607.56,56874.6,56874.6,56874.6
0.000419209	-296103.79	0,9.09481e-05,0.000215394,0.000385674,0.000618672,0.000937486,0.00137372,0.00197064,0.0027874,0.00390499,0.0054342,0.00752665,0.0103898,0.0143074,0.019668,0.027003,inf	506.45,506.45,444.643,499.387,496.31,470.817,419.496,398.642,466.897,424.853,412.241,494.455,607.56,56874.6,56874.6,56874.6
0.000419209	-296103.79	0,9.09481e-05,0.000215394,0.000385674,0.000618672,0.000937486,0.00137372,0.00197064,0.0027874,0.00390499,0.0054342,0.00752665,0.0103898,0.0143074,0.019668,0.027003,inf	506.45,506.45,444.262,499.665,496.31,470.817,419.496,397.917,467.427,424.853,412.241,494.455,607.56,56874.6,56874.6,56874.6
0.000419209	-296103.79	0,9.09481e-05,0.000215394,0.000385674,0.000618672,0.000937486,0.00137372,0.00197064,0.0027874,0.00390499,0.0054342,0.00752665,0.0103898,0.0143074,0.019668,0.027003,inf	506.45,506.45,443.948,499.895,496.31,470.817,419.496,397.293,467.427,425.187,412.241,494.455,607.56,56874.6,56874.6,56874.6
0.000419209	-296103.80	0,9.09481e-05,0.000215394,0.000385674,0.000618672,0.000937486,0.00137372,0.00197064,0.0027874,0.00390499,0.0054342,0.00752665,0.0103898,0.0143074,0.019668,0.027003,inf	506.45,506.45,443.682,499.895,496.452,470.817,419.496,396.779,467.802,425.187,412.241,494.455,607.56,56874.6,56874.6,56874.6
0.000419209	-296103.79	0,9.09481e-05,0.000215394,0.000385674,0.000618672,0.000937486,0.00137372,0.00197064,0.0027874,0.00390499,0.0054342,0.00752665,0.0103898,0.0143074,0.019668,0.027003,inf	506.45,506.45,443.495,500.032,496.452,470.817,419.496,396.335,467.802,425.187,412.415,494.455,607.56,56874.6,56874.6,56874.6
0.000419209	-296103.81	0,9.09481e-05,0.000215394,0.000385674,0.000618672,0.000937486,0.00137372,0.00197064,0.0027874,0.00390499,0.0054342,0.00752665,0.0103898,0.0143074,0.019668,0.027003,inf	506.45,506.45,443.338,500.147,496.452,470.817,419.496,395.981,468.061,425.187,412.415,494.455,607.56,56874.6,56874.6,56874.6
0.000419209	-296103.81	0,9.09481e-05,0.000215394,0.000385674,0.000618672,0.000937486,0.00137372,0.00197064,0.0027874,0.00390499,0.0054342,0.00752665,0.0103898,0.0143074,0.019668,0.027003,inf	506.45,506.45,443.208,500.243,496.452,470.817,419.496,395.668,468.29,425.187,412.415,494.455,607.56,56874.6,56874.6,56874.6
0.000419209	-296103.81	0,9.09481e-05,0.000215394,0.000385674,0.000618672,0.000937486,0.00137372,0.00197064,0.0027874,0.00390499,0.0054342,0.00752665,0.0103898,0.0143074,0.019668,0.027003,inf	506.45,506.45,443.097,500.323,496.452,470.817,419.496,395.397,468.29,425.331,412.415,494.455,607.56,56874.6,56874.6,56874.6
0.000419209	-296103.81	0,9.09481e-05,0.000215394,0.000385674,0.000618672,0.000937486,0.00137372,0.00197064,0.0027874,0.00390499,0.0054342,0.00752665,0.0103898,0.0143074,0.019668,0.027003,inf	506.45,506.45,443.004,500.392,496.452,470.817,419.496,395.179,468.449,425.331,412.415,494.455,607.56,56874.6,56874.6,56874.6
0.000419209	-296103.81	0,9.09481e-05,0.000215394,0.000385674,0.000618672,0.000937486,0.00137372,0.00197064,0.0027874,0.00390499,0.0054342,0.00752665,0.0103898,0.0143074,0.019668,0.027003,inf	506.45,506.45,442.925,500.45,496.452,470.817,419.496,394.986,468.59,425.331,412.415,494.455,607.56,56874.6,56874.6,56874.6
