0.0005413	-4537346.56	0,1.04675e-05,2.74251e-05,5.4897e-05,9.94023e-05,0.000171502,0.000288307,0.000477533,0.000784087,0.00128071,0.00208526,0.00338866,0.0055002,0.00892097,0.0144627,0.0234405,inf	237.111,237.111,350.148,276.95,354.487,352.409,392.027,398.031,404.512,397.377,390.248,379.276,363.972,473.384,473.384,473.384
0.000464927	-4535526.35	0,1.04675e-05,2.74251e-05,5.4897e-05,9.94023e-05,0.000171502,0.000288307,0.000477533,0.000784087,0.00128071,0.00208526,0.00338866,0.0055002,0.00892097,0.0144627,0.0234405,inf	206.875,206.875,395.358,229.806,361.719,329.001,392.663,396.992,409.842,399.262,389.732,371.487,339.481,572.781,572.781,572.781
0.000401655	-4534095.31	0,1.04675e-05,2.74251e-05,5.4897e-05,9.94023e-05,0.000171502,0.000288307,0.000477533,0.000784087,0.00128071,0.00208526,0.00338866,0.0055002,0.00892097,0.0144627,0.0234405,inf	197.253,197.253,459.41,203.903,389.485,314.608,395.642,393.392,411.205,399.296,390.06,367.719,318.852,704.22,704.22,704.22
0.00035007	-4533021.60	0,1.04675e-05,2.74251e-05,5.4897e-05,9.94023e-05,0.000171502,0.000288307,0.000477533,0.000784087,0.00128071,0.00208526,0.00338866,0.0055002,0.00892097,0.0144627,0.0234405,inf	193.537,193.537,524.22,186.333,426.946,305.568,401.255,389.338,410.062,397.926,389.693,365.666,300.865,886.877,886.877,886.877
0.000308852	-4532286.86	0,1.04675e-05,2.74251e-05,5.4897e-05,9.94023e-05,0.000171502,0.000288307,0.000477533,0.000784087,0.00128071,0.00208526,0.00338866,0.0055002,0.00892097,0.0144627,0.0234405,inf	192.141,192.141,582.426,172.224,466.493,299.05,408.493,385.63,407.391,395.92,388.159,363.943,284.773,1146.51,1146.51,1146.51
0.000276655	-4531850.76	0,1.04675e-05,2.74251e-05,5.4897e-05,9.94023e-05,0.000171502,0.000288307,0.000477533,0.000784087,0.00128071,0.00208526,0.00338866,0.0055002,0.00892097,0.0144627,0.0234405,inf	192.358,192.358,633.254,160.227,504.334,293.941,416.754,382.777,403.943,394.023,385.674,361.984,270.267,1479.33,1479.33,1479.33
0.000252047	-4531633.12	0,1.04675e-05,2.74251e-05,5.4897e-05,9.94023e-05,0.000171502,0.000288307,0.000477533,0.000784087,0.00128071,0.00208526,0.00338866,0.0055002,0.00892097,0.0144627,0.0234405,inf	193.478,193.478,676.774,149.741,538.153,289.544,425.29,380.847,400.149,392.637,382.659,359.839,257.637,1857.84,1857.84,1857.84
0.000233601	-4531550.45	0,1.04675e-05,2.74251e-05,5.4897e-05,9.94023e-05,0.000171502,0.000288307,0.000477533,0.000784087,0.00128071,0.00208526,0.00338866,0.0055002,0.00892097,0.0144627,0.0234405,inf	194.918,194.918,713.368,140.515,566.893,285.485,433.444,379.712,396.284,391.868,379.517,357.76,247.164,2348.75,2348.75,2348.75
0.000219984	-4531572.29	0,1.04675e-05,2.74251e-05,5.4897e-05,9.94023e-05,0.000171502,0.000288307,0.000477533,0.000784087,0.00128071,0.00208526,0.00338866,0.0055002,0.00892097,0.0144627,0.0234405,inf	196.31,196.31,743.437,132.42,590.342,281.593,440.74,379.166,392.534,391.651,376.523,355.858,238.419,2853.34,2853.34,2853.34
0.000210031	-4531627.17	0,1.04675e-05,2.74251e-05,5.4897e-05,9.94023e-05,0.000171502,0.000288307,0.000477533,0.000784087,0.00128071,0.00208526,0.00338866,0.0055002,0.00892097,0.0144627,0.0234405,inf	197.443,197.443,767.794,125.394,609.039,277.881,446.984,379.046,389.052,391.848,373.841,354.279,231.369,3232.72,3232.72,3232.72
0.00020284	-4531667.70	0,1.04675e-05,2.74251e-05,5.4897e-05,9.94023e-05,0.000171502,0.000288307,0.000477533,0.000784087,0.00128071,0.00208526,0.00338866,0.0055002,0.00892097,0.0144627,0.0234405,inf	198.34,198.34,787.301,119.362,623.785,274.418,452.173,379.228,385.945,392.323,371.57,353.096,225.92,3843.22,3843.22,3843.22
0.00019771	-4531740.73	0,1.04675e-05,2.74251e-05,5.4897e-05,9.94023e-05,0.000171502,0.000288307,0.000477533,0.000784087,0.00128071,0.00208526,0.00338866,0.0055002,0.00892097,0.0144627,0.0234405,inf	198.947,198.947,802.582,114.205,635.147,271.205,456.313,379.561,383.213,392.922,369.772,352.132,221.187,6634.29,6634.29,6634.29
0.000194115	-4531949.60	0,1.04675e-05,2.74251e-05,5.4897e-05,9.94023e-05,0.000171502,0.000288307,0.000477533,0.000784087,0.00128071,0.00208526,0.00338866,0.0055002,0.00892097,0.0144627,0.0234405,inf	199.31,199.31,814.187,109.804,643.581,268.257,459.513,379.992,380.897,393.613,368.385,351.031,215.534,12893.9,12893.9,12893.9
0.000194105	-4532080.66	0,1.04675e-05,2.74251e-05,5.4897e-05,9.94023e-05,0.000171502,0.000288307,0.000477533,0.000784087,0.00128071,0.00208526,0.00338866,0.0055002,0.00892097,0.0144627,0.0234405,inf	199.889,199.889,825.125,106.306,651.949,266.314,463.681,381.951,380.441,395.911,368.715,351.38,210.064,49829.1,49829.1,49829.1
0.000194104	-4532143.77	0,1.04675e-05,2.74251e-05,5.4897e-05,9.94023e-05,0.000171502,0.000288307,0.000477533,0.000784087,0.00128071,0.00208526,0.00338866,0.0055002,0.00892097,0.0144627,0.0234405,inf	199.554,199.554,825.163,102.973,654.096,263.737,463.681,382.631,379.418,396.651,368.561,351.475,204.621,49830.4,49830.4,49830.4
0.000194104	-4532145.16	0,1.04675e-05,2.74251e-05,5.4897e-05,9.94023e-05,0.000171502,0.000288307,0.000477533,0.000784087,0.00128071,0.00208526,0.00338866,0.0055002,0.00892097,0.0144627,0.0234405,inf	199.453,199.453,825.245,100.409,655.679,261.854,463.681,382.635,378.633,397.407,368.412,351.475,200.408,49831.4,49831.4,49831.4
0.000194104	-4532146.79	0,1.04675e-05,2.74251e-05,5.4897e-05,9.94023e-05,0.000171502,0.000288307,0.000477533,0.000784087,0.00128071,0.00208526,0.00338866,0.0055002,0.00892097,0.0144627,0.0234405,inf	199.453,199.453,825.247,98.4225,656.905,260.51,464.511,382.635,378.081,397.407,368.293,351.475,197.125,49832.2,49832.2,49832.2
0.000194104	-4532148.49	0,1.04675e-05,2.74251e-05,5.4897e-05,9.94023e-05,0.000171502,0.000288307,0.000477533,0.000784087,0.00128071,0.00208526,0.00338866,0.0055002,0.00892097,0.0144627,0.0234405,inf	199.453,199.453,825.248,96.8804,657.857,259.406,465.193,382.635,377.79,397.407,368.253,351.475,194.549,49832.8,49832.8,49832.8
0.000194104	-4532149.89	0,1.04675e-05,2.74251e-05,5.4897e-05,9.94023e-05,0.000171502,0.000288307,0.000477533,0.000784087,0.00128071,0.00208526,0.00338866,0.0055002,0.00892097,0.0144627,0.0234405,inf	199.453,199.453,825.25,95.6793,658.598,258.505,465.193,382.978,377.643,397.498,368.243,351.481,192.517,49833.3,49833.3,49833.3
0.000194104	-4532150.99	0,1.04675e-05,2.74251e-05,5.4897e-05,9.94023e-05,0.000171502,0.000288307,0.000477533,0.000784087,0.00128071,0.00208526,0.00338866,0.0055002,0.00892097,0.0144627,0.0234405,inf	199.453,199.453,825.251,94.7478,658.598,257.838,465.823,382.978,377.518,397.575,368.235,351.481,190.907,49833.6,49833.6,49833.6
