0.000559385	-4537272.02	0,4.60553e-06,1.04675e-05,1.79286e-05,2.74251e-05,3.95123e-05,5.4897e-05,7.44787e-05,9.94023e-05,0.000131125,0.000171502,0.000222895,0.000288307,0.000371564,0.000477533,0.000612412,0.000784087,0.00100259,0.00128071,0.0016347,0.00208526,0.00265874,0.00338866,0.00431771,0.0055002,0.00700529,0.00892097,0.0113593,0.0144627,0.0184128,0.0234405,0.0298398,inf	60.1695,60.1695,315.376,247.829,338.364,338.624,277.29,299.712,361.1,353.886,347.649,363.457,384.7,396.871,400.176,403.601,408.211,410.646,408.674,403.894,401.498,400.758,399.131,395.071,389.871,392.846,407.679,444.374,444.374,599.067,599.067,599.067
0.000494004	-4535745.54	0,4.60553e-06,1.04675e-05,1.79286e-05,2.74251e-05,3.95123e-05,5.4897e-05,7.44787e-05,9.94023e-05,0.000131125,0.000171502,0.000222895,0.000288307,0.000371564,0.000477533,0.000612412,0.000784087,0.00100259,0.00128071,0.0016347,0.00208526,0.00265874,0.00338866,0.00431771,0.0055002,0.00700529,0.00892097,0.0113593,0.0144627,0.0184128,0.0234405,0.0298398,inf	11.245,11.245,342.57,198.916,365.194,369.984,236.028,256.915,370.587,349.507,322.767,343.789,378.167,397.779,400.224,404.449,413.156,418.94,416.438,407.847,404.372,404.518,402.661,395.176,384.496,389.759,420.008,500.03,500.03,1232.92,1232.92,1232.92
0.00043721	-4534457.19	0,4.60553e-06,1.04675e-05,1.79286e-05,2.74251e-05,3.95123e-05,5.4897e-05,7.44787e-05,9.94023e-05,0.000131125,0.000171502,0.000222895,0.000288307,0.000371564,0.000477533,0.000612412,0.000784087,0.00100259,0.00128071,0.0016347,0.00208526,0.00265874,0.00338866,0.00431771,0.0055002,0.00700529,0.00892097,0.0113593,0.0144627,0.0184128,0.0234405,0.0298398,inf	2.04525,2.04525,379.238,163.463,403.294,430.321,216.707,229.626,397.244,364.287,309.107,331.03,374.634,399.741,398.574,401.48,413.513,422.962,420.878,408.882,404.987,407.065,406.024,395.587,379.231,386.075,432.826,564.028,564.028,6302.32,6302.32,6302.32
0.000437182	-4533387.19	0,4.60553e-06,1.04675e-05,1.79286e-05,2.74251e-05,3.95123e-05,5.4897e-05,7.44787e-05,9.94023e-05,0.000131125,0.000171502,0.000222895,0.000288307,0.000371564,0.000477533,0.000612412,0.000784087,0.00100259,0.00128071,0.0016347,0.00208526,0.00265874,0.00338866,0.00431771,0.0055002,0.00700529,0.00892097,0.0113593,0.0144627,0.0184128,0.0234405,0.0298398,inf	0.400559,0.400559,435.836,136.934,450.747,524.676,213.466,215.252,447.666,408.346,314.652,336.555,389.944,421.944,414.505,413.759,428.532,441.836,440.195,422.981,417.679,421.315,420.774,406.078,382.136,389.059,454.286,646.769,646.769,62724.2,62724.2,62724.2
