6.88815e-05	-1885300.77	0,1.75354e-07,4.0634e-07,7.10605e-07,1.1114e-06,1.63934e-06,2.33477e-06,3.25083e-06,4.45751e-06,6.047e-06,8.14076e-06,1.08988e-05,1.45317e-05,1.93173e-05,2.5621e-05,3.39246e-05,4.48624e-05,5.92703e-05,7.82491e-05,0.000103249,0.00013618,0.000179558,0.000236698,0.000311965,0.000411111,0.000541711,0.000713744,0.000940353,0.00123885,0.00163205,0.00215,0.00283226,inf	3778,3778,4642.57,4093.74,3443.2,3239.41,3407.1,3604.64,3679.99,3705.41,3750.66,3791.99,3783.97,3727.42,3680.2,3675.8,3678.43,3693.24,3772.27,3938.86,4159.62,4348.58,4438.3,4411.63,4396.43,4466.26,4470.64,4232.66,4232.66,4867.44,4867.44,4867.44
7.48002e-05	-1884917.22	0,1.75354e-07,4.0634e-07,7.10605e-07,1.1114e-06,1.63934e-06,2.33477e-06,3.25083e-06,4.45751e-06,6.047e-06,8.14076e-06,1.08988e-05,1.45317e-05,1.93173e-05,2.5621e-05,3.39246e-05,4.48624e-05,5.92703e-05,7.82491e-05,0.000103249,0.00013618,0.000179558,0.000236698,0.000311965,0.000411111,0.000541711,0.000713744,0.000940353,0.00123885,0.00163205,0.00215,0.00283226,inf	3715.62,3715.62,5581.46,4349.5,3125.5,2819.65,3136.22,3491.54,3616.58,3657.01,3745.14,3826.03,3806.61,3691.72,3595.36,3570.49,3542.44,3525.38,3614.49,3851.43,4188.36,4490.29,4639.36,4596.94,4598.19,4778.7,4810.48,4327.47,4327.47,5990.5,5990.5,5990.5
8.00792e-05	-1884697.78	0,1.75354e-07,4.0634e-07,7.10605e-07,1.1114e-06,1.63934e-06,2.33477e-06,3.25083e-06,4.45751e-06,6.047e-06,8.14076e-06,1.08988e-05,1.45317e-05,1.93173e-05,2.5621e-05,3.39246e-05,4.48624e-05,5.92703e-05,7.82491e-05,0.000103249,0.00013618,0.000179558,0.000236698,0.000311965,0.000411111,0.000541711,0.000713744,0.000940353,0.00123885,0.00163205,0.00215,0.00283226,inf	3559.92,3559.92,6515.85,4510.92,2817.11,2482.44,2934.39,3423.46,3584.14,3638.4,3775.86,3905.71,3884.83,3724.51,3593.99,3555.61,3493.68,3435.59,3514.24,3783.77,4186.21,4554.08,4733.64,4672.52,4699.1,5004.83,5071.03,4346.31,4346.31,7724.92,7724.92,7724.92
8.48413e-05	-1884545.96	0,1.75354e-07,4.0634e-07,7.10605e-07,1.1114e-06,1.63934e-06,2.33477e-06,3.25083e-06,4.45751e-06,6.047e-06,8.14076e-06,1.08988e-05,1.45317e-05,1.93173e-05,2.5621e-05,3.39246e-05,4.48624e-05,5.92703e-05,7.82491e-05,0.000103249,0.00013618,0.000179558,0.000236698,0.000311965,0.000411111,0.000541711,0.000713744,0.000940353,0.00123885,0.00163205,0.00215,0.00283226,inf	3326.09,3326.09,7395.85,4568.37,2514.92,2193.71,2761.4,3359.48,3538.95,3601.71,3789.73,3973.55,3959.74,3767.3,3618.22,3576.4,3484.51,3386.54,3449.39,3735.57,4177.97,4584.41,4774.15,4689.32,4741.26,5174.69,5274.35,4317.61,4317.61,11334.9,11334.9,11334.9
8.91777e-05	-1884430.48	0,1.75354e-07,4.0634e-07,7.10605e-07,1.1114e-06,1.63934e-06,2.33477e-06,3.25083e-06,4.45751e-06,6.047e-06,8.14076e-06,1.08988e-05,1.45317e-05,1.93173e-05,2.5621e-05,3.39246e-05,4.48624e-05,5.92703e-05,7.82491e-05,0.000103249,0.00013618,0.000179558,0.000236698,0.000311965,0.000411111,0.000541711,0.000713744,0.000940353,0.00123885,0.00163205,0.00215,0.00283226,inf	3054.64,3054.64,8230.99,4553.94,2236.73,1952.77,2618.34,3303.73,3484.31,3547.58,3782.31,4019.78,4017.34,3802.76,3647.42,3610.63,3493.75,3359.75,3406.62,3702.45,4171.3,4600.25,4786.9,4674.24,4748.56,5307,5435.3,4260.48,4260.48,27480.9,27480.9,27480.9
8.91777e-05	-1884338.60	0,1.75354e-07,4.0634e-07,7.10605e-07,1.1114e-06,1.63934e-06,2.33477e-06,3.25083e-06,4.45751e-06,6.047e-06,8.14076e-06,1.08988e-05,1.45317e-05,1.93173e-05,2.5621e-05,3.39246e-05,4.48624e-05,5.92703e-05,7.82491e-05,0.000103249,0.00013618,0.000179558,0.000236698,0.000311965,0.000411111,0.000541711,0.000713744,0.000940353,0.00123885,0.00163205,0.00215,0.00283226,inf	2739.55,2739.55,8923,4441.56,1969.5,1736.33,2479.36,3226.91,3391.07,3445.26,3716.86,3999.99,4008.66,3780.52,3628.75,3602.72,3466.74,3303.51,3336.04,3634.71,4116.01,4553.37,4731.25,4598.41,4698.06,5375.85,5530.42,4166.6,4166.6,596689,596689,596689
8.91777e-05	-1884336.09	0,1.75354e-07,4.0634e-07,7.10605e-07,1.1114e-06,1.63934e-06,2.33477e-06,3.25083e-06,4.45751e-06,6.047e-06,8.14076e-06,1.08988e-05,1.45317e-05,1.93173e-05,2.5621e-05,3.39246e-05,4.48624e-05,5.92703e-05,7.82491e-05,0.000103249,0.00013618,0.000179558,0.000236698,0.000311965,0.000411111,0.000541711,0.000713744,0.000940353,0.00123885,0.00163205,0.00215,0.00283226,inf	2479.3,2479.3,9220.54,4400.12,1770.4,1580.25,2399.64,3210.25,3347.3,3382.16,3684.74,4011.23,4029.59,3786.99,3640.2,3628.35,3470.66,3283.91,3302.27,3603.87,4096.95,4539.73,4701.87,4540.81,4657.3,5452.99,5547.25,4072.52,4072.52,596743,596743,596743
8.91777e-05	-1884333.59	0,1.75354e-07,4.0634e-07,7.10605e-07,1.1114e-06,1.63934e-06,2.33477e-06,3.25083e-06,4.45751e-06,6.047e-06,8.14076e-06,1.08988e-05,1.45317e-05,1.93173e-05,2.5621e-05,3.39246e-05,4.48624e-05,5.92703e-05,7.82491e-05,0.000103249,0.00013618,0.000179558,0.000236698,0.000311965,0.000411111,0.000541711,0.000713744,0.000940353,0.00123885,0.00163205,0.00215,0.00283226,inf	2271.32,2271.32,9463.05,4400.12,1612.65,1456.01,2347,3218.19,3319.64,3327.45,3655,4021.07,4048.09,3791.75,3652.28,3646.11,3470.66,3275.31,3281.62,3587.57,4093.46,4541.26,4686.6,4494.14,4623.32,5519.81,5547.25,3980.01,3980.01,596797,596797,596797
8.91777e-05	-1884331.28	0,1.75354e-07,4.0634e-07,7.10605e-07,1.1114e-06,1.63934e-06,2.33477e-06,3.25083e-06,4.45751e-06,6.047e-06,8.14076e-06,1.08988e-05,1.45317e-05,1.93173e-05,2.5621e-05,3.39246e-05,4.48624e-05,5.92703e-05,7.82491e-05,0.000103249,0.00013618,0.000179558,0.000236698,0.000311965,0.000411111,0.000541711,0.000713744,0.000940353,0.00123885,0.00163205,0.00215,0.00283226,inf	2095.74,2095.74,9667.45,4400.12,1482.3,1353.28,2312.29,3243.63,3302.85,3278.67,3626.63,4029.28,4063.74,3793.95,3663.31,3658.6,3470.77,3271.62,3266.93,3577.9,4097.14,4550.94,4679.13,4454.34,4594.35,5568.25,5547.25,3890.2,3890.2,596848,596848,596848
8.91777e-05	-1884328.87	0,1.75354e-07,4.0634e-07,7.10605e-07,1.1114e-06,1.63934e-06,2.33477e-06,3.25083e-06,4.45751e-06,6.047e-06,8.14076e-06,1.08988e-05,1.45317e-05,1.93173e-05,2.5621e-05,3.39246e-05,4.48624e-05,5.92703e-05,7.82491e-05,0.000103249,0.00013618,0.000179558,0.000236698,0.000311965,0.000411111,0.000541711,0.000713744,0.000940353,0.00123885,0.00163205,0.00215,0.00283226,inf	1944.91,1944.91,9841.16,4400.12,1371.19,1265.33,2289.65,3281.84,3294.6,3234.59,3599.62,4036.7,4077.24,3793.83,3672.74,3668.22,3470.77,3269.85,3254.72,3570.93,4103.81,4555.83,4676.73,4419.48,4569.3,5608.41,5547.25,3803.78,3803.78,596898,596898,596898
8.91777e-05	-1884326.57	0,1.75354e-07,4.0634e-07,7.10605e-07,1.1114e-06,1.63934e-06,2.33477e-06,3.25083e-06,4.45751e-06,6.047e-06,8.14076e-06,1.08988e-05,1.45317e-05,1.93173e-05,2.5621e-05,3.39246e-05,4.48624e-05,5.92703e-05,7.82491e-05,0.000103249,0.00013618,0.000179558,0.000236698,0.000311965,0.000411111,0.000541711,0.000713744,0.000940353,0.00123885,0.00163205,0.00215,0.00283226,inf	1812.84,1812.84,9994.27,4400.12,1274,1188.03,2275.07,3329.33,3291.74,3194.24,3574.32,4043.72,4089.15,3791.88,3680.84,3675.76,3470.77,3269.3,3244.12,3565.38,4112.8,4557.03,4676.73,4388.74,4547.64,5642.57,5547.25,3720.88,3720.88,596946,596946,596946
8.91777e-05	-1884324.40	0,1.75354e-07,4.0634e-07,7.10605e-07,1.1114e-06,1.63934e-06,2.33477e-06,3.25083e-06,4.45751e-06,6.047e-06,8.14076e-06,1.08988e-05,1.45317e-05,1.93173e-05,2.5621e-05,3.39246e-05,4.48624e-05,5.92703e-05,7.82491e-05,0.000103249,0.00013618,0.000179558,0.000236698,0.000311965,0.000411111,0.000541711,0.000713744,0.000940353,0.00123885,0.00163205,0.00215,0.00283226,inf	1697.16,1697.16,10128.5,4400.12,1188.04,1118.63,2265.66,3383.48,3293.29,3156.78,3550,4050.45,4099.93,3788.53,3687.66,3675.82,3475.47,3269.3,3234.55,3561.04,4121.61,4557.03,4676.73,4361.55,4528.95,5672.43,5547.25,3641.56,3641.56,596991,596991,596991
8.91777e-05	-1884322.37	0,1.75354e-07,4.0634e-07,7.10605e-07,1.1114e-06,1.63934e-06,2.33477e-06,3.25083e-06,4.45751e-06,6.047e-06,8.14076e-06,1.08988e-05,1.45317e-05,1.93173e-05,2.5621e-05,3.39246e-05,4.48624e-05,5.92703e-05,7.82491e-05,0.000103249,0.00013618,0.000179558,0.000236698,0.000311965,0.000411111,0.000541711,0.000713744,0.000940353,0.00123885,0.00163205,0.00215,0.00283226,inf	1594.38,1594.38,10246.4,4400.12,1110.48,1055.27,2259.21,3442.43,3297.68,3121.8,3527.15,4057.32,4110.17,3784.42,3693.8,3680.4,3475.47,3269.3,3225.7,3557.62,4129.3,4557.03,4676.73,4337.52,4512.97,5698.41,5547.25,3565.76,3565.76,597035,597035,597035
8.91777e-05	-1844256.91	0,1.75354e-07,4.0634e-07,7.10605e-07,1.1114e-06,1.63934e-06,2.33477e-06,3.25083e-06,4.45751e-06,6.047e-06,8.14076e-06,1.08988e-05,1.45317e-05,1.93173e-05,2.5621e-05,3.39246e-05,4.48624e-05,5.92703e-05,7.82491e-05,0.000103249,0.00013618,0.000179558,0.000236698,0.000311965,0.000411111,0.000541711,0.000713744,0.000940353,0.00123885,0.00163205,0.00215,0.00283226,inf	1505.54,1505.54,10350.5,4400.12,1041.95,998.577,2259.21,3505.07,3297.69,3094.76,3512.35,4072.88,4110.17,3787.51,3696.38,3680.4,3475.47,3269.3,3225.7,3557.62,4129.3,4557.03,4676.73,4252.34,4500.06,5757.3,5547.25,3493.39,3493.39,597077,597077,597077
8.91777e-05	-1884319.14	0,1.75354e-07,4.0634e-07,7.10605e-07,1.1114e-06,1.63934e-06,2.33477e-06,3.25083e-06,4.45751e-06,6.047e-06,8.14076e-06,1.08988e-05,1.45317e-05,1.93173e-05,2.5621e-05,3.39246e-05,4.48624e-05,5.92703e-05,7.82491e-05,0.000103249,0.00013618,0.000179558,0.000236698,0.000311965,0.000411111,0.000541711,0.000713744,0.000940353,0.00123885,0.00163205,0.00215,0.00283226,inf	1422.67,1422.67,10448,4400.12,976.221,942.893,2253.88,3567.06,3299.89,3061.03,3489.4,4078.23,4118.05,3781.04,3700.66,3687.9,3475.47,3269.3,3218.56,3557.2,4129.3,4560.4,4676.73,4238.41,4492.55,5757.31,5557.66,3423.4,3423.4,597117,597117,597117
8.91777e-05	-1884317.31	0,1.75354e-07,4.0634e-07,7.10605e-07,1.1114e-06,1.63934e-06,2.33477e-06,3.25083e-06,4.45751e-06,6.047e-06,8.14076e-06,1.08988e-05,1.45317e-05,1.93173e-05,2.5621e-05,3.39246e-05,4.48624e-05,5.92703e-05,7.82491e-05,0.000103249,0.00013618,0.000179558,0.000236698,0.000311965,0.000411111,0.000541711,0.000713744,0.000940353,0.00123885,0.00163205,0.00215,0.00283226,inf	1348.17,1348.17,10534.4,4400.12,915.799,891.054,2249.95,3626.34,3299.89,3029.33,3467.84,4084.22,4125.81,3774.09,3704.36,3695.21,3475.47,3269.3,3211.99,3557.45,4132.89,4560.4,4676.73,4226.4,4486.59,5768.76,5557.66,3356.98,3356.98,597155,597155,597155
8.91777e-05	-1884315.72	0,1.75354e-07,4.0634e-07,7.10605e-07,1.1114e-06,1.63934e-06,2.33477e-06,3.25083e-06,4.45751e-06,6.047e-06,8.14076e-06,1.08988e-05,1.45317e-05,1.93173e-05,2.5621e-05,3.39246e-05,4.48624e-05,5.92703e-05,7.82491e-05,0.000103249,0.00013618,0.000179558,0.000236698,0.000311965,0.000411111,0.000541711,0.000713744,0.000940353,0.00123885,0.00163205,0.00215,0.00283226,inf	1280.63,1280.63,10612.7,4400.13,860.369,842.572,2246.85,3680.89,3299.89,2999.42,3447.65,4090.79,4133.52,3766.73,3707.49,3702.34,3475.47,3269.3,3205.73,3558.05,4136.04,4560.4,4676.73,4215.77,4482.44,5768.76,5564.7,3293.78,3293.78,597192,597192,597192
8.91777e-05	-1884314.14	0,1.75354e-07,4.0634e-07,7.10605e-07,1.1114e-06,1.63934e-06,2.33477e-06,3.25083e-06,4.45751e-06,6.047e-06,8.14076e-06,1.08988e-05,1.45317e-05,1.93173e-05,2.5621e-05,3.39246e-05,4.48624e-05,5.92703e-05,7.82491e-05,0.000103249,0.00013618,0.000179558,0.000236698,0.000311965,0.000411111,0.000541711,0.000713744,0.000940353,0.00123885,0.00163205,0.00215,0.00283226,inf	1220.62,1220.62,10682.7,4400.13,809.14,797.208,2244.78,3731.01,3299.89,2971.19,3428.73,4097.98,4141.19,3759,3710.07,3709.27,3475.47,3269.3,3199.73,3558.96,4138.81,4560.4,4676.73,4206.6,4479.58,5776.22,5564.7,3233.83,3233.83,597226,597226,597226
8.91777e-05	-1884312.74	0,1.75354e-07,4.0634e-07,7.10605e-07,1.1114e-06,1.63934e-06,2.33477e-06,3.25083e-06,4.45751e-06,6.047e-06,8.14076e-06,1.08988e-05,1.45317e-05,1.93173e-05,2.5621e-05,3.39246e-05,4.48624e-05,5.92703e-05,7.82491e-05,0.000103249,0.00013618,0.000179558,0.000236698,0.000311965,0.000411111,0.000541711,0.000713744,0.000940353,0.00123885,0.00163205,0.00215,0.00283226,inf	1165.27,1165.27,10746.3,4400.13,761.816,754.809,2243.65,3777.01,3299.9,2944.64,3410.96,4105.72,4148.85,3751.02,3712.21,3715.88,3475.48,3269.3,3193.97,3560.12,4138.81,4560.4,4678.14,4198.45,4477.92,5782.18,5564.7,3176.89,3176.89,597259,597259,597259
8.91777e-05	-1884311.44	0,1.75354e-07,4.0634e-07,7.10605e-07,1.1114e-06,1.63934e-06,2.33477e-06,3.25083e-06,4.45751e-06,6.047e-06,8.14076e-06,1.08988e-05,1.45317e-05,1.93173e-05,2.5621e-05,3.39246e-05,4.48624e-05,5.92703e-05,7.82491e-05,0.000103249,0.00013618,0.000179558,0.000236698,0.000311965,0.000411111,0.000541711,0.000713744,0.000940353,0.00123885,0.00163205,0.00215,0.00283226,inf	1114.71,1114.71,10805.9,4400.13,718.077,715.034,2243.65,3819.07,3299.9,2919.44,3394.15,4113.96,4156.41,3742.85,3712.22,3723.6,3475.48,3269.3,3188.6,3561.69,4138.81,4560.4,4679.24,4191.13,4477.3,5786.86,5564.7,3122.83,3122.83,597290,597290,597290
