time_index	left_time_boundary	right_time_boundary	lambda
0	0	1.75354e-07	1114.71
1	1.75354e-07	4.0634e-07	1114.71
2	4.0634e-07	7.10605e-07	10805.9
3	7.10605e-07	1.1114e-06	4400.13
4	1.1114e-06	1.63934e-06	718.077
5	1.63934e-06	2.33477e-06	715.034
6	2.33477e-06	3.25083e-06	2243.65
7	3.25083e-06	4.45751e-06	3819.07
8	4.45751e-06	6.047e-06	3299.9
9	6.047e-06	8.14076e-06	2919.44
10	8.14076e-06	1.08988e-05	3394.15
11	1.08988e-05	1.45317e-05	4113.96
12	1.45317e-05	1.93173e-05	4156.41
13	1.93173e-05	2.5621e-05	3742.85
14	2.5621e-05	3.39246e-05	3712.22
15	3.39246e-05	4.48624e-05	3723.6
16	4.48624e-05	5.92703e-05	3475.48
17	5.92703e-05	7.82491e-05	3269.3
18	7.82491e-05	0.000103249	3188.6
19	0.000103249	0.00013618	3561.69
20	0.00013618	0.000179558	4138.81
21	0.000179558	0.000236698	4560.4
22	0.000236698	0.000311965	4679.24
23	0.000311965	0.000411111	4191.13
24	0.000411111	0.000541711	4477.3
25	0.000541711	0.000713744	5786.86
26	0.000713744	0.000940353	5564.7
27	0.000940353	0.00123885	3122.83
28	0.00123885	0.00163205	3122.83
29	0.00163205	0.00215	597290
30	0.00215	0.00283226	597290
31	0.00283226	inf	597290
