0.000334691	-165979.05	0,2.06377e-05,4.47786e-05,7.30174e-05,0.00010605,0.000144689,0.000189888,0.000242759,0.000304605,0.000376949,0.000461574,0.000560564,0.000676357,0.000811807,0.000970248,0.00115559,0.00137238,0.00162598,0.00192263,0.00226964,0.00267554,0.00315036,0.00370577,0.00435546,0.00511543,0.00600442,0.0070443,0.00826071,0.0096836,0.011348,0.013295,0.0155725,inf	1096.58,1096.58,1033.39,844.697,717.186,687.743,689.853,707.852,736.592,766.88,787.819,796.372,803.845,820.155,843.396,866.024,882.625,890.388,889.169,882.846,875.163,866.851,856.367,843.268,830.084,816.21,797.004,762.415,762.415,745.98,745.98,745.98
0.00036333	-165934.94	0,2.06377e-05,4.47786e-05,7.30174e-05,0.00010605,0.000144689,0.000189888,0.000242759,0.000304605,0.000376949,0.000461574,0.000560564,0.000676357,0.000811807,0.000970248,0.00115559,0.00137238,0.00162598,0.00192263,0.00226964,0.00267554,0.00315036,0.00370577,0.00435546,0.00511543,0.00600442,0.0070443,0.00826071,0.0096836,0.011348,0.013295,0.0155725,inf	1235.26,1235.26,1200.97,860.451,658.302,621.591,628.619,658.62,704.761,751.522,779.586,785.117,790.205,812.554,849.071,886.997,916.365,931.121,930.206,920.501,908.702,895.605,877.812,854.558,830.971,805.955,771.545,711.186,711.186,681.27,681.27,681.27
0.000389856	-165905.43	0,2.06377e-05,4.47786e-05,7.30174e-05,0.00010605,0.000144689,0.000189888,0.000242759,0.000304605,0.000376949,0.000461574,0.000560564,0.000676357,0.000811807,0.000970248,0.00115559,0.00137238,0.00162598,0.00192263,0.00226964,0.00267554,0.00315036,0.00370577,0.00435546,0.00511543,0.00600442,0.0070443,0.00826071,0.0096836,0.011348,0.013295,0.0155725,inf	1273.77,1273.77,1325.55,863.94,617.515,582.827,595.945,635.802,694.924,752.337,781.45,779.35,778.555,802.706,847.466,896.203,935.313,955.771,955.53,943.986,930.196,914.588,891.77,860.686,828.942,795.042,748.672,668.929,668.929,624.481,624.481,624.481
0.000414499	-165883.22	0,2.06377e-05,4.47786e-05,7.30174e-05,0.00010605,0.000144689,0.000189888,0.000242759,0.000304605,0.000376949,0.000461574,0.000560564,0.000676357,0.000811807,0.000970248,0.00115559,0.00137238,0.00162598,0.00192263,0.00226964,0.00267554,0.00315036,0.00370577,0.00435546,0.00511543,0.00600442,0.0070443,0.00826071,0.0096836,0.011348,0.013295,0.0155725,inf	1260.68,1260.68,1420.29,858.755,586.203,557.567,577.133,625.781,695.654,760.615,787.581,775.93,768.157,792.304,842.596,899.331,945.962,970.891,971.239,958.648,944.124,927.48,901.287,864.185,826.058,785.083,729.268,634.658,634.658,572.831,572.831,572.831
0.000437491	-165865.48	0,2.06377e-05,4.47786e-05,7.30174e-05,0.00010605,0.000144689,0.000189888,0.000242759,0.000304605,0.000376949,0.000461574,0.000560564,0.000676357,0.000811807,0.000970248,0.00115559,0.00137238,0.00162598,0.00192263,0.00226964,0.00267554,0.00315036,0.00370577,0.00435546,0.00511543,0.00600442,0.0070443,0.00826071,0.0096836,0.011348,0.013295,0.0155725,inf	1226.46,1226.46,1495.51,847.896,560.625,539.766,565.787,622.565,701.842,772.428,795.411,773.527,758.696,782.123,836.425,899.346,951.899,980.272,980.976,967.742,953.236,936.531,908.176,866.466,823.361,776.75,713.417,607.164,607.164,524.051,524.051,524.051
0.000459021	-165850.87	0,2.06377e-05,4.47786e-05,7.30174e-05,0.00010605,0.000144689,0.000189888,0.000242759,0.000304605,0.000376949,0.000461574,0.000560564,0.000676357,0.000811807,0.000970248,0.00115559,0.00137238,0.00162598,0.00192263,0.00226964,0.00267554,0.00315036,0.00370577,0.00435546,0.00511543,0.00600442,0.0070443,0.00826071,0.0096836,0.011348,0.013295,0.0155725,inf	1186.37,1186.37,1557.59,833.276,538.85,526.419,558.737,623.159,710.903,785.795,803.688,771.511,749.986,772.486,829.91,897.812,955.124,986.123,986.924,973.247,959.216,943.106,913.497,868.289,821.324,770.232,700.876,585.368,585.368,476.041,476.041,476.041
0.000479244	-165838.60	0,2.06377e-05,4.47786e-05,7.30174e-05,0.00010605,0.000144689,0.000189888,0.000242759,0.000304605,0.000376949,0.000461574,0.000560564,0.000676357,0.000811807,0.000970248,0.00115559,0.00137238,0.00162598,0.00192263,0.00226964,0.00267554,0.00315036,0.00370577,0.00435546,0.00511543,0.00600442,0.0070443,0.00826071,0.0096836,0.011348,0.013295,0.0155725,inf	1147.25,1147.25,1610.36,816.166,519.804,515.92,554.305,625.963,721.449,799.663,811.792,769.579,741.899,763.5,823.509,895.565,956.778,989.759,990.414,976.388,963.106,948.042,917.87,870.051,820.131,765.506,691.33,568.45,568.45,426.492,426.492,426.492
0.000498285	-165828.18	0,2.06377e-05,4.47786e-05,7.30174e-05,0.00010605,0.000144689,0.000189888,0.000242759,0.000304605,0.000376949,0.000461574,0.000560564,0.000676357,0.000811807,0.000970248,0.00115559,0.00137238,0.00162598,0.00192263,0.00226964,0.00267554,0.00315036,0.00370577,0.00435546,0.00511543,0.00600442,0.0070443,0.00826071,0.0096836,0.011348,0.013295,0.0155725,inf	1111.82,1111.82,1656.15,797.459,502.859,507.361,551.547,630.074,732.699,813.461,819.418,767.585,734.34,755.176,817.437,893.057,957.523,991.976,992.275,977.934,965.567,951.865,921.666,871.953,819.836,762.49,684.521,555.931,555.931,372.385,372.385,372.385
0.00051625	-165819.24	0,2.06377e-05,4.47786e-05,7.30174e-05,0.00010605,0.000144689,0.000189888,0.000242759,0.000304605,0.000376949,0.000461574,0.000560564,0.000676357,0.000811807,0.000970248,0.00115559,0.00137238,0.00162598,0.00192263,0.00226964,0.00267554,0.00315036,0.00370577,0.00435546,0.00511543,0.00600442,0.0070443,0.00826071,0.0096836,0.011348,0.013295,0.0155725,inf	1080.83,1080.83,1696.45,777.807,487.623,500.21,549.911,634.967,744.201,826.882,826.428,765.467,727.239,747.483,811.782,890.532,957.751,993.27,993.034,978.382,967.028,954.912,925.114,874.116,820.462,761.152,680.371,547.81,547.81,308.991,308.991,308.991
0.000533228	-165811.52	0,2.06377e-05,4.47786e-05,7.30174e-05,0.00010605,0.000144689,0.000189888,0.000242759,0.000304605,0.000376949,0.000461574,0.000560564,0.000676357,0.000811807,0.000970248,0.00115559,0.00137238,0.00162598,0.00192263,0.00226964,0.00267554,0.00315036,0.00370577,0.00435546,0.00511543,0.00600442,0.0070443,0.00826071,0.0096836,0.011348,0.013295,0.0155725,inf	1054.22,1054.22,1732.27,757.697,473.836,494.135,549.067,640.325,755.695,839.765,832.778,763.202,720.54,740.373,806.566,888.121,957.702,993.959,993.04,978.069,967.785,957.426,928.395,876.66,822.118,761.658,679.209,545.011,545.011,228.807,228.807,228.807
0.000549307	-165804.80	0,2.06377e-05,4.47786e-05,7.30174e-05,0.00010605,0.000144689,0.000189888,0.000242759,0.000304605,0.000376949,0.000461574,0.000560564,0.000676357,0.000811807,0.000970248,0.00115559,0.00137238,0.00162598,0.00192263,0.00226964,0.00267554,0.00315036,0.00370577,0.00435546,0.00511543,0.00600442,0.0070443,0.00826071,0.0096836,0.011348,0.013295,0.0155725,inf	1031.6,1031.6,1764.38,737.496,461.311,488.921,548.803,645.957,767.032,852.04,838.475,760.8,714.206,733.801,801.79,885.897,957.527,994.259,992.539,977.242,968.076,959.633,931.739,879.861,825.239,764.815,682.588,551.192,551.192,138.116,138.116,138.116
0.000564579	-165799.18	0,2.06377e-05,4.47786e-05,7.30174e-05,0.00010605,0.000144689,0.000189888,0.000242759,0.000304605,0.000376949,0.000461574,0.000560564,0.000676357,0.000811807,0.000970248,0.00115559,0.00137238,0.00162598,0.00192263,0.00226964,0.00267554,0.00315036,0.00370577,0.00435546,0.00511543,0.00600442,0.0070443,0.00826071,0.0096836,0.011348,0.013295,0.0155725,inf	1012.51,1012.51,1793.31,717.473,449.907,484.426,548.99,651.749,778.134,863.689,843.557,758.28,708.205,727.723,797.439,883.899,957.328,994.324,991.713,976.095,968.114,961.79,935.495,884.28,830.868,772.744,694.916,580.183,580.183,89.3725,89.3725,89.3725
0.000579085	-165794.84	0,2.06377e-05,4.47786e-05,7.30174e-05,0.00010605,0.000144689,0.000189888,0.000242759,0.000304605,0.000376949,0.000461574,0.000560564,0.000676357,0.000811807,0.000970248,0.00115559,0.00137238,0.00162598,0.00192263,0.00226964,0.00267554,0.00315036,0.00370577,0.00435546,0.00511543,0.00600442,0.0070443,0.00826071,0.0096836,0.011348,0.013295,0.0155725,inf	996.373,996.373,1819.37,697.779,439.486,480.519,549.51,657.6,788.924,874.681,848.028,755.624,702.476,722.055,793.435,882.071,957.065,994.118,990.503,974.512,967.676,963.497,938.995,888.867,837.432,783.237,713.551,637.347,637.347,73.637,73.637,73.637
0.00059286	-165790.89	0,2.06377e-05,4.47786e-05,7.30174e-05,0.00010605,0.000144689,0.000189888,0.000242759,0.000304605,0.000376949,0.000461574,0.000560564,0.000676357,0.000811807,0.000970248,0.00115559,0.00137238,0.00162598,0.00192263,0.00226964,0.00267554,0.00315036,0.00370577,0.00435546,0.00511543,0.00600442,0.0070443,0.00826071,0.0096836,0.011348,0.013295,0.0155725,inf	982.734,982.734,1842.87,678.528,429.932,477.111,550.286,663.445,799.37,885.023,851.926,752.842,696.986,716.743,789.732,880.383,956.727,993.627,988.863,972.371,966.498,964.232,941.275,891.93,841.959,790.917,728.636,701.867,701.867,68.759,68.759,68.759
0.000605957	-165787.14	0,2.06377e-05,4.47786e-05,7.30174e-05,0.00010605,0.000144689,0.000189888,0.000242759,0.000304605,0.000376949,0.000461574,0.000560564,0.000676357,0.000811807,0.000970248,0.00115559,0.00137238,0.00162598,0.00192263,0.00226964,0.00267554,0.00315036,0.00370577,0.00435546,0.00511543,0.00600442,0.0070443,0.00826071,0.0096836,0.011348,0.013295,0.0155725,inf	971.237,971.237,1864.15,659.829,421.171,474.143,551.277,669.266,809.482,894.775,855.332,749.991,691.751,711.797,786.358,878.9,956.424,993.005,986.97,969.861,964.772,964.171,942.451,893.454,844.155,794.823,737.459,760.41,760.41,70.9347,70.9347,70.9347
0.000618425	-165783.58	0,2.06377e-05,4.47786e-05,7.30174e-05,0.00010605,0.000144689,0.000189888,0.000242759,0.000304605,0.000376949,0.000461574,0.000560564,0.000676357,0.000811807,0.000970248,0.00115559,0.00137238,0.00162598,0.00192263,0.00226964,0.00267554,0.00315036,0.00370577,0.00435546,0.00511543,0.00600442,0.0070443,0.00826071,0.0096836,0.011348,0.013295,0.0155725,inf	961.566,961.566,1883.46,641.742,413.123,471.557,552.442,675.036,819.26,903.973,858.3,747.097,686.769,707.206,783.317,877.661,956.235,992.375,984.991,967.187,962.746,963.615,942.891,893.887,844.576,795.604,740.501,805.231,805.231,83.9179,83.9179,83.9179
0.000630297	-165780.19	0,2.06377e-05,4.47786e-05,7.30174e-05,0.00010605,0.000144689,0.000189888,0.000242759,0.000304605,0.000376949,0.000461574,0.000560564,0.000676357,0.000811807,0.000970248,0.00115559,0.00137238,0.00162598,0.00192263,0.00226964,0.00267554,0.00315036,0.00370577,0.00435546,0.00511543,0.00600442,0.0070443,0.00826071,0.0096836,0.011348,0.013295,0.0155725,inf	953.447,953.447,1901.02,624.295,405.717,469.304,553.742,680.725,828.689,912.627,860.855,744.162,682.013,702.935,780.585,876.662,956.193,991.805,983.022,964.472,960.586,962.783,942.878,893.592,843.702,793.888,738.476,829.023,829.023,116.239,116.239,116.239
0.000641605	-165777.09	0,2.06377e-05,4.47786e-05,7.30174e-05,0.00010605,0.000144689,0.000189888,0.000242759,0.000304605,0.000376949,0.000461574,0.000560564,0.000676357,0.000811807,0.000970248,0.00115559,0.00137238,0.00162598,0.00192263,0.00226964,0.00267554,0.00315036,0.00370577,0.00435546,0.00511543,0.00600442,0.0070443,0.00826071,0.0096836,0.011348,0.013295,0.0155725,inf	946.647,946.647,1917,607.503,398.887,467.344,555.149,686.318,837.776,920.761,863.025,741.188,677.459,698.947,778.13,875.889,956.301,991.322,981.113,961.792,958.395,961.819,942.606,892.83,841.898,790.211,732.189,827.75,827.75,154.675,154.675,154.675
0.000652403	-165774.47	0,2.06377e-05,4.47786e-05,7.30174e-05,0.00010605,0.000144689,0.000189888,0.000242759,0.000304605,0.000376949,0.000461574,0.000560564,0.000676357,0.000811807,0.000970248,0.00115559,0.00137238,0.00162598,0.00192263,0.00226964,0.00267554,0.00315036,0.00370577,0.00435546,0.00511543,0.00600442,0.0070443,0.00826071,0.0096836,0.011348,0.013295,0.0155725,inf	940.992,940.992,1931.67,591.386,392.592,465.652,556.649,691.814,846.537,928.414,864.848,738.19,673.092,695.221,775.931,875.332,956.57,990.958,979.319,959.23,956.298,960.912,942.363,892.046,839.9,785.894,724.215,813.016,813.016,173.29,173.29,173.29
0.000662729	-165772.14	0,2.06377e-05,4.47786e-05,7.30174e-05,0.00010605,0.000144689,0.000189888,0.000242759,0.000304605,0.000376949,0.000461574,0.000560564,0.000676357,0.000811807,0.000970248,0.00115559,0.00137238,0.00162598,0.00192263,0.00226964,0.00267554,0.00315036,0.00370577,0.00435546,0.00511543,0.00600442,0.0070443,0.00826071,0.0096836,0.011348,0.013295,0.0155725,inf	936.288,936.288,1945.1,575.932,386.781,464.201,558.229,697.209,854.981,935.61,866.346,735.165,668.891,691.724,773.958,874.965,956.985,990.716,977.656,956.822,954.366,960.195,942.374,891.609,838.335,782.07,716.731,796.645,796.645,174.437,174.437,174.437
