time_index	left_time_boundary	right_time_boundary	lambda
0	0	4.02016e-06	65.3348
1	4.02016e-06	1.09957e-05	65.3348
2	1.09957e-05	2.30993e-05	687.982
3	2.30993e-05	4.41008e-05	535.663
4	4.41008e-05	8.05414e-05	402.158
5	8.05414e-05	0.000143771	288.134
6	0.000143771	0.000253484	344.977
7	0.000253484	0.000443851	271.313
8	0.000443851	0.000774165	256.463
9	0.000774165	0.00134731	226.345
10	0.00134731	0.00234179	494.972
11	0.00234179	0.00406737	643.906
12	0.00406737	0.00706149	452.803
13	0.00706149	0.0122567	485.413
14	0.0122567	0.0212712	485.413
15	0.0212712	inf	485.413
