AIC = 3114069.8665921599604

y0 0.94572829625334908776
y0_prime 0
y1 1.1189244584338398081
y1_prime 0
y2 0.89005570017834179097
y2_prime 0
y3 1.632088443802479194
y3_prime 0
rho 0.0043294350817068656331
rho.alpha 0.44789589176619820643
r_ii 0.99999991900703977254
theta 0.0050134807709634968825
