AIC = 598825.00873718236107

y0 0.97550576306502312374
y0_prime 0
y1 1.0513156732337241017
y1_prime 0
y2 0.96224192862589708053
y2_prime 0
y3 1.3954357349770443175
y3_prime 0
rho 0.01542323425575885254
rho.alpha 0.17956783245516699798
r_ii 0.99996168937847706992
theta 0.0048704978970077299205
