LogLikelihood = -1414310.8645539756399

y0 0.92239393749449283266
y0_prime 0
y1 0.98633626195452372976
y1_prime 0
y2 0.83526865742017453176
y2_prime 0
y3 1.5655745506053535543
y3_prime 0
rho 0.0025030990281934076269
theta 0.0046234601958264794075
