0.000648761	-13573136.19	0,4.02121e-06,1.09986e-05,2.31053e-05,4.41123e-05,8.05624e-05,0.000143809,0.00025355,0.000443967,0.000774367,0.00134766,0.0023424,0.00406843,0.00706333,0.0122599,0.0212767,inf	216.46,216.46,170.742,250.079,301.729,307.685,304.953,312.741,317.652,341.803,395.068,450.784,432.056,417.344,417.344,417.344
0.000680805	-13570364.84	0,4.02121e-06,1.09986e-05,2.31053e-05,4.41123e-05,8.05624e-05,0.000143809,0.00025355,0.000443967,0.000774367,0.00134766,0.0023424,0.00406843,0.00706333,0.0122599,0.0212767,inf	205.69,205.69,112.604,215.347,291.303,293.934,284.534,293.41,291.067,316.846,388.247,477.506,445.821,422.92,422.92,422.92
0.000709848	-13569295.22	0,4.02121e-06,1.09986e-05,2.31053e-05,4.41123e-05,8.05624e-05,0.000143809,0.00025355,0.000443967,0.000774367,0.00134766,0.0023424,0.00406843,0.00706333,0.0122599,0.0212767,inf	210.874,210.874,85.8402,201.399,295.558,295.43,281.7,293.078,282.521,304.746,382.565,493.618,452.35,425.219,425.219,425.219
0.000736525	-13568663.84	0,4.02121e-06,1.09986e-05,2.31053e-05,4.41123e-05,8.05624e-05,0.000143809,0.00025355,0.000443967,0.000774367,0.00134766,0.0023424,0.00406843,0.00706333,0.0122599,0.0212767,inf	215.139,215.139,69.7454,192.557,300.139,298.088,282.201,298.048,280.597,298.254,377.721,503.708,454.863,425.766,425.766,425.766
0.000761442	-13568198.64	0,4.02121e-06,1.09986e-05,2.31053e-05,4.41123e-05,8.05624e-05,0.000143809,0.00025355,0.000443967,0.000774367,0.00134766,0.0023424,0.00406843,0.00706333,0.0122599,0.0212767,inf	217.166,217.166,59.152,186.082,303.108,299.355,282.458,304.012,281.327,294.631,373.626,510.336,455.208,425.426,425.426,425.426
0.000784999	-13567817.80	0,4.02121e-06,1.09986e-05,2.31053e-05,4.41123e-05,8.05624e-05,0.000143809,0.00025355,0.000443967,0.000774367,0.00134766,0.0023424,0.00406843,0.00706333,0.0122599,0.0212767,inf	217.611,217.611,51.9039,181.39,304.949,299.404,281.856,309.579,283.119,292.631,370.17,514.905,454.407,424.668,424.668,424.668
0.000807444	-13567490.05	0,4.02121e-06,1.09986e-05,2.31053e-05,4.41123e-05,8.05624e-05,0.000143809,0.00025355,0.000443967,0.000774367,0.00134766,0.0023424,0.00406843,0.00706333,0.0122599,0.0212767,inf	216.893,216.893,46.7994,178.134,306.272,298.819,280.561,314.38,285.282,291.609,367.239,518.196,453.021,423.735,423.735,423.735
0.000828937	-13567200.73	0,4.02121e-06,1.09986e-05,2.31053e-05,4.41123e-05,8.05624e-05,0.000143809,0.00025355,0.000443967,0.000774367,0.00134766,0.0023424,0.00406843,0.00706333,0.0122599,0.0212767,inf	215.482,215.482,43.1165,175.995,307.413,298.051,278.872,318.402,287.505,291.203,364.727,520.656,451.359,422.755,422.755,422.755
0.000849579	-13566941.68	0,4.02121e-06,1.09986e-05,2.31053e-05,4.41123e-05,8.05624e-05,0.000143809,0.00025355,0.000443967,0.000774367,0.00134766,0.0023424,0.00406843,0.00706333,0.0122599,0.0212767,inf	213.629,213.629,40.3908,174.668,308.502,297.356,277.035,321.748,289.649,291.198,362.547,522.552,449.59,421.79,421.79,421.79
0.000869444	-13566707.70	0,4.02121e-06,1.09986e-05,2.31053e-05,4.41123e-05,8.05624e-05,0.000143809,0.00025355,0.000443967,0.000774367,0.00134766,0.0023424,0.00406843,0.00706333,0.0122599,0.0212767,inf	211.515,211.515,38.3218,173.908,309.566,296.848,275.218,324.54,291.653,291.457,360.633,524.048,447.809,420.869,420.869,420.869
0.000888586	-13566495.12	0,4.02121e-06,1.09986e-05,2.31053e-05,4.41123e-05,8.05624e-05,0.000143809,0.00025355,0.000443967,0.000774367,0.00134766,0.0023424,0.00406843,0.00706333,0.0122599,0.0212767,inf	209.26,209.26,36.7072,173.54,310.59,296.559,273.52,326.891,293.499,291.894,358.933,525.248,446.064,420.001,420.001,420.001
0.000907046	-13566301.18	0,4.02121e-06,1.09986e-05,2.31053e-05,4.41123e-05,8.05624e-05,0.000143809,0.00025355,0.000443967,0.000774367,0.00134766,0.0023424,0.00406843,0.00706333,0.0122599,0.0212767,inf	207.024,207.024,35.4308,173.456,311.534,296.481,271.997,328.892,295.183,292.451,357.408,526.225,444.383,419.188,419.188,419.188
0.000924859	-13566123.65	0,4.02121e-06,1.09986e-05,2.31053e-05,4.41123e-05,8.05624e-05,0.000143809,0.00025355,0.000443967,0.000774367,0.00134766,0.0023424,0.00406843,0.00706333,0.0122599,0.0212767,inf	204.788,204.788,34.4016,173.567,312.384,296.585,270.67,330.619,296.714,293.09,356.027,527.027,442.777,418.428,418.428,418.428
0.000942055	-13565960.74	0,4.02121e-06,1.09986e-05,2.31053e-05,4.41123e-05,8.05624e-05,0.000143809,0.00025355,0.000443967,0.000774367,0.00134766,0.0023424,0.00406843,0.00706333,0.0122599,0.0212767,inf	202.608,202.608,33.548,173.83,313.13,296.835,269.545,332.129,298.101,293.783,354.768,527.691,441.251,417.715,417.715,417.715
0.000958662	-13565810.91	0,4.02121e-06,1.09986e-05,2.31053e-05,4.41123e-05,8.05624e-05,0.000143809,0.00025355,0.000443967,0.000774367,0.00134766,0.0023424,0.00406843,0.00706333,0.0122599,0.0212767,inf	200.499,200.499,32.8331,174.212,313.77,297.196,268.616,333.464,299.357,294.51,353.611,528.243,439.805,417.044,417.044,417.044
0.000974703	-13565672.86	0,4.02121e-06,1.09986e-05,2.31053e-05,4.41123e-05,8.05624e-05,0.000143809,0.00025355,0.000443967,0.000774367,0.00134766,0.0023424,0.00406843,0.00706333,0.0122599,0.0212767,inf	198.462,198.462,32.2274,174.706,314.299,297.637,267.869,334.661,300.493,295.26,352.543,528.703,438.438,416.41,416.41,416.41
0.000990201	-13565545.46	0,4.02121e-06,1.09986e-05,2.31053e-05,4.41123e-05,8.05624e-05,0.000143809,0.00025355,0.000443967,0.000774367,0.00134766,0.0023424,0.00406843,0.00706333,0.0122599,0.0212767,inf	196.544,196.544,31.7122,175.295,314.73,298.133,267.29,335.743,301.52,296.021,351.551,529.087,437.146,415.809,415.809,415.809
0.00100518	-13565427.70	0,4.02121e-06,1.09986e-05,2.31053e-05,4.41123e-05,8.05624e-05,0.000143809,0.00025355,0.000443967,0.000774367,0.00134766,0.0023424,0.00406843,0.00706333,0.0122599,0.0212767,inf	194.703,194.703,31.2585,175.964,315.071,298.663,266.865,336.733,302.449,296.788,350.627,529.408,435.924,415.236,415.236,415.236
0.00101965	-13565318.73	0,4.02121e-06,1.09986e-05,2.31053e-05,4.41123e-05,8.05624e-05,0.000143809,0.00025355,0.000443967,0.000774367,0.00134766,0.0023424,0.00406843,0.00706333,0.0122599,0.0212767,inf	192.952,192.952,30.8595,176.715,315.325,299.209,266.577,337.645,303.288,297.554,349.762,529.676,434.769,414.689,414.689,414.689
0.00103365	-13565217.75	0,4.02121e-06,1.09986e-05,2.31053e-05,4.41123e-05,8.05624e-05,0.000143809,0.00025355,0.000443967,0.000774367,0.00134766,0.0023424,0.00406843,0.00706333,0.0122599,0.0212767,inf	191.318,191.318,30.4957,177.534,315.51,299.758,266.41,338.493,304.045,298.316,348.95,529.898,433.676,414.164,414.164,414.164
