AIC = 3032717.5459267753176

y0 1.148354717333907038
y0_prime 0
y1 1.0968130828764461882
y1_prime 0
y2 0.84867200228593753231
y2_prime 0
y3 1.8549185446480889183
y3_prime 0
rho 0.018665402794104047485
rho.alpha 0.16968990248376858432
r_ii 0.99996095733037959619
theta 0.0049993129899696528082
