time_index	left_time_boundary	right_time_boundary	lambda
0	0	8.92932e-05	219.882
1	8.92932e-05	0.000211475	219.882
2	0.000211475	0.000378657	201.533
3	0.000378657	0.000607415	185.554
4	0.000607415	0.000920429	199.361
5	0.000920429	0.00134873	275.489
6	0.00134873	0.00193478	463.507
7	0.00193478	0.00273668	590.813
8	0.00273668	0.00383394	561.823
9	0.00383394	0.00533532	492.812
10	0.00533532	0.0073897	378.474
11	0.0073897	0.0102007	426.068
12	0.0102007	0.0140471	736.428
13	0.0140471	0.0193101	57977.5
14	0.0193101	0.0265117	57977.5
15	0.0265117	inf	57977.5
