0.000720051	-8646786.10	0,6.08692e-06,1.63401e-05,3.3611e-05,6.27032e-05,0.000111708,0.000194254,0.000333298,0.000567513,0.000962038,0.0016266,0.00274602,0.00463163,0.00780786,0.0131581,0.0221703,inf	289.522,289.522,251.302,258.546,267.849,261.615,255.729,266.211,302.301,381.761,500.296,479.801,438.827,465.939,465.939,465.939
0.000810509	-8639709.48	0,6.08692e-06,1.63401e-05,3.3611e-05,6.27032e-05,0.000111708,0.000194254,0.000333298,0.000567513,0.000962038,0.0016266,0.00274602,0.00463163,0.00780786,0.0131581,0.0221703,inf	306.485,306.485,233.47,245.757,259.02,240.144,219.677,223.142,262.27,363.961,548.158,519.233,454.585,521.468,521.468,521.468
0.000892675	-8636645.98	0,6.08692e-06,1.63401e-05,3.3611e-05,6.27032e-05,0.000111708,0.000194254,0.000333298,0.000567513,0.000962038,0.0016266,0.00274602,0.00463163,0.00780786,0.0131581,0.0221703,inf	324.097,324.097,227.12,250.43,272.716,244.075,210.974,206.683,243.03,351.621,572.264,537.807,458.714,569.812,569.812,569.812
0.000968489	-8634782.04	0,6.08692e-06,1.63401e-05,3.3611e-05,6.27032e-05,0.000111708,0.000194254,0.000333298,0.000567513,0.000962038,0.0016266,0.00274602,0.00463163,0.00780786,0.0131581,0.0221703,inf	327.906,327.906,215.744,252.213,287.461,253.353,211.058,200.522,233.136,343.544,585.3,545.617,456.973,612.658,612.658,612.658
0.00103953	-8633414.93	0,6.08692e-06,1.63401e-05,3.3611e-05,6.27032e-05,0.000111708,0.000194254,0.000333298,0.000567513,0.000962038,0.0016266,0.00274602,0.00463163,0.00780786,0.0131581,0.0221703,inf	324.271,324.271,200.472,248.575,298.002,262.162,214.081,199.024,228.084,338.428,592.917,547.793,452.326,651.227,651.227,651.227
0.00110685	-8632315.50	0,6.08692e-06,1.63401e-05,3.3611e-05,6.27032e-05,0.000111708,0.000194254,0.000333298,0.000567513,0.000962038,0.0016266,0.00274602,0.00463163,0.00780786,0.0131581,0.0221703,inf	319.547,319.547,184.542,241.309,303.972,268.838,217.8,199.726,225.648,335.234,597.687,547.001,446.324,686.376,686.376,686.376
0.00117112	-8631388.49	0,6.08692e-06,1.63401e-05,3.3611e-05,6.27032e-05,0.000111708,0.000194254,0.000333298,0.000567513,0.000962038,0.0016266,0.00274602,0.00463163,0.00780786,0.0131581,0.0221703,inf	316.685,316.685,170.057,232.652,306.587,273.343,221.444,201.545,224.746,333.342,600.872,544.629,439.75,718.673,718.673,718.673
0.00123281	-8630585.95	0,6.08692e-06,1.63401e-05,3.3611e-05,6.27032e-05,0.000111708,0.000194254,0.000333298,0.000567513,0.000962038,0.0016266,0.00274602,0.00463163,0.00780786,0.0131581,0.0221703,inf	316.175,316.175,157.77,224.102,307.124,276.058,224.746,203.924,224.77,332.34,603.116,541.427,433.011,748.501,748.501,748.501
0.00129225	-8629879.54	0,6.08692e-06,1.63401e-05,3.3611e-05,6.27032e-05,0.000111708,0.000194254,0.000333298,0.000567513,0.000962038,0.0016266,0.00274602,0.00463163,0.00780786,0.0131581,0.0221703,inf	317.5,317.5,147.728,216.443,306.562,277.421,227.647,206.566,225.363,331.952,604.765,537.816,426.324,776.112,776.112,776.112
0.00134966	-8629250.53	0,6.08692e-06,1.63401e-05,3.3611e-05,6.27032e-05,0.000111708,0.000194254,0.000333298,0.000567513,0.000962038,0.0016266,0.00274602,0.00463163,0.00780786,0.0131581,0.0221703,inf	319.918,319.918,139.669,210.001,305.558,277.816,230.166,209.302,226.303,331.993,606.015,534.036,419.799,801.669,801.669,801.669
0.00140524	-8628685.55	0,6.08692e-06,1.63401e-05,3.3611e-05,6.27032e-05,0.000111708,0.000194254,0.000333298,0.000567513,0.000962038,0.0016266,0.00274602,0.00463163,0.00780786,0.0131581,0.0221703,inf	322.781,322.781,133.258,204.833,304.513,277.541,232.35,212.038,227.454,332.336,606.986,530.225,413.494,825.269,825.269,825.269
0.00145913	-8628174.51	0,6.08692e-06,1.63401e-05,3.3611e-05,6.27032e-05,0.000111708,0.000194254,0.000333298,0.000567513,0.000962038,0.0016266,0.00274602,0.00463163,0.00780786,0.0131581,0.0221703,inf	325.622,325.622,128.181,200.87,303.656,276.816,234.254,214.72,228.724,332.894,607.754,526.467,407.434,846.967,846.967,846.967
0.00151145	-8627709.55	0,6.08692e-06,1.63401e-05,3.3611e-05,6.27032e-05,0.000111708,0.000194254,0.000333298,0.000567513,0.000962038,0.0016266,0.00274602,0.00463163,0.00780786,0.0131581,0.0221703,inf	328.157,328.157,124.165,197.981,303.096,275.8,235.928,217.318,230.056,333.604,608.369,522.809,401.628,866.786,866.786,866.786
0.0015623	-8627284.33	0,6.08692e-06,1.63401e-05,3.3611e-05,6.27032e-05,0.000111708,0.000194254,0.000333298,0.000567513,0.000962038,0.0016266,0.00274602,0.00463163,0.00780786,0.0131581,0.0221703,inf	330.193,330.193,120.983,196.025,302.874,274.607,237.418,219.816,231.412,334.423,608.866,519.277,396.076,884.726,884.726,884.726
0.00161179	-8626893.69	0,6.08692e-06,1.63401e-05,3.3611e-05,6.27032e-05,0.000111708,0.000194254,0.000333298,0.000567513,0.000962038,0.0016266,0.00274602,0.00463163,0.00780786,0.0131581,0.0221703,inf	331.702,331.702,118.457,194.863,302.99,273.315,238.759,222.208,232.765,335.319,609.271,515.887,390.773,900.778,900.778,900.778
0.00165998	-8626533.33	0,6.08692e-06,1.63401e-05,3.3611e-05,6.27032e-05,0.000111708,0.000194254,0.000333298,0.000567513,0.000962038,0.0016266,0.00274602,0.00463163,0.00780786,0.0131581,0.0221703,inf	332.664,332.664,116.446,194.373,303.421,271.979,239.984,224.491,234.1,336.268,609.601,512.645,385.71,914.931,914.931,914.931
0.00170695	-8626199.64	0,6.08692e-06,1.63401e-05,3.3611e-05,6.27032e-05,0.000111708,0.000194254,0.000333298,0.000567513,0.000962038,0.0016266,0.00274602,0.00463163,0.00780786,0.0131581,0.0221703,inf	333.126,333.126,114.838,194.443,304.131,270.636,241.118,226.667,235.405,337.253,609.873,509.553,380.877,927.178,927.178,927.178
0.00175276	-8625889.57	0,6.08692e-06,1.63401e-05,3.3611e-05,6.27032e-05,0.000111708,0.000194254,0.000333298,0.000567513,0.000962038,0.0016266,0.00274602,0.00463163,0.00780786,0.0131581,0.0221703,inf	333.139,333.139,113.538,194.976,305.086,269.314,242.18,228.738,236.673,338.262,610.096,506.61,376.266,937.526,937.526,937.526
0.00179747	-8625600.51	0,6.08692e-06,1.63401e-05,3.3611e-05,6.27032e-05,0.000111708,0.000194254,0.000333298,0.000567513,0.000962038,0.0016266,0.00274602,0.00463163,0.00780786,0.0131581,0.0221703,inf	332.778,332.778,112.481,195.887,306.245,268.028,243.188,230.709,237.9,339.283,610.28,503.815,371.867,945.997,945.997,945.997
0.00184114	-8625330.23	0,6.08692e-06,1.63401e-05,3.3611e-05,6.27032e-05,0.000111708,0.000194254,0.000333298,0.000567513,0.000962038,0.0016266,0.00274602,0.00463163,0.00780786,0.0131581,0.0221703,inf	332.12,332.12,111.607,197.112,307.575,266.791,244.155,232.585,239.083,340.31,610.432,501.162,367.669,952.632,952.632,952.632
