0.000718887	-4646897.02	0,1.03288e-05,2.70618e-05,5.41698e-05,9.80856e-05,0.000169231,0.000284488,0.000471208,0.000773701,0.00126375,0.00205764,0.00334377,0.00542734,0.0088028,0.0142711,0.02313,inf	202.972,202.972,227.071,241.346,246.536,249.152,257.711,282.935,337.663,437.226,501.976,463.641,432.365,485.096,485.096,485.096
0.000807152	-4643141.25	0,1.03288e-05,2.70618e-05,5.41698e-05,9.80856e-05,0.000169231,0.000284488,0.000471208,0.000773701,0.00126375,0.00205764,0.00334377,0.00542734,0.0088028,0.0142711,0.02313,inf	177.199,177.199,206.454,223.074,222.627,216.009,216.637,241.122,307.957,447.368,555.059,496.883,446.16,576.588,576.588,576.588
0.000887765	-4641510.20	0,1.03288e-05,2.70618e-05,5.41698e-05,9.80856e-05,0.000169231,0.000284488,0.000471208,0.000773701,0.00126375,0.00205764,0.00334377,0.00542734,0.0088028,0.0142711,0.02313,inf	171.522,171.522,207.9,229.723,225.554,210.735,202.645,222.788,292.017,449.818,582.363,512.863,449.603,680.751,680.751,680.751
0.000962316	-4640527.95	0,1.03288e-05,2.70618e-05,5.41698e-05,9.80856e-05,0.000169231,0.000284488,0.000471208,0.000773701,0.00126375,0.00205764,0.00334377,0.00542734,0.0088028,0.0142711,0.02313,inf	165.732,165.732,209.148,238.754,234.106,213.831,198.392,214.194,283.037,450.273,596.361,519.404,447.592,811.037,811.037,811.037
0.00103218	-4639824.69	0,1.03288e-05,2.70618e-05,5.41698e-05,9.80856e-05,0.000169231,0.000284488,0.000471208,0.000773701,0.00126375,0.00205764,0.00334377,0.00542734,0.0088028,0.0142711,0.02313,inf	158.486,158.486,206.502,244.618,242.165,219.22,198.122,210.292,277.954,450.477,603.287,520.707,442.729,1001.31,1001.31,1001.31
0.00109825	-4639282.45	0,1.03288e-05,2.70618e-05,5.41698e-05,9.80856e-05,0.000169231,0.000284488,0.000471208,0.000773701,0.00126375,0.00205764,0.00334377,0.00542734,0.0088028,0.0142711,0.02313,inf	151.51,151.51,201.032,246.865,248.155,224.778,199.558,208.862,275.193,450.901,606.26,518.955,436.351,1378.36,1378.36,1378.36
0.00116104	-4638863.04	0,1.03288e-05,2.70618e-05,5.41698e-05,9.80856e-05,0.000169231,0.000284488,0.000471208,0.000773701,0.00126375,0.00205764,0.00334377,0.00542734,0.0088028,0.0142711,0.02313,inf	146.002,146.002,194.439,246.488,252.048,229.798,201.714,208.812,273.88,451.615,606.843,515.186,429.101,2818.15,2818.15,2818.15
0.00116104	-4638558.36	0,1.03288e-05,2.70618e-05,5.41698e-05,9.80856e-05,0.000169231,0.000284488,0.000471208,0.000773701,0.00126375,0.00205764,0.00334377,0.00542734,0.0088028,0.0142711,0.02313,inf	141.25,141.25,186.491,242.715,252.314,232.324,202.627,208.054,271.208,445.813,594.899,503.846,417.854,50545.1,50545.1,50545.1
0.00116104	-4638692.62	0,1.03288e-05,2.70618e-05,5.41698e-05,9.80856e-05,0.000169231,0.000284488,0.000471208,0.000773701,0.00126375,0.00205764,0.00334377,0.00542734,0.0088028,0.0142711,0.02313,inf	139.184,139.184,180.253,239.376,252.332,234.88,202.627,208.054,270.82,444.525,587.799,494.919,408.077,50549.4,50549.4,50549.4
0.00116104	-4638685.92	0,1.03288e-05,2.70618e-05,5.41698e-05,9.80856e-05,0.000169231,0.000284488,0.000471208,0.000773701,0.00126375,0.00205764,0.00334377,0.00542734,0.0088028,0.0142711,0.02313,inf	138.83,138.83,175.372,236.49,252.099,237.147,202.746,208.054,270.82,444.525,584.143,488.56,399.581,50552.7,50552.7,50552.7
0.00116104	-4638682.62	0,1.03288e-05,2.70618e-05,5.41698e-05,9.80856e-05,0.000169231,0.000284488,0.000471208,0.000773701,0.00126375,0.00205764,0.00334377,0.00542734,0.0088028,0.0142711,0.02313,inf	138.832,138.832,171.532,234.008,251.643,239.076,202.746,208.054,270.867,444.525,582.57,483.915,392.015,50555.2,50555.2,50555.2
0.00116104	-4638679.50	0,1.03288e-05,2.70618e-05,5.41698e-05,9.80856e-05,0.000169231,0.000284488,0.000471208,0.000773701,0.00126375,0.00205764,0.00334377,0.00542734,0.0088028,0.0142711,0.02313,inf	138.837,138.837,168.562,231.942,251.076,240.757,202.746,208.054,270.904,444.525,582.302,480.477,385.159,50557.4,50557.4,50557.4
0.00116104	-4638675.54	0,1.03288e-05,2.70618e-05,5.41698e-05,9.80856e-05,0.000169231,0.000284488,0.000471208,0.000773701,0.00126375,0.00205764,0.00334377,0.00542734,0.0088028,0.0142711,0.02313,inf	138.838,138.838,166.3,230.25,250.443,242.231,202.803,208.054,270.904,444.525,582.302,477.937,378.864,50559.2,50559.2,50559.2
0.00116104	-4638671.69	0,1.03288e-05,2.70618e-05,5.41698e-05,9.80856e-05,0.000169231,0.000284488,0.000471208,0.000773701,0.00126375,0.00205764,0.00334377,0.00542734,0.0088028,0.0142711,0.02313,inf	138.844,138.844,164.604,228.864,249.754,243.522,202.841,208.054,270.904,444.525,582.302,476.113,373.037,50560.9,50560.9,50560.9
0.00116104	-4638668.09	0,1.03288e-05,2.70618e-05,5.41698e-05,9.80856e-05,0.000169231,0.000284488,0.000471208,0.000773701,0.00126375,0.00205764,0.00334377,0.00542734,0.0088028,0.0142711,0.02313,inf	138.845,138.845,163.356,227.74,249.031,243.522,203.562,208.054,270.904,444.525,582.302,474.876,367.609,50562.3,50562.3,50562.3
0.00116104	-4638664.48	0,1.03288e-05,2.70618e-05,5.41698e-05,9.80856e-05,0.000169231,0.000284488,0.000471208,0.000773701,0.00126375,0.00205764,0.00334377,0.00542734,0.0088028,0.0142711,0.02313,inf	138.848,138.848,162.53,226.948,248.399,244.408,203.562,208.054,270.904,444.525,582.302,474.117,362.524,50563.6,50563.6,50563.6
0.00116104	-4638660.88	0,1.03288e-05,2.70618e-05,5.41698e-05,9.80856e-05,0.000169231,0.000284488,0.000471208,0.000773701,0.00126375,0.00205764,0.00334377,0.00542734,0.0088028,0.0142711,0.02313,inf	138.849,138.849,161.955,226.317,247.757,245.18,203.562,208.054,270.904,444.525,582.302,473.748,357.736,50564.8,50564.8,50564.8
0.00116104	-4638657.19	0,1.03288e-05,2.70618e-05,5.41698e-05,9.80856e-05,0.000169231,0.000284488,0.000471208,0.000773701,0.00126375,0.00205764,0.00334377,0.00542734,0.0088028,0.0142711,0.02313,inf	138.851,138.851,161.58,225.828,247.114,245.852,203.562,208.054,270.904,444.525,582.302,473.696,353.207,50565.9,50565.9,50565.9
0.00116104	-4638653.39	0,1.03288e-05,2.70618e-05,5.41698e-05,9.80856e-05,0.000169231,0.000284488,0.000471208,0.000773701,0.00126375,0.00205764,0.00334377,0.00542734,0.0088028,0.0142711,0.02313,inf	138.851,138.851,161.363,225.451,246.482,245.852,203.562,208.277,270.904,444.525,582.302,473.696,348.914,50566.9,50566.9,50566.9
0.00116104	-4638649.79	0,1.03288e-05,2.70618e-05,5.41698e-05,9.80856e-05,0.000169231,0.000284488,0.000471208,0.000773701,0.00126375,0.00205764,0.00334377,0.00542734,0.0088028,0.0142711,0.02313,inf	138.853,138.853,161.315,225.269,245.955,246.258,203.562,208.277,270.904,444.525,582.302,473.696,344.839,50567.9,50567.9,50567.9
