time_index	left_time_boundary	right_time_boundary	lambda
0	0	2.66748e-06	528.93
1	2.66748e-06	6.1295e-06	528.93
2	6.1295e-06	1.06227e-05	1.37827
3	1.06227e-05	1.64544e-05	3.8638
4	1.64544e-05	2.4023e-05	19.8534
5	2.4023e-05	3.38462e-05	54.0825
6	3.38462e-05	4.65952e-05	96.8378
7	4.65952e-05	6.31418e-05	138.815
8	6.31418e-05	8.46171e-05	169.59
9	8.46171e-05	0.000112489	179.364
10	0.000112489	0.000148663	168.995
11	0.000148663	0.000195612	150.15
12	0.000195612	0.000256546	134.75
13	0.000256546	0.00033563	129.387
14	0.00033563	0.00043827	136.997
15	0.00043827	0.000571483	158.369
16	0.000571483	0.000744376	192.305
17	0.000744376	0.000968768	238.201
18	0.000968768	0.00126	300.165
19	0.00126	0.00163798	387.726
20	0.00163798	0.00212854	506.943
21	0.00212854	0.00276523	624.635
22	0.00276523	0.00359156	667.469
23	0.00359156	0.00466403	639.152
24	0.00466403	0.00605595	570.153
25	0.00605595	0.00786248	475.269
26	0.00786248	0.0102071	375.941
27	0.0102071	0.0132501	297.96
28	0.0132501	0.0171996	297.96
29	0.0171996	0.0223254	362.872
30	0.0223254	0.028978	362.872
31	0.028978	inf	362.872
