time_index	left_time_boundary	right_time_boundary	lambda
0	0	9.21609e-05	184.251
1	9.21609e-05	0.000218266	184.251
2	0.000218266	0.000390818	130.292
3	0.000390818	0.000626923	133.568
4	0.000626923	0.000949988	209.312
5	0.000949988	0.00139204	319.365
6	0.00139204	0.00199692	482.01
7	0.00199692	0.00282457	617.765
8	0.00282457	0.00395706	655.234
9	0.00395706	0.00550667	593.861
10	0.00550667	0.00762702	491.021
11	0.00762702	0.0105283	366.567
12	0.0105283	0.0144982	268.29
13	0.0144982	0.0199303	280.735
14	0.0199303	0.0273631	280.735
15	0.0273631	inf	280.735
