time_index	left_time_boundary	right_time_boundary	lambda
0	0	1.76613e-06	1799.59
1	1.76613e-06	4.09257e-06	1799.59
2	4.09257e-06	7.15706e-06	636.706
3	7.15706e-06	1.11938e-05	10.2381
4	1.11938e-05	1.65111e-05	2.45462
5	1.65111e-05	2.35154e-05	5.76683
6	2.35154e-05	3.27417e-05	29.472
7	3.27417e-05	4.48951e-05	102.027
8	4.48951e-05	6.09041e-05	179.314
9	6.09041e-05	8.1992e-05	202.89
10	8.1992e-05	0.00010977	190.987
11	0.00010977	0.000146361	168.608
12	0.000146361	0.000194559	148.647
13	0.000194559	0.000258049	139.717
14	0.000258049	0.000341681	147.02
15	0.000341681	0.000451845	172.5
16	0.000451845	0.000596958	212.634
17	0.000596958	0.000788109	257.513
18	0.000788109	0.0010399	301.08
19	0.0010399	0.00137157	351.607
20	0.00137157	0.00180847	426.095
21	0.00180847	0.00238397	527.458
22	0.00238397	0.00314205	599.968
23	0.00314205	0.00414063	602.426
24	0.00414063	0.005456	559.777
25	0.005456	0.00718868	481.289
26	0.00718868	0.00947104	384.636
27	0.00947104	0.0124775	284.056
28	0.0124775	0.0164377	284.056
29	0.0164377	0.0216543	299.083
30	0.0216543	0.0285259	299.083
31	0.0285259	inf	299.083
