0.000703697	-8783433.47	0,2.87126e-06,6.66311e-06,1.16707e-05,1.82839e-05,2.70173e-05,3.85509e-05,5.37824e-05,7.38975e-05,0.000100462,0.000135543,0.000181873,0.000243057,0.000323857,0.000430564,0.000571483,0.000757584,0.00100335,0.00132792,0.00175655,0.00232261,0.00307017,0.0040574,0.00536116,0.00708294,0.00935675,0.0123596,0.0163252,0.0215623,0.0284785,inf	447.115,447.115,447.115,447.115,447.115,447.115,447.115,447.115,447.115,447.115,447.115,447.115,447.115,447.115,447.115,447.115,447.115,447.115,447.115,447.115,447.115,447.115,447.115,447.115,447.115,447.115,447.115,447.115,447.115,447.115
0.000775558	-8779145.79	0,2.87126e-06,6.66311e-06,1.16707e-05,1.82839e-05,2.70173e-05,3.85509e-05,5.37824e-05,7.38975e-05,0.000100462,0.000135543,0.000181873,0.000243057,0.000323857,0.000430564,0.000571483,0.000757584,0.00100335,0.00132792,0.00175655,0.00232261,0.00307017,0.0040574,0.00536116,0.00708294,0.00935675,0.0123596,0.0163252,0.0215623,0.0284785,inf	468.108,468.108,468.108,468.108,468.108,468.108,468.108,468.108,468.108,468.108,468.108,468.108,468.108,468.108,468.108,468.108,468.108,468.108,468.108,468.108,468.108,468.108,468.108,468.108,468.108,468.108,468.108,468.108,468.108,468.108
0.000844366	-8776729.14	0,2.87126e-06,6.66311e-06,1.16707e-05,1.82839e-05,2.70173e-05,3.85509e-05,5.37824e-05,7.38975e-05,0.000100462,0.000135543,0.000181873,0.000243057,0.000323857,0.000430564,0.000571483,0.000757584,0.00100335,0.00132792,0.00175655,0.00232261,0.00307017,0.0040574,0.00536116,0.00708294,0.00935675,0.0123596,0.0163252,0.0215623,0.0284785,inf	475.961,475.961,475.961,475.961,475.961,475.961,475.961,475.961,475.961,475.961,475.961,475.961,475.961,475.961,475.961,475.961,475.961,475.961,475.961,475.961,475.961,475.961,475.961,475.961,475.961,475.961,475.961,475.961,475.961,475.961
0.000912104	-8774788.77	0,2.87126e-06,6.66311e-06,1.16707e-05,1.82839e-05,2.70173e-05,3.85509e-05,5.37824e-05,7.38975e-05,0.000100462,0.000135543,0.000181873,0.000243057,0.000323857,0.000430564,0.000571483,0.000757584,0.00100335,0.00132792,0.00175655,0.00232261,0.00307017,0.0040574,0.00536116,0.00708294,0.00935675,0.0123596,0.0163252,0.0215623,0.0284785,inf	477.985,477.985,477.985,477.985,477.985,477.985,477.985,477.985,477.985,477.985,477.985,477.985,477.985,477.985,477.985,477.985,477.985,477.985,477.985,477.985,477.985,477.985,477.985,477.985,477.985,477.985,477.985,477.985,477.985,477.985
0.000979848	-8773012.64	0,2.87126e-06,6.66311e-06,1.16707e-05,1.82839e-05,2.70173e-05,3.85509e-05,5.37824e-05,7.38975e-05,0.000100462,0.000135543,0.000181873,0.000243057,0.000323857,0.000430564,0.000571483,0.000757584,0.00100335,0.00132792,0.00175655,0.00232261,0.00307017,0.0040574,0.00536116,0.00708294,0.00935675,0.0123596,0.0163252,0.0215623,0.0284785,inf	477.505,477.505,477.505,477.505,477.505,477.505,477.505,477.505,477.505,477.505,477.505,477.505,477.505,477.505,477.505,477.505,477.505,477.505,477.505,477.505,477.505,477.505,477.505,477.505,477.505,477.505,477.505,477.505,477.505,477.505
0.00104807	-8771326.29	0,2.87126e-06,6.66311e-06,1.16707e-05,1.82839e-05,2.70173e-05,3.85509e-05,5.37824e-05,7.38975e-05,0.000100462,0.000135543,0.000181873,0.000243057,0.000323857,0.000430564,0.000571483,0.000757584,0.00100335,0.00132792,0.00175655,0.00232261,0.00307017,0.0040574,0.00536116,0.00708294,0.00935675,0.0123596,0.0163252,0.0215623,0.0284785,inf	475.976,475.976,475.976,475.976,475.976,475.976,475.976,475.976,475.976,475.976,475.976,475.976,475.976,475.976,475.976,475.976,475.976,475.976,475.976,475.976,475.976,475.976,475.976,475.976,475.976,475.976,475.976,475.976,475.976,475.976
0.00111694	-8769709.22	0,2.87126e-06,6.66311e-06,1.16707e-05,1.82839e-05,2.70173e-05,3.85509e-05,5.37824e-05,7.38975e-05,0.000100462,0.000135543,0.000181873,0.000243057,0.000323857,0.000430564,0.000571483,0.000757584,0.00100335,0.00132792,0.00175655,0.00232261,0.00307017,0.0040574,0.00536116,0.00708294,0.00935675,0.0123596,0.0163252,0.0215623,0.0284785,inf	474.034,474.034,474.034,474.034,474.034,474.034,474.034,474.034,474.034,474.034,474.034,474.034,474.034,474.034,474.034,474.034,474.034,474.034,474.034,474.034,474.034,474.034,474.034,474.034,474.034,474.034,474.034,474.034,474.034,474.034
0.00118646	-8768154.42	0,2.87126e-06,6.66311e-06,1.16707e-05,1.82839e-05,2.70173e-05,3.85509e-05,5.37824e-05,7.38975e-05,0.000100462,0.000135543,0.000181873,0.000243057,0.000323857,0.000430564,0.000571483,0.000757584,0.00100335,0.00132792,0.00175655,0.00232261,0.00307017,0.0040574,0.00536116,0.00708294,0.00935675,0.0123596,0.0163252,0.0215623,0.0284785,inf	471.958,471.958,471.958,471.958,471.958,471.958,471.958,471.958,471.958,471.958,471.958,471.958,471.958,471.958,471.958,471.958,471.958,471.958,471.958,471.958,471.958,471.958,471.958,471.958,471.958,471.958,471.958,471.958,471.958,471.958
0.00125659	-8766658.61	0,2.87126e-06,6.66311e-06,1.16707e-05,1.82839e-05,2.70173e-05,3.85509e-05,5.37824e-05,7.38975e-05,0.000100462,0.000135543,0.000181873,0.000243057,0.000323857,0.000430564,0.000571483,0.000757584,0.00100335,0.00132792,0.00175655,0.00232261,0.00307017,0.0040574,0.00536116,0.00708294,0.00935675,0.0123596,0.0163252,0.0215623,0.0284785,inf	469.868,469.868,469.868,469.868,469.868,469.868,469.868,469.868,469.868,469.868,469.868,469.868,469.868,469.868,469.868,469.868,469.868,469.868,469.868,469.868,469.868,469.868,469.868,469.868,469.868,469.868,469.868,469.868,469.868,469.868
0.00132725	-8765219.72	0,2.87126e-06,6.66311e-06,1.16707e-05,1.82839e-05,2.70173e-05,3.85509e-05,5.37824e-05,7.38975e-05,0.000100462,0.000135543,0.000181873,0.000243057,0.000323857,0.000430564,0.000571483,0.000757584,0.00100335,0.00132792,0.00175655,0.00232261,0.00307017,0.0040574,0.00536116,0.00708294,0.00935675,0.0123596,0.0163252,0.0215623,0.0284785,inf	467.819,467.819,467.819,467.819,467.819,467.819,467.819,467.819,467.819,467.819,467.819,467.819,467.819,467.819,467.819,467.819,467.819,467.819,467.819,467.819,467.819,467.819,467.819,467.819,467.819,467.819,467.819,467.819,467.819,467.819
0.00139835	-8763835.95	0,2.87126e-06,6.66311e-06,1.16707e-05,1.82839e-05,2.70173e-05,3.85509e-05,5.37824e-05,7.38975e-05,0.000100462,0.000135543,0.000181873,0.000243057,0.000323857,0.000430564,0.000571483,0.000757584,0.00100335,0.00132792,0.00175655,0.00232261,0.00307017,0.0040574,0.00536116,0.00708294,0.00935675,0.0123596,0.0163252,0.0215623,0.0284785,inf	465.833,465.833,465.833,465.833,465.833,465.833,465.833,465.833,465.833,465.833,465.833,465.833,465.833,465.833,465.833,465.833,465.833,465.833,465.833,465.833,465.833,465.833,465.833,465.833,465.833,465.833,465.833,465.833,465.833,465.833
0.0014698	-8762505.63	0,2.87126e-06,6.66311e-06,1.16707e-05,1.82839e-05,2.70173e-05,3.85509e-05,5.37824e-05,7.38975e-05,0.000100462,0.000135543,0.000181873,0.000243057,0.000323857,0.000430564,0.000571483,0.000757584,0.00100335,0.00132792,0.00175655,0.00232261,0.00307017,0.0040574,0.00536116,0.00708294,0.00935675,0.0123596,0.0163252,0.0215623,0.0284785,inf	463.92,463.92,463.92,463.92,463.92,463.92,463.92,463.92,463.92,463.92,463.92,463.92,463.92,463.92,463.92,463.92,463.92,463.92,463.92,463.92,463.92,463.92,463.92,463.92,463.92,463.92,463.92,463.92,463.92,463.92
0.00154152	-8761227.05	0,2.87126e-06,6.66311e-06,1.16707e-05,1.82839e-05,2.70173e-05,3.85509e-05,5.37824e-05,7.38975e-05,0.000100462,0.000135543,0.000181873,0.000243057,0.000323857,0.000430564,0.000571483,0.000757584,0.00100335,0.00132792,0.00175655,0.00232261,0.00307017,0.0040574,0.00536116,0.00708294,0.00935675,0.0123596,0.0163252,0.0215623,0.0284785,inf	462.08,462.08,462.08,462.08,462.08,462.08,462.08,462.08,462.08,462.08,462.08,462.08,462.08,462.08,462.08,462.08,462.08,462.08,462.08,462.08,462.08,462.08,462.08,462.08,462.08,462.08,462.08,462.08,462.08,462.08
0.00161342	-8759998.47	0,2.87126e-06,6.66311e-06,1.16707e-05,1.82839e-05,2.70173e-05,3.85509e-05,5.37824e-05,7.38975e-05,0.000100462,0.000135543,0.000181873,0.000243057,0.000323857,0.000430564,0.000571483,0.000757584,0.00100335,0.00132792,0.00175655,0.00232261,0.00307017,0.0040574,0.00536116,0.00708294,0.00935675,0.0123596,0.0163252,0.0215623,0.0284785,inf	460.314,460.314,460.314,460.314,460.314,460.314,460.314,460.314,460.314,460.314,460.314,460.314,460.314,460.314,460.314,460.314,460.314,460.314,460.314,460.314,460.314,460.314,460.314,460.314,460.314,460.314,460.314,460.314,460.314,460.314
0.00168544	-8758818.10	0,2.87126e-06,6.66311e-06,1.16707e-05,1.82839e-05,2.70173e-05,3.85509e-05,5.37824e-05,7.38975e-05,0.000100462,0.000135543,0.000181873,0.000243057,0.000323857,0.000430564,0.000571483,0.000757584,0.00100335,0.00132792,0.00175655,0.00232261,0.00307017,0.0040574,0.00536116,0.00708294,0.00935675,0.0123596,0.0163252,0.0215623,0.0284785,inf	458.619,458.619,458.619,458.619,458.619,458.619,458.619,458.619,458.619,458.619,458.619,458.619,458.619,458.619,458.619,458.619,458.619,458.619,458.619,458.619,458.619,458.619,458.619,458.619,458.619,458.619,458.619,458.619,458.619,458.619
0.00175751	-8757684.16	0,2.87126e-06,6.66311e-06,1.16707e-05,1.82839e-05,2.70173e-05,3.85509e-05,5.37824e-05,7.38975e-05,0.000100462,0.000135543,0.000181873,0.000243057,0.000323857,0.000430564,0.000571483,0.000757584,0.00100335,0.00132792,0.00175655,0.00232261,0.00307017,0.0040574,0.00536116,0.00708294,0.00935675,0.0123596,0.0163252,0.0215623,0.0284785,inf	456.993,456.993,456.993,456.993,456.993,456.993,456.993,456.993,456.993,456.993,456.993,456.993,456.993,456.993,456.993,456.993,456.993,456.993,456.993,456.993,456.993,456.993,456.993,456.993,456.993,456.993,456.993,456.993,456.993,456.993
0.00182956	-8756594.86	0,2.87126e-06,6.66311e-06,1.16707e-05,1.82839e-05,2.70173e-05,3.85509e-05,5.37824e-05,7.38975e-05,0.000100462,0.000135543,0.000181873,0.000243057,0.000323857,0.000430564,0.000571483,0.000757584,0.00100335,0.00132792,0.00175655,0.00232261,0.00307017,0.0040574,0.00536116,0.00708294,0.00935675,0.0123596,0.0163252,0.0215623,0.0284785,inf	455.433,455.433,455.433,455.433,455.433,455.433,455.433,455.433,455.433,455.433,455.433,455.433,455.433,455.433,455.433,455.433,455.433,455.433,455.433,455.433,455.433,455.433,455.433,455.433,455.433,455.433,455.433,455.433,455.433,455.433
0.00190153	-8755548.43	0,2.87126e-06,6.66311e-06,1.16707e-05,1.82839e-05,2.70173e-05,3.85509e-05,5.37824e-05,7.38975e-05,0.000100462,0.000135543,0.000181873,0.000243057,0.000323857,0.000430564,0.000571483,0.000757584,0.00100335,0.00132792,0.00175655,0.00232261,0.00307017,0.0040574,0.00536116,0.00708294,0.00935675,0.0123596,0.0163252,0.0215623,0.0284785,inf	453.935,453.935,453.935,453.935,453.935,453.935,453.935,453.935,453.935,453.935,453.935,453.935,453.935,453.935,453.935,453.935,453.935,453.935,453.935,453.935,453.935,453.935,453.935,453.935,453.935,453.935,453.935,453.935,453.935,453.935
0.00197338	-8754543.09	0,2.87126e-06,6.66311e-06,1.16707e-05,1.82839e-05,2.70173e-05,3.85509e-05,5.37824e-05,7.38975e-05,0.000100462,0.000135543,0.000181873,0.000243057,0.000323857,0.000430564,0.000571483,0.000757584,0.00100335,0.00132792,0.00175655,0.00232261,0.00307017,0.0040574,0.00536116,0.00708294,0.00935675,0.0123596,0.0163252,0.0215623,0.0284785,inf	452.497,452.497,452.497,452.497,452.497,452.497,452.497,452.497,452.497,452.497,452.497,452.497,452.497,452.497,452.497,452.497,452.497,452.497,452.497,452.497,452.497,452.497,452.497,452.497,452.497,452.497,452.497,452.497,452.497,452.497
0.00204506	-8753577.15	0,2.87126e-06,6.66311e-06,1.16707e-05,1.82839e-05,2.70173e-05,3.85509e-05,5.37824e-05,7.38975e-05,0.000100462,0.000135543,0.000181873,0.000243057,0.000323857,0.000430564,0.000571483,0.000757584,0.00100335,0.00132792,0.00175655,0.00232261,0.00307017,0.0040574,0.00536116,0.00708294,0.00935675,0.0123596,0.0163252,0.0215623,0.0284785,inf	451.115,451.115,451.115,451.115,451.115,451.115,451.115,451.115,451.115,451.115,451.115,451.115,451.115,451.115,451.115,451.115,451.115,451.115,451.115,451.115,451.115,451.115,451.115,451.115,451.115,451.115,451.115,451.115,451.115,451.115
