time_index	left_time_boundary	right_time_boundary	lambda
0	0	2.87126e-06	451.115
1	2.87126e-06	6.66311e-06	451.115
2	6.66311e-06	1.16707e-05	451.115
3	1.16707e-05	1.82839e-05	451.115
4	1.82839e-05	2.70173e-05	451.115
5	2.70173e-05	3.85509e-05	451.115
6	3.85509e-05	5.37824e-05	451.115
7	5.37824e-05	7.38975e-05	451.115
8	7.38975e-05	0.000100462	451.115
9	0.000100462	0.000135543	451.115
10	0.000135543	0.000181873	451.115
11	0.000181873	0.000243057	451.115
12	0.000243057	0.000323857	451.115
13	0.000323857	0.000430564	451.115
14	0.000430564	0.000571483	451.115
15	0.000571483	0.000757584	451.115
16	0.000757584	0.00100335	451.115
17	0.00100335	0.00132792	451.115
18	0.00132792	0.00175655	451.115
19	0.00175655	0.00232261	451.115
20	0.00232261	0.00307017	451.115
21	0.00307017	0.0040574	451.115
22	0.0040574	0.00536116	451.115
23	0.00536116	0.00708294	451.115
24	0.00708294	0.00935675	451.115
25	0.00935675	0.0123596	451.115
26	0.0123596	0.0163252	451.115
27	0.0163252	0.0215623	451.115
28	0.0215623	0.0284785	451.115
29	0.0284785	inf	451.115
