0.000721711	-1889122.28	0,2.22417e-05,5.62699e-05,0.00010833,0.000187979,0.000309836,0.000496267,0.000781494,0.00121787,0.00188549,0.0029069,0.00446959,0.00686038,0.0105181,0.0161142,0.0246757,inf	110.582,110.582,147.405,168.657,186.948,210.728,248.538,312.388,417.708,521.924,496.082,440.201,397.215,365.414,365.414,365.414
0.000815459	-1886683.78	0,2.22417e-05,5.62699e-05,0.00010833,0.000187979,0.000309836,0.000496267,0.000781494,0.00121787,0.00188549,0.0029069,0.00446959,0.00686038,0.0105181,0.0161142,0.0246757,inf	70.2401,70.2401,105.601,123.351,136.483,157.014,197.438,275.176,417.641,590.41,556.546,464.316,391.11,340.181,340.181,340.181
0.000904578	-1885582.24	0,2.22417e-05,5.62699e-05,0.00010833,0.000187979,0.000309836,0.000496267,0.000781494,0.00121787,0.00188549,0.0029069,0.00446959,0.00686038,0.0105181,0.0161142,0.0246757,inf	61.7653,61.7653,99.4301,114.281,121.4,136.618,174.853,256.066,413.468,627.173,592.033,476.734,382.975,320.075,320.075,320.075
0.000989568	-1884898.77	0,2.22417e-05,5.62699e-05,0.00010833,0.000187979,0.000309836,0.000496267,0.000781494,0.00121787,0.00188549,0.0029069,0.00446959,0.00686038,0.0105181,0.0161142,0.0246757,inf	59.8742,59.8742,103.035,116.484,118.195,128.58,164.187,245.976,409.555,647.153,612.729,482.767,374.986,304.026,304.026,304.026
0.00107144	-1884388.93	0,2.22417e-05,5.62699e-05,0.00010833,0.000187979,0.000309836,0.000496267,0.000781494,0.00121787,0.00188549,0.0029069,0.00446959,0.00686038,0.0105181,0.0161142,0.0246757,inf	58.6942,58.6942,108.944,122.442,119.599,125.978,159.357,240.865,406.703,658.032,624.699,485.46,367.984,291.169,291.169,291.169
0.00115096	-1883969.12	0,2.22417e-05,5.62699e-05,0.00010833,0.000187979,0.000309836,0.000496267,0.000781494,0.00121787,0.00188549,0.0029069,0.00446959,0.00686038,0.0105181,0.0161142,0.0246757,inf	56.7776,56.7776,114.319,129.162,122.768,125.999,157.679,238.689,404.852,663.755,631.405,486.442,362.173,280.814,280.814,280.814
0.00122861	-1883604.95	0,2.22417e-05,5.62699e-05,0.00010833,0.000187979,0.000309836,0.000496267,0.000781494,0.00121787,0.00188549,0.0029069,0.00446959,0.00686038,0.0105181,0.0161142,0.0246757,inf	54.1463,54.1463,118.189,135.383,126.472,127.357,157.827,238.323,403.779,666.423,634.836,486.56,357.488,272.416,272.416,272.416
0.00130473	-1883279.81	0,2.22417e-05,5.62699e-05,0.00010833,0.000187979,0.000309836,0.000496267,0.000781494,0.00121787,0.00188549,0.0029069,0.00446959,0.00686038,0.0105181,0.0161142,0.0246757,inf	51.2171,51.2171,120.457,140.649,130.173,129.416,159.087,239.11,403.272,667.2,636.164,486.248,353.772,265.551,265.551,265.551
0.00137949	-1882984.49	0,2.22417e-05,5.62699e-05,0.00010833,0.000187979,0.000309836,0.000496267,0.000781494,0.00121787,0.00188549,0.0029069,0.00446959,0.00686038,0.0105181,0.0161142,0.0246757,inf	48.3781,48.3781,121.396,144.892,133.651,131.846,161.052,240.647,403.164,666.767,636.1,485.725,350.852,259.891,259.891,259.891
0.00145303	-1882713.29	0,2.22417e-05,5.62699e-05,0.00010833,0.000187979,0.000309836,0.000496267,0.000781494,0.00121787,0.00188549,0.0029069,0.00446959,0.00686038,0.0105181,0.0161142,0.0246757,inf	45.8741,45.8741,121.375,148.212,136.834,134.467,163.473,242.674,403.331,665.538,635.096,485.099,348.569,255.183,255.183,255.183
0.00152545	-1882462.39	0,2.22417e-05,5.62699e-05,0.00010833,0.000187979,0.000309836,0.000496267,0.000781494,0.00121787,0.00188549,0.0029069,0.00446959,0.00686038,0.0105181,0.0161142,0.0246757,inf	43.8233,43.8233,120.737,150.769,139.717,137.177,166.192,245.02,403.687,663.777,633.444,484.422,346.789,251.231,251.231,251.231
0.00159678	-1882229.00	0,2.22417e-05,5.62699e-05,0.00010833,0.000187979,0.000309836,0.000496267,0.000781494,0.00121787,0.00188549,0.0029069,0.00446959,0.00686038,0.0105181,0.0161142,0.0246757,inf	42.2534,42.2534,119.757,152.726,142.323,139.915,169.104,247.569,404.166,661.657,631.342,483.718,345.4,247.884,247.884,247.884
0.00166709	-1882011.04	0,2.22417e-05,5.62699e-05,0.00010833,0.000187979,0.000309836,0.000496267,0.000781494,0.00121787,0.00188549,0.0029069,0.00446959,0.00686038,0.0105181,0.0161142,0.0246757,inf	41.1426,41.1426,118.633,154.229,144.686,142.646,172.137,250.24,404.725,659.299,628.929,482.997,344.317,245.025,245.025,245.025
0.00173641	-1881806.81	0,2.22417e-05,5.62699e-05,0.00010833,0.000187979,0.000309836,0.000496267,0.000781494,0.00121787,0.00188549,0.0029069,0.00446959,0.00686038,0.0105181,0.0161142,0.0246757,inf	40.446,40.446,117.499,155.398,146.838,145.347,175.24,252.976,405.331,656.785,626.301,482.263,343.469,242.56,242.56,242.56
0.00180475	-1881614.96	0,2.22417e-05,5.62699e-05,0.00010833,0.000187979,0.000309836,0.000496267,0.000781494,0.00121787,0.00188549,0.0029069,0.00446959,0.00686038,0.0105181,0.0161142,0.0246757,inf	40.1089,40.1089,116.443,156.329,148.809,148.005,178.379,255.736,405.963,654.175,623.531,481.516,342.802,240.419,240.419,240.419
0.00187215	-1881434.33	0,2.22417e-05,5.62699e-05,0.00010833,0.000187979,0.000309836,0.000496267,0.000781494,0.00121787,0.00188549,0.0029069,0.00446959,0.00686038,0.0105181,0.0161142,0.0246757,inf	40.0772,40.0772,115.517,157.097,150.627,150.611,181.526,258.493,406.606,651.513,620.67,480.758,342.275,238.544,238.544,238.544
0.00193862	-1881263.93	0,2.22417e-05,5.62699e-05,0.00010833,0.000187979,0.000309836,0.000496267,0.000781494,0.00121787,0.00188549,0.0029069,0.00446959,0.00686038,0.0105181,0.0161142,0.0246757,inf	40.3016,40.3016,114.748,157.759,152.315,153.16,184.663,261.225,407.248,648.829,617.758,479.988,341.855,236.888,236.888,236.888
0.00200418	-1881102.90	0,2.22417e-05,5.62699e-05,0.00010833,0.000187979,0.000309836,0.000496267,0.000781494,0.00121787,0.00188549,0.0029069,0.00446959,0.00686038,0.0105181,0.0161142,0.0246757,inf	40.7348,40.7348,114.148,158.357,153.891,155.65,187.774,263.918,407.881,646.147,614.824,479.207,341.515,235.416,235.416,235.416
0.00206886	-1880950.49	0,2.22417e-05,5.62699e-05,0.00010833,0.000187979,0.000309836,0.000496267,0.000781494,0.00121787,0.00188549,0.0029069,0.00446959,0.00686038,0.0105181,0.0161142,0.0246757,inf	41.3382,41.3382,113.719,158.922,155.371,158.079,190.851,266.562,408.502,643.484,611.89,478.415,341.238,234.099,234.099,234.099
0.00213267	-1880806.04	0,2.22417e-05,5.62699e-05,0.00010833,0.000187979,0.000309836,0.000496267,0.000781494,0.00121787,0.00188549,0.0029069,0.00446959,0.00686038,0.0105181,0.0161142,0.0246757,inf	42.0768,42.0768,113.459,159.477,156.769,160.447,193.885,269.149,409.108,640.853,608.974,477.614,341.007,232.911,232.911,232.911
