time_index	left_time_boundary	right_time_boundary	lambda
0	0	8.50734e-05	393.467
1	8.50734e-05	0.000201481	393.467
2	0.000201481	0.000360762	397.681
3	0.000360762	0.00057871	267.428
4	0.00057871	0.000876931	352.25
5	0.000876931	0.00128499	379.998
6	0.00128499	0.00184335	380.924
7	0.00184335	0.00260735	472.01
8	0.00260735	0.00365275	489.96
9	0.00365275	0.00508318	537.555
10	0.00508318	0.00704047	519.27
11	0.00704047	0.00971865	333.045
12	0.00971865	0.0133833	213.339
13	0.0133833	0.0183976	175.58
14	0.0183976	0.0252588	175.58
15	0.0252588	inf	175.58
