0.000690307	-1854400.52	0,9.84497e-06,2.20222e-05,3.70843e-05,5.57146e-05,7.87585e-05,0.000107261,0.000142517,0.000186124,0.000240062,0.000306778,0.0003893,0.00049137,0.000617622,0.000773783,0.000966938,0.00120585,0.00150137,0.00186689,0.002319,0.00287822,0.00356992,0.00442548,0.00548373,0.00679268,0.00841172,0.0104143,0.0128913,0.0159552,0.0197448,0.0244322,0.0302301,inf	258.692,258.692,342.882,357.641,336.65,307.812,286.092,271.534,263.791,262.498,266.463,274.717,286.779,303.12,326.199,357.946,397.686,441.119,478.447,497.399,495.377,480.862,462.642,445.693,431.218,417.703,405.248,386.183,386.183,449.447,449.447,449.447
0.00075599	-1853050.87	0,9.84497e-06,2.20222e-05,3.70843e-05,5.57146e-05,7.87585e-05,0.000107261,0.000142517,0.000186124,0.000240062,0.000306778,0.0003893,0.00049137,0.000617622,0.000773783,0.000966938,0.00120585,0.00150137,0.00186689,0.002319,0.00287822,0.00356992,0.00442548,0.00548373,0.00679268,0.00841172,0.0104143,0.0128913,0.0159552,0.0197448,0.0244322,0.0302301,inf	214.219,214.219,373.715,408.522,367.501,312.963,272.891,245.039,228.376,221.82,223.131,230.455,242.795,260.938,289.322,331.657,388.206,454.561,517.151,554.054,555.576,533.418,502.945,473.764,448.288,423.572,400.392,365.575,365.575,496.898,496.898,496.898
0.000817843	-1852423.89	0,9.84497e-06,2.20222e-05,3.70843e-05,5.57146e-05,7.87585e-05,0.000107261,0.000142517,0.000186124,0.000240062,0.000306778,0.0003893,0.00049137,0.000617622,0.000773783,0.000966938,0.00120585,0.00150137,0.00186689,0.002319,0.00287822,0.00356992,0.00442548,0.00548373,0.00679268,0.00841172,0.0104143,0.0128913,0.0159552,0.0197448,0.0244322,0.0302301,inf	175.103,175.103,400.118,463.447,408.349,333.854,280.08,242.183,218.765,208.025,206.741,212.148,222.674,239.41,268.453,314.704,379.139,457.948,536.457,586.928,593.084,567.038,528.388,490.478,456.656,422.643,390.267,343.603,343.603,541.086,541.086,541.086
0.000876212	-1852038.26	0,9.84497e-06,2.20222e-05,3.70843e-05,5.57146e-05,7.87585e-05,0.000107261,0.000142517,0.000186124,0.000240062,0.000306778,0.0003893,0.00049137,0.000617622,0.000773783,0.000966938,0.00120585,0.00150137,0.00186689,0.002319,0.00287822,0.00356992,0.00442548,0.00548373,0.00679268,0.00841172,0.0104143,0.0128913,0.0159552,0.0197448,0.0244322,0.0302301,inf	137.753,137.753,406.447,500.893,439.154,352.015,289.708,245.223,217.378,203.952,200.942,204.714,213.127,227.67,255.927,303.552,371.893,457.685,546.118,606.125,616.399,588.325,544.102,499.926,459.697,417.895,377.634,322.616,322.616,581.893,581.893,581.893
0.000931744	-1851755.19	0,9.84497e-06,2.20222e-05,3.70843e-05,5.57146e-05,7.87585e-05,0.000107261,0.000142517,0.000186124,0.000240062,0.000306778,0.0003893,0.00049137,0.000617622,0.000773783,0.000966938,0.00120585,0.00150137,0.00186689,0.002319,0.00287822,0.00356992,0.00442548,0.00548373,0.00679268,0.00841172,0.0104143,0.0128913,0.0159552,0.0197448,0.0244322,0.0302301,inf	106.696,106.696,397.81,520.361,457.161,363.491,297.014,248.925,218.635,203.841,199.957,202.545,208.946,221.182,248.214,296.146,366.448,456.222,550.833,617.349,630.86,601.674,553.564,504.861,459.65,411.262,364.23,303.6,303.6,620.421,620.421,620.421
0.000984982	-1851525.49	0,9.84497e-06,2.20222e-05,3.70843e-05,5.57146e-05,7.87585e-05,0.000107261,0.000142517,0.000186124,0.000240062,0.000306778,0.0003893,0.00049137,0.000617622,0.000773783,0.000966938,0.00120585,0.00150137,0.00186689,0.002319,0.00287822,0.00356992,0.00442548,0.00548373,0.00679268,0.00841172,0.0104143,0.0128913,0.0159552,0.0197448,0.0244322,0.0302301,inf	83.2122,83.2122,382.347,527.506,465.05,368.795,301.185,251.72,220.508,205.387,201.325,203.138,207.706,217.728,243.453,291.23,362.477,454.503,552.926,623.803,639.718,609.889,559.029,507.056,457.927,403.919,351.052,286.814,286.814,658.288,658.288,658.288
0.00103633	-1851328.79	0,9.84497e-06,2.20222e-05,3.70843e-05,5.57146e-05,7.87585e-05,0.000107261,0.000142517,0.000186124,0.000240062,0.000306778,0.0003893,0.00049137,0.000617622,0.000773783,0.000966938,0.00120585,0.00150137,0.00186689,0.002319,0.00287822,0.00356992,0.00442548,0.00548373,0.00679268,0.00841172,0.0104143,0.0128913,0.0159552,0.0197448,0.0244322,0.0302301,inf	66.2673,66.2673,365.745,527.95,466.296,369.516,302.612,253.276,222.236,207.563,203.857,205.226,208.145,216.108,240.581,288.007,359.643,452.881,553.586,627.32,644.963,614.748,561.942,507.629,455.393,396.55,338.625,272.18,272.18,697.248,697.248,697.248
0.00108607	-1851155.36	0,9.84497e-06,2.20222e-05,3.70843e-05,5.57146e-05,7.87585e-05,0.000107261,0.000142517,0.000186124,0.000240062,0.000306778,0.0003893,0.00049137,0.000617622,0.000773783,0.000966938,0.00120585,0.00150137,0.00186689,0.002319,0.00287822,0.00356992,0.00442548,0.00548373,0.00679268,0.00841172,0.0104143,0.0128913,0.0159552,0.0197448,0.0244322,0.0302301,inf	54.2344,54.2344,350.942,525.593,463.673,367.183,301.961,253.692,223.56,209.892,206.937,208.119,209.551,215.627,238.951,285.957,357.667,451.468,553.446,628.981,647.832,617.388,563.226,507.278,452.566,389.525,327.182,259.479,259.479,739.136,739.136,739.136
0.00113441	-1850999.88	0,9.84497e-06,2.20222e-05,3.70843e-05,5.57146e-05,7.87585e-05,0.000107261,0.000142517,0.000186124,0.000240062,0.000306778,0.0003893,0.00049137,0.000617622,0.000773783,0.000966938,0.00120585,0.00150137,0.00186689,0.002319,0.00287822,0.00356992,0.00442548,0.00548373,0.00679268,0.00841172,0.0104143,0.0128913,0.0159552,0.0197448,0.0244322,0.0302301,inf	45.6786,45.6786,339.071,522.718,459.05,362.984,299.854,253.19,224.438,212.154,210.232,211.418,211.506,215.865,238.157,284.734,356.335,450.283,552.852,629.442,649.112,618.544,563.473,506.435,449.744,383.026,316.788,248.461,248.461,785.989,785.989,785.989
0.0011815	-1850859.07	0,9.84497e-06,2.20222e-05,3.70843e-05,5.57146e-05,7.87585e-05,0.000107261,0.000142517,0.000186124,0.000240062,0.000306778,0.0003893,0.00049137,0.000617622,0.000773783,0.000966938,0.00120585,0.00150137,0.00186689,0.002319,0.00287822,0.00356992,0.00442548,0.00548373,0.00679268,0.00841172,0.0104143,0.0128913,0.0159552,0.0197448,0.0244322,0.0302301,inf	39.5483,39.5483,330.327,520.481,453.57,357.74,296.798,252.008,224.914,214.259,213.56,214.89,213.757,216.557,237.935,284.1,355.487,449.306,551.997,629.11,649.308,618.695,563.065,505.36,447.087,377.123,307.413,238.881,238.881,840.405,840.405,840.405
0.00122745	-1850730.63	0,9.84497e-06,2.20222e-05,3.70843e-05,5.57146e-05,7.87585e-05,0.000107261,0.000142517,0.000186124,0.000240062,0.000306778,0.0003893,0.00049137,0.000617622,0.000773783,0.000966938,0.00120585,0.00150137,0.00186689,0.002319,0.00287822,0.00356992,0.00442548,0.00548373,0.00679268,0.00841172,0.0104143,0.0128913,0.0159552,0.0197448,0.0244322,0.0302301,inf	35.0864,35.0864,324.454,519.357,447.877,351.996,293.169,250.354,225.064,216.181,216.826,218.397,216.147,217.536,238.108,283.894,355.003,448.51,550.994,628.245,648.757,618.16,562.246,504.208,444.675,371.82,298.984,230.52,230.52,906.184,906.184,906.184
0.00127234	-1850612.87	0,9.84497e-06,2.20222e-05,3.70843e-05,5.57146e-05,7.87585e-05,0.000107261,0.000142517,0.000186124,0.000240062,0.000306778,0.0003893,0.00049137,0.000617622,0.000773783,0.000966938,0.00120585,0.00150137,0.00186689,0.002319,0.00287822,0.00356992,0.00442548,0.00548373,0.00679268,0.00841172,0.0104143,0.0128913,0.0159552,0.0197448,0.0244322,0.0302301,inf	31.7992,31.7992,321.051,519.442,442.305,346.098,289.246,248.404,224.966,217.928,219.982,221.857,218.581,218.69,238.556,283.998,354.795,447.864,549.909,627.02,647.683,617.153,561.174,503.07,442.537,367.084,291.404,223.19,223.19,989.798,989.798,989.798
0.00131625	-1850504.45	0,9.84497e-06,2.20222e-05,3.70843e-05,5.57146e-05,7.87585e-05,0.000107261,0.000142517,0.000186124,0.000240062,0.000306778,0.0003893,0.00049137,0.000617622,0.000773783,0.000966938,0.00120585,0.00150137,0.00186689,0.002319,0.00287822,0.00356992,0.00442548,0.00548373,0.00679268,0.00841172,0.0104143,0.0128913,0.0159552,0.0197448,0.0244322,0.0302301,inf	29.3365,29.3365,319.671,520.632,437.006,340.262,285.219,246.287,224.695,219.518,223.006,225.223,220.996,219.948,239.197,284.333,354.797,447.342,548.782,625.546,646.241,615.819,559.951,501.99,440.671,362.866,284.573,216.736,216.736,1104.24,1104.24,1104.24
0.00135921	-1850404.27	0,9.84497e-06,2.20222e-05,3.70843e-05,5.57146e-05,7.87585e-05,0.000107261,0.000142517,0.000186124,0.000240062,0.000306778,0.0003893,0.00049137,0.000617622,0.000773783,0.000966938,0.00120585,0.00150137,0.00186689,0.002319,0.00287822,0.00356992,0.00442548,0.00548373,0.00679268,0.00841172,0.0104143,0.0128913,0.0159552,0.0197448,0.0244322,0.0302301,inf	27.4689,27.4689,319.94,522.758,432.034,334.615,281.22,244.106,224.313,220.978,225.895,228.469,223.357,221.261,239.974,284.837,354.96,446.921,547.636,623.903,644.537,614.257,558.64,500.989,439.059,359.107,278.395,211.031,211.031,1282.93,1282.93,1282.93
0.00140128	-1850311.42	0,9.84497e-06,2.20222e-05,3.70843e-05,5.57146e-05,7.87585e-05,0.000107261,0.000142517,0.000186124,0.000240062,0.000306778,0.0003893,0.00049137,0.000617622,0.000773783,0.000966938,0.00120585,0.00150137,0.00186689,0.002319,0.00287822,0.00356992,0.00442548,0.00548373,0.00679268,0.00841172,0.0104143,0.0128913,0.0159552,0.0197448,0.0244322,0.0302301,inf	26.0369,26.0369,321.488,525.618,427.387,329.228,277.336,241.935,223.87,222.332,228.648,231.582,225.642,222.596,240.844,285.467,355.246,446.581,546.486,622.143,642.648,612.537,557.282,500.071,437.671,355.743,272.775,205.975,205.975,1662.9,1662.9,1662.9
0.00144248	-1850225.09	0,9.84497e-06,2.20222e-05,3.70843e-05,5.57146e-05,7.87585e-05,0.000107261,0.000142517,0.000186124,0.000240062,0.000306778,0.0003893,0.00049137,0.000617622,0.000773783,0.000966938,0.00120585,0.00150137,0.00186689,0.002319,0.00287822,0.00356992,0.00442548,0.00548373,0.00679268,0.00841172,0.0104143,0.0128913,0.0159552,0.0197448,0.0244322,0.0302301,inf	24.9301,24.9301,324.05,529.008,423.041,324.138,273.623,239.828,223.404,223.601,231.276,234.557,227.838,223.932,241.778,286.192,355.628,446.309,545.34,620.305,640.625,610.704,555.898,499.225,436.464,352.699,267.619,201.501,201.501,3664.24,3664.24,3664.24
0.00144248	-1850144.52	0,9.84497e-06,2.20222e-05,3.70843e-05,5.57146e-05,7.87585e-05,0.000107261,0.000142517,0.000186124,0.000240062,0.000306778,0.0003893,0.00049137,0.000617622,0.000773783,0.000966938,0.00120585,0.00150137,0.00186689,0.002319,0.00287822,0.00356992,0.00442548,0.00548373,0.00679268,0.00841172,0.0104143,0.0128913,0.0159552,0.0197448,0.0244322,0.0302301,inf	23.8826,23.8826,324.818,528.531,415.617,316.803,267.952,235.918,221.168,223.016,231.929,235.522,228.152,223.538,240.935,284.842,353.406,442.707,540.123,614.087,634.583,605.644,551.968,496.289,433.534,348.399,261.737,197.072,197.072,68779,68779,68779
0.00144248	-1850138.33	0,9.84497e-06,2.20222e-05,3.70843e-05,5.57146e-05,7.87585e-05,0.000107261,0.000142517,0.000186124,0.000240062,0.000306778,0.0003893,0.00049137,0.000617622,0.000773783,0.000966938,0.00120585,0.00150137,0.00186689,0.002319,0.00287822,0.00356992,0.00442548,0.00548373,0.00679268,0.00841172,0.0104143,0.0128913,0.0159552,0.0197448,0.0244322,0.0302301,inf	23.0255,23.0255,325.868,528.531,411.98,312.168,264.215,233.323,219.932,223.237,233.351,237.308,228.152,224,240.961,284.613,352.543,440.756,536.767,609.89,630.63,602.444,549.636,494.736,431.82,345.124,256.696,193.275,193.275,68784.9,68784.9,68784.9
0.00144248	-1850136.23	0,9.84497e-06,2.20222e-05,3.70843e-05,5.57146e-05,7.87585e-05,0.000107261,0.000142517,0.000186124,0.000240062,0.000306778,0.0003893,0.00049137,0.000617622,0.000773783,0.000966938,0.00120585,0.00150137,0.00186689,0.002319,0.00287822,0.00356992,0.00442548,0.00548373,0.00679268,0.00841172,0.0104143,0.0128913,0.0159552,0.0197448,0.0244322,0.0302301,inf	22.2761,22.2761,326.748,528.531,410.152,308.76,261.273,231.163,218.87,223.542,234.874,239.254,228.546,224,240.961,284.613,352.366,439.687,534.552,607.005,627.982,600.427,548.351,494.129,430.986,342.629,252.31,189.833,189.833,68789.7,68789.7,68789.7
0.00144248	-1850135.67	0,9.84497e-06,2.20222e-05,3.70843e-05,5.57146e-05,7.87585e-05,0.000107261,0.000142517,0.000186124,0.000240062,0.000306778,0.0003893,0.00049137,0.000617622,0.000773783,0.000966938,0.00120585,0.00150137,0.00186689,0.002319,0.00287822,0.00356992,0.00442548,0.00548373,0.00679268,0.00841172,0.0104143,0.0128913,0.0159552,0.0197448,0.0244322,0.0302301,inf	21.6104,21.6104,327.51,528.552,409.468,306.11,258.785,229.246,217.854,223.81,236.342,241.002,228.546,224,240.961,284.613,352.366,439.154,533.045,604.94,626.15,599.163,547.737,494.141,430.746,340.675,248.391,186.653,186.653,68793.5,68793.5,68793.5
