AIC = 609922.56513768469449

y0 0.78201154999133426493
y0_prime 0
y1 1.0483518476599509306
y1_prime 0
y2 0.88890237140822714323
y2_prime 0
y3 2.0579493535423294404
y3_prime 0
rho 0.0023409184372773297889
theta 0.0049792482987084975277
