AIC = 3058111.6382121089846

y0 0.83990845727058349723
y0_prime 0
y1 0.98692529178165899761
y1_prime 0
y2 0.94429418200500614411
y2_prime 0
y3 1.8941597543376116342
y3_prime 0
rho 0.0025148284467874531568
theta 0.0049978284789362458634
