LogLikelihood = -724492.37807626964059

y0 0.0031966587522831383522
y0_prime 0
y1 1.4588193749162927659
y1_prime 0
y2 0.1106734220073647551
y2_prime 0
y3 0.91626177792885588058
y3_prime 0
rho 3.5320303364907256309e-07
theta 0.0020824407387183040477
