LogLikelihood = -139546.3944489127025

y0 2.7504165011610461143e-05
y0_prime 0
y1 0.35414406567052991726
y1_prime 0
y2 2.1663270386725370642
y2_prime 0
y3 43.712931258769941678
y3_prime 0
rho 0.0013145900532888501414
rho.alpha 0.19343458716463868274
r_ii 0.99987538386773899823
theta 0.0019320908619813788754
