0.000630449	-277379.98	0,8.25952e-05,0.000195611,0.000350253,0.000561852,0.000851385,0.00124756,0.00178965,0.0025314,0.00354634,0.00493511,0.00683538,0.00943555,0.0129934,0.0178616,0.024523,inf	471.3,471.3,245.651,257.596,293.456,342.975,414.072,498.172,530.998,518.547,490.733,446.088,394.242,414.233,414.233,414.233
0.000702004	-277169.68	0,8.25952e-05,0.000195611,0.000350253,0.000561852,0.000851385,0.00124756,0.00178965,0.0025314,0.00354634,0.00493511,0.00683538,0.00943555,0.0129934,0.0178616,0.024523,inf	538.93,538.93,183.317,199.748,245.084,306.465,399.909,527.155,585.577,569.119,520.522,436.753,353.348,388.906,388.906,388.906
0.00076936	-277071.47	0,8.25952e-05,0.000195611,0.000350253,0.000561852,0.000851385,0.00124756,0.00178965,0.0025314,0.00354634,0.00493511,0.00683538,0.00943555,0.0129934,0.0178616,0.024523,inf	588.587,588.587,153.39,174.583,224.829,289.079,390.136,541.458,619.07,603.056,538.656,422.821,322.062,368.846,368.846,368.846
0.000832499	-277009.90	0,8.25952e-05,0.000195611,0.000350253,0.000561852,0.000851385,0.00124756,0.00178965,0.0025314,0.00354634,0.00493511,0.00683538,0.00943555,0.0129934,0.0178616,0.024523,inf	617.742,617.742,135.759,162.307,216.392,280.16,382.659,547.585,639.268,625.656,548.897,407.847,298.428,352.965,352.965,352.965
0.000892124	-276964.81	0,8.25952e-05,0.000195611,0.000350253,0.000561852,0.000851385,0.00124756,0.00178965,0.0025314,0.00354634,0.00493511,0.00683538,0.00943555,0.0129934,0.0178616,0.024523,inf	632.408,632.408,124.108,156.389,214.038,275.739,376.737,549.193,651.168,640.685,554.052,393.649,280.578,340.335,340.335,340.335
0.000948903	-276928.57	0,8.25952e-05,0.000195611,0.000350253,0.000561852,0.000851385,0.00124756,0.00178965,0.0025314,0.00354634,0.00493511,0.00683538,0.00943555,0.0129934,0.0178616,0.024523,inf	637.968,637.968,115.785,154.016,215.162,273.916,371.933,548.278,657.839,650.657,556.029,380.976,267.035,330.224,330.224,330.224
0.00100336	-276897.83	0,8.25952e-05,0.000195611,0.000350253,0.000561852,0.000851385,0.00124756,0.00178965,0.0025314,0.00354634,0.00493511,0.00683538,0.00943555,0.0129934,0.0178616,0.024523,inf	638.038,638.038,109.466,153.758,218.386,273.656,367.944,545.941,661.169,657.229,556.073,370.017,256.707,322.08,322.08,322.08
0.00105587	-276870.95	0,8.25952e-05,0.000195611,0.000350253,0.000561852,0.000851385,0.00124756,0.00178965,0.0025314,0.00354634,0.00493511,0.00683538,0.00943555,0.0129934,0.0178616,0.024523,inf	634.899,634.899,104.421,154.811,222.905,274.344,364.554,542.809,662.337,661.49,554.977,360.701,248.799,315.48,315.48,315.48
0.00110673	-276846.98	0,8.25952e-05,0.000195611,0.000350253,0.000561852,0.000851385,0.00124756,0.00178965,0.0025314,0.00354634,0.00493511,0.00683538,0.00943555,0.0129934,0.0178616,0.024523,inf	629.969,629.969,100.22,156.692,228.22,275.604,361.612,539.247,662.093,664.167,553.24,352.857,242.731,310.102,310.102,310.102
0.00115615	-276825.38	0,8.25952e-05,0.000195611,0.000350253,0.000561852,0.000851385,0.00124756,0.00178965,0.0025314,0.00354634,0.00493511,0.00683538,0.00943555,0.0129934,0.0178616,0.024523,inf	624.121,624.121,96.6004,159.096,234.011,277.197,359.008,535.47,660.92,665.746,551.166,346.283,238.077,305.7,305.7,305.7
0.00120427	-276805.74	0,8.25952e-05,0.000195611,0.000350253,0.000561852,0.000851385,0.00124756,0.00178965,0.0025314,0.00354634,0.00493511,0.00683538,0.00943555,0.0129934,0.0178616,0.024523,inf	617.894,617.894,93.3965,161.827,240.066,278.969,356.666,531.609,659.135,666.555,548.943,340.785,234.523,302.079,302.079,302.079
0.00125121	-276787.79	0,8.25952e-05,0.000195611,0.000350253,0.000561852,0.000851385,0.00124756,0.00178965,0.0025314,0.00354634,0.00493511,0.00683538,0.00943555,0.0129934,0.0178616,0.024523,inf	611.622,611.622,90.5005,164.752,246.242,280.823,354.53,527.745,656.953,666.822,546.68,336.187,231.829,299.087,299.087,299.087
0.00129708	-276771.31	0,8.25952e-05,0.000195611,0.000350253,0.000561852,0.000851385,0.00124756,0.00178965,0.0025314,0.00354634,0.00493511,0.00683538,0.00943555,0.0129934,0.0178616,0.024523,inf	605.508,605.508,87.8406,167.786,252.443,282.695,352.561,523.925,654.516,666.705,544.441,332.34,229.814,296.606,296.606,296.606
0.00134193	-276756.14	0,8.25952e-05,0.000195611,0.000350253,0.000561852,0.000851385,0.00124756,0.00178965,0.0025314,0.00354634,0.00493511,0.00683538,0.00943555,0.0129934,0.0178616,0.024523,inf	599.661,599.661,85.3677,170.87,258.604,284.545,350.73,520.18,651.922,666.315,542.26,329.117,228.338,294.539,294.539,294.539
0.00138584	-276742.12	0,8.25952e-05,0.000195611,0.000350253,0.000561852,0.000851385,0.00124756,0.00178965,0.0025314,0.00354634,0.00493511,0.00683538,0.00943555,0.0129934,0.0178616,0.024523,inf	594.144,594.144,83.0481,173.966,264.682,286.348,349.014,516.526,649.239,665.733,540.155,326.413,227.292,292.811,292.811,292.811
0.00142884	-276729.14	0,8.25952e-05,0.000195611,0.000350253,0.000561852,0.000851385,0.00124756,0.00178965,0.0025314,0.00354634,0.00493511,0.00683538,0.00943555,0.0129934,0.0178616,0.024523,inf	588.984,588.984,80.8581,177.048,270.648,288.089,347.397,512.973,646.515,665.015,538.132,324.139,226.592,291.361,291.361,291.361
0.00147098	-276717.10	0,8.25952e-05,0.000195611,0.000350253,0.000561852,0.000851385,0.00124756,0.00178965,0.0025314,0.00354634,0.00493511,0.00683538,0.00943555,0.0129934,0.0178616,0.024523,inf	584.181,584.181,78.7795,180.099,276.484,289.76,345.866,509.526,643.783,664.204,536.193,322.225,226.17,290.139,290.139,290.139
0.00151229	-276705.91	0,8.25952e-05,0.000195611,0.000350253,0.000561852,0.000851385,0.00124756,0.00178965,0.0025314,0.00354634,0.00493511,0.00683538,0.00943555,0.0129934,0.0178616,0.024523,inf	579.726,579.726,76.7995,183.107,282.178,291.358,344.411,506.184,641.066,663.331,534.335,320.611,225.971,289.105,289.105,289.105
0.00155281	-276695.48	0,8.25952e-05,0.000195611,0.000350253,0.000561852,0.000851385,0.00124756,0.00178965,0.0025314,0.00354634,0.00493511,0.00683538,0.00943555,0.0129934,0.0178616,0.024523,inf	575.606,575.606,74.9081,186.067,287.725,292.881,343.023,502.949,638.38,662.422,532.553,319.248,225.953,288.228,288.228,288.228
0.00159257	-276685.77	0,8.25952e-05,0.000195611,0.000350253,0.000561852,0.000851385,0.00124756,0.00178965,0.0025314,0.00354634,0.00493511,0.00683538,0.00943555,0.0129934,0.0178616,0.024523,inf	571.8,571.8,73.0971,188.975,293.121,294.331,341.696,499.815,635.736,661.493,530.844,318.095,226.081,287.48,287.48,287.48
