0.000236506	-134518.45	0,3.37661e-05,7.99687e-05,0.000143188,0.000229693,0.000348058,0.000510019,0.000731633,0.00103487,0.0014498,0.00201754,0.0027944,0.00385738,0.00531188,0.00730209,0.0100253,inf	117.568,117.568,207.77,308.636,476.245,770.881,1307.48,1900.64,1825.4,1636.61,1470.89,1323.21,1198.43,1099.84,1099.84,1099.84
0.000253402	-134093.92	0,3.37661e-05,7.99687e-05,0.000143188,0.000229693,0.000348058,0.000510019,0.000731633,0.00103487,0.0014498,0.00201754,0.0027944,0.00385738,0.00531188,0.00730209,0.0100253,inf	27.1388,27.1388,68.2987,125.265,260.986,569.149,1255.88,2444.36,2502.36,2223.88,1870.23,1523.3,1254.72,1073.89,1073.89,1073.89
0.000269935	-133946.74	0,3.37661e-05,7.99687e-05,0.000143188,0.000229693,0.000348058,0.000510019,0.000731633,0.00103487,0.0014498,0.00201754,0.0027944,0.00385738,0.00531188,0.00730209,0.0100253,inf	11.7744,11.7744,35.1342,64.5644,162.267,443.668,1157.45,2784.24,3084.97,2841.74,2280.78,1683.7,1276.28,1043.72,1043.72,1043.72
0.000284658	-133881.78	0,3.37661e-05,7.99687e-05,0.000143188,0.000229693,0.000348058,0.000510019,0.000731633,0.00103487,0.0014498,0.00201754,0.0027944,0.00385738,0.00531188,0.00730209,0.0100253,inf	8.33819,8.33819,26.4097,40.7607,110.883,361.742,1065.4,3001.16,3592.17,3515.98,2714.06,1810.46,1282.16,1024.72,1024.72,1024.72
0.000297492	-133848.55	0,3.37661e-05,7.99687e-05,0.000143188,0.000229693,0.000348058,0.000510019,0.000731633,0.00103487,0.0014498,0.00201754,0.0027944,0.00385738,0.00531188,0.00730209,0.0100253,inf	8.24969,8.24969,26.1149,30.0877,81.4628,305.392,987.994,3143.47,4048.89,4300.87,3192.68,1910.87,1283.46,1020.72,1020.72,1020.72
0.000308638	-133829.71	0,3.37661e-05,7.99687e-05,0.000143188,0.000229693,0.000348058,0.000510019,0.000731633,0.00103487,0.0014498,0.00201754,0.0027944,0.00385738,0.00531188,0.00730209,0.0100253,inf	9.85481,9.85481,30.2789,24.5698,63.1897,264.84,924.079,3238.29,4476.45,5303.13,3754.94,1990.4,1285.01,1030.9,1030.9,1030.9
0.000318328	-133818.20	0,3.37661e-05,7.99687e-05,0.000143188,0.000229693,0.000348058,0.000510019,0.000731633,0.00103487,0.0014498,0.00201754,0.0027944,0.00385738,0.00531188,0.00730209,0.0100253,inf	12.5809,12.5809,37.2295,21.1073,51.0086,234.53,871.019,3301.29,4892.39,6778.77,4473.51,2051.93,1288.1,1053.38,1053.38,1053.38
0.000326755	-133810.77	0,3.37661e-05,7.99687e-05,0.000143188,0.000229693,0.000348058,0.000510019,0.000731633,0.00103487,0.0014498,0.00201754,0.0027944,0.00385738,0.00531188,0.00730209,0.0100253,inf	15.8222,15.8222,45.4483,18.465,42.4173,211.154,826.43,3341.82,5312.08,9628.09,5518.67,2095.47,1291.92,1085.59,1085.59,1085.59
0.000334093	-133805.82	0,3.37661e-05,7.99687e-05,0.000143188,0.000229693,0.000348058,0.000510019,0.000731633,0.00103487,0.0014498,0.00201754,0.0027944,0.00385738,0.00531188,0.00730209,0.0100253,inf	18.905,18.905,53.5984,16.2293,36.101,192.622,788.198,3366.05,5750.45,20479.7,7466.66,2117.15,1294.5,1124.28,1124.28,1124.28
0.000340472	-133802.48	0,3.37661e-05,7.99687e-05,0.000143188,0.000229693,0.000348058,0.000510019,0.000731633,0.00103487,0.0014498,0.00201754,0.0027944,0.00385738,0.00531188,0.00730209,0.0100253,inf	21.3746,21.3746,60.9608,14.3045,31.3266,177.627,755.079,3376.77,6223.71,449385,14408.1,2106.14,1304.74,1123.1,1123.1,1123.1
0.000346099	-133800.38	0,3.37661e-05,7.99687e-05,0.000143188,0.000229693,0.000348058,0.000510019,0.000731633,0.00103487,0.0014498,0.00201754,0.0027944,0.00385738,0.00531188,0.00730209,0.0100253,inf	23.0692,23.0692,67.369,12.6658,27.6486,165.33,726.257,3378.12,6758.25,1.27276e+06,112.33,82.8096,139.448,222.697,222.697,222.697
0.000346099	-133799.06	0,3.37661e-05,7.99687e-05,0.000143188,0.000229693,0.000348058,0.000510019,0.000731633,0.00103487,0.0014498,0.00201754,0.0027944,0.00385738,0.00531188,0.00730209,0.0100253,inf	24.0748,24.0748,73.0886,11.313,24.8329,155.521,702.977,3354.41,7381.28,1.28083e+06,112.33,121.329,139.448,120.034,120.034,120.034
