0.000684878	-8629219.46	0,2.68987e-06,6.18095e-06,1.07119e-05,1.65925e-05,2.42247e-05,3.41303e-05,4.69864e-05,6.36719e-05,8.53274e-05,0.000113433,0.000149911,0.000197254,0.0002587,0.000338447,0.000441949,0.00057628,0.000750625,0.0009769,0.00127057,0.00165173,0.00214641,0.00278844,0.00362171,0.00470318,0.00610679,0.00792848,0.0102928,0.0133614,0.0173439,0.0225128,0.0292213,inf	245.499,245.499,333.496,257.108,251.936,294.153,328.063,333.477,328.72,320.115,316.659,317.383,319.42,322.215,328.514,340.084,354.466,368.75,383.357,399.006,413.045,421.246,423.634,423.643,421.492,414.663,404.631,381.108,381.108,369.668,369.668,369.668
0.000733351	-8627553.72	0,2.68987e-06,6.18095e-06,1.07119e-05,1.65925e-05,2.42247e-05,3.41303e-05,4.69864e-05,6.36719e-05,8.53274e-05,0.000113433,0.000149911,0.000197254,0.0002587,0.000338447,0.000441949,0.00057628,0.000750625,0.0009769,0.00127057,0.00165173,0.00214641,0.00278844,0.00362171,0.00470318,0.00610679,0.00792848,0.0102928,0.0133614,0.0173439,0.0225128,0.0292213,inf	207.245,207.245,372.435,214.289,201.561,270.983,331.975,338.677,326.461,307.952,299.671,298.247,298.178,298.516,304.672,319.833,339.348,358.228,377.815,400.012,420.88,433.418,437.667,439.369,437.703,426.54,408.698,366.081,366.081,349.699,349.699,349.699
0.000777728	-8626552.45	0,2.68987e-06,6.18095e-06,1.07119e-05,1.65925e-05,2.42247e-05,3.41303e-05,4.69864e-05,6.36719e-05,8.53274e-05,0.000113433,0.000149911,0.000197254,0.0002587,0.000338447,0.000441949,0.00057628,0.000750625,0.0009769,0.00127057,0.00165173,0.00214641,0.00278844,0.00362171,0.00470318,0.00610679,0.00792848,0.0102928,0.0133614,0.0173439,0.0225128,0.0292213,inf	180.384,180.384,423.682,184.304,168.355,259.061,345.513,353.478,334.755,308.22,296.987,294.381,292.362,289.786,294.81,311.693,333.568,353.784,374.821,399.799,424.012,438.627,444.048,447.928,447.97,433.983,410.001,352.226,352.226,334.689,334.689,334.689
0.000818685	-8625820.22	0,2.68987e-06,6.18095e-06,1.07119e-05,1.65925e-05,2.42247e-05,3.41303e-05,4.69864e-05,6.36719e-05,8.53274e-05,0.000113433,0.000149911,0.000197254,0.0002587,0.000338447,0.000441949,0.00057628,0.000750625,0.0009769,0.00127057,0.00165173,0.00214641,0.00278844,0.00362171,0.00470318,0.00610679,0.00792848,0.0102928,0.0133614,0.0173439,0.0225128,0.0292213,inf	154.681,154.681,471.001,157.684,141.615,247.937,356.925,365.931,341.999,309.584,297.31,294.763,291.532,286.453,290.498,308.696,331.946,352.214,373.233,399.249,424.987,440.342,446.345,452.398,454.661,438.784,409.925,340.134,340.134,323.563,323.563,323.563
0.000856779	-8625240.65	0,2.68987e-06,6.18095e-06,1.07119e-05,1.65925e-05,2.42247e-05,3.41303e-05,4.69864e-05,6.36719e-05,8.53274e-05,0.000113433,0.000149911,0.000197254,0.0002587,0.000338447,0.000441949,0.00057628,0.000750625,0.0009769,0.00127057,0.00165173,0.00214641,0.00278844,0.00362171,0.00470318,0.00610679,0.00792848,0.0102928,0.0133614,0.0173439,0.0225128,0.0292213,inf	130.599,130.599,512.306,134.296,119.756,237.036,365.173,374.476,346.231,309.638,297.69,296.112,292.298,285.2,288.63,308.129,332.37,352.157,372.522,398.73,425.006,440.303,446.452,454.505,459.163,441.999,409.232,329.831,329.831,315.387,315.387,315.387
0.000892418	-8624765.24	0,2.68987e-06,6.18095e-06,1.07119e-05,1.65925e-05,2.42247e-05,3.41303e-05,4.69864e-05,6.36719e-05,8.53274e-05,0.000113433,0.000149911,0.000197254,0.0002587,0.000338447,0.000441949,0.00057628,0.000750625,0.0009769,0.00127057,0.00165173,0.00214641,0.00278844,0.00362171,0.00470318,0.00610679,0.00792848,0.0102928,0.0133614,0.0173439,0.0225128,0.0292213,inf	108.979,108.979,548.089,114.401,102.124,227.164,371.424,380.002,347.916,308.309,297.529,297.467,293.481,284.747,287.9,308.771,333.837,352.922,372.375,398.358,424.622,439.388,445.377,455.223,462.289,444.246,408.324,321.125,321.125,309.428,309.428,309.428
0.000925904	-8624367.88	0,2.68987e-06,6.18095e-06,1.07119e-05,1.65925e-05,2.42247e-05,3.41303e-05,4.69864e-05,6.36719e-05,8.53274e-05,0.000113433,0.000149911,0.000197254,0.0002587,0.000338447,0.000441949,0.00057628,0.000750625,0.0009769,0.00127057,0.00165173,0.00214641,0.00278844,0.00362171,0.00470318,0.00610679,0.00792848,0.0102928,0.0133614,0.0173439,0.0225128,0.0292213,inf	90.0831,90.0831,578.831,97.7275,87.9871,218.78,376.784,383.594,347.881,306.024,296.878,298.61,294.673,284.568,287.707,310.016,335.826,354.13,372.585,398.149,424.094,438.047,443.668,455.108,464.524,445.884,407.402,313.775,313.775,305.138,305.138,305.138
0.000957464	-8624031.86	0,2.68987e-06,6.18095e-06,1.07119e-05,1.65925e-05,2.42247e-05,3.41303e-05,4.69864e-05,6.36719e-05,8.53274e-05,0.000113433,0.000149911,0.000197254,0.0002587,0.000338447,0.000441949,0.00057628,0.000750625,0.0009769,0.00127057,0.00165173,0.00214641,0.00278844,0.00362171,0.00470318,0.00610679,0.00792848,0.0102928,0.0133614,0.0173439,0.0225128,0.0292213,inf	73.9146,73.9146,604.854,83.8327,76.6048,211.953,381.935,386.059,346.797,303.194,295.922,299.555,295.758,284.452,287.766,311.553,338.053,355.559,373.018,398.081,423.538,436.515,441.632,454.489,466.165,447.13,406.559,307.547,307.547,302.106,302.106,302.106
0.000987282	-8623745.41	0,2.68987e-06,6.18095e-06,1.07119e-05,1.65925e-05,2.42247e-05,3.41303e-05,4.69864e-05,6.36719e-05,8.53274e-05,0.000113433,0.000149911,0.000197254,0.0002587,0.000338447,0.000441949,0.00057628,0.000750625,0.0009769,0.00127057,0.00165173,0.00214641,0.00278844,0.00362171,0.00470318,0.00610679,0.00792848,0.0102928,0.0133614,0.0173439,0.0225128,0.0292213,inf	60.2773,60.2773,626.486,72.2072,67.3539,206.568,387.21,387.879,345.114,300.122,294.831,300.371,296.719,284.315,287.935,313.21,340.358,357.079,373.583,398.127,423.006,434.917,439.439,453.563,467.397,448.115,405.833,302.238,302.238,300.03,300.03,300.03
0.00101551	-8623499.69	0,2.68987e-06,6.18095e-06,1.07119e-05,1.65925e-05,2.42247e-05,3.41303e-05,4.69864e-05,6.36719e-05,8.53274e-05,0.000113433,0.000149911,0.000197254,0.0002587,0.000338447,0.000441949,0.00057628,0.000750625,0.0009769,0.00127057,0.00165173,0.00214641,0.00278844,0.00362171,0.00470318,0.00610679,0.00792848,0.0102928,0.0133614,0.0173439,0.0225128,0.0292213,inf	48.9233,48.9233,644.125,62.4456,59.7431,202.405,392.716,389.319,343.109,296.992,293.724,301.126,297.576,284.131,288.144,314.899,342.65,358.612,374.22,398.26,422.521,433.319,437.19,452.453,468.341,448.919,405.23,297.68,297.68,298.685,298.685,298.685
0.00104226	-8623287.85	0,2.68987e-06,6.18095e-06,1.07119e-05,1.65925e-05,2.42247e-05,3.41303e-05,4.69864e-05,6.36719e-05,8.53274e-05,0.000113433,0.000149911,0.000197254,0.0002587,0.000338447,0.000441949,0.00057628,0.000750625,0.0009769,0.00127057,0.00165173,0.00214641,0.00278844,0.00362171,0.00470318,0.00610679,0.00792848,0.0102928,0.0133614,0.0173439,0.0225128,0.0292213,inf	39.5923,39.5923,658.226,54.1941,53.3986,199.258,398.424,390.513,340.936,293.923,292.682,301.872,298.353,283.897,288.362,316.568,344.881,360.114,374.892,398.458,422.088,431.757,434.942,451.234,469.075,449.594,404.745,293.735,293.735,297.901,297.901,297.901
0.00106766	-8623104.45	0,2.68987e-06,6.18095e-06,1.07119e-05,1.65925e-05,2.42247e-05,3.41303e-05,4.69864e-05,6.36719e-05,8.53274e-05,0.000113433,0.000149911,0.000197254,0.0002587,0.000338447,0.000441949,0.00057628,0.000750625,0.0009769,0.00127057,0.00165173,0.00214641,0.00278844,0.00362171,0.00470318,0.00610679,0.00792848,0.0102928,0.0133614,0.0173439,0.0225128,0.0292213,inf	31.978,31.978,669.308,47.1797,48.0363,196.926,404.286,391.522,338.687,290.972,291.749,302.644,299.073,283.618,288.573,318.191,347.023,361.556,375.573,398.705,421.708,430.249,432.73,449.957,469.654,450.173,404.366,290.295,290.295,297.548,297.548,297.548
0.0010918	-8622945.11	0,2.68987e-06,6.18095e-06,1.07119e-05,1.65925e-05,2.42247e-05,3.41303e-05,4.69864e-05,6.36719e-05,8.53274e-05,0.000113433,0.000149911,0.000197254,0.0002587,0.000338447,0.000441949,0.00057628,0.000750625,0.0009769,0.00127057,0.00165173,0.00214641,0.00278844,0.00362171,0.00470318,0.00610679,0.00792848,0.0102928,0.0133614,0.0173439,0.0225128,0.0292213,inf	25.812,25.812,677.846,41.1914,43.4554,195.266,410.216,392.375,336.411,288.173,290.947,303.465,299.755,283.304,288.77,319.758,349.065,362.925,376.246,398.987,421.379,428.803,430.572,448.655,470.118,450.679,404.079,287.271,287.271,297.53,297.53,297.53
0.00111475	-8622806.26	0,2.68987e-06,6.18095e-06,1.07119e-05,1.65925e-05,2.42247e-05,3.41303e-05,4.69864e-05,6.36719e-05,8.53274e-05,0.000113433,0.000149911,0.000197254,0.0002587,0.000338447,0.000441949,0.00057628,0.000750625,0.0009769,0.00127057,0.00165173,0.00214641,0.00278844,0.00362171,0.00470318,0.00610679,0.00792848,0.0102928,0.0133614,0.0173439,0.0225128,0.0292213,inf	20.8499,20.8499,684.279,36.0487,39.5045,194.151,416.16,393.08,334.139,285.537,290.283,304.347,300.412,282.961,288.952,321.261,351.001,364.217,376.902,399.294,421.097,427.424,428.479,447.349,470.492,451.128,403.87,284.591,284.591,297.771,297.771,297.771
0.00113661	-8622684.96	0,2.68987e-06,6.18095e-06,1.07119e-05,1.65925e-05,2.42247e-05,3.41303e-05,4.69864e-05,6.36719e-05,8.53274e-05,0.000113433,0.000149911,0.000197254,0.0002587,0.000338447,0.000441949,0.00057628,0.000750625,0.0009769,0.00127057,0.00165173,0.00214641,0.00278844,0.00362171,0.00470318,0.00610679,0.00792848,0.0102928,0.0133614,0.0173439,0.0225128,0.0292213,inf	16.8545,16.8545,689.002,31.6226,36.0595,193.47,422.028,393.631,331.874,283.06,289.759,305.292,301.049,282.598,289.119,322.701,352.831,365.428,377.535,399.62,420.858,426.111,426.456,446.054,470.798,451.53,403.727,282.198,282.198,298.212,298.212,298.212
0.00115744	-8622578.76	0,2.68987e-06,6.18095e-06,1.07119e-05,1.65925e-05,2.42247e-05,3.41303e-05,4.69864e-05,6.36719e-05,8.53274e-05,0.000113433,0.000149911,0.000197254,0.0002587,0.000338447,0.000441949,0.00057628,0.000750625,0.0009769,0.00127057,0.00165173,0.00214641,0.00278844,0.00362171,0.00470318,0.00610679,0.00792848,0.0102928,0.0133614,0.0173439,0.0225128,0.0292213,inf	13.645,13.645,692.366,27.7959,33.0378,193.15,427.788,394.038,329.628,280.739,289.367,306.304,301.673,282.219,289.274,324.079,354.559,366.56,378.14,399.959,420.658,424.863,424.505,444.778,471.051,451.893,403.638,280.045,280.045,298.808,298.808,298.808
0.00117729	-8622485.59	0,2.68987e-06,6.18095e-06,1.07119e-05,1.65925e-05,2.42247e-05,3.41303e-05,4.69864e-05,6.36719e-05,8.53274e-05,0.000113433,0.000149911,0.000197254,0.0002587,0.000338447,0.000441949,0.00057628,0.000750625,0.0009769,0.00127057,0.00165173,0.00214641,0.00278844,0.00362171,0.00470318,0.00610679,0.00792848,0.0102928,0.0133614,0.0173439,0.0225128,0.0292213,inf	11.0735,11.0735,694.642,24.476,30.3689,193.116,433.398,394.309,327.411,278.565,289.103,307.377,302.287,281.83,289.417,325.397,356.189,367.613,378.715,400.307,420.493,423.677,422.627,443.529,471.262,452.225,403.596,278.097,278.097,299.523,299.523,299.523
0.00119624	-8622403.75	0,2.68987e-06,6.18095e-06,1.07119e-05,1.65925e-05,2.42247e-05,3.41303e-05,4.69864e-05,6.36719e-05,8.53274e-05,0.000113433,0.000149911,0.000197254,0.0002587,0.000338447,0.000441949,0.00057628,0.000750625,0.0009769,0.00127057,0.00165173,0.00214641,0.00278844,0.00362171,0.00470318,0.00610679,0.00792848,0.0102928,0.0133614,0.0173439,0.0225128,0.0292213,inf	9.01126,9.01126,696.033,21.5854,27.9992,193.343,438.841,394.446,325.222,276.527,288.953,308.507,302.893,281.432,289.55,326.658,357.727,368.592,379.261,400.661,420.361,422.55,420.82,442.311,471.441,452.53,403.59,276.321,276.321,300.328,300.328,300.328
0.00121432	-8622331.75	0,2.68987e-06,6.18095e-06,1.07119e-05,1.65925e-05,2.42247e-05,3.41303e-05,4.69864e-05,6.36719e-05,8.53274e-05,0.000113433,0.000149911,0.000197254,0.0002587,0.000338447,0.000441949,0.00057628,0.000750625,0.0009769,0.00127057,0.00165173,0.00214641,0.00278844,0.00362171,0.00470318,0.00610679,0.00792848,0.0102928,0.0133614,0.0173439,0.0225128,0.0292213,inf	7.35256,7.35256,696.76,19.068,25.8742,193.78,444.105,394.462,323.06,274.618,288.907,309.689,303.49,281.029,289.675,327.866,359.176,369.501,379.777,401.018,420.258,421.48,419.082,441.126,471.595,452.812,403.616,274.693,274.693,301.202,301.202,301.202
0.0012316	-8622268.34	0,2.68987e-06,6.18095e-06,1.07119e-05,1.65925e-05,2.42247e-05,3.41303e-05,4.69864e-05,6.36719e-05,8.53274e-05,0.000113433,0.000149911,0.000197254,0.0002587,0.000338447,0.000441949,0.00057628,0.000750625,0.0009769,0.00127057,0.00165173,0.00214641,0.00278844,0.00362171,0.00470318,0.00610679,0.00792848,0.0102928,0.0133614,0.0173439,0.0225128,0.0292213,inf	6.01469,6.01469,696.91,16.8636,23.9708,194.388,449.18,394.361,320.93,272.824,288.954,310.914,304.077,280.621,289.793,329.024,360.544,370.343,380.264,401.377,420.182,420.464,417.41,439.975,471.729,453.075,403.667,273.192,273.192,302.125,302.125,302.125
