time_index	left_time_boundary	right_time_boundary	lambda
0	0	1.78459e-06	0.395064
1	1.78459e-06	4.13533e-06	0.395064
2	4.13533e-06	7.23185e-06	339.583
3	7.23185e-06	1.13107e-05	344.127
4	1.13107e-05	1.66836e-05	71.8324
5	1.66836e-05	2.37611e-05	74.3948
6	2.37611e-05	3.30838e-05	216.998
7	3.30838e-05	4.53642e-05	455.453
8	4.53642e-05	6.15406e-05	413.176
9	6.15406e-05	8.28488e-05	337.636
10	8.28488e-05	0.000110917	278.172
11	0.000110917	0.00014789	277.311
12	0.00014789	0.000196592	294.143
13	0.000196592	0.000260746	309.486
14	0.000260746	0.000345252	308.653
15	0.000345252	0.000456567	312.816
16	0.000456567	0.000603196	335.097
17	0.000603196	0.000796344	354.539
18	0.000796344	0.00105077	366.396
19	0.00105077	0.00138591	385.819
20	0.00138591	0.00182737	411.145
21	0.00182737	0.00240888	421.838
22	0.00240888	0.00317488	413.769
23	0.00317488	0.0041839	419.216
24	0.0041839	0.00551301	455.093
25	0.00551301	0.0072638	464.285
26	0.0072638	0.00957001	417.642
27	0.00957001	0.0126079	302.495
28	0.0126079	0.0166095	302.495
29	0.0166095	0.0218806	326.574
30	0.0218806	0.028824	326.574
31	0.028824	inf	326.574
