0.000699873	-13878905.71	0,4.13533e-06,1.13107e-05,2.37611e-05,4.53642e-05,8.28488e-05,0.00014789,0.000260746,0.000456567,0.000796344,0.00138591,0.00240888,0.0041839,0.0072638,0.0126079,0.0218806,inf	258.016,258.016,271.777,335.415,343.395,325.236,324.455,332.605,352.045,379.879,411.512,425.369,429.673,378.958,378.958,378.958
0.000758089	-13875946.94	0,4.13533e-06,1.13107e-05,2.37611e-05,4.53642e-05,8.28488e-05,0.00014789,0.000260746,0.000456567,0.000796344,0.00138591,0.00240888,0.0041839,0.0072638,0.0126079,0.0218806,inf	231.673,231.673,230.565,337.192,348.156,311.82,306.695,313.687,337.958,373.786,416.455,436.995,452.351,360.857,360.857,360.857
0.000809597	-13874262.33	0,4.13533e-06,1.13107e-05,2.37611e-05,4.53642e-05,8.28488e-05,0.00014789,0.000260746,0.000456567,0.000796344,0.00138591,0.00240888,0.0041839,0.0072638,0.0126079,0.0218806,inf	225.442,225.442,203.266,344.731,359.561,309.408,302.379,307.637,333.631,371.488,417.231,439.821,467.991,344.529,344.529,344.529
0.000856091	-13873073.68	0,4.13533e-06,1.13107e-05,2.37611e-05,4.53642e-05,8.28488e-05,0.00014789,0.000260746,0.000456567,0.000796344,0.00138591,0.00240888,0.0041839,0.0072638,0.0126079,0.0218806,inf	225.259,225.259,180.788,349.356,368.193,308.309,301.782,306.03,333.226,371.119,416.646,438.497,479.378,330.908,330.908,330.908
0.000898649	-13872162.17	0,4.13533e-06,1.13107e-05,2.37611e-05,4.53642e-05,8.28488e-05,0.00014789,0.000260746,0.000456567,0.000796344,0.00138591,0.00240888,0.0041839,0.0072638,0.0126079,0.0218806,inf	227.739,227.739,162.104,351.4,373.373,306.616,302.108,306.008,334.486,371.79,415.74,435.209,488.059,319.885,319.885,319.885
0.000937962	-13871436.60	0,4.13533e-06,1.13107e-05,2.37611e-05,4.53642e-05,8.28488e-05,0.00014789,0.000260746,0.000456567,0.000796344,0.00138591,0.00240888,0.0041839,0.0072638,0.0126079,0.0218806,inf	231.423,231.423,146.831,352.317,376.138,304.294,302.574,306.506,336.425,373.015,414.883,431.011,494.918,311.059,311.059,311.059
0.000974501	-13870846.82	0,4.13533e-06,1.13107e-05,2.37611e-05,4.53642e-05,8.28488e-05,0.00014789,0.000260746,0.000456567,0.000796344,0.00138591,0.00240888,0.0041839,0.0072638,0.0126079,0.0218806,inf	235.396,235.396,134.403,353.078,377.484,301.643,303.008,307.119,338.585,374.52,414.194,426.432,500.484,304.006,304.006,304.006
0.0010086	-13870360.59	0,4.13533e-06,1.13107e-05,2.37611e-05,4.53642e-05,8.28488e-05,0.00014789,0.000260746,0.000456567,0.000796344,0.00138591,0.00240888,0.0041839,0.0072638,0.0126079,0.0218806,inf	239.151,239.151,124.259,354.114,378.056,298.925,303.412,307.698,340.747,376.145,413.697,421.746,505.086,298.357,298.357,298.357
0.00104053	-13869955.50	0,4.13533e-06,1.13107e-05,2.37611e-05,4.53642e-05,8.28488e-05,0.00014789,0.000260746,0.000456567,0.000796344,0.00138591,0.00240888,0.0041839,0.0072638,0.0126079,0.0218806,inf	242.436,242.436,115.883,355.547,378.22,296.306,303.826,308.2,342.808,377.795,413.382,417.097,508.947,293.815,293.815,293.815
0.00107049	-13869615.18	0,4.13533e-06,1.13107e-05,2.37611e-05,4.53642e-05,8.28488e-05,0.00014789,0.000260746,0.000456567,0.000796344,0.00138591,0.00240888,0.0041839,0.0072638,0.0126079,0.0218806,inf	245.161,245.161,108.887,357.345,378.163,293.868,304.284,308.618,344.723,379.417,413.228,412.563,512.22,290.146,290.146,290.146
0.00109866	-13869327.36	0,4.13533e-06,1.13107e-05,2.37611e-05,4.53642e-05,8.28488e-05,0.00014789,0.000260746,0.000456567,0.000796344,0.00138591,0.00240888,0.0041839,0.0072638,0.0126079,0.0218806,inf	247.392,247.392,102.964,359.426,377.975,291.651,304.809,308.965,346.478,380.978,413.214,408.182,515.018,287.167,287.167,287.167
0.00112519	-13869082.58	0,4.13533e-06,1.13107e-05,2.37611e-05,4.53642e-05,8.28488e-05,0.00014789,0.000260746,0.000456567,0.000796344,0.00138591,0.00240888,0.0041839,0.0072638,0.0126079,0.0218806,inf	249.162,249.162,97.8889,361.693,377.699,289.658,305.411,309.254,348.072,382.462,413.32,403.974,517.426,284.739,284.739,284.739
0.0011502	-13868873.47	0,4.13533e-06,1.13107e-05,2.37611e-05,4.53642e-05,8.28488e-05,0.00014789,0.000260746,0.000456567,0.000796344,0.00138591,0.00240888,0.0041839,0.0072638,0.0126079,0.0218806,inf	250.57,250.57,93.4895,364.078,377.355,287.88,306.093,309.498,349.514,383.861,413.528,399.946,519.509,282.75,282.75,282.75
0.00117381	-13868694.16	0,4.13533e-06,1.13107e-05,2.37611e-05,4.53642e-05,8.28488e-05,0.00014789,0.000260746,0.000456567,0.000796344,0.00138591,0.00240888,0.0041839,0.0072638,0.0126079,0.0218806,inf	251.686,251.686,89.6357,366.504,376.942,286.299,306.852,309.709,350.813,385.172,413.824,396.097,521.322,281.116,281.116,281.116
0.00119613	-13868539.93	0,4.13533e-06,1.13107e-05,2.37611e-05,4.53642e-05,8.28488e-05,0.00014789,0.000260746,0.000456567,0.000796344,0.00138591,0.00240888,0.0041839,0.0072638,0.0126079,0.0218806,inf	252.591,252.591,86.2409,368.944,376.47,284.895,307.679,309.895,351.981,386.393,414.194,392.425,522.906,279.768,279.768,279.768
0.00121723	-13868406.94	0,4.13533e-06,1.13107e-05,2.37611e-05,4.53642e-05,8.28488e-05,0.00014789,0.000260746,0.000456567,0.000796344,0.00138591,0.00240888,0.0041839,0.0072638,0.0126079,0.0218806,inf	253.321,253.321,83.218,371.361,375.94,283.647,308.566,310.064,353.03,387.528,414.628,388.923,524.297,278.654,278.654,278.654
0.00123722	-13868292.04	0,4.13533e-06,1.13107e-05,2.37611e-05,4.53642e-05,8.28488e-05,0.00014789,0.000260746,0.000456567,0.000796344,0.00138591,0.00240888,0.0041839,0.0072638,0.0126079,0.0218806,inf	253.916,253.916,80.5147,373.741,375.359,282.536,309.505,310.221,353.973,388.578,415.116,385.583,525.523,277.73,277.73,277.73
0.00125615	-13868192.62	0,4.13533e-06,1.13107e-05,2.37611e-05,4.53642e-05,8.28488e-05,0.00014789,0.000260746,0.000456567,0.000796344,0.00138591,0.00240888,0.0041839,0.0072638,0.0126079,0.0218806,inf	254.41,254.41,78.0813,376.069,374.729,281.543,310.484,310.372,354.818,389.547,415.65,382.396,526.611,276.962,276.962,276.962
0.0012741	-13868106.49	0,4.13533e-06,1.13107e-05,2.37611e-05,4.53642e-05,8.28488e-05,0.00014789,0.000260746,0.000456567,0.000796344,0.00138591,0.00240888,0.0041839,0.0072638,0.0126079,0.0218806,inf	254.845,254.845,75.8819,378.342,374.06,280.654,311.496,310.518,355.576,390.44,416.223,379.356,527.578,276.324,276.324,276.324
0.00129113	-13868031.82	0,4.13533e-06,1.13107e-05,2.37611e-05,4.53642e-05,8.28488e-05,0.00014789,0.000260746,0.000456567,0.000796344,0.00138591,0.00240888,0.0041839,0.0072638,0.0126079,0.0218806,inf	255.211,255.211,73.8857,380.557,373.352,279.852,312.531,310.663,356.256,391.26,416.83,376.453,528.444,275.792,275.792,275.792
