time_index	left_time_boundary	right_time_boundary	lambda
0	0	6.53566e-07	1.07869
1	6.53566e-07	1.51448e-06	1.07869
2	1.51448e-06	2.64851e-06	1.07869
3	2.64851e-06	4.14231e-06	1.0787
4	4.14231e-06	6.11002e-06	1.0787
5	6.11002e-06	8.70198e-06	1.0787
6	8.70198e-06	1.21162e-05	19.0412
7	1.21162e-05	1.66137e-05	88.4025
8	1.66137e-05	2.25379e-05	130.908
9	2.25379e-05	3.03416e-05	172.812
10	3.03416e-05	4.06209e-05	221.759
11	4.06209e-05	5.41614e-05	263.56
12	5.41614e-05	7.19977e-05	286.181
13	7.19977e-05	9.54924e-05	267.285
14	9.54924e-05	0.000126441	217.073
15	0.000126441	0.000167207	169.168
16	0.000167207	0.000220907	150.69
17	0.000220907	0.000291644	175.242
18	0.000291644	0.000384821	257.836
19	0.000384821	0.000507558	439.788
20	0.000507558	0.000669234	823.162
21	0.000669234	0.000882201	1644.21
22	0.000882201	0.00116273	2949.5
23	0.00116273	0.00153226	3636.77
24	0.00153226	0.00201902	3597.96
25	0.00201902	0.00266021	2605.9
26	0.00266021	0.00350481	1594.87
27	0.00350481	0.00461735	1243.69
28	0.00461735	0.00608286	1243.69
29	0.00608286	0.00801329	15.8586
30	0.00801329	0.0105561	15.8586
31	0.0105561	inf	15.8586
