0.000228051	-135345.84	0,3.42712e-05,8.11649e-05,0.00014533,0.000233129,0.000353265,0.000517648,0.000742577,0.00105035,0.00147148,0.00204772,0.0028362,0.00391508,0.00539134,0.00741132,0.0101753,inf	159.815,159.815,324.883,439.982,611.053,821.666,1157.71,1578.23,1689.76,1609.34,1490.72,1406.65,1358.87,1358.35,1358.35,1358.35
0.000228581	-135064.79	0,3.42712e-05,8.11649e-05,0.00014533,0.000233129,0.000353265,0.000517648,0.000742577,0.00105035,0.00147148,0.00204772,0.0028362,0.00391508,0.00539134,0.00741132,0.0101753,inf	41.9617,41.9617,182.957,268.07,439.008,667.307,1099.32,1851.56,2204.16,2165.46,1964.06,1809.84,1741.82,1862.32,1862.32,1862.32
0.00022799	-134972.98	0,3.42712e-05,8.11649e-05,0.00014533,0.000233129,0.000353265,0.000517648,0.000742577,0.00105035,0.00147148,0.00204772,0.0028362,0.00391508,0.00539134,0.00741132,0.0101753,inf	14.4942,14.4942,147.797,204.984,360.977,570.888,1021.14,1986.2,2612.11,2731.33,2518.94,2340.64,2340.74,3192.48,3192.48,3192.48
0.000225849	-134935.65	0,3.42712e-05,8.11649e-05,0.00014533,0.000233129,0.000353265,0.000517648,0.000742577,0.00105035,0.00147148,0.00204772,0.0028362,0.00391508,0.00539134,0.00741132,0.0101753,inf	5.65216,5.65216,142.775,179.704,324.659,508.464,950.614,2046.92,2941.83,3327.45,3234.86,3171.66,3641.11,13320.1,13320.1,13320.1
0.000222475	-134917.72	0,3.42712e-05,8.11649e-05,0.00014533,0.000233129,0.000353265,0.000517648,0.000742577,0.00105035,0.00147148,0.00204772,0.0028362,0.00391508,0.00539134,0.00741132,0.0101753,inf	2.28621,2.28621,147.702,169.773,309.554,466.466,891.152,2067.6,3218.35,3994.97,4322.86,5011.83,9942.89,146401,146401,146401
