0.000327903	-177870.03	0,2.23324e-05,4.84556e-05,7.90134e-05,0.000114758,0.000156571,0.000205481,0.000262694,0.000329618,0.000407904,0.000499477,0.000606596,0.000731898,0.00087847,0.00104992,0.00125048,0.00148508,0.00175951,0.00208051,0.00245601,0.00289525,0.00340905,0.00401007,0.00471312,0.0055355,0.00649748,0.00762276,0.00893906,0.0104788,0.0122799,0.0143867,0.0168512,inf	606.097,606.097,299.063,355.204,447.756,486.043,492.314,516.48,557.003,604.612,650.574,692.402,731.896,768.897,799.191,819.495,830.713,834.025,828.726,816.19,800.867,785.081,771.019,760.595,751.127,740.067,727.233,715.109,715.109,727.774,727.774,727.774
0.000329062	-177834.26	0,2.23324e-05,4.84556e-05,7.90134e-05,0.000114758,0.000156571,0.000205481,0.000262694,0.000329618,0.000407904,0.000499477,0.000606596,0.000731898,0.00087847,0.00104992,0.00125048,0.00148508,0.00175951,0.00208051,0.00245601,0.00289525,0.00340905,0.00401007,0.00471312,0.0055355,0.00649748,0.00762276,0.00893906,0.0104788,0.0122799,0.0143867,0.0168512,inf	647.539,647.539,163.14,233.218,369.543,419.711,405.084,426.385,477.853,543.115,606.86,665.2,722.144,778.179,826.095,859.422,878.943,885.803,877.178,854.758,827.083,798.448,773.184,754.863,737.697,716.86,692.459,670.032,670.032,696.127,696.127,696.127
0.000330156	-177823.58	0,2.23324e-05,4.84556e-05,7.90134e-05,0.000114758,0.000156571,0.000205481,0.000262694,0.000329618,0.000407904,0.000499477,0.000606596,0.000731898,0.00087847,0.00104992,0.00125048,0.00148508,0.00175951,0.00208051,0.00245601,0.00289525,0.00340905,0.00401007,0.00471312,0.0055355,0.00649748,0.00762276,0.00893906,0.0104788,0.0122799,0.0143867,0.0168512,inf	701.456,701.456,99.9952,176.989,351.856,411.818,369.411,382.405,437.703,512.142,584.549,650.235,715.782,782.797,841.932,884.16,910.159,920.747,910.304,880.196,842.73,803.824,769.803,745.584,722.103,692.545,657.72,626.481,626.481,665.767,665.767,665.767
0.00033096	-177819.39	0,2.23324e-05,4.84556e-05,7.90134e-05,0.000114758,0.000156571,0.000205481,0.000262694,0.000329618,0.000407904,0.000499477,0.000606596,0.000731898,0.00087847,0.00104992,0.00125048,0.00148508,0.00175951,0.00208051,0.00245601,0.00289525,0.00340905,0.00401007,0.00471312,0.0055355,0.00649748,0.00762276,0.00893906,0.0104788,0.0122799,0.0143867,0.0168512,inf	738.569,738.569,63.7956,142.373,354.667,425.913,353.067,357.057,414.308,494.913,572.155,640.917,710.619,784.217,850.754,899.167,930.246,944.487,933.179,896.983,851.704,804.566,763.682,735.038,706.273,668.849,624.581,585.694,585.694,637.354,637.354,637.354
0.000331526	-177817.50	0,2.23324e-05,4.84556e-05,7.90134e-05,0.000114758,0.000156571,0.000205481,0.000262694,0.000329618,0.000407904,0.000499477,0.000606596,0.000731898,0.00087847,0.00104992,0.00125048,0.00148508,0.00175951,0.00208051,0.00245601,0.00289525,0.00340905,0.00401007,0.00471312,0.0055355,0.00649748,0.00762276,0.00893906,0.0104788,0.0122799,0.0143867,0.0168512,inf	760.809,760.809,41.2343,116.915,364.346,448.889,344.679,340.354,399.258,484.909,565.21,634.844,706.261,783.88,855.429,908.188,943.286,960.998,949.424,908.3,856.717,802.929,756.635,724.655,691.398,646.819,593.955,548.326,548.326,611.294,611.294,611.294
0.000331924	-177816.60	0,2.23324e-05,4.84556e-05,7.90134e-05,0.000114758,0.000156571,0.000205481,0.000262694,0.000329618,0.000407904,0.000499477,0.000606596,0.000731898,0.00087847,0.00104992,0.00125048,0.00148508,0.00175951,0.00208051,0.00245601,0.00289525,0.00340905,0.00401007,0.00471312,0.0055355,0.00649748,0.00762276,0.00893906,0.0104788,0.0122799,0.0143867,0.0168512,inf	773.516,773.516,26.716,96.4188,375.188,474.935,339.526,328,388.763,479.084,561.578,630.871,702.597,782.68,857.704,913.55,951.87,972.85,961.394,916.201,859.481,800.283,749.701,715.222,678.115,626.989,566.26,514.6,514.6,587.776,587.776,587.776
0.000332207	-177816.16	0,2.23324e-05,4.84556e-05,7.90134e-05,0.000114758,0.000156571,0.000205481,0.000262694,0.000329618,0.000407904,0.000499477,0.000606596,0.000731898,0.00087847,0.00104992,0.00125048,0.00148508,0.00175951,0.00208051,0.00245601,0.00289525,0.00340905,0.00401007,0.00471312,0.0055355,0.00649748,0.00762276,0.00893906,0.0104788,0.0122799,0.0143867,0.0168512,inf	780.71,780.71,17.2804,79.3298,384.731,501.3,335.544,317.988,380.93,475.84,560.087,628.346,699.537,781.111,858.599,916.65,957.592,981.647,970.569,921.961,861.023,797.403,743.42,707.109,666.694,609.559,541.593,484.456,484.456,566.831,566.831,566.831
0.00033241	-177815.96	0,2.23324e-05,4.84556e-05,7.90134e-05,0.000114758,0.000156571,0.000205481,0.000262694,0.000329618,0.000407904,0.000499477,0.000606596,0.000731898,0.00087847,0.00104992,0.00125048,0.00148508,0.00175951,0.00208051,0.00245601,0.00289525,0.00340905,0.00401007,0.00471312,0.0055355,0.00649748,0.00762276,0.00893906,0.0104788,0.0122799,0.0143867,0.0168512,inf	784.791,784.791,11.1456,64.9717,392.061,526.748,331.844,309.334,374.751,474.273,560.042,626.846,696.987,779.429,858.697,918.328,961.435,988.394,977.87,926.353,861.935,794.689,738.023,700.432,657.193,594.521,519.848,457.667,457.667,548.364,548.364,548.364
0.000332553	-177815.90	0,2.23324e-05,4.84556e-05,7.90134e-05,0.000114758,0.000156571,0.000205481,0.000262694,0.000329618,0.000407904,0.000499477,0.000606596,0.000731898,0.00087847,0.00104992,0.00125048,0.00148508,0.00175951,0.00208051,0.00245601,0.00289525,0.00340905,0.00401007,0.00471312,0.0055355,0.00649748,0.00762276,0.00893906,0.0104788,0.0122799,0.0143867,0.0168512,inf	787.147,787.147,7.16625,52.9538,396.99,550.788,328.067,301.532,369.649,473.822,560.993,626.082,694.849,777.754,858.336,919.092,964.007,993.717,983.867,929.841,862.537,792.319,733.562,695.162,649.533,581.75,500.814,433.922,433.922,532.221,532.221,532.221
0.000332649	-177815.90	0,2.23324e-05,4.84556e-05,7.90134e-05,0.000114758,0.000156571,0.000205481,0.000262694,0.000329618,0.000407904,0.000499477,0.000606596,0.000731898,0.00087847,0.00104992,0.00125048,0.00148508,0.00175951,0.00208051,0.00245601,0.00289525,0.00340905,0.00401007,0.00471312,0.0055355,0.00649748,0.00762276,0.00893906,0.0104788,0.0122799,0.0143867,0.0168512,inf	788.533,788.533,4.59448,42.9678,399.679,573.332,324.112,294.32,365.288,474.146,562.64,625.844,693.036,776.141,857.713,919.257,965.701,998.02,988.922,932.7,862.997,790.346,729.99,691.191,643.571,571.053,484.221,412.878,412.878,518.201,518.201,518.201
0.00033271	-177815.93	0,2.23324e-05,4.84556e-05,7.90134e-05,0.000114758,0.000156571,0.000205481,0.000262694,0.000329618,0.000407904,0.000499477,0.000606596,0.000731898,0.00087847,0.00104992,0.00125048,0.00148508,0.00175951,0.00208051,0.00245601,0.00289525,0.00340905,0.00401007,0.00471312,0.0055355,0.00649748,0.00762276,0.00893906,0.0104788,0.0122799,0.0143867,0.0168512,inf	789.423,789.423,2.9384,34.7337,400.418,594.464,319.977,287.553,361.454,475.009,564.775,625.983,691.475,774.61,856.946,919.026,966.767,1001.57,993.265,935.094,863.388,788.752,727.208,688.372,639.128,562.211,469.787,394.195,394.195,506.089,506.089,506.089
0.00033274	-177815.97	0,2.23324e-05,4.84556e-05,7.90134e-05,0.000114758,0.000156571,0.000205481,0.000262694,0.000329618,0.000407904,0.000499477,0.000606596,0.000731898,0.00087847,0.00104992,0.00125048,0.00148508,0.00175951,0.00208051,0.00245601,0.00289525,0.00340905,0.00401007,0.00471312,0.0055355,0.00649748,0.00762276,0.00893906,0.0104788,0.0122799,0.0143867,0.0168512,inf	790.003,790.003,1.87561,27.9912,399.524,614.338,315.7,281.144,358.01,476.253,567.247,626.384,690.105,773.166,856.108,918.532,967.38,1004.54,997.051,937.121,863.738,787.488,725.104,686.544,636.015,555.006,457.232,377.553,377.553,495.68,495.68,495.68
0.000332747	-177816.01	0,2.23324e-05,4.84556e-05,7.90134e-05,0.000114758,0.000156571,0.000205481,0.000262694,0.000329618,0.000407904,0.000499477,0.000606596,0.000731898,0.00087847,0.00104992,0.00125048,0.00148508,0.00175951,0.00208051,0.00245601,0.00289525,0.00340905,0.00401007,0.00471312,0.0055355,0.00649748,0.00762276,0.00893906,0.0104788,0.0122799,0.0143867,0.0168512,inf	790.428,790.428,1.19529,22.5003,397.294,633.134,311.33,275.041,354.859,477.765,569.949,626.964,688.878,771.806,855.248,917.866,967.662,1007.07,1000.39,938.843,864.048,786.491,723.556,685.549,634.049,549.219,446.303,362.667,362.667,486.77,486.77,486.77
0.000332733	-177816.05	0,2.23324e-05,4.84556e-05,7.90134e-05,0.000114758,0.000156571,0.000205481,0.000262694,0.000329618,0.000407904,0.000499477,0.000606596,0.000731898,0.00087847,0.00104992,0.00125048,0.00148508,0.00175951,0.00208051,0.00245601,0.00289525,0.00340905,0.00401007,0.00471312,0.0055355,0.00649748,0.00762276,0.00893906,0.0104788,0.0122799,0.0143867,0.0168512,inf	790.758,790.758,0.761185,18.0512,393.987,651.018,306.902,269.209,351.937,479.462,572.8,627.66,687.759,770.525,854.394,917.094,967.7,1009.24,1003.35,940.305,864.31,785.699,722.454,685.242,633.058,544.655,436.765,349.281,349.281,479.173,479.173,479.173
0.000332703	-177816.07	0,2.23324e-05,4.84556e-05,7.90134e-05,0.000114758,0.000156571,0.000205481,0.000262694,0.000329618,0.000407904,0.000499477,0.000606596,0.000731898,0.00087847,0.00104992,0.00125048,0.00148508,0.00175951,0.00208051,0.00245601,0.00289525,0.00340905,0.00401007,0.00471312,0.0055355,0.00649748,0.00762276,0.00893906,0.0104788,0.0122799,0.0143867,0.0168512,inf	791.071,791.071,0.760108,14.459,389.816,668.129,302.46,263.623,349.197,481.285,575.741,628.426,686.718,769.318,853.569,916.26,967.56,1011.14,1006,941.536,864.514,785.055,721.698,685.488,632.885,541.136,428.415,337.178,337.178,472.72,472.72,472.72
0.00033266	-177816.09	0,2.23324e-05,4.84556e-05,7.90134e-05,0.000114758,0.000156571,0.000205481,0.000262694,0.000329618,0.000407904,0.000499477,0.000606596,0.000731898,0.00087847,0.00104992,0.00125048,0.00148508,0.00175951,0.00208051,0.00245601,0.00289525,0.00340905,0.00401007,0.00471312,0.0055355,0.00649748,0.00762276,0.00893906,0.0104788,0.0122799,0.0143867,0.0168512,inf	791.282,791.282,0.760108,11.566,384.946,684.579,298.027,258.258,346.603,483.19,578.725,629.227,685.734,768.178,852.787,915.4,967.291,1012.8,1008.39,942.561,864.649,784.511,721.206,686.172,633.392,538.507,421.075,326.173,326.173,467.265,467.265,467.265
0.000332606	-177816.09	0,2.23324e-05,4.84556e-05,7.90134e-05,0.000114758,0.000156571,0.000205481,0.000262694,0.000329618,0.000407904,0.000499477,0.000606596,0.000731898,0.00087847,0.00104992,0.00125048,0.00148508,0.00175951,0.00208051,0.00245601,0.00289525,0.00340905,0.00401007,0.00471312,0.0055355,0.00649748,0.00762276,0.00893906,0.0104788,0.0122799,0.0143867,0.0168512,inf	791.507,791.507,0.760107,9.24123,379.53,700.476,293.632,253.1,344.128,485.145,581.723,630.036,684.79,767.1,852.056,914.537,966.931,1014.29,1010.55,943.403,864.71,784.03,720.905,687.194,634.46,536.631,414.589,316.106,316.106,462.677,462.677,462.677
0.000332544	-177816.09	0,2.23324e-05,4.84556e-05,7.90134e-05,0.000114758,0.000156571,0.000205481,0.000262694,0.000329618,0.000407904,0.000499477,0.000606596,0.000731898,0.00087847,0.00104992,0.00125048,0.00148508,0.00175951,0.00208051,0.00245601,0.00289525,0.00340905,0.00401007,0.00471312,0.0055355,0.00649748,0.00762276,0.00893906,0.0104788,0.0122799,0.0143867,0.0168512,inf	791.751,791.751,0.760107,7.37851,373.687,715.902,289.289,248.137,341.756,487.126,584.71,630.835,683.871,766.08,851.383,913.689,966.508,1015.63,1012.52,944.081,864.694,783.58,720.738,688.472,635.984,535.39,408.832,306.847,306.847,458.839,458.839,458.839
0.000332476	-177816.09	0,2.23324e-05,4.84556e-05,7.90134e-05,0.000114758,0.000156571,0.000205481,0.000262694,0.000329618,0.000407904,0.000499477,0.000606596,0.000731898,0.00087847,0.00104992,0.00125048,0.00148508,0.00175951,0.00208051,0.00245601,0.00289525,0.00340905,0.00401007,0.00471312,0.0055355,0.00649748,0.00762276,0.00893906,0.0104788,0.0122799,0.0143867,0.0168512,inf	792.036,792.036,0.760107,5.88725,367.517,730.923,285.009,243.356,339.471,489.115,587.668,631.61,682.97,765.113,850.771,912.869,966.044,1016.85,1014.32,944.614,864.601,783.139,720.659,689.936,637.877,534.684,403.692,298.283,298.283,455.649,455.649,455.649
0.000332403	-177816.08	0,2.23324e-05,4.84556e-05,7.90134e-05,0.000114758,0.000156571,0.000205481,0.000262694,0.000329618,0.000407904,0.000499477,0.000606596,0.000731898,0.00087847,0.00104992,0.00125048,0.00148508,0.00175951,0.00208051,0.00245601,0.00289525,0.00340905,0.00401007,0.00471312,0.0055355,0.00649748,0.00762276,0.00893906,0.0104788,0.0122799,0.0143867,0.0168512,inf	792.316,792.316,0.760107,4.69496,361.1,745.586,280.796,238.744,337.26,491.103,590.585,632.35,682.079,764.193,850.219,912.084,965.557,1017.98,1015.99,945.018,864.435,782.692,720.632,691.528,640.063,534.428,399.079,290.321,290.321,453.021,453.021,453.021
