time_index	left_time_boundary	right_time_boundary	lambda
0	0	2.19841e-05	335.317
1	2.19841e-05	5.56181e-05	335.317
2	5.56181e-05	0.000107076	367.538
3	0.000107076	0.000185802	349.628
4	0.000185802	0.000306247	359.785
5	0.000306247	0.00049052	363.428
6	0.00049052	0.000772442	366.765
7	0.000772442	0.00120376	384.247
8	0.00120376	0.00186365	410.671
9	0.00186365	0.00287323	432.064
10	0.00287323	0.00441782	426.559
11	0.00441782	0.00678092	411.981
12	0.00678092	0.0103963	412.592
13	0.0103963	0.0159275	397.968
14	0.0159275	0.0243899	397.968
15	0.0243899	inf	397.968
