0.000718516	-3055590.14	0,9.16907e-05,0.000217152,0.000388824,0.000623724,0.000945142,0.00138494,0.00198673,0.00281016,0.00393687,0.00547857,0.00758811,0.0104746,0.0144243,0.0198286,0.0272235,inf	368.439,368.439,348.767,350.776,366.123,389.867,412.131,428.682,433.459,428.074,420.846,414.432,413.808,427.949,427.949,427.949
0.000807886	-3054061.12	0,9.16907e-05,0.000217152,0.000388824,0.000623724,0.000945142,0.00138494,0.00198673,0.00281016,0.00393687,0.00547857,0.00758811,0.0104746,0.0144243,0.0198286,0.0272235,inf	370.354,370.354,333.441,332.538,352.715,385.65,416.376,440.785,448.962,441.417,430.887,420.844,421.064,450.528,450.528,450.528
0.000890726	-3052990.74	0,9.16907e-05,0.000217152,0.000388824,0.000623724,0.000945142,0.00138494,0.00198673,0.00281016,0.00393687,0.00547857,0.00758811,0.0104746,0.0144243,0.0198286,0.0272235,inf	377.053,377.053,328.849,325.208,347.408,384.289,417.831,445.79,456.078,447.653,435.781,423.735,425.629,471.132,471.132,471.132
0.000967822	-3052170.38	0,9.16907e-05,0.000217152,0.000388824,0.000623724,0.000945142,0.00138494,0.00198673,0.00281016,0.00393687,0.00547857,0.00758811,0.0104746,0.0144243,0.0198286,0.0272235,inf	382.218,382.218,327.988,322.498,345.854,384.367,418.116,447.392,458.845,450.013,437.764,424.663,428.699,490.803,490.803,490.803
0.00103988	-3051514.64	0,9.16907e-05,0.000217152,0.000388824,0.000623724,0.000945142,0.00138494,0.00198673,0.00281016,0.00393687,0.00547857,0.00758811,0.0104746,0.0144243,0.0198286,0.0272235,inf	385.118,385.118,328.601,322.022,346.25,385.24,417.923,447.333,459.322,450.237,438.079,424.481,430.92,510.187,510.187,510.187
0.00110747	-3050977.59	0,9.16907e-05,0.000217152,0.000388824,0.000623724,0.000945142,0.00138494,0.00198673,0.00281016,0.00393687,0.00547857,0.00758811,0.0104746,0.0144243,0.0198286,0.0272235,inf	386.296,386.296,329.852,322.701,347.7,386.545,417.539,446.463,458.584,449.278,437.428,423.666,432.647,529.718,529.718,529.718
0.00117106	-3050530.49	0,9.16907e-05,0.000217152,0.000388824,0.000623724,0.000945142,0.00138494,0.00198673,0.00281016,0.00393687,0.00547857,0.00758811,0.0104746,0.0144243,0.0198286,0.0272235,inf	386.4,386.4,331.388,323.982,349.716,388.064,417.083,445.209,457.211,447.671,436.218,422.486,434.08,549.721,549.721,549.721
0.00123102	-3050153.69	0,9.16907e-05,0.000217152,0.000388824,0.000623724,0.000945142,0.00138494,0.00198673,0.00281016,0.00393687,0.00547857,0.00758811,0.0104746,0.0144243,0.0198286,0.0272235,inf	385.927,385.927,333.044,325.564,352.015,389.665,416.605,443.791,455.522,445.724,434.689,421.101,435.338,570.47,570.47,570.47
0.00128768	-3049833.05	0,9.16907e-05,0.000217152,0.000388824,0.000623724,0.000945142,0.00138494,0.00198673,0.00281016,0.00393687,0.00547857,0.00758811,0.0104746,0.0144243,0.0198286,0.0272235,inf	385.205,385.205,334.737,327.274,354.431,391.266,416.125,442.328,453.697,443.616,432.985,419.603,436.489,592.232,592.232,592.232
0.0013413	-3049557.95	0,9.16907e-05,0.000217152,0.000388824,0.000623724,0.000945142,0.00138494,0.00198673,0.00281016,0.00393687,0.00547857,0.00758811,0.0104746,0.0144243,0.0198286,0.0272235,inf	384.43,384.43,336.42,329.01,356.863,392.823,415.652,440.882,451.841,441.454,431.196,418.049,437.577,615.285,615.285,615.285
0.00139213	-3049320.29	0,9.16907e-05,0.000217152,0.000388824,0.000623724,0.000945142,0.00138494,0.00198673,0.00281016,0.00393687,0.00547857,0.00758811,0.0104746,0.0144243,0.0198286,0.0272235,inf	383.713,383.713,338.066,330.715,359.255,394.309,415.189,439.487,450.01,439.3,429.377,416.474,438.627,639.95,639.95,639.95
0.00144037	-3049113.72	0,9.16907e-05,0.000217152,0.000388824,0.000623724,0.000945142,0.00138494,0.00198673,0.00281016,0.00393687,0.00547857,0.00758811,0.0104746,0.0144243,0.0198286,0.0272235,inf	383.109,383.109,339.662,332.356,361.572,395.712,414.738,438.158,448.24,437.192,427.562,414.898,439.658,666.616,666.616,666.616
0.00148622	-3048933.21	0,9.16907e-05,0.000217152,0.000388824,0.000623724,0.000945142,0.00138494,0.00198673,0.00281016,0.00393687,0.00547857,0.00758811,0.0104746,0.0144243,0.0198286,0.0272235,inf	382.642,382.642,341.201,333.919,363.798,397.027,414.3,436.904,446.545,435.15,425.77,413.333,440.68,695.769,695.769,695.769
0.00152983	-3048774.71	0,9.16907e-05,0.000217152,0.000388824,0.000623724,0.000945142,0.00138494,0.00198673,0.00281016,0.00393687,0.00547857,0.00758811,0.0104746,0.0144243,0.0198286,0.0272235,inf	382.315,382.315,342.678,335.394,365.924,398.255,413.874,435.727,444.936,433.186,424.015,411.788,441.702,728.054,728.054,728.054
0.00157136	-3048634.93	0,9.16907e-05,0.000217152,0.000388824,0.000623724,0.000945142,0.00138494,0.00198673,0.00281016,0.00393687,0.00547857,0.00758811,0.0104746,0.0144243,0.0198286,0.0272235,inf	382.122,382.122,344.093,336.78,367.948,399.398,413.46,434.624,443.415,431.303,422.302,410.266,442.729,764.354,764.354,764.354
0.00161094	-3048511.18	0,9.16907e-05,0.000217152,0.000388824,0.000623724,0.000945142,0.00138494,0.00198673,0.00281016,0.00393687,0.00547857,0.00758811,0.0104746,0.0144243,0.0198286,0.0272235,inf	382.051,382.051,345.449,338.079,369.871,400.46,413.058,433.594,441.98,429.505,420.636,408.768,443.766,805.941,805.941,805.941
0.0016487	-3048401.25	0,9.16907e-05,0.000217152,0.000388824,0.000623724,0.000945142,0.00138494,0.00198673,0.00281016,0.00393687,0.00547857,0.00758811,0.0104746,0.0144243,0.0198286,0.0272235,inf	382.088,382.088,346.745,339.294,371.697,401.445,412.667,432.632,440.63,427.788,419.016,407.293,444.815,854.739,854.739,854.739
0.00168475	-3048303.29	0,9.16907e-05,0.000217152,0.000388824,0.000623724,0.000945142,0.00138494,0.00198673,0.00281016,0.00393687,0.00547857,0.00758811,0.0104746,0.0144243,0.0198286,0.0272235,inf	382.219,382.219,347.985,340.429,373.429,402.359,412.287,431.735,439.361,426.15,417.443,405.841,445.879,913.886,913.886,913.886
0.00171919	-3048215.76	0,9.16907e-05,0.000217152,0.000388824,0.000623724,0.000945142,0.00138494,0.00198673,0.00281016,0.00393687,0.00547857,0.00758811,0.0104746,0.0144243,0.0198286,0.0272235,inf	382.428,382.428,349.17,341.49,375.073,403.207,411.918,430.898,438.167,424.587,415.912,404.41,446.962,989.004,989.004,989.004
0.00175211	-3048137.40	0,9.16907e-05,0.000217152,0.000388824,0.000623724,0.000945142,0.00138494,0.00198673,0.00281016,0.00393687,0.00547857,0.00758811,0.0104746,0.0144243,0.0198286,0.0272235,inf	382.705,382.705,350.305,342.481,376.634,403.993,411.56,430.117,437.045,423.094,414.422,402.994,448.067,1091.76,1091.76,1091.76
