0.000233625	-133495.35	0,1.5509e-05,3.36507e-05,5.48719e-05,7.96954e-05,0.000108733,0.000142699,0.000182431,0.000228908,0.000283274,0.000346869,0.000421259,0.000508277,0.000610065,0.000729133,0.000868412,0.00103133,0.00122191,0.00144484,0.00170561,0.00201065,0.00236746,0.00278485,0.00327309,0.0038442,0.00451226,0.00529373,0.00620785,0.00727714,0.00852794,0.00999107,0.0117026,inf	102.381,102.381,200.377,274.158,340.693,403.388,467.891,538.806,617.261,705.688,813.47,953.355,1131.19,1332.59,1513.85,1621.58,1642.97,1610.98,1561.26,1511.76,1468.36,1430.7,1396.78,1367.21,1343.28,1323.81,1307.19,1291.44,1291.44,1283.46,1283.46,1283.46
0.000244352	-133238.53	0,1.5509e-05,3.36507e-05,5.48719e-05,7.96954e-05,0.000108733,0.000142699,0.000182431,0.000228908,0.000283274,0.000346869,0.000421259,0.000508277,0.000610065,0.000729133,0.000868412,0.00103133,0.00122191,0.00144484,0.00170561,0.00201065,0.00236746,0.00278485,0.00327309,0.0038442,0.00451226,0.00529373,0.00620785,0.00727714,0.00852794,0.00999107,0.0117026,inf	19.464,19.464,72.5669,127.715,182.542,235.993,293.904,362.547,442.786,536.663,658.696,832.471,1077.21,1390.45,1722.26,1970.64,2067.46,2047.51,1978.49,1900.9,1830.33,1767.29,1708.21,1656.68,1617.04,1586.05,1559.12,1533.45,1533.45,1527.52,1527.52,1527.52
0.000255147	-133146.72	0,1.5509e-05,3.36507e-05,5.48719e-05,7.96954e-05,0.000108733,0.000142699,0.000182431,0.000228908,0.000283274,0.000346869,0.000421259,0.000508277,0.000610065,0.000729133,0.000868412,0.00103133,0.00122191,0.00144484,0.00170561,0.00201065,0.00236746,0.00278485,0.00327309,0.0038442,0.00451226,0.00529373,0.00620785,0.00727714,0.00852794,0.00999107,0.0117026,inf	5.70382,5.70382,39.6753,86.2226,134.729,180.369,229.578,290.364,363.055,448.667,565.236,743.949,1013.77,1385.3,1819.27,2191.99,2379.26,2397.42,2334.39,2250.39,2171.25,2098.14,2026.04,1963.99,1921.54,1892.3,1866.66,1842.17,1842.17,1861.7,1861.7,1861.7
0.00026521	-133105.60	0,1.5509e-05,3.36507e-05,5.48719e-05,7.96954e-05,0.000108733,0.000142699,0.000182431,0.000228908,0.000283274,0.000346869,0.000421259,0.000508277,0.000610065,0.000729133,0.000868412,0.00103133,0.00122191,0.00144484,0.00170561,0.00201065,0.00236746,0.00278485,0.00327309,0.0038442,0.00451226,0.00529373,0.00620785,0.00727714,0.00852794,0.00999107,0.0117026,inf	2.14754,2.14754,27.526,72.2473,120.158,161.993,205.201,259.626,324.455,399.381,505.574,679.923,957.94,1360.34,1861.91,2334.73,2609.88,2677.76,2637.34,2564.43,2494.11,2426.96,2355.97,2298.29,2271.53,2265.55,2262.81,2262.74,2262.74,2376.95,2376.95,2376.95
0.000274511	-133083.97	0,1.5509e-05,3.36507e-05,5.48719e-05,7.96954e-05,0.000108733,0.000142699,0.000182431,0.000228908,0.000283274,0.000346869,0.000421259,0.000508277,0.000610065,0.000729133,0.000868412,0.00103133,0.00122191,0.00144484,0.00170561,0.00201065,0.00236746,0.00278485,0.00327309,0.0038442,0.00451226,0.00529373,0.00620785,0.00727714,0.00852794,0.00999107,0.0117026,inf	1.09452,1.09452,21.5832,67.7139,118.536,159.166,198.533,248.463,306.386,370.585,465.511,632.532,911.467,1330.34,1877.18,2428.99,2783.96,2905.52,2898.25,2850.43,2805.29,2761.23,2708.3,2674.99,2692.31,2748.27,2815.59,2901.63,2901.63,3382.21,3382.21,3382.21
0.000283164	-133071.05	0,1.5509e-05,3.36507e-05,5.48719e-05,7.96954e-05,0.000108733,0.000142699,0.000182431,0.000228908,0.000283274,0.000346869,0.000421259,0.000508277,0.000610065,0.000729133,0.000868412,0.00103133,0.00122191,0.00144484,0.00170561,0.00201065,0.00236746,0.00278485,0.00327309,0.0038442,0.00451226,0.00529373,0.00620785,0.00727714,0.00852794,0.00999107,0.0117026,inf	1.09452,1.09452,17.8485,66.6665,122.508,163.607,200.651,247.579,299.488,353.382,437.364,596.402,873.026,1300.46,1878.11,2492.28,2918.11,3093.69,3126.45,3115.51,3111.9,3110.64,3097.79,3118.44,3228.87,3428.85,3696.36,4094.78,4094.78,6976.96,6976.96,6976.96
0.000291286	-133062.52	0,1.5509e-05,3.36507e-05,5.48719e-05,7.96954e-05,0.000108733,0.000142699,0.000182431,0.000228908,0.000283274,0.000346869,0.000421259,0.000508277,0.000610065,0.000729133,0.000868412,0.00103133,0.00122191,0.00144484,0.00170561,0.00201065,0.00236746,0.00278485,0.00327309,0.0038442,0.00451226,0.00529373,0.00620785,0.00727714,0.00852794,0.00999107,0.0117026,inf	1.09452,1.09452,14.9912,66.6057,128.663,171.42,207.336,252.446,299.017,343.052,416.785,568.075,841.006,1272.47,1871.33,2535.05,3023.31,3251.61,3329.21,3365.83,3421.28,3487.2,3545.79,3669.3,3971.85,4538.03,5533.45,7797.57,7797.57,75533.7,75533.7,75533.7
0.000298973	-133056.43	0,1.5509e-05,3.36507e-05,5.48719e-05,7.96954e-05,0.000108733,0.000142699,0.000182431,0.000228908,0.000283274,0.000346869,0.000421259,0.000508277,0.000610065,0.000729133,0.000868412,0.00103133,0.00122191,0.00144484,0.00170561,0.00201065,0.00236746,0.00278485,0.00327309,0.0038442,0.00451226,0.00529373,0.00620785,0.00727714,0.00852794,0.00999107,0.0117026,inf	1.09452,1.09452,12.558,66.3844,135.185,180.525,216.352,260.64,302.372,336.949,401.207,545.322,814.058,1246.87,1860.4,2563.77,3106.97,3386.01,3512.06,3606.54,3740.99,3906.46,4085.15,4403.4,5145.63,6977.76,13031,58128.7,58128.7,27787.3,27787.3,27787.3
0.0003063	-133051.83	0,1.5509e-05,3.36507e-05,5.48719e-05,7.96954e-05,0.000108733,0.000142699,0.000182431,0.000228908,0.000283274,0.000346869,0.000421259,0.000508277,0.000610065,0.000729133,0.000868412,0.00103133,0.00122191,0.00144484,0.00170561,0.00201065,0.00236746,0.00278485,0.00327309,0.0038442,0.00451226,0.00529373,0.00620785,0.00727714,0.00852794,0.00999107,0.0117026,inf	1.09452,1.09452,10.4143,65.5249,141.084,189.741,226.425,270.76,308.045,333.52,389.066,526.671,791.147,1223.69,1847.32,2582.58,3174.21,3501.77,3679.23,3842.08,4079.29,4389.83,4771.8,5488.44,7547.9,18400.6,417023,11526.2,11526.2,75533.7,75533.7,75533.7
0.000313321	-133048.20	0,1.5509e-05,3.36507e-05,5.48719e-05,7.96954e-05,0.000108733,0.000142699,0.000182431,0.000228908,0.000283274,0.000346869,0.000421259,0.000508277,0.000610065,0.000729133,0.000868412,0.00103133,0.00122191,0.00144484,0.00170561,0.00201065,0.00236746,0.00278485,0.00327309,0.0038442,0.00451226,0.00529373,0.00620785,0.00727714,0.00852794,0.00999107,0.0117026,inf	1.09452,1.09452,8.53349,63.9179,145.865,198.404,236.808,281.964,315.122,331.822,379.369,511.131,771.491,1202.78,1833.24,2594.25,3228.66,3602.52,3833.98,4076.36,4445.77,4969.41,5714.01,7414.27,16868.8,487389,4763.61,5677,5677,14977.4,14977.4,14977.4
0.000320079	-133045.24	0,1.5509e-05,3.36507e-05,5.48719e-05,7.96954e-05,0.000108733,0.000142699,0.000182431,0.000228908,0.000283274,0.000346869,0.000421259,0.000508277,0.000610065,0.000729133,0.000868412,0.00103133,0.00122191,0.00144484,0.00170561,0.00201065,0.00236746,0.00278485,0.00327309,0.0038442,0.00451226,0.00529373,0.00620785,0.00727714,0.00852794,0.00999107,0.0117026,inf	1.09452,1.09452,6.91479,61.6435,149.357,206.176,247.06,293.727,323.033,331.264,371.467,498.009,754.495,1183.93,1818.83,2600.67,3272.96,3691,3978.91,4312.97,4852.29,5697.82,7166.4,12588.4,390642,434890,12948.8,3059.92,3059.92,4351.31,4351.31,4351.31
0.000326607	-133042.76	0,1.5509e-05,3.36507e-05,5.48719e-05,7.96954e-05,0.000108733,0.000142699,0.000182431,0.000228908,0.000283274,0.000346869,0.000421259,0.000508277,0.000610065,0.000729133,0.000868412,0.00103133,0.00122191,0.00144484,0.00170561,0.00201065,0.00236746,0.00278485,0.00327309,0.0038442,0.00451226,0.00529373,0.00620785,0.00727714,0.00852794,0.00999107,0.0117026,inf	1.09452,1.09452,5.55252,58.8635,151.581,212.913,256.928,305.716,331.411,331.466,364.921,486.811,739.699,1166.93,1804.49,2603.16,3309.07,3769.31,4116.1,4555.4,5314.43,6671.92,9959.84,55942.4,524099,3390.55,6979.46,8317.72,8317.72,11828.1,11828.1,11828.1
0.000332931	-133040.64	0,1.5509e-05,3.36507e-05,5.48719e-05,7.96954e-05,0.000108733,0.000142699,0.000182431,0.000228908,0.000283274,0.000346869,0.000421259,0.000508277,0.000610065,0.000729133,0.000868412,0.00103133,0.00122191,0.00144484,0.00170561,0.00201065,0.00236746,0.00278485,0.00327309,0.0038442,0.00451226,0.00529373,0.00620785,0.00727714,0.00852794,0.00999107,0.0117026,inf	1.09452,1.09452,4.42873,55.7578,152.659,218.591,266.275,317.714,340.016,332.178,359.425,477.169,726.747,1151.56,1790.45,2602.67,3338.47,3839.1,4247.22,4807.15,5854.11,8101.67,19226.2,947370,4086.05,1827.52,3761.95,2416.5,2416.5,6375.38,6375.38,6375.38
0.000339067	-133038.80	0,1.5509e-05,3.36507e-05,5.48719e-05,7.96954e-05,0.000108733,0.000142699,0.000182431,0.000228908,0.000283274,0.000346869,0.000421259,0.000508277,0.000610065,0.000729133,0.000868412,0.00103133,0.00122191,0.00144484,0.00170561,0.00201065,0.00236746,0.00278485,0.00327309,0.0038442,0.00451226,0.00529373,0.00620785,0.00727714,0.00852794,0.00999107,0.0117026,inf	1.09452,1.09452,3.51586,52.4909,152.766,223.268,275.034,329.581,348.685,333.232,354.76,468.808,715.351,1137.64,1776.82,2599.88,3362.31,3901.68,4373.68,5071.95,6504.1,10580.9,187171,1.09509e+06,160.656,195.321,1752.44,95.0124,95.0124,250.668,250.668,250.668
