LogLikelihood = -296201.24595083174063

y0 0.81660039138966289407
y0_prime 0
y1 0.94769591009404241522
y1_prime 0
y2 0.90527728947349117572
y2_prime 0
y3 1.7756795566007081977
y3_prime 0
rho 0.0022049040668970462144
theta 0.00485136009488313074
