LogLikelihood = -1367235.9846204069909

y0 0.77214921852848450445
y0_prime 0
y1 0.83426322125303464805
y1_prime 0
y2 0.87408837229347835507
y2_prime 0
y3 1.5849510411796163822
y3_prime 0
rho 0.0020109550613987979724
theta 0.0044710694213884278822
