AIC = 268548.81259169836994

y0 2.6811237602426487187e-10
y0_prime 0
y1 0.46428470544154210042
y1_prime 0
y2 1.9294303450681213885
y2_prime 0
y3 47.241228422685971111
y3_prime 0
rho 0.00060436296750123147219
rho.alpha 0.56452810542604947575
r_ii 0.99990881820120347534
theta 0.0018509421523573009894
