LogLikelihood = -667256.31388698506635

y0 0.17586153650434954709
y0_prime 0
y1 0.28649508638747855915
y1_prime 0
y2 1.9963401655011581148
y2_prime 0
y3 71.076160420018766217
y3_prime 0
rho 0.00028179532360261805822
theta 0.0018376605200304454296
