0.000427864	-11567971.10	0,3.30848e-06,9.04918e-06,1.90101e-05,3.62938e-05,6.62834e-05,0.00011832,0.00020861,0.000365277,0.000637117,0.0011088,0.00192723,0.00334733,0.00581142,0.010087,0.0175056,inf	6.87519,6.87519,26.3456,18.8032,34.485,65.4615,135.133,285.505,327.46,420.118,409.954,569.112,726.184,691.046,691.046,691.046
0.00035332	-11550372.09	0,3.30848e-06,9.04918e-06,1.90101e-05,3.62938e-05,6.62834e-05,0.00011832,0.00020861,0.000365277,0.000637117,0.0011088,0.00192723,0.00334733,0.00581142,0.010087,0.0175056,inf	0.500178,0.500178,3.38211,0.739859,2.50123,8.87132,37.8383,202.575,249.81,405.874,356.962,571.686,1043.38,996.802,996.802,996.802
0.000279836	-11538615.62	0,3.30848e-06,9.04918e-06,1.90101e-05,3.62938e-05,6.62834e-05,0.00011832,0.00020861,0.000365277,0.000637117,0.0011088,0.00192723,0.00334733,0.00581142,0.010087,0.0175056,inf	0.500178,0.500178,1.00292,0.493777,0.493777,1.08066,9.42268,155.532,196.895,413.747,324.203,531.424,1616.54,1358.89,1358.89,1358.89
0.000208986	-11528017.33	0,3.30848e-06,9.04918e-06,1.90101e-05,3.62938e-05,6.62834e-05,0.00011832,0.00020861,0.000365277,0.000637117,0.0011088,0.00192723,0.00334733,0.00581142,0.010087,0.0175056,inf	0.500178,0.500178,0.577531,0.493777,0.493777,0.493777,1.99148,125.704,154.321,422.465,306.296,465.35,3355.7,802.944,802.944,802.944
0.000144438	-11517654.50	0,3.30848e-06,9.04918e-06,1.90101e-05,3.62938e-05,6.62834e-05,0.00011832,0.00020861,0.000365277,0.000637117,0.0011088,0.00192723,0.00334733,0.00581142,0.010087,0.0175056,inf	0.500178,0.500178,0.577369,0.493777,0.493777,0.493777,0.493777,106.42,121.269,419.512,302.108,375.89,31565.8,252.115,252.115,252.115
8.92872e-05	-11508288.44	0,3.30848e-06,9.04918e-06,1.90101e-05,3.62938e-05,6.62834e-05,0.00011832,0.00020861,0.000365277,0.000637117,0.0011088,0.00192723,0.00334733,0.00581142,0.010087,0.0175056,inf	0.500178,0.500178,0.862419,0.493777,0.493777,0.493777,0.493777,96.6097,99.2629,399.915,315.76,282.248,295106,62.4748,62.4748,62.4748
