time_index	left_time_boundary	right_time_boundary	lambda
0	0	1.53767e-06	31775.8
1	1.53767e-06	3.60071e-06	31775.8
2	3.60071e-06	6.36864e-06	31775.8
3	6.36864e-06	1.00823e-05	31775.8
4	1.00823e-05	1.50648e-05	31775.8
5	1.50648e-05	2.17496e-05	31775.8
6	2.17496e-05	3.07184e-05	31775.8
7	3.07184e-05	4.27517e-05	31775.8
8	4.27517e-05	5.88963e-05	31775.8
9	5.88963e-05	8.0557e-05	31775.8
10	8.0557e-05	0.000109619	31775.8
11	0.000109619	0.00014861	31775.8
12	0.00014861	0.000200923	31775.8
13	0.000200923	0.00027111	31775.8
14	0.00027111	0.000365277	31775.8
15	0.000365277	0.000491619	31775.8
16	0.000491619	0.000661128	31775.8
17	0.000661128	0.000888553	31775.8
18	0.000888553	0.00119368	31775.8
19	0.00119368	0.00160306	31775.8
20	0.00160306	0.00215232	31775.8
21	0.00215232	0.00288924	31775.8
22	0.00288924	0.00387795	31775.8
23	0.00387795	0.00520446	31775.8
24	0.00520446	0.0069842	31775.8
25	0.0069842	0.00937203	31775.8
26	0.00937203	0.0125757	31775.8
27	0.0125757	0.016874	31775.8
28	0.016874	0.0226408	31775.8
29	0.0226408	inf	31775.8
