0.000686047	-85068246.53	0,2.66425e-06,6.1221e-06,1.06099e-05,1.64345e-05,2.3994e-05,3.38053e-05,4.6539e-05,6.30656e-05,8.45149e-05,0.000112353,0.000148484,0.000195376,0.000256236,0.000335225,0.000437741,0.000570793,0.000743477,0.000967598,0.00125848,0.001636,0.00212597,0.00276189,0.00358722,0.0046584,0.00604864,0.00785299,0.0101948,0.0132341,0.0171788,0.0222984,0.028943,inf	332.091,332.091,365.491,374.38,383.065,390.083,404.998,411.989,408.299,402.48,397.696,393.072,388.258,385.309,385.089,386.549,388.869,392.151,396.001,399.36,402.063,404.009,404.888,404.803,403.66,401.796,400.699,398.344,398.344,394.979,394.979,394.979
0.00074045	-85051797.50	0,2.66425e-06,6.1221e-06,1.06099e-05,1.64345e-05,2.3994e-05,3.38053e-05,4.6539e-05,6.30656e-05,8.45149e-05,0.000112353,0.000148484,0.000195376,0.000256236,0.000335225,0.000437741,0.000570793,0.000743477,0.000967598,0.00125848,0.001636,0.00212597,0.00276189,0.00358722,0.0046584,0.00604864,0.00785299,0.0101948,0.0132341,0.0171788,0.0222984,0.028943,inf	300.689,300.689,348.516,357.385,368.719,380.125,408.683,422.86,417.044,407.904,400.803,393.558,385.508,380.585,380.242,382.41,385.641,390.264,395.666,400.152,403.705,406.317,407.499,407.349,405.517,402.454,400.776,396.612,396.612,389.879,389.879,389.879
0.000789903	-85039396.66	0,2.66425e-06,6.1221e-06,1.06099e-05,1.64345e-05,2.3994e-05,3.38053e-05,4.6539e-05,6.30656e-05,8.45149e-05,0.000112353,0.000148484,0.000195376,0.000256236,0.000335225,0.000437741,0.000570793,0.000743477,0.000967598,0.00125848,0.001636,0.00212597,0.00276189,0.00358722,0.0046584,0.00604864,0.00785299,0.0101948,0.0132341,0.0171788,0.0222984,0.028943,inf	285.329,285.329,339.88,344.755,354.892,368.444,408.75,429.418,422.194,411.285,403.459,394.948,384.829,378.787,378.668,381.411,385.073,390.272,396.255,400.927,404.55,407.274,408.501,408.288,406.01,402.135,400.167,394.54,394.54,384.441,384.441,384.441
0.000834996	-85029799.29	0,2.66425e-06,6.1221e-06,1.06099e-05,1.64345e-05,2.3994e-05,3.38053e-05,4.6539e-05,6.30656e-05,8.45149e-05,0.000112353,0.000148484,0.000195376,0.000256236,0.000335225,0.000437741,0.000570793,0.000743477,0.000967598,0.00125848,0.001636,0.00212597,0.00276189,0.00358722,0.0046584,0.00604864,0.00785299,0.0101948,0.0132341,0.0171788,0.0222984,0.028943,inf	278.2,278.2,336.556,336.149,342.777,356.887,407.062,433.099,424.591,412.738,405.086,396.109,384.664,378.076,378.446,381.751,385.643,391.062,397.162,401.587,404.931,407.51,408.652,408.367,405.769,401.318,399.23,392.369,392.369,378.929,378.929,378.929
0.000876243	-85022239.32	0,2.66425e-06,6.1221e-06,1.06099e-05,1.64345e-05,2.3994e-05,3.38053e-05,4.6539e-05,6.30656e-05,8.45149e-05,0.000112353,0.000148484,0.000195376,0.000256236,0.000335225,0.000437741,0.000570793,0.000743477,0.000967598,0.00125848,0.001636,0.00212597,0.00276189,0.00358722,0.0046584,0.00604864,0.00785299,0.0101948,0.0132341,0.0171788,0.0222984,0.028943,inf	275.089,275.089,336.578,330.928,332.774,346.508,405.009,435.285,425.347,412.959,405.947,396.936,384.607,377.83,378.846,382.707,386.727,392.185,398.163,402.14,405.052,407.368,408.359,407.988,405.144,400.266,398.158,390.224,390.224,373.487,373.487,373.487
0.000914076	-85016202.98	0,2.66425e-06,6.1221e-06,1.06099e-05,1.64345e-05,2.3994e-05,3.38053e-05,4.6539e-05,6.30656e-05,8.45149e-05,0.000112353,0.000148484,0.000195376,0.000256236,0.000335225,0.000437741,0.000570793,0.000743477,0.000967598,0.00125848,0.001636,0.00212597,0.00276189,0.00358722,0.0046584,0.00604864,0.00785299,0.0101948,0.0132341,0.0171788,0.0222984,0.028943,inf	273.595,273.595,338.46,328.258,324.706,337.598,403.3,436.825,425.224,412.49,406.346,397.517,384.559,377.803,379.549,383.946,388.033,393.43,399.16,402.603,405.026,407.032,407.843,407.374,404.324,399.122,397.056,388.168,388.168,368.196,368.196,368.196
0.000948861	-85011329.86	0,2.66425e-06,6.1221e-06,1.06099e-05,1.64345e-05,2.3994e-05,3.38053e-05,4.6539e-05,6.30656e-05,8.45149e-05,0.000112353,0.000148484,0.000195376,0.000256236,0.000335225,0.000437741,0.000570793,0.000743477,0.000967598,0.00125848,0.001636,0.00212597,0.00276189,0.00358722,0.0046584,0.00604864,0.00785299,0.0101948,0.0132341,0.0171788,0.0222984,0.028943,inf	272.65,272.65,341.223,327.411,318.181,330.067,402.176,438.145,424.658,411.672,406.501,397.95,384.501,377.888,380.397,385.302,389.413,394.69,400.109,402.991,404.918,406.602,407.222,406.648,403.42,397.963,395.981,386.227,386.227,363.093,363.093,363.093
0.000980911	-85007359.31	0,2.66425e-06,6.1221e-06,1.06099e-05,1.64345e-05,2.3994e-05,3.38053e-05,4.6539e-05,6.30656e-05,8.45149e-05,0.000112353,0.000148484,0.000195376,0.000256236,0.000335225,0.000437741,0.000570793,0.000743477,0.000967598,0.00125848,0.001636,0.00212597,0.00276189,0.00358722,0.0046584,0.00604864,0.00785299,0.0101948,0.0132341,0.0171788,0.0222984,0.028943,inf	271.604,271.604,344.279,327.807,312.839,323.723,401.675,439.447,423.889,410.707,406.546,398.302,384.439,378.037,381.308,386.686,390.787,395.912,400.989,403.314,404.763,406.135,406.564,405.878,402.491,396.831,394.96,384.415,384.415,358.197,358.197,358.197
0.0010105	-85004098.49	0,2.66425e-06,6.1221e-06,1.06099e-05,1.64345e-05,2.3994e-05,3.38053e-05,4.6539e-05,6.30656e-05,8.45149e-05,0.000112353,0.000148484,0.000195376,0.000256236,0.000335225,0.000437741,0.000570793,0.000743477,0.000967598,0.00125848,0.001636,0.00212597,0.00276189,0.00358722,0.0046584,0.00604864,0.00785299,0.0101948,0.0132341,0.0171788,0.0222984,0.028943,inf	270.33,270.33,347.297,329.023,308.363,318.353,401.75,440.793,423.043,409.704,406.56,398.619,384.378,378.219,382.239,388.051,392.117,397.069,401.794,403.583,404.582,405.66,405.905,405.105,401.571,395.749,394.008,382.731,382.731,353.513,353.513,353.513
0.00103785	-85001402.18	0,2.66425e-06,6.1221e-06,1.06099e-05,1.64345e-05,2.3994e-05,3.38053e-05,4.6539e-05,6.30656e-05,8.45149e-05,0.000112353,0.000148484,0.000195376,0.000256236,0.000335225,0.000437741,0.000570793,0.000743477,0.000967598,0.00125848,0.001636,0.00212597,0.00276189,0.00358722,0.0046584,0.00604864,0.00785299,0.0101948,0.0132341,0.0171788,0.0222984,0.028943,inf	268.835,268.835,350.053,330.756,304.517,313.754,402.303,442.2,422.171,408.719,406.591,398.927,384.323,378.421,383.163,389.372,393.381,398.148,402.523,403.803,404.389,405.195,405.264,404.35,400.681,394.726,393.13,381.173,381.173,349.036,349.036,349.036
0.00106318	-84999159.27	0,2.66425e-06,6.1221e-06,1.06099e-05,1.64345e-05,2.3994e-05,3.38053e-05,4.6539e-05,6.30656e-05,8.45149e-05,0.000112353,0.000148484,0.000195376,0.000256236,0.000335225,0.000437741,0.000570793,0.000743477,0.000967598,0.00125848,0.001636,0.00212597,0.00276189,0.00358722,0.0046584,0.00604864,0.00785299,0.0101948,0.0132341,0.0171788,0.0222984,0.028943,inf	267.169,267.169,352.502,332.834,301.114,309.785,403.237,443.662,421.303,407.776,406.656,399.242,384.279,378.635,384.07,390.637,394.572,399.149,403.18,403.984,404.19,404.749,404.654,403.625,399.828,393.767,392.326,379.735,379.735,344.761,344.761,344.761
0.00108666	-84997283.66	0,2.66425e-06,6.1221e-06,1.06099e-05,1.64345e-05,2.3994e-05,3.38053e-05,4.6539e-05,6.30656e-05,8.45149e-05,0.000112353,0.000148484,0.000195376,0.000256236,0.000335225,0.000437741,0.000570793,0.000743477,0.000967598,0.00125848,0.001636,0.00212597,0.00276189,0.00358722,0.0046584,0.00604864,0.00785299,0.0101948,0.0132341,0.0171788,0.0222984,0.028943,inf	265.444,265.444,354.594,335.076,298.026,306.299,404.48,445.151,420.445,406.891,406.767,399.57,384.244,378.854,384.948,391.84,395.686,400.071,403.769,404.13,403.991,404.326,404.077,402.935,399.019,392.871,391.594,378.409,378.409,340.679,340.679,340.679
0.00110846	-84995707.88	0,2.66425e-06,6.1221e-06,1.06099e-05,1.64345e-05,2.3994e-05,3.38053e-05,4.6539e-05,6.30656e-05,8.45149e-05,0.000112353,0.000148484,0.000195376,0.000256236,0.000335225,0.000437741,0.000570793,0.000743477,0.000967598,0.00125848,0.001636,0.00212597,0.00276189,0.00358722,0.0046584,0.00604864,0.00785299,0.0101948,0.0132341,0.0171788,0.0222984,0.028943,inf	263.777,263.777,356.38,337.42,295.161,303.208,405.956,446.653,419.599,406.064,406.927,399.915,384.218,379.073,385.796,392.981,396.725,400.918,404.297,404.245,403.796,403.928,403.537,402.283,398.254,392.037,390.93,377.188,377.188,336.779,336.779,336.779
0.00112872	-84994378.48	0,2.66425e-06,6.1221e-06,1.06099e-05,1.64345e-05,2.3994e-05,3.38053e-05,4.6539e-05,6.30656e-05,8.45149e-05,0.000112353,0.000148484,0.000195376,0.000256236,0.000335225,0.000437741,0.000570793,0.000743477,0.000967598,0.00125848,0.001636,0.00212597,0.00276189,0.00358722,0.0046584,0.00604864,0.00785299,0.0101948,0.0132341,0.0171788,0.0222984,0.028943,inf	262.19,262.19,357.825,339.797,292.466,300.444,407.634,448.141,418.764,405.293,407.134,400.276,384.2,379.289,386.611,394.059,397.692,401.696,404.769,404.335,403.605,403.557,403.033,401.669,397.532,391.262,390.331,376.065,376.065,333.05,333.05,333.05
0.00114756	-84993252.78	0,2.66425e-06,6.1221e-06,1.06099e-05,1.64345e-05,2.3994e-05,3.38053e-05,4.6539e-05,6.30656e-05,8.45149e-05,0.000112353,0.000148484,0.000195376,0.000256236,0.000335225,0.000437741,0.000570793,0.000743477,0.000967598,0.00125848,0.001636,0.00212597,0.00276189,0.00358722,0.0046584,0.00604864,0.00785299,0.0101948,0.0132341,0.0171788,0.0222984,0.028943,inf	260.712,260.712,358.97,342.206,289.916,297.934,409.449,449.602,417.933,404.574,407.385,400.651,384.187,379.5,387.391,395.076,398.591,402.408,405.191,404.404,403.421,403.211,402.564,401.093,396.853,390.542,389.793,375.032,375.032,329.484,329.484,329.484
0.00116511	-84992296.40	0,2.66425e-06,6.1221e-06,1.06099e-05,1.64345e-05,2.3994e-05,3.38053e-05,4.6539e-05,6.30656e-05,8.45149e-05,0.000112353,0.000148484,0.000195376,0.000256236,0.000335225,0.000437741,0.000570793,0.000743477,0.000967598,0.00125848,0.001636,0.00212597,0.00276189,0.00358722,0.0046584,0.00604864,0.00785299,0.0101948,0.0132341,0.0171788,0.0222984,0.028943,inf	259.421,259.421,359.854,344.614,287.463,295.638,411.379,451.031,417.103,403.904,407.676,401.039,384.178,379.705,388.139,396.036,399.426,403.061,405.568,404.454,403.243,402.89,402.129,400.552,396.215,389.872,389.309,374.084,374.084,326.069,326.069,326.069
0.00118145	-84991481.44	0,2.66425e-06,6.1221e-06,1.06099e-05,1.64345e-05,2.3994e-05,3.38053e-05,4.6539e-05,6.30656e-05,8.45149e-05,0.000112353,0.000148484,0.000195376,0.000256236,0.000335225,0.000437741,0.000570793,0.000743477,0.000967598,0.00125848,0.001636,0.00212597,0.00276189,0.00358722,0.0046584,0.00604864,0.00785299,0.0101948,0.0132341,0.0171788,0.0222984,0.028943,inf	258.278,258.278,360.475,346.998,285.09,293.516,413.387,452.416,416.275,403.275,408.001,401.438,384.171,379.901,388.853,396.943,400.202,403.661,405.905,404.488,403.074,402.593,401.726,400.046,395.614,389.25,388.877,373.214,373.214,322.797,322.797,322.797
0.0011967	-84990785.13	0,2.66425e-06,6.1221e-06,1.06099e-05,1.64345e-05,2.3994e-05,3.38053e-05,4.6539e-05,6.30656e-05,8.45149e-05,0.000112353,0.000148484,0.000195376,0.000256236,0.000335225,0.000437741,0.000570793,0.000743477,0.000967598,0.00125848,0.001636,0.00212597,0.00276189,0.00358722,0.0046584,0.00604864,0.00785299,0.0101948,0.0132341,0.0171788,0.0222984,0.028943,inf	257.299,257.299,360.917,349.346,282.788,291.558,415.461,453.746,415.44,402.682,408.356,401.844,384.164,380.088,389.534,397.797,400.924,404.21,406.205,404.509,402.912,402.318,401.353,399.571,395.049,388.671,388.493,372.417,372.417,319.658,319.658,319.658
0.00121092	-84990188.76	0,2.66425e-06,6.1221e-06,1.06099e-05,1.64345e-05,2.3994e-05,3.38053e-05,4.6539e-05,6.30656e-05,8.45149e-05,0.000112353,0.000148484,0.000195376,0.000256236,0.000335225,0.000437741,0.000570793,0.000743477,0.000967598,0.00125848,0.001636,0.00212597,0.00276189,0.00358722,0.0046584,0.00604864,0.00785299,0.0101948,0.0132341,0.0171788,0.0222984,0.028943,inf	256.478,256.478,361.115,351.681,280.551,289.735,417.575,455.023,414.602,402.123,408.737,402.256,384.155,380.264,390.184,398.605,401.595,404.715,406.473,404.518,402.758,402.064,401.007,399.126,394.517,388.133,388.152,371.687,371.687,316.644,316.644,316.644
0.0012242	-84989676.87	0,2.66425e-06,6.1221e-06,1.06099e-05,1.64345e-05,2.3994e-05,3.38053e-05,4.6539e-05,6.30656e-05,8.45149e-05,0.000112353,0.000148484,0.000195376,0.000256236,0.000335225,0.000437741,0.000570793,0.000743477,0.000967598,0.00125848,0.001636,0.00212597,0.00276189,0.00358722,0.0046584,0.00604864,0.00785299,0.0101948,0.0132341,0.0171788,0.0222984,0.028943,inf	255.816,255.816,361.2,353.979,278.367,288.011,419.727,456.244,413.76,401.593,409.142,402.67,384.144,380.428,390.804,399.366,402.219,405.178,406.713,404.518,402.613,401.83,400.688,398.708,394.015,387.631,387.85,371.019,371.019,313.747,313.747,313.747
