AIC = 603062.38709418510552

y0 1.2042055755384817317
y0_prime 0
y1 1.1455566481616692442
y1_prime 0
y2 0.74583684272415962102
y2_prime 0
y3 1.729607083815084323
y3_prime 0
rho 0.01974174576520350971
rho.alpha 0.57644791462074318478
r_ii 0.99990649036043066644
theta 0.0048782624592811395584
