0.000118162	-79642.47	0,9.1121e-06,1.9883e-05,3.26146e-05,4.76639e-05,6.54528e-05,8.648e-05,0.000111335,0.000140715,0.000175443,0.000216492,0.000265015,0.000322371,0.000390168,0.000470306,0.000565033,0.000677005,0.00080936,0.000965808,0.00115074,0.00136933,0.00162772,0.00193314,0.00229416,0.00272091,0.00322534,0.00382159,0.00452639,0.00535949,0.00634425,inf	2635.43,2635.43,2635.43,2635.43,2635.43,2635.43,2635.43,2635.43,2635.43,2635.43,2635.43,2635.43,2635.43,2635.43,2635.43,2635.43,2635.43,2635.43,2635.43,2635.43,2635.43,2635.43,2635.43,2635.43,2635.43,2635.43,2635.43,2635.43,2635.43,2635.43
0.00010789	-79558.94	0,9.1121e-06,1.9883e-05,3.26146e-05,4.76639e-05,6.54528e-05,8.648e-05,0.000111335,0.000140715,0.000175443,0.000216492,0.000265015,0.000322371,0.000390168,0.000470306,0.000565033,0.000677005,0.00080936,0.000965808,0.00115074,0.00136933,0.00162772,0.00193314,0.00229416,0.00272091,0.00322534,0.00382159,0.00452639,0.00535949,0.00634425,inf	2950.33,2950.33,2950.33,2950.33,2950.33,2950.33,2950.33,2950.33,2950.33,2950.33,2950.33,2950.33,2950.33,2950.33,2950.33,2950.33,2950.33,2950.33,2950.33,2950.33,2950.33,2950.33,2950.33,2950.33,2950.33,2950.33,2950.33,2950.33,2950.33,2950.33
9.52011e-05	-79531.30	0,9.1121e-06,1.9883e-05,3.26146e-05,4.76639e-05,6.54528e-05,8.648e-05,0.000111335,0.000140715,0.000175443,0.000216492,0.000265015,0.000322371,0.000390168,0.000470306,0.000565033,0.000677005,0.00080936,0.000965808,0.00115074,0.00136933,0.00162772,0.00193314,0.00229416,0.00272091,0.00322534,0.00382159,0.00452639,0.00535949,0.00634425,inf	3097.58,3097.58,3097.58,3097.58,3097.58,3097.58,3097.58,3097.58,3097.58,3097.58,3097.58,3097.58,3097.58,3097.58,3097.58,3097.58,3097.58,3097.58,3097.58,3097.58,3097.58,3097.58,3097.58,3097.58,3097.58,3097.58,3097.58,3097.58,3097.58,3097.58
8.15101e-05	-79508.26	0,9.1121e-06,1.9883e-05,3.26146e-05,4.76639e-05,6.54528e-05,8.648e-05,0.000111335,0.000140715,0.000175443,0.000216492,0.000265015,0.000322371,0.000390168,0.000470306,0.000565033,0.000677005,0.00080936,0.000965808,0.00115074,0.00136933,0.00162772,0.00193314,0.00229416,0.00272091,0.00322534,0.00382159,0.00452639,0.00535949,0.00634425,inf	3181.25,3181.25,3181.25,3181.25,3181.25,3181.25,3181.25,3181.25,3181.25,3181.25,3181.25,3181.25,3181.25,3181.25,3181.25,3181.25,3181.25,3181.25,3181.25,3181.25,3181.25,3181.25,3181.25,3181.25,3181.25,3181.25,3181.25,3181.25,3181.25,3181.25
6.75146e-05	-79482.20	0,9.1121e-06,1.9883e-05,3.26146e-05,4.76639e-05,6.54528e-05,8.648e-05,0.000111335,0.000140715,0.000175443,0.000216492,0.000265015,0.000322371,0.000390168,0.000470306,0.000565033,0.000677005,0.00080936,0.000965808,0.00115074,0.00136933,0.00162772,0.00193314,0.00229416,0.00272091,0.00322534,0.00382159,0.00452639,0.00535949,0.00634425,inf	3247.69,3247.69,3247.69,3247.69,3247.69,3247.69,3247.69,3247.69,3247.69,3247.69,3247.69,3247.69,3247.69,3247.69,3247.69,3247.69,3247.69,3247.69,3247.69,3247.69,3247.69,3247.69,3247.69,3247.69,3247.69,3247.69,3247.69,3247.69,3247.69,3247.69
5.35904e-05	-79451.45	0,9.1121e-06,1.9883e-05,3.26146e-05,4.76639e-05,6.54528e-05,8.648e-05,0.000111335,0.000140715,0.000175443,0.000216492,0.000265015,0.000322371,0.000390168,0.000470306,0.000565033,0.000677005,0.00080936,0.000965808,0.00115074,0.00136933,0.00162772,0.00193314,0.00229416,0.00272091,0.00322534,0.00382159,0.00452639,0.00535949,0.00634425,inf	3315.55,3315.55,3315.55,3315.55,3315.55,3315.55,3315.55,3315.55,3315.55,3315.55,3315.55,3315.55,3315.55,3315.55,3315.55,3315.55,3315.55,3315.55,3315.55,3315.55,3315.55,3315.55,3315.55,3315.55,3315.55,3315.55,3315.55,3315.55,3315.55,3315.55
4.00735e-05	-79414.88	0,9.1121e-06,1.9883e-05,3.26146e-05,4.76639e-05,6.54528e-05,8.648e-05,0.000111335,0.000140715,0.000175443,0.000216492,0.000265015,0.000322371,0.000390168,0.000470306,0.000565033,0.000677005,0.00080936,0.000965808,0.00115074,0.00136933,0.00162772,0.00193314,0.00229416,0.00272091,0.00322534,0.00382159,0.00452639,0.00535949,0.00634425,inf	3392.64,3392.64,3392.64,3392.64,3392.64,3392.64,3392.64,3392.64,3392.64,3392.64,3392.64,3392.64,3392.64,3392.64,3392.64,3392.64,3392.64,3392.64,3392.64,3392.64,3392.64,3392.64,3392.64,3392.64,3392.64,3392.64,3392.64,3392.64,3392.64,3392.64
2.74001e-05	-79371.33	0,9.1121e-06,1.9883e-05,3.26146e-05,4.76639e-05,6.54528e-05,8.648e-05,0.000111335,0.000140715,0.000175443,0.000216492,0.000265015,0.000322371,0.000390168,0.000470306,0.000565033,0.000677005,0.00080936,0.000965808,0.00115074,0.00136933,0.00162772,0.00193314,0.00229416,0.00272091,0.00322534,0.00382159,0.00452639,0.00535949,0.00634425,inf	3481.26,3481.26,3481.26,3481.26,3481.26,3481.26,3481.26,3481.26,3481.26,3481.26,3481.26,3481.26,3481.26,3481.26,3481.26,3481.26,3481.26,3481.26,3481.26,3481.26,3481.26,3481.26,3481.26,3481.26,3481.26,3481.26,3481.26,3481.26,3481.26,3481.26
1.62028e-05	-79319.91	0,9.1121e-06,1.9883e-05,3.26146e-05,4.76639e-05,6.54528e-05,8.648e-05,0.000111335,0.000140715,0.000175443,0.000216492,0.000265015,0.000322371,0.000390168,0.000470306,0.000565033,0.000677005,0.00080936,0.000965808,0.00115074,0.00136933,0.00162772,0.00193314,0.00229416,0.00272091,0.00322534,0.00382159,0.00452639,0.00535949,0.00634425,inf	3571.24,3571.24,3571.24,3571.24,3571.24,3571.24,3571.24,3571.24,3571.24,3571.24,3571.24,3571.24,3571.24,3571.24,3571.24,3571.24,3571.24,3571.24,3571.24,3571.24,3571.24,3571.24,3571.24,3571.24,3571.24,3571.24,3571.24,3571.24,3571.24,3571.24
7.42734e-06	-79261.26	0,9.1121e-06,1.9883e-05,3.26146e-05,4.76639e-05,6.54528e-05,8.648e-05,0.000111335,0.000140715,0.000175443,0.000216492,0.000265015,0.000322371,0.000390168,0.000470306,0.000565033,0.000677005,0.00080936,0.000965808,0.00115074,0.00136933,0.00162772,0.00193314,0.00229416,0.00272091,0.00322534,0.00382159,0.00452639,0.00535949,0.00634425,inf	3597.51,3597.51,3597.51,3597.51,3597.51,3597.51,3597.51,3597.51,3597.51,3597.51,3597.51,3597.51,3597.51,3597.51,3597.51,3597.51,3597.51,3597.51,3597.51,3597.51,3597.51,3597.51,3597.51,3597.51,3597.51,3597.51,3597.51,3597.51,3597.51,3597.51
2.14639e-06	-79201.52	0,9.1121e-06,1.9883e-05,3.26146e-05,4.76639e-05,6.54528e-05,8.648e-05,0.000111335,0.000140715,0.000175443,0.000216492,0.000265015,0.000322371,0.000390168,0.000470306,0.000565033,0.000677005,0.00080936,0.000965808,0.00115074,0.00136933,0.00162772,0.00193314,0.00229416,0.00272091,0.00322534,0.00382159,0.00452639,0.00535949,0.00634425,inf	3302.73,3302.73,3302.73,3302.73,3302.73,3302.73,3302.73,3302.73,3302.73,3302.73,3302.73,3302.73,3302.73,3302.73,3302.73,3302.73,3302.73,3302.73,3302.73,3302.73,3302.73,3302.73,3302.73,3302.73,3302.73,3302.73,3302.73,3302.73,3302.73,3302.73
4.4762e-07	-79158.30	0,9.1121e-06,1.9883e-05,3.26146e-05,4.76639e-05,6.54528e-05,8.648e-05,0.000111335,0.000140715,0.000175443,0.000216492,0.000265015,0.000322371,0.000390168,0.000470306,0.000565033,0.000677005,0.00080936,0.000965808,0.00115074,0.00136933,0.00162772,0.00193314,0.00229416,0.00272091,0.00322534,0.00382159,0.00452639,0.00535949,0.00634425,inf	2162.78,2162.78,2162.78,2162.78,2162.78,2162.78,2162.78,2162.78,2162.78,2162.78,2162.78,2162.78,2162.78,2162.78,2162.78,2162.78,2162.78,2162.78,2162.78,2162.78,2162.78,2162.78,2162.78,2162.78,2162.78,2162.78,2162.78,2162.78,2162.78,2162.78
1.24023e-07	-79145.06	0,9.1121e-06,1.9883e-05,3.26146e-05,4.76639e-05,6.54528e-05,8.648e-05,0.000111335,0.000140715,0.000175443,0.000216492,0.000265015,0.000322371,0.000390168,0.000470306,0.000565033,0.000677005,0.00080936,0.000965808,0.00115074,0.00136933,0.00162772,0.00193314,0.00229416,0.00272091,0.00322534,0.00382159,0.00452639,0.00535949,0.00634425,inf	1192.17,1192.17,1192.17,1192.17,1192.17,1192.17,1192.17,1192.17,1192.17,1192.17,1192.17,1192.17,1192.17,1192.17,1192.17,1192.17,1192.17,1192.17,1192.17,1192.17,1192.17,1192.17,1192.17,1192.17,1192.17,1192.17,1192.17,1192.17,1192.17,1192.17
1.71553e-08	-79143.16	0,9.1121e-06,1.9883e-05,3.26146e-05,4.76639e-05,6.54528e-05,8.648e-05,0.000111335,0.000140715,0.000175443,0.000216492,0.000265015,0.000322371,0.000390168,0.000470306,0.000565033,0.000677005,0.00080936,0.000965808,0.00115074,0.00136933,0.00162772,0.00193314,0.00229416,0.00272091,0.00322534,0.00382159,0.00452639,0.00535949,0.00634425,inf	310.369,310.369,310.369,310.369,310.369,310.369,310.369,310.369,310.369,310.369,310.369,310.369,310.369,310.369,310.369,310.369,310.369,310.369,310.369,310.369,310.369,310.369,310.369,310.369,310.369,310.369,310.369,310.369,310.369,310.369
9.16496e-11	-79143.11	0,9.1121e-06,1.9883e-05,3.26146e-05,4.76639e-05,6.54528e-05,8.648e-05,0.000111335,0.000140715,0.000175443,0.000216492,0.000265015,0.000322371,0.000390168,0.000470306,0.000565033,0.000677005,0.00080936,0.000965808,0.00115074,0.00136933,0.00162772,0.00193314,0.00229416,0.00272091,0.00322534,0.00382159,0.00452639,0.00535949,0.00634425,inf	1.99792,1.99792,1.99792,1.99792,1.99792,1.99792,1.99792,1.99792,1.99792,1.99792,1.99792,1.99792,1.99792,1.99792,1.99792,1.99792,1.99792,1.99792,1.99792,1.99792,1.99792,1.99792,1.99792,1.99792,1.99792,1.99792,1.99792,1.99792,1.99792,1.99792
4.43201e-12	-79147.83	0,9.1121e-06,1.9883e-05,3.26146e-05,4.76639e-05,6.54528e-05,8.648e-05,0.000111335,0.000140715,0.000175443,0.000216492,0.000265015,0.000322371,0.000390168,0.000470306,0.000565033,0.000677005,0.00080936,0.000965808,0.00115074,0.00136933,0.00162772,0.00193314,0.00229416,0.00272091,0.00322534,0.00382159,0.00452639,0.00535949,0.00634425,inf	1.99784,1.99784,1.99784,1.99784,1.99784,1.99784,1.99784,1.99784,1.99784,1.99784,1.99784,1.99784,1.99784,1.99784,1.99784,1.99784,1.99784,1.99784,1.99784,1.99784,1.99784,1.99784,1.99784,1.99784,1.99784,1.99784,1.99784,1.99784,1.99784,1.99784
2.14295e-13	-79147.83	0,9.1121e-06,1.9883e-05,3.26146e-05,4.76639e-05,6.54528e-05,8.648e-05,0.000111335,0.000140715,0.000175443,0.000216492,0.000265015,0.000322371,0.000390168,0.000470306,0.000565033,0.000677005,0.00080936,0.000965808,0.00115074,0.00136933,0.00162772,0.00193314,0.00229416,0.00272091,0.00322534,0.00382159,0.00452639,0.00535949,0.00634425,inf	1.99784,1.99784,1.99784,1.99784,1.99784,1.99784,1.99784,1.99784,1.99784,1.99784,1.99784,1.99784,1.99784,1.99784,1.99784,1.99784,1.99784,1.99784,1.99784,1.99784,1.99784,1.99784,1.99784,1.99784,1.99784,1.99784,1.99784,1.99784,1.99784,1.99784
1.02908e-14	-79147.83	0,9.1121e-06,1.9883e-05,3.26146e-05,4.76639e-05,6.54528e-05,8.648e-05,0.000111335,0.000140715,0.000175443,0.000216492,0.000265015,0.000322371,0.000390168,0.000470306,0.000565033,0.000677005,0.00080936,0.000965808,0.00115074,0.00136933,0.00162772,0.00193314,0.00229416,0.00272091,0.00322534,0.00382159,0.00452639,0.00535949,0.00634425,inf	1.99784,1.99784,1.99784,1.99784,1.99784,1.99784,1.99784,1.99784,1.99784,1.99784,1.99784,1.99784,1.99784,1.99784,1.99784,1.99784,1.99784,1.99784,1.99784,1.99784,1.99784,1.99784,1.99784,1.99784,1.99784,1.99784,1.99784,1.99784,1.99784,1.99784
3.08721e-15	-79147.83	0,9.1121e-06,1.9883e-05,3.26146e-05,4.76639e-05,6.54528e-05,8.648e-05,0.000111335,0.000140715,0.000175443,0.000216492,0.000265015,0.000322371,0.000390168,0.000470306,0.000565033,0.000677005,0.00080936,0.000965808,0.00115074,0.00136933,0.00162772,0.00193314,0.00229416,0.00272091,0.00322534,0.00382159,0.00452639,0.00535949,0.00634425,inf	1.99784,1.99784,1.99784,1.99784,1.99784,1.99784,1.99784,1.99784,1.99784,1.99784,1.99784,1.99784,1.99784,1.99784,1.99784,1.99784,1.99784,1.99784,1.99784,1.99784,1.99784,1.99784,1.99784,1.99784,1.99784,1.99784,1.99784,1.99784,1.99784,1.99784
3.06221e-15	-79147.83	0,9.1121e-06,1.9883e-05,3.26146e-05,4.76639e-05,6.54528e-05,8.648e-05,0.000111335,0.000140715,0.000175443,0.000216492,0.000265015,0.000322371,0.000390168,0.000470306,0.000565033,0.000677005,0.00080936,0.000965808,0.00115074,0.00136933,0.00162772,0.00193314,0.00229416,0.00272091,0.00322534,0.00382159,0.00452639,0.00535949,0.00634425,inf	1.99784,1.99784,1.99784,1.99784,1.99784,1.99784,1.99784,1.99784,1.99784,1.99784,1.99784,1.99784,1.99784,1.99784,1.99784,1.99784,1.99784,1.99784,1.99784,1.99784,1.99784,1.99784,1.99784,1.99784,1.99784,1.99784,1.99784,1.99784,1.99784,1.99784
