time_index	left_time_boundary	right_time_boundary	lambda
0	0	7.95101e-06	0.5336
1	7.95101e-06	1.7926e-05	0.5336
2	1.7926e-05	3.04402e-05	0.5336
3	3.04402e-05	4.61401e-05	0.5336
4	4.61401e-05	6.58364e-05	0.5336
5	6.58364e-05	9.05466e-05	0.5336
6	9.05466e-05	0.000121547	0.5336
7	0.000121547	0.000160439	0.5336
8	0.000160439	0.000209231	0.5336
9	0.000209231	0.000270443	0.5336
10	0.000270443	0.000347238	0.5336
11	0.000347238	0.000443581	0.5336
12	0.000443581	0.000564449	0.5336
13	0.000564449	0.000716085	0.5336
14	0.000716085	0.000906322	0.5336
15	0.000906322	0.00114498	0.5336
16	0.00114498	0.0014444	0.5336
17	0.0014444	0.00182004	0.5336
18	0.00182004	0.00229129	0.5336
19	0.00229129	0.00288251	0.5336
20	0.00288251	0.00362423	0.5336
21	0.00362423	0.00455476	0.5336
22	0.00455476	0.00572216	0.5336
23	0.00572216	0.00718673	0.5336
24	0.00718673	0.00902412	0.5336
25	0.00902412	0.0113292	0.5336
26	0.0113292	0.0142211	0.5336
27	0.0142211	0.0178492	0.5336
28	0.0178492	0.0224008	0.5336
29	0.0224008	inf	0.5336
