0.000391369	-1444336.52	0,7.95101e-06,1.7926e-05,3.04402e-05,4.61401e-05,6.58364e-05,9.05466e-05,0.000121547,0.000160439,0.000209231,0.000270443,0.000347238,0.000443581,0.000564449,0.000716085,0.000906322,0.00114498,0.0014444,0.00182004,0.00229129,0.00288251,0.00362423,0.00455476,0.00572216,0.00718673,0.00902412,0.0113292,0.0142211,0.0178492,0.0224008,inf	579.235,579.235,579.235,579.235,579.235,579.235,579.235,579.235,579.235,579.235,579.235,579.235,579.235,579.235,579.235,579.235,579.235,579.235,579.235,579.235,579.235,579.235,579.235,579.235,579.235,579.235,579.235,579.235,579.235,579.235
0.000313271	-1443089.10	0,7.95101e-06,1.7926e-05,3.04402e-05,4.61401e-05,6.58364e-05,9.05466e-05,0.000121547,0.000160439,0.000209231,0.000270443,0.000347238,0.000443581,0.000564449,0.000716085,0.000906322,0.00114498,0.0014444,0.00182004,0.00229129,0.00288251,0.00362423,0.00455476,0.00572216,0.00718673,0.00902412,0.0113292,0.0142211,0.0178492,0.0224008,inf	606.059,606.059,606.059,606.059,606.059,606.059,606.059,606.059,606.059,606.059,606.059,606.059,606.059,606.059,606.059,606.059,606.059,606.059,606.059,606.059,606.059,606.059,606.059,606.059,606.059,606.059,606.059,606.059,606.059,606.059
0.000238114	-1441813.67	0,7.95101e-06,1.7926e-05,3.04402e-05,4.61401e-05,6.58364e-05,9.05466e-05,0.000121547,0.000160439,0.000209231,0.000270443,0.000347238,0.000443581,0.000564449,0.000716085,0.000906322,0.00114498,0.0014444,0.00182004,0.00229129,0.00288251,0.00362423,0.00455476,0.00572216,0.00718673,0.00902412,0.0113292,0.0142211,0.0178492,0.0224008,inf	622.579,622.579,622.579,622.579,622.579,622.579,622.579,622.579,622.579,622.579,622.579,622.579,622.579,622.579,622.579,622.579,622.579,622.579,622.579,622.579,622.579,622.579,622.579,622.579,622.579,622.579,622.579,622.579,622.579,622.579
0.000168917	-1440423.39	0,7.95101e-06,1.7926e-05,3.04402e-05,4.61401e-05,6.58364e-05,9.05466e-05,0.000121547,0.000160439,0.000209231,0.000270443,0.000347238,0.000443581,0.000564449,0.000716085,0.000906322,0.00114498,0.0014444,0.00182004,0.00229129,0.00288251,0.00362423,0.00455476,0.00572216,0.00718673,0.00902412,0.0113292,0.0142211,0.0178492,0.0224008,inf	633.415,633.415,633.415,633.415,633.415,633.415,633.415,633.415,633.415,633.415,633.415,633.415,633.415,633.415,633.415,633.415,633.415,633.415,633.415,633.415,633.415,633.415,633.415,633.415,633.415,633.415,633.415,633.415,633.415,633.415
0.00010832	-1438899.16	0,7.95101e-06,1.7926e-05,3.04402e-05,4.61401e-05,6.58364e-05,9.05466e-05,0.000121547,0.000160439,0.000209231,0.000270443,0.000347238,0.000443581,0.000564449,0.000716085,0.000906322,0.00114498,0.0014444,0.00182004,0.00229129,0.00288251,0.00362423,0.00455476,0.00572216,0.00718673,0.00902412,0.0113292,0.0142211,0.0178492,0.0224008,inf	639.069,639.069,639.069,639.069,639.069,639.069,639.069,639.069,639.069,639.069,639.069,639.069,639.069,639.069,639.069,639.069,639.069,639.069,639.069,639.069,639.069,639.069,639.069,639.069,639.069,639.069,639.069,639.069,639.069,639.069
5.91309e-05	-1437256.65	0,7.95101e-06,1.7926e-05,3.04402e-05,4.61401e-05,6.58364e-05,9.05466e-05,0.000121547,0.000160439,0.000209231,0.000270443,0.000347238,0.000443581,0.000564449,0.000716085,0.000906322,0.00114498,0.0014444,0.00182004,0.00229129,0.00288251,0.00362423,0.00455476,0.00572216,0.00718673,0.00902412,0.0113292,0.0142211,0.0178492,0.0224008,inf	633.026,633.026,633.026,633.026,633.026,633.026,633.026,633.026,633.026,633.026,633.026,633.026,633.026,633.026,633.026,633.026,633.026,633.026,633.026,633.026,633.026,633.026,633.026,633.026,633.026,633.026,633.026,633.026,633.026,633.026
2.46464e-05	-1435579.40	0,7.95101e-06,1.7926e-05,3.04402e-05,4.61401e-05,6.58364e-05,9.05466e-05,0.000121547,0.000160439,0.000209231,0.000270443,0.000347238,0.000443581,0.000564449,0.000716085,0.000906322,0.00114498,0.0014444,0.00182004,0.00229129,0.00288251,0.00362423,0.00455476,0.00572216,0.00718673,0.00902412,0.0113292,0.0142211,0.0178492,0.0224008,inf	590.169,590.169,590.169,590.169,590.169,590.169,590.169,590.169,590.169,590.169,590.169,590.169,590.169,590.169,590.169,590.169,590.169,590.169,590.169,590.169,590.169,590.169,590.169,590.169,590.169,590.169,590.169,590.169,590.169,590.169
6.72027e-06	-1434110.98	0,7.95101e-06,1.7926e-05,3.04402e-05,4.61401e-05,6.58364e-05,9.05466e-05,0.000121547,0.000160439,0.000209231,0.000270443,0.000347238,0.000443581,0.000564449,0.000716085,0.000906322,0.00114498,0.0014444,0.00182004,0.00229129,0.00288251,0.00362423,0.00455476,0.00572216,0.00718673,0.00902412,0.0113292,0.0142211,0.0178492,0.0224008,inf	453.291,453.291,453.291,453.291,453.291,453.291,453.291,453.291,453.291,453.291,453.291,453.291,453.291,453.291,453.291,453.291,453.291,453.291,453.291,453.291,453.291,453.291,453.291,453.291,453.291,453.291,453.291,453.291,453.291,453.291
1.07571e-06	-1433211.06	0,7.95101e-06,1.7926e-05,3.04402e-05,4.61401e-05,6.58364e-05,9.05466e-05,0.000121547,0.000160439,0.000209231,0.000270443,0.000347238,0.000443581,0.000564449,0.000716085,0.000906322,0.00114498,0.0014444,0.00182004,0.00229129,0.00288251,0.00362423,0.00455476,0.00572216,0.00718673,0.00902412,0.0113292,0.0142211,0.0178492,0.0224008,inf	220.337,220.337,220.337,220.337,220.337,220.337,220.337,220.337,220.337,220.337,220.337,220.337,220.337,220.337,220.337,220.337,220.337,220.337,220.337,220.337,220.337,220.337,220.337,220.337,220.337,220.337,220.337,220.337,220.337,220.337
1.23094e-07	-1432914.75	0,7.95101e-06,1.7926e-05,3.04402e-05,4.61401e-05,6.58364e-05,9.05466e-05,0.000121547,0.000160439,0.000209231,0.000270443,0.000347238,0.000443581,0.000564449,0.000716085,0.000906322,0.00114498,0.0014444,0.00182004,0.00229129,0.00288251,0.00362423,0.00455476,0.00572216,0.00718673,0.00902412,0.0113292,0.0142211,0.0178492,0.0224008,inf	50.4346,50.4346,50.4346,50.4346,50.4346,50.4346,50.4346,50.4346,50.4346,50.4346,50.4346,50.4346,50.4346,50.4346,50.4346,50.4346,50.4346,50.4346,50.4346,50.4346,50.4346,50.4346,50.4346,50.4346,50.4346,50.4346,50.4346,50.4346,50.4346,50.4346
4.55993e-09	-1432881.08	0,7.95101e-06,1.7926e-05,3.04402e-05,4.61401e-05,6.58364e-05,9.05466e-05,0.000121547,0.000160439,0.000209231,0.000270443,0.000347238,0.000443581,0.000564449,0.000716085,0.000906322,0.00114498,0.0014444,0.00182004,0.00229129,0.00288251,0.00362423,0.00455476,0.00572216,0.00718673,0.00902412,0.0113292,0.0142211,0.0178492,0.0224008,inf	2.1024,2.1024,2.1024,2.1024,2.1024,2.1024,2.1024,2.1024,2.1024,2.1024,2.1024,2.1024,2.1024,2.1024,2.1024,2.1024,2.1024,2.1024,2.1024,2.1024,2.1024,2.1024,2.1024,2.1024,2.1024,2.1024,2.1024,2.1024,2.1024,2.1024
2.89408e-11	-1432894.45	0,7.95101e-06,1.7926e-05,3.04402e-05,4.61401e-05,6.58364e-05,9.05466e-05,0.000121547,0.000160439,0.000209231,0.000270443,0.000347238,0.000443581,0.000564449,0.000716085,0.000906322,0.00114498,0.0014444,0.00182004,0.00229129,0.00288251,0.00362423,0.00455476,0.00572216,0.00718673,0.00902412,0.0113292,0.0142211,0.0178492,0.0224008,inf	0.5336,0.5336,0.5336,0.5336,0.5336,0.5336,0.5336,0.5336,0.5336,0.5336,0.5336,0.5336,0.5336,0.5336,0.5336,0.5336,0.5336,0.5336,0.5336,0.5336,0.5336,0.5336,0.5336,0.5336,0.5336,0.5336,0.5336,0.5336,0.5336,0.5336
2.8989e-13	-1432902.35	0,7.95101e-06,1.7926e-05,3.04402e-05,4.61401e-05,6.58364e-05,9.05466e-05,0.000121547,0.000160439,0.000209231,0.000270443,0.000347238,0.000443581,0.000564449,0.000716085,0.000906322,0.00114498,0.0014444,0.00182004,0.00229129,0.00288251,0.00362423,0.00455476,0.00572216,0.00718673,0.00902412,0.0113292,0.0142211,0.0178492,0.0224008,inf	0.5336,0.5336,0.5336,0.5336,0.5336,0.5336,0.5336,0.5336,0.5336,0.5336,0.5336,0.5336,0.5336,0.5336,0.5336,0.5336,0.5336,0.5336,0.5336,0.5336,0.5336,0.5336,0.5336,0.5336,0.5336,0.5336,0.5336,0.5336,0.5336,0.5336
1.31005e-14	-1432902.35	0,7.95101e-06,1.7926e-05,3.04402e-05,4.61401e-05,6.58364e-05,9.05466e-05,0.000121547,0.000160439,0.000209231,0.000270443,0.000347238,0.000443581,0.000564449,0.000716085,0.000906322,0.00114498,0.0014444,0.00182004,0.00229129,0.00288251,0.00362423,0.00455476,0.00572216,0.00718673,0.00902412,0.0113292,0.0142211,0.0178492,0.0224008,inf	0.5336,0.5336,0.5336,0.5336,0.5336,0.5336,0.5336,0.5336,0.5336,0.5336,0.5336,0.5336,0.5336,0.5336,0.5336,0.5336,0.5336,0.5336,0.5336,0.5336,0.5336,0.5336,0.5336,0.5336,0.5336,0.5336,0.5336,0.5336,0.5336,0.5336
1.30909e-14	-1432902.35	0,7.95101e-06,1.7926e-05,3.04402e-05,4.61401e-05,6.58364e-05,9.05466e-05,0.000121547,0.000160439,0.000209231,0.000270443,0.000347238,0.000443581,0.000564449,0.000716085,0.000906322,0.00114498,0.0014444,0.00182004,0.00229129,0.00288251,0.00362423,0.00455476,0.00572216,0.00718673,0.00902412,0.0113292,0.0142211,0.0178492,0.0224008,inf	0.5336,0.5336,0.5336,0.5336,0.5336,0.5336,0.5336,0.5336,0.5336,0.5336,0.5336,0.5336,0.5336,0.5336,0.5336,0.5336,0.5336,0.5336,0.5336,0.5336,0.5336,0.5336,0.5336,0.5336,0.5336,0.5336,0.5336,0.5336,0.5336,0.5336
1.30909e-14	-1432902.35	0,7.95101e-06,1.7926e-05,3.04402e-05,4.61401e-05,6.58364e-05,9.05466e-05,0.000121547,0.000160439,0.000209231,0.000270443,0.000347238,0.000443581,0.000564449,0.000716085,0.000906322,0.00114498,0.0014444,0.00182004,0.00229129,0.00288251,0.00362423,0.00455476,0.00572216,0.00718673,0.00902412,0.0113292,0.0142211,0.0178492,0.0224008,inf	0.5336,0.5336,0.5336,0.5336,0.5336,0.5336,0.5336,0.5336,0.5336,0.5336,0.5336,0.5336,0.5336,0.5336,0.5336,0.5336,0.5336,0.5336,0.5336,0.5336,0.5336,0.5336,0.5336,0.5336,0.5336,0.5336,0.5336,0.5336,0.5336,0.5336
1.30909e-14	-1432902.35	0,7.95101e-06,1.7926e-05,3.04402e-05,4.61401e-05,6.58364e-05,9.05466e-05,0.000121547,0.000160439,0.000209231,0.000270443,0.000347238,0.000443581,0.000564449,0.000716085,0.000906322,0.00114498,0.0014444,0.00182004,0.00229129,0.00288251,0.00362423,0.00455476,0.00572216,0.00718673,0.00902412,0.0113292,0.0142211,0.0178492,0.0224008,inf	0.5336,0.5336,0.5336,0.5336,0.5336,0.5336,0.5336,0.5336,0.5336,0.5336,0.5336,0.5336,0.5336,0.5336,0.5336,0.5336,0.5336,0.5336,0.5336,0.5336,0.5336,0.5336,0.5336,0.5336,0.5336,0.5336,0.5336,0.5336,0.5336,0.5336
1.30909e-14	-1432902.35	0,7.95101e-06,1.7926e-05,3.04402e-05,4.61401e-05,6.58364e-05,9.05466e-05,0.000121547,0.000160439,0.000209231,0.000270443,0.000347238,0.000443581,0.000564449,0.000716085,0.000906322,0.00114498,0.0014444,0.00182004,0.00229129,0.00288251,0.00362423,0.00455476,0.00572216,0.00718673,0.00902412,0.0113292,0.0142211,0.0178492,0.0224008,inf	0.5336,0.5336,0.5336,0.5336,0.5336,0.5336,0.5336,0.5336,0.5336,0.5336,0.5336,0.5336,0.5336,0.5336,0.5336,0.5336,0.5336,0.5336,0.5336,0.5336,0.5336,0.5336,0.5336,0.5336,0.5336,0.5336,0.5336,0.5336,0.5336,0.5336
1.30909e-14	-1432902.35	0,7.95101e-06,1.7926e-05,3.04402e-05,4.61401e-05,6.58364e-05,9.05466e-05,0.000121547,0.000160439,0.000209231,0.000270443,0.000347238,0.000443581,0.000564449,0.000716085,0.000906322,0.00114498,0.0014444,0.00182004,0.00229129,0.00288251,0.00362423,0.00455476,0.00572216,0.00718673,0.00902412,0.0113292,0.0142211,0.0178492,0.0224008,inf	0.5336,0.5336,0.5336,0.5336,0.5336,0.5336,0.5336,0.5336,0.5336,0.5336,0.5336,0.5336,0.5336,0.5336,0.5336,0.5336,0.5336,0.5336,0.5336,0.5336,0.5336,0.5336,0.5336,0.5336,0.5336,0.5336,0.5336,0.5336,0.5336,0.5336
1.30909e-14	-1432902.35	0,7.95101e-06,1.7926e-05,3.04402e-05,4.61401e-05,6.58364e-05,9.05466e-05,0.000121547,0.000160439,0.000209231,0.000270443,0.000347238,0.000443581,0.000564449,0.000716085,0.000906322,0.00114498,0.0014444,0.00182004,0.00229129,0.00288251,0.00362423,0.00455476,0.00572216,0.00718673,0.00902412,0.0113292,0.0142211,0.0178492,0.0224008,inf	0.5336,0.5336,0.5336,0.5336,0.5336,0.5336,0.5336,0.5336,0.5336,0.5336,0.5336,0.5336,0.5336,0.5336,0.5336,0.5336,0.5336,0.5336,0.5336,0.5336,0.5336,0.5336,0.5336,0.5336,0.5336,0.5336,0.5336,0.5336,0.5336,0.5336
