LogLikelihood = -7981.4604826316908657

y0 0.0061056832039040973698
y0_prime 0
y1 1.7942057279658001345
y1_prime 0
y2 0.67409247608693789733
y2_prime 0
y3 2.3188937301098526689
y3_prime 0
rho 3.2360081636087533515e-05
rho.alpha 4.9798136155538665903
r_ii 0.9999938489304205369
theta 7.7856449003573248674e-05
