AIC = 2465235.4348359080032

y0 0.86729043734102528873
y0_prime 0
y1 0.97863040838481973882
y1_prime 0
y2 0.9742415618509977504
y2_prime 0
y3 1.8805261668838497702
y3_prime 0
rho 0.0024574451081922077389
theta 0.0050363408773192504947
