0.000228079	-134629.80	0,1.56098e-05,3.38695e-05,5.52287e-05,8.02136e-05,0.00010944,0.000143627,0.000183617,0.000230396,0.000285116,0.000349124,0.000423998,0.000511581,0.000614032,0.000733874,0.000874058,0.00103804,0.00122986,0.00145423,0.0017167,0.00202372,0.00238286,0.00280296,0.00329437,0.0038692,0.0045416,0.00532815,0.00624821,0.00732445,0.00858339,0.010056,0.0117786,inf	102.422,102.422,162.825,202.828,248.19,301.973,362.893,429.926,505.764,601.602,734.562,919.347,1158.45,1424.05,1643.12,1740.3,1723.53,1657.92,1584.85,1517.97,1461.29,1414.37,1374.6,1338.98,1305.51,1273.9,1245.17,1216.44,1216.44,1189.15,1189.15,1189.15
0.00023467	-134291.56	0,1.56098e-05,3.38695e-05,5.52287e-05,8.02136e-05,0.00010944,0.000143627,0.000183617,0.000230396,0.000285116,0.000349124,0.000423998,0.000511581,0.000614032,0.000733874,0.000874058,0.00103804,0.00122986,0.00145423,0.0017167,0.00202372,0.00238286,0.00280296,0.00329437,0.0038692,0.0045416,0.00532815,0.00624821,0.00732445,0.00858339,0.010056,0.0117786,inf	29.6141,29.6141,61.903,78.9658,100.252,132.709,177.791,233.778,300.671,392.714,536.823,762.133,1092.62,1521.85,1957.47,2222.43,2256.37,2168.92,2050.55,1934.08,1832.23,1746.84,1673.43,1605.67,1539.31,1474.55,1414.78,1355.34,1355.34,1302.02,1302.02,1302.02
0.000242106	-134171.24	0,1.56098e-05,3.38695e-05,5.52287e-05,8.02136e-05,0.00010944,0.000143627,0.000183617,0.000230396,0.000285116,0.000349124,0.000423998,0.000511581,0.000614032,0.000733874,0.000874058,0.00103804,0.00122986,0.00145423,0.0017167,0.00202372,0.00238286,0.00280296,0.00329437,0.0038692,0.0045416,0.00532815,0.00624821,0.00732445,0.00858339,0.010056,0.0117786,inf	18.4696,18.4696,46.1783,53.3656,61.5939,79.965,111.757,155.294,207.334,283.305,416.389,644.825,1009.22,1529.33,2128,2559.2,2671.16,2595.04,2461.57,2318.72,2188.84,2077.92,1980.51,1886.49,1789.02,1690.03,1597.05,1504.95,1504.95,1427.04,1427.04,1427.04
0.000249111	-134117.61	0,1.56098e-05,3.38695e-05,5.52287e-05,8.02136e-05,0.00010944,0.000143627,0.000183617,0.000230396,0.000285116,0.000349124,0.000423998,0.000511581,0.000614032,0.000733874,0.000874058,0.00103804,0.00122986,0.00145423,0.0017167,0.00202372,0.00238286,0.00280296,0.00329437,0.0038692,0.0045416,0.00532815,0.00624821,0.00732445,0.00858339,0.010056,0.0117786,inf	17.6862,17.6862,50.9349,50.676,49.9875,60.2187,84.4522,120.08,159.936,220.319,338.776,559.216,934.449,1506.44,2223.72,2799.89,2993.45,2946.57,2821.15,2673.2,2532.61,2410.19,2299.68,2186.1,2059.38,1924.42,1795.41,1668.05,1668.05,1566.47,1566.47,1566.47
0.000255496	-134089.81	0,1.56098e-05,3.38695e-05,5.52287e-05,8.02136e-05,0.00010944,0.000143627,0.000183617,0.000230396,0.000285116,0.000349124,0.000423998,0.000511581,0.000614032,0.000733874,0.000874058,0.00103804,0.00122986,0.00145423,0.0017167,0.00202372,0.00238286,0.00280296,0.00329437,0.0038692,0.0045416,0.00532815,0.00624821,0.00732445,0.00858339,0.010056,0.0117786,inf	20.0627,20.0627,65.9239,55.9984,46.839,51.9435,72.4458,103.805,134.208,181.407,286.136,495.573,871.704,1474.47,2279.51,2978.45,3248.19,3238.96,3138.12,3003.33,2868.67,2749.24,2637.54,2511.88,2357.42,2183.66,2014.45,1847.87,1847.87,1722.44,1722.44,1722.44
0.000261306	-134073.71	0,1.56098e-05,3.38695e-05,5.52287e-05,8.02136e-05,0.00010944,0.000143627,0.000183617,0.000230396,0.000285116,0.000349124,0.000423998,0.000511581,0.000614032,0.000733874,0.000874058,0.00103804,0.00122986,0.00145423,0.0017167,0.00202372,0.00238286,0.00280296,0.00329437,0.0038692,0.0045416,0.00532815,0.00624821,0.00732445,0.00858339,0.010056,0.0117786,inf	23.0673,23.0673,86.9457,63.9942,46.4002,48.2789,67.5296,97.0841,119.772,155.964,248.829,447.036,819.614,1441.19,2312.86,3115.65,3453.59,3485.37,3421.11,3315.46,3203.05,3102.16,3003,2874.09,2693.1,2475.88,2260.39,2049.37,2049.37,1904.55,1904.55,1904.55
0.000266625	-134063.58	0,1.56098e-05,3.38695e-05,5.52287e-05,8.02136e-05,0.00010944,0.000143627,0.000183617,0.000230396,0.000285116,0.000349124,0.000423998,0.000511581,0.000614032,0.000733874,0.000874058,0.00103804,0.00122986,0.00145423,0.0017167,0.00202372,0.00238286,0.00280296,0.00329437,0.0038692,0.0045416,0.00532815,0.00624821,0.00732445,0.00858339,0.010056,0.0117786,inf	25.1183,25.1183,109.928,71.8065,46.6019,46.7176,66.4195,95.8407,111.713,138.539,221.382,409.083,776.151,1409.39,2332.95,3224.24,3622.22,3695.82,3677.21,3615.31,3542.09,3477.6,3408.17,3287.51,3081.04,2813.14,2542.59,2278.35,2278.35,2109.49,2109.49,2109.49
0.000271535	-134056.79	0,1.56098e-05,3.38695e-05,5.52287e-05,8.02136e-05,0.00010944,0.000143627,0.000183617,0.000230396,0.000285116,0.000349124,0.000423998,0.000511581,0.000614032,0.000733874,0.000874058,0.00103804,0.00122986,0.00145423,0.0017167,0.00202372,0.00238286,0.00280296,0.00329437,0.0038692,0.0045416,0.00532815,0.00624821,0.00732445,0.00858339,0.010056,0.0117786,inf	25.5275,25.5275,131.455,78.0648,46.7347,46.2327,67.6276,98.1144,107.499,126.139,200.537,378.729,739.526,1380,2344.89,3312.28,3762.8,3877.78,3912.06,3907.95,3892.43,3886.28,3870.06,3774.97,3544.6,3214.78,2874.92,2540.95,2540.95,2419.91,2419.91,2419.91
0.000276105	-134051.98	0,1.56098e-05,3.38695e-05,5.52287e-05,8.02136e-05,0.00010944,0.000143627,0.000183617,0.000230396,0.000285116,0.000349124,0.000423998,0.000511581,0.000614032,0.000733874,0.000874058,0.00103804,0.00122986,0.00145423,0.0017167,0.00202372,0.00238286,0.00280296,0.00329437,0.0038692,0.0045416,0.00532815,0.00624821,0.00732445,0.00858339,0.010056,0.0117786,inf	24.4066,24.4066,149.571,82.3807,46.5984,46.3328,70.3836,102.86,105.728,117.024,184.266,353.961,708.318,1353.17,2351.65,3385.08,3881.49,4036.78,4130.05,4197.86,4261.42,4342.44,4414.51,4374.33,4124.54,3713.53,3281.42,2867.11,2867.11,2926.36,2926.36,2926.36
0.000280389	-134048.43	0,1.56098e-05,3.38695e-05,5.52287e-05,8.02136e-05,0.00010944,0.000143627,0.000183617,0.000230396,0.000285116,0.000349124,0.000423998,0.000511581,0.000614032,0.000733874,0.000874058,0.00103804,0.00122986,0.00145423,0.0017167,0.00202372,0.00238286,0.00280296,0.00329437,0.0038692,0.0045416,0.00532815,0.00624821,0.00732445,0.00858339,0.010056,0.0117786,inf	22.254,22.254,163.671,84.8631,46.1553,46.737,74.2249,109.455,105.557,110.131,171.257,333.389,681.433,1328.8,2355.01,3446.25,3982.74,4177.05,4334.66,4489.13,4657.55,4866.05,5083.97,5156.18,4900.06,4371.52,3801.38,3307.74,3307.74,4168.09,4168.09,4168.09
0.000284435	-134045.71	0,1.56098e-05,3.38695e-05,5.52287e-05,8.02136e-05,0.00010944,0.000143627,0.000183617,0.000230396,0.000285116,0.000349124,0.000423998,0.000511581,0.000614032,0.000733874,0.000874058,0.00103804,0.00122986,0.00145423,0.0017167,0.00202372,0.00238286,0.00280296,0.00329437,0.0038692,0.0045416,0.00532815,0.00624821,0.00732445,0.00858339,0.010056,0.0117786,inf	19.6045,19.6045,173.981,85.7962,45.4145,47.2627,78.8344,117.478,106.455,104.78,160.632,316.029,658.029,1306.65,2356.12,3498.33,4069.84,4301.8,4528.69,4785.72,5091.31,5487.25,5956.36,6274.99,6063.15,5349.54,4526.45,3877.3,3877.3,57139.2,57139.2,57139.2
0.000288278	-134043.56	0,1.56098e-05,3.38695e-05,5.52287e-05,8.02136e-05,0.00010944,0.000143627,0.000183617,0.000230396,0.000285116,0.000349124,0.000423998,0.000511581,0.000614032,0.000733874,0.000874058,0.00103804,0.00122986,0.00145423,0.0017167,0.00202372,0.00238286,0.00280296,0.00329437,0.0038692,0.0045416,0.00532815,0.00624821,0.00732445,0.00858339,0.010056,0.0117786,inf	16.8639,16.8639,181.115,85.4984,44.3984,47.7818,83.9711,126.62,108.066,100.525,151.788,301.173,637.462,1286.5,2355.71,3543.16,4145.3,4413.56,4714.41,5091.54,5576.34,6255.48,7199.23,8178.99,8285.25,7176.96,5953.61,6389.29,6389.29,57139.2,57139.2,57139.2
0.000291947	-134041.81	0,1.56098e-05,3.38695e-05,5.52287e-05,8.02136e-05,0.00010944,0.000143627,0.000183617,0.000230396,0.000285116,0.000349124,0.000423998,0.000511581,0.000614032,0.000733874,0.000874058,0.00103804,0.00122986,0.00145423,0.0017167,0.00202372,0.00238286,0.00280296,0.00329437,0.0038692,0.0045416,0.00532815,0.00624821,0.00732445,0.00858339,0.010056,0.0117786,inf	14.2812,14.2812,185.787,84.258,43.1382,48.2022,89.438,136.633,110.142,97.0586,144.3,288.3,619.23,1268.1,2354.27,3582.12,4211.04,4514.31,4893.67,5410.71,6131.47,7261.4,9280.51,13130.4,16499.7,13171.7,11357.7,17367.9,17367.9,26617.2,26617.2,26617.2
0.000295466	-134040.36	0,1.56098e-05,3.38695e-05,5.52287e-05,8.02136e-05,0.00010944,0.000143627,0.000183617,0.000230396,0.000285116,0.000349124,0.000423998,0.000511581,0.000614032,0.000733874,0.000874058,0.00103804,0.00122986,0.00145423,0.0017167,0.00202372,0.00238286,0.00280296,0.00329437,0.0038692,0.0045416,0.00532815,0.00624821,0.00732445,0.00858339,0.010056,0.0117786,inf	11.9792,11.9792,188.674,82.3244,41.6658,48.463,95.0681,147.304,112.507,94.172,137.863,277.022,602.943,1251.25,2352.14,3616.23,4268.58,4605.67,5068.06,5747.78,6784.34,8699.24,14387,54538.1,282119,35804.4,30873.4,17367.9,17367.9,72353.2,72353.2,72353.2
0.000298854	-134039.13	0,1.56098e-05,3.38695e-05,5.52287e-05,8.02136e-05,0.00010944,0.000143627,0.000183617,0.000230396,0.000285116,0.000349124,0.000423998,0.000511581,0.000614032,0.000733874,0.000874058,0.00103804,0.00122986,0.00145423,0.0017167,0.00202372,0.00238286,0.00280296,0.00329437,0.0038692,0.0045416,0.00532815,0.00624821,0.00732445,0.00858339,0.010056,0.0117786,inf	9.99889,9.99889,190.349,79.8974,40.0207,48.5225,100.722,158.456,115.032,91.7172,132.255,267.044,588.294,1235.78,2349.55,3646.31,4319.11,4688.93,5238.94,6107.9,7578.43,11109.3,50012.6,964436,2199.49,3826.7,6121.84,3443.85,3443.85,2844.8,2844.8,2844.8
0.000302127	-134038.08	0,1.56098e-05,3.38695e-05,5.52287e-05,8.02136e-05,0.00010944,0.000143627,0.000183617,0.000230396,0.000285116,0.000349124,0.000423998,0.000511581,0.000614032,0.000733874,0.000874058,0.00103804,0.00122986,0.00145423,0.0017167,0.00202372,0.00238286,0.00280296,0.00329437,0.0038692,0.0045416,0.00532815,0.00624821,0.00732445,0.00858339,0.010056,0.0117786,inf	8.33332,8.33332,191.275,77.139,38.2395,48.3622,106.283,169.934,117.63,89.5887,127.314,258.143,575.041,1221.53,2346.68,3673,4363.62,4765.16,5407.49,6497.26,8588.75,17011.8,947770,7519.06,16252.2,52459.2,16640.9,1856.25,1856.25,7732.96,7732.96,7732.96
0.000305298	-134037.18	0,1.56098e-05,3.38695e-05,5.52287e-05,8.02136e-05,0.00010944,0.000143627,0.000183617,0.000230396,0.000285116,0.000349124,0.000423998,0.000511581,0.000614032,0.000733874,0.000874058,0.00103804,0.00122986,0.00145423,0.0017167,0.00202372,0.00238286,0.00280296,0.00329437,0.0038692,0.0045416,0.00532815,0.00624821,0.00732445,0.00858339,0.010056,0.0117786,inf	6.95059,6.95059,191.801,74.175,36.3614,47.9769,111.656,181.604,120.232,87.7108,122.914,250.143,562.986,1208.38,2343.64,3696.78,4402.89,4835.26,5574.76,6923.41,9961.25,58009.9,1.29529e+06,58.6211,126.707,408.99,654.289,682.875,682.875,2844.8,2844.8,2844.8
0.000308378	-134036.38	0,1.56098e-05,3.38695e-05,5.52287e-05,8.02136e-05,0.00010944,0.000143627,0.000183617,0.000230396,0.000285116,0.000349124,0.000423998,0.000511581,0.000614032,0.000733874,0.000874058,0.00103804,0.00122986,0.00145423,0.0017167,0.00202372,0.00238286,0.00280296,0.00329437,0.0038692,0.0045416,0.00532815,0.00624821,0.00732445,0.00858339,0.010056,0.0117786,inf	5.81204,5.81204,192.191,71.1003,34.4223,47.3748,116.771,193.359,122.796,86.0291,118.963,242.909,551.971,1196.2,2340.52,3718.08,4437.6,4899.97,5741.71,7396.11,12044.2,1.36785e+06,10098.5,11016.6,4721.65,15240.7,83922.7,1856.25,1856.25,1533.35,1533.35,1533.35
0.000311376	-134035.68	0,1.56098e-05,3.38695e-05,5.52287e-05,8.02136e-05,0.00010944,0.000143627,0.000183617,0.000230396,0.000285116,0.000349124,0.000423998,0.000511581,0.000614032,0.000733874,0.000874058,0.00103804,0.00122986,0.00145423,0.0017167,0.00202372,0.00238286,0.00280296,0.00329437,0.0038692,0.0045416,0.00532815,0.00624821,0.00732445,0.00858339,0.010056,0.0117786,inf	4.87725,4.87725,192.614,67.9827,32.4541,46.5704,121.571,205.11,125.289,84.5042,115.389,236.335,541.894,1185.04,2337.62,3737.02,4468.09,4959.78,5909.08,7928.3,16044.5,1.48269e+06,397.054,433.155,936.248,3022.05,3299.69,5045.8,5045.8,11330,11330,11330
0.000314299	-134035.05	0,1.56098e-05,3.38695e-05,5.52287e-05,8.02136e-05,0.00010944,0.000143627,0.000183617,0.000230396,0.000285116,0.000349124,0.000423998,0.000511581,0.000614032,0.000733874,0.000874058,0.00103804,0.00122986,0.00145423,0.0017167,0.00202372,0.00238286,0.00280296,0.00329437,0.0038692,0.0045416,0.00532815,0.00624821,0.00732445,0.00858339,0.010056,0.0117786,inf	4.1105,4.1105,193.193,64.8711,30.485,45.585,126.017,216.781,127.692,83.1045,112.134,230.324,532.613,1174.66,2334.74,3754.06,4495,5015.35,6077.82,8537.58,30576.5,1.6736e+06,15.6114,17.0309,36.8116,118.821,129.738,198.392,198.392,445.477,445.477,445.477
