LogLikelihood = -200372.82611520960927

y0 0.74451311680643084134
y0_prime 0
y1 1.0996473605442325105
y1_prime 0
y2 0.83143662244746618928
y2_prime 0
y3 1.6938399241964039454
y3_prime 0
rho 0.00024375066329315631
rho.alpha 0.69386299623766223288
r_ii 0.99989769173302900374
theta 0.00047674071220257595955
