0.000682618	-318085.77	0,4.42032e-05,9.59099e-05,0.000156394,0.000227145,0.000309906,0.000406715,0.000519959,0.000652425,0.000807377,0.000988632,0.00120066,0.00144867,0.00173878,0.00207815,0.00247512,0.00293947,0.00348265,0.00411803,0.00486127,0.00573067,0.00674765,0.00793727,0.00932883,0.0109566,0.0128607,0.015088,0.0176934,0.020741,0.024306,0.0284762,0.0333542,inf	117.218,117.218,221.172,255.562,282.236,304.738,316.351,321.622,325.219,332.141,343.515,357.67,373.948,391.658,408.894,422.359,430.477,433.965,433.336,429.333,423.318,416.35,408.717,400.066,391.585,386.843,388.439,396.87,396.87,409.166,409.166,409.166
0.000713819	-318000.97	0,4.42032e-05,9.59099e-05,0.000156394,0.000227145,0.000309906,0.000406715,0.000519959,0.000652425,0.000807377,0.000988632,0.00120066,0.00144867,0.00173878,0.00207815,0.00247512,0.00293947,0.00348265,0.00411803,0.00486127,0.00573067,0.00674765,0.00793727,0.00932883,0.0109566,0.0128607,0.015088,0.0176934,0.020741,0.024306,0.0284762,0.0333542,inf	56.0695,56.0695,182.201,221.859,255.691,287.493,300.082,302.046,301.721,307.993,322.338,341.714,365.254,392.275,420.035,442.959,457.881,465.507,466.096,460.482,450.85,438.935,425.12,408.724,392.618,384.342,388.898,407.357,407.357,434.251,434.251,434.251
0.000743123	-317965.03	0,4.42032e-05,9.59099e-05,0.000156394,0.000227145,0.000309906,0.000406715,0.000519959,0.000652425,0.000807377,0.000988632,0.00120066,0.00144867,0.00173878,0.00207815,0.00247512,0.00293947,0.00348265,0.00411803,0.00486127,0.00573067,0.00674765,0.00793727,0.00932883,0.0109566,0.0128607,0.015088,0.0176934,0.020741,0.024306,0.0284762,0.0333542,inf	32.9777,32.9777,172.616,211.775,249.366,288.398,299.868,296.676,290.773,294.599,309.405,330.833,357.92,390.19,424.539,453.89,473.933,485.289,487.706,481.765,470.06,454.635,435.748,412.405,389.518,378.698,387.036,416.355,416.355,459.678,459.678,459.678
0.000770745	-317944.23	0,4.42032e-05,9.59099e-05,0.000156394,0.000227145,0.000309906,0.000406715,0.000519959,0.000652425,0.000807377,0.000988632,0.00120066,0.00144867,0.00173878,0.00207815,0.00247512,0.00293947,0.00348265,0.00411803,0.00486127,0.00573067,0.00674765,0.00793727,0.00932883,0.0109566,0.0128607,0.015088,0.0176934,0.020741,0.024306,0.0284762,0.0333542,inf	21.3237,21.3237,172.232,208.375,249.135,295.266,305.453,296.94,285.344,286.479,300.971,323.167,352.056,387.42,425.99,459.656,483.375,497.774,502.066,496.425,483.591,465.64,442.507,412.892,383.992,371.388,383.943,424.461,424.461,485.804,485.804,485.804
0.000797012	-317929.60	0,4.42032e-05,9.59099e-05,0.000156394,0.000227145,0.000309906,0.000406715,0.000519959,0.000652425,0.000807377,0.000988632,0.00120066,0.00144867,0.00173878,0.00207815,0.00247512,0.00293947,0.00348265,0.00411803,0.00486127,0.00573067,0.00674765,0.00793727,0.00932883,0.0109566,0.0128607,0.015088,0.0176934,0.020741,0.024306,0.0284762,0.0333542,inf	14.4365,14.4365,174.928,206.427,250.338,303.703,312.962,299.479,282.57,281.261,295.273,317.703,347.519,384.766,426.088,462.631,488.919,505.703,511.703,506.643,493.255,473.462,446.709,411.394,377.16,363.349,380.297,432.055,432.055,512.925,512.925,512.925
0.000822178	-317918.03	0,4.42032e-05,9.59099e-05,0.000156394,0.000227145,0.000309906,0.000406715,0.000519959,0.000652425,0.000807377,0.000988632,0.00120066,0.00144867,0.00173878,0.00207815,0.00247512,0.00293947,0.00348265,0.00411803,0.00486127,0.00573067,0.00674765,0.00793727,0.00932883,0.0109566,0.0128607,0.015088,0.0176934,0.020741,0.024306,0.0284762,0.0333542,inf	10.0213,10.0213,178.631,204.335,251.434,312.04,320.799,302.826,281.125,277.758,291.348,313.798,344.081,382.499,425.634,464.07,492.113,510.732,518.217,513.851,500.269,479.121,449.237,408.714,369.738,355.153,376.509,439.385,439.385,541.301,541.301,541.301
0.000846423	-317908.27	0,4.42032e-05,9.59099e-05,0.000156394,0.000227145,0.000309906,0.000406715,0.000519959,0.000652425,0.000807377,0.000988632,0.00120066,0.00144867,0.00173878,0.00207815,0.00247512,0.00293947,0.00348265,0.00411803,0.00486127,0.00573067,0.00674765,0.00793727,0.00932883,0.0109566,0.0128607,0.015088,0.0176934,0.020741,0.024306,0.0284762,0.0333542,inf	7.06482,7.06482,182.645,201.762,252.026,319.706,328.312,306.313,280.345,275.317,288.618,311.018,341.522,380.674,425.002,464.648,493.856,513.878,522.634,518.989,505.446,483.305,450.684,405.383,362.178,347.143,372.827,446.606,446.606,571.201,571.201,571.201
0.000869869	-317899.71	0,4.42032e-05,9.59099e-05,0.000156394,0.000227145,0.000309906,0.000406715,0.000519959,0.000652425,0.000807377,0.000988632,0.00120066,0.00144867,0.00173878,0.00207815,0.00247512,0.00293947,0.00348265,0.00411803,0.00486127,0.00573067,0.00674765,0.00793727,0.00932883,0.0109566,0.0128607,0.015088,0.0176934,0.020741,0.024306,0.0284762,0.0333542,inf	5.03499,5.03499,186.763,198.776,252.132,326.577,335.267,309.637,279.886,273.559,286.716,309.063,339.652,379.259,424.358,464.735,494.681,515.772,525.614,522.684,509.336,486.48,451.449,401.747,354.757,339.511,369.392,453.82,453.82,602.916,602.916,602.916
0.000892603	-317892.04	0,4.42032e-05,9.59099e-05,0.000156394,0.000227145,0.000309906,0.000406715,0.000519959,0.000652425,0.000807377,0.000988632,0.00120066,0.00144867,0.00173878,0.00207815,0.00247512,0.00293947,0.00348265,0.00411803,0.00486127,0.00573067,0.00674765,0.00793727,0.00932883,0.0109566,0.0128607,0.015088,0.0176934,0.020741,0.024306,0.0284762,0.0333542,inf	3.61798,3.61798,190.934,195.539,251.885,332.709,341.609,312.666,279.56,272.247,285.399,307.715,338.316,378.197,423.774,464.539,494.91,516.817,527.591,525.356,512.312,488.963,451.798,398.028,347.636,332.36,366.28,461.095,461.095,636.806,636.806,636.806
0.000914687	-317885.08	0,4.42032e-05,9.59099e-05,0.000156394,0.000227145,0.000309906,0.000406715,0.000519959,0.000652425,0.000807377,0.000988632,0.00120066,0.00144867,0.00173878,0.00207815,0.00247512,0.00293947,0.00348265,0.00411803,0.00486127,0.00573067,0.00674765,0.00793727,0.00932883,0.0109566,0.0128607,0.015088,0.0176934,0.020741,0.024306,0.0284762,0.0333542,inf	2.61663,2.61663,195.135,192.198,251.43,338.209,347.362,315.357,279.265,271.235,284.501,306.821,337.394,377.427,423.271,464.176,494.746,517.277,528.857,527.29,514.631,490.97,451.909,394.368,340.903,325.73,363.521,468.471,468.471,673.258,673.258,673.258
0.000936166	-317878.70	0,4.42032e-05,9.59099e-05,0.000156394,0.000227145,0.000309906,0.000406715,0.000519959,0.000652425,0.000807377,0.000988632,0.00120066,0.00144867,0.00173878,0.00207815,0.00247512,0.00293947,0.00348265,0.00411803,0.00486127,0.00573067,0.00674765,0.00793727,0.00932883,0.0109566,0.0128607,0.015088,0.0176934,0.020741,0.024306,0.0284762,0.0333542,inf	1.90201,1.90201,199.358,188.868,250.889,343.196,352.581,317.705,278.949,270.424,283.907,306.266,336.792,376.894,422.851,463.714,494.317,517.325,529.61,528.684,516.472,492.649,451.902,390.854,334.601,319.629,361.125,475.977,475.977,712.85,712.85,712.85
0.000957078	-317872.82	0,4.42032e-05,9.59099e-05,0.000156394,0.000227145,0.000309906,0.000406715,0.000519959,0.000652425,0.000807377,0.000988632,0.00120066,0.00144867,0.00173878,0.00207815,0.00247512,0.00293947,0.00348265,0.00411803,0.00486127,0.00573067,0.00674765,0.00793727,0.00932883,0.0109566,0.0128607,0.015088,0.0176934,0.020741,0.024306,0.0284762,0.0333542,inf	1.38838,1.38838,203.579,185.62,250.349,347.775,357.328,319.728,278.582,269.751,283.536,305.968,336.439,376.55,422.507,463.193,493.706,517.08,529.988,529.678,517.959,494.102,451.853,387.532,328.739,314.04,359.083,483.623,483.623,756.276,756.276,756.276
0.00097745	-317867.39	0,4.42032e-05,9.59099e-05,0.000156394,0.000227145,0.000309906,0.000406715,0.000519959,0.000652425,0.000807377,0.000988632,0.00120066,0.00144867,0.00173878,0.00207815,0.00247512,0.00293947,0.00348265,0.00411803,0.00486127,0.00573067,0.00674765,0.00793727,0.00932883,0.0109566,0.0128607,0.015088,0.0176934,0.020741,0.024306,0.0284762,0.0333542,inf	1.01681,1.01681,207.776,182.504,249.87,352.031,361.663,321.449,278.154,269.173,283.33,305.864,336.28,376.358,422.229,462.637,492.971,516.623,530.086,530.37,519.18,495.397,451.81,384.429,323.308,308.938,357.376,491.418,491.418,804.501,804.501,804.501
0.000997305	-317862.34	0,4.42032e-05,9.59099e-05,0.000156394,0.000227145,0.000309906,0.000406715,0.000519959,0.000652425,0.000807377,0.000988632,0.00120066,0.00144867,0.00173878,0.00207815,0.00247512,0.00293947,0.00348265,0.00411803,0.00486127,0.00573067,0.00674765,0.00793727,0.00932883,0.0109566,0.0128607,0.015088,0.0176934,0.020741,0.024306,0.0284762,0.0333542,inf	0.746791,0.746791,211.924,179.543,249.491,356.033,365.638,322.896,277.661,268.661,283.247,305.911,336.273,376.287,422.005,462.061,492.148,516.012,529.974,530.829,520.198,496.581,451.803,381.552,318.291,304.288,355.983,499.364,499.364,858.883,858.883,858.883
0.00101667	-317857.65	0,4.42032e-05,9.59099e-05,0.000156394,0.000227145,0.000309906,0.000406715,0.000519959,0.000652425,0.000807377,0.000988632,0.00120066,0.00144867,0.00173878,0.00207815,0.00247512,0.00293947,0.00348265,0.00411803,0.00486127,0.00573067,0.00674765,0.00793727,0.00932883,0.0109566,0.0128607,0.015088,0.0176934,0.020741,0.024306,0.0284762,0.0333542,inf	0.546272,0.546272,216.002,176.749,249.233,359.836,369.3,324.096,277.104,268.194,283.256,306.073,336.385,376.312,421.826,461.473,491.266,515.287,529.702,531.109,521.057,497.687,451.847,378.899,313.662,300.055,354.877,507.459,507.459,921.491,921.491,921.491
0.00103555	-317853.28	0,4.42032e-05,9.59099e-05,0.000156394,0.000227145,0.000309906,0.000406715,0.000519959,0.000652425,0.000807377,0.000988632,0.00120066,0.00144867,0.00173878,0.00207815,0.00247512,0.00293947,0.00348265,0.00411803,0.00486127,0.00573067,0.00674765,0.00793727,0.00932883,0.0109566,0.0128607,0.015088,0.0176934,0.020741,0.024306,0.0284762,0.0333542,inf	0.400468,0.400468,219.99,174.122,249.105,363.481,372.688,325.075,276.488,267.76,283.334,306.325,336.592,376.414,421.685,460.88,490.342,514.479,529.308,531.246,521.789,498.734,451.952,376.462,309.393,296.202,354.035,515.701,515.701,995.496,995.496,995.496
0.00105397	-317849.19	0,4.42032e-05,9.59099e-05,0.000156394,0.000227145,0.000309906,0.000406715,0.000519959,0.000652425,0.000807377,0.000988632,0.00120066,0.00144867,0.00173878,0.00207815,0.00247512,0.00293947,0.00348265,0.00411803,0.00486127,0.00573067,0.00674765,0.00793727,0.00932883,0.0109566,0.0128607,0.015088,0.0176934,0.020741,0.024306,0.0284762,0.0333542,inf	0.384022,0.384022,223.878,171.66,249.111,366.998,375.837,325.856,275.817,267.349,283.467,306.646,336.874,376.577,421.574,460.285,489.392,513.611,528.818,531.27,522.419,499.737,452.117,374.229,305.456,292.697,353.432,524.083,524.083,1086.39,1086.39,1086.39
0.00107194	-317845.38	0,4.42032e-05,9.59099e-05,0.000156394,0.000227145,0.000309906,0.000406715,0.000519959,0.000652425,0.000807377,0.000988632,0.00120066,0.00144867,0.00173878,0.00207815,0.00247512,0.00293947,0.00348265,0.00411803,0.00486127,0.00573067,0.00674765,0.00793727,0.00932883,0.0109566,0.0128607,0.015088,0.0176934,0.020741,0.024306,0.0284762,0.0333542,inf	0.384022,0.384022,227.633,169.352,249.247,370.412,378.771,326.459,275.098,266.955,283.64,307.022,337.216,376.79,421.487,459.692,488.424,512.7,528.255,531.201,522.964,500.705,452.343,372.185,301.823,289.507,353.045,532.601,532.601,1204.8,1204.8,1204.8
0.00108948	-317841.81	0,4.42032e-05,9.59099e-05,0.000156394,0.000227145,0.000309906,0.000406715,0.000519959,0.000652425,0.000807377,0.000988632,0.00120066,0.00144867,0.00173878,0.00207815,0.00247512,0.00293947,0.00348265,0.00411803,0.00486127,0.00573067,0.00674765,0.00793727,0.00932883,0.0109566,0.0128607,0.015088,0.0176934,0.020741,0.024306,0.0284762,0.0333542,inf	0.384022,0.384022,231.26,167.189,249.508,373.741,381.515,326.904,274.334,266.574,283.844,307.441,337.605,377.043,421.42,459.102,487.448,511.757,527.633,531.057,523.438,501.642,452.624,370.317,298.467,286.601,352.854,541.25,541.25,1375.58,1375.58,1375.58
0.0011066	-317838.46	0,4.42032e-05,9.59099e-05,0.000156394,0.000227145,0.000309906,0.000406715,0.000519959,0.000652425,0.000807377,0.000988632,0.00120066,0.00144867,0.00173878,0.00207815,0.00247512,0.00293947,0.00348265,0.00411803,0.00486127,0.00573067,0.00674765,0.00793727,0.00932883,0.0109566,0.0128607,0.015088,0.0176934,0.020741,0.024306,0.0284762,0.0333542,inf	0.384022,0.384022,234.763,165.168,249.888,376.998,384.09,327.207,273.535,266.202,284.073,307.893,338.032,377.327,421.369,458.516,486.469,510.794,526.967,530.851,523.849,502.554,452.957,368.608,295.363,283.953,352.839,550.018,550.018,1681.27,1681.27,1681.27
