time_index	left_time_boundary	right_time_boundary	lambda
0	0	4.24345e-05	193.236
1	4.24345e-05	9.20722e-05	193.236
2	9.20722e-05	0.000150136	177.106
3	0.000150136	0.000218056	134.714
4	0.000218056	0.000297506	121.184
5	0.000297506	0.000390442	122.823
6	0.000390442	0.000499154	135.501
7	0.000499154	0.000626319	160.102
8	0.000626319	0.000775071	196.162
9	0.000775071	0.000949074	242.124
10	0.000949074	0.00115261	297.166
11	0.00115261	0.0013907	360.803
12	0.0013907	0.00166921	431.375
13	0.00166921	0.00199499	504.797
14	0.00199499	0.00237608	572.686
15	0.00237608	0.00282185	624.014
16	0.00282185	0.0033433	652.294
17	0.0033433	0.00395326	657.382
18	0.00395326	0.00466675	641.75
19	0.00466675	0.00550137	610.675
20	0.00550137	0.00647766	572.875
21	0.00647766	0.00761968	536.99
22	0.00761968	0.00895555	508.599
23	0.00895555	0.0105182	493.683
24	0.0105182	0.0123461	500.469
25	0.0123461	0.0144843	534.595
26	0.0144843	0.0169854	596.43
27	0.0169854	0.0199111	717.23
28	0.0199111	0.0233335	717.23
29	0.0233335	0.0273368	2736.28
30	0.0273368	0.0320196	2736.28
31	0.0320196	inf	2736.28
