0.000700329	-4572020.73	0,1.03946e-05,2.72342e-05,5.45148e-05,9.87102e-05,0.000170308,0.000286299,0.000474209,0.000778628,0.0012718,0.00207074,0.00336506,0.00546191,0.00885885,0.014362,0.0232773,inf	417.266,417.266,518.989,489.608,431.726,401.395,391.025,394.262,398.456,404.87,413.372,418.464,411.386,473.307,473.307,473.307
0.000760202	-4571212.25	0,1.03946e-05,2.72342e-05,5.45148e-05,9.87102e-05,0.000170308,0.000286299,0.000474209,0.000778628,0.0012718,0.00207074,0.00336506,0.00546191,0.00885885,0.014362,0.0232773,inf	377.597,377.597,571.31,531.138,441.944,397.844,384.643,391.494,396.562,404.541,417.544,426.931,414.285,551.212,551.212,551.212
0.000811637	-4570719.12	0,1.03946e-05,2.72342e-05,5.45148e-05,9.87102e-05,0.000170308,0.000286299,0.000474209,0.000778628,0.0012718,0.00207074,0.00336506,0.00546191,0.00885885,0.014362,0.0232773,inf	337.159,337.159,593.868,550.613,444.533,394.22,381.151,391.43,395.725,402.946,417.795,429.662,411.911,639.215,639.215,639.215
0.000856504	-4570400.89	0,1.03946e-05,2.72342e-05,5.45148e-05,9.87102e-05,0.000170308,0.000286299,0.000474209,0.000778628,0.0012718,0.00207074,0.00336506,0.00546191,0.00885885,0.014362,0.0232773,inf	307.002,307.002,604.027,559.511,444.096,391.154,379.462,392.99,395.837,401.428,416.746,429.536,406.857,750.576,750.576,750.576
0.000895972	-4570206.80	0,1.03946e-05,2.72342e-05,5.45148e-05,9.87102e-05,0.000170308,0.000286299,0.000474209,0.000778628,0.0012718,0.00207074,0.00336506,0.00546191,0.00885885,0.014362,0.0232773,inf	286.284,286.284,609.199,563.042,442.379,388.52,378.684,395.285,396.461,400.226,415.352,427.843,400.364,916.598,916.598,916.598
0.000930807	-4570119.15	0,1.03946e-05,2.72342e-05,5.45148e-05,9.87102e-05,0.000170308,0.000286299,0.000474209,0.000778628,0.0012718,0.00207074,0.00336506,0.00546191,0.00885885,0.014362,0.0232773,inf	272.348,272.348,612.53,563.773,440.196,386.214,378.328,397.819,397.295,399.324,413.945,425.1,393.019,1250.89,1250.89,1250.89
0.00096151	-4570148.69	0,1.03946e-05,2.72342e-05,5.45148e-05,9.87102e-05,0.000170308,0.000286299,0.000474209,0.000778628,0.0012718,0.00207074,0.00336506,0.00546191,0.00885885,0.014362,0.0232773,inf	262.916,262.916,615.245,563.032,437.973,384.184,378.16,400.349,398.171,398.653,412.563,421.285,385.011,2615.77,2615.77,2615.77
0.00096151	-4570345.16	0,1.03946e-05,2.72342e-05,5.45148e-05,9.87102e-05,0.000170308,0.000286299,0.000474209,0.000778628,0.0012718,0.00207074,0.00336506,0.00546191,0.00885885,0.014362,0.0232773,inf	254.659,254.659,613.529,557.643,432.907,379.722,375.349,399.693,395.91,394.866,407.105,412.421,374.527,50239,50239,50239
0.00096151	-4570628.24	0,1.03946e-05,2.72342e-05,5.45148e-05,9.87102e-05,0.000170308,0.000286299,0.000474209,0.000778628,0.0012718,0.00207074,0.00336506,0.00546191,0.00885885,0.014362,0.0232773,inf	250.4,250.4,616.572,556.923,431.32,377.744,374.433,401.109,396.037,393.784,404.266,404.353,365.124,50242.7,50242.7,50242.7
0.00096151	-4570552.27	0,1.03946e-05,2.72342e-05,5.45148e-05,9.87102e-05,0.000170308,0.000286299,0.000474209,0.000778628,0.0012718,0.00207074,0.00336506,0.00546191,0.00885885,0.014362,0.0232773,inf	247.559,247.559,616.604,556.934,430.392,376.07,373.469,402.544,396.172,393.784,403.814,398.665,356.975,50245.5,50245.5,50245.5
0.00096151	-4570498.46	0,1.03946e-05,2.72342e-05,5.45148e-05,9.87102e-05,0.000170308,0.000286299,0.000474209,0.000778628,0.0012718,0.00207074,0.00336506,0.00546191,0.00885885,0.014362,0.0232773,inf	245.929,245.929,618.212,556.934,430.016,374.659,372.449,403.77,396.189,393.784,403.814,394.597,349.721,50247.8,50247.8,50247.8
0.00096151	-4570456.36	0,1.03946e-05,2.72342e-05,5.45148e-05,9.87102e-05,0.000170308,0.000286299,0.000474209,0.000778628,0.0012718,0.00207074,0.00336506,0.00546191,0.00885885,0.014362,0.0232773,inf	244.807,244.807,618.212,557.494,430.016,373.49,371.428,404.846,396.189,393.784,403.814,391.761,343.155,50249.8,50249.8,50249.8
0.00096151	-4570422.07	0,1.03946e-05,2.72342e-05,5.45148e-05,9.87102e-05,0.000170308,0.000286299,0.000474209,0.000778628,0.0012718,0.00207074,0.00336506,0.00546191,0.00885885,0.014362,0.0232773,inf	244.106,244.106,618.213,557.844,430.016,372.537,370.425,405.805,396.204,393.784,403.814,389.894,337.133,50251.4,50251.4,50251.4
0.00096151	-4570393.39	0,1.03946e-05,2.72342e-05,5.45148e-05,9.87102e-05,0.000170308,0.000286299,0.000474209,0.000778628,0.0012718,0.00207074,0.00336506,0.00546191,0.00885885,0.014362,0.0232773,inf	243.661,243.661,618.225,558.059,430.016,371.786,369.456,406.665,396.219,393.784,403.814,388.789,331.545,50252.9,50252.9,50252.9
0.00096151	-4570368.83	0,1.03946e-05,2.72342e-05,5.45148e-05,9.87102e-05,0.000170308,0.000286299,0.000474209,0.000778628,0.0012718,0.00207074,0.00336506,0.00546191,0.00885885,0.014362,0.0232773,inf	243.388,243.388,618.447,558.059,430.016,371.219,368.529,407.441,396.226,393.784,403.814,388.288,326.307,50254.2,50254.2,50254.2
0.00096151	-4570347.35	0,1.03946e-05,2.72342e-05,5.45148e-05,9.87102e-05,0.000170308,0.000286299,0.000474209,0.000778628,0.0012718,0.00207074,0.00336506,0.00546191,0.00885885,0.014362,0.0232773,inf	243.236,243.236,618.571,558.059,430.016,370.819,367.64,408.137,396.23,393.784,403.814,388.264,321.354,50255.4,50255.4,50255.4
0.00096151	-4570328.21	0,1.03946e-05,2.72342e-05,5.45148e-05,9.87102e-05,0.000170308,0.000286299,0.000474209,0.000778628,0.0012718,0.00207074,0.00336506,0.00546191,0.00885885,0.014362,0.0232773,inf	243.131,243.131,618.656,558.059,430.016,370.569,366.804,408.748,396.23,393.784,403.814,388.264,316.65,50256.5,50256.5,50256.5
0.00096151	-4570310.37	0,1.03946e-05,2.72342e-05,5.45148e-05,9.87102e-05,0.000170308,0.000286299,0.000474209,0.000778628,0.0012718,0.00207074,0.00336506,0.00546191,0.00885885,0.014362,0.0232773,inf	243.072,243.072,618.704,558.059,430.016,370.441,366.009,409.287,396.23,393.784,403.814,388.264,312.179,50257.6,50257.6,50257.6
0.00096151	-4570293.69	0,1.03946e-05,2.72342e-05,5.45148e-05,9.87102e-05,0.000170308,0.000286299,0.000474209,0.000778628,0.0012718,0.00207074,0.00336506,0.00546191,0.00885885,0.014362,0.0232773,inf	243.036,243.036,618.733,558.059,430.016,370.419,365.251,409.764,396.23,393.784,403.814,388.264,307.926,50258.6,50258.6,50258.6
0.00096151	-4570278.06	0,1.03946e-05,2.72342e-05,5.45148e-05,9.87102e-05,0.000170308,0.000286299,0.000474209,0.000778628,0.0012718,0.00207074,0.00336506,0.00546191,0.00885885,0.014362,0.0232773,inf	243.02,243.02,618.747,558.059,430.016,370.419,364.514,410.219,396.23,393.784,403.814,388.264,303.879,50259.5,50259.5,50259.5
