0.000692694	-8569067.63	0,2.8905e-06,6.70776e-06,1.17489e-05,1.84064e-05,2.71984e-05,3.88092e-05,5.41428e-05,7.43927e-05,0.000101135,0.000136452,0.000183092,0.000244685,0.000326027,0.000433449,0.000575312,0.000762661,0.00101008,0.00133682,0.00176832,0.00233818,0.00309074,0.00408459,0.00539708,0.0071304,0.00941944,0.0124424,0.0164346,0.0217068,0.0286694,inf	407.195,407.195,407.195,407.195,407.195,407.195,407.195,407.195,407.195,407.195,407.195,407.195,407.195,407.195,407.195,407.195,407.195,407.195,407.195,407.195,407.195,407.195,407.195,407.195,407.195,407.195,407.195,407.195,407.195,407.195
0.000746919	-8567544.45	0,2.8905e-06,6.70776e-06,1.17489e-05,1.84064e-05,2.71984e-05,3.88092e-05,5.41428e-05,7.43927e-05,0.000101135,0.000136452,0.000183092,0.000244685,0.000326027,0.000433449,0.000575312,0.000762661,0.00101008,0.00133682,0.00176832,0.00233818,0.00309074,0.00408459,0.00539708,0.0071304,0.00941944,0.0124424,0.0164346,0.0217068,0.0286694,inf	411.478,411.478,411.478,411.478,411.478,411.478,411.478,411.478,411.478,411.478,411.478,411.478,411.478,411.478,411.478,411.478,411.478,411.478,411.478,411.478,411.478,411.478,411.478,411.478,411.478,411.478,411.478,411.478,411.478,411.478
0.0007954	-8566412.29	0,2.8905e-06,6.70776e-06,1.17489e-05,1.84064e-05,2.71984e-05,3.88092e-05,5.41428e-05,7.43927e-05,0.000101135,0.000136452,0.000183092,0.000244685,0.000326027,0.000433449,0.000575312,0.000762661,0.00101008,0.00133682,0.00176832,0.00233818,0.00309074,0.00408459,0.00539708,0.0071304,0.00941944,0.0124424,0.0164346,0.0217068,0.0286694,inf	412.884,412.884,412.884,412.884,412.884,412.884,412.884,412.884,412.884,412.884,412.884,412.884,412.884,412.884,412.884,412.884,412.884,412.884,412.884,412.884,412.884,412.884,412.884,412.884,412.884,412.884,412.884,412.884,412.884,412.884
0.000839218	-8565528.69	0,2.8905e-06,6.70776e-06,1.17489e-05,1.84064e-05,2.71984e-05,3.88092e-05,5.41428e-05,7.43927e-05,0.000101135,0.000136452,0.000183092,0.000244685,0.000326027,0.000433449,0.000575312,0.000762661,0.00101008,0.00133682,0.00176832,0.00233818,0.00309074,0.00408459,0.00539708,0.0071304,0.00941944,0.0124424,0.0164346,0.0217068,0.0286694,inf	413.078,413.078,413.078,413.078,413.078,413.078,413.078,413.078,413.078,413.078,413.078,413.078,413.078,413.078,413.078,413.078,413.078,413.078,413.078,413.078,413.078,413.078,413.078,413.078,413.078,413.078,413.078,413.078,413.078,413.078
0.000879095	-8564826.33	0,2.8905e-06,6.70776e-06,1.17489e-05,1.84064e-05,2.71984e-05,3.88092e-05,5.41428e-05,7.43927e-05,0.000101135,0.000136452,0.000183092,0.000244685,0.000326027,0.000433449,0.000575312,0.000762661,0.00101008,0.00133682,0.00176832,0.00233818,0.00309074,0.00408459,0.00539708,0.0071304,0.00941944,0.0124424,0.0164346,0.0217068,0.0286694,inf	412.773,412.773,412.773,412.773,412.773,412.773,412.773,412.773,412.773,412.773,412.773,412.773,412.773,412.773,412.773,412.773,412.773,412.773,412.773,412.773,412.773,412.773,412.773,412.773,412.773,412.773,412.773,412.773,412.773,412.773
0.000915553	-8564261.97	0,2.8905e-06,6.70776e-06,1.17489e-05,1.84064e-05,2.71984e-05,3.88092e-05,5.41428e-05,7.43927e-05,0.000101135,0.000136452,0.000183092,0.000244685,0.000326027,0.000433449,0.000575312,0.000762661,0.00101008,0.00133682,0.00176832,0.00233818,0.00309074,0.00408459,0.00539708,0.0071304,0.00941944,0.0124424,0.0164346,0.0217068,0.0286694,inf	412.276,412.276,412.276,412.276,412.276,412.276,412.276,412.276,412.276,412.276,412.276,412.276,412.276,412.276,412.276,412.276,412.276,412.276,412.276,412.276,412.276,412.276,412.276,412.276,412.276,412.276,412.276,412.276,412.276,412.276
0.000948991	-8563804.58	0,2.8905e-06,6.70776e-06,1.17489e-05,1.84064e-05,2.71984e-05,3.88092e-05,5.41428e-05,7.43927e-05,0.000101135,0.000136452,0.000183092,0.000244685,0.000326027,0.000433449,0.000575312,0.000762661,0.00101008,0.00133682,0.00176832,0.00233818,0.00309074,0.00408459,0.00539708,0.0071304,0.00941944,0.0124424,0.0164346,0.0217068,0.0286694,inf	411.723,411.723,411.723,411.723,411.723,411.723,411.723,411.723,411.723,411.723,411.723,411.723,411.723,411.723,411.723,411.723,411.723,411.723,411.723,411.723,411.723,411.723,411.723,411.723,411.723,411.723,411.723,411.723,411.723,411.723
0.000979733	-8563431.01	0,2.8905e-06,6.70776e-06,1.17489e-05,1.84064e-05,2.71984e-05,3.88092e-05,5.41428e-05,7.43927e-05,0.000101135,0.000136452,0.000183092,0.000244685,0.000326027,0.000433449,0.000575312,0.000762661,0.00101008,0.00133682,0.00176832,0.00233818,0.00309074,0.00408459,0.00539708,0.0071304,0.00941944,0.0124424,0.0164346,0.0217068,0.0286694,inf	411.169,411.169,411.169,411.169,411.169,411.169,411.169,411.169,411.169,411.169,411.169,411.169,411.169,411.169,411.169,411.169,411.169,411.169,411.169,411.169,411.169,411.169,411.169,411.169,411.169,411.169,411.169,411.169,411.169,411.169
0.00100805	-8563123.77	0,2.8905e-06,6.70776e-06,1.17489e-05,1.84064e-05,2.71984e-05,3.88092e-05,5.41428e-05,7.43927e-05,0.000101135,0.000136452,0.000183092,0.000244685,0.000326027,0.000433449,0.000575312,0.000762661,0.00101008,0.00133682,0.00176832,0.00233818,0.00309074,0.00408459,0.00539708,0.0071304,0.00941944,0.0124424,0.0164346,0.0217068,0.0286694,inf	410.64,410.64,410.64,410.64,410.64,410.64,410.64,410.64,410.64,410.64,410.64,410.64,410.64,410.64,410.64,410.64,410.64,410.64,410.64,410.64,410.64,410.64,410.64,410.64,410.64,410.64,410.64,410.64,410.64,410.64
0.00103417	-8562869.47	0,2.8905e-06,6.70776e-06,1.17489e-05,1.84064e-05,2.71984e-05,3.88092e-05,5.41428e-05,7.43927e-05,0.000101135,0.000136452,0.000183092,0.000244685,0.000326027,0.000433449,0.000575312,0.000762661,0.00101008,0.00133682,0.00176832,0.00233818,0.00309074,0.00408459,0.00539708,0.0071304,0.00941944,0.0124424,0.0164346,0.0217068,0.0286694,inf	410.143,410.143,410.143,410.143,410.143,410.143,410.143,410.143,410.143,410.143,410.143,410.143,410.143,410.143,410.143,410.143,410.143,410.143,410.143,410.143,410.143,410.143,410.143,410.143,410.143,410.143,410.143,410.143,410.143,410.143
0.00105831	-8562657.78	0,2.8905e-06,6.70776e-06,1.17489e-05,1.84064e-05,2.71984e-05,3.88092e-05,5.41428e-05,7.43927e-05,0.000101135,0.000136452,0.000183092,0.000244685,0.000326027,0.000433449,0.000575312,0.000762661,0.00101008,0.00133682,0.00176832,0.00233818,0.00309074,0.00408459,0.00539708,0.0071304,0.00941944,0.0124424,0.0164346,0.0217068,0.0286694,inf	409.681,409.681,409.681,409.681,409.681,409.681,409.681,409.681,409.681,409.681,409.681,409.681,409.681,409.681,409.681,409.681,409.681,409.681,409.681,409.681,409.681,409.681,409.681,409.681,409.681,409.681,409.681,409.681,409.681,409.681
0.00108063	-8562480.65	0,2.8905e-06,6.70776e-06,1.17489e-05,1.84064e-05,2.71984e-05,3.88092e-05,5.41428e-05,7.43927e-05,0.000101135,0.000136452,0.000183092,0.000244685,0.000326027,0.000433449,0.000575312,0.000762661,0.00101008,0.00133682,0.00176832,0.00233818,0.00309074,0.00408459,0.00539708,0.0071304,0.00941944,0.0124424,0.0164346,0.0217068,0.0286694,inf	409.253,409.253,409.253,409.253,409.253,409.253,409.253,409.253,409.253,409.253,409.253,409.253,409.253,409.253,409.253,409.253,409.253,409.253,409.253,409.253,409.253,409.253,409.253,409.253,409.253,409.253,409.253,409.253,409.253,409.253
0.0011013	-8562331.73	0,2.8905e-06,6.70776e-06,1.17489e-05,1.84064e-05,2.71984e-05,3.88092e-05,5.41428e-05,7.43927e-05,0.000101135,0.000136452,0.000183092,0.000244685,0.000326027,0.000433449,0.000575312,0.000762661,0.00101008,0.00133682,0.00176832,0.00233818,0.00309074,0.00408459,0.00539708,0.0071304,0.00941944,0.0124424,0.0164346,0.0217068,0.0286694,inf	408.858,408.858,408.858,408.858,408.858,408.858,408.858,408.858,408.858,408.858,408.858,408.858,408.858,408.858,408.858,408.858,408.858,408.858,408.858,408.858,408.858,408.858,408.858,408.858,408.858,408.858,408.858,408.858,408.858,408.858
0.00112045	-8562206.01	0,2.8905e-06,6.70776e-06,1.17489e-05,1.84064e-05,2.71984e-05,3.88092e-05,5.41428e-05,7.43927e-05,0.000101135,0.000136452,0.000183092,0.000244685,0.000326027,0.000433449,0.000575312,0.000762661,0.00101008,0.00133682,0.00176832,0.00233818,0.00309074,0.00408459,0.00539708,0.0071304,0.00941944,0.0124424,0.0164346,0.0217068,0.0286694,inf	408.493,408.493,408.493,408.493,408.493,408.493,408.493,408.493,408.493,408.493,408.493,408.493,408.493,408.493,408.493,408.493,408.493,408.493,408.493,408.493,408.493,408.493,408.493,408.493,408.493,408.493,408.493,408.493,408.493,408.493
0.00113823	-8562099.46	0,2.8905e-06,6.70776e-06,1.17489e-05,1.84064e-05,2.71984e-05,3.88092e-05,5.41428e-05,7.43927e-05,0.000101135,0.000136452,0.000183092,0.000244685,0.000326027,0.000433449,0.000575312,0.000762661,0.00101008,0.00133682,0.00176832,0.00233818,0.00309074,0.00408459,0.00539708,0.0071304,0.00941944,0.0124424,0.0164346,0.0217068,0.0286694,inf	408.155,408.155,408.155,408.155,408.155,408.155,408.155,408.155,408.155,408.155,408.155,408.155,408.155,408.155,408.155,408.155,408.155,408.155,408.155,408.155,408.155,408.155,408.155,408.155,408.155,408.155,408.155,408.155,408.155,408.155
0.00115472	-8562008.83	0,2.8905e-06,6.70776e-06,1.17489e-05,1.84064e-05,2.71984e-05,3.88092e-05,5.41428e-05,7.43927e-05,0.000101135,0.000136452,0.000183092,0.000244685,0.000326027,0.000433449,0.000575312,0.000762661,0.00101008,0.00133682,0.00176832,0.00233818,0.00309074,0.00408459,0.00539708,0.0071304,0.00941944,0.0124424,0.0164346,0.0217068,0.0286694,inf	407.843,407.843,407.843,407.843,407.843,407.843,407.843,407.843,407.843,407.843,407.843,407.843,407.843,407.843,407.843,407.843,407.843,407.843,407.843,407.843,407.843,407.843,407.843,407.843,407.843,407.843,407.843,407.843,407.843,407.843
0.00117005	-8561931.50	0,2.8905e-06,6.70776e-06,1.17489e-05,1.84064e-05,2.71984e-05,3.88092e-05,5.41428e-05,7.43927e-05,0.000101135,0.000136452,0.000183092,0.000244685,0.000326027,0.000433449,0.000575312,0.000762661,0.00101008,0.00133682,0.00176832,0.00233818,0.00309074,0.00408459,0.00539708,0.0071304,0.00941944,0.0124424,0.0164346,0.0217068,0.0286694,inf	407.555,407.555,407.555,407.555,407.555,407.555,407.555,407.555,407.555,407.555,407.555,407.555,407.555,407.555,407.555,407.555,407.555,407.555,407.555,407.555,407.555,407.555,407.555,407.555,407.555,407.555,407.555,407.555,407.555,407.555
0.0011843	-8561865.33	0,2.8905e-06,6.70776e-06,1.17489e-05,1.84064e-05,2.71984e-05,3.88092e-05,5.41428e-05,7.43927e-05,0.000101135,0.000136452,0.000183092,0.000244685,0.000326027,0.000433449,0.000575312,0.000762661,0.00101008,0.00133682,0.00176832,0.00233818,0.00309074,0.00408459,0.00539708,0.0071304,0.00941944,0.0124424,0.0164346,0.0217068,0.0286694,inf	407.287,407.287,407.287,407.287,407.287,407.287,407.287,407.287,407.287,407.287,407.287,407.287,407.287,407.287,407.287,407.287,407.287,407.287,407.287,407.287,407.287,407.287,407.287,407.287,407.287,407.287,407.287,407.287,407.287,407.287
0.00119756	-8561808.54	0,2.8905e-06,6.70776e-06,1.17489e-05,1.84064e-05,2.71984e-05,3.88092e-05,5.41428e-05,7.43927e-05,0.000101135,0.000136452,0.000183092,0.000244685,0.000326027,0.000433449,0.000575312,0.000762661,0.00101008,0.00133682,0.00176832,0.00233818,0.00309074,0.00408459,0.00539708,0.0071304,0.00941944,0.0124424,0.0164346,0.0217068,0.0286694,inf	407.04,407.04,407.04,407.04,407.04,407.04,407.04,407.04,407.04,407.04,407.04,407.04,407.04,407.04,407.04,407.04,407.04,407.04,407.04,407.04,407.04,407.04,407.04,407.04,407.04,407.04,407.04,407.04,407.04,407.04
0.0012099	-8561759.68	0,2.8905e-06,6.70776e-06,1.17489e-05,1.84064e-05,2.71984e-05,3.88092e-05,5.41428e-05,7.43927e-05,0.000101135,0.000136452,0.000183092,0.000244685,0.000326027,0.000433449,0.000575312,0.000762661,0.00101008,0.00133682,0.00176832,0.00233818,0.00309074,0.00408459,0.00539708,0.0071304,0.00941944,0.0124424,0.0164346,0.0217068,0.0286694,inf	406.811,406.811,406.811,406.811,406.811,406.811,406.811,406.811,406.811,406.811,406.811,406.811,406.811,406.811,406.811,406.811,406.811,406.811,406.811,406.811,406.811,406.811,406.811,406.811,406.811,406.811,406.811,406.811,406.811,406.811
