LogLikelihood = -232867.52378526859684

y0 0.5197448649681648547
y0_prime 0
y1 0.50710051058112770583
y1_prime 0
y2 0.98709802339907937174
y2_prime 0
y3 1.2534717443874514586
y3_prime 0
rho 0.0023203012055771346164
theta 0.0037636202446163129556
