0.000596822	-12644004.64	0,1.6168e-06,3.74652e-06,6.55189e-06,1.02473e-05,1.5115e-05,2.1527e-05,2.99732e-05,4.1099e-05,5.57544e-05,7.50591e-05,0.000100488,0.000133985,0.000178108,0.00023623,0.00031279,0.000413639,0.000546482,0.00072147,0.000951972,0.0012556,0.00165555,0.00218239,0.00287637,0.00379051,0.00499467,0.00658083,0.00867021,0.0114224,0.0150478,0.0198233,0.0261139,inf	16102,16102,3685.67,2697.96,1679,775.645,460.785,336.175,328.301,324.506,310.745,292.55,284.966,283.295,281.583,288.088,300.979,315.618,332.64,353.421,378.745,407.388,435.057,453.406,460.042,455.438,439.306,418.803,418.803,399.331,399.331,399.331
0.000625968	-12640830.19	0,1.6168e-06,3.74652e-06,6.55189e-06,1.02473e-05,1.5115e-05,2.1527e-05,2.99732e-05,4.1099e-05,5.57544e-05,7.50591e-05,0.000100488,0.000133985,0.000178108,0.00023623,0.00031279,0.000413639,0.000546482,0.00072147,0.000951972,0.0012556,0.00165555,0.00218239,0.00287637,0.00379051,0.00499467,0.00658083,0.00867021,0.0114224,0.0150478,0.0198233,0.0261139,inf	23164.7,23164.7,3580.79,3788.26,2182.77,815.059,409.983,292.359,312.635,319.675,300.509,269.116,256.136,250.648,242.792,248.433,264.221,281.377,301.47,327.241,360.418,399.778,439.799,467.494,478.439,470.58,440.684,403.253,403.253,370.011,370.011,370.011
0.000654797	-12639730.94	0,1.6168e-06,3.74652e-06,6.55189e-06,1.02473e-05,1.5115e-05,2.1527e-05,2.99732e-05,4.1099e-05,5.57544e-05,7.50591e-05,0.000100488,0.000133985,0.000178108,0.00023623,0.00031279,0.000413639,0.000546482,0.00072147,0.000951972,0.0012556,0.00165555,0.00218239,0.00287637,0.00379051,0.00499467,0.00658083,0.00867021,0.0114224,0.0150478,0.0198233,0.0261139,inf	23923.8,23923.8,2801.49,4284.27,2384.23,784.515,355.526,261.193,311.134,332.369,310.288,267.901,252.441,244.424,230.967,235.485,252.743,269.939,289.812,316.455,352.445,396.712,443.388,476.753,491.358,481.589,440.197,389.067,389.067,345.911,345.911,345.911
0.0006825	-12639022.68	0,1.6168e-06,3.74652e-06,6.55189e-06,1.02473e-05,1.5115e-05,2.1527e-05,2.99732e-05,4.1099e-05,5.57544e-05,7.50591e-05,0.000100488,0.000133985,0.000178108,0.00023623,0.00031279,0.000413639,0.000546482,0.00072147,0.000951972,0.0012556,0.00165555,0.00218239,0.00287637,0.00379051,0.00499467,0.00658083,0.00867021,0.0114224,0.0150478,0.0198233,0.0261139,inf	23625,23625,2129.7,4552.8,2453.09,731.282,303.652,233.122,309.013,344.593,320.92,269.553,254.123,245.003,227.113,231.228,249.939,266.609,285.301,311.403,348.225,394.829,445.32,482.362,500.291,489.61,438.645,376.441,376.441,325.87,325.87,325.87
0.000709051	-12638470.49	0,1.6168e-06,3.74652e-06,6.55189e-06,1.02473e-05,1.5115e-05,2.1527e-05,2.99732e-05,4.1099e-05,5.57544e-05,7.50591e-05,0.000100488,0.000133985,0.000178108,0.00023623,0.00031279,0.000413639,0.000546482,0.00072147,0.000951972,0.0012556,0.00165555,0.00218239,0.00287637,0.00379051,0.00499467,0.00658083,0.00867021,0.0114224,0.0150478,0.0198233,0.0261139,inf	23195.2,23195.2,1628.59,4729.16,2461.5,674.235,258.077,208.046,305.1,353.578,328.687,269.894,256.222,246.994,225.719,230.138,250.501,266.588,283.858,308.921,345.703,393.344,446.035,485.507,506.485,495.593,436.647,365.446,365.446,309.069,309.069,309.069
0.000734556	-12638009.78	0,1.6168e-06,3.74652e-06,6.55189e-06,1.02473e-05,1.5115e-05,2.1527e-05,2.99732e-05,4.1099e-05,5.57544e-05,7.50591e-05,0.000100488,0.000133985,0.000178108,0.00023623,0.00031279,0.000413639,0.000546482,0.00072147,0.000951972,0.0012556,0.00165555,0.00218239,0.00287637,0.00379051,0.00499467,0.00658083,0.00867021,0.0114224,0.0150478,0.0198233,0.0261139,inf	22757.2,22757.2,1262.67,4863.67,2441.23,620.553,219.802,186.532,300.603,360.052,333.733,268.558,257.67,248.885,225.01,230.249,252.424,268.006,283.867,307.754,344.105,392.077,445.976,487.039,510.812,500.2,434.585,356.026,356.026,294.869,294.869,294.869
0.000759125	-12637612.92	0,1.6168e-06,3.74652e-06,6.55189e-06,1.02473e-05,1.5115e-05,2.1527e-05,2.99732e-05,4.1099e-05,5.57544e-05,7.50591e-05,0.000100488,0.000133985,0.000178108,0.00023623,0.00031279,0.000413639,0.000546482,0.00072147,0.000951972,0.0012556,0.00165555,0.00218239,0.00287637,0.00379051,0.00499467,0.00658083,0.00867021,0.0114224,0.0150478,0.0198233,0.0261139,inf	22324.7,22324.7,994.613,4974.56,2405.61,572.131,188.241,168.537,296.517,365.1,336.871,266.002,258.461,250.348,224.416,230.804,254.871,270.045,284.599,307.325,343.082,390.989,445.458,487.52,513.851,503.865,432.671,348.052,348.052,282.774,282.774,282.774
0.000782849	-12637264.76	0,1.6168e-06,3.74652e-06,6.55189e-06,1.02473e-05,1.5115e-05,2.1527e-05,2.99732e-05,4.1099e-05,5.57544e-05,7.50591e-05,0.000100488,0.000133985,0.000178108,0.00023623,0.00031279,0.000413639,0.000546482,0.00072147,0.000951972,0.0012556,0.00165555,0.00218239,0.00287637,0.00379051,0.00499467,0.00658083,0.00867021,0.0114224,0.0150478,0.0198233,0.0261139,inf	21900.6,21900.6,796.343,5069.12,2360.62,528.974,162.319,153.641,293.295,369.458,338.792,262.716,258.815,251.405,223.776,231.506,257.469,272.32,285.693,307.338,342.45,390.064,444.676,487.31,515.983,506.872,431.003,341.364,341.364,272.384,272.384,272.384
0.000805797	-12636955.66	0,1.6168e-06,3.74652e-06,6.55189e-06,1.02473e-05,1.5115e-05,2.1527e-05,2.99732e-05,4.1099e-05,5.57544e-05,7.50591e-05,0.000100488,0.000133985,0.000178108,0.00023623,0.00031279,0.000413639,0.000546482,0.00072147,0.000951972,0.0012556,0.00165555,0.00218239,0.00287637,0.00379051,0.00499467,0.00658083,0.00867021,0.0114224,0.0150478,0.0198233,0.0261139,inf	21492.5,21492.5,648.193,5150.35,2309.23,490.496,140.924,141.316,291.075,373.528,339.948,259.055,258.943,252.156,223.07,232.238,260.05,274.64,286.958,307.623,342.097,389.289,443.753,486.641,517.46,509.4,429.615,335.802,335.802,263.383,263.383,263.383
0.000828023	-12636678.91	0,1.6168e-06,3.74652e-06,6.55189e-06,1.02473e-05,1.5115e-05,2.1527e-05,2.99732e-05,4.1099e-05,5.57544e-05,7.50591e-05,0.000100488,0.000133985,0.000178108,0.00023623,0.00031279,0.000413639,0.000546482,0.00072147,0.000951972,0.0012556,0.00165555,0.00218239,0.00287637,0.00379051,0.00499467,0.00658083,0.00867021,0.0114224,0.0150478,0.0198233,0.0261139,inf	21101.4,21101.4,536.568,5220.61,2253.48,456.032,123.151,131.066,289.804,377.488,340.596,255.256,259,252.705,222.321,232.961,262.539,276.907,288.285,308.078,341.949,388.648,442.76,485.662,518.449,511.566,428.503,331.212,331.212,255.518,255.518,255.518
0.00084957	-12636429.55	0,1.6168e-06,3.74652e-06,6.55189e-06,1.02473e-05,1.5115e-05,2.1527e-05,2.99732e-05,4.1099e-05,5.57544e-05,7.50591e-05,0.000100488,0.000133985,0.000178108,0.00023623,0.00031279,0.000413639,0.000546482,0.00072147,0.000951972,0.0012556,0.00165555,0.00218239,0.00287637,0.00379051,0.00499467,0.00658083,0.00867021,0.0114224,0.0150478,0.0198233,0.0261139,inf	20729.2,20729.2,451.704,5281.53,2194.83,425.027,108.292,122.487,289.364,381.397,340.878,251.449,259.086,253.134,221.559,233.664,264.905,279.076,289.615,308.639,341.955,388.127,441.741,484.475,519.067,513.446,427.647,327.456,327.456,248.585,248.585,248.585
0.000870474	-12636203.72	0,1.6168e-06,3.74652e-06,6.55189e-06,1.02473e-05,1.5115e-05,2.1527e-05,2.99732e-05,4.1099e-05,5.57544e-05,7.50591e-05,0.000100488,0.000133985,0.000178108,0.00023623,0.00031279,0.000413639,0.000546482,0.00072147,0.000951972,0.0012556,0.00165555,0.00218239,0.00287637,0.00379051,0.00499467,0.00658083,0.00867021,0.0114224,0.0150478,0.0198233,0.0261139,inf	20376.8,20376.8,386.848,5334.42,2134.49,397.011,95.759,115.23,289.62,385.248,340.884,247.718,259.264,253.5,220.81,234.352,267.14,281.123,290.911,309.264,342.079,387.709,440.723,483.146,519.397,515.091,427.014,324.413,324.413,242.423,242.423,242.423
0.000890767	-12635998.39	0,1.6168e-06,3.74652e-06,6.55189e-06,1.02473e-05,1.5115e-05,2.1527e-05,2.99732e-05,4.1099e-05,5.57544e-05,7.50591e-05,0.000100488,0.000133985,0.000178108,0.00023623,0.00031279,0.000413639,0.000546482,0.00072147,0.000951972,0.0012556,0.00165555,0.00218239,0.00287637,0.00379051,0.00499467,0.00658083,0.00867021,0.0114224,0.0150478,0.0198233,0.0261139,inf	20044,20044,337.049,5380.81,2073.56,371.602,85.1146,109.062,290.453,389.027,340.654,244.105,259.567,253.842,220.095,235.031,269.245,283.041,292.156,309.924,342.294,387.383,439.721,481.723,519.497,516.537,426.572,321.981,321.981,236.899,236.899,236.899
0.000910474	-12635811.07	0,1.6168e-06,3.74652e-06,6.55189e-06,1.02473e-05,1.5115e-05,2.1527e-05,2.99732e-05,4.1099e-05,5.57544e-05,7.50591e-05,0.000100488,0.000133985,0.000178108,0.00023623,0.00031279,0.000413639,0.000546482,0.00072147,0.000951972,0.0012556,0.00165555,0.00218239,0.00287637,0.00379051,0.00499467,0.00658083,0.00867021,0.0114224,0.0150478,0.0198233,0.0261139,inf	19729.5,19729.5,298.743,5421.62,2012.64,348.461,76.017,103.782,291.752,392.7,340.21,240.634,260.008,254.186,219.424,235.706,271.227,284.83,293.338,310.602,342.58,387.135,438.745,480.239,519.413,517.81,426.289,320.069,320.069,231.905,231.905,231.905
0.000929621	-12635639.72	0,1.6168e-06,3.74652e-06,6.55189e-06,1.02473e-05,1.5115e-05,2.1527e-05,2.99732e-05,4.1099e-05,5.57544e-05,7.50591e-05,0.000100488,0.000133985,0.000178108,0.00023623,0.00031279,0.000413639,0.000546482,0.00072147,0.000951972,0.0012556,0.00165555,0.00218239,0.00287637,0.00379051,0.00499467,0.00658083,0.00867021,0.0114224,0.0150478,0.0198233,0.0261139,inf	19434.1,19434.1,269.375,5457.75,1952.36,327.325,68.1967,99.2387,293.438,396.242,339.571,237.312,260.59,254.544,218.808,236.382,273.094,286.494,294.452,311.285,342.921,386.957,437.801,478.717,519.178,518.928,426.136,318.602,318.602,227.355,227.355,227.355
0.00094823	-12635482.62	0,1.6168e-06,3.74652e-06,6.55189e-06,1.02473e-05,1.5115e-05,2.1527e-05,2.99732e-05,4.1099e-05,5.57544e-05,7.50591e-05,0.000100488,0.000133985,0.000178108,0.00023623,0.00031279,0.000413639,0.000546482,0.00072147,0.000951972,0.0012556,0.00165555,0.00218239,0.00287637,0.00379051,0.00499467,0.00658083,0.00867021,0.0114224,0.0150478,0.0198233,0.0261139,inf	19155.2,19155.2,247.06,5489.72,1893.1,307.956,61.4369,95.3042,295.438,399.631,338.753,234.144,261.314,254.925,218.249,237.064,274.855,288.039,295.497,311.962,343.305,386.839,436.891,477.177,518.82,519.908,426.088,317.516,317.516,223.177,223.177,223.177
0.00096632	-12635338.29	0,1.6168e-06,3.74652e-06,6.55189e-06,1.02473e-05,1.5115e-05,2.1527e-05,2.99732e-05,4.1099e-05,5.57544e-05,7.50591e-05,0.000100488,0.000133985,0.000178108,0.00023623,0.00031279,0.000413639,0.000546482,0.00072147,0.000951972,0.0012556,0.00165555,0.00218239,0.00287637,0.00379051,0.00499467,0.00658083,0.00867021,0.0114224,0.0150478,0.0198233,0.0261139,inf	18892.2,18892.2,230.417,5518.07,1835.22,290.182,55.5614,91.8915,297.694,402.864,337.764,231.128,262.169,255.333,217.747,237.755,276.519,289.472,296.474,312.63,343.723,386.775,436.018,475.631,518.359,520.762,426.123,316.758,316.758,219.31,219.31,219.31
0.000983913	-12635205.49	0,1.6168e-06,3.74652e-06,6.55189e-06,1.02473e-05,1.5115e-05,2.1527e-05,2.99732e-05,4.1099e-05,5.57544e-05,7.50591e-05,0.000100488,0.000133985,0.000178108,0.00023623,0.00031279,0.000413639,0.000546482,0.00072147,0.000951972,0.0012556,0.00165555,0.00218239,0.00287637,0.00379051,0.00499467,0.00658083,0.00867021,0.0114224,0.0150478,0.0198233,0.0261139,inf	18644.5,18644.5,218.5,5543.08,1778.98,273.819,50.4325,88.916,300.169,405.914,336.621,228.256,263.145,255.767,217.303,238.456,278.094,290.801,297.385,313.283,344.168,386.757,435.182,474.089,517.815,521.501,426.222,316.282,316.282,215.706,215.706,215.706
0.00100103	-12635083.12	0,1.6168e-06,3.74652e-06,6.55189e-06,1.02473e-05,1.5115e-05,2.1527e-05,2.99732e-05,4.1099e-05,5.57544e-05,7.50591e-05,0.000100488,0.000133985,0.000178108,0.00023623,0.00031279,0.000413639,0.000546482,0.00072147,0.000951972,0.0012556,0.00165555,0.00218239,0.00287637,0.00379051,0.00499467,0.00658083,0.00867021,0.0114224,0.0150478,0.0198233,0.0261139,inf	18409.9,18409.9,210.506,5564.89,1724.41,258.709,45.9373,86.3262,302.834,408.79,335.337,225.526,264.234,256.225,216.915,239.167,279.586,292.033,298.232,313.919,344.634,386.781,434.383,472.559,517.202,522.136,426.368,316.05,316.05,212.323,212.323,212.323
0.00101767	-12634970.22	0,1.6168e-06,3.74652e-06,6.55189e-06,1.02473e-05,1.5115e-05,2.1527e-05,2.99732e-05,4.1099e-05,5.57544e-05,7.50591e-05,0.000100488,0.000133985,0.000178108,0.00023623,0.00031279,0.000413639,0.000546482,0.00072147,0.000951972,0.0012556,0.00165555,0.00218239,0.00287637,0.00379051,0.00499467,0.00658083,0.00867021,0.0114224,0.0150478,0.0198233,0.0261139,inf	18188,18188,205.888,5583.83,1671.72,244.743,41.9849,84.0607,305.649,411.498,333.918,222.93,265.424,256.704,216.578,239.889,281.003,293.174,299.018,314.537,345.116,386.842,433.619,471.047,516.531,522.675,426.55,316.03,316.03,209.126,209.126,209.126
