0.000562209	-11980585.30	0,3.58342e-06,9.80117e-06,2.05899e-05,3.93098e-05,7.17915e-05,0.000128152,0.000225946,0.000395632,0.000690061,0.00120094,0.00208739,0.0036255,0.00629435,0.0109252,0.0189603,inf	3862.8,3862.8,1282.4,526.293,412.24,376.171,381.648,391.295,394.771,403.297,417.112,431.711,456.501,568.393,568.393,568.393
0.000576041	-11980787.97	0,3.58342e-06,9.80117e-06,2.05899e-05,3.93098e-05,7.17915e-05,0.000128152,0.000225946,0.000395632,0.000690061,0.00120094,0.00208739,0.0036255,0.00629435,0.0109252,0.0189603,inf	5970.22,5970.22,1473.63,464.807,398,352.489,365.258,380.434,382.125,391.513,407.078,418.973,450.899,695.496,695.496,695.496
0.000587035	-11981987.23	0,3.58342e-06,9.80117e-06,2.05899e-05,3.93098e-05,7.17915e-05,0.000128152,0.000225946,0.000395632,0.000690061,0.00120094,0.00208739,0.0036255,0.00629435,0.0109252,0.0189603,inf	6690.02,6690.02,1459.48,405.947,397.046,342.284,360.61,380.219,379.641,389.334,405.07,410.298,440.921,853.758,853.758,853.758
0.000595265	-11983529.70	0,3.58342e-06,9.80117e-06,2.05899e-05,3.93098e-05,7.17915e-05,0.000128152,0.000225946,0.000395632,0.000690061,0.00120094,0.00208739,0.0036255,0.00629435,0.0109252,0.0189603,inf	6950.81,6950.81,1420.99,360.323,402.417,336.202,358.4,381.769,379.062,389.507,405.861,403.688,428.043,1083.35,1083.35,1083.35
0.000601234	-11985457.08	0,3.58342e-06,9.80117e-06,2.05899e-05,3.93098e-05,7.17915e-05,0.000128152,0.000225946,0.000395632,0.000690061,0.00120094,0.00208739,0.0036255,0.00629435,0.0109252,0.0189603,inf	7067.84,7067.84,1391.01,324.498,410.854,331.787,356.761,383.353,378.589,390.111,407.78,398.216,412.912,1502.87,1502.87,1502.87
0.000605768	-11987930.53	0,3.58342e-06,9.80117e-06,2.05899e-05,3.93098e-05,7.17915e-05,0.000128152,0.000225946,0.000395632,0.000690061,0.00120094,0.00208739,0.0036255,0.00629435,0.0109252,0.0189603,inf	7129.63,7129.63,1371.66,295.195,420.751,328.317,355.456,384.87,378.022,390.714,410.229,393.11,395.503,2604.66,2604.66,2604.66
0.000609653	-11990907.85	0,3.58342e-06,9.80117e-06,2.05899e-05,3.93098e-05,7.17915e-05,0.000128152,0.000225946,0.000395632,0.000690061,0.00120094,0.00208739,0.0036255,0.00629435,0.0109252,0.0189603,inf	7162.67,7162.67,1360.08,270.33,431.211,325.477,354.477,386.446,377.474,391.272,412.899,387.486,375.707,7976.84,7976.84,7976.84
0.000609653	-11993759.98	0,3.58342e-06,9.80117e-06,2.05899e-05,3.93098e-05,7.17915e-05,0.000128152,0.000225946,0.000395632,0.000690061,0.00120094,0.00208739,0.0036255,0.00629435,0.0109252,0.0189603,inf	7166.15,7166.15,1351.6,248.233,440.899,322.506,353.174,387.45,376.142,390.841,414.115,379.112,354.577,57165.8,57165.8,57165.8
0.000609653	-11994604.09	0,3.58342e-06,9.80117e-06,2.05899e-05,3.93098e-05,7.17915e-05,0.000128152,0.000225946,0.000395632,0.000690061,0.00120094,0.00208739,0.0036255,0.00629435,0.0109252,0.0189603,inf	7166.15,7166.15,1351.6,228.876,450.675,319.881,352.042,388.492,375.046,390.893,414.592,373.489,335.359,57170.5,57170.5,57170.5
0.000609653	-11994240.69	0,3.58342e-06,9.80117e-06,2.05899e-05,3.93098e-05,7.17915e-05,0.000128152,0.000225946,0.000395632,0.000690061,0.00120094,0.00208739,0.0036255,0.00629435,0.0109252,0.0189603,inf	7166.15,7166.15,1351.61,211.509,459.836,317.313,350.919,389.326,373.86,391.262,414.932,371.567,318.747,57174.2,57174.2,57174.2
0.000609653	-11993950.28	0,3.58342e-06,9.80117e-06,2.05899e-05,3.93098e-05,7.17915e-05,0.000128152,0.000225946,0.000395632,0.000690061,0.00120094,0.00208739,0.0036255,0.00629435,0.0109252,0.0189603,inf	7166.15,7166.15,1351.61,195.887,468.499,314.887,349.932,390.073,372.656,391.262,414.932,371.873,304.076,57177.3,57177.3,57177.3
0.000609653	-11993707.05	0,3.58342e-06,9.80117e-06,2.05899e-05,3.93098e-05,7.17915e-05,0.000128152,0.000225946,0.000395632,0.000690061,0.00120094,0.00208739,0.0036255,0.00629435,0.0109252,0.0189603,inf	7166.15,7166.15,1351.61,181.74,476.652,312.668,349.131,390.934,371.526,391.772,415.078,371.873,290.967,57180.1,57180.1,57180.1
0.000609653	-11993498.30	0,3.58342e-06,9.80117e-06,2.05899e-05,3.93098e-05,7.17915e-05,0.000128152,0.000225946,0.000395632,0.000690061,0.00120094,0.00208739,0.0036255,0.00629435,0.0109252,0.0189603,inf	7166.15,7166.15,1351.61,168.885,484.061,310.555,348.433,391.741,370.345,392.197,415.282,371.873,279.212,57182.6,57182.6,57182.6
0.000609653	-11993318.66	0,3.58342e-06,9.80117e-06,2.05899e-05,3.93098e-05,7.17915e-05,0.000128152,0.000225946,0.000395632,0.000690061,0.00120094,0.00208739,0.0036255,0.00629435,0.0109252,0.0189603,inf	7166.15,7166.15,1351.61,157.161,490.817,308.558,347.846,392.541,369.184,392.542,415.508,371.873,268.624,57184.8,57184.8,57184.8
0.000609653	-11993163.24	0,3.58342e-06,9.80117e-06,2.05899e-05,3.93098e-05,7.17915e-05,0.000128152,0.000225946,0.000395632,0.000690061,0.00120094,0.00208739,0.0036255,0.00629435,0.0109252,0.0189603,inf	7166.15,7166.15,1351.61,146.459,496.985,306.675,347.351,393.344,368.047,392.834,415.737,371.873,259.05,57186.8,57186.8,57186.8
0.000609653	-11993028.09	0,3.58342e-06,9.80117e-06,2.05899e-05,3.93098e-05,7.17915e-05,0.000128152,0.000225946,0.000395632,0.000690061,0.00120094,0.00208739,0.0036255,0.00629435,0.0109252,0.0189603,inf	7166.15,7166.15,1351.61,136.667,502.628,304.853,346.885,393.384,366.891,393.078,416.14,371.873,250.361,57188.6,57188.6,57188.6
0.000609653	-11992909.40	0,3.58342e-06,9.80117e-06,2.05899e-05,3.93098e-05,7.17915e-05,0.000128152,0.000225946,0.000395632,0.000690061,0.00120094,0.00208739,0.0036255,0.00629435,0.0109252,0.0189603,inf	7166.15,7166.15,1351.61,127.698,507.797,303.25,346.685,393.417,365.855,393.274,416.489,371.873,242.444,57190.3,57190.3,57190.3
0.000609653	-11992805.25	0,3.58342e-06,9.80117e-06,2.05899e-05,3.93098e-05,7.17915e-05,0.000128152,0.000225946,0.000395632,0.000690061,0.00120094,0.00208739,0.0036255,0.00629435,0.0109252,0.0189603,inf	7166.15,7166.15,1351.61,119.458,512.546,301.803,346.694,393.893,364.942,393.441,416.696,371.873,235.21,57191.8,57191.8,57191.8
0.000609653	-11992713.80	0,3.58342e-06,9.80117e-06,2.05899e-05,3.93098e-05,7.17915e-05,0.000128152,0.000225946,0.000395632,0.000690061,0.00120094,0.00208739,0.0036255,0.00629435,0.0109252,0.0189603,inf	7166.15,7166.15,1351.61,111.874,516.917,300.369,346.707,394.361,364.081,393.592,416.895,371.873,228.581,57193.2,57193.2,57193.2
0.000609653	-11992632.84	0,3.58342e-06,9.80117e-06,2.05899e-05,3.93098e-05,7.17915e-05,0.000128152,0.000225946,0.000395632,0.000690061,0.00120094,0.00208739,0.0036255,0.00629435,0.0109252,0.0189603,inf	7166.15,7166.15,1351.61,104.877,516.917,298.943,346.72,395.599,363.289,393.736,417.075,371.873,222.488,57194.5,57194.5,57194.5
