time_index	left_time_boundary	right_time_boundary	lambda
0	0	2.57275e-05	572.646
1	2.57275e-05	5.58223e-05	572.646
2	5.58223e-05	9.10257e-05	27.873
3	9.10257e-05	0.000132205	423.483
4	0.000132205	0.000180374	380.634
5	0.000180374	0.00023672	207.297
6	0.00023672	0.000302631	96.7773
7	0.000302631	0.00037973	182.35
8	0.00037973	0.000469917	348.478
9	0.000469917	0.000575413	380.677
10	0.000575413	0.000698816	340.424
11	0.000698816	0.000843168	325.506
12	0.000843168	0.00101202	346.92
13	0.00101202	0.00120954	385.273
14	0.00120954	0.00144059	422.73
15	0.00144059	0.00171086	421.728
16	0.00171086	0.002027	414.624
17	0.002027	0.00239681	408.07
18	0.00239681	0.0028294	420.396
19	0.0028294	0.00333542	455.462
20	0.00333542	0.00392733	483.291
21	0.00392733	0.00461972	488.795
22	0.00461972	0.00542965	473.003
23	0.00542965	0.00637706	423.909
24	0.00637706	0.00748529	366.199
25	0.00748529	0.00878164	380.87
26	0.00878164	0.0102981	582.525
27	0.0102981	0.0120719	962.203
28	0.0120719	0.0141468	962.203
29	0.0141468	0.016574	136651
30	0.016574	0.0194131	136651
31	0.0194131	inf	136651
