time_index	left_time_boundary	right_time_boundary	lambda
0	0	4.09121e-05	498.263
1	4.09121e-05	8.8769e-05	498.263
2	8.8769e-05	0.00014475	144.811
3	0.00014475	0.000210233	205.016
4	0.000210233	0.000286832	263.442
5	0.000286832	0.000376434	314.641
6	0.000376434	0.000481245	365.893
7	0.000481245	0.000603849	401.712
8	0.000603849	0.000747264	404.129
9	0.000747264	0.000915024	396.975
10	0.000915024	0.00111126	383.978
11	0.00111126	0.00134081	380.691
12	0.00134081	0.00160933	384.55
13	0.00160933	0.00192342	387.028
14	0.00192342	0.00229083	387.008
15	0.00229083	0.00272061	392.58
16	0.00272061	0.00322335	406.698
17	0.00322335	0.00381142	422.091
18	0.00381142	0.00449933	430.406
19	0.00449933	0.005304	432.098
20	0.005304	0.00624526	433.169
21	0.00624526	0.00734631	441.215
22	0.00734631	0.00863426	468.171
23	0.00863426	0.0101408	523.341
24	0.0101408	0.0119032	575.492
25	0.0119032	0.0139646	645.65
26	0.0139646	0.016376	760.602
27	0.016376	0.0191968	985.314
28	0.0191968	0.0224963	985.314
29	0.0224963	0.026356	85311.5
30	0.026356	0.0308708	85311.5
31	0.0308708	inf	85311.5
