time_index	left_time_boundary	right_time_boundary	lambda
0	0	1.77131e-06	280.561
1	1.77131e-06	4.10456e-06	280.561
2	4.10456e-06	7.17803e-06	323.534
3	7.17803e-06	1.12266e-05	368.638
4	1.12266e-05	1.65595e-05	415.08
5	1.65595e-05	2.35842e-05	563.884
6	2.35842e-05	3.28376e-05	680.862
7	3.28376e-05	4.50266e-05	673.617
8	4.50266e-05	6.10825e-05	679.882
9	6.10825e-05	8.22322e-05	734.423
10	8.22322e-05	0.000110092	790.51
11	0.000110092	0.000146789	796.674
12	0.000146789	0.000195129	739.851
13	0.000195129	0.000258805	645.169
14	0.000258805	0.000342682	547.17
15	0.000342682	0.000453169	466.638
16	0.000453169	0.000598707	408.905
17	0.000598707	0.000790417	371.571
18	0.000790417	0.00104295	350.156
19	0.00104295	0.00137559	340.297
20	0.00137559	0.00181377	338.378
21	0.00181377	0.00239096	341.671
22	0.00239096	0.00315125	348.071
23	0.00315125	0.00415276	355.467
24	0.00415276	0.00547198	361.267
25	0.00547198	0.00720973	362.695
26	0.00720973	0.00949878	357.777
27	0.00949878	0.012514	338.561
28	0.012514	0.0164859	338.561
29	0.0164859	0.0217177	288.396
30	0.0217177	0.0286094	288.396
31	0.0286094	inf	288.396
