0.000711705	-1838367.48	0,9.86644e-06,2.20703e-05,3.71652e-05,5.58361e-05,7.89302e-05,0.000107495,0.000142828,0.00018653,0.000240586,0.000307447,0.000390149,0.000492442,0.000618969,0.00077547,0.000969046,0.00120848,0.00150464,0.00187096,0.00232406,0.0028845,0.0035777,0.00443513,0.00549569,0.00680749,0.00843007,0.010437,0.0129194,0.0159899,0.0197879,0.0244855,0.030296,inf	477.63,477.63,372.97,358.855,354.23,361.235,363.813,359.414,353.28,350.169,351.098,354.459,358.461,363.085,369.495,378.525,389.665,402.203,414.919,425.308,431.687,433.585,430.762,423.574,414.248,405.581,396.153,371.674,371.674,320.59,320.59,320.59
0.000793928	-1837514.68	0,9.86644e-06,2.20703e-05,3.71652e-05,5.58361e-05,7.89302e-05,0.000107495,0.000142828,0.00018653,0.000240586,0.000307447,0.000390149,0.000492442,0.000618969,0.00077547,0.000969046,0.00120848,0.00150464,0.00187096,0.00232406,0.0028845,0.0035777,0.00443513,0.00549569,0.00680749,0.00843007,0.010437,0.0129194,0.0159899,0.0197879,0.0244855,0.030296,inf	534.461,534.461,369.767,348.824,344.615,359.875,364.821,355.626,343.267,336.653,337.04,341.049,345.415,350.217,357.626,369.146,384.081,401.762,420.769,437.303,448.472,452.941,449.385,437.552,421.392,406.041,388.507,342.203,342.203,252.562,252.562,252.562
0.000871187	-1836903.40	0,9.86644e-06,2.20703e-05,3.71652e-05,5.58361e-05,7.89302e-05,0.000107495,0.000142828,0.00018653,0.000240586,0.000307447,0.000390149,0.000492442,0.000618969,0.00077547,0.000969046,0.00120848,0.00150464,0.00187096,0.00232406,0.0028845,0.0035777,0.00443513,0.00549569,0.00680749,0.00843007,0.010437,0.0129194,0.0159899,0.0197879,0.0244855,0.030296,inf	559.209,559.209,363.53,339.62,339.116,364.073,372.231,359.09,341.749,332.804,333.189,337.663,341.686,345.555,352.401,364.247,380.269,400.053,422.288,442.505,457.094,464.004,460.641,445.722,424.475,403.833,379.139,313.418,313.418,192.758,192.758,192.758
0.000944022	-1836426.60	0,9.86644e-06,2.20703e-05,3.71652e-05,5.58361e-05,7.89302e-05,0.000107495,0.000142828,0.00018653,0.000240586,0.000307447,0.000390149,0.000492442,0.000618969,0.00077547,0.000969046,0.00120848,0.00150464,0.00187096,0.00232406,0.0028845,0.0035777,0.00443513,0.00549569,0.00680749,0.00843007,0.010437,0.0129194,0.0159899,0.0197879,0.0244855,0.030296,inf	566.191,566.191,354.833,328.87,333.275,368.203,379.895,363.495,342.325,332.159,333.21,338.357,341.94,344.578,350.338,361.644,377.574,398.022,421.868,444.277,461.252,470.234,467.441,450.428,425.353,400.451,369.362,286.465,286.465,137.867,137.867,137.867
0.00101298	-1836041.90	0,9.86644e-06,2.20703e-05,3.71652e-05,5.58361e-05,7.89302e-05,0.000107495,0.000142828,0.00018653,0.000240586,0.000307447,0.000390149,0.000492442,0.000618969,0.00077547,0.000969046,0.00120848,0.00150464,0.00187096,0.00232406,0.0028845,0.0035777,0.00443513,0.00549569,0.00680749,0.00843007,0.010437,0.0129194,0.0159899,0.0197879,0.0244855,0.030296,inf	565.835,565.835,345.904,317.435,326.825,371.273,386.343,367.084,342.986,332.463,334.71,340.763,343.974,345.358,349.892,360.316,375.624,396.028,420.6,444.294,462.925,473.614,471.547,453.136,425.218,396.948,360.259,262.397,262.397,83.7298,83.7298,83.7298
0.00107873	-1835734.33	0,9.86644e-06,2.20703e-05,3.71652e-05,5.58361e-05,7.89302e-05,0.000107495,0.000142828,0.00018653,0.000240586,0.000307447,0.000390149,0.000492442,0.000618969,0.00077547,0.000969046,0.00120848,0.00150464,0.00187096,0.00232406,0.0028845,0.0035777,0.00443513,0.00549569,0.00680749,0.00843007,0.010437,0.0129194,0.0159899,0.0197879,0.0244855,0.030296,inf	563.573,563.573,338.193,306.349,320.407,373.629,391.626,369.666,343.28,333.004,336.798,343.922,346.847,347.035,350.346,359.765,374.217,394.224,419.024,443.445,463.234,475.34,474.097,454.881,425.059,394.497,353.5,243.068,243.068,37.8366,37.8366,37.8366
0.00114188	-1835530.30	0,9.86644e-06,2.20703e-05,3.71652e-05,5.58361e-05,7.89302e-05,0.000107495,0.000142828,0.00018653,0.000240586,0.000307447,0.000390149,0.000492442,0.000618969,0.00077547,0.000969046,0.00120848,0.00150464,0.00187096,0.00232406,0.0028845,0.0035777,0.00443513,0.00549569,0.00680749,0.00843007,0.010437,0.0129194,0.0159899,0.0197879,0.0244855,0.030296,inf	561.489,561.489,332.201,296.194,314.541,375.747,396.095,371.429,343.2,333.568,339.118,347.404,350.108,349.18,351.325,359.713,373.222,392.66,417.41,442.215,462.844,476.197,475.963,456.683,426.306,395.608,353.871,236.97,236.97,18.9177,18.9177,18.9177
0.00120161	-1835402.34	0,9.86644e-06,2.20703e-05,3.71652e-05,5.58361e-05,7.89302e-05,0.000107495,0.000142828,0.00018653,0.000240586,0.000307447,0.000390149,0.000492442,0.000618969,0.00077547,0.000969046,0.00120848,0.00150464,0.00187096,0.00232406,0.0028845,0.0035777,0.00443513,0.00549569,0.00680749,0.00843007,0.010437,0.0129194,0.0159899,0.0197879,0.0244855,0.030296,inf	559.901,559.901,327.804,287.07,309.408,377.88,399.958,372.506,342.75,334.024,341.437,350.917,353.439,351.473,352.522,359.898,372.442,391.229,415.754,440.715,461.953,476.43,477.411,458.864,429.523,401.702,365.237,255.57,255.57,11.8562,11.8562,11.8562
0.00125713	-1835241.13	0,9.86644e-06,2.20703e-05,3.71652e-05,5.58361e-05,7.89302e-05,0.000107495,0.000142828,0.00018653,0.000240586,0.000307447,0.000390149,0.000492442,0.000618969,0.00077547,0.000969046,0.00120848,0.00150464,0.00187096,0.00232406,0.0028845,0.0035777,0.00443513,0.00549569,0.00680749,0.00843007,0.010437,0.0129194,0.0159899,0.0197879,0.0244855,0.030296,inf	558.717,558.717,324.768,278.947,305.082,380.196,403.411,373.06,342.01,334.364,343.678,354.34,356.693,353.749,353.77,360.166,371.752,389.838,414,438.906,460.501,475.877,478.04,460.591,433.187,410.243,384.262,304.777,304.777,11.1887,11.1887,11.1887
0.0013096	-1835011.32	0,9.86644e-06,2.20703e-05,3.71652e-05,5.58361e-05,7.89302e-05,0.000107495,0.000142828,0.00018653,0.000240586,0.000307447,0.000390149,0.000492442,0.000618969,0.00077547,0.000969046,0.00120848,0.00150464,0.00187096,0.00232406,0.0028845,0.0035777,0.00443513,0.00549569,0.00680749,0.00843007,0.010437,0.0129194,0.0159899,0.0197879,0.0244855,0.030296,inf	557.824,557.824,322.816,271.718,301.524,382.76,406.588,373.238,341.075,334.613,345.828,357.64,359.827,355.959,355.012,360.466,371.108,388.448,412.105,436.708,458.298,474.081,476.832,459.795,433.272,413.159,394.074,347.88,347.88,11.5096,11.5096,11.5096
0.00135963	-1834824.39	0,9.86644e-06,2.20703e-05,3.71652e-05,5.58361e-05,7.89302e-05,0.000107495,0.000142828,0.00018653,0.000240586,0.000307447,0.000390149,0.000492442,0.000618969,0.00077547,0.000969046,0.00120848,0.00150464,0.00187096,0.00232406,0.0028845,0.0035777,0.00443513,0.00549569,0.00680749,0.00843007,0.010437,0.0129194,0.0159899,0.0197879,0.0244855,0.030296,inf	557.149,557.149,321.766,265.303,298.71,385.657,409.634,373.194,340.058,334.848,347.944,360.876,362.907,358.18,356.343,360.92,370.676,387.288,410.392,434.568,455.94,471.816,474.764,457.686,431.331,412.543,397.192,378.863,378.863,11.6155,11.6155,11.6155
0.00140751	-1834675.97	0,9.86644e-06,2.20703e-05,3.71652e-05,5.58361e-05,7.89302e-05,0.000107495,0.000142828,0.00018653,0.000240586,0.000307447,0.000390149,0.000492442,0.000618969,0.00077547,0.000969046,0.00120848,0.00150464,0.00187096,0.00232406,0.0028845,0.0035777,0.00443513,0.00549569,0.00680749,0.00843007,0.010437,0.0129194,0.0159899,0.0197879,0.0244855,0.030296,inf	556.55,556.55,321.373,259.561,296.553,388.866,412.573,372.966,338.971,335.048,349.988,364,365.881,360.36,357.717,361.5,370.449,386.388,408.95,432.66,453.714,469.518,472.46,455.143,428.646,410.475,397.297,402.744,402.744,11.7291,11.7291,11.7291
0.00145342	-1834550.07	0,9.86644e-06,2.20703e-05,3.71652e-05,5.58361e-05,7.89302e-05,0.000107495,0.000142828,0.00018653,0.000240586,0.000307447,0.000390149,0.000492442,0.000618969,0.00077547,0.000969046,0.00120848,0.00150464,0.00187096,0.00232406,0.0028845,0.0035777,0.00443513,0.00549569,0.00680749,0.00843007,0.010437,0.0129194,0.0159899,0.0197879,0.0244855,0.030296,inf	555.96,555.96,321.487,254.393,294.975,392.365,415.428,372.594,337.831,335.206,351.931,366.967,368.695,362.436,359.066,362.132,370.357,385.691,407.745,430.988,451.679,467.317,470.139,452.481,425.683,407.725,395.787,421.405,421.405,11.813,11.813,11.813
0.0014975	-1834441.20	0,9.86644e-06,2.20703e-05,3.71652e-05,5.58361e-05,7.89302e-05,0.000107495,0.000142828,0.00018653,0.000240586,0.000307447,0.000390149,0.000492442,0.000618969,0.00077547,0.000969046,0.00120848,0.00150464,0.00187096,0.00232406,0.0028845,0.0035777,0.00443513,0.00549569,0.00680749,0.00843007,0.010437,0.0129194,0.0159899,0.0197879,0.0244855,0.030296,inf	555.319,555.319,321.976,249.711,293.909,396.145,418.227,372.123,336.672,335.335,353.775,369.767,371.328,364.375,360.343,362.766,370.347,385.141,406.73,429.525,449.838,465.258,467.894,449.851,422.675,404.697,393.437,436.419,436.419,11.8843,11.8843,11.8843
0.00153986	-1834345.71	0,9.86644e-06,2.20703e-05,3.71652e-05,5.58361e-05,7.89302e-05,0.000107495,0.000142828,0.00018653,0.000240586,0.000307447,0.000390149,0.000492442,0.000618969,0.00077547,0.000969046,0.00120848,0.00150464,0.00187096,0.00232406,0.0028845,0.0035777,0.00443513,0.00549569,0.00680749,0.00843007,0.010437,0.0129194,0.0159899,0.0197879,0.0244855,0.030296,inf	554.617,554.617,322.718,245.442,293.299,400.182,420.991,371.593,335.525,335.459,355.536,372.411,373.779,366.167,361.529,363.371,370.379,384.695,405.866,428.239,448.175,463.349,465.764,447.32,419.732,401.592,390.65,448.769,448.769,11.9438,11.9438,11.9438
0.0015806	-1834261.25	0,9.86644e-06,2.20703e-05,3.71652e-05,5.58361e-05,7.89302e-05,0.000107495,0.000142828,0.00018653,0.000240586,0.000307447,0.000390149,0.000492442,0.000618969,0.00077547,0.000969046,0.00120848,0.00150464,0.00187096,0.00232406,0.0028845,0.0035777,0.00443513,0.00549569,0.00680749,0.00843007,0.010437,0.0129194,0.0159899,0.0197879,0.0244855,0.030296,inf	553.843,553.843,323.622,241.51,293.076,404.446,423.73,371.034,334.415,335.595,357.231,374.914,376.062,367.814,362.614,363.931,370.428,384.324,405.119,427.098,446.668,461.584,463.761,444.917,416.907,398.517,387.656,459.145,459.145,11.9954,11.9954,11.9954
0.00161981	-1834186.08	0,9.86644e-06,2.20703e-05,3.71652e-05,5.58361e-05,7.89302e-05,0.000107495,0.000142828,0.00018653,0.000240586,0.000307447,0.000390149,0.000492442,0.000618969,0.00077547,0.000969046,0.00120848,0.00150464,0.00187096,0.00232406,0.0028845,0.0035777,0.00443513,0.00549569,0.00680749,0.00843007,0.010437,0.0129194,0.0159899,0.0197879,0.0244855,0.030296,inf	553.026,553.026,324.628,237.858,293.179,408.896,426.44,370.462,333.357,335.759,358.879,377.293,378.19,369.324,363.601,364.438,370.479,384.005,404.463,426.079,445.296,459.952,461.884,442.652,414.223,395.529,384.586,468.021,468.021,12.0407,12.0407,12.0407
0.00165757	-1834118.87	0,9.86644e-06,2.20703e-05,3.71652e-05,5.58361e-05,7.89302e-05,0.000107495,0.000142828,0.00018653,0.000240586,0.000307447,0.000390149,0.000492442,0.000618969,0.00077547,0.000969046,0.00120848,0.00150464,0.00187096,0.00232406,0.0028845,0.0035777,0.00443513,0.00549569,0.00680749,0.00843007,0.010437,0.0129194,0.0159899,0.0197879,0.0244855,0.030296,inf	552.156,552.156,325.669,234.43,293.555,413.493,429.109,369.886,332.36,335.959,360.492,379.567,380.179,370.708,364.492,364.89,370.524,383.723,403.88,425.161,444.043,458.439,460.129,440.525,411.688,392.655,381.517,475.736,475.736,12.0813,12.0813,12.0813
0.00169395	-1834058.54	0,9.86644e-06,2.20703e-05,3.71652e-05,5.58361e-05,7.89302e-05,0.000107495,0.000142828,0.00018653,0.000240586,0.000307447,0.000390149,0.000492442,0.000618969,0.00077547,0.000969046,0.00120848,0.00150464,0.00187096,0.00232406,0.0028845,0.0035777,0.00443513,0.00549569,0.00680749,0.00843007,0.010437,0.0129194,0.0159899,0.0197879,0.0244855,0.030296,inf	551.282,551.282,326.7,231.196,294.156,418.2,431.729,369.308,331.425,336.201,362.08,381.748,382.044,371.978,365.294,365.287,370.556,383.468,403.357,424.328,442.892,457.035,458.487,438.53,409.3,389.908,378.493,482.533,482.533,12.1182,12.1182,12.1182
0.00172902	-1834004.21	0,9.86644e-06,2.20703e-05,3.71652e-05,5.58361e-05,7.89302e-05,0.000107495,0.000142828,0.00018653,0.000240586,0.000307447,0.000390149,0.000492442,0.000618969,0.00077547,0.000969046,0.00120848,0.00150464,0.00187096,0.00232406,0.0028845,0.0035777,0.00443513,0.00549569,0.00680749,0.00843007,0.010437,0.0129194,0.0159899,0.0197879,0.0244855,0.030296,inf	550.415,550.415,327.694,228.117,294.94,422.985,434.284,368.73,330.555,336.487,363.649,383.847,383.797,373.143,366.014,365.633,370.574,383.232,402.881,423.568,441.83,455.728,456.951,436.662,407.054,387.29,375.54,488.593,488.593,12.1521,12.1521,12.1521
