time_index	left_time_boundary	right_time_boundary	lambda
0	0	4.10456e-06	191.83
1	4.10456e-06	1.12266e-05	191.83
2	1.12266e-05	2.35842e-05	187.513
3	2.35842e-05	4.50266e-05	201.58
4	4.50266e-05	8.22322e-05	401.114
5	8.22322e-05	0.000146789	430.2
6	0.000146789	0.000258805	347.592
7	0.000258805	0.000453169	368.885
8	0.000453169	0.000790417	388.062
9	0.000790417	0.00137559	370.588
10	0.00137559	0.00239096	368.004
11	0.00239096	0.00415276	448.22
12	0.00415276	0.00720973	489.346
13	0.00720973	0.012514	267.086
14	0.012514	0.0217177	267.086
15	0.0217177	inf	267.086
