0.000691082	-295849.39	0,4.38744e-05,9.57358e-05,0.000157038,0.0002295,0.000315153,0.000416398,0.000536074,0.000677535,0.000844749,0.0010424,0.00127604,0.0015522,0.00187864,0.00226451,0.00272061,0.00325975,0.00389703,0.00465033,0.00554075,0.00659327,0.00783739,0.009308,0.0110463,0.0131011,0.0155299,0.0184008,0.0217944,0.0258057,0.0305473,inf	422.179,422.179,422.179,422.179,422.179,422.179,422.179,422.179,422.179,422.179,422.179,422.179,422.179,422.179,422.179,422.179,422.179,422.179,422.179,422.179,422.179,422.179,422.179,422.179,422.179,422.179,422.179,422.179,422.179,422.179
0.000775242	-295720.12	0,4.38744e-05,9.57358e-05,0.000157038,0.0002295,0.000315153,0.000416398,0.000536074,0.000677535,0.000844749,0.0010424,0.00127604,0.0015522,0.00187864,0.00226451,0.00272061,0.00325975,0.00389703,0.00465033,0.00554075,0.00659327,0.00783739,0.009308,0.0110463,0.0131011,0.0155299,0.0184008,0.0217944,0.0258057,0.0305473,inf	424.76,424.76,424.76,424.76,424.76,424.76,424.76,424.76,424.76,424.76,424.76,424.76,424.76,424.76,424.76,424.76,424.76,424.76,424.76,424.76,424.76,424.76,424.76,424.76,424.76,424.76,424.76,424.76,424.76,424.76
0.000855483	-295616.51	0,4.38744e-05,9.57358e-05,0.000157038,0.0002295,0.000315153,0.000416398,0.000536074,0.000677535,0.000844749,0.0010424,0.00127604,0.0015522,0.00187864,0.00226451,0.00272061,0.00325975,0.00389703,0.00465033,0.00554075,0.00659327,0.00783739,0.009308,0.0110463,0.0131011,0.0155299,0.0184008,0.0217944,0.0258057,0.0305473,inf	425.334,425.334,425.334,425.334,425.334,425.334,425.334,425.334,425.334,425.334,425.334,425.334,425.334,425.334,425.334,425.334,425.334,425.334,425.334,425.334,425.334,425.334,425.334,425.334,425.334,425.334,425.334,425.334,425.334,425.334
0.00093214	-295531.61	0,4.38744e-05,9.57358e-05,0.000157038,0.0002295,0.000315153,0.000416398,0.000536074,0.000677535,0.000844749,0.0010424,0.00127604,0.0015522,0.00187864,0.00226451,0.00272061,0.00325975,0.00389703,0.00465033,0.00554075,0.00659327,0.00783739,0.009308,0.0110463,0.0131011,0.0155299,0.0184008,0.0217944,0.0258057,0.0305473,inf	425.033,425.033,425.033,425.033,425.033,425.033,425.033,425.033,425.033,425.033,425.033,425.033,425.033,425.033,425.033,425.033,425.033,425.033,425.033,425.033,425.033,425.033,425.033,425.033,425.033,425.033,425.033,425.033,425.033,425.033
0.00100547	-295461.04	0,4.38744e-05,9.57358e-05,0.000157038,0.0002295,0.000315153,0.000416398,0.000536074,0.000677535,0.000844749,0.0010424,0.00127604,0.0015522,0.00187864,0.00226451,0.00272061,0.00325975,0.00389703,0.00465033,0.00554075,0.00659327,0.00783739,0.009308,0.0110463,0.0131011,0.0155299,0.0184008,0.0217944,0.0258057,0.0305473,inf	424.35,424.35,424.35,424.35,424.35,424.35,424.35,424.35,424.35,424.35,424.35,424.35,424.35,424.35,424.35,424.35,424.35,424.35,424.35,424.35,424.35,424.35,424.35,424.35,424.35,424.35,424.35,424.35,424.35,424.35
0.00107567	-295401.76	0,4.38744e-05,9.57358e-05,0.000157038,0.0002295,0.000315153,0.000416398,0.000536074,0.000677535,0.000844749,0.0010424,0.00127604,0.0015522,0.00187864,0.00226451,0.00272061,0.00325975,0.00389703,0.00465033,0.00554075,0.00659327,0.00783739,0.009308,0.0110463,0.0131011,0.0155299,0.0184008,0.0217944,0.0258057,0.0305473,inf	423.509,423.509,423.509,423.509,423.509,423.509,423.509,423.509,423.509,423.509,423.509,423.509,423.509,423.509,423.509,423.509,423.509,423.509,423.509,423.509,423.509,423.509,423.509,423.509,423.509,423.509,423.509,423.509,423.509,423.509
0.00114293	-295351.50	0,4.38744e-05,9.57358e-05,0.000157038,0.0002295,0.000315153,0.000416398,0.000536074,0.000677535,0.000844749,0.0010424,0.00127604,0.0015522,0.00187864,0.00226451,0.00272061,0.00325975,0.00389703,0.00465033,0.00554075,0.00659327,0.00783739,0.009308,0.0110463,0.0131011,0.0155299,0.0184008,0.0217944,0.0258057,0.0305473,inf	422.613,422.613,422.613,422.613,422.613,422.613,422.613,422.613,422.613,422.613,422.613,422.613,422.613,422.613,422.613,422.613,422.613,422.613,422.613,422.613,422.613,422.613,422.613,422.613,422.613,422.613,422.613,422.613,422.613,422.613
0.00120742	-295308.55	0,4.38744e-05,9.57358e-05,0.000157038,0.0002295,0.000315153,0.000416398,0.000536074,0.000677535,0.000844749,0.0010424,0.00127604,0.0015522,0.00187864,0.00226451,0.00272061,0.00325975,0.00389703,0.00465033,0.00554075,0.00659327,0.00783739,0.009308,0.0110463,0.0131011,0.0155299,0.0184008,0.0217944,0.0258057,0.0305473,inf	421.713,421.713,421.713,421.713,421.713,421.713,421.713,421.713,421.713,421.713,421.713,421.713,421.713,421.713,421.713,421.713,421.713,421.713,421.713,421.713,421.713,421.713,421.713,421.713,421.713,421.713,421.713,421.713,421.713,421.713
0.00126928	-295271.61	0,4.38744e-05,9.57358e-05,0.000157038,0.0002295,0.000315153,0.000416398,0.000536074,0.000677535,0.000844749,0.0010424,0.00127604,0.0015522,0.00187864,0.00226451,0.00272061,0.00325975,0.00389703,0.00465033,0.00554075,0.00659327,0.00783739,0.009308,0.0110463,0.0131011,0.0155299,0.0184008,0.0217944,0.0258057,0.0305473,inf	420.832,420.832,420.832,420.832,420.832,420.832,420.832,420.832,420.832,420.832,420.832,420.832,420.832,420.832,420.832,420.832,420.832,420.832,420.832,420.832,420.832,420.832,420.832,420.832,420.832,420.832,420.832,420.832,420.832,420.832
0.00132866	-295239.64	0,4.38744e-05,9.57358e-05,0.000157038,0.0002295,0.000315153,0.000416398,0.000536074,0.000677535,0.000844749,0.0010424,0.00127604,0.0015522,0.00187864,0.00226451,0.00272061,0.00325975,0.00389703,0.00465033,0.00554075,0.00659327,0.00783739,0.009308,0.0110463,0.0131011,0.0155299,0.0184008,0.0217944,0.0258057,0.0305473,inf	419.983,419.983,419.983,419.983,419.983,419.983,419.983,419.983,419.983,419.983,419.983,419.983,419.983,419.983,419.983,419.983,419.983,419.983,419.983,419.983,419.983,419.983,419.983,419.983,419.983,419.983,419.983,419.983,419.983,419.983
0.00138569	-295211.82	0,4.38744e-05,9.57358e-05,0.000157038,0.0002295,0.000315153,0.000416398,0.000536074,0.000677535,0.000844749,0.0010424,0.00127604,0.0015522,0.00187864,0.00226451,0.00272061,0.00325975,0.00389703,0.00465033,0.00554075,0.00659327,0.00783739,0.009308,0.0110463,0.0131011,0.0155299,0.0184008,0.0217944,0.0258057,0.0305473,inf	419.17,419.17,419.17,419.17,419.17,419.17,419.17,419.17,419.17,419.17,419.17,419.17,419.17,419.17,419.17,419.17,419.17,419.17,419.17,419.17,419.17,419.17,419.17,419.17,419.17,419.17,419.17,419.17,419.17,419.17
0.00144051	-295187.51	0,4.38744e-05,9.57358e-05,0.000157038,0.0002295,0.000315153,0.000416398,0.000536074,0.000677535,0.000844749,0.0010424,0.00127604,0.0015522,0.00187864,0.00226451,0.00272061,0.00325975,0.00389703,0.00465033,0.00554075,0.00659327,0.00783739,0.009308,0.0110463,0.0131011,0.0155299,0.0184008,0.0217944,0.0258057,0.0305473,inf	418.394,418.394,418.394,418.394,418.394,418.394,418.394,418.394,418.394,418.394,418.394,418.394,418.394,418.394,418.394,418.394,418.394,418.394,418.394,418.394,418.394,418.394,418.394,418.394,418.394,418.394,418.394,418.394,418.394,418.394
0.00149321	-295166.17	0,4.38744e-05,9.57358e-05,0.000157038,0.0002295,0.000315153,0.000416398,0.000536074,0.000677535,0.000844749,0.0010424,0.00127604,0.0015522,0.00187864,0.00226451,0.00272061,0.00325975,0.00389703,0.00465033,0.00554075,0.00659327,0.00783739,0.009308,0.0110463,0.0131011,0.0155299,0.0184008,0.0217944,0.0258057,0.0305473,inf	417.656,417.656,417.656,417.656,417.656,417.656,417.656,417.656,417.656,417.656,417.656,417.656,417.656,417.656,417.656,417.656,417.656,417.656,417.656,417.656,417.656,417.656,417.656,417.656,417.656,417.656,417.656,417.656,417.656,417.656
0.00154393	-295147.36	0,4.38744e-05,9.57358e-05,0.000157038,0.0002295,0.000315153,0.000416398,0.000536074,0.000677535,0.000844749,0.0010424,0.00127604,0.0015522,0.00187864,0.00226451,0.00272061,0.00325975,0.00389703,0.00465033,0.00554075,0.00659327,0.00783739,0.009308,0.0110463,0.0131011,0.0155299,0.0184008,0.0217944,0.0258057,0.0305473,inf	416.954,416.954,416.954,416.954,416.954,416.954,416.954,416.954,416.954,416.954,416.954,416.954,416.954,416.954,416.954,416.954,416.954,416.954,416.954,416.954,416.954,416.954,416.954,416.954,416.954,416.954,416.954,416.954,416.954,416.954
0.00159275	-295130.74	0,4.38744e-05,9.57358e-05,0.000157038,0.0002295,0.000315153,0.000416398,0.000536074,0.000677535,0.000844749,0.0010424,0.00127604,0.0015522,0.00187864,0.00226451,0.00272061,0.00325975,0.00389703,0.00465033,0.00554075,0.00659327,0.00783739,0.009308,0.0110463,0.0131011,0.0155299,0.0184008,0.0217944,0.0258057,0.0305473,inf	416.288,416.288,416.288,416.288,416.288,416.288,416.288,416.288,416.288,416.288,416.288,416.288,416.288,416.288,416.288,416.288,416.288,416.288,416.288,416.288,416.288,416.288,416.288,416.288,416.288,416.288,416.288,416.288,416.288,416.288
0.00163977	-295115.99	0,4.38744e-05,9.57358e-05,0.000157038,0.0002295,0.000315153,0.000416398,0.000536074,0.000677535,0.000844749,0.0010424,0.00127604,0.0015522,0.00187864,0.00226451,0.00272061,0.00325975,0.00389703,0.00465033,0.00554075,0.00659327,0.00783739,0.009308,0.0110463,0.0131011,0.0155299,0.0184008,0.0217944,0.0258057,0.0305473,inf	415.654,415.654,415.654,415.654,415.654,415.654,415.654,415.654,415.654,415.654,415.654,415.654,415.654,415.654,415.654,415.654,415.654,415.654,415.654,415.654,415.654,415.654,415.654,415.654,415.654,415.654,415.654,415.654,415.654,415.654
0.00168509	-295102.88	0,4.38744e-05,9.57358e-05,0.000157038,0.0002295,0.000315153,0.000416398,0.000536074,0.000677535,0.000844749,0.0010424,0.00127604,0.0015522,0.00187864,0.00226451,0.00272061,0.00325975,0.00389703,0.00465033,0.00554075,0.00659327,0.00783739,0.009308,0.0110463,0.0131011,0.0155299,0.0184008,0.0217944,0.0258057,0.0305473,inf	415.052,415.052,415.052,415.052,415.052,415.052,415.052,415.052,415.052,415.052,415.052,415.052,415.052,415.052,415.052,415.052,415.052,415.052,415.052,415.052,415.052,415.052,415.052,415.052,415.052,415.052,415.052,415.052,415.052,415.052
0.00172878	-295091.19	0,4.38744e-05,9.57358e-05,0.000157038,0.0002295,0.000315153,0.000416398,0.000536074,0.000677535,0.000844749,0.0010424,0.00127604,0.0015522,0.00187864,0.00226451,0.00272061,0.00325975,0.00389703,0.00465033,0.00554075,0.00659327,0.00783739,0.009308,0.0110463,0.0131011,0.0155299,0.0184008,0.0217944,0.0258057,0.0305473,inf	414.478,414.478,414.478,414.478,414.478,414.478,414.478,414.478,414.478,414.478,414.478,414.478,414.478,414.478,414.478,414.478,414.478,414.478,414.478,414.478,414.478,414.478,414.478,414.478,414.478,414.478,414.478,414.478,414.478,414.478
0.00177093	-295080.74	0,4.38744e-05,9.57358e-05,0.000157038,0.0002295,0.000315153,0.000416398,0.000536074,0.000677535,0.000844749,0.0010424,0.00127604,0.0015522,0.00187864,0.00226451,0.00272061,0.00325975,0.00389703,0.00465033,0.00554075,0.00659327,0.00783739,0.009308,0.0110463,0.0131011,0.0155299,0.0184008,0.0217944,0.0258057,0.0305473,inf	413.933,413.933,413.933,413.933,413.933,413.933,413.933,413.933,413.933,413.933,413.933,413.933,413.933,413.933,413.933,413.933,413.933,413.933,413.933,413.933,413.933,413.933,413.933,413.933,413.933,413.933,413.933,413.933,413.933,413.933
0.00181161	-295071.38	0,4.38744e-05,9.57358e-05,0.000157038,0.0002295,0.000315153,0.000416398,0.000536074,0.000677535,0.000844749,0.0010424,0.00127604,0.0015522,0.00187864,0.00226451,0.00272061,0.00325975,0.00389703,0.00465033,0.00554075,0.00659327,0.00783739,0.009308,0.0110463,0.0131011,0.0155299,0.0184008,0.0217944,0.0258057,0.0305473,inf	413.414,413.414,413.414,413.414,413.414,413.414,413.414,413.414,413.414,413.414,413.414,413.414,413.414,413.414,413.414,413.414,413.414,413.414,413.414,413.414,413.414,413.414,413.414,413.414,413.414,413.414,413.414,413.414,413.414,413.414
