time_index	left_time_boundary	right_time_boundary	lambda
0	0	8.8769e-05	300.687
1	8.8769e-05	0.000210233	300.687
2	0.000210233	0.000376434	226.338
3	0.000376434	0.000603849	365.535
4	0.000603849	0.000915024	386.629
5	0.000915024	0.00134081	381.285
6	0.00134081	0.00192342	393.916
7	0.00192342	0.00272061	387.37
8	0.00272061	0.00381142	402.066
9	0.00381142	0.005304	419.808
10	0.005304	0.00734631	406.079
11	0.00734631	0.0101408	494.104
12	0.0101408	0.0139646	703.812
13	0.0139646	0.0191968	58351.7
14	0.0191968	0.026356	58351.7
15	0.026356	inf	58351.7
