0.000722991	-4627031.67	0,4.92505e-06,1.12953e-05,1.95348e-05,3.01922e-05,4.39768e-05,6.18063e-05,8.48678e-05,0.000114696,0.000153278,0.00020318,0.000267726,0.000351213,0.000459197,0.000598868,0.000779525,0.00101319,0.00131543,0.00170635,0.00221198,0.00286599,0.00371191,0.00480605,0.00622126,0.00805174,0.0104194,0.0134817,0.0174427,0.022566,0.0291927,inf	411.501,411.501,411.501,411.501,411.501,411.501,411.501,411.501,411.501,411.501,411.501,411.501,411.501,411.501,411.501,411.501,411.501,411.501,411.501,411.501,411.501,411.501,411.501,411.501,411.501,411.501,411.501,411.501,411.501,411.501
0.000810102	-4625038.11	0,4.92505e-06,1.12953e-05,1.95348e-05,3.01922e-05,4.39768e-05,6.18063e-05,8.48678e-05,0.000114696,0.000153278,0.00020318,0.000267726,0.000351213,0.000459197,0.000598868,0.000779525,0.00101319,0.00131543,0.00170635,0.00221198,0.00286599,0.00371191,0.00480605,0.00622126,0.00805174,0.0104194,0.0134817,0.0174427,0.022566,0.0291927,inf	416.804,416.804,416.804,416.804,416.804,416.804,416.804,416.804,416.804,416.804,416.804,416.804,416.804,416.804,416.804,416.804,416.804,416.804,416.804,416.804,416.804,416.804,416.804,416.804,416.804,416.804,416.804,416.804,416.804,416.804
0.000891896	-4623502.13	0,4.92505e-06,1.12953e-05,1.95348e-05,3.01922e-05,4.39768e-05,6.18063e-05,8.48678e-05,0.000114696,0.000153278,0.00020318,0.000267726,0.000351213,0.000459197,0.000598868,0.000779525,0.00101319,0.00131543,0.00170635,0.00221198,0.00286599,0.00371191,0.00480605,0.00622126,0.00805174,0.0104194,0.0134817,0.0174427,0.022566,0.0291927,inf	418.208,418.208,418.208,418.208,418.208,418.208,418.208,418.208,418.208,418.208,418.208,418.208,418.208,418.208,418.208,418.208,418.208,418.208,418.208,418.208,418.208,418.208,418.208,418.208,418.208,418.208,418.208,418.208,418.208,418.208
0.000969199	-4622259.93	0,4.92505e-06,1.12953e-05,1.95348e-05,3.01922e-05,4.39768e-05,6.18063e-05,8.48678e-05,0.000114696,0.000153278,0.00020318,0.000267726,0.000351213,0.000459197,0.000598868,0.000779525,0.00101319,0.00131543,0.00170635,0.00221198,0.00286599,0.00371191,0.00480605,0.00622126,0.00805174,0.0104194,0.0134817,0.0174427,0.022566,0.0291927,inf	417.952,417.952,417.952,417.952,417.952,417.952,417.952,417.952,417.952,417.952,417.952,417.952,417.952,417.952,417.952,417.952,417.952,417.952,417.952,417.952,417.952,417.952,417.952,417.952,417.952,417.952,417.952,417.952,417.952,417.952
0.00104256	-4621232.87	0,4.92505e-06,1.12953e-05,1.95348e-05,3.01922e-05,4.39768e-05,6.18063e-05,8.48678e-05,0.000114696,0.000153278,0.00020318,0.000267726,0.000351213,0.000459197,0.000598868,0.000779525,0.00101319,0.00131543,0.00170635,0.00221198,0.00286599,0.00371191,0.00480605,0.00622126,0.00805174,0.0104194,0.0134817,0.0174427,0.022566,0.0291927,inf	417.017,417.017,417.017,417.017,417.017,417.017,417.017,417.017,417.017,417.017,417.017,417.017,417.017,417.017,417.017,417.017,417.017,417.017,417.017,417.017,417.017,417.017,417.017,417.017,417.017,417.017,417.017,417.017,417.017,417.017
0.00111236	-4620372.07	0,4.92505e-06,1.12953e-05,1.95348e-05,3.01922e-05,4.39768e-05,6.18063e-05,8.48678e-05,0.000114696,0.000153278,0.00020318,0.000267726,0.000351213,0.000459197,0.000598868,0.000779525,0.00101319,0.00131543,0.00170635,0.00221198,0.00286599,0.00371191,0.00480605,0.00622126,0.00805174,0.0104194,0.0134817,0.0174427,0.022566,0.0291927,inf	415.832,415.832,415.832,415.832,415.832,415.832,415.832,415.832,415.832,415.832,415.832,415.832,415.832,415.832,415.832,415.832,415.832,415.832,415.832,415.832,415.832,415.832,415.832,415.832,415.832,415.832,415.832,415.832,415.832,415.832
0.0011789	-4619643.19	0,4.92505e-06,1.12953e-05,1.95348e-05,3.01922e-05,4.39768e-05,6.18063e-05,8.48678e-05,0.000114696,0.000153278,0.00020318,0.000267726,0.000351213,0.000459197,0.000598868,0.000779525,0.00101319,0.00131543,0.00170635,0.00221198,0.00286599,0.00371191,0.00480605,0.00622126,0.00805174,0.0104194,0.0134817,0.0174427,0.022566,0.0291927,inf	414.588,414.588,414.588,414.588,414.588,414.588,414.588,414.588,414.588,414.588,414.588,414.588,414.588,414.588,414.588,414.588,414.588,414.588,414.588,414.588,414.588,414.588,414.588,414.588,414.588,414.588,414.588,414.588,414.588,414.588
0.0012424	-4619020.75	0,4.92505e-06,1.12953e-05,1.95348e-05,3.01922e-05,4.39768e-05,6.18063e-05,8.48678e-05,0.000114696,0.000153278,0.00020318,0.000267726,0.000351213,0.000459197,0.000598868,0.000779525,0.00101319,0.00131543,0.00170635,0.00221198,0.00286599,0.00371191,0.00480605,0.00622126,0.00805174,0.0104194,0.0134817,0.0174427,0.022566,0.0291927,inf	413.365,413.365,413.365,413.365,413.365,413.365,413.365,413.365,413.365,413.365,413.365,413.365,413.365,413.365,413.365,413.365,413.365,413.365,413.365,413.365,413.365,413.365,413.365,413.365,413.365,413.365,413.365,413.365,413.365,413.365
0.00130308	-4618485.31	0,4.92505e-06,1.12953e-05,1.95348e-05,3.01922e-05,4.39768e-05,6.18063e-05,8.48678e-05,0.000114696,0.000153278,0.00020318,0.000267726,0.000351213,0.000459197,0.000598868,0.000779525,0.00101319,0.00131543,0.00170635,0.00221198,0.00286599,0.00371191,0.00480605,0.00622126,0.00805174,0.0104194,0.0134817,0.0174427,0.022566,0.0291927,inf	412.198,412.198,412.198,412.198,412.198,412.198,412.198,412.198,412.198,412.198,412.198,412.198,412.198,412.198,412.198,412.198,412.198,412.198,412.198,412.198,412.198,412.198,412.198,412.198,412.198,412.198,412.198,412.198,412.198,412.198
0.0013611	-4618021.76	0,4.92505e-06,1.12953e-05,1.95348e-05,3.01922e-05,4.39768e-05,6.18063e-05,8.48678e-05,0.000114696,0.000153278,0.00020318,0.000267726,0.000351213,0.000459197,0.000598868,0.000779525,0.00101319,0.00131543,0.00170635,0.00221198,0.00286599,0.00371191,0.00480605,0.00622126,0.00805174,0.0104194,0.0134817,0.0174427,0.022566,0.0291927,inf	411.099,411.099,411.099,411.099,411.099,411.099,411.099,411.099,411.099,411.099,411.099,411.099,411.099,411.099,411.099,411.099,411.099,411.099,411.099,411.099,411.099,411.099,411.099,411.099,411.099,411.099,411.099,411.099,411.099,411.099
0.00141663	-4617618.14	0,4.92505e-06,1.12953e-05,1.95348e-05,3.01922e-05,4.39768e-05,6.18063e-05,8.48678e-05,0.000114696,0.000153278,0.00020318,0.000267726,0.000351213,0.000459197,0.000598868,0.000779525,0.00101319,0.00131543,0.00170635,0.00221198,0.00286599,0.00371191,0.00480605,0.00622126,0.00805174,0.0104194,0.0134817,0.0174427,0.022566,0.0291927,inf	410.069,410.069,410.069,410.069,410.069,410.069,410.069,410.069,410.069,410.069,410.069,410.069,410.069,410.069,410.069,410.069,410.069,410.069,410.069,410.069,410.069,410.069,410.069,410.069,410.069,410.069,410.069,410.069,410.069,410.069
0.00146981	-4617264.94	0,4.92505e-06,1.12953e-05,1.95348e-05,3.01922e-05,4.39768e-05,6.18063e-05,8.48678e-05,0.000114696,0.000153278,0.00020318,0.000267726,0.000351213,0.000459197,0.000598868,0.000779525,0.00101319,0.00131543,0.00170635,0.00221198,0.00286599,0.00371191,0.00480605,0.00622126,0.00805174,0.0104194,0.0134817,0.0174427,0.022566,0.0291927,inf	409.106,409.106,409.106,409.106,409.106,409.106,409.106,409.106,409.106,409.106,409.106,409.106,409.106,409.106,409.106,409.106,409.106,409.106,409.106,409.106,409.106,409.106,409.106,409.106,409.106,409.106,409.106,409.106,409.106,409.106
0.00152078	-4616954.45	0,4.92505e-06,1.12953e-05,1.95348e-05,3.01922e-05,4.39768e-05,6.18063e-05,8.48678e-05,0.000114696,0.000153278,0.00020318,0.000267726,0.000351213,0.000459197,0.000598868,0.000779525,0.00101319,0.00131543,0.00170635,0.00221198,0.00286599,0.00371191,0.00480605,0.00622126,0.00805174,0.0104194,0.0134817,0.0174427,0.022566,0.0291927,inf	408.206,408.206,408.206,408.206,408.206,408.206,408.206,408.206,408.206,408.206,408.206,408.206,408.206,408.206,408.206,408.206,408.206,408.206,408.206,408.206,408.206,408.206,408.206,408.206,408.206,408.206,408.206,408.206,408.206,408.206
0.00156967	-4616680.38	0,4.92505e-06,1.12953e-05,1.95348e-05,3.01922e-05,4.39768e-05,6.18063e-05,8.48678e-05,0.000114696,0.000153278,0.00020318,0.000267726,0.000351213,0.000459197,0.000598868,0.000779525,0.00101319,0.00131543,0.00170635,0.00221198,0.00286599,0.00371191,0.00480605,0.00622126,0.00805174,0.0104194,0.0134817,0.0174427,0.022566,0.0291927,inf	407.363,407.363,407.363,407.363,407.363,407.363,407.363,407.363,407.363,407.363,407.363,407.363,407.363,407.363,407.363,407.363,407.363,407.363,407.363,407.363,407.363,407.363,407.363,407.363,407.363,407.363,407.363,407.363,407.363,407.363
0.00161658	-4616437.56	0,4.92505e-06,1.12953e-05,1.95348e-05,3.01922e-05,4.39768e-05,6.18063e-05,8.48678e-05,0.000114696,0.000153278,0.00020318,0.000267726,0.000351213,0.000459197,0.000598868,0.000779525,0.00101319,0.00131543,0.00170635,0.00221198,0.00286599,0.00371191,0.00480605,0.00622126,0.00805174,0.0104194,0.0134817,0.0174427,0.022566,0.0291927,inf	406.574,406.574,406.574,406.574,406.574,406.574,406.574,406.574,406.574,406.574,406.574,406.574,406.574,406.574,406.574,406.574,406.574,406.574,406.574,406.574,406.574,406.574,406.574,406.574,406.574,406.574,406.574,406.574,406.574,406.574
0.00166162	-4616221.69	0,4.92505e-06,1.12953e-05,1.95348e-05,3.01922e-05,4.39768e-05,6.18063e-05,8.48678e-05,0.000114696,0.000153278,0.00020318,0.000267726,0.000351213,0.000459197,0.000598868,0.000779525,0.00101319,0.00131543,0.00170635,0.00221198,0.00286599,0.00371191,0.00480605,0.00622126,0.00805174,0.0104194,0.0134817,0.0174427,0.022566,0.0291927,inf	405.833,405.833,405.833,405.833,405.833,405.833,405.833,405.833,405.833,405.833,405.833,405.833,405.833,405.833,405.833,405.833,405.833,405.833,405.833,405.833,405.833,405.833,405.833,405.833,405.833,405.833,405.833,405.833,405.833,405.833
0.0017049	-4616029.21	0,4.92505e-06,1.12953e-05,1.95348e-05,3.01922e-05,4.39768e-05,6.18063e-05,8.48678e-05,0.000114696,0.000153278,0.00020318,0.000267726,0.000351213,0.000459197,0.000598868,0.000779525,0.00101319,0.00131543,0.00170635,0.00221198,0.00286599,0.00371191,0.00480605,0.00622126,0.00805174,0.0104194,0.0134817,0.0174427,0.022566,0.0291927,inf	405.137,405.137,405.137,405.137,405.137,405.137,405.137,405.137,405.137,405.137,405.137,405.137,405.137,405.137,405.137,405.137,405.137,405.137,405.137,405.137,405.137,405.137,405.137,405.137,405.137,405.137,405.137,405.137,405.137,405.137
0.0017465	-4615857.08	0,4.92505e-06,1.12953e-05,1.95348e-05,3.01922e-05,4.39768e-05,6.18063e-05,8.48678e-05,0.000114696,0.000153278,0.00020318,0.000267726,0.000351213,0.000459197,0.000598868,0.000779525,0.00101319,0.00131543,0.00170635,0.00221198,0.00286599,0.00371191,0.00480605,0.00622126,0.00805174,0.0104194,0.0134817,0.0174427,0.022566,0.0291927,inf	404.482,404.482,404.482,404.482,404.482,404.482,404.482,404.482,404.482,404.482,404.482,404.482,404.482,404.482,404.482,404.482,404.482,404.482,404.482,404.482,404.482,404.482,404.482,404.482,404.482,404.482,404.482,404.482,404.482,404.482
0.00178651	-4615702.77	0,4.92505e-06,1.12953e-05,1.95348e-05,3.01922e-05,4.39768e-05,6.18063e-05,8.48678e-05,0.000114696,0.000153278,0.00020318,0.000267726,0.000351213,0.000459197,0.000598868,0.000779525,0.00101319,0.00131543,0.00170635,0.00221198,0.00286599,0.00371191,0.00480605,0.00622126,0.00805174,0.0104194,0.0134817,0.0174427,0.022566,0.0291927,inf	403.865,403.865,403.865,403.865,403.865,403.865,403.865,403.865,403.865,403.865,403.865,403.865,403.865,403.865,403.865,403.865,403.865,403.865,403.865,403.865,403.865,403.865,403.865,403.865,403.865,403.865,403.865,403.865,403.865,403.865
0.00182501	-4615564.09	0,4.92505e-06,1.12953e-05,1.95348e-05,3.01922e-05,4.39768e-05,6.18063e-05,8.48678e-05,0.000114696,0.000153278,0.00020318,0.000267726,0.000351213,0.000459197,0.000598868,0.000779525,0.00101319,0.00131543,0.00170635,0.00221198,0.00286599,0.00371191,0.00480605,0.00622126,0.00805174,0.0104194,0.0134817,0.0174427,0.022566,0.0291927,inf	403.283,403.283,403.283,403.283,403.283,403.283,403.283,403.283,403.283,403.283,403.283,403.283,403.283,403.283,403.283,403.283,403.283,403.283,403.283,403.283,403.283,403.283,403.283,403.283,403.283,403.283,403.283,403.283,403.283,403.283
