AIC = 3110406.477632151451

y0 0.64389063039486005291
y0_prime 0
y1 0.87522919313495395333
y1_prime 0
y2 1.0978849507519647943
y2_prime 0
y3 2.0022413884632030978
y3_prime 0
rho 0.0016916497112139051908
theta 0.0050847757628048649917
