0.00022335	-133791.58	0,3.4048e-05,8.06364e-05,0.000144384,0.000231611,0.000350965,0.000514278,0.000737742,0.00104351,0.0014619,0.00203439,0.00281773,0.00388959,0.00535624,0.00736307,0.010109,inf	460.073,460.073,426.923,525.797,669.732,888.844,1179.17,1459.03,1531.64,1445.48,1418.94,1413.13,1450.28,1516.74,1516.74,1516.74
0.000218627	-133603.88	0,3.4048e-05,8.06364e-05,0.000144384,0.000231611,0.000350965,0.000514278,0.000737742,0.00104351,0.0014619,0.00203439,0.00281773,0.00388959,0.00535624,0.00736307,0.010109,inf	410.303,410.303,278.855,363.127,501.073,759.312,1163.18,1659.75,1856.38,1724.03,1754.71,1842.25,2145.22,2664.64,2664.64,2664.64
0.000213341	-133541.81	0,3.4048e-05,8.06364e-05,0.000144384,0.000231611,0.000350965,0.000514278,0.000737742,0.00104351,0.0014619,0.00203439,0.00281773,0.00388959,0.00535624,0.00736307,0.010109,inf	449.653,449.653,228.247,304.323,417.632,673.976,1122.78,1762.61,2079.85,1913.96,2087.67,2489.07,4326.06,10050.2,10050.2,10050.2
0.000207762	-133515.83	0,3.4048e-05,8.06364e-05,0.000144384,0.000231611,0.000350965,0.000514278,0.000737742,0.00104351,0.0014619,0.00203439,0.00281773,0.00388959,0.00535624,0.00736307,0.010109,inf	500.368,500.368,204.823,284.762,373.32,617.185,1082.37,1816.58,2236.91,2030.89,2425.65,3799.59,26118.6,143299,143299,143299
0.000201538	-133502.99	0,3.4048e-05,8.06364e-05,0.000144384,0.000231611,0.000350965,0.000514278,0.000737742,0.00104351,0.0014619,0.00203439,0.00281773,0.00388959,0.00535624,0.00736307,0.010109,inf	542.325,542.325,190.498,282.795,348.937,578.167,1048.59,1845.33,2349.13,2090.22,2776.12,8501.35,470747,1117.21,1117.21,1117.21
0.000195286	-133495.64	0,3.4048e-05,8.06364e-05,0.000144384,0.000231611,0.000350965,0.000514278,0.000737742,0.00104351,0.0014619,0.00203439,0.00281773,0.00388959,0.00535624,0.00736307,0.010109,inf	574.415,574.415,179.791,289.612,335.63,550.827,1021.54,1861.26,2433.71,2106.73,3147.82,33638.9,470747,181.078,181.078,181.078
0.000189177	-133490.97	0,3.4048e-05,8.06364e-05,0.000144384,0.000231611,0.000350965,0.000514278,0.000737742,0.00104351,0.0014619,0.00203439,0.00281773,0.00388959,0.00535624,0.00736307,0.010109,inf	599.055,599.055,170.546,300.648,328.625,531.132,999.949,1871.51,2501.52,2094.09,3571.42,569161,3670.1,3637.05,3637.05,3637.05
0.000183287	-133487.47	0,3.4048e-05,8.06364e-05,0.000144384,0.000231611,0.000350965,0.000514278,0.000737742,0.00104351,0.0014619,0.00203439,0.00281773,0.00388959,0.00535624,0.00736307,0.010109,inf	619.042,619.042,161.929,313.295,325.23,516.534,982.741,1878.28,2558.53,2061.09,4078.45,676577,136.48,138.161,138.161,138.161
