0.000560246	-17952786.72	0,2.21175e-05,5.59557e-05,0.000107726,0.00018693,0.000308106,0.000493497,0.000777131,0.00121107,0.00187496,0.00289067,0.00444463,0.00682207,0.0104594,0.0160242,0.0245379,inf	323.324,323.324,350.521,386.651,397.832,404.589,409.305,405.929,403.231,399.43,394.974,382.23,378.054,362.073,362.073,362.073
0.000506605	-17948874.81	0,2.21175e-05,5.59557e-05,0.000107726,0.00018693,0.000308106,0.000493497,0.000777131,0.00121107,0.00187496,0.00289067,0.00444463,0.00682207,0.0104594,0.0160242,0.0245379,inf	312.228,312.228,335.464,387.68,399.258,406.463,414.641,408.817,406.052,401.624,396.05,372.657,366.643,339.851,339.851,339.851
0.000462518	-17945992.21	0,2.21175e-05,5.59557e-05,0.000107726,0.00018693,0.000308106,0.000493497,0.000777131,0.00121107,0.00187496,0.00289067,0.00444463,0.00682207,0.0104594,0.0160242,0.0245379,inf	317.206,317.206,331.401,393.579,401.916,406.514,417.233,408.977,407.143,403.7,399.397,366.897,360.938,325.669,325.669,325.669
0.000426403	-17943831.48	0,2.21175e-05,5.59557e-05,0.000107726,0.00018693,0.000308106,0.000493497,0.000777131,0.00121107,0.00187496,0.00289067,0.00444463,0.00682207,0.0104594,0.0160242,0.0245379,inf	325.743,325.743,331.355,401.299,405.544,406.109,418.78,407.763,406.944,404.956,403.397,362.946,358.586,316.107,316.107,316.107
0.000397045	-17942237.67	0,2.21175e-05,5.59557e-05,0.000107726,0.00018693,0.000308106,0.000493497,0.000777131,0.00121107,0.00187496,0.00289067,0.00444463,0.00682207,0.0104594,0.0160242,0.0245379,inf	334.142,334.142,332.692,409.268,409.711,405.717,420.099,406.057,406.029,405.337,407.29,359.77,358.192,309.309,309.309,309.309
0.000373399	-17941093.79	0,2.21175e-05,5.59557e-05,0.000107726,0.00018693,0.000308106,0.000493497,0.000777131,0.00121107,0.00187496,0.00289067,0.00444463,0.00682207,0.0104594,0.0160242,0.0245379,inf	341.46,341.46,334.405,416.681,414.007,405.395,421.465,404.314,404.845,405.03,410.786,356.891,358.919,304.216,304.216,304.216
0.000354522	-17940296.79	0,2.21175e-05,5.59557e-05,0.000107726,0.00018693,0.000308106,0.000493497,0.000777131,0.00121107,0.00187496,0.00289067,0.00444463,0.00682207,0.0104594,0.0160242,0.0245379,inf	347.563,347.563,336.099,423.162,418.139,405.076,422.911,402.718,403.672,404.263,413.832,354.133,360.264,300.212,300.212,300.212
0.000339576	-17939756.91	0,2.21175e-05,5.59557e-05,0.000107726,0.00018693,0.000308106,0.000493497,0.000777131,0.00121107,0.00187496,0.00289067,0.00444463,0.00682207,0.0104594,0.0160242,0.0245379,inf	352.558,352.558,337.644,428.601,421.946,404.696,424.385,401.319,402.658,403.228,416.47,351.463,361.924,296.934,296.934,296.934
0.000327824	-17939400.36	0,2.21175e-05,5.59557e-05,0.000107726,0.00018693,0.000308106,0.000493497,0.000777131,0.00121107,0.00187496,0.00289067,0.00444463,0.00682207,0.0104594,0.0160242,0.0245379,inf	356.621,356.621,338.999,433.024,425.355,404.223,425.83,400.105,401.863,402.062,418.771,348.905,363.716,294.172,294.172,294.172
0.000318638	-17939170.09	0,2.21175e-05,5.59557e-05,0.000107726,0.00018693,0.000308106,0.000493497,0.000777131,0.00121107,0.00187496,0.00289067,0.00444463,0.00682207,0.0104594,0.0160242,0.0245379,inf	359.878,359.878,340.159,436.531,428.361,403.653,427.207,399.049,401.295,400.851,420.801,346.494,365.525,291.799,291.799,291.799
0.000311492	-17939024.27	0,2.21175e-05,5.59557e-05,0.000107726,0.00018693,0.000308106,0.000493497,0.000777131,0.00121107,0.00187496,0.00289067,0.00444463,0.00682207,0.0104594,0.0160242,0.0245379,inf	362.452,362.452,341.148,439.25,430.987,402.999,428.491,398.118,400.94,399.65,422.616,344.256,367.285,289.74,289.74,289.74
0.000305954	-17938933.56	0,2.21175e-05,5.59557e-05,0.000107726,0.00018693,0.000308106,0.000493497,0.000777131,0.00121107,0.00187496,0.00289067,0.00444463,0.00682207,0.0104594,0.0160242,0.0245379,inf	364.477,364.477,341.978,441.311,433.271,402.285,429.674,397.288,400.769,398.487,424.252,342.207,368.954,287.944,287.944,287.944
0.000301676	-17938878.12	0,2.21175e-05,5.59557e-05,0.000107726,0.00018693,0.000308106,0.000493497,0.000777131,0.00121107,0.00187496,0.00289067,0.00444463,0.00682207,0.0104594,0.0160242,0.0245379,inf	366.053,366.053,342.683,442.835,435.257,401.532,430.759,396.537,400.752,397.377,425.739,340.348,370.508,286.375,286.375,286.375
0.00029838	-17938844.90	0,2.21175e-05,5.59557e-05,0.000107726,0.00018693,0.000308106,0.000493497,0.000777131,0.00121107,0.00187496,0.00289067,0.00444463,0.00682207,0.0104594,0.0160242,0.0245379,inf	367.263,367.263,343.273,443.932,436.985,400.761,431.75,395.848,400.861,396.326,427.096,338.677,371.937,285.005,285.005,285.005
0.000295853	-17938825.50	0,2.21175e-05,5.59557e-05,0.000107726,0.00018693,0.000308106,0.000493497,0.000777131,0.00121107,0.00187496,0.00289067,0.00444463,0.00682207,0.0104594,0.0160242,0.0245379,inf	368.396,368.396,343.971,444.934,438.717,400.17,432.814,395.303,401.113,395.333,428.367,337.203,373.274,283.835,283.835,283.835
0.000293907	-17938814.29	0,2.21175e-05,5.59557e-05,0.000107726,0.00018693,0.000308106,0.000493497,0.000777131,0.00121107,0.00187496,0.00289067,0.00444463,0.00682207,0.0104594,0.0160242,0.0245379,inf	369.056,369.056,344.376,445.414,440.032,399.411,433.65,394.708,401.395,394.385,429.51,335.87,374.457,282.8,282.8,282.8
0.000292413	-17938808.48	0,2.21175e-05,5.59557e-05,0.000107726,0.00018693,0.000308106,0.000493497,0.000777131,0.00121107,0.00187496,0.00289067,0.00444463,0.00682207,0.0104594,0.0160242,0.0245379,inf	369.534,369.534,344.706,445.664,441.156,398.639,434.387,394.129,401.729,393.499,430.551,334.679,375.51,281.894,281.894,281.894
0.000291269	-17938805.87	0,2.21175e-05,5.59557e-05,0.000107726,0.00018693,0.000308106,0.000493497,0.000777131,0.00121107,0.00187496,0.00289067,0.00444463,0.00682207,0.0104594,0.0160242,0.0245379,inf	369.884,369.884,344.996,445.771,442.148,397.895,435.064,393.578,402.104,392.673,431.503,333.622,376.447,281.106,281.106,281.106
0.000290394	-17938805.12	0,2.21175e-05,5.59557e-05,0.000107726,0.00018693,0.000308106,0.000493497,0.000777131,0.00121107,0.00187496,0.00289067,0.00444463,0.00682207,0.0104594,0.0160242,0.0245379,inf	370.137,370.137,345.251,445.774,443.038,397.188,435.692,393.053,402.508,391.902,432.374,332.683,377.28,280.423,280.423,280.423
0.000289725	-17938805.44	0,2.21175e-05,5.59557e-05,0.000107726,0.00018693,0.000308106,0.000493497,0.000777131,0.00121107,0.00187496,0.00289067,0.00444463,0.00682207,0.0104594,0.0160242,0.0245379,inf	370.316,370.316,345.477,445.707,443.835,396.52,436.279,392.551,402.929,391.182,433.17,331.852,378.018,279.831,279.831,279.831
