0.000558067	-44900751.76	0,1.03589e-05,2.71406e-05,5.43274e-05,9.8371e-05,0.000169723,0.000285316,0.000472579,0.000775952,0.00126743,0.00206363,0.0033535,0.00544314,0.00882841,0.0143127,0.0231973,inf	299.202,299.202,372.592,349.887,369.877,390.335,402.444,408.181,404.978,401.342,398.015,390.581,373.815,378.884,378.884,378.884
0.000502942	-44890513.92	0,1.03589e-05,2.71406e-05,5.43274e-05,9.8371e-05,0.000169723,0.000285316,0.000472579,0.000775952,0.00126743,0.00206363,0.0033535,0.00544314,0.00882841,0.0143127,0.0231973,inf	272.851,272.851,394.771,337.98,361.175,388.265,404.218,413.15,407.711,403.382,400.5,389.447,357.873,369.307,369.307,369.307
0.000458124	-44883060.46	0,1.03589e-05,2.71406e-05,5.43274e-05,9.8371e-05,0.000169723,0.000285316,0.000472579,0.000775952,0.00126743,0.00206363,0.0033535,0.00544314,0.00882841,0.0143127,0.0231973,inf	259.813,259.813,426.645,337.586,360.402,389.075,405.017,415.5,407.902,403.962,403.469,391.843,346.956,365.477,365.477,365.477
0.000421815	-44877571.54	0,1.03589e-05,2.71406e-05,5.43274e-05,9.8371e-05,0.000169723,0.000285316,0.000472579,0.000775952,0.00126743,0.00206363,0.0033535,0.00544314,0.00882841,0.0143127,0.0231973,inf	249.517,249.517,457.656,340.989,363.098,391.527,405.756,416.806,406.84,403.345,405.742,395.723,338.878,364.883,364.883,364.883
0.000392646	-44873613.65	0,1.03589e-05,2.71406e-05,5.43274e-05,9.8371e-05,0.000169723,0.000285316,0.000472579,0.000775952,0.00126743,0.00206363,0.0033535,0.00544314,0.00882841,0.0143127,0.0231973,inf	240.423,240.423,484.734,345.342,367.111,394.733,406.666,417.82,405.388,402.073,407.027,399.991,332.5,366.08,366.08,366.08
0.000369441	-44870847.30	0,1.03589e-05,2.71406e-05,5.43274e-05,9.8371e-05,0.000169723,0.000285316,0.000472579,0.000775952,0.00126743,0.00206363,0.0033535,0.00544314,0.00882841,0.0143127,0.0231973,inf	232.616,232.616,507.373,349.568,371.363,398.087,407.681,418.781,403.978,400.606,407.425,404.097,327.242,368.194,368.194,368.194
0.000351153	-44868975.83	0,1.03589e-05,2.71406e-05,5.43274e-05,9.8371e-05,0.000169723,0.000285316,0.000472579,0.000775952,0.00126743,0.00206363,0.0033535,0.00544314,0.00882841,0.0143127,0.0231973,inf	226.169,226.169,525.892,353.287,375.334,401.235,408.678,419.711,402.762,399.231,407.166,407.798,322.809,370.691,370.691,370.691
0.00033686	-44867748.04	0,1.03589e-05,2.71406e-05,5.43274e-05,9.8371e-05,0.000169723,0.000285316,0.000472579,0.000775952,0.00126743,0.00206363,0.0033535,0.00544314,0.00882841,0.0143127,0.0231973,inf	221.026,221.026,540.823,356.404,378.805,404.009,409.57,420.573,401.76,398.093,406.484,411.016,319.045,373.245,373.245,373.245
0.000325768	-44866964.52	0,1.03589e-05,2.71406e-05,5.43274e-05,9.8371e-05,0.000169723,0.000285316,0.000472579,0.000775952,0.00126743,0.00206363,0.0033535,0.00544314,0.00882841,0.0143127,0.0231973,inf	217.004,217.004,552.727,358.941,381.73,406.362,410.32,421.337,400.94,397.237,405.569,413.758,315.855,375.668,375.668,375.668
0.00031721	-44866476.63	0,1.03589e-05,2.71406e-05,5.43274e-05,9.8371e-05,0.000169723,0.000285316,0.000472579,0.000775952,0.00126743,0.00206363,0.0033535,0.00544314,0.00882841,0.0143127,0.0231973,inf	213.894,213.894,562.13,360.962,384.124,408.306,410.924,421.989,400.258,396.654,404.553,416.068,313.165,377.863,377.863,377.863
0.000310638	-44866179.45	0,1.03589e-05,2.71406e-05,5.43274e-05,9.8371e-05,0.000169723,0.000285316,0.000472579,0.000775952,0.00126743,0.00206363,0.0033535,0.00544314,0.00882841,0.0143127,0.0231973,inf	211.522,211.522,569.503,362.549,386.048,409.886,411.394,422.536,399.676,396.306,403.527,418.002,310.914,379.791,379.791,379.791
0.00030561	-44866002.13	0,1.03589e-05,2.71406e-05,5.43274e-05,9.8371e-05,0.000169723,0.000285316,0.000472579,0.000775952,0.00126743,0.00206363,0.0033535,0.00544314,0.00882841,0.0143127,0.0231973,inf	209.7,209.7,575.232,363.772,387.569,411.151,411.752,422.992,399.167,396.15,402.541,419.617,309.041,381.446,381.446,381.446
0.000301774	-44865898.53	0,1.03589e-05,2.71406e-05,5.43274e-05,9.8371e-05,0.000169723,0.000285316,0.000472579,0.000775952,0.00126743,0.00206363,0.0033535,0.00544314,0.00882841,0.0143127,0.0231973,inf	208.317,208.317,579.672,364.713,388.758,412.159,412.02,423.373,398.71,396.139,401.626,420.963,307.491,382.845,382.845,382.845
0.000298862	-44865839.44	0,1.03589e-05,2.71406e-05,5.43274e-05,9.8371e-05,0.000169723,0.000285316,0.000472579,0.000775952,0.00126743,0.00206363,0.0033535,0.00544314,0.00882841,0.0143127,0.0231973,inf	207.398,207.398,583.443,365.646,389.908,413.184,412.415,423.856,398.379,396.254,400.783,422.136,306.251,384.046,384.046,384.046
0.000296644	-44865806.17	0,1.03589e-05,2.71406e-05,5.43274e-05,9.8371e-05,0.000169723,0.000285316,0.000472579,0.000775952,0.00126743,0.00206363,0.0033535,0.00544314,0.00882841,0.0143127,0.0231973,inf	206.561,206.561,586.003,366.152,390.594,413.804,412.551,424.141,397.996,396.416,400.02,423.086,305.208,385.017,385.017,385.017
0.000294958	-44865788.80	0,1.03589e-05,2.71406e-05,5.43274e-05,9.8371e-05,0.000169723,0.000285316,0.000472579,0.000775952,0.00126743,0.00206363,0.0033535,0.00544314,0.00882841,0.0143127,0.0231973,inf	205.927,205.927,587.944,366.514,391.082,414.251,412.605,424.363,397.624,396.627,399.346,423.87,304.343,385.806,385.806,385.806
0.000293681	-44865780.49	0,1.03589e-05,2.71406e-05,5.43274e-05,9.8371e-05,0.000169723,0.000285316,0.000472579,0.000775952,0.00126743,0.00206363,0.0033535,0.00544314,0.00882841,0.0143127,0.0231973,inf	205.449,205.449,589.423,366.783,391.448,414.596,412.623,424.557,397.276,396.87,398.756,424.521,303.632,386.447,386.447,386.447
0.000292713	-44865777.23	0,1.03589e-05,2.71406e-05,5.43274e-05,9.8371e-05,0.000169723,0.000285316,0.000472579,0.000775952,0.00126743,0.00206363,0.0033535,0.00544314,0.00882841,0.0143127,0.0231973,inf	205.091,205.091,590.555,366.982,391.725,414.867,412.618,424.737,396.95,397.127,398.24,425.066,303.049,386.969,386.969,386.969
0.000291981	-44865776.67	0,1.03589e-05,2.71406e-05,5.43274e-05,9.8371e-05,0.000169723,0.000285316,0.000472579,0.000775952,0.00126743,0.00206363,0.0033535,0.00544314,0.00882841,0.0143127,0.0231973,inf	204.816,204.816,591.417,367.132,391.933,415.082,412.597,424.908,396.647,397.386,397.789,425.522,302.572,387.393,387.393,387.393
0.000291466	-44865777.50	0,1.03589e-05,2.71406e-05,5.43274e-05,9.8371e-05,0.000169723,0.000285316,0.000472579,0.000775952,0.00126743,0.00206363,0.0033535,0.00544314,0.00882841,0.0143127,0.0231973,inf	204.649,204.649,592.242,367.348,392.209,415.406,412.725,425.284,396.565,397.87,397.645,426.097,302.298,387.824,387.824,387.824
