time_index	left_time_boundary	right_time_boundary	lambda
0	0	1.62403e-06	11304.7
1	1.62403e-06	3.76328e-06	11304.7
2	3.76328e-06	6.58121e-06	3044.77
3	6.58121e-06	1.02931e-05	1807.15
4	1.02931e-05	1.51826e-05	531.347
5	1.51826e-05	2.16233e-05	204.318
6	2.16233e-05	3.01073e-05	161.655
7	3.01073e-05	4.12829e-05	155.032
8	4.12829e-05	5.60038e-05	228.499
9	5.60038e-05	7.5395e-05	339.6
10	7.5395e-05	0.000100938	436.738
11	0.000100938	0.000134584	458.861
12	0.000134584	0.000178905	438.867
13	0.000178905	0.000237287	413.373
14	0.000237287	0.00031419	376.966
15	0.00031419	0.00041549	356.194
16	0.00041549	0.000548928	360.303
17	0.000548928	0.000724698	384.824
18	0.000724698	0.000956232	391.902
19	0.000956232	0.00126122	382.665
20	0.00126122	0.00166296	375.375
21	0.00166296	0.00219216	382.13
22	0.00219216	0.00288924	392.825
23	0.00288924	0.00380748	410.715
24	0.00380748	0.00501702	419.475
25	0.00501702	0.00661028	390.871
26	0.00661028	0.00870901	342.919
27	0.00870901	0.0114736	366.584
28	0.0114736	0.0151151	366.584
29	0.0151151	0.019912	64783.7
30	0.019912	0.0262307	64783.7
31	0.0262307	inf	64783.7
