0.000670447	-300934.79	0,4.21025e-05,9.13519e-05,0.000148961,0.00021635,0.000295178,0.000387387,0.000495248,0.000621419,0.000769007,0.000941649,0.0011436,0.00137982,0.00165615,0.00197939,0.00235749,0.00279977,0.00331714,0.00392233,0.00463024,0.00545833,0.00642698,0.00756006,0.00888549,0.0104359,0.0122495,0.0143709,0.0168525,0.0197553,0.0231509,0.0271229,0.0317691,inf	775.25,775.25,470.126,413.812,398.808,387.966,381.492,381.014,385.05,387.414,386.312,385.312,387.337,392.474,399.091,405.285,409.544,410.961,409.752,406.708,402.755,399.845,400.185,403.012,403.439,398.394,390.467,389.939,389.939,447.865,447.865,447.865
0.000717102	-300884.92	0,4.21025e-05,9.13519e-05,0.000148961,0.00021635,0.000295178,0.000387387,0.000495248,0.000621419,0.000769007,0.000941649,0.0011436,0.00137982,0.00165615,0.00197939,0.00235749,0.00279977,0.00331714,0.00392233,0.00463024,0.00545833,0.00642698,0.00756006,0.00888549,0.0104359,0.0122495,0.0143709,0.0168525,0.0197553,0.0231509,0.0271229,0.0317691,inf	962.645,962.645,465.598,405.41,392.9,379.553,371.208,372.42,380.628,384.365,380.964,377.681,379.934,387.829,398.517,408.65,415.502,417.423,414.77,408.913,401.548,396.293,397.153,402.624,403.482,394.013,379.47,379.453,379.453,496.886,496.886,496.886
0.000760006	-300848.05	0,4.21025e-05,9.13519e-05,0.000148961,0.00021635,0.000295178,0.000387387,0.000495248,0.000621419,0.000769007,0.000941649,0.0011436,0.00137982,0.00165615,0.00197939,0.00235749,0.00279977,0.00331714,0.00392233,0.00463024,0.00545833,0.00642698,0.00756006,0.00888549,0.0104359,0.0122495,0.0143709,0.0168525,0.0197553,0.0231509,0.0271229,0.0317691,inf	1037.81,1037.81,442.107,395.501,389.926,375.802,366.404,369.609,381.61,385.983,379.701,373.702,375.505,385.125,398.696,411.683,420.34,422.403,418.35,410.007,399.744,392.626,394.147,402.096,403.387,390.016,369.908,371.162,371.162,552.49,552.49,552.49
0.000799465	-300818.79	0,4.21025e-05,9.13519e-05,0.000148961,0.00021635,0.000295178,0.000387387,0.000495248,0.000621419,0.000769007,0.000941649,0.0011436,0.00137982,0.00165615,0.00197939,0.00235749,0.00279977,0.00331714,0.00392233,0.00463024,0.00545833,0.00642698,0.00756006,0.00888549,0.0104359,0.0122495,0.0143709,0.0168525,0.0197553,0.0231509,0.0271229,0.0317691,inf	1064.8,1064.8,416.547,387.932,389.726,374.655,364.108,369.257,384.707,389.26,379.888,371.128,372.258,383.107,398.92,414.15,424.17,426.21,420.864,410.338,397.606,389.004,391.272,401.537,403.253,386.411,361.57,364.635,364.635,617.644,617.644,617.644
0.00083581	-300795.17	0,4.21025e-05,9.13519e-05,0.000148961,0.00021635,0.000295178,0.000387387,0.000495248,0.000621419,0.000769007,0.000941649,0.0011436,0.00137982,0.00165615,0.00197939,0.00235749,0.00279977,0.00331714,0.00392233,0.00463024,0.00545833,0.00642698,0.00756006,0.00888549,0.0104359,0.0122495,0.0143709,0.0168525,0.0197553,0.0231509,0.0271229,0.0317691,inf	1072.31,1072.31,393.078,382.817,391.358,374.746,362.838,369.877,388.535,393.007,380.539,369.138,369.56,381.378,399.049,416.133,427.235,429.165,422.634,410.179,395.324,385.529,388.59,401.015,403.141,383.179,354.269,359.526,359.526,696.871,696.871,696.871
0.000869351	-300775.93	0,4.21025e-05,9.13519e-05,0.000148961,0.00021635,0.000295178,0.000387387,0.000495248,0.000621419,0.000769007,0.000941649,0.0011436,0.00137982,0.00165615,0.00197939,0.00235749,0.00279977,0.00331714,0.00392233,0.00463024,0.00545833,0.00642698,0.00756006,0.00888549,0.0104359,0.0122495,0.0143709,0.0168525,0.0197553,0.0231509,0.0271229,0.0317691,inf	1071.87,1071.87,372.322,379.635,394.084,375.331,361.905,370.822,392.52,396.764,381.286,367.423,367.175,379.816,399.087,417.757,429.747,431.514,423.893,409.719,393.016,382.254,386.126,400.565,403.078,380.288,347.836,355.561,355.561,798.011,798.011,798.011
0.000900359	-300760.13	0,4.21025e-05,9.13519e-05,0.000148961,0.00021635,0.000295178,0.000387387,0.000495248,0.000621419,0.000769007,0.000941649,0.0011436,0.00137982,0.00165615,0.00197939,0.00235749,0.00279977,0.00331714,0.00392233,0.00463024,0.00545833,0.00642698,0.00756006,0.00888549,0.0104359,0.0122495,0.0143709,0.0168525,0.0197553,0.0231509,0.0271229,0.0317691,inf	1068.2,1068.2,354.041,377.901,397.451,376.033,361.008,371.817,396.432,400.364,382,365.862,365.006,378.38,399.068,419.126,431.859,433.428,424.799,409.076,390.751,379.195,383.879,400.199,403.074,377.696,342.13,352.528,352.528,936.868,936.868,936.868
0.000929076	-300747.07	0,4.21025e-05,9.13519e-05,0.000148961,0.00021635,0.000295178,0.000387387,0.000495248,0.000621419,0.000769007,0.000941649,0.0011436,0.00137982,0.00165615,0.00197939,0.00235749,0.00279977,0.00331714,0.00392233,0.00463024,0.00545833,0.00642698,0.00756006,0.00888549,0.0104359,0.0122495,0.0143709,0.0168525,0.0197553,0.0231509,0.0271229,0.0317691,inf	1063.26,1063.26,337.854,377.261,401.182,376.672,360.026,372.752,400.187,403.757,382.638,364.404,363.006,377.051,399.02,420.312,433.678,435.026,425.457,408.327,388.563,376.351,381.837,399.915,403.128,375.361,337.029,350.267,350.267,1153.37,1153.37,1153.37
0.000955712	-300736.19	0,4.21025e-05,9.13519e-05,0.000148961,0.00021635,0.000295178,0.000387387,0.000495248,0.000621419,0.000769007,0.000941649,0.0011436,0.00137982,0.00165615,0.00197939,0.00235749,0.00279977,0.00331714,0.00392233,0.00463024,0.00545833,0.00642698,0.00756006,0.00888549,0.0104359,0.0122495,0.0143709,0.0168525,0.0197553,0.0231509,0.0271229,0.0317691,inf	1057.95,1057.95,323.411,377.456,405.114,377.165,358.916,373.591,403.763,406.939,383.194,363.024,361.146,375.817,398.959,421.366,435.277,436.387,425.937,407.52,386.468,373.711,379.982,399.708,403.232,373.243,332.434,348.665,348.665,1600.26,1600.26,1600.26
0.000980449	-300727.09	0,4.21025e-05,9.13519e-05,0.000148961,0.00021635,0.000295178,0.000387387,0.000495248,0.000621419,0.000769007,0.000941649,0.0011436,0.00137982,0.00165615,0.00197939,0.00235749,0.00279977,0.00331714,0.00392233,0.00463024,0.00545833,0.00642698,0.00756006,0.00888549,0.0104359,0.0122495,0.0143709,0.0168525,0.0197553,0.0231509,0.0271229,0.0317691,inf	1052.65,1052.65,310.414,378.309,409.143,377.481,357.675,374.327,407.162,409.925,383.673,361.708,359.405,374.67,398.898,422.322,436.708,437.568,426.288,406.684,384.472,371.257,378.293,399.566,403.375,371.304,328.262,347.66,347.66,3621.85,3621.85,3621.85
0.000980449	-300719.44	0,4.21025e-05,9.13519e-05,0.000148961,0.00021635,0.000295178,0.000387387,0.000495248,0.000621419,0.000769007,0.000941649,0.0011436,0.00137982,0.00165615,0.00197939,0.00235749,0.00279977,0.00331714,0.00392233,0.00463024,0.00545833,0.00642698,0.00756006,0.00888549,0.0104359,0.0122495,0.0143709,0.0168525,0.0197553,0.0231509,0.0271229,0.0317691,inf	1038.82,1038.82,296.206,376.532,409.731,374.466,353.381,371.889,407.02,409.396,381.113,357.799,355.262,371.091,396.281,420.631,435.538,436.362,424.58,404.162,381.154,367.739,375.595,398.338,402.489,368.63,323.758,346.597,346.597,83561.8,83561.8,83561.8
0.000980449	-300719.24	0,4.21025e-05,9.13519e-05,0.000148961,0.00021635,0.000295178,0.000387387,0.000495248,0.000621419,0.000769007,0.000941649,0.0011436,0.00137982,0.00165615,0.00197939,0.00235749,0.00279977,0.00331714,0.00392233,0.00463024,0.00545833,0.00642698,0.00756006,0.00888549,0.0104359,0.0122495,0.0143709,0.0168525,0.0197553,0.0231509,0.0271229,0.0317691,inf	1038.82,1038.82,285.574,377.719,413.026,373.646,351.015,371.359,408.923,410.898,380.398,355.558,352.664,368.97,395.046,420.249,435.59,436.284,423.907,402.59,378.703,365.001,373.59,397.739,402.181,366.468,319.795,346.123,346.123,83565.5,83565.5,83565.5
0.000980449	-300719.23	0,4.21025e-05,9.13519e-05,0.000148961,0.00021635,0.000295178,0.000387387,0.000495248,0.000621419,0.000769007,0.000941649,0.0011436,0.00137982,0.00165615,0.00197939,0.00235749,0.00279977,0.00331714,0.00392233,0.00463024,0.00545833,0.00642698,0.00756006,0.00888549,0.0104359,0.0122495,0.0143709,0.0168525,0.0197553,0.0231509,0.0271229,0.0317691,inf	1038.86,1038.86,275.91,379.317,416.637,373.043,348.879,371.102,411.213,411.09,380.231,353.899,350.662,367.447,394.404,420.447,436.208,436.757,423.771,401.544,376.763,362.729,372.03,397.561,402.284,364.724,316.23,345.893,345.893,83568.1,83568.1,83568.1
0.000980449	-300719.24	0,4.21025e-05,9.13519e-05,0.000148961,0.00021635,0.000295178,0.000387387,0.000495248,0.000621419,0.000769007,0.000941649,0.0011436,0.00137982,0.00165615,0.00197939,0.00235749,0.00279977,0.00331714,0.00392233,0.00463024,0.00545833,0.00642698,0.00756006,0.00888549,0.0104359,0.0122495,0.0143709,0.0168525,0.0197553,0.0231509,0.0271229,0.0317691,inf	1038.88,1038.88,266.992,381.129,420.379,372.516,346.856,371.001,413.762,411.1,380.231,352.592,349.01,366.257,394.073,420.937,437.101,437.506,423.928,400.79,375.125,360.793,370.779,397.679,402.692,363.284,312.959,345.85,345.85,83570,83570,83570
0.000980449	-300719.24	0,4.21025e-05,9.13519e-05,0.000148961,0.00021635,0.000295178,0.000387387,0.000495248,0.000621419,0.000769007,0.000941649,0.0011436,0.00137982,0.00165615,0.00197939,0.00235749,0.00279977,0.00331714,0.00392233,0.00463024,0.00545833,0.00642698,0.00756006,0.00888549,0.0104359,0.0122495,0.0143709,0.0168525,0.0197553,0.0231509,0.0271229,0.0317691,inf	1038.88,1038.88,258.678,383.046,424.096,371.936,344.826,370.921,416.067,411.1,380.231,351.48,347.55,365.241,393.892,421.556,438.121,437.938,423.928,400.225,373.705,359.08,369.743,398.006,403.324,362.071,309.909,345.955,345.955,83571.5,83571.5,83571.5
0.000980449	-300719.25	0,4.21025e-05,9.13519e-05,0.000148961,0.00021635,0.000295178,0.000387387,0.000495248,0.000621419,0.000769007,0.000941649,0.0011436,0.00137982,0.00165615,0.00197939,0.00235749,0.00279977,0.00331714,0.00392233,0.00463024,0.00545833,0.00642698,0.00756006,0.00888549,0.0104359,0.0122495,0.0143709,0.0168525,0.0197553,0.0231509,0.0271229,0.0317691,inf	1038.9,1038.9,250.885,384.952,424.096,371.235,342.753,370.822,416.067,413.713,380.772,350.546,346.254,364.364,393.823,422.268,439.228,437.982,423.977,399.815,372.463,357.555,368.881,398.499,404.132,361.036,307.034,346.181,346.181,83572.7,83572.7,83572.7
0.000980449	-300719.25	0,4.21025e-05,9.13519e-05,0.000148961,0.00021635,0.000295178,0.000387387,0.000495248,0.000621419,0.000769007,0.000941649,0.0011436,0.00137982,0.00165615,0.00197939,0.00235749,0.00279977,0.00331714,0.00392233,0.00463024,0.00545833,0.00642698,0.00756006,0.00888549,0.0104359,0.0122495,0.0143709,0.0168525,0.0197553,0.0231509,0.0271229,0.0317691,inf	1038.91,1038.91,243.873,387.527,427.027,370.835,340.837,370.796,417.739,413.713,380.772,349.616,344.984,363.517,393.78,423.008,440.258,437.982,423.977,399.526,371.365,356.18,368.154,399.12,405.097,360.117,304.298,346.508,346.508,83573.6,83573.6,83573.6
0.000980449	-300719.25	0,4.21025e-05,9.13519e-05,0.000148961,0.00021635,0.000295178,0.000387387,0.000495248,0.000621419,0.000769007,0.000941649,0.0011436,0.00137982,0.00165615,0.00197939,0.00235749,0.00279977,0.00331714,0.00392233,0.00463024,0.00545833,0.00642698,0.00756006,0.00888549,0.0104359,0.0122495,0.0143709,0.0168525,0.0197553,0.0231509,0.0271229,0.0317691,inf	1038.92,1038.92,237.208,390.07,429.74,370.384,338.919,370.789,419.429,413.713,380.772,348.809,343.826,362.761,393.807,423.8,441.02,437.982,423.977,399.337,370.384,354.928,367.537,399.84,406.165,359.309,301.674,346.921,346.921,83574.3,83574.3,83574.3
0.000980449	-300719.24	0,4.21025e-05,9.13519e-05,0.000148961,0.00021635,0.000295178,0.000387387,0.000495248,0.000621419,0.000769007,0.000941649,0.0011436,0.00137982,0.00165615,0.00197939,0.00235749,0.00279977,0.00331714,0.00392233,0.00463024,0.00545833,0.00642698,0.00756006,0.00888549,0.0104359,0.0122495,0.0143709,0.0168525,0.0197553,0.0231509,0.0271229,0.0317691,inf	1038.97,1038.97,230.876,392.575,429.764,369.87,336.98,370.777,422.338,413.809,380.772,348.111,342.765,362.084,393.89,424.635,441.567,437.982,423.977,399.231,369.5,353.777,367.006,400.64,407.109,358.575,299.147,346.921,346.921,83575.2,83575.2,83575.2
0.000980449	-300719.24	0,4.21025e-05,9.13519e-05,0.000148961,0.00021635,0.000295178,0.000387387,0.000495248,0.000621419,0.000769007,0.000941649,0.0011436,0.00137982,0.00165615,0.00197939,0.00235749,0.00279977,0.00331714,0.00392233,0.00463024,0.00545833,0.00642698,0.00756006,0.00888549,0.0104359,0.0122495,0.0143709,0.0168525,0.0197553,0.0231509,0.0271229,0.0317691,inf	1038.98,1038.98,225.022,395.435,431.597,369.442,335.092,370.756,424.003,413.809,380.772,347.444,341.744,361.442,394.001,425.491,442.006,437.982,423.977,399.196,368.699,352.712,366.55,401.511,407.806,357.919,296.697,347.475,347.475,83575.7,83575.7,83575.7
