time_index	left_time_boundary	right_time_boundary	lambda
0	0	4.20373e-05	383.412
1	4.20373e-05	9.12105e-05	383.412
2	9.12105e-05	0.000148731	339.765
3	0.000148731	0.000216015	382.843
4	0.000216015	0.000294721	406.634
5	0.000294721	0.000386787	413.259
6	0.000386787	0.000494482	396.974
7	0.000494482	0.000620457	384.396
8	0.000620457	0.000767817	384.261
9	0.000767817	0.000940192	390.271
10	0.000940192	0.00114183	399.172
11	0.00114183	0.00137769	408.147
12	0.00137769	0.00165359	411.461
13	0.00165359	0.00197632	409.821
14	0.00197632	0.00235384	408.105
15	0.00235384	0.00279544	406.744
16	0.00279544	0.00331201	403.812
17	0.00331201	0.00391626	398.97
18	0.00391626	0.00462308	393.104
19	0.00462308	0.00544988	387.982
20	0.00544988	0.00641704	386.321
21	0.00641704	0.00754837	389.86
22	0.00754837	0.00887174	399.226
23	0.00887174	0.0104198	412.094
24	0.0104198	0.0122305	421.73
25	0.0122305	0.0143487	425.407
26	0.0143487	0.0168264	416.782
27	0.0168264	0.0197248	352.383
28	0.0197248	0.0231151	352.383
29	0.0231151	0.0270809	300.786
30	0.0270809	0.0317199	300.786
31	0.0317199	inf	300.786
