LogLikelihood = -1403820.7696046533529

y0 0.93822197168147425383
y0_prime 0
y1 0.94367625193753557067
y1_prime 0
y2 0.82035578046882196013
y2_prime 0
y3 1.7244740262977340528
y3_prime 0
rho 0.0021205396753876241435
rho.alpha 1.1026911126836356214
r_ii 0.9999999983507088519
theta 0.0047091449862008095614
