0.000247184	-6053554.24	0,1.50649e-06,4.12047e-06,8.65611e-06,1.65261e-05,3.01816e-05,5.3876e-05,9.4989e-05,0.000166326,0.000290106,0.000504883,0.000877551,0.00152418,0.00264618,0.00459302,0.00797105,inf	398.7,398.7,352.321,300.135,277.154,288.007,326.416,384.117,497.312,747.177,1353.93,1543.99,1374.35,1349.37,1349.37,1349.37
0.000265593	-6042245.98	0,1.50649e-06,4.12047e-06,8.65611e-06,1.65261e-05,3.01816e-05,5.3876e-05,9.4989e-05,0.000166326,0.000290106,0.000504883,0.000877551,0.00152418,0.00264618,0.00459302,0.00797105,inf	428.862,428.862,353.942,267.065,203.779,187.723,203.165,232.549,323.476,594.41,1426.89,1812.45,1587.07,1624.73,1624.73,1624.73
0.000281502	-6038583.84	0,1.50649e-06,4.12047e-06,8.65611e-06,1.65261e-05,3.01816e-05,5.3876e-05,9.4989e-05,0.000166326,0.000290106,0.000504883,0.000877551,0.00152418,0.00264618,0.00459302,0.00797105,inf	477.4,477.4,413.259,313.512,211.225,177.902,178.842,184.681,249.644,511.378,1441.14,1959.21,1731.54,1917.68,1917.68,1917.68
0.00029553	-6036998.77	0,1.50649e-06,4.12047e-06,8.65611e-06,1.65261e-05,3.01816e-05,5.3876e-05,9.4989e-05,0.000166326,0.000290106,0.000504883,0.000877551,0.00152418,0.00264618,0.00459302,0.00797105,inf	476.918,476.918,449.817,364.457,232.275,189.996,182.33,168.601,212.546,461.607,1442.24,2039.17,1826.18,2243.62,2243.62,2243.62
0.000308336	-6036166.72	0,1.50649e-06,4.12047e-06,8.65611e-06,1.65261e-05,3.01816e-05,5.3876e-05,9.4989e-05,0.000166326,0.000290106,0.000504883,0.000877551,0.00152418,0.00264618,0.00459302,0.00797105,inf	446.92,446.92,451.281,396.49,248.829,206.684,195.744,164.765,191.768,429.583,1442.71,2082.54,1885.58,2626.04,2626.04,2626.04
0.000320336	-6035665.28	0,1.50649e-06,4.12047e-06,8.65611e-06,1.65261e-05,3.01816e-05,5.3876e-05,9.4989e-05,0.000166326,0.000290106,0.000504883,0.000877551,0.00152418,0.00264618,0.00459302,0.00797105,inf	414.971,414.971,430.571,407.112,255.719,221.42,212.428,166.206,179.19,407.795,1445.32,2105.36,1920.08,3106.94,3106.94,3106.94
0.000331779	-6035329.40	0,1.50649e-06,4.12047e-06,8.65611e-06,1.65261e-05,3.01816e-05,5.3876e-05,9.4989e-05,0.000166326,0.000290106,0.000504883,0.000877551,0.00152418,0.00264618,0.00459302,0.00797105,inf	393.929,393.929,402.293,402.915,253.519,231.804,229.35,169.994,171.125,392.272,1450.17,2116.35,1936.75,3776.89,3776.89,3776.89
0.000342814	-6035084.17	0,1.50649e-06,4.12047e-06,8.65611e-06,1.65261e-05,3.01816e-05,5.3876e-05,9.4989e-05,0.000166326,0.000290106,0.000504883,0.000877551,0.00152418,0.00264618,0.00459302,0.00797105,inf	385.579,385.579,374.684,391.526,244.882,237.487,245.089,174.773,165.729,380.778,1456.69,2120.34,1940.27,4859.16,4859.16,4859.16
0.00035353	-6034891.53	0,1.50649e-06,4.12047e-06,8.65611e-06,1.65261e-05,3.01816e-05,5.3876e-05,9.4989e-05,0.000166326,0.000290106,0.000504883,0.000877551,0.00152418,0.00264618,0.00459302,0.00797105,inf	387.483,387.483,350.897,378.452,232.559,239.071,259.06,179.894,162.014,371.985,1464.29,2120.06,1933.62,6710.49,6710.49,6710.49
0.000363989	-6034735.56	0,1.50649e-06,4.12047e-06,8.65611e-06,1.65261e-05,3.01816e-05,5.3876e-05,9.4989e-05,0.000166326,0.000290106,0.000504883,0.000877551,0.00152418,0.00264618,0.00459302,0.00797105,inf	396.007,396.007,331.212,366.763,218.646,237.469,271.116,185.038,159.413,365.074,1472.54,2117.28,1919.48,8726.16,8726.16,8726.16
0.000374257	-6034618.69	0,1.50649e-06,4.12047e-06,8.65611e-06,1.65261e-05,3.01816e-05,5.3876e-05,9.4989e-05,0.000166326,0.000290106,0.000504883,0.000877551,0.00152418,0.00264618,0.00459302,0.00797105,inf	407.851,407.851,315.034,357.85,204.492,233.591,281.333,190.054,157.582,359.512,1481.22,2113.65,1902.09,9801.78,9801.78,9801.78
0.000384377	-6034529.94	0,1.50649e-06,4.12047e-06,8.65611e-06,1.65261e-05,3.01816e-05,5.3876e-05,9.4989e-05,0.000166326,0.000290106,0.000504883,0.000877551,0.00152418,0.00264618,0.00459302,0.00797105,inf	420.571,420.571,301.596,352.084,190.879,228.205,289.889,194.873,156.296,354.926,1490.07,2110.14,1884.6,9817.09,9817.09,9817.09
0.000394363	-6034456.20	0,1.50649e-06,4.12047e-06,8.65611e-06,1.65261e-05,3.01816e-05,5.3876e-05,9.4989e-05,0.000166326,0.000290106,0.000504883,0.000877551,0.00152418,0.00264618,0.00459302,0.00797105,inf	432.606,432.606,290.156,349.318,178.183,221.917,297.001,199.475,155.412,351.06,1498.79,2107.03,1868.43,9214.2,9214.2,9214.2
0.000404219	-6034391.00	0,1.50649e-06,4.12047e-06,8.65611e-06,1.65261e-05,3.01816e-05,5.3876e-05,9.4989e-05,0.000166326,0.000290106,0.000504883,0.000877551,0.00152418,0.00264618,0.00459302,0.00797105,inf	443.087,443.087,280.146,349.179,166.541,215.176,302.895,203.87,154.837,347.739,1507.16,2104.33,1854.09,8411.47,8411.47,8411.47
0.000413942	-6034331.16	0,1.50649e-06,4.12047e-06,8.65611e-06,1.65261e-05,3.01816e-05,5.3876e-05,9.4989e-05,0.000166326,0.000290106,0.000504883,0.000877551,0.00152418,0.00264618,0.00459302,0.00797105,inf	451.795,451.795,271.046,351.224,155.973,208.286,307.773,208.079,154.508,344.849,1515.05,2101.98,1841.71,7625.08,7625.08,7625.08
0.000423531	-6034275.10	0,1.50649e-06,4.12047e-06,8.65611e-06,1.65261e-05,3.01816e-05,5.3876e-05,9.4989e-05,0.000166326,0.000290106,0.000504883,0.000877551,0.00152418,0.00264618,0.00459302,0.00797105,inf	458.694,458.694,262.578,355.02,146.406,201.459,311.803,212.122,154.383,342.31,1522.4,2099.88,1831.19,6933.39,6933.39,6933.39
0.000432985	-6034221.94	0,1.50649e-06,4.12047e-06,8.65611e-06,1.65261e-05,3.01816e-05,5.3876e-05,9.4989e-05,0.000166326,0.000290106,0.000504883,0.000877551,0.00152418,0.00264618,0.00459302,0.00797105,inf	464.096,464.096,254.443,360.133,137.758,194.828,315.133,216.021,154.429,340.065,1529.2,2097.95,1822.35,6351.9,6351.9,6351.9
0.000442304	-6034171.17	0,1.50649e-06,4.12047e-06,8.65611e-06,1.65261e-05,3.01816e-05,5.3876e-05,9.4989e-05,0.000166326,0.000290106,0.000504883,0.000877551,0.00152418,0.00264618,0.00459302,0.00797105,inf	468.265,468.265,246.47,366.242,129.934,188.47,317.875,219.789,154.622,338.073,1535.48,2096.11,1815,5872.68,5872.68,5872.68
0.000451487	-6034122.45	0,1.50649e-06,4.12047e-06,8.65611e-06,1.65261e-05,3.01816e-05,5.3876e-05,9.4989e-05,0.000166326,0.000290106,0.000504883,0.000877551,0.00152418,0.00264618,0.00459302,0.00797105,inf	471.5,471.5,238.529,373.052,122.846,182.431,320.122,223.441,154.942,336.3,1541.27,2094.3,1808.91,5480.08,5480.08,5480.08
0.000460536	-6034075.57	0,1.50649e-06,4.12047e-06,8.65611e-06,1.65261e-05,3.01816e-05,5.3876e-05,9.4989e-05,0.000166326,0.000290106,0.000504883,0.000877551,0.00152418,0.00264618,0.00459302,0.00797105,inf	474.057,474.057,230.563,380.334,116.416,176.736,321.954,226.984,155.373,334.72,1546.6,2092.48,1803.87,5157.31,5157.31,5157.31
