time_index	left_time_boundary	right_time_boundary	lambda
0	0	1.5946e-05	1.06453
1	1.5946e-05	3.45989e-05	1.06453
2	3.45989e-05	5.64181e-05	336.054
3	5.64181e-05	8.19411e-05	249.921
4	8.19411e-05	0.000111797	132.53
5	0.000111797	0.00014672	216.887
6	0.00014672	0.000187572	411.506
7	0.000187572	0.000235358	270.712
8	0.000235358	0.000291256	155.637
9	0.000291256	0.000356643	176.296
10	0.000356643	0.00043313	270.538
11	0.00043313	0.000522599	445.646
12	0.000522599	0.000627257	726.515
13	0.000627257	0.000749679	1149.1
14	0.000749679	0.000892883	1787.21
15	0.000892883	0.0010604	2826.47
16	0.0010604	0.00125634	4198.5
17	0.00125634	0.00148556	4430.75
18	0.00148556	0.00175367	3016.22
19	0.00175367	0.00206731	1987.43
20	0.00206731	0.00243418	1734.61
21	0.00243418	0.00286332	1658.5
22	0.00286332	0.00336532	1526.68
23	0.00336532	0.00395253	1419.26
24	0.00395253	0.00463942	1398.24
25	0.00463942	0.0054429	1454.93
26	0.0054429	0.00638278	1446.95
27	0.00638278	0.0074822	1704.83
28	0.0074822	0.00876825	1704.83
29	0.00876825	0.0102726	3.02512
30	0.0102726	0.0120323	3.02512
31	0.0120323	inf	3.02512
