3.29081e-05	-26576.78	0,2.69918e-06,5.85654e-06,9.54986e-06,1.38701e-05,1.89238e-05,2.48352e-05,3.17502e-05,3.9839e-05,4.93008e-05,6.03688e-05,7.33156e-05,8.846e-05,0.000106175,0.000126898,0.000151138,0.000179493,0.000212661,0.000251459,0.000296843,0.000349932,0.000412032,0.000484673,0.000569646,0.000669042,0.000785311,0.000921317,0.00108041,0.00126651,0.0014842,0.00173884,0.00203671,inf	38332.4,38332.4,6660.21,12041.6,6645.15,6011.34,5334.93,4211.82,3937.32,3957.09,4051.6,4178.6,4325.71,4562.36,4870.02,5143.95,5347.86,5493.67,5601.02,5683.03,5617.51,5396.31,5254.06,5328.86,5680.54,6308.99,7072.51,7895.01,7895.01,8487.33,8487.33,8487.33
2.8457e-05	-26557.04	0,2.69918e-06,5.85654e-06,9.54986e-06,1.38701e-05,1.89238e-05,2.48352e-05,3.17502e-05,3.9839e-05,4.93008e-05,6.03688e-05,7.33156e-05,8.846e-05,0.000106175,0.000126898,0.000151138,0.000179493,0.000212661,0.000251459,0.000296843,0.000349932,0.000412032,0.000484673,0.000569646,0.000669042,0.000785311,0.000921317,0.00108041,0.00126651,0.0014842,0.00173884,0.00203671,inf	48652,48652,4618.99,15448.2,6754.24,5802.12,5422.13,3219.13,2859.73,3028.32,3226.02,3406.16,3563.79,3902.33,4413.33,4854.7,5142.2,5326.61,5454.32,5568.79,5405.98,4937.5,4658.98,4779.75,5357.22,6507.38,8259.03,10746.7,10746.7,12901.8,12901.8,12901.8
2.50321e-05	-26549.10	0,2.69918e-06,5.85654e-06,9.54986e-06,1.38701e-05,1.89238e-05,2.48352e-05,3.17502e-05,3.9839e-05,4.93008e-05,6.03688e-05,7.33156e-05,8.846e-05,0.000106175,0.000126898,0.000151138,0.000179493,0.000212661,0.000251459,0.000296843,0.000349932,0.000412032,0.000484673,0.000569646,0.000669042,0.000785311,0.000921317,0.00108041,0.00126651,0.0014842,0.00173884,0.00203671,inf	46093.5,46093.5,2811.53,16585.5,6695.32,5362.21,6049.14,2668.62,2231.03,2583.23,2890.86,3086.43,3169.65,3538.56,4235.07,4840.68,5183.37,5373.96,5497.06,5657.41,5395.76,4644.81,4240.02,4406.53,5151.77,6783.04,9998.75,17005.3,17005.3,26720,26720,26720
2.22728e-05	-26544.07	0,2.69918e-06,5.85654e-06,9.54986e-06,1.38701e-05,1.89238e-05,2.48352e-05,3.17502e-05,3.9839e-05,4.93008e-05,6.03688e-05,7.33156e-05,8.846e-05,0.000106175,0.000126898,0.000151138,0.000179493,0.000212661,0.000251459,0.000296843,0.000349932,0.000412032,0.000484673,0.000569646,0.000669042,0.000785311,0.000921317,0.00108041,0.00126651,0.0014842,0.00173884,0.00203671,inf	41828.1,41828.1,1645.65,16937.1,6731.96,4763.21,6948.42,2329.65,1791.84,2336.71,2776.39,2971.66,2917.64,3258.58,4130.9,4920.56,5313.13,5495.04,5600.02,5844.16,5497.87,4421.47,3907.47,4131.76,5010.44,7105.57,12770,37870.2,37870.2,174092,174092,174092
2.00268e-05	-26540.44	0,2.69918e-06,5.85654e-06,9.54986e-06,1.38701e-05,1.89238e-05,2.48352e-05,3.17502e-05,3.9839e-05,4.93008e-05,6.03688e-05,7.33156e-05,8.846e-05,0.000106175,0.000126898,0.000151138,0.000179493,0.000212661,0.000251459,0.000296843,0.000349932,0.000412032,0.000484673,0.000569646,0.000669042,0.000785311,0.000921317,0.00108041,0.00126651,0.0014842,0.00173884,0.00203671,inf	37796,37796,932.652,17016.3,6927.89,4099.59,7873.68,2097.33,1444.32,2174.33,2780.18,2973.02,2731.5,2995.02,4027.67,5025.32,5469.78,5631.82,5701.96,6078.29,5673.82,4222.65,3624.24,3923.8,4911.81,7468.68,18009.5,290001,290001,1.08625e+06,1.08625e+06,1.08625e+06
1.8201e-05	-26537.79	0,2.69918e-06,5.85654e-06,9.54986e-06,1.38701e-05,1.89238e-05,2.48352e-05,3.17502e-05,3.9839e-05,4.93008e-05,6.03688e-05,7.33156e-05,8.846e-05,0.000106175,0.000126898,0.000151138,0.000179493,0.000212661,0.000251459,0.000296843,0.000349932,0.000412032,0.000484673,0.000569646,0.000669042,0.000785311,0.000921317,0.00108041,0.00126651,0.0014842,0.00173884,0.00203671,inf	34390.6,34390.6,510.263,16950.4,7280.64,3454.42,8657.55,1929.32,1153.28,2044.04,2855.92,3054.38,2583.19,2730.91,3901.99,5129.55,5630.15,5760.72,5771.34,6329.8,5904.55,4025.03,3373.61,3767.13,4844.96,7878.27,31556.9,1.77159e+06,1.77159e+06,1679.25,1679.25,1679.25
