LogLikelihood = -166045.51861201194697

y0 2.6214558031345520946e-10
y0_prime 0
y1 1.7723378022175273472
y1_prime 0
y2 1.8339750723963663681
y2_prime 0
y3 2.6255551027554702159
y3_prime 0
rho 1.0828435251956101126
theta 0.0023557559510439590386
