time_index	left_time_boundary	right_time_boundary	lambda
0	0	1.04228e-05	411.414
1	1.04228e-05	2.34988e-05	411.414
2	2.34988e-05	3.99034e-05	411.414
3	3.99034e-05	6.0484e-05	411.414
4	6.0484e-05	8.63035e-05	411.414
5	8.63035e-05	0.000118696	411.414
6	0.000118696	0.000159333	411.414
7	0.000159333	0.000210316	411.414
8	0.000210316	0.000274276	411.414
9	0.000274276	0.000354518	411.414
10	0.000354518	0.000455187	411.414
11	0.000455187	0.000581481	411.414
12	0.000581481	0.000739924	411.414
13	0.000739924	0.000938701	411.414
14	0.000938701	0.00118808	411.414
15	0.00118808	0.00150094	411.414
16	0.00150094	0.00189343	411.414
17	0.00189343	0.00238585	411.414
18	0.00238585	0.00300361	411.414
19	0.00300361	0.00377862	411.414
20	0.00377862	0.00475092	411.414
21	0.00475092	0.00597073	411.414
22	0.00597073	0.00750105	411.414
23	0.00750105	0.00942093	411.414
24	0.00942093	0.0118295	411.414
25	0.0118295	0.0148513	411.414
26	0.0148513	0.0186422	411.414
27	0.0186422	0.0233981	411.414
28	0.0233981	0.0293647	411.414
29	0.0293647	inf	411.414
