0.000721631	-8576088.91	0,6.11505e-06,1.64156e-05,3.37664e-05,6.2993e-05,0.000112224,0.000195151,0.000334839,0.000570136,0.000966484,0.00163411,0.00275871,0.00465304,0.00784395,0.0132189,0.0222728,inf	359.902,359.902,361.763,376.546,355.967,320.813,317.975,328.417,346.361,380.632,419.541,450.018,440.878,485.052,485.052,485.052
0.000806693	-8572313.75	0,6.11505e-06,1.64156e-05,3.37664e-05,6.2993e-05,0.000112224,0.000195151,0.000334839,0.000570136,0.000966484,0.00163411,0.00275871,0.00465304,0.00784395,0.0132189,0.0222728,inf	347.936,347.936,363.546,400.432,366.153,304.506,298.264,309.801,329.266,372.262,422.75,473.297,462.206,574.754,574.754,574.754
0.000882099	-8570268.76	0,6.11505e-06,1.64156e-05,3.37664e-05,6.2993e-05,0.000112224,0.000195151,0.000334839,0.000570136,0.000966484,0.00163411,0.00275871,0.00465304,0.00784395,0.0132189,0.0222728,inf	331.485,331.485,359.575,421.745,380.28,300.399,294.103,306.086,323.666,368.191,420.236,482.975,472.121,677.528,677.528,677.528
0.000949806	-8568896.37	0,6.11505e-06,1.64156e-05,3.37664e-05,6.2993e-05,0.000112224,0.000195151,0.000334839,0.000570136,0.000966484,0.00163411,0.00275871,0.00465304,0.00784395,0.0132189,0.0222728,inf	315.186,315.186,349.658,434.78,389.834,298.177,294.479,307.494,322.647,366.369,416.013,485.647,475.47,810.087,810.087,810.087
0.00101118	-8567899.82	0,6.11505e-06,1.64156e-05,3.37664e-05,6.2993e-05,0.000112224,0.000195151,0.000334839,0.000570136,0.000966484,0.00163411,0.00275871,0.00465304,0.00784395,0.0132189,0.0222728,inf	302.461,302.461,338.306,442.071,394.843,295.694,296.116,310.697,323.634,365.86,411.544,484.508,474.925,1015.75,1015.75,1015.75
0.00106706	-8567175.38	0,6.11505e-06,1.64156e-05,3.37664e-05,6.2993e-05,0.000112224,0.000195151,0.000334839,0.000570136,0.000966484,0.00163411,0.00275871,0.00465304,0.00784395,0.0132189,0.0222728,inf	293.544,293.544,328.146,446.504,396.819,292.768,297.969,314.403,325.505,366.153,407.319,481.063,471.949,1481.99,1481.99,1481.99
0.00111784	-8566713.76	0,6.11505e-06,1.64156e-05,3.37664e-05,6.2993e-05,0.000112224,0.000195151,0.000334839,0.000570136,0.000966484,0.00163411,0.00275871,0.00465304,0.00784395,0.0132189,0.0222728,inf	287.54,287.54,320.042,449.923,397.089,289.627,299.737,318.098,327.739,366.938,403.399,475.812,467.3,4310.07,4310.07,4310.07
0.00111784	-8566606.43	0,6.11505e-06,1.64156e-05,3.37664e-05,6.2993e-05,0.000112224,0.000195151,0.000334839,0.000570136,0.000966484,0.00163411,0.00275871,0.00465304,0.00784395,0.0132189,0.0222728,inf	281.017,281.017,311.244,449.229,393.006,284.004,298.685,318.639,326.995,363.846,394.208,462.955,458.196,50188,50188,50188
0.00111784	-8566720.99	0,6.11505e-06,1.64156e-05,3.37664e-05,6.2993e-05,0.000112224,0.000195151,0.000334839,0.000570136,0.000966484,0.00163411,0.00275871,0.00465304,0.00784395,0.0132189,0.0222728,inf	278.982,278.982,305.818,451.732,391.459,279.632,298.402,320.359,327.315,363.846,389.387,453.007,450.67,50191.4,50191.4,50191.4
0.00111784	-8566591.12	0,6.11505e-06,1.64156e-05,3.37664e-05,6.2993e-05,0.000112224,0.000195151,0.000334839,0.000570136,0.000966484,0.00163411,0.00275871,0.00465304,0.00784395,0.0132189,0.0222728,inf	278.374,278.374,301.427,454.618,390.653,275.592,297.929,321.933,327.493,363.846,387.433,445.874,444.387,50193.8,50193.8,50193.8
0.00111784	-8566506.37	0,6.11505e-06,1.64156e-05,3.37664e-05,6.2993e-05,0.000112224,0.000195151,0.000334839,0.000570136,0.000966484,0.00163411,0.00275871,0.00465304,0.00784395,0.0132189,0.0222728,inf	278.374,278.374,297.734,456.811,390.528,271.943,297.362,323.325,327.646,363.846,387.231,440.608,438.973,50195.7,50195.7,50195.7
0.00111784	-8566445.34	0,6.11505e-06,1.64156e-05,3.37664e-05,6.2993e-05,0.000112224,0.000195151,0.000334839,0.000570136,0.000966484,0.00163411,0.00275871,0.00465304,0.00784395,0.0132189,0.0222728,inf	278.374,278.374,294.623,458.659,390.528,268.652,296.752,324.507,327.847,363.846,387.231,436.67,434.195,50197.3,50197.3,50197.3
0.00111784	-8566398.43	0,6.11505e-06,1.64156e-05,3.37664e-05,6.2993e-05,0.000112224,0.000195151,0.000334839,0.000570136,0.000966484,0.00163411,0.00275871,0.00465304,0.00784395,0.0132189,0.0222728,inf	278.374,278.374,292.04,460.193,390.528,265.737,296.141,325.506,328.08,363.846,387.231,433.755,429.911,50198.6,50198.6,50198.6
0.00111784	-8566361.27	0,6.11505e-06,1.64156e-05,3.37664e-05,6.2993e-05,0.000112224,0.000195151,0.000334839,0.000570136,0.000966484,0.00163411,0.00275871,0.00465304,0.00784395,0.0132189,0.0222728,inf	278.374,278.374,289.881,461.476,390.528,263.179,295.554,326.348,328.322,363.846,387.231,431.644,426.021,50199.8,50199.8,50199.8
0.00111784	-8566331.04	0,6.11505e-06,1.64156e-05,3.37664e-05,6.2993e-05,0.000112224,0.000195151,0.000334839,0.000570136,0.000966484,0.00163411,0.00275871,0.00465304,0.00784395,0.0132189,0.0222728,inf	278.376,278.376,288.146,462.506,390.528,260.952,295.008,327.057,328.559,363.846,387.231,430.166,422.446,50200.8,50200.8,50200.8
0.00111784	-8566305.84	0,6.11505e-06,1.64156e-05,3.37664e-05,6.2993e-05,0.000112224,0.000195151,0.000334839,0.000570136,0.000966484,0.00163411,0.00275871,0.00465304,0.00784395,0.0132189,0.0222728,inf	278.376,278.376,286.722,463.351,390.528,259.023,294.511,327.652,328.784,363.846,387.231,429.188,419.124,50201.6,50201.6,50201.6
0.00111784	-8566284.34	0,6.11505e-06,1.64156e-05,3.37664e-05,6.2993e-05,0.000112224,0.000195151,0.000334839,0.000570136,0.000966484,0.00163411,0.00275871,0.00465304,0.00784395,0.0132189,0.0222728,inf	278.381,278.381,285.58,464.029,390.528,257.362,294.066,328.152,328.992,363.846,387.231,428.605,416.009,50202.4,50202.4,50202.4
0.00111784	-8566265.61	0,6.11505e-06,1.64156e-05,3.37664e-05,6.2993e-05,0.000112224,0.000195151,0.000334839,0.000570136,0.000966484,0.00163411,0.00275871,0.00465304,0.00784395,0.0132189,0.0222728,inf	278.382,278.382,284.679,464.564,390.528,255.937,293.673,328.57,329.181,363.846,387.231,428.335,413.062,50203.1,50203.1,50203.1
0.00111784	-8566248.99	0,6.11505e-06,1.64156e-05,3.37664e-05,6.2993e-05,0.000112224,0.000195151,0.000334839,0.000570136,0.000966484,0.00163411,0.00275871,0.00465304,0.00784395,0.0132189,0.0222728,inf	278.382,278.382,283.972,464.985,390.528,254.719,293.33,328.918,329.181,363.846,387.291,428.309,410.255,50203.7,50203.7,50203.7
0.00111784	-8566233.98	0,6.11505e-06,1.64156e-05,3.37664e-05,6.2993e-05,0.000112224,0.000195151,0.000334839,0.000570136,0.000966484,0.00163411,0.00275871,0.00465304,0.00784395,0.0132189,0.0222728,inf	278.383,278.383,283.429,464.985,390.72,253.695,293.06,329.245,329.296,363.846,387.291,428.309,407.571,50204.3,50204.3,50204.3
