0.000699567	-309145.50	0,4.29536e-05,9.31985e-05,0.000151973,0.000220723,0.000301145,0.000395218,0.00050526,0.000633981,0.000784553,0.000960684,0.00116671,0.00140772,0.00168963,0.0020194,0.00240514,0.00285637,0.00338419,0.00400161,0.00472384,0.00556867,0.0065569,0.00771289,0.00906511,0.0106469,0.0124971,0.0146615,0.0171932,0.0201547,0.0236189,0.0276712,0.0324113,inf	284.875,284.875,227.545,244.122,266.188,285.006,300.264,313.032,326.153,340.295,354.288,368.153,382.132,394.873,405.382,414.537,422.542,428.377,431.737,432.246,430.077,426.557,422.608,418.025,412.574,407.164,402.648,400.456,400.456,404.253,404.253,404.253
0.000765312	-309030.37	0,4.29536e-05,9.31985e-05,0.000151973,0.000220723,0.000301145,0.000395218,0.00050526,0.000633981,0.000784553,0.000960684,0.00116671,0.00140772,0.00168963,0.0020194,0.00240514,0.00285637,0.00338419,0.00400161,0.00472384,0.00556867,0.0065569,0.00771289,0.00906511,0.0106469,0.0124971,0.0146615,0.0171932,0.0201547,0.0236189,0.0276712,0.0324113,inf	285.054,285.054,181.583,203.359,233.363,258.092,276.855,291.545,307.252,324.972,342.62,360.413,378.965,396.177,410.639,424.094,437.013,447.523,454.642,457.036,454.451,449.084,442.596,434.567,424.733,414.974,406.918,403.566,403.566,411.756,411.756,411.756
0.000827439	-308959.66	0,4.29536e-05,9.31985e-05,0.000151973,0.000220723,0.000301145,0.000395218,0.00050526,0.000633981,0.000784553,0.000960684,0.00116671,0.00140772,0.00168963,0.0020194,0.00240514,0.00285637,0.00338419,0.00400161,0.00472384,0.00556867,0.0065569,0.00771289,0.00906511,0.0106469,0.0124971,0.0146615,0.0171932,0.0201547,0.0236189,0.0276712,0.0324113,inf	299.758,299.758,161.408,188.718,224.729,252.937,272.466,286.403,302.065,320.505,338.798,357.46,377.457,396.155,412.008,427.599,443.733,457.983,468.717,473.53,471.493,465.329,457.242,446.569,433.142,419.801,408.897,405.042,405.042,417.671,417.671,417.671
0.000886002	-308905.74	0,4.29536e-05,9.31985e-05,0.000151973,0.000220723,0.000301145,0.000395218,0.00050526,0.000633981,0.000784553,0.000960684,0.00116671,0.00140772,0.00168963,0.0020194,0.00240514,0.00285637,0.00338419,0.00400161,0.00472384,0.00556867,0.0065569,0.00771289,0.00906511,0.0106469,0.0124971,0.0146615,0.0171932,0.0201547,0.0236189,0.0276712,0.0324113,inf	311.896,311.896,149.048,182.73,224.379,255.326,274.619,286.931,301.758,319.956,337.807,356.183,376.344,395.225,411.28,427.866,446.142,463.342,477.311,484.626,483.607,477.267,468.175,455.397,438.941,422.557,409.293,405.337,405.337,422.13,422.13,422.13
0.000941344	-308861.88	0,4.29536e-05,9.31985e-05,0.000151973,0.000220723,0.000301145,0.000395218,0.00050526,0.000633981,0.000784553,0.000960684,0.00116671,0.00140772,0.00168963,0.0020194,0.00240514,0.00285637,0.00338419,0.00400161,0.00472384,0.00556867,0.0065569,0.00771289,0.00906511,0.0106469,0.0124971,0.0146615,0.0171932,0.0201547,0.0236189,0.0276712,0.0324113,inf	319.183,319.183,139.772,180.189,227.269,260.562,279.13,289.547,303.364,321.012,338.027,355.672,375.441,393.895,409.561,426.496,446.198,465.718,482.489,492.187,492.385,486.228,476.502,461.986,442.905,423.865,408.593,404.782,404.782,425.309,425.309,425.309
0.000993801	-308825.15	0,4.29536e-05,9.31985e-05,0.000151973,0.000220723,0.000301145,0.000395218,0.00050526,0.000633981,0.000784553,0.000960684,0.00116671,0.00140772,0.00168963,0.0020194,0.00240514,0.00285637,0.00338419,0.00400161,0.00472384,0.00556867,0.0065569,0.00771289,0.00906511,0.0106469,0.0124971,0.0146615,0.0171932,0.0201547,0.0236189,0.0276712,0.0324113,inf	322.7,322.7,132.097,179.238,231.489,266.8,284.346,292.845,305.708,322.752,338.825,355.592,374.73,392.465,407.442,424.346,444.988,466.334,485.503,497.389,498.861,493.089,482.965,466.962,445.554,424.146,407.136,403.618,403.618,427.392,427.392,427.392
0.00104365	-308793.87	0,4.29536e-05,9.31985e-05,0.000151973,0.000220723,0.000301145,0.000395218,0.00050526,0.000633981,0.000784553,0.000960684,0.00116671,0.00140772,0.00168963,0.0020194,0.00240514,0.00285637,0.00338419,0.00400161,0.00472384,0.00556867,0.0065569,0.00771289,0.00906511,0.0106469,0.0124971,0.0146615,0.0171932,0.0201547,0.0236189,0.0276712,0.0324113,inf	323.865,323.865,125.483,179.136,236.241,273.247,289.565,296.226,308.276,324.766,339.911,355.785,374.203,391.087,405.225,421.868,443.113,465.903,487.12,500.983,503.714,498.438,488.063,470.753,447.244,423.689,405.155,402.022,402.022,428.541,428.541,428.541
0.00109113	-308766.94	0,4.29536e-05,9.31985e-05,0.000151973,0.000220723,0.000301145,0.000395218,0.00050526,0.000633981,0.000784553,0.000960684,0.00116671,0.00140772,0.00168963,0.0020194,0.00240514,0.00285637,0.00338419,0.00400161,0.00472384,0.00556867,0.0065569,0.00771289,0.00906511,0.0106469,0.0124971,0.0146615,0.0171932,0.0201547,0.0236189,0.0276712,0.0324113,inf	323.725,323.725,119.687,179.557,241.168,279.549,294.483,299.433,310.837,326.859,341.139,356.163,373.843,389.824,403.057,419.298,440.91,464.849,487.82,503.459,507.399,502.676,492.143,473.656,448.221,422.699,402.817,400.125,400.125,428.914,428.914,428.914
0.00113642	-308743.54	0,4.29536e-05,9.31985e-05,0.000151973,0.000220723,0.000301145,0.000395218,0.00050526,0.000633981,0.000784553,0.000960684,0.00116671,0.00140772,0.00168963,0.0020194,0.00240514,0.00285637,0.00338419,0.00400161,0.00472384,0.00556867,0.0065569,0.00771289,0.00906511,0.0106469,0.0124971,0.0146615,0.0171932,0.0201547,0.0236189,0.0276712,0.0324113,inf	322.932,322.932,114.569,180.346,246.111,285.55,298.979,302.363,313.283,328.931,342.429,356.666,373.625,388.697,401.001,416.758,438.566,463.429,487.91,505.143,510.229,506.08,495.449,475.882,448.66,421.321,400.242,398.024,398.024,428.652,428.652,428.652
0.00117969	-308723.07	0,4.29536e-05,9.31985e-05,0.000151973,0.000220723,0.000301145,0.000395218,0.00050526,0.000633981,0.000784553,0.000960684,0.00116671,0.00140772,0.00168963,0.0020194,0.00240514,0.00285637,0.00338419,0.00400161,0.00472384,0.00556867,0.0065569,0.00771289,0.00906511,0.0106469,0.0124971,0.0146615,0.0171932,0.0201547,0.0236189,0.0276712,0.0324113,inf	321.868,321.868,110.032,181.421,250.999,291.191,303.02,304.986,315.571,330.934,343.734,357.256,373.527,387.704,399.084,414.306,436.191,461.799,487.589,506.258,512.42,508.849,498.155,477.584,448.689,419.661,397.516,395.792,395.792,427.87,427.87,427.87
0.00122109	-308705.06	0,4.29536e-05,9.31985e-05,0.000151973,0.000220723,0.000301145,0.000395218,0.00050526,0.000633981,0.000784553,0.000960684,0.00116671,0.00140772,0.00168963,0.0020194,0.00240514,0.00285637,0.00338419,0.00400161,0.00472384,0.00556867,0.0065569,0.00771289,0.00906511,0.0106469,0.0124971,0.0146615,0.0171932,0.0201547,0.0236189,0.0276712,0.0324113,inf	320.722,320.722,105.997,182.735,255.802,296.461,306.616,307.305,317.687,332.845,345.028,357.905,373.527,386.836,397.308,411.97,433.844,460.059,486.992,506.957,514.129,511.127,500.391,478.874,448.402,417.798,394.702,393.482,393.482,426.663,426.663,426.663
0.00126073	-308689.13	0,4.29536e-05,9.31985e-05,0.000151973,0.000220723,0.000301145,0.000395218,0.00050526,0.000633981,0.000784553,0.000960684,0.00116671,0.00140772,0.00168963,0.0020194,0.00240514,0.00285637,0.00338419,0.00400161,0.00472384,0.00556867,0.0065569,0.00771289,0.00906511,0.0106469,0.0124971,0.0146615,0.0171932,0.0201547,0.0236189,0.0276712,0.0324113,inf	319.596,319.596,102.398,184.252,260.51,301.367,309.794,309.342,319.633,334.656,346.294,358.592,373.606,386.08,395.668,409.759,431.559,458.271,486.21,507.351,515.468,513.02,502.255,479.836,447.87,415.791,391.847,391.136,391.136,425.118,425.118,425.118
0.00129873	-308674.97	0,4.29536e-05,9.31985e-05,0.000151973,0.000220723,0.000301145,0.000395218,0.00050526,0.000633981,0.000784553,0.000960684,0.00116671,0.00140772,0.00168963,0.0020194,0.00240514,0.00285637,0.00338419,0.00400161,0.00472384,0.00556867,0.0065569,0.00771289,0.00906511,0.0106469,0.0124971,0.0146615,0.0171932,0.0201547,0.0236189,0.0276712,0.0324113,inf	318.536,318.536,99.181,185.949,265.12,305.929,312.587,311.119,321.418,336.364,347.524,359.303,373.748,385.421,394.155,407.672,429.352,456.475,485.305,507.518,516.523,514.61,503.818,480.536,447.147,413.685,388.986,388.784,388.784,423.306,423.306,423.306
0.00133518	-308662.34	0,4.29536e-05,9.31985e-05,0.000151973,0.000220723,0.000301145,0.000395218,0.00050526,0.000633981,0.000784553,0.000960684,0.00116671,0.00140772,0.00168963,0.0020194,0.00240514,0.00285637,0.00338419,0.00400161,0.00472384,0.00556867,0.0065569,0.00771289,0.00906511,0.0106469,0.0124971,0.0146615,0.0171932,0.0201547,0.0236189,0.0276712,0.0324113,inf	317.56,317.56,96.2944,187.805,269.634,310.169,315.032,312.664,323.054,337.973,348.713,360.026,373.94,384.846,392.756,405.705,427.233,454.696,484.321,507.517,517.354,515.956,505.138,481.024,446.275,411.513,386.144,386.45,386.45,421.284,421.284,421.284
0.00137019	-308651.02	0,4.29536e-05,9.31985e-05,0.000151973,0.000220723,0.000301145,0.000395218,0.00050526,0.000633981,0.000784553,0.000960684,0.00116671,0.00140772,0.00168963,0.0020194,0.00240514,0.00285637,0.00338419,0.00400161,0.00472384,0.00556867,0.0065569,0.00771289,0.00906511,0.0106469,0.0124971,0.0146615,0.0171932,0.0201547,0.0236189,0.0276712,0.0324113,inf	316.661,316.661,93.6956,189.801,274.056,314.11,317.165,314.004,324.554,339.488,349.858,360.754,374.171,384.345,391.462,403.851,425.202,452.951,483.29,507.39,518.011,517.106,506.259,481.339,445.286,409.301,383.339,384.15,384.15,419.099,419.099,419.099
0.00140382	-308640.86	0,4.29536e-05,9.31985e-05,0.000151973,0.000220723,0.000301145,0.000395218,0.00050526,0.000633981,0.000784553,0.000960684,0.00116671,0.00140772,0.00168963,0.0020194,0.00240514,0.00285637,0.00338419,0.00400161,0.00472384,0.00556867,0.0065569,0.00771289,0.00906511,0.0106469,0.0124971,0.0146615,0.0171932,0.0201547,0.0236189,0.0276712,0.0324113,inf	315.841,315.841,91.3486,191.92,278.388,317.773,319.017,315.161,325.93,340.913,350.961,361.481,374.434,383.907,390.261,402.101,423.26,451.248,482.234,507.171,518.531,518.097,507.216,481.512,444.207,407.07,380.584,381.896,381.896,416.794,416.794,416.794
0.00143616	-308631.70	0,4.29536e-05,9.31985e-05,0.000151973,0.000220723,0.000301145,0.000395218,0.00050526,0.000633981,0.000784553,0.000960684,0.00116671,0.00140772,0.00168963,0.0020194,0.00240514,0.00285637,0.00338419,0.00400161,0.00472384,0.00556867,0.0065569,0.00771289,0.00906511,0.0106469,0.0124971,0.0146615,0.0171932,0.0201547,0.0236189,0.0276712,0.0324113,inf	315.087,315.087,89.2228,194.148,282.631,321.18,320.617,316.158,327.196,342.257,352.02,362.204,374.721,383.524,389.144,400.448,421.403,449.594,481.169,506.883,518.942,518.958,508.038,481.568,443.058,404.837,377.889,379.696,379.696,414.398,414.398,414.398
0.00146727	-308623.41	0,4.29536e-05,9.31985e-05,0.000151973,0.000220723,0.000301145,0.000395218,0.00050526,0.000633981,0.000784553,0.000960684,0.00116671,0.00140772,0.00168963,0.0020194,0.00240514,0.00285637,0.00338419,0.00400161,0.00472384,0.00556867,0.0065569,0.00771289,0.00906511,0.0106469,0.0124971,0.0146615,0.0171932,0.0201547,0.0236189,0.0276712,0.0324113,inf	314.392,314.392,87.2878,196.471,286.788,324.349,321.993,317.014,328.362,343.524,353.037,362.918,375.026,383.188,388.101,398.883,419.629,447.992,480.106,506.546,519.267,519.713,508.747,481.528,441.855,402.612,375.262,377.557,377.557,411.941,411.941,411.941
0.00149722	-308615.91	0,4.29536e-05,9.31985e-05,0.000151973,0.000220723,0.000301145,0.000395218,0.00050526,0.000633981,0.000784553,0.000960684,0.00116671,0.00140772,0.00168963,0.0020194,0.00240514,0.00285637,0.00338419,0.00400161,0.00472384,0.00556867,0.0065569,0.00771289,0.00906511,0.0106469,0.0124971,0.0146615,0.0171932,0.0201547,0.0236189,0.0276712,0.0324113,inf	313.744,313.744,85.5211,198.877,290.86,327.296,323.167,317.744,329.438,344.721,354.014,363.622,375.346,382.893,387.126,397.401,417.932,446.444,479.054,506.174,519.523,520.38,509.361,481.407,440.613,400.404,372.705,375.484,375.484,409.444,409.444,409.444
0.00152607	-308609.09	0,4.29536e-05,9.31985e-05,0.000151973,0.000220723,0.000301145,0.000395218,0.00050526,0.000633981,0.000784553,0.000960684,0.00116671,0.00140772,0.00168963,0.0020194,0.00240514,0.00285637,0.00338419,0.00400161,0.00472384,0.00556867,0.0065569,0.00771289,0.00906511,0.0106469,0.0124971,0.0146615,0.0171932,0.0201547,0.0236189,0.0276712,0.0324113,inf	313.142,313.142,83.9029,201.353,294.849,330.038,324.162,318.365,330.433,345.853,354.954,364.315,375.677,382.633,386.211,395.994,416.309,444.948,478.018,505.777,519.726,520.975,509.895,481.22,439.341,398.223,370.221,373.477,373.477,406.921,406.921,406.921
