time_index	left_time_boundary	right_time_boundary	lambda
0	0	2.16976e-05	650.623
1	2.16976e-05	5.48934e-05	650.623
2	5.48934e-05	0.00010568	480.671
3	0.00010568	0.000183381	195.344
4	0.000183381	0.000302257	330.528
5	0.000302257	0.000484128	369.934
6	0.000484128	0.000762377	354.488
7	0.000762377	0.00118808	365.735
8	0.00118808	0.00183937	367.869
9	0.00183937	0.00283579	392.335
10	0.00283579	0.00436025	487.504
11	0.00436025	0.00669256	465.348
12	0.00669256	0.0102608	324.54
13	0.0102608	0.01572	312.207
14	0.01572	0.0240721	312.207
15	0.0240721	inf	312.207
