0.00068135	-1804336.47	0,9.69986e-06,2.16976e-05,3.65377e-05,5.48934e-05,7.75976e-05,0.00010568,0.000140416,0.000183381,0.000236524,0.000302257,0.000383562,0.000484128,0.000608518,0.000762377,0.000952685,0.00118808,0.00147924,0.00183937,0.00228482,0.00283579,0.0035173,0.00436025,0.0054029,0.00669256,0.00828774,0.0102608,0.0127013,0.01572,0.0194538,0.0240721,0.0297845,inf	794.081,794.081,559.289,452.131,448.535,390.198,335.286,320.249,322.507,328.188,333.809,339.512,345.073,352.079,361.953,373.859,386.435,398.847,411.181,423.356,433.581,439.924,441.144,436.772,429.038,420.969,416.524,421.335,421.335,446.111,446.111,446.111
0.000745754	-1803698.41	0,9.69986e-06,2.16976e-05,3.65377e-05,5.48934e-05,7.75976e-05,0.00010568,0.000140416,0.000183381,0.000236524,0.000302257,0.000383562,0.000484128,0.000608518,0.000762377,0.000952685,0.00118808,0.00147924,0.00183937,0.00228482,0.00283579,0.0035173,0.00436025,0.0054029,0.00669256,0.00828774,0.0102608,0.0127013,0.01572,0.0194538,0.0240721,0.0297845,inf	970.478,970.478,638.549,488.561,513.476,404.343,312.328,291.594,297.097,306.335,314.127,320.998,326.688,334.419,346.772,362.277,378.774,395.189,412.249,430.537,447.477,459.431,463.083,456.359,442.875,428.493,420.947,431.461,431.461,484.046,484.046,484.046
0.000806263	-1803276.76	0,9.69986e-06,2.16976e-05,3.65377e-05,5.48934e-05,7.75976e-05,0.00010568,0.000140416,0.000183381,0.000236524,0.000302257,0.000383562,0.000484128,0.000608518,0.000762377,0.000952685,0.00118808,0.00147924,0.00183937,0.00228482,0.00283579,0.0035173,0.00436025,0.0054029,0.00669256,0.00828774,0.0102608,0.0127013,0.01572,0.0194538,0.0240721,0.0297845,inf	1014.08,1014.08,660.279,502.75,570.332,416.216,298.565,277.216,287.309,300.242,309.801,316.91,321.43,328.305,341.038,357.542,375.039,392.401,411.105,432.608,454.117,470.785,477.167,469.173,451.229,431.756,421.965,438.415,438.415,520.789,520.789,520.789
0.000863114	-1802953.76	0,9.69986e-06,2.16976e-05,3.65377e-05,5.48934e-05,7.75976e-05,0.00010568,0.000140416,0.000183381,0.000236524,0.000302257,0.000383562,0.000484128,0.000608518,0.000762377,0.000952685,0.00118808,0.00147924,0.00183937,0.00228482,0.00283579,0.0035173,0.00436025,0.0054029,0.00669256,0.00828774,0.0102608,0.0127013,0.01572,0.0194538,0.0240721,0.0297845,inf	1009.59,1009.59,652.739,501.636,615.552,421.504,286.596,267.412,282.771,299.584,310.919,318.038,321.072,326.697,339.131,355.666,372.995,390.005,408.92,432.076,456.754,477.287,486.288,477.568,455.994,432.279,420.777,443.014,443.014,556.359,556.359,556.359
0.000916699	-1802691.38	0,9.69986e-06,2.16976e-05,3.65377e-05,5.48934e-05,7.75976e-05,0.00010568,0.000140416,0.000183381,0.000236524,0.000302257,0.000383562,0.000484128,0.000608518,0.000762377,0.000952685,0.00118808,0.00147924,0.00183937,0.00228482,0.00283579,0.0035173,0.00436025,0.0054029,0.00669256,0.00828774,0.0102608,0.0127013,0.01572,0.0194538,0.0240721,0.0297845,inf	995.309,995.309,633.363,492.622,651.55,421.376,275.148,259.541,280.32,301.006,314.106,321.165,322.688,327.048,338.996,355.196,371.867,387.947,406.369,430.289,457.199,480.891,492.251,483.064,458.414,431.06,418.19,445.871,445.871,590.753,590.753,590.753
0.000967368	-1802471.82	0,9.69986e-06,2.16976e-05,3.65377e-05,5.48934e-05,7.75976e-05,0.00010568,0.000140416,0.000183381,0.000236524,0.000302257,0.000383562,0.000484128,0.000608518,0.000762377,0.000952685,0.00118808,0.00147924,0.00183937,0.00228482,0.00283579,0.0035173,0.00436025,0.0054029,0.00669256,0.00828774,0.0102608,0.0127013,0.01572,0.0194538,0.0240721,0.0297845,inf	983.342,983.342,610.309,480.407,681.243,417.609,264.216,252.805,278.864,303.254,318.038,324.985,325.069,328.275,339.733,355.482,371.304,386.204,403.783,427.945,456.456,482.743,496.176,486.637,459.292,428.747,414.735,447.434,447.434,623.968,623.968,623.968
0.00101541	-1802284.81	0,9.69986e-06,2.16976e-05,3.65377e-05,5.48934e-05,7.75976e-05,0.00010568,0.000140416,0.000183381,0.000236524,0.000302257,0.000383562,0.000484128,0.000608518,0.000762377,0.000952685,0.00118808,0.00147924,0.00183937,0.00228482,0.00283579,0.0035173,0.00436025,0.0054029,0.00669256,0.00828774,0.0102608,0.0127013,0.01572,0.0194538,0.0240721,0.0297845,inf	976.076,976.076,586.861,467.498,706.81,411.601,253.95,246.933,277.987,305.826,322.153,328.926,327.668,329.871,340.904,356.193,371.11,384.741,401.31,425.405,455.082,483.527,498.765,488.915,459.15,425.76,410.765,448.033,448.033,655.964,655.964,655.964
0.00106107	-1802123.60	0,9.69986e-06,2.16976e-05,3.65377e-05,5.48934e-05,7.75976e-05,0.00010568,0.000140416,0.000183381,0.000236524,0.000302257,0.000383562,0.000484128,0.000608518,0.000762377,0.000952685,0.00118808,0.00147924,0.00183937,0.00228482,0.00283579,0.0035173,0.00436025,0.0054029,0.00669256,0.00828774,0.0102608,0.0127013,0.01572,0.0194538,0.0240721,0.0297845,inf	972.783,972.783,564.165,455.12,729.681,404.305,244.456,241.812,277.524,308.515,326.207,332.735,330.232,331.581,342.277,357.142,371.163,383.515,399.009,422.852,453.394,483.656,500.466,490.312,458.335,422.375,406.514,447.912,447.912,686.687,686.687,686.687
0.00110454	-1801983.37	0,9.69986e-06,2.16976e-05,3.65377e-05,5.48934e-05,7.75976e-05,0.00010568,0.000140416,0.000183381,0.000236524,0.000302257,0.000383562,0.000484128,0.000608518,0.000762377,0.000952685,0.00118808,0.00147924,0.00183937,0.00228482,0.00283579,0.0035173,0.00436025,0.0054029,0.00669256,0.00828774,0.0102608,0.0127013,0.01572,0.0194538,0.0240721,0.0297845,inf	972.318,972.318,542.535,443.784,750.725,396.316,235.766,237.365,277.395,311.233,330.097,336.303,332.647,333.279,343.726,358.219,371.383,382.485,396.891,420.374,451.57,483.387,501.571,491.102,457.079,418.772,402.136,447.254,447.254,716.064,716.064,716.064
0.001146	-1801860.51	0,9.69986e-06,2.16976e-05,3.65377e-05,5.48934e-05,7.75976e-05,0.00010568,0.000140416,0.000183381,0.000236524,0.000302257,0.000383562,0.000484128,0.000608518,0.000762377,0.000952685,0.00118808,0.00147924,0.00183937,0.00228482,0.00283579,0.0035173,0.00436025,0.0054029,0.00669256,0.00828774,0.0102608,0.0127013,0.01572,0.0194538,0.0240721,0.0297845,inf	973.748,973.748,521.963,433.674,770.44,388.006,227.86,233.53,277.557,313.949,333.788,339.595,334.865,334.901,345.179,359.358,371.714,381.615,394.95,418.013,449.713,482.878,502.271,491.473,455.537,415.073,397.734,446.194,446.194,744.001,744.001,744.001
0.00118558	-1801752.21	0,9.69986e-06,2.16976e-05,3.65377e-05,5.48934e-05,7.75976e-05,0.00010568,0.000140416,0.000183381,0.000236524,0.000302257,0.000383562,0.000484128,0.000608518,0.000762377,0.000952685,0.00118808,0.00147924,0.00183937,0.00228482,0.00283579,0.0035173,0.00436025,0.0054029,0.00669256,0.00828774,0.0102608,0.0127013,0.01572,0.0194538,0.0240721,0.0297845,inf	976.338,976.338,502.324,424.78,789.131,379.595,220.686,230.248,277.981,316.647,337.272,342.603,336.872,336.418,346.599,360.517,372.118,380.873,393.17,415.784,447.881,482.233,502.697,491.554,453.817,411.358,393.376,444.837,444.837,770.395,770.395,770.395
0.00122341	-1801656.26	0,9.69986e-06,2.16976e-05,3.65377e-05,5.48934e-05,7.75976e-05,0.00010568,0.000140416,0.000183381,0.000236524,0.000302257,0.000383562,0.000484128,0.000608518,0.000762377,0.000952685,0.00118808,0.00147924,0.00183937,0.00228482,0.00283579,0.0035173,0.00436025,0.0054029,0.00669256,0.00828774,0.0102608,0.0127013,0.01572,0.0194538,0.0240721,0.0297845,inf	979.686,979.686,483.553,417.05,806.943,371.221,214.18,227.458,278.64,319.326,340.556,345.341,338.674,337.819,347.963,361.67,372.568,380.235,391.536,413.689,446.107,481.516,502.937,491.434,451.994,407.68,389.108,443.263,443.263,795.143,795.143,795.143
0.00125961	-1801570.87	0,9.69986e-06,2.16976e-05,3.65377e-05,5.48934e-05,7.75976e-05,0.00010568,0.000140416,0.000183381,0.000236524,0.000302257,0.000383562,0.000484128,0.000608518,0.000762377,0.000952685,0.00118808,0.00147924,0.00183937,0.00228482,0.00283579,0.0035173,0.00436025,0.0054029,0.00669256,0.00828774,0.0102608,0.0127013,0.01572,0.0194538,0.0240721,0.0297845,inf	983.504,983.504,465.555,410.385,823.956,362.958,208.276,225.108,279.511,321.986,343.653,347.828,340.283,339.103,349.263,362.8,373.045,379.681,390.028,411.723,444.406,480.771,503.052,491.178,450.119,404.074,384.956,441.53,441.53,818.129,818.129,818.129
0.00129428	-1801494.55	0,9.69986e-06,2.16976e-05,3.65377e-05,5.48934e-05,7.75976e-05,0.00010568,0.000140416,0.000183381,0.000236524,0.000302257,0.000383562,0.000484128,0.000608518,0.000762377,0.000952685,0.00118808,0.00147924,0.00183937,0.00228482,0.00283579,0.0035173,0.00436025,0.0054029,0.00669256,0.00828774,0.0102608,0.0127013,0.01572,0.0194538,0.0240721,0.0297845,inf	987.484,987.484,448.262,404.686,840.208,354.852,202.911,223.149,280.572,324.624,346.576,350.085,341.713,340.276,350.494,363.9,373.536,379.194,388.633,409.878,442.786,480.023,503.085,490.829,448.227,400.561,380.938,439.685,439.685,839.246,839.246,839.246
0.00132751	-1801426.10	0,9.69986e-06,2.16976e-05,3.65377e-05,5.48934e-05,7.75976e-05,0.00010568,0.000140416,0.000183381,0.000236524,0.000302257,0.000383562,0.000484128,0.000608518,0.000762377,0.000952685,0.00118808,0.00147924,0.00183937,0.00228482,0.00283579,0.0035173,0.00436025,0.0054029,0.00669256,0.00828774,0.0102608,0.0127013,0.01572,0.0194538,0.0240721,0.0297845,inf	991.574,991.574,431.62,399.856,855.724,346.929,198.024,221.533,281.8,327.241,349.339,352.135,342.982,341.343,351.655,364.962,374.031,378.762,387.337,408.145,441.249,479.291,503.067,490.422,446.345,397.156,377.065,437.765,437.765,858.399,858.399,858.399
0.00135939	-1801364.50	0,9.69986e-06,2.16976e-05,3.65377e-05,5.48934e-05,7.75976e-05,0.00010568,0.000140416,0.000183381,0.000236524,0.000302257,0.000383562,0.000484128,0.000608518,0.000762377,0.000952685,0.00118808,0.00147924,0.00183937,0.00228482,0.00283579,0.0035173,0.00436025,0.0054029,0.00669256,0.00828774,0.0102608,0.0127013,0.01572,0.0194538,0.0240721,0.0297845,inf	995.665,995.665,415.594,395.818,870.525,339.2,193.561,220.223,283.177,329.836,351.953,353.993,344.105,342.314,352.751,365.986,374.523,378.374,386.126,406.515,439.795,478.585,503.017,489.979,444.488,393.866,373.341,435.798,435.798,875.517,875.517,875.517
0.00138998	-1801308.91	0,9.69986e-06,2.16976e-05,3.65377e-05,5.48934e-05,7.75976e-05,0.00010568,0.000140416,0.000183381,0.000236524,0.000302257,0.000383562,0.000484128,0.000608518,0.000762377,0.000952685,0.00118808,0.00147924,0.00183937,0.00228482,0.00283579,0.0035173,0.00436025,0.0054029,0.00669256,0.00828774,0.0102608,0.0127013,0.01572,0.0194538,0.0240721,0.0297845,inf	999.741,999.741,400.167,392.494,884.601,331.67,189.473,219.181,284.684,332.408,354.431,355.681,345.098,343.197,353.783,366.97,375.009,378.023,384.992,404.979,438.42,477.912,502.953,489.517,442.67,390.694,369.766,433.805,433.805,890.534,890.534,890.534
0.00141936	-1801258.58	0,9.69986e-06,2.16976e-05,3.65377e-05,5.48934e-05,7.75976e-05,0.00010568,0.000140416,0.000183381,0.000236524,0.000302257,0.000383562,0.000484128,0.000608518,0.000762377,0.000952685,0.00118808,0.00147924,0.00183937,0.00228482,0.00283579,0.0035173,0.00436025,0.0054029,0.00669256,0.00828774,0.0102608,0.0127013,0.01572,0.0194538,0.0240721,0.0297845,inf	1003.71,1003.71,385.291,389.832,897.979,324.338,185.718,218.375,286.304,334.954,356.781,357.213,345.975,343.998,354.756,367.915,375.484,377.701,383.924,403.528,437.12,477.276,502.883,489.049,440.898,387.643,366.338,431.804,431.804,903.431,903.431,903.431
0.0014476	-1801212.92	0,9.69986e-06,2.16976e-05,3.65377e-05,5.48934e-05,7.75976e-05,0.00010568,0.000140416,0.000183381,0.000236524,0.000302257,0.000383562,0.000484128,0.000608518,0.000762377,0.000952685,0.00118808,0.00147924,0.00183937,0.00228482,0.00283579,0.0035173,0.00436025,0.0054029,0.00669256,0.00828774,0.0102608,0.0127013,0.01572,0.0194538,0.0240721,0.0297845,inf	1007.57,1007.57,370.97,387.77,910.669,317.207,182.258,217.778,288.022,337.471,359.012,358.605,346.747,344.728,355.673,368.822,375.948,377.404,382.916,402.155,435.89,476.677,502.815,488.583,439.176,384.709,363.055,429.807,429.807,914.212,914.212,914.212
0.00147475	-1801171.38	0,9.69986e-06,2.16976e-05,3.65377e-05,5.48934e-05,7.75976e-05,0.00010568,0.000140416,0.000183381,0.000236524,0.000302257,0.000383562,0.000484128,0.000608518,0.000762377,0.000952685,0.00118808,0.00147924,0.00183937,0.00228482,0.00283579,0.0035173,0.00436025,0.0054029,0.00669256,0.00828774,0.0102608,0.0127013,0.01572,0.0194538,0.0240721,0.0297845,inf	1011.29,1011.29,357.184,386.277,922.682,310.268,179.061,217.365,289.824,339.959,361.133,359.869,347.425,345.393,356.54,369.692,376.399,377.127,381.961,400.853,434.728,476.116,502.755,488.126,437.509,381.892,359.911,427.826,427.826,922.915,922.915,922.915
