time_index	left_time_boundary	right_time_boundary	lambda
0	0	1.90053e-06	409.85
1	1.90053e-06	4.45041e-06	409.85
2	4.45041e-06	7.8715e-06	409.85
3	7.8715e-06	1.24615e-05	409.85
4	1.24615e-05	1.86197e-05	409.85
5	1.86197e-05	2.6882e-05	409.85
6	2.6882e-05	3.79673e-05	409.85
7	3.79673e-05	5.28402e-05	409.85
8	5.28402e-05	7.27946e-05	409.85
9	7.27946e-05	9.95668e-05	409.85
10	9.95668e-05	0.000135486	409.85
11	0.000135486	0.000183678	409.85
12	0.000183678	0.000248336	409.85
13	0.000248336	0.000335086	409.85
14	0.000335086	0.000451475	409.85
15	0.000451475	0.000607631	409.85
16	0.000607631	0.00081714	409.85
17	0.00081714	0.00109823	409.85
18	0.00109823	0.00147537	409.85
19	0.00147537	0.00198135	409.85
20	0.00198135	0.00266022	409.85
21	0.00266022	0.00357104	409.85
22	0.00357104	0.00479306	409.85
23	0.00479306	0.0064326	409.85
24	0.0064326	0.00863233	409.85
25	0.00863233	0.0115836	409.85
26	0.0115836	0.0155433	409.85
27	0.0155433	0.0208559	409.85
28	0.0208559	0.0279836	409.85
29	0.0279836	inf	409.85
