time_index	left_time_boundary	right_time_boundary	lambda
0	0	4.55256e-06	563.127
1	4.55256e-06	1.03471e-05	563.127
2	1.03471e-05	1.77224e-05	196.771
3	1.77224e-05	2.71097e-05	455.892
4	2.71097e-05	3.90579e-05	482.04
5	3.90579e-05	5.42656e-05	500.044
6	5.42656e-05	7.36221e-05	578.461
7	7.36221e-05	9.82591e-05	403.57
8	9.82591e-05	0.000129617	243.827
9	0.000129617	0.00016953	232.233
10	0.00016953	0.000220331	258.512
11	0.000220331	0.000284991	297.503
12	0.000284991	0.00036729	334.991
13	0.00036729	0.000472042	348.448
14	0.000472042	0.000605369	334.634
15	0.000605369	0.000775069	326.031
16	0.000775069	0.000991064	331.137
17	0.000991064	0.00126598	349.861
18	0.00126598	0.0016159	371.708
19	0.0016159	0.00206128	390.329
20	0.00206128	0.00262816	407.355
21	0.00262816	0.00334969	430.388
22	0.00334969	0.00426805	463.881
23	0.00426805	0.00543695	489.773
24	0.00543695	0.00692472	478.583
25	0.00692472	0.00881837	437.995
26	0.00881837	0.0112286	397.515
27	0.0112286	0.0142964	460.614
28	0.0142964	0.0182011	460.614
29	0.0182011	0.0231709	63648.3
30	0.0231709	0.0294966	63648.3
31	0.0294966	inf	63648.3
