AIC = 3045976.4698891495354

y0 0.94800271390873014354
y0_prime 0
y1 1.0769256898394230504
y1_prime 0
y2 0.90646485996253312045
y2_prime 0
y3 1.6817095630417226992
y3_prime 0
rho 0.001417883020365707375
theta 0.0050267180210014101444
