time_index	left_time_boundary	right_time_boundary	lambda
0	0	9.69621e-05	89.4374
1	9.69621e-05	0.000229637	89.4374
2	0.000229637	0.000411178	431.276
3	0.000411178	0.000659582	196.489
4	0.000659582	0.000999479	308.763
5	0.000999479	0.00146456	331.397
6	0.00146456	0.00210095	367.389
7	0.00210095	0.00297172	429.944
8	0.00297172	0.00416321	483.193
9	0.00416321	0.00579354	486.505
10	0.00579354	0.00802435	416.683
11	0.00802435	0.0110768	338.169
12	0.0110768	0.0152535	334.266
13	0.0152535	0.0209686	628.735
14	0.0209686	0.0287886	628.735
15	0.0287886	inf	628.735
