time_index	left_time_boundary	right_time_boundary	lambda
0	0	4.10223e-06	531.41
1	4.10223e-06	1.12202e-05	531.41
2	1.12202e-05	2.35709e-05	233.528
3	2.35709e-05	4.50011e-05	122.209
4	4.50011e-05	8.21857e-05	170.288
5	8.21857e-05	0.000146706	190.701
6	0.000146706	0.000258659	271.226
7	0.000258659	0.000452912	285.003
8	0.000452912	0.00078997	291.926
9	0.00078997	0.00137481	343.308
10	0.00137481	0.0023896	354.486
11	0.0023896	0.00415041	480.984
12	0.00415041	0.00720565	630.344
13	0.00720565	0.0125069	274.961
14	0.0125069	0.0217055	274.961
15	0.0217055	inf	274.961
