time_index	left_time_boundary	right_time_boundary	lambda
0	0	9.31181e-05	229.767
1	9.31181e-05	0.000220533	229.767
2	0.000220533	0.000394877	303.521
3	0.000394877	0.000633434	290.69
4	0.000633434	0.000959855	282.556
5	0.000959855	0.0014065	310.819
6	0.0014065	0.00201766	370.115
7	0.00201766	0.00285391	437.016
8	0.00285391	0.00399816	500.72
9	0.00399816	0.00556386	530.117
10	0.00556386	0.00770623	520.74
11	0.00770623	0.0106377	403.727
12	0.0106377	0.0146488	317.873
13	0.0146488	0.0201373	344.98
14	0.0201373	0.0276473	344.98
15	0.0276473	inf	344.98
