LogLikelihood = -182879.57212971805711

y0 0.58105315016963188235
y0_prime 0
y1 1.0299577477621479904
y1_prime 0
y2 1.0569105054835417068
y2_prime 0
y3 1.9773915469315777038
y3_prime 0
rho 0.00061446773513947462817
theta 0.0027187426875515778579
