0.000342339	-7599738.96	0,2.03989e-06,5.57939e-06,1.17209e-05,2.23774e-05,4.08679e-05,7.29515e-05,0.000128621,0.000225216,0.000392823,0.000683644,0.00118826,0.00206384,0.0035831,0.00621924,0.0107933,inf	618.69,618.69,779.182,874.159,872.365,824.051,803.509,778.339,755.369,754.308,781.781,794.677,700.074,773.671,773.671,773.671
0.000372014	-7598427.99	0,2.03989e-06,5.57939e-06,1.17209e-05,2.23774e-05,4.08679e-05,7.29515e-05,0.000128621,0.000225216,0.000392823,0.000683644,0.00118826,0.00206384,0.0035831,0.00621924,0.0107933,inf	493.459,493.459,739.198,908.966,914.243,840.315,818.423,782.97,745.192,741.795,785.947,808.783,645.408,759.151,759.151,759.151
0.00039964	-7597493.57	0,2.03989e-06,5.57939e-06,1.17209e-05,2.23774e-05,4.08679e-05,7.29515e-05,0.000128621,0.000225216,0.000392823,0.000683644,0.00118826,0.00206384,0.0035831,0.00621924,0.0107933,inf	413.178,413.178,700.221,920.423,931.678,843.44,828.824,790.763,742.623,736.406,791.888,826.27,610.912,749.863,749.863,749.863
0.000424975	-7596782.20	0,2.03989e-06,5.57939e-06,1.17209e-05,2.23774e-05,4.08679e-05,7.29515e-05,0.000128621,0.000225216,0.000392823,0.000683644,0.00118826,0.00206384,0.0035831,0.00621924,0.0107933,inf	363.757,363.757,671.078,924.101,937.263,839.7,835.423,798.544,742.507,733.002,795.826,842.608,587.086,743.095,743.095,743.095
0.000448109	-7596237.42	0,2.03989e-06,5.57939e-06,1.17209e-05,2.23774e-05,4.08679e-05,7.29515e-05,0.000128621,0.000225216,0.000392823,0.000683644,0.00118826,0.00206384,0.0035831,0.00621924,0.0107933,inf	333.504,333.504,651.531,926.53,937.868,833.159,839.811,805.986,743.608,730.533,797.677,856.752,569.656,737.71,737.71,737.71
0.000469222	-7595817.81	0,2.03989e-06,5.57939e-06,1.17209e-05,2.23774e-05,4.08679e-05,7.29515e-05,0.000128621,0.000225216,0.000392823,0.000683644,0.00118826,0.00206384,0.0035831,0.00621924,0.0107933,inf	314.846,314.846,639.015,929.67,936.563,825.76,842.883,813.021,745.435,728.737,797.992,868.692,556.401,733.18,733.18,733.18
0.000488506	-7595492.31	0,2.03989e-06,5.57939e-06,1.17209e-05,2.23774e-05,4.08679e-05,7.29515e-05,0.000128621,0.000225216,0.000392823,0.000683644,0.00118826,0.00206384,0.0035831,0.00621924,0.0107933,inf	303.276,303.276,631.147,933.847,934.646,818.392,845.088,819.581,747.687,727.492,797.293,878.702,546.043,729.235,729.235,729.235
0.000506144	-7595238.03	0,2.03989e-06,5.57939e-06,1.17209e-05,2.23774e-05,4.08679e-05,7.29515e-05,0.000128621,0.000225216,0.000392823,0.000683644,0.00118826,0.00206384,0.0035831,0.00621924,0.0107933,inf	296.043,296.043,626.119,938.877,932.695,811.454,846.687,825.617,750.157,726.704,795.958,887.094,537.786,725.724,725.724,725.724
0.0005223	-7595038.13	0,2.03989e-06,5.57939e-06,1.17209e-05,2.23774e-05,4.08679e-05,7.29515e-05,0.000128621,0.000225216,0.000392823,0.000683644,0.00118826,0.00206384,0.0035831,0.00621924,0.0107933,inf	291.591,291.591,622.709,944.441,930.952,805.129,847.852,831.112,752.7,726.289,794.247,894.152,531.103,722.556,722.556,722.556
0.000537121	-7594880.15	0,2.03989e-06,5.57939e-06,1.17209e-05,2.23774e-05,4.08679e-05,7.29515e-05,0.000128621,0.000225216,0.000392823,0.000683644,0.00118826,0.00206384,0.0035831,0.00621924,0.0107933,inf	288.954,288.954,620.22,950.322,929.506,799.483,848.699,836.065,755.221,726.174,792.331,900.112,525.631,719.673,719.673,719.673
0.000550735	-7594754.78	0,2.03989e-06,5.57939e-06,1.17209e-05,2.23774e-05,4.08679e-05,7.29515e-05,0.000128621,0.000225216,0.000392823,0.000683644,0.00118826,0.00206384,0.0035831,0.00621924,0.0107933,inf	287.495,287.495,618.174,956.287,928.357,794.525,849.323,840.51,757.658,726.299,790.322,905.167,521.11,717.032,717.032,717.032
0.000563257	-7594654.98	0,2.03989e-06,5.57939e-06,1.17209e-05,2.23774e-05,4.08679e-05,7.29515e-05,0.000128621,0.000225216,0.000392823,0.000683644,0.00118826,0.00206384,0.0035831,0.00621924,0.0107933,inf	286.885,286.885,616.3,962.183,927.484,790.223,849.789,844.479,759.971,726.613,788.292,909.472,517.347,714.603,714.603,714.603
0.000574789	-7594575.36	0,2.03989e-06,5.57939e-06,1.17209e-05,2.23774e-05,4.08679e-05,7.29515e-05,0.000128621,0.000225216,0.000392823,0.000683644,0.00118826,0.00206384,0.0035831,0.00621924,0.0107933,inf	286.888,286.888,614.471,967.883,926.838,786.535,850.151,848.011,762.14,727.075,786.287,913.152,514.197,712.362,712.362,712.362
0.000585421	-7594511.79	0,2.03989e-06,5.57939e-06,1.17209e-05,2.23774e-05,4.08679e-05,7.29515e-05,0.000128621,0.000225216,0.000392823,0.000683644,0.00118826,0.00206384,0.0035831,0.00621924,0.0107933,inf	287.318,287.318,612.579,973.345,926.378,783.409,850.449,851.15,764.153,727.653,784.336,916.308,511.55,710.289,710.289,710.289
0.000595232	-7594461.02	0,2.03989e-06,5.57939e-06,1.17209e-05,2.23774e-05,4.08679e-05,7.29515e-05,0.000128621,0.000225216,0.000392823,0.000683644,0.00118826,0.00206384,0.0035831,0.00621924,0.0107933,inf	288.114,288.114,610.622,978.536,926.054,780.783,850.711,853.938,766.008,728.321,782.458,919.021,509.317,708.369,708.369,708.369
0.000604296	-7594420.54	0,2.03989e-06,5.57939e-06,1.17209e-05,2.23774e-05,4.08679e-05,7.29515e-05,0.000128621,0.000225216,0.000392823,0.000683644,0.00118826,0.00206384,0.0035831,0.00621924,0.0107933,inf	289.205,289.205,608.594,983.401,925.823,778.606,850.954,856.409,767.707,729.057,780.662,921.36,507.43,706.587,706.587,706.587
0.000612675	-7594388.33	0,2.03989e-06,5.57939e-06,1.17209e-05,2.23774e-05,4.08679e-05,7.29515e-05,0.000128621,0.000225216,0.000392823,0.000683644,0.00118826,0.00206384,0.0035831,0.00621924,0.0107933,inf	290.447,290.447,606.51,987.924,925.648,776.817,851.194,858.601,769.253,729.844,778.953,923.379,505.832,704.932,704.932,704.932
0.000620427	-7594362.80	0,2.03989e-06,5.57939e-06,1.17209e-05,2.23774e-05,4.08679e-05,7.29515e-05,0.000128621,0.000225216,0.000392823,0.000683644,0.00118826,0.00206384,0.0035831,0.00621924,0.0107933,inf	291.924,291.924,604.361,992.128,925.504,775.375,851.439,860.543,770.655,730.669,777.332,925.126,504.479,703.392,703.392,703.392
0.000627605	-7594342.68	0,2.03989e-06,5.57939e-06,1.17209e-05,2.23774e-05,4.08679e-05,7.29515e-05,0.000128621,0.000225216,0.000392823,0.000683644,0.00118826,0.00206384,0.0035831,0.00621924,0.0107933,inf	293.506,293.506,602.22,996.057,925.374,774.234,851.694,862.265,771.919,731.52,775.801,926.637,503.333,701.959,701.959,701.959
0.000634255	-7594326.94	0,2.03989e-06,5.57939e-06,1.17209e-05,2.23774e-05,4.08679e-05,7.29515e-05,0.000128621,0.000225216,0.000392823,0.000683644,0.00118826,0.00206384,0.0035831,0.00621924,0.0107933,inf	295.21,295.21,600.071,999.666,925.227,773.35,851.964,863.792,773.056,732.389,774.355,927.946,502.364,700.624,700.624,700.624
