0.000541175	-11653612.76	0,3.45601e-06,9.45269e-06,1.98578e-05,3.79121e-05,6.9239e-05,0.000123596,0.000217912,0.000381565,0.000665527,0.00115824,0.00201317,0.0034966,0.00607055,0.0105367,0.0182862,inf	6982.78,6982.78,1006.23,502.455,386.717,364.612,324.619,296.026,310.664,337.563,383.118,438.18,452.142,542.046,542.046,542.046
0.0005669	-11649910.58	0,3.45601e-06,9.45269e-06,1.98578e-05,3.79121e-05,6.9239e-05,0.000123596,0.000217912,0.000381565,0.000665527,0.00115824,0.00201317,0.0034966,0.00607055,0.0105367,0.0182862,inf	10115.3,10115.3,949.736,526.74,374.064,370.698,303.101,253.615,273.003,304.566,363.242,432.168,438.963,609.756,609.756,609.756
0.000593516	-11649200.56	0,3.45601e-06,9.45269e-06,1.98578e-05,3.79121e-05,6.9239e-05,0.000123596,0.000217912,0.000381565,0.000665527,0.00115824,0.00201317,0.0034966,0.00607055,0.0105367,0.0182862,inf	10674,10674,837.005,548.024,367.328,392.662,304.141,239.001,262.527,294.01,358.674,432.005,426.548,673.956,673.956,673.956
0.000619257	-11648801.41	0,3.45601e-06,9.45269e-06,1.98578e-05,3.79121e-05,6.9239e-05,0.000123596,0.000217912,0.000381565,0.000665527,0.00115824,0.00201317,0.0034966,0.00607055,0.0105367,0.0182862,inf	10571.5,10571.5,734.813,565.855,355.793,411.571,308.251,232.026,260.184,290.187,358.37,433.078,414.352,735.143,735.143,735.143
0.000643848	-11648497.68	0,3.45601e-06,9.45269e-06,1.98578e-05,3.79121e-05,6.9239e-05,0.000123596,0.000217912,0.000381565,0.000665527,0.00115824,0.00201317,0.0034966,0.00607055,0.0105367,0.0182862,inf	10341.1,10341.1,651.842,583.211,340.499,425.078,311.518,227.597,260.704,288.719,359.329,434.306,402.503,794.005,794.005,794.005
0.000667311	-11648252.15	0,3.45601e-06,9.45269e-06,1.98578e-05,3.79121e-05,6.9239e-05,0.000123596,0.000217912,0.000381565,0.000665527,0.00115824,0.00201317,0.0034966,0.00607055,0.0105367,0.0182862,inf	10101.8,10101.8,585.295,601.965,323.521,434.426,313.567,224.244,262.357,288.168,360.633,435.456,391.133,851.144,851.144,851.144
0.000689729	-11648048.81	0,3.45601e-06,9.45269e-06,1.98578e-05,3.79121e-05,6.9239e-05,0.000123596,0.000217912,0.000381565,0.000665527,0.00115824,0.00201317,0.0034966,0.00607055,0.0105367,0.0182862,inf	9876.72,9876.72,530.94,622.59,306.125,441.105,314.707,221.484,264.493,288,361.989,436.495,380.304,907.027,907.027,907.027
0.000711189	-11647877.53	0,3.45601e-06,9.45269e-06,1.98578e-05,3.79121e-05,6.9239e-05,0.000123596,0.000217912,0.000381565,0.000665527,0.00115824,0.00201317,0.0034966,0.00607055,0.0105367,0.0182862,inf	9667.17,9667.17,485.266,644.8,288.903,446.183,315.261,219.13,266.84,287.998,363.301,437.432,370.026,961.985,961.985,961.985
0.000731765	-11647731.19	0,3.45601e-06,9.45269e-06,1.98578e-05,3.79121e-05,6.9239e-05,0.000123596,0.000217912,0.000381565,0.000665527,0.00115824,0.00201317,0.0034966,0.00607055,0.0105367,0.0182862,inf	9472.23,9472.23,445.872,668.009,272.098,450.336,315.451,217.086,269.268,288.066,364.542,438.281,360.284,1016.21,1016.21,1016.21
0.000751525	-11647604.54	0,3.45601e-06,9.45269e-06,1.98578e-05,3.79121e-05,6.9239e-05,0.000123596,0.000217912,0.000381565,0.000665527,0.00115824,0.00201317,0.0034966,0.00607055,0.0105367,0.0182862,inf	9291.18,9291.18,411.135,691.609,255.817,453.976,315.419,215.295,271.712,288.156,365.712,439.054,351.051,1069.77,1069.77,1069.77
0.000770529	-11647493.56	0,3.45601e-06,9.45269e-06,1.98578e-05,3.79121e-05,6.9239e-05,0.000123596,0.000217912,0.000381565,0.000665527,0.00115824,0.00201317,0.0034966,0.00607055,0.0105367,0.0182862,inf	9122.23,9122.23,380.03,715.056,240.098,457.341,315.247,213.714,274.135,288.244,366.816,439.76,342.297,1122.56,1122.56,1122.56
0.00078883	-11647395.04	0,3.45601e-06,9.45269e-06,1.98578e-05,3.79121e-05,6.9239e-05,0.000123596,0.000217912,0.000381565,0.000665527,0.00115824,0.00201317,0.0034966,0.00607055,0.0105367,0.0182862,inf	8965.61,8965.61,351.859,737.904,224.977,460.573,314.987,212.311,276.518,288.32,367.864,440.407,333.992,1174.35,1174.35,1174.35
0.000806477	-11647306.38	0,3.45601e-06,9.45269e-06,1.98578e-05,3.79121e-05,6.9239e-05,0.000123596,0.000217912,0.000381565,0.000665527,0.00115824,0.00201317,0.0034966,0.00607055,0.0105367,0.0182862,inf	8820.12,8820.12,326.173,759.801,210.463,463.757,314.664,211.06,278.849,288.376,368.862,441.005,326.109,1224.73,1224.73,1224.73
0.000823518	-11647225.35	0,3.45601e-06,9.45269e-06,1.98578e-05,3.79121e-05,6.9239e-05,0.000123596,0.000217912,0.000381565,0.000665527,0.00115824,0.00201317,0.0034966,0.00607055,0.0105367,0.0182862,inf	8685.72,8685.72,302.654,780.499,196.597,466.936,314.296,209.941,281.121,288.409,369.821,441.563,318.627,1273.12,1273.12,1273.12
0.000839995	-11647150.05	0,3.45601e-06,9.45269e-06,1.98578e-05,3.79121e-05,6.9239e-05,0.000123596,0.000217912,0.000381565,0.000665527,0.00115824,0.00201317,0.0034966,0.00607055,0.0105367,0.0182862,inf	8560.55,8560.55,281.068,799.818,183.377,470.131,313.892,208.937,283.332,288.418,370.746,442.094,311.527,1318.8,1318.8,1318.8
0.000855952	-11647078.86	0,3.45601e-06,9.45269e-06,1.98578e-05,3.79121e-05,6.9239e-05,0.000123596,0.000217912,0.000381565,0.000665527,0.00115824,0.00201317,0.0034966,0.00607055,0.0105367,0.0182862,inf	8444.55,8444.55,261.253,817.689,170.841,473.354,313.456,208.033,285.479,288.4,371.643,442.612,304.795,1360.98,1360.98,1360.98
0.00087143	-11647010.36	0,3.45601e-06,9.45269e-06,1.98578e-05,3.79121e-05,6.9239e-05,0.000123596,0.000217912,0.000381565,0.000665527,0.00115824,0.00201317,0.0034966,0.00607055,0.0105367,0.0182862,inf	8336.59,8336.59,243.044,834.003,158.99,476.605,312.992,207.219,287.564,288.354,372.515,443.132,298.42,1398.82,1398.82,1398.82
0.000886465	-11646943.41	0,3.45601e-06,9.45269e-06,1.98578e-05,3.79121e-05,6.9239e-05,0.000123596,0.000217912,0.000381565,0.000665527,0.00115824,0.00201317,0.0034966,0.00607055,0.0105367,0.0182862,inf	8236.31,8236.31,226.284,848.764,147.828,479.877,312.502,206.485,289.586,288.279,373.364,443.666,292.392,1431.61,1431.61,1431.61
0.000901096	-11646877.15	0,3.45601e-06,9.45269e-06,1.98578e-05,3.79121e-05,6.9239e-05,0.000123596,0.000217912,0.000381565,0.000665527,0.00115824,0.00201317,0.0034966,0.00607055,0.0105367,0.0182862,inf	8142.76,8142.76,210.87,862.025,137.354,483.166,311.988,205.825,291.548,288.175,374.192,444.23,286.704,1458.85,1458.85,1458.85
0.000915354	-11646811.01	0,3.45601e-06,9.45269e-06,1.98578e-05,3.79121e-05,6.9239e-05,0.000123596,0.000217912,0.000381565,0.000665527,0.00115824,0.00201317,0.0034966,0.00607055,0.0105367,0.0182862,inf	8055.8,8055.8,196.679,873.799,127.559,486.458,311.449,205.231,293.452,288.039,374.997,444.835,281.347,1480.31,1480.31,1480.31
