time_index	left_time_boundary	right_time_boundary	lambda
0	0	7.16511e-05	856.271
1	7.16511e-05	0.000169692	856.271
2	0.000169692	0.000303844	100.431
3	0.000303844	0.000487405	171.759
4	0.000487405	0.000738575	339.969
5	0.000738575	0.00108225	272.116
6	0.00108225	0.00155251	289.87
7	0.00155251	0.00219598	378.375
8	0.00219598	0.00307644	444.415
9	0.00307644	0.00428119	470.236
10	0.00428119	0.00592967	413.276
11	0.00592967	0.00818531	585.45
12	0.00818531	0.0112717	912.267
13	0.0112717	0.0154949	72272.4
14	0.0154949	0.0212736	72272.4
15	0.0212736	inf	72272.4
