LogLikelihood = -332.75475395019185498

y0 3.8104554752372809948e-10
y0_prime 0
y1 2.6518562709092754481
y1_prime 0
y2 1.713531561994608321
y2_prime 0
y3 0.0099848016772172299566
y3_prime 0
rho 0.00012173643235649491345
rho.alpha 0.050000000000000002776
r_ii 0.99998316071399406813
theta 3.1224059456160146899e-06
