LogLikelihood = -292489.45067472045776

y0 0.8488862209424307137
y0_prime 0
y1 0.95965458406011616699
y1_prime 0
y2 0.81312847587346714917
y2_prime 0
y3 1.5904469795325220094
y3_prime 0
rho 0.0041137997910373532567
rho.alpha 0.50497754282718188001
r_ii 0.99986293240294599194
theta 0.004779350103196878044
