AIC = 591768.88787892763503

y0 1.0084019845398444204
y0_prime 0
y1 1.0767086567089192428
y1_prime 0
y2 0.8934047369713875586
y2_prime 0
y3 1.8161222280493793946
y3_prime 0
rho 0.00029742833854716835273
rho.alpha 0.59765362446570746702
r_ii 0.99988816988694151355
theta 0.0049385037085778798679
