0.000689176	-4615915.93	0,4.48912e-06,1.02029e-05,1.74754e-05,2.67319e-05,3.85136e-05,5.35094e-05,7.25962e-05,9.68899e-05,0.000127811,0.000167168,0.000217261,0.00028102,0.000362172,0.000465464,0.000596933,0.000764268,0.000977254,0.00124834,0.00159338,0.00203256,0.00259154,0.00330301,0.00420857,0.00536118,0.00682822,0.00869548,0.0110721,0.0140972,0.0179474,0.022848,0.0290856,inf	157.632,157.632,193.999,185.408,189.085,206.281,227.714,237.506,233.705,230.307,231.038,234.641,240.668,250.945,266.538,288.951,319.965,361.855,415.785,475.439,519.294,528.235,511.974,490.363,473.003,459.64,449.175,456.245,456.245,522.42,522.42,522.42
0.000760903	-4611374.30	0,4.48912e-06,1.02029e-05,1.74754e-05,2.67319e-05,3.85136e-05,5.35094e-05,7.25962e-05,9.68899e-05,0.000127811,0.000167168,0.000217261,0.00028102,0.000362172,0.000465464,0.000596933,0.000764268,0.000977254,0.00124834,0.00159338,0.00203256,0.00259154,0.00330301,0.00420857,0.00536118,0.00682822,0.00869548,0.0110721,0.0140972,0.0179474,0.022848,0.0290856,inf	125.193,125.193,178.836,153.289,151.972,175.525,209.442,221.919,208.448,196.341,191.152,189.84,191.681,199.713,215.138,240.316,278.213,333.045,408.952,501.565,580.358,605.058,583.097,549.078,521.407,499.347,481.396,506.035,506.035,740.789,740.789,740.789
0.00082817	-4609493.78	0,4.48912e-06,1.02029e-05,1.74754e-05,2.67319e-05,3.85136e-05,5.35094e-05,7.25962e-05,9.68899e-05,0.000127811,0.000167168,0.000217261,0.00028102,0.000362172,0.000465464,0.000596933,0.000764268,0.000977254,0.00124834,0.00159338,0.00203256,0.00259154,0.00330301,0.00420857,0.00536118,0.00682822,0.00869548,0.0110721,0.0140972,0.0179474,0.022848,0.0290856,inf	115.39,115.39,188.416,144.419,139.75,171.448,221.058,237.651,214.246,193.901,183.242,177.003,174.238,178.869,191.82,216.003,255.028,314.243,399.854,510.292,612.617,651.608,628.751,588.171,555.005,527.554,504.5,556.576,556.576,1344.99,1344.99,1344.99
0.00089127	-4608445.64	0,4.48912e-06,1.02029e-05,1.74754e-05,2.67319e-05,3.85136e-05,5.35094e-05,7.25962e-05,9.68899e-05,0.000127811,0.000167168,0.000217261,0.00028102,0.000362172,0.000465464,0.000596933,0.000764268,0.000977254,0.00124834,0.00159338,0.00203256,0.00259154,0.00330301,0.00420857,0.00536118,0.00682822,0.00869548,0.0110721,0.0140972,0.0179474,0.022848,0.0290856,inf	107.267,107.267,197.985,135.919,129.271,169.381,236.425,258.883,226.831,199.882,185.177,175.036,168.456,170.093,180.472,202.947,241.439,301.938,391.95,512.168,629.708,679.703,657.661,613.8,578.086,547.386,521.076,609.981,609.981,6177.13,6177.13,6177.13
0.00089127	-4607727.76	0,4.48912e-06,1.02029e-05,1.74754e-05,2.67319e-05,3.85136e-05,5.35094e-05,7.25962e-05,9.68899e-05,0.000127811,0.000167168,0.000217261,0.00028102,0.000362172,0.000465464,0.000596933,0.000764268,0.000977254,0.00124834,0.00159338,0.00203256,0.00259154,0.00330301,0.00420857,0.00536118,0.00682822,0.00869548,0.0110721,0.0140972,0.0179474,0.022848,0.0290856,inf	98.0373,98.0373,201.559,123.376,115.427,161.722,244.252,273.081,234.99,204.014,187.149,174.48,165.156,164.414,172.422,192.887,229.774,289.277,379.46,502.436,627.335,686.087,667.71,624.134,588.66,556.889,529.607,664.852,664.852,64303.1,64303.1,64303.1
0.00089127	-4607696.17	0,4.48912e-06,1.02029e-05,1.74754e-05,2.67319e-05,3.85136e-05,5.35094e-05,7.25962e-05,9.68899e-05,0.000127811,0.000167168,0.000217261,0.00028102,0.000362172,0.000465464,0.000596933,0.000764268,0.000977254,0.00124834,0.00159338,0.00203256,0.00259154,0.00330301,0.00420857,0.00536118,0.00682822,0.00869548,0.0110721,0.0140972,0.0179474,0.022848,0.0290856,inf	92.1571,92.1571,209.286,113.256,103.237,153.836,251.09,282.346,234.99,204.014,187.149,174.48,165.156,163.08,169.019,187.718,223.156,281.667,371.726,496.52,626.868,692.455,674.245,624.134,588.66,556.889,529.607,664.852,664.852,64303.1,64303.1,64303.1
0.00089127	-4607677.51	0,4.48912e-06,1.02029e-05,1.74754e-05,2.67319e-05,3.85136e-05,5.35094e-05,7.25962e-05,9.68899e-05,0.000127811,0.000167168,0.000217261,0.00028102,0.000362172,0.000465464,0.000596933,0.000764268,0.000977254,0.00124834,0.00159338,0.00203256,0.00259154,0.00330301,0.00420857,0.00536118,0.00682822,0.00869548,0.0110721,0.0140972,0.0179474,0.022848,0.0290856,inf	88.278,88.278,214.36,105.193,92.8462,146.555,258.136,288.995,235.32,204.014,187.149,174.48,165.156,163.08,167.933,185.047,219.179,276.754,366.568,492.698,627.494,699.024,675.574,624.134,588.66,556.889,529.607,664.852,664.852,64303.1,64303.1,64303.1
0.00089127	-4607669.07	0,4.48912e-06,1.02029e-05,1.74754e-05,2.67319e-05,3.85136e-05,5.35094e-05,7.25962e-05,9.68899e-05,0.000127811,0.000167168,0.000217261,0.00028102,0.000362172,0.000465464,0.000596933,0.000764268,0.000977254,0.00124834,0.00159338,0.00203256,0.00259154,0.00330301,0.00420857,0.00536118,0.00682822,0.00869548,0.0110721,0.0140972,0.0179474,0.022848,0.0290856,inf	86.0702,86.0702,216.854,98.7483,83.9087,139.73,265.141,294.495,235.32,204.014,187.149,174.48,165.156,163.08,167.933,183.772,216.697,273.383,362.886,490.055,628.72,703.806,675.574,624.134,588.66,556.889,529.607,664.852,664.852,64303.1,64303.1,64303.1
0.00089127	-4607664.76	0,4.48912e-06,1.02029e-05,1.74754e-05,2.67319e-05,3.85136e-05,5.35094e-05,7.25962e-05,9.68899e-05,0.000127811,0.000167168,0.000217261,0.00028102,0.000362172,0.000465464,0.000596933,0.000764268,0.000977254,0.00124834,0.00159338,0.00203256,0.00259154,0.00330301,0.00420857,0.00536118,0.00682822,0.00869548,0.0110721,0.0140972,0.0179474,0.022848,0.0290856,inf	85.3683,85.3683,217.762,93.6251,76.1542,133.276,271.976,298.822,235.32,204.014,187.149,174.48,165.156,163.08,167.933,183.312,215.109,270.954,360.115,488.137,630.3,706.602,675.574,624.134,588.66,556.889,529.607,664.852,664.852,64303.1,64303.1,64303.1
0.00089127	-4607662.33	0,4.48912e-06,1.02029e-05,1.74754e-05,2.67319e-05,3.85136e-05,5.35094e-05,7.25962e-05,9.68899e-05,0.000127811,0.000167168,0.000217261,0.00028102,0.000362172,0.000465464,0.000596933,0.000764268,0.000977254,0.00124834,0.00159338,0.00203256,0.00259154,0.00330301,0.00420857,0.00536118,0.00682822,0.00869548,0.0110721,0.0140972,0.0179474,0.022848,0.0290856,inf	85.4637,85.4637,217.813,89.5924,69.3849,127.162,278.63,302.187,235.32,204.014,187.149,174.48,165.156,163.08,167.933,183.312,214.11,269.15,357.953,486.702,632.112,708.099,675.574,624.134,588.66,556.889,529.607,664.852,664.852,64303.1,64303.1,64303.1
0.00089127	-4607660.91	0,4.48912e-06,1.02029e-05,1.74754e-05,2.67319e-05,3.85136e-05,5.35094e-05,7.25962e-05,9.68899e-05,0.000127811,0.000167168,0.000217261,0.00028102,0.000362172,0.000465464,0.000596933,0.000764268,0.000977254,0.00124834,0.00159338,0.00203256,0.00259154,0.00330301,0.00420857,0.00536118,0.00682822,0.00869548,0.0110721,0.0140972,0.0179474,0.022848,0.0290856,inf	85.9496,85.9496,217.813,86.4538,63.4525,121.362,285.108,304.75,235.32,204.014,187.149,174.48,165.156,163.08,167.933,183.312,213.497,267.765,356.203,485.59,634.075,708.803,675.574,624.134,588.66,556.889,529.607,664.852,664.852,64303.1,64303.1,64303.1
0.00089127	-4607660.00	0,4.48912e-06,1.02029e-05,1.74754e-05,2.67319e-05,3.85136e-05,5.35094e-05,7.25962e-05,9.68899e-05,0.000127811,0.000167168,0.000217261,0.00028102,0.000362172,0.000465464,0.000596933,0.000764268,0.000977254,0.00124834,0.00159338,0.00203256,0.00259154,0.00330301,0.00420857,0.00536118,0.00682822,0.00869548,0.0110721,0.0140972,0.0179474,0.022848,0.0290856,inf	86.1927,86.1927,217.852,84.0285,58.207,115.852,291.429,306.653,235.32,204.014,187.149,174.48,165.156,163.08,167.933,183.312,213.163,266.681,354.748,484.703,636.131,708.953,675.574,624.134,588.66,556.889,529.607,664.852,664.852,64303.1,64303.1,64303.1
0.00089127	-4607659.42	0,4.48912e-06,1.02029e-05,1.74754e-05,2.67319e-05,3.85136e-05,5.35094e-05,7.25962e-05,9.68899e-05,0.000127811,0.000167168,0.000217261,0.00028102,0.000362172,0.000465464,0.000596933,0.000764268,0.000977254,0.00124834,0.00159338,0.00203256,0.00259154,0.00330301,0.00420857,0.00536118,0.00682822,0.00869548,0.0110721,0.0140972,0.0179474,0.022848,0.0290856,inf	86.8467,86.8467,217.852,82.2017,53.5482,110.615,297.622,307.977,235.32,204.014,187.149,174.48,165.156,163.08,167.933,183.312,213.033,265.818,353.509,483.978,636.2,710.315,675.574,624.134,588.66,556.889,529.607,664.852,664.852,64303.1,64303.1,64303.1
0.00089127	-4607658.84	0,4.48912e-06,1.02029e-05,1.74754e-05,2.67319e-05,3.85136e-05,5.35094e-05,7.25962e-05,9.68899e-05,0.000127811,0.000167168,0.000217261,0.00028102,0.000362172,0.000465464,0.000596933,0.000764268,0.000977254,0.00124834,0.00159338,0.00203256,0.00259154,0.00330301,0.00420857,0.00536118,0.00682822,0.00869548,0.0110721,0.0140972,0.0179474,0.022848,0.0290856,inf	87.3818,87.3818,217.852,80.8501,49.3798,105.634,303.697,308.814,235.32,204.014,187.149,174.48,165.156,163.08,167.933,183.312,213.033,265.165,352.491,483.444,637.566,710.315,675.574,624.134,588.66,556.889,529.607,664.852,664.852,64303.1,64303.1,64303.1
0.00089127	-4607658.56	0,4.48912e-06,1.02029e-05,1.74754e-05,2.67319e-05,3.85136e-05,5.35094e-05,7.25962e-05,9.68899e-05,0.000127811,0.000167168,0.000217261,0.00028102,0.000362172,0.000465464,0.000596933,0.000764268,0.000977254,0.00124834,0.00159338,0.00203256,0.00259154,0.00330301,0.00420857,0.00536118,0.00682822,0.00869548,0.0110721,0.0140972,0.0179474,0.022848,0.0290856,inf	88.2612,88.2612,217.852,79.9076,45.6339,100.897,309.666,309.225,235.32,204.014,187.149,174.48,165.156,163.08,167.933,183.312,213.033,264.633,351.594,483.001,638.725,710.315,675.574,624.134,588.66,556.889,529.607,664.852,664.852,64303.1,64303.1,64303.1
0.00089127	-4607658.34	0,4.48912e-06,1.02029e-05,1.74754e-05,2.67319e-05,3.85136e-05,5.35094e-05,7.25962e-05,9.68899e-05,0.000127811,0.000167168,0.000217261,0.00028102,0.000362172,0.000465464,0.000596933,0.000764268,0.000977254,0.00124834,0.00159338,0.00203256,0.00259154,0.00330301,0.00420857,0.00536118,0.00682822,0.00869548,0.0110721,0.0140972,0.0179474,0.022848,0.0290856,inf	88.354,88.354,217.852,79.2964,42.247,96.3851,315.579,309.239,235.32,204.014,187.149,174.48,165.156,163.08,167.933,183.312,213.033,264.23,350.814,482.65,639.678,710.315,675.574,624.134,588.66,556.889,529.607,664.852,664.852,64303.1,64303.1,64303.1
0.00089127	-4607658.17	0,4.48912e-06,1.02029e-05,1.74754e-05,2.67319e-05,3.85136e-05,5.35094e-05,7.25962e-05,9.68899e-05,0.000127811,0.000167168,0.000217261,0.00028102,0.000362172,0.000465464,0.000596933,0.000764268,0.000977254,0.00124834,0.00159338,0.00203256,0.00259154,0.00330301,0.00420857,0.00536118,0.00682822,0.00869548,0.0110721,0.0140972,0.0179474,0.022848,0.0290856,inf	88.3895,88.3895,217.852,78.9879,39.1843,92.0907,320.993,309.239,235.32,204.014,187.149,174.48,165.156,163.08,167.933,183.312,213.033,263.909,350.117,482.36,640.491,710.315,675.574,624.134,588.66,556.889,529.607,664.852,664.852,64303.1,64303.1,64303.1
0.00089127	-4607658.03	0,4.48912e-06,1.02029e-05,1.74754e-05,2.67319e-05,3.85136e-05,5.35094e-05,7.25962e-05,9.68899e-05,0.000127811,0.000167168,0.000217261,0.00028102,0.000362172,0.000465464,0.000596933,0.000764268,0.000977254,0.00124834,0.00159338,0.00203256,0.00259154,0.00330301,0.00420857,0.00536118,0.00682822,0.00869548,0.0110721,0.0140972,0.0179474,0.022848,0.0290856,inf	88.5178,88.5178,217.852,78.9582,36.3973,88.004,325.939,309.239,235.32,204.014,187.149,174.48,165.156,163.08,167.933,183.312,213.033,263.637,349.485,482.115,640.512,710.86,675.574,624.134,588.66,556.889,529.607,664.852,664.852,64303.1,64303.1,64303.1
0.00089127	-4607657.86	0,4.48912e-06,1.02029e-05,1.74754e-05,2.67319e-05,3.85136e-05,5.35094e-05,7.25962e-05,9.68899e-05,0.000127811,0.000167168,0.000217261,0.00028102,0.000362172,0.000465464,0.000596933,0.000764268,0.000977254,0.00124834,0.00159338,0.00203256,0.00259154,0.00330301,0.00420857,0.00536118,0.00682822,0.00869548,0.0110721,0.0140972,0.0179474,0.022848,0.0290856,inf	88.5197,88.5197,217.852,78.9582,33.8545,84.112,330.566,309.239,235.32,204.014,187.149,174.48,165.156,163.08,167.933,183.312,213.033,263.463,348.945,481.955,641.055,710.86,675.574,624.134,588.66,556.889,529.607,664.852,664.852,64303.1,64303.1,64303.1
0.00089127	-4607657.78	0,4.48912e-06,1.02029e-05,1.74754e-05,2.67319e-05,3.85136e-05,5.35094e-05,7.25962e-05,9.68899e-05,0.000127811,0.000167168,0.000217261,0.00028102,0.000362172,0.000465464,0.000596933,0.000764268,0.000977254,0.00124834,0.00159338,0.00203256,0.00259154,0.00330301,0.00420857,0.00536118,0.00682822,0.00869548,0.0110721,0.0140972,0.0179474,0.022848,0.0290856,inf	88.5333,88.5333,217.852,78.9582,31.5308,80.4043,334.914,309.239,235.32,204.014,187.149,174.48,165.156,163.08,167.933,183.312,213.033,263.335,348.454,481.831,641.518,710.86,675.574,624.134,588.66,556.889,529.607,664.852,664.852,64303.1,64303.1,64303.1
