0.000711239	-8628039.35	0,6.04315e-06,1.62226e-05,3.33694e-05,6.22524e-05,0.000110905,0.000192857,0.000330902,0.000563433,0.000955121,0.0016149,0.00272627,0.00459833,0.00775172,0.0130635,0.0220109,inf	160.562,160.562,179.144,196.288,215.471,216.749,223.922,244.181,289.399,380.041,528.147,508.077,440.155,387.538,387.538,387.538
0.000799228	-8619152.16	0,6.04315e-06,1.62226e-05,3.33694e-05,6.22524e-05,0.000110905,0.000192857,0.000330902,0.000563433,0.000955121,0.0016149,0.00272627,0.00459833,0.00775172,0.0130635,0.0220109,inf	134.486,134.486,151.246,169.222,193.026,182.626,179.524,194.237,243.137,356.059,588.562,567.94,455.928,367.487,367.487,367.487
0.000879233	-8615593.57	0,6.04315e-06,1.62226e-05,3.33694e-05,6.22524e-05,0.000110905,0.000192857,0.000330902,0.000563433,0.000955121,0.0016149,0.00272627,0.00459833,0.00775172,0.0130635,0.0220109,inf	131.888,131.888,147.449,169.656,201.703,180.655,167.568,175.06,220.955,339.065,618.368,601.524,461.401,350.394,350.394,350.394
0.000953265	-8613554.35	0,6.04315e-06,1.62226e-05,3.33694e-05,6.22524e-05,0.000110905,0.000192857,0.000330902,0.000563433,0.000955121,0.0016149,0.00272627,0.00459833,0.00775172,0.0130635,0.0220109,inf	130.412,130.412,143.733,172.223,215.798,187.062,166.229,167.678,209.603,327.588,633.817,620.405,462.253,337.264,337.264,337.264
0.00102305	-8612099.42	0,6.04315e-06,1.62226e-05,3.33694e-05,6.22524e-05,0.000110905,0.000192857,0.000330902,0.000563433,0.000955121,0.0016149,0.00272627,0.00459833,0.00775172,0.0130635,0.0220109,inf	128.203,128.203,136.873,171.397,227.666,194.644,168.663,165.581,203.8,319.833,642.232,630.978,461.209,327.541,327.541,327.541
0.00108969	-8610936.01	0,6.04315e-06,1.62226e-05,3.33694e-05,6.22524e-05,0.000110905,0.000192857,0.000330902,0.000563433,0.000955121,0.0016149,0.00272627,0.00459833,0.00775172,0.0130635,0.0220109,inf	126.747,126.747,128.272,167.311,235.501,201.059,172.315,166.077,201.096,314.547,646.983,636.694,459.478,320.433,320.433,320.433
0.00115385	-8609949.77	0,6.04315e-06,1.62226e-05,3.33694e-05,6.22524e-05,0.000110905,0.000192857,0.000330902,0.000563433,0.000955121,0.0016149,0.00272627,0.00459833,0.00775172,0.0130635,0.0220109,inf	127.073,127.073,119.563,161.443,239.677,205.756,176.168,167.911,200.227,310.922,649.7,639.462,457.569,315.257,315.257,315.257
0.00121595	-8609086.69	0,6.04315e-06,1.62226e-05,3.33694e-05,6.22524e-05,0.000110905,0.000192857,0.000330902,0.000563433,0.000955121,0.0016149,0.00272627,0.00459833,0.00775172,0.0130635,0.0220109,inf	129.345,129.345,111.669,155.155,241.245,208.903,179.881,170.501,200.556,308.491,651.195,640.344,455.657,311.482,311.482,311.482
0.00127628	-8608317.27	0,6.04315e-06,1.62226e-05,3.33694e-05,6.22524e-05,0.000110905,0.000192857,0.000330902,0.000563433,0.000955121,0.0016149,0.00272627,0.00459833,0.00775172,0.0130635,0.0220109,inf	133.126,133.126,104.841,149.218,241.03,210.688,183.21,173.406,201.574,306.834,651.94,640.045,453.837,308.747,308.747,308.747
0.00133502	-8607622.60	0,6.04315e-06,1.62226e-05,3.33694e-05,6.22524e-05,0.000110905,0.000192857,0.000330902,0.000563433,0.000955121,0.0016149,0.00272627,0.00459833,0.00775172,0.0130635,0.0220109,inf	137.898,137.898,99.1065,144.111,239.836,211.48,186.161,176.449,203.038,305.732,652.198,638.973,452.116,306.775,306.775,306.775
0.00139231	-8606990.30	0,6.04315e-06,1.62226e-05,3.33694e-05,6.22524e-05,0.000110905,0.000192857,0.000330902,0.000563433,0.000955121,0.0016149,0.00272627,0.00459833,0.00775172,0.0130635,0.0220109,inf	143.125,143.125,94.3403,140.017,238.197,211.579,188.766,179.522,204.789,305.032,652.131,637.39,450.483,305.366,305.366,305.366
0.00144826	-8606411.33	0,6.04315e-06,1.62226e-05,3.33694e-05,6.22524e-05,0.000110905,0.000192857,0.000330902,0.000563433,0.000955121,0.0016149,0.00272627,0.00459833,0.00775172,0.0130635,0.0220109,inf	148.348,148.348,90.3871,136.964,236.444,211.207,191.066,182.561,206.72,304.627,651.84,635.47,448.922,304.373,304.373,304.373
0.00150294	-8605878.74	0,6.04315e-06,1.62226e-05,3.33694e-05,6.22524e-05,0.000110905,0.000192857,0.000330902,0.000563433,0.000955121,0.0016149,0.00272627,0.00459833,0.00775172,0.0130635,0.0220109,inf	153.238,153.238,87.098,134.895,234.769,210.533,193.106,185.528,208.76,304.441,651.392,633.334,447.419,303.69,303.69,303.69
0.00155642	-8605387.00	0,6.04315e-06,1.62226e-05,3.33694e-05,6.22524e-05,0.000110905,0.000192857,0.000330902,0.000563433,0.000955121,0.0016149,0.00272627,0.00459833,0.00775172,0.0130635,0.0220109,inf	157.614,157.614,84.3491,133.725,233.275,209.678,194.924,188.4,210.861,304.418,650.834,631.062,445.962,303.238,303.238,303.238
0.00160877	-8604931.56	0,6.04315e-06,1.62226e-05,3.33694e-05,6.22524e-05,0.000110905,0.000192857,0.000330902,0.000563433,0.000955121,0.0016149,0.00272627,0.00459833,0.00775172,0.0130635,0.0220109,inf	161.364,161.364,82.0334,133.353,232.006,208.725,196.559,191.166,212.988,304.518,650.198,628.714,444.543,302.957,302.957,302.957
0.00166002	-8604508.61	0,6.04315e-06,1.62226e-05,3.33694e-05,6.22524e-05,0.000110905,0.000192857,0.000330902,0.000563433,0.000955121,0.0016149,0.00272627,0.00459833,0.00775172,0.0130635,0.0220109,inf	164.477,164.477,80.0657,133.681,230.968,207.736,198.039,193.822,215.117,304.71,649.509,626.331,443.155,302.805,302.805,302.805
0.00171023	-8604114.90	0,6.04315e-06,1.62226e-05,3.33694e-05,6.22524e-05,0.000110905,0.000192857,0.000330902,0.000563433,0.000955121,0.0016149,0.00272627,0.00459833,0.00775172,0.0130635,0.0220109,inf	166.98,166.98,78.3694,134.619,230.152,206.753,199.391,196.366,217.232,304.972,648.784,623.943,441.794,302.747,302.747,302.747
0.00175943	-8603747.64	0,6.04315e-06,1.62226e-05,3.33694e-05,6.22524e-05,0.000110905,0.000192857,0.000330902,0.000563433,0.000955121,0.0016149,0.00272627,0.00459833,0.00775172,0.0130635,0.0220109,inf	168.921,168.921,76.8892,136.085,229.539,205.802,200.636,198.8,219.322,305.286,648.035,621.57,440.457,302.759,302.759,302.759
0.00180767	-8603404.39	0,6.04315e-06,1.62226e-05,3.33694e-05,6.22524e-05,0.000110905,0.000192857,0.000330902,0.000563433,0.000955121,0.0016149,0.00272627,0.00459833,0.00775172,0.0130635,0.0220109,inf	170.369,170.369,75.577,137.999,229.099,204.904,201.794,201.127,221.378,305.639,647.272,619.227,439.142,302.821,302.821,302.821
0.00185497	-8603083.00	0,6.04315e-06,1.62226e-05,3.33694e-05,6.22524e-05,0.000110905,0.000192857,0.000330902,0.000563433,0.000955121,0.0016149,0.00272627,0.00459833,0.00775172,0.0130635,0.0220109,inf	171.406,171.406,74.3941,140.295,228.809,204.07,202.878,203.352,223.396,306.021,646.502,616.924,437.849,302.917,302.917,302.917
