0.000714122	-13850126.53	0,4.03372e-06,1.10328e-05,2.31772e-05,4.42495e-05,8.0813e-05,0.000144256,0.000254338,0.000445347,0.000776776,0.00135185,0.00234969,0.00408108,0.0070853,0.0122981,0.0213429,inf	178.085,178.085,218.872,214.659,206.841,212.373,219.146,233.383,267.296,338.772,489.912,529.939,454.388,391.56,391.56,391.56
0.000804072	-13835685.45	0,4.03372e-06,1.10328e-05,2.31772e-05,4.42495e-05,8.0813e-05,0.000144256,0.000254338,0.000445347,0.000776776,0.00135185,0.00234969,0.00408108,0.0070853,0.0122981,0.0213429,inf	149.682,149.682,217.754,202.405,181.381,181.553,179.654,185.804,218.594,303.163,519.715,601.477,479.608,371.335,371.335,371.335
0.000885368	-13829923.12	0,4.03372e-06,1.10328e-05,2.31772e-05,4.42495e-05,8.0813e-05,0.000144256,0.000254338,0.000445347,0.000776776,0.00135185,0.00234969,0.00408108,0.0070853,0.0122981,0.0213429,inf	136.502,136.502,235.616,212.946,184.268,182.302,172.774,170.081,197.361,282.953,529.684,642.016,491.624,352.948,352.948,352.948
0.000960443	-13826602.19	0,4.03372e-06,1.10328e-05,2.31772e-05,4.42495e-05,8.0813e-05,0.000144256,0.000254338,0.000445347,0.000776776,0.00135185,0.00234969,0.00408108,0.0070853,0.0122981,0.0213429,inf	121.208,121.208,246.689,220.613,190.457,190.161,175.666,165.738,187.518,271.002,532.646,665.439,497.114,338.378,338.378,338.378
0.00103113	-13824229.07	0,4.03372e-06,1.10328e-05,2.31772e-05,4.42495e-05,8.0813e-05,0.000144256,0.000254338,0.000445347,0.000776776,0.00135185,0.00234969,0.00408108,0.0070853,0.0122981,0.0213429,inf	105.869,105.869,249.371,221.229,193.794,197.988,181.333,166.113,183.186,263.77,533.221,679.069,499.426,327.338,327.338,327.338
0.00109854	-13822335.73	0,4.03372e-06,1.10328e-05,2.31772e-05,4.42495e-05,8.0813e-05,0.000144256,0.000254338,0.000445347,0.000776776,0.00135185,0.00234969,0.00408108,0.0070853,0.0122981,0.0213429,inf	93.1051,93.1051,247.739,216.581,193.581,203.646,187.194,168.502,181.731,259.36,532.915,686.874,500.199,319.104,319.104,319.104
0.00116334	-13820735.50	0,4.03372e-06,1.10328e-05,2.31772e-05,4.42495e-05,8.0813e-05,0.000144256,0.000254338,0.000445347,0.000776776,0.00135185,0.00234969,0.00408108,0.0070853,0.0122981,0.0213429,inf	83.6477,83.6477,245.446,209.375,190.85,206.96,192.384,171.752,181.896,256.735,532.359,691.051,500.205,312.98,312.98,312.98
0.00122597	-13819339.26	0,4.03372e-06,1.10328e-05,2.31772e-05,4.42495e-05,8.0813e-05,0.000144256,0.000254338,0.000445347,0.000776776,0.00135185,0.00234969,0.00408108,0.0070853,0.0122981,0.0213429,inf	77.1046,77.1046,244.395,201.529,186.78,208.359,196.681,175.312,183.005,255.274,531.786,692.881,499.813,308.418,308.418,308.418
0.00128671	-13818097.39	0,4.03372e-06,1.10328e-05,2.31772e-05,4.42495e-05,8.0813e-05,0.000144256,0.000254338,0.000445347,0.000776776,0.00135185,0.00234969,0.00408108,0.0070853,0.0122981,0.0213429,inf	72.7512,72.7512,245.187,194.052,182.264,208.389,200.117,178.917,184.674,254.595,531.275,693.152,499.199,305.011,305.011,305.011
0.00134575	-13816978.98	0,4.03372e-06,1.10328e-05,2.31772e-05,4.42495e-05,8.0813e-05,0.000144256,0.000254338,0.000445347,0.000776776,0.00135185,0.00234969,0.00408108,0.0070853,0.0122981,0.0213429,inf	69.9386,69.9386,247.743,187.365,177.866,207.535,202.812,182.436,186.673,254.45,530.85,692.368,498.452,302.464,302.464,302.464
0.00140325	-13815962.98	0,4.03372e-06,1.10328e-05,2.31772e-05,4.42495e-05,8.0813e-05,0.000144256,0.000254338,0.000445347,0.000776776,0.00135185,0.00234969,0.00408108,0.0070853,0.0122981,0.0213429,inf	68.1351,68.1351,251.71,181.549,173.905,206.165,204.905,185.806,188.859,254.676,530.509,690.862,497.615,300.56,300.56,300.56
0.00145932	-13815034.12	0,4.03372e-06,1.10328e-05,2.31772e-05,4.42495e-05,8.0813e-05,0.000144256,0.000254338,0.000445347,0.000776776,0.00135185,0.00234969,0.00408108,0.0070853,0.0122981,0.0213429,inf	66.9573,66.9573,256.661,176.54,170.533,204.547,206.525,189.003,191.14,255.159,530.244,688.864,496.713,299.142,299.142,299.142
0.00151404	-13814180.78	0,4.03372e-06,1.10328e-05,2.31772e-05,4.42495e-05,8.0813e-05,0.000144256,0.000254338,0.000445347,0.000776776,0.00135185,0.00234969,0.00408108,0.0070853,0.0122981,0.0213429,inf	66.1594,66.1594,262.207,172.22,167.792,202.86,207.782,192.017,193.458,255.824,530.045,686.532,495.759,298.092,298.092,298.092
0.0015675	-13813393.69	0,4.03372e-06,1.10328e-05,2.31772e-05,4.42495e-05,8.0813e-05,0.000144256,0.000254338,0.000445347,0.000776776,0.00135185,0.00234969,0.00408108,0.0070853,0.0122981,0.0213429,inf	65.5651,65.5651,268.037,168.454,165.68,201.224,208.765,194.853,195.775,256.615,529.902,683.979,494.761,297.323,297.323,297.323
0.00161975	-13812665.34	0,4.03372e-06,1.10328e-05,2.31772e-05,4.42495e-05,8.0813e-05,0.000144256,0.000254338,0.000445347,0.000776776,0.00135185,0.00234969,0.00408108,0.0070853,0.0122981,0.0213429,inf	65.087,65.087,273.89,165.136,164.155,199.71,209.545,197.518,198.065,257.492,529.807,681.287,493.726,296.771,296.771,296.771
0.00167086	-13811989.42	0,4.03372e-06,1.10328e-05,2.31772e-05,4.42495e-05,8.0813e-05,0.000144256,0.000254338,0.000445347,0.000776776,0.00135185,0.00234969,0.00408108,0.0070853,0.0122981,0.0213429,inf	64.6765,64.6765,279.594,162.17,163.167,198.357,210.176,200.022,200.312,258.428,529.751,678.514,492.66,296.386,296.386,296.386
0.00172086	-13811360.60	0,4.03372e-06,1.10328e-05,2.31772e-05,4.42495e-05,8.0813e-05,0.000144256,0.000254338,0.000445347,0.000776776,0.00135185,0.00234969,0.00408108,0.0070853,0.0122981,0.0213429,inf	64.3078,64.3078,285.04,159.478,162.659,197.187,210.701,202.376,202.505,259.401,529.729,675.704,491.568,296.13,296.13,296.13
0.00176982	-13810774.31	0,4.03372e-06,1.10328e-05,2.31772e-05,4.42495e-05,8.0813e-05,0.000144256,0.000254338,0.000445347,0.000776776,0.00135185,0.00234969,0.00408108,0.0070853,0.0122981,0.0213429,inf	64.0089,64.0089,290.142,157.001,162.572,196.205,211.151,204.59,204.638,260.395,529.735,672.888,490.454,295.975,295.975,295.975
0.00181777	-13810226.57	0,4.03372e-06,1.10328e-05,2.31772e-05,4.42495e-05,8.0813e-05,0.000144256,0.000254338,0.000445347,0.000776776,0.00135185,0.00234969,0.00408108,0.0070853,0.0122981,0.0213429,inf	63.7622,63.7622,294.858,154.693,162.854,195.408,211.553,206.675,206.708,261.4,529.765,670.09,489.322,295.897,295.897,295.897
0.00186474	-13809713.91	0,4.03372e-06,1.10328e-05,2.31772e-05,4.42495e-05,8.0813e-05,0.000144256,0.000254338,0.000445347,0.000776776,0.00135185,0.00234969,0.00408108,0.0070853,0.0122981,0.0213429,inf	63.6011,63.6011,299.179,152.518,163.457,194.787,211.924,208.641,208.713,262.405,529.815,667.324,488.175,295.879,295.879,295.879
