9.59606e-06	-340852.93	0,5.91632e-08,1.6182e-07,3.39944e-07,6.49015e-07,1.1853e-06,2.11583e-06,3.73042e-06,6.53199e-06,1.13931e-05,1.98278e-05,3.44633e-05,5.9858e-05,0.000103921,0.000180378,0.00031304,inf	2069.63,2069.63,3898.84,5097.79,5465.57,6037.7,8474.67,12801,19285,28746.3,34909.3,27778.4,29124.1,54565.9,54565.9,54565.9
1.01057e-05	-340703.04	0,5.91632e-08,1.6182e-07,3.39944e-07,6.49015e-07,1.1853e-06,2.11583e-06,3.73042e-06,6.53199e-06,1.13931e-05,1.98278e-05,3.44633e-05,5.9858e-05,0.000103921,0.000180378,0.00031304,inf	632.612,632.612,2208.49,3485.28,3245.05,2641.4,3924.55,7881.9,15468.1,28947.5,39335.6,26690.8,28777.7,162508,162508,162508
1.01057e-05	-340663.92	0,5.91632e-08,1.6182e-07,3.39944e-07,6.49015e-07,1.1853e-06,2.11583e-06,3.73042e-06,6.53199e-06,1.13931e-05,1.98278e-05,3.44633e-05,5.9858e-05,0.000103921,0.000180378,0.00031304,inf	361.349,361.349,2326.11,4340.44,3318.83,1719.28,2311.52,5648.6,13258.1,28691.7,41174.7,25034,27362.3,3.44117e+06,3.44117e+06,3.44117e+06
