AIC = 2391399.4436309942976

y0 0.74891941027042130408
y0_prime 0
y1 0.80807785979144852728
y1_prime 0
y2 1.0854736972101801662
y2_prime 0
y3 1.8406842906194804677
y3_prime 0
rho 0.0017653884056388524822
theta 0.0048744482570377443628
