AIC = 2917793.0637191445567

y0 0.61474679765713102775
y0_prime 0
y1 0.98549453302039524694
y1_prime 0
y2 0.75628835523735249424
y2_prime 0
y3 1.5180364734580176211
y3_prime 0
rho 0.0054735861839842843077
rho.alpha 0.29766875948025373066
r_ii 0.99985440698456662378
theta 0.0047559542678628028561
