0.000320671	-7761417.62	0,2.07941e-06,5.68747e-06,1.1948e-05,2.28109e-05,4.16596e-05,7.43648e-05,0.000131113,0.000229579,0.000400433,0.000696888,0.00121128,0.00210382,0.00365252,0.00633972,0.0110024,inf	92.7226,92.7226,305.331,357.226,491.891,542.878,574.627,608.402,640,703.66,789.122,856.864,879.75,969.213,969.213,969.213
0.000320673	-7760424.68	0,2.07941e-06,5.68747e-06,1.1948e-05,2.28109e-05,4.16596e-05,7.43648e-05,0.000131113,0.000229579,0.000400433,0.000696888,0.00121128,0.00210382,0.00365252,0.00633972,0.0110024,inf	19.5787,19.5787,236.431,261.679,438.027,491.707,523.537,561.681,589.721,669.391,785.343,886.502,935.733,1183.28,1183.28,1183.28
0.000318701	-7760276.23	0,2.07941e-06,5.68747e-06,1.1948e-05,2.28109e-05,4.16596e-05,7.43648e-05,0.000131113,0.000229579,0.000400433,0.000696888,0.00121128,0.00210382,0.00365252,0.00633972,0.0110024,inf	5.07491,5.07491,230.773,225.598,430.916,481.741,511.082,551.169,569.696,653.176,780.733,896.159,967.132,1462.82,1462.82,1462.82
0.000315481	-7760323.37	0,2.07941e-06,5.68747e-06,1.1948e-05,2.28109e-05,4.16596e-05,7.43648e-05,0.000131113,0.000229579,0.000400433,0.000696888,0.00121128,0.00210382,0.00365252,0.00633972,0.0110024,inf	1.40662,1.40662,240.727,205.2,433.456,480.722,508.345,551.759,560.989,645.159,777.401,896.576,982.589,1901.87,1901.87,1901.87
0.000311426	-7760447.97	0,2.07941e-06,5.68747e-06,1.1948e-05,2.28109e-05,4.16596e-05,7.43648e-05,0.000131113,0.000229579,0.000400433,0.000696888,0.00121128,0.00210382,0.00365252,0.00633972,0.0110024,inf	0.78564,0.78564,254.941,190.64,437.249,480.867,507.317,555.279,556.682,641.107,775.717,892.677,986.783,2895.9,2895.9,2895.9
0.000306735	-7760651.67	0,2.07941e-06,5.68747e-06,1.1948e-05,2.28109e-05,4.16596e-05,7.43648e-05,0.000131113,0.000229579,0.000400433,0.000696888,0.00121128,0.00210382,0.00365252,0.00633972,0.0110024,inf	0.785635,0.785635,270.065,179.21,440.717,480.787,506.121,559.114,554.099,639.045,775.537,886.252,981.403,8660.98,8660.98,8660.98
0.000306722	-7761010.08	0,2.07941e-06,5.68747e-06,1.1948e-05,2.28109e-05,4.16596e-05,7.43648e-05,0.000131113,0.000229579,0.000400433,0.000696888,0.00121128,0.00210382,0.00365252,0.00633972,0.0110024,inf	0.785635,0.785635,285.951,170.578,445.422,482.385,506.547,564.962,554.32,640.449,779.756,880.711,970.122,98329.4,98329.4,98329.4
