time_index	left_time_boundary	right_time_boundary	lambda
0	0	4.20448e-06	86.4346
1	4.20448e-06	1.14998e-05	86.4346
2	1.14998e-05	2.41584e-05	311.641
3	2.41584e-05	4.61227e-05	251.242
4	4.61227e-05	8.4234e-05	288.899
5	8.4234e-05	0.000150363	217.424
6	0.000150363	0.000265105	258.159
7	0.000265105	0.0004642	286.734
8	0.0004642	0.000809659	280.649
9	0.000809659	0.00140908	332.239
10	0.00140908	0.00244916	419.507
11	0.00244916	0.00425385	402.416
12	0.00425385	0.00738524	274.517
13	0.00738524	0.0128187	48748.5
14	0.0128187	0.0222464	48748.5
15	0.0222464	inf	48748.5
