0.000678177	-14068109.74	0,4.20448e-06,1.14998e-05,2.41584e-05,4.61227e-05,8.4234e-05,0.000150363,0.000265105,0.0004642,0.000809659,0.00140908,0.00244916,0.00425385,0.00738524,0.0128187,0.0222464,inf	209.157,209.157,285.312,284.903,281.846,276.306,284.847,299.503,319.473,354.052,395.637,413.262,405.738,442.826,442.826,442.826
0.000709188	-14066307.41	0,4.20448e-06,1.14998e-05,2.41584e-05,4.61227e-05,8.4234e-05,0.000150363,0.000265105,0.0004642,0.000809659,0.00140908,0.00244916,0.00425385,0.00738524,0.0128187,0.0222464,inf	164.643,164.643,283.739,277.643,268.816,252.494,259.777,275.321,296.601,341.729,400.266,424.414,411.503,494.009,494.009,494.009
0.000736208	-14065698.50	0,4.20448e-06,1.14998e-05,2.41584e-05,4.61227e-05,8.4234e-05,0.000150363,0.000265105,0.0004642,0.000809659,0.00140908,0.00244916,0.00425385,0.00738524,0.0128187,0.0222464,inf	140.873,140.873,291.924,281.871,271.583,247.015,253.861,268.813,287.491,336.305,402.994,428.768,410.988,543.623,543.623,543.623
0.000760187	-14065398.66	0,4.20448e-06,1.14998e-05,2.41584e-05,4.61227e-05,8.4234e-05,0.000150363,0.000265105,0.0004642,0.000809659,0.00140908,0.00244916,0.00425385,0.00738524,0.0128187,0.0222464,inf	124.517,124.517,297.141,284.051,275.5,245.265,253.311,268.149,283.573,333.702,404.845,429.923,407.137,593.269,593.269,593.269
0.000781832	-14065224.94	0,4.20448e-06,1.14998e-05,2.41584e-05,4.61227e-05,8.4234e-05,0.000150363,0.000265105,0.0004642,0.000809659,0.00140908,0.00244916,0.00425385,0.00738524,0.0128187,0.0222464,inf	113.115,113.115,299.595,283.376,278.035,243.763,254.112,269.471,281.848,332.427,406.351,429.629,401.508,644.517,644.517,644.517
0.000801597	-14065123.57	0,4.20448e-06,1.14998e-05,2.41584e-05,4.61227e-05,8.4234e-05,0.000150363,0.000265105,0.0004642,0.000809659,0.00140908,0.00244916,0.00425385,0.00738524,0.0128187,0.0222464,inf	105.342,105.342,300.859,281.083,279.384,241.887,255.067,271.39,281.11,331.821,407.737,428.718,394.914,699.084,699.084,699.084
0.000819772	-14065073.96	0,4.20448e-06,1.14998e-05,2.41584e-05,4.61227e-05,8.4234e-05,0.000150363,0.000265105,0.0004642,0.000809659,0.00140908,0.00244916,0.00425385,0.00738524,0.0128187,0.0222464,inf	100.126,100.126,301.844,278.171,280.098,239.709,255.869,273.391,280.831,331.559,409.08,427.579,387.784,759.097,759.097,759.097
0.000836547	-14065066.60	0,4.20448e-06,1.14998e-05,2.41584e-05,4.61227e-05,8.4234e-05,0.000150363,0.000265105,0.0004642,0.000809659,0.00140908,0.00244916,0.00425385,0.00738524,0.0128187,0.0222464,inf	96.5602,96.5602,302.849,275.156,280.577,237.407,256.488,275.295,280.768,331.471,410.399,426.382,380.335,827.512,827.512,827.512
0.000852056	-14065096.93	0,4.20448e-06,1.14998e-05,2.41584e-05,4.61227e-05,8.4234e-05,0.000150363,0.000265105,0.0004642,0.000809659,0.00140908,0.00244916,0.00425385,0.00738524,0.0128187,0.0222464,inf	94.1029,94.1029,303.921,272.258,281.042,235.117,256.968,277.049,280.807,331.463,411.693,425.189,372.674,908.902,908.902,908.902
0.000866389	-14065163.41	0,4.20448e-06,1.14998e-05,2.41584e-05,4.61227e-05,8.4234e-05,0.000150363,0.000265105,0.0004642,0.000809659,0.00140908,0.00244916,0.00425385,0.00738524,0.0128187,0.0222464,inf	92.3464,92.3464,305.031,269.554,281.59,232.922,257.358,278.651,280.893,331.489,412.956,424.001,364.833,1011.23,1011.23,1011.23
0.000879605	-14065267.50	0,4.20448e-06,1.14998e-05,2.41584e-05,4.61227e-05,8.4234e-05,0.000150363,0.000265105,0.0004642,0.000809659,0.00140908,0.00244916,0.00425385,0.00738524,0.0128187,0.0222464,inf	91.0341,91.0341,306.128,267.05,282.247,230.859,257.695,280.116,281.003,331.524,414.181,422.781,356.797,1150.62,1150.62,1150.62
0.000891724	-14065415.55	0,4.20448e-06,1.14998e-05,2.41584e-05,4.61227e-05,8.4234e-05,0.000150363,0.000265105,0.0004642,0.000809659,0.00140908,0.00244916,0.00425385,0.00738524,0.0128187,0.0222464,inf	90.0557,90.0557,307.166,264.725,283.008,228.946,258.007,281.46,281.128,331.56,415.362,421.447,348.5,1367.23,1367.23,1367.23
0.000902705	-14065625.76	0,4.20448e-06,1.14998e-05,2.41584e-05,4.61227e-05,8.4234e-05,0.000150363,0.000265105,0.0004642,0.000809659,0.00140908,0.00244916,0.00425385,0.00738524,0.0128187,0.0222464,inf	89.2989,89.2989,308.161,262.566,283.863,227.187,258.314,282.704,281.266,331.6,416.484,419.844,339.805,1795.23,1795.23,1795.23
0.00091237	-14065949.64	0,4.20448e-06,1.14998e-05,2.41584e-05,4.61227e-05,8.4234e-05,0.000150363,0.000265105,0.0004642,0.000809659,0.00140908,0.00244916,0.00425385,0.00738524,0.0128187,0.0222464,inf	88.7005,88.7005,309.086,260.572,284.802,225.583,258.63,283.868,281.43,331.657,417.506,417.65,330.449,3000.13,3000.13,3000.13
0.000920458	-14066464.87	0,4.20448e-06,1.14998e-05,2.41584e-05,4.61227e-05,8.4234e-05,0.000150363,0.000265105,0.0004642,0.000809659,0.00140908,0.00244916,0.00425385,0.00738524,0.0128187,0.0222464,inf	88.2478,88.2478,309.999,258.733,285.823,224.136,258.965,284.97,281.637,331.764,418.389,414.441,320.201,6596.71,6596.71,6596.71
0.000927574	-14066928.42	0,4.20448e-06,1.14998e-05,2.41584e-05,4.61227e-05,8.4234e-05,0.000150363,0.000265105,0.0004642,0.000809659,0.00140908,0.00244916,0.00425385,0.00738524,0.0128187,0.0222464,inf	87.891,87.891,310.863,257.006,286.854,222.779,259.244,285.949,281.853,331.985,419.479,410.871,309.754,23973.4,23973.4,23973.4
0.000927574	-14067186.03	0,4.20448e-06,1.14998e-05,2.41584e-05,4.61227e-05,8.4234e-05,0.000150363,0.000265105,0.0004642,0.000809659,0.00140908,0.00244916,0.00425385,0.00738524,0.0128187,0.0222464,inf	87.3808,87.3808,311.085,254.905,287.325,221.082,258.956,286.23,281.467,331.514,419.407,406.09,299.39,48742.8,48742.8,48742.8
0.000927574	-14067171.67	0,4.20448e-06,1.14998e-05,2.41584e-05,4.61227e-05,8.4234e-05,0.000150363,0.000265105,0.0004642,0.000809659,0.00140908,0.00244916,0.00425385,0.00738524,0.0128187,0.0222464,inf	87.0051,87.0051,311.383,253.381,288.203,219.652,258.668,286.477,281.231,331.608,419.507,403.417,290.163,48745.1,48745.1,48745.1
0.000927574	-14067099.97	0,4.20448e-06,1.14998e-05,2.41584e-05,4.61227e-05,8.4234e-05,0.000150363,0.000265105,0.0004642,0.000809659,0.00140908,0.00244916,0.00425385,0.00738524,0.0128187,0.0222464,inf	86.6882,86.6882,311.63,252.174,288.899,218.434,258.39,286.633,280.967,331.896,419.507,402.416,281.941,48746.9,48746.9,48746.9
0.000927574	-14067041.20	0,4.20448e-06,1.14998e-05,2.41584e-05,4.61227e-05,8.4234e-05,0.000150363,0.000265105,0.0004642,0.000809659,0.00140908,0.00244916,0.00425385,0.00738524,0.0128187,0.0222464,inf	86.4346,86.4346,311.641,251.242,288.899,217.424,258.159,286.734,280.649,332.239,419.507,402.416,274.517,48748.5,48748.5,48748.5
