LogLikelihood = -35121.004153899135417

y0 0.019195489116145530301
y0_prime 0
y1 0.85413212238616387229
y1_prime 0
y2 1.7006800020345953506
y2_prime 0
y3 2.2494433118450949394
y3_prime 0
rho 3.8871829705518992236e-06
theta 6.6913169204249693103e-05
