0.000546566	-4428860.26	0,1.01357e-05,2.65558e-05,5.31569e-05,9.62515e-05,0.000166066,0.000279168,0.000462397,0.000759233,0.00124012,0.00201916,0.00328124,0.00532586,0.00863819,0.0140043,0.0226975,inf	614.815,614.815,492.921,414.818,400.75,388.322,388.219,395.943,408.508,416.244,423.241,428.984,379.652,269.957,269.957,269.957
0.000492011	-4427973.54	0,1.01357e-05,2.65558e-05,5.31569e-05,9.62515e-05,0.000166066,0.000279168,0.000462397,0.000759233,0.00124012,0.00201916,0.00328124,0.00532586,0.00863819,0.0140043,0.0226975,inf	747.727,747.727,555.453,427.68,411.286,385.213,381.268,389.678,409.034,420.707,433.587,453.853,367.213,211.418,211.418,211.418
0.000445697	-4427521.80	0,1.01357e-05,2.65558e-05,5.31569e-05,9.62515e-05,0.000166066,0.000279168,0.000462397,0.000759233,0.00124012,0.00201916,0.00328124,0.00532586,0.00863819,0.0140043,0.0226975,inf	821.976,821.976,602.501,438.779,427.01,387.536,379.415,385.7,409.098,422.218,437.94,477.327,362.184,179.677,179.677,179.677
0.000406281	-4427211.47	0,1.01357e-05,2.65558e-05,5.31569e-05,9.62515e-05,0.000166066,0.000279168,0.000462397,0.000759233,0.00124012,0.00201916,0.00328124,0.00532586,0.00863819,0.0140043,0.0226975,inf	863.916,863.916,642.369,447.459,444.288,391.727,379.934,382.907,409.112,422.593,437.764,496.838,360.078,160.015,160.015,160.015
0.000373113	-4426983.62	0,1.01357e-05,2.65558e-05,5.31569e-05,9.62515e-05,0.000166066,0.000279168,0.000462397,0.000759233,0.00124012,0.00201916,0.00328124,0.00532586,0.00863819,0.0140043,0.0226975,inf	889.011,889.011,679.366,453.886,461.692,396.427,381.604,380.723,409.14,423.05,434.975,511.672,358.771,146.664,146.664,146.664
0.000345625	-4426826.27	0,1.01357e-05,2.65558e-05,5.31569e-05,9.62515e-05,0.000166066,0.000279168,0.000462397,0.000759233,0.00124012,0.00201916,0.00328124,0.00532586,0.00863819,0.0140043,0.0226975,inf	904.384,904.384,715.094,458.213,478.529,401.088,383.855,378.852,409.004,424.095,431.079,522.187,357.532,136.951,136.951,136.951
0.00032318	-4426730.99	0,1.01357e-05,2.65558e-05,5.31569e-05,9.62515e-05,0.000166066,0.000279168,0.000462397,0.000759233,0.00124012,0.00201916,0.00328124,0.00532586,0.00863819,0.0140043,0.0226975,inf	913.038,913.038,749.797,460.515,494.341,405.458,386.401,377.184,408.516,425.77,427.012,529.188,356.295,129.501,129.501,129.501
0.000305084	-4426686.16	0,1.01357e-05,2.65558e-05,5.31569e-05,9.62515e-05,0.000166066,0.000279168,0.000462397,0.000759233,0.00124012,0.00201916,0.00328124,0.00532586,0.00863819,0.0140043,0.0226975,inf	916.399,916.399,783.181,460.887,508.798,409.383,389.07,375.72,407.587,427.904,423.261,533.549,355.205,123.558,123.558,123.558
0.000290645	-4426678.55	0,1.01357e-05,2.65558e-05,5.31569e-05,9.62515e-05,0.000166066,0.000279168,0.000462397,0.000759233,0.00124012,0.00201916,0.00328124,0.00532586,0.00863819,0.0140043,0.0226975,inf	915.414,915.414,814.927,459.505,521.723,412.762,391.738,374.5,406.241,430.276,420.023,536.04,354.4,118.685,118.685,118.685
0.000279213	-4426695.74	0,1.01357e-05,2.65558e-05,5.31569e-05,9.62515e-05,0.000166066,0.000279168,0.000462397,0.000759233,0.00124012,0.00201916,0.00328124,0.00532586,0.00863819,0.0140043,0.0226975,inf	910.961,910.961,844.783,456.637,533.061,415.543,394.301,373.557,404.574,432.69,417.338,537.268,353.947,114.616,114.616,114.616
0.000270213	-4426727.52	0,1.01357e-05,2.65558e-05,5.31569e-05,9.62515e-05,0.000166066,0.000279168,0.000462397,0.000759233,0.00124012,0.00201916,0.00328124,0.00532586,0.00863819,0.0140043,0.0226975,inf	903.861,903.861,872.659,452.577,542.87,417.723,396.684,372.903,402.709,435.009,415.168,537.68,353.843,111.184,111.184,111.184
0.000263154	-4426766.35	0,1.01357e-05,2.65558e-05,5.31569e-05,9.62515e-05,0.000166066,0.000279168,0.000462397,0.000759233,0.00124012,0.00201916,0.00328124,0.00532586,0.00863819,0.0140043,0.0226975,inf	894.824,894.824,898.536,447.643,551.295,419.34,398.829,372.524,400.762,437.147,413.445,537.59,354.038,108.275,108.275,108.275
0.000257631	-4426807.09	0,1.01357e-05,2.65558e-05,5.31569e-05,9.62515e-05,0.000166066,0.000279168,0.000462397,0.000759233,0.00124012,0.00201916,0.00328124,0.00532586,0.00863819,0.0140043,0.0226975,inf	884.46,884.46,922.465,442.118,558.518,420.459,400.709,372.392,398.829,439.064,412.093,537.209,354.462,105.807,105.807,105.807
0.000253312	-4426846.56	0,1.01357e-05,2.65558e-05,5.31569e-05,9.62515e-05,0.000166066,0.000279168,0.000462397,0.000759233,0.00124012,0.00201916,0.00328124,0.00532586,0.00863819,0.0140043,0.0226975,inf	873.315,873.315,944.56,436.24,564.722,421.155,402.313,372.462,396.974,440.747,411.043,536.676,355.041,103.717,103.717,103.717
0.000249935	-4426882.97	0,1.01357e-05,2.65558e-05,5.31569e-05,9.62515e-05,0.000166066,0.000279168,0.000462397,0.000759233,0.00124012,0.00201916,0.00328124,0.00532586,0.00863819,0.0140043,0.0226975,inf	861.767,861.767,964.912,430.194,570.089,421.514,403.653,372.694,395.242,442.203,410.232,536.079,355.71,101.952,101.952,101.952
0.0002473	-4426915.48	0,1.01357e-05,2.65558e-05,5.31569e-05,9.62515e-05,0.000166066,0.000279168,0.000462397,0.000759233,0.00124012,0.00201916,0.00328124,0.00532586,0.00863819,0.0140043,0.0226975,inf	850.579,850.579,984.183,424.361,575.067,421.825,404.934,373.177,393.737,443.479,409.574,535.544,356.453,100.496,100.496,100.496
0.000245232	-4426943.17	0,1.01357e-05,2.65558e-05,5.31569e-05,9.62515e-05,0.000166066,0.000279168,0.000462397,0.000759233,0.00124012,0.00201916,0.00328124,0.00532586,0.00863819,0.0140043,0.0226975,inf	838.978,838.978,1001.33,418.342,579.148,421.715,405.811,373.615,392.306,444.541,409.07,534.979,357.139,99.2623,99.2623,99.2623
0.000243608	-4426967.34	0,1.01357e-05,2.65558e-05,5.31569e-05,9.62515e-05,0.000166066,0.000279168,0.000462397,0.000759233,0.00124012,0.00201916,0.00328124,0.00532586,0.00863819,0.0140043,0.0226975,inf	827.68,827.68,1017.05,412.457,582.74,421.438,406.464,374.081,391.012,445.44,408.694,534.442,357.788,98.2278,98.2278,98.2278
0.00024233	-4426987.95	0,1.01357e-05,2.65558e-05,5.31569e-05,9.62515e-05,0.000166066,0.000279168,0.000462397,0.000759233,0.00124012,0.00201916,0.00328124,0.00532586,0.00863819,0.0140043,0.0226975,inf	816.855,816.855,1031.53,406.775,585.966,421.072,406.952,374.57,389.861,446.198,408.416,533.951,358.391,97.3653,97.3653,97.3653
0.000241323	-4427005.31	0,1.01357e-05,2.65558e-05,5.31569e-05,9.62515e-05,0.000166066,0.000279168,0.000462397,0.000759233,0.00124012,0.00201916,0.00328124,0.00532586,0.00863819,0.0140043,0.0226975,inf	806.544,806.544,1044.87,401.331,588.888,420.658,407.309,375.07,388.845,446.837,408.21,533.511,358.939,96.6493,96.6493,96.6493
