0.000561865	-4428766.40	0,4.45954e-06,1.01357e-05,1.73603e-05,2.65558e-05,3.82599e-05,5.31569e-05,7.21178e-05,9.62515e-05,0.000126969,0.000166066,0.000215829,0.000279168,0.000359786,0.000462397,0.000593,0.000759233,0.000970814,0.00124012,0.00158289,0.00201916,0.00257446,0.00328124,0.00418084,0.00532586,0.00678323,0.00863819,0.0109992,0.0140043,0.0178292,0.0226975,0.0288939,inf	527.125,527.125,598.258,621.699,543.302,457.533,419.753,408.911,408.171,397.843,387.626,391.908,392.672,387.757,391.397,399.555,406.342,410.825,414.897,419.366,424.58,429.74,432.13,427.307,414.716,397.478,384.546,352.45,352.45,311.239,311.239,311.239
0.000515908	-4427955.32	0,4.45954e-06,1.01357e-05,1.73603e-05,2.65558e-05,3.82599e-05,5.31569e-05,7.21178e-05,9.62515e-05,0.000126969,0.000166066,0.000215829,0.000279168,0.000359786,0.000462397,0.000593,0.000759233,0.000970814,0.00124012,0.00158289,0.00201916,0.00257446,0.00328124,0.00418084,0.00532586,0.00678323,0.00863819,0.0109992,0.0140043,0.0178292,0.0226975,0.0288939,inf	527.12,527.12,692.876,781.665,638.749,484.05,425.898,414.22,418.371,401.353,380.386,387.626,388.34,375.817,379.758,392.956,403.679,410.072,416.018,423.368,433.116,443.981,450.798,443.382,420.054,388.204,368.477,318.165,318.165,260.598,260.598,260.598
0.000475405	-4427335.47	0,4.45954e-06,1.01357e-05,1.73603e-05,2.65558e-05,3.82599e-05,5.31569e-05,7.21178e-05,9.62515e-05,0.000126969,0.000166066,0.000215829,0.000279168,0.000359786,0.000462397,0.000593,0.000759233,0.000970814,0.00124012,0.00158289,0.00201916,0.00257446,0.00328124,0.00418084,0.00532586,0.00678323,0.00863819,0.0109992,0.0140043,0.0178292,0.0226975,0.0288939,inf	486.854,486.854,727.454,905.819,713.65,500.509,429.964,421.697,433.487,412.181,379.799,389.465,390.588,369.285,371.928,388.721,401.912,408.702,414.975,423.732,436.874,452.998,465.225,456.833,424.392,380.067,358.465,296.913,296.913,228.105,228.105,228.105
0.000440147	-4426848.97	0,4.45954e-06,1.01357e-05,1.73603e-05,2.65558e-05,3.82599e-05,5.31569e-05,7.21178e-05,9.62515e-05,0.000126969,0.000166066,0.000215829,0.000279168,0.000359786,0.000462397,0.000593,0.000759233,0.000970814,0.00124012,0.00158289,0.00201916,0.00257446,0.00328124,0.00418084,0.00532586,0.00678323,0.00863819,0.0109992,0.0140043,0.0178292,0.0226975,0.0288939,inf	441.634,441.634,727.577,1005.77,776.36,510.701,431.582,428.546,449.333,425.769,381.516,393.348,395.88,365.48,366.091,385.936,400.995,407.522,413.274,422.383,437.829,458.337,476.242,467.979,427.817,372.636,353.022,283.936,283.936,204.129,204.129,204.129
0.00040979	-4426467.31	0,4.45954e-06,1.01357e-05,1.73603e-05,2.65558e-05,3.82599e-05,5.31569e-05,7.21178e-05,9.62515e-05,0.000126969,0.000166066,0.000215829,0.000279168,0.000359786,0.000462397,0.000593,0.000759233,0.000970814,0.00124012,0.00158289,0.00201916,0.00257446,0.00328124,0.00418084,0.00532586,0.00678323,0.00863819,0.0109992,0.0140043,0.0178292,0.0226975,0.0288939,inf	403.569,403.569,709.911,1090.99,833.096,517.687,431.671,434.468,464.737,440.594,384.071,397.771,402.758,363.263,361.409,384.086,400.771,406.832,411.676,420.433,437.273,461.148,484.529,477.077,430.378,365.493,350.829,276.344,276.344,184.225,184.225,184.225
0.000383897	-4426172.59	0,4.45954e-06,1.01357e-05,1.73603e-05,2.65558e-05,3.82599e-05,5.31569e-05,7.21178e-05,9.62515e-05,0.000126969,0.000166066,0.000215829,0.000279168,0.000359786,0.000462397,0.000593,0.000759233,0.000970814,0.00124012,0.00158289,0.00201916,0.00257446,0.00328124,0.00418084,0.00532586,0.00678323,0.00863819,0.0109992,0.0140043,0.0178292,0.0226975,0.0288939,inf	374.317,374.317,682.628,1165.74,886.587,522.781,430.659,439.331,479.091,455.824,386.752,401.98,410.388,361.981,357.356,382.746,400.941,406.587,410.449,418.443,435.992,462.251,490.644,484.383,432.171,358.372,350.847,272.354,272.354,165.831,165.831,165.831
0.000361994	-4425950.85	0,4.45954e-06,1.01357e-05,1.73603e-05,2.65558e-05,3.82599e-05,5.31569e-05,7.21178e-05,9.62515e-05,0.000126969,0.000166066,0.000215829,0.000279168,0.000359786,0.000462397,0.000593,0.000759233,0.000970814,0.00124012,0.00158289,0.00201916,0.00257446,0.00328124,0.00418084,0.00532586,0.00678323,0.00863819,0.0109992,0.0140043,0.0178292,0.0226975,0.0288939,inf	352.749,352.749,649.83,1231.82,937.925,526.538,428.76,443.15,492.113,470.994,389.233,405.64,418.314,361.289,353.651,381.653,401.25,406.643,409.639,416.669,434.457,462.239,495.061,490.176,433.36,351.177,352.327,270.925,270.925,147.104,147.104,147.104
0.000343589	-4425789.97	0,4.45954e-06,1.01357e-05,1.73603e-05,2.65558e-05,3.82599e-05,5.31569e-05,7.21178e-05,9.62515e-05,0.000126969,0.000166066,0.000215829,0.000279168,0.000359786,0.000462397,0.000593,0.000759233,0.000970814,0.00124012,0.00158289,0.00201916,0.00257446,0.00328124,0.00418084,0.00532586,0.00678323,0.00863819,0.0109992,0.0140043,0.0178292,0.0226975,0.0288939,inf	337.304,337.304,613.931,1289.94,987.421,529.204,426.122,445.947,503.668,485.811,391.352,408.6,426.272,361.002,350.166,380.668,401.52,406.848,409.191,415.203,432.935,461.53,498.175,494.734,434.144,343.941,354.769,271.58,271.58,126.375,126.375,126.375
0.000328201	-4425679.95	0,4.45954e-06,1.01357e-05,1.73603e-05,2.65558e-05,3.82599e-05,5.31569e-05,7.21178e-05,9.62515e-05,0.000126969,0.000166066,0.000215829,0.000279168,0.000359786,0.000462397,0.000593,0.000759233,0.000970814,0.00124012,0.00158289,0.00201916,0.00257446,0.00328124,0.00418084,0.00532586,0.00678323,0.00863819,0.0109992,0.0140043,0.0178292,0.0226975,0.0288939,inf	326.709,326.709,576.462,1340.38,1035.13,530.896,422.846,447.813,513.722,500.08,393.037,410.824,434.101,361.02,346.855,379.742,401.655,407.085,409.023,414.051,431.567,460.416,500.305,498.319,434.727,336.771,357.864,274.37,274.37,102.279,102.279,102.279
0.000315371	-4425614.06	0,4.45954e-06,1.01357e-05,1.73603e-05,2.65558e-05,3.82599e-05,5.31569e-05,7.21178e-05,9.62515e-05,0.000126969,0.000166066,0.000215829,0.000279168,0.000359786,0.000462397,0.000593,0.000759233,0.000970814,0.00124012,0.00158289,0.00201916,0.00257446,0.00328124,0.00418084,0.00532586,0.00678323,0.00863819,0.0109992,0.0140043,0.0178292,0.0226975,0.0288939,inf	319.949,319.949,538.474,1383.43,1080.99,531.695,419.05,448.836,522.3,513.666,394.246,412.31,441.696,361.272,343.701,378.865,401.617,407.272,409.051,413.178,430.414,459.091,501.702,501.153,435.287,329.801,361.458,279.888,279.888,77.2159,77.2159,77.2159
0.000304687	-4425585.16	0,4.45954e-06,1.01357e-05,1.73603e-05,2.65558e-05,3.82599e-05,5.31569e-05,7.21178e-05,9.62515e-05,0.000126969,0.000166066,0.000215829,0.000279168,0.000359786,0.000462397,0.000593,0.000759233,0.000970814,0.00124012,0.00158289,0.00201916,0.00257446,0.00328124,0.00418084,0.00532586,0.00678323,0.00863819,0.0109992,0.0140043,0.0178292,0.0226975,0.0288939,inf	316.249,316.249,500.805,1419.45,1124.99,531.693,414.846,449.142,529.489,526.502,394.978,413.084,448.98,361.706,340.703,378.052,401.407,407.368,409.206,412.533,429.489,457.679,502.549,503.389,435.898,323.069,365.287,288.369,288.369,62.1382,62.1382,62.1382
0.000295823	-4425563.02	0,4.45954e-06,1.01357e-05,1.73603e-05,2.65558e-05,3.82599e-05,5.31569e-05,7.21178e-05,9.62515e-05,0.000126969,0.000166066,0.000215829,0.000279168,0.000359786,0.000462397,0.000593,0.000759233,0.000970814,0.00124012,0.00158289,0.00201916,0.00257446,0.00328124,0.00418084,0.00532586,0.00678323,0.00863819,0.0109992,0.0140043,0.0178292,0.0226975,0.0288939,inf	315.018,315.018,464.072,1449.01,1167.19,531.011,410.366,448.871,535.419,538.588,395.263,413.208,455.915,362.283,337.869,377.332,401.055,407.353,409.427,412.05,428.762,456.236,502.942,505.032,436.366,316.253,368.178,296.283,296.283,59.0332,59.0332,59.0332
0.000288563	-4425529.58	0,4.45954e-06,1.01357e-05,1.73603e-05,2.65558e-05,3.82599e-05,5.31569e-05,7.21178e-05,9.62515e-05,0.000126969,0.000166066,0.000215829,0.000279168,0.000359786,0.000462397,0.000593,0.000759233,0.000970814,0.00124012,0.00158289,0.00201916,0.00257446,0.00328124,0.00418084,0.00532586,0.00678323,0.00863819,0.0109992,0.0140043,0.0178292,0.0226975,0.0288939,inf	315.807,315.807,428.745,1472.73,1207.72,529.754,405.716,448.177,540.269,549.968,395.179,412.784,462.522,363.01,335.236,376.77,400.641,407.27,409.708,411.71,428.238,454.844,503.036,506.227,436.726,309.339,369.547,300.012,300.012,59.0392,59.0392,59.0392
0.000282665	-4425506.20	0,4.45954e-06,1.01357e-05,1.73603e-05,2.65558e-05,3.82599e-05,5.31569e-05,7.21178e-05,9.62515e-05,0.000126969,0.000166066,0.000215829,0.000279168,0.000359786,0.000462397,0.000593,0.000759233,0.000970814,0.00124012,0.00158289,0.00201916,0.00257446,0.00328124,0.00418084,0.00532586,0.00678323,0.00863819,0.0109992,0.0140043,0.0178292,0.0226975,0.0288939,inf	318.098,318.098,395.02,1491.03,1246.54,527.984,400.967,447.152,544.148,560.649,394.745,411.871,468.782,363.847,332.804,376.391,400.218,407.15,410.046,411.499,427.925,453.581,503.01,507.252,437.346,302.832,370.396,300.939,300.939,59.1863,59.1863,59.1863
0.000277887	-4425494.26	0,4.45954e-06,1.01357e-05,1.73603e-05,2.65558e-05,3.82599e-05,5.31569e-05,7.21178e-05,9.62515e-05,0.000126969,0.000166066,0.000215829,0.000279168,0.000359786,0.000462397,0.000593,0.000759233,0.000970814,0.00124012,0.00158289,0.00201916,0.00257446,0.00328124,0.00418084,0.00532586,0.00678323,0.00863819,0.0109992,0.0140043,0.0178292,0.0226975,0.0288939,inf	321.637,321.637,363.086,1504.35,1283.61,525.735,396.169,445.849,547.146,570.626,393.972,410.5,474.661,364.737,330.534,376.175,399.792,406.99,410.406,411.371,427.78,452.442,502.908,508.187,438.331,296.938,371.359,300.703,300.703,59.4022,59.4022,59.4022
0.000274022	-4425488.47	0,4.45954e-06,1.01357e-05,1.73603e-05,2.65558e-05,3.82599e-05,5.31569e-05,7.21178e-05,9.62515e-05,0.000126969,0.000166066,0.000215829,0.000279168,0.000359786,0.000462397,0.000593,0.000759233,0.000970814,0.00124012,0.00158289,0.00201916,0.00257446,0.00328124,0.00418084,0.00532586,0.00678323,0.00863819,0.0109992,0.0140043,0.0178292,0.0226975,0.0288939,inf	326.086,326.086,333.051,1513.25,1319.05,523.067,391.377,444.359,549.383,579.947,392.898,408.728,480.145,365.638,328.401,376.104,399.372,406.79,410.765,411.286,427.76,451.405,502.732,509.008,439.606,291.628,372.563,300.003,300.003,59.5966,59.5966,59.5966
0.000270911	-4425486.20	0,4.45954e-06,1.01357e-05,1.73603e-05,2.65558e-05,3.82599e-05,5.31569e-05,7.21178e-05,9.62515e-05,0.000126969,0.000166066,0.000215829,0.000279168,0.000359786,0.000462397,0.000593,0.000759233,0.000970814,0.00124012,0.00158289,0.00201916,0.00257446,0.00328124,0.00418084,0.00532586,0.00678323,0.00863819,0.0109992,0.0140043,0.0178292,0.0226975,0.0288939,inf	331.408,331.408,305.186,1519.41,1353.95,520.439,386.931,443.092,551.4,589.11,391.862,406.918,485.587,366.759,326.574,376.365,399.154,406.715,411.234,411.307,427.886,450.48,502.507,509.726,441.115,286.825,374.001,299.187,299.187,59.7625,59.7625,59.7625
0.000268392	-4425485.81	0,4.45954e-06,1.01357e-05,1.73603e-05,2.65558e-05,3.82599e-05,5.31569e-05,7.21178e-05,9.62515e-05,0.000126969,0.000166066,0.000215829,0.000279168,0.000359786,0.000462397,0.000593,0.000759233,0.000970814,0.00124012,0.00158289,0.00201916,0.00257446,0.00328124,0.00418084,0.00532586,0.00678323,0.00863819,0.0109992,0.0140043,0.0178292,0.0226975,0.0288939,inf	336.829,336.829,279.005,1520.95,1386.28,517.107,382.267,441.426,552.454,597.28,390.333,404.555,490.356,367.626,324.668,376.56,398.789,406.475,411.577,411.26,428.04,449.607,502.203,510.278,442.722,282.448,375.559,298.347,298.347,59.8828,59.8828,59.8828
0.00026636	-4425486.47	0,4.45954e-06,1.01357e-05,1.73603e-05,2.65558e-05,3.82599e-05,5.31569e-05,7.21178e-05,9.62515e-05,0.000126969,0.000166066,0.000215829,0.000279168,0.000359786,0.000462397,0.000593,0.000759233,0.000970814,0.00124012,0.00158289,0.00201916,0.00257446,0.00328124,0.00418084,0.00532586,0.00678323,0.00863819,0.0109992,0.0140043,0.0178292,0.0226975,0.0288939,inf	342.437,342.437,254.756,1519.61,1417.29,513.519,377.721,439.732,553.035,604.934,388.615,401.941,494.746,368.412,322.809,376.815,398.407,406.185,411.875,411.194,428.248,448.813,501.862,510.692,444.391,278.447,377.179,297.564,297.564,59.9779,59.9779,59.9779
0.000264723	-4425487.58	0,4.45954e-06,1.01357e-05,1.73603e-05,2.65558e-05,3.82599e-05,5.31569e-05,7.21178e-05,9.62515e-05,0.000126969,0.000166066,0.000215829,0.000279168,0.000359786,0.000462397,0.000593,0.000759233,0.000970814,0.00124012,0.00158289,0.00201916,0.00257446,0.00328124,0.00418084,0.00532586,0.00678323,0.00863819,0.0109992,0.0140043,0.0178292,0.0226975,0.0288939,inf	348.187,348.187,232.403,1515.97,1447.19,509.796,373.357,438.095,553.28,612.189,386.796,399.179,498.843,369.15,321.021,377.156,398.046,405.877,412.151,411.119,428.509,448.099,501.506,510.985,446.085,274.775,378.806,296.861,296.861,60.047,60.047,60.047
