0.00057005	-299736.60	0,9.19276e-05,0.000217713,0.000389828,0.000625335,0.000947583,0.00138852,0.00199186,0.00281742,0.00394704,0.00549273,0.00760771,0.0105017,0.0144615,0.0198798,0.0272938,inf	357.355,357.355,376.546,399.868,406.856,410.339,408.401,417.063,420.069,402.066,376.572,400.08,384.96,344.819,344.819,344.819
0.000522752	-299681.61	0,9.19276e-05,0.000217713,0.000389828,0.000625335,0.000947583,0.00138852,0.00199186,0.00281742,0.00394704,0.00549273,0.00760771,0.0105017,0.0144615,0.0198798,0.0272938,inf	348.675,348.675,363.619,400.203,408.292,413.533,407.728,426.568,438.094,404.275,354.888,405.028,373.705,298.594,298.594,298.594
0.00048184	-299639.12	0,9.19276e-05,0.000217713,0.000389828,0.000625335,0.000947583,0.00138852,0.00199186,0.00281742,0.00394704,0.00549273,0.00760771,0.0105017,0.0144615,0.0198798,0.0272938,inf	353.026,353.026,355.623,402.214,408.352,414.652,402.588,431.096,455.309,407.492,335.173,414.892,365.24,252.838,252.838,252.838
0.000446727	-299606.35	0,9.19276e-05,0.000217713,0.000389828,0.000625335,0.000947583,0.00138852,0.00199186,0.00281742,0.00394704,0.00549273,0.00760771,0.0105017,0.0144615,0.0198798,0.0272938,inf	362.247,362.247,349.732,405.563,408.183,415.791,395.24,431.83,471.71,411.57,316.951,429.253,359.098,195.266,195.266,195.266
0.000414712	-299582.51	0,9.19276e-05,0.000217713,0.000389828,0.000625335,0.000947583,0.00138852,0.00199186,0.00281742,0.00394704,0.00549273,0.00760771,0.0105017,0.0144615,0.0198798,0.0272938,inf	372.414,372.414,344.099,409.02,407.324,417.182,386.481,429.102,486.473,415.882,299.746,448.127,363.562,33.6163,33.6163,33.6163
0.000389118	-299610.05	0,9.19276e-05,0.000217713,0.000389828,0.000625335,0.000947583,0.00138852,0.00199186,0.00281742,0.00394704,0.00549273,0.00760771,0.0105017,0.0144615,0.0198798,0.0272938,inf	384.564,384.564,340.192,414.139,407.379,421.069,378.578,425.337,502.035,423.672,286.534,491.514,463.76,22.4781,22.4781,22.4781
0.00036752	-299593.73	0,9.19276e-05,0.000217713,0.000389828,0.000625335,0.000947583,0.00138852,0.00199186,0.00281742,0.00394704,0.00549273,0.00760771,0.0105017,0.0144615,0.0198798,0.0272938,inf	394.998,394.998,335.676,418.353,406.063,425.182,370.204,418.913,513.571,427.591,269.072,514.347,540.802,79.8147,79.8147,79.8147
0.000350443	-299550.34	0,9.19276e-05,0.000217713,0.000389828,0.000625335,0.000947583,0.00138852,0.00199186,0.00281742,0.00394704,0.00549273,0.00760771,0.0105017,0.0144615,0.0198798,0.0272938,inf	405.087,405.087,331.748,422.993,404.609,430.803,362.862,412.127,523.686,430.318,250.918,516.48,483.187,12.6769,12.6769,12.6769
0.000335662	-299584.18	0,9.19276e-05,0.000217713,0.000389828,0.000625335,0.000947583,0.00138852,0.00199186,0.00281742,0.00394704,0.00549273,0.00760771,0.0105017,0.0144615,0.0198798,0.0272938,inf	414.034,414.034,328.022,427.182,402.3,437.039,356.345,405.437,533.989,436.189,237.16,537.622,547.177,98.1404,98.1404,98.1404
0.000324336	-299537.03	0,9.19276e-05,0.000217713,0.000389828,0.000625335,0.000947583,0.00138852,0.00199186,0.00281742,0.00394704,0.00549273,0.00760771,0.0105017,0.0144615,0.0198798,0.0272938,inf	422.358,422.358,324.856,431.6,399.638,444.062,350.658,398.627,542.062,439.938,222.672,536.03,456.635,11.6506,11.6506,11.6506
0.000314543	-299578.17	0,9.19276e-05,0.000217713,0.000389828,0.000625335,0.000947583,0.00138852,0.00199186,0.00281742,0.00394704,0.00549273,0.00760771,0.0105017,0.0144615,0.0198798,0.0272938,inf	429.457,429.457,321.913,435.489,396.144,451.139,345.727,392.348,550.246,446.897,212.245,560.21,514.654,96.2866,96.2866,96.2866
0.000307276	-299533.25	0,9.19276e-05,0.000217713,0.000389828,0.000625335,0.000947583,0.00138852,0.00199186,0.00281742,0.00394704,0.00549273,0.00760771,0.0105017,0.0144615,0.0198798,0.0272938,inf	435.799,435.799,319.403,439.544,392.367,458.471,341.455,386.195,555.825,450.744,200.688,558.361,425.168,11.3764,11.3764,11.3764
0.000300791	-299577.25	0,9.19276e-05,0.000217713,0.000389828,0.000625335,0.000947583,0.00138852,0.00199186,0.00281742,0.00394704,0.00549273,0.00760771,0.0105017,0.0144615,0.0198798,0.0272938,inf	440.945,440.945,317.035,443.052,387.904,465.389,337.779,380.789,561.58,457.569,192.516,585.109,481.981,96.222,96.222,96.222
0.000296175	-299532.60	0,9.19276e-05,0.000217713,0.000389828,0.000625335,0.000947583,0.00138852,0.00199186,0.00281742,0.00394704,0.00549273,0.00760771,0.0105017,0.0144615,0.0198798,0.0272938,inf	445.54,445.54,315.042,446.828,383.418,472.316,334.637,375.686,564.899,460.762,183.047,581.598,395.057,11.2995,11.2995,11.2995
0.000291867	-299578.74	0,9.19276e-05,0.000217713,0.000389828,0.000625335,0.000947583,0.00138852,0.00199186,0.00281742,0.00394704,0.00549273,0.00760771,0.0105017,0.0144615,0.0198798,0.0272938,inf	449.134,449.134,313.135,450.111,378.468,478.595,331.947,371.4,568.748,467.06,176.541,610.161,452.654,96.527,96.527,96.527
0.000288975	-299533.32	0,9.19276e-05,0.000217713,0.000389828,0.000625335,0.000947583,0.00138852,0.00199186,0.00281742,0.00394704,0.00549273,0.00760771,0.0105017,0.0144615,0.0198798,0.0272938,inf	452.38,452.38,311.522,453.72,373.709,484.767,329.649,367.426,570.408,469.42,168.667,603.973,368.937,11.3172,11.3172,11.3172
0.000286087	-299581.02	0,9.19276e-05,0.000217713,0.000389828,0.000625335,0.000947583,0.00138852,0.00199186,0.00281742,0.00394704,0.00549273,0.00760771,0.0105017,0.0144615,0.0198798,0.0272938,inf	454.834,454.834,309.946,456.869,368.67,490.203,327.672,364.223,572.933,475.114,163.442,633.516,427.779,97.0475,97.0475,97.0475
0.000284304	-299534.47	0,9.19276e-05,0.000217713,0.000389828,0.000625335,0.000947583,0.00138852,0.00199186,0.00281742,0.00394704,0.00549273,0.00760771,0.0105017,0.0144615,0.0198798,0.0272938,inf	457.1,457.1,308.585,460.353,363.968,495.515,325.964,361.256,573.472,476.692,156.835,624.098,347.331,11.3793,11.3793,11.3793
0.000282339	-299583.38	0,9.19276e-05,0.000217713,0.000389828,0.000625335,0.000947583,0.00138852,0.00199186,0.00281742,0.00394704,0.00549273,0.00760771,0.0105017,0.0144615,0.0198798,0.0272938,inf	458.76,458.76,307.229,463.391,359.113,500.096,324.479,358.972,575.128,481.842,152.625,653.985,407.47,97.6697,97.6697,97.6697
0.000281267	-299535.65	0,9.19276e-05,0.000217713,0.000389828,0.000625335,0.000947583,0.00138852,0.00199186,0.00281742,0.00394704,0.00549273,0.00760771,0.0105017,0.0144615,0.0198798,0.0272938,inf	460.343,460.343,306.025,466.747,354.673,504.587,323.169,356.824,574.936,482.762,147.047,641.221,330.063,11.4574,11.4574,11.4574
