LogLikelihood = -1232104.2475088238716

y0 1.1016752302481834663e-11
y0_prime 0
y1 0.88380190373956224459
y1_prime 0
y2 2.134832979921749363
y2_prime 0
y3 0.43585752705183145039
y3_prime 0
rho 0.0066046452758050083059
theta 0.0037583401334421347173
