time_index	left_time_boundary	right_time_boundary	lambda
0	0	3.95657e-05	1150.75
1	3.95657e-05	8.58476e-05	1150.75
2	8.58476e-05	0.000139986	22.7819
3	0.000139986	0.000203314	107.057
4	0.000203314	0.000277392	283.738
5	0.000277392	0.000364045	386.909
6	0.000364045	0.000465408	401.94
7	0.000465408	0.000583976	403.445
8	0.000583976	0.000722672	402.64
9	0.000722672	0.000884911	389.828
10	0.000884911	0.00107469	365.936
11	0.00107469	0.00129668	343.804
12	0.00129668	0.00155636	335.957
13	0.00155636	0.00186012	345.302
14	0.00186012	0.00221544	370.57
15	0.00221544	0.00263108	404.131
16	0.00263108	0.00311727	430.732
17	0.00311727	0.00368599	435.448
18	0.00368599	0.00435125	420.87
19	0.00435125	0.00512945	395.523
20	0.00512945	0.00603973	372.818
21	0.00603973	0.00710454	359.423
22	0.00710454	0.00835011	358.271
23	0.00835011	0.0098071	368.635
24	0.0098071	0.0115114	386.163
25	0.0115114	0.0135051	414.609
26	0.0135051	0.0158371	462.576
27	0.0158371	0.018565	590.413
28	0.018565	0.021756	590.413
29	0.021756	0.0254886	88811.3
30	0.0254886	0.0298549	88811.3
31	0.0298549	inf	88811.3
