time_index	left_time_boundary	right_time_boundary	lambda
0	0	4.55902e-06	0.588169
1	4.55902e-06	1.03618e-05	0.588169
2	1.03618e-05	1.77475e-05	150.276
3	1.77475e-05	2.71482e-05	367.673
4	2.71482e-05	3.91133e-05	328.801
5	3.91133e-05	5.43427e-05	278.873
6	5.43427e-05	7.37266e-05	283.717
7	7.37266e-05	9.83986e-05	289.476
8	9.83986e-05	0.000129801	278.268
9	0.000129801	0.000169771	276.628
10	0.000169771	0.000220644	297.201
11	0.000220644	0.000285395	332.716
12	0.000285395	0.000367812	355.485
13	0.000367812	0.000472711	357.037
14	0.000472711	0.000606228	347.569
15	0.000606228	0.000776169	333.718
16	0.000776169	0.000992471	324.185
17	0.000992471	0.00126778	328.504
18	0.00126778	0.0016182	350.065
19	0.0016182	0.00206421	384.413
20	0.00206421	0.00263189	421.296
21	0.00263189	0.00335444	454.124
22	0.00335444	0.00427411	477.85
23	0.00427411	0.00544466	465.693
24	0.00544466	0.00693455	421.147
25	0.00693455	0.00883088	394.604
26	0.00883088	0.0112445	377.939
27	0.0112445	0.0143167	331.776
28	0.0143167	0.0182269	331.776
29	0.0182269	0.0232038	466.552
30	0.0232038	0.0295385	466.552
31	0.0295385	inf	466.552
