0.000676077	-13518590.02	0,1.72852e-06,4.0054e-06,7.00462e-06,1.09553e-05,1.61594e-05,2.30145e-05,3.20443e-05,4.39389e-05,5.96069e-05,8.02457e-05,0.000107432,0.000143243,0.000190415,0.000252553,0.000334404,0.000442221,0.000584244,0.000771323,0.00101775,0.00134236,0.00176995,0.0023332,0.00307513,0.00405244,0.00533979,0.00703556,0.00926932,0.0122117,0.0160876,0.0211931,0.0279183,inf	162.604,162.604,218.091,235.491,252.651,281.708,315.556,325.77,315.729,317.105,323.155,322.183,321.513,322.16,323.532,326.588,332.039,340.961,353.283,369.183,388.976,410.233,427.152,434.989,432.14,422.349,414.027,401.386,401.386,388.174,388.174,388.174
0.000737778	-13514111.26	0,1.72852e-06,4.0054e-06,7.00462e-06,1.09553e-05,1.61594e-05,2.30145e-05,3.20443e-05,4.39389e-05,5.96069e-05,8.02457e-05,0.000107432,0.000143243,0.000190415,0.000252553,0.000334404,0.000442221,0.000584244,0.000771323,0.00101775,0.00134236,0.00176995,0.0023332,0.00307513,0.00405244,0.00533979,0.00703556,0.00926932,0.0122117,0.0160876,0.0211931,0.0279183,inf	101.598,101.598,174.978,193.393,211.669,254.075,311.39,325.649,303.153,305.08,314.898,310.745,307.407,305.86,304.89,306.101,310.72,320.595,335.426,355.701,382.593,413.116,438.716,451.512,447.082,430.47,416.489,393.881,393.881,371.458,371.458,371.458
0.0007961	-13511140.52	0,1.72852e-06,4.0054e-06,7.00462e-06,1.09553e-05,1.61594e-05,2.30145e-05,3.20443e-05,4.39389e-05,5.96069e-05,8.02457e-05,0.000107432,0.000143243,0.000190415,0.000252553,0.000334404,0.000442221,0.000584244,0.000771323,0.00101775,0.00134236,0.00176995,0.0023332,0.00307513,0.00405244,0.00533979,0.00703556,0.00926932,0.0122117,0.0160876,0.0211931,0.0279183,inf	74.921,74.921,160.296,175.144,189.521,240.096,317.902,334.236,299.996,304.42,318.883,312.473,307.678,304.786,301.967,301.226,304.232,313.445,328.249,349.492,379.22,414.354,444.906,461.14,455.925,434.548,416.772,386.262,386.262,357.406,357.406,357.406
0.000851105	-13508832.48	0,1.72852e-06,4.0054e-06,7.00462e-06,1.09553e-05,1.61594e-05,2.30145e-05,3.20443e-05,4.39389e-05,5.96069e-05,8.02457e-05,0.000107432,0.000143243,0.000190415,0.000252553,0.000334404,0.000442221,0.000584244,0.000771323,0.00101775,0.00134236,0.00176995,0.0023332,0.00307513,0.00405244,0.00533979,0.00703556,0.00926932,0.0122117,0.0160876,0.0211931,0.0279183,inf	60.7324,60.7324,157.445,165.738,173.348,228.649,323.876,340.192,295.353,303.559,323.061,315.308,310.263,307.106,303.395,301.321,302.961,311.257,325.254,346.202,376.96,414.46,447.924,466.585,461.001,436.254,415.966,379.084,379.084,345.662,345.662,345.662
0.000903121	-13506948.89	0,1.72852e-06,4.0054e-06,7.00462e-06,1.09553e-05,1.61594e-05,2.30145e-05,3.20443e-05,4.39389e-05,5.96069e-05,8.02457e-05,0.000107432,0.000143243,0.000190415,0.000252553,0.000334404,0.000442221,0.000584244,0.000771323,0.00101775,0.00134236,0.00176995,0.0023332,0.00307513,0.00405244,0.00533979,0.00703556,0.00926932,0.0122117,0.0160876,0.0211931,0.0279183,inf	52.2501,52.2501,162.107,161.425,160.788,218.813,329.007,343.226,288.764,301.294,325.612,316.978,312.42,309.749,305.927,303.127,303.795,311.256,324.22,344.374,375.307,413.976,449.136,469.508,463.758,436.607,414.701,372.588,372.588,335.863,335.863,335.863
0.000952459	-13505372.36	0,1.72852e-06,4.0054e-06,7.00462e-06,1.09553e-05,1.61594e-05,2.30145e-05,3.20443e-05,4.39389e-05,5.96069e-05,8.02457e-05,0.000107432,0.000143243,0.000190415,0.000252553,0.000334404,0.000442221,0.000584244,0.000771323,0.00101775,0.00134236,0.00176995,0.0023332,0.00307513,0.00405244,0.00533979,0.00703556,0.00926932,0.0122117,0.0160876,0.0211931,0.0279183,inf	47.2512,47.2512,172.199,160.293,150.772,210.708,334.305,344.618,281.323,298.314,326.906,317.479,313.745,311.978,308.563,305.489,305.534,312.311,324.208,343.38,374.069,413.226,449.325,470.892,465.074,436.201,413.316,366.832,366.832,327.678,327.678,327.678
0.000999383	-13504031.16	0,1.72852e-06,4.0054e-06,7.00462e-06,1.09553e-05,1.61594e-05,2.30145e-05,3.20443e-05,4.39389e-05,5.96069e-05,8.02457e-05,0.000107432,0.000143243,0.000190415,0.000252553,0.000334404,0.000442221,0.000584244,0.000771323,0.00101775,0.00134236,0.00176995,0.0023332,0.00307513,0.00405244,0.00533979,0.00703556,0.00926932,0.0122117,0.0160876,0.0211931,0.0279183,inf	43.4007,43.4007,186.128,160.93,142.461,204.153,340.331,345.277,273.867,295.314,327.548,317.224,314.386,313.708,311.008,307.968,307.655,313.887,324.756,342.898,373.137,412.386,448.937,471.323,465.478,435.383,411.983,361.79,361.79,320.821,320.821,320.821
0.00104411	-13502876.69	0,1.72852e-06,4.0054e-06,7.00462e-06,1.09553e-05,1.61594e-05,2.30145e-05,3.20443e-05,4.39389e-05,5.96069e-05,8.02457e-05,0.000107432,0.000143243,0.000190415,0.000252553,0.000334404,0.000442221,0.000584244,0.000771323,0.00101775,0.00134236,0.00176995,0.0023332,0.00307513,0.00405244,0.00533979,0.00703556,0.00926932,0.0122117,0.0160876,0.0211931,0.0279183,inf	40.447,40.447,202.606,162.256,135.234,198.874,347.214,345.619,266.827,292.71,327.985,316.572,314.571,315.023,313.203,310.39,309.907,315.71,325.612,342.74,372.435,411.54,448.226,471.152,465.298,434.351,410.783,357.394,357.394,315.053,315.053,315.053
0.00108681	-13501873.87	0,1.72852e-06,4.0054e-06,7.00462e-06,1.09553e-05,1.61594e-05,2.30145e-05,3.20443e-05,4.39389e-05,5.96069e-05,8.02457e-05,0.000107432,0.000143243,0.000190415,0.000252553,0.000334404,0.000442221,0.000584244,0.000771323,0.00101775,0.00134236,0.00176995,0.0023332,0.00307513,0.00405244,0.00533979,0.00703556,0.00926932,0.0122117,0.0160876,0.0211931,0.0279183,inf	37.9842,37.9842,220.534,163.545,128.677,194.564,354.866,345.806,260.373,290.693,328.474,315.767,314.487,316.03,315.162,312.687,312.166,317.628,326.629,342.789,371.909,410.729,447.338,470.598,464.737,433.22,409.743,353.57,353.57,310.179,310.179,310.179
0.00112764	-13500996.33	0,1.72852e-06,4.0054e-06,7.00462e-06,1.09553e-05,1.61594e-05,2.30145e-05,3.20443e-05,4.39389e-05,5.96069e-05,8.02457e-05,0.000107432,0.000143243,0.000190415,0.000252553,0.000334404,0.000442221,0.000584244,0.000771323,0.00101775,0.00134236,0.00176995,0.0023332,0.00307513,0.00405244,0.00533979,0.00703556,0.00926932,0.0122117,0.0160876,0.0211931,0.0279183,inf	35.5502,35.5502,239.056,164.378,122.519,190.947,363.104,345.832,254.522,289.314,329.153,314.958,314.262,316.823,316.921,314.843,314.37,319.555,327.718,342.969,371.515,409.971,446.36,469.798,463.927,432.056,408.868,350.238,350.238,306.042,306.042,306.042
0.00116672	-13500223.62	0,1.72852e-06,4.0054e-06,7.00462e-06,1.09553e-05,1.61594e-05,2.30145e-05,3.20443e-05,4.39389e-05,5.96069e-05,8.02457e-05,0.000107432,0.000143243,0.000190415,0.000252553,0.000334404,0.000442221,0.000584244,0.000771323,0.00101775,0.00134236,0.00176995,0.0023332,0.00307513,0.00405244,0.00533979,0.00703556,0.00926932,0.0122117,0.0160876,0.0211931,0.0279183,inf	33.2575,33.2575,257.666,164.539,116.688,187.851,371.767,345.66,249.235,288.541,330.065,314.228,313.984,317.476,318.517,316.859,316.489,321.442,328.827,343.232,371.225,409.272,445.345,468.84,462.953,430.898,408.149,347.331,347.331,302.511,302.511,302.511
0.00120418	-13499539.58	0,1.72852e-06,4.0054e-06,7.00462e-06,1.09553e-05,1.61594e-05,2.30145e-05,3.20443e-05,4.39389e-05,5.96069e-05,8.02457e-05,0.000107432,0.000143243,0.000190415,0.000252553,0.000334404,0.000442221,0.000584244,0.000771323,0.00101775,0.00134236,0.00176995,0.0023332,0.00307513,0.00405244,0.00533979,0.00703556,0.00926932,0.0122117,0.0160876,0.0211931,0.0279183,inf	30.8647,30.8647,275.881,163.948,111.084,185.167,380.704,345.248,244.451,288.328,331.216,313.611,313.704,318.039,319.984,318.743,318.51,323.263,329.922,343.546,371.015,408.632,444.323,467.782,461.871,429.765,407.571,344.787,344.787,299.484,299.484,299.484
0.00124012	-13498931.19	0,1.72852e-06,4.0054e-06,7.00462e-06,1.09553e-05,1.61594e-05,2.30145e-05,3.20443e-05,4.39389e-05,5.96069e-05,8.02457e-05,0.000107432,0.000143243,0.000190415,0.000252553,0.000334404,0.000442221,0.000584244,0.000771323,0.00101775,0.00134236,0.00176995,0.0023332,0.00307513,0.00405244,0.00533979,0.00703556,0.00926932,0.0122117,0.0160876,0.0211931,0.0279183,inf	28.9062,28.9062,293.532,162.699,105.721,182.808,389.787,344.557,240.095,288.605,332.586,313.125,313.454,318.55,321.349,320.508,320.428,325.004,330.984,343.887,370.867,408.048,443.314,466.665,460.72,428.669,407.117,342.552,342.552,296.877,296.877,296.877
0.00127462	-13498387.82	0,1.72852e-06,4.0054e-06,7.00462e-06,1.09553e-05,1.61594e-05,2.30145e-05,3.20443e-05,4.39389e-05,5.96069e-05,8.02457e-05,0.000107432,0.000143243,0.000190415,0.000252553,0.000334404,0.000442221,0.000584244,0.000771323,0.00101775,0.00134236,0.00176995,0.0023332,0.00307513,0.00405244,0.00533979,0.00703556,0.00926932,0.0122117,0.0160876,0.0211931,0.0279183,inf	26.5832,26.5832,310.432,160.828,100.567,180.706,398.89,343.541,236.105,289.306,334.147,312.763,313.247,319.033,322.633,322.167,322.245,326.658,332.001,344.241,370.769,407.517,442.33,465.514,459.528,427.614,406.772,340.58,340.58,294.62,294.62,294.62
0.00130776	-13497900.73	0,1.72852e-06,4.0054e-06,7.00462e-06,1.09553e-05,1.61594e-05,2.30145e-05,3.20443e-05,4.39389e-05,5.96069e-05,8.02457e-05,0.000107432,0.000143243,0.000190415,0.000252553,0.000334404,0.000442221,0.000584244,0.000771323,0.00101775,0.00134236,0.00176995,0.0023332,0.00307513,0.00405244,0.00533979,0.00703556,0.00926932,0.0122117,0.0160876,0.0211931,0.0279183,inf	24.4798,24.4798,326.65,158.449,95.6516,178.836,407.982,342.19,232.429,290.367,335.865,312.518,313.092,319.505,323.851,323.73,323.963,328.223,332.968,344.599,370.711,407.035,441.377,464.348,458.311,426.602,406.52,338.834,338.834,292.657,292.657,292.657
0.00133963	-13497462.61	0,1.72852e-06,4.0054e-06,7.00462e-06,1.09553e-05,1.61594e-05,2.30145e-05,3.20443e-05,4.39389e-05,5.96069e-05,8.02457e-05,0.000107432,0.000143243,0.000190415,0.000252553,0.000334404,0.000442221,0.000584244,0.000771323,0.00101775,0.00134236,0.00176995,0.0023332,0.00307513,0.00405244,0.00533979,0.00703556,0.00926932,0.0122117,0.0160876,0.0211931,0.0279183,inf	22.3467,22.3467,342.124,155.636,90.9829,177.178,416.991,340.508,229.026,291.73,337.707,312.379,312.99,319.978,325.016,325.208,325.59,329.699,333.881,344.953,370.685,406.598,440.458,463.18,457.085,425.634,406.349,337.281,337.281,290.943,290.943,290.943
0.00137029	-13497067.34	0,1.72852e-06,4.0054e-06,7.00462e-06,1.09553e-05,1.61594e-05,2.30145e-05,3.20443e-05,4.39389e-05,5.96069e-05,8.02457e-05,0.000107432,0.000143243,0.000190415,0.000252553,0.000334404,0.000442221,0.000584244,0.000771323,0.00101775,0.00134236,0.00176995,0.0023332,0.00307513,0.00405244,0.00533979,0.00703556,0.00926932,0.0122117,0.0160876,0.0211931,0.0279183,inf	20.4742,20.4742,356.865,152.492,86.5689,175.712,425.904,338.508,225.852,293.358,339.646,312.328,312.938,320.457,326.139,326.61,327.129,331.091,334.74,345.299,370.686,406.203,439.576,462.018,455.858,424.707,406.246,335.894,335.894,289.44,289.44,289.44
0.0013998	-13496709.73	0,1.72852e-06,4.0054e-06,7.00462e-06,1.09553e-05,1.61594e-05,2.30145e-05,3.20443e-05,4.39389e-05,5.96069e-05,8.02457e-05,0.000107432,0.000143243,0.000190415,0.000252553,0.000334404,0.000442221,0.000584244,0.000771323,0.00101775,0.00134236,0.00176995,0.0023332,0.00307513,0.00405244,0.00533979,0.00703556,0.00926932,0.0122117,0.0160876,0.0211931,0.0279183,inf	18.4521,18.4521,370.892,149.108,82.3868,174.438,434.681,336.21,222.886,295.206,341.656,312.351,312.934,320.947,327.227,327.944,328.586,332.4,335.546,345.635,370.709,405.846,438.732,460.87,454.638,423.82,406.201,334.649,334.649,288.116,288.116,288.116
0.00142823	-13496385.36	0,1.72852e-06,4.0054e-06,7.00462e-06,1.09553e-05,1.61594e-05,2.30145e-05,3.20443e-05,4.39389e-05,5.96069e-05,8.02457e-05,0.000107432,0.000143243,0.000190415,0.000252553,0.000334404,0.000442221,0.000584244,0.000771323,0.00101775,0.00134236,0.00176995,0.0023332,0.00307513,0.00405244,0.00533979,0.00703556,0.00926932,0.0122117,0.0160876,0.0211931,0.0279183,inf	16.5518,16.5518,384.254,145.544,78.4448,173.334,443.302,333.63,220.089,297.236,343.71,312.436,312.971,321.449,328.284,329.215,329.967,333.632,336.3,345.959,370.75,405.525,437.924,459.739,453.428,422.971,406.206,333.527,333.527,286.943,286.943,286.943
0.00145562	-13496090.46	0,1.72852e-06,4.0054e-06,7.00462e-06,1.09553e-05,1.61594e-05,2.30145e-05,3.20443e-05,4.39389e-05,5.96069e-05,8.02457e-05,0.000107432,0.000143243,0.000190415,0.000252553,0.000334404,0.000442221,0.000584244,0.000771323,0.00101775,0.00134236,0.00176995,0.0023332,0.00307513,0.00405244,0.00533979,0.00703556,0.00926932,0.0122117,0.0160876,0.0211931,0.0279183,inf	15.1455,15.1455,396.991,141.845,74.737,172.404,451.767,330.79,217.452,299.424,345.794,312.57,313.046,321.965,329.315,330.43,331.276,334.789,337.004,346.269,370.807,405.236,437.153,458.63,452.234,422.158,406.253,332.513,332.513,285.903,285.903,285.903
0.00148204	-13495821.73	0,1.72852e-06,4.0054e-06,7.00462e-06,1.09553e-05,1.61594e-05,2.30145e-05,3.20443e-05,4.39389e-05,5.96069e-05,8.02457e-05,0.000107432,0.000143243,0.000190415,0.000252553,0.000334404,0.000442221,0.000584244,0.000771323,0.00101775,0.00134236,0.00176995,0.0023332,0.00307513,0.00405244,0.00533979,0.00703556,0.00926932,0.0122117,0.0160876,0.0211931,0.0279183,inf	13.8008,13.8008,409.026,138.054,71.2542,171.633,460.076,327.704,214.953,301.743,347.889,312.742,313.152,322.494,330.324,331.593,332.519,335.877,337.66,346.566,370.877,404.978,436.417,457.542,451.057,421.379,406.336,331.591,331.591,284.975,284.975,284.975
0.00150752	-13495576.38	0,1.72852e-06,4.0054e-06,7.00462e-06,1.09553e-05,1.61594e-05,2.30145e-05,3.20443e-05,4.39389e-05,5.96069e-05,8.02457e-05,0.000107432,0.000143243,0.000190415,0.000252553,0.000334404,0.000442221,0.000584244,0.000771323,0.00101775,0.00134236,0.00176995,0.0023332,0.00307513,0.00405244,0.00533979,0.00703556,0.00926932,0.0122117,0.0160876,0.0211931,0.0279183,inf	12.4136,12.4136,420.397,134.224,67.9784,171.011,468.188,324.409,212.581,304.168,349.982,312.945,313.286,323.035,331.312,332.709,333.7,336.899,338.271,346.849,370.959,404.747,435.715,456.479,449.9,420.632,406.449,330.75,330.75,284.144,284.144,284.144
0.00153211	-13495351.94	0,1.72852e-06,4.0054e-06,7.00462e-06,1.09553e-05,1.61594e-05,2.30145e-05,3.20443e-05,4.39389e-05,5.96069e-05,8.02457e-05,0.000107432,0.000143243,0.000190415,0.000252553,0.000334404,0.000442221,0.000584244,0.000771323,0.00101775,0.00134236,0.00176995,0.0023332,0.00307513,0.00405244,0.00533979,0.00703556,0.00926932,0.0122117,0.0160876,0.0211931,0.0279183,inf	11.1556,11.1556,431.172,130.38,64.9069,170.542,476.141,320.929,210.325,306.685,352.061,313.17,313.443,323.588,332.281,333.782,334.822,337.859,338.839,347.118,371.05,404.543,435.046,455.44,448.764,419.915,406.588,329.979,329.979,283.397,283.397,283.397
0.00155585	-13495146.28	0,1.72852e-06,4.0054e-06,7.00462e-06,1.09553e-05,1.61594e-05,2.30145e-05,3.20443e-05,4.39389e-05,5.96069e-05,8.02457e-05,0.000107432,0.000143243,0.000190415,0.000252553,0.000334404,0.000442221,0.000584244,0.000771323,0.00101775,0.00134236,0.00176995,0.0023332,0.00307513,0.00405244,0.00533979,0.00703556,0.00926932,0.0122117,0.0160876,0.0211931,0.0279183,inf	9.74329,9.74329,441.41,126.536,62.0218,170.216,483.921,317.293,208.177,309.28,354.116,313.41,313.617,324.152,333.233,334.813,335.89,338.761,339.366,347.373,371.15,404.362,434.409,454.427,447.649,419.226,406.749,329.271,329.271,282.723,282.723,282.723
0.00157878	-13494957.54	0,1.72852e-06,4.0054e-06,7.00462e-06,1.09553e-05,1.61594e-05,2.30145e-05,3.20443e-05,4.39389e-05,5.96069e-05,8.02457e-05,0.000107432,0.000143243,0.000190415,0.000252553,0.000334404,0.000442221,0.000584244,0.000771323,0.00101775,0.00134236,0.00176995,0.0023332,0.00307513,0.00405244,0.00533979,0.00703556,0.00926932,0.0122117,0.0160876,0.0211931,0.0279183,inf	8.97665,8.97665,451.12,122.736,59.3186,170.029,491.55,313.507,206.129,311.942,356.143,313.658,313.807,324.725,334.17,335.807,336.907,339.608,339.855,347.615,371.258,404.204,433.801,453.438,446.557,418.565,406.929,328.618,328.618,282.113,282.113,282.113
0.00160094	-13494783.97	0,1.72852e-06,4.0054e-06,7.00462e-06,1.09553e-05,1.61594e-05,2.30145e-05,3.20443e-05,4.39389e-05,5.96069e-05,8.02457e-05,0.000107432,0.000143243,0.000190415,0.000252553,0.000334404,0.000442221,0.000584244,0.000771323,0.00101775,0.00134236,0.00176995,0.0023332,0.00307513,0.00405244,0.00533979,0.00703556,0.00926932,0.0122117,0.0160876,0.0211931,0.0279183,inf	8.36032,8.36032,460.24,118.971,56.7733,169.965,498.983,309.598,204.168,314.656,358.13,313.908,314.008,325.306,335.092,336.765,337.875,340.404,340.308,347.845,371.372,404.067,433.221,452.475,445.487,417.929,407.125,328.012,328.012,281.558,281.558,281.558
0.00162235	-13494624.16	0,1.72852e-06,4.0054e-06,7.00462e-06,1.09553e-05,1.61594e-05,2.30145e-05,3.20443e-05,4.39389e-05,5.96069e-05,8.02457e-05,0.000107432,0.000143243,0.000190415,0.000252553,0.000334404,0.000442221,0.000584244,0.000771323,0.00101775,0.00134236,0.00176995,0.0023332,0.00307513,0.00405244,0.00533979,0.00703556,0.00926932,0.0122117,0.0160876,0.0211931,0.0279183,inf	7.8791,7.8791,468.786,115.243,54.3873,170.032,506.24,305.588,202.292,317.415,360.077,314.159,314.217,325.893,335.999,337.691,338.799,341.152,340.728,348.062,371.492,403.948,432.669,451.537,444.44,417.318,407.334,327.45,327.45,281.052,281.052,281.052
0.00164306	-13494476.83	0,1.72852e-06,4.0054e-06,7.00462e-06,1.09553e-05,1.61594e-05,2.30145e-05,3.20443e-05,4.39389e-05,5.96069e-05,8.02457e-05,0.000107432,0.000143243,0.000190415,0.000252553,0.000334404,0.000442221,0.000584244,0.000771323,0.00101775,0.00134236,0.00176995,0.0023332,0.00307513,0.00405244,0.00533979,0.00703556,0.00926932,0.0122117,0.0160876,0.0211931,0.0279183,inf	6.91804,6.91804,476.833,111.585,52.1502,170.22,513.322,301.501,200.498,320.215,361.981,314.406,314.434,326.486,336.892,338.586,339.681,341.854,341.115,348.268,371.617,403.848,432.143,450.623,443.416,416.729,407.555,326.925,326.925,280.588,280.588,280.588
0.00166309	-13494340.88	0,1.72852e-06,4.0054e-06,7.00462e-06,1.09553e-05,1.61594e-05,2.30145e-05,3.20443e-05,4.39389e-05,5.96069e-05,8.02457e-05,0.000107432,0.000143243,0.000190415,0.000252553,0.000334404,0.000442221,0.000584244,0.000771323,0.00101775,0.00134236,0.00176995,0.0023332,0.00307513,0.00405244,0.00533979,0.00703556,0.00926932,0.0122117,0.0160876,0.0211931,0.0279183,inf	6.57452,6.57452,484.486,108.013,50.0461,170.517,520.225,297.337,198.778,323.046,363.834,314.644,314.654,327.083,337.772,339.452,340.522,342.514,341.472,348.463,371.747,403.765,431.641,449.733,442.414,416.162,407.785,326.435,326.435,280.162,280.162,280.162
0.00168247	-13494215.16	0,1.72852e-06,4.0054e-06,7.00462e-06,1.09553e-05,1.61594e-05,2.30145e-05,3.20443e-05,4.39389e-05,5.96069e-05,8.02457e-05,0.000107432,0.000143243,0.000190415,0.000252553,0.000334404,0.000442221,0.000584244,0.000771323,0.00101775,0.00134236,0.00176995,0.0023332,0.00307513,0.00405244,0.00533979,0.00703556,0.00926932,0.0122117,0.0160876,0.0211931,0.0279183,inf	6.57462,6.57462,491.689,104.522,48.0592,170.919,526.951,293.125,197.129,325.901,365.635,314.873,314.879,327.683,338.639,340.29,341.327,343.134,341.802,348.646,371.881,403.697,431.163,448.867,441.434,415.616,408.024,325.975,325.975,279.768,279.768,279.768
0.00170122	-13494098.78	0,1.72852e-06,4.0054e-06,7.00462e-06,1.09553e-05,1.61594e-05,2.30145e-05,3.20443e-05,4.39389e-05,5.96069e-05,8.02457e-05,0.000107432,0.000143243,0.000190415,0.000252553,0.000334404,0.000442221,0.000584244,0.000771323,0.00101775,0.00134236,0.00176995,0.0023332,0.00307513,0.00405244,0.00533979,0.00703556,0.00926932,0.0122117,0.0160876,0.0211931,0.0279183,inf	6.20252,6.20252,498.372,101.112,46.1832,171.419,533.503,288.873,195.547,328.776,367.386,315.091,315.103,328.285,339.493,341.103,342.097,343.716,342.104,348.82,372.018,403.643,430.707,448.023,440.477,415.09,408.271,325.543,325.543,279.405,279.405,279.405
0.00171938	-13493991.03	0,1.72852e-06,4.0054e-06,7.00462e-06,1.09553e-05,1.61594e-05,2.30145e-05,3.20443e-05,4.39389e-05,5.96069e-05,8.02457e-05,0.000107432,0.000143243,0.000190415,0.000252553,0.000334404,0.000442221,0.000584244,0.000771323,0.00101775,0.00134236,0.00176995,0.0023332,0.00307513,0.00405244,0.00533979,0.00703556,0.00926932,0.0122117,0.0160876,0.0211931,0.0279183,inf	5.79836,5.79836,504.676,97.8002,44.417,172.012,539.879,284.601,194.03,331.672,369.084,315.295,315.325,328.89,340.335,341.891,342.833,344.262,342.381,348.984,372.158,403.603,430.272,447.202,439.54,414.583,408.523,325.135,325.135,279.067,279.067,279.067
0.00173696	-13493891.12	0,1.72852e-06,4.0054e-06,7.00462e-06,1.09553e-05,1.61594e-05,2.30145e-05,3.20443e-05,4.39389e-05,5.96069e-05,8.02457e-05,0.000107432,0.000143243,0.000190415,0.000252553,0.000334404,0.000442221,0.000584244,0.000771323,0.00101775,0.00134236,0.00176995,0.0023332,0.00307513,0.00405244,0.00533979,0.00703556,0.00926932,0.0122117,0.0160876,0.0211931,0.0279183,inf	5.0903,5.0903,510.676,94.5813,42.7515,172.698,546.081,280.304,192.571,334.579,370.725,315.485,315.547,329.496,341.165,342.656,343.537,344.775,342.636,349.138,372.301,403.576,429.857,446.402,438.625,414.094,408.779,324.749,324.749,278.752,278.752,278.752
0.001754	-13493798.44	0,1.72852e-06,4.0054e-06,7.00462e-06,1.09553e-05,1.61594e-05,2.30145e-05,3.20443e-05,4.39389e-05,5.96069e-05,8.02457e-05,0.000107432,0.000143243,0.000190415,0.000252553,0.000334404,0.000442221,0.000584244,0.000771323,0.00101775,0.00134236,0.00176995,0.0023332,0.00307513,0.00405244,0.00533979,0.00703556,0.00926932,0.0122117,0.0160876,0.0211931,0.0279183,inf	4.82108,4.82108,516.449,91.4731,41.1803,173.471,552.099,276.004,191.17,337.498,372.311,315.659,315.766,330.1,341.983,343.399,344.212,345.256,342.867,349.284,372.446,403.561,429.461,445.623,437.731,413.623,409.04,324.384,324.384,278.457,278.457,278.457
0.0017705	-13493712.27	0,1.72852e-06,4.0054e-06,7.00462e-06,1.09553e-05,1.61594e-05,2.30145e-05,3.20443e-05,4.39389e-05,5.96069e-05,8.02457e-05,0.000107432,0.000143243,0.000190415,0.000252553,0.000334404,0.000442221,0.000584244,0.000771323,0.00101775,0.00134236,0.00176995,0.0023332,0.00307513,0.00405244,0.00533979,0.00703556,0.00926932,0.0122117,0.0160876,0.0211931,0.0279183,inf	4.82108,4.82108,521.822,88.4326,39.6885,174.327,557.943,271.697,189.825,340.423,373.842,315.817,315.98,330.705,342.791,344.122,344.859,345.707,343.078,349.422,372.593,403.557,429.083,444.864,436.857,413.168,409.305,324.037,324.037,278.181,278.181,278.181
0.00178649	-13493632.08	0,1.72852e-06,4.0054e-06,7.00462e-06,1.09553e-05,1.61594e-05,2.30145e-05,3.20443e-05,4.39389e-05,5.96069e-05,8.02457e-05,0.000107432,0.000143243,0.000190415,0.000252553,0.000334404,0.000442221,0.000584244,0.000771323,0.00101775,0.00134236,0.00176995,0.0023332,0.00307513,0.00405244,0.00533979,0.00703556,0.00926932,0.0122117,0.0160876,0.0211931,0.0279183,inf	4.31696,4.31696,526.868,85.4909,38.2756,175.257,563.607,267.4,188.531,343.355,375.319,315.957,316.191,331.307,343.586,344.824,345.48,346.13,343.269,349.551,372.742,403.563,428.723,444.125,436.002,412.728,409.573,323.706,323.706,277.921,277.921,277.921
0.00180199	-13493557.55	0,1.72852e-06,4.0054e-06,7.00462e-06,1.09553e-05,1.61594e-05,2.30145e-05,3.20443e-05,4.39389e-05,5.96069e-05,8.02457e-05,0.000107432,0.000143243,0.000190415,0.000252553,0.000334404,0.000442221,0.000584244,0.000771323,0.00101775,0.00134236,0.00176995,0.0023332,0.00307513,0.00405244,0.00533979,0.00703556,0.00926932,0.0122117,0.0160876,0.0211931,0.0279183,inf	4.3522,4.3522,531.722,82.6371,36.942,176.266,569.092,263.122,187.286,346.29,376.742,316.079,316.396,331.908,344.369,345.508,346.076,346.527,343.441,349.672,372.894,403.579,428.379,443.404,435.167,412.304,409.844,323.391,323.391,277.675,277.675,277.675
0.00181702	-13493488.02	0,1.72852e-06,4.0054e-06,7.00462e-06,1.09553e-05,1.61594e-05,2.30145e-05,3.20443e-05,4.39389e-05,5.96069e-05,8.02457e-05,0.000107432,0.000143243,0.000190415,0.000252553,0.000334404,0.000442221,0.000584244,0.000771323,0.00101775,0.00134236,0.00176995,0.0023332,0.00307513,0.00405244,0.00533979,0.00703556,0.00926932,0.0122117,0.0160876,0.0211931,0.0279183,inf	3.89676,3.89676,536.258,79.8682,35.6744,177.346,574.401,258.872,186.088,349.227,378.108,316.184,316.595,332.506,345.142,346.174,346.648,346.898,343.596,349.786,373.046,403.605,428.05,442.702,434.35,411.895,410.116,323.089,323.089,277.443,277.443,277.443
0.0018316	-13493423.31	0,1.72852e-06,4.0054e-06,7.00462e-06,1.09553e-05,1.61594e-05,2.30145e-05,3.20443e-05,4.39389e-05,5.96069e-05,8.02457e-05,0.000107432,0.000143243,0.000190415,0.000252553,0.000334404,0.000442221,0.000584244,0.000771323,0.00101775,0.00134236,0.00176995,0.0023332,0.00307513,0.00405244,0.00533979,0.00703556,0.00926932,0.0122117,0.0160876,0.0211931,0.0279183,inf	3.413,3.413,540.631,77.1963,34.4689,178.492,579.553,254.65,184.936,352.164,379.423,316.27,316.788,333.102,345.904,346.822,347.197,347.245,343.734,349.893,373.2,403.638,427.737,442.018,433.552,411.499,410.39,322.801,322.801,277.222,277.222,277.222
0.00184574	-13493362.98	0,1.72852e-06,4.0054e-06,7.00462e-06,1.09553e-05,1.61594e-05,2.30145e-05,3.20443e-05,4.39389e-05,5.96069e-05,8.02457e-05,0.000107432,0.000143243,0.000190415,0.000252553,0.000334404,0.000442221,0.000584244,0.000771323,0.00101775,0.00134236,0.00176995,0.0023332,0.00307513,0.00405244,0.00533979,0.00703556,0.00926932,0.0122117,0.0160876,0.0211931,0.0279183,inf	3.413,3.413,544.812,74.6104,33.3258,179.703,584.504,250.46,183.828,355.1,380.687,316.338,316.975,333.693,346.656,347.455,347.726,347.571,343.856,349.994,373.354,403.68,427.437,441.351,432.771,411.117,410.665,322.524,322.524,277.012,277.012,277.012
