AIC = 3033314.8605603505857

y0 0.79427245525545020488
y0_prime 0
y1 1.0114363312335923339
y1_prime 0
y2 1.0022234885568954699
y2_prime 0
y3 1.8364863382267659908
y3_prime 0
rho 0.0010058130631633492667
theta 0.0049951431857641181294
