0.000690627	-8601318.21	0,6.17006e-06,1.65633e-05,3.40701e-05,6.35597e-05,0.000113234,0.000196907,0.000337851,0.000575265,0.000975178,0.00164881,0.00278352,0.00469489,0.00791451,0.0133378,0.0224731,inf	654.523,654.523,557.196,465.417,397.637,356.015,341.774,345.026,358.925,388.599,418.699,415.389,404.276,376.233,376.233,376.233
0.000744409	-8599707.07	0,6.17006e-06,1.65633e-05,3.40701e-05,6.35597e-05,0.000113234,0.000196907,0.000337851,0.000575265,0.000975178,0.00164881,0.00278352,0.00469489,0.00791451,0.0133378,0.0224731,inf	753.782,753.782,643.794,510.863,410.528,347.091,325.709,327.952,343.962,385.617,430.822,423.966,407.941,360.854,360.854,360.854
0.000793158	-8598688.62	0,6.17006e-06,1.65633e-05,3.40701e-05,6.35597e-05,0.000113234,0.000196907,0.000337851,0.000575265,0.000975178,0.00164881,0.00278352,0.00469489,0.00791451,0.0133378,0.0224731,inf	758.036,758.036,676.016,532.071,419.318,344.802,321.093,322.229,337.002,384.175,437.549,427.229,409.565,349.405,349.405,349.405
0.000837793	-8597946.53	0,6.17006e-06,1.65633e-05,3.40701e-05,6.35597e-05,0.000113234,0.000196907,0.000337851,0.000575265,0.000975178,0.00164881,0.00278352,0.00469489,0.00791451,0.0133378,0.0224731,inf	732.39,732.39,681.881,538.39,423.257,343.505,320.464,321.058,333.593,383.521,441.489,427.848,410.289,340.99,340.99,340.99
0.000878975	-8597371.33	0,6.17006e-06,1.65633e-05,3.40701e-05,6.35597e-05,0.000113234,0.000196907,0.000337851,0.000575265,0.000975178,0.00164881,0.00278352,0.00469489,0.00791451,0.0133378,0.0224731,inf	704.56,704.56,677.852,537.152,423.917,341.899,321.276,321.863,331.94,383.341,443.936,427.136,410.618,334.823,334.823,334.823
0.000917169	-8596911.21	0,6.17006e-06,1.65633e-05,3.40701e-05,6.35597e-05,0.000113234,0.000196907,0.000337851,0.000575265,0.000975178,0.00164881,0.00278352,0.00469489,0.00791451,0.0133378,0.0224731,inf	682.049,682.049,671.308,532.573,422.737,339.825,322.57,323.534,331.209,383.46,445.538,425.75,410.766,330.294,330.294,330.294
0.000952721	-8596536.15	0,6.17006e-06,1.65633e-05,3.40701e-05,6.35597e-05,0.000113234,0.000196907,0.000337851,0.000575265,0.000975178,0.00164881,0.00278352,0.00469489,0.00791451,0.0133378,0.0224731,inf	665.352,665.352,665.052,526.824,420.686,337.407,323.984,325.556,330.975,383.767,446.637,424.029,410.82,326.962,326.962,326.962
0.000985901	-8596226.55	0,6.17006e-06,1.65633e-05,3.40701e-05,6.35597e-05,0.000113234,0.000196907,0.000337851,0.000575265,0.000975178,0.00164881,0.00278352,0.00469489,0.00791451,0.0133378,0.0224731,inf	653.093,653.093,659.896,520.932,418.348,334.804,325.382,327.681,331.009,384.193,447.423,422.158,410.817,324.506,324.506,324.506
0.00101693	-8595968.63	0,6.17006e-06,1.65633e-05,3.40701e-05,6.35597e-05,0.000113234,0.000196907,0.000337851,0.000575265,0.000975178,0.00164881,0.00278352,0.00469489,0.00791451,0.0133378,0.0224731,inf	643.92,643.92,655.913,515.352,416.048,332.14,326.723,329.788,331.184,384.69,448.005,420.237,410.771,322.697,322.697,322.697
0.001046	-8595752.26	0,6.17006e-06,1.65633e-05,3.40701e-05,6.35597e-05,0.000113234,0.000196907,0.000337851,0.000575265,0.000975178,0.00164881,0.00278352,0.00469489,0.00791451,0.0133378,0.0224731,inf	636.746,636.746,652.936,510.248,413.952,329.501,328.003,331.816,331.426,385.23,448.451,418.325,410.687,321.368,321.368,321.368
0.00107326	-8595569.74	0,6.17006e-06,1.65633e-05,3.40701e-05,6.35597e-05,0.000113234,0.000196907,0.000337851,0.000575265,0.000975178,0.00164881,0.00278352,0.00469489,0.00791451,0.0133378,0.0224731,inf	630.878,630.878,650.707,505.635,412.131,326.944,329.227,333.74,331.691,385.793,448.805,416.456,410.57,320.401,320.401,320.401
0.00109887	-8595415.08	0,6.17006e-06,1.65633e-05,3.40701e-05,6.35597e-05,0.000113234,0.000196907,0.000337851,0.000575265,0.000975178,0.00164881,0.00278352,0.00469489,0.00791451,0.0133378,0.0224731,inf	625.863,625.863,649.035,501.484,410.606,324.496,330.406,335.55,331.953,386.364,449.093,414.65,410.422,319.707,319.707,319.707
0.00112294	-8595283.53	0,6.17006e-06,1.65633e-05,3.40701e-05,6.35597e-05,0.000113234,0.000196907,0.000337851,0.000575265,0.000975178,0.00164881,0.00278352,0.00469489,0.00791451,0.0133378,0.0224731,inf	621.462,621.462,647.769,497.735,409.369,322.17,331.548,337.243,332.199,386.936,449.335,412.915,410.246,319.221,319.221,319.221
0.00114559	-8595171.30	0,6.17006e-06,1.65633e-05,3.40701e-05,6.35597e-05,0.000113234,0.000196907,0.000337851,0.000575265,0.000975178,0.00164881,0.00278352,0.00469489,0.00791451,0.0133378,0.0224731,inf	617.485,617.485,646.778,494.338,408.401,319.972,332.66,338.826,332.42,387.501,449.544,411.259,410.047,318.895,318.895,318.895
0.00116693	-8595075.30	0,6.17006e-06,1.65633e-05,3.40701e-05,6.35597e-05,0.000113234,0.000196907,0.000337851,0.000575265,0.000975178,0.00164881,0.00278352,0.00469489,0.00791451,0.0133378,0.0224731,inf	613.91,613.91,646.003,491.235,407.676,317.898,333.75,340.301,332.611,388.055,449.73,409.683,409.826,318.691,318.691,318.691
0.00118705	-8594993.01	0,6.17006e-06,1.65633e-05,3.40701e-05,6.35597e-05,0.000113234,0.000196907,0.000337851,0.000575265,0.000975178,0.00164881,0.00278352,0.00469489,0.00791451,0.0133378,0.0224731,inf	610.642,610.642,645.365,488.374,407.163,315.942,334.819,341.677,332.772,388.597,449.897,408.187,409.587,318.584,318.584,318.584
0.00120603	-8594922.35	0,6.17006e-06,1.65633e-05,3.40701e-05,6.35597e-05,0.000113234,0.000196907,0.000337851,0.000575265,0.000975178,0.00164881,0.00278352,0.00469489,0.00791451,0.0133378,0.0224731,inf	607.662,607.662,644.842,485.714,406.836,314.097,335.872,342.959,332.901,389.124,450.051,406.769,409.333,318.55,318.55,318.55
0.00122395	-8594861.58	0,6.17006e-06,1.65633e-05,3.40701e-05,6.35597e-05,0.000113234,0.000196907,0.000337851,0.000575265,0.000975178,0.00164881,0.00278352,0.00469489,0.00791451,0.0133378,0.0224731,inf	604.935,604.935,644.368,483.226,406.672,312.354,336.91,344.156,333,389.636,450.195,405.427,409.066,318.574,318.574,318.574
0.00124087	-8594809.28	0,6.17006e-06,1.65633e-05,3.40701e-05,6.35597e-05,0.000113234,0.000196907,0.000337851,0.000575265,0.000975178,0.00164881,0.00278352,0.00469489,0.00791451,0.0133378,0.0224731,inf	602.469,602.469,643.968,480.886,406.646,310.705,337.935,345.273,333.07,390.131,450.331,404.158,408.79,318.643,318.643,318.643
0.00125687	-8594764.22	0,6.17006e-06,1.65633e-05,3.40701e-05,6.35597e-05,0.000113234,0.000196907,0.000337851,0.000575265,0.000975178,0.00164881,0.00278352,0.00469489,0.00791451,0.0133378,0.0224731,inf	600.193,600.193,643.623,478.663,406.742,309.141,338.947,346.317,333.112,390.609,450.461,402.959,408.506,318.748,318.748,318.748
