0.000676106	-4589171.36	0,4.57065e-06,1.03882e-05,1.77928e-05,2.72174e-05,3.92131e-05,5.44813e-05,7.39147e-05,9.86496e-05,0.000130132,0.000170204,0.000221207,0.000286123,0.00036875,0.000473917,0.000607775,0.000778149,0.000995002,0.00127101,0.00162232,0.00206947,0.0026386,0.003363,0.00428501,0.00545855,0.00695224,0.00885341,0.0112732,0.0143532,0.0182734,0.023263,0.0296138,inf	269.556,269.556,457.722,571.231,571.25,505.12,444.561,394.786,363.432,347.166,340.383,340.268,343.233,346.453,350.159,356.026,366.222,380.824,396.486,410.117,420.228,424.216,421.496,415.721,409.197,403.872,401.644,390.026,390.026,417.677,417.677,417.677
0.000720499	-4588384.82	0,4.57065e-06,1.03882e-05,1.77928e-05,2.72174e-05,3.92131e-05,5.44813e-05,7.39147e-05,9.86496e-05,0.000130132,0.000170204,0.000221207,0.000286123,0.00036875,0.000473917,0.000607775,0.000778149,0.000995002,0.00127101,0.00162232,0.00206947,0.0026386,0.003363,0.00428501,0.00545855,0.00695224,0.00885341,0.0112732,0.0143532,0.0182734,0.023263,0.0296138,inf	154.633,154.633,441.215,684.295,706.119,588.11,484.492,402.567,354.554,331.065,321.764,322.26,326.445,329.51,332.368,338.391,351.762,372.848,396.089,416.7,432.631,439.27,434.877,425.416,414.526,405.816,402.66,381.271,381.271,438.394,438.394,438.394
0.000761441	-4587883.07	0,4.57065e-06,1.03882e-05,1.77928e-05,2.72174e-05,3.92131e-05,5.44813e-05,7.39147e-05,9.86496e-05,0.000130132,0.000170204,0.000221207,0.000286123,0.00036875,0.000473917,0.000607775,0.000778149,0.000995002,0.00127101,0.00162232,0.00206947,0.0026386,0.003363,0.00428501,0.00545855,0.00695224,0.00885341,0.0112732,0.0143532,0.0182734,0.023263,0.0296138,inf	82.5478,82.5478,388.544,737.432,790.827,638.154,507.377,405.776,349.594,323.738,314.505,316.767,322.273,324.51,325.328,329.816,344.005,368.427,395.725,420.089,439.457,447.831,442.341,430.459,416.546,405.681,402.35,372.727,372.727,461.01,461.01,461.01
0.000799387	-4587509.38	0,4.57065e-06,1.03882e-05,1.77928e-05,2.72174e-05,3.92131e-05,5.44813e-05,7.39147e-05,9.86496e-05,0.000130132,0.000170204,0.000221207,0.000286123,0.00036875,0.000473917,0.000607775,0.000778149,0.000995002,0.00127101,0.00162232,0.00206947,0.0026386,0.003363,0.00428501,0.00545855,0.00695224,0.00885341,0.0112732,0.0143532,0.0182734,0.023263,0.0296138,inf	43.5055,43.5055,331.336,755.925,839.826,664.381,517.383,404.099,344.559,318.863,311.084,315.886,323.019,324.376,322.886,325.355,339.496,365.843,395.444,421.829,443.219,452.699,446.433,432.903,416.81,404.572,401.494,364.853,364.853,486.32,486.32,486.32
0.00083475	-4587211.25	0,4.57065e-06,1.03882e-05,1.77928e-05,2.72174e-05,3.92131e-05,5.44813e-05,7.39147e-05,9.86496e-05,0.000130132,0.000170204,0.000221207,0.000286123,0.00036875,0.000473917,0.000607775,0.000778149,0.000995002,0.00127101,0.00162232,0.00206947,0.0026386,0.003363,0.00428501,0.00545855,0.00695224,0.00885341,0.0112732,0.0143532,0.0182734,0.023263,0.0296138,inf	23.2722,23.2722,281.647,759.404,868.21,676.459,519.716,399.419,339.061,314.704,309.017,316.766,325.755,326.329,322.568,322.964,336.763,364.354,395.312,422.733,445.278,455.439,448.59,433.902,416.177,403.074,400.49,357.777,357.777,515.132,515.132,515.132
0.000867853	-4586965.39	0,4.57065e-06,1.03882e-05,1.77928e-05,2.72174e-05,3.92131e-05,5.44813e-05,7.39147e-05,9.86496e-05,0.000130132,0.000170204,0.000221207,0.000286123,0.00036875,0.000473917,0.000607775,0.000778149,0.000995002,0.00127101,0.00162232,0.00206947,0.0026386,0.003363,0.00428501,0.00545855,0.00695224,0.00885341,0.0112732,0.0143532,0.0182734,0.023263,0.0296138,inf	12.7599,12.7599,241.534,758.224,885.686,680.837,517.995,393.296,333.378,310.803,307.416,318.267,329.231,329.136,323.238,321.672,335.072,363.562,395.34,423.212,446.366,456.92,449.621,434.098,415.109,401.48,399.522,351.482,351.482,548.436,548.436,548.436
0.000898942	-4586758.93	0,4.57065e-06,1.03882e-05,1.77928e-05,2.72174e-05,3.92131e-05,5.44813e-05,7.39147e-05,9.86496e-05,0.000130132,0.000170204,0.000221207,0.000286123,0.00036875,0.000473917,0.000607775,0.000778149,0.000995002,0.00127101,0.00162232,0.00206947,0.0026386,0.003363,0.00428501,0.00545855,0.00695224,0.00885341,0.0112732,0.0143532,0.0182734,0.023263,0.0296138,inf	7.18321,7.18321,209.784,756.969,897.483,681.185,514.336,386.708,327.804,307.082,305.967,319.92,332.891,332.221,324.341,320.98,334.021,363.231,395.508,423.473,446.882,457.639,449.985,433.851,413.854,399.932,398.668,345.893,345.893,587.602,587.602,587.602
0.00092821	-4586583.59	0,4.57065e-06,1.03882e-05,1.77928e-05,2.72174e-05,3.92131e-05,5.44813e-05,7.39147e-05,9.86496e-05,0.000130132,0.000170204,0.000221207,0.000286123,0.00036875,0.000473917,0.000607775,0.000778149,0.000995002,0.00127101,0.00162232,0.00206947,0.0026386,0.003363,0.00428501,0.00545855,0.00695224,0.00885341,0.0112732,0.0143532,0.0182734,0.023263,0.0296138,inf	4.14505,4.14505,184.588,757.228,906.184,679.468,509.895,380.205,322.536,303.556,304.575,321.541,336.487,335.307,325.599,320.618,333.378,363.211,395.788,423.619,447.051,457.882,449.948,433.364,412.544,398.49,397.95,340.92,340.92,634.698,634.698,634.698
0.000955814	-4586433.48	0,4.57065e-06,1.03882e-05,1.77928e-05,2.72174e-05,3.92131e-05,5.44813e-05,7.39147e-05,9.86496e-05,0.000130132,0.000170204,0.000221207,0.000286123,0.00036875,0.000473917,0.000607775,0.000778149,0.000995002,0.00127101,0.00162232,0.00206947,0.0026386,0.003363,0.00428501,0.00545855,0.00695224,0.00885341,0.0112732,0.0143532,0.0182734,0.023263,0.0296138,inf	2.44648,2.44648,164.334,759.326,912.949,676.686,505.288,374.065,317.684,300.259,303.224,323.066,339.918,338.269,326.867,320.435,332.999,363.402,396.152,423.705,447.002,457.821,449.67,432.751,411.246,397.174,397.362,336.481,336.481,693.073,693.073,693.073
0.000981888	-4586304.17	0,4.57065e-06,1.03882e-05,1.77928e-05,2.72174e-05,3.92131e-05,5.44813e-05,7.39147e-05,9.86496e-05,0.000130132,0.000170204,0.000221207,0.000286123,0.00036875,0.000473917,0.000607775,0.000778149,0.000995002,0.00127101,0.00162232,0.00206947,0.0026386,0.003363,0.00428501,0.00545855,0.00695224,0.00885341,0.0112732,0.0143532,0.0182734,0.023263,0.0296138,inf	1.46686,1.46686,147.785,763.1,918.323,673.354,500.813,368.406,313.293,297.215,301.925,324.488,343.151,341.053,328.074,320.344,332.797,363.74,396.577,423.756,446.814,457.564,449.245,432.081,409.992,395.985,396.888,332.498,332.498,768.695,768.695,768.695
0.00100655	-4586192.21	0,4.57065e-06,1.03882e-05,1.77928e-05,2.72174e-05,3.92131e-05,5.44813e-05,7.39147e-05,9.86496e-05,0.000130132,0.000170204,0.000221207,0.000286123,0.00036875,0.000473917,0.000607775,0.000778149,0.000995002,0.00127101,0.00162232,0.00206947,0.0026386,0.003363,0.00428501,0.00545855,0.00695224,0.00885341,0.0112732,0.0143532,0.0182734,0.023263,0.0296138,inf	0.896117,0.896117,134.062,768.267,922.579,669.766,496.615,363.274,309.372,294.432,300.694,325.816,346.185,343.644,329.188,320.296,332.713,364.179,397.045,423.789,446.534,457.177,448.732,431.391,408.797,394.91,396.504,328.909,328.909,873.693,873.693,873.693
0.00102988	-4586094.86	0,4.57065e-06,1.03882e-05,1.77928e-05,2.72174e-05,3.92131e-05,5.44813e-05,7.39147e-05,9.86496e-05,0.000130132,0.000170204,0.000221207,0.000286123,0.00036875,0.000473917,0.000607775,0.000778149,0.000995002,0.00127101,0.00162232,0.00206947,0.0026386,0.003363,0.00428501,0.00545855,0.00695224,0.00885341,0.0112732,0.0143532,0.0182734,0.023263,0.0296138,inf	0.552217,0.552217,122.518,774.509,925.786,666.011,492.746,358.666,305.903,291.909,299.543,327.067,349.031,346.043,330.196,320.261,332.709,364.686,397.542,423.809,446.193,456.704,448.171,430.702,407.663,393.935,396.187,325.661,325.661,1038.77,1038.77,1038.77
0.00105199	-4586009.90	0,4.57065e-06,1.03882e-05,1.77928e-05,2.72174e-05,3.92131e-05,5.44813e-05,7.39147e-05,9.86496e-05,0.000130132,0.000170204,0.000221207,0.000286123,0.00036875,0.000473917,0.000607775,0.000778149,0.000995002,0.00127101,0.00162232,0.00206947,0.0026386,0.003363,0.00428501,0.00545855,0.00695224,0.00885341,0.0112732,0.0143532,0.0182734,0.023263,0.0296138,inf	0.397916,0.397916,112.669,781.624,928.015,662.191,489.219,354.551,302.858,289.635,298.474,328.255,351.706,348.259,331.094,320.222,332.76,365.241,398.057,423.823,445.813,456.174,447.583,430.026,406.587,393.041,395.908,322.716,322.716,1382.06,1382.06,1382.06
0.00107295	-4585935.53	0,4.57065e-06,1.03882e-05,1.77928e-05,2.72174e-05,3.92131e-05,5.44813e-05,7.39147e-05,9.86496e-05,0.000130132,0.000170204,0.000221207,0.000286123,0.00036875,0.000473917,0.000607775,0.000778149,0.000995002,0.00127101,0.00162232,0.00206947,0.0026386,0.003363,0.00428501,0.00545855,0.00695224,0.00885341,0.0112732,0.0143532,0.0182734,0.023263,0.0296138,inf	0.39791,0.39791,104.178,789.376,929.335,658.333,486.02,350.89,300.197,287.59,297.492,329.393,354.226,350.307,331.886,320.17,332.849,365.825,398.582,423.831,445.405,455.609,446.983,429.367,405.559,392.201,395.625,320.046,320.046,2967.8,2967.8,2967.8
0.00107295	-4585870.32	0,4.57065e-06,1.03882e-05,1.77928e-05,2.72174e-05,3.92131e-05,5.44813e-05,7.39147e-05,9.86496e-05,0.000130132,0.000170204,0.000221207,0.000286123,0.00036875,0.000473917,0.000607775,0.000778149,0.000995002,0.00127101,0.00162232,0.00206947,0.0026386,0.003363,0.00428501,0.00545855,0.00695224,0.00885341,0.0112732,0.0143532,0.0182734,0.023263,0.0296138,inf	0.39791,0.39791,96.203,792.799,924.16,650.53,480.221,345.559,296.115,284.066,294.836,328.519,354.468,350.099,330.63,318.267,331.082,364.367,396.895,421.57,442.744,452.937,444.584,427.205,403.298,390.248,394.17,317.003,317.003,63501.5,63501.5,63501.5
