time_index	left_time_boundary	right_time_boundary	lambda
0	0	8.21609e-05	527.592
1	8.21609e-05	0.000194583	527.592
2	0.000194583	0.000348411	325.165
3	0.000348411	0.000558897	294.661
4	0.000558897	0.000846909	258.101
5	0.000846909	0.001241	305.287
6	0.001241	0.00178024	384.75
7	0.00178024	0.00251809	437.538
8	0.00251809	0.0035277	442.697
9	0.0035277	0.00490916	443.022
10	0.00490916	0.00679944	382.953
11	0.00679944	0.00938593	279.844
12	0.00938593	0.0129251	448.451
13	0.0129251	0.0177677	63178.8
14	0.0177677	0.024394	63178.8
15	0.024394	inf	63178.8
