LogLikelihood = -172569.87377858697437

y0 1.0418345842896494791
y0_prime 0
y1 1.012906481047026741
y1_prime 0
y2 0.884843729723393424
y2_prime 0
y3 1.9776103637195330265
y3_prime 0
rho 0.00074582821096836878026
rho.alpha 17.321126682829437016
r_ii 0.99999119971240912896
theta 0.002563013728017598733
