0.000642502	-12673569.47	0,3.76209e-06,1.02899e-05,2.16165e-05,4.12698e-05,7.53711e-05,0.000134542,0.000237211,0.000415358,0.000724468,0.00126082,0.00219146,0.00380627,0.00660819,0.0114699,0.0199057,inf	3474.6,3474.6,852.581,350.358,283.652,300.084,314.254,317.537,329.954,349.832,383.869,428.417,432.762,434.225,434.225,434.225
0.000712313	-12668474.26	0,3.76209e-06,1.02899e-05,2.16165e-05,4.12698e-05,7.53711e-05,0.000134542,0.000237211,0.000415358,0.000724468,0.00126082,0.00219146,0.00380627,0.00660819,0.0114699,0.0199057,inf	5240.1,5240.1,817.369,280.465,237.624,275.117,297.16,295.982,309.537,331.999,373.157,430.004,432.469,433.476,433.476,433.476
0.000778703	-12665446.47	0,3.76209e-06,1.02899e-05,2.16165e-05,4.12698e-05,7.53711e-05,0.000134542,0.000237211,0.000415358,0.000724468,0.00126082,0.00219146,0.00380627,0.00660819,0.0114699,0.0199057,inf	5753.86,5753.86,708.694,234.566,215.423,270.775,298.948,292.678,306.286,328.033,370.623,431.156,431.308,431.197,431.197,431.197
0.000841141	-12663060.23	0,3.76209e-06,1.02899e-05,2.16165e-05,4.12698e-05,7.53711e-05,0.000134542,0.000237211,0.000415358,0.000724468,0.00126082,0.00219146,0.00380627,0.00660819,0.0114699,0.0199057,inf	5849.19,5849.19,612.66,203.664,201.845,271.298,304.214,293.397,307.525,327.865,370.299,431.27,429.548,427.882,427.882,427.882
0.000899863	-12661120.73	0,3.76209e-06,1.02899e-05,2.16165e-05,4.12698e-05,7.53711e-05,0.000134542,0.000237211,0.000415358,0.000724468,0.00126082,0.00219146,0.00380627,0.00660819,0.0114699,0.0199057,inf	5821.04,5821.04,537.176,182.129,192.696,273.082,309.493,294.798,310.016,328.873,370.71,430.659,427.533,423.988,423.988,423.988
0.000955204	-12659522.54	0,3.76209e-06,1.02899e-05,2.16165e-05,4.12698e-05,7.53711e-05,0.000134542,0.000237211,0.000415358,0.000724468,0.00126082,0.00219146,0.00380627,0.00660819,0.0114699,0.0199057,inf	5755.21,5755.21,478.066,166.7,186.378,275.283,314.126,296.103,312.816,330.245,371.416,429.634,425.479,419.827,419.827,419.827
0.00100748	-12658189.67	0,3.76209e-06,1.02899e-05,2.16165e-05,4.12698e-05,7.53711e-05,0.000134542,0.000237211,0.000415358,0.000724468,0.00126082,0.00219146,0.00380627,0.00660819,0.0114699,0.0199057,inf	5676.97,5676.97,430.896,155.4,182.08,277.726,318.125,297.185,315.625,331.691,372.255,428.396,423.5,415.595,415.595,415.595
0.00105696	-12657066.28	0,3.76209e-06,1.02899e-05,2.16165e-05,4.12698e-05,7.53711e-05,0.000134542,0.000237211,0.000415358,0.000724468,0.00126082,0.00219146,0.00380627,0.00660819,0.0114699,0.0199057,inf	5595.78,5595.78,392.353,146.985,179.275,280.359,321.623,298.072,318.343,333.093,373.15,427.065,421.651,411.413,411.413,411.413
0.00110388	-12656110.80	0,3.76209e-06,1.02899e-05,2.16165e-05,4.12698e-05,7.53711e-05,0.000134542,0.000237211,0.000415358,0.000724468,0.00126082,0.00219146,0.00380627,0.00660819,0.0114699,0.0199057,inf	5514.92,5514.92,360.162,140.636,177.593,283.149,324.742,298.816,320.938,334.403,374.062,425.708,419.952,407.353,407.353,407.353
0.00114845	-12655291.80	0,3.76209e-06,1.02899e-05,2.16165e-05,4.12698e-05,7.53711e-05,0.000134542,0.000237211,0.000415358,0.000724468,0.00126082,0.00219146,0.00380627,0.00660819,0.0114699,0.0199057,inf	5436.49,5436.49,332.727,135.798,176.758,286.056,327.573,299.462,323.401,335.601,374.966,424.363,418.405,403.455,403.455,403.455
0.00119084	-12654585.02	0,3.76209e-06,1.02899e-05,2.16165e-05,4.12698e-05,7.53711e-05,0.000134542,0.000237211,0.000415358,0.000724468,0.00126082,0.00219146,0.00380627,0.00660819,0.0114699,0.0199057,inf	5361.44,5361.44,308.934,132.077,176.561,289.043,330.178,300.044,325.736,336.683,375.85,423.052,417.006,399.74,399.74,399.74
0.00123122	-12653971.51	0,3.76209e-06,1.02899e-05,2.16165e-05,4.12698e-05,7.53711e-05,0.000134542,0.000237211,0.000415358,0.000724468,0.00126082,0.00219146,0.00380627,0.00660819,0.0114699,0.0199057,inf	5290.02,5290.02,288.012,129.205,176.844,292.072,332.601,300.586,327.95,337.652,376.704,421.785,415.743,396.218,396.218,396.218
0.00126973	-12653436.21	0,3.76209e-06,1.02899e-05,2.16165e-05,4.12698e-05,7.53711e-05,0.000134542,0.000237211,0.000415358,0.000724468,0.00126082,0.00219146,0.00380627,0.00660819,0.0114699,0.0199057,inf	5223.04,5223.04,269.387,126.986,177.487,295.111,334.872,301.105,330.049,338.512,377.525,420.566,414.605,392.888,392.888,392.888
0.00130649	-12652966.98	0,3.76209e-06,1.02899e-05,2.16165e-05,4.12698e-05,7.53711e-05,0.000134542,0.000237211,0.000415358,0.000724468,0.00126082,0.00219146,0.00380627,0.00660819,0.0114699,0.0199057,inf	5159.69,5159.69,252.636,125.275,178.393,298.133,337.011,301.61,332.041,339.271,378.31,419.398,413.58,389.746,389.746,389.746
0.00134162	-12652554.00	0,3.76209e-06,1.02899e-05,2.16165e-05,4.12698e-05,7.53711e-05,0.000134542,0.000237211,0.000415358,0.000724468,0.00126082,0.00219146,0.00380627,0.00660819,0.0114699,0.0199057,inf	5100.33,5100.33,237.449,123.968,179.495,301.116,339.033,302.11,333.934,339.939,379.06,418.28,412.656,386.787,386.787,386.787
0.00137522	-12652189.19	0,3.76209e-06,1.02899e-05,2.16165e-05,4.12698e-05,7.53711e-05,0.000134542,0.000237211,0.000415358,0.000724468,0.00126082,0.00219146,0.00380627,0.00660819,0.0114699,0.0199057,inf	5044.79,5044.79,223.585,122.985,180.737,304.044,340.951,302.608,335.735,340.523,379.774,417.21,411.823,384.001,384.001,384.001
0.00140739	-12651865.86	0,3.76209e-06,1.02899e-05,2.16165e-05,4.12698e-05,7.53711e-05,0.000134542,0.000237211,0.000415358,0.000724468,0.00126082,0.00219146,0.00380627,0.00660819,0.0114699,0.0199057,inf	4992.44,4992.44,210.854,122.265,182.078,306.907,342.772,303.107,337.451,341.031,380.455,416.186,411.07,381.379,381.379,381.379
0.0014382	-12651578.43	0,3.76209e-06,1.02899e-05,2.16165e-05,4.12698e-05,7.53711e-05,0.000134542,0.000237211,0.000415358,0.000724468,0.00126082,0.00219146,0.00380627,0.00660819,0.0114699,0.0199057,inf	4943.67,4943.67,199.119,121.763,183.483,309.694,344.503,303.609,339.089,341.47,381.103,415.207,410.388,378.912,378.912,378.912
0.00146774	-12651322.23	0,3.76209e-06,1.02899e-05,2.16165e-05,4.12698e-05,7.53711e-05,0.000134542,0.000237211,0.000415358,0.000724468,0.00126082,0.00219146,0.00380627,0.00660819,0.0114699,0.0199057,inf	4897.73,4897.73,188.238,121.436,184.93,312.402,346.152,304.114,340.652,341.847,381.721,414.268,409.771,376.59,376.59,376.59
0.00149609	-12651093.30	0,3.76209e-06,1.02899e-05,2.16165e-05,4.12698e-05,7.53711e-05,0.000134542,0.000237211,0.000415358,0.000724468,0.00126082,0.00219146,0.00380627,0.00660819,0.0114699,0.0199057,inf	4854.56,4854.56,178.128,121.268,186.397,315.026,347.722,304.623,342.146,342.168,382.31,413.369,409.21,374.403,374.403,374.403
