time_index	left_time_boundary	right_time_boundary	lambda
0	0	9.43241e-05	262.147
1	9.43241e-05	0.000223389	262.147
2	0.000223389	0.000399991	428.167
3	0.000399991	0.000641637	277.266
4	0.000641637	0.000972286	337.49
5	0.000972286	0.00142472	390.274
6	0.00142472	0.00204379	382.983
7	0.00204379	0.00289087	393.172
8	0.00289087	0.00404994	441.067
9	0.00404994	0.00563592	487.248
10	0.00563592	0.00780603	400.351
11	0.00780603	0.0107754	257.531
12	0.0107754	0.0148385	200.253
13	0.0148385	0.0203981	337.261
14	0.0203981	0.0280053	337.261
15	0.0280053	inf	337.261
