0.000697482	-8623534.42	0,2.87688e-06,6.67616e-06,1.16936e-05,1.83197e-05,2.70702e-05,3.86264e-05,5.38877e-05,7.40422e-05,0.000100659,0.000135809,0.000182229,0.000243532,0.000324491,0.000431407,0.000572602,0.000759068,0.00100532,0.00133052,0.00175999,0.00232716,0.00307618,0.00406534,0.00537166,0.0070968,0.00937507,0.0123838,0.0163572,0.0216045,0.0285343,inf	409.714,409.714,409.714,409.714,409.714,409.714,409.714,409.714,409.714,409.714,409.714,409.714,409.714,409.714,409.714,409.714,409.714,409.714,409.714,409.714,409.714,409.714,409.714,409.714,409.714,409.714,409.714,409.714,409.714,409.714
0.000761908	-8621276.67	0,2.87688e-06,6.67616e-06,1.16936e-05,1.83197e-05,2.70702e-05,3.86264e-05,5.38877e-05,7.40422e-05,0.000100659,0.000135809,0.000182229,0.000243532,0.000324491,0.000431407,0.000572602,0.000759068,0.00100532,0.00133052,0.00175999,0.00232716,0.00307618,0.00406534,0.00537166,0.0070968,0.00937507,0.0123838,0.0163572,0.0216045,0.0285343,inf	414.453,414.453,414.453,414.453,414.453,414.453,414.453,414.453,414.453,414.453,414.453,414.453,414.453,414.453,414.453,414.453,414.453,414.453,414.453,414.453,414.453,414.453,414.453,414.453,414.453,414.453,414.453,414.453,414.453,414.453
0.000822478	-8619508.46	0,2.87688e-06,6.67616e-06,1.16936e-05,1.83197e-05,2.70702e-05,3.86264e-05,5.38877e-05,7.40422e-05,0.000100659,0.000135809,0.000182229,0.000243532,0.000324491,0.000431407,0.000572602,0.000759068,0.00100532,0.00133052,0.00175999,0.00232716,0.00307618,0.00406534,0.00537166,0.0070968,0.00937507,0.0123838,0.0163572,0.0216045,0.0285343,inf	416.183,416.183,416.183,416.183,416.183,416.183,416.183,416.183,416.183,416.183,416.183,416.183,416.183,416.183,416.183,416.183,416.183,416.183,416.183,416.183,416.183,416.183,416.183,416.183,416.183,416.183,416.183,416.183,416.183,416.183
0.000879869	-8618046.63	0,2.87688e-06,6.67616e-06,1.16936e-05,1.83197e-05,2.70702e-05,3.86264e-05,5.38877e-05,7.40422e-05,0.000100659,0.000135809,0.000182229,0.000243532,0.000324491,0.000431407,0.000572602,0.000759068,0.00100532,0.00133052,0.00175999,0.00232716,0.00307618,0.00406534,0.00537166,0.0070968,0.00937507,0.0123838,0.0163572,0.0216045,0.0285343,inf	416.605,416.605,416.605,416.605,416.605,416.605,416.605,416.605,416.605,416.605,416.605,416.605,416.605,416.605,416.605,416.605,416.605,416.605,416.605,416.605,416.605,416.605,416.605,416.605,416.605,416.605,416.605,416.605,416.605,416.605
0.000934493	-8616809.12	0,2.87688e-06,6.67616e-06,1.16936e-05,1.83197e-05,2.70702e-05,3.86264e-05,5.38877e-05,7.40422e-05,0.000100659,0.000135809,0.000182229,0.000243532,0.000324491,0.000431407,0.000572602,0.000759068,0.00100532,0.00133052,0.00175999,0.00232716,0.00307618,0.00406534,0.00537166,0.0070968,0.00937507,0.0123838,0.0163572,0.0216045,0.0285343,inf	416.457,416.457,416.457,416.457,416.457,416.457,416.457,416.457,416.457,416.457,416.457,416.457,416.457,416.457,416.457,416.457,416.457,416.457,416.457,416.457,416.457,416.457,416.457,416.457,416.457,416.457,416.457,416.457,416.457,416.457
0.000986623	-8615747.23	0,2.87688e-06,6.67616e-06,1.16936e-05,1.83197e-05,2.70702e-05,3.86264e-05,5.38877e-05,7.40422e-05,0.000100659,0.000135809,0.000182229,0.000243532,0.000324491,0.000431407,0.000572602,0.000759068,0.00100532,0.00133052,0.00175999,0.00232716,0.00307618,0.00406534,0.00537166,0.0070968,0.00937507,0.0123838,0.0163572,0.0216045,0.0285343,inf	416.062,416.062,416.062,416.062,416.062,416.062,416.062,416.062,416.062,416.062,416.062,416.062,416.062,416.062,416.062,416.062,416.062,416.062,416.062,416.062,416.062,416.062,416.062,416.062,416.062,416.062,416.062,416.062,416.062,416.062
0.00103646	-8614827.33	0,2.87688e-06,6.67616e-06,1.16936e-05,1.83197e-05,2.70702e-05,3.86264e-05,5.38877e-05,7.40422e-05,0.000100659,0.000135809,0.000182229,0.000243532,0.000324491,0.000431407,0.000572602,0.000759068,0.00100532,0.00133052,0.00175999,0.00232716,0.00307618,0.00406534,0.00537166,0.0070968,0.00937507,0.0123838,0.0163572,0.0216045,0.0285343,inf	415.564,415.564,415.564,415.564,415.564,415.564,415.564,415.564,415.564,415.564,415.564,415.564,415.564,415.564,415.564,415.564,415.564,415.564,415.564,415.564,415.564,415.564,415.564,415.564,415.564,415.564,415.564,415.564,415.564,415.564
0.00108415	-8614024.41	0,2.87688e-06,6.67616e-06,1.16936e-05,1.83197e-05,2.70702e-05,3.86264e-05,5.38877e-05,7.40422e-05,0.000100659,0.000135809,0.000182229,0.000243532,0.000324491,0.000431407,0.000572602,0.000759068,0.00100532,0.00133052,0.00175999,0.00232716,0.00307618,0.00406534,0.00537166,0.0070968,0.00937507,0.0123838,0.0163572,0.0216045,0.0285343,inf	415.03,415.03,415.03,415.03,415.03,415.03,415.03,415.03,415.03,415.03,415.03,415.03,415.03,415.03,415.03,415.03,415.03,415.03,415.03,415.03,415.03,415.03,415.03,415.03,415.03,415.03,415.03,415.03,415.03,415.03
0.00112983	-8613319.17	0,2.87688e-06,6.67616e-06,1.16936e-05,1.83197e-05,2.70702e-05,3.86264e-05,5.38877e-05,7.40422e-05,0.000100659,0.000135809,0.000182229,0.000243532,0.000324491,0.000431407,0.000572602,0.000759068,0.00100532,0.00133052,0.00175999,0.00232716,0.00307618,0.00406534,0.00537166,0.0070968,0.00937507,0.0123838,0.0163572,0.0216045,0.0285343,inf	414.49,414.49,414.49,414.49,414.49,414.49,414.49,414.49,414.49,414.49,414.49,414.49,414.49,414.49,414.49,414.49,414.49,414.49,414.49,414.49,414.49,414.49,414.49,414.49,414.49,414.49,414.49,414.49,414.49,414.49
0.00117363	-8612696.32	0,2.87688e-06,6.67616e-06,1.16936e-05,1.83197e-05,2.70702e-05,3.86264e-05,5.38877e-05,7.40422e-05,0.000100659,0.000135809,0.000182229,0.000243532,0.000324491,0.000431407,0.000572602,0.000759068,0.00100532,0.00133052,0.00175999,0.00232716,0.00307618,0.00406534,0.00537166,0.0070968,0.00937507,0.0123838,0.0163572,0.0216045,0.0285343,inf	413.959,413.959,413.959,413.959,413.959,413.959,413.959,413.959,413.959,413.959,413.959,413.959,413.959,413.959,413.959,413.959,413.959,413.959,413.959,413.959,413.959,413.959,413.959,413.959,413.959,413.959,413.959,413.959,413.959,413.959
0.00121564	-8612143.57	0,2.87688e-06,6.67616e-06,1.16936e-05,1.83197e-05,2.70702e-05,3.86264e-05,5.38877e-05,7.40422e-05,0.000100659,0.000135809,0.000182229,0.000243532,0.000324491,0.000431407,0.000572602,0.000759068,0.00100532,0.00133052,0.00175999,0.00232716,0.00307618,0.00406534,0.00537166,0.0070968,0.00937507,0.0123838,0.0163572,0.0216045,0.0285343,inf	413.444,413.444,413.444,413.444,413.444,413.444,413.444,413.444,413.444,413.444,413.444,413.444,413.444,413.444,413.444,413.444,413.444,413.444,413.444,413.444,413.444,413.444,413.444,413.444,413.444,413.444,413.444,413.444,413.444,413.444
0.00125596	-8611650.91	0,2.87688e-06,6.67616e-06,1.16936e-05,1.83197e-05,2.70702e-05,3.86264e-05,5.38877e-05,7.40422e-05,0.000100659,0.000135809,0.000182229,0.000243532,0.000324491,0.000431407,0.000572602,0.000759068,0.00100532,0.00133052,0.00175999,0.00232716,0.00307618,0.00406534,0.00537166,0.0070968,0.00937507,0.0123838,0.0163572,0.0216045,0.0285343,inf	412.948,412.948,412.948,412.948,412.948,412.948,412.948,412.948,412.948,412.948,412.948,412.948,412.948,412.948,412.948,412.948,412.948,412.948,412.948,412.948,412.948,412.948,412.948,412.948,412.948,412.948,412.948,412.948,412.948,412.948
0.00129468	-8611210.08	0,2.87688e-06,6.67616e-06,1.16936e-05,1.83197e-05,2.70702e-05,3.86264e-05,5.38877e-05,7.40422e-05,0.000100659,0.000135809,0.000182229,0.000243532,0.000324491,0.000431407,0.000572602,0.000759068,0.00100532,0.00133052,0.00175999,0.00232716,0.00307618,0.00406534,0.00537166,0.0070968,0.00937507,0.0123838,0.0163572,0.0216045,0.0285343,inf	412.471,412.471,412.471,412.471,412.471,412.471,412.471,412.471,412.471,412.471,412.471,412.471,412.471,412.471,412.471,412.471,412.471,412.471,412.471,412.471,412.471,412.471,412.471,412.471,412.471,412.471,412.471,412.471,412.471,412.471
0.00133189	-8610814.21	0,2.87688e-06,6.67616e-06,1.16936e-05,1.83197e-05,2.70702e-05,3.86264e-05,5.38877e-05,7.40422e-05,0.000100659,0.000135809,0.000182229,0.000243532,0.000324491,0.000431407,0.000572602,0.000759068,0.00100532,0.00133052,0.00175999,0.00232716,0.00307618,0.00406534,0.00537166,0.0070968,0.00937507,0.0123838,0.0163572,0.0216045,0.0285343,inf	412.014,412.014,412.014,412.014,412.014,412.014,412.014,412.014,412.014,412.014,412.014,412.014,412.014,412.014,412.014,412.014,412.014,412.014,412.014,412.014,412.014,412.014,412.014,412.014,412.014,412.014,412.014,412.014,412.014,412.014
0.00136765	-8610457.57	0,2.87688e-06,6.67616e-06,1.16936e-05,1.83197e-05,2.70702e-05,3.86264e-05,5.38877e-05,7.40422e-05,0.000100659,0.000135809,0.000182229,0.000243532,0.000324491,0.000431407,0.000572602,0.000759068,0.00100532,0.00133052,0.00175999,0.00232716,0.00307618,0.00406534,0.00537166,0.0070968,0.00937507,0.0123838,0.0163572,0.0216045,0.0285343,inf	411.577,411.577,411.577,411.577,411.577,411.577,411.577,411.577,411.577,411.577,411.577,411.577,411.577,411.577,411.577,411.577,411.577,411.577,411.577,411.577,411.577,411.577,411.577,411.577,411.577,411.577,411.577,411.577,411.577,411.577
0.00140206	-8610135.30	0,2.87688e-06,6.67616e-06,1.16936e-05,1.83197e-05,2.70702e-05,3.86264e-05,5.38877e-05,7.40422e-05,0.000100659,0.000135809,0.000182229,0.000243532,0.000324491,0.000431407,0.000572602,0.000759068,0.00100532,0.00133052,0.00175999,0.00232716,0.00307618,0.00406534,0.00537166,0.0070968,0.00937507,0.0123838,0.0163572,0.0216045,0.0285343,inf	411.159,411.159,411.159,411.159,411.159,411.159,411.159,411.159,411.159,411.159,411.159,411.159,411.159,411.159,411.159,411.159,411.159,411.159,411.159,411.159,411.159,411.159,411.159,411.159,411.159,411.159,411.159,411.159,411.159,411.159
0.00143516	-8609843.29	0,2.87688e-06,6.67616e-06,1.16936e-05,1.83197e-05,2.70702e-05,3.86264e-05,5.38877e-05,7.40422e-05,0.000100659,0.000135809,0.000182229,0.000243532,0.000324491,0.000431407,0.000572602,0.000759068,0.00100532,0.00133052,0.00175999,0.00232716,0.00307618,0.00406534,0.00537166,0.0070968,0.00937507,0.0123838,0.0163572,0.0216045,0.0285343,inf	410.759,410.759,410.759,410.759,410.759,410.759,410.759,410.759,410.759,410.759,410.759,410.759,410.759,410.759,410.759,410.759,410.759,410.759,410.759,410.759,410.759,410.759,410.759,410.759,410.759,410.759,410.759,410.759,410.759,410.759
0.00146702	-8609578.00	0,2.87688e-06,6.67616e-06,1.16936e-05,1.83197e-05,2.70702e-05,3.86264e-05,5.38877e-05,7.40422e-05,0.000100659,0.000135809,0.000182229,0.000243532,0.000324491,0.000431407,0.000572602,0.000759068,0.00100532,0.00133052,0.00175999,0.00232716,0.00307618,0.00406534,0.00537166,0.0070968,0.00937507,0.0123838,0.0163572,0.0216045,0.0285343,inf	410.377,410.377,410.377,410.377,410.377,410.377,410.377,410.377,410.377,410.377,410.377,410.377,410.377,410.377,410.377,410.377,410.377,410.377,410.377,410.377,410.377,410.377,410.377,410.377,410.377,410.377,410.377,410.377,410.377,410.377
0.0014977	-8609336.43	0,2.87688e-06,6.67616e-06,1.16936e-05,1.83197e-05,2.70702e-05,3.86264e-05,5.38877e-05,7.40422e-05,0.000100659,0.000135809,0.000182229,0.000243532,0.000324491,0.000431407,0.000572602,0.000759068,0.00100532,0.00133052,0.00175999,0.00232716,0.00307618,0.00406534,0.00537166,0.0070968,0.00937507,0.0123838,0.0163572,0.0216045,0.0285343,inf	410.011,410.011,410.011,410.011,410.011,410.011,410.011,410.011,410.011,410.011,410.011,410.011,410.011,410.011,410.011,410.011,410.011,410.011,410.011,410.011,410.011,410.011,410.011,410.011,410.011,410.011,410.011,410.011,410.011,410.011
0.00152726	-8609115.96	0,2.87688e-06,6.67616e-06,1.16936e-05,1.83197e-05,2.70702e-05,3.86264e-05,5.38877e-05,7.40422e-05,0.000100659,0.000135809,0.000182229,0.000243532,0.000324491,0.000431407,0.000572602,0.000759068,0.00100532,0.00133052,0.00175999,0.00232716,0.00307618,0.00406534,0.00537166,0.0070968,0.00937507,0.0123838,0.0163572,0.0216045,0.0285343,inf	409.661,409.661,409.661,409.661,409.661,409.661,409.661,409.661,409.661,409.661,409.661,409.661,409.661,409.661,409.661,409.661,409.661,409.661,409.661,409.661,409.661,409.661,409.661,409.661,409.661,409.661,409.661,409.661,409.661,409.661
