time_index	left_time_boundary	right_time_boundary	lambda
0	0	4.34723e-05	53.1978
1	4.34723e-05	9.43241e-05	53.1978
2	9.43241e-05	0.000153808	382.432
3	0.000153808	0.000223389	443.749
4	0.000223389	0.000304782	390.242
5	0.000304782	0.000399991	325.275
6	0.000399991	0.000511361	286.152
7	0.000511361	0.000641637	289.101
8	0.000641637	0.000794027	317.707
9	0.000794027	0.000972286	354.386
10	0.000972286	0.0011808	375.894
11	0.0011808	0.00142472	378.738
12	0.00142472	0.00171004	377.122
13	0.00171004	0.00204379	381.239
14	0.00204379	0.00243419	392.245
15	0.00243419	0.00289087	409.224
16	0.00289087	0.00342506	432.206
17	0.00342506	0.00404994	458.551
18	0.00404994	0.00478089	480.669
19	0.00478089	0.00563592	484.307
20	0.00563592	0.00663609	455.802
21	0.00663609	0.00780603	397.713
22	0.00780603	0.00917458	331.7
23	0.00917458	0.0107754	282.025
24	0.0107754	0.012648	261.835
25	0.012648	0.0148385	274.773
26	0.0148385	0.0174008	323.527
27	0.0174008	0.0203981	450.466
28	0.0203981	0.0239041	450.466
29	0.0239041	0.0280053	1101.61
30	0.0280053	0.0328027	1101.61
31	0.0328027	inf	1101.61
