0.000712593	-313392.49	0,4.662e-05,0.000101727,0.000166865,0.000243862,0.000334875,0.000442455,0.000569621,0.000719935,0.000897613,0.00110764,0.00135589,0.00164934,0.00199621,0.00240622,0.00289087,0.00346374,0.00414091,0.00494134,0.00588749,0.00700587,0.00832785,0.00989048,0.0117376,0.0139209,0.0165017,0.0195523,0.0231583,0.0274206,0.032459,inf	400.596,400.596,400.596,400.596,400.596,400.596,400.596,400.596,400.596,400.596,400.596,400.596,400.596,400.596,400.596,400.596,400.596,400.596,400.596,400.596,400.596,400.596,400.596,400.596,400.596,400.596,400.596,400.596,400.596,400.596
0.000780822	-313305.28	0,4.662e-05,0.000101727,0.000166865,0.000243862,0.000334875,0.000442455,0.000569621,0.000719935,0.000897613,0.00110764,0.00135589,0.00164934,0.00199621,0.00240622,0.00289087,0.00346374,0.00414091,0.00494134,0.00588749,0.00700587,0.00832785,0.00989048,0.0117376,0.0139209,0.0165017,0.0195523,0.0231583,0.0274206,0.032459,inf	404.726,404.726,404.726,404.726,404.726,404.726,404.726,404.726,404.726,404.726,404.726,404.726,404.726,404.726,404.726,404.726,404.726,404.726,404.726,404.726,404.726,404.726,404.726,404.726,404.726,404.726,404.726,404.726,404.726,404.726
0.000845691	-313235.97	0,4.662e-05,0.000101727,0.000166865,0.000243862,0.000334875,0.000442455,0.000569621,0.000719935,0.000897613,0.00110764,0.00135589,0.00164934,0.00199621,0.00240622,0.00289087,0.00346374,0.00414091,0.00494134,0.00588749,0.00700587,0.00832785,0.00989048,0.0117376,0.0139209,0.0165017,0.0195523,0.0231583,0.0274206,0.032459,inf	406.111,406.111,406.111,406.111,406.111,406.111,406.111,406.111,406.111,406.111,406.111,406.111,406.111,406.111,406.111,406.111,406.111,406.111,406.111,406.111,406.111,406.111,406.111,406.111,406.111,406.111,406.111,406.111,406.111,406.111
0.000907708	-313178.42	0,4.662e-05,0.000101727,0.000166865,0.000243862,0.000334875,0.000442455,0.000569621,0.000719935,0.000897613,0.00110764,0.00135589,0.00164934,0.00199621,0.00240622,0.00289087,0.00346374,0.00414091,0.00494134,0.00588749,0.00700587,0.00832785,0.00989048,0.0117376,0.0139209,0.0165017,0.0195523,0.0231583,0.0274206,0.032459,inf	406.256,406.256,406.256,406.256,406.256,406.256,406.256,406.256,406.256,406.256,406.256,406.256,406.256,406.256,406.256,406.256,406.256,406.256,406.256,406.256,406.256,406.256,406.256,406.256,406.256,406.256,406.256,406.256,406.256,406.256
0.000967199	-313129.62	0,4.662e-05,0.000101727,0.000166865,0.000243862,0.000334875,0.000442455,0.000569621,0.000719935,0.000897613,0.00110764,0.00135589,0.00164934,0.00199621,0.00240622,0.00289087,0.00346374,0.00414091,0.00494134,0.00588749,0.00700587,0.00832785,0.00989048,0.0117376,0.0139209,0.0165017,0.0195523,0.0231583,0.0274206,0.032459,inf	405.851,405.851,405.851,405.851,405.851,405.851,405.851,405.851,405.851,405.851,405.851,405.851,405.851,405.851,405.851,405.851,405.851,405.851,405.851,405.851,405.851,405.851,405.851,405.851,405.851,405.851,405.851,405.851,405.851,405.851
0.00102439	-313087.70	0,4.662e-05,0.000101727,0.000166865,0.000243862,0.000334875,0.000442455,0.000569621,0.000719935,0.000897613,0.00110764,0.00135589,0.00164934,0.00199621,0.00240622,0.00289087,0.00346374,0.00414091,0.00494134,0.00588749,0.00700587,0.00832785,0.00989048,0.0117376,0.0139209,0.0165017,0.0195523,0.0231583,0.0274206,0.032459,inf	405.214,405.214,405.214,405.214,405.214,405.214,405.214,405.214,405.214,405.214,405.214,405.214,405.214,405.214,405.214,405.214,405.214,405.214,405.214,405.214,405.214,405.214,405.214,405.214,405.214,405.214,405.214,405.214,405.214,405.214
0.00107943	-313051.35	0,4.662e-05,0.000101727,0.000166865,0.000243862,0.000334875,0.000442455,0.000569621,0.000719935,0.000897613,0.00110764,0.00135589,0.00164934,0.00199621,0.00240622,0.00289087,0.00346374,0.00414091,0.00494134,0.00588749,0.00700587,0.00832785,0.00989048,0.0117376,0.0139209,0.0165017,0.0195523,0.0231583,0.0274206,0.032459,inf	404.491,404.491,404.491,404.491,404.491,404.491,404.491,404.491,404.491,404.491,404.491,404.491,404.491,404.491,404.491,404.491,404.491,404.491,404.491,404.491,404.491,404.491,404.491,404.491,404.491,404.491,404.491,404.491,404.491,404.491
0.00113247	-313019.61	0,4.662e-05,0.000101727,0.000166865,0.000243862,0.000334875,0.000442455,0.000569621,0.000719935,0.000897613,0.00110764,0.00135589,0.00164934,0.00199621,0.00240622,0.00289087,0.00346374,0.00414091,0.00494134,0.00588749,0.00700587,0.00832785,0.00989048,0.0117376,0.0139209,0.0165017,0.0195523,0.0231583,0.0274206,0.032459,inf	403.749,403.749,403.749,403.749,403.749,403.749,403.749,403.749,403.749,403.749,403.749,403.749,403.749,403.749,403.749,403.749,403.749,403.749,403.749,403.749,403.749,403.749,403.749,403.749,403.749,403.749,403.749,403.749,403.749,403.749
0.0011836	-312991.72	0,4.662e-05,0.000101727,0.000166865,0.000243862,0.000334875,0.000442455,0.000569621,0.000719935,0.000897613,0.00110764,0.00135589,0.00164934,0.00199621,0.00240622,0.00289087,0.00346374,0.00414091,0.00494134,0.00588749,0.00700587,0.00832785,0.00989048,0.0117376,0.0139209,0.0165017,0.0195523,0.0231583,0.0274206,0.032459,inf	403.02,403.02,403.02,403.02,403.02,403.02,403.02,403.02,403.02,403.02,403.02,403.02,403.02,403.02,403.02,403.02,403.02,403.02,403.02,403.02,403.02,403.02,403.02,403.02,403.02,403.02,403.02,403.02,403.02,403.02
0.00123293	-312967.08	0,4.662e-05,0.000101727,0.000166865,0.000243862,0.000334875,0.000442455,0.000569621,0.000719935,0.000897613,0.00110764,0.00135589,0.00164934,0.00199621,0.00240622,0.00289087,0.00346374,0.00414091,0.00494134,0.00588749,0.00700587,0.00832785,0.00989048,0.0117376,0.0139209,0.0165017,0.0195523,0.0231583,0.0274206,0.032459,inf	402.316,402.316,402.316,402.316,402.316,402.316,402.316,402.316,402.316,402.316,402.316,402.316,402.316,402.316,402.316,402.316,402.316,402.316,402.316,402.316,402.316,402.316,402.316,402.316,402.316,402.316,402.316,402.316,402.316,402.316
0.00128054	-312945.22	0,4.662e-05,0.000101727,0.000166865,0.000243862,0.000334875,0.000442455,0.000569621,0.000719935,0.000897613,0.00110764,0.00135589,0.00164934,0.00199621,0.00240622,0.00289087,0.00346374,0.00414091,0.00494134,0.00588749,0.00700587,0.00832785,0.00989048,0.0117376,0.0139209,0.0165017,0.0195523,0.0231583,0.0274206,0.032459,inf	401.641,401.641,401.641,401.641,401.641,401.641,401.641,401.641,401.641,401.641,401.641,401.641,401.641,401.641,401.641,401.641,401.641,401.641,401.641,401.641,401.641,401.641,401.641,401.641,401.641,401.641,401.641,401.641,401.641,401.641
0.00132651	-312925.75	0,4.662e-05,0.000101727,0.000166865,0.000243862,0.000334875,0.000442455,0.000569621,0.000719935,0.000897613,0.00110764,0.00135589,0.00164934,0.00199621,0.00240622,0.00289087,0.00346374,0.00414091,0.00494134,0.00588749,0.00700587,0.00832785,0.00989048,0.0117376,0.0139209,0.0165017,0.0195523,0.0231583,0.0274206,0.032459,inf	400.998,400.998,400.998,400.998,400.998,400.998,400.998,400.998,400.998,400.998,400.998,400.998,400.998,400.998,400.998,400.998,400.998,400.998,400.998,400.998,400.998,400.998,400.998,400.998,400.998,400.998,400.998,400.998,400.998,400.998
0.00137093	-312908.33	0,4.662e-05,0.000101727,0.000166865,0.000243862,0.000334875,0.000442455,0.000569621,0.000719935,0.000897613,0.00110764,0.00135589,0.00164934,0.00199621,0.00240622,0.00289087,0.00346374,0.00414091,0.00494134,0.00588749,0.00700587,0.00832785,0.00989048,0.0117376,0.0139209,0.0165017,0.0195523,0.0231583,0.0274206,0.032459,inf	400.386,400.386,400.386,400.386,400.386,400.386,400.386,400.386,400.386,400.386,400.386,400.386,400.386,400.386,400.386,400.386,400.386,400.386,400.386,400.386,400.386,400.386,400.386,400.386,400.386,400.386,400.386,400.386,400.386,400.386
0.00141386	-312892.70	0,4.662e-05,0.000101727,0.000166865,0.000243862,0.000334875,0.000442455,0.000569621,0.000719935,0.000897613,0.00110764,0.00135589,0.00164934,0.00199621,0.00240622,0.00289087,0.00346374,0.00414091,0.00494134,0.00588749,0.00700587,0.00832785,0.00989048,0.0117376,0.0139209,0.0165017,0.0195523,0.0231583,0.0274206,0.032459,inf	399.803,399.803,399.803,399.803,399.803,399.803,399.803,399.803,399.803,399.803,399.803,399.803,399.803,399.803,399.803,399.803,399.803,399.803,399.803,399.803,399.803,399.803,399.803,399.803,399.803,399.803,399.803,399.803,399.803,399.803
0.00145537	-312878.64	0,4.662e-05,0.000101727,0.000166865,0.000243862,0.000334875,0.000442455,0.000569621,0.000719935,0.000897613,0.00110764,0.00135589,0.00164934,0.00199621,0.00240622,0.00289087,0.00346374,0.00414091,0.00494134,0.00588749,0.00700587,0.00832785,0.00989048,0.0117376,0.0139209,0.0165017,0.0195523,0.0231583,0.0274206,0.032459,inf	399.247,399.247,399.247,399.247,399.247,399.247,399.247,399.247,399.247,399.247,399.247,399.247,399.247,399.247,399.247,399.247,399.247,399.247,399.247,399.247,399.247,399.247,399.247,399.247,399.247,399.247,399.247,399.247,399.247,399.247
0.00149553	-312865.96	0,4.662e-05,0.000101727,0.000166865,0.000243862,0.000334875,0.000442455,0.000569621,0.000719935,0.000897613,0.00110764,0.00135589,0.00164934,0.00199621,0.00240622,0.00289087,0.00346374,0.00414091,0.00494134,0.00588749,0.00700587,0.00832785,0.00989048,0.0117376,0.0139209,0.0165017,0.0195523,0.0231583,0.0274206,0.032459,inf	398.717,398.717,398.717,398.717,398.717,398.717,398.717,398.717,398.717,398.717,398.717,398.717,398.717,398.717,398.717,398.717,398.717,398.717,398.717,398.717,398.717,398.717,398.717,398.717,398.717,398.717,398.717,398.717,398.717,398.717
0.00153439	-312854.48	0,4.662e-05,0.000101727,0.000166865,0.000243862,0.000334875,0.000442455,0.000569621,0.000719935,0.000897613,0.00110764,0.00135589,0.00164934,0.00199621,0.00240622,0.00289087,0.00346374,0.00414091,0.00494134,0.00588749,0.00700587,0.00832785,0.00989048,0.0117376,0.0139209,0.0165017,0.0195523,0.0231583,0.0274206,0.032459,inf	398.212,398.212,398.212,398.212,398.212,398.212,398.212,398.212,398.212,398.212,398.212,398.212,398.212,398.212,398.212,398.212,398.212,398.212,398.212,398.212,398.212,398.212,398.212,398.212,398.212,398.212,398.212,398.212,398.212,398.212
0.001572	-312844.07	0,4.662e-05,0.000101727,0.000166865,0.000243862,0.000334875,0.000442455,0.000569621,0.000719935,0.000897613,0.00110764,0.00135589,0.00164934,0.00199621,0.00240622,0.00289087,0.00346374,0.00414091,0.00494134,0.00588749,0.00700587,0.00832785,0.00989048,0.0117376,0.0139209,0.0165017,0.0195523,0.0231583,0.0274206,0.032459,inf	397.729,397.729,397.729,397.729,397.729,397.729,397.729,397.729,397.729,397.729,397.729,397.729,397.729,397.729,397.729,397.729,397.729,397.729,397.729,397.729,397.729,397.729,397.729,397.729,397.729,397.729,397.729,397.729,397.729,397.729
0.00160844	-312834.62	0,4.662e-05,0.000101727,0.000166865,0.000243862,0.000334875,0.000442455,0.000569621,0.000719935,0.000897613,0.00110764,0.00135589,0.00164934,0.00199621,0.00240622,0.00289087,0.00346374,0.00414091,0.00494134,0.00588749,0.00700587,0.00832785,0.00989048,0.0117376,0.0139209,0.0165017,0.0195523,0.0231583,0.0274206,0.032459,inf	397.268,397.268,397.268,397.268,397.268,397.268,397.268,397.268,397.268,397.268,397.268,397.268,397.268,397.268,397.268,397.268,397.268,397.268,397.268,397.268,397.268,397.268,397.268,397.268,397.268,397.268,397.268,397.268,397.268,397.268
0.00164373	-312826.01	0,4.662e-05,0.000101727,0.000166865,0.000243862,0.000334875,0.000442455,0.000569621,0.000719935,0.000897613,0.00110764,0.00135589,0.00164934,0.00199621,0.00240622,0.00289087,0.00346374,0.00414091,0.00494134,0.00588749,0.00700587,0.00832785,0.00989048,0.0117376,0.0139209,0.0165017,0.0195523,0.0231583,0.0274206,0.032459,inf	396.827,396.827,396.827,396.827,396.827,396.827,396.827,396.827,396.827,396.827,396.827,396.827,396.827,396.827,396.827,396.827,396.827,396.827,396.827,396.827,396.827,396.827,396.827,396.827,396.827,396.827,396.827,396.827,396.827,396.827
