time_index	left_time_boundary	right_time_boundary	lambda
0	0	4.096e-06	131.28
1	4.096e-06	1.12031e-05	131.28
2	1.12031e-05	2.35351e-05	291.164
3	2.35351e-05	4.49327e-05	461.076
4	4.49327e-05	8.20608e-05	211.081
5	8.20608e-05	0.000146483	311.353
6	0.000146483	0.000258265	358.043
7	0.000258265	0.000452224	346.176
8	0.000452224	0.000788769	353.714
9	0.000788769	0.00137272	338.433
10	0.00137272	0.00238597	385.485
11	0.00238597	0.0041441	493.637
12	0.0041441	0.0071947	449.618
13	0.0071947	0.0124879	216.316
14	0.0124879	0.0216725	216.316
15	0.0216725	inf	216.316
