time_index	left_time_boundary	right_time_boundary	lambda
0	0	1.07268e-05	416.399
1	1.07268e-05	2.41842e-05	416.399
2	2.41842e-05	4.10673e-05	416.399
3	4.10673e-05	6.22481e-05	416.399
4	6.22481e-05	8.88206e-05	416.399
5	8.88206e-05	0.000122157	416.399
6	0.000122157	0.00016398	416.399
7	0.00016398	0.00021645	416.399
8	0.00021645	0.000282276	416.399
9	0.000282276	0.000364858	416.399
10	0.000364858	0.000468463	416.399
11	0.000468463	0.00059844	416.399
12	0.00059844	0.000761505	416.399
13	0.000761505	0.000966079	416.399
14	0.000966079	0.00122273	416.399
15	0.00122273	0.00154471	416.399
16	0.00154471	0.00194866	416.399
17	0.00194866	0.00245543	416.399
18	0.00245543	0.00309121	416.399
19	0.00309121	0.00388883	416.399
20	0.00388883	0.00488949	416.399
21	0.00488949	0.00614488	416.399
22	0.00614488	0.00771983	416.399
23	0.00771983	0.0096957	416.399
24	0.0096957	0.0121746	416.399
25	0.0121746	0.0152844	416.399
26	0.0152844	0.0191859	416.399
27	0.0191859	0.0240806	416.399
28	0.0240806	0.0302212	416.399
29	0.0302212	inf	416.399
