0.000706433	-13830525.34	0,4.096e-06,1.12031e-05,2.35351e-05,4.49327e-05,8.20608e-05,0.000146483,0.000258265,0.000452224,0.000788769,0.00137272,0.00238597,0.0041441,0.0071947,0.0124879,0.0216725,inf	232.601,232.601,319.621,351.476,320.52,323.304,330.801,330.982,341.378,363.392,406.319,436.619,406.004,340.91,340.91,340.91
0.000781199	-13825663.64	0,4.096e-06,1.12031e-05,2.35351e-05,4.49327e-05,8.20608e-05,0.000146483,0.000258265,0.000452224,0.000788769,0.00137272,0.00238597,0.0041441,0.0071947,0.0124879,0.0216725,inf	178.869,178.869,310.77,365.664,305.664,310.878,321.143,315.294,324.456,349.644,409.602,460.093,410.703,305.02,305.02,305.02
0.000850574	-13822488.83	0,4.096e-06,1.12031e-05,2.35351e-05,4.49327e-05,8.20608e-05,0.000146483,0.000258265,0.000452224,0.000788769,0.00137272,0.00238597,0.0041441,0.0071947,0.0124879,0.0216725,inf	149.007,149.007,308.17,383.243,298.675,309.639,323.969,313.036,319.316,342.652,409.878,474.967,414.411,281.356,281.356,281.356
0.00091518	-13820121.57	0,4.096e-06,1.12031e-05,2.35351e-05,4.49327e-05,8.20608e-05,0.000146483,0.000258265,0.000452224,0.000788769,0.00137272,0.00238597,0.0041441,0.0071947,0.0124879,0.0216725,inf	130.184,130.184,304.513,396.021,291.003,309.553,329.116,314.915,318.665,338.66,408.671,484.658,417.783,265.08,265.08,265.08
0.000975601	-13818249.29	0,4.096e-06,1.12031e-05,2.35351e-05,4.49327e-05,8.20608e-05,0.000146483,0.000258265,0.000452224,0.000788769,0.00137272,0.00238597,0.0041441,0.0071947,0.0124879,0.0216725,inf	118.514,118.514,300.577,404.889,282.326,308.851,333.997,318.046,319.98,336.291,406.818,491.078,421.011,253.513,253.513,253.513
0.0010323	-13816715.74	0,4.096e-06,1.12031e-05,2.35351e-05,4.49327e-05,8.20608e-05,0.000146483,0.000258265,0.000452224,0.000788769,0.00137272,0.00238597,0.0041441,0.0071947,0.0124879,0.0216725,inf	111.47,111.47,297.33,411.637,273.47,307.596,338.061,321.419,322.206,334.9,404.732,495.33,424.111,245.068,245.068,245.068
0.00108564	-13815430.21	0,4.096e-06,1.12031e-05,2.35351e-05,4.49327e-05,8.20608e-05,0.000146483,0.000258265,0.000452224,0.000788769,0.00137272,0.00238597,0.0041441,0.0071947,0.0124879,0.0216725,inf	108.107,108.107,295.069,417.4,265.048,306.135,341.326,324.662,324.844,334.136,402.615,498.086,427.056,238.761,238.761,238.761
0.00113594	-13814334.88	0,4.096e-06,1.12031e-05,2.35351e-05,4.49327e-05,8.20608e-05,0.000146483,0.000258265,0.000452224,0.000788769,0.00137272,0.00238597,0.0041441,0.0071947,0.0124879,0.0216725,inf	106.904,106.904,293.624,422.688,257.352,304.75,343.942,327.646,327.636,333.789,400.566,499.784,429.819,233.962,233.962,233.962
0.00118345	-13813390.34	0,4.096e-06,1.12031e-05,2.35351e-05,4.49327e-05,8.20608e-05,0.000146483,0.000258265,0.000452224,0.000788769,0.00137272,0.00238597,0.0041441,0.0071947,0.0124879,0.0216725,inf	107.185,107.185,292.752,427.693,250.472,303.616,346.066,330.339,330.443,333.727,398.632,500.718,432.383,230.249,230.249,230.249
0.0012284	-13812568.22	0,4.096e-06,1.12031e-05,2.35351e-05,4.49327e-05,8.20608e-05,0.000146483,0.000258265,0.000452224,0.000788769,0.00137272,0.00238597,0.0041441,0.0071947,0.0124879,0.0216725,inf	108.417,108.417,292.242,432.436,244.382,302.817,347.827,332.746,333.188,333.86,396.832,501.093,434.745,227.335,227.335,227.335
0.001271	-13811847.33	0,4.096e-06,1.12031e-05,2.35351e-05,4.49327e-05,8.20608e-05,0.000146483,0.000258265,0.000452224,0.000788769,0.00137272,0.00238597,0.0041441,0.0071947,0.0124879,0.0216725,inf	110.246,110.246,291.901,436.889,239.024,302.386,349.322,334.888,335.829,334.129,395.173,501.059,436.909,225.021,225.021,225.021
0.00131141	-13811211.30	0,4.096e-06,1.12031e-05,2.35351e-05,4.49327e-05,8.20608e-05,0.000146483,0.000258265,0.000452224,0.000788769,0.00137272,0.00238597,0.0041441,0.0071947,0.0124879,0.0216725,inf	112.454,112.454,291.649,441.01,234.307,302.319,350.625,336.792,338.343,334.492,393.651,500.724,438.886,223.162,223.162,223.162
0.0013498	-13810647.19	0,4.096e-06,1.12031e-05,2.35351e-05,4.49327e-05,8.20608e-05,0.000146483,0.000258265,0.000452224,0.000788769,0.00137272,0.00238597,0.0041441,0.0071947,0.0124879,0.0216725,inf	114.853,114.853,291.428,444.778,230.147,302.596,351.787,338.484,340.722,334.918,392.261,500.168,440.688,221.654,221.654,221.654
0.00138631	-13810144.57	0,4.096e-06,1.12031e-05,2.35351e-05,4.49327e-05,8.20608e-05,0.000146483,0.000258265,0.000452224,0.000788769,0.00137272,0.00238597,0.0041441,0.0071947,0.0124879,0.0216725,inf	117.356,117.356,291.21,448.162,226.464,303.183,352.845,339.988,342.961,335.387,390.994,499.449,442.332,220.42,220.42,220.42
0.00142106	-13809694.94	0,4.096e-06,1.12031e-05,2.35351e-05,4.49327e-05,8.20608e-05,0.000146483,0.000258265,0.000452224,0.000788769,0.00137272,0.00238597,0.0041441,0.0071947,0.0124879,0.0216725,inf	119.885,119.885,291.016,451.171,223.187,304.048,353.826,341.328,345.063,335.882,389.841,498.615,443.831,219.402,219.402,219.402
0.00145417	-13809291.27	0,4.096e-06,1.12031e-05,2.35351e-05,4.49327e-05,8.20608e-05,0.000146483,0.000258265,0.000452224,0.000788769,0.00137272,0.00238597,0.0041441,0.0071947,0.0124879,0.0216725,inf	122.374,122.374,290.865,453.813,220.259,305.154,354.746,342.523,347.033,336.391,388.793,497.697,445.2,218.556,218.556,218.556
0.00148574	-13808927.66	0,4.096e-06,1.12031e-05,2.35351e-05,4.49327e-05,8.20608e-05,0.000146483,0.000258265,0.000452224,0.000788769,0.00137272,0.00238597,0.0041441,0.0071947,0.0124879,0.0216725,inf	124.771,124.771,290.776,456.099,217.624,306.468,355.621,343.591,348.876,336.907,387.842,496.723,446.451,217.848,217.848,217.848
0.00151587	-13808599.16	0,4.096e-06,1.12031e-05,2.35351e-05,4.49327e-05,8.20608e-05,0.000146483,0.000258265,0.000452224,0.000788769,0.00137272,0.00238597,0.0041441,0.0071947,0.0124879,0.0216725,inf	127.068,127.068,290.781,458.059,215.242,307.958,356.458,344.547,350.599,337.422,386.978,495.713,447.597,217.252,217.252,217.252
0.00154465	-13808301.57	0,4.096e-06,1.12031e-05,2.35351e-05,4.49327e-05,8.20608e-05,0.000146483,0.000258265,0.000452224,0.000788769,0.00137272,0.00238597,0.0041441,0.0071947,0.0124879,0.0216725,inf	129.242,129.242,290.906,459.708,213.071,309.595,357.264,345.405,352.209,337.932,386.195,494.68,448.65,216.747,216.747,216.747
0.00157215	-13808031.29	0,4.096e-06,1.12031e-05,2.35351e-05,4.49327e-05,8.20608e-05,0.000146483,0.000258265,0.000452224,0.000788769,0.00137272,0.00238597,0.0041441,0.0071947,0.0124879,0.0216725,inf	131.28,131.28,291.164,461.076,211.081,311.353,358.043,346.176,353.714,338.433,385.485,493.637,449.618,216.316,216.316,216.316
