0.000617469	-13569007.65	0,4.02379e-06,1.10056e-05,2.31202e-05,4.41406e-05,8.06141e-05,0.000143901,0.000253712,0.000444251,0.000774864,0.00134852,0.00234391,0.00407104,0.00706787,0.0122678,0.0212904,inf	655.231,655.231,513.954,346.416,327.287,319.28,307.004,302.602,299.431,339.735,437.795,488.775,426.284,486.644,486.644,486.644
0.000613522	-13564766.66	0,4.02379e-06,1.10056e-05,2.31202e-05,4.41406e-05,8.06141e-05,0.000143901,0.000253712,0.000444251,0.000774864,0.00134852,0.00234391,0.00407104,0.00706787,0.0122678,0.0212904,inf	837.682,837.682,634.9,341.002,327.475,317.712,293.633,278.828,258.185,304.632,446.114,543.759,425.896,570.914,570.914,570.914
0.000604977	-13563630.70	0,4.02379e-06,1.10056e-05,2.31202e-05,4.41406e-05,8.06141e-05,0.000143901,0.000253712,0.000444251,0.000774864,0.00134852,0.00234391,0.00407104,0.00706787,0.0122678,0.0212904,inf	908.379,908.379,721.165,331.647,335.514,330.869,300.069,278.261,239.231,283.417,445.253,581.924,414.279,662.559,662.559,662.559
0.000593951	-13563323.10	0,4.02379e-06,1.10056e-05,2.31202e-05,4.41406e-05,8.06141e-05,0.000143901,0.000253712,0.000444251,0.000774864,0.00134852,0.00234391,0.00407104,0.00706787,0.0122678,0.0212904,inf	916.174,916.174,782.107,315.789,339.336,343.159,309.739,285.538,229.918,269.68,441.125,610.233,397.283,767.31,767.31,767.31
0.000581836	-13563304.52	0,4.02379e-06,1.10056e-05,2.31202e-05,4.41406e-05,8.06141e-05,0.000143901,0.000253712,0.000444251,0.000774864,0.00134852,0.00234391,0.00407104,0.00706787,0.0122678,0.0212904,inf	901.079,901.079,833.481,297.966,339.088,351.734,317.77,295.125,225.3,260.365,435.992,632.566,378.029,893.602,893.602,893.602
0.00056947	-13563427.34	0,4.02379e-06,1.10056e-05,2.31202e-05,4.41406e-05,8.06141e-05,0.000143901,0.000253712,0.000444251,0.000774864,0.00134852,0.00234391,0.00407104,0.00706787,0.0122678,0.0212904,inf	879.565,879.565,883.942,281.071,336.895,357.283,323.137,304.83,223.125,253.838,430.698,651.033,358.071,1055.15,1055.15,1055.15
0.000557366	-13563648.41	0,4.02379e-06,1.10056e-05,2.31202e-05,4.41406e-05,8.06141e-05,0.000143901,0.000253712,0.000444251,0.000774864,0.00134852,0.00234391,0.00407104,0.00706787,0.0122678,0.0212904,inf	856.02,856.02,936.225,266.08,334.35,361.086,326.108,313.805,222.271,249.161,425.553,666.78,338.123,1276.69,1276.69,1276.69
0.000545863	-13563955.94	0,4.02379e-06,1.10056e-05,2.31202e-05,4.41406e-05,8.06141e-05,0.000143901,0.000253712,0.000444251,0.000774864,0.00134852,0.00234391,0.00407104,0.00706787,0.0122678,0.0212904,inf	830.784,830.784,990.144,252.983,332.246,364.169,327.272,321.789,222.141,245.769,420.676,680.425,318.458,1602.05,1602.05,1602.05
0.000535202	-13564341.92	0,4.02379e-06,1.10056e-05,2.31202e-05,4.41406e-05,8.06141e-05,0.000143901,0.000253712,0.000444251,0.000774864,0.00134852,0.00234391,0.00407104,0.00706787,0.0122678,0.0212904,inf	803.876,803.876,1044.56,241.433,330.841,367.158,327.188,328.766,222.401,243.304,416.12,692.327,299.177,2062.22,2062.22,2062.22
0.000525564	-13564745.79	0,4.02379e-06,1.10056e-05,2.31202e-05,4.41406e-05,8.06141e-05,0.000143901,0.000253712,0.000444251,0.000774864,0.00134852,0.00234391,0.00407104,0.00706787,0.0122678,0.0212904,inf	775.388,775.388,1098.13,231.037,330.08,370.347,326.282,334.807,222.851,241.518,411.905,702.886,280.589,2539.25,2539.25,2539.25
0.000517033	-13565019.47	0,4.02379e-06,1.10056e-05,2.31202e-05,4.41406e-05,8.06141e-05,0.000143901,0.000253712,0.000444251,0.000774864,0.00134852,0.00234391,0.00407104,0.00706787,0.0122678,0.0212904,inf	745.795,745.795,1149.8,221.462,329.785,373.805,324.839,340,223.349,240.216,407.989,712.736,263.442,2861.19,2861.19,2861.19
0.000509624	-13565120.36	0,4.02379e-06,1.10056e-05,2.31202e-05,4.41406e-05,8.06141e-05,0.000143901,0.000253712,0.000444251,0.000774864,0.00134852,0.00234391,0.00407104,0.00706787,0.0122678,0.0212904,inf	715.679,715.679,1198.7,212.479,329.783,377.506,323.07,344.458,223.823,239.258,404.278,722.31,248.222,3007.96,3007.96,3007.96
0.000503232	-13565113.32	0,4.02379e-06,1.10056e-05,2.31202e-05,4.41406e-05,8.06141e-05,0.000143901,0.000253712,0.000444251,0.000774864,0.00134852,0.00234391,0.00407104,0.00706787,0.0122678,0.0212904,inf	685.663,685.663,1244.46,203.942,329.902,381.384,321.123,348.31,224.252,238.566,400.683,731.627,234.969,3054.43,3054.43,3054.43
0.00049769	-13565066.76	0,4.02379e-06,1.10056e-05,2.31202e-05,4.41406e-05,8.06141e-05,0.000143901,0.000253712,0.000444251,0.000774864,0.00134852,0.00234391,0.00407104,0.00706787,0.0122678,0.0212904,inf	656.323,656.323,1286.85,195.762,330.028,385.358,319.091,351.66,224.637,238.101,397.167,740.507,223.497,3048.69,3048.69,3048.69
0.00049285	-13565009.27	0,4.02379e-06,1.10056e-05,2.31202e-05,4.41406e-05,8.06141e-05,0.000143901,0.000253712,0.000444251,0.000774864,0.00134852,0.00234391,0.00407104,0.00706787,0.0122678,0.0212904,inf	628.12,628.12,1325.97,187.91,330.086,389.365,317.037,354.588,224.983,237.844,393.74,748.8,213.579,3018.29,3018.29,3018.29
0.000488599	-13564952.84	0,4.02379e-06,1.10056e-05,2.31202e-05,4.41406e-05,8.06141e-05,0.000143901,0.000253712,0.000444251,0.000774864,0.00134852,0.00234391,0.00407104,0.00706787,0.0122678,0.0212904,inf	601.364,601.364,1362.14,180.376,330.047,393.347,314.998,357.157,225.288,237.774,390.435,756.426,204.998,2979.03,2979.03,2979.03
0.00048485	-13564902.76	0,4.02379e-06,1.10056e-05,2.31202e-05,4.41406e-05,8.06141e-05,0.000143901,0.000253712,0.000444251,0.000774864,0.00134852,0.00234391,0.00407104,0.00706787,0.0122678,0.0212904,inf	576.218,576.218,1395.57,173.156,329.887,397.268,313.002,359.414,225.545,237.87,387.282,763.355,197.557,2939.26,2939.26,2939.26
0.000481549	-13564860.82	0,4.02379e-06,1.10056e-05,2.31202e-05,4.41406e-05,8.06141e-05,0.000143901,0.000253712,0.000444251,0.000774864,0.00134852,0.00234391,0.00407104,0.00706787,0.0122678,0.0212904,inf	552.929,552.929,1426.95,166.3,329.701,401.214,311.15,361.476,225.775,238.098,384.187,769.743,191.089,2902.75,2902.75,2902.75
0.000478618	-13564827.13	0,4.02379e-06,1.10056e-05,2.31202e-05,4.41406e-05,8.06141e-05,0.000143901,0.000253712,0.000444251,0.000774864,0.00134852,0.00234391,0.00407104,0.00706787,0.0122678,0.0212904,inf	531.088,531.088,1455.57,159.698,329.307,404.95,309.307,363.253,225.941,238.459,381.323,775.422,185.441,2870.52,2870.52,2870.52
0.000476016	-13564800.51	0,4.02379e-06,1.10056e-05,2.31202e-05,4.41406e-05,8.06141e-05,0.000143901,0.000253712,0.000444251,0.000774864,0.00134852,0.00234391,0.00407104,0.00706787,0.0122678,0.0212904,inf	510.906,510.906,1482.09,153.404,328.796,408.536,307.522,364.802,226.038,238.921,378.684,780.459,180.496,2842.81,2842.81,2842.81
