time_index	left_time_boundary	right_time_boundary	lambda
0	0	4.60154e-05	524.2
1	4.60154e-05	0.000108979	524.2
2	0.000108979	0.000195133	1174.7
3	0.000195133	0.000313019	645.005
4	0.000313019	0.000474324	710.814
5	0.000474324	0.00069504	808.763
6	0.00069504	0.000997049	850.939
7	0.000997049	0.00141029	808.206
8	0.00141029	0.00197574	727.179
9	0.00197574	0.00274945	725.063
10	0.00274945	0.00380813	871.491
11	0.00380813	0.00525673	1478.12
12	0.00525673	0.00723888	1837.58
13	0.00723888	0.00995109	0.800416
14	0.00995109	0.0136622	0.800416
15	0.0136622	inf	0.800416
