time_index	left_time_boundary	right_time_boundary	lambda
0	0	2.04937e-06	212.043
1	2.04937e-06	5.60533e-06	212.043
2	5.60533e-06	1.17754e-05	798.661
3	1.17754e-05	2.24814e-05	377.377
4	2.24814e-05	4.10579e-05	552.879
5	4.10579e-05	7.32907e-05	701.95
6	7.32907e-05	0.000129219	800.983
7	0.000129219	0.000226263	773.39
8	0.000226263	0.000394649	720.494
9	0.000394649	0.000686822	753.664
10	0.000686822	0.00119378	870.098
11	0.00119378	0.00207344	862.507
12	0.00207344	0.00359976	811.878
13	0.00359976	0.00624815	485.364
14	0.00624815	0.0108435	485.364
15	0.0108435	inf	485.364
