0.000232583	-5914699.38	0,6.34967e-07,1.47138e-06,2.57313e-06,4.02442e-06,5.93614e-06,8.45433e-06,1.17714e-05,1.61409e-05,2.18965e-05,2.94781e-05,3.94649e-05,5.26201e-05,6.99487e-05,9.27748e-05,0.000122842,0.000162449,0.000214621,0.000283344,0.000373869,0.000493114,0.000650188,0.000857095,0.00112964,0.00148865,0.00196156,0.0025845,0.00340507,0.00448595,0.00590975,0.00778524,0.0102557,inf	616.393,616.393,666.885,210.754,208.635,276.57,321.428,334.541,338.201,344.743,347.297,353.26,367.091,388.964,420.795,466.176,530.61,619.913,745.465,927.508,1183.86,1480.62,1661.04,1649.34,1568.85,1483.79,1417.69,1359.71,1359.71,1291.88,1291.88,1291.88
0.000243587	-5904422.35	0,6.34967e-07,1.47138e-06,2.57313e-06,4.02442e-06,5.93614e-06,8.45433e-06,1.17714e-05,1.61409e-05,2.18965e-05,2.94781e-05,3.94649e-05,5.26201e-05,6.99487e-05,9.27748e-05,0.000122842,0.000162449,0.000214621,0.000283344,0.000373869,0.000493114,0.000650188,0.000857095,0.00112964,0.00148865,0.00196156,0.0025845,0.00340507,0.00448595,0.00590975,0.00778524,0.0102557,inf	660.098,660.098,790.869,104.589,120.554,212.018,280.471,291.852,283.344,278.338,262.861,249.885,246.28,251.246,266.937,298.224,353.551,441.173,577.617,796.541,1143.73,1630.76,2034.11,2090.69,1987.68,1846.31,1736.05,1642.41,1642.41,1533.8,1533.8,1533.8
0.000253557	-5900988.97	0,6.34967e-07,1.47138e-06,2.57313e-06,4.02442e-06,5.93614e-06,8.45433e-06,1.17714e-05,1.61409e-05,2.18965e-05,2.94781e-05,3.94649e-05,5.26201e-05,6.99487e-05,9.27748e-05,0.000122842,0.000162449,0.000214621,0.000283344,0.000373869,0.000493114,0.000650188,0.000857095,0.00112964,0.00148865,0.00196156,0.0025845,0.00340507,0.00448595,0.00590975,0.00778524,0.0102557,inf	651.633,651.633,874.287,59.3372,86.1972,201.474,305.235,322.747,308.493,299.206,270.199,242.904,226.669,218.914,221.377,239.272,282.206,358.543,486.9,708.545,1086.77,1680.45,2278.1,2435.93,2356.02,2189.47,2068.01,1978.4,1978.4,1899.01,1899.01,1899.01
0.000262103	-5899575.27	0,6.34967e-07,1.47138e-06,2.57313e-06,4.02442e-06,5.93614e-06,8.45433e-06,1.17714e-05,1.61409e-05,2.18965e-05,2.94781e-05,3.94649e-05,5.26201e-05,6.99487e-05,9.27748e-05,0.000122842,0.000162449,0.000214621,0.000283344,0.000373869,0.000493114,0.000650188,0.000857095,0.00112964,0.00148865,0.00196156,0.0025845,0.00340507,0.00448595,0.00590975,0.00778524,0.0102557,inf	604.747,604.747,892.23,32.0775,59.5604,184.891,322.224,350.984,337.76,331.726,294.98,258.313,233.759,216.931,209.56,217.459,250.755,316.522,433.824,648.482,1034.45,1686.81,2441.8,2708.75,2681.34,2517.11,2427.87,2412.86,2412.86,2592.55,2592.55,2592.55
0.000269435	-5898905.82	0,6.34967e-07,1.47138e-06,2.57313e-06,4.02442e-06,5.93614e-06,8.45433e-06,1.17714e-05,1.61409e-05,2.18965e-05,2.94781e-05,3.94649e-05,5.26201e-05,6.99487e-05,9.27748e-05,0.000122842,0.000162449,0.000214621,0.000283344,0.000373869,0.000493114,0.000650188,0.000857095,0.00112964,0.00148865,0.00196156,0.0025845,0.00340507,0.00448595,0.00590975,0.00778524,0.0102557,inf	557.997,557.997,881.832,16.4917,39.0649,160.693,321.686,361.939,353.41,355.758,317.272,276.685,248.103,225.392,210.755,211.204,237.385,294.459,401.185,606.217,990.074,1674.01,2555.37,2929.68,2973.71,2836.41,2840.64,3052.05,3052.05,4941.25,4941.25,4941.25
0.000275805	-5898556.02	0,6.34967e-07,1.47138e-06,2.57313e-06,4.02442e-06,5.93614e-06,8.45433e-06,1.17714e-05,1.61409e-05,2.18965e-05,2.94781e-05,3.94649e-05,5.26201e-05,6.99487e-05,9.27748e-05,0.000122842,0.000162449,0.000214621,0.000283344,0.000373869,0.000493114,0.000650188,0.000857095,0.00112964,0.00148865,0.00196156,0.0025845,0.00340507,0.00448595,0.00590975,0.00778524,0.0102557,inf	524.811,524.811,867.527,8.25499,25.0171,135.93,310.912,359.527,355.49,367.52,331.366,291.381,262.622,236.993,217.322,212.278,233.236,283.259,380.539,575.609,952.98,1652.67,2636.42,3113.36,3242.02,3155.79,3350.62,4235.93,4235.93,48494.2,48494.2,48494.2
0.000281285	-5898360.20	0,6.34967e-07,1.47138e-06,2.57313e-06,4.02442e-06,5.93614e-06,8.45433e-06,1.17714e-05,1.61409e-05,2.18965e-05,2.94781e-05,3.94649e-05,5.26201e-05,6.99487e-05,9.27748e-05,0.000122842,0.000162449,0.000214621,0.000283344,0.000373869,0.000493114,0.000650188,0.000857095,0.00112964,0.00148865,0.00196156,0.0025845,0.00340507,0.00448595,0.00590975,0.00778524,0.0102557,inf	503.411,503.411,855.257,4.12817,16.0374,114.728,297.838,351.095,349.123,369.389,337.149,300.566,274.496,248.501,225.813,216.925,234.136,278.394,367.34,552.867,921.787,1627.53,2695.13,3269.6,3493.35,3484.61,4048.78,7960.94,7960.94,159931,159931,159931
0.000286302	-5898246.27	0,6.34967e-07,1.47138e-06,2.57313e-06,4.02442e-06,5.93614e-06,8.45433e-06,1.17714e-05,1.61409e-05,2.18965e-05,2.94781e-05,3.94649e-05,5.26201e-05,6.99487e-05,9.27748e-05,0.000122842,0.000162449,0.000214621,0.000283344,0.000373869,0.000493114,0.000650188,0.000857095,0.00112964,0.00148865,0.00196156,0.0025845,0.00340507,0.00448595,0.00590975,0.00778524,0.0102557,inf	490.493,490.493,846.088,2.08234,10.4378,98.0958,287.123,342.039,339.249,365.236,336.649,304.598,282.922,258.516,234.547,223.256,237.939,277.469,359.058,535.725,895.47,1601.32,2738.87,3406.1,3734.28,3834.94,5176.3,62175.1,62175.1,99744.2,99744.2,99744.2
0.000290831	-5898177.46	0,6.34967e-07,1.47138e-06,2.57313e-06,4.02442e-06,5.93614e-06,8.45433e-06,1.17714e-05,1.61409e-05,2.18965e-05,2.94781e-05,3.94649e-05,5.26201e-05,6.99487e-05,9.27748e-05,0.000122842,0.000162449,0.000214621,0.000283344,0.000373869,0.000493114,0.000650188,0.000857095,0.00112964,0.00148865,0.00196156,0.0025845,0.00340507,0.00448595,0.00590975,0.00778524,0.0102557,inf	482.909,482.909,838.916,1.1109,6.93974,85.4103,280.264,334.886,328.905,358.111,332.036,304.511,287.934,266.428,242.611,230.177,243.386,279.046,354.1,522.608,872.994,1575.16,2771.33,3527.22,3969.39,4221.94,7746.04,278642,278642,777.639,777.639,777.639
0.000294846	-5898136.51	0,6.34967e-07,1.47138e-06,2.57313e-06,4.02442e-06,5.93614e-06,8.45433e-06,1.17714e-05,1.61409e-05,2.18965e-05,2.94781e-05,3.94649e-05,5.26201e-05,6.99487e-05,9.27748e-05,0.000122842,0.000162449,0.000214621,0.000283344,0.000373869,0.000493114,0.000650188,0.000857095,0.00112964,0.00148865,0.00196156,0.0025845,0.00340507,0.00448595,0.00590975,0.00778524,0.0102557,inf	479.612,479.612,831.839,1.11035,4.71269,75.7167,277.333,330.502,319.644,350.125,325.166,301.487,290.002,272.126,249.548,237.043,249.704,282.229,351.436,512.432,853.519,1549.37,2795,3636.36,4203.08,4668.07,21930.2,280576,280576,154.197,154.197,154.197
