LogLikelihood = -173686.64654770499328

y0 1.0887950723602168868
y0_prime 0
y1 0.95874580627947447731
y1_prime 0
y2 1.0521541409350285701
y2_prime 0
y3 1.2619763613590182505
y3_prime 0
rho 0.0078331590323045107577
theta 0.0025156198733969998768
