0.000653422	-13635873.98	0,4.08663e-06,1.11775e-05,2.34813e-05,4.483e-05,8.18732e-05,0.000146148,0.000257675,0.00045119,0.000786966,0.00136959,0.00238052,0.00413462,0.00717825,0.0124594,0.0216229,inf	579.531,579.531,523.503,502.849,451.095,400.183,384.983,379.381,375.238,391.004,410.872,418.28,391.346,357.235,357.235,357.235
0.000679029	-13635179.13	0,4.08663e-06,1.11775e-05,2.34813e-05,4.483e-05,8.18732e-05,0.000146148,0.000257675,0.00045119,0.000786966,0.00136959,0.00238052,0.00413462,0.00717825,0.0124594,0.0216229,inf	637.27,637.27,571,560.809,481.881,401.334,382.435,374.367,363.465,385.88,416.239,431.558,386.087,330.939,330.939,330.939
0.000702221	-13634830.63	0,4.08663e-06,1.11775e-05,2.34813e-05,4.483e-05,8.18732e-05,0.000146148,0.000257675,0.00045119,0.000786966,0.00136959,0.00238052,0.00413462,0.00717825,0.0124594,0.0216229,inf	638.323,638.323,576.814,589.419,497.856,399.725,383.106,375.027,357.304,382.535,418.178,441.242,382.884,313.746,313.746,313.746
0.000723195	-13634633.87	0,4.08663e-06,1.11775e-05,2.34813e-05,4.483e-05,8.18732e-05,0.000146148,0.000257675,0.00045119,0.000786966,0.00136959,0.00238052,0.00413462,0.00717825,0.0124594,0.0216229,inf	624.636,624.636,566.145,602.758,505.27,395.839,384.315,377.848,353.995,380.354,418.196,448.423,380.99,302.039,302.039,302.039
0.000742167	-13634510.42	0,4.08663e-06,1.11775e-05,2.34813e-05,4.483e-05,8.18732e-05,0.000146148,0.000257675,0.00045119,0.000786966,0.00136959,0.00238052,0.00413462,0.00717825,0.0124594,0.0216229,inf	611.593,611.593,550.986,609.031,508.244,390.613,385.244,381.352,352.243,379.019,417.176,453.816,379.909,293.8,293.8,293.8
0.00075934	-13634426.28	0,4.08663e-06,1.11775e-05,2.34813e-05,4.483e-05,8.18732e-05,0.000146148,0.000257675,0.00045119,0.000786966,0.00136959,0.00238052,0.00413462,0.00717825,0.0124594,0.0216229,inf	602.685,602.685,535.925,612.358,509.119,384.789,385.711,384.885,351.365,378.315,415.627,457.909,379.319,287.836,287.836,287.836
0.000774898	-13634365.68	0,4.08663e-06,1.11775e-05,2.34813e-05,4.483e-05,8.18732e-05,0.000146148,0.000257675,0.00045119,0.000786966,0.00136959,0.00238052,0.00413462,0.00717825,0.0124594,0.0216229,inf	597.568,597.568,522.322,614.587,509.143,378.857,385.76,388.163,350.977,378.087,413.837,461.044,379.022,283.409,283.409,283.409
0.000789007	-13634320.69	0,4.08663e-06,1.11775e-05,2.34813e-05,4.483e-05,8.18732e-05,0.000146148,0.000257675,0.00045119,0.000786966,0.00136959,0.00238052,0.00413462,0.00717825,0.0124594,0.0216229,inf	595.135,595.135,510.393,616.508,508.944,373.114,385.495,391.081,350.853,378.216,411.972,463.467,378.894,280.048,280.048,280.048
0.000801817	-13634286.93	0,4.08663e-06,1.11775e-05,2.34813e-05,4.483e-05,8.18732e-05,0.000146148,0.000257675,0.00045119,0.000786966,0.00136959,0.00238052,0.00413462,0.00717825,0.0124594,0.0216229,inf	594.329,594.329,499.901,618.377,508.811,367.717,385.027,393.622,350.86,378.61,410.121,465.356,378.862,277.443,277.443,277.443
0.000813458	-13634261.66	0,4.08663e-06,1.11775e-05,2.34813e-05,4.483e-05,8.18732e-05,0.000146148,0.000257675,0.00045119,0.000786966,0.00136959,0.00238052,0.00413462,0.00717825,0.0124594,0.0216229,inf	594.451,594.451,490.554,620.232,508.856,362.741,384.452,395.805,350.915,379.2,408.333,466.844,378.881,275.385,275.385,275.385
0.000824048	-13634243.02	0,4.08663e-06,1.11775e-05,2.34813e-05,4.483e-05,8.18732e-05,0.000146148,0.000257675,0.00045119,0.000786966,0.00136959,0.00238052,0.00413462,0.00717825,0.0124594,0.0216229,inf	595.031,595.031,482.131,622.044,509.105,358.206,383.836,397.669,350.97,379.933,406.633,468.029,378.927,273.731,273.731,273.731
0.000833691	-13634229.63	0,4.08663e-06,1.11775e-05,2.34813e-05,4.483e-05,8.18732e-05,0.000146148,0.000257675,0.00045119,0.000786966,0.00136959,0.00238052,0.00413462,0.00717825,0.0124594,0.0216229,inf	595.882,595.882,474.455,623.762,509.541,354.103,383.231,399.257,350.997,380.767,405.029,468.982,378.984,272.379,272.379,272.379
0.000842481	-13634220.44	0,4.08663e-06,1.11775e-05,2.34813e-05,4.483e-05,8.18732e-05,0.000146148,0.000257675,0.00045119,0.000786966,0.00136959,0.00238052,0.00413462,0.00717825,0.0124594,0.0216229,inf	596.863,596.863,467.412,625.344,510.132,350.401,382.669,400.609,350.981,381.672,403.522,469.758,379.044,271.259,271.259,271.259
0.000850498	-13634214.59	0,4.08663e-06,1.11775e-05,2.34813e-05,4.483e-05,8.18732e-05,0.000146148,0.000257675,0.00045119,0.000786966,0.00136959,0.00238052,0.00413462,0.00717825,0.0124594,0.0216229,inf	597.88,597.88,460.914,626.757,510.832,347.066,382.171,401.764,350.914,382.623,402.11,470.399,379.102,270.319,270.319,270.319
0.000857816	-13634211.38	0,4.08663e-06,1.11775e-05,2.34813e-05,4.483e-05,8.18732e-05,0.000146148,0.000257675,0.00045119,0.000786966,0.00136959,0.00238052,0.00413462,0.00717825,0.0124594,0.0216229,inf	598.952,598.952,454.884,627.99,511.615,344.062,381.748,402.754,350.795,383.604,400.787,470.934,379.157,269.52,269.52,269.52
0.000864501	-13634210.26	0,4.08663e-06,1.11775e-05,2.34813e-05,4.483e-05,8.18732e-05,0.000146148,0.000257675,0.00045119,0.000786966,0.00136959,0.00238052,0.00413462,0.00717825,0.0124594,0.0216229,inf	600.063,600.063,449.3,629.036,512.449,341.349,381.404,403.608,350.623,384.6,399.547,471.388,379.206,268.834,268.834,268.834
0.000870612	-13634210.77	0,4.08663e-06,1.11775e-05,2.34813e-05,4.483e-05,8.18732e-05,0.000146148,0.000257675,0.00045119,0.000786966,0.00136959,0.00238052,0.00413462,0.00717825,0.0124594,0.0216229,inf	601.21,601.21,444.116,629.9,513.31,338.891,381.138,404.349,350.402,385.601,398.383,471.779,379.251,268.24,268.24,268.24
0.0008762	-13634212.53	0,4.08663e-06,1.11775e-05,2.34813e-05,4.483e-05,8.18732e-05,0.000146148,0.000257675,0.00045119,0.000786966,0.00136959,0.00238052,0.00413462,0.00717825,0.0124594,0.0216229,inf	602.352,602.352,439.316,630.595,514.18,336.659,380.947,404.999,350.136,386.599,397.288,472.119,379.291,267.72,267.72,267.72
0.000881296	-13634215.23	0,4.08663e-06,1.11775e-05,2.34813e-05,4.483e-05,8.18732e-05,0.000146148,0.000257675,0.00045119,0.000786966,0.00136959,0.00238052,0.00413462,0.00717825,0.0124594,0.0216229,inf	603.349,603.349,434.717,630.931,514.874,334.519,380.714,405.473,349.772,387.572,396.294,472.381,379.291,267.241,267.241,267.241
0.000885972	-13634219.39	0,4.08663e-06,1.11775e-05,2.34813e-05,4.483e-05,8.18732e-05,0.000146148,0.000257675,0.00045119,0.000786966,0.00136959,0.00238052,0.00413462,0.00717825,0.0124594,0.0216229,inf	604.576,604.576,430.607,631.343,515.713,332.645,380.634,405.954,349.404,388.545,395.359,472.629,379.306,266.826,266.826,266.826
