0.000650878	-13635925.52	0,1.76357e-06,4.08663e-06,7.14669e-06,1.11775e-05,1.64872e-05,2.34813e-05,3.26942e-05,4.483e-05,6.08158e-05,8.18732e-05,0.000109611,0.000146148,0.000194277,0.000257675,0.000341186,0.00045119,0.000596093,0.000786966,0.00103839,0.00136959,0.00180585,0.00238052,0.00313749,0.00413462,0.00544809,0.00717825,0.00945731,0.0124594,0.0164139,0.0216229,0.0284845,inf	676.88,676.88,615.108,524.849,509.639,516.176,508.536,484.322,459.474,433.227,405.358,388.947,381.398,378.964,377.006,372.961,370.233,374.332,382.838,392.176,402.711,413.031,417.054,413.657,408.331,402.411,396.038,384.013,384.013,392.338,392.338,392.338
0.000673772	-13635237.96	0,1.76357e-06,4.08663e-06,7.14669e-06,1.11775e-05,1.64872e-05,2.34813e-05,3.26942e-05,4.483e-05,6.08158e-05,8.18732e-05,0.000109611,0.000146148,0.000194277,0.000257675,0.000341186,0.00045119,0.000596093,0.000786966,0.00103839,0.00136959,0.00180585,0.00238052,0.00313749,0.00413462,0.00544809,0.00717825,0.00945731,0.0124594,0.0164139,0.0216229,0.0284845,inf	797.998,797.998,700.69,546.466,540.021,571.456,571.399,535.505,497.84,456.053,410.636,386.375,376.745,374.995,372.288,363.907,356.994,362.006,374.232,387.608,403.713,420.848,427.757,421.742,412.849,402.945,392.122,370.582,370.582,386.284,386.284,386.284
0.000694388	-13634818.61	0,1.76357e-06,4.08663e-06,7.14669e-06,1.11775e-05,1.64872e-05,2.34813e-05,3.26942e-05,4.483e-05,6.08158e-05,8.18732e-05,0.000109611,0.000146148,0.000194277,0.000257675,0.000341186,0.00045119,0.000596093,0.000786966,0.00103839,0.00136959,0.00180585,0.00238052,0.00313749,0.00413462,0.00544809,0.00717825,0.00945731,0.0124594,0.0164139,0.0216229,0.0284845,inf	839.114,839.114,720.366,521.149,529.375,589.244,602.829,562.373,519.203,468.408,411.504,384.003,375.243,376.141,373.849,361.578,350.433,355.415,369.42,384.42,403.585,425.501,434.546,426.443,415.16,402.567,388.626,359.315,359.315,381.327,381.327,381.327
0.000713086	-13634525.90	0,1.76357e-06,4.08663e-06,7.14669e-06,1.11775e-05,1.64872e-05,2.34813e-05,3.26942e-05,4.483e-05,6.08158e-05,8.18732e-05,0.000109611,0.000146148,0.000194277,0.000257675,0.000341186,0.00045119,0.000596093,0.000786966,0.00103839,0.00136959,0.00180585,0.00238052,0.00313749,0.00413462,0.00544809,0.00717825,0.00945731,0.0124594,0.0164139,0.0216229,0.0284845,inf	859.349,859.349,720.286,483.645,504.672,590.145,617.837,575.535,530.397,473.989,408.925,380.526,374.07,378.684,377.634,362.003,346.974,351.737,366.665,382.078,402.917,428.35,439.007,429.174,416.293,401.888,385.765,349.913,349.913,377.242,377.242,377.242
0.000730147	-13634307.44	0,1.76357e-06,4.08663e-06,7.14669e-06,1.11775e-05,1.64872e-05,2.34813e-05,3.26942e-05,4.483e-05,6.08158e-05,8.18732e-05,0.000109611,0.000146148,0.000194277,0.000257675,0.000341186,0.00045119,0.000596093,0.000786966,0.00103839,0.00136959,0.00180585,0.00238052,0.00313749,0.00413462,0.00544809,0.00717825,0.00945731,0.0124594,0.0164139,0.0216229,0.0284845,inf	879.515,879.515,718.051,446.898,477.898,585.147,625.488,581.857,536.231,475.816,404.336,376.129,372.536,381.345,382.051,363.527,345.05,349.673,365.137,380.323,402.026,430.15,442.047,430.735,416.796,401.186,383.557,342.05,342.05,373.845,373.845,373.845
0.00074578	-13634138.59	0,1.76357e-06,4.08663e-06,7.14669e-06,1.11775e-05,1.64872e-05,2.34813e-05,3.26942e-05,4.483e-05,6.08158e-05,8.18732e-05,0.000109611,0.000146148,0.000194277,0.000257675,0.000341186,0.00045119,0.000596093,0.000786966,0.00103839,0.00136959,0.00180585,0.00238052,0.00313749,0.00413462,0.00544809,0.00717825,0.00945731,0.0124594,0.0164139,0.0216229,0.0284845,inf	903.016,903.016,717.945,414.337,453.138,579.062,630.272,585.028,539.489,475.781,398.791,371.223,370.584,383.706,386.452,365.407,343.902,348.553,364.383,378.991,401.067,431.324,444.188,431.576,416.96,400.572,381.936,335.437,335.437,370.99,370.99,370.99
0.000760148	-13634005.45	0,1.76357e-06,4.08663e-06,7.14669e-06,1.11775e-05,1.64872e-05,2.34813e-05,3.26942e-05,4.483e-05,6.08158e-05,8.18732e-05,0.000109611,0.000146148,0.000194277,0.000257675,0.000341186,0.00045119,0.000596093,0.000786966,0.00103839,0.00136959,0.00180585,0.00238052,0.00313749,0.00413462,0.00544809,0.00717825,0.00945731,0.0124594,0.0164139,0.0216229,0.0284845,inf	928.211,928.211,719.968,386.024,431.313,573.61,634.169,586.824,541.608,474.945,392.948,366.149,368.326,385.68,390.586,367.302,343.148,348.006,364.136,377.971,400.113,432.11,445.739,431.961,416.935,400.078,380.811,329.83,329.83,368.561,368.561,368.561
0.000773379	-13633899.15	0,1.76357e-06,4.08663e-06,7.14669e-06,1.11775e-05,1.64872e-05,2.34813e-05,3.26942e-05,4.483e-05,6.08158e-05,8.18732e-05,0.000109611,0.000146148,0.000194277,0.000257675,0.000341186,0.00045119,0.000596093,0.000786966,0.00103839,0.00136959,0.00180585,0.00238052,0.00313749,0.00413462,0.00544809,0.00717825,0.00945731,0.0124594,0.0164139,0.0216229,0.0284845,inf	952.906,952.906,723.206,361.29,412.269,569.251,637.916,588.059,543.319,473.883,387.185,361.143,365.902,387.294,394.378,369.065,342.582,347.819,364.229,377.184,399.195,432.65,446.888,432.044,416.805,399.7,380.094,325.036,325.036,366.47,366.47,366.47
0.000785581	-13633813.58	0,1.76357e-06,4.08663e-06,7.14669e-06,1.11775e-05,1.64872e-05,2.34813e-05,3.26942e-05,4.483e-05,6.08158e-05,8.18732e-05,0.000109611,0.000146148,0.000194277,0.000257675,0.000341186,0.00045119,0.000596093,0.000786966,0.00103839,0.00136959,0.00180585,0.00238052,0.00313749,0.00413462,0.00544809,0.00717825,0.00945731,0.0124594,0.0164139,0.0216229,0.0284845,inf	975.611,975.611,726.932,339.415,395.515,565.923,641.723,589.032,544.937,472.868,381.692,356.352,363.421,388.611,397.822,370.634,342.096,347.858,364.554,376.573,398.325,433.029,447.757,431.925,416.611,399.422,379.704,320.9,320.9,364.647,364.647,364.647
0.000796848	-13633744.35	0,1.76357e-06,4.08663e-06,7.14669e-06,1.11775e-05,1.64872e-05,2.34813e-05,3.26942e-05,4.483e-05,6.08158e-05,8.18732e-05,0.000109611,0.000146148,0.000194277,0.000257675,0.000341186,0.00045119,0.000596093,0.000786966,0.00103839,0.00136959,0.00180585,0.00238052,0.00313749,0.00413462,0.00544809,0.00717825,0.00945731,0.0124594,0.0164139,0.0216229,0.0284845,inf	995.802,995.802,730.808,319.874,380.652,563.451,645.594,589.833,546.591,472.026,376.561,351.851,360.967,389.698,400.951,371.996,341.63,348.042,365.039,376.095,397.506,433.302,448.426,431.667,416.379,399.225,379.575,317.301,317.301,363.041,363.041,363.041
0.000807261	-13633688.13	0,1.76357e-06,4.08663e-06,7.14669e-06,1.11775e-05,1.64872e-05,2.34813e-05,3.26942e-05,4.483e-05,6.08158e-05,8.18732e-05,0.000109611,0.000146148,0.000194277,0.000257675,0.000341186,0.00045119,0.000596093,0.000786966,0.00103839,0.00136959,0.00180585,0.00238052,0.00313749,0.00413462,0.00544809,0.00717825,0.00945731,0.0124594,0.0164139,0.0216229,0.0284845,inf	1013.23,1013.23,734.634,302.235,367.283,561.644,649.451,590.482,548.288,471.411,371.82,347.678,358.593,390.613,403.8,373.158,341.154,348.319,365.635,375.72,396.737,433.504,448.95,431.31,416.122,399.09,379.651,314.144,314.144,361.609,361.609,361.609
0.000816892	-13633642.41	0,1.76357e-06,4.08663e-06,7.14669e-06,1.11775e-05,1.64872e-05,2.34813e-05,3.26942e-05,4.483e-05,6.08158e-05,8.18732e-05,0.000109611,0.000146148,0.000194277,0.000257675,0.000341186,0.00045119,0.000596093,0.000786966,0.00103839,0.00136959,0.00180585,0.00238052,0.00313749,0.00413462,0.00544809,0.00717825,0.00945731,0.0124594,0.0164139,0.0216229,0.0284845,inf	1028.12,1028.12,738.351,286.218,355.19,560.369,653.21,590.939,550.04,471.015,367.467,343.838,356.331,391.404,406.409,374.135,340.653,348.655,366.308,375.422,396.013,433.66,449.368,430.885,415.85,399.001,379.888,311.352,311.352,360.322,360.322,360.322
0.000825804	-13633605.20	0,1.76357e-06,4.08663e-06,7.14669e-06,1.11775e-05,1.64872e-05,2.34813e-05,3.26942e-05,4.483e-05,6.08158e-05,8.18732e-05,0.000109611,0.000146148,0.000194277,0.000257675,0.000341186,0.00045119,0.000596093,0.000786966,0.00103839,0.00136959,0.00180585,0.00238052,0.00313749,0.00413462,0.00544809,0.00717825,0.00945731,0.0124594,0.0164139,0.0216229,0.0284845,inf	1040.81,1040.81,742.059,271.596,344.164,559.504,656.816,591.187,551.818,470.831,363.478,340.323,354.198,392.103,408.812,374.945,340.12,349.025,367.032,375.186,395.332,433.785,449.707,430.414,415.569,398.946,380.251,308.866,308.866,359.155,359.155,359.155
0.000834058	-13633574.94	0,1.76357e-06,4.08663e-06,7.14669e-06,1.11775e-05,1.64872e-05,2.34813e-05,3.26942e-05,4.483e-05,6.08158e-05,8.18732e-05,0.000109611,0.000146148,0.000194277,0.000257675,0.000341186,0.00045119,0.000596093,0.000786966,0.00103839,0.00136959,0.00180585,0.00238052,0.00313749,0.00413462,0.00544809,0.00717825,0.00945731,0.0124594,0.0164139,0.0216229,0.0284845,inf	1051.52,1051.52,745.767,258.163,334.041,558.945,660.214,591.206,553.599,470.828,359.833,337.117,352.201,392.74,411.039,375.608,339.553,349.414,367.79,374.995,394.687,433.892,449.989,429.911,415.28,398.914,380.712,306.638,306.638,358.088,358.088,358.088
0.000841704	-13633550.38	0,1.76357e-06,4.08663e-06,7.14669e-06,1.11775e-05,1.64872e-05,2.34813e-05,3.26942e-05,4.483e-05,6.08158e-05,8.18732e-05,0.000109611,0.000146148,0.000194277,0.000257675,0.000341186,0.00045119,0.000596093,0.000786966,0.00103839,0.00136959,0.00180585,0.00238052,0.00313749,0.00413462,0.00544809,0.00717825,0.00945731,0.0124594,0.0164139,0.0216229,0.0284845,inf	1060.56,1060.56,749.575,245.815,324.706,558.633,663.391,590.969,555.358,470.979,356.489,334.196,350.34,393.332,413.116,376.141,338.952,349.813,368.569,374.841,394.077,433.987,450.23,429.387,414.989,398.898,381.249,304.628,304.628,357.108,357.108,357.108
0.000848792	-13633530.50	0,1.76357e-06,4.08663e-06,7.14669e-06,1.11775e-05,1.64872e-05,2.34813e-05,3.26942e-05,4.483e-05,6.08158e-05,8.18732e-05,0.000109611,0.000146148,0.000194277,0.000257675,0.000341186,0.00045119,0.000596093,0.000786966,0.00103839,0.00136959,0.00180585,0.00238052,0.00313749,0.00413462,0.00544809,0.00717825,0.00945731,0.0124594,0.0164139,0.0216229,0.0284845,inf	1068.08,1068.08,753.523,234.437,316.059,558.537,666.343,590.487,557.09,471.266,353.421,331.537,348.609,393.895,415.065,376.561,338.321,350.214,369.361,374.714,393.496,434.076,450.44,428.852,414.696,398.891,381.843,302.807,302.807,356.202,356.202,356.202
0.000855365	-13633514.47	0,1.76357e-06,4.08663e-06,7.14669e-06,1.11775e-05,1.64872e-05,2.34813e-05,3.26942e-05,4.483e-05,6.08158e-05,8.18732e-05,0.000109611,0.000146148,0.000194277,0.000257675,0.000341186,0.00045119,0.000596093,0.000786966,0.00103839,0.00136959,0.00180585,0.00238052,0.00313749,0.00413462,0.00544809,0.00717825,0.00945731,0.0124594,0.0164139,0.0216229,0.0284845,inf	1074.42,1074.42,757.596,223.893,308.032,558.648,669.096,589.773,558.755,471.668,350.601,329.116,347.001,394.437,416.904,376.883,337.662,350.611,370.156,374.607,392.942,434.164,450.629,428.312,414.404,398.89,382.481,301.147,301.147,355.362,355.362,355.362
0.000861463	-13633501.62	0,1.76357e-06,4.08663e-06,7.14669e-06,1.11775e-05,1.64872e-05,2.34813e-05,3.26942e-05,4.483e-05,6.08158e-05,8.18732e-05,0.000109611,0.000146148,0.000194277,0.000257675,0.000341186,0.00045119,0.000596093,0.000786966,0.00103839,0.00136959,0.00180585,0.00238052,0.00313749,0.00413462,0.00544809,0.00717825,0.00945731,0.0124594,0.0164139,0.0216229,0.0284845,inf	1079.59,1079.59,761.883,214.128,300.565,558.935,671.626,588.841,560.378,472.167,347.996,326.913,345.51,394.965,418.648,377.119,336.977,351.002,370.951,374.516,392.41,434.253,450.804,427.771,414.114,398.89,383.152,299.627,299.627,354.578,354.578,354.578
0.000867104	-13633491.40	0,1.76357e-06,4.08663e-06,7.14669e-06,1.11775e-05,1.64872e-05,2.34813e-05,3.26942e-05,4.483e-05,6.08158e-05,8.18732e-05,0.000109611,0.000146148,0.000194277,0.000257675,0.000341186,0.00045119,0.000596093,0.000786966,0.00103839,0.00136959,0.00180585,0.00238052,0.00313749,0.00413462,0.00544809,0.00717825,0.00945731,0.0124594,0.0164139,0.0216229,0.0284845,inf	1083.33,1083.33,766.071,204.979,293.479,559.132,673.656,587.42,561.669,472.523,345.43,324.756,343.972,395.316,420.141,377.14,336.159,351.283,371.652,374.365,391.849,434.31,450.944,427.219,413.814,398.88,383.83,298.216,298.216,353.834,353.834,353.834
0.000872352	-13633483.59	0,1.76357e-06,4.08663e-06,7.14669e-06,1.11775e-05,1.64872e-05,2.34813e-05,3.26942e-05,4.483e-05,6.08158e-05,8.18732e-05,0.000109611,0.000146148,0.000194277,0.000257675,0.000341186,0.00045119,0.000596093,0.000786966,0.00103839,0.00136959,0.00180585,0.00238052,0.00313749,0.00413462,0.00544809,0.00717825,0.00945731,0.0124594,0.0164139,0.0216229,0.0284845,inf	1086.67,1086.67,770.846,196.536,286.984,559.745,675.814,586.086,563.152,473.156,343.188,322.904,342.662,395.799,421.697,377.206,335.407,351.629,372.409,374.271,391.344,434.4,451.1,426.687,413.529,398.874,384.532,296.92,296.92,353.14,353.14,353.14
