time_index	left_time_boundary	right_time_boundary	lambda
0	0	4.53001e-06	7.55653
1	4.53001e-06	1.02958e-05	7.55653
2	1.02958e-05	1.76346e-05	613.598
3	1.76346e-05	2.69754e-05	626.556
4	2.69754e-05	3.88644e-05	637.494
5	3.88644e-05	5.39968e-05	718.606
6	5.39968e-05	7.32574e-05	622.145
7	7.32574e-05	9.77723e-05	457.895
8	9.77723e-05	0.000128975	379.439
9	0.000128975	0.00016869	343.455
10	0.00016869	0.000219239	360.403
11	0.000219239	0.000283579	421.102
12	0.000283579	0.000365471	409.462
13	0.000365471	0.000469703	355.688
14	0.000469703	0.00060237	327.363
15	0.00060237	0.000771229	327.62
16	0.000771229	0.000986154	342.064
17	0.000986154	0.00125971	361.248
18	0.00125971	0.0016079	388.017
19	0.0016079	0.00205107	419.95
20	0.00205107	0.00261514	439.97
21	0.00261514	0.00333309	439.976
22	0.00333309	0.0042469	429.328
23	0.0042469	0.00541001	418.9
24	0.00541001	0.00689041	395.364
25	0.00689041	0.00877468	369.735
26	0.00877468	0.011173	363.874
27	0.011173	0.0142256	334.504
28	0.0142256	0.0181109	334.504
29	0.0181109	0.0230561	64043.5
30	0.0230561	0.0293505	64043.5
31	0.0293505	inf	64043.5
