0.000624164	-290167.73	0,8.77182e-05,0.000207744,0.000371978,0.000596701,0.000904193,0.00132494,0.00190065,0.00268841,0.00376631,0.00524121,0.00725935,0.0100208,0.0137993,0.0189695,0.026044,inf	414.051,414.051,436.375,411.214,403.228,410.653,422.764,423.827,422.892,426.727,409.179,421.886,459.523,518.098,518.098,518.098
0.000649885	-290155.58	0,8.77182e-05,0.000207744,0.000371978,0.000596701,0.000904193,0.00132494,0.00190065,0.00268841,0.00376631,0.00524121,0.00725935,0.0100208,0.0137993,0.0189695,0.026044,inf	408.791,408.791,454.614,407.635,392.727,405.237,426.021,426.1,423.803,431.446,398.185,421.223,498.26,645.746,645.746,645.746
0.00067293	-290147.57	0,8.77182e-05,0.000207744,0.000371978,0.000596701,0.000904193,0.00132494,0.00190065,0.00268841,0.00376631,0.00524121,0.00725935,0.0100208,0.0137993,0.0189695,0.026044,inf	402.473,402.473,471.807,405.806,385.152,401.683,429.243,427.3,423.581,435.002,387.596,419.047,537.707,844.462,844.462,844.462
0.000693658	-290142.30	0,8.77182e-05,0.000207744,0.000371978,0.000596701,0.000904193,0.00132494,0.00190065,0.00268841,0.00376631,0.00524121,0.00725935,0.0100208,0.0137993,0.0189695,0.026044,inf	395.561,395.561,487.375,404.618,379.239,399.209,432.358,427.826,422.765,437.923,377.658,415.96,579.322,1287.15,1287.15,1287.15
0.000712375	-290138.96	0,8.77182e-05,0.000207744,0.000371978,0.000596701,0.000904193,0.00132494,0.00190065,0.00268841,0.00376631,0.00524121,0.00725935,0.0100208,0.0137993,0.0189695,0.026044,inf	388.637,388.637,501.323,403.651,374.389,397.427,435.36,427.921,421.646,440.491,368.407,412.261,624.906,3772.31,3772.31,3772.31
0.000712375	-290136.91	0,8.77182e-05,0.000207744,0.000371978,0.000596701,0.000904193,0.00132494,0.00190065,0.00268841,0.00376631,0.00524121,0.00725935,0.0100208,0.0137993,0.0189695,0.026044,inf	379.22,379.22,509.617,399.794,367.634,393.188,434.9,424.794,417.94,440.103,358.237,406.711,676.319,59048.7,59048.7,59048.7
0.000712375	-290138.24	0,8.77182e-05,0.000207744,0.000371978,0.000596701,0.000904193,0.00132494,0.00190065,0.00268841,0.00376631,0.00524121,0.00725935,0.0100208,0.0137993,0.0189695,0.026044,inf	372.594,372.594,516.566,398.369,363.504,391.253,436.534,423.42,415.805,441.274,349.562,401.908,685.289,59048.7,59048.7,59048.7
0.000712375	-290138.29	0,8.77182e-05,0.000207744,0.000371978,0.000596701,0.000904193,0.00132494,0.00190065,0.00268841,0.00376631,0.00524121,0.00725935,0.0100208,0.0137993,0.0189695,0.026044,inf	367.626,367.626,522.176,397.851,360.419,390.178,438.862,422.68,414.521,441.274,342.285,397.917,692.659,59048.7,59048.7,59048.7
0.000712375	-290138.42	0,8.77182e-05,0.000207744,0.000371978,0.000596701,0.000904193,0.00132494,0.00190065,0.00268841,0.00376631,0.00524121,0.00725935,0.0100208,0.0137993,0.0189695,0.026044,inf	363.8,363.8,526.322,397.692,357.793,389.346,440.934,422.285,413.891,441.945,336.157,394.613,698.347,59048.7,59048.7,59048.7
0.000712375	-290138.52	0,8.77182e-05,0.000207744,0.000371978,0.000596701,0.000904193,0.00132494,0.00190065,0.00268841,0.00376631,0.00524121,0.00725935,0.0100208,0.0137993,0.0189695,0.026044,inf	360.885,360.885,529.558,397.692,355.503,388.606,442.699,422.008,413.642,442.275,330.909,391.843,703.174,59048.7,59048.7,59048.7
0.000712375	-290138.64	0,8.77182e-05,0.000207744,0.000371978,0.000596701,0.000904193,0.00132494,0.00190065,0.00268841,0.00376631,0.00524121,0.00725935,0.0100208,0.0137993,0.0189695,0.026044,inf	358.651,358.651,531.795,397.692,353.492,387.968,444.239,421.801,413.702,442.342,326.405,389.524,707.275,59048.7,59048.7,59048.7
0.000712375	-290138.76	0,8.77182e-05,0.000207744,0.000371978,0.000596701,0.000904193,0.00132494,0.00190065,0.00268841,0.00376631,0.00524121,0.00725935,0.0100208,0.0137993,0.0189695,0.026044,inf	356.992,356.992,533.772,397.692,351.742,387.417,445.576,421.622,413.833,442.342,322.526,387.588,710.762,59048.7,59048.7,59048.7
0.000712375	-290138.88	0,8.77182e-05,0.000207744,0.000371978,0.000596701,0.000904193,0.00132494,0.00190065,0.00268841,0.00376631,0.00524121,0.00725935,0.0100208,0.0137993,0.0189695,0.026044,inf	355.715,355.715,535.05,397.692,350.209,386.931,446.75,421.461,413.95,442.342,319.176,385.975,713.73,59048.7,59048.7,59048.7
0.000712375	-290139.00	0,8.77182e-05,0.000207744,0.000371978,0.000596701,0.000904193,0.00132494,0.00190065,0.00268841,0.00376631,0.00524121,0.00725935,0.0100208,0.0137993,0.0189695,0.026044,inf	354.767,354.767,535.999,397.692,348.866,386.511,446.761,421.308,414.599,442.342,316.271,384.635,716.262,59048.7,59048.7,59048.7
0.000712375	-290139.10	0,8.77182e-05,0.000207744,0.000371978,0.000596701,0.000904193,0.00132494,0.00190065,0.00268841,0.00376631,0.00524121,0.00725935,0.0100208,0.0137993,0.0189695,0.026044,inf	354.087,354.087,536.999,397.692,347.828,386.312,447.461,421.226,414.659,442.342,313.727,383.519,718.436,59048.7,59048.7,59048.7
0.000712375	-290139.22	0,8.77182e-05,0.000207744,0.000371978,0.000596701,0.000904193,0.00132494,0.00190065,0.00268841,0.00376631,0.00524121,0.00725935,0.0100208,0.0137993,0.0189695,0.026044,inf	353.534,353.534,537.553,397.692,346.906,386.147,448.074,421.165,414.659,442.374,311.512,382.603,720.289,59048.7,59048.7,59048.7
0.000712375	-290139.33	0,8.77182e-05,0.000207744,0.000371978,0.000596701,0.000904193,0.00132494,0.00190065,0.00268841,0.00376631,0.00524121,0.00725935,0.0100208,0.0137993,0.0189695,0.026044,inf	353.134,353.134,537.954,397.692,346.097,386.015,448.602,421.125,414.689,442.374,309.578,381.856,721.867,59048.7,59048.7,59048.7
0.000712375	-290139.42	0,8.77182e-05,0.000207744,0.000371978,0.000596701,0.000904193,0.00132494,0.00190065,0.00268841,0.00376631,0.00524121,0.00725935,0.0100208,0.0137993,0.0189695,0.026044,inf	352.847,352.847,538.241,397.692,345.382,385.911,448.605,421.096,414.952,442.374,307.885,381.254,723.212,59048.7,59048.7,59048.7
0.000712375	-290139.50	0,8.77182e-05,0.000207744,0.000371978,0.000596701,0.000904193,0.00132494,0.00190065,0.00268841,0.00376631,0.00524121,0.00725935,0.0100208,0.0137993,0.0189695,0.026044,inf	352.65,352.65,538.254,397.828,344.807,385.903,448.919,421.096,414.952,442.374,306.391,380.772,724.362,59048.7,59048.7,59048.7
0.000712375	-290139.59	0,8.77182e-05,0.000207744,0.000371978,0.000596701,0.000904193,0.00132494,0.00190065,0.00268841,0.00376631,0.00524121,0.00725935,0.0100208,0.0137993,0.0189695,0.026044,inf	352.538,352.538,538.366,397.828,344.284,385.903,449.198,421.096,414.952,442.374,305.077,380.397,725.338,59048.7,59048.7,59048.7
