LogLikelihood = -1138732.2169548205566

y0 2.0860486444088672767e-09
y0_prime 0
y1 1.8369518197937524384
y1_prime 0
y2 0.1129687427774710845
y2_prime 0
y3 8.0406314857812386521
y3_prime 0
rho 0.0003695755765386731645
theta 0.0035354804076435770131
