AIC = 581500.04340867232531

y0 0.87937244089672761405
y0_prime 0
y1 1.1869601083952838749
y1_prime 0
y2 0.86413089520381547448
y2_prime 0
y3 1.6769388222331373939
y3_prime 0
rho 0.00028288821306348104889
theta 0.0048343603736270375146
