AIC = 3024930.58006326342

y0 0.98043628407954597215
y0_prime 0
y1 1.0872915866323975553
y1_prime 0
y2 0.92159946713110718619
y2_prime 0
y3 1.7091248380859449529
y3_prime 0
rho 0.00030561343833611793455
theta 0.0050595711374173705718
