AIC = 1212014.562999806134

y0 0.97058655931430315444
y0_prime 0
y1 1.0900682914637616072
y1_prime 0
y2 0.9331082828451006117
y2_prime 0
y3 1.7288684380927619166
y3_prime 0
rho 0.00030159893104118705312
theta 0.0050624915363438639793
