time_index	left_time_boundary	right_time_boundary	lambda
0	0	5.19119e-08	31.4697
1	5.19119e-08	1.41987e-07	31.4697
2	1.41987e-07	2.98279e-07	31.4697
3	2.98279e-07	5.69469e-07	31.4697
4	5.69469e-07	1.04002e-06	31.4697
5	1.04002e-06	1.8565e-06	31.4697
6	1.8565e-06	3.27321e-06	31.4697
7	3.27321e-06	5.7314e-06	66.9935
8	5.7314e-06	9.99672e-06	5467.25
9	9.99672e-06	1.73977e-05	26297.1
10	1.73977e-05	3.02394e-05	71244.7
11	3.02394e-05	5.25215e-05	42283
12	5.25215e-05	9.11843e-05	16259.9
13	9.11843e-05	0.00015827	32438.6
14	0.00015827	0.000274673	32438.6
15	0.000274673	inf	32438.6
