time_index	left_time_boundary	right_time_boundary	lambda
0	0	1.12396e-06	32.7693
1	1.12396e-06	2.6619e-06	32.7693
2	2.6619e-06	4.76628e-06	32.7693
3	4.76628e-06	7.64573e-06	32.7693
4	7.64573e-06	1.15857e-05	1210.75
5	1.15857e-05	1.69769e-05	16025.5
6	1.69769e-05	2.43537e-05	53283.2
7	2.43537e-05	3.44475e-05	142903
8	3.44475e-05	4.8259e-05	28176.9
9	4.8259e-05	6.71574e-05	19219.3
10	6.71574e-05	9.30164e-05	14920.5
11	9.30164e-05	0.0001284	14703
12	0.0001284	0.000176815	16791.3
13	0.000176815	0.000243063	30219.8
14	0.000243063	0.000333711	30219.8
15	0.000333711	inf	30219.8
