AIC = 624382.54088294890244

y0 3.8841437013401268644e-12
y0_prime 0
y1 0.99003129823184887748
y1_prime 0
y2 1.5788284960394149969
y2_prime 0
y3 2.2587572633683987711
y3_prime 0
rho 0.0080076622329856867594
theta 0.0049716536240969845181
