time_index	left_time_boundary	right_time_boundary	lambda
0	0	1.56711e-05	1.08321
1	1.56711e-05	3.40023e-05	1.08321
2	3.40023e-05	5.54453e-05	404.34
3	5.54453e-05	8.05282e-05	604.863
4	8.05282e-05	0.000109869	64.5378
5	0.000109869	0.00014419	22.2596
6	0.00014419	0.000184338	67.4018
7	0.000184338	0.0002313	304.63
8	0.0002313	0.000286234	423.83
9	0.000286234	0.000350494	328.67
10	0.000350494	0.000425661	354.042
11	0.000425661	0.000513588	478.688
12	0.000513588	0.00061644	714.859
13	0.00061644	0.000736752	1128.92
14	0.000736752	0.000877487	1762.38
15	0.000877487	0.00104211	2435.82
16	0.00104211	0.00123468	2819.5
17	0.00123468	0.00145994	2959.73
18	0.00145994	0.00172343	2868.24
19	0.00172343	0.00203166	2534.16
20	0.00203166	0.0023922	2196.13
21	0.0023922	0.00281395	1987.68
22	0.00281395	0.00330729	1869.69
23	0.00330729	0.00388437	1768.37
24	0.00388437	0.00455942	1656.83
25	0.00455942	0.00534905	1561.79
26	0.00534905	0.00627272	1512.5
27	0.00627272	0.00735318	1499.05
28	0.00735318	0.00861706	1499.05
29	0.00861706	0.0100955	1470.91
30	0.0100955	0.0118249	1470.91
31	0.0118249	inf	1470.91
