time_index	left_time_boundary	right_time_boundary	lambda
0	0	6.12192e-06	615.265
1	6.12192e-06	1.6434e-05	615.265
2	1.6434e-05	3.38043e-05	186.698
3	3.38043e-05	6.30638e-05	241.152
4	6.30638e-05	0.00011235	386.616
5	0.00011235	0.000195371	357.865
6	0.000195371	0.000335215	353.202
7	0.000335215	0.000570776	350.817
8	0.000570776	0.000967569	390.354
9	0.000967569	0.00163595	395.592
10	0.00163595	0.00276181	390.825
11	0.00276181	0.00465826	401.953
12	0.00465826	0.00785276	407.265
13	0.00785276	0.0132337	50172.4
14	0.0132337	0.0222978	50172.4
15	0.0222978	inf	50172.4
