0.000716376	-13788370.76	0,1.7614e-06,4.08161e-06,7.1379e-06,1.11638e-05,1.64669e-05,2.34524e-05,3.2654e-05,4.47749e-05,6.07411e-05,8.17725e-05,0.000109476,0.000145969,0.000194038,0.000257358,0.000340766,0.000450635,0.00059536,0.000785999,0.00103712,0.0013679,0.00180363,0.00237759,0.00313364,0.00412954,0.00544139,0.00716943,0.00944568,0.0124441,0.0163937,0.0215963,0.0284495,inf	306.088,306.088,465.702,437.844,368.377,333.89,321.291,319.299,327.625,338.157,342.433,341.914,341.288,342.037,343.478,346.201,351.882,361.568,374.651,389.877,405.976,420.778,431.065,433.761,430.029,423.667,418.062,417.393,417.393,425.208,425.208,425.208
0.000802036	-13781629.99	0,1.7614e-06,4.08161e-06,7.1379e-06,1.11638e-05,1.64669e-05,2.34524e-05,3.2654e-05,4.47749e-05,6.07411e-05,8.17725e-05,0.000109476,0.000145969,0.000194038,0.000257358,0.000340766,0.000450635,0.00059536,0.000785999,0.00103712,0.0013679,0.00180363,0.00237759,0.00313364,0.00412954,0.00544139,0.00716943,0.00944568,0.0124441,0.0163937,0.0215963,0.0284495,inf	243.355,243.355,560.475,505.299,374.77,318.82,299.101,296.116,311.242,329.748,335.911,332.949,329.817,328.849,328.531,329.849,335.755,347.94,365.187,385.491,407.5,428.942,445.331,450.941,446.26,436.638,427.877,428.63,428.63,448.511,448.511,448.511
0.00088163	-13776912.99	0,1.7614e-06,4.08161e-06,7.1379e-06,1.11638e-05,1.64669e-05,2.34524e-05,3.2654e-05,4.47749e-05,6.07411e-05,8.17725e-05,0.000109476,0.000145969,0.000194038,0.000257358,0.000340766,0.000450635,0.00059536,0.000785999,0.00103712,0.0013679,0.00180363,0.00237759,0.00313364,0.00412954,0.00544139,0.00716943,0.00944568,0.0124441,0.0163937,0.0215963,0.0284495,inf	182.474,182.474,633.32,555.296,375.694,307.783,284.651,282.182,304.515,331.034,339.246,334.386,329.5,327.344,325.418,325.001,330.159,342.989,361.584,383.348,407.199,431.445,451.307,459.257,454.693,443.398,432.844,435.992,435.992,470.912,470.912,470.912
0.000955871	-13773273.01	0,1.7614e-06,4.08161e-06,7.1379e-06,1.11638e-05,1.64669e-05,2.34524e-05,3.2654e-05,4.47749e-05,6.07411e-05,8.17725e-05,0.000109476,0.000145969,0.000194038,0.000257358,0.000340766,0.000450635,0.00059536,0.000785999,0.00103712,0.0013679,0.00180363,0.00237759,0.00313364,0.00412954,0.00544139,0.00716943,0.00944568,0.0124441,0.0163937,0.0215963,0.0284495,inf	131.629,131.629,684.694,587.766,370.405,296.433,271.555,269.988,299.24,333.426,343.749,337.605,331.873,329.35,326.434,324.628,329.02,341.962,360.816,382.499,406.348,431.456,453.171,462.794,458.671,446.503,434.904,440.833,440.833,493.008,493.008,493.008
0.0010254	-13770339.79	0,1.7614e-06,4.08161e-06,7.1379e-06,1.11638e-05,1.64669e-05,2.34524e-05,3.2654e-05,4.47749e-05,6.07411e-05,8.17725e-05,0.000109476,0.000145969,0.000194038,0.000257358,0.000340766,0.000450635,0.00059536,0.000785999,0.00103712,0.0013679,0.00180363,0.00237759,0.00313364,0.00412954,0.00544139,0.00716943,0.00944568,0.0124441,0.0163937,0.0215963,0.0284495,inf	93.2445,93.2445,722.064,608.823,362.372,285.645,259.452,258.603,294.033,335.125,347.298,340.235,334.334,332.118,328.794,326.032,329.879,342.831,361.507,382.426,405.412,430.379,452.964,463.71,460.068,447.432,435.203,444.007,444.007,515.279,515.279,515.279
0.00109074	-13767918.45	0,1.7614e-06,4.08161e-06,7.1379e-06,1.11638e-05,1.64669e-05,2.34524e-05,3.2654e-05,4.47749e-05,6.07411e-05,8.17725e-05,0.000109476,0.000145969,0.000194038,0.000257358,0.000340766,0.000450635,0.00059536,0.000785999,0.00103712,0.0013679,0.00180363,0.00237759,0.00313364,0.00412954,0.00544139,0.00716943,0.00944568,0.0124441,0.0163937,0.0215963,0.0284495,inf	65.5833,65.5833,751.324,623.283,354.113,276.448,248.857,248.339,289.155,336.247,349.795,341.93,336.269,334.805,331.491,328.134,331.672,344.66,362.984,382.837,404.561,428.867,451.726,463.182,459.957,447.056,434.428,446.064,446.064,538.148,538.148,538.148
0.00115232	-13765887.77	0,1.7614e-06,4.08161e-06,7.1379e-06,1.11638e-05,1.64669e-05,2.34524e-05,3.2654e-05,4.47749e-05,6.07411e-05,8.17725e-05,0.000109476,0.000145969,0.000194038,0.000257358,0.000340766,0.000450635,0.00059536,0.000785999,0.00103712,0.0013679,0.00180363,0.00237759,0.00313364,0.00412954,0.00544139,0.00716943,0.00944568,0.0124441,0.0163937,0.0215963,0.0284495,inf	46.0063,46.0063,775.337,633.778,346.729,269.166,239.949,239.435,284.969,337.209,351.567,342.857,337.65,337.19,334.155,330.462,333.885,346.967,364.879,383.544,403.84,427.224,449.994,461.865,458.966,445.897,433.001,447.37,447.37,562.024,562.024,562.024
0.00121051	-13764164.69	0,1.7614e-06,4.08161e-06,7.1379e-06,1.11638e-05,1.64669e-05,2.34524e-05,3.2654e-05,4.47749e-05,6.07411e-05,8.17725e-05,0.000109476,0.000145969,0.000194038,0.000257358,0.000340766,0.000450635,0.00059536,0.000785999,0.00103712,0.0013679,0.00180363,0.00237759,0.00313364,0.00412954,0.00544139,0.00716943,0.00944568,0.0124441,0.0163937,0.0215963,0.0284495,inf	32.2837,32.2837,795.383,641.477,340.494,263.71,232.642,231.908,281.654,338.316,352.937,343.262,338.595,339.265,336.659,332.802,336.251,349.486,366.974,384.423,403.246,425.591,448.057,460.132,457.468,444.277,431.182,448.166,448.166,587.338,587.338,587.338
0.0012656	-13762688.94	0,1.7614e-06,4.08161e-06,7.1379e-06,1.11638e-05,1.64669e-05,2.34524e-05,3.2654e-05,4.47749e-05,6.07411e-05,8.17725e-05,0.000109476,0.000145969,0.000194038,0.000257358,0.000340766,0.000450635,0.00059536,0.000785999,0.00103712,0.0013679,0.00180363,0.00237759,0.00313364,0.00412954,0.00544139,0.00716943,0.00944568,0.0124441,0.0163937,0.0215963,0.0284495,inf	22.6579,22.6579,812.088,646.882,335.315,259.793,226.703,225.641,279.257,339.747,354.128,343.348,339.237,341.075,338.97,335.057,338.634,352.067,369.141,385.392,402.762,424.032,446.067,458.199,455.691,442.392,429.137,448.619,448.619,614.578,614.578,614.578
0.00131784	-13761415.21	0,1.7614e-06,4.08161e-06,7.1379e-06,1.11638e-05,1.64669e-05,2.34524e-05,3.2654e-05,4.47749e-05,6.07411e-05,8.17725e-05,0.000109476,0.000145969,0.000194038,0.000257358,0.000340766,0.000450635,0.00059536,0.000785999,0.00103712,0.0013679,0.00180363,0.00237759,0.00313364,0.00412954,0.00544139,0.00716943,0.00944568,0.0124441,0.0163937,0.0215963,0.0284495,inf	15.8773,15.8773,825.791,650.221,331.032,257.119,221.87,220.459,277.73,341.568,355.275,343.257,339.685,342.681,341.095,337.187,340.959,354.621,371.302,386.398,402.367,422.57,444.106,456.194,453.774,440.369,426.971,448.843,448.843,644.331,644.331,644.331
0.00136745	-13760308.51	0,1.7614e-06,4.08161e-06,7.1379e-06,1.11638e-05,1.64669e-05,2.34524e-05,3.2654e-05,4.47749e-05,6.07411e-05,8.17725e-05,0.000109476,0.000145969,0.000194038,0.000257358,0.000340766,0.000450635,0.00059536,0.000785999,0.00103712,0.0013679,0.00180363,0.00237759,0.00313364,0.00412954,0.00544139,0.00716943,0.00944568,0.0124441,0.0163937,0.0215963,0.0284495,inf	11.1769,11.1769,834.919,651.754,327.451,255.437,217.903,216.179,276.969,343.782,356.446,343.082,340.019,344.135,343.051,339.179,343.187,357.101,373.412,387.404,402.042,421.214,442.218,454.191,451.805,438.284,424.752,448.918,448.918,677.352,677.352,677.352
0.00141464	-13759341.31	0,1.7614e-06,4.08161e-06,7.1379e-06,1.11638e-05,1.64669e-05,2.34524e-05,3.2654e-05,4.47749e-05,6.07411e-05,8.17725e-05,0.000109476,0.000145969,0.000194038,0.000257358,0.000340766,0.000450635,0.00059536,0.000785999,0.00103712,0.0013679,0.00180363,0.00237759,0.00313364,0.00412954,0.00544139,0.00716943,0.00944568,0.0124441,0.0163937,0.0215963,0.0284495,inf	7.90279,7.90279,844.697,651.969,324.479,254.507,214.609,212.651,276.879,346.352,357.671,342.876,340.295,345.481,344.863,341.033,345.302,359.48,375.443,388.39,401.773,419.96,440.424,452.233,449.837,436.19,422.523,448.901,448.901,714.664,714.664,714.664
0.00145956	-13758491.66	0,1.7614e-06,4.08161e-06,7.1379e-06,1.11638e-05,1.64669e-05,2.34524e-05,3.2654e-05,4.47749e-05,6.07411e-05,8.17725e-05,0.000109476,0.000145969,0.000194038,0.000257358,0.000340766,0.000450635,0.00059536,0.000785999,0.00103712,0.0013679,0.00180363,0.00237759,0.00313364,0.00412954,0.00544139,0.00716943,0.00944568,0.0124441,0.0163937,0.0215963,0.0284495,inf	5.5938,5.5938,852.73,650.701,321.911,254.121,211.811,209.706,277.338,349.223,358.948,342.669,340.547,346.749,346.549,342.757,347.297,361.745,377.383,389.342,401.546,418.804,438.731,450.345,447.903,434.116,420.311,448.833,448.833,757.731,757.731,757.731
0.00150238	-13757741.83	0,1.7614e-06,4.08161e-06,7.1379e-06,1.11638e-05,1.64669e-05,2.34524e-05,3.2654e-05,4.47749e-05,6.07411e-05,8.17725e-05,0.000109476,0.000145969,0.000194038,0.000257358,0.000340766,0.000450635,0.00059536,0.000785999,0.00103712,0.0013679,0.00180363,0.00237759,0.00313364,0.00412954,0.00544139,0.00716943,0.00944568,0.0124441,0.0163937,0.0215963,0.0284495,inf	3.96686,3.96686,859.524,648.19,319.642,254.136,209.38,207.229,278.256,352.335,360.272,342.482,340.801,347.963,348.13,344.36,349.172,363.891,379.223,390.251,401.352,417.737,437.142,448.54,446.023,432.082,418.134,448.743,448.743,808.8,808.8,808.8
0.00154323	-13757077.34	0,1.7614e-06,4.08161e-06,7.1379e-06,1.11638e-05,1.64669e-05,2.34524e-05,3.2654e-05,4.47749e-05,6.07411e-05,8.17725e-05,0.000109476,0.000145969,0.000194038,0.000257358,0.000340766,0.000450635,0.00059536,0.000785999,0.00103712,0.0013679,0.00180363,0.00237759,0.00313364,0.00412954,0.00544139,0.00716943,0.00944568,0.0124441,0.0163937,0.0215963,0.0284495,inf	2.82931,2.82931,865.604,644.739,317.657,254.46,207.222,205.134,279.544,355.648,361.625,342.318,341.07,349.141,349.619,345.85,350.931,365.917,380.963,391.114,401.184,416.752,435.653,446.824,444.208,430.1,416.001,448.653,448.653,871.577,871.577,871.577
0.00158224	-13756486.29	0,1.7614e-06,4.08161e-06,7.1379e-06,1.11638e-05,1.64669e-05,2.34524e-05,3.2654e-05,4.47749e-05,6.07411e-05,8.17725e-05,0.000109476,0.000145969,0.000194038,0.000257358,0.000340766,0.000450635,0.00059536,0.000785999,0.00103712,0.0013679,0.00180363,0.00237759,0.00313364,0.00412954,0.00544139,0.00716943,0.00944568,0.0124441,0.0163937,0.0215963,0.0284495,inf	2.0229,2.0229,871.244,640.507,315.877,255.001,205.26,203.339,281.127,359.104,362.992,342.181,341.364,350.295,351.03,347.24,352.581,367.829,382.604,391.928,401.036,415.841,434.261,445.198,442.463,428.175,413.918,448.58,448.58,952.906,952.906,952.906
0.00161951	-13755958.81	0,1.7614e-06,4.08161e-06,7.1379e-06,1.11638e-05,1.64669e-05,2.34524e-05,3.2654e-05,4.47749e-05,6.07411e-05,8.17725e-05,0.000109476,0.000145969,0.000194038,0.000257358,0.000340766,0.000450635,0.00059536,0.000785999,0.00103712,0.0013679,0.00180363,0.00237759,0.00313364,0.00412954,0.00544139,0.00716943,0.00944568,0.0124441,0.0163937,0.0215963,0.0284495,inf	1.45169,1.45169,876.646,635.666,314.286,255.707,203.433,201.781,282.948,362.66,364.354,342.068,341.686,351.433,352.373,348.538,354.128,369.63,384.149,392.693,400.904,414.998,432.96,443.659,440.791,426.308,411.885,448.536,448.536,1067.63,1067.63,1067.63
0.00165516	-13755486.73	0,1.7614e-06,4.08161e-06,7.1379e-06,1.11638e-05,1.64669e-05,2.34524e-05,3.2654e-05,4.47749e-05,6.07411e-05,8.17725e-05,0.000109476,0.000145969,0.000194038,0.000257358,0.000340766,0.000450635,0.00059536,0.000785999,0.00103712,0.0013679,0.00180363,0.00237759,0.00313364,0.00412954,0.00544139,0.00716943,0.00944568,0.0124441,0.0163937,0.0215963,0.0284495,inf	1.04851,1.04851,882.069,630.315,312.847,256.525,201.707,200.4,284.955,366.275,365.697,341.975,342.038,352.56,353.657,349.751,355.578,371.325,385.602,393.412,400.784,414.215,431.744,442.205,439.189,424.5,409.902,448.534,448.534,1258.27,1258.27,1258.27
0.00168927	-13755063.34	0,1.7614e-06,4.08161e-06,7.1379e-06,1.11638e-05,1.64669e-05,2.34524e-05,3.2654e-05,4.47749e-05,6.07411e-05,8.17725e-05,0.000109476,0.000145969,0.000194038,0.000257358,0.000340766,0.000450635,0.00059536,0.000785999,0.00103712,0.0013679,0.00180363,0.00237759,0.00313364,0.00412954,0.00544139,0.00716943,0.00944568,0.0124441,0.0163937,0.0215963,0.0284495,inf	0.565147,0.565147,887.476,624.552,311.578,257.418,200.04,199.177,287.11,369.923,367.01,341.899,342.421,353.68,354.887,350.888,356.938,372.922,386.968,394.085,400.673,413.487,430.606,440.831,437.655,422.744,407.962,448.584,448.584,1745.04,1745.04,1745.04
0.00172192	-13754683.80	0,1.7614e-06,4.08161e-06,7.1379e-06,1.11638e-05,1.64669e-05,2.34524e-05,3.2654e-05,4.47749e-05,6.07411e-05,8.17725e-05,0.000109476,0.000145969,0.000194038,0.000257358,0.000340766,0.000450635,0.00059536,0.000785999,0.00103712,0.0013679,0.00180363,0.00237759,0.00313364,0.00412954,0.00544139,0.00716943,0.00944568,0.0124441,0.0163937,0.0215963,0.0284495,inf	0.410956,0.410956,893.088,618.498,310.451,258.369,198.405,198.074,289.369,373.573,368.278,341.836,342.832,354.796,356.07,351.954,358.215,374.425,388.251,394.713,400.569,412.809,429.539,439.529,436.178,421.029,406.048,448.711,448.711,5785.75,5785.75,5785.75
