time_index	left_time_boundary	right_time_boundary	lambda
0	0	3.69899e-06	7502.59
1	3.69899e-06	1.01173e-05	7502.59
2	1.01173e-05	2.12539e-05	1847.75
3	2.12539e-05	4.05776e-05	248.772
4	4.05776e-05	7.41069e-05	299.969
5	7.41069e-05	0.000132285	455.944
6	0.000132285	0.000233233	315.308
7	0.000233233	0.000408391	320.008
8	0.000408391	0.000712317	377.702
9	0.000712317	0.00123967	353.259
10	0.00123967	0.00215471	395.27
11	0.00215471	0.00374242	483.132
12	0.00374242	0.00649734	370.459
13	0.00649734	0.0112775	391.68
14	0.0112775	0.0195718	391.68
15	0.0195718	inf	391.68
