time_index	left_time_boundary	right_time_boundary	lambda
0	0	5.98227e-06	104.422
1	5.98227e-06	1.60591e-05	104.422
2	1.60591e-05	3.30332e-05	269.29
3	3.30332e-05	6.16252e-05	352.436
4	6.16252e-05	0.000109787	481.936
5	0.000109787	0.000190914	398.811
6	0.000190914	0.000327568	413.657
7	0.000327568	0.000557756	385.503
8	0.000557756	0.000945498	377.891
9	0.000945498	0.00159863	400.312
10	0.00159863	0.0026988	386.47
11	0.0026988	0.004552	453.808
12	0.004552	0.00767362	422.626
13	0.00767362	0.0129319	265.2
14	0.0129319	0.0217891	265.2
15	0.0217891	inf	265.2
