time_index	left_time_boundary	right_time_boundary	lambda
0	0	6.40374e-05	765.69
1	6.40374e-05	0.000151661	765.69
2	0.000151661	0.000271557	107.539
3	0.000271557	0.000435613	428.897
4	0.000435613	0.000660094	406.622
5	0.000660094	0.000967253	410.185
6	0.000967253	0.00138754	475.461
7	0.00138754	0.00196264	382.811
8	0.00196264	0.00274954	410.471
9	0.00274954	0.00382627	388.775
10	0.00382627	0.00529959	349.585
11	0.00529959	0.00731554	268.635
12	0.00731554	0.010074	1070.9
13	0.010074	0.0138484	80901.3
14	0.0138484	0.0190131	80901.3
15	0.0190131	inf	80901.3
