time_index	left_time_boundary	right_time_boundary	lambda
0	0	1.0949e-05	47.7801
1	1.0949e-05	2.86866e-05	47.7801
2	2.86866e-05	5.74222e-05	924.118
3	5.74222e-05	0.000103975	725.035
4	0.000103975	0.000179391	467.738
5	0.000179391	0.000301568	458.094
6	0.000301568	0.000499499	464.535
7	0.000499499	0.000820153	424.18
8	0.000820153	0.00133962	366.031
9	0.00133962	0.00218118	422.869
10	0.00218118	0.00354453	367.54
11	0.00354453	0.0057532	372.585
12	0.0057532	0.00933131	113.762
13	0.00933131	0.015128	47681.3
14	0.015128	0.0245187	47681.3
15	0.0245187	inf	47681.3
