LogLikelihood = -198547.30572890420444

y0 1.023610395290244283e-10
y0_prime 0
y1 1.0404101652512547371
y1_prime 0
y2 1.5358715564828275824
y2_prime 0
y3 2.2883075796387624123
y3_prime 0
rho 0.056974431667225690357
theta 0.0029034942437649079519
