0.000645681	-13586805.34	0,4.02281e-06,1.1003e-05,2.31145e-05,4.41299e-05,8.05945e-05,0.000143866,0.000253651,0.000444143,0.000774675,0.0013482,0.00234334,0.00407005,0.00706615,0.0122648,0.0212852,inf	74.7844,74.7844,129.236,210.924,263.601,243.303,258.54,285.248,334.025,377.292,398.942,433.479,424.38,386.558,386.558,386.558
0.000675282	-13584862.01	0,4.02281e-06,1.1003e-05,2.31145e-05,4.41299e-05,8.05945e-05,0.000143866,0.000253651,0.000444143,0.000774675,0.0013482,0.00234334,0.00407005,0.00706615,0.0122648,0.0212852,inf	36.4637,36.4637,76.0328,170.41,253.464,204.891,218.119,245.522,313.702,373.33,394.611,449.256,435.961,369.696,369.696,369.696
0.000702716	-13584052.90	0,4.02281e-06,1.1003e-05,2.31145e-05,4.41299e-05,8.05945e-05,0.000143866,0.000253651,0.000444143,0.000774675,0.0013482,0.00234334,0.00407005,0.00706615,0.0122648,0.0212852,inf	28.8037,28.8037,57.6282,155.214,267.512,193.268,204.95,228.172,307.875,375.78,390.02,458.198,443.419,355.78,355.78,355.78
0.000728346	-13583517.79	0,4.02281e-06,1.1003e-05,2.31145e-05,4.41299e-05,8.05945e-05,0.000143866,0.000253651,0.000444143,0.000774675,0.0013482,0.00234334,0.00407005,0.00706615,0.0122648,0.0212852,inf	28.0047,28.0047,48.9653,145.293,284.065,188.778,201.085,219.084,307.169,380.18,385.332,463.396,448.505,344.611,344.611,344.611
0.000752551	-13583094.78	0,4.02281e-06,1.1003e-05,2.31145e-05,4.41299e-05,8.05945e-05,0.000143866,0.000253651,0.000444143,0.000774675,0.0013482,0.00234334,0.00407005,0.00706615,0.0122648,0.0212852,inf	29.3094,29.3094,44.1561,137.066,297.84,186.154,200.88,213.572,308.399,385.106,380.831,466.53,452.177,335.76,335.76,335.76
0.000775579	-13582735.64	0,4.02281e-06,1.1003e-05,2.31145e-05,4.41299e-05,8.05945e-05,0.000143866,0.000253651,0.000444143,0.000774675,0.0013482,0.00234334,0.00407005,0.00706615,0.0122648,0.0212852,inf	31.1876,31.1876,41.2472,130.138,308.207,183.916,202.244,209.816,310.324,390.035,376.658,468.485,454.947,328.778,328.778,328.778
0.000797586	-13582420.52	0,4.02281e-06,1.1003e-05,2.31145e-05,4.41299e-05,8.05945e-05,0.000143866,0.000253651,0.000444143,0.000774675,0.0013482,0.00234334,0.00407005,0.00706615,0.0122648,0.0212852,inf	33.0292,33.0292,39.4422,124.562,315.767,181.704,204.317,207.025,312.435,394.769,372.851,469.736,457.092,323.274,323.274,323.274
0.000818672	-13582139.18	0,4.02281e-06,1.1003e-05,2.31145e-05,4.41299e-05,8.05945e-05,0.000143866,0.000253651,0.000444143,0.000774675,0.0013482,0.00234334,0.00407005,0.00706615,0.0122648,0.0212852,inf	34.6155,34.6155,38.2767,120.309,321.254,179.483,206.718,204.832,314.516,399.235,369.403,470.549,458.769,318.931,318.931,318.931
0.00083891	-13581885.39	0,4.02281e-06,1.1003e-05,2.31145e-05,4.41299e-05,8.05945e-05,0.000143866,0.000253651,0.000444143,0.000774675,0.0013482,0.00234334,0.00407005,0.00706615,0.0122648,0.0212852,inf	35.9158,35.9158,37.5137,117.256,325.256,177.29,209.264,203.047,316.485,403.412,366.284,471.08,460.079,315.5,315.5,315.5
0.000858354	-13581654.96	0,4.02281e-06,1.1003e-05,2.31145e-05,4.41299e-05,8.05945e-05,0.000143866,0.000253651,0.000444143,0.000774675,0.0013482,0.00234334,0.00407005,0.00706615,0.0122648,0.0212852,inf	36.9693,36.9693,36.9838,115.232,328.202,175.163,211.857,201.563,318.314,407.304,363.46,471.421,461.088,312.786,312.786,312.786
0.00087705	-13581444.79	0,4.02281e-06,1.1003e-05,2.31145e-05,4.41299e-05,8.05945e-05,0.000143866,0.000253651,0.000444143,0.000774675,0.0013482,0.00234334,0.00407005,0.00706615,0.0122648,0.0212852,inf	37.8689,37.8689,36.6045,114.064,330.388,173.133,214.445,200.319,320.001,410.925,360.898,471.636,461.847,310.64,310.64,310.64
0.000895037	-13581252.47	0,4.02281e-06,1.1003e-05,2.31145e-05,4.41299e-05,8.05945e-05,0.000143866,0.000253651,0.000444143,0.000774675,0.0013482,0.00234334,0.00407005,0.00706615,0.0122648,0.0212852,inf	38.6013,38.6013,36.2669,113.6,331.998,171.218,216.994,199.27,321.555,414.292,358.566,471.763,462.393,308.944,308.944,308.944
0.00091235	-13581076.03	0,4.02281e-06,1.1003e-05,2.31145e-05,4.41299e-05,8.05945e-05,0.000143866,0.000253651,0.000444143,0.000774675,0.0013482,0.00234334,0.00407005,0.00706615,0.0122648,0.0212852,inf	39.2463,39.2463,35.9738,113.704,333.171,169.429,219.484,198.386,322.987,417.425,356.437,471.831,462.76,307.608,307.608,307.608
0.000929021	-13580913.83	0,4.02281e-06,1.1003e-05,2.31145e-05,4.41299e-05,8.05945e-05,0.000143866,0.000253651,0.000444143,0.000774675,0.0013482,0.00234334,0.00407005,0.00706615,0.0122648,0.0212852,inf	39.8179,39.8179,35.687,114.256,334.014,167.77,221.902,197.644,324.312,420.341,354.487,471.859,462.975,306.56,306.56,306.56
0.000945077	-13580764.46	0,4.02281e-06,1.1003e-05,2.31145e-05,4.41299e-05,8.05945e-05,0.000143866,0.000253651,0.000444143,0.000774675,0.0013482,0.00234334,0.00407005,0.00706615,0.0122648,0.0212852,inf	40.3499,40.3499,35.3962,115.169,334.596,166.237,224.239,197.024,325.54,423.058,352.696,471.862,463.06,305.744,305.744,305.744
0.000960548	-13580626.68	0,4.02281e-06,1.1003e-05,2.31145e-05,4.41299e-05,8.05945e-05,0.000143866,0.000253651,0.000444143,0.000774675,0.0013482,0.00234334,0.00407005,0.00706615,0.0122648,0.0212852,inf	40.8725,40.8725,35.0787,116.356,334.969,164.827,226.489,196.512,326.684,425.591,351.046,471.85,463.036,305.116,305.116,305.116
0.000975458	-13580499.41	0,4.02281e-06,1.1003e-05,2.31145e-05,4.41299e-05,8.05945e-05,0.000143866,0.000253651,0.000444143,0.000774675,0.0013482,0.00234334,0.00407005,0.00706615,0.0122648,0.0212852,inf	41.4038,41.4038,34.7386,117.759,335.167,163.536,228.65,196.094,327.752,427.955,349.52,471.829,462.919,304.639,304.639,304.639
0.000989831	-13580381.70	0,4.02281e-06,1.1003e-05,2.31145e-05,4.41299e-05,8.05945e-05,0.000143866,0.000253651,0.000444143,0.000774675,0.0013482,0.00234334,0.00407005,0.00706615,0.0122648,0.0212852,inf	41.9098,41.9098,34.3899,119.325,335.233,162.357,230.72,195.759,328.753,430.163,348.105,471.806,462.725,304.285,304.285,304.285
0.00100369	-13580272.70	0,4.02281e-06,1.1003e-05,2.31145e-05,4.41299e-05,8.05945e-05,0.000143866,0.000253651,0.000444143,0.000774675,0.0013482,0.00234334,0.00407005,0.00706615,0.0122648,0.0212852,inf	42.4227,42.4227,34.0198,121.016,335.193,161.283,232.699,195.496,329.695,432.228,346.79,471.782,462.467,304.031,304.031,304.031
0.00101706	-13580171.66	0,4.02281e-06,1.1003e-05,2.31145e-05,4.41299e-05,8.05945e-05,0.000143866,0.000253651,0.000444143,0.000774675,0.0013482,0.00234334,0.00407005,0.00706615,0.0122648,0.0212852,inf	42.901,42.901,33.6291,122.802,335.059,160.31,234.588,195.298,330.584,434.161,345.565,471.763,462.154,303.858,303.858,303.858
