LogLikelihood = -195627.77608650302864

y0 0.95267405840244112625
y0_prime 0
y1 0.73059900097642849204
y1_prime 0
y2 1.0901398083981710396
y2_prime 0
y3 2.1990905053984457496
y3_prime 0
rho 2.8523372372997834973e-05
rho.alpha 1.6772101122422145014
r_ii 0.99997341379758997171
theta 0.00046578501265517955731
