LogLikelihood = -316240.01138536387589

y0 0.55527822846594421247
y0_prime 0
y1 1.049014007255905101
y1_prime 0
y2 1.0713811333936014147
y2_prime 0
y3 1.6037725312654071974
y3_prime 0
rho 0.0010245218780712639448
theta 0.0052184327421002972905
