LogLikelihood = -1532738.2033329801634

y0 0.65234074398842123443
y0_prime 0
y1 0.91670884598424884349
y1_prime 0
y2 1.0770899384682719457
y2_prime 0
y3 1.7033438835730310146
y3_prime 0
rho 0.0010066152124405445233
theta 0.0050389574077075996103
