0.000674544	-8851656.35	0,2.77257e-06,6.37098e-06,1.10412e-05,1.71026e-05,2.49695e-05,3.51796e-05,4.8431e-05,6.56294e-05,8.79508e-05,0.000116921,0.00015452,0.000203319,0.000266653,0.000348853,0.000455537,0.000593998,0.000773702,0.00100693,0.00130964,0.00170251,0.0022124,0.00287417,0.00373306,0.00484778,0.00629454,0.00817224,0.0106092,0.0137721,0.0178772,0.0232049,0.0301197,inf	161.271,161.271,442.558,613.899,559.854,423.017,368.31,428.818,545.035,581.706,449.329,325.8,235.408,172.11,141.676,139.497,156.885,188.798,233.78,291.274,359.265,426.938,465.384,463.522,443.249,420.869,402.194,388.407,388.407,418.135,418.135,418.135
0.000713364	-8841349.09	0,2.77257e-06,6.37098e-06,1.10412e-05,1.71026e-05,2.49695e-05,3.51796e-05,4.8431e-05,6.56294e-05,8.79508e-05,0.000116921,0.00015452,0.000203319,0.000266653,0.000348853,0.000455537,0.000593998,0.000773702,0.00100693,0.00130964,0.00170251,0.0022124,0.00287417,0.00373306,0.00484778,0.00629454,0.00817224,0.0106092,0.0137721,0.0178772,0.0232049,0.0301197,inf	54.139,54.139,398.447,749.202,646.115,390.332,303.075,412.312,671.306,806.451,546.016,333.909,198.348,112.101,74.809,70.9914,88.6283,124.777,180.319,256.055,351.811,456.818,523.407,522.681,488.088,446.896,411.267,385.826,385.826,459.142,459.142,459.142
0.000752451	-8837567.57	0,2.77257e-06,6.37098e-06,1.10412e-05,1.71026e-05,2.49695e-05,3.51796e-05,4.8431e-05,6.56294e-05,8.79508e-05,0.000116921,0.00015452,0.000203319,0.000266653,0.000348853,0.000455537,0.000593998,0.000773702,0.00100693,0.00130964,0.00170251,0.0022124,0.00287417,0.00373306,0.00484778,0.00629454,0.00817224,0.0106092,0.0137721,0.0178772,0.0232049,0.0301197,inf	17.4658,17.4658,337.378,843.837,692.977,337.637,232.134,362.423,739.363,996.998,625.793,351.361,186.994,86.8922,47.6393,42.9182,58.3544,93.7646,152.685,236.938,347.512,475.474,561.931,563.537,519.409,462.862,412.352,377.963,377.963,513.116,513.116,513.116
0.000789511	-8835713.53	0,2.77257e-06,6.37098e-06,1.10412e-05,1.71026e-05,2.49695e-05,3.51796e-05,4.8431e-05,6.56294e-05,8.79508e-05,0.000116921,0.00015452,0.000203319,0.000266653,0.000348853,0.000455537,0.000593998,0.000773702,0.00100693,0.00130964,0.00170251,0.0022124,0.00287417,0.00373306,0.00484778,0.00629454,0.00817224,0.0106092,0.0137721,0.0178772,0.0232049,0.0301197,inf	5.67001,5.67001,281.939,925.129,727.075,287.536,173.659,305.824,763.721,1138.56,679.3,366.478,183.816,73.6275,33.9243,28.9246,42.2821,76.1055,136.322,225.41,344.825,487.367,587.225,591.162,540.694,471.539,408.062,367.391,367.391,592.61,592.61,592.61
0.000824397	-8834633.78	0,2.77257e-06,6.37098e-06,1.10412e-05,1.71026e-05,2.49695e-05,3.51796e-05,4.8431e-05,6.56294e-05,8.79508e-05,0.000116921,0.00015452,0.000203319,0.000266653,0.000348853,0.000455537,0.000593998,0.000773702,0.00100693,0.00130964,0.00170251,0.0022124,0.00287417,0.00373306,0.00484778,0.00629454,0.00817224,0.0106092,0.0137721,0.0178772,0.0232049,0.0301197,inf	1.86315,1.86315,234.897,1000.41,757.334,245.637,130.004,255.153,764.95,1239.82,710.635,377.519,183.737,65.5579,25.9532,21.0051,32.7457,65.0852,125.99,218.273,343.357,495.314,603.848,609.675,554.93,475.28,400.528,356.017,356.017,726.228,726.228,726.228
0.000857383	-8833914.67	0,2.77257e-06,6.37098e-06,1.10412e-05,1.71026e-05,2.49695e-05,3.51796e-05,4.8431e-05,6.56294e-05,8.79508e-05,0.000116921,0.00015452,0.000203319,0.000266653,0.000348853,0.000455537,0.000593998,0.000773702,0.00100693,0.00130964,0.00170251,0.0022124,0.00287417,0.00373306,0.00484778,0.00629454,0.00817224,0.0106092,0.0137721,0.0178772,0.0232049,0.0301197,inf	0.615712,0.615712,195.114,1069.22,785.15,211.506,98.3482,213.618,756.944,1313.22,725.999,384.913,184.859,60.0921,20.8353,16.0969,26.6268,57.7851,119.264,213.936,342.853,500.913,614.776,621.987,564.321,475.82,391.264,345.096,345.096,1010.82,1010.82,1010.82
0.000888782	-8833384.13	0,2.77257e-06,6.37098e-06,1.10412e-05,1.71026e-05,2.49695e-05,3.51796e-05,4.8431e-05,6.56294e-05,8.79508e-05,0.000116921,0.00015452,0.000203319,0.000266653,0.000348853,0.000455537,0.000593998,0.000773702,0.00100693,0.00130964,0.00170251,0.0022124,0.00287417,0.00373306,0.00484778,0.00629454,0.00817224,0.0106092,0.0137721,0.0178772,0.0232049,0.0301197,inf	0.383696,0.383696,161.486,1130.23,809.856,183.457,75.4002,180.676,747.143,1368.54,730.448,389.396,186.333,56.0505,17.2962,12.8384,22.4627,52.7439,114.85,211.481,343.091,505.059,621.911,630.075,570.417,474.362,381.275,335.426,335.426,2107.66,2107.66,2107.66
0.000918863	-8832963.43	0,2.77257e-06,6.37098e-06,1.10412e-05,1.71026e-05,2.49695e-05,3.51796e-05,4.8431e-05,6.56294e-05,8.79508e-05,0.000116921,0.00015452,0.000203319,0.000266653,0.000348853,0.000455537,0.000593998,0.000773702,0.00100693,0.00130964,0.00170251,0.0022124,0.00287417,0.00373306,0.00484778,0.00629454,0.00817224,0.0106092,0.0137721,0.0178772,0.0232049,0.0301197,inf	0.383696,0.383696,133.254,1182.81,830.873,160.013,58.5785,154.758,739.05,1412.18,727.545,391.632,187.748,52.8369,14.7062,10.556,19.4951,49.1578,111.992,210.334,343.888,508.263,626.471,635.264,574.274,471.707,371.184,327.552,327.552,39171.3,39171.3,39171.3
0.000918863	-8832610.44	0,2.77257e-06,6.37098e-06,1.10412e-05,1.71026e-05,2.49695e-05,3.51796e-05,4.8431e-05,6.56294e-05,8.79508e-05,0.000116921,0.00015452,0.000203319,0.000266653,0.000348853,0.000455537,0.000593998,0.000773702,0.00100693,0.00130964,0.00170251,0.0022124,0.00287417,0.00373306,0.00484778,0.00629454,0.00817224,0.0106092,0.0137721,0.0178772,0.0232049,0.0301197,inf	0.383696,0.383696,108.532,1212.73,837.943,138.591,45.5891,132.909,725.913,1430.41,712.567,388.785,187.504,49.814,12.6515,8.83801,17.2054,46.2932,109.566,208.73,342.464,506.275,624.194,634.665,573.825,466.213,359.871,320.318,320.318,58756.8,58756.8,58756.8
