0.000699629	-14689589.12	0,1.90315e-06,4.41006e-06,7.71229e-06,1.20621e-05,1.7792e-05,2.53396e-05,3.52817e-05,4.8378e-05,6.56289e-05,8.83528e-05,0.000118286,0.000157715,0.000209653,0.000278068,0.000368188,0.000486898,0.000643269,0.000849248,0.00112057,0.00147798,0.00194877,0.00256892,0.0033858,0.00446185,0.00587927,0.00774636,0.0102058,0.0134455,0.0177129,0.0233342,0.0307389,inf	109.963,109.963,265.59,429.885,528.476,529.815,507.947,533.313,585.836,585.123,544.203,403.857,286.712,206.402,150.629,127.252,130.66,152.281,188.513,239.475,306.432,386.111,450.189,462.346,441.313,414.897,392.145,374.594,374.594,402.876,402.876,402.876
0.000741373	-14670417.35	0,1.90315e-06,4.41006e-06,7.71229e-06,1.20621e-05,1.7792e-05,2.53396e-05,3.52817e-05,4.8378e-05,6.56289e-05,8.83528e-05,0.000118286,0.000157715,0.000209653,0.000278068,0.000368188,0.000486898,0.000643269,0.000849248,0.00112057,0.00147798,0.00194877,0.00256892,0.0033858,0.00446185,0.00587927,0.00774636,0.0102058,0.0134455,0.0177129,0.0233342,0.0307389,inf	24.864,24.864,148.813,384.114,565.581,563.394,524.405,584.026,712.446,754.471,725.641,468.275,281.092,166.251,91.6039,63.1614,64.8609,86.4614,127.27,190.252,279.609,396.9,504.821,529.498,494.337,446.392,403.225,370.892,370.892,440.824,440.824,440.824
0.000783202	-14663374.72	0,1.90315e-06,4.41006e-06,7.71229e-06,1.20621e-05,1.7792e-05,2.53396e-05,3.52817e-05,4.8378e-05,6.56289e-05,8.83528e-05,0.000118286,0.000157715,0.000209653,0.000278068,0.000368188,0.000486898,0.000643269,0.000849248,0.00112057,0.00147798,0.00194877,0.00256892,0.0033858,0.00446185,0.00587927,0.00774636,0.0102058,0.0134455,0.0177129,0.0233342,0.0307389,inf	5.42684,5.42684,81.9625,333.656,573.992,554.57,491.277,569.557,756.262,852.579,868.25,521.498,290.693,154.218,67.667,38.1308,38.306,57.0735,96.9493,163.735,263.646,402.325,540.358,575.327,531.191,466.275,405.522,361.777,361.777,488.814,488.814,488.814
0.000822718	-14659958.81	0,1.90315e-06,4.41006e-06,7.71229e-06,1.20621e-05,1.7792e-05,2.53396e-05,3.52817e-05,4.8378e-05,6.56289e-05,8.83528e-05,0.000118286,0.000157715,0.000209653,0.000278068,0.000368188,0.000486898,0.000643269,0.000849248,0.00112057,0.00147798,0.00194877,0.00256892,0.0033858,0.00446185,0.00587927,0.00774636,0.0102058,0.0134455,0.0177129,0.0233342,0.0307389,inf	1.22012,1.22012,46.9719,298.584,589.387,543.695,451.324,534.723,755.448,897.197,966.522,556.451,302.178,151.28,55.3253,25.9575,25.2963,41.4392,79.4409,147.552,253.332,405.235,563.781,606.129,556.182,477.812,402.066,350.018,350.018,555.157,555.157,555.157
0.000859827	-14657998.33	0,1.90315e-06,4.41006e-06,7.71229e-06,1.20621e-05,1.7792e-05,2.53396e-05,3.52817e-05,4.8378e-05,6.56289e-05,8.83528e-05,0.000118286,0.000157715,0.000209653,0.000278068,0.000368188,0.000486898,0.000643269,0.000849248,0.00112057,0.00147798,0.00194877,0.00256892,0.0033858,0.00446185,0.00587927,0.00774636,0.0102058,0.0134455,0.0177129,0.0233342,0.0307389,inf	0.370442,0.370442,28.0686,275.628,617.105,540.78,418.295,500.419,738.218,912.028,1030.97,576.06,312.303,151.762,47.8612,19.1187,18.0653,32.1751,68.4231,137.083,246.571,407.162,579.651,626.795,572.934,483.75,395.251,337.54,337.54,656.351,656.351,656.351
0.000894865	-14656715.40	0,1.90315e-06,4.41006e-06,7.71229e-06,1.20621e-05,1.7792e-05,2.53396e-05,3.52817e-05,4.8378e-05,6.56289e-05,8.83528e-05,0.000118286,0.000157715,0.000209653,0.000278068,0.000368188,0.000486898,0.000643269,0.000849248,0.00112057,0.00147798,0.00194877,0.00256892,0.0033858,0.00446185,0.00587927,0.00774636,0.0102058,0.0134455,0.0177129,0.0233342,0.0307389,inf	0.370442,0.370442,17.2614,259.231,653.489,545.086,393.724,472.896,718.208,912.926,1072.9,584.616,320.391,153.487,42.7871,14.8633,13.6637,26.2537,61.0946,130.114,242.216,408.794,590.723,640.659,584.077,486.083,386.725,325.502,325.502,837.474,837.474,837.474
0.00092819	-14655786.27	0,1.90315e-06,4.41006e-06,7.71229e-06,1.20621e-05,1.7792e-05,2.53396e-05,3.52817e-05,4.8378e-05,6.56289e-05,8.83528e-05,0.000118286,0.000157715,0.000209653,0.000278068,0.000368188,0.000486898,0.000643269,0.000849248,0.00112057,0.00147798,0.00194877,0.00256892,0.0033858,0.00446185,0.00587927,0.00774636,0.0102058,0.0134455,0.0177129,0.0233342,0.0307389,inf	0.370442,0.370442,10.7868,245.635,693.763,553.804,375.947,452.671,700.613,908.528,1100.47,585.634,326.498,155.494,39.0154,12.0065,10.7928,22.2476,56.0319,125.431,239.548,410.41,598.65,649.922,591.422,486.177,377.537,314.552,314.552,1308.09,1308.09,1308.09
0.000960104	-14655061.91	0,1.90315e-06,4.41006e-06,7.71229e-06,1.20621e-05,1.7792e-05,2.53396e-05,3.52817e-05,4.8378e-05,6.56289e-05,8.83528e-05,0.000118286,0.000157715,0.000209653,0.000278068,0.000368188,0.000486898,0.000643269,0.000849248,0.00112057,0.00147798,0.00194877,0.00256892,0.0033858,0.00446185,0.00587927,0.00774636,0.0102058,0.0134455,0.0177129,0.0233342,0.0307389,inf	0.370442,0.370442,6.8008,232.897,734.273,564.445,362.993,438.628,686.898,903.049,1118.96,581.643,330.888,157.335,36.0133,9.97431,8.81593,19.4149,52.4424,122.309,238.09,412.103,604.447,656.026,596.188,484.925,368.306,305.065,305.065,4770.78,4770.78,4770.78
0.000960104	-14654467.26	0,1.90315e-06,4.41006e-06,7.71229e-06,1.20621e-05,1.7792e-05,2.53396e-05,3.52817e-05,4.8378e-05,6.56289e-05,8.83528e-05,0.000118286,0.000157715,0.000209653,0.000278068,0.000368188,0.000486898,0.000643269,0.000849248,0.00112057,0.00147798,0.00194877,0.00256892,0.0033858,0.00446185,0.00587927,0.00774636,0.0102058,0.0134455,0.0177129,0.0233342,0.0307389,inf	0.370442,0.370442,4.26994,218.066,764.4,569.292,349.802,425.135,670.123,889.191,1119.82,569.44,331.356,157.789,33.3203,8.42036,7.35911,17.258,49.6117,119.653,236.041,410.56,602.952,655.403,596.039,480.537,357.742,296.238,296.238,55221.6,55221.6,55221.6
