time_index	left_time_boundary	right_time_boundary	lambda
0	0	9.77127e-06	1727.3
1	9.77127e-06	2.5601e-05	1727.3
2	2.5601e-05	5.12458e-05	24.5707
3	5.12458e-05	9.2791e-05	2117.04
4	9.2791e-05	0.000160096	913.972
5	0.000160096	0.000269131	2.22265
6	0.000269131	0.000445772	0.42303
7	0.000445772	0.000731937	3.37522
8	0.000731937	0.00119553	86.0072
9	0.00119553	0.00194657	325.108
10	0.00194657	0.00316328	514.459
11	0.00316328	0.00513438	498.429
12	0.00513438	0.00832763	511.539
13	0.00832763	0.0135008	808.579
14	0.0135008	0.0218815	808.579
15	0.0218815	inf	808.579
