LogLikelihood = -33780.619936439077719

y0 1.1158070541285202555e-10
y0_prime 0
y1 1.0502020825235391932
y1_prime 0
y2 1.5258146234835328059
y2_prime 0
y3 2.0123794070563478797
y3_prime 0
rho 4.2444562536962245308e-05
rho.alpha 0.83084083796597218985
r_ii 0.99997782109394872663
theta 6.3816484142374858574e-05
