0.000124936	-544568.42	0,1.25258e-05,2.9665e-05,5.31169e-05,8.52064e-05,0.000129115,0.000189196,0.000271405,0.000383894,0.000537813,0.000748423,0.0010366,0.00143093,0.00197049,0.00270877,0.00371898,inf	807.817,807.817,1680.47,2600.63,3562.02,4067.64,3666.5,2887.48,2232.63,1783.35,1496.26,1351.03,1342.14,958.843,958.843,958.843
0.000176479	-536225.79	0,1.25258e-05,2.9665e-05,5.31169e-05,8.52064e-05,0.000129115,0.000189196,0.000271405,0.000383894,0.000537813,0.000748423,0.0010366,0.00143093,0.00197049,0.00270877,0.00371898,inf	289.998,289.998,1164.14,2484.47,4129.35,5032.52,4176.97,2832.62,1863.87,1277.92,940.621,772.649,723.016,388.415,388.415,388.415
0.000242075	-529864.40	0,1.25258e-05,2.9665e-05,5.31169e-05,8.52064e-05,0.000129115,0.000189196,0.000271405,0.000383894,0.000537813,0.000748423,0.0010366,0.00143093,0.00197049,0.00270877,0.00371898,inf	126.972,126.972,921.272,2510.68,4752.19,6010.45,4692.35,2927.46,1761.5,1101.25,745.976,576.319,516.929,294.808,294.808,294.808
0.000312209	-526852.26	0,1.25258e-05,2.9665e-05,5.31169e-05,8.52064e-05,0.000129115,0.000189196,0.000271405,0.000383894,0.000537813,0.000748423,0.0010366,0.00143093,0.00197049,0.00270877,0.00371898,inf	65.4379,65.4379,796.248,2586.79,5321.51,6849.86,5126.86,3082.08,1781.16,1059.22,682.762,508.431,446.757,277.09,277.09,277.09
0.000383343	-525037.06	0,1.25258e-05,2.9665e-05,5.31169e-05,8.52064e-05,0.000129115,0.000189196,0.000271405,0.000383894,0.000537813,0.000748423,0.0010366,0.00143093,0.00197049,0.00270877,0.00371898,inf	38.348,38.348,727.493,2676.05,5809.78,7505.95,5440.25,3224.18,1835.04,1061.61,662.017,479.667,414.723,275.865,275.865,275.865
0.000454037	-523709.13	0,1.25258e-05,2.9665e-05,5.31169e-05,8.52064e-05,0.000129115,0.000189196,0.000271405,0.000383894,0.000537813,0.000748423,0.0010366,0.00143093,0.00197049,0.00270877,0.00371898,inf	24.9226,24.9226,690.027,2771.4,6237.22,8013.7,5655.31,3338.79,1894.32,1078.79,656.407,464.709,395.61,278.555,278.555,278.555
0.000523562	-522671.37	0,1.25258e-05,2.9665e-05,5.31169e-05,8.52064e-05,0.000129115,0.000189196,0.000271405,0.000383894,0.000537813,0.000748423,0.0010366,0.00143093,0.00197049,0.00270877,0.00371898,inf	17.606,17.606,671.434,2870.57,6623.17,8413.24,5801.98,3428.54,1950.38,1100.29,656.389,455.132,381.589,281.708,281.708,281.708
0.000591542	-521833.99	0,1.25258e-05,2.9665e-05,5.31169e-05,8.52064e-05,0.000129115,0.000189196,0.000271405,0.000383894,0.000537813,0.000748423,0.0010366,0.00143093,0.00197049,0.00270877,0.00371898,inf	13.2953,13.2953,664.747,2971.77,6979.64,8734.01,5902.64,3498.88,2000.96,1122.07,658.18,447.703,369.83,284.379,284.379,284.379
0.000657799	-521143.43	0,1.25258e-05,2.9665e-05,5.31169e-05,8.52064e-05,0.000129115,0.000189196,0.000271405,0.000383894,0.000537813,0.000748423,0.0010366,0.00143093,0.00197049,0.00270877,0.00371898,inf	10.5891,10.5891,665.811,3073.51,7313.66,8996.06,5972.23,3554.63,2045.82,1142.51,660.153,441.064,359.204,286.404,286.404,286.404
0.000722261	-520564.17	0,1.25258e-05,2.9665e-05,5.31169e-05,8.52064e-05,0.000129115,0.000189196,0.000271405,0.000383894,0.000537813,0.000748423,0.0010366,0.00143093,0.00197049,0.00270877,0.00371898,inf	8.8002,8.8002,672.04,3174.68,7629.46,9213.19,6020.53,3599.45,2085.41,1160.95,661.588,434.616,349.228,287.852,287.852,287.852
0.000784925	-520071.49	0,1.25258e-05,2.9665e-05,5.31169e-05,8.52064e-05,0.000129115,0.000189196,0.000271405,0.000383894,0.000537813,0.000748423,0.0010366,0.00143093,0.00197049,0.00270877,0.00371898,inf	7.56804,7.56804,681.771,3274.51,7929.73,9395.15,6054.02,3636.06,2120.34,1177.22,662.183,428.1,339.689,288.845,288.845,288.845
0.000845818	-519647.53	0,1.25258e-05,2.9665e-05,5.31169e-05,8.52064e-05,0.000129115,0.000189196,0.000271405,0.000383894,0.000537813,0.000748423,0.0010366,0.00143093,0.00197049,0.00270877,0.00371898,inf	6.68893,6.68893,693.904,3372.46,8216.34,9549.07,6077.08,3666.45,2151.22,1191.32,661.831,421.413,330.494,289.498,289.498,289.498
0.000904993	-519279.07	0,1.25258e-05,2.9665e-05,5.31169e-05,8.52064e-05,0.000129115,0.000189196,0.000271405,0.000383894,0.000537813,0.000748423,0.0010366,0.00143093,0.00197049,0.00270877,0.00371898,inf	6.04427,6.04427,707.692,3468.21,8490.62,9680.3,6092.71,3692.08,2178.59,1203.36,660.528,414.533,321.599,289.909,289.909,289.909
0.000962502	-518956.10	0,1.25258e-05,2.9665e-05,5.31169e-05,8.52064e-05,0.000129115,0.000189196,0.000271405,0.000383894,0.000537813,0.000748423,0.0010366,0.00143093,0.00197049,0.00270877,0.00371898,inf	5.56207,5.56207,722.664,3561.64,8754.01,9792.45,6102.78,3713.85,2202.78,1213.39,658.28,407.462,312.989,290.154,290.154,290.154
0.00101842	-518670.88	0,1.25258e-05,2.9665e-05,5.31169e-05,8.52064e-05,0.000129115,0.000189196,0.000271405,0.000383894,0.000537813,0.000748423,0.0010366,0.00143093,0.00197049,0.00270877,0.00371898,inf	5.15992,5.15992,738.408,3652.6,9007,9889.42,6109.22,3732.9,2224.42,1221.69,655.206,400.245,304.658,290.285,290.285,290.285
0.00107281	-518417.33	0,1.25258e-05,2.9665e-05,5.31169e-05,8.52064e-05,0.000129115,0.000189196,0.000271405,0.000383894,0.000537813,0.000748423,0.0010366,0.00143093,0.00197049,0.00270877,0.00371898,inf	4.8482,4.8482,754.652,3741.02,9250.16,9973.58,6113,3749.78,2243.82,1228.39,651.374,392.913,296.6,290.34,290.34,290.34
0.00112573	-518190.62	0,1.25258e-05,2.9665e-05,5.31169e-05,8.52064e-05,0.000129115,0.000189196,0.000271405,0.000383894,0.000537813,0.000748423,0.0010366,0.00143093,0.00197049,0.00270877,0.00371898,inf	4.60412,4.60412,771.201,3826.92,9484.06,10047,6114.9,3764.94,2261.26,1233.63,646.856,385.502,288.81,290.348,290.348,290.348
0.00117726	-517986.83	0,1.25258e-05,2.9665e-05,5.31169e-05,8.52064e-05,0.000129115,0.000189196,0.000271405,0.000383894,0.000537813,0.000748423,0.0010366,0.00143093,0.00197049,0.00270877,0.00371898,inf	4.41093,4.41093,787.916,3910.34,9709.22,10111.2,6115.49,3778.74,2276.96,1237.52,641.729,378.045,281.286,290.33,290.33,290.33
0.00122745	-517802.77	0,1.25258e-05,2.9665e-05,5.31169e-05,8.52064e-05,0.000129115,0.000189196,0.000271405,0.000383894,0.000537813,0.000748423,0.0010366,0.00143093,0.00197049,0.00270877,0.00371898,inf	4.25723,4.25723,804.69,3991.34,9926.11,10167.7,6115.2,3791.47,2291.14,1240.19,636.062,370.575,274.023,290.301,290.301,290.301
0.00127636	-517635.81	0,1.25258e-05,2.9665e-05,5.31169e-05,8.52064e-05,0.000129115,0.000189196,0.000271405,0.000383894,0.000537813,0.000748423,0.0010366,0.00143093,0.00197049,0.00270877,0.00371898,inf	4.13452,4.13452,821.444,4070.02,10135.2,10217.5,6114.36,3803.33,2303.95,1241.74,629.922,363.119,267.017,290.271,290.271,290.271
