time_index	left_time_boundary	right_time_boundary	lambda
0	0	1.25258e-05	4.13452
1	1.25258e-05	2.9665e-05	4.13452
2	2.9665e-05	5.31169e-05	821.444
3	5.31169e-05	8.52064e-05	4070.02
4	8.52064e-05	0.000129115	10135.2
5	0.000129115	0.000189196	10217.5
6	0.000189196	0.000271405	6114.36
7	0.000271405	0.000383894	3803.33
8	0.000383894	0.000537813	2303.95
9	0.000537813	0.000748423	1241.74
10	0.000748423	0.0010366	629.922
11	0.0010366	0.00143093	363.119
12	0.00143093	0.00197049	267.017
13	0.00197049	0.00270877	290.271
14	0.00270877	0.00371898	290.271
15	0.00371898	inf	290.271
