time_index	left_time_boundary	right_time_boundary	lambda
0	0	6.10121e-06	494.816
1	6.10121e-06	1.63784e-05	494.816
2	1.63784e-05	3.36899e-05	269.414
3	3.36899e-05	6.28504e-05	347.133
4	6.28504e-05	0.00011197	398.106
5	0.00011197	0.00019471	376.861
6	0.00019471	0.000334081	350.899
7	0.000334081	0.000568846	370.169
8	0.000568846	0.000964296	394.037
9	0.000964296	0.00163042	405.841
10	0.00163042	0.00275246	414.689
11	0.00275246	0.0046425	420.447
12	0.0046425	0.00782619	396.576
13	0.00782619	0.013189	349.007
14	0.013189	0.0222223	349.007
15	0.0222223	inf	349.007
