0.000717042	-18396853.92	0,9.87837e-06,2.20969e-05,3.72101e-05,5.59036e-05,7.90257e-05,0.000107625,0.000143,0.000186756,0.000240877,0.000307819,0.000390621,0.000493038,0.000619717,0.000776408,0.000970218,0.00120994,0.00150646,0.00187322,0.00232687,0.00288798,0.00358203,0.0044405,0.00550234,0.00681573,0.00844026,0.0104497,0.0129351,0.0160093,0.0198118,0.0245151,0.0303327,inf	418.562,418.562,340.211,344.133,351.74,355.353,355.208,352.88,349.831,347.752,347.877,350.729,356.415,364.688,375.03,386.77,398.918,410.061,418.625,423.59,424.914,423.161,419.364,414.747,410.236,406.992,404.665,398.109,398.109,401.175,401.175,401.175
0.000803465	-18387855.56	0,9.87837e-06,2.20969e-05,3.72101e-05,5.59036e-05,7.90257e-05,0.000107625,0.000143,0.000186756,0.000240877,0.000307819,0.000390621,0.000493038,0.000619717,0.000776408,0.000970218,0.00120994,0.00150646,0.00187322,0.00232687,0.00288798,0.00358203,0.0044405,0.00550234,0.00681573,0.00844026,0.0104497,0.0129351,0.0160093,0.0198118,0.0245151,0.0303327,inf	449.268,449.268,319.34,330.522,345.865,352.529,351.546,346.077,338.988,333.434,331.53,334.068,341.126,352.165,366.275,382.492,399.494,415.323,427.727,435.223,437.619,435.387,429.783,422.575,415.298,410.197,406.544,394.92,394.92,401.831,401.831,401.831
0.000884573	-18381264.45	0,9.87837e-06,2.20969e-05,3.72101e-05,5.59036e-05,7.90257e-05,0.000107625,0.000143,0.000186756,0.000240877,0.000307819,0.000390621,0.000493038,0.000619717,0.000776408,0.000970218,0.00120994,0.00150646,0.00187322,0.00232687,0.00288798,0.00358203,0.0044405,0.00550234,0.00681573,0.00844026,0.0104497,0.0129351,0.0160093,0.0198118,0.0245151,0.0303327,inf	464.813,464.813,302.136,322.665,346.734,357.347,356.43,348.684,338.342,329.897,326.138,327.993,335.423,347.557,363.158,381.122,400.051,417.78,431.791,440.498,443.635,441.409,434.973,426.269,417.246,411.114,406.742,391.194,391.194,402.284,402.284,402.284
0.000960786	-18376093.22	0,9.87837e-06,2.20969e-05,3.72101e-05,5.59036e-05,7.90257e-05,0.000107625,0.000143,0.000186756,0.000240877,0.000307819,0.000390621,0.000493038,0.000619717,0.000776408,0.000970218,0.00120994,0.00150646,0.00187322,0.00232687,0.00288798,0.00358203,0.0044405,0.00550234,0.00681573,0.00844026,0.0104497,0.0129351,0.0160093,0.0198118,0.0245151,0.0303327,inf	468.589,468.589,284.673,314.381,347.052,361.99,361.905,352.818,340.199,329.719,324.685,326.081,333.706,346.349,362.497,381.006,400.519,418.812,433.297,442.468,446.062,443.997,437.196,427.595,417.435,410.772,406.051,387.444,387.444,402.806,402.806,402.806
0.00103261	-18371903.68	0,9.87837e-06,2.20969e-05,3.72101e-05,5.59036e-05,7.90257e-05,0.000107625,0.000143,0.000186756,0.000240877,0.000307819,0.000390621,0.000493038,0.000619717,0.000776408,0.000970218,0.00120994,0.00150646,0.00187322,0.00232687,0.00288798,0.00358203,0.0044405,0.00550234,0.00681573,0.00844026,0.0104497,0.0129351,0.0160093,0.0198118,0.0245151,0.0303327,inf	467.923,467.923,268.434,306.145,346.571,365.649,366.729,356.922,342.761,330.925,325.11,326.302,334.116,346.995,363.208,381.646,401.051,419.204,433.552,442.752,446.583,444.695,437.748,427.579,416.655,409.764,404.925,383.907,383.907,403.507,403.507,403.507
0.00110046	-18368442.58	0,9.87837e-06,2.20969e-05,3.72101e-05,5.59036e-05,7.90257e-05,0.000107625,0.000143,0.000186756,0.000240877,0.000307819,0.000390621,0.000493038,0.000619717,0.000776408,0.000970218,0.00120994,0.00150646,0.00187322,0.00232687,0.00288798,0.00358203,0.0044405,0.00550234,0.00681573,0.00844026,0.0104497,0.0129351,0.0160093,0.0198118,0.0245151,0.0303327,inf	466.097,466.097,253.992,298.401,345.497,368.229,370.527,360.384,345.215,332.543,326.342,327.56,335.606,348.595,364.625,382.674,401.616,419.27,433.161,442.147,446.065,444.33,437.341,426.793,415.339,408.411,403.6,380.666,380.666,404.413,404.413,404.413
0.00116468	-18365543.30	0,9.87837e-06,2.20969e-05,3.72101e-05,5.59036e-05,7.90257e-05,0.000107625,0.000143,0.000186756,0.000240877,0.000307819,0.000390621,0.000493038,0.000619717,0.000776408,0.000970218,0.00120994,0.00150646,0.00187322,0.00232687,0.00288798,0.00358203,0.0044405,0.00550234,0.00681573,0.00844026,0.0104497,0.0129351,0.0160093,0.0198118,0.0245151,0.0303327,inf	464.53,464.53,241.557,291.556,344.278,370.062,373.456,363.174,347.359,334.223,327.922,329.34,337.661,350.69,366.399,383.894,402.193,419.166,432.439,441.079,444.988,443.372,436.386,425.57,413.741,406.895,402.206,377.738,377.738,405.513,405.513,405.513
0.00122558	-18363088.25	0,9.87837e-06,2.20969e-05,3.72101e-05,5.59036e-05,7.90257e-05,0.000107625,0.000143,0.000186756,0.000240877,0.000307819,0.000390621,0.000493038,0.000619717,0.000776408,0.000970218,0.00120994,0.00150646,0.00187322,0.00232687,0.00288798,0.00358203,0.0044405,0.00550234,0.00681573,0.00844026,0.0104497,0.0129351,0.0160093,0.0198118,0.0245151,0.0303327,inf	463.594,463.594,231.028,285.8,343.242,371.473,375.753,365.409,349.181,335.837,329.639,331.377,340.002,353.025,368.334,385.191,402.763,418.972,431.555,439.783,443.62,442.09,435.124,424.107,412.006,405.32,400.815,375.108,375.108,406.787,406.787,406.787
0.00128342	-18360990.79	0,9.87837e-06,2.20969e-05,3.72101e-05,5.59036e-05,7.90257e-05,0.000107625,0.000143,0.000186756,0.000240877,0.000307819,0.000390621,0.000493038,0.000619717,0.000776408,0.000970218,0.00120994,0.00150646,0.00187322,0.00232687,0.00288798,0.00358203,0.0044405,0.00550234,0.00681573,0.00844026,0.0104497,0.0129351,0.0160093,0.0198118,0.0245151,0.0303327,inf	463.212,463.212,222.176,281.145,342.574,372.695,377.624,367.222,350.729,337.351,331.391,333.529,342.47,355.453,370.316,386.498,403.31,418.728,430.599,438.39,442.117,440.646,433.703,422.525,410.224,403.745,399.464,372.751,372.751,408.21,408.21,408.21
0.00133842	-18359185.23	0,9.87837e-06,2.20969e-05,3.72101e-05,5.59036e-05,7.90257e-05,0.000107625,0.000143,0.000186756,0.000240877,0.000307819,0.000390621,0.000493038,0.000619717,0.000776408,0.000970218,0.00120994,0.00150646,0.00187322,0.00232687,0.00288798,0.00358203,0.0044405,0.00550234,0.00681573,0.00844026,0.0104497,0.0129351,0.0160093,0.0198118,0.0245151,0.0303327,inf	463.179,463.179,214.722,277.517,342.345,373.873,379.216,368.726,352.054,338.757,333.128,335.713,344.972,357.886,372.277,387.773,403.825,418.457,429.623,436.973,440.569,439.134,432.21,420.895,408.444,402.204,398.171,370.64,370.64,409.76,409.76,409.76
0.0013908	-18357620.66	0,9.87837e-06,2.20969e-05,3.72101e-05,5.59036e-05,7.90257e-05,0.000107625,0.000143,0.000186756,0.000240877,0.000307819,0.000390621,0.000493038,0.000619717,0.000776408,0.000970218,0.00120994,0.00150646,0.00187322,0.00232687,0.00288798,0.00358203,0.0044405,0.00550234,0.00681573,0.00844026,0.0104497,0.0129351,0.0160093,0.0198118,0.0245151,0.0303327,inf	463.312,463.312,208.425,274.804,342.568,375.085,380.631,370.006,353.208,340.067,334.826,337.885,347.453,360.273,374.178,388.993,404.303,418.171,428.655,435.573,439.027,437.61,430.698,419.263,406.697,400.713,396.944,368.745,368.745,411.415,411.415,411.415
0.00144073	-18356257.04	0,9.87837e-06,2.20969e-05,3.72101e-05,5.59036e-05,7.90257e-05,0.000107625,0.000143,0.000186756,0.000240877,0.000307819,0.000390621,0.000493038,0.000619717,0.000776408,0.000970218,0.00120994,0.00150646,0.00187322,0.00232687,0.00288798,0.00358203,0.0044405,0.00550234,0.00681573,0.00844026,0.0104497,0.0129351,0.0160093,0.0198118,0.0245151,0.0303327,inf	463.483,463.483,203.073,272.885,343.209,376.371,381.93,371.12,354.226,341.29,336.473,340.017,349.879,362.583,375.998,390.147,404.74,417.876,427.709,434.213,437.522,436.11,429.202,417.655,405.001,399.282,395.786,367.041,367.041,413.157,413.157,413.157
0.00148839	-18355062.39	0,9.87837e-06,2.20969e-05,3.72101e-05,5.59036e-05,7.90257e-05,0.000107625,0.000143,0.000186756,0.000240877,0.000307819,0.000390621,0.000493038,0.000619717,0.000776408,0.000970218,0.00120994,0.00150646,0.00187322,0.00232687,0.00288798,0.00358203,0.0044405,0.00550234,0.00681573,0.00844026,0.0104497,0.0129351,0.0160093,0.0198118,0.0245151,0.0303327,inf	463.574,463.574,198.497,271.638,344.225,377.742,383.159,372.112,355.141,342.44,338.066,342.097,352.233,364.801,377.724,391.228,405.137,417.576,426.795,432.907,436.07,434.653,427.741,416.087,403.363,397.915,394.697,365.506,365.506,414.972,414.972,414.972
0.00153391	-18354010.89	0,9.87837e-06,2.20969e-05,3.72101e-05,5.59036e-05,7.90257e-05,0.000107625,0.000143,0.000186756,0.000240877,0.000307819,0.000390621,0.000493038,0.000619717,0.000776408,0.000970218,0.00120994,0.00150646,0.00187322,0.00232687,0.00288798,0.00358203,0.0044405,0.00550234,0.00681573,0.00844026,0.0104497,0.0129351,0.0160093,0.0198118,0.0245151,0.0303327,inf	463.551,463.551,194.547,270.955,345.562,379.195,384.338,373.014,355.972,343.526,339.605,344.114,354.504,366.919,379.353,392.236,405.493,417.275,425.917,431.659,434.68,433.251,426.326,414.569,401.789,396.611,393.672,364.119,364.119,416.846,416.846,416.846
0.00157744	-18353081.51	0,9.87837e-06,2.20969e-05,3.72101e-05,5.59036e-05,7.90257e-05,0.000107625,0.000143,0.000186756,0.000240877,0.000307819,0.000390621,0.000493038,0.000619717,0.000776408,0.000970218,0.00120994,0.00150646,0.00187322,0.00232687,0.00288798,0.00358203,0.0044405,0.00550234,0.00681573,0.00844026,0.0104497,0.0129351,0.0160093,0.0198118,0.0245151,0.0303327,inf	463.389,463.389,191.108,270.745,347.17,380.714,385.481,373.844,356.739,344.558,341.091,346.066,356.688,368.934,380.885,393.171,405.812,416.975,425.076,430.472,433.357,431.908,424.965,413.106,400.279,395.37,392.709,362.864,362.864,418.769,418.769,418.769
0.00161909	-18352256.90	0,9.87837e-06,2.20969e-05,3.72101e-05,5.59036e-05,7.90257e-05,0.000107625,0.000143,0.000186756,0.000240877,0.000307819,0.000390621,0.000493038,0.000619717,0.000776408,0.000970218,0.00120994,0.00150646,0.00187322,0.00232687,0.00288798,0.00358203,0.0044405,0.00550234,0.00681573,0.00844026,0.0104497,0.0129351,0.0160093,0.0198118,0.0245151,0.0303327,inf	463.11,463.11,188.09,270.929,348.994,382.29,386.595,374.618,357.454,345.543,342.526,347.954,358.783,370.845,382.321,394.036,406.095,416.676,424.272,429.345,432.1,430.628,423.659,411.698,398.833,394.189,391.804,361.723,361.723,420.732,420.732,420.732
0.00165898	-18351522.71	0,9.87837e-06,2.20969e-05,3.72101e-05,5.59036e-05,7.90257e-05,0.000107625,0.000143,0.000186756,0.000240877,0.000307819,0.000390621,0.000493038,0.000619717,0.000776408,0.000970218,0.00120994,0.00150646,0.00187322,0.00232687,0.00288798,0.00358203,0.0044405,0.00550234,0.00681573,0.00844026,0.0104497,0.0129351,0.0160093,0.0198118,0.0245151,0.0303327,inf	462.711,462.711,185.416,271.437,350.994,383.903,387.684,375.347,358.127,346.486,343.913,349.775,360.791,372.657,383.666,394.836,406.344,416.38,423.505,428.278,430.91,429.411,422.41,410.348,397.45,393.066,390.952,360.685,360.685,422.728,422.728,422.728
0.00169722	-18350866.94	0,9.87837e-06,2.20969e-05,3.72101e-05,5.59036e-05,7.90257e-05,0.000107625,0.000143,0.000186756,0.000240877,0.000307819,0.000390621,0.000493038,0.000619717,0.000776408,0.000970218,0.00120994,0.00150646,0.00187322,0.00232687,0.00288798,0.00358203,0.0044405,0.00550234,0.00681573,0.00844026,0.0104497,0.0129351,0.0160093,0.0198118,0.0245151,0.0303327,inf	462.207,462.207,183.026,272.209,353.129,385.539,388.748,376.038,358.764,347.393,345.256,351.533,362.713,374.372,384.925,395.573,406.563,416.088,422.773,427.267,429.783,428.255,421.217,409.053,396.125,391.996,390.149,359.739,359.739,424.752,424.752,424.752
0.00173388	-18350279.48	0,9.87837e-06,2.20969e-05,3.72101e-05,5.59036e-05,7.90257e-05,0.000107625,0.000143,0.000186756,0.000240877,0.000307819,0.000390621,0.000493038,0.000619717,0.000776408,0.000970218,0.00120994,0.00150646,0.00187322,0.00232687,0.00288798,0.00358203,0.0044405,0.00550234,0.00681573,0.00844026,0.0104497,0.0129351,0.0160093,0.0198118,0.0245151,0.0303327,inf	461.63,461.63,180.876,273.196,355.366,387.186,389.787,376.697,359.373,348.268,346.555,353.23,364.553,375.996,386.101,396.252,406.754,415.8,422.075,426.31,428.718,427.158,420.079,407.812,394.858,390.977,389.393,358.874,358.874,426.799,426.799,426.799
0.00176907	-18349751.80	0,9.87837e-06,2.20969e-05,3.72101e-05,5.59036e-05,7.90257e-05,0.000107625,0.000143,0.000186756,0.000240877,0.000307819,0.000390621,0.000493038,0.000619717,0.000776408,0.000970218,0.00120994,0.00150646,0.00187322,0.00232687,0.00288798,0.00358203,0.0044405,0.00550234,0.00681573,0.00844026,0.0104497,0.0129351,0.0160093,0.0198118,0.0245151,0.0303327,inf	461,461,178.92,274.362,357.676,388.829,390.8,377.327,359.956,349.115,347.815,354.869,366.314,377.533,387.201,396.878,406.92,415.516,421.41,425.404,427.71,426.118,418.993,406.622,393.645,390.006,388.68,358.083,358.083,428.864,428.864,428.864
