time_index	left_time_boundary	right_time_boundary	lambda
0	0	2.65516e-06	604.667
1	2.65516e-06	6.10121e-06	604.667
2	6.10121e-06	1.05737e-05	586.502
3	1.05737e-05	1.63784e-05	362.436
4	1.63784e-05	2.39122e-05	271.724
5	2.39122e-05	3.36899e-05	288.418
6	3.36899e-05	4.63802e-05	317.405
7	4.63802e-05	6.28504e-05	348.074
8	6.28504e-05	8.42266e-05	375.686
9	8.42266e-05	0.00011197	391.464
10	0.00011197	0.000147977	383.282
11	0.000147977	0.00019471	360.44
12	0.00019471	0.000255362	344.426
13	0.000255362	0.000334081	343.341
14	0.000334081	0.000436247	351.93
15	0.000436247	0.000568846	364.272
16	0.000568846	0.00074094	377.186
17	0.00074094	0.000964296	388.686
18	0.000964296	0.00125418	398.937
19	0.00125418	0.00163042	407.894
20	0.00163042	0.00211872	415.285
21	0.00211872	0.00275246	421.319
22	0.00275246	0.00357498	424.658
23	0.00357498	0.0046425	423.066
24	0.0046425	0.006028	414.664
25	0.006028	0.00782619	400.267
26	0.00782619	0.01016	387.03
27	0.01016	0.013189	372.449
28	0.013189	0.0171202	372.449
29	0.0171202	0.0222223	370.166
30	0.0222223	0.0288443	370.166
31	0.0288443	inf	370.166
