time_index	left_time_boundary	right_time_boundary	lambda
0	0	1.17214e-06	31.4225
1	1.17214e-06	2.776e-06	31.4225
2	2.776e-06	4.97058e-06	31.4226
3	4.97058e-06	7.97345e-06	847.938
4	7.97345e-06	1.20823e-05	3635.01
5	1.20823e-05	1.77046e-05	4681.45
6	1.77046e-05	2.53976e-05	6657.9
7	2.53976e-05	3.5924e-05	19762.3
8	3.5924e-05	5.03275e-05	4472.91
9	5.03275e-05	7.0036e-05	3420.07
10	7.0036e-05	9.70035e-05	4244.49
11	9.70035e-05	0.000133903	111401
12	0.000133903	0.000184394	31.4226
13	0.000184394	0.000253482	31.4224
14	0.000253482	0.000348015	31.4224
15	0.000348015	inf	31.4224
