1.00822e-05	-330136.12	0,5.71269e-08,1.5625e-07,3.28244e-07,6.26677e-07,1.1445e-06,2.043e-06,3.60203e-06,6.30716e-06,1.1001e-05,1.91454e-05,3.32771e-05,5.77977e-05,0.000100345,0.000174169,0.000302266,inf	406.186,406.186,793.803,1418.48,2465.3,4156.87,6769.12,10807.2,17357.4,27558.5,40947.5,45579.6,43428.9,58158.9,58158.9,58158.9
1.10462e-05	-329842.32	0,5.71269e-08,1.5625e-07,3.28244e-07,6.26677e-07,1.1445e-06,2.043e-06,3.60203e-06,6.30716e-06,1.1001e-05,1.91454e-05,3.32771e-05,5.77977e-05,0.000100345,0.000174169,0.000302266,inf	28.5972,28.5972,35.0414,114.77,351.432,993.166,2541.72,5959.64,13086.4,25302.5,43436.9,56695.2,63022,210198,210198,210198
1.10462e-05	-329860.69	0,5.71269e-08,1.5625e-07,3.28244e-07,6.26677e-07,1.1445e-06,2.043e-06,3.60203e-06,6.30716e-06,1.1001e-05,1.91454e-05,3.32771e-05,5.77977e-05,0.000100345,0.000174169,0.000302266,inf	28.597,28.597,28.597,28.5969,67.3393,316.252,1237.39,4044.76,11204.6,23895,41985,63594.3,102888,3.54441e+06,3.54441e+06,3.54441e+06
