time_index	left_time_boundary	right_time_boundary	lambda
0	0	4.46795e-05	469.392
1	4.46795e-05	0.000105815	469.392
2	0.000105815	0.000189468	434.422
3	0.000189468	0.000303932	525.898
4	0.000303932	0.000460554	251.837
5	0.000460554	0.000674862	1075.17
6	0.000674862	0.000968103	854.866
7	0.000968103	0.00136935	548.872
8	0.00136935	0.00191838	1388.32
9	0.00191838	0.00266963	1729.96
10	0.00266963	0.00369757	1018.25
11	0.00369757	0.00510412	540.794
12	0.00510412	0.00702873	369.382
13	0.00702873	0.00966219	391.859
14	0.00966219	0.0132656	391.859
15	0.0132656	inf	391.859
