time_index	left_time_boundary	right_time_boundary	lambda
0	0	4.15333e-06	225.528
1	4.15333e-06	1.136e-05	225.528
2	1.136e-05	2.38645e-05	813.177
3	2.38645e-05	4.55616e-05	171.363
4	4.55616e-05	8.32093e-05	406.518
5	8.32093e-05	0.000148533	395.949
6	0.000148533	0.00026188	295.881
7	0.00026188	0.000458553	288.652
8	0.000458553	0.000799809	334.539
9	0.000799809	0.00139194	376.613
10	0.00139194	0.00241937	391.062
11	0.00241937	0.0042021	416.659
12	0.0042021	0.0072954	449.187
13	0.0072954	0.0126627	358.88
14	0.0126627	0.0219758	358.88
15	0.0219758	inf	358.88
