time_index	left_time_boundary	right_time_boundary	lambda
0	0	4.14678e-05	530.693
1	4.14678e-05	8.99748e-05	530.693
2	8.99748e-05	0.000146716	891.988
3	0.000146716	0.000213089	192.027
4	0.000213089	0.000290728	240.386
5	0.000290728	0.000381547	306.365
6	0.000381547	0.000487783	290.115
7	0.000487783	0.000612052	289.16
8	0.000612052	0.000757415	303.727
9	0.000757415	0.000927454	343.725
10	0.000927454	0.00112636	391.457
11	0.00112636	0.00135902	415.926
12	0.00135902	0.00163119	416.396
13	0.00163119	0.00194955	414.758
14	0.00194955	0.00232195	422.141
15	0.00232195	0.00275757	428.924
16	0.00275757	0.00326714	422.706
17	0.00326714	0.0038632	410.665
18	0.0038632	0.00456044	408.027
19	0.00456044	0.00537605	418.849
20	0.00537605	0.0063301	438.143
21	0.0063301	0.0074461	453.777
22	0.0074461	0.00875154	450.515
23	0.00875154	0.0102786	450.644
24	0.0102786	0.0120648	507.035
25	0.0120648	0.0141543	584.537
26	0.0141543	0.0165985	396.378
27	0.0165985	0.0194575	111.142
28	0.0194575	0.0228019	111.142
29	0.0228019	0.026714	76.4606
30	0.026714	0.0312902	76.4606
31	0.0312902	inf	76.4606
