0.000688779	-13634915.83	0,4.05547e-06,1.10923e-05,2.33022e-05,4.44882e-05,8.12488e-05,0.000145034,0.00025571,0.000447749,0.000780965,0.00135914,0.00236236,0.00410309,0.00712352,0.0123644,0.021458,inf	732.85,732.85,562.541,436.332,370.819,354.334,343.715,345.699,355.91,383.892,420.827,435.219,420.243,399.433,399.433,399.433
0.000748548	-13631965.38	0,4.05547e-06,1.10923e-05,2.33022e-05,4.44882e-05,8.12488e-05,0.000145034,0.00025571,0.000447749,0.000780965,0.00135914,0.00236236,0.00410309,0.00712352,0.0123644,0.021458,inf	900.197,900.197,647.59,463.558,366.058,347.925,329.924,329.537,338.685,375.512,427.663,450.102,427.925,393.067,393.067,393.067
0.000801824	-13630163.15	0,4.05547e-06,1.10923e-05,2.33022e-05,4.44882e-05,8.12488e-05,0.000145034,0.00025571,0.000447749,0.000780965,0.00135914,0.00236236,0.00410309,0.00712352,0.0123644,0.021458,inf	944.084,944.084,677.027,474.704,362.047,349.593,327.933,325.948,331.807,371.588,430.129,456.647,430.964,386.329,386.329,386.329
0.000850117	-13628845.22	0,4.05547e-06,1.10923e-05,2.33022e-05,4.44882e-05,8.12488e-05,0.000145034,0.00025571,0.000447749,0.000780965,0.00135914,0.00236236,0.00410309,0.00712352,0.0123644,0.021458,inf	939.282,939.282,679.658,476.074,355.7,351.768,329.013,326.757,329.228,369.921,430.896,459.158,431.839,380.16,380.16,380.16
0.0008944	-13627815.78	0,4.05547e-06,1.10923e-05,2.33022e-05,4.44882e-05,8.12488e-05,0.000145034,0.00025571,0.000447749,0.000780965,0.00135914,0.00236236,0.00410309,0.00712352,0.0123644,0.021458,inf	923.173,923.173,672.367,473.37,347.935,352.969,330.576,329.093,328.589,369.486,431.009,459.651,431.72,374.806,374.806,374.806
0.000935314	-13626988.74	0,4.05547e-06,1.10923e-05,2.33022e-05,4.44882e-05,8.12488e-05,0.000145034,0.00025571,0.000447749,0.000780965,0.00135914,0.00236236,0.00410309,0.00712352,0.0123644,0.021458,inf	908.052,908.052,662.493,469.727,339.857,353.246,331.909,331.863,328.85,369.741,430.88,459.107,431.165,370.248,370.248,370.248
0.000973305	-13626313.94	0,4.05547e-06,1.10923e-05,2.33022e-05,4.44882e-05,8.12488e-05,0.000145034,0.00025571,0.000447749,0.000780965,0.00135914,0.00236236,0.00410309,0.00712352,0.0123644,0.021458,inf	896.308,896.308,652.584,466.489,332.147,352.935,332.894,334.644,329.521,370.383,430.675,458.018,430.44,366.388,366.388,366.388
0.00100871	-13625757.55	0,4.05547e-06,1.10923e-05,2.33022e-05,4.44882e-05,8.12488e-05,0.000145034,0.00025571,0.000447749,0.000780965,0.00135914,0.00236236,0.00410309,0.00712352,0.0123644,0.021458,inf	887.441,887.441,643.359,464.095,325.118,352.334,333.585,337.28,330.359,371.24,430.456,456.645,429.673,363.111,363.111,363.111
0.00104179	-13625295.07	0,4.05547e-06,1.10923e-05,2.33022e-05,4.44882e-05,8.12488e-05,0.000145034,0.00025571,0.000447749,0.000780965,0.00135914,0.00236236,0.00410309,0.00712352,0.0123644,0.021458,inf	880.527,880.527,634.836,462.583,318.866,351.645,334.072,339.727,331.24,372.206,430.251,455.13,428.925,360.314,360.314,360.314
0.00107275	-13624908.09	0,4.05547e-06,1.10923e-05,2.33022e-05,4.44882e-05,8.12488e-05,0.000145034,0.00025571,0.000447749,0.000780965,0.00135914,0.00236236,0.00410309,0.00712352,0.0123644,0.021458,inf	874.901,874.901,626.836,461.824,313.376,350.986,334.428,341.981,332.104,373.222,430.067,453.554,428.224,357.908,357.908,357.908
0.0011018	-13624582.50	0,4.05547e-06,1.10923e-05,2.33022e-05,4.44882e-05,8.12488e-05,0.000145034,0.00025571,0.000447749,0.000780965,0.00135914,0.00236236,0.00410309,0.00712352,0.0123644,0.021458,inf	870.087,870.087,619.281,461.659,308.574,350.416,334.712,344.056,332.917,374.249,429.907,451.963,427.58,355.822,355.822,355.822
0.00112907	-13624307.27	0,4.05547e-06,1.10923e-05,2.33022e-05,4.44882e-05,8.12488e-05,0.000145034,0.00025571,0.000447749,0.000780965,0.00135914,0.00236236,0.00410309,0.00712352,0.0123644,0.021458,inf	865.871,865.871,612.056,461.938,304.379,349.96,334.962,345.969,333.667,375.265,429.77,450.386,426.996,353.998,353.998,353.998
0.00115472	-13624073.65	0,4.05547e-06,1.10923e-05,2.33022e-05,4.44882e-05,8.12488e-05,0.000145034,0.00025571,0.000447749,0.000780965,0.00135914,0.00236236,0.00410309,0.00712352,0.0123644,0.021458,inf	862.175,862.175,605.093,462.531,300.705,349.622,335.204,347.74,334.347,376.258,429.655,448.838,426.472,352.391,352.391,352.391
0.00117886	-13623874.67	0,4.05547e-06,1.10923e-05,2.33022e-05,4.44882e-05,8.12488e-05,0.000145034,0.00025571,0.000447749,0.000780965,0.00135914,0.00236236,0.00410309,0.00712352,0.0123644,0.021458,inf	858.873,858.873,598.399,463.346,297.478,349.395,335.452,349.383,334.959,377.22,429.56,447.331,426.003,350.963,350.963,350.963
0.00120161	-13623704.70	0,4.05547e-06,1.10923e-05,2.33022e-05,4.44882e-05,8.12488e-05,0.000145034,0.00025571,0.000447749,0.000780965,0.00135914,0.00236236,0.00410309,0.00712352,0.0123644,0.021458,inf	855.956,855.956,591.93,464.278,294.629,349.264,335.716,350.914,335.504,378.146,429.484,445.868,425.588,349.686,349.686,349.686
0.00122306	-13623559.13	0,4.05547e-06,1.10923e-05,2.33022e-05,4.44882e-05,8.12488e-05,0.000145034,0.00025571,0.000447749,0.000780965,0.00135914,0.00236236,0.00410309,0.00712352,0.0123644,0.021458,inf	853.387,853.387,585.653,465.303,292.103,349.217,335.999,352.343,335.986,379.036,429.425,444.453,425.221,348.536,348.536,348.536
0.00124331	-13623434.21	0,4.05547e-06,1.10923e-05,2.33022e-05,4.44882e-05,8.12488e-05,0.000145034,0.00025571,0.000447749,0.000780965,0.00135914,0.00236236,0.00410309,0.00712352,0.0123644,0.021458,inf	851.169,851.169,579.658,466.362,289.856,349.239,336.304,353.682,336.408,379.888,429.382,443.086,424.899,347.492,347.492,347.492
0.00126244	-13623326.82	0,4.05547e-06,1.10923e-05,2.33022e-05,4.44882e-05,8.12488e-05,0.000145034,0.00025571,0.000447749,0.000780965,0.00135914,0.00236236,0.00410309,0.00712352,0.0123644,0.021458,inf	849.245,849.245,573.887,467.427,287.845,349.316,336.629,354.94,336.776,380.704,429.354,441.768,424.618,346.541,346.541,346.541
0.00128052	-13623234.37	0,4.05547e-06,1.10923e-05,2.33022e-05,4.44882e-05,8.12488e-05,0.000145034,0.00025571,0.000447749,0.000780965,0.00135914,0.00236236,0.00410309,0.00712352,0.0123644,0.021458,inf	847.576,847.576,568.357,468.48,286.037,349.435,336.972,356.124,337.093,381.484,429.339,440.497,424.375,345.669,345.669,345.669
0.00129762	-13623154.71	0,4.05547e-06,1.10923e-05,2.33022e-05,4.44882e-05,8.12488e-05,0.000145034,0.00025571,0.000447749,0.000780965,0.00135914,0.00236236,0.00410309,0.00712352,0.0123644,0.021458,inf	846.141,846.141,563.107,469.509,284.407,349.588,337.334,357.241,337.364,382.229,429.336,439.273,424.167,344.865,344.865,344.865
