time_index	left_time_boundary	right_time_boundary	lambda
0	0	8.99748e-05	527.867
1	8.99748e-05	0.000213089	527.867
2	0.000213089	0.000381547	252.883
3	0.000381547	0.000612052	277.322
4	0.000612052	0.000927454	327.576
5	0.000927454	0.00135902	413.475
6	0.00135902	0.00194955	415.008
7	0.00194955	0.00275757	434.584
8	0.00275757	0.0038632	415.985
9	0.0038632	0.00537605	378.512
10	0.00537605	0.0074461	397.656
11	0.0074461	0.0102786	397.576
12	0.0102786	0.0141543	1200.88
13	0.0141543	0.0194575	13.2576
14	0.0194575	0.026714	13.2576
15	0.026714	inf	13.2576
