time_index	left_time_boundary	right_time_boundary	lambda
0	0	9.74556e-06	3206.96
1	9.74556e-06	2.17999e-05	3206.96
2	2.17999e-05	3.67098e-05	38.4716
3	3.67098e-05	5.5152e-05	46.914
4	5.5152e-05	7.79632e-05	125.447
5	7.79632e-05	0.000106178	365.987
6	0.000106178	0.000141078	515.248
7	0.000141078	0.000184245	414.912
8	0.000184245	0.000237638	311.166
9	0.000237638	0.000303681	288.212
10	0.000303681	0.000385369	318.671
11	0.000385369	0.000486409	328.158
12	0.000486409	0.000611385	325.217
13	0.000611385	0.000765969	328.203
14	0.000765969	0.000957174	345.139
15	0.000957174	0.00119368	363.914
16	0.00119368	0.0014862	378.119
17	0.0014862	0.00184803	405.042
18	0.00184803	0.00229558	435.474
19	0.00229558	0.00284916	446.195
20	0.00284916	0.00353387	429.172
21	0.00353387	0.0043808	396.569
22	0.0043808	0.00542836	402.788
23	0.00542836	0.00672409	455.52
24	0.00672409	0.00832678	490.645
25	0.00832678	0.0103092	491.041
26	0.0103092	0.0127612	445.427
27	0.0127612	0.015794	327.058
28	0.015794	0.0195454	327.058
29	0.0195454	0.0241855	69326.5
30	0.0241855	0.0299248	69326.5
31	0.0299248	inf	69326.5
