0.000684167	-8452480.21	0,6.04613e-06,1.62306e-05,3.33858e-05,6.2283e-05,0.000110959,0.000192952,0.000331065,0.00056371,0.000955591,0.0016157,0.00272762,0.00460059,0.00775554,0.0130699,0.0220217,inf	963.333,963.333,507.817,384.863,354.44,353.873,349.03,351.442,367.369,396.094,429.653,426.869,417.338,402.95,402.95,402.95
0.000742624	-8450732.83	0,6.04613e-06,1.62306e-05,3.33858e-05,6.2283e-05,0.000110959,0.000192952,0.000331065,0.00056371,0.000955591,0.0016157,0.00272762,0.00460059,0.00775554,0.0130699,0.0220217,inf	1278.06,1278.06,543.711,376.063,342.762,346.007,335.689,334.095,353.074,391.826,442.059,435.912,422.859,398.384,398.384,398.384
0.000795143	-8449625.79	0,6.04613e-06,1.62306e-05,3.33858e-05,6.2283e-05,0.000110959,0.000192952,0.000331065,0.00056371,0.000955591,0.0016157,0.00272762,0.00460059,0.00775554,0.0130699,0.0220217,inf	1393.64,1393.64,545.429,365.464,338.652,348.025,334.234,328.186,346.984,389.265,448.499,438.604,424.794,392.86,392.86,392.86
0.000842989	-8448804.83	0,6.04613e-06,1.62306e-05,3.33858e-05,6.2283e-05,0.000110959,0.000192952,0.000331065,0.00056371,0.000955591,0.0016157,0.00272762,0.00460059,0.00775554,0.0130699,0.0220217,inf	1419.74,1419.74,535.255,353.714,335.668,351.707,336.373,326.603,344.523,387.714,452.14,438.343,425.09,387.361,387.361,387.361
0.000887012	-8448160.14	0,6.04613e-06,1.62306e-05,3.33858e-05,6.2283e-05,0.000110959,0.000192952,0.000331065,0.00056371,0.000955591,0.0016157,0.00272762,0.00460059,0.00775554,0.0130699,0.0220217,inf	1414.21,1414.21,523.035,342.252,332.62,354.863,339.407,326.756,343.844,386.803,454.4,436.72,424.676,382.256,382.256,382.256
0.00092779	-8447641.02	0,6.04613e-06,1.62306e-05,3.33858e-05,6.2283e-05,0.000110959,0.000192952,0.000331065,0.00056371,0.000955591,0.0016157,0.00272762,0.00460059,0.00775554,0.0130699,0.0220217,inf	1399.47,1399.47,512.243,331.852,329.555,357.09,342.445,327.596,344.094,386.299,455.932,434.491,423.994,377.651,377.651,377.651
0.000965735	-8447217.04	0,6.04613e-06,1.62306e-05,3.33858e-05,6.2283e-05,0.000110959,0.000192952,0.000331065,0.00056371,0.000955591,0.0016157,0.00272762,0.00460059,0.00775554,0.0130699,0.0220217,inf	1383.04,1383.04,503.713,322.766,326.704,358.501,345.228,328.674,344.842,386.048,457.05,432.023,423.251,373.543,373.543,373.543
0.00100116	-8446867.34	0,6.04613e-06,1.62306e-05,3.33858e-05,6.2283e-05,0.000110959,0.000192952,0.000331065,0.00056371,0.000955591,0.0016157,0.00272762,0.00460059,0.00775554,0.0130699,0.0220217,inf	1366.72,1366.72,497.294,314.954,324.236,359.308,347.719,329.794,345.854,385.954,457.915,429.497,422.544,369.888,369.888,369.888
0.00103431	-8446576.68	0,6.04613e-06,1.62306e-05,3.33858e-05,6.2283e-05,0.000110959,0.000192952,0.000331065,0.00056371,0.000955591,0.0016157,0.00272762,0.00460059,0.00775554,0.0130699,0.0220217,inf	1351.07,1351.07,492.588,308.263,322.238,359.701,349.952,330.87,347.002,385.953,458.611,427.002,421.912,366.632,366.632,366.632
0.00106539	-8446333.58	0,6.04613e-06,1.62306e-05,3.33858e-05,6.2283e-05,0.000110959,0.000192952,0.000331065,0.00056371,0.000955591,0.0016157,0.00272762,0.00460059,0.00775554,0.0130699,0.0220217,inf	1336.1,1336.1,489.219,302.512,320.726,359.821,351.972,331.866,348.21,386.006,459.191,424.582,421.37,363.72,363.72,363.72
0.00109459	-8446129.19	0,6.04613e-06,1.62306e-05,3.33858e-05,6.2283e-05,0.000110959,0.000192952,0.000331065,0.00056371,0.000955591,0.0016157,0.00272762,0.00460059,0.00775554,0.0130699,0.0220217,inf	1321.76,1321.76,486.845,297.525,319.674,359.767,353.824,332.77,349.435,386.087,459.685,422.257,420.918,361.105,361.105,361.105
0.00112204	-8445956.58	0,6.04613e-06,1.62306e-05,3.33858e-05,6.2283e-05,0.000110959,0.000192952,0.000331065,0.00056371,0.000955591,0.0016157,0.00272762,0.00460059,0.00775554,0.0130699,0.0220217,inf	1308,1308,485.194,293.153,319.043,359.604,355.543,333.581,350.65,386.181,460.115,420.033,420.552,358.745,358.745,358.745
0.0011479	-8445810.26	0,6.04613e-06,1.62306e-05,3.33858e-05,6.2283e-05,0.000110959,0.000192952,0.000331065,0.00056371,0.000955591,0.0016157,0.00272762,0.00460059,0.00775554,0.0130699,0.0220217,inf	1294.92,1294.92,484.063,289.267,318.783,359.376,357.155,334.303,351.841,386.279,460.495,417.911,420.265,356.605,356.605,356.605
0.00117227	-8445685.82	0,6.04613e-06,1.62306e-05,3.33858e-05,6.2283e-05,0.000110959,0.000192952,0.000331065,0.00056371,0.000955591,0.0016157,0.00272762,0.00460059,0.00775554,0.0130699,0.0220217,inf	1282.56,1282.56,483.314,285.761,318.838,359.106,358.682,334.941,352.999,386.373,460.835,415.888,420.048,354.655,354.655,354.655
0.00119526	-8445579.71	0,6.04613e-06,1.62306e-05,3.33858e-05,6.2283e-05,0.000110959,0.000192952,0.000331065,0.00056371,0.000955591,0.0016157,0.00272762,0.00460059,0.00775554,0.0130699,0.0220217,inf	1270.88,1270.88,482.799,282.557,319.161,358.81,360.137,335.502,354.118,386.461,461.144,413.96,419.895,352.871,352.871,352.871
0.00121697	-8445489.04	0,6.04613e-06,1.62306e-05,3.33858e-05,6.2283e-05,0.000110959,0.000192952,0.000331065,0.00056371,0.000955591,0.0016157,0.00272762,0.00460059,0.00775554,0.0130699,0.0220217,inf	1259.95,1259.95,482.474,279.594,319.711,358.499,361.534,335.992,355.198,386.541,461.428,412.122,419.797,351.232,351.232,351.232
0.00123749	-8445411.40	0,6.04613e-06,1.62306e-05,3.33858e-05,6.2283e-05,0.000110959,0.000192952,0.000331065,0.00056371,0.000955591,0.0016157,0.00272762,0.00460059,0.00775554,0.0130699,0.0220217,inf	1249.69,1249.69,482.284,276.822,320.45,358.177,362.88,336.416,356.237,386.612,461.692,410.368,419.748,349.719,349.719,349.719
0.0012569	-8445344.85	0,6.04613e-06,1.62306e-05,3.33858e-05,6.2283e-05,0.000110959,0.000192952,0.000331065,0.00056371,0.000955591,0.0016157,0.00272762,0.00460059,0.00775554,0.0130699,0.0220217,inf	1240.16,1240.16,482.167,274.204,321.35,357.849,364.182,336.78,357.236,386.672,461.941,408.692,419.743,348.319,348.319,348.319
0.00127526	-8445287.74	0,6.04613e-06,1.62306e-05,3.33858e-05,6.2283e-05,0.000110959,0.000192952,0.000331065,0.00056371,0.000955591,0.0016157,0.00272762,0.00460059,0.00775554,0.0130699,0.0220217,inf	1231.27,1231.27,482.11,271.711,322.378,357.514,365.444,337.09,358.195,386.723,462.177,407.091,419.777,347.018,347.018,347.018
0.00129265	-8445238.70	0,6.04613e-06,1.62306e-05,3.33858e-05,6.2283e-05,0.000110959,0.000192952,0.000331065,0.00056371,0.000955591,0.0016157,0.00272762,0.00460059,0.00775554,0.0130699,0.0220217,inf	1222.99,1222.99,482.087,269.323,323.514,357.176,366.672,337.349,359.117,386.764,462.403,405.558,419.844,345.805,345.805,345.805
