time_index	left_time_boundary	right_time_boundary	lambda
0	0	1.75988e-06	0.400611
1	1.75988e-06	4.07809e-06	0.400611
2	4.07809e-06	7.13173e-06	114.473
3	7.13173e-06	1.11542e-05	258.236
4	1.11542e-05	1.64527e-05	93.4276
5	1.64527e-05	2.34321e-05	111.264
6	2.34321e-05	3.26258e-05	222.28
7	3.26258e-05	4.47362e-05	319.329
8	4.47362e-05	6.06886e-05	316.507
9	6.06886e-05	8.17019e-05	260.72
10	8.17019e-05	0.000109382	214.222
11	0.000109382	0.000145843	204.151
12	0.000145843	0.000193871	221.854
13	0.000193871	0.000257136	239.972
14	0.000257136	0.000340472	242.467
15	0.000340472	0.000450246	228.173
16	0.000450246	0.000594846	215.412
17	0.000594846	0.00078532	220.935
18	0.00078532	0.00103622	253.125
19	0.00103622	0.00136672	319.89
20	0.00136672	0.00180207	429.902
21	0.00180207	0.00237554	571.97
22	0.00237554	0.00313093	640.775
23	0.00313093	0.00412597	587.781
24	0.00412597	0.00543669	533.24
25	0.00543669	0.00716324	517.168
26	0.00716324	0.00943752	461.798
27	0.00943752	0.0124333	322.374
28	0.0124333	0.0163795	322.374
29	0.0163795	0.0215777	493.583
30	0.0215777	0.0284249	493.583
31	0.0284249	inf	493.583
