0.000687471	-302806.10	0,8.98387e-05,0.000212766,0.00038097,0.000611126,0.000926051,0.00135697,0.0019466,0.0027534,0.00385735,0.00536791,0.00743484,0.010263,0.0141329,0.0194281,0.0266736,inf	267.966,267.966,273,292.611,322.517,374.003,447.506,508.529,505.631,470.404,449.914,453.726,459.676,426.431,426.431,426.431
0.000761823	-302585.07	0,8.98387e-05,0.000212766,0.00038097,0.000611126,0.000926051,0.00135697,0.0019466,0.0027534,0.00385735,0.00536791,0.00743484,0.010263,0.0141329,0.0194281,0.0266736,inf	242.221,242.221,234.152,251.644,284.607,350.22,456.786,562.097,563.744,503.978,471.365,486.825,502.769,425.534,425.534,425.534
0.00083079	-302483.44	0,8.98387e-05,0.000212766,0.00038097,0.000611126,0.000926051,0.00135697,0.0019466,0.0027534,0.00385735,0.00536791,0.00743484,0.010263,0.0141329,0.0194281,0.0266736,inf	242.259,242.259,222.411,234.948,265.379,334.327,456.684,591.582,598.262,520.738,481.332,512.886,540.719,413.888,413.888,413.888
0.000895217	-302419.55	0,8.98387e-05,0.000212766,0.00038097,0.000611126,0.000926051,0.00135697,0.0019466,0.0027534,0.00385735,0.00536791,0.00743484,0.010263,0.0141329,0.0194281,0.0266736,inf	247.628,247.628,220.318,228.322,255.044,323.543,453.748,608.423,618.663,527.549,484.571,534.525,574.927,397.022,397.022,397.022
0.000956048	-302371.59	0,8.98387e-05,0.000212766,0.00038097,0.000611126,0.000926051,0.00135697,0.0019466,0.0027534,0.00385735,0.00536791,0.00743484,0.010263,0.0141329,0.0194281,0.0266736,inf	252.296,252.296,221.949,226.488,249.487,316.106,450.243,618.44,630.567,528.546,483.936,553.386,606.395,378.35,378.35,378.35
0.00101399	-302332.20	0,8.98387e-05,0.000212766,0.00038097,0.000611126,0.000926051,0.00135697,0.0019466,0.0027534,0.00385735,0.00536791,0.00743484,0.010263,0.0141329,0.0194281,0.0266736,inf	254.805,254.805,224.99,227.133,246.697,310.91,446.936,624.641,637.251,526.159,481.09,570.478,635.776,359.695,359.695,359.695
0.00106954	-302298.36	0,8.98387e-05,0.000212766,0.00038097,0.000611126,0.000926051,0.00135697,0.0019466,0.0027534,0.00385735,0.00536791,0.00743484,0.010263,0.0141329,0.0194281,0.0266736,inf	255.271,255.271,228.473,229.116,245.587,307.246,444.053,628.633,640.655,521.817,477.005,586.428,663.482,341.936,341.936,341.936
0.00112304	-302268.56	0,8.98387e-05,0.000212766,0.00038097,0.000611126,0.000926051,0.00135697,0.0019466,0.0027534,0.00385735,0.00536791,0.00743484,0.010263,0.0141329,0.0194281,0.0266736,inf	254.247,254.247,231.978,231.827,245.523,304.647,441.619,631.304,641.954,516.371,472.251,601.631,689.765,325.439,325.439,325.439
0.00117474	-302241.93	0,8.98387e-05,0.000212766,0.00038097,0.000611126,0.000926051,0.00135697,0.0019466,0.0027534,0.00385735,0.00536791,0.00743484,0.010263,0.0141329,0.0194281,0.0266736,inf	252.294,252.294,235.325,234.915,246.116,302.798,439.595,633.167,641.879,510.332,467.168,616.349,714.769,310.319,310.319,310.319
0.00122482	-302217.93	0,8.98387e-05,0.000212766,0.00038097,0.000611126,0.000926051,0.00135697,0.0019466,0.0027534,0.00385735,0.00536791,0.00743484,0.010263,0.0141329,0.0194281,0.0266736,inf	249.854,249.854,238.443,238.171,247.118,301.484,437.923,634.523,640.893,504.011,461.958,630.754,738.57,296.561,296.561,296.561
0.00127342	-302196.16	0,8.98387e-05,0.000212766,0.00038097,0.000611126,0.000926051,0.00135697,0.0019466,0.0027534,0.00385735,0.00536791,0.00743484,0.010263,0.0141329,0.0194281,0.0266736,inf	247.242,247.242,241.308,241.465,248.366,300.555,436.547,635.559,639.302,497.597,456.743,644.971,761.201,284.091,284.091,284.091
0.00132065	-302176.30	0,8.98387e-05,0.000212766,0.00038097,0.000611126,0.000926051,0.00135697,0.0019466,0.0027534,0.00385735,0.00536791,0.00743484,0.010263,0.0141329,0.0194281,0.0266736,inf	244.661,244.661,243.925,244.719,249.755,299.909,435.418,636.39,637.304,491.206,451.593,659.091,782.659,272.817,272.817,272.817
0.00136658	-302158.12	0,8.98387e-05,0.000212766,0.00038097,0.000611126,0.000926051,0.00135697,0.0019466,0.0027534,0.00385735,0.00536791,0.00743484,0.010263,0.0141329,0.0194281,0.0266736,inf	242.234,242.234,246.307,247.888,251.215,299.469,434.495,637.091,635.037,484.909,446.551,673.182,802.923,262.637,262.637,262.637
0.0014113	-302141.42	0,8.98387e-05,0.000212766,0.00038097,0.000611126,0.000926051,0.00135697,0.0019466,0.0027534,0.00385735,0.00536791,0.00743484,0.010263,0.0141329,0.0194281,0.0266736,inf	240.033,240.033,248.474,250.944,252.699,299.183,433.746,637.709,632.593,478.745,441.64,687.302,821.954,253.451,253.451,253.451
0.00145487	-302126.04	0,8.98387e-05,0.000212766,0.00038097,0.000611126,0.000926051,0.00135697,0.0019466,0.0027534,0.00385735,0.00536791,0.00743484,0.010263,0.0141329,0.0194281,0.0266736,inf	238.089,238.089,250.447,253.873,254.176,299.013,433.144,638.278,630.036,472.738,436.871,701.496,839.703,245.168,245.168,245.168
0.00149733	-302111.84	0,8.98387e-05,0.000212766,0.00038097,0.000611126,0.000926051,0.00135697,0.0019466,0.0027534,0.00385735,0.00536791,0.00743484,0.010263,0.0141329,0.0194281,0.0266736,inf	236.41,236.41,252.245,256.67,255.627,298.929,432.667,638.817,627.412,466.899,432.248,715.807,856.11,237.699,237.699,237.699
0.00153875	-302098.69	0,8.98387e-05,0.000212766,0.00038097,0.000611126,0.000926051,0.00135697,0.0019466,0.0027534,0.00385735,0.00536791,0.00743484,0.010263,0.0141329,0.0194281,0.0266736,inf	234.991,234.991,253.888,259.335,257.038,298.912,432.297,639.343,624.753,461.232,427.772,730.272,871.11,230.967,230.967,230.967
0.00157915	-302086.50	0,8.98387e-05,0.000212766,0.00038097,0.000611126,0.000926051,0.00135697,0.0019466,0.0027534,0.00385735,0.00536791,0.00743484,0.010263,0.0141329,0.0194281,0.0266736,inf	233.82,233.82,255.394,261.87,258.402,298.944,432.02,639.863,622.08,455.736,423.439,744.925,884.634,224.898,224.898,224.898
0.00161859	-302075.17	0,8.98387e-05,0.000212766,0.00038097,0.000611126,0.000926051,0.00135697,0.0019466,0.0027534,0.00385735,0.00536791,0.00743484,0.010263,0.0141329,0.0194281,0.0266736,inf	232.876,232.876,256.777,264.281,259.714,299.015,431.823,640.384,619.409,450.406,419.245,759.803,896.61,219.426,219.426,219.426
0.00165709	-302064.62	0,8.98387e-05,0.000212766,0.00038097,0.000611126,0.000926051,0.00135697,0.0019466,0.0027534,0.00385735,0.00536791,0.00743484,0.010263,0.0141329,0.0194281,0.0266736,inf	232.14,232.14,258.052,266.574,260.972,299.114,431.697,640.911,616.752,445.239,415.184,774.938,906.964,214.491,214.491,214.491
