time_index	left_time_boundary	right_time_boundary	lambda
0	0	1.508e-06	995.866
1	1.508e-06	4.12459e-06	995.866
2	4.12459e-06	8.66476e-06	23.4378
3	8.66476e-06	1.65426e-05	2.62106
4	1.65426e-05	3.02118e-05	105.359
5	3.02118e-05	5.39298e-05	6.96096
6	5.39298e-05	9.5084e-05	169.285
7	9.5084e-05	0.000166492	194.596
8	0.000166492	0.000290396	226.941
9	0.000290396	0.000505387	328.435
10	0.000505387	0.000878428	1019.01
11	0.000878428	0.00152571	2674.02
12	0.00152571	0.00264883	2961.45
13	0.00264883	0.00459761	135055
14	0.00459761	0.00797902	135055
15	0.00797902	inf	135055
