LogLikelihood = -1447208.5601960178465

y0 0.88724065413733033125
y0_prime 0
y1 1.0198658770385193861
y1_prime 0
y2 0.83647812279597377749
y2_prime 0
y3 1.7016427988772373503
y3_prime 0
rho 0.001463258483035847048
rho.alpha 0.60641164033515404519
r_ii 0.99991320541403472255
theta 0.0047864354196221047671
