0.000418776	-11107473.18	0,3.32991e-06,9.10777e-06,1.91332e-05,3.65288e-05,6.67126e-05,0.000119086,0.000209961,0.000367642,0.000641242,0.00111598,0.00193971,0.00336901,0.00584905,0.0101523,0.017619,inf	2784.55,2784.55,690.012,409.565,362.411,370.155,403.877,452.31,455.386,444.541,430.518,423.495,426.806,484.727,484.727,484.727
0.000356172	-11101741.24	0,3.32991e-06,9.10777e-06,1.91332e-05,3.65288e-05,6.67126e-05,0.000119086,0.000209961,0.000367642,0.000641242,0.00111598,0.00193971,0.00336901,0.00584905,0.0101523,0.017619,inf	3717.7,3717.7,871.918,432.205,355.837,350.017,375.343,448.498,453.524,437.071,412.409,399.893,398.025,499.304,499.304,499.304
0.000308377	-11098631.11	0,3.32991e-06,9.10777e-06,1.91332e-05,3.65288e-05,6.67126e-05,0.000119086,0.000209961,0.000367642,0.000641242,0.00111598,0.00193971,0.00336901,0.00584905,0.0101523,0.017619,inf	4127.8,4127.8,997.101,481.434,376.086,358.124,364.625,451.476,457.292,438.704,406.214,391.562,383.404,524.331,524.331,524.331
0.000271037	-11096497.81	0,3.32991e-06,9.10777e-06,1.91332e-05,3.65288e-05,6.67126e-05,0.000119086,0.000209961,0.000367642,0.000641242,0.00111598,0.00193971,0.00336901,0.00584905,0.0101523,0.017619,inf	4378.95,4378.95,1056.88,541.837,400.664,375.75,360.865,455.645,460.887,441.71,402.556,388.317,375.383,555.122,555.122,555.122
0.000241987	-11095072.72	0,3.32991e-06,9.10777e-06,1.91332e-05,3.65288e-05,6.67126e-05,0.000119086,0.000209961,0.000367642,0.000641242,0.00111598,0.00193971,0.00336901,0.00584905,0.0101523,0.017619,inf	4562.59,4562.59,1059.37,607.654,421.557,395.506,359.577,459.444,463.486,444.631,399.003,386.348,370.718,588.085,588.085,588.085
0.000219691	-11094209.18	0,3.32991e-06,9.10777e-06,1.91332e-05,3.65288e-05,6.67126e-05,0.000119086,0.000209961,0.000367642,0.000641242,0.00111598,0.00193971,0.00336901,0.00584905,0.0101523,0.017619,inf	4715.01,4715.01,1021.19,676.484,437.386,415.055,359.41,462.919,465.469,447.55,395.419,384.393,367.952,620.031,620.031,620.031
0.000202836	-11093755.63	0,3.32991e-06,9.10777e-06,1.91332e-05,3.65288e-05,6.67126e-05,0.000119086,0.000209961,0.000367642,0.000641242,0.00111598,0.00193971,0.00336901,0.00584905,0.0101523,0.017619,inf	4840.87,4840.87,957.027,744.367,448.145,433.146,359.597,465.994,466.983,450.513,392.126,382.217,366.37,648.416,648.416,648.416
0.000190274	-11093567.85	0,3.32991e-06,9.10777e-06,1.91332e-05,3.65288e-05,6.67126e-05,0.000119086,0.000209961,0.000367642,0.000641242,0.00111598,0.00193971,0.00336901,0.00584905,0.0101523,0.017619,inf	4943.34,4943.34,879.956,807.587,454.591,449.179,359.754,468.603,468.051,453.407,389.364,379.935,365.586,671.782,671.782,671.782
0.000181025	-11093530.15	0,3.32991e-06,9.10777e-06,1.91332e-05,3.65288e-05,6.67126e-05,0.000119086,0.000209961,0.000367642,0.000641242,0.00111598,0.00193971,0.00336901,0.00584905,0.0101523,0.017619,inf	5025.32,5025.32,799.931,863.768,457.705,462.957,359.746,470.751,468.706,456.077,387.212,377.72,365.361,689.832,689.832,689.832
0.000174285	-11093563.57	0,3.32991e-06,9.10777e-06,1.91332e-05,3.65288e-05,6.67126e-05,0.000119086,0.000209961,0.000367642,0.000641242,0.00111598,0.00193971,0.00336901,0.00584905,0.0101523,0.017619,inf	5089.93,5089.93,723.649,911.934,458.474,474.516,359.551,472.492,469.015,458.405,385.631,375.701,365.518,703.102,703.102,703.102
0.000169413	-11093621.73	0,3.32991e-06,9.10777e-06,1.91332e-05,3.65288e-05,6.67126e-05,0.000119086,0.000209961,0.000367642,0.000641242,0.00111598,0.00193971,0.00336901,0.00584905,0.0101523,0.017619,inf	5140.39,5140.39,654.616,952.2,457.684,484.056,359.202,473.902,469.072,460.341,384.525,373.941,365.912,712.514,712.514,712.514
0.000165911	-11093681.29	0,3.32991e-06,9.10777e-06,1.91332e-05,3.65288e-05,6.67126e-05,0.000119086,0.000209961,0.000367642,0.000641242,0.00111598,0.00193971,0.00336901,0.00584905,0.0101523,0.017619,inf	5179.13,5179.13,594.123,985.373,455.984,491.824,358.739,475.051,468.965,461.887,383.787,372.459,366.429,719.027,719.027,719.027
0.000163407	-11093732.65	0,3.32991e-06,9.10777e-06,1.91332e-05,3.65288e-05,6.67126e-05,0.000119086,0.000209961,0.000367642,0.000641242,0.00111598,0.00193971,0.00336901,0.00584905,0.0101523,0.017619,inf	5209.18,5209.18,542.151,1012.4,453.828,498.098,358.211,475.993,468.769,463.085,383.319,371.241,366.985,723.46,723.46,723.46
0.000161625	-11093773.32	0,3.32991e-06,9.10777e-06,1.91332e-05,3.65288e-05,6.67126e-05,0.000119086,0.000209961,0.000367642,0.000641242,0.00111598,0.00193971,0.00336901,0.00584905,0.0101523,0.017619,inf	5234.56,5234.56,498.198,1034.99,451.791,503.423,357.862,477.025,468.733,464.081,383.019,370.271,367.581,726.474,726.474,726.474
0.000160355	-11093804.05	0,3.32991e-06,9.10777e-06,1.91332e-05,3.65288e-05,6.67126e-05,0.000119086,0.000209961,0.000367642,0.000641242,0.00111598,0.00193971,0.00336901,0.00584905,0.0101523,0.017619,inf	5251.52,5251.52,460.76,1052.6,449.438,507.362,357.284,477.648,468.495,464.744,382.851,369.486,368.08,728.466,728.466,728.466
0.000159452	-11093826.43	0,3.32991e-06,9.10777e-06,1.91332e-05,3.65288e-05,6.67126e-05,0.000119086,0.000209961,0.000367642,0.000641242,0.00111598,0.00193971,0.00336901,0.00584905,0.0101523,0.017619,inf	5264.49,5264.49,429.14,1067,447.216,510.471,356.714,478.119,468.239,465.211,382.78,368.868,368.496,729.786,729.786,729.786
0.000158812	-11093842.45	0,3.32991e-06,9.10777e-06,1.91332e-05,3.65288e-05,6.67126e-05,0.000119086,0.000209961,0.000367642,0.000641242,0.00111598,0.00193971,0.00336901,0.00584905,0.0101523,0.017619,inf	5272.94,5272.94,402.5,1078.81,445.208,512.947,356.187,478.501,468.01,465.537,382.766,368.387,368.837,730.662,730.662,730.662
0.000158387	-11093853.79	0,3.32991e-06,9.10777e-06,1.91332e-05,3.65288e-05,6.67126e-05,0.000119086,0.000209961,0.000367642,0.000641242,0.00111598,0.00193971,0.00336901,0.00584905,0.0101523,0.017619,inf	5284.58,5284.58,379.936,1088.94,443.562,515.17,355.873,479.116,468.129,466.159,383.112,368.362,369.336,731.346,731.346,731.346
0.000158066	-11093860.86	0,3.32991e-06,9.10777e-06,1.91332e-05,3.65288e-05,6.67126e-05,0.000119086,0.000209961,0.000367642,0.000641242,0.00111598,0.00193971,0.00336901,0.00584905,0.0101523,0.017619,inf	5290.27,5290.27,360.684,1096.86,441.963,516.71,355.433,479.379,467.947,466.279,383.095,368.07,369.588,731.713,731.713,731.713
0.000157833	-11093866.25	0,3.32991e-06,9.10777e-06,1.91332e-05,3.65288e-05,6.67126e-05,0.000119086,0.000209961,0.000367642,0.000641242,0.00111598,0.00193971,0.00336901,0.00584905,0.0101523,0.017619,inf	5294.56,5294.56,344.357,1103.52,440.581,517.916,355.033,479.544,467.755,466.297,383.047,367.779,369.732,731.932,731.932,731.932
