0.000241718	-135240.51	0,3.39862e-05,8.049e-05,0.000144122,0.00023119,0.000350327,0.000513344,0.000736403,0.00104162,0.00145925,0.00203069,0.00281262,0.00388253,0.00534651,0.0073497,0.0100907,inf	106.847,106.847,209.665,318.328,482.907,768.594,1309.21,1995.02,1926.58,1688.58,1522.18,1424.63,1373.84,1376.51,1376.51,1376.51
0.000262628	-134798.54	0,3.39862e-05,8.049e-05,0.000144122,0.00023119,0.000350327,0.000513344,0.000736403,0.00104162,0.00145925,0.00203069,0.00281262,0.00388253,0.00534651,0.0073497,0.0100907,inf	18.7405,18.7405,64.4286,132.226,268.617,564.123,1228.03,2656.76,2791.56,2363.11,2008.41,1814.91,1733.14,1800.09,1800.09,1800.09
0.000282976	-134653.04	0,3.39862e-05,8.049e-05,0.000144122,0.00023119,0.000350327,0.000513344,0.000736403,0.00104162,0.00145925,0.00203069,0.00281262,0.00388253,0.00534651,0.0073497,0.0100907,inf	5.20943,5.20943,27.6319,67.9636,169.555,436.631,1098.65,3117.02,3665.79,3107.89,2544.68,2287.74,2258.89,2656.25,2656.25,2656.25
0.000301075	-134594.97	0,3.39862e-05,8.049e-05,0.000144122,0.00023119,0.000350327,0.000513344,0.000736403,0.00104162,0.00145925,0.00203069,0.00281262,0.00388253,0.00534651,0.0073497,0.0100907,inf	2.15362,2.15362,15.8255,41.6016,117.474,352.631,979.28,3452.8,4618.62,3978.87,3167.42,2946.06,3319.99,6233.09,6233.09,6233.09
0.000315388	-134570.62	0,3.39862e-05,8.049e-05,0.000144122,0.00023119,0.000350327,0.000513344,0.000736403,0.00104162,0.00145925,0.00203069,0.00281262,0.00388253,0.00534651,0.0073497,0.0100907,inf	1.23299,1.23299,11.5595,29.4602,87.4688,294.039,878.293,3705.11,5777.39,5107.05,3962.67,4112.84,7406.08,148348,148348,148348
0.000328299	-134561.89	0,3.39862e-05,8.049e-05,0.000144122,0.00023119,0.000350327,0.000513344,0.000736403,0.00104162,0.00145925,0.00203069,0.00281262,0.00388253,0.00534651,0.0073497,0.0100907,inf	1.08372,1.08372,10.2379,23.4311,68.7133,250.539,792.141,3914.03,7430.01,6865.72,5180.5,7595.07,15289.1,144579,144579,144579
0.000339253	-134561.54	0,3.39862e-05,8.049e-05,0.000144122,0.00023119,0.000350327,0.000513344,0.000736403,0.00104162,0.00145925,0.00203069,0.00281262,0.00388253,0.00534651,0.0073497,0.0100907,inf	1.08372,1.08372,10.5181,20.4228,56.248,216.79,717.888,4093.05,10410.2,10805.2,7879.74,50911.2,447759,223.507,223.507,223.507
0.000348029	-134567.12	0,3.39862e-05,8.049e-05,0.000144122,0.00023119,0.000350327,0.000513344,0.000736403,0.00104162,0.00145925,0.00203069,0.00281262,0.00388253,0.00534651,0.0073497,0.0100907,inf	1.08372,1.08372,12.0063,19.0252,47.3841,189.277,652.184,4255.97,19153.3,32563.4,22684,623679,692.2,607.555,607.555,607.555
0.000355887	-134578.61	0,3.39862e-05,8.049e-05,0.000144122,0.00023119,0.000350327,0.000513344,0.000736403,0.00104162,0.00145925,0.00203069,0.00281262,0.00388253,0.00534651,0.0073497,0.0100907,inf	1.08372,1.08372,14.6106,18.4567,40.4968,165.339,591.03,4420.81,119322,1.02653e+06,21133.4,964.158,1881.59,2419.72,2419.72,2419.72
0.000364518	-134593.77	0,3.39862e-05,8.049e-05,0.000144122,0.00023119,0.000350327,0.000513344,0.000736403,0.00104162,0.00145925,0.00203069,0.00281262,0.00388253,0.00534651,0.0073497,0.0100907,inf	1.08372,1.08372,18.3192,18.2241,34.6702,143.34,531.357,4610.73,1.74594e+06,931.031,91.4245,76.5534,117.983,151.726,151.726,151.726
