time_index	left_time_boundary	right_time_boundary	lambda
0	0	2.65789e-06	303.262
1	2.65789e-06	6.10747e-06	303.262
2	6.10747e-06	1.05846e-05	196.865
3	1.05846e-05	1.63952e-05	410.228
4	1.63952e-05	2.39367e-05	469.284
5	2.39367e-05	3.37245e-05	499.99
6	3.37245e-05	4.64278e-05	429.293
7	4.64278e-05	6.29149e-05	387.619
8	6.29149e-05	8.4313e-05	366.609
9	8.4313e-05	0.000112085	379.229
10	0.000112085	0.000148129	392.371
11	0.000148129	0.000194909	389.325
12	0.000194909	0.000255624	389.384
13	0.000255624	0.000334424	394.77
14	0.000334424	0.000436695	397.486
15	0.000436695	0.000569429	397.832
16	0.000569429	0.0007417	398.076
17	0.0007417	0.000965285	401.59
18	0.000965285	0.00125547	406.001
19	0.00125547	0.00163209	406.886
20	0.00163209	0.00212089	403.511
21	0.00212089	0.00275529	399.938
22	0.00275529	0.00357865	402.113
23	0.00357865	0.00464727	405.278
24	0.00464727	0.00603418	402.533
25	0.00603418	0.00783422	397.019
26	0.00783422	0.0101704	384.888
27	0.0101704	0.0132025	362.818
28	0.0132025	0.0171377	362.818
29	0.0171377	0.0222451	298.077
30	0.0222451	0.0288739	298.077
31	0.0288739	inf	298.077
