0.000685906	-3025352.40	0,9.17771e-05,0.000217357,0.00038919,0.000624311,0.000946032,0.00138625,0.0019886,0.00281281,0.00394058,0.00548373,0.00759525,0.0104845,0.0144378,0.0198473,0.0272491,inf	381.512,381.512,379.85,390.969,400.934,405.359,407.612,408.933,410.406,411.373,407.544,394.341,380.919,342.975,342.975,342.975
0.000742104	-3024753.61	0,9.17771e-05,0.000217357,0.00038919,0.000624311,0.000946032,0.00138625,0.0019886,0.00281281,0.00394058,0.00548373,0.00759525,0.0104845,0.0144378,0.0198473,0.0272491,inf	376.481,376.481,370.067,387.438,402.22,407.297,409.437,410.975,414.021,417.106,411.551,388.526,366.626,306.195,306.195,306.195
0.000792681	-3024313.48	0,9.17771e-05,0.000217357,0.00038919,0.000624311,0.000946032,0.00138625,0.0019886,0.00281281,0.00394058,0.00548373,0.00759525,0.0104845,0.0144378,0.0198473,0.0272491,inf	375.652,375.652,364.902,386.9,404.33,408.525,409.56,410.681,415.038,420.569,414.479,383.991,356.799,280.603,280.603,280.603
0.000838468	-3023979.33	0,9.17771e-05,0.000217357,0.00038919,0.000624311,0.000946032,0.00138625,0.0019886,0.00281281,0.00394058,0.00548373,0.00759525,0.0104845,0.0144378,0.0198473,0.0272491,inf	375.829,375.829,361.794,387.769,406.804,409.497,409.041,409.4,414.761,422.746,416.828,380.56,350.24,261.512,261.512,261.512
0.000880095	-3023720.60	0,9.17771e-05,0.000217357,0.00038919,0.000624311,0.000946032,0.00138625,0.0019886,0.00281281,0.00394058,0.00548373,0.00759525,0.0104845,0.0144378,0.0198473,0.0272491,inf	376.098,376.098,359.714,389.31,409.383,410.355,408.304,407.721,413.817,424.138,418.819,378.002,346.099,246.491,246.491,246.491
0.000918061	-3023517.29	0,9.17771e-05,0.000217357,0.00038919,0.000624311,0.000946032,0.00138625,0.0019886,0.00281281,0.00394058,0.00548373,0.00759525,0.0104845,0.0144378,0.0198473,0.0272491,inf	376.258,376.258,358.206,391.158,411.922,411.141,407.523,405.915,412.523,425.018,420.556,376.111,343.781,234.147,234.147,234.147
0.000952778	-3023355.65	0,9.17771e-05,0.000217357,0.00038919,0.000624311,0.000946032,0.00138625,0.0019886,0.00281281,0.00394058,0.00548373,0.00759525,0.0104845,0.0144378,0.0198473,0.0272491,inf	376.315,376.315,357.048,393.117,414.347,411.868,406.771,404.11,411.051,425.548,422.092,374.721,342.869,223.626,223.626,223.626
0.00098459	-3023225.88	0,9.17771e-05,0.000217357,0.00038919,0.000624311,0.000946032,0.00138625,0.0019886,0.00281281,0.00394058,0.00548373,0.00759525,0.0104845,0.0144378,0.0198473,0.0272491,inf	376.313,376.313,356.122,395.083,416.618,412.542,406.08,402.368,409.499,425.827,423.457,373.702,343.068,214.371,214.371,214.371
0.00101379	-3023120.88	0,9.17771e-05,0.000217357,0.00038919,0.000624311,0.000946032,0.00138625,0.0019886,0.00281281,0.00394058,0.00548373,0.00759525,0.0104845,0.0144378,0.0198473,0.0272491,inf	376.294,376.294,355.357,396.998,418.72,413.163,405.461,400.719,407.924,425.923,424.672,372.961,344.17,206.001,206.001,206.001
0.00104065	-3023035.38	0,9.17771e-05,0.000217357,0.00038919,0.000624311,0.000946032,0.00138625,0.0019886,0.00281281,0.00394058,0.00548373,0.00759525,0.0104845,0.0144378,0.0198473,0.0272491,inf	376.284,376.284,354.713,398.832,420.65,413.735,404.917,399.174,406.361,425.883,425.752,372.427,346.031,198.242,198.242,198.242
0.00106537	-3022965.44	0,9.17771e-05,0.000217357,0.00038919,0.000624311,0.000946032,0.00138625,0.0019886,0.00281281,0.00394058,0.00548373,0.00759525,0.0104845,0.0144378,0.0198473,0.0272491,inf	376.298,376.298,354.16,400.57,422.414,414.262,404.446,397.739,404.831,425.741,426.71,372.049,348.554,190.89,190.89,190.89
0.00108816	-3022908.07	0,9.17771e-05,0.000217357,0.00038919,0.000624311,0.000946032,0.00138625,0.0019886,0.00281281,0.00394058,0.00548373,0.00759525,0.0104845,0.0144378,0.0198473,0.0272491,inf	376.342,376.342,353.679,402.208,424.018,414.746,404.044,396.411,403.347,425.522,427.56,371.791,351.677,183.78,183.78,183.78
0.00110919	-3022860.95	0,9.17771e-05,0.000217357,0.00038919,0.000624311,0.000946032,0.00138625,0.0019886,0.00281281,0.00394058,0.00548373,0.00759525,0.0104845,0.0144378,0.0198473,0.0272491,inf	376.416,376.416,353.255,403.743,425.474,415.191,403.708,395.187,401.915,425.244,428.311,371.626,355.369,176.776,176.776,176.776
0.00112861	-3022822.32	0,9.17771e-05,0.000217357,0.00038919,0.000624311,0.000946032,0.00138625,0.0019886,0.00281281,0.00394058,0.00548373,0.00759525,0.0104845,0.0144378,0.0198473,0.0272491,inf	376.515,376.515,352.878,405.179,426.791,415.598,403.431,394.061,400.541,424.922,428.973,371.538,359.626,169.755,169.755,169.755
0.00114657	-3022790.83	0,9.17771e-05,0.000217357,0.00038919,0.000624311,0.000946032,0.00138625,0.0019886,0.00281281,0.00394058,0.00548373,0.00759525,0.0104845,0.0144378,0.0198473,0.0272491,inf	376.639,376.639,352.54,406.521,427.98,415.972,403.208,393.027,399.224,424.568,429.555,371.517,364.471,162.6,162.6,162.6
0.00116316	-3022765.46	0,9.17771e-05,0.000217357,0.00038919,0.000624311,0.000946032,0.00138625,0.0019886,0.00281281,0.00394058,0.00548373,0.00759525,0.0104845,0.0144378,0.0198473,0.0272491,inf	376.781,376.781,352.236,407.774,429.051,416.314,403.036,392.079,397.966,424.188,430.065,371.559,369.955,155.184,155.184,155.184
0.00117852	-3022745.48	0,9.17771e-05,0.000217357,0.00038919,0.000624311,0.000946032,0.00138625,0.0019886,0.00281281,0.00394058,0.00548373,0.00759525,0.0104845,0.0144378,0.0198473,0.0272491,inf	376.937,376.937,351.961,408.943,430.014,416.626,402.909,391.211,396.764,423.791,430.511,371.665,376.167,147.37,147.37,147.37
0.00119272	-3022730.42	0,9.17771e-05,0.000217357,0.00038919,0.000624311,0.000946032,0.00138625,0.0019886,0.00281281,0.00394058,0.00548373,0.00759525,0.0104845,0.0144378,0.0198473,0.0272491,inf	377.103,377.103,351.709,410.036,430.877,416.91,402.823,390.417,395.618,423.379,430.899,371.845,383.243,138.985,138.985,138.985
0.00120585	-3022720.15	0,9.17771e-05,0.000217357,0.00038919,0.000624311,0.000946032,0.00138625,0.0019886,0.00281281,0.00394058,0.00548373,0.00759525,0.0104845,0.0144378,0.0198473,0.0272491,inf	377.277,377.277,351.48,411.057,431.648,417.168,402.774,389.692,394.523,422.957,431.239,372.115,391.393,129.811,129.811,129.811
0.00121798	-3022714.89	0,9.17771e-05,0.000217357,0.00038919,0.000624311,0.000946032,0.00138625,0.0019886,0.00281281,0.00394058,0.00548373,0.00759525,0.0104845,0.0144378,0.0198473,0.0272491,inf	377.452,377.452,351.268,412.01,432.335,417.401,402.758,389.03,393.477,422.526,431.539,372.504,400.945,119.544,119.544,119.544
