time_index	left_time_boundary	right_time_boundary	lambda
0	0	2.19167e-05	456.429
1	2.19167e-05	5.54477e-05	456.429
2	5.54477e-05	0.000106748	384.453
3	0.000106748	0.000185233	422.822
4	0.000185233	0.000305309	389.46
5	0.000305309	0.000489016	403.143
6	0.000489016	0.000770075	403.895
7	0.000770075	0.00120007	410.78
8	0.00120007	0.00185794	411.937
9	0.00185794	0.00286443	397.292
10	0.00286443	0.00440428	397.014
11	0.00440428	0.00676014	423.152
12	0.00676014	0.0103644	390.223
13	0.0103644	0.0158787	262.405
14	0.0158787	0.0243152	262.405
15	0.0243152	inf	262.405
