time_index	left_time_boundary	right_time_boundary	lambda
0	0	9.7978e-06	327.544
1	9.7978e-06	2.19167e-05	327.544
2	2.19167e-05	3.69066e-05	570.178
3	3.69066e-05	5.54477e-05	471.241
4	5.54477e-05	7.83811e-05	362.288
5	7.83811e-05	0.000106748	377.833
6	0.000106748	0.000141834	419.094
7	0.000141834	0.000185233	414.955
8	0.000185233	0.000238912	391.097
9	0.000238912	0.000305309	385.301
10	0.000305309	0.000387435	392.366
11	0.000387435	0.000489016	397.72
12	0.000489016	0.000614663	399.773
13	0.000614663	0.000770075	402.138
14	0.000770075	0.000962305	405.775
15	0.000962305	0.00120007	409.143
16	0.00120007	0.00149417	409.652
17	0.00149417	0.00185794	406.23
18	0.00185794	0.00230789	401.067
19	0.00230789	0.00286443	398.142
20	0.00286443	0.00355281	399.656
21	0.00355281	0.00440428	404.293
22	0.00440428	0.00545746	410.317
23	0.00545746	0.00676014	416.197
24	0.00676014	0.00837142	412.257
25	0.00837142	0.0103644	391.84
26	0.0103644	0.0128296	377.956
27	0.0128296	0.0158787	456.975
28	0.0158787	0.0196502	456.975
29	0.0196502	0.0243152	6.98307
30	0.0243152	0.0300853	6.98307
31	0.0300853	inf	6.98307
