0.000693965	-45432238.36	0,1.03188e-05,2.70355e-05,5.41172e-05,9.79903e-05,0.000169066,0.000284211,0.00047075,0.000772949,0.00126252,0.00205564,0.00334052,0.00542207,0.00879425,0.0142573,0.0231076,inf	434.555,434.555,445.209,408.541,396.453,389.546,388.583,390.956,397.829,406.701,410.678,410.937,404.813,380.639,380.639,380.639
0.000755181	-45422468.67	0,1.03188e-05,2.70355e-05,5.41172e-05,9.79903e-05,0.000169066,0.000284211,0.00047075,0.000772949,0.00126252,0.00205564,0.00334052,0.00542207,0.00879425,0.0142573,0.0231076,inf	438.093,438.093,471.441,411.499,396.139,386.175,384.802,387.321,396.562,408.835,414.006,415.606,406.668,365.152,365.152,365.152
0.000809469	-45415508.18	0,1.03188e-05,2.70355e-05,5.41172e-05,9.79903e-05,0.000169066,0.000284211,0.00047075,0.000772949,0.00126252,0.00205564,0.00334052,0.00542207,0.00879425,0.0142573,0.0231076,inf	429.714,429.714,486.325,410.497,396.288,385.452,384.387,386.488,396.39,409.602,414.468,417.564,407.598,353.198,353.198,353.198
0.000858015	-45410349.46	0,1.03188e-05,2.70355e-05,5.41172e-05,9.79903e-05,0.000169066,0.000284211,0.00047075,0.000772949,0.00126252,0.00205564,0.00334052,0.00542207,0.00879425,0.0142573,0.0231076,inf	418.817,418.817,495.093,407.242,396.217,385.606,385.342,386.946,396.86,409.874,413.67,418.159,408.192,343.899,343.899,343.899
0.000901683	-45406432.96	0,1.03188e-05,2.70355e-05,5.41172e-05,9.79903e-05,0.000169066,0.000284211,0.00047075,0.000772949,0.00126252,0.00205564,0.00334052,0.00542207,0.00879425,0.0142573,0.0231076,inf	408.968,408.968,500.783,402.975,395.933,386.012,386.811,387.969,397.672,409.97,412.318,418.037,408.683,336.572,336.572,336.572
0.000941135	-45403407.03	0,1.03188e-05,2.70355e-05,5.41172e-05,9.79903e-05,0.000169066,0.000284211,0.00047075,0.000772949,0.00126252,0.00205564,0.00334052,0.00542207,0.00879425,0.0142573,0.0231076,inf	401.097,401.097,504.946,398.419,395.571,386.458,388.421,389.2,398.65,410.009,410.742,417.524,409.16,330.718,330.718,330.718
0.000976901	-45401036.48	0,1.03188e-05,2.70355e-05,5.41172e-05,9.79903e-05,0.000169066,0.000284211,0.00047075,0.000772949,0.00126252,0.00205564,0.00334052,0.00542207,0.00879425,0.0142573,0.0231076,inf	395.109,395.109,508.329,393.956,395.243,386.884,390.008,390.464,399.692,410.04,409.101,416.794,409.653,325.976,325.976,325.976
0.00100942	-45399157.91	0,1.03188e-05,2.70355e-05,5.41172e-05,9.79903e-05,0.000169066,0.000284211,0.00047075,0.000772949,0.00126252,0.00205564,0.00334052,0.00542207,0.00879425,0.0142573,0.0231076,inf	390.616,390.616,511.268,389.759,395.018,387.278,391.506,391.676,400.739,410.082,407.474,415.945,410.167,322.084,322.084,322.084
0.00103905	-45397654.66	0,1.03188e-05,2.70355e-05,5.41172e-05,9.79903e-05,0.000169066,0.000284211,0.00047075,0.000772949,0.00126252,0.00205564,0.00334052,0.00542207,0.00879425,0.0142573,0.0231076,inf	387.244,387.244,513.911,385.894,394.93,387.646,392.89,392.797,401.761,410.144,405.902,415.035,410.699,318.85,318.85,318.85
0.00106611	-45396441.68	0,1.03188e-05,2.70355e-05,5.41172e-05,9.79903e-05,0.000169066,0.000284211,0.00047075,0.000772949,0.00126252,0.00205564,0.00334052,0.00542207,0.00879425,0.0142573,0.0231076,inf	384.725,384.725,516.318,382.369,394.984,387.994,394.158,393.81,402.741,410.227,404.405,414.097,411.245,316.134,316.134,316.134
0.00109086	-45395455.82	0,1.03188e-05,2.70355e-05,5.41172e-05,9.79903e-05,0.000169066,0.000284211,0.00047075,0.000772949,0.00126252,0.00205564,0.00334052,0.00542207,0.00879425,0.0142573,0.0231076,inf	382.793,382.793,518.513,379.165,395.176,388.327,395.313,394.713,403.669,410.332,402.991,413.153,411.798,313.827,313.827,313.827
0.00111353	-45394649.48	0,1.03188e-05,2.70355e-05,5.41172e-05,9.79903e-05,0.000169066,0.000284211,0.00047075,0.000772949,0.00126252,0.00205564,0.00334052,0.00542207,0.00879425,0.0142573,0.0231076,inf	381.292,381.292,520.512,376.252,395.491,388.649,396.365,395.508,404.544,410.457,401.662,412.216,412.354,311.849,311.849,311.849
0.00113434	-45393986.33	0,1.03188e-05,2.70355e-05,5.41172e-05,9.79903e-05,0.000169066,0.000284211,0.00047075,0.000772949,0.00126252,0.00205564,0.00334052,0.00542207,0.00879425,0.0142573,0.0231076,inf	380.1,380.1,522.325,373.597,395.912,388.96,397.323,396.203,405.364,410.602,400.417,411.296,412.909,310.138,310.138,310.138
0.00115345	-45393438.26	0,1.03188e-05,2.70355e-05,5.41172e-05,9.79903e-05,0.000169066,0.000284211,0.00047075,0.000772949,0.00126252,0.00205564,0.00334052,0.00542207,0.00879425,0.0142573,0.0231076,inf	379.151,379.151,523.969,371.169,396.424,389.263,398.198,396.804,406.13,410.764,399.253,410.398,413.462,308.646,308.646,308.646
0.00117102	-45392983.34	0,1.03188e-05,2.70355e-05,5.41172e-05,9.79903e-05,0.000169066,0.000284211,0.00047075,0.000772949,0.00126252,0.00205564,0.00334052,0.00542207,0.00879425,0.0142573,0.0231076,inf	378.39,378.39,525.449,368.94,397.009,389.557,398.999,397.32,406.846,410.941,398.166,409.524,414.009,307.335,307.335,307.335
0.0011872	-45392604.27	0,1.03188e-05,2.70355e-05,5.41172e-05,9.79903e-05,0.000169066,0.000284211,0.00047075,0.000772949,0.00126252,0.00205564,0.00334052,0.00542207,0.00879425,0.0142573,0.0231076,inf	377.786,377.786,526.783,366.883,397.653,389.842,399.734,397.759,407.511,411.132,397.152,408.678,414.551,306.174,306.174,306.174
0.00120211	-45392287.32	0,1.03188e-05,2.70355e-05,5.41172e-05,9.79903e-05,0.000169066,0.000284211,0.00047075,0.000772949,0.00126252,0.00205564,0.00334052,0.00542207,0.00879425,0.0142573,0.0231076,inf	377.295,377.295,527.988,364.975,398.342,390.116,400.41,398.128,408.13,411.334,396.207,407.86,415.085,305.14,305.14,305.14
0.00121586	-45392021.49	0,1.03188e-05,2.70355e-05,5.41172e-05,9.79903e-05,0.000169066,0.000284211,0.00047075,0.000772949,0.00126252,0.00205564,0.00334052,0.00542207,0.00879425,0.0142573,0.0231076,inf	376.902,376.902,529.065,363.202,399.065,390.379,401.035,398.434,408.705,411.547,395.326,407.07,415.611,304.213,304.213,304.213
0.00122855	-45391797.92	0,1.03188e-05,2.70355e-05,5.41172e-05,9.79903e-05,0.000169066,0.000284211,0.00047075,0.000772949,0.00126252,0.00205564,0.00334052,0.00542207,0.00879425,0.0142573,0.0231076,inf	376.581,376.581,530.035,361.541,399.811,390.632,401.616,398.683,409.238,411.769,394.505,406.307,416.129,303.376,303.376,303.376
0.00124028	-45391609.42	0,1.03188e-05,2.70355e-05,5.41172e-05,9.79903e-05,0.000169066,0.000284211,0.00047075,0.000772949,0.00126252,0.00205564,0.00334052,0.00542207,0.00879425,0.0142573,0.0231076,inf	376.323,376.323,530.923,359.983,400.571,390.872,402.157,398.882,409.732,411.998,393.74,405.572,416.64,302.617,302.617,302.617
