0.000688699	-4599921.41	0,1.04415e-05,2.73569e-05,5.47606e-05,9.91553e-05,0.000171076,0.00028759,0.000476347,0.000782138,0.00127753,0.00208008,0.00338024,0.00548653,0.0088988,0.0144268,0.0233823,inf	467.138,467.138,407.69,345.349,337.55,346.487,354.263,364.368,381.173,411.05,430.395,421.215,419.318,365.316,365.316,365.316
0.000737392	-4599170.57	0,1.04415e-05,2.73569e-05,5.47606e-05,9.91553e-05,0.000171076,0.00028759,0.000476347,0.000782138,0.00127753,0.00208008,0.00338024,0.00548653,0.0088988,0.0144268,0.0233823,inf	527.062,527.062,433.966,330.456,319.917,333.506,341.443,351.783,371.867,415.289,446.504,432.778,435.622,335.219,335.219,335.219
0.000779885	-4598739.61	0,1.04415e-05,2.73569e-05,5.47606e-05,9.91553e-05,0.000171076,0.00028759,0.000476347,0.000782138,0.00127753,0.00208008,0.00338024,0.00548653,0.0088988,0.0144268,0.0233823,inf	557.459,557.459,452.691,322.373,313.244,331.662,338.653,346.983,366.124,416.029,454.02,437.326,448.315,308.002,308.002,308.002
0.000817741	-4598439.32	0,1.04415e-05,2.73569e-05,5.47606e-05,9.91553e-05,0.000171076,0.00028759,0.000476347,0.000782138,0.00127753,0.00208008,0.00338024,0.00548653,0.0088988,0.0144268,0.0233823,inf	567.004,567.004,463.336,315.231,309.666,333.254,339.548,345.67,362.6,415.772,457.431,438.232,459.316,283.981,283.981,283.981
0.000851938	-4598216.71	0,1.04415e-05,2.73569e-05,5.47606e-05,9.91553e-05,0.000171076,0.00028759,0.000476347,0.000782138,0.00127753,0.00208008,0.00338024,0.00548653,0.0088988,0.0144268,0.0233823,inf	566.151,566.151,468.956,308.208,306.963,335.652,341.678,345.959,360.45,415.358,458.809,437.167,469.66,262.822,262.822,262.822
0.000883112	-4598050.16	0,1.04415e-05,2.73569e-05,5.47606e-05,9.91553e-05,0.000171076,0.00028759,0.000476347,0.000782138,0.00127753,0.00208008,0.00338024,0.00548653,0.0088988,0.0144268,0.0233823,inf	561.297,561.297,472.042,301.486,304.574,337.975,344.063,346.964,359.151,415.048,459.144,434.972,479.911,244.065,244.065,244.065
0.000911698	-4597927.53	0,1.04415e-05,2.73569e-05,5.47606e-05,9.91553e-05,0.000171076,0.00028759,0.000476347,0.000782138,0.00127753,0.00208008,0.00338024,0.00548653,0.0088988,0.0144268,0.0233823,inf	555.47,555.47,473.993,295.281,302.409,339.977,346.319,348.255,358.389,414.905,458.925,432.081,490.386,227.284,227.284,227.284
0.000938015	-4597840.69	0,1.04415e-05,2.73569e-05,5.47606e-05,9.91553e-05,0.000171076,0.00028759,0.000476347,0.000782138,0.00127753,0.00208008,0.00338024,0.00548653,0.0088988,0.0144268,0.0233823,inf	549.848,549.848,475.486,289.713,300.493,341.637,348.317,349.62,357.965,414.926,458.405,428.72,501.268,212.122,212.122,212.122
0.000962307	-4597783.73	0,1.04415e-05,2.73569e-05,5.47606e-05,9.91553e-05,0.000171076,0.00028759,0.000476347,0.000782138,0.00127753,0.00208008,0.00338024,0.00548653,0.0088988,0.0144268,0.0233823,inf	544.767,544.767,476.794,284.792,298.86,343.008,350.036,350.958,357.758,415.09,457.72,425.01,512.671,198.293,198.293,198.293
0.000984773	-4597752.25	0,1.04415e-05,2.73569e-05,5.47606e-05,9.91553e-05,0.000171076,0.00028759,0.000476347,0.000782138,0.00127753,0.00208008,0.00338024,0.00548653,0.0088988,0.0144268,0.0233823,inf	540.261,540.261,477.984,280.479,297.52,344.151,351.494,352.22,357.689,415.375,456.946,421.013,524.668,185.567,185.567,185.567
0.00100557	-4597742.95	0,1.04415e-05,2.73569e-05,5.47606e-05,9.91553e-05,0.000171076,0.00028759,0.000476347,0.000782138,0.00127753,0.00208008,0.00338024,0.00548653,0.0088988,0.0144268,0.0233823,inf	536.269,536.269,479.082,276.712,296.464,345.122,352.722,353.385,357.707,415.76,456.126,416.762,537.312,173.759,173.759,173.759
0.00102485	-4597753.40	0,1.04415e-05,2.73569e-05,5.47606e-05,9.91553e-05,0.000171076,0.00028759,0.000476347,0.000782138,0.00127753,0.00208008,0.00338024,0.00548653,0.0088988,0.0144268,0.0233823,inf	532.706,532.706,480.077,273.426,295.677,345.963,353.754,354.448,357.78,416.232,455.286,412.272,550.649,162.717,162.717,162.717
0.00104272	-4597781.87	0,1.04415e-05,2.73569e-05,5.47606e-05,9.91553e-05,0.000171076,0.00028759,0.000476347,0.000782138,0.00127753,0.00208008,0.00338024,0.00548653,0.0088988,0.0144268,0.0233823,inf	529.511,529.511,480.927,270.536,295.129,346.706,354.62,355.409,357.884,416.778,454.443,407.548,564.721,152.316,152.316,152.316
0.0010593	-4597827.25	0,1.04415e-05,2.73569e-05,5.47606e-05,9.91553e-05,0.000171076,0.00028759,0.000476347,0.000782138,0.00127753,0.00208008,0.00338024,0.00548653,0.0088988,0.0144268,0.0233823,inf	526.628,526.628,481.634,267.992,294.794,347.373,355.344,356.273,358.006,417.391,453.605,402.591,579.574,142.445,142.445,142.445
0.00107466	-4597889.00	0,1.04415e-05,2.73569e-05,5.47606e-05,9.91553e-05,0.000171076,0.00028759,0.000476347,0.000782138,0.00127753,0.00208008,0.00338024,0.00548653,0.0088988,0.0144268,0.0233823,inf	524.039,524.039,482.192,265.741,294.643,347.979,355.95,357.045,358.134,418.064,452.779,397.399,595.262,133.01,133.01,133.01
0.00108889	-4597967.14	0,1.04415e-05,2.73569e-05,5.47606e-05,9.91553e-05,0.000171076,0.00028759,0.000476347,0.000782138,0.00127753,0.00208008,0.00338024,0.00548653,0.0088988,0.0144268,0.0233823,inf	521.73,521.73,482.606,263.733,294.646,348.535,356.454,357.731,358.26,418.794,451.967,391.968,611.855,123.925,123.925,123.925
0.00110207	-4598062.30	0,1.04415e-05,2.73569e-05,5.47606e-05,9.91553e-05,0.000171076,0.00028759,0.000476347,0.000782138,0.00127753,0.00208008,0.00338024,0.00548653,0.0088988,0.0144268,0.0233823,inf	519.673,519.673,482.871,261.928,294.783,349.048,356.872,358.336,358.38,419.578,451.169,386.292,629.438,115.109,115.109,115.109
0.00111425	-4598175.81	0,1.04415e-05,2.73569e-05,5.47606e-05,9.91553e-05,0.000171076,0.00028759,0.000476347,0.000782138,0.00127753,0.00208008,0.00338024,0.00548653,0.0088988,0.0144268,0.0233823,inf	517.862,517.862,483.011,260.295,295.029,349.522,357.215,358.866,358.491,420.412,450.383,380.364,648.126,106.485,106.485,106.485
0.00112548	-4598309.88	0,1.04415e-05,2.73569e-05,5.47606e-05,9.91553e-05,0.000171076,0.00028759,0.000476347,0.000782138,0.00127753,0.00208008,0.00338024,0.00548653,0.0088988,0.0144268,0.0233823,inf	516.279,516.279,483.023,258.81,295.366,349.962,357.492,359.326,358.588,421.294,449.604,374.176,668.07,97.9794,97.9794,97.9794
0.0011358	-4598467.78	0,1.04415e-05,2.73569e-05,5.47606e-05,9.91553e-05,0.000171076,0.00028759,0.000476347,0.000782138,0.00127753,0.00208008,0.00338024,0.00548653,0.0088988,0.0144268,0.0233823,inf	514.903,514.903,482.941,257.448,295.776,350.369,357.712,359.719,358.67,422.224,448.823,367.715,689.472,89.5193,89.5193,89.5193
