time_index	left_time_boundary	right_time_boundary	lambda
0	0	2.68806e-06	30.9628
1	2.68806e-06	6.1768e-06	30.9628
2	6.1768e-06	1.07047e-05	59.1165
3	1.07047e-05	1.65813e-05	262.748
4	1.65813e-05	2.42084e-05	629.566
5	2.42084e-05	3.41073e-05	736.535
6	3.41073e-05	4.69548e-05	607.415
7	4.69548e-05	6.36291e-05	397.242
8	6.36291e-05	8.52701e-05	277.008
9	8.52701e-05	0.000113357	262.469
10	0.000113357	0.00014981	296.574
11	0.00014981	0.000197122	360.874
12	0.000197122	0.000258526	393.878
13	0.000258526	0.00033822	361.59
14	0.00033822	0.000441652	335.584
15	0.000441652	0.000575893	334.876
16	0.000575893	0.00075012	334.628
17	0.00075012	0.000976243	341.48
18	0.000976243	0.00126972	366.062
19	0.00126972	0.00165062	400.023
20	0.00165062	0.00214497	441.369
21	0.00214497	0.00278656	472.004
22	0.00278656	0.00361928	462.611
23	0.00361928	0.00470002	431.444
24	0.00470002	0.00610268	405.034
25	0.00610268	0.00792315	395.369
26	0.00792315	0.0102859	425.061
27	0.0102859	0.0133524	613.178
28	0.0133524	0.0173323	613.178
29	0.0173323	0.0224977	14.012
30	0.0224977	0.0292016	14.012
31	0.0292016	inf	14.012
