time_index	left_time_boundary	right_time_boundary	lambda
0	0	1.78199e-06	365.989
1	1.78199e-06	4.12932e-06	365.989
2	4.12932e-06	7.22134e-06	384.402
3	7.22134e-06	1.12943e-05	48.7749
4	1.12943e-05	1.66594e-05	146.665
5	1.66594e-05	2.37266e-05	545.106
6	2.37266e-05	3.30358e-05	757.605
7	3.30358e-05	4.52983e-05	622.449
8	4.52983e-05	6.14511e-05	408.143
9	6.14511e-05	8.27284e-05	299.732
10	8.27284e-05	0.000110756	301.329
11	0.000110756	0.000147675	326.721
12	0.000147675	0.000196307	349.858
13	0.000196307	0.000260367	375.215
14	0.000260367	0.00034475	373.827
15	0.00034475	0.000455903	352.738
16	0.000455903	0.00060232	334.986
17	0.00060232	0.000795187	327.823
18	0.000795187	0.00104924	341.669
19	0.00104924	0.00138389	375.319
20	0.00138389	0.00182471	416.159
21	0.00182471	0.00240538	455.415
22	0.00240538	0.00317027	464.584
23	0.00317027	0.00417781	436.524
24	0.00417781	0.005505	405.58
25	0.005505	0.00725324	382.374
26	0.00725324	0.0095561	420.725
27	0.0095561	0.0125895	691.993
28	0.0125895	0.0165853	691.993
29	0.0165853	0.0218488	1.67679
30	0.0218488	0.0287821	1.67679
31	0.0287821	inf	1.67679
