0.000679306	-13806928.84	0,1.78199e-06,4.12932e-06,7.22134e-06,1.12943e-05,1.66594e-05,2.37266e-05,3.30358e-05,4.52983e-05,6.14511e-05,8.27284e-05,0.000110756,0.000147675,0.000196307,0.000260367,0.00034475,0.000455903,0.00060232,0.000795187,0.00104924,0.00138389,0.00182471,0.00240538,0.00317027,0.00417781,0.005505,0.00725324,0.0095561,0.0125895,0.0165853,0.0218488,0.0287821,inf	388.641,388.641,397.314,396.765,432.299,470.059,473.483,450.799,416.913,386.384,369.12,361.677,358.146,357.219,356.263,355.532,357.173,363.23,374.526,390.501,407.465,421.041,426.056,422.321,416.627,412.073,411.802,402.56,402.56,264.948,264.948,264.948
0.000721028	-13804899.84	0,1.78199e-06,4.12932e-06,7.22134e-06,1.12943e-05,1.66594e-05,2.37266e-05,3.30358e-05,4.52983e-05,6.14511e-05,8.27284e-05,0.000110756,0.000147675,0.000196307,0.000260367,0.00034475,0.000455903,0.00060232,0.000795187,0.00104924,0.00138389,0.00182471,0.00240538,0.00317027,0.00417781,0.005505,0.00725324,0.0095561,0.0125895,0.0165853,0.0218488,0.0287821,inf	371.002,371.002,375.298,367.378,436.715,521.272,538.272,500.47,440.962,389.934,363.997,354.079,349.377,347.928,344.862,340.974,340.474,347.004,362.229,385.666,411.7,433.607,442.145,436.119,427.216,420.478,421.993,406.108,406.108,121.036,121.036,121.036
0.000758239	-13803746.20	0,1.78199e-06,4.12932e-06,7.22134e-06,1.12943e-05,1.66594e-05,2.37266e-05,3.30358e-05,4.52983e-05,6.14511e-05,8.27284e-05,0.000110756,0.000147675,0.000196307,0.000260367,0.00034475,0.000455903,0.00060232,0.000795187,0.00104924,0.00138389,0.00182471,0.00240538,0.00317027,0.00417781,0.005505,0.00725324,0.0095561,0.0125895,0.0165853,0.0218488,0.0287821,inf	358.462,358.462,348.652,324.123,416.135,545.154,580.489,533.526,455.176,390.73,361.52,352.405,348.613,347.867,343.234,336.146,332.832,338.206,354.674,381.911,413.055,440.091,450.775,442.955,432.04,424.347,428.802,409.796,409.796,10.4454,10.4454,10.4454
0.000791103	-13804797.90	0,1.78199e-06,4.12932e-06,7.22134e-06,1.12943e-05,1.66594e-05,2.37266e-05,3.30358e-05,4.52983e-05,6.14511e-05,8.27284e-05,0.000110756,0.000147675,0.000196307,0.000260367,0.00034475,0.000455903,0.00060232,0.000795187,0.00104924,0.00138389,0.00182471,0.00240538,0.00317027,0.00417781,0.005505,0.00725324,0.0095561,0.0125895,0.0165853,0.0218488,0.0287821,inf	355.003,355.003,329.04,281.812,385.959,552.469,606.533,553.493,460.739,387.381,357.961,351.411,349.792,350.691,345.187,335.37,329.417,333.251,349.924,379.231,413.402,443.704,455.695,446.57,434.932,428.71,442.329,471.814,471.814,6.34404,6.34404,6.34404
0.000820779	-13803956.91	0,1.78199e-06,4.12932e-06,7.22134e-06,1.12943e-05,1.66594e-05,2.37266e-05,3.30358e-05,4.52983e-05,6.14511e-05,8.27284e-05,0.000110756,0.000147675,0.000196307,0.000260367,0.00034475,0.000455903,0.00060232,0.000795187,0.00104924,0.00138389,0.00182471,0.00240538,0.00317027,0.00417781,0.005505,0.00725324,0.0095561,0.0125895,0.0165853,0.0218488,0.0287821,inf	357.605,357.605,318.147,245.381,354.862,551.985,623.214,565.252,460.683,381.077,352.987,349.747,350.902,354.017,348.244,336.262,328.065,330.38,346.848,377.325,413.285,445.547,457.93,447.145,434.324,428.423,448.381,519.027,519.027,10.4676,10.4676,10.4676
0.000848293	-13803087.49	0,1.78199e-06,4.12932e-06,7.22134e-06,1.12943e-05,1.66594e-05,2.37266e-05,3.30358e-05,4.52983e-05,6.14511e-05,8.27284e-05,0.000110756,0.000147675,0.000196307,0.000260367,0.00034475,0.000455903,0.00060232,0.000795187,0.00104924,0.00138389,0.00182471,0.00240538,0.00317027,0.00417781,0.005505,0.00725324,0.0095561,0.0125895,0.0165853,0.0218488,0.0287821,inf	363.255,363.255,314.597,215.302,326.639,549.262,635.826,573.039,457.939,373.528,347.392,347.58,351.648,357.209,351.559,337.887,327.85,328.814,344.972,376.196,413.314,446.838,459.124,446.513,432.212,425.825,449.91,548.6,548.6,3.99858,3.99858,3.99858
0.000873494	-13802781.81	0,1.78199e-06,4.12932e-06,7.22134e-06,1.12943e-05,1.66594e-05,2.37266e-05,3.30358e-05,4.52983e-05,6.14511e-05,8.27284e-05,0.000110756,0.000147675,0.000196307,0.000260367,0.00034475,0.000455903,0.00060232,0.000795187,0.00104924,0.00138389,0.00182471,0.00240538,0.00317027,0.00417781,0.005505,0.00725324,0.0095561,0.0125895,0.0165853,0.0218488,0.0287821,inf	369.115,369.115,315.87,190.356,301.99,546.436,646.694,578.788,453.908,365.559,341.586,345.036,351.905,359.929,354.639,339.654,328.133,327.933,343.776,375.522,413.436,447.837,459.818,445.424,429.628,422.52,450.02,575.091,575.091,15.4122,15.4122,15.4122
0.000897333	-13802000.40	0,1.78199e-06,4.12932e-06,7.22134e-06,1.12943e-05,1.66594e-05,2.37266e-05,3.30358e-05,4.52983e-05,6.14511e-05,8.27284e-05,0.000110756,0.000147675,0.000196307,0.000260367,0.00034475,0.000455903,0.00060232,0.000795187,0.00104924,0.00138389,0.00182471,0.00240538,0.00317027,0.00417781,0.005505,0.00725324,0.0095561,0.0125895,0.0165853,0.0218488,0.0287821,inf	373.988,373.988,320.26,169.396,280.705,544.457,657.157,583.838,449.603,357.861,336.053,342.475,351.903,362.27,357.446,341.414,328.692,327.501,343.067,375.22,413.736,448.8,460.366,444.217,426.828,418.58,448.095,587.267,587.267,2.161,2.161,2.161
0.000919113	-13802044.04	0,1.78199e-06,4.12932e-06,7.22134e-06,1.12943e-05,1.66594e-05,2.37266e-05,3.30358e-05,4.52983e-05,6.14511e-05,8.27284e-05,0.000110756,0.000147675,0.000196307,0.000260367,0.00034475,0.000455903,0.00060232,0.000795187,0.00104924,0.00138389,0.00182471,0.00240538,0.00317027,0.00417781,0.005505,0.00725324,0.0095561,0.0125895,0.0165853,0.0218488,0.0287821,inf	377.239,377.239,326.232,151.362,262.102,543.166,667.284,588.352,445.204,350.516,330.84,339.932,351.642,364.182,359.863,342.993,329.302,327.258,342.585,375.06,414.047,449.661,460.841,443.139,424.346,415.135,447.029,609.789,609.789,15.3493,15.3493,15.3493
0.00093983	-13801386.27	0,1.78199e-06,4.12932e-06,7.22134e-06,1.12943e-05,1.66594e-05,2.37266e-05,3.30358e-05,4.52983e-05,6.14511e-05,8.27284e-05,0.000110756,0.000147675,0.000196307,0.000260367,0.00034475,0.000455903,0.00060232,0.000795187,0.00104924,0.00138389,0.00182471,0.00240538,0.00317027,0.00417781,0.005505,0.00725324,0.0095561,0.0125895,0.0165853,0.0218488,0.0287821,inf	378.932,378.932,332.971,135.695,245.74,542.611,677.394,592.738,441.066,343.776,326.163,337.629,351.332,365.836,362.002,344.433,329.943,327.159,342.279,375.02,414.381,450.449,461.216,442.007,421.733,411.208,444.281,616.184,616.184,1.92635,1.92635,1.92635
0.000958815	-13801487.85	0,1.78199e-06,4.12932e-06,7.22134e-06,1.12943e-05,1.66594e-05,2.37266e-05,3.30358e-05,4.52983e-05,6.14511e-05,8.27284e-05,0.000110756,0.000147675,0.000196307,0.000260367,0.00034475,0.000455903,0.00060232,0.000795187,0.00104924,0.00138389,0.00182471,0.00240538,0.00317027,0.00417781,0.005505,0.00725324,0.0095561,0.0125895,0.0165853,0.0218488,0.0287821,inf	379.402,379.402,339.926,121.888,231.154,542.411,687.184,596.825,437.066,337.534,321.942,335.526,350.966,367.237,363.859,345.704,330.558,327.125,342.065,375.026,414.699,451.187,461.624,441.108,419.547,407.918,442.618,634.485,634.485,14.4965,14.4965,14.4965
0.000976925	-13800958.86	0,1.78199e-06,4.12932e-06,7.22134e-06,1.12943e-05,1.66594e-05,2.37266e-05,3.30358e-05,4.52983e-05,6.14511e-05,8.27284e-05,0.000110756,0.000147675,0.000196307,0.000260367,0.00034475,0.000455903,0.00060232,0.000795187,0.00104924,0.00138389,0.00182471,0.00240538,0.00317027,0.00417781,0.005505,0.00725324,0.0095561,0.0125895,0.0165853,0.0218488,0.0287821,inf	378.866,378.866,346.715,109.676,218.079,542.542,696.751,600.769,433.343,331.856,318.244,333.717,350.651,368.492,365.514,346.848,331.155,327.142,341.923,375.064,414.99,451.844,461.951,440.181,417.284,404.289,439.694,638.1,638.1,1.83992,1.83992,1.83992
0.000993556	-13801076.13	0,1.78199e-06,4.12932e-06,7.22134e-06,1.12943e-05,1.66594e-05,2.37266e-05,3.30358e-05,4.52983e-05,6.14511e-05,8.27284e-05,0.000110756,0.000147675,0.000196307,0.000260367,0.00034475,0.000455903,0.00060232,0.000795187,0.00104924,0.00138389,0.00182471,0.00240538,0.00317027,0.00417781,0.005505,0.00725324,0.0095561,0.0125895,0.0165853,0.0218488,0.0287821,inf	377.721,377.721,353.117,98.7743,206.194,542.778,705.853,604.39,429.749,326.618,314.964,332.133,350.358,369.595,366.97,347.864,331.717,327.185,341.822,375.112,415.255,452.467,462.332,439.486,415.427,401.258,437.773,653.398,653.398,14.032,14.032,14.032
0.00100947	-13800631.26	0,1.78199e-06,4.12932e-06,7.22134e-06,1.12943e-05,1.66594e-05,2.37266e-05,3.30358e-05,4.52983e-05,6.14511e-05,8.27284e-05,0.000110756,0.000147675,0.000196307,0.000260367,0.00034475,0.000455903,0.00060232,0.000795187,0.00104924,0.00138389,0.00182471,0.00240538,0.00317027,0.00417781,0.005505,0.00725324,0.0095561,0.0125895,0.0165853,0.0218488,0.0287821,inf	376.213,376.213,359.074,89.056,195.396,543.131,714.609,607.795,426.361,321.843,312.119,330.817,350.145,370.613,368.283,348.784,332.255,327.25,341.754,375.163,415.479,453.013,462.643,438.766,413.51,397.962,434.849,655.212,655.212,1.77883,1.77883,1.77883
0.0010241	-13800765.62	0,1.78199e-06,4.12932e-06,7.22134e-06,1.12943e-05,1.66594e-05,2.37266e-05,3.30358e-05,4.52983e-05,6.14511e-05,8.27284e-05,0.000110756,0.000147675,0.000196307,0.000260367,0.00034475,0.000455903,0.00060232,0.000795187,0.00104924,0.00138389,0.00182471,0.00240538,0.00317027,0.00417781,0.005505,0.00725324,0.0095561,0.0125895,0.0165853,0.0218488,0.0287821,inf	374.434,374.434,364.475,80.3628,185.502,543.438,722.834,610.858,423.061,317.416,309.611,329.696,349.965,371.526,369.451,349.609,332.763,327.326,341.708,375.21,415.677,453.536,463.013,438.263,411.966,395.217,432.856,668.643,668.643,13.6693,13.6693,13.6693
0.00103814	-13800380.61	0,1.78199e-06,4.12932e-06,7.22134e-06,1.12943e-05,1.66594e-05,2.37266e-05,3.30358e-05,4.52983e-05,6.14511e-05,8.27284e-05,0.000110756,0.000147675,0.000196307,0.000260367,0.00034475,0.000455903,0.00060232,0.000795187,0.00104924,0.00138389,0.00182471,0.00240538,0.00317027,0.00417781,0.005505,0.00725324,0.0095561,0.0125895,0.0165853,0.0218488,0.0287821,inf	372.672,372.672,369.411,72.5862,176.434,543.788,730.648,613.709,419.917,313.356,307.453,328.797,349.862,372.384,370.513,350.359,333.248,327.413,341.679,375.249,415.831,453.984,463.314,437.725,410.356,392.237,430.012,669.311,669.311,1.73745,1.73745,1.73745
0.00105104	-13800526.99	0,1.78199e-06,4.12932e-06,7.22134e-06,1.12943e-05,1.66594e-05,2.37266e-05,3.30358e-05,4.52983e-05,6.14511e-05,8.27284e-05,0.000110756,0.000147675,0.000196307,0.000260367,0.00034475,0.000455903,0.00060232,0.000795187,0.00104924,0.00138389,0.00182471,0.00240538,0.00317027,0.00417781,0.005505,0.00725324,0.0095561,0.0125895,0.0165853,0.0218488,0.0287821,inf	370.855,370.855,373.792,65.6261,168.071,544.104,737.963,616.232,416.829,309.567,305.558,328.053,349.791,373.164,371.465,351.037,333.709,327.508,341.663,375.282,415.962,454.415,463.673,437.383,409.085,389.761,428.026,681.464,681.464,13.3948,13.3948,13.3948
0.00106347	-13800186.02	0,1.78199e-06,4.12932e-06,7.22134e-06,1.12943e-05,1.66594e-05,2.37266e-05,3.30358e-05,4.52983e-05,6.14511e-05,8.27284e-05,0.000110756,0.000147675,0.000196307,0.000260367,0.00034475,0.000455903,0.00060232,0.000795187,0.00104924,0.00138389,0.00182471,0.00240538,0.00317027,0.00417781,0.005505,0.00725324,0.0095561,0.0125895,0.0165853,0.0218488,0.0287821,inf	369.131,369.131,377.791,59.3901,160.372,544.45,744.917,618.554,413.869,306.066,303.94,327.486,349.782,373.902,372.334,351.657,334.152,327.608,341.656,375.302,416.052,454.777,463.963,436.996,407.739,387.063,425.289,681.367,681.367,1.70434,1.70434,1.70434
0.00107488	-13800340.92	0,1.78199e-06,4.12932e-06,7.22134e-06,1.12943e-05,1.66594e-05,2.37266e-05,3.30358e-05,4.52983e-05,6.14511e-05,8.27284e-05,0.000110756,0.000147675,0.000196307,0.000260367,0.00034475,0.000455903,0.00060232,0.000795187,0.00104924,0.00138389,0.00182471,0.00240538,0.00317027,0.00417781,0.005505,0.00725324,0.0095561,0.0125895,0.0165853,0.0218488,0.0287821,inf	367.506,367.506,381.314,53.7991,153.249,544.749,751.411,620.585,410.952,302.781,302.523,327.033,349.796,374.576,373.114,352.22,334.577,327.714,341.66,375.317,416.125,455.128,464.308,436.787,406.702,384.825,423.347,692.621,692.621,13.1688,13.1688,13.1688
0.00108591	-13800033.68	0,1.78199e-06,4.12932e-06,7.22134e-06,1.12943e-05,1.66594e-05,2.37266e-05,3.30358e-05,4.52983e-05,6.14511e-05,8.27284e-05,0.000110756,0.000147675,0.000196307,0.000260367,0.00034475,0.000455903,0.00060232,0.000795187,0.00104924,0.00138389,0.00182471,0.00240538,0.00317027,0.00417781,0.005505,0.00725324,0.0095561,0.0125895,0.0165853,0.0218488,0.0287821,inf	365.989,365.989,384.402,48.7749,146.665,545.106,757.605,622.449,408.143,299.732,301.329,326.721,349.858,375.215,373.827,352.738,334.986,327.823,341.669,375.319,416.159,455.415,464.584,436.524,405.58,382.374,420.725,691.993,691.993,1.67679,1.67679,1.67679
