LogLikelihood = -210570.39608585569658

y0 0.72687955905299117543
y0_prime 0
y1 1.1347021174936375854
y1_prime 0
y2 0.85694272241141222768
y2_prime 0
y3 2.4502405590462541518
y3_prime 0
rho 0.0005177712833103794831
theta 0.00049521263451261440802
