LogLikelihood = -42131.301960623299237

y0 1.0531399694098084741
y0_prime 0
y1 1.5377169674421040657
y1_prime 0
y2 0.2285695356871551287
y2_prime 0
y3 3.0613854296032378954
y3_prime 0
rho 0.0035528759076912976023
rho.alpha 0.44290405419025979938
r_ii 0.99990576249906093498
theta 0.00049574376569205065753
