0.000365728	-7807085.17	0,8.99201e-07,2.08367e-06,3.64391e-06,5.69914e-06,8.40639e-06,1.19725e-05,1.667e-05,2.28577e-05,3.10085e-05,4.17451e-05,5.58878e-05,7.45174e-05,9.90571e-05,0.000131382,0.000173962,0.00023005,0.000303933,0.000401254,0.000529451,0.000698317,0.000920757,0.00121376,0.00159973,0.00210814,0.00277784,0.00366001,0.00482204,0.00635273,0.00836902,0.011025,0.0145235,inf	141.881,141.881,275.156,400.313,508.901,581.693,624.677,655.78,682.278,698.688,700.206,691.787,681.739,678.325,684.976,698.776,714.764,730.309,747.099,767.325,791.368,817.499,834.61,837.892,833.848,817.582,788.229,760.547,760.547,770.337,770.337,770.337
0.000409473	-7803772.15	0,8.99201e-07,2.08367e-06,3.64391e-06,5.69914e-06,8.40639e-06,1.19725e-05,1.667e-05,2.28577e-05,3.10085e-05,4.17451e-05,5.58878e-05,7.45174e-05,9.90571e-05,0.000131382,0.000173962,0.00023005,0.000303933,0.000401254,0.000529451,0.000698317,0.000920757,0.00121376,0.00159973,0.00210814,0.00277784,0.00366001,0.00482204,0.00635273,0.00836902,0.011025,0.0145235,inf	33.6457,33.6457,124.87,258.94,407.754,517.905,582.545,630.302,673.311,699.182,697.497,677.572,655.246,645.555,653.66,673.43,695.404,714.571,734.284,759.254,791.696,830.572,858.239,865.938,862.989,836.623,785.093,736.884,736.884,748.092,748.092,748.092
0.000450235	-7801370.79	0,8.99201e-07,2.08367e-06,3.64391e-06,5.69914e-06,8.40639e-06,1.19725e-05,1.667e-05,2.28577e-05,3.10085e-05,4.17451e-05,5.58878e-05,7.45174e-05,9.90571e-05,0.000131382,0.000173962,0.00023005,0.000303933,0.000401254,0.000529451,0.000698317,0.000920757,0.00121376,0.00159973,0.00210814,0.00277784,0.00366001,0.00482204,0.00635273,0.00836902,0.011025,0.0145235,inf	9.02497,9.02497,63.4118,184.076,351.5,485.726,563.511,622.981,680.217,714.926,710.44,680.265,647.595,633.316,643.234,667.772,693.175,712.297,730.304,754.468,789.052,834.175,868.198,879.99,880.249,847.459,778.95,715.323,715.323,721.761,721.761,721.761
0.000488344	-7799502.47	0,8.99201e-07,2.08367e-06,3.64391e-06,5.69914e-06,8.40639e-06,1.19725e-05,1.667e-05,2.28577e-05,3.10085e-05,4.17451e-05,5.58878e-05,7.45174e-05,9.90571e-05,0.000131382,0.000173962,0.00023005,0.000303933,0.000401254,0.000529451,0.000698317,0.000920757,0.00121376,0.00159973,0.00210814,0.00277784,0.00366001,0.00482204,0.00635273,0.00836902,0.011025,0.0145235,inf	2.62508,2.62508,34.6643,138.653,314.809,464.918,549.592,617.027,686.704,729.897,723.499,684.879,644.22,627.455,640.318,669.749,697.884,715.676,730.267,751.451,785.441,833.412,871.137,886.362,890.598,853.653,771.923,696.568,696.568,694.358,694.358,694.358
0.000524105	-7797999.05	0,8.99201e-07,2.08367e-06,3.64391e-06,5.69914e-06,8.40639e-06,1.19725e-05,1.667e-05,2.28577e-05,3.10085e-05,4.17451e-05,5.58878e-05,7.45174e-05,9.90571e-05,0.000131382,0.000173962,0.00023005,0.000303933,0.000401254,0.000529451,0.000698317,0.000920757,0.00121376,0.00159973,0.00210814,0.00277784,0.00366001,0.00482204,0.00635273,0.00836902,0.011025,0.0145235,inf	0.818808,0.818808,20.1351,109.458,290.517,451.256,538.024,610.322,690.537,741.499,733.689,688.038,641.294,623.687,640.407,674.996,705.647,721.63,732.185,749.554,781.716,830.669,870.41,888.425,896.826,857.191,764.999,680.636,680.636,667.581,667.581,667.581
0.000557769	-7796764.20	0,8.99201e-07,2.08367e-06,3.64391e-06,5.69914e-06,8.40639e-06,1.19725e-05,1.667e-05,2.28577e-05,3.10085e-05,4.17451e-05,5.58878e-05,7.45174e-05,9.90571e-05,0.000131382,0.000173962,0.00023005,0.000303933,0.000401254,0.000529451,0.000698317,0.000920757,0.00121376,0.00159973,0.00210814,0.00277784,0.00366001,0.00482204,0.00635273,0.00836902,0.011025,0.0145235,inf	0.784061,0.784061,12.348,90.0257,275.125,443.401,528.75,603.514,692.547,750.336,741.215,689.457,637.973,620.643,641.786,681.682,714.737,728.727,735.083,748.393,778.198,827.073,867.75,888.02,900.53,859.183,758.592,667.277,667.277,642.249,642.249,642.249
0.000589543	-7795735.02	0,8.99201e-07,2.08367e-06,3.64391e-06,5.69914e-06,8.40639e-06,1.19725e-05,1.667e-05,2.28577e-05,3.10085e-05,4.17451e-05,5.58878e-05,7.45174e-05,9.90571e-05,0.000131382,0.000173962,0.00023005,0.000303933,0.000401254,0.000529451,0.000698317,0.000920757,0.00121376,0.00159973,0.00210814,0.00277784,0.00366001,0.00482204,0.00635273,0.00836902,0.011025,0.0145235,inf	0.784061,0.784061,7.91218,76.705,266.377,440.389,521.785,597.336,693.787,757.461,746.878,689.556,634.241,617.894,643.745,688.955,724.3,736.236,738.435,747.715,774.979,823.169,864.081,886.182,902.642,860.259,752.846,656.168,656.168,618.663,618.663,618.663
0.000619598	-7794867.46	0,8.99201e-07,2.08367e-06,3.64391e-06,5.69914e-06,8.40639e-06,1.19725e-05,1.667e-05,2.28577e-05,3.10085e-05,4.17451e-05,5.58878e-05,7.45174e-05,9.90571e-05,0.000131382,0.000173962,0.00023005,0.000303933,0.000401254,0.000529451,0.000698317,0.000920757,0.00121376,0.00159973,0.00210814,0.00277784,0.00366001,0.00482204,0.00635273,0.00836902,0.011025,0.0145235,inf	0.784061,0.784061,5.29304,67.3331,262.622,441.241,516.886,592.06,694.967,763.695,751.398,688.811,630.269,615.329,645.974,696.401,733.899,743.769,741.944,747.351,772.066,819.221,859.908,883.509,903.726,860.784,747.773,646.99,646.99,596.847,596.847,596.847
0.00064808	-7794129.28	0,8.99201e-07,2.08367e-06,3.64391e-06,5.69914e-06,8.40639e-06,1.19725e-05,1.667e-05,2.28577e-05,3.10085e-05,4.17451e-05,5.58878e-05,7.45174e-05,9.90571e-05,0.000131382,0.000173962,0.00023005,0.000303933,0.000401254,0.000529451,0.000698317,0.000920757,0.00121376,0.00159973,0.00210814,0.00277784,0.00366001,0.00482204,0.00635273,0.00836902,0.011025,0.0145235,inf	0.784061,0.784061,3.65007,60.5496,262.593,445.097,513.617,587.794,696.433,769.564,755.265,687.582,626.225,612.93,648.329,703.803,743.297,751.112,745.438,747.189,769.433,815.359,855.515,880.355,904.129,860.973,743.329,639.454,639.454,576.686,576.686,576.686
0.000675115	-7793496.18	0,8.99201e-07,2.08367e-06,3.64391e-06,5.69914e-06,8.40639e-06,1.19725e-05,1.667e-05,2.28577e-05,3.10085e-05,4.17451e-05,5.58878e-05,7.45174e-05,9.90571e-05,0.000131382,0.000173962,0.00023005,0.000303933,0.000401254,0.000529451,0.000698317,0.000920757,0.00121376,0.00159973,0.00210814,0.00277784,0.00366001,0.00482204,0.00635273,0.00836902,0.011025,0.0145235,inf	0.784061,0.784061,2.58828,55.4915,265.375,451.116,511.558,584.396,698.313,775.354,758.797,686.107,622.228,610.701,650.744,711.051,752.37,758.152,748.822,747.153,767.052,811.643,851.066,876.938,904.072,860.951,739.45,633.316,633.316,558.008,558.008,558.008
0.000700811	-7792949.47	0,8.99201e-07,2.08367e-06,3.64391e-06,5.69914e-06,8.40639e-06,1.19725e-05,1.667e-05,2.28577e-05,3.10085e-05,4.17451e-05,5.58878e-05,7.45174e-05,9.90571e-05,0.000131382,0.000173962,0.00023005,0.000303933,0.000401254,0.000529451,0.000698317,0.000920757,0.00121376,0.00159973,0.00210814,0.00277784,0.00366001,0.00482204,0.00635273,0.00836902,0.011025,0.0145235,inf	0.784061,0.784061,1.86674,51.6192,270.288,458.601,510.283,581.693,700.633,781.19,762.184,684.556,618.366,608.659,653.187,718.092,761.063,764.835,752.047,747.198,764.89,808.101,846.654,873.389,903.7,860.795,736.067,628.369,628.369,540.627,540.627,540.627
0.000725267	-7792474.51	0,8.99201e-07,2.08367e-06,3.64391e-06,5.69914e-06,8.40639e-06,1.19725e-05,1.667e-05,2.28577e-05,3.10085e-05,4.17451e-05,5.58878e-05,7.45174e-05,9.90571e-05,0.000131382,0.000173962,0.00023005,0.000303933,0.000401254,0.000529451,0.000698317,0.000920757,0.00121376,0.00159973,0.00210814,0.00277784,0.00366001,0.00482204,0.00635273,0.00836902,0.011025,0.0145235,inf	0.784061,0.784061,1.00618,48.5805,276.797,467.04,509.475,579.542,703.345,787.16,765.531,683.019,614.687,606.807,655.641,724.9,769.349,771.14,755.088,747.291,762.921,804.74,842.335,869.796,903.107,860.552,733.113,624.441,624.441,524.359,524.359,524.359
0.000748568	-7792059.68	0,8.99201e-07,2.08367e-06,3.64391e-06,5.69914e-06,8.40639e-06,1.19725e-05,1.667e-05,2.28577e-05,3.10085e-05,4.17451e-05,5.58878e-05,7.45174e-05,9.90571e-05,0.000131382,0.000173962,0.00023005,0.000303933,0.000401254,0.000529451,0.000698317,0.000920757,0.00121376,0.00159973,0.00210814,0.00277784,0.00366001,0.00482204,0.00635273,0.00836902,0.011025,0.0145235,inf	0.784061,0.784061,0.784588,46.1282,284.531,476.012,508.919,577.763,706.376,793.277,768.891,681.554,611.218,605.146,658.098,731.466,777.226,777.066,757.936,747.412,761.123,801.559,838.137,866.21,902.36,860.249,730.53,621.392,621.392,509.03,509.03,509.03
0.000770792	-7791695.65	0,8.99201e-07,2.08367e-06,3.64391e-06,5.69914e-06,8.40639e-06,1.19725e-05,1.667e-05,2.28577e-05,3.10085e-05,4.17451e-05,5.58878e-05,7.45174e-05,9.90571e-05,0.000131382,0.000173962,0.00023005,0.000303933,0.000401254,0.000529451,0.000698317,0.000920757,0.00121376,0.00159973,0.00210814,0.00277784,0.00366001,0.00482204,0.00635273,0.00836902,0.011025,0.0145235,inf	0.784061,0.784061,0.784125,44.114,293.117,485.16,508.399,576.265,709.681,799.51,772.276,680.181,607.965,603.668,660.554,737.792,784.7,782.622,760.592,747.55,759.477,798.554,834.078,862.666,901.503,859.905,728.264,619.106,619.106,494.484,494.484,494.484
0.00079201	-7791374.84	0,8.99201e-07,2.08367e-06,3.64391e-06,5.69914e-06,8.40639e-06,1.19725e-05,1.667e-05,2.28577e-05,3.10085e-05,4.17451e-05,5.58878e-05,7.45174e-05,9.90571e-05,0.000131382,0.000173962,0.00023005,0.000303933,0.000401254,0.000529451,0.000698317,0.000920757,0.00121376,0.00159973,0.00210814,0.00277784,0.00366001,0.00482204,0.00635273,0.00836902,0.011025,0.0145235,inf	0.784061,0.784061,0.784125,42.4252,302.355,494.277,507.803,574.911,713.179,805.837,775.687,678.911,604.929,602.367,663.002,743.881,791.785,787.825,763.064,747.697,757.967,795.716,830.165,859.185,900.569,859.53,726.273,617.488,617.488,480.581,480.581,480.581
0.000812285	-7791091.06	0,8.99201e-07,2.08367e-06,3.64391e-06,5.69914e-06,8.40639e-06,1.19725e-05,1.667e-05,2.28577e-05,3.10085e-05,4.17451e-05,5.58878e-05,7.45174e-05,9.90571e-05,0.000131382,0.000173962,0.00023005,0.000303933,0.000401254,0.000529451,0.000698317,0.000920757,0.00121376,0.00159973,0.00210814,0.00277784,0.00366001,0.00482204,0.00635273,0.00836902,0.011025,0.0145235,inf	0.784061,0.784061,0.784125,40.9815,312.111,503.169,507.058,573.665,716.818,812.226,779.127,677.752,602.102,601.232,665.44,749.743,798.501,792.692,765.359,747.846,756.58,793.038,826.4,855.78,899.581,859.133,724.517,616.463,616.463,467.19,467.19,467.19
0.000831676	-7790839.17	0,8.99201e-07,2.08367e-06,3.64391e-06,5.69914e-06,8.40639e-06,1.19725e-05,1.667e-05,2.28577e-05,3.10085e-05,4.17451e-05,5.58878e-05,7.45174e-05,9.90571e-05,0.000131382,0.000173962,0.00023005,0.000303933,0.000401254,0.000529451,0.000698317,0.000920757,0.00121376,0.00159973,0.00210814,0.00277784,0.00366001,0.00482204,0.00635273,0.00836902,0.011025,0.0145235,inf	0.784061,0.784061,0.784125,39.7254,322.213,511.76,506.104,572.482,720.55,818.65,782.581,676.691,599.474,600.249,667.867,755.386,804.864,797.243,767.49,747.998,755.306,790.509,822.782,852.46,898.554,858.718,722.967,615.969,615.969,454.194,454.194,454.194
0.000850234	-7790614.94	0,8.99201e-07,2.08367e-06,3.64391e-06,5.69914e-06,8.40639e-06,1.19725e-05,1.667e-05,2.28577e-05,3.10085e-05,4.17451e-05,5.58878e-05,7.45174e-05,9.90571e-05,0.000131382,0.000173962,0.00023005,0.000303933,0.000401254,0.000529451,0.000698317,0.000920757,0.00121376,0.00159973,0.00210814,0.00277784,0.00366001,0.00482204,0.00635273,0.00836902,0.011025,0.0145235,inf	0.784061,0.784061,0.784125,38.6019,332.608,519.972,504.916,571.312,724.331,825.082,786.037,675.726,597.031,599.409,670.279,760.818,810.895,801.498,769.466,748.15,754.135,788.122,819.306,849.227,897.503,858.288,721.594,615.956,615.956,441.482,441.482,441.482
0.00086801	-7790414.80	0,8.99201e-07,2.08367e-06,3.64391e-06,5.69914e-06,8.40639e-06,1.19725e-05,1.667e-05,2.28577e-05,3.10085e-05,4.17451e-05,5.58878e-05,7.45174e-05,9.90571e-05,0.000131382,0.000173962,0.00023005,0.000303933,0.000401254,0.000529451,0.000698317,0.000920757,0.00121376,0.00159973,0.00210814,0.00277784,0.00366001,0.00482204,0.00635273,0.00836902,0.011025,0.0145235,inf	0.784061,0.784061,0.784125,37.5962,343.199,527.764,503.517,570.146,728.142,831.498,789.477,674.846,594.76,598.701,672.672,766.049,816.612,805.477,771.3,748.302,753.058,785.867,815.97,846.085,896.436,857.846,720.379,616.388,616.388,428.951,428.951,428.951
0.000885047	-7790235.76	0,8.99201e-07,2.08367e-06,3.64391e-06,5.69914e-06,8.40639e-06,1.19725e-05,1.667e-05,2.28577e-05,3.10085e-05,4.17451e-05,5.58878e-05,7.45174e-05,9.90571e-05,0.000131382,0.000173962,0.00023005,0.000303933,0.000401254,0.000529451,0.000698317,0.000920757,0.00121376,0.00159973,0.00210814,0.00277784,0.00366001,0.00482204,0.00635273,0.00836902,0.011025,0.0145235,inf	0.784061,0.784061,0.784125,36.7018,353.928,535.078,501.896,568.998,731.951,837.87,792.888,674.041,592.647,598.108,675.044,771.088,822.032,809.198,773.003,748.454,752.068,783.738,812.766,843.031,895.359,857.395,719.303,617.235,617.235,416.497,416.497,416.497
