AIC = 1323176.1842581310775

y0 0.1617228353071452629
y0_prime 0
y1 0.33072116964152747931
y1_prime 0
y2 2.1484908527547488255
y2_prime 0
y3 36.462079712647437191
y3_prime 0
rho 0.00081208615298654612379
rho.alpha 0.65405475973613291796
r_ii 0.99993134369291269969
theta 0.0018193620402455722151
