time_index	left_time_boundary	right_time_boundary	lambda
0	0	4.13264e-06	2446.05
1	4.13264e-06	1.13034e-05	2446.05
2	1.13034e-05	2.37456e-05	678.164
3	2.37456e-05	4.53347e-05	311.185
4	4.53347e-05	8.27949e-05	689.71
5	8.27949e-05	0.000147794	356.943
6	0.000147794	0.000260576	567.182
7	0.000260576	0.00045627	448.402
8	0.00045627	0.000795826	296.658
9	0.000795826	0.00138501	342.585
10	0.00138501	0.00240732	353.647
11	0.00240732	0.00418117	438.885
12	0.00418117	0.00725907	421.039
13	0.00725907	0.0125997	283.621
14	0.0125997	0.0218664	283.621
15	0.0218664	inf	283.621
