time_index	left_time_boundary	right_time_boundary	lambda
0	0	4.19962e-06	976.881
1	4.19962e-06	1.14866e-05	976.881
2	1.14866e-05	2.41305e-05	253.892
3	2.41305e-05	4.60694e-05	488.249
4	4.60694e-05	8.41367e-05	438.825
5	8.41367e-05	0.000150189	455.225
6	0.000150189	0.000264799	392.078
7	0.000264799	0.000463664	424.763
8	0.000463664	0.000808724	400.366
9	0.000808724	0.00140745	398.404
10	0.00140745	0.00244633	434.977
11	0.00244633	0.00424894	311.4
12	0.00424894	0.00737671	359.218
13	0.00737671	0.0128039	175.541
14	0.0128039	0.0222207	175.541
15	0.0222207	inf	175.541
