time_index	left_time_boundary	right_time_boundary	lambda
0	0	5.05672e-06	371.844
1	5.05672e-06	1.15973e-05	371.844
2	1.15973e-05	2.00571e-05	371.844
3	2.00571e-05	3.09993e-05	371.844
4	3.09993e-05	4.51524e-05	371.844
5	4.51524e-05	6.34586e-05	371.844
6	6.34586e-05	8.71366e-05	371.844
7	8.71366e-05	0.000117763	371.844
8	0.000117763	0.000157375	371.844
9	0.000157375	0.000208612	371.844
10	0.000208612	0.000274884	371.844
11	0.000274884	0.000360602	371.844
12	0.000360602	0.000471473	371.844
13	0.000471473	0.000614878	371.844
14	0.000614878	0.000800364	371.844
15	0.000800364	0.00104028	371.844
16	0.00104028	0.00135059	371.844
17	0.00135059	0.00175197	371.844
18	0.00175197	0.00227112	371.844
19	0.00227112	0.00294261	371.844
20	0.00294261	0.00381114	371.844
21	0.00381114	0.00493453	371.844
22	0.00493453	0.00638757	371.844
23	0.00638757	0.00826699	371.844
24	0.00826699	0.0106979	371.844
25	0.0106979	0.0138421	371.844
26	0.0138421	0.017909	371.844
27	0.017909	0.0231693	371.844
28	0.0231693	0.0299731	371.844
29	0.0299731	inf	371.844
