time_index	left_time_boundary	right_time_boundary	lambda
0	0	2.92734e-06	369.627
1	2.92734e-06	6.79324e-06	369.627
2	6.79324e-06	1.18986e-05	369.627
3	1.18986e-05	1.86409e-05	369.627
4	1.86409e-05	2.7545e-05	369.627
5	2.7545e-05	3.93038e-05	369.627
6	3.93038e-05	5.48328e-05	369.627
7	5.48328e-05	7.53407e-05	369.627
8	7.53407e-05	0.000102424	369.627
9	0.000102424	0.000138191	369.627
10	0.000138191	0.000185425	369.627
11	0.000185425	0.000247803	369.627
12	0.000247803	0.000330182	369.627
13	0.000330182	0.000438973	369.627
14	0.000438973	0.000582644	369.627
15	0.000582644	0.00077238	369.627
16	0.00077238	0.00102295	369.627
17	0.00102295	0.00135386	369.627
18	0.00135386	0.00179086	369.627
19	0.00179086	0.00236797	369.627
20	0.00236797	0.00313012	369.627
21	0.00313012	0.00413664	369.627
22	0.00413664	0.00546586	369.627
23	0.00546586	0.00722126	369.627
24	0.00722126	0.00953948	369.627
25	0.00953948	0.012601	369.627
26	0.012601	0.016644	369.627
27	0.016644	0.0219834	369.627
28	0.0219834	0.0290347	369.627
29	0.0290347	inf	369.627
