0.000570125	-4603696.02	0,1.06848e-05,2.79944e-05,5.60366e-05,0.000101466,0.000175063,0.000294292,0.000487447,0.000800364,0.0013073,0.00212855,0.00345901,0.00561438,0.00910616,0.014763,0.0239271,inf	435.502,435.502,308.999,351.571,357.445,354.913,379.827,394.483,393.427,389.661,381.423,367.125,349.099,287.193,287.193,287.193
0.000512279	-4602749.03	0,1.06848e-05,2.79944e-05,5.60366e-05,0.000101466,0.000175063,0.000294292,0.000487447,0.000800364,0.0013073,0.00212855,0.00345901,0.00561438,0.00910616,0.014763,0.0239271,inf	483.897,483.897,286.808,356.855,358.382,339.815,376.724,400.857,398.846,394.641,383.022,361.272,334.535,243.721,243.721,243.721
0.00046581	-4602232.22	0,1.06848e-05,2.79944e-05,5.60366e-05,0.000101466,0.000175063,0.000294292,0.000487447,0.000800364,0.0013073,0.00212855,0.00345901,0.00561438,0.00910616,0.014763,0.0239271,inf	516.632,516.632,277.644,371.523,368.881,331.518,374.312,404.475,401.079,397.628,385.116,360.789,330.538,221.063,221.063,221.063
0.000427971	-4601841.24	0,1.06848e-05,2.79944e-05,5.60366e-05,0.000101466,0.000175063,0.000294292,0.000487447,0.000800364,0.0013073,0.00212855,0.00345901,0.00561438,0.00910616,0.014763,0.0239271,inf	539.72,539.72,271.807,386.935,382.399,326.986,372.611,406.581,401.328,398.578,385.775,361.842,330.873,208.111,208.111,208.111
0.000397301	-4601535.98	0,1.06848e-05,2.79944e-05,5.60366e-05,0.000101466,0.000175063,0.000294292,0.000487447,0.000800364,0.0013073,0.00212855,0.00345901,0.00561438,0.00910616,0.014763,0.0239271,inf	557.682,557.682,266.779,400.492,396.276,324.738,371.617,408.05,400.781,398.367,384.99,363.004,332.468,200.252,200.252,200.252
0.000372697	-4601311.02	0,1.06848e-05,2.79944e-05,5.60366e-05,0.000101466,0.000175063,0.000294292,0.000487447,0.000800364,0.0013073,0.00212855,0.00345901,0.00561438,0.00910616,0.014763,0.0239271,inf	572.29,572.29,262.029,411.623,409.302,323.873,371.153,409.22,400.065,397.715,383.276,363.935,333.972,195.267,195.267,195.267
0.000353177	-4601156.11	0,1.06848e-05,2.79944e-05,5.60366e-05,0.000101466,0.000175063,0.000294292,0.000487447,0.000800364,0.0013073,0.00212855,0.00345901,0.00561438,0.00910616,0.014763,0.0239271,inf	584.334,584.334,257.553,420.461,420.93,323.823,371.024,410.176,399.412,397.019,381.124,364.673,334.941,191.991,191.991,191.991
0.000337841	-4601056.04	0,1.06848e-05,2.79944e-05,5.60366e-05,0.000101466,0.000175063,0.000294292,0.000487447,0.000800364,0.0013073,0.00212855,0.00345901,0.00561438,0.00910616,0.014763,0.0239271,inf	594.149,594.149,253.432,427.343,430.957,324.22,371.084,410.933,398.87,396.448,378.868,365.324,335.349,189.774,189.774,189.774
0.000325891	-4600995.29	0,1.06848e-05,2.79944e-05,5.60366e-05,0.000101466,0.000175063,0.000294292,0.000487447,0.000800364,0.0013073,0.00212855,0.00345901,0.00561438,0.00910616,0.014763,0.0239271,inf	602.008,602.008,249.753,432.625,439.38,324.832,371.24,411.509,398.428,396.049,376.7,365.96,335.328,188.236,188.236,188.236
0.000316638	-4600960.85	0,1.06848e-05,2.79944e-05,5.60366e-05,0.000101466,0.000175063,0.000294292,0.000487447,0.000800364,0.0013073,0.00212855,0.00345901,0.00561438,0.00910616,0.014763,0.0239271,inf	608.237,608.237,246.58,436.64,446.302,325.516,371.437,411.929,398.059,395.817,374.715,366.606,335.031,187.15,187.15,187.15
0.000309511	-4600942.97	0,1.06848e-05,2.79944e-05,5.60366e-05,0.000101466,0.000175063,0.000294292,0.000487447,0.000800364,0.0013073,0.00212855,0.00345901,0.00561438,0.00910616,0.014763,0.0239271,inf	613.069,613.069,243.885,439.664,451.885,326.187,371.642,412.227,397.743,395.725,372.949,367.259,334.588,186.371,186.371,186.371
0.000304042	-4600934.96	0,1.06848e-05,2.79944e-05,5.60366e-05,0.000101466,0.000175063,0.000294292,0.000487447,0.000800364,0.0013073,0.00212855,0.00345901,0.00561438,0.00910616,0.014763,0.0239271,inf	616.839,616.839,241.654,441.936,456.328,326.798,371.842,412.434,397.462,395.745,371.409,367.899,334.09,185.807,185.807,185.807
0.000299858	-4600932.49	0,1.06848e-05,2.79944e-05,5.60366e-05,0.000101466,0.000175063,0.000294292,0.000487447,0.000800364,0.0013073,0.00212855,0.00345901,0.00561438,0.00910616,0.014763,0.0239271,inf	619.78,619.78,239.833,443.637,459.814,327.332,372.025,412.576,397.209,395.846,370.085,368.507,333.594,185.396,185.396,185.396
0.000296664	-4600932.89	0,1.06848e-05,2.79944e-05,5.60366e-05,0.000101466,0.000175063,0.000294292,0.000487447,0.000800364,0.0013073,0.00212855,0.00345901,0.00561438,0.00910616,0.014763,0.0239271,inf	622.019,622.019,238.369,444.91,462.528,327.78,372.188,412.675,396.974,396.006,368.956,369.069,333.132,185.095,185.095,185.095
0.000294238	-4600934.61	0,1.06848e-05,2.79944e-05,5.60366e-05,0.000101466,0.000175063,0.000294292,0.000487447,0.000800364,0.0013073,0.00212855,0.00345901,0.00561438,0.00910616,0.014763,0.0239271,inf	624.077,624.077,237.315,446.087,464.842,328.296,372.48,412.878,396.824,396.219,368.001,369.602,332.76,184.897,184.897,184.897
0.000292386	-4600936.47	0,1.06848e-05,2.79944e-05,5.60366e-05,0.000101466,0.000175063,0.000294292,0.000487447,0.000800364,0.0013073,0.00212855,0.00345901,0.00561438,0.00910616,0.014763,0.0239271,inf	625.312,625.312,236.384,446.775,466.421,328.587,372.602,412.94,396.616,396.427,367.19,370.051,332.408,184.737,184.737,184.737
0.000290976	-4600938.62	0,1.06848e-05,2.79944e-05,5.60366e-05,0.000101466,0.000175063,0.000294292,0.000487447,0.000800364,0.0013073,0.00212855,0.00345901,0.00561438,0.00910616,0.014763,0.0239271,inf	626.254,626.254,235.643,447.276,467.596,328.793,372.677,412.969,396.407,396.645,366.515,370.437,332.1,184.615,184.615,184.615
0.000289905	-4600940.64	0,1.06848e-05,2.79944e-05,5.60366e-05,0.000101466,0.000175063,0.000294292,0.000487447,0.000800364,0.0013073,0.00212855,0.00345901,0.00561438,0.00910616,0.014763,0.0239271,inf	627.011,627.011,235.061,447.656,468.488,328.95,372.734,412.994,396.208,396.865,365.953,370.766,331.84,184.524,184.524,184.524
0.000289091	-4600942.38	0,1.06848e-05,2.79944e-05,5.60366e-05,0.000101466,0.000175063,0.000294292,0.000487447,0.000800364,0.0013073,0.00212855,0.00345901,0.00561438,0.00910616,0.014763,0.0239271,inf	627.558,627.558,234.614,447.949,469.158,329.071,372.778,413.023,396.021,397.078,365.487,371.045,331.625,184.458,184.458,184.458
0.000288519	-4600943.83	0,1.06848e-05,2.79944e-05,5.60366e-05,0.000101466,0.000175063,0.000294292,0.000487447,0.000800364,0.0013073,0.00212855,0.00345901,0.00561438,0.00910616,0.014763,0.0239271,inf	628.187,628.187,234.319,448.293,469.83,329.284,372.968,413.271,396.07,397.538,365.35,371.475,331.601,184.476,184.476,184.476
