0.000580547	-13753586.53	0,1.81233e-06,4.19962e-06,7.34427e-06,1.14866e-05,1.6943e-05,2.41305e-05,3.35981e-05,4.60694e-05,6.24972e-05,8.41367e-05,0.000112641,0.000150189,0.000199649,0.000264799,0.000350619,0.000463664,0.000612573,0.000808724,0.0010671,0.00140745,0.00185578,0.00244633,0.00322424,0.00424894,0.00559872,0.00737671,0.00971878,0.0128039,0.0168677,0.0222207,0.0292721,inf	29.1099,29.1099,200.028,861.461,344.976,318.959,336.12,380.986,364.823,361.43,364.5,371.442,369.53,375.803,384.687,390.983,398.525,402.468,401.39,398.022,395.974,393.138,388.909,384.446,378.206,372.339,364.71,345.381,345.381,364.853,364.853,364.853
0.00052851	-13750973.43	0,1.81233e-06,4.19962e-06,7.34427e-06,1.14866e-05,1.6943e-05,2.41305e-05,3.35981e-05,4.60694e-05,6.24972e-05,8.41367e-05,0.000112641,0.000150189,0.000199649,0.000264799,0.000350619,0.000463664,0.000612573,0.000808724,0.0010671,0.00140745,0.00185578,0.00244633,0.00322424,0.00424894,0.00559872,0.00737671,0.00971878,0.0128039,0.0168677,0.0222207,0.0292721,inf	2.0428,2.0428,71.7911,1217.94,274.414,290.838,315.654,404.261,369.249,358.309,360.641,370.537,361.733,368.106,381.296,389.378,402.033,409.63,408.327,402.697,400.449,396.826,390.289,383.849,373.431,363.707,350.984,318,318,347.361,347.361,347.361
0.000484781	-13749030.12	0,1.81233e-06,4.19962e-06,7.34427e-06,1.14866e-05,1.6943e-05,2.41305e-05,3.35981e-05,4.60694e-05,6.24972e-05,8.41367e-05,0.000112641,0.000150189,0.000199649,0.000264799,0.000350619,0.000463664,0.000612573,0.000808724,0.0010671,0.00140745,0.00185578,0.00244633,0.00322424,0.00424894,0.00559872,0.00737671,0.00971878,0.0128039,0.0168677,0.0222207,0.0292721,inf	0.389037,0.389037,21.952,1436.84,213.465,278.795,303.819,436.205,382.507,363.188,364.778,377.612,360.794,364.679,380.196,387.145,402.889,413.483,412.128,404.425,402.758,399.392,391.542,384.978,371.945,359.785,343.618,300.025,300.025,335.361,335.361,335.361
0.000448126	-13747544.89	0,1.81233e-06,4.19962e-06,7.34427e-06,1.14866e-05,1.6943e-05,2.41305e-05,3.35981e-05,4.60694e-05,6.24972e-05,8.41367e-05,0.000112641,0.000150189,0.000199649,0.000264799,0.000350619,0.000463664,0.000612573,0.000808724,0.0010671,0.00140745,0.00185578,0.00244633,0.00322424,0.00424894,0.00559872,0.00737671,0.00971878,0.0128039,0.0168677,0.0222207,0.0292721,inf	0.389008,0.389008,6.16298,1574.65,167.095,273.741,293.593,467.052,396.515,368.881,370.576,387.396,362.981,363.419,380.751,384.848,402.294,415.402,414.104,404.223,403.396,400.73,391.893,386.499,372.018,358.411,339.922,287.784,287.784,327.582,327.582,327.582
0.000417611	-13746419.64	0,1.81233e-06,4.19962e-06,7.34427e-06,1.14866e-05,1.6943e-05,2.41305e-05,3.35981e-05,4.60694e-05,6.24972e-05,8.41367e-05,0.000112641,0.000150189,0.000199649,0.000264799,0.000350619,0.000463664,0.000612573,0.000808724,0.0010671,0.00140745,0.00185578,0.00244633,0.00322424,0.00424894,0.00559872,0.00737671,0.00971878,0.0128039,0.0168677,0.0222207,0.0292721,inf	0.389002,0.389002,1.6463,1673.09,133.206,272.892,284.296,494.379,409.547,373.649,376.176,398.027,366.869,363.517,382.807,383.01,401.181,416.456,415.332,403.057,403.055,401.182,391.236,387.821,372.713,358.284,338.216,279.192,279.192,323.018,323.018,323.018
0.000392409	-13745588.55	0,1.81233e-06,4.19962e-06,7.34427e-06,1.14866e-05,1.6943e-05,2.41305e-05,3.35981e-05,4.60694e-05,6.24972e-05,8.41367e-05,0.000112641,0.000150189,0.000199649,0.000264799,0.000350619,0.000463664,0.000612573,0.000808724,0.0010671,0.00140745,0.00185578,0.00244633,0.00322424,0.00424894,0.00559872,0.00737671,0.00971878,0.0128039,0.0168677,0.0222207,0.0292721,inf	0.389002,0.389002,0.43034,1749.72,108.353,274.697,275.995,517.577,421.25,377.034,380.833,408.465,371.51,364.274,385.98,381.668,399.889,417.116,416.351,401.499,402.238,401.126,389.728,388.745,373.561,358.662,337.463,272.993,272.993,320.862,320.862,320.862
0.000371755	-13744993.88	0,1.81233e-06,4.19962e-06,7.34427e-06,1.14866e-05,1.6943e-05,2.41305e-05,3.35981e-05,4.60694e-05,6.24972e-05,8.41367e-05,0.000112641,0.000150189,0.000199649,0.000264799,0.000350619,0.000463664,0.000612573,0.000808724,0.0010671,0.00140745,0.00185578,0.00244633,0.00322424,0.00424894,0.00559872,0.00737671,0.00971878,0.0128039,0.0168677,0.0222207,0.0292721,inf	0.389001,0.389001,0.389003,1811.34,89.7565,278.228,268.773,536.787,431.755,379.102,384.341,418.175,376.316,365.188,389.887,380.716,398.517,417.56,417.387,399.846,401.266,400.872,387.617,389.278,374.372,359.158,337.067,268.408,268.408,320.458,320.458,320.458
0.000354948	-13744582.51	0,1.81233e-06,4.19962e-06,7.34427e-06,1.14866e-05,1.6943e-05,2.41305e-05,3.35981e-05,4.60694e-05,6.24972e-05,8.41367e-05,0.000112641,0.000150189,0.000199649,0.000264799,0.000350619,0.000463664,0.000612573,0.000808724,0.0010671,0.00140745,0.00185578,0.00244633,0.00322424,0.00424894,0.00559872,0.00737671,0.00971878,0.0128039,0.0168677,0.0222207,0.0292721,inf	0.389001,0.389001,0.389003,1861.41,75.6132,282.799,262.616,552.403,441.322,380.077,386.733,426.925,380.945,365.946,394.23,380.035,397.087,417.849,418.512,398.235,400.31,400.638,385.145,389.507,375.092,359.604,336.72,264.943,264.943,321.262,321.262,321.262
0.000341357	-13744307.66	0,1.81233e-06,4.19962e-06,7.34427e-06,1.14866e-05,1.6943e-05,2.41305e-05,3.35981e-05,4.60694e-05,6.24972e-05,8.41367e-05,0.000112641,0.000150189,0.000199649,0.000264799,0.000350619,0.000463664,0.000612573,0.000808724,0.0010671,0.00140745,0.00185578,0.00244633,0.00322424,0.00424894,0.00559872,0.00737671,0.00971878,0.0128039,0.0168677,0.0222207,0.0292721,inf	0.389,0.389,0.389003,1901.92,64.5962,287.909,257.412,564.904,450.172,380.219,388.165,434.662,385.223,366.369,398.796,379.533,395.613,418.003,419.728,396.711,399.451,400.549,382.505,389.537,375.73,359.947,336.296,262.281,262.281,322.833,322.833,322.833
0.000330423	-13744130.59	0,1.81233e-06,4.19962e-06,7.34427e-06,1.14866e-05,1.6943e-05,2.41305e-05,3.35981e-05,4.60694e-05,6.24972e-05,8.41367e-05,0.000112641,0.000150189,0.000199649,0.000264799,0.000350619,0.000463664,0.000612573,0.000808724,0.0010671,0.00140745,0.00185578,0.00244633,0.00322424,0.00424894,0.00559872,0.00737671,0.00971878,0.0128039,0.0168677,0.0222207,0.0292721,inf	0.389,0.389,0.389003,1934.75,55.7544,293.219,252.967,574.697,458.489,379.739,388.802,441.422,389.065,366.375,403.436,379.146,394.106,418.04,421.014,395.274,398.71,400.667,379.834,389.455,376.311,360.191,335.765,260.209,260.209,324.827,324.827,324.827
0.000321666	-13744021.06	0,1.81233e-06,4.19962e-06,7.34427e-06,1.14866e-05,1.6943e-05,2.41305e-05,3.35981e-05,4.60694e-05,6.24972e-05,8.41367e-05,0.000112641,0.000150189,0.000199649,0.000264799,0.000350619,0.000463664,0.000612573,0.000808724,0.0010671,0.00140745,0.00185578,0.00244633,0.00322424,0.00424894,0.00559872,0.00737671,0.00971878,0.0128039,0.0168677,0.0222207,0.0292721,inf	0.389,0.389,0.389003,1961.34,48.583,298.501,249.133,582.139,466.375,378.81,388.81,447.295,392.454,365.935,408.051,378.831,392.589,417.976,422.347,393.913,398.079,401.009,377.221,389.324,376.857,360.356,335.148,258.585,258.585,326.984,326.984,326.984
0.000314676	-13743956.59	0,1.81233e-06,4.19962e-06,7.34427e-06,1.14866e-05,1.6943e-05,2.41305e-05,3.35981e-05,4.60694e-05,6.24972e-05,8.41367e-05,0.000112641,0.000150189,0.000199649,0.000264799,0.000350619,0.000463664,0.000612573,0.000808724,0.0010671,0.00140745,0.00185578,0.00244633,0.00322424,0.00424894,0.00559872,0.00737671,0.00971878,0.0128039,0.0168677,0.0222207,0.0292721,inf	0.389,0.389,0.389003,1982.56,42.724,303.579,245.737,587.574,473.923,377.572,388.336,452.392,395.42,365.065,412.581,378.561,391.083,417.835,423.711,392.612,397.54,401.562,374.719,389.188,377.38,360.467,334.479,257.307,257.307,329.124,329.124,329.124
0.000309114	-13743921.20	0,1.81233e-06,4.19962e-06,7.34427e-06,1.14866e-05,1.6943e-05,2.41305e-05,3.35981e-05,4.60694e-05,6.24972e-05,8.41367e-05,0.000112641,0.000150189,0.000199649,0.000264799,0.000350619,0.000463664,0.000612573,0.000808724,0.0010671,0.00140745,0.00185578,0.00244633,0.00322424,0.00424894,0.00559872,0.00737671,0.00971878,0.0128039,0.0168677,0.0222207,0.0292721,inf	0.389,0.389,0.389003,1999.92,37.7171,308.389,242.681,591.325,481.2,376.122,387.497,456.823,397.998,363.799,416.985,378.321,389.61,417.636,425.091,391.358,397.071,402.304,372.355,389.07,377.888,360.544,333.794,256.3,256.3,331.134,331.134,331.134
0.000304698	-13743903.90	0,1.81233e-06,4.19962e-06,7.34427e-06,1.14866e-05,1.6943e-05,2.41305e-05,3.35981e-05,4.60694e-05,6.24972e-05,8.41367e-05,0.000112641,0.000150189,0.000199649,0.000264799,0.000350619,0.000463664,0.000612573,0.000808724,0.0010671,0.00140745,0.00185578,0.00244633,0.00322424,0.00424894,0.00559872,0.00737671,0.00971878,0.0128039,0.0168677,0.0222207,0.0292721,inf	0.389,0.389,0.389003,2013.63,33.4968,312.919,239.863,593.64,488.229,374.541,386.394,460.703,400.237,362.184,421.239,378.093,388.182,417.398,426.48,390.14,396.652,403.205,370.139,388.983,378.378,360.6,333.123,255.508,255.508,332.95,332.95,332.95
0.000301197	-13743897.41	0,1.81233e-06,4.19962e-06,7.34427e-06,1.14866e-05,1.6943e-05,2.41305e-05,3.35981e-05,4.60694e-05,6.24972e-05,8.41367e-05,0.000112641,0.000150189,0.000199649,0.000264799,0.000350619,0.000463664,0.000612573,0.000808724,0.0010671,0.00140745,0.00185578,0.00244633,0.00322424,0.00424894,0.00559872,0.00737671,0.00971878,0.0128039,0.0168677,0.0222207,0.0292721,inf	0.389,0.389,0.389003,2024.76,29.8541,317.146,237.234,594.776,495.056,372.875,385.108,464.124,402.191,360.267,425.336,377.871,386.809,417.134,427.872,388.951,396.264,404.234,368.071,388.932,378.849,360.643,332.486,254.887,254.887,334.541,334.541,334.541
0.000298437	-13743897.06	0,1.81233e-06,4.19962e-06,7.34427e-06,1.14866e-05,1.6943e-05,2.41305e-05,3.35981e-05,4.60694e-05,6.24972e-05,8.41367e-05,0.000112641,0.000150189,0.000199649,0.000264799,0.000350619,0.000463664,0.000612573,0.000808724,0.0010671,0.00140745,0.00185578,0.00244633,0.00322424,0.00424894,0.00559872,0.00737671,0.00971878,0.0128039,0.0168677,0.0222207,0.0292721,inf	0.389,0.389,0.389003,2035.29,26.6763,321.324,234.885,595.298,502.019,371.408,383.949,467.467,404.164,358.315,429.525,377.853,385.691,417.044,429.425,387.903,395.981,405.421,366.168,388.937,379.312,360.69,331.916,254.42,254.42,335.924,335.924,335.924
0.000296249	-13743899.82	0,1.81233e-06,4.19962e-06,7.34427e-06,1.14866e-05,1.6943e-05,2.41305e-05,3.35981e-05,4.60694e-05,6.24972e-05,8.41367e-05,0.000112641,0.000150189,0.000199649,0.000264799,0.000350619,0.000463664,0.000612573,0.000808724,0.0010671,0.00140745,0.00185578,0.00244633,0.00322424,0.00424894,0.00559872,0.00737671,0.00971878,0.0128039,0.0168677,0.0222207,0.0292721,inf	0.389,0.389,0.389003,2042.45,23.9103,325.026,232.46,594.552,508.463,369.652,382.438,470.184,405.683,355.939,433.311,377.63,384.455,416.772,430.823,386.77,395.625,406.626,364.367,388.956,379.733,360.716,331.383,254.048,254.048,337.083,337.083,337.083
0.000294519	-13743904.07	0,1.81233e-06,4.19962e-06,7.34427e-06,1.14866e-05,1.6943e-05,2.41305e-05,3.35981e-05,4.60694e-05,6.24972e-05,8.41367e-05,0.000112641,0.000150189,0.000199649,0.000264799,0.000350619,0.000463664,0.000612573,0.000808724,0.0010671,0.00140745,0.00185578,0.00244633,0.00322424,0.00424894,0.00559872,0.00737671,0.00971878,0.0128039,0.0168677,0.0222207,0.0292721,inf	0.389,0.389,0.389003,2048.4,21.479,328.518,230.086,593.097,514.738,367.875,380.849,472.613,407.013,353.361,436.902,377.36,383.246,416.46,432.181,385.635,395.256,407.874,362.684,389.003,380.124,360.735,330.9,253.757,253.757,338.044,338.044,338.044
0.000293154	-13743908.76	0,1.81233e-06,4.19962e-06,7.34427e-06,1.14866e-05,1.6943e-05,2.41305e-05,3.35981e-05,4.60694e-05,6.24972e-05,8.41367e-05,0.000112641,0.000150189,0.000199649,0.000264799,0.000350619,0.000463664,0.000612573,0.000808724,0.0010671,0.00140745,0.00185578,0.00244633,0.00322424,0.00424894,0.00559872,0.00737671,0.00971878,0.0128039,0.0168677,0.0222207,0.0292721,inf	0.389,0.389,0.389003,2053.24,19.3241,331.819,227.807,591.138,520.892,366.124,379.241,474.843,408.233,350.655,440.349,377.078,382.097,416.14,433.527,384.521,394.881,409.156,361.113,389.08,380.484,360.749,330.472,253.533,253.533,338.832,338.832,338.832
0.000292077	-13743913.34	0,1.81233e-06,4.19962e-06,7.34427e-06,1.14866e-05,1.6943e-05,2.41305e-05,3.35981e-05,4.60694e-05,6.24972e-05,8.41367e-05,0.000112641,0.000150189,0.000199649,0.000264799,0.000350619,0.000463664,0.000612573,0.000808724,0.0010671,0.00140745,0.00185578,0.00244633,0.00322424,0.00424894,0.00559872,0.00737671,0.00971878,0.0128039,0.0168677,0.0222207,0.0292721,inf	0.389,0.389,0.389003,2057.69,17.3947,334.971,225.598,588.753,526.942,364.406,377.642,476.913,409.374,347.858,443.674,376.79,381.015,415.826,434.867,383.431,394.502,410.458,359.644,389.181,380.814,360.759,330.096,253.361,253.361,339.474,339.474,339.474
0.000291229	-13743917.51	0,1.81233e-06,4.19962e-06,7.34427e-06,1.14866e-05,1.6943e-05,2.41305e-05,3.35981e-05,4.60694e-05,6.24972e-05,8.41367e-05,0.000112641,0.000150189,0.000199649,0.000264799,0.000350619,0.000463664,0.000612573,0.000808724,0.0010671,0.00140745,0.00185578,0.00244633,0.00322424,0.00424894,0.00559872,0.00737671,0.00971878,0.0128039,0.0168677,0.0222207,0.0292721,inf	0.389,0.389,0.389003,2060.72,15.6534,337.993,223.428,586.004,532.88,362.707,376.046,478.857,410.453,344.999,446.883,376.496,380,415.517,436.2,382.366,394.118,411.768,358.266,389.303,381.115,360.764,329.769,253.231,253.231,339.994,339.994,339.994
0.00029056	-13743921.16	0,1.81233e-06,4.19962e-06,7.34427e-06,1.14866e-05,1.6943e-05,2.41305e-05,3.35981e-05,4.60694e-05,6.24972e-05,8.41367e-05,0.000112641,0.000150189,0.000199649,0.000264799,0.000350619,0.000463664,0.000612573,0.000808724,0.0010671,0.00140745,0.00185578,0.00244633,0.00322424,0.00424894,0.00559872,0.00737671,0.00971878,0.0128039,0.0168677,0.0222207,0.0292721,inf	0.389,0.389,0.389003,2063.59,14.1065,340.895,221.303,582.982,538.719,361.04,374.469,480.689,411.488,342.094,449.984,376.195,379.045,415.213,437.524,381.328,393.728,413.076,356.97,389.443,381.385,360.764,329.485,253.134,253.134,340.412,340.412,340.412
0.000290034	-13743924.29	0,1.81233e-06,4.19962e-06,7.34427e-06,1.14866e-05,1.6943e-05,2.41305e-05,3.35981e-05,4.60694e-05,6.24972e-05,8.41367e-05,0.000112641,0.000150189,0.000199649,0.000264799,0.000350619,0.000463664,0.000612573,0.000808724,0.0010671,0.00140745,0.00185578,0.00244633,0.00322424,0.00424894,0.00559872,0.00737671,0.00971878,0.0128039,0.0168677,0.0222207,0.0292721,inf	0.389,0.389,0.389003,2066.16,12.7496,343.732,219.232,579.77,544.47,359.41,372.911,482.436,412.498,339.165,452.988,375.886,378.148,414.911,438.84,380.318,393.332,414.375,355.748,389.599,381.627,360.76,329.241,253.062,253.062,340.748,340.748,340.748
0.000289643	-13743926.91	0,1.81233e-06,4.19962e-06,7.34427e-06,1.14866e-05,1.6943e-05,2.41305e-05,3.35981e-05,4.60694e-05,6.24972e-05,8.41367e-05,0.000112641,0.000150189,0.000199649,0.000264799,0.000350619,0.000463664,0.000612573,0.000808724,0.0010671,0.00140745,0.00185578,0.00244633,0.00322424,0.00424894,0.00559872,0.00737671,0.00971878,0.0128039,0.0168677,0.0222207,0.0292721,inf	0.389,0.389,0.389003,2068.33,11.4992,346.56,217.237,576.452,550.29,357.895,371.448,484.238,413.643,336.267,456.089,375.72,377.426,414.736,440.368,379.482,393.068,415.847,354.722,389.911,381.957,360.841,329.116,253.062,253.062,341.06,341.06,341.06
0.000289322	-13743928.14	0,1.81233e-06,4.19962e-06,7.34427e-06,1.14866e-05,1.6943e-05,2.41305e-05,3.35981e-05,4.60694e-05,6.24972e-05,8.41367e-05,0.000112641,0.000150189,0.000199649,0.000264799,0.000350619,0.000463664,0.000612573,0.000808724,0.0010671,0.00140745,0.00185578,0.00244633,0.00322424,0.00424894,0.00559872,0.00737671,0.00971878,0.0128039,0.0168677,0.0222207,0.0292721,inf	0.389,0.389,0.389003,2069.43,10.4004,349.241,215.212,572.879,555.875,356.318,369.917,485.834,414.662,333.274,458.96,375.424,376.633,414.417,441.719,378.532,392.654,417.142,353.633,390.112,382.162,360.835,328.948,253.035,253.035,341.3,341.3,341.3
0.000289066	-13743929.76	0,1.81233e-06,4.19962e-06,7.34427e-06,1.14866e-05,1.6943e-05,2.41305e-05,3.35981e-05,4.60694e-05,6.24972e-05,8.41367e-05,0.000112641,0.000150189,0.000199649,0.000264799,0.000350619,0.000463664,0.000612573,0.000808724,0.0010671,0.00140745,0.00185578,0.00244633,0.00322424,0.00424894,0.00559872,0.00737671,0.00971878,0.0128039,0.0168677,0.0222207,0.0292721,inf	0.389,0.389,0.389003,2070.84,9.37062,351.844,213.234,569.215,561.377,354.763,368.395,487.333,415.653,330.267,461.715,375.089,375.859,414.063,443.013,377.576,392.201,418.373,352.567,390.288,382.316,360.804,328.787,253.006,253.006,341.48,341.48,341.48
0.000288862	-13743931.30	0,1.81233e-06,4.19962e-06,7.34427e-06,1.14866e-05,1.6943e-05,2.41305e-05,3.35981e-05,4.60694e-05,6.24972e-05,8.41367e-05,0.000112641,0.000150189,0.000199649,0.000264799,0.000350619,0.000463664,0.000612573,0.000808724,0.0010671,0.00140745,0.00185578,0.00244633,0.00322424,0.00424894,0.00559872,0.00737671,0.00971878,0.0128039,0.0168677,0.0222207,0.0292721,inf	0.389,0.389,0.389003,2072.29,8.46208,354.386,211.28,565.486,566.789,353.231,366.893,488.765,416.648,327.277,464.389,374.741,375.129,413.702,444.283,376.644,391.742,419.571,351.545,390.462,382.442,360.767,328.645,252.98,252.98,341.616,341.616,341.616
0.000288701	-13743932.64	0,1.81233e-06,4.19962e-06,7.34427e-06,1.14866e-05,1.6943e-05,2.41305e-05,3.35981e-05,4.60694e-05,6.24972e-05,8.41367e-05,0.000112641,0.000150189,0.000199649,0.000264799,0.000350619,0.000463664,0.000612573,0.000808724,0.0010671,0.00140745,0.00185578,0.00244633,0.00322424,0.00424894,0.00559872,0.00737671,0.00971878,0.0128039,0.0168677,0.0222207,0.0292721,inf	0.389,0.389,0.389003,2073.32,7.65879,356.848,209.37,561.727,572.132,351.728,365.425,490.141,417.65,324.312,466.993,374.386,374.444,413.339,445.538,375.742,391.286,420.744,350.572,390.643,382.55,360.729,328.524,252.961,252.961,341.718,341.718,341.718
0.000288575	-13743933.76	0,1.81233e-06,4.19962e-06,7.34427e-06,1.14866e-05,1.6943e-05,2.41305e-05,3.35981e-05,4.60694e-05,6.24972e-05,8.41367e-05,0.000112641,0.000150189,0.000199649,0.000264799,0.000350619,0.000463664,0.000612573,0.000808724,0.0010671,0.00140745,0.00185578,0.00244633,0.00322424,0.00424894,0.00559872,0.00737671,0.00971878,0.0128039,0.0168677,0.0222207,0.0292721,inf	0.389,0.389,0.389003,2074.56,6.9171,359.281,207.484,557.941,577.397,350.251,363.983,491.46,418.665,321.38,469.538,374.027,373.806,412.977,446.776,374.872,390.834,421.891,349.644,390.83,382.642,360.693,328.422,252.947,252.947,341.796,341.796,341.796
0.000288475	-13743934.68	0,1.81233e-06,4.19962e-06,7.34427e-06,1.14866e-05,1.6943e-05,2.41305e-05,3.35981e-05,4.60694e-05,6.24972e-05,8.41367e-05,0.000112641,0.000150189,0.000199649,0.000264799,0.000350619,0.000463664,0.000612573,0.000808724,0.0010671,0.00140745,0.00185578,0.00244633,0.00322424,0.00424894,0.00559872,0.00737671,0.00971878,0.0128039,0.0168677,0.0222207,0.0292721,inf	0.389,0.389,0.389003,2074.57,6.26327,361.665,205.647,554.156,582.59,348.804,362.57,492.729,419.694,318.478,472.024,373.662,373.208,412.613,447.999,374.031,390.389,423.012,348.757,391.023,382.722,360.658,328.338,252.938,252.938,341.855,341.855,341.855
0.000288396	-13743935.44	0,1.81233e-06,4.19962e-06,7.34427e-06,1.14866e-05,1.6943e-05,2.41305e-05,3.35981e-05,4.60694e-05,6.24972e-05,8.41367e-05,0.000112641,0.000150189,0.000199649,0.000264799,0.000350619,0.000463664,0.000612573,0.000808724,0.0010671,0.00140745,0.00185578,0.00244633,0.00322424,0.00424894,0.00559872,0.00737671,0.00971878,0.0128039,0.0168677,0.0222207,0.0292721,inf	0.389,0.389,0.389003,2074.77,5.64989,364.005,203.836,550.35,587.713,347.384,361.189,493.941,420.73,315.611,474.455,373.292,372.653,412.247,449.206,373.219,389.948,424.106,347.908,391.221,382.79,360.625,328.268,252.932,252.932,341.9,341.9,341.9
0.000288334	-13743936.05	0,1.81233e-06,4.19962e-06,7.34427e-06,1.14866e-05,1.6943e-05,2.41305e-05,3.35981e-05,4.60694e-05,6.24972e-05,8.41367e-05,0.000112641,0.000150189,0.000199649,0.000264799,0.000350619,0.000463664,0.000612573,0.000808724,0.0010671,0.00140745,0.00185578,0.00244633,0.00322424,0.00424894,0.00559872,0.00737671,0.00971878,0.0128039,0.0168677,0.0222207,0.0292721,inf	0.389,0.389,0.389003,2075.48,5.11219,366.312,202.05,546.586,592.771,345.992,359.837,495.114,421.781,312.781,476.833,372.918,372.135,411.876,450.394,372.435,389.513,425.172,347.095,391.423,382.847,360.593,328.211,252.928,252.928,341.935,341.935,341.935
0.000288286	-13743936.55	0,1.81233e-06,4.19962e-06,7.34427e-06,1.14866e-05,1.6943e-05,2.41305e-05,3.35981e-05,4.60694e-05,6.24972e-05,8.41367e-05,0.000112641,0.000150189,0.000199649,0.000264799,0.000350619,0.000463664,0.000612573,0.000808724,0.0010671,0.00140745,0.00185578,0.00244633,0.00322424,0.00424894,0.00559872,0.00737671,0.00971878,0.0128039,0.0168677,0.0222207,0.0292721,inf	0.389,0.389,0.389003,2075.48,4.61595,368.542,200.29,542.817,597.754,344.614,358.51,496.232,422.845,309.99,479.163,372.538,371.654,411.502,451.562,371.676,389.084,426.21,346.314,391.627,382.894,360.563,328.164,252.926,252.926,341.963,341.963,341.963
0.000288248	-13743936.96	0,1.81233e-06,4.19962e-06,7.34427e-06,1.14866e-05,1.6943e-05,2.41305e-05,3.35981e-05,4.60694e-05,6.24972e-05,8.41367e-05,0.000112641,0.000150189,0.000199649,0.000264799,0.000350619,0.000463664,0.000612573,0.000808724,0.0010671,0.00140745,0.00185578,0.00244633,0.00322424,0.00424894,0.00559872,0.00737671,0.00971878,0.0128039,0.0168677,0.0222207,0.0292721,inf	0.389,0.389,0.389003,2076.63,4.17242,370.767,198.576,539.095,602.689,343.272,357.212,497.305,423.919,307.235,481.442,372.155,371.208,411.123,452.712,370.945,388.661,427.22,345.562,391.833,382.932,360.534,328.125,252.926,252.926,341.985,341.985,341.985
0.000288218	-13743937.29	0,1.81233e-06,4.19962e-06,7.34427e-06,1.14866e-05,1.6943e-05,2.41305e-05,3.35981e-05,4.60694e-05,6.24972e-05,8.41367e-05,0.000112641,0.000150189,0.000199649,0.000264799,0.000350619,0.000463664,0.000612573,0.000808724,0.0010671,0.00140745,0.00185578,0.00244633,0.00322424,0.00424894,0.00559872,0.00737671,0.00971878,0.0128039,0.0168677,0.0222207,0.0292721,inf	0.389,0.389,0.389003,2076.63,3.77322,372.941,196.877,535.394,607.533,341.947,355.941,498.332,425.005,304.519,483.675,371.766,370.793,410.738,453.84,370.237,388.244,428.202,344.837,392.04,382.961,360.506,328.094,252.927,252.927,342.002,342.002,342.002
0.000288195	-13743937.57	0,1.81233e-06,4.19962e-06,7.34427e-06,1.14866e-05,1.6943e-05,2.41305e-05,3.35981e-05,4.60694e-05,6.24972e-05,8.41367e-05,0.000112641,0.000150189,0.000199649,0.000264799,0.000350619,0.000463664,0.000612573,0.000808724,0.0010671,0.00140745,0.00185578,0.00244633,0.00322424,0.00424894,0.00559872,0.00737671,0.00971878,0.0128039,0.0168677,0.0222207,0.0292721,inf	0.389,0.389,0.389003,2076.63,3.41154,375.057,195.221,531.729,612.313,340.645,354.697,499.309,426.103,301.842,485.867,371.372,370.411,410.35,454.949,369.552,387.833,429.156,344.139,392.248,382.984,360.48,328.069,252.928,252.928,342.015,342.015,342.015
0.000288177	-13743937.80	0,1.81233e-06,4.19962e-06,7.34427e-06,1.14866e-05,1.6943e-05,2.41305e-05,3.35981e-05,4.60694e-05,6.24972e-05,8.41367e-05,0.000112641,0.000150189,0.000199649,0.000264799,0.000350619,0.000463664,0.000612573,0.000808724,0.0010671,0.00140745,0.00185578,0.00244633,0.00322424,0.00424894,0.00559872,0.00737671,0.00971878,0.0128039,0.0168677,0.0222207,0.0292721,inf	0.389,0.389,0.389003,2076.63,3.08101,377.128,193.577,528.101,617.004,339.37,353.477,500.24,427.208,299.2,488.017,370.974,370.058,409.955,456.037,368.891,387.429,430.083,343.464,392.455,382.999,360.455,328.049,252.93,252.93,342.025,342.025,342.025
0.000288164	-13743937.98	0,1.81233e-06,4.19962e-06,7.34427e-06,1.14866e-05,1.6943e-05,2.41305e-05,3.35981e-05,4.60694e-05,6.24972e-05,8.41367e-05,0.000112641,0.000150189,0.000199649,0.000264799,0.000350619,0.000463664,0.000612573,0.000808724,0.0010671,0.00140745,0.00185578,0.00244633,0.00322424,0.00424894,0.00559872,0.00737671,0.00971878,0.0128039,0.0168677,0.0222207,0.0292721,inf	0.389,0.389,0.389003,2076.63,2.79825,379.175,191.979,524.506,621.653,338.121,352.289,501.125,428.325,296.595,490.122,370.571,369.736,409.557,457.104,368.251,387.031,430.984,342.813,392.662,383.009,360.431,328.034,252.932,252.932,342.034,342.034,342.034
0.000288153	-13743938.14	0,1.81233e-06,4.19962e-06,7.34427e-06,1.14866e-05,1.6943e-05,2.41305e-05,3.35981e-05,4.60694e-05,6.24972e-05,8.41367e-05,0.000112641,0.000150189,0.000199649,0.000264799,0.000350619,0.000463664,0.000612573,0.000808724,0.0010671,0.00140745,0.00185578,0.00244633,0.00322424,0.00424894,0.00559872,0.00737671,0.00971878,0.0128039,0.0168677,0.0222207,0.0292721,inf	0.389,0.389,0.389003,2077.35,2.53466,381.185,190.406,520.956,626.228,336.895,351.124,501.97,429.448,294.028,492.191,370.164,369.441,409.153,458.151,367.633,386.64,431.858,342.182,392.868,383.012,360.408,328.022,252.934,252.934,342.04,342.04,342.04
0.000288145	-13743938.28	0,1.81233e-06,4.19962e-06,7.34427e-06,1.14866e-05,1.6943e-05,2.41305e-05,3.35981e-05,4.60694e-05,6.24972e-05,8.41367e-05,0.000112641,0.000150189,0.000199649,0.000264799,0.000350619,0.000463664,0.000612573,0.000808724,0.0010671,0.00140745,0.00185578,0.00244633,0.00322424,0.00424894,0.00559872,0.00737671,0.00971878,0.0128039,0.0168677,0.0222207,0.0292721,inf	0.389,0.389,0.389003,2077.35,2.29994,383.145,188.86,517.445,630.747,335.697,349.988,502.775,430.582,291.498,494.22,369.754,369.172,408.744,459.176,367.035,386.256,432.707,341.572,393.073,383.011,360.386,328.013,252.936,252.936,342.045,342.045,342.045
