0.000698281	-13829744.20	0,1.7672e-06,4.09505e-06,7.1614e-06,1.12005e-05,1.65211e-05,2.35296e-05,3.27615e-05,4.49223e-05,6.0941e-05,8.20417e-05,0.000109836,0.000146449,0.000194677,0.000258205,0.000341888,0.000452119,0.00059732,0.000788586,0.00104053,0.0013724,0.00180957,0.00238542,0.00314395,0.00414313,0.0054593,0.00719303,0.00947677,0.012485,0.0164477,0.0216674,0.0285432,inf	276.238,276.238,524.847,574.384,486.02,387.85,356.887,359.794,359.622,352.584,349.231,344.79,337.299,330.539,326.679,325.939,328.94,336.623,350.262,370.081,393.828,417.222,435.044,442.149,437.577,426.214,413.599,398.063,398.063,404.396,404.396,404.396
0.000766187	-13824365.58	0,1.7672e-06,4.09505e-06,7.1614e-06,1.12005e-05,1.65211e-05,2.35296e-05,3.27615e-05,4.49223e-05,6.0941e-05,8.20417e-05,0.000109836,0.000146449,0.000194677,0.000258205,0.000341888,0.000452119,0.00059732,0.000788586,0.00104053,0.0013724,0.00180957,0.00238542,0.00314395,0.00414313,0.0054593,0.00719303,0.00947677,0.012485,0.0164477,0.0216674,0.0285432,inf	165.214,165.214,596.821,730.628,552.623,383.325,345.167,360.424,364.733,354.853,351.647,344.753,331.145,318.043,309.211,304.73,305.63,313.5,330.524,357.288,390.776,425.359,453.942,467.47,461.481,442.676,420.753,393.035,393.035,407.635,407.635,407.635
0.000829579	-13820994.67	0,1.7672e-06,4.09505e-06,7.1614e-06,1.12005e-05,1.65211e-05,2.35296e-05,3.27615e-05,4.49223e-05,6.0941e-05,8.20417e-05,0.000109836,0.000146449,0.000194677,0.000258205,0.000341888,0.000452119,0.00059732,0.000788586,0.00104053,0.0013724,0.00180957,0.00238542,0.00314395,0.00414313,0.0054593,0.00719303,0.00947677,0.012485,0.0164477,0.0216674,0.0285432,inf	88.9617,88.9617,607.19,835.134,577.986,363.166,329.06,359.496,370.192,360.36,360.302,353.471,336.14,318.743,306.289,298.526,296.835,303.353,320.941,350.399,388.218,428.333,463.396,482.067,476.044,452.222,423.343,386.119,386.119,409.496,409.496,409.496
0.000888938	-13818494.36	0,1.7672e-06,4.09505e-06,7.1614e-06,1.12005e-05,1.65211e-05,2.35296e-05,3.27615e-05,4.49223e-05,6.0941e-05,8.20417e-05,0.000109836,0.000146449,0.000194677,0.000258205,0.000341888,0.000452119,0.00059732,0.000788586,0.00104053,0.0013724,0.00180957,0.00238542,0.00314395,0.00414313,0.0054593,0.00719303,0.00947677,0.012485,0.0164477,0.0216674,0.0285432,inf	46.0246,46.0246,588.614,906.524,578.853,336.015,309.808,354.363,370.816,362.035,366.527,361.325,342.178,322.362,307.764,297.658,293.778,298.771,316.042,346.487,386.161,428.88,467.778,490.363,484.834,457.494,423.315,378.624,378.624,410.576,410.576,410.576
0.000944817	-13816497.00	0,1.7672e-06,4.09505e-06,7.1614e-06,1.12005e-05,1.65211e-05,2.35296e-05,3.27615e-05,4.49223e-05,6.0941e-05,8.20417e-05,0.000109836,0.000146449,0.000194677,0.000258205,0.000341888,0.000452119,0.00059732,0.000788586,0.00104053,0.0013724,0.00180957,0.00238542,0.00314395,0.00414313,0.0054593,0.00719303,0.00947677,0.012485,0.0164477,0.0216674,0.0285432,inf	23.6382,23.6382,561.55,963.217,569.45,308.967,291.298,347.817,368.316,360.399,369.637,366.679,346.906,326.031,310.442,298.837,293.287,296.934,313.641,344.324,384.614,428.334,469.416,494.927,490.042,460.139,421.846,371.223,371.223,411.257,411.257,411.257
0.000997669	-13814840.01	0,1.7672e-06,4.09505e-06,7.1614e-06,1.12005e-05,1.65211e-05,2.35296e-05,3.27615e-05,4.49223e-05,6.0941e-05,8.20417e-05,0.000109836,0.000146449,0.000194677,0.000258205,0.000341888,0.000452119,0.00059732,0.000788586,0.00104053,0.0013724,0.00180957,0.00238542,0.00314395,0.00414313,0.0054593,0.00719303,0.00947677,0.012485,0.0164477,0.0216674,0.0285432,inf	12.1912,12.1912,533.553,1014.04,556.56,284.828,275.422,341.994,364.713,357.011,370.585,369.863,350.076,329.02,313.244,300.78,294.012,296.559,312.68,343.265,383.518,427.332,469.558,497.245,493.003,461.175,419.633,364.236,364.236,411.774,411.774,411.774
0.00104784	-13813435.19	0,1.7672e-06,4.09505e-06,7.1614e-06,1.12005e-05,1.65211e-05,2.35296e-05,3.27615e-05,4.49223e-05,6.0941e-05,8.20417e-05,0.000109836,0.000146449,0.000194677,0.000258205,0.000341888,0.000452119,0.00059732,0.000788586,0.00104053,0.0013724,0.00180957,0.00238542,0.00314395,0.00414313,0.0054593,0.00719303,0.00947677,0.012485,0.0164477,0.0216674,0.0285432,inf	6.31298,6.31298,506.49,1061.8,542.561,264.107,262.602,337.857,361.236,353.05,370.348,371.551,351.983,331.262,315.819,302.942,295.31,296.988,312.583,342.921,382.79,426.171,468.881,498.19,494.538,461.224,417.08,357.79,357.79,412.262,412.262,412.262
0.00109561	-13812227.37	0,1.7672e-06,4.09505e-06,7.1614e-06,1.12005e-05,1.65211e-05,2.35296e-05,3.27615e-05,4.49223e-05,6.0941e-05,8.20417e-05,0.000109836,0.000146449,0.000194677,0.000258205,0.000341888,0.000452119,0.00059732,0.000788586,0.00104053,0.0013724,0.00180957,0.00238542,0.00314395,0.00414313,0.0054593,0.00719303,0.00947677,0.012485,0.0164477,0.0216674,0.0285432,inf	3.292,3.292,480.611,1106.71,528.157,246.459,252.571,335.629,358.416,349.187,369.612,372.31,352.984,332.88,318.079,305.091,296.857,297.86,313.012,343.049,382.345,424.99,467.759,498.289,495.157,460.676,414.421,351.915,351.915,412.8,412.8,412.8
0.0011412	-13811178.51	0,1.7672e-06,4.09505e-06,7.1614e-06,1.12005e-05,1.65211e-05,2.35296e-05,3.27615e-05,4.49223e-05,6.0941e-05,8.20417e-05,0.000109836,0.000146449,0.000194677,0.000258205,0.000341888,0.000452119,0.00059732,0.000788586,0.00104053,0.0013724,0.00180957,0.00238542,0.00314395,0.00414313,0.0054593,0.00719303,0.00947677,0.012485,0.0164477,0.0216674,0.0285432,inf	1.7294,1.7294,455.788,1148.48,513.413,231.31,244.865,335.16,356.419,345.749,368.788,372.548,353.38,334.029,320.04,307.129,298.482,298.966,313.76,343.487,382.115,423.851,466.408,497.861,495.185,459.771,411.789,346.594,346.594,413.43,413.43,413.43
0.00118477	-13810260.70	0,1.7672e-06,4.09505e-06,7.1614e-06,1.12005e-05,1.65211e-05,2.35296e-05,3.27615e-05,4.49223e-05,6.0941e-05,8.20417e-05,0.000109836,0.000146449,0.000194677,0.000258205,0.000341888,0.000452119,0.00059732,0.000788586,0.00104053,0.0013724,0.00180957,0.00238542,0.00314395,0.00414313,0.0054593,0.00719303,0.00947677,0.012485,0.0164477,0.0216674,0.0285432,inf	0.908661,0.908661,432.153,1186.85,498.344,218.165,239.014,336.191,355.2,342.849,368.1,372.529,353.397,334.842,321.742,309.022,300.095,300.182,314.696,344.125,382.042,422.777,464.949,497.107,494.83,458.663,409.255,341.784,341.784,414.17,414.17,414.17
0.00122649	-13809452.55	0,1.7672e-06,4.09505e-06,7.1614e-06,1.12005e-05,1.65211e-05,2.35296e-05,3.27615e-05,4.49223e-05,6.0941e-05,8.20417e-05,0.000109836,0.000146449,0.000194677,0.000258205,0.000341888,0.000452119,0.00059732,0.000788586,0.00104053,0.0013724,0.00180957,0.00238542,0.00314395,0.00414313,0.0054593,0.00719303,0.00947677,0.012485,0.0164477,0.0216674,0.0285432,inf	0.485805,0.485805,409.819,1221.8,482.993,206.609,234.628,338.438,354.631,340.493,367.652,372.415,353.187,335.427,323.235,310.764,301.647,301.435,315.737,344.892,382.084,421.776,463.454,496.155,494.229,457.449,406.855,337.437,337.437,415.025,415.025,415.025
0.00126648	-13808737.21	0,1.7672e-06,4.09505e-06,7.1614e-06,1.12005e-05,1.65211e-05,2.35296e-05,3.27615e-05,4.49223e-05,6.0941e-05,8.20417e-05,0.000109836,0.000146449,0.000194677,0.000258205,0.000341888,0.000452119,0.00059732,0.000788586,0.00104053,0.0013724,0.00180957,0.00238542,0.00314395,0.00414313,0.0054593,0.00719303,0.00947677,0.012485,0.0164477,0.0216674,0.0285432,inf	0.398941,0.398941,388.883,1253.63,467.414,196.326,231.395,341.619,354.566,338.634,367.479,372.301,352.859,335.867,324.565,312.364,303.117,302.68,316.828,345.737,382.21,420.847,461.965,495.088,493.473,456.189,404.603,333.504,333.504,415.994,415.994,415.994
0.00130485	-13808101.13	0,1.7672e-06,4.09505e-06,7.1614e-06,1.12005e-05,1.65211e-05,2.35296e-05,3.27615e-05,4.49223e-05,6.0941e-05,8.20417e-05,0.000109836,0.000146449,0.000194677,0.000258205,0.000341888,0.000452119,0.00059732,0.000788586,0.00104053,0.0013724,0.00180957,0.00238542,0.00314395,0.00414313,0.0054593,0.00719303,0.00947677,0.012485,0.0164477,0.0216674,0.0285432,inf	0.398941,0.398941,369.4,1282.52,451.71,187.079,229.046,345.511,354.859,337.202,367.578,372.239,352.48,336.219,325.768,313.833,304.496,303.891,317.935,346.625,382.395,419.983,460.506,493.958,492.62,454.922,402.502,329.938,329.938,417.07,417.07,417.07
0.0013417	-13807533.23	0,1.7672e-06,4.09505e-06,7.1614e-06,1.12005e-05,1.65211e-05,2.35296e-05,3.27615e-05,4.49223e-05,6.0941e-05,8.20417e-05,0.000109836,0.000146449,0.000194677,0.000258205,0.000341888,0.000452119,0.00059732,0.000788586,0.00104053,0.0013724,0.00180957,0.00238542,0.00314395,0.00414313,0.0054593,0.00719303,0.00947677,0.012485,0.0164477,0.0216674,0.0285432,inf	0.398941,0.398941,351.463,1308.74,435.935,178.664,227.386,349.925,355.394,336.133,367.927,372.253,352.098,336.525,326.872,315.187,305.781,305.053,319.035,347.535,382.621,419.18,459.089,492.802,491.713,453.671,400.549,326.696,326.696,418.246,418.246,418.246
0.00137712	-13807024.39	0,1.7672e-06,4.09505e-06,7.1614e-06,1.12005e-05,1.65211e-05,2.35296e-05,3.27615e-05,4.49223e-05,6.0941e-05,8.20417e-05,0.000109836,0.000146449,0.000194677,0.000258205,0.000341888,0.000452119,0.00059732,0.000788586,0.00104053,0.0013724,0.00180957,0.00238542,0.00314395,0.00414313,0.0054593,0.00719303,0.00947677,0.012485,0.0164477,0.0216674,0.0285432,inf	0.398941,0.398941,335.011,1332.76,420.229,170.972,226.265,354.697,356.072,335.361,368.496,372.353,351.74,336.814,327.903,316.437,306.974,306.157,320.113,348.448,382.875,418.43,457.722,491.642,490.779,452.451,398.734,323.741,323.741,419.512,419.512,419.512
0.0014112	-13806566.96	0,1.7672e-06,4.09505e-06,7.1614e-06,1.12005e-05,1.65211e-05,2.35296e-05,3.27615e-05,4.49223e-05,6.0941e-05,8.20417e-05,0.000109836,0.000146449,0.000194677,0.000258205,0.000341888,0.000452119,0.00059732,0.000788586,0.00104053,0.0013724,0.00180957,0.00238542,0.00314395,0.00414313,0.0054593,0.00719303,0.00947677,0.012485,0.0164477,0.0216674,0.0285432,inf	0.398941,0.398941,320.018,1354.84,404.676,163.887,225.587,359.71,356.811,334.822,369.252,372.537,351.422,337.106,328.877,317.596,308.08,307.201,321.162,349.354,383.148,417.729,456.408,490.493,489.835,451.271,397.05,321.038,321.038,420.861,420.861,420.861
0.001444	-13806154.54	0,1.7672e-06,4.09505e-06,7.1614e-06,1.12005e-05,1.65211e-05,2.35296e-05,3.27615e-05,4.49223e-05,6.0941e-05,8.20417e-05,0.000109836,0.000146449,0.000194677,0.000258205,0.000341888,0.000452119,0.00059732,0.000788586,0.00104053,0.0013724,0.00180957,0.00238542,0.00314395,0.00414313,0.0054593,0.00719303,0.00947677,0.012485,0.0164477,0.0216674,0.0285432,inf	0.398941,0.398941,306.418,1375.22,389.375,157.331,225.267,364.864,357.557,334.476,370.165,372.797,351.152,337.413,329.807,318.675,309.104,308.183,322.174,350.247,383.432,417.071,455.148,489.366,488.896,450.134,395.485,318.559,318.559,422.282,422.282,422.282
0.00147558	-13805781.67	0,1.7672e-06,4.09505e-06,7.1614e-06,1.12005e-05,1.65211e-05,2.35296e-05,3.27615e-05,4.49223e-05,6.0941e-05,8.20417e-05,0.000109836,0.000146449,0.000194677,0.000258205,0.000341888,0.000452119,0.00059732,0.000788586,0.00104053,0.0013724,0.00180957,0.00238542,0.00314395,0.00414313,0.0054593,0.00719303,0.00947677,0.012485,0.0164477,0.0216674,0.0285432,inf	0.398941,0.398941,294.091,1394.13,374.358,151.248,225.229,370.096,358.261,334.28,371.208,373.127,350.934,337.745,330.703,319.683,310.051,309.105,323.147,351.12,383.723,416.452,453.941,488.266,487.969,449.043,394.03,316.277,316.277,423.769,423.769,423.769
0.00150602	-13805443.73	0,1.7672e-06,4.09505e-06,7.1614e-06,1.12005e-05,1.65211e-05,2.35296e-05,3.27615e-05,4.49223e-05,6.0941e-05,8.20417e-05,0.000109836,0.000146449,0.000194677,0.000258205,0.000341888,0.000452119,0.00059732,0.000788586,0.00104053,0.0013724,0.00180957,0.00238542,0.00314395,0.00414313,0.0054593,0.00719303,0.00947677,0.012485,0.0164477,0.0216674,0.0285432,inf	0.398941,0.398941,282.952,1411.67,359.704,145.583,225.428,375.342,358.897,334.206,372.356,373.516,350.767,338.104,331.573,320.626,310.926,309.969,324.081,351.971,384.015,415.868,452.785,487.199,487.061,447.997,392.675,314.171,314.171,425.316,425.316,425.316
0.00153537	-13805136.73	0,1.7672e-06,4.09505e-06,7.1614e-06,1.12005e-05,1.65211e-05,2.35296e-05,3.27615e-05,4.49223e-05,6.0941e-05,8.20417e-05,0.000109836,0.000146449,0.000194677,0.000258205,0.000341888,0.000452119,0.00059732,0.000788586,0.00104053,0.0013724,0.00180957,0.00238542,0.00314395,0.00414313,0.0054593,0.00719303,0.00947677,0.012485,0.0164477,0.0216674,0.0285432,inf	0.398941,0.398941,272.882,1428.15,345.436,140.301,225.834,380.569,359.448,334.225,373.588,373.955,350.651,338.494,332.423,321.513,311.736,310.776,324.975,352.799,384.307,415.315,451.679,486.165,486.174,446.996,391.412,312.221,312.221,426.914,426.914,426.914
