0.000697289	-1835418.63	0,1.0579e-05,2.38509e-05,4.05014e-05,6.13903e-05,8.75967e-05,0.000120474,0.000161721,0.000213467,0.000278386,0.00035983,0.000462007,0.000590194,0.000751011,0.000952767,0.00120588,0.00152343,0.00192181,0.0024216,0.00304861,0.00383524,0.00482211,0.0060602,0.00761345,0.0095621,0.0120068,0.0150738,0.0189215,0.0237487,0.0298048,inf	413.056,413.056,413.056,413.056,413.056,413.056,413.056,413.056,413.056,413.056,413.056,413.056,413.056,413.056,413.056,413.056,413.056,413.056,413.056,413.056,413.056,413.056,413.056,413.056,413.056,413.056,413.056,413.056,413.056,413.056
0.000766443	-1834913.45	0,1.0579e-05,2.38509e-05,4.05014e-05,6.13903e-05,8.75967e-05,0.000120474,0.000161721,0.000213467,0.000278386,0.00035983,0.000462007,0.000590194,0.000751011,0.000952767,0.00120588,0.00152343,0.00192181,0.0024216,0.00304861,0.00383524,0.00482211,0.0060602,0.00761345,0.0095621,0.0120068,0.0150738,0.0189215,0.0237487,0.0298048,inf	417.726,417.726,417.726,417.726,417.726,417.726,417.726,417.726,417.726,417.726,417.726,417.726,417.726,417.726,417.726,417.726,417.726,417.726,417.726,417.726,417.726,417.726,417.726,417.726,417.726,417.726,417.726,417.726,417.726,417.726
0.000831877	-1834519.90	0,1.0579e-05,2.38509e-05,4.05014e-05,6.13903e-05,8.75967e-05,0.000120474,0.000161721,0.000213467,0.000278386,0.00035983,0.000462007,0.000590194,0.000751011,0.000952767,0.00120588,0.00152343,0.00192181,0.0024216,0.00304861,0.00383524,0.00482211,0.0060602,0.00761345,0.0095621,0.0120068,0.0150738,0.0189215,0.0237487,0.0298048,inf	419.174,419.174,419.174,419.174,419.174,419.174,419.174,419.174,419.174,419.174,419.174,419.174,419.174,419.174,419.174,419.174,419.174,419.174,419.174,419.174,419.174,419.174,419.174,419.174,419.174,419.174,419.174,419.174,419.174,419.174
0.00089425	-1834196.38	0,1.0579e-05,2.38509e-05,4.05014e-05,6.13903e-05,8.75967e-05,0.000120474,0.000161721,0.000213467,0.000278386,0.00035983,0.000462007,0.000590194,0.000751011,0.000952767,0.00120588,0.00152343,0.00192181,0.0024216,0.00304861,0.00383524,0.00482211,0.0060602,0.00761345,0.0095621,0.0120068,0.0150738,0.0189215,0.0237487,0.0298048,inf	419.22,419.22,419.22,419.22,419.22,419.22,419.22,419.22,419.22,419.22,419.22,419.22,419.22,419.22,419.22,419.22,419.22,419.22,419.22,419.22,419.22,419.22,419.22,419.22,419.22,419.22,419.22,419.22,419.22,419.22
0.000953971	-1833924.06	0,1.0579e-05,2.38509e-05,4.05014e-05,6.13903e-05,8.75967e-05,0.000120474,0.000161721,0.000213467,0.000278386,0.00035983,0.000462007,0.000590194,0.000751011,0.000952767,0.00120588,0.00152343,0.00192181,0.0024216,0.00304861,0.00383524,0.00482211,0.0060602,0.00761345,0.0095621,0.0120068,0.0150738,0.0189215,0.0237487,0.0298048,inf	418.667,418.667,418.667,418.667,418.667,418.667,418.667,418.667,418.667,418.667,418.667,418.667,418.667,418.667,418.667,418.667,418.667,418.667,418.667,418.667,418.667,418.667,418.667,418.667,418.667,418.667,418.667,418.667,418.667,418.667
0.00101131	-1833691.72	0,1.0579e-05,2.38509e-05,4.05014e-05,6.13903e-05,8.75967e-05,0.000120474,0.000161721,0.000213467,0.000278386,0.00035983,0.000462007,0.000590194,0.000751011,0.000952767,0.00120588,0.00152343,0.00192181,0.0024216,0.00304861,0.00383524,0.00482211,0.0060602,0.00761345,0.0095621,0.0120068,0.0150738,0.0189215,0.0237487,0.0298048,inf	417.87,417.87,417.87,417.87,417.87,417.87,417.87,417.87,417.87,417.87,417.87,417.87,417.87,417.87,417.87,417.87,417.87,417.87,417.87,417.87,417.87,417.87,417.87,417.87,417.87,417.87,417.87,417.87,417.87,417.87
0.00106645	-1833491.58	0,1.0579e-05,2.38509e-05,4.05014e-05,6.13903e-05,8.75967e-05,0.000120474,0.000161721,0.000213467,0.000278386,0.00035983,0.000462007,0.000590194,0.000751011,0.000952767,0.00120588,0.00152343,0.00192181,0.0024216,0.00304861,0.00383524,0.00482211,0.0060602,0.00761345,0.0095621,0.0120068,0.0150738,0.0189215,0.0237487,0.0298048,inf	416.99,416.99,416.99,416.99,416.99,416.99,416.99,416.99,416.99,416.99,416.99,416.99,416.99,416.99,416.99,416.99,416.99,416.99,416.99,416.99,416.99,416.99,416.99,416.99,416.99,416.99,416.99,416.99,416.99,416.99
0.00111954	-1833317.90	0,1.0579e-05,2.38509e-05,4.05014e-05,6.13903e-05,8.75967e-05,0.000120474,0.000161721,0.000213467,0.000278386,0.00035983,0.000462007,0.000590194,0.000751011,0.000952767,0.00120588,0.00152343,0.00192181,0.0024216,0.00304861,0.00383524,0.00482211,0.0060602,0.00761345,0.0095621,0.0120068,0.0150738,0.0189215,0.0237487,0.0298048,inf	416.097,416.097,416.097,416.097,416.097,416.097,416.097,416.097,416.097,416.097,416.097,416.097,416.097,416.097,416.097,416.097,416.097,416.097,416.097,416.097,416.097,416.097,416.097,416.097,416.097,416.097,416.097,416.097,416.097,416.097
0.00117072	-1833166.21	0,1.0579e-05,2.38509e-05,4.05014e-05,6.13903e-05,8.75967e-05,0.000120474,0.000161721,0.000213467,0.000278386,0.00035983,0.000462007,0.000590194,0.000751011,0.000952767,0.00120588,0.00152343,0.00192181,0.0024216,0.00304861,0.00383524,0.00482211,0.0060602,0.00761345,0.0095621,0.0120068,0.0150738,0.0189215,0.0237487,0.0298048,inf	415.223,415.223,415.223,415.223,415.223,415.223,415.223,415.223,415.223,415.223,415.223,415.223,415.223,415.223,415.223,415.223,415.223,415.223,415.223,415.223,415.223,415.223,415.223,415.223,415.223,415.223,415.223,415.223,415.223,415.223
0.00122008	-1833033.01	0,1.0579e-05,2.38509e-05,4.05014e-05,6.13903e-05,8.75967e-05,0.000120474,0.000161721,0.000213467,0.000278386,0.00035983,0.000462007,0.000590194,0.000751011,0.000952767,0.00120588,0.00152343,0.00192181,0.0024216,0.00304861,0.00383524,0.00482211,0.0060602,0.00761345,0.0095621,0.0120068,0.0150738,0.0189215,0.0237487,0.0298048,inf	414.383,414.383,414.383,414.383,414.383,414.383,414.383,414.383,414.383,414.383,414.383,414.383,414.383,414.383,414.383,414.383,414.383,414.383,414.383,414.383,414.383,414.383,414.383,414.383,414.383,414.383,414.383,414.383,414.383,414.383
0.00126773	-1832915.50	0,1.0579e-05,2.38509e-05,4.05014e-05,6.13903e-05,8.75967e-05,0.000120474,0.000161721,0.000213467,0.000278386,0.00035983,0.000462007,0.000590194,0.000751011,0.000952767,0.00120588,0.00152343,0.00192181,0.0024216,0.00304861,0.00383524,0.00482211,0.0060602,0.00761345,0.0095621,0.0120068,0.0150738,0.0189215,0.0237487,0.0298048,inf	413.579,413.579,413.579,413.579,413.579,413.579,413.579,413.579,413.579,413.579,413.579,413.579,413.579,413.579,413.579,413.579,413.579,413.579,413.579,413.579,413.579,413.579,413.579,413.579,413.579,413.579,413.579,413.579,413.579,413.579
0.00131376	-1832811.40	0,1.0579e-05,2.38509e-05,4.05014e-05,6.13903e-05,8.75967e-05,0.000120474,0.000161721,0.000213467,0.000278386,0.00035983,0.000462007,0.000590194,0.000751011,0.000952767,0.00120588,0.00152343,0.00192181,0.0024216,0.00304861,0.00383524,0.00482211,0.0060602,0.00761345,0.0095621,0.0120068,0.0150738,0.0189215,0.0237487,0.0298048,inf	412.814,412.814,412.814,412.814,412.814,412.814,412.814,412.814,412.814,412.814,412.814,412.814,412.814,412.814,412.814,412.814,412.814,412.814,412.814,412.814,412.814,412.814,412.814,412.814,412.814,412.814,412.814,412.814,412.814,412.814
0.00135824	-1832718.82	0,1.0579e-05,2.38509e-05,4.05014e-05,6.13903e-05,8.75967e-05,0.000120474,0.000161721,0.000213467,0.000278386,0.00035983,0.000462007,0.000590194,0.000751011,0.000952767,0.00120588,0.00152343,0.00192181,0.0024216,0.00304861,0.00383524,0.00482211,0.0060602,0.00761345,0.0095621,0.0120068,0.0150738,0.0189215,0.0237487,0.0298048,inf	412.086,412.086,412.086,412.086,412.086,412.086,412.086,412.086,412.086,412.086,412.086,412.086,412.086,412.086,412.086,412.086,412.086,412.086,412.086,412.086,412.086,412.086,412.086,412.086,412.086,412.086,412.086,412.086,412.086,412.086
0.00140125	-1832636.23	0,1.0579e-05,2.38509e-05,4.05014e-05,6.13903e-05,8.75967e-05,0.000120474,0.000161721,0.000213467,0.000278386,0.00035983,0.000462007,0.000590194,0.000751011,0.000952767,0.00120588,0.00152343,0.00192181,0.0024216,0.00304861,0.00383524,0.00482211,0.0060602,0.00761345,0.0095621,0.0120068,0.0150738,0.0189215,0.0237487,0.0298048,inf	411.394,411.394,411.394,411.394,411.394,411.394,411.394,411.394,411.394,411.394,411.394,411.394,411.394,411.394,411.394,411.394,411.394,411.394,411.394,411.394,411.394,411.394,411.394,411.394,411.394,411.394,411.394,411.394,411.394,411.394
0.00144286	-1832562.31	0,1.0579e-05,2.38509e-05,4.05014e-05,6.13903e-05,8.75967e-05,0.000120474,0.000161721,0.000213467,0.000278386,0.00035983,0.000462007,0.000590194,0.000751011,0.000952767,0.00120588,0.00152343,0.00192181,0.0024216,0.00304861,0.00383524,0.00482211,0.0060602,0.00761345,0.0095621,0.0120068,0.0150738,0.0189215,0.0237487,0.0298048,inf	410.736,410.736,410.736,410.736,410.736,410.736,410.736,410.736,410.736,410.736,410.736,410.736,410.736,410.736,410.736,410.736,410.736,410.736,410.736,410.736,410.736,410.736,410.736,410.736,410.736,410.736,410.736,410.736,410.736,410.736
0.00148315	-1832495.99	0,1.0579e-05,2.38509e-05,4.05014e-05,6.13903e-05,8.75967e-05,0.000120474,0.000161721,0.000213467,0.000278386,0.00035983,0.000462007,0.000590194,0.000751011,0.000952767,0.00120588,0.00152343,0.00192181,0.0024216,0.00304861,0.00383524,0.00482211,0.0060602,0.00761345,0.0095621,0.0120068,0.0150738,0.0189215,0.0237487,0.0298048,inf	410.108,410.108,410.108,410.108,410.108,410.108,410.108,410.108,410.108,410.108,410.108,410.108,410.108,410.108,410.108,410.108,410.108,410.108,410.108,410.108,410.108,410.108,410.108,410.108,410.108,410.108,410.108,410.108,410.108,410.108
0.00152216	-1832436.32	0,1.0579e-05,2.38509e-05,4.05014e-05,6.13903e-05,8.75967e-05,0.000120474,0.000161721,0.000213467,0.000278386,0.00035983,0.000462007,0.000590194,0.000751011,0.000952767,0.00120588,0.00152343,0.00192181,0.0024216,0.00304861,0.00383524,0.00482211,0.0060602,0.00761345,0.0095621,0.0120068,0.0150738,0.0189215,0.0237487,0.0298048,inf	409.51,409.51,409.51,409.51,409.51,409.51,409.51,409.51,409.51,409.51,409.51,409.51,409.51,409.51,409.51,409.51,409.51,409.51,409.51,409.51,409.51,409.51,409.51,409.51,409.51,409.51,409.51,409.51,409.51,409.51
0.00155996	-1832382.53	0,1.0579e-05,2.38509e-05,4.05014e-05,6.13903e-05,8.75967e-05,0.000120474,0.000161721,0.000213467,0.000278386,0.00035983,0.000462007,0.000590194,0.000751011,0.000952767,0.00120588,0.00152343,0.00192181,0.0024216,0.00304861,0.00383524,0.00482211,0.0060602,0.00761345,0.0095621,0.0120068,0.0150738,0.0189215,0.0237487,0.0298048,inf	408.94,408.94,408.94,408.94,408.94,408.94,408.94,408.94,408.94,408.94,408.94,408.94,408.94,408.94,408.94,408.94,408.94,408.94,408.94,408.94,408.94,408.94,408.94,408.94,408.94,408.94,408.94,408.94,408.94,408.94
0.0015966	-1832333.94	0,1.0579e-05,2.38509e-05,4.05014e-05,6.13903e-05,8.75967e-05,0.000120474,0.000161721,0.000213467,0.000278386,0.00035983,0.000462007,0.000590194,0.000751011,0.000952767,0.00120588,0.00152343,0.00192181,0.0024216,0.00304861,0.00383524,0.00482211,0.0060602,0.00761345,0.0095621,0.0120068,0.0150738,0.0189215,0.0237487,0.0298048,inf	408.395,408.395,408.395,408.395,408.395,408.395,408.395,408.395,408.395,408.395,408.395,408.395,408.395,408.395,408.395,408.395,408.395,408.395,408.395,408.395,408.395,408.395,408.395,408.395,408.395,408.395,408.395,408.395,408.395,408.395
0.00163213	-1832289.96	0,1.0579e-05,2.38509e-05,4.05014e-05,6.13903e-05,8.75967e-05,0.000120474,0.000161721,0.000213467,0.000278386,0.00035983,0.000462007,0.000590194,0.000751011,0.000952767,0.00120588,0.00152343,0.00192181,0.0024216,0.00304861,0.00383524,0.00482211,0.0060602,0.00761345,0.0095621,0.0120068,0.0150738,0.0189215,0.0237487,0.0298048,inf	407.875,407.875,407.875,407.875,407.875,407.875,407.875,407.875,407.875,407.875,407.875,407.875,407.875,407.875,407.875,407.875,407.875,407.875,407.875,407.875,407.875,407.875,407.875,407.875,407.875,407.875,407.875,407.875,407.875,407.875
