0.000710998	-4610588.01	0,1.03604e-05,2.71447e-05,5.43357e-05,9.83859e-05,0.000169749,0.000285359,0.000472651,0.000776069,0.00126762,0.00206394,0.00335401,0.00544396,0.00882975,0.0143148,0.0232008,inf	519.744,519.744,361.483,340.415,333.228,327.97,324.672,331.505,356.109,400.555,447.065,446.363,413.301,383.87,383.87,383.87
0.000787517	-4608658.00	0,1.03604e-05,2.71447e-05,5.43357e-05,9.83859e-05,0.000169749,0.000285359,0.000472651,0.000776069,0.00126762,0.00206394,0.00335401,0.00544396,0.00882975,0.0143148,0.0232008,inf	601.869,601.869,357.946,335.994,327.207,316.28,305.366,308.625,338.061,397.94,470.524,473.397,417.133,367.818,367.818,367.818
0.000856893	-4607528.10	0,1.03604e-05,2.71447e-05,5.43357e-05,9.83859e-05,0.000169749,0.000285359,0.000472651,0.000776069,0.00126762,0.00206394,0.00335401,0.00544396,0.00882975,0.0143148,0.0232008,inf	632.849,632.849,351.475,337.625,331.992,318.301,301.292,299.865,329.196,394.389,481.785,488.866,415.89,353.564,353.564,353.564
0.000920599	-4606714.15	0,1.03604e-05,2.71447e-05,5.43357e-05,9.83859e-05,0.000169749,0.000285359,0.000472651,0.000776069,0.00126762,0.00206394,0.00335401,0.00544396,0.00882975,0.0143148,0.0232008,inf	635.976,635.976,340.92,337.447,337.178,323.15,302.216,296.794,324.728,391.098,487.007,497.836,412.497,341.77,341.77,341.77
0.000979735	-4606074.13	0,1.03604e-05,2.71447e-05,5.43357e-05,9.83859e-05,0.000169749,0.000285359,0.000472651,0.000776069,0.00126762,0.00206394,0.00335401,0.00544396,0.00882975,0.0143148,0.0232008,inf	629.016,629.016,329.318,335.31,340.71,327.794,304.753,296.301,322.646,388.363,489.162,503.08,408.38,332.299,332.299,332.299
0.00103506	-4605549.88	0,1.03604e-05,2.71447e-05,5.43357e-05,9.83859e-05,0.000169749,0.000285359,0.000472651,0.000776069,0.00126762,0.00206394,0.00335401,0.00544396,0.00882975,0.0143148,0.0232008,inf	620.143,620.143,318.651,332.259,342.658,331.505,307.665,297.039,321.947,386.17,489.711,506.122,404.194,324.786,324.786,324.786
0.00108708	-4605110.61	0,1.03604e-05,2.71447e-05,5.43357e-05,9.83859e-05,0.000169749,0.000285359,0.000472651,0.000776069,0.00126762,0.00206394,0.00335401,0.00544396,0.00882975,0.0143148,0.0232008,inf	612.088,612.088,309.713,329.13,343.516,334.267,310.492,298.364,322.076,384.429,489.398,507.821,400.217,318.85,318.85,318.85
0.0011362	-4604737.08	0,1.03604e-05,2.71447e-05,5.43357e-05,9.83859e-05,0.000169749,0.000285359,0.000472651,0.000776069,0.00126762,0.00206394,0.00335401,0.00544396,0.00882975,0.0143148,0.0232008,inf	605.356,605.356,302.606,326.394,343.742,336.256,313.078,299.949,322.71,383.042,488.616,508.675,396.548,314.161,314.161,314.161
0.0011827	-4604415.98	0,1.03604e-05,2.71447e-05,5.43357e-05,9.83859e-05,0.000169749,0.000285359,0.000472651,0.000776069,0.00126762,0.00206394,0.00335401,0.00544396,0.00882975,0.0143148,0.0232008,inf	599.7,599.7,297.146,324.25,343.662,337.668,315.389,301.62,323.649,381.926,487.582,508.981,393.204,310.45,310.45,310.45
0.00122681	-4604137.55	0,1.03604e-05,2.71447e-05,5.43357e-05,9.83859e-05,0.000169749,0.000285359,0.000472651,0.000776069,0.00126762,0.00206394,0.00335401,0.00544396,0.00882975,0.0143148,0.0232008,inf	594.794,594.794,293.054,322.74,343.481,338.67,317.437,303.286,324.769,381.018,486.418,508.925,390.165,307.507,307.507,307.507
0.00126873	-4603894.39	0,1.03604e-05,2.71447e-05,5.43357e-05,9.83859e-05,0.000169749,0.000285359,0.000472651,0.000776069,0.00126762,0.00206394,0.00335401,0.00544396,0.00882975,0.0143148,0.0232008,inf	590.348,590.348,290.058,321.824,343.32,339.389,319.251,304.896,325.991,380.268,485.196,508.626,387.401,305.169,305.169,305.169
0.00130863	-4603680.73	0,1.03604e-05,2.71447e-05,5.43357e-05,9.83859e-05,0.000169749,0.000285359,0.000472651,0.000776069,0.00126762,0.00206394,0.00335401,0.00544396,0.00882975,0.0143148,0.0232008,inf	586.19,586.19,287.913,321.425,343.243,339.922,320.863,306.426,327.264,379.642,483.96,508.163,384.879,303.307,303.307,303.307
0.00134664	-4603491.99	0,1.03604e-05,2.71447e-05,5.43357e-05,9.83859e-05,0.000169749,0.000285359,0.000472651,0.000776069,0.00126762,0.00206394,0.00335401,0.00544396,0.00882975,0.0143148,0.0232008,inf	582.24,582.24,286.421,321.459,343.278,340.332,322.302,307.864,328.554,379.113,482.735,507.589,382.566,301.825,301.825,301.825
0.00138289	-4603324.51	0,1.03604e-05,2.71447e-05,5.43357e-05,9.83859e-05,0.000169749,0.000285359,0.000472651,0.000776069,0.00126762,0.00206394,0.00335401,0.00544396,0.00882975,0.0143148,0.0232008,inf	578.424,578.424,285.415,321.841,343.431,340.667,323.593,309.206,329.841,378.66,481.539,506.94,380.434,300.645,300.645,300.645
0.00141751	-4603175.25	0,1.03604e-05,2.71447e-05,5.43357e-05,9.83859e-05,0.000169749,0.000285359,0.000472651,0.000776069,0.00126762,0.00206394,0.00335401,0.00544396,0.00882975,0.0143148,0.0232008,inf	574.753,574.753,284.768,322.5,343.698,340.96,324.757,310.453,331.108,378.269,480.38,506.244,378.46,299.707,299.707,299.707
0.00145058	-4603041.76	0,1.03604e-05,2.71447e-05,5.43357e-05,9.83859e-05,0.000169749,0.000285359,0.000472651,0.000776069,0.00126762,0.00206394,0.00335401,0.00544396,0.00882975,0.0143148,0.0232008,inf	571.232,571.232,284.378,323.373,344.068,341.234,325.814,311.608,332.349,377.927,479.264,505.52,376.623,298.965,298.965,298.965
0.00148221	-4602921.96	0,1.03604e-05,2.71447e-05,5.43357e-05,9.83859e-05,0.000169749,0.000285359,0.000472651,0.000776069,0.00126762,0.00206394,0.00335401,0.00544396,0.00882975,0.0143148,0.0232008,inf	567.856,567.856,284.174,324.405,344.529,341.504,326.777,312.676,333.557,377.626,478.195,504.781,374.905,298.382,298.382,298.382
0.00151247	-4602814.12	0,1.03604e-05,2.71447e-05,5.43357e-05,9.83859e-05,0.000169749,0.000285359,0.000472651,0.000776069,0.00126762,0.00206394,0.00335401,0.00544396,0.00882975,0.0143148,0.0232008,inf	564.665,564.665,284.099,325.554,345.067,341.78,327.66,313.661,334.729,377.359,477.174,504.037,373.293,297.927,297.927,297.927
0.00154146	-4602716.77	0,1.03604e-05,2.71447e-05,5.43357e-05,9.83859e-05,0.000169749,0.000285359,0.000472651,0.000776069,0.00126762,0.00206394,0.00335401,0.00544396,0.00882975,0.0143148,0.0232008,inf	561.629,561.629,284.108,326.783,345.668,342.067,328.473,314.57,335.864,377.12,476.201,503.296,371.775,297.577,297.577,297.577
0.00156923	-4602628.68	0,1.03604e-05,2.71447e-05,5.43357e-05,9.83859e-05,0.000169749,0.000285359,0.000472651,0.000776069,0.00126762,0.00206394,0.00335401,0.00544396,0.00882975,0.0143148,0.0232008,inf	558.767,558.767,284.172,328.065,346.319,342.372,329.223,315.406,336.96,376.904,475.274,502.564,370.339,297.313,297.313,297.313
