0.000694136	-4610793.33	0,4.55844e-06,1.03604e-05,1.77453e-05,2.71447e-05,3.91083e-05,5.43357e-05,7.37171e-05,9.83859e-05,0.000129784,0.000169749,0.000220615,0.000285359,0.000367764,0.000472651,0.00060615,0.000776069,0.000992343,0.00126762,0.00161799,0.00206394,0.00263155,0.00335401,0.00427356,0.00544396,0.00693366,0.00882975,0.0112431,0.0143148,0.0182245,0.0232008,0.0295347,inf	698.286,698.286,582.561,429.634,371.065,351.515,340.814,335.497,331.93,330.469,327.967,325.104,324.054,325.436,329.793,337.546,350.107,367.76,388.685,409.634,427.567,438.855,441.016,435.624,426.384,415.975,404.2,394.162,394.162,423.552,423.552,423.552
0.000758228	-4609088.22	0,4.55844e-06,1.03604e-05,1.77453e-05,2.71447e-05,3.91083e-05,5.43357e-05,7.37171e-05,9.83859e-05,0.000129784,0.000169749,0.000220615,0.000285359,0.000367764,0.000472651,0.00060615,0.000776069,0.000992343,0.00126762,0.00161799,0.00206394,0.00263155,0.00335401,0.00427356,0.00544396,0.00693366,0.00882975,0.0112431,0.0143148,0.0182245,0.0232008,0.0295347,inf	876.035,876.035,711.451,448.318,369.235,348.374,335.745,329.426,324.408,321.986,316.19,308.917,304.13,302.932,306.066,314.22,329.947,353.909,383.494,414.134,441.849,460.98,466.103,458.248,443.093,425.109,403.887,386.465,386.465,448.198,448.198,448.198
0.000818068	-4608022.00	0,4.55844e-06,1.03604e-05,1.77453e-05,2.71447e-05,3.91083e-05,5.43357e-05,7.37171e-05,9.83859e-05,0.000129784,0.000169749,0.000220615,0.000285359,0.000367764,0.000472651,0.00060615,0.000776069,0.000992343,0.00126762,0.00161799,0.00206394,0.00263155,0.00335401,0.00427356,0.00544396,0.00693366,0.00882975,0.0112431,0.0143148,0.0182245,0.0232008,0.0295347,inf	930.074,930.074,775.449,442.611,362.194,347.159,336.631,332.053,327.803,326.125,318.242,307.559,299.547,295.699,296.758,303.667,319.942,346.474,380.053,415.42,448.56,472.978,480.863,471.988,452.974,429.385,400.59,377.781,377.781,473.613,473.613,473.613
0.000874095	-4607228.44	0,4.55844e-06,1.03604e-05,1.77453e-05,2.71447e-05,3.91083e-05,5.43357e-05,7.37171e-05,9.83859e-05,0.000129784,0.000169749,0.000220615,0.000285359,0.000367764,0.000472651,0.00060615,0.000776069,0.000992343,0.00126762,0.00161799,0.00206394,0.00263155,0.00335401,0.00427356,0.00544396,0.00693366,0.00882975,0.0112431,0.0143148,0.0182245,0.0232008,0.0295347,inf	927.051,927.051,803.083,424.511,350.467,342.905,335.684,333.924,331.672,331.918,323.12,310.259,299.993,294.119,293.251,298.643,314.648,342.259,377.71,415.313,451.399,479.313,489.472,480.243,458.637,430.808,395.893,369.133,369.133,500.369,500.369,500.369
0.000926816	-4606591.51	0,4.55844e-06,1.03604e-05,1.77453e-05,2.71447e-05,3.91083e-05,5.43357e-05,7.37171e-05,9.83859e-05,0.000129784,0.000169749,0.000220615,0.000285359,0.000367764,0.000472651,0.00060615,0.000776069,0.000992343,0.00126762,0.00161799,0.00206394,0.00263155,0.00335401,0.00427356,0.00544396,0.00693366,0.00882975,0.0112431,0.0143148,0.0182245,0.0232008,0.0295347,inf	907.518,907.518,815.529,403.077,337.695,336.952,332.783,333.844,333.956,336.659,327.749,313.712,302.069,294.827,292.386,296.369,311.877,339.919,376.185,414.682,452.257,482.453,494.388,485.103,461.704,430.599,390.689,360.998,360.998,528.951,528.951,528.951
0.000976652	-4606060.78	0,4.55844e-06,1.03604e-05,1.77453e-05,2.71447e-05,3.91083e-05,5.43357e-05,7.37171e-05,9.83859e-05,0.000129784,0.000169749,0.000220615,0.000285359,0.000367764,0.000472651,0.00060615,0.000776069,0.000992343,0.00126762,0.00161799,0.00206394,0.00263155,0.00335401,0.00427356,0.00544396,0.00693366,0.00882975,0.0112431,0.0143148,0.0182245,0.0232008,0.0295347,inf	886.798,886.798,822.667,382.441,326.058,330.871,328.995,332.382,334.737,339.969,331.389,316.882,304.536,296.466,292.797,295.573,310.573,338.755,375.274,413.914,452.099,483.758,497.05,487.836,463.17,429.491,385.453,353.557,353.557,559.838,559.838,559.838
0.00102393	-4605609.02	0,4.55844e-06,1.03604e-05,1.77453e-05,2.71447e-05,3.91083e-05,5.43357e-05,7.37171e-05,9.83859e-05,0.000129784,0.000169749,0.000220615,0.000285359,0.000367764,0.000472651,0.00060615,0.000776069,0.000992343,0.00126762,0.00161799,0.00206394,0.00263155,0.00335401,0.00427356,0.00544396,0.00693366,0.00882975,0.0112431,0.0143148,0.0182245,0.0232008,0.0295347,inf	868.749,868.749,828,363.93,316.403,325.571,325.187,330.269,334.515,342.093,334.032,319.514,306.941,298.443,293.833,295.607,310.157,338.352,374.818,413.168,451.425,483.993,498.314,489.22,463.647,427.914,380.426,346.845,346.845,593.579,593.579,593.579
0.0010689	-4605219.21	0,4.55844e-06,1.03604e-05,1.77453e-05,2.71447e-05,3.91083e-05,5.43357e-05,7.37171e-05,9.83859e-05,0.000129784,0.000169749,0.000220615,0.000285359,0.000367764,0.000472651,0.00060615,0.000776069,0.000992343,0.00126762,0.00161799,0.00206394,0.00263155,0.00335401,0.00427356,0.00544396,0.00693366,0.00882975,0.0112431,0.0143148,0.0182245,0.0232008,0.0295347,inf	853.61,853.61,832.342,347.699,308.817,321.4,321.84,328.021,333.755,343.38,335.865,321.612,309.131,300.49,295.158,296.108,310.292,338.447,374.69,412.499,450.498,483.599,498.697,489.739,463.513,426.121,375.716,340.828,340.828,630.87,630.87,630.87
0.00111177	-4604879.56	0,4.55844e-06,1.03604e-05,1.77453e-05,2.71447e-05,3.91083e-05,5.43357e-05,7.37171e-05,9.83859e-05,0.000129784,0.000169749,0.000220615,0.000285359,0.000367764,0.000472651,0.00060615,0.000776069,0.000992343,0.00126762,0.00161799,0.00206394,0.00263155,0.00335401,0.00427356,0.00544396,0.00693366,0.00882975,0.0112431,0.0143148,0.0182245,0.0232008,0.0295347,inf	840.76,840.76,835.738,333.474,303.12,318.407,319.159,325.942,332.78,344.126,337.1,323.263,311.079,302.484,296.595,296.87,310.768,338.871,374.796,411.921,449.457,482.836,498.52,489.697,463.004,424.26,371.361,335.442,335.442,672.656,672.656,672.656
0.00115271	-4604581.37	0,4.55844e-06,1.03604e-05,1.77453e-05,2.71447e-05,3.91083e-05,5.43357e-05,7.37171e-05,9.83859e-05,0.000129784,0.000169749,0.000220615,0.000285359,0.000367764,0.000472651,0.00060615,0.000776069,0.000992343,0.00126762,0.00161799,0.00206394,0.00263155,0.00335401,0.00427356,0.00544396,0.00693366,0.00882975,0.0112431,0.0143148,0.0182245,0.0232008,0.0295347,inf	829.69,829.69,837.934,320.908,299.019,316.484,317.176,324.174,331.798,344.548,337.914,324.564,312.801,304.374,298.045,297.767,311.453,339.508,375.065,411.427,448.379,481.858,497.986,489.292,462.269,422.414,367.361,330.618,330.618,720.291,720.291,720.291
0.00119186	-4604317.97	0,4.55844e-06,1.03604e-05,1.77453e-05,2.71447e-05,3.91083e-05,5.43357e-05,7.37171e-05,9.83859e-05,0.000129784,0.000169749,0.000220615,0.000285359,0.000367764,0.000472651,0.00060615,0.000776069,0.000992343,0.00126762,0.00161799,0.00206394,0.00263155,0.00335401,0.00427356,0.00544396,0.00693366,0.00882975,0.0112431,0.0143148,0.0182245,0.0232008,0.0295347,inf	820.144,820.144,838.811,309.693,296.219,315.459,315.848,322.771,330.923,344.796,338.44,325.602,314.327,306.141,299.457,298.724,312.261,340.282,375.448,411.007,447.303,480.761,497.224,488.65,461.403,420.629,363.696,326.286,326.286,775.821,775.821,775.821
0.00122935	-4604084.10	0,4.55844e-06,1.03604e-05,1.77453e-05,2.71447e-05,3.91083e-05,5.43357e-05,7.37171e-05,9.83859e-05,0.000129784,0.000169749,0.000220615,0.000285359,0.000367764,0.000472651,0.00060615,0.000776069,0.000992343,0.00126762,0.00161799,0.00206394,0.00263155,0.00335401,0.00427356,0.00544396,0.00693366,0.00882975,0.0112431,0.0143148,0.0182245,0.0232008,0.0295347,inf	811.941,811.941,838.359,299.579,294.461,315.16,315.085,321.727,330.21,344.966,338.781,326.447,315.692,307.783,300.804,299.693,313.137,341.14,375.907,410.649,446.252,479.606,496.319,487.858,460.465,418.926,360.339,322.383,322.383,842.574,842.574,842.574
0.00126528	-4603875.48	0,4.55844e-06,1.03604e-05,1.77453e-05,2.71447e-05,3.91083e-05,5.43357e-05,7.37171e-05,9.83859e-05,0.000129784,0.000169749,0.000220615,0.000285359,0.000367764,0.000472651,0.00060615,0.000776069,0.000992343,0.00126762,0.00161799,0.00206394,0.00263155,0.00335401,0.00427356,0.00544396,0.00693366,0.00882975,0.0112431,0.0143148,0.0182245,0.0232008,0.0295347,inf	804.977,804.977,836.608,290.368,293.532,315.425,314.792,321.007,329.679,345.117,339.007,327.158,316.924,309.308,302.073,300.646,314.043,342.045,376.415,410.342,445.237,478.429,495.328,486.97,459.495,417.315,357.257,318.852,318.852,926.464,926.464,926.464
0.00129974	-4603688.66	0,4.55844e-06,1.03604e-05,1.77453e-05,2.71447e-05,3.91083e-05,5.43357e-05,7.37171e-05,9.83859e-05,0.000129784,0.000169749,0.000220615,0.000285359,0.000367764,0.000472651,0.00060615,0.000776069,0.000992343,0.00126762,0.00161799,0.00206394,0.00263155,0.00335401,0.00427356,0.00544396,0.00693366,0.00882975,0.0112431,0.0143148,0.0182245,0.0232008,0.0295347,inf	799.164,799.164,833.677,281.898,293.244,316.109,314.875,320.57,329.331,345.285,339.166,327.773,318.051,310.723,303.258,301.566,314.956,342.973,376.953,410.078,444.262,477.254,494.289,486.026,458.516,415.794,354.419,315.644,315.644,1039.57,1039.57,1039.57
0.00133282	-4603520.75	0,4.55844e-06,1.03604e-05,1.77453e-05,2.71447e-05,3.91083e-05,5.43357e-05,7.37171e-05,9.83859e-05,0.000129784,0.000169749,0.000220615,0.000285359,0.000367764,0.000472651,0.00060615,0.000776069,0.000992343,0.00126762,0.00161799,0.00206394,0.00263155,0.00335401,0.00427356,0.00544396,0.00693366,0.00882975,0.0112431,0.0143148,0.0182245,0.0232008,0.0295347,inf	794.452,794.452,829.656,274.072,293.469,317.106,315.251,320.374,329.152,345.49,339.292,328.323,319.092,312.038,304.361,302.445,315.86,343.908,377.508,409.847,443.33,476.095,493.227,485.051,457.541,414.36,351.794,312.717,312.717,1212.84,1212.84,1212.84
0.0013646	-4603369.36	0,4.55844e-06,1.03604e-05,1.77453e-05,2.71447e-05,3.91083e-05,5.43357e-05,7.37171e-05,9.83859e-05,0.000129784,0.000169749,0.000220615,0.000285359,0.000367764,0.000472651,0.00060615,0.000776069,0.000992343,0.00126762,0.00161799,0.00206394,0.00263155,0.00335401,0.00427356,0.00544396,0.00693366,0.00882975,0.0112431,0.0143148,0.0182245,0.0232008,0.0295347,inf	790.786,790.786,824.739,266.813,294.095,318.324,315.853,320.376,329.129,345.741,339.409,328.832,320.065,313.264,305.383,303.276,316.744,344.836,378.069,409.644,442.44,474.963,492.159,484.06,456.577,413,349.346,310.035,310.035,1570.78,1570.78,1570.78
0.00139514	-4603232.52	0,4.55844e-06,1.03604e-05,1.77453e-05,2.71447e-05,3.91083e-05,5.43357e-05,7.37171e-05,9.83859e-05,0.000129784,0.000169749,0.000220615,0.000285359,0.000367764,0.000472651,0.00060615,0.000776069,0.000992343,0.00126762,0.00161799,0.00206394,0.00263155,0.00335401,0.00427356,0.00544396,0.00693366,0.00882975,0.0112431,0.0143148,0.0182245,0.0232008,0.0295347,inf	788.084,788.084,819.08,260.034,295.036,319.679,316.619,320.534,329.241,346.038,339.529,329.315,320.983,314.408,306.328,304.058,317.602,345.751,378.629,409.464,441.59,473.86,491.093,483.061,455.619,411.692,347.035,307.564,307.564,3350,3350,3350
0.00139514	-4603108.64	0,4.55844e-06,1.03604e-05,1.77453e-05,2.71447e-05,3.91083e-05,5.43357e-05,7.37171e-05,9.83859e-05,0.000129784,0.000169749,0.000220615,0.000285359,0.000367764,0.000472651,0.00060615,0.000776069,0.000992343,0.00126762,0.00161799,0.00206394,0.00263155,0.00335401,0.00427356,0.00544396,0.00693366,0.00882975,0.0112431,0.0143148,0.0182245,0.0232008,0.0295347,inf	780.996,780.996,807.244,251.995,294.23,318.96,315.369,318.664,327.257,344.046,337.377,327.571,319.706,313.387,305.188,302.827,316.409,344.47,376.847,406.879,438.329,470.378,487.822,480.141,453,409.023,343.749,304.552,304.552,63698.7,63698.7,63698.7
0.00139514	-4603104.20	0,4.55844e-06,1.03604e-05,1.77453e-05,2.71447e-05,3.91083e-05,5.43357e-05,7.37171e-05,9.83859e-05,0.000129784,0.000169749,0.000220615,0.000285359,0.000367764,0.000472651,0.00060615,0.000776069,0.000992343,0.00126762,0.00161799,0.00206394,0.00263155,0.00335401,0.00427356,0.00544396,0.00693366,0.00882975,0.0112431,0.0143148,0.0182245,0.0232008,0.0295347,inf	781.168,781.168,803.6,246.089,295.179,319.825,315.583,318.239,326.731,343.548,336.636,327.15,319.69,313.583,305.222,302.744,316.392,344.434,376.375,405.639,436.417,468.136,485.714,478.242,451.292,407.093,341.019,301.938,301.938,63702.2,63702.2,63702.2
0.00139514	-4603103.80	0,4.55844e-06,1.03604e-05,1.77453e-05,2.71447e-05,3.91083e-05,5.43357e-05,7.37171e-05,9.83859e-05,0.000129784,0.000169749,0.000220615,0.000285359,0.000367764,0.000472651,0.00060615,0.000776069,0.000992343,0.00126762,0.00161799,0.00206394,0.00263155,0.00335401,0.00427356,0.00544396,0.00693366,0.00882975,0.0112431,0.0143148,0.0182245,0.0232008,0.0295347,inf	781.173,781.173,802.247,240.776,296.426,320.87,315.942,317.975,326.385,343.23,336.055,326.873,319.808,313.594,305.469,302.935,316.5,344.434,376.377,405.048,435.202,466.689,484.363,477.066,450.235,405.74,338.767,299.609,299.609,63704.9,63704.9,63704.9
