LogLikelihood = -163789.70201420609374

y0 0.99506206036476696486
y0_prime 0
y1 0.99961454733239807346
y1_prime 0
y2 0.87619284276314568505
y2_prime 0
y3 1.8440454342689247547
y3_prime 0
rho 0.0013741180387456548156
rho.alpha 0.96819554411470043487
r_ii 0.99999999700790376256
theta 0.0024572098626050825447
