time_index	left_time_boundary	right_time_boundary	lambda
0	0	8.6542e-06	5087.57
1	8.6542e-06	2.04959e-05	5087.57
2	2.04959e-05	3.6699e-05	3979.93
3	3.6699e-05	5.887e-05	6205.45
4	5.887e-05	8.92069e-05	5231.31
5	8.92069e-05	0.000130717	2951.75
6	0.000130717	0.000187517	3517.48
7	0.000187517	0.000265236	2996.83
8	0.000265236	0.00037158	3347.02
9	0.00037158	0.000517093	3881.19
10	0.000517093	0.000716201	3780.56
11	0.000716201	0.000988642	5418.13
12	0.000988642	0.00136143	12850.5
13	0.00136143	0.00187152	594596
14	0.00187152	0.00256948	594596
15	0.00256948	inf	594596
