6.63768e-05	-1896301.64	0,4.12075e-07,1.12708e-06,2.36773e-06,4.52042e-06,8.25565e-06,1.47368e-05,2.59826e-05,4.54956e-05,7.93535e-05,0.000138102,0.000240039,0.000416913,0.000723817,0.00125634,0.00218034,inf	2319.14,2319.14,4685.81,6048.59,5093.7,4182.66,4120.59,3939.12,3808.84,3893.63,4176.4,4210.94,4829.69,3342.89,3342.89,3342.89
6.87277e-05	-1896318.06	0,4.12075e-07,1.12708e-06,2.36773e-06,4.52042e-06,8.25565e-06,1.47368e-05,2.59826e-05,4.54956e-05,7.93535e-05,0.000138102,0.000240039,0.000416913,0.000723817,0.00125634,0.00218034,inf	1076.03,1076.03,4352.79,7359.28,5628.24,4142.38,4219.42,3940.04,3705.36,3802.17,4238.62,4218.96,5701.31,2836.42,2836.42,2836.42
7.04853e-05	-1896426.77	0,4.12075e-07,1.12708e-06,2.36773e-06,4.52042e-06,8.25565e-06,1.47368e-05,2.59826e-05,4.54956e-05,7.93535e-05,0.000138102,0.000240039,0.000416913,0.000723817,0.00125634,0.00218034,inf	459.18,459.18,3696.91,8196.64,5870.3,4013.17,4304.06,3969.89,3654.32,3739.95,4260.02,4099.28,6581.99,2458.31,2458.31,2458.31
7.1835e-05	-1896574.86	0,4.12075e-07,1.12708e-06,2.36773e-06,4.52042e-06,8.25565e-06,1.47368e-05,2.59826e-05,4.54956e-05,7.93535e-05,0.000138102,0.000240039,0.000416913,0.000723817,0.00125634,0.00218034,inf	189.732,189.732,3027.02,8780.63,5973.25,3852.3,4373.78,4007.74,3631.97,3704,4274.58,3911.91,7454.96,2188.99,2188.99,2188.99
7.28889e-05	-1896738.98	0,4.12075e-07,1.12708e-06,2.36773e-06,4.52042e-06,8.25565e-06,1.47368e-05,2.59826e-05,4.54956e-05,7.93535e-05,0.000138102,0.000240039,0.000416913,0.000723817,0.00125634,0.00218034,inf	77.3291,77.3291,2438.38,9231.89,6014.24,3685.23,4428.52,4041.72,3622.29,3685.75,4293.24,3692.55,8292.55,2004.39,2004.39,2004.39
7.37302e-05	-1896902.26	0,4.12075e-07,1.12708e-06,2.36773e-06,4.52042e-06,8.25565e-06,1.47368e-05,2.59826e-05,4.54956e-05,7.93535e-05,0.000138102,0.000240039,0.000416913,0.000723817,0.00125634,0.00218034,inf	31.2849,31.2849,1947.91,9608.62,6030.96,3524.39,4471.59,4067.67,3616.67,3678.28,4319.51,3463.57,9065.97,1883.1,1883.1,1883.1
7.44251e-05	-1897052.04	0,4.12075e-07,1.12708e-06,2.36773e-06,4.52042e-06,8.25565e-06,1.47368e-05,2.59826e-05,4.54956e-05,7.93535e-05,0.000138102,0.000240039,0.000416913,0.000723817,0.00125634,0.00218034,inf	12.6229,12.6229,1547.53,9935.56,6040.95,3375.04,4506.87,4085.38,3610.87,3676.65,4354.34,3238.67,9753.95,1807.45,1807.45,1807.45
7.50233e-05	-1897180.80	0,4.12075e-07,1.12708e-06,2.36773e-06,4.52042e-06,8.25565e-06,1.47368e-05,2.59826e-05,4.54956e-05,7.93535e-05,0.000138102,0.000240039,0.000416913,0.000723817,0.00125634,0.00218034,inf	5.05381,5.05381,1223.43,10218,6049.53,3237.75,4536.57,4095.27,3602.57,3677.26,4397.15,3025.61,10347.3,1763.27,1763.27,1763.27
7.55625e-05	-1897286.25	0,4.12075e-07,1.12708e-06,2.36773e-06,4.52042e-06,8.25565e-06,1.47368e-05,2.59826e-05,4.54956e-05,7.93535e-05,0.000138102,0.000240039,0.000416913,0.000723817,0.00125634,0.00218034,inf	3.96449,3.96449,963.344,10467.4,6063.35,3114.33,4565.84,4101.06,3592.35,3678.01,4447.84,2827.84,10849.4,1739.92,1739.92,1739.92
7.60645e-05	-1897370.02	0,4.12075e-07,1.12708e-06,2.36773e-06,4.52042e-06,8.25565e-06,1.47368e-05,2.59826e-05,4.54956e-05,7.93535e-05,0.000138102,0.000240039,0.000416913,0.000723817,0.00125634,0.00218034,inf	3.96449,3.96449,755.369,10681.9,6080.83,3002.62,4595.26,4103.79,3579.96,3676.92,4504.9,2646.29,11270.4,1729.5,1729.5,1729.5
7.65426e-05	-1897435.65	0,4.12075e-07,1.12708e-06,2.36773e-06,4.52042e-06,8.25565e-06,1.47368e-05,2.59826e-05,4.54956e-05,7.93535e-05,0.000138102,0.000240039,0.000416913,0.000723817,0.00125634,0.00218034,inf	3.96449,3.96449,589.963,10861.7,6101.18,2901.06,4625.29,4104.75,3565.86,3672.85,4566.81,2480.45,11623.7,1726.72,1726.72,1726.72
7.70038e-05	-1897487.05	0,4.12075e-07,1.12708e-06,2.36773e-06,4.52042e-06,8.25565e-06,1.47368e-05,2.59826e-05,4.54956e-05,7.93535e-05,0.000138102,0.000240039,0.000416913,0.000723817,0.00125634,0.00218034,inf	3.96449,3.96449,459.106,11009.9,6123.61,2807.99,4656.28,4104.99,3550.76,3665.23,4632.08,2329.16,11922.2,1728.22,1728.22,1728.22
7.7451e-05	-1897527.67	0,4.12075e-07,1.12708e-06,2.36773e-06,4.52042e-06,8.25565e-06,1.47368e-05,2.59826e-05,4.54956e-05,7.93535e-05,0.000138102,0.000240039,0.000416913,0.000723817,0.00125634,0.00218034,inf	3.96449,3.96449,356.34,11130.1,6147.76,2722.13,4688.04,4105.31,3535.36,3653.93,4699.35,2190.99,12177.1,1732.02,1732.02,1732.02
7.78852e-05	-1897560.26	0,4.12075e-07,1.12708e-06,2.36773e-06,4.52042e-06,8.25565e-06,1.47368e-05,2.59826e-05,4.54956e-05,7.93535e-05,0.000138102,0.000240039,0.000416913,0.000723817,0.00125634,0.00218034,inf	3.96449,3.96449,275.784,11225.4,6173.12,2642.19,4720.14,4106.17,3520.32,3639.07,4767.51,2064.52,12397.4,1736.96,1736.96,1736.96
7.83063e-05	-1897586.88	0,4.12075e-07,1.12708e-06,2.36773e-06,4.52042e-06,8.25565e-06,1.47368e-05,2.59826e-05,4.54956e-05,7.93535e-05,0.000138102,0.000240039,0.000416913,0.000723817,0.00125634,0.00218034,inf	3.96449,3.96449,213.022,11299.9,6199.6,2567.36,4752.33,4107.83,3506.18,3620.97,4835.6,1948.43,12590.2,1742.42,1742.42,1742.42
7.87135e-05	-1897609.02	0,4.12075e-07,1.12708e-06,2.36773e-06,4.52042e-06,8.25565e-06,1.47368e-05,2.59826e-05,4.54956e-05,7.93535e-05,0.000138102,0.000240039,0.000416913,0.000723817,0.00125634,0.00218034,inf	3.96449,3.96449,164.267,11356.7,6226.95,2496.87,4783.92,4110.33,3493.34,3600.03,4902.95,1841.57,12760.8,1748.04,1748.04,1748.04
7.91061e-05	-1897627.78	0,4.12075e-07,1.12708e-06,2.36773e-06,4.52042e-06,8.25565e-06,1.47368e-05,2.59826e-05,4.54956e-05,7.93535e-05,0.000138102,0.000240039,0.000416913,0.000723817,0.00125634,0.00218034,inf	3.96446,3.96446,126.547,11398.9,6255.15,2430.03,4814.65,4113.67,3482.1,3576.67,4969.01,1742.91,12913.3,1753.63,1753.63,1753.63
7.94834e-05	-1897643.95	0,4.12075e-07,1.12708e-06,2.36773e-06,4.52042e-06,8.25565e-06,1.47368e-05,2.59826e-05,4.54956e-05,7.93535e-05,0.000138102,0.000240039,0.000416913,0.000723817,0.00125634,0.00218034,inf	3.96446,3.96446,97.4529,11429.1,6284.37,2366.45,4844.13,4117.68,3472.62,3551.31,5033.42,1651.58,13050.9,1759.08,1759.08,1759.08
7.98447e-05	-1897658.09	0,4.12075e-07,1.12708e-06,2.36773e-06,4.52042e-06,8.25565e-06,1.47368e-05,2.59826e-05,4.54956e-05,7.93535e-05,0.000138102,0.000240039,0.000416913,0.000723817,0.00125634,0.00218034,inf	3.96446,3.96446,74.971,11449.9,6314.46,2305.89,4872,4122.22,3464.98,3524.35,5095.93,1566.8,13176,1764.36,1764.36,1764.36
8.01897e-05	-1897670.65	0,4.12075e-07,1.12708e-06,2.36773e-06,4.52042e-06,8.25565e-06,1.47368e-05,2.59826e-05,4.54956e-05,7.93535e-05,0.000138102,0.000240039,0.000416913,0.000723817,0.00125634,0.00218034,inf	3.96446,3.96446,57.6476,11462.4,6345.63,2247.94,4898.28,4127.1,3459.24,3496.16,5156.4,1487.94,13290.7,1769.44,1769.44,1769.44
