6.8696e-05	-41699.96	0,9.12086e-06,2.16011e-05,3.86779e-05,6.20444e-05,9.40172e-05,0.000137766,0.000197628,0.000279538,0.000391617,0.000544977,0.000754821,0.00104195,0.00143484,0.00197244,0.00270803,inf	3277.49,3277.49,4655.37,4390.02,3954.77,3908.86,4127.16,4122.01,4035.66,4026.76,4255.86,4707.38,5528.62,6440.59,6440.59,6440.59
7.47169e-05	-41691.44	0,9.12086e-06,2.16011e-05,3.86779e-05,6.20444e-05,9.40172e-05,0.000137766,0.000197628,0.000279538,0.000391617,0.000544977,0.000754821,0.00104195,0.00143484,0.00197244,0.00270803,inf	2652.1,2652.1,5178.73,4642.05,3866.18,3806.33,4191.04,4169.4,3991.83,3953.97,4359.3,5314.01,7905.6,13537.4,13537.4,13537.4
8.00967e-05	-41685.77	0,9.12086e-06,2.16011e-05,3.86779e-05,6.20444e-05,9.40172e-05,0.000137766,0.000197628,0.000279538,0.000391617,0.000544977,0.000754821,0.00104195,0.00143484,0.00197244,0.00270803,inf	2155.46,2155.46,5630.74,4824.7,3783.87,3729.34,4248.44,4205.62,3937.51,3859.23,4394.72,5907.46,13301.8,94732.2,94732.2,94732.2
8.00967e-05	-41681.87	0,9.12086e-06,2.16011e-05,3.86779e-05,6.20444e-05,9.40172e-05,0.000137766,0.000197628,0.000279538,0.000391617,0.000544977,0.000754821,0.00104195,0.00143484,0.00197244,0.00270803,inf	1735.31,1735.31,5915.17,4862.72,3645.13,3609.18,4223.5,4165.71,3824.2,3714.77,4344.59,6494.32,39530.3,555340,555340,555340
8.00967e-05	-41682.24	0,9.12086e-06,2.16011e-05,3.86779e-05,6.20444e-05,9.40172e-05,0.000137766,0.000197628,0.000279538,0.000391617,0.000544977,0.000754821,0.00104195,0.00143484,0.00197244,0.00270803,inf	1413.76,1413.76,6222.56,4929.73,3555.58,3540.66,4248.51,4170.06,3753.88,3596.96,4293.9,6794.46,39530.3,555303,555303,555303
8.00967e-05	-41682.22	0,9.12086e-06,2.16011e-05,3.86779e-05,6.20444e-05,9.40172e-05,0.000137766,0.000197628,0.000279538,0.000391617,0.000544977,0.000754821,0.00104195,0.00143484,0.00197244,0.00270803,inf	1140.67,1140.67,6480.76,4977.11,3479.3,3488.69,4290.46,4194.08,3707.38,3500.86,4244.33,7585.1,54739.3,550463,550463,550463
8.51834e-05	-41682.43	0,9.12086e-06,2.16011e-05,3.86779e-05,6.20444e-05,9.40172e-05,0.000137766,0.000197628,0.000279538,0.000391617,0.000544977,0.000754821,0.00104195,0.00143484,0.00197244,0.00270803,inf	943.647,943.647,6868.44,5121.7,3473.35,3506.18,4425.65,4304.29,3727.72,3454.89,4231.58,8659.6,216464,500404,500404,500404
8.97261e-05	-41679.44	0,9.12086e-06,2.16011e-05,3.86779e-05,6.20444e-05,9.40172e-05,0.000137766,0.000197628,0.000279538,0.000391617,0.000544977,0.000754821,0.00104195,0.00143484,0.00197244,0.00270803,inf	776.654,776.654,7122.8,5171.02,3427.26,3487.48,4502.4,4365.51,3716.51,3389.82,4193.47,10058.2,1.83699e+06,773.585,773.585,773.585
8.97261e-05	-41677.37	0,9.12086e-06,2.16011e-05,3.86779e-05,6.20444e-05,9.40172e-05,0.000137766,0.000197628,0.000279538,0.000391617,0.000544977,0.000754821,0.00104195,0.00143484,0.00197244,0.00270803,inf	636.596,636.596,7225.25,5117.41,3335.15,3420.62,4488.93,4345.32,3651.68,3289.31,4113.26,11989.6,1.84533e+06,682.952,682.952,682.952
