AIC = 597984.94128233357333

y0 1.0823545243440086949
y0_prime 0
y1 1.0160017092454927123
y1_prime 0
y2 0.90250762315868049424
y2_prime 0
y3 1.7684042298008999516
y3_prime 0
rho 0.0025202415382920345319
rho.alpha 1.0790537364265111453
r_ii 0.99999999638078784781
theta 0.0050044181340022295124
