AIC = 2959392.8003356596455

y0 1.0750499404020137373
y0_prime 0
y1 0.96148010406909167891
y1_prime 0
y2 0.91100912320851845649
y2_prime 0
y3 1.7877618541839515043
y3_prime 0
rho 0.00029822842521312023945
theta 0.0049504163347838673129
