AIC = 2959413.1600920939818

y0 1.0597947800000397933
y0_prime 0
y1 0.96468968759908513277
y1_prime 0
y2 0.90936940843300673176
y2_prime 0
y3 1.7896227078923816478
y3_prime 0
rho 0.0023479888502499551492
rho.alpha 1.1112836472654654685
r_ii 0.99999999781502002527
theta 0.0049504163347838673129
