0.000362304	-7722622.22	0,8.87739e-07,2.05711e-06,3.59747e-06,5.6265e-06,8.29924e-06,1.18199e-05,1.64575e-05,2.25663e-05,3.06132e-05,4.1213e-05,5.51755e-05,7.35675e-05,9.77945e-05,0.000129707,0.000171745,0.000227118,0.000300059,0.00039614,0.000522702,0.000689416,0.000909021,0.00119829,0.00157934,0.00208127,0.00274244,0.00361336,0.00476058,0.00627176,0.00826235,0.0108845,0.0143384,inf	962.445,962.445,246.981,375.154,495.05,593.878,666.064,710.081,733.84,743.376,738.164,724.197,711.511,702.303,696.117,694.784,701.31,718.324,743.163,770.525,798.629,826.489,848.988,860.319,858.448,850.084,836.921,802.003,802.003,750.781,750.781,750.781
0.000406519	-7719030.84	0,8.87739e-07,2.05711e-06,3.59747e-06,5.6265e-06,8.29924e-06,1.18199e-05,1.64575e-05,2.25663e-05,3.06132e-05,4.1213e-05,5.51755e-05,7.35675e-05,9.77945e-05,0.000129707,0.000171745,0.000227118,0.000300059,0.00039614,0.000522702,0.000689416,0.000909021,0.00119829,0.00157934,0.00208127,0.00274244,0.00361336,0.00476058,0.00627176,0.00826235,0.0108845,0.0143384,inf	933.671,933.671,93.6987,213.828,363.591,510.029,628.154,703.481,745.138,762.299,752.003,725.795,702.165,683.885,669.865,663.317,669.302,691.846,725.627,761.744,798.811,837.865,872.892,894.214,895.199,884.805,863.395,799.422,799.422,708.941,708.941,708.941
0.000447508	-7716491.58	0,8.87739e-07,2.05711e-06,3.59747e-06,5.6265e-06,8.29924e-06,1.18199e-05,1.64575e-05,2.25663e-05,3.06132e-05,4.1213e-05,5.51755e-05,7.35675e-05,9.77945e-05,0.000129707,0.000171745,0.000227118,0.000300059,0.00039614,0.000522702,0.000689416,0.000909021,0.00119829,0.00157934,0.00208127,0.00274244,0.00361336,0.00476058,0.00627176,0.00826235,0.0108845,0.0143384,inf	879.462,879.462,38.8664,131.855,282.819,453.823,603.878,703.436,760.605,786.188,773.441,738.956,708.322,683.879,663.972,653.021,657.748,682.904,720.384,758.516,797.099,839.866,881.569,910.597,915.908,906.537,879.722,791.511,791.511,670.213,670.213,670.213
0.000485621	-7714532.73	0,8.87739e-07,2.05711e-06,3.59747e-06,5.6265e-06,8.29924e-06,1.18199e-05,1.64575e-05,2.25663e-05,3.06132e-05,4.1213e-05,5.51755e-05,7.35675e-05,9.77945e-05,0.000129707,0.000171745,0.000227118,0.000300059,0.00039614,0.000522702,0.000689416,0.000909021,0.00119829,0.00157934,0.00208127,0.00274244,0.00361336,0.00476058,0.00627176,0.00826235,0.0108845,0.0143384,inf	830.282,830.282,17.2848,86.2141,228.547,411.158,582.552,699.47,769.011,802.846,789.621,750.259,716.02,688.128,664.473,650.575,654.609,681.617,720.704,758.014,794.898,837.78,882.728,917.427,927.246,920.301,889.769,781.175,781.175,635.084,635.084,635.084
0.000521201	-7712958.47	0,8.87739e-07,2.05711e-06,3.59747e-06,5.6265e-06,8.29924e-06,1.18199e-05,1.64575e-05,2.25663e-05,3.06132e-05,4.1213e-05,5.51755e-05,7.35675e-05,9.77945e-05,0.000129707,0.000171745,0.000227118,0.000300059,0.00039614,0.000522702,0.000689416,0.000909021,0.00119829,0.00157934,0.00208127,0.00274244,0.00361336,0.00476058,0.00627176,0.00826235,0.0108845,0.0143384,inf	790.036,790.036,8.20988,59.6114,191.593,379.309,564.689,693.096,771.552,812.524,799.69,757.691,722.155,692.742,666.974,651.369,655.388,684.082,723.826,759.034,792.789,834.009,880.176,918.977,933.033,929.11,895.909,770.014,770.014,603.487,603.487,603.487
0.000554534	-7711662.76	0,8.87739e-07,2.05711e-06,3.59747e-06,5.6265e-06,8.29924e-06,1.18199e-05,1.64575e-05,2.25663e-05,3.06132e-05,4.1213e-05,5.51755e-05,7.35675e-05,9.77945e-05,0.000129707,0.000171745,0.000227118,0.000300059,0.00039614,0.000522702,0.000689416,0.000909021,0.00119829,0.00157934,0.00208127,0.00274244,0.00361336,0.00476058,0.00627176,0.00826235,0.0108845,0.0143384,inf	758.805,758.805,4.15519,43.4469,166.325,356.582,551.403,686.747,771.04,817.652,805.288,761.921,726.471,696.746,669.968,653.546,658.094,688.462,728.394,760.925,790.956,829.647,875.829,917.582,935.483,934.786,899.601,758.886,758.886,575.122,575.122,575.122
0.000585854	-7710578.99	0,8.87739e-07,2.05711e-06,3.59747e-06,5.6265e-06,8.29924e-06,1.18199e-05,1.64575e-05,2.25663e-05,3.06132e-05,4.1213e-05,5.51755e-05,7.35675e-05,9.77945e-05,0.000129707,0.000171745,0.000227118,0.000300059,0.00039614,0.000522702,0.000689416,0.000909021,0.00119829,0.00157934,0.00208127,0.00274244,0.00361336,0.00476058,0.00627176,0.00826235,0.0108845,0.0143384,inf	734.036,734.036,2.22564,33.214,149.085,341.264,542.861,681.858,769.511,820.295,808.087,763.983,729.366,700.021,672.924,656.279,661.743,693.798,733.666,763.295,789.417,825.191,870.677,914.552,935.906,938.453,901.756,748.241,748.241,549.597,549.597,549.597
0.000615358	-7709661.54	0,8.87739e-07,2.05711e-06,3.59747e-06,5.6265e-06,8.29924e-06,1.18199e-05,1.64575e-05,2.25663e-05,3.06132e-05,4.1213e-05,5.51755e-05,7.35675e-05,9.77945e-05,0.000129707,0.000171745,0.000227118,0.000300059,0.00039614,0.000522702,0.000689416,0.000909021,0.00119829,0.00157934,0.00208127,0.00274244,0.00361336,0.00476058,0.00627176,0.00826235,0.0108845,0.0143384,inf	713.761,713.761,1.23878,26.4564,137.342,331.75,538.606,678.927,768.123,821.807,809.297,764.724,731.296,702.677,675.663,659.18,665.812,699.55,739.216,765.901,788.139,820.867,865.237,910.64,935.095,940.818,902.95,738.296,738.296,526.519,526.519,526.519
0.000643209	-7708877.40	0,8.87739e-07,2.05711e-06,3.59747e-06,5.6265e-06,8.29924e-06,1.18199e-05,1.64575e-05,2.25663e-05,3.06132e-05,4.1213e-05,5.51755e-05,7.35675e-05,9.77945e-05,0.000129707,0.000171745,0.000227118,0.000300059,0.00039614,0.000522702,0.000689416,0.000909021,0.00119829,0.00157934,0.00208127,0.00274244,0.00361336,0.00476058,0.00627176,0.00826235,0.0108845,0.0143384,inf	696.091,696.091,0.79427,21.8021,129.386,326.643,537.908,677.899,767.345,822.947,809.68,764.728,732.618,704.867,678.153,662.057,670.012,705.413,744.799,768.589,787.075,816.765,859.784,906.283,933.539,942.331,903.552,729.142,729.142,505.518,505.518,505.518
0.000669549	-7708201.83	0,8.87739e-07,2.05711e-06,3.59747e-06,5.6265e-06,8.29924e-06,1.18199e-05,1.64575e-05,2.25663e-05,3.06132e-05,4.1213e-05,5.51755e-05,7.35675e-05,9.77945e-05,0.000129707,0.000171745,0.000227118,0.000300059,0.00039614,0.000522702,0.000689416,0.000909021,0.00119829,0.00157934,0.00208127,0.00274244,0.00361336,0.00476058,0.00627176,0.00826235,0.0108845,0.0143384,inf	681.081,681.081,0.794185,18.4864,124.083,324.845,539.996,678.491,767.309,824.097,809.688,764.383,733.594,706.726,680.406,664.825,674.184,711.209,750.27,771.267,786.183,812.918,854.46,901.741,931.546,943.288,903.802,720.8,720.8,486.268,486.268,486.268
0.000694498	-7707615.82	0,8.87739e-07,2.05711e-06,3.59747e-06,5.6265e-06,8.29924e-06,1.18199e-05,1.64575e-05,2.25663e-05,3.06132e-05,4.1213e-05,5.51755e-05,7.35675e-05,9.77945e-05,0.000129707,0.000171745,0.000227118,0.000300059,0.00039614,0.000522702,0.000689416,0.000909021,0.00119829,0.00157934,0.00208127,0.00274244,0.00361336,0.00476058,0.00627176,0.00826235,0.0108845,0.0143384,inf	667.267,667.267,0.794185,16.0445,120.649,325.497,544.142,680.317,767.948,825.419,809.586,763.924,734.393,708.359,682.45,667.443,678.241,716.837,755.548,773.878,785.425,809.327,849.336,897.169,929.308,943.884,903.856,713.254,713.254,468.486,468.486,468.486
0.000718164	-7707104.45	0,8.87739e-07,2.05711e-06,3.59747e-06,5.6265e-06,8.29924e-06,1.18199e-05,1.64575e-05,2.25663e-05,3.06132e-05,4.1213e-05,5.51755e-05,7.35675e-05,9.77945e-05,0.000129707,0.000171745,0.000227118,0.000300059,0.00039614,0.000522702,0.000689416,0.000909021,0.00119829,0.00157934,0.00208127,0.00274244,0.00361336,0.00476058,0.00627176,0.00826235,0.0108845,0.0143384,inf	654.979,654.979,0.794185,14.1808,118.59,327.95,549.795,683.035,769.186,826.983,809.518,763.493,735.139,709.847,684.32,669.9,682.134,722.242,760.59,776.389,784.774,805.979,844.445,892.659,926.952,944.246,903.815,706.47,706.47,451.927,451.927,451.927
0.00074064	-7706655.84	0,8.87739e-07,2.05711e-06,3.59747e-06,5.6265e-06,8.29924e-06,1.18199e-05,1.64575e-05,2.25663e-05,3.06132e-05,4.1213e-05,5.51755e-05,7.35675e-05,9.77945e-05,0.000129707,0.000171745,0.000227118,0.000300059,0.00039614,0.000522702,0.000689416,0.000909021,0.00119829,0.00157934,0.00208127,0.00274244,0.00361336,0.00476058,0.00627176,0.00826235,0.0108845,0.0143384,inf	643.468,643.468,0.794185,12.7256,117.476,331.699,556.468,686.345,770.869,828.773,809.548,763.166,735.9,711.245,686.045,672.196,685.841,727.399,765.376,778.784,784.207,802.859,839.794,888.26,924.555,944.463,903.747,700.404,700.404,436.38,436.38,436.38
0.000762012	-7706260.45	0,8.87739e-07,2.05711e-06,3.59747e-06,5.6265e-06,8.29924e-06,1.18199e-05,1.64575e-05,2.25663e-05,3.06132e-05,4.1213e-05,5.51755e-05,7.35675e-05,9.77945e-05,0.000129707,0.000171745,0.000227118,0.000300059,0.00039614,0.000522702,0.000689416,0.000909021,0.00119829,0.00157934,0.00208127,0.00274244,0.00361336,0.00476058,0.00627176,0.00826235,0.0108845,0.0143384,inf	633.263,633.263,0.794185,11.5526,117.084,336.369,563.79,689.98,772.869,830.762,809.706,762.988,736.719,712.593,687.65,674.338,689.358,732.297,769.904,781.056,783.71,799.946,835.382,884.004,922.168,944.593,903.695,695.013,695.013,421.665,421.665,421.665
0.000782354	-7705910.48	0,8.87739e-07,2.05711e-06,3.59747e-06,5.6265e-06,8.29924e-06,1.18199e-05,1.64575e-05,2.25663e-05,3.06132e-05,4.1213e-05,5.51755e-05,7.35675e-05,9.77945e-05,0.000129707,0.000171745,0.000227118,0.000300059,0.00039614,0.000522702,0.000689416,0.000909021,0.00119829,0.00157934,0.00208127,0.00274244,0.00361336,0.00476058,0.00627176,0.00826235,0.0108845,0.0143384,inf	623.741,623.741,0.794185,10.5874,117.206,341.659,571.489,693.77,775.086,832.895,809.993,762.973,737.618,713.916,689.154,676.335,692.682,736.936,774.177,783.203,783.268,797.223,831.2,879.902,919.822,944.676,903.688,690.256,690.256,407.621,407.621,407.621
0.000801734	-7705599.54	0,8.87739e-07,2.05711e-06,3.59747e-06,5.6265e-06,8.29924e-06,1.18199e-05,1.64575e-05,2.25663e-05,3.06132e-05,4.1213e-05,5.51755e-05,7.35675e-05,9.77945e-05,0.000129707,0.000171745,0.000227118,0.000300059,0.00039614,0.000522702,0.000689416,0.000909021,0.00119829,0.00157934,0.00208127,0.00274244,0.00361336,0.00476058,0.00627176,0.00826235,0.0108845,0.0143384,inf	614.638,614.638,0.794185,9.78728,117.728,347.398,579.323,697.559,777.425,835.137,810.4,763.129,738.609,715.229,690.572,678.198,695.821,741.324,778.204,785.23,782.872,794.673,827.234,875.96,917.537,944.738,903.744,686.096,686.096,394.108,394.108,394.108
0.000820213	-7705322.33	0,8.87739e-07,2.05711e-06,3.59747e-06,5.6265e-06,8.29924e-06,1.18199e-05,1.64575e-05,2.25663e-05,3.06132e-05,4.1213e-05,5.51755e-05,7.35675e-05,9.77945e-05,0.000129707,0.000171745,0.000227118,0.000300059,0.00039614,0.000522702,0.000689416,0.000909021,0.00119829,0.00157934,0.00208127,0.00274244,0.00361336,0.00476058,0.00627176,0.00826235,0.0108845,0.0143384,inf	606.288,606.288,0.794185,9.11252,118.552,353.413,587.17,701.257,779.818,837.448,810.915,763.444,739.694,716.544,691.915,679.936,698.782,745.47,781.997,787.14,782.515,792.281,823.472,872.177,915.323,944.798,903.875,682.501,682.501,381.001,381.001,381.001
0.000837848	-7705074.44	0,8.87739e-07,2.05711e-06,3.59747e-06,5.6265e-06,8.29924e-06,1.18199e-05,1.64575e-05,2.25663e-05,3.06132e-05,4.1213e-05,5.51755e-05,7.35675e-05,9.77945e-05,0.000129707,0.000171745,0.000227118,0.000300059,0.00039614,0.000522702,0.000689416,0.000909021,0.00119829,0.00157934,0.00208127,0.00274244,0.00361336,0.00476058,0.00627176,0.00826235,0.0108845,0.0143384,inf	598.992,598.992,0.794185,8.53044,119.59,359.597,594.891,704.796,782.216,839.792,811.523,763.911,740.869,717.865,693.196,681.559,701.573,749.388,785.569,788.941,782.193,790.033,819.899,868.548,913.186,944.868,904.088,679.444,679.444,368.18,368.18,368.18
0.00085469	-7704852.17	0,8.87739e-07,2.05711e-06,3.59747e-06,5.6265e-06,8.29924e-06,1.18199e-05,1.64575e-05,2.25663e-05,3.06132e-05,4.1213e-05,5.51755e-05,7.35675e-05,9.77945e-05,0.000129707,0.000171745,0.000227118,0.000300059,0.00039614,0.000522702,0.000689416,0.000909021,0.00119829,0.00157934,0.00208127,0.00274244,0.00361336,0.00476058,0.00627176,0.00826235,0.0108845,0.0143384,inf	591.798,591.798,0.794185,8.02961,120.801,365.84,602.442,708.131,784.583,842.152,812.215,764.514,742.129,719.197,694.419,683.077,704.205,753.089,788.935,790.64,781.9,787.916,816.503,865.067,911.127,944.955,904.388,676.906,676.906,355.535,355.535,355.535
0.000870784	-7704652.42	0,8.87739e-07,2.05711e-06,3.59747e-06,5.6265e-06,8.29924e-06,1.18199e-05,1.64575e-05,2.25663e-05,3.06132e-05,4.1213e-05,5.51755e-05,7.35675e-05,9.77945e-05,0.000129707,0.000171745,0.000227118,0.000300059,0.00039614,0.000522702,0.000689416,0.000909021,0.00119829,0.00157934,0.00208127,0.00274244,0.00361336,0.00476058,0.00627176,0.00826235,0.0108845,0.0143384,inf	585.199,585.199,0.794185,7.58796,122.144,372.119,609.748,711.243,786.892,844.497,812.963,765.241,743.469,720.537,695.591,684.497,706.686,756.586,792.108,792.242,781.633,785.919,813.271,861.727,909.145,945.065,904.779,674.875,674.875,342.958,342.958,342.958
