0.000232125	-6050525.02	0,1.51149e-06,4.13413e-06,8.6848e-06,1.65809e-05,3.02817e-05,5.40546e-05,9.5304e-05,0.000166878,0.000291068,0.000506557,0.00088046,0.00152924,0.00265496,0.00460824,0.00799748,inf	566.291,566.291,473.853,198.603,148.427,172.033,250.309,356.884,498.024,736.613,1258.41,1626.94,1394.22,1307.89,1307.89,1307.89
0.000234371	-6039614.25	0,1.51149e-06,4.13413e-06,8.6848e-06,1.65809e-05,3.02817e-05,5.40546e-05,9.5304e-05,0.000166878,0.000291068,0.000506557,0.00088046,0.00152924,0.00265496,0.00460824,0.00799748,inf	448.073,448.073,505.472,136.263,77.2921,68.9856,123.257,209.441,331.689,582.902,1251.79,1989.84,1624.25,1507.23,1507.23,1507.23
0.000233973	-6036370.71	0,1.51149e-06,4.13413e-06,8.6848e-06,1.65809e-05,3.02817e-05,5.40546e-05,9.5304e-05,0.000166878,0.000291068,0.000506557,0.00088046,0.00152924,0.00265496,0.00460824,0.00799748,inf	322.474,322.474,580.041,128.858,70.7034,47.4244,93.4105,168.393,267.243,501.307,1206.82,2217.17,1771.11,1671.82,1671.82,1671.82
0.000231705	-6035122.14	0,1.51149e-06,4.13413e-06,8.6848e-06,1.65809e-05,3.02817e-05,5.40546e-05,9.5304e-05,0.000166878,0.000291068,0.000506557,0.00088046,0.00152924,0.00265496,0.00460824,0.00799748,inf	211.346,211.346,637.753,127.233,74.1211,40.8319,85.9836,158.494,240.308,454.407,1163.08,2361.07,1855.98,1803.98,1803.98,1803.98
0.000228314	-6034546.65	0,1.51149e-06,4.13413e-06,8.6848e-06,1.65809e-05,3.02817e-05,5.40546e-05,9.5304e-05,0.000166878,0.000291068,0.000506557,0.00088046,0.00152924,0.00265496,0.00460824,0.00799748,inf	130.992,130.992,678.582,125.096,78.7173,37.876,84.7207,159.402,229.693,426.022,1127.92,2454.45,1899.74,1907.61,1907.61,1907.61
0.000224282	-6034241.57	0,1.51149e-06,4.13413e-06,8.6848e-06,1.65809e-05,3.02817e-05,5.40546e-05,9.5304e-05,0.000166878,0.000291068,0.000506557,0.00088046,0.00152924,0.00265496,0.00460824,0.00799748,inf	78.2582,78.2582,709.039,122.471,82.7551,35.8769,84.8302,163.802,226.734,408.156,1100.97,2516.91,1918.28,1986.93,1986.93,1986.93
0.000219904	-6034059.94	0,1.51149e-06,4.13413e-06,8.6848e-06,1.65809e-05,3.02817e-05,5.40546e-05,9.5304e-05,0.000166878,0.000291068,0.000506557,0.00088046,0.00152924,0.00265496,0.00460824,0.00799748,inf	45.41,45.41,733.35,119.991,86.2493,34.1664,84.8569,168.684,227.394,396.524,1080.42,2560.06,1922.37,2046.34,2046.34,2046.34
0.000215362	-6033940.39	0,1.51149e-06,4.13413e-06,8.6848e-06,1.65809e-05,3.02817e-05,5.40546e-05,9.5304e-05,0.000166878,0.000291068,0.000506557,0.00088046,0.00152924,0.00265496,0.00460824,0.00799748,inf	25.6524,25.6524,753.374,117.979,89.4697,32.6393,84.5103,172.847,229.648,388.707,1064.58,2590.88,1918.78,2090.18,2090.18,2090.18
0.000210767	-6033854.40	0,1.51149e-06,4.13413e-06,8.6848e-06,1.65809e-05,3.02817e-05,5.40546e-05,9.5304e-05,0.000166878,0.000291068,0.000506557,0.00088046,0.00152924,0.00265496,0.00460824,0.00799748,inf	14.1279,14.1279,770.499,116.55,92.6284,31.2966,83.931,175.946,232.45,383.287,1052.14,2613.58,1911.61,2122.44,2122.44,2122.44
0.000206186	-6033787.63	0,1.51149e-06,4.13413e-06,8.6848e-06,1.65809e-05,3.02817e-05,5.40546e-05,9.5304e-05,0.000166878,0.000291068,0.000506557,0.00088046,0.00152924,0.00265496,0.00460824,0.00799748,inf	7.59518,7.59518,785.527,115.659,95.8132,30.1385,83.3006,178.021,235.268,379.413,1042.15,2630.75,1903.19,2146.48,2146.48,2146.48
0.000201664	-6033732.46	0,1.51149e-06,4.13413e-06,8.6848e-06,1.65809e-05,3.02817e-05,5.40546e-05,9.5304e-05,0.000166878,0.000291068,0.000506557,0.00088046,0.00152924,0.00265496,0.00460824,0.00799748,inf	3.98183,3.98183,799.024,115.216,99.0092,29.1374,82.7696,179.26,237.844,376.556,1033.95,2644.01,1894.84,2164.97,2164.97,2164.97
0.000197228	-6033684.70	0,1.51149e-06,4.13413e-06,8.6848e-06,1.65809e-05,3.02817e-05,5.40546e-05,9.5304e-05,0.000166878,0.000291068,0.000506557,0.00088046,0.00152924,0.00265496,0.00460824,0.00799748,inf	2.03861,2.03861,811.429,115.159,102.229,28.2668,82.4214,179.889,240.072,374.389,1027.07,2654.4,1887.19,2179.93,2179.93,2179.93
0.000192895	-6033641.96	0,1.51149e-06,4.13413e-06,8.6848e-06,1.65809e-05,3.02817e-05,5.40546e-05,9.5304e-05,0.000166878,0.000291068,0.000506557,0.00088046,0.00152924,0.00265496,0.00460824,0.00799748,inf	1.08108,1.08108,822.854,115.399,105.437,27.492,82.3049,180.107,241.924,372.7,1021.19,2662.61,1880.55,2192.78,2192.78,2192.78
0.000188678	-6033602.91	0,1.51149e-06,4.13413e-06,8.6848e-06,1.65809e-05,3.02817e-05,5.40546e-05,9.5304e-05,0.000166878,0.000291068,0.000506557,0.00088046,0.00152924,0.00265496,0.00460824,0.00799748,inf	1.08083,1.08083,833.521,115.86,108.605,26.7706,82.4142,180.076,243.418,371.349,1016.06,2669.09,1874.99,2204.51,2204.51,2204.51
0.000184585	-6033566.77	0,1.51149e-06,4.13413e-06,8.6848e-06,1.65809e-05,3.02817e-05,5.40546e-05,9.5304e-05,0.000166878,0.000291068,0.000506557,0.00088046,0.00152924,0.00265496,0.00460824,0.00799748,inf	1.08083,1.08083,843.571,116.559,111.757,26.0806,82.7284,179.922,244.586,370.243,1011.53,2674.2,1870.47,2215.78,2215.78,2215.78
0.000180622	-6033533.10	0,1.51149e-06,4.13413e-06,8.6848e-06,1.65809e-05,3.02817e-05,5.40546e-05,9.5304e-05,0.000166878,0.000291068,0.000506557,0.00088046,0.00152924,0.00265496,0.00460824,0.00799748,inf	1.08083,1.08083,853.02,117.422,114.886,25.3988,83.2181,179.727,245.473,369.316,1007.47,2678.18,1866.91,2227.01,2227.01,2227.01
0.000176793	-6033501.62	0,1.51149e-06,4.13413e-06,8.6848e-06,1.65809e-05,3.02817e-05,5.40546e-05,9.5304e-05,0.000166878,0.000291068,0.000506557,0.00088046,0.00152924,0.00265496,0.00460824,0.00799748,inf	1.08083,1.08083,861.978,118.485,117.997,24.7135,83.8566,179.553,246.122,368.526,1003.8,2681.23,1864.18,2238.45,2238.45,2238.45
0.000173101	-6033472.19	0,1.51149e-06,4.13413e-06,8.6848e-06,1.65809e-05,3.02817e-05,5.40546e-05,9.5304e-05,0.000166878,0.000291068,0.000506557,0.00088046,0.00152924,0.00265496,0.00460824,0.00799748,inf	1.08083,1.08083,870.322,119.662,121.073,24.0091,84.6195,179.437,246.574,367.837,1000.46,2683.5,1862.18,2250.23,2250.23,2250.23
0.000169546	-6033444.70	0,1.51149e-06,4.13413e-06,8.6848e-06,1.65809e-05,3.02817e-05,5.40546e-05,9.5304e-05,0.000166878,0.000291068,0.000506557,0.00088046,0.00152924,0.00265496,0.00460824,0.00799748,inf	1.08083,1.08083,878.251,120.979,124.134,23.2912,85.4703,179.398,246.868,367.225,997.387,2685.12,1860.79,2262.39,2262.39,2262.39
0.00016613	-6033419.08	0,1.51149e-06,4.13413e-06,8.6848e-06,1.65809e-05,3.02817e-05,5.40546e-05,9.5304e-05,0.000166878,0.000291068,0.000506557,0.00088046,0.00152924,0.00265496,0.00460824,0.00799748,inf	1.08083,1.08083,885.603,122.391,127.188,22.5528,86.3758,179.448,247.038,366.672,994.543,2686.19,1859.91,2274.94,2274.94,2274.94
