time_index	left_time_boundary	right_time_boundary	lambda
0	0	1.00046e-05	1.69671
1	1.00046e-05	2.17075e-05	1.69671
2	2.17075e-05	3.5397e-05	1.69671
3	3.5397e-05	5.14103e-05	1.69671
4	5.14103e-05	7.01418e-05	1.69671
5	7.01418e-05	9.2053e-05	1.69671
6	9.2053e-05	0.000117684	1.69671
7	0.000117684	0.000147665	1.69671
8	0.000147665	0.000182736	1.69671
9	0.000182736	0.00022376	1.69671
10	0.00022376	0.000271748	5.45138
11	0.000271748	0.000327881	69.4378
12	0.000327881	0.000393544	437.309
13	0.000393544	0.000470352	1515.75
14	0.000470352	0.000560199	3539.79
15	0.000560199	0.000665298	6594.76
16	0.000665298	0.000788237	11593.3
17	0.000788237	0.000932045	25218
18	0.000932045	0.00110026	3.89461e+06
19	0.00110026	0.00129704	2353.77
20	0.00129704	0.00152721	2016.01
21	0.00152721	0.00179646	3892.86
22	0.00179646	0.00211142	15710.6
23	0.00211142	0.00247984	2905.88
24	0.00247984	0.00291079	8045.23
25	0.00291079	0.0034149	23924.2
26	0.0034149	0.00400459	33591.4
27	0.00400459	0.00469437	728.471
28	0.00469437	0.00550125	728.471
29	0.00550125	0.00644509	1422.1
30	0.00644509	0.00754914	1422.1
31	0.00754914	inf	1422.1
