0.000699561	-1805604.21	0,1.04027e-05,2.34534e-05,3.98263e-05,6.03671e-05,8.61367e-05,0.000118466,0.000159025,0.000209909,0.000273746,0.000353833,0.000454307,0.000580357,0.000738494,0.000936886,0.00118578,0.00149803,0.00188977,0.00238123,0.0029978,0.00377132,0.00474174,0.00595919,0.00748655,0.00940272,0.0118067,0.0148226,0.0186062,0.0233529,0.029308,inf	414.791,414.791,414.791,414.791,414.791,414.791,414.791,414.791,414.791,414.791,414.791,414.791,414.791,414.791,414.791,414.791,414.791,414.791,414.791,414.791,414.791,414.791,414.791,414.791,414.791,414.791,414.791,414.791,414.791,414.791
0.000780927	-1804804.96	0,1.04027e-05,2.34534e-05,3.98263e-05,6.03671e-05,8.61367e-05,0.000118466,0.000159025,0.000209909,0.000273746,0.000353833,0.000454307,0.000580357,0.000738494,0.000936886,0.00118578,0.00149803,0.00188977,0.00238123,0.0029978,0.00377132,0.00474174,0.00595919,0.00748655,0.00940272,0.0118067,0.0148226,0.0186062,0.0233529,0.029308,inf	417.642,417.642,417.642,417.642,417.642,417.642,417.642,417.642,417.642,417.642,417.642,417.642,417.642,417.642,417.642,417.642,417.642,417.642,417.642,417.642,417.642,417.642,417.642,417.642,417.642,417.642,417.642,417.642,417.642,417.642
0.000857579	-1804170.47	0,1.04027e-05,2.34534e-05,3.98263e-05,6.03671e-05,8.61367e-05,0.000118466,0.000159025,0.000209909,0.000273746,0.000353833,0.000454307,0.000580357,0.000738494,0.000936886,0.00118578,0.00149803,0.00188977,0.00238123,0.0029978,0.00377132,0.00474174,0.00595919,0.00748655,0.00940272,0.0118067,0.0148226,0.0186062,0.0233529,0.029308,inf	418.654,418.654,418.654,418.654,418.654,418.654,418.654,418.654,418.654,418.654,418.654,418.654,418.654,418.654,418.654,418.654,418.654,418.654,418.654,418.654,418.654,418.654,418.654,418.654,418.654,418.654,418.654,418.654,418.654,418.654
0.000929917	-1803655.35	0,1.04027e-05,2.34534e-05,3.98263e-05,6.03671e-05,8.61367e-05,0.000118466,0.000159025,0.000209909,0.000273746,0.000353833,0.000454307,0.000580357,0.000738494,0.000936886,0.00118578,0.00149803,0.00188977,0.00238123,0.0029978,0.00377132,0.00474174,0.00595919,0.00748655,0.00940272,0.0118067,0.0148226,0.0186062,0.0233529,0.029308,inf	418.812,418.812,418.812,418.812,418.812,418.812,418.812,418.812,418.812,418.812,418.812,418.812,418.812,418.812,418.812,418.812,418.812,418.812,418.812,418.812,418.812,418.812,418.812,418.812,418.812,418.812,418.812,418.812,418.812,418.812
0.000998274	-1803230.61	0,1.04027e-05,2.34534e-05,3.98263e-05,6.03671e-05,8.61367e-05,0.000118466,0.000159025,0.000209909,0.000273746,0.000353833,0.000454307,0.000580357,0.000738494,0.000936886,0.00118578,0.00149803,0.00188977,0.00238123,0.0029978,0.00377132,0.00474174,0.00595919,0.00748655,0.00940272,0.0118067,0.0148226,0.0186062,0.0233529,0.029308,inf	418.56,418.56,418.56,418.56,418.56,418.56,418.56,418.56,418.56,418.56,418.56,418.56,418.56,418.56,418.56,418.56,418.56,418.56,418.56,418.56,418.56,418.56,418.56,418.56,418.56,418.56,418.56,418.56,418.56,418.56
0.00106294	-1802876.13	0,1.04027e-05,2.34534e-05,3.98263e-05,6.03671e-05,8.61367e-05,0.000118466,0.000159025,0.000209909,0.000273746,0.000353833,0.000454307,0.000580357,0.000738494,0.000936886,0.00118578,0.00149803,0.00188977,0.00238123,0.0029978,0.00377132,0.00474174,0.00595919,0.00748655,0.00940272,0.0118067,0.0148226,0.0186062,0.0233529,0.029308,inf	418.108,418.108,418.108,418.108,418.108,418.108,418.108,418.108,418.108,418.108,418.108,418.108,418.108,418.108,418.108,418.108,418.108,418.108,418.108,418.108,418.108,418.108,418.108,418.108,418.108,418.108,418.108,418.108,418.108,418.108
0.00112416	-1802577.24	0,1.04027e-05,2.34534e-05,3.98263e-05,6.03671e-05,8.61367e-05,0.000118466,0.000159025,0.000209909,0.000273746,0.000353833,0.000454307,0.000580357,0.000738494,0.000936886,0.00118578,0.00149803,0.00188977,0.00238123,0.0029978,0.00377132,0.00474174,0.00595919,0.00748655,0.00940272,0.0118067,0.0148226,0.0186062,0.0233529,0.029308,inf	417.56,417.56,417.56,417.56,417.56,417.56,417.56,417.56,417.56,417.56,417.56,417.56,417.56,417.56,417.56,417.56,417.56,417.56,417.56,417.56,417.56,417.56,417.56,417.56,417.56,417.56,417.56,417.56,417.56,417.56
0.00118217	-1802323.02	0,1.04027e-05,2.34534e-05,3.98263e-05,6.03671e-05,8.61367e-05,0.000118466,0.000159025,0.000209909,0.000273746,0.000353833,0.000454307,0.000580357,0.000738494,0.000936886,0.00118578,0.00149803,0.00188977,0.00238123,0.0029978,0.00377132,0.00474174,0.00595919,0.00748655,0.00940272,0.0118067,0.0148226,0.0186062,0.0233529,0.029308,inf	416.97,416.97,416.97,416.97,416.97,416.97,416.97,416.97,416.97,416.97,416.97,416.97,416.97,416.97,416.97,416.97,416.97,416.97,416.97,416.97,416.97,416.97,416.97,416.97,416.97,416.97,416.97,416.97,416.97,416.97
0.0012372	-1802105.12	0,1.04027e-05,2.34534e-05,3.98263e-05,6.03671e-05,8.61367e-05,0.000118466,0.000159025,0.000209909,0.000273746,0.000353833,0.000454307,0.000580357,0.000738494,0.000936886,0.00118578,0.00149803,0.00188977,0.00238123,0.0029978,0.00377132,0.00474174,0.00595919,0.00748655,0.00940272,0.0118067,0.0148226,0.0186062,0.0233529,0.029308,inf	416.368,416.368,416.368,416.368,416.368,416.368,416.368,416.368,416.368,416.368,416.368,416.368,416.368,416.368,416.368,416.368,416.368,416.368,416.368,416.368,416.368,416.368,416.368,416.368,416.368,416.368,416.368,416.368,416.368,416.368
0.00128942	-1801917.07	0,1.04027e-05,2.34534e-05,3.98263e-05,6.03671e-05,8.61367e-05,0.000118466,0.000159025,0.000209909,0.000273746,0.000353833,0.000454307,0.000580357,0.000738494,0.000936886,0.00118578,0.00149803,0.00188977,0.00238123,0.0029978,0.00377132,0.00474174,0.00595919,0.00748655,0.00940272,0.0118067,0.0148226,0.0186062,0.0233529,0.029308,inf	415.77,415.77,415.77,415.77,415.77,415.77,415.77,415.77,415.77,415.77,415.77,415.77,415.77,415.77,415.77,415.77,415.77,415.77,415.77,415.77,415.77,415.77,415.77,415.77,415.77,415.77,415.77,415.77,415.77,415.77
0.00133903	-1801753.79	0,1.04027e-05,2.34534e-05,3.98263e-05,6.03671e-05,8.61367e-05,0.000118466,0.000159025,0.000209909,0.000273746,0.000353833,0.000454307,0.000580357,0.000738494,0.000936886,0.00118578,0.00149803,0.00188977,0.00238123,0.0029978,0.00377132,0.00474174,0.00595919,0.00748655,0.00940272,0.0118067,0.0148226,0.0186062,0.0233529,0.029308,inf	415.185,415.185,415.185,415.185,415.185,415.185,415.185,415.185,415.185,415.185,415.185,415.185,415.185,415.185,415.185,415.185,415.185,415.185,415.185,415.185,415.185,415.185,415.185,415.185,415.185,415.185,415.185,415.185,415.185,415.185
0.00138619	-1801611.24	0,1.04027e-05,2.34534e-05,3.98263e-05,6.03671e-05,8.61367e-05,0.000118466,0.000159025,0.000209909,0.000273746,0.000353833,0.000454307,0.000580357,0.000738494,0.000936886,0.00118578,0.00149803,0.00188977,0.00238123,0.0029978,0.00377132,0.00474174,0.00595919,0.00748655,0.00940272,0.0118067,0.0148226,0.0186062,0.0233529,0.029308,inf	414.617,414.617,414.617,414.617,414.617,414.617,414.617,414.617,414.617,414.617,414.617,414.617,414.617,414.617,414.617,414.617,414.617,414.617,414.617,414.617,414.617,414.617,414.617,414.617,414.617,414.617,414.617,414.617,414.617,414.617
0.00143105	-1801486.18	0,1.04027e-05,2.34534e-05,3.98263e-05,6.03671e-05,8.61367e-05,0.000118466,0.000159025,0.000209909,0.000273746,0.000353833,0.000454307,0.000580357,0.000738494,0.000936886,0.00118578,0.00149803,0.00188977,0.00238123,0.0029978,0.00377132,0.00474174,0.00595919,0.00748655,0.00940272,0.0118067,0.0148226,0.0186062,0.0233529,0.029308,inf	414.071,414.071,414.071,414.071,414.071,414.071,414.071,414.071,414.071,414.071,414.071,414.071,414.071,414.071,414.071,414.071,414.071,414.071,414.071,414.071,414.071,414.071,414.071,414.071,414.071,414.071,414.071,414.071,414.071,414.071
0.00147376	-1801375.96	0,1.04027e-05,2.34534e-05,3.98263e-05,6.03671e-05,8.61367e-05,0.000118466,0.000159025,0.000209909,0.000273746,0.000353833,0.000454307,0.000580357,0.000738494,0.000936886,0.00118578,0.00149803,0.00188977,0.00238123,0.0029978,0.00377132,0.00474174,0.00595919,0.00748655,0.00940272,0.0118067,0.0148226,0.0186062,0.0233529,0.029308,inf	413.546,413.546,413.546,413.546,413.546,413.546,413.546,413.546,413.546,413.546,413.546,413.546,413.546,413.546,413.546,413.546,413.546,413.546,413.546,413.546,413.546,413.546,413.546,413.546,413.546,413.546,413.546,413.546,413.546,413.546
0.00151444	-1801278.41	0,1.04027e-05,2.34534e-05,3.98263e-05,6.03671e-05,8.61367e-05,0.000118466,0.000159025,0.000209909,0.000273746,0.000353833,0.000454307,0.000580357,0.000738494,0.000936886,0.00118578,0.00149803,0.00188977,0.00238123,0.0029978,0.00377132,0.00474174,0.00595919,0.00748655,0.00940272,0.0118067,0.0148226,0.0186062,0.0233529,0.029308,inf	413.044,413.044,413.044,413.044,413.044,413.044,413.044,413.044,413.044,413.044,413.044,413.044,413.044,413.044,413.044,413.044,413.044,413.044,413.044,413.044,413.044,413.044,413.044,413.044,413.044,413.044,413.044,413.044,413.044,413.044
0.00155322	-1801191.76	0,1.04027e-05,2.34534e-05,3.98263e-05,6.03671e-05,8.61367e-05,0.000118466,0.000159025,0.000209909,0.000273746,0.000353833,0.000454307,0.000580357,0.000738494,0.000936886,0.00118578,0.00149803,0.00188977,0.00238123,0.0029978,0.00377132,0.00474174,0.00595919,0.00748655,0.00940272,0.0118067,0.0148226,0.0186062,0.0233529,0.029308,inf	412.565,412.565,412.565,412.565,412.565,412.565,412.565,412.565,412.565,412.565,412.565,412.565,412.565,412.565,412.565,412.565,412.565,412.565,412.565,412.565,412.565,412.565,412.565,412.565,412.565,412.565,412.565,412.565,412.565,412.565
0.0015902	-1801114.51	0,1.04027e-05,2.34534e-05,3.98263e-05,6.03671e-05,8.61367e-05,0.000118466,0.000159025,0.000209909,0.000273746,0.000353833,0.000454307,0.000580357,0.000738494,0.000936886,0.00118578,0.00149803,0.00188977,0.00238123,0.0029978,0.00377132,0.00474174,0.00595919,0.00748655,0.00940272,0.0118067,0.0148226,0.0186062,0.0233529,0.029308,inf	412.107,412.107,412.107,412.107,412.107,412.107,412.107,412.107,412.107,412.107,412.107,412.107,412.107,412.107,412.107,412.107,412.107,412.107,412.107,412.107,412.107,412.107,412.107,412.107,412.107,412.107,412.107,412.107,412.107,412.107
0.00162549	-1801045.43	0,1.04027e-05,2.34534e-05,3.98263e-05,6.03671e-05,8.61367e-05,0.000118466,0.000159025,0.000209909,0.000273746,0.000353833,0.000454307,0.000580357,0.000738494,0.000936886,0.00118578,0.00149803,0.00188977,0.00238123,0.0029978,0.00377132,0.00474174,0.00595919,0.00748655,0.00940272,0.0118067,0.0148226,0.0186062,0.0233529,0.029308,inf	411.671,411.671,411.671,411.671,411.671,411.671,411.671,411.671,411.671,411.671,411.671,411.671,411.671,411.671,411.671,411.671,411.671,411.671,411.671,411.671,411.671,411.671,411.671,411.671,411.671,411.671,411.671,411.671,411.671,411.671
0.0016592	-1800983.46	0,1.04027e-05,2.34534e-05,3.98263e-05,6.03671e-05,8.61367e-05,0.000118466,0.000159025,0.000209909,0.000273746,0.000353833,0.000454307,0.000580357,0.000738494,0.000936886,0.00118578,0.00149803,0.00188977,0.00238123,0.0029978,0.00377132,0.00474174,0.00595919,0.00748655,0.00940272,0.0118067,0.0148226,0.0186062,0.0233529,0.029308,inf	411.255,411.255,411.255,411.255,411.255,411.255,411.255,411.255,411.255,411.255,411.255,411.255,411.255,411.255,411.255,411.255,411.255,411.255,411.255,411.255,411.255,411.255,411.255,411.255,411.255,411.255,411.255,411.255,411.255,411.255
0.00169139	-1800927.73	0,1.04027e-05,2.34534e-05,3.98263e-05,6.03671e-05,8.61367e-05,0.000118466,0.000159025,0.000209909,0.000273746,0.000353833,0.000454307,0.000580357,0.000738494,0.000936886,0.00118578,0.00149803,0.00188977,0.00238123,0.0029978,0.00377132,0.00474174,0.00595919,0.00748655,0.00940272,0.0118067,0.0148226,0.0186062,0.0233529,0.029308,inf	410.858,410.858,410.858,410.858,410.858,410.858,410.858,410.858,410.858,410.858,410.858,410.858,410.858,410.858,410.858,410.858,410.858,410.858,410.858,410.858,410.858,410.858,410.858,410.858,410.858,410.858,410.858,410.858,410.858,410.858
