0.000698139	-1805606.62	0,9.68111e-06,2.16557e-05,3.64671e-05,5.47873e-05,7.74476e-05,0.000105476,0.000140145,0.000183026,0.000236067,0.000301672,0.00038282,0.000483192,0.000607342,0.000760903,0.000950844,0.00118578,0.00147638,0.00183581,0.0022804,0.00283031,0.0035105,0.00435182,0.00539246,0.00667962,0.00827172,0.010241,0.0126768,0.0156896,0.0194162,0.0240256,0.0297269,inf	328.613,328.613,473.376,455.665,396.415,379.6,378.602,374.848,367.658,360.32,353.774,349,348.875,354.911,366.443,381.211,396.491,410.319,421.364,428.808,432.534,432.537,429.382,423.63,415.86,407.627,399.79,395.46,395.46,419.143,419.143,419.143
0.000779051	-1804733.60	0,9.68111e-06,2.16557e-05,3.64671e-05,5.47873e-05,7.74476e-05,0.000105476,0.000140145,0.000183026,0.000236067,0.000301672,0.00038282,0.000483192,0.000607342,0.000760903,0.000950844,0.00118578,0.00147638,0.00183581,0.0022804,0.00283031,0.0035105,0.00435182,0.00539246,0.00667962,0.00827172,0.010241,0.0126768,0.0156896,0.0194162,0.0240256,0.0297269,inf	268.799,268.799,544.559,510.996,402.541,379.8,382.635,377.962,365.639,352.302,339.597,329.579,327.337,335.085,351.45,372.641,394.316,413.709,429.274,440.125,446.089,446.686,442.215,432.965,419.605,405.13,391.427,383.665,383.665,429.236,429.236,429.236
0.000855006	-1804092.16	0,9.68111e-06,2.16557e-05,3.64671e-05,5.47873e-05,7.74476e-05,0.000105476,0.000140145,0.000183026,0.000236067,0.000301672,0.00038282,0.000483192,0.000607342,0.000760903,0.000950844,0.00118578,0.00147638,0.00183581,0.0022804,0.00283031,0.0035105,0.00435182,0.00539246,0.00667962,0.00827172,0.010241,0.0126768,0.0156896,0.0194162,0.0240256,0.0297269,inf	216.613,216.613,596.207,547.708,401.196,379.9,389.966,386.858,371.551,353.97,336.345,321.96,317.764,326.256,345.307,369.864,394.455,416.027,433.299,445.688,453.107,454.565,449.813,438.456,420.97,401.649,383.437,372.835,372.835,438.696,438.696,438.696
0.000926267	-1803586.78	0,9.68111e-06,2.16557e-05,3.64671e-05,5.47873e-05,7.74476e-05,0.000105476,0.000140145,0.000183026,0.000236067,0.000301672,0.00038282,0.000483192,0.000607342,0.000760903,0.000950844,0.00118578,0.00147638,0.00183581,0.0022804,0.00283031,0.0035105,0.00435182,0.00539246,0.00667962,0.00827172,0.010241,0.0126768,0.0156896,0.0194162,0.0240256,0.0297269,inf	175.619,175.619,631.478,566.758,392.012,376.325,395.206,395.143,378.432,358.035,336.633,318.827,313.172,322.213,343.049,369.534,395.355,417.456,435.041,447.989,456.38,458.776,454.306,441.703,421.077,397.89,376.095,363.053,363.053,447.898,447.898,447.898
0.000993242	-1803176.00	0,9.68111e-06,2.16557e-05,3.64671e-05,5.47873e-05,7.74476e-05,0.000105476,0.000140145,0.000183026,0.000236067,0.000301672,0.00038282,0.000483192,0.000607342,0.000760903,0.000950844,0.00118578,0.00147638,0.00183581,0.0022804,0.00283031,0.0035105,0.00435182,0.00539246,0.00667962,0.00827172,0.010241,0.0126768,0.0156896,0.0194162,0.0240256,0.0297269,inf	145.673,145.673,657.918,574.108,378.43,370.221,398.233,401.826,384.672,362.451,338.15,317.701,311.046,320.631,342.794,370.419,396.558,418.317,435.482,448.45,457.501,460.826,456.944,443.635,420.547,394.194,369.455,354.256,354.256,457.06,457.06,457.06
0.00105632	-1802835.56	0,9.68111e-06,2.16557e-05,3.64671e-05,5.47873e-05,7.74476e-05,0.000105476,0.000140145,0.000183026,0.000236067,0.000301672,0.00038282,0.000483192,0.000607342,0.000760903,0.000950844,0.00118578,0.00147638,0.00183581,0.0022804,0.00283031,0.0035105,0.00435182,0.00539246,0.00667962,0.00827172,0.010241,0.0126768,0.0156896,0.0194162,0.0240256,0.0297269,inf	124.489,124.489,680.857,574.559,363.161,363.02,399.794,407.097,390.011,366.611,340.048,317.555,310.269,320.437,343.66,371.954,397.88,418.821,435.176,447.865,457.372,461.589,458.46,444.791,419.719,390.71,363.479,346.334,346.334,466.313,466.313,466.313
0.00111583	-1802549.47	0,9.68111e-06,2.16557e-05,3.64671e-05,5.47873e-05,7.74476e-05,0.000105476,0.000140145,0.000183026,0.000236067,0.000301672,0.00038282,0.000483192,0.000607342,0.000760903,0.000950844,0.00118578,0.00147638,0.00183581,0.0022804,0.00283031,0.0035105,0.00435182,0.00539246,0.00667962,0.00827172,0.010241,0.0126768,0.0156896,0.0194162,0.0240256,0.0297269,inf	109.613,109.613,703.069,571.062,347.792,355.681,400.563,411.32,394.524,370.346,341.98,317.903,310.27,321.063,345.173,373.832,399.229,419.09,434.436,446.683,456.514,461.578,459.288,445.486,418.776,387.488,358.092,339.166,339.166,475.733,475.733,475.733
0.00117209	-1802306.43	0,9.68111e-06,2.16557e-05,3.64671e-05,5.47873e-05,7.74476e-05,0.000105476,0.000140145,0.000183026,0.000236067,0.000301672,0.00038282,0.000483192,0.000607342,0.000760903,0.000950844,0.00118578,0.00147638,0.00183581,0.0022804,0.00283031,0.0035105,0.00435182,0.00539246,0.00667962,0.00827172,0.010241,0.0126768,0.0156896,0.0194162,0.0240256,0.0297269,inf	99.0988,99.0988,725.674,565.262,333.122,348.739,401.001,414.812,398.348,373.637,343.8,318.494,310.731,322.184,347.06,375.879,400.555,419.199,433.44,445.165,455.234,461.1,459.692,445.907,417.815,384.535,353.217,332.643,332.643,485.373,485.373,485.373
0.00122533	-1802098.11	0,9.68111e-06,2.16557e-05,3.64671e-05,5.47873e-05,7.74476e-05,0.000105476,0.000140145,0.000183026,0.000236067,0.000301672,0.00038282,0.000483192,0.000607342,0.000760903,0.000950844,0.00118578,0.00147638,0.00183581,0.0022804,0.00283031,0.0035105,0.00435182,0.00539246,0.00667962,0.00827172,0.010241,0.0126768,0.0156896,0.0194162,0.0240256,0.0297269,inf	91.585,91.585,748.97,558.051,319.498,342.46,401.391,417.806,401.621,376.517,345.452,319.193,311.468,323.603,349.153,377.991,401.828,419.192,432.298,443.463,453.714,460.343,459.834,446.167,416.886,381.836,348.779,326.669,326.669,495.272,495.272,495.272
0.0012758	-1801918.20	0,9.68111e-06,2.16557e-05,3.64671e-05,5.47873e-05,7.74476e-05,0.000105476,0.000140145,0.000183026,0.000236067,0.000301672,0.00038282,0.000483192,0.000607342,0.000760903,0.000950844,0.00118578,0.00147638,0.00183581,0.0022804,0.00283031,0.0035105,0.00435182,0.00539246,0.00667962,0.00827172,0.010241,0.0126768,0.0156896,0.0194162,0.0240256,0.0297269,inf	86.1336,86.1336,772.796,549.91,307.03,336.945,401.902,420.462,404.451,379.03,346.92,319.924,312.366,325.198,351.349,380.106,403.034,419.099,431.072,441.672,452.07,459.426,459.817,446.337,416.015,379.368,344.714,321.164,321.164,505.463,505.463,505.463
0.0013237	-1801761.78	0,9.68111e-06,2.16557e-05,3.64671e-05,5.47873e-05,7.74476e-05,0.000105476,0.000140145,0.000183026,0.000236067,0.000301672,0.00038282,0.000483192,0.000607342,0.000760903,0.000950844,0.00118578,0.00147638,0.00183581,0.0022804,0.00283031,0.0035105,0.00435182,0.00539246,0.00667962,0.00827172,0.010241,0.0126768,0.0156896,0.0194162,0.0240256,0.0297269,inf	82.1013,82.1013,796.862,541.117,295.71,332.217,402.624,422.889,406.928,381.221,348.205,320.646,313.354,326.889,353.583,382.184,404.167,418.938,429.805,439.846,450.369,458.423,459.706,446.459,415.212,377.107,340.969,316.063,316.063,515.975,515.975,515.975
0.0013692	-1801625.01	0,9.68111e-06,2.16557e-05,3.64671e-05,5.47873e-05,7.74476e-05,0.000105476,0.000140145,0.000183026,0.000236067,0.000301672,0.00038282,0.000483192,0.000607342,0.000760903,0.000950844,0.00118578,0.00147638,0.00183581,0.0022804,0.00283031,0.0035105,0.00435182,0.00539246,0.00667962,0.00827172,0.010241,0.0126768,0.0156896,0.0194162,0.0240256,0.0297269,inf	79.066,79.066,820.857,531.849,285.466,328.241,403.603,425.165,409.12,383.135,349.318,321.336,314.387,328.626,355.814,384.205,405.224,418.725,428.521,438.023,448.657,457.382,459.543,446.559,414.479,375.028,337.495,311.31,311.31,526.836,526.836,526.836
0.00141246	-1801504.78	0,9.68111e-06,2.16557e-05,3.64671e-05,5.47873e-05,7.74476e-05,0.000105476,0.000140145,0.000183026,0.000236067,0.000301672,0.00038282,0.000483192,0.000607342,0.000760903,0.000950844,0.00118578,0.00147638,0.00183581,0.0022804,0.00283031,0.0035105,0.00435182,0.00539246,0.00667962,0.00827172,0.010241,0.0126768,0.0156896,0.0194162,0.0240256,0.0297269,inf	76.7408,76.7408,844.509,522.232,276.212,324.969,404.847,427.336,411.076,384.806,350.274,321.982,315.437,330.376,358.016,386.157,406.208,418.471,427.236,436.223,446.961,456.333,459.357,446.655,413.815,373.11,334.257,306.859,306.859,538.078,538.078,538.078
0.00145365	-1801398.59	0,9.68111e-06,2.16557e-05,3.64671e-05,5.47873e-05,7.74476e-05,0.000105476,0.000140145,0.000183026,0.000236067,0.000301672,0.00038282,0.000483192,0.000607342,0.000760903,0.000950844,0.00118578,0.00147638,0.00183581,0.0022804,0.00283031,0.0035105,0.00435182,0.00539246,0.00667962,0.00827172,0.010241,0.0126768,0.0156896,0.0194162,0.0240256,0.0297269,inf	74.9265,74.9265,867.58,512.363,267.849,322.338,406.357,429.434,412.837,386.266,351.086,322.58,316.485,332.117,360.172,388.033,407.121,418.183,425.964,434.46,445.298,455.297,459.165,446.758,413.217,371.333,331.221,302.673,302.673,549.734,549.734,549.734
0.00149288	-1801304.41	0,9.68111e-06,2.16557e-05,3.64671e-05,5.47873e-05,7.74476e-05,0.000105476,0.000140145,0.000183026,0.000236067,0.000301672,0.00038282,0.000483192,0.000607342,0.000760903,0.000950844,0.00118578,0.00147638,0.00183581,0.0022804,0.00283031,0.0035105,0.00435182,0.00539246,0.00667962,0.00827172,0.010241,0.0126768,0.0156896,0.0194162,0.0240256,0.0297269,inf	73.4918,73.4918,889.913,502.327,260.288,320.289,408.113,431.477,414.431,387.542,351.769,323.128,317.518,333.835,362.273,389.831,407.968,417.869,424.709,432.743,443.678,454.286,458.978,446.873,412.68,369.68,328.362,298.72,298.72,561.838,561.838,561.838
0.00153029	-1801220.55	0,9.68111e-06,2.16557e-05,3.64671e-05,5.47873e-05,7.74476e-05,0.000105476,0.000140145,0.000183026,0.000236067,0.000301672,0.00038282,0.000483192,0.000607342,0.000760903,0.000950844,0.00118578,0.00147638,0.00183581,0.0022804,0.00283031,0.0035105,0.00435182,0.00539246,0.00667962,0.00827172,0.010241,0.0126768,0.0156896,0.0194162,0.0240256,0.0297269,inf	72.3357,72.3357,911.416,492.192,253.437,318.764,410.101,433.473,415.882,388.655,352.338,323.626,318.53,335.521,364.313,391.552,408.753,417.533,423.477,431.073,442.108,453.307,458.805,447.005,412.199,368.138,325.657,294.974,294.974,574.43,574.43,574.43
0.00156599	-1801145.61	0,9.68111e-06,2.16557e-05,3.64671e-05,5.47873e-05,7.74476e-05,0.000105476,0.000140145,0.000183026,0.000236067,0.000301672,0.00038282,0.000483192,0.000607342,0.000760903,0.000950844,0.00118578,0.00147638,0.00183581,0.0022804,0.00283031,0.0035105,0.00435182,0.00539246,0.00667962,0.00827172,0.010241,0.0126768,0.0156896,0.0194162,0.0240256,0.0297269,inf	71.3985,71.3985,932.002,482.017,247.223,317.707,412.292,435.431,417.207,389.623,352.802,324.077,319.516,337.169,366.291,393.197,409.48,417.18,422.271,429.455,440.59,452.365,458.65,447.154,411.77,366.692,323.088,291.413,291.413,587.555,587.555,587.555
0.00160007	-1801078.42	0,9.68111e-06,2.16557e-05,3.64671e-05,5.47873e-05,7.74476e-05,0.000105476,0.000140145,0.000183026,0.000236067,0.000301672,0.00038282,0.000483192,0.000607342,0.000760903,0.000950844,0.00118578,0.00147638,0.00183581,0.0022804,0.00283031,0.0035105,0.00435182,0.00539246,0.00667962,0.00827172,0.010241,0.0126768,0.0156896,0.0194162,0.0240256,0.0297269,inf	70.6211,70.6211,951.637,471.849,241.573,317.068,414.664,437.348,418.419,390.463,353.174,324.482,320.473,338.777,368.206,394.771,410.156,416.815,421.091,427.887,439.126,451.464,458.517,447.323,411.388,365.333,320.639,288.018,288.018,601.261,601.261,601.261
0.00163263	-1801017.99	0,9.68111e-06,2.16557e-05,3.64671e-05,5.47873e-05,7.74476e-05,0.000105476,0.000140145,0.000183026,0.000236067,0.000301672,0.00038282,0.000483192,0.000607342,0.000760903,0.000950844,0.00118578,0.00147638,0.00183581,0.0022804,0.00283031,0.0035105,0.00435182,0.00539246,0.00667962,0.00827172,0.010241,0.0126768,0.0156896,0.0194162,0.0240256,0.0297269,inf	69.9818,69.9818,970.315,461.745,236.427,316.8,417.196,439.227,419.529,391.187,353.463,324.846,321.4,340.341,370.058,396.276,410.782,416.44,419.94,426.371,437.716,450.603,458.407,447.51,411.049,364.051,318.296,284.772,284.772,615.607,615.607,615.607
0.00166377	-1800963.49	0,9.68111e-06,2.16557e-05,3.64671e-05,5.47873e-05,7.74476e-05,0.000105476,0.000140145,0.000183026,0.000236067,0.000301672,0.00038282,0.000483192,0.000607342,0.000760903,0.000950844,0.00118578,0.00147638,0.00183581,0.0022804,0.00283031,0.0035105,0.00435182,0.00539246,0.00667962,0.00827172,0.010241,0.0126768,0.0156896,0.0194162,0.0240256,0.0297269,inf	69.456,69.456,988.053,451.717,231.731,316.863,419.864,441.065,420.548,391.807,353.676,325.171,322.298,341.863,371.849,397.715,411.364,416.057,418.817,424.905,436.359,449.783,458.321,447.717,410.75,362.838,316.05,281.662,281.662,630.655,630.655,630.655
