time_index	left_time_boundary	right_time_boundary	lambda
0	0	9.68111e-06	69.456
1	9.68111e-06	2.16557e-05	69.456
2	2.16557e-05	3.64671e-05	988.053
3	3.64671e-05	5.47873e-05	451.717
4	5.47873e-05	7.74476e-05	231.731
5	7.74476e-05	0.000105476	316.863
6	0.000105476	0.000140145	419.864
7	0.000140145	0.000183026	441.065
8	0.000183026	0.000236067	420.548
9	0.000236067	0.000301672	391.807
10	0.000301672	0.00038282	353.676
11	0.00038282	0.000483192	325.171
12	0.000483192	0.000607342	322.298
13	0.000607342	0.000760903	341.863
14	0.000760903	0.000950844	371.849
15	0.000950844	0.00118578	397.715
16	0.00118578	0.00147638	411.364
17	0.00147638	0.00183581	416.057
18	0.00183581	0.0022804	418.817
19	0.0022804	0.00283031	424.905
20	0.00283031	0.0035105	436.359
21	0.0035105	0.00435182	449.783
22	0.00435182	0.00539246	458.321
23	0.00539246	0.00667962	447.717
24	0.00667962	0.00827172	410.75
25	0.00827172	0.010241	362.838
26	0.010241	0.0126768	316.05
27	0.0126768	0.0156896	281.662
28	0.0156896	0.0194162	281.662
29	0.0194162	0.0240256	630.655
30	0.0240256	0.0297269	630.655
31	0.0297269	inf	630.655
