0.000722337	-8482657.44	0,6.03664e-06,1.62051e-05,3.33334e-05,6.21853e-05,0.000110785,0.000192649,0.000330545,0.000562826,0.000954092,0.00161316,0.00272334,0.00459337,0.00774337,0.0130494,0.0219872,inf	473.181,473.181,419.795,419.485,402.026,385.078,361.477,352.822,361.281,388.537,418.78,433.075,416.561,377.6,377.6,377.6
0.000819207	-8477945.12	0,6.03664e-06,1.62051e-05,3.33334e-05,6.21853e-05,0.000110785,0.000192649,0.000330545,0.000562826,0.000954092,0.00161316,0.00272334,0.00459337,0.00774337,0.0130494,0.0219872,inf	498.422,498.422,423.91,439.544,418.142,393.684,353.722,338.018,347.637,384.15,424.838,447.89,422.107,357.763,357.763,357.763
0.00090819	-8474632.71	0,6.03664e-06,1.62051e-05,3.33334e-05,6.21853e-05,0.000110785,0.000192649,0.000330545,0.000562826,0.000954092,0.00161316,0.00272334,0.00459337,0.00774337,0.0130494,0.0219872,inf	494.877,494.877,412.288,447.711,429.809,404.253,353.807,333.765,343.239,383.054,426.617,455.613,424.556,343.12,343.12,343.12
0.000990255	-8472129.62	0,6.03664e-06,1.62051e-05,3.33334e-05,6.21853e-05,0.000110785,0.000192649,0.000330545,0.000562826,0.000954092,0.00161316,0.00272334,0.00459337,0.00774337,0.0130494,0.0219872,inf	483.6,483.6,394.884,447.404,435.571,412.363,355.609,333.356,342.599,383.213,426.287,459.526,425.462,332.108,332.108,332.108
0.00106628	-8470167.23	0,6.03664e-06,1.62051e-05,3.33334e-05,6.21853e-05,0.000110785,0.000192649,0.000330545,0.000562826,0.000954092,0.00161316,0.00272334,0.00459337,0.00774337,0.0130494,0.0219872,inf	473.897,473.897,377.967,443.29,437.46,417.956,357.594,334.556,343.717,383.933,424.936,461.324,425.596,323.665,323.665,323.665
0.00113698	-8468590.99	0,6.03664e-06,1.62051e-05,3.33334e-05,6.21853e-05,0.000110785,0.000192649,0.000330545,0.000562826,0.000954092,0.00161316,0.00272334,0.00459337,0.00774337,0.0130494,0.0219872,inf	467.837,467.837,363.885,438.225,437.298,421.689,359.386,336.462,345.702,384.911,423.1,461.913,425.342,317.068,317.068,317.068
0.00120293	-8467302.04	0,6.03664e-06,1.62051e-05,3.33334e-05,6.21853e-05,0.000110785,0.000192649,0.000330545,0.000562826,0.000954092,0.00161316,0.00272334,0.00459337,0.00774337,0.0130494,0.0219872,inf	464.838,464.838,353.022,433.536,436.247,424.166,360.921,338.66,348.106,385.992,421.052,461.792,424.896,311.821,311.821,311.821
0.00126461	-8466233.02	0,6.03664e-06,1.62051e-05,3.33334e-05,6.21853e-05,0.000110785,0.000192649,0.000330545,0.000562826,0.000954092,0.00161316,0.00272334,0.00459337,0.00774337,0.0130494,0.0219872,inf	463.792,463.792,345.044,429.745,434.959,425.821,362.225,340.944,350.687,387.094,418.932,461.249,424.36,307.578,307.578,307.578
0.00132244	-8465336.09	0,6.03664e-06,1.62051e-05,3.33334e-05,6.21853e-05,0.000110785,0.000192649,0.000330545,0.000562826,0.000954092,0.00161316,0.00272334,0.00459337,0.00774337,0.0130494,0.0219872,inf	463.732,463.732,339.42,426.947,433.768,426.947,363.34,343.209,353.312,388.174,416.817,460.456,423.786,304.095,304.095,304.095
0.00137675	-8464576.15	0,6.03664e-06,1.62051e-05,3.33334e-05,6.21853e-05,0.000110785,0.000192649,0.000330545,0.000562826,0.000954092,0.00161316,0.00272334,0.00459337,0.00774337,0.0130494,0.0219872,inf	464.012,464.012,335.654,425.063,432.829,427.733,364.305,345.403,355.906,389.21,414.748,459.52,423.204,301.194,301.194,301.194
0.00142786	-8463926.82	0,6.03664e-06,1.62051e-05,3.33334e-05,6.21853e-05,0.000110785,0.000192649,0.000330545,0.000562826,0.000954092,0.00161316,0.00272334,0.00459337,0.00774337,0.0130494,0.0219872,inf	464.239,464.239,333.32,423.945,432.202,428.305,365.152,347.499,358.427,390.19,412.745,458.508,422.629,298.747,298.747,298.747
0.00147601	-8463367.92	0,6.03664e-06,1.62051e-05,3.33334e-05,6.21853e-05,0.000110785,0.000192649,0.000330545,0.000562826,0.000954092,0.00161316,0.00272334,0.00459337,0.00774337,0.0130494,0.0219872,inf	464.209,464.209,332.084,423.446,431.891,428.741,365.907,349.485,360.851,391.113,410.821,457.462,422.071,296.659,296.659,296.659
0.00152146	-8462883.72	0,6.03664e-06,1.62051e-05,3.33334e-05,6.21853e-05,0.000110785,0.000192649,0.000330545,0.000562826,0.000954092,0.00161316,0.00272334,0.00459337,0.00774337,0.0130494,0.0219872,inf	463.874,463.874,331.689,423.412,431.871,429.09,366.589,351.358,363.17,391.977,408.979,456.411,421.532,294.857,294.857,294.857
0.00156441	-8462461.81	0,6.03664e-06,1.62051e-05,3.33334e-05,6.21853e-05,0.000110785,0.000192649,0.000330545,0.000562826,0.000954092,0.00161316,0.00272334,0.00459337,0.00774337,0.0130494,0.0219872,inf	463.208,463.208,331.92,423.73,432.114,429.388,367.215,353.12,365.378,392.786,407.22,455.372,421.016,293.287,293.287,293.287
0.00160504	-8462092.25	0,6.03664e-06,1.62051e-05,3.33334e-05,6.21853e-05,0.000110785,0.000192649,0.000330545,0.000562826,0.000954092,0.00161316,0.00272334,0.00459337,0.00774337,0.0130494,0.0219872,inf	462.27,462.27,332.616,424.292,432.583,429.655,367.794,354.774,367.475,393.543,405.542,454.358,420.523,291.907,291.907,291.907
0.00164352	-8461767.03	0,6.03664e-06,1.62051e-05,3.33334e-05,6.21853e-05,0.000110785,0.000192649,0.000330545,0.000562826,0.000954092,0.00161316,0.00272334,0.00459337,0.00774337,0.0130494,0.0219872,inf	461.107,461.107,333.674,425.01,433.245,429.903,368.336,356.327,369.466,394.251,403.943,453.376,420.053,290.683,290.683,290.683
0.00168	-8461479.61	0,6.03664e-06,1.62051e-05,3.33334e-05,6.21853e-05,0.000110785,0.000192649,0.000330545,0.000562826,0.000954092,0.00161316,0.00272334,0.00459337,0.00774337,0.0130494,0.0219872,inf	459.763,459.763,334.997,425.829,434.074,430.142,368.846,357.783,371.353,394.914,402.419,452.43,419.606,289.59,289.59,289.59
0.00171463	-8461224.59	0,6.03664e-06,1.62051e-05,3.33334e-05,6.21853e-05,0.000110785,0.000192649,0.000330545,0.000562826,0.000954092,0.00161316,0.00272334,0.00459337,0.00774337,0.0130494,0.0219872,inf	458.311,458.311,336.51,426.694,435.04,430.375,369.331,359.148,373.142,395.536,400.966,451.524,419.18,288.607,288.607,288.607
0.00174751	-8460997.51	0,6.03664e-06,1.62051e-05,3.33334e-05,6.21853e-05,0.000110785,0.000192649,0.000330545,0.000562826,0.000954092,0.00161316,0.00272334,0.00459337,0.00774337,0.0130494,0.0219872,inf	456.8,456.8,338.155,427.57,436.121,430.606,369.794,360.429,374.838,396.12,399.581,450.657,418.775,287.717,287.717,287.717
0.00177877	-8460794.64	0,6.03664e-06,1.62051e-05,3.33334e-05,6.21853e-05,0.000110785,0.000192649,0.000330545,0.000562826,0.000954092,0.00161316,0.00272334,0.00459337,0.00774337,0.0130494,0.0219872,inf	455.25,455.25,339.896,428.418,437.293,430.838,370.237,361.63,376.447,396.669,398.259,449.831,418.391,286.906,286.906,286.906
