0.000708225	-13659251.89	0,1.74451e-06,4.04247e-06,7.06944e-06,1.10567e-05,1.6309e-05,2.32275e-05,3.23409e-05,4.43455e-05,6.01585e-05,8.09882e-05,0.000108426,0.000144569,0.000192177,0.00025489,0.000337498,0.000446313,0.00058965,0.00077846,0.00102717,0.00135478,0.00178633,0.00235479,0.00310358,0.00408994,0.00538921,0.00710067,0.00935509,0.0123247,0.0162365,0.0213892,0.0281767,inf	276.294,276.294,462.642,487.624,434.698,396.971,387.791,386.215,383.671,379.657,375.662,371.399,365.617,358.918,354.604,353.408,355.35,361.642,372.817,387.752,404.034,418.053,427.944,432.418,429.506,421.532,411.255,401.48,401.48,415.329,415.329,415.329
0.000792442	-13652527.17	0,1.74451e-06,4.04247e-06,7.06944e-06,1.10567e-05,1.6309e-05,2.32275e-05,3.23409e-05,4.43455e-05,6.01585e-05,8.09882e-05,0.000108426,0.000144569,0.000192177,0.00025489,0.000337498,0.000446313,0.00058965,0.00077846,0.00102717,0.00135478,0.00178633,0.00235479,0.00310358,0.00408994,0.00538921,0.00710067,0.00935509,0.0123247,0.0162365,0.0213892,0.0281767,inf	187.506,187.506,508.086,562.547,459.071,396.825,387.679,390.416,389.679,385.225,380.123,373.727,363.55,351.128,342.623,338.812,339.576,346.975,361.78,382.164,404.7,424.501,439.599,447.748,444.197,431.341,413.628,396.431,396.431,423.09,423.09,423.09
0.00087099	-13647641.20	0,1.74451e-06,4.04247e-06,7.06944e-06,1.10567e-05,1.6309e-05,2.32275e-05,3.23409e-05,4.43455e-05,6.01585e-05,8.09882e-05,0.000108426,0.000144569,0.000192177,0.00025489,0.000337498,0.000446313,0.00058965,0.00077846,0.00102717,0.00135478,0.00178633,0.00235479,0.00310358,0.00408994,0.00538921,0.00710067,0.00935509,0.0123247,0.0162365,0.0213892,0.0281767,inf	125.659,125.659,530.276,610.727,461.949,385.193,380.604,390.252,393.671,391.211,387.389,381.04,368.37,352.034,340.718,334.864,334.217,341.517,357.592,380.018,404.852,426.862,444.744,455.777,452.632,436.725,413.494,390.46,390.46,428.47,428.47,428.47
0.000944361	-13643823.90	0,1.74451e-06,4.04247e-06,7.06944e-06,1.10567e-05,1.6309e-05,2.32275e-05,3.23409e-05,4.43455e-05,6.01585e-05,8.09882e-05,0.000108426,0.000144569,0.000192177,0.00025489,0.000337498,0.000446313,0.00058965,0.00077846,0.00102717,0.00135478,0.00178633,0.00235479,0.00310358,0.00408994,0.00538921,0.00710067,0.00935509,0.0123247,0.0162365,0.0213892,0.0281767,inf	85.5238,85.5238,542.532,642.531,452.79,367.581,368.688,385.277,393.187,393.582,392.224,387.263,373.51,354.781,341.916,334.78,333.025,339.979,356.416,379.392,404.691,427.165,446.465,459.715,457.425,439.568,412.121,384.319,384.319,432.223,432.223,432.223
0.0010131	-13640738.71	0,1.74451e-06,4.04247e-06,7.06944e-06,1.10567e-05,1.6309e-05,2.32275e-05,3.23409e-05,4.43455e-05,6.01585e-05,8.09882e-05,0.000108426,0.000144569,0.000192177,0.00025489,0.000337498,0.000446313,0.00058965,0.00077846,0.00102717,0.00135478,0.00178633,0.00235479,0.00310358,0.00408994,0.00538921,0.00710067,0.00935509,0.0123247,0.0162365,0.0213892,0.0281767,inf	59.8346,59.8346,553.474,667.464,439.592,349.333,355.845,378.375,390.088,393.193,394.577,391.595,377.595,357.548,344.056,336.249,333.732,340.352,356.763,379.565,404.41,426.454,446.375,461.33,460.068,440.946,410.187,378.354,378.354,434.857,434.857,434.857
0.00107767	-13638192.85	0,1.74451e-06,4.04247e-06,7.06944e-06,1.10567e-05,1.6309e-05,2.32275e-05,3.23409e-05,4.43455e-05,6.01585e-05,8.09882e-05,0.000108426,0.000144569,0.000192177,0.00025489,0.000337498,0.000446313,0.00058965,0.00077846,0.00102717,0.00135478,0.00178633,0.00235479,0.00310358,0.00408994,0.00538921,0.00710067,0.00935509,0.0123247,0.0162365,0.0213892,0.0281767,inf	43.0302,43.0302,565.848,689.914,426.123,332.919,344.251,371.579,386.104,391.368,395.294,394.397,380.566,359.895,346.396,338.351,335.358,341.719,357.927,380.184,404.103,425.252,445.323,461.606,461.424,441.478,408.051,372.707,372.707,436.709,436.709,436.709
0.00113848	-13636060.86	0,1.74451e-06,4.04247e-06,7.06944e-06,1.10567e-05,1.6309e-05,2.32275e-05,3.23409e-05,4.43455e-05,6.01585e-05,8.09882e-05,0.000108426,0.000144569,0.000192177,0.00025489,0.000337498,0.000446313,0.00058965,0.00077846,0.00102717,0.00135478,0.00178633,0.00235479,0.00310358,0.00408994,0.00538921,0.00710067,0.00935509,0.0123247,0.0162365,0.0213892,0.0281767,inf	31.6591,31.6591,579.641,711.07,413.612,318.986,334.68,365.863,382.272,389.033,395.117,396.169,382.654,361.786,348.674,340.681,337.424,343.606,359.532,381.05,403.803,423.826,443.766,461.103,461.998,441.523,405.898,367.422,367.422,438.009,438.009,438.009
0.00119586	-13634254.95	0,1.74451e-06,4.04247e-06,7.06944e-06,1.10567e-05,1.6309e-05,2.32275e-05,3.23409e-05,4.43455e-05,6.01585e-05,8.09882e-05,0.000108426,0.000144569,0.000192177,0.00025489,0.000337498,0.000446313,0.00058965,0.00077846,0.00102717,0.00135478,0.00178633,0.00235479,0.00310358,0.00408994,0.00538921,0.00710067,0.00935509,0.0123247,0.0162365,0.0213892,0.0281767,inf	23.6911,23.6911,594.019,730.8,402.23,307.401,327.188,361.554,379.076,386.736,394.549,397.303,384.106,363.293,350.806,343.045,339.678,345.752,361.36,382.045,403.521,422.313,441.956,460.149,462.096,441.293,403.821,362.498,362.498,438.914,438.914,438.914
0.00125012	-13632710.85	0,1.74451e-06,4.04247e-06,7.06944e-06,1.10567e-05,1.6309e-05,2.32275e-05,3.23409e-05,4.43455e-05,6.01585e-05,8.09882e-05,0.000108426,0.000144569,0.000192177,0.00025489,0.000337498,0.000446313,0.00058965,0.00077846,0.00102717,0.00135478,0.00178633,0.00235479,0.00310358,0.00408994,0.00538921,0.00710067,0.00935509,0.0123247,0.0162365,0.0213892,0.0281767,inf	18.0247,18.0247,608.19,748.706,391.784,297.828,321.577,358.638,376.683,384.737,393.89,398.072,385.118,364.502,352.774,345.356,341.984,348.005,363.287,383.097,403.255,420.783,440.036,458.941,461.905,440.918,401.865,357.913,357.913,439.534,439.534,439.534
0.00130149	-13631380.09	0,1.74451e-06,4.04247e-06,7.06944e-06,1.10567e-05,1.6309e-05,2.32275e-05,3.23409e-05,4.43455e-05,6.01585e-05,8.09882e-05,0.000108426,0.000144569,0.000192177,0.00025489,0.000337498,0.000446313,0.00058965,0.00077846,0.00102717,0.00135478,0.00178633,0.00235479,0.00310358,0.00408994,0.00538921,0.00710067,0.00935509,0.0123247,0.0162365,0.0213892,0.0281767,inf	13.8657,13.8657,621.661,764.446,382.044,289.857,317.527,356.958,375.089,383.142,393.301,398.651,385.833,365.488,354.585,347.569,344.267,350.277,365.233,384.158,403.001,419.274,438.086,457.597,461.543,440.472,400.048,353.639,353.639,439.947,439.947,439.947
0.0013502	-13630225.24	0,1.74451e-06,4.04247e-06,7.06944e-06,1.10567e-05,1.6309e-05,2.32275e-05,3.23409e-05,4.43455e-05,6.01585e-05,8.09882e-05,0.000108426,0.000144569,0.000192177,0.00025489,0.000337498,0.000446313,0.00058965,0.00077846,0.00102717,0.00135478,0.00178633,0.00235479,0.00310358,0.00408994,0.00538921,0.00710067,0.00935509,0.0123247,0.0162365,0.0213892,0.0281767,inf	10.7795,10.7795,634.254,777.907,372.813,283.146,314.747,356.33,374.201,381.959,392.865,399.145,386.355,366.312,356.256,349.667,346.484,352.516,367.154,385.204,402.756,417.805,436.152,456.191,461.083,440.005,398.371,349.644,349.644,440.209,440.209,440.209
0.00139645	-13629216.94	0,1.74451e-06,4.04247e-06,7.06944e-06,1.10567e-05,1.6309e-05,2.32275e-05,3.23409e-05,4.43455e-05,6.01585e-05,8.09882e-05,0.000108426,0.000144569,0.000192177,0.00025489,0.000337498,0.000446313,0.00058965,0.00077846,0.00102717,0.00135478,0.00178633,0.00235479,0.00310358,0.00408994,0.00538921,0.00710067,0.00935509,0.0123247,0.0162365,0.0213892,0.0281767,inf	8.44716,8.44716,645.953,789.093,363.989,277.435,312.98,356.552,373.924,381.165,392.612,399.626,386.752,367.02,357.804,351.647,348.614,354.691,369.023,386.218,402.517,416.385,434.262,454.769,460.573,439.544,396.831,345.901,345.901,440.36,440.36,440.36
0.00144041	-13628331.79	0,1.74451e-06,4.04247e-06,7.06944e-06,1.10567e-05,1.6309e-05,2.32275e-05,3.23409e-05,4.43455e-05,6.01585e-05,8.09882e-05,0.000108426,0.000144569,0.000192177,0.00025489,0.000337498,0.000446313,0.00058965,0.00077846,0.00102717,0.00135478,0.00178633,0.00235479,0.00310358,0.00408994,0.00538921,0.00710067,0.00935509,0.0123247,0.0162365,0.0213892,0.0281767,inf	6.69428,6.69428,656.942,798.155,355.459,272.506,312.003,357.454,374.134,380.705,392.544,400.126,387.072,367.644,359.246,353.51,350.647,356.787,370.825,387.19,402.281,415.017,432.428,453.358,460.044,439.106,395.42,342.382,342.382,440.433,440.433,440.433
0.00148224	-13627550.95	0,1.74451e-06,4.04247e-06,7.06944e-06,1.10567e-05,1.6309e-05,2.32275e-05,3.23409e-05,4.43455e-05,6.01585e-05,8.09882e-05,0.000108426,0.000144569,0.000192177,0.00025489,0.000337498,0.000446313,0.00058965,0.00077846,0.00102717,0.00135478,0.00178633,0.00235479,0.00310358,0.00408994,0.00538921,0.00710067,0.00935509,0.0123247,0.0162365,0.0213892,0.0281767,inf	5.34908,5.34908,667.377,805.199,347.185,268.188,311.647,358.882,374.739,380.533,392.651,400.661,387.345,368.212,360.596,355.262,352.58,358.796,372.553,388.116,402.047,413.702,430.659,451.977,459.517,438.701,394.129,339.065,339.065,440.448,440.448,440.448
0.00152209	-13626859.07	0,1.74451e-06,4.04247e-06,7.06944e-06,1.10567e-05,1.6309e-05,2.32275e-05,3.23409e-05,4.43455e-05,6.01585e-05,8.09882e-05,0.000108426,0.000144569,0.000192177,0.00025489,0.000337498,0.000446313,0.00058965,0.00077846,0.00102717,0.00135478,0.00178633,0.00235479,0.00310358,0.00408994,0.00538921,0.00710067,0.00935509,0.0123247,0.0162365,0.0213892,0.0281767,inf	4.31998,4.31998,677.485,810.49,339.153,264.362,311.78,360.72,375.634,380.587,392.912,401.24,387.593,368.739,361.865,356.909,354.412,360.714,374.204,388.996,401.815,412.44,428.956,450.636,459.003,438.335,392.948,335.928,335.928,440.422,440.422,440.422
0.00156007	-13626243.52	0,1.74451e-06,4.04247e-06,7.06944e-06,1.10567e-05,1.6309e-05,2.32275e-05,3.23409e-05,4.43455e-05,6.01585e-05,8.09882e-05,0.000108426,0.000144569,0.000192177,0.00025489,0.000337498,0.000446313,0.00058965,0.00077846,0.00102717,0.00135478,0.00178633,0.00235479,0.00310358,0.00408994,0.00538921,0.00710067,0.00935509,0.0123247,0.0162365,0.0213892,0.0281767,inf	3.5266,3.5266,687.364,814.282,331.352,260.935,312.286,362.856,376.749,380.824,393.308,401.865,387.829,369.238,363.064,358.458,356.147,362.542,375.777,389.829,401.584,411.228,427.321,449.341,458.512,438.009,391.867,332.953,332.953,440.368,440.368,440.368
0.00159631	-13625693.86	0,1.74451e-06,4.04247e-06,7.06944e-06,1.10567e-05,1.6309e-05,2.32275e-05,3.23409e-05,4.43455e-05,6.01585e-05,8.09882e-05,0.000108426,0.000144569,0.000192177,0.00025489,0.000337498,0.000446313,0.00058965,0.00077846,0.00102717,0.00135478,0.00178633,0.00235479,0.00310358,0.00408994,0.00538921,0.00710067,0.00935509,0.0123247,0.0162365,0.0213892,0.0281767,inf	2.89562,2.89562,697.208,816.733,323.758,257.831,313.085,365.21,378.022,381.204,393.816,402.532,388.063,369.718,364.201,359.915,357.788,364.281,377.276,390.618,401.354,410.063,425.751,448.094,458.047,437.723,390.878,330.125,330.125,440.296,440.296,440.296
0.00163092	-13625201.34	0,1.74451e-06,4.04247e-06,7.06944e-06,1.10567e-05,1.6309e-05,2.32275e-05,3.23409e-05,4.43455e-05,6.01585e-05,8.09882e-05,0.000108426,0.000144569,0.000192177,0.00025489,0.000337498,0.000446313,0.00058965,0.00077846,0.00102717,0.00135478,0.00178633,0.00235479,0.00310358,0.00408994,0.00538921,0.00710067,0.00935509,0.0123247,0.0162365,0.0213892,0.0281767,inf	2.39362,2.39362,707.111,818.003,316.383,254.994,314.106,367.711,379.406,381.688,394.418,403.236,388.298,370.186,365.281,361.289,359.341,365.935,378.702,391.363,401.125,408.944,424.245,446.897,457.612,437.478,389.972,327.429,327.429,440.213,440.213,440.213
0.00166398	-13624758.65	0,1.74451e-06,4.04247e-06,7.06944e-06,1.10567e-05,1.6309e-05,2.32275e-05,3.23409e-05,4.43455e-05,6.01585e-05,8.09882e-05,0.000108426,0.000144569,0.000192177,0.00025489,0.000337498,0.000446313,0.00058965,0.00077846,0.00102717,0.00135478,0.00178633,0.00235479,0.00310358,0.00408994,0.00538921,0.00710067,0.00935509,0.0123247,0.0162365,0.0213892,0.0281767,inf	1.99321,1.99321,717.16,818.292,309.235,252.397,315.312,370.319,380.848,382.25,395.1,403.974,388.539,370.645,366.312,362.583,360.81,367.508,380.059,392.068,400.898,407.869,422.8,445.75,457.208,437.272,389.143,324.854,324.854,440.125,440.125,440.125
0.0016956	-13624359.58	0,1.74451e-06,4.04247e-06,7.06944e-06,1.10567e-05,1.6309e-05,2.32275e-05,3.23409e-05,4.43455e-05,6.01585e-05,8.09882e-05,0.000108426,0.000144569,0.000192177,0.00025489,0.000337498,0.000446313,0.00058965,0.00077846,0.00102717,0.00135478,0.00178633,0.00235479,0.00310358,0.00408994,0.00538921,0.00710067,0.00935509,0.0123247,0.0162365,0.0213892,0.0281767,inf	1.67295,1.67295,727.436,817.723,302.316,249.995,316.641,372.986,382.321,382.869,395.842,404.74,388.787,371.1,367.297,363.804,362.199,369.003,381.351,392.735,400.673,406.833,421.412,444.651,456.835,437.104,388.383,322.389,322.389,440.036,440.036,440.036
