LogLikelihood = -1243872.2879298909102

y0 0.7510749041839474005
y0_prime 0
y1 0.81181069659967730612
y1_prime 0
y2 0.81678182542248556341
y2_prime 0
y3 1.4770554411565381958
y3_prime 0
rho 0.0011249138589488022304
theta 0.0040654344361987036077
