LogLikelihood = -1508129.4957668934949

y0 0.64185708569958521696
y0_prime 0
y1 0.82933001716579113349
y1_prime 0
y2 1.0675172983157177331
y2_prime 0
y3 1.83648415040295232
y3_prime 0
rho 0.0011984211058098021875
theta 0.0049446371363393269716
