0.000696373	-1873890.39	0,9.95051e-06,2.22583e-05,3.74818e-05,5.63118e-05,7.96027e-05,0.000108411,0.000144045,0.000188119,0.000242636,0.000310067,0.000393473,0.000496638,0.000624243,0.000782077,0.000977303,0.00121878,0.00151746,0.0018869,0.00234386,0.00290907,0.00360819,0.00447292,0.00554251,0.0068655,0.00850189,0.010526,0.0130295,0.0161262,0.0199565,0.0246941,0.0305541,inf	107.232,107.232,192.673,225.584,231.641,230.449,231.564,234.78,239.524,245.011,252.002,262.878,278.049,297.183,321.261,352.386,391.741,435.639,473.254,491.347,487.158,470.334,450.913,434.286,421.875,411.5,401.37,380.442,380.442,349.585,349.585,349.585
0.000762777	-1872503.87	0,9.95051e-06,2.22583e-05,3.74818e-05,5.63118e-05,7.96027e-05,0.000108411,0.000144045,0.000188119,0.000242636,0.000310067,0.000393473,0.000496638,0.000624243,0.000782077,0.000977303,0.00121878,0.00151746,0.0018869,0.00234386,0.00290907,0.00360819,0.00447292,0.00554251,0.0068655,0.00850189,0.010526,0.0130295,0.0161262,0.0199565,0.0246941,0.0305541,inf	49.9659,49.9659,158.341,210.56,214.455,205.431,201.198,200.615,202.354,204.43,208.364,218.408,234.844,256.865,286.215,326.911,382.41,449.524,513.01,548.68,545.833,518.469,484.89,455.933,434.669,416.721,398.641,358.511,358.511,304.026,304.026,304.026
0.000825808	-1871859.45	0,9.95051e-06,2.22583e-05,3.74818e-05,5.63118e-05,7.96027e-05,0.000108411,0.000144045,0.000188119,0.000242636,0.000310067,0.000393473,0.000496638,0.000624243,0.000782077,0.000977303,0.00121878,0.00151746,0.0018869,0.00234386,0.00290907,0.00360819,0.00447292,0.00554251,0.0068655,0.00850189,0.010526,0.0130295,0.0161262,0.0199565,0.0246941,0.0305541,inf	26.705,26.705,147.653,221.458,223.779,207.572,199.083,195.47,194.427,192.618,192.675,200.476,215.752,237.089,266.832,310.491,373.344,453.296,533.616,583.075,583.14,549.044,505.17,467.189,439.703,416.246,391.89,334.831,334.831,263.454,263.454,263.454
0.000885621	-1871459.13	0,9.95051e-06,2.22583e-05,3.74818e-05,5.63118e-05,7.96027e-05,0.000108411,0.000144045,0.000188119,0.000242636,0.000310067,0.000393473,0.000496638,0.000624243,0.000782077,0.000977303,0.00121878,0.00151746,0.0018869,0.00234386,0.00290907,0.00360819,0.00447292,0.00554251,0.0068655,0.00850189,0.010526,0.0130295,0.0161262,0.0199565,0.0246941,0.0305541,inf	14.4699,14.4699,138.468,233.698,235.778,214.313,203.557,198.518,195.816,190.765,187.472,193.254,207.032,226.757,255.329,299.477,365.82,453.183,544.446,604.024,606.967,568.304,516.795,472.181,440.319,412.796,383.404,311.853,311.853,229.388,229.388,229.388
0.000942783	-1871164.44	0,9.95051e-06,2.22583e-05,3.74818e-05,5.63118e-05,7.96027e-05,0.000108411,0.000144045,0.000188119,0.000242636,0.000310067,0.000393473,0.000496638,0.000624243,0.000782077,0.000977303,0.00121878,0.00151746,0.0018869,0.00234386,0.00290907,0.00360819,0.00447292,0.00554251,0.0068655,0.00850189,0.010526,0.0130295,0.0161262,0.0199565,0.0246941,0.0305541,inf	7.76044,7.76044,127.524,241.372,244.136,219.436,208.273,203.327,200.111,192.648,186.765,191.046,203.469,221.389,248.278,291.918,359.9,451.689,550.162,617.01,622.323,580.364,523.084,473.568,438.627,408.071,374.607,290.948,290.948,201.986,201.986,201.986
0.000997781	-1870926.60	0,9.95051e-06,2.22583e-05,3.74818e-05,5.63118e-05,7.96027e-05,0.000108411,0.000144045,0.000188119,0.000242636,0.000310067,0.000393473,0.000496638,0.000624243,0.000782077,0.000977303,0.00121878,0.00151746,0.0018869,0.00234386,0.00290907,0.00360819,0.00447292,0.00554251,0.0068655,0.00850189,0.010526,0.0130295,0.0161262,0.0199565,0.0246941,0.0305541,inf	4.14064,4.14064,115.836,244.545,248.148,221.678,211.435,207.727,204.932,195.835,188.099,191.395,202.701,218.846,243.923,286.655,355.336,449.827,553.111,625.151,632.276,587.824,526.12,472.976,435.891,403.08,366.339,272.742,272.742,180.631,180.631,180.631
0.00105098	-1870724.95	0,9.95051e-06,2.22583e-05,3.74818e-05,5.63118e-05,7.96027e-05,0.000108411,0.000144045,0.000188119,0.000242636,0.000310067,0.000393473,0.000496638,0.000624243,0.000782077,0.000977303,0.00121878,0.00151746,0.0018869,0.00234386,0.00290907,0.00360819,0.00447292,0.00554251,0.0068655,0.00850189,0.010526,0.0130295,0.0161262,0.0199565,0.0246941,0.0305541,inf	2.21311,2.21311,104.728,244.899,248.854,221.412,212.84,211.095,209.38,199.306,190.356,193.11,203.525,217.994,241.278,282.965,351.848,447.998,554.517,630.254,638.704,592.308,527.186,471.373,432.84,398.389,359.058,257.38,257.38,164.43,164.43,164.43
0.00110263	-1870549.13	0,9.95051e-06,2.22583e-05,3.74818e-05,5.63118e-05,7.96027e-05,0.000108411,0.000144045,0.000188119,0.000242636,0.000310067,0.000393473,0.000496638,0.000624243,0.000782077,0.000977303,0.00121878,0.00151746,0.0018869,0.00234386,0.00290907,0.00360819,0.00447292,0.00554251,0.0068655,0.00850189,0.010526,0.0130295,0.0161262,0.0199565,0.0246941,0.0305541,inf	1.20074,1.20074,94.9661,244.054,247.522,219.396,212.802,213.391,213.171,202.628,192.993,195.564,205.28,218.182,239.751,280.374,349.191,446.345,555.034,633.391,642.779,594.838,527.071,469.321,429.871,394.288,352.973,244.718,244.718,152.502,152.502,152.502
0.00115292	-1870393.12	0,9.95051e-06,2.22583e-05,3.74818e-05,5.63118e-05,7.96027e-05,0.000108411,0.000144045,0.000188119,0.000242636,0.000310067,0.000393473,0.000496638,0.000624243,0.000782077,0.000977303,0.00121878,0.00151746,0.0018869,0.00234386,0.00290907,0.00360819,0.00447292,0.00554251,0.0068655,0.00850189,0.010526,0.0130295,0.0161262,0.0199565,0.0246941,0.0305541,inf	0.656194,0.656194,86.7884,243.141,245.162,216.326,211.73,214.774,216.269,205.638,195.738,198.408,207.579,219.02,238.971,278.565,347.172,444.904,555.024,635.216,645.244,596.061,526.253,467.133,427.179,390.886,348.119,234.458,234.458,144.072,144.072,144.072
0.00120197	-1870252.94	0,9.95051e-06,2.22583e-05,3.74818e-05,5.63118e-05,7.96027e-05,0.000108411,0.000144045,0.000188119,0.000242636,0.000310067,0.000393473,0.000496638,0.000624243,0.000782077,0.000977303,0.00121878,0.00151746,0.0018869,0.00234386,0.00290907,0.00360819,0.00447292,0.00554251,0.0068655,0.00850189,0.010526,0.0130295,0.0161262,0.0199565,0.0246941,0.0305541,inf	0.396802,0.396802,80.1279,242.805,242.434,212.721,209.993,215.451,218.74,208.289,198.455,201.441,210.188,220.26,238.697,277.321,345.642,443.667,554.696,636.14,646.58,596.395,525.019,464.971,424.835,388.181,344.415,226.238,226.238,138.481,138.481,138.481
0.00124986	-1870125.73	0,9.95051e-06,2.22583e-05,3.74818e-05,5.63118e-05,7.96027e-05,0.000108411,0.000144045,0.000188119,0.000242636,0.000310067,0.000393473,0.000496638,0.000624243,0.000782077,0.000977303,0.00121878,0.00151746,0.0018869,0.00234386,0.00290907,0.00360819,0.00447292,0.00554251,0.0068655,0.00850189,0.010526,0.0130295,0.0161262,0.0199565,0.0246941,0.0305541,inf	0.396802,0.396802,74.795,243.335,239.716,208.926,207.873,215.614,220.679,210.595,201.08,204.546,212.958,221.746,238.77,276.493,344.489,442.612,554.171,636.431,647.106,596.108,523.543,462.909,422.837,386.108,341.721,219.694,219.694,135.162,135.162,135.162
0.00129667	-1870009.38	0,9.95051e-06,2.22583e-05,3.74818e-05,5.63118e-05,7.96027e-05,0.000108411,0.000144045,0.000188119,0.000242636,0.000310067,0.000393473,0.000496638,0.000624243,0.000782077,0.000977303,0.00121878,0.00151746,0.0018869,0.00234386,0.00290907,0.00360819,0.00447292,0.00554251,0.0068655,0.00850189,0.010526,0.0130295,0.0161262,0.0199565,0.0246941,0.0305541,inf	0.396802,0.396802,70.5631,244.805,237.202,205.156,205.568,215.422,222.185,212.59,203.585,207.652,215.797,223.374,239.081,275.972,343.629,441.713,553.523,636.268,647.041,595.38,521.926,460.971,421.15,384.569,339.864,214.485,214.485,133.637,133.637,133.637
0.00134246	-1869902.31	0,9.95051e-06,2.22583e-05,3.74818e-05,5.63118e-05,7.96027e-05,0.000108411,0.000144045,0.000188119,0.000242636,0.000310067,0.000393473,0.000496638,0.000624243,0.000782077,0.000977303,0.00121878,0.00151746,0.0018869,0.00234386,0.00290907,0.00360819,0.00447292,0.00554251,0.0068655,0.00850189,0.010526,0.0130295,0.0161262,0.0199565,0.0246941,0.0305541,inf	0.396802,0.396802,67.2283,247.186,234.971,201.54,203.224,215,223.35,214.319,205.965,210.718,218.646,225.077,239.555,275.683,342.999,440.946,552.798,635.773,646.537,594.334,520.227,459.156,419.722,383.46,338.675,210.322,210.322,133.502,133.502,133.502
0.00138726	-1869803.30	0,9.95051e-06,2.22583e-05,3.74818e-05,5.63118e-05,7.96027e-05,0.000108411,0.000144045,0.000188119,0.000242636,0.000310067,0.000393473,0.000496638,0.000624243,0.000782077,0.000977303,0.00121878,0.00151746,0.0018869,0.00234386,0.00290907,0.00360819,0.00447292,0.00554251,0.0068655,0.00850189,0.010526,0.0130295,0.0161262,0.0199565,0.0246941,0.0305541,inf	0.396802,0.396802,64.6065,250.38,233.033,198.145,200.934,214.443,224.249,215.822,208.223,213.721,221.466,226.808,240.141,275.57,342.55,440.291,552.028,635.035,645.705,593.056,518.484,457.45,418.502,382.686,338,206.963,206.963,134.429,134.429,134.429
0.00143111	-1869711.43	0,9.95051e-06,2.22583e-05,3.74818e-05,5.63118e-05,7.96027e-05,0.000108411,0.000144045,0.000188119,0.000242636,0.000310067,0.000393473,0.000496638,0.000624243,0.000782077,0.000977303,0.00121878,0.00151746,0.0018869,0.00234386,0.00290907,0.00360819,0.00447292,0.00554251,0.0068655,0.00850189,0.010526,0.0130295,0.0161262,0.0199565,0.0246941,0.0305541,inf	0.396802,0.396802,62.5532,254.26,231.363,195.001,198.755,213.822,224.946,217.14,210.368,216.648,224.232,228.537,240.801,275.591,342.247,439.732,551.233,634.119,644.625,591.607,516.72,455.841,417.443,382.165,337.709,204.219,204.219,136.154,136.154,136.154
0.00147407	-1869625.94	0,9.95051e-06,2.22583e-05,3.74818e-05,5.63118e-05,7.96027e-05,0.000108411,0.000144045,0.000188119,0.000242636,0.000310067,0.000393473,0.000496638,0.000624243,0.000782077,0.000977303,0.00121878,0.00151746,0.0018869,0.00234386,0.00290907,0.00360819,0.00447292,0.00554251,0.0068655,0.00850189,0.010526,0.0130295,0.0161262,0.0199565,0.0246941,0.0305541,inf	0.396802,0.396802,60.9441,258.686,229.918,192.114,196.726,213.186,225.491,218.307,212.41,219.491,226.929,230.242,241.51,275.715,342.06,439.253,550.428,633.072,643.361,590.035,514.951,454.313,416.509,381.829,337.7,201.945,201.945,138.468,138.468,138.468
0.00151615	-1869546.22	0,9.95051e-06,2.22583e-05,3.74818e-05,5.63118e-05,7.96027e-05,0.000108411,0.000144045,0.000188119,0.000242636,0.000310067,0.000393473,0.000496638,0.000624243,0.000782077,0.000977303,0.00121878,0.00151746,0.0018869,0.00234386,0.00290907,0.00360819,0.00447292,0.00554251,0.0068655,0.00850189,0.010526,0.0130295,0.0161262,0.0199565,0.0246941,0.0305541,inf	0.396802,0.396802,59.6863,263.543,228.664,189.482,194.866,212.574,225.927,219.35,214.358,222.248,229.548,231.912,242.249,275.919,341.968,438.844,549.624,631.931,641.959,588.375,513.188,452.855,415.67,381.628,337.889,200.031,200.031,141.21,141.21,141.21
0.00155739	-1869471.75	0,9.95051e-06,2.22583e-05,3.74818e-05,5.63118e-05,7.96027e-05,0.000108411,0.000144045,0.000188119,0.000242636,0.000310067,0.000393473,0.000496638,0.000624243,0.000782077,0.000977303,0.00121878,0.00151746,0.0018869,0.00234386,0.00290907,0.00360819,0.00447292,0.00554251,0.0068655,0.00850189,0.010526,0.0130295,0.0161262,0.0199565,0.0246941,0.0305541,inf	0.396802,0.396802,58.7037,268.715,227.556,187.092,193.184,212.006,226.281,220.294,216.224,224.919,232.083,233.535,243.002,276.185,341.952,438.494,548.826,630.724,640.458,586.655,511.44,451.459,414.904,381.523,338.218,198.395,198.395,144.259,144.259,144.259
0.00159782	-1869402.09	0,9.95051e-06,2.22583e-05,3.74818e-05,5.63118e-05,7.96027e-05,0.000108411,0.000144045,0.000188119,0.000242636,0.000310067,0.000393473,0.000496638,0.000624243,0.000782077,0.000977303,0.00121878,0.00151746,0.0018869,0.00234386,0.00290907,0.00360819,0.00447292,0.00554251,0.0068655,0.00850189,0.010526,0.0130295,0.0161262,0.0199565,0.0246941,0.0305541,inf	0.396802,0.396802,57.9376,274.104,226.562,184.931,191.682,211.502,226.58,221.16,218.016,227.506,234.531,235.107,243.762,276.5,342,438.196,548.041,629.471,638.885,584.897,509.712,450.117,414.193,381.483,338.64,196.975,196.975,147.521,147.521,147.521
0.00163747	-1869336.83	0,9.95051e-06,2.22583e-05,3.74818e-05,5.63118e-05,7.96027e-05,0.000108411,0.000144045,0.000188119,0.000242636,0.000310067,0.000393473,0.000496638,0.000624243,0.000782077,0.000977303,0.00121878,0.00151746,0.0018869,0.00234386,0.00290907,0.00360819,0.00447292,0.00554251,0.0068655,0.00850189,0.010526,0.0130295,0.0161262,0.0199565,0.0246941,0.0305541,inf	0.396802,0.396802,57.3443,279.628,225.653,182.987,190.357,211.07,226.844,221.962,219.741,230.008,236.89,236.624,244.519,276.852,342.099,437.943,547.272,628.191,637.264,583.117,508.01,448.823,413.527,381.49,339.122,195.726,195.726,150.925,150.925,150.925
