time_index	left_time_boundary	right_time_boundary	lambda
0	0	2.22583e-05	106.066
1	2.22583e-05	5.63118e-05	106.066
2	5.63118e-05	0.000108411	239.191
3	0.000108411	0.000188119	202.306
4	0.000188119	0.000310067	223.721
5	0.000310067	0.000496638	235.847
6	0.000496638	0.000782077	251.247
7	0.000782077	0.00121878	263.025
8	0.00121878	0.0018869	364.92
9	0.0018869	0.00290907	599.628
10	0.00290907	0.00447292	643.975
11	0.00447292	0.0068655	425.581
12	0.0068655	0.010526	366.289
13	0.010526	0.0161262	276.229
14	0.0161262	0.0246941	276.229
15	0.0246941	inf	276.229
