LogLikelihood = -275976.5167239800212

y0 0.87113293543595926582
y0_prime 0
y1 0.79637283615492115985
y1_prime 0
y2 0.834654926864005553
y2_prime 0
y3 1.6295838716985089345
y3_prime 0
rho 0.002396087951725516408
rho.alpha 2.8826443221803952355
r_ii 0.99997468998254790407
theta 0.0045251429945186265325
