0.000322089	-7810382.66	0,2.0996e-06,5.7427e-06,1.2064e-05,2.30324e-05,4.20641e-05,7.50869e-05,0.000132386,0.000231809,0.000404321,0.000703654,0.00122304,0.00212425,0.00368798,0.00640128,0.0111092,inf	54.9076,54.9076,276.769,333.767,517.614,551.828,557.543,629.47,655.358,665.526,720.953,834.83,845.828,832.577,832.577,832.577
0.000322819	-7809669.05	0,2.0996e-06,5.7427e-06,1.2064e-05,2.30324e-05,4.20641e-05,7.50869e-05,0.000132386,0.000231809,0.000404321,0.000703654,0.00122304,0.00212425,0.00368798,0.00640128,0.0111092,inf	5.45046,5.45046,204.249,208.8,472.056,508.921,489.409,600.995,630.361,625.292,690.582,867.398,890.524,871.44,871.44,871.44
0.000322623	-7809526.79	0,2.0996e-06,5.7427e-06,1.2064e-05,2.30324e-05,4.20641e-05,7.50869e-05,0.000132386,0.000231809,0.000404321,0.000703654,0.00122304,0.00212425,0.00368798,0.00640128,0.0111092,inf	0.778084,0.778084,192.875,148.539,471.236,506.383,457.35,600.979,631.734,608.074,670.421,885.493,919.728,898.68,898.68,898.68
0.000321762	-7809494.20	0,2.0996e-06,5.7427e-06,1.2064e-05,2.30324e-05,4.20641e-05,7.50869e-05,0.000132386,0.000231809,0.000404321,0.000703654,0.00122304,0.00212425,0.00368798,0.00640128,0.0111092,inf	0.778084,0.778084,193.359,110.293,479.571,512.989,435.416,606.295,640.127,600.111,655.966,895.501,938.978,917.804,917.804,917.804
0.000320525	-7809488.74	0,2.0996e-06,5.7427e-06,1.2064e-05,2.30324e-05,4.20641e-05,7.50869e-05,0.000132386,0.000231809,0.000404321,0.000703654,0.00122304,0.00212425,0.00368798,0.00640128,0.0111092,inf	0.778084,0.778084,196.048,83.2985,488.592,521.482,417.506,610.986,649.478,596.457,645.293,901.205,951.935,931.386,931.386,931.386
0.000319099	-7809489.88	0,2.0996e-06,5.7427e-06,1.2064e-05,2.30324e-05,4.20641e-05,7.50869e-05,0.000132386,0.000231809,0.000404321,0.000703654,0.00122304,0.00212425,0.00368798,0.00640128,0.0111092,inf	0.77808,0.77808,198.794,63.4235,496.211,530.178,402.15,613.876,657.821,594.972,637.278,904.628,960.86,941.168,941.168,941.168
0.000317594	-7809491.87	0,2.0996e-06,5.7427e-06,1.2064e-05,2.30324e-05,4.20641e-05,7.50869e-05,0.000132386,0.000231809,0.000404321,0.000703654,0.00122304,0.00212425,0.00368798,0.00640128,0.0111092,inf	0.77808,0.77808,201.201,48.5086,502.047,538.721,388.956,615.18,664.661,594.618,631.175,906.837,967.154,948.32,948.32,948.32
0.000316076	-7809493.19	0,2.0996e-06,5.7427e-06,1.2064e-05,2.30324e-05,4.20641e-05,7.50869e-05,0.000132386,0.000231809,0.000404321,0.000703654,0.00122304,0.00212425,0.00368798,0.00640128,0.0111092,inf	0.77808,0.77808,203.262,37.2043,506.204,547.027,377.723,615.391,670.034,594.852,626.461,908.392,971.698,953.63,953.63,953.63
0.000314582	-7809493.58	0,2.0996e-06,5.7427e-06,1.2064e-05,2.30324e-05,4.20641e-05,7.50869e-05,0.000132386,0.000231809,0.000404321,0.000703654,0.00122304,0.00212425,0.00368798,0.00640128,0.0111092,inf	0.77808,0.77808,204.987,28.5877,508.898,555.019,368.238,614.959,674.143,595.38,622.763,909.585,975.054,957.635,957.635,957.635
0.000313134	-7809493.18	0,2.0996e-06,5.7427e-06,1.2064e-05,2.30324e-05,4.20641e-05,7.50869e-05,0.000132386,0.000231809,0.000404321,0.000703654,0.00122304,0.00212425,0.00368798,0.00640128,0.0111092,inf	0.77808,0.77808,206.538,21.9954,510.391,562.631,360.267,614.206,677.223,596.038,619.816,910.571,977.593,960.705,960.705,960.705
0.000311744	-7809492.22	0,2.0996e-06,5.7427e-06,1.2064e-05,2.30324e-05,4.20641e-05,7.50869e-05,0.000132386,0.000231809,0.000404321,0.000703654,0.00122304,0.00212425,0.00368798,0.00640128,0.0111092,inf	0.77808,0.77808,207.923,16.939,510.913,569.765,353.584,613.337,679.488,596.738,617.428,911.428,979.557,963.097,963.097,963.097
0.000310416	-7809490.88	0,2.0996e-06,5.7427e-06,1.2064e-05,2.30324e-05,4.20641e-05,7.50869e-05,0.000132386,0.000231809,0.000404321,0.000703654,0.00122304,0.00212425,0.00368798,0.00640128,0.0111092,inf	0.77808,0.77808,209.105,13.0574,510.698,576.359,347.978,612.477,681.121,597.43,615.461,912.202,981.114,964.994,964.994,964.994
0.000309155	-7809489.34	0,2.0996e-06,5.7427e-06,1.2064e-05,2.30324e-05,4.20641e-05,7.50869e-05,0.000132386,0.000231809,0.000404321,0.000703654,0.00122304,0.00212425,0.00368798,0.00640128,0.0111092,inf	0.77808,0.77808,210.198,10.0747,509.97,582.419,343.266,611.692,682.267,598.092,613.816,912.912,982.376,966.525,966.525,966.525
0.000307959	-7809487.70	0,2.0996e-06,5.7427e-06,1.2064e-05,2.30324e-05,4.20641e-05,7.50869e-05,0.000132386,0.000231809,0.000404321,0.000703654,0.00122304,0.00212425,0.00368798,0.00640128,0.0111092,inf	0.77808,0.77808,211.197,7.78208,508.885,587.912,339.292,611.016,683.039,598.714,612.42,913.57,983.424,967.782,967.782,967.782
0.000306829	-7809486.04	0,2.0996e-06,5.7427e-06,1.2064e-05,2.30324e-05,4.20641e-05,7.50869e-05,0.000132386,0.000231809,0.000404321,0.000703654,0.00122304,0.00212425,0.00368798,0.00640128,0.0111092,inf	0.77808,0.77808,212.092,6.01526,507.588,592.854,335.929,610.455,683.528,599.291,611.221,914.182,984.312,968.831,968.831,968.831
0.000305761	-7809484.42	0,2.0996e-06,5.7427e-06,1.2064e-05,2.30324e-05,4.20641e-05,7.50869e-05,0.000132386,0.000231809,0.000404321,0.000703654,0.00122304,0.00212425,0.00368798,0.00640128,0.0111092,inf	0.77808,0.77808,212.926,4.65309,506.181,597.291,333.069,610.005,683.801,599.824,610.178,914.753,985.08,969.723,969.723,969.723
0.000304755	-7809482.87	0,2.0996e-06,5.7427e-06,1.2064e-05,2.30324e-05,4.20641e-05,7.50869e-05,0.000132386,0.000231809,0.000404321,0.000703654,0.00122304,0.00212425,0.00368798,0.00640128,0.0111092,inf	0.77808,0.77808,213.743,3.60146,504.741,601.255,330.628,609.653,683.912,600.316,609.262,915.285,985.756,970.491,970.491,970.491
0.000303807	-7809481.42	0,2.0996e-06,5.7427e-06,1.2064e-05,2.30324e-05,4.20641e-05,7.50869e-05,0.000132386,0.000231809,0.000404321,0.000703654,0.00122304,0.00212425,0.00368798,0.00640128,0.0111092,inf	0.77808,0.77808,214.439,2.79012,503.313,604.786,328.533,609.387,683.901,600.771,608.449,915.779,986.361,971.163,971.163,971.163
0.000302915	-7809480.06	0,2.0996e-06,5.7427e-06,1.2064e-05,2.30324e-05,4.20641e-05,7.50869e-05,0.000132386,0.000231809,0.000404321,0.000703654,0.00122304,0.00212425,0.00368798,0.00640128,0.0111092,inf	0.77808,0.77808,215.138,2.16333,501.946,607.927,326.727,609.196,683.799,601.193,607.725,916.239,986.909,971.757,971.757,971.757
0.000302075	-7809478.81	0,2.0996e-06,5.7427e-06,1.2064e-05,2.30324e-05,4.20641e-05,7.50869e-05,0.000132386,0.000231809,0.000404321,0.000703654,0.00122304,0.00212425,0.00368798,0.00640128,0.0111092,inf	0.77808,0.77808,215.725,1.67815,500.655,610.709,325.167,609.064,683.632,601.584,607.072,916.665,987.412,972.289,972.289,972.289
