0.000675749	-12821258.32	0,3.72351e-06,1.01843e-05,2.13948e-05,4.08465e-05,7.45981e-05,0.000133162,0.000234779,0.000411098,0.000717038,0.00124789,0.00216899,0.00376723,0.00654041,0.0113523,0.0197016,inf	7331.85,7331.85,2816.5,1088.3,482.565,264.192,206.53,206.346,236.704,307.156,455.884,563.018,497.239,454.636,454.636,454.636
0.000783354	-12803816.99	0,3.72351e-06,1.01843e-05,2.13948e-05,4.08465e-05,7.45981e-05,0.000133162,0.000234779,0.000411098,0.000717038,0.00124789,0.00216899,0.00376723,0.00654041,0.0113523,0.0197016,inf	12394.8,12394.8,4032.59,1274.53,459.704,207.776,149.069,146.874,179.061,263.084,459.036,633.326,529.634,456.923,456.923,456.923
0.000884869	-12796157.07	0,3.72351e-06,1.01843e-05,2.13948e-05,4.08465e-05,7.45981e-05,0.000133162,0.000234779,0.000411098,0.000717038,0.00124789,0.00216899,0.00376723,0.00654041,0.0113523,0.0197016,inf	13268,13268,4299.73,1317.38,447.297,187.736,130.235,125.607,156.242,243.617,457.779,671.642,545.667,452.145,452.145,452.145
0.000981052	-12791343.84	0,3.72351e-06,1.01843e-05,2.13948e-05,4.08465e-05,7.45981e-05,0.000133162,0.000234779,0.000411098,0.000717038,0.00124789,0.00216899,0.00376723,0.00654041,0.0113523,0.0197016,inf	12874.7,12874.7,4249.42,1317.8,441.969,180.809,124.485,117.711,146.682,234.646,455.751,692.21,552.601,444.516,444.516,444.516
0.00107318	-12787699.03	0,3.72351e-06,1.01843e-05,2.13948e-05,4.08465e-05,7.45981e-05,0.000133162,0.000234779,0.000411098,0.000717038,0.00124789,0.00216899,0.00376723,0.00654041,0.0113523,0.0197016,inf	12300.6,12300.6,4087.55,1293.15,436.121,178.308,123.903,115.564,143.289,230.947,453.914,702.764,554.601,436.128,436.128,436.128
0.00116222	-12784669.07	0,3.72351e-06,1.01843e-05,2.13948e-05,4.08465e-05,7.45981e-05,0.000133162,0.000234779,0.000411098,0.000717038,0.00124789,0.00216899,0.00376723,0.00654041,0.0113523,0.0197016,inf	11815.4,11815.4,3887.75,1251.78,427.027,176.887,125.44,116.188,143.123,230.143,452.446,707.505,553.958,427.923,427.923,427.923
0.00124884	-12782028.36	0,3.72351e-06,1.01843e-05,2.13948e-05,4.08465e-05,7.45981e-05,0.000133162,0.000234779,0.000411098,0.000717038,0.00124789,0.00216899,0.00376723,0.00654041,0.0113523,0.0197016,inf	11458.4,11458.4,3682.62,1201.24,414.714,175.319,127.776,118.232,144.771,231.013,451.312,708.785,551.926,420.28,420.28,420.28
0.00133349	-12779667.87	0,3.72351e-06,1.01843e-05,2.13948e-05,4.08465e-05,7.45981e-05,0.000133162,0.000234779,0.000411098,0.000717038,0.00124789,0.00216899,0.00376723,0.00654041,0.0113523,0.0197016,inf	11209.3,11209.3,3486.88,1147.48,400.15,173.252,130.311,121.019,147.485,232.876,450.432,707.966,549.195,413.317,413.317,413.317
0.00141645	-12777526.67	0,3.72351e-06,1.01843e-05,2.13948e-05,4.08465e-05,7.45981e-05,0.000133162,0.000234779,0.000411098,0.000717038,0.00124789,0.00216899,0.00376723,0.00654041,0.0113523,0.0197016,inf	11037.9,11037.9,3306.44,1094.41,384.397,170.688,132.774,124.187,150.836,235.331,449.733,705.865,546.147,407.03,407.03,407.03
0.00149792	-12775566.35	0,3.72351e-06,1.01843e-05,2.13948e-05,4.08465e-05,7.45981e-05,0.000133162,0.000234779,0.000411098,0.000717038,0.00124789,0.00216899,0.00376723,0.00654041,0.0113523,0.0197016,inf	10918.7,10918.7,3142.83,1044.35,368.319,167.75,135.054,127.532,154.566,238.128,449.157,702.981,542.994,401.367,401.367,401.367
0.00157804	-12773760.27	0,3.72351e-06,1.01843e-05,2.13948e-05,4.08465e-05,7.45981e-05,0.000133162,0.000234779,0.000411098,0.000717038,0.00124789,0.00216899,0.00376723,0.00654041,0.0113523,0.0197016,inf	10831.7,10831.7,2995.52,998.376,352.52,164.586,137.124,130.94,158.514,241.111,448.66,699.632,539.853,396.262,396.262,396.262
0.0016569	-12772088.55	0,3.72351e-06,1.01843e-05,2.13948e-05,4.08465e-05,7.45981e-05,0.000133162,0.000234779,0.000411098,0.000717038,0.00124789,0.00216899,0.00376723,0.00654041,0.0113523,0.0197016,inf	10764.3,10764.3,2863.1,956.884,337.375,161.331,138.991,134.345,162.575,244.178,448.213,696.019,536.786,391.644,391.644,391.644
0.00173456	-12770535.58	0,3.72351e-06,1.01843e-05,2.13948e-05,4.08465e-05,7.45981e-05,0.000133162,0.000234779,0.000411098,0.000717038,0.00124789,0.00216899,0.00376723,0.00654041,0.0113523,0.0197016,inf	10706.9,10706.9,2743.84,919.809,323.111,158.099,140.69,137.723,166.697,247.285,447.885,692.237,533.808,387.441,387.441,387.441
0.00181108	-12769088.60	0,3.72351e-06,1.01843e-05,2.13948e-05,4.08465e-05,7.45981e-05,0.000133162,0.000234779,0.000411098,0.000717038,0.00124789,0.00216899,0.00376723,0.00654041,0.0113523,0.0197016,inf	10655.7,10655.7,2636.05,886.817,309.782,154.946,142.226,141.026,170.801,250.349,447.55,688.409,530.951,383.608,383.608,383.608
0.0018865	-12767736.96	0,3.72351e-06,1.01843e-05,2.13948e-05,4.08465e-05,7.45981e-05,0.000133162,0.000234779,0.000411098,0.000717038,0.00124789,0.00216899,0.00376723,0.00654041,0.0113523,0.0197016,inf	10607.4,10607.4,2538.29,857.558,297.436,151.938,143.64,144.254,174.863,253.35,447.21,684.595,528.22,380.096,380.096,380.096
0.00196084	-12766471.60	0,3.72351e-06,1.01843e-05,2.13948e-05,4.08465e-05,7.45981e-05,0.000133162,0.000234779,0.000411098,0.000717038,0.00124789,0.00216899,0.00376723,0.00654041,0.0113523,0.0197016,inf	10560.3,10560.3,2449.13,831.629,286.057,149.115,144.963,147.406,178.865,256.273,446.863,680.836,525.612,376.864,376.864,376.864
0.00203415	-12765284.65	0,3.72351e-06,1.01843e-05,2.13948e-05,4.08465e-05,7.45981e-05,0.000133162,0.000234779,0.000411098,0.000717038,0.00124789,0.00216899,0.00376723,0.00654041,0.0113523,0.0197016,inf	10513.4,10513.4,2367.34,808.611,275.596,146.501,146.22,150.482,182.795,259.108,446.508,677.156,523.122,373.875,373.875,373.875
0.00210643	-12764169.26	0,3.72351e-06,1.01843e-05,2.13948e-05,4.08465e-05,7.45981e-05,0.000133162,0.000234779,0.000411098,0.000717038,0.00124789,0.00216899,0.00376723,0.00654041,0.0113523,0.0197016,inf	10466.4,10466.4,2291.9,788.119,265.989,144.105,147.432,153.485,186.644,261.848,446.144,673.57,520.745,371.101,371.101,371.101
0.00217772	-12763119.37	0,3.72351e-06,1.01843e-05,2.13948e-05,4.08465e-05,7.45981e-05,0.000133162,0.000234779,0.000411098,0.000717038,0.00124789,0.00216899,0.00376723,0.00654041,0.0113523,0.0197016,inf	10419.2,10419.2,2221.91,769.817,257.17,141.928,148.615,156.417,190.405,264.491,445.772,670.088,518.472,368.515,368.515,368.515
0.00224803	-12762129.61	0,3.72351e-06,1.01843e-05,2.13948e-05,4.08465e-05,7.45981e-05,0.000133162,0.000234779,0.000411098,0.000717038,0.00124789,0.00216899,0.00376723,0.00654041,0.0113523,0.0197016,inf	10372.2,10372.2,2156.66,753.405,249.072,139.969,149.781,159.281,194.075,267.035,445.393,666.715,516.298,366.096,366.096,366.096
