time_index	left_time_boundary	right_time_boundary	lambda
0	0	3.84792e-05	1667.96
1	3.84792e-05	8.34903e-05	1667.96
2	8.34903e-05	0.000136142	242.348
3	0.000136142	0.000197731	336.993
4	0.000197731	0.000269775	320.373
5	0.000269775	0.000354049	353.588
6	0.000354049	0.000452628	343.722
7	0.000452628	0.000567941	324.543
8	0.000567941	0.000702828	311.016
9	0.000702828	0.000860612	308.333
10	0.000860612	0.00104518	326.001
11	0.00104518	0.00126108	356.869
12	0.00126108	0.00151363	390.483
13	0.00151363	0.00180904	419.943
14	0.00180904	0.00215461	444.565
15	0.00215461	0.00255883	463.624
16	0.00255883	0.00303167	470.267
17	0.00303167	0.00358478	462.416
18	0.00358478	0.00423177	446.385
19	0.00423177	0.00498859	436.536
20	0.00498859	0.00587389	441.818
21	0.00587389	0.00690946	444.055
22	0.00690946	0.00812082	426.763
23	0.00812082	0.00953781	414.289
24	0.00953781	0.0111953	420.851
25	0.0111953	0.0131342	399.22
26	0.0131342	0.0154022	335.073
27	0.0154022	0.0180552	372.236
28	0.0180552	0.0211586	372.236
29	0.0211586	0.0247887	91450.8
30	0.0247887	0.0290351	91450.8
31	0.0290351	inf	91450.8
