LogLikelihood = -314499.55312989238882

y0 2.4794020958868979504e-10
y0_prime 0
y1 1.3403766190302413008
y1_prime 0
y2 2.1307051027182049019
y2_prime 0
y3 1.9240170635987938752
y3_prime 0
rho 1.0083702892777232562e-12
rho.alpha 1.0110013387520182526
r_ii 0.99998999954039546889
theta 0.00077725207974990002079
