LogLikelihood = -78220.963112944562454

y0 8.2584884784602152187e-11
y0_prime 0
y1 9.9999999999999997989e-13
y1_prime 0
y2 3.9662344315227651137
y2_prime 0
y3 1.8917661041865181382
y3_prime 0
rho 6.3185793010174291504e-10
rho.alpha 0.51782696029915542546
r_ii 0.99998868588886780095
theta 0.00098787712636875797505
