LogLikelihood = -307837.77368687727721

y0 1.5493753161962979803
y0_prime 0
y1 0.80282640603367938503
y1_prime 0
y2 1.3899158226754899648
y2_prime 0
y3 0.32105829690709569713
y3_prime 0
rho 8.5611555568235693839e-05
theta 0.0053738315651372051823
