0.000688836	-45251325.53	0,1.02732e-05,2.69162e-05,5.38784e-05,9.75579e-05,0.00016832,0.000282957,0.000468673,0.000769538,0.00125695,0.00204657,0.00332578,0.00539815,0.00875544,0.0141944,0.0230056,inf	459.039,459.039,475.073,443.37,412.212,395.946,388.419,391.432,398.76,404.046,407.04,403.032,394.403,394.546,394.546,394.546
0.000749302	-45241497.25	0,1.02732e-05,2.69162e-05,5.38784e-05,9.75579e-05,0.00016832,0.000282957,0.000468673,0.000769538,0.00125695,0.00204657,0.00332578,0.00539815,0.00875544,0.0141944,0.0230056,inf	460.973,460.973,509.793,464.267,417.196,393.869,382.547,387.815,398.838,405.607,409.597,402.738,388.012,389.037,389.037,389.037
0.000803593	-45234383.17	0,1.02732e-05,2.69162e-05,5.38784e-05,9.75579e-05,0.00016832,0.000282957,0.000468673,0.000769538,0.00125695,0.00204657,0.00332578,0.00539815,0.00875544,0.0141944,0.0230056,inf	445.709,445.709,525.067,474.031,419.046,393.19,379.894,387.031,400.003,406.624,410.861,402.008,382.781,385.03,385.03,385.03
0.00085252	-45229083.33	0,1.02732e-05,2.69162e-05,5.38784e-05,9.75579e-05,0.00016832,0.000282957,0.000468673,0.000769538,0.00125695,0.00204657,0.00332578,0.00539815,0.00875544,0.0141944,0.0230056,inf	428.86,428.86,531.469,478.073,419.264,393.13,378.768,387.51,401.475,407.198,411.379,401.118,378.432,382.048,382.048,382.048
0.000896768	-45225052.19	0,1.02732e-05,2.69162e-05,5.38784e-05,9.75579e-05,0.00016832,0.000282957,0.000468673,0.000769538,0.00125695,0.00204657,0.00332578,0.00539815,0.00875544,0.0141944,0.0230056,inf	415.011,415.011,534.031,479.218,418.691,393.4,378.434,388.579,402.98,407.463,411.471,400.202,374.76,379.785,379.785,379.785
0.000936911	-45221935.75	0,1.02732e-05,2.69162e-05,5.38784e-05,9.75579e-05,0.00016832,0.000282957,0.000468673,0.000769538,0.00125695,0.00204657,0.00332578,0.00539815,0.00875544,0.0141944,0.0230056,inf	404.729,404.729,534.999,478.901,417.768,393.865,378.525,389.919,404.417,407.521,411.322,399.32,371.614,378.041,378.041,378.041
0.000973429	-45219494.42	0,1.02732e-05,2.69162e-05,5.38784e-05,9.75579e-05,0.00016832,0.000282957,0.000468673,0.000769538,0.00125695,0.00204657,0.00332578,0.00539815,0.00875544,0.0141944,0.0230056,inf	397.446,397.446,535.356,477.865,416.722,394.448,378.845,391.363,405.749,407.443,411.039,398.499,368.884,376.678,376.678,376.678
0.00100673	-45217560.89	0,1.02732e-05,2.69162e-05,5.38784e-05,9.75579e-05,0.00016832,0.000282957,0.000468673,0.000769538,0.00125695,0.00204657,0.00332578,0.00539815,0.00875544,0.0141944,0.0230056,inf	392.431,392.431,535.518,476.5,415.674,395.106,379.283,392.825,406.968,407.274,410.684,397.747,366.487,375.601,375.601,375.601
0.00103716	-45216015.36	0,1.02732e-05,2.69162e-05,5.38784e-05,9.75579e-05,0.00016832,0.000282957,0.000468673,0.000769538,0.00125695,0.00204657,0.00332578,0.00539815,0.00875544,0.0141944,0.0230056,inf	389.023,389.023,535.652,475.015,414.682,395.809,379.772,394.256,408.076,407.046,410.297,397.065,364.359,374.743,374.743,374.743
0.00106502	-45214770.27	0,1.02732e-05,2.69162e-05,5.38784e-05,9.75579e-05,0.00016832,0.000282957,0.000468673,0.000769538,0.00125695,0.00204657,0.00332578,0.00539815,0.00875544,0.0141944,0.0230056,inf	386.744,386.744,535.829,473.522,413.773,396.537,380.274,395.632,409.08,406.779,409.899,396.451,362.453,374.056,374.056,374.056
0.00109057	-45213760.48	0,1.02732e-05,2.69162e-05,5.38784e-05,9.75579e-05,0.00016832,0.000282957,0.000468673,0.000769538,0.00125695,0.00204657,0.00332578,0.00539815,0.00875544,0.0141944,0.0230056,inf	385.238,385.238,536.063,472.079,412.96,397.278,380.766,396.941,409.991,406.489,409.506,395.9,360.733,373.502,373.502,373.502
0.00111404	-45212936.79	0,1.02732e-05,2.69162e-05,5.38784e-05,9.75579e-05,0.00016832,0.000282957,0.000468673,0.000769538,0.00125695,0.00204657,0.00332578,0.00539815,0.00875544,0.0141944,0.0230056,inf	384.252,384.252,536.354,470.714,412.241,398.021,381.233,398.178,410.818,406.186,409.125,395.407,359.17,373.057,373.057,373.057
0.00113563	-45212261.59	0,1.02732e-05,2.69162e-05,5.38784e-05,9.75579e-05,0.00016832,0.000282957,0.000468673,0.000769538,0.00125695,0.00204657,0.00332578,0.00539815,0.00875544,0.0141944,0.0230056,inf	383.623,383.623,536.689,469.439,411.611,398.76,381.669,399.343,411.569,405.875,408.761,394.968,357.739,372.698,372.698,372.698
0.0011555	-45211705.72	0,1.02732e-05,2.69162e-05,5.38784e-05,9.75579e-05,0.00016832,0.000282957,0.000468673,0.000769538,0.00125695,0.00204657,0.00332578,0.00539815,0.00875544,0.0141944,0.0230056,inf	383.243,383.243,537.065,468.255,411.066,399.489,382.068,400.438,412.252,405.563,408.418,394.577,356.425,372.411,372.411,372.411
0.00117383	-45211246.43	0,1.02732e-05,2.69162e-05,5.38784e-05,9.75579e-05,0.00016832,0.000282957,0.000468673,0.000769538,0.00125695,0.00204657,0.00332578,0.00539815,0.00875544,0.0141944,0.0230056,inf	383.007,383.007,537.466,467.157,410.594,400.205,382.429,401.464,412.876,405.253,408.096,394.231,355.21,372.182,372.182,372.182
0.00119074	-45210865.72	0,1.02732e-05,2.69162e-05,5.38784e-05,9.75579e-05,0.00016832,0.000282957,0.000468673,0.000769538,0.00125695,0.00204657,0.00332578,0.00539815,0.00875544,0.0141944,0.0230056,inf	382.873,382.873,537.888,466.143,410.189,400.904,382.751,402.426,413.447,404.947,407.795,393.925,354.083,372.004,372.004,372.004
0.00120636	-45210549.29	0,1.02732e-05,2.69162e-05,5.38784e-05,9.75579e-05,0.00016832,0.000282957,0.000468673,0.000769538,0.00125695,0.00204657,0.00332578,0.00539815,0.00875544,0.0141944,0.0230056,inf	382.817,382.817,538.321,465.203,409.842,401.586,383.036,403.328,413.97,404.645,407.515,393.656,353.034,371.867,371.867,371.867
0.0012208	-45210285.71	0,1.02732e-05,2.69162e-05,5.38784e-05,9.75579e-05,0.00016832,0.000282957,0.000468673,0.000769538,0.00125695,0.00204657,0.00332578,0.00539815,0.00875544,0.0141944,0.0230056,inf	382.815,382.815,538.769,464.333,409.546,402.249,383.284,404.175,414.451,404.351,407.255,393.42,352.054,371.766,371.766,371.766
0.00123415	-45210065.73	0,1.02732e-05,2.69162e-05,5.38784e-05,9.75579e-05,0.00016832,0.000282957,0.000468673,0.000769538,0.00125695,0.00204657,0.00332578,0.00539815,0.00875544,0.0141944,0.0230056,inf	382.828,382.828,539.217,463.524,409.293,402.893,383.496,404.969,414.894,404.063,407.015,393.215,351.136,371.695,371.695,371.695
0.00124652	-45209881.87	0,1.02732e-05,2.69162e-05,5.38784e-05,9.75579e-05,0.00016832,0.000282957,0.000468673,0.000769538,0.00125695,0.00204657,0.00332578,0.00539815,0.00875544,0.0141944,0.0230056,inf	382.866,382.866,539.664,462.772,409.078,403.517,383.676,405.716,415.302,403.783,406.792,393.038,350.273,371.65,371.65,371.65
