0.000589552	-285886.60	0,3.78441e-05,8.21122e-05,0.000133895,0.000194467,0.000265322,0.000348205,0.000445157,0.000558566,0.000691227,0.000846407,0.00102793,0.00124026,0.00148864,0.00177918,0.00211904,0.00251659,0.00298163,0.00352561,0.00416192,0.00490625,0.00577693,0.00679541,0.00798677,0.00938037,0.0110105,0.0129174,0.015148,0.0177572,0.0208093,0.0243796,0.0285558,inf	19.0808,19.0808,40.3389,60.8232,84.1304,110.984,142.51,180.243,226.232,283.211,354.034,438.804,529.61,606.055,645.38,645.337,621.591,589.435,557.987,530.971,508.867,490.725,475.264,462.009,451.79,446.231,447.71,464.392,464.392,512.514,512.514,512.514
0.000636347	-285317.04	0,3.78441e-05,8.21122e-05,0.000133895,0.000194467,0.000265322,0.000348205,0.000445157,0.000558566,0.000691227,0.000846407,0.00102793,0.00124026,0.00148864,0.00177918,0.00211904,0.00251659,0.00298163,0.00352561,0.00416192,0.00490625,0.00577693,0.00679541,0.00798677,0.00938037,0.0110105,0.0129174,0.015148,0.0177572,0.0208093,0.0243796,0.0285558,inf	1.10231,1.10231,4.9872,11.3801,21.6944,37.3128,60.1955,93.0332,139.459,204.45,294.103,412.408,553.228,688.143,771.741,785.393,750.311,694.75,637.788,588.059,547.112,513.113,483.716,458.592,440.012,431.494,437.906,477.139,477.139,591.547,591.547,591.547
0.000683411	-285104.26	0,3.78441e-05,8.21122e-05,0.000133895,0.000194467,0.000265322,0.000348205,0.000445157,0.000558566,0.000691227,0.000846407,0.00102793,0.00124026,0.00148864,0.00177918,0.00211904,0.00251659,0.00298163,0.00352561,0.00416192,0.00490625,0.00577693,0.00679541,0.00798677,0.00938037,0.0110105,0.0129174,0.015148,0.0177572,0.0208093,0.0243796,0.0285558,inf	0.448551,0.448551,0.724168,2.49522,6.51827,14.4968,29.049,53.9968,94.6244,158.063,253.145,387.118,556.639,731.139,850.361,879.372,839.664,768.034,691.655,623.908,567.642,520.347,479.024,444.027,419.308,410.164,423.8,488.746,488.746,690.963,690.963,690.963
0.000728737	-284998.32	0,3.78441e-05,8.21122e-05,0.000133895,0.000194467,0.000265322,0.000348205,0.000445157,0.000558566,0.000691227,0.000846407,0.00102793,0.00124026,0.00148864,0.00177918,0.00211904,0.00251659,0.00298163,0.00352561,0.00416192,0.00490625,0.00577693,0.00679541,0.00798677,0.00938037,0.0110105,0.0129174,0.015148,0.0177572,0.0208093,0.0243796,0.0285558,inf	0.448551,0.448551,0.448551,0.616652,2.19642,6.26666,15.4421,34.0907,68.7692,128.544,224.663,366.97,554.363,755.772,901.165,942.699,900.831,817.762,726.575,644.645,576.055,517.801,466.615,423.83,395.005,386.896,408.867,500.948,500.948,823.75,823.75,823.75
0.00077223	-284934.30	0,3.78441e-05,8.21122e-05,0.000133895,0.000194467,0.000265322,0.000348205,0.000445157,0.000558566,0.000691227,0.000846407,0.00102793,0.00124026,0.00148864,0.00177918,0.00211904,0.00251659,0.00298163,0.00352561,0.00416192,0.00490625,0.00577693,0.00679541,0.00798677,0.00938037,0.0110105,0.0129174,0.015148,0.0177572,0.0208093,0.0243796,0.0285558,inf	0.448551,0.448551,0.448551,0.448551,0.811689,2.95255,8.86693,22.9941,52.7152,108.729,204.424,351.772,551.272,771.604,935.749,986.229,942.744,851.039,748.355,655.22,576.756,509.602,450.489,401.823,370.512,364.427,395.001,514.83,514.83,1020.45,1020.45,1020.45
0.000814151	-284889.80	0,3.78441e-05,8.21122e-05,0.000133895,0.000194467,0.000265322,0.000348205,0.000445157,0.000558566,0.000691227,0.000846407,0.00102793,0.00124026,0.00148864,0.00177918,0.00211904,0.00251659,0.00298163,0.00352561,0.00416192,0.00490625,0.00577693,0.00679541,0.00798677,0.00938037,0.0110105,0.0129174,0.015148,0.0177572,0.0208093,0.0243796,0.0285558,inf	0.448551,0.448551,0.448551,0.448551,0.448551,1.49448,5.4255,16.3655,42.1695,94.8741,189.763,340.583,548.922,783.06,960.533,1016.82,971.561,872.99,761.234,659.222,572.889,498.604,433.263,380.298,347.664,344.067,383.027,531.049,531.049,1376,1376,1376
0.000854789	-284855.68	0,3.78441e-05,8.21122e-05,0.000133895,0.000194467,0.000265322,0.000348205,0.000445157,0.000558566,0.000691227,0.000846407,0.00102793,0.00124026,0.00148864,0.00177918,0.00211904,0.00251659,0.00298163,0.00352561,0.00416192,0.00490625,0.00577693,0.00679541,0.00798677,0.00938037,0.0110105,0.0129174,0.015148,0.0177572,0.0208093,0.0243796,0.0285558,inf	0.448551,0.448551,0.448551,0.448551,0.448551,0.800305,3.50149,12.1772,34.9244,84.873,178.985,332.502,547.71,792.256,979.135,1038.73,991.385,887.163,768.179,659.144,566.583,486.658,416.498,360.45,327.253,326.257,373.165,550.04,550.04,2435.47,2435.47,2435.47
0.000894386	-284827.78	0,3.78441e-05,8.21122e-05,0.000133895,0.000194467,0.000265322,0.000348205,0.000445157,0.000558566,0.000691227,0.000846407,0.00102793,0.00124026,0.00148864,0.00177918,0.00211904,0.00251659,0.00298163,0.00352561,0.00416192,0.00490625,0.00577693,0.00679541,0.00798677,0.00938037,0.0110105,0.0129174,0.015148,0.0177572,0.0208093,0.0243796,0.0285558,inf	0.448551,0.448551,0.448551,0.448551,0.448551,0.45124,2.36465,9.40481,29.7629,77.4719,170.985,326.81,547.626,800.235,993.653,1054.66,1004.94,895.982,771.227,656.666,559.226,474.883,401.017,342.769,309.462,310.98,365.346,572.183,572.183,15977.6,15977.6,15977.6
0.000894386	-284803.93	0,3.78441e-05,8.21122e-05,0.000133895,0.000194467,0.000265322,0.000348205,0.000445157,0.000558566,0.000691227,0.000846407,0.00102793,0.00124026,0.00148864,0.00177918,0.00211904,0.00251659,0.00298163,0.00352561,0.00416192,0.00490625,0.00577693,0.00679541,0.00798677,0.00938037,0.0110105,0.0129174,0.015148,0.0177572,0.0208093,0.0243796,0.0285558,inf	0.448551,0.448551,0.448551,0.448551,0.448551,0.448551,1.64655,7.43368,25.7536,71.2612,163.498,319.673,542.238,797.459,993.765,1056.65,1006.74,895.423,767.395,649.238,548.648,461.393,385.143,325.695,292.805,296.88,358.289,596.356,596.356,92746.8,92746.8,92746.8
