time_index	left_time_boundary	right_time_boundary	lambda
0	0	4.38865e-06	525.854
1	4.38865e-06	1.00651e-05	525.854
2	1.00651e-05	1.74072e-05	525.854
3	1.74072e-05	2.69038e-05	525.854
4	2.69038e-05	3.91871e-05	525.854
5	3.91871e-05	5.50748e-05	525.854
6	5.50748e-05	7.56245e-05	525.854
7	7.56245e-05	0.000102204	525.854
8	0.000102204	0.000136584	525.854
9	0.000136584	0.000181051	525.854
10	0.000181051	0.000238567	525.854
11	0.000238567	0.000312961	525.854
12	0.000312961	0.000409184	525.854
13	0.000409184	0.000533643	525.854
14	0.000533643	0.000694624	525.854
15	0.000694624	0.000902842	525.854
16	0.000902842	0.00117216	525.854
17	0.00117216	0.0015205	525.854
18	0.0015205	0.00197107	525.854
19	0.00197107	0.00255384	525.854
20	0.00255384	0.00330763	525.854
21	0.00330763	0.00428261	525.854
22	0.00428261	0.00554368	525.854
23	0.00554368	0.00717479	525.854
24	0.00717479	0.00928455	525.854
25	0.00928455	0.0120134	525.854
26	0.0120134	0.015543	525.854
27	0.015543	0.0201083	525.854
28	0.0201083	0.0260132	525.854
29	0.0260132	inf	525.854
