LogLikelihood = -173697.04882511377218

y0 0.62954137203723359306
y0_prime 0
y1 0.993815336646461156
y1_prime 0
y2 1.0520436753030573129
y2_prime 0
y3 2.100021761338454418
y3_prime 0
rho 0.00060223377215192202411
theta 0.0025568040329618305084
