AIC = 2933717.4008908644319

y0 2.1884624593244117463
y0_prime 0
y1 1.504596805067934584
y1_prime 0
y2 1.2968272286290294382
y2_prime 0
y3 4.9607629755241609004
y3_prime 0
rho 6.3393549552756350233e-05
rho.alpha 0.051166519625113225656
r_ii 0.99988046729841462135
theta 0.0049788314851804396297
