LogLikelihood = -131805.33009560775827

y0 0.32406029083116272282
y0_prime 0
y1 0.28239910526995198881
y1_prime 0
y2 2.0809364749410841355
y2_prime 0
y3 33.216920411091052756
y3_prime 0
rho 0.00020634873243544098924
theta 0.001815798689279103607
