0.000674929	-8502518.09	0,2.65289e-06,6.09599e-06,1.05647e-05,1.63644e-05,2.38917e-05,3.36611e-05,4.63405e-05,6.27967e-05,8.41545e-05,0.000111874,0.000147851,0.000194543,0.000255144,0.000333795,0.000435874,0.000568359,0.000740307,0.000963472,0.00125311,0.00162902,0.0021169,0.00275011,0.00357193,0.00463853,0.00602285,0.0078195,0.0101513,0.0131777,0.0171055,0.0222033,0.0288196,inf	783.934,783.934,727.088,614.879,552.887,508.416,480.491,451.816,420.994,391.107,369.294,359.963,357.466,355.994,356.333,358.427,361.919,368.958,380.616,395.292,409.648,419.721,422.83,420.364,414.369,405.533,395.638,380.112,380.112,323.842,323.842,323.842
0.000722895	-8501057.84	0,2.65289e-06,6.09599e-06,1.05647e-05,1.63644e-05,2.38917e-05,3.36611e-05,4.63405e-05,6.27967e-05,8.41545e-05,0.000111874,0.000147851,0.000194543,0.000255144,0.000333795,0.000435874,0.000568359,0.000740307,0.000963472,0.00125311,0.00162902,0.0021169,0.00275011,0.00357193,0.00463853,0.00602285,0.0078195,0.0101513,0.0131777,0.0171055,0.0222033,0.0288196,inf	941.872,941.872,895.698,711.425,627.156,566.418,531.789,491.024,443.324,395.288,361.404,348.771,346.139,343.33,342.589,343.883,346.655,355.096,371.32,392.932,414.778,430.554,435.565,431.807,421.995,406.912,389.821,363.072,363.072,264.262,264.262,264.262
0.000767285	-8500069.20	0,2.65289e-06,6.09599e-06,1.05647e-05,1.63644e-05,2.38917e-05,3.36611e-05,4.63405e-05,6.27967e-05,8.41545e-05,0.000111874,0.000147851,0.000194543,0.000255144,0.000333795,0.000435874,0.000568359,0.000740307,0.000963472,0.00125311,0.00162902,0.0021169,0.00275011,0.00357193,0.00463853,0.00602285,0.0078195,0.0101513,0.0131777,0.0171055,0.0222033,0.0288196,inf	956.144,956.144,952.263,731.114,646.988,586,556.608,513.738,457.496,398.086,357.565,345.011,343.905,340.555,338.931,338.947,339.916,347.992,366.159,391.449,417.521,436.665,442.864,438.513,426.274,406.742,384.436,349.631,349.631,212.99,212.99,212.99
0.000808489	-8499327.81	0,2.65289e-06,6.09599e-06,1.05647e-05,1.63644e-05,2.38917e-05,3.36611e-05,4.63405e-05,6.27967e-05,8.41545e-05,0.000111874,0.000147851,0.000194543,0.000255144,0.000333795,0.000435874,0.000568359,0.000740307,0.000963472,0.00125311,0.00162902,0.0021169,0.00275011,0.00357193,0.00463853,0.00602285,0.0078195,0.0101513,0.0131777,0.0171055,0.0222033,0.0288196,inf	927.977,927.977,964.449,718.999,641.228,585.413,565.735,525.361,464.91,397.922,353.832,343.132,344.449,341.183,339.102,337.934,336.902,344.037,363.03,390.403,418.939,440.067,446.978,442.426,428.649,405.93,379.887,339.522,339.522,161.604,161.604,161.604
0.00084675	-8498761.49	0,2.65289e-06,6.09599e-06,1.05647e-05,1.63644e-05,2.38917e-05,3.36611e-05,4.63405e-05,6.27967e-05,8.41545e-05,0.000111874,0.000147851,0.000194543,0.000255144,0.000333795,0.000435874,0.000568359,0.000740307,0.000963472,0.00125311,0.00162902,0.0021169,0.00275011,0.00357193,0.00463853,0.00602285,0.0078195,0.0101513,0.0131777,0.0171055,0.0222033,0.0288196,inf	898.142,898.142,965.578,698.016,626.323,576.318,567.148,530.858,468.168,395.617,349.628,341.621,345.731,342.932,340.768,338.64,335.689,341.743,361.059,389.662,419.636,441.886,449.183,444.655,429.928,404.949,376.352,332.929,332.929,91.5276,91.5276,91.5276
0.000882398	-8498423.18	0,2.65289e-06,6.09599e-06,1.05647e-05,1.63644e-05,2.38917e-05,3.36611e-05,4.63405e-05,6.27967e-05,8.41545e-05,0.000111874,0.000147851,0.000194543,0.000255144,0.000333795,0.000435874,0.000568359,0.000740307,0.000963472,0.00125311,0.00162902,0.0021169,0.00275011,0.00357193,0.00463853,0.00602285,0.0078195,0.0101513,0.0131777,0.0171055,0.0222033,0.0288196,inf	876.226,876.226,967.124,676.918,609.624,564.577,565.354,533.404,469.238,392.143,345.148,340.146,347.099,344.967,342.998,340.129,335.428,340.426,359.833,389.184,419.969,442.786,450.25,445.883,430.627,404.178,374.324,332.035,332.035,16.3587,16.3587,16.3587
0.000915114	-8499121.39	0,2.65289e-06,6.09599e-06,1.05647e-05,1.63644e-05,2.38917e-05,3.36611e-05,4.63405e-05,6.27967e-05,8.41545e-05,0.000111874,0.000147851,0.000194543,0.000255144,0.000333795,0.000435874,0.000568359,0.000740307,0.000963472,0.00125311,0.00162902,0.0021169,0.00275011,0.00357193,0.00463853,0.00602285,0.0078195,0.0101513,0.0131777,0.0171055,0.0222033,0.0288196,inf	861.981,861.981,971.657,658.312,593.936,552.787,562.657,534.808,469.377,388.246,340.706,338.769,348.469,347.088,345.503,342.066,335.771,339.776,359.161,388.966,420.162,443.182,450.655,446.478,430.842,403.487,374.411,348.889,348.889,5.49284,5.49284,5.49284
0.00094443	-8499208.34	0,2.65289e-06,6.09599e-06,1.05647e-05,1.63644e-05,2.38917e-05,3.36611e-05,4.63405e-05,6.27967e-05,8.41545e-05,0.000111874,0.000147851,0.000194543,0.000255144,0.000333795,0.000435874,0.000568359,0.000740307,0.000963472,0.00125311,0.00162902,0.0021169,0.00275011,0.00357193,0.00463853,0.00602285,0.0078195,0.0101513,0.0131777,0.0171055,0.0222033,0.0288196,inf	852.286,852.286,978.15,642.137,579.727,541.606,559.723,535.589,468.893,384.03,336.219,337.254,349.495,348.868,347.795,343.946,336.238,339.369,358.714,388.818,420.188,443.189,450.606,446.74,431.087,403.583,376.622,382.701,382.701,10.1071,10.1071,10.1071
0.000972997	-8498375.28	0,2.65289e-06,6.09599e-06,1.05647e-05,1.63644e-05,2.38917e-05,3.36611e-05,4.63405e-05,6.27967e-05,8.41545e-05,0.000111874,0.000147851,0.000194543,0.000255144,0.000333795,0.000435874,0.000568359,0.000740307,0.000963472,0.00125311,0.00162902,0.0021169,0.00275011,0.00357193,0.00463853,0.00602285,0.0078195,0.0101513,0.0131777,0.0171055,0.0222033,0.0288196,inf	845.47,845.47,986.239,628.373,567.293,531.538,557.209,536.418,468.357,379.904,331.944,335.791,350.326,350.398,349.908,345.76,336.79,339.154,358.449,388.716,420.007,442.643,449.591,445.43,428.754,399.314,370.892,384.561,384.561,4.34124,4.34124,4.34124
0.000998884	-8498460.71	0,2.65289e-06,6.09599e-06,1.05647e-05,1.63644e-05,2.38917e-05,3.36611e-05,4.63405e-05,6.27967e-05,8.41545e-05,0.000111874,0.000147851,0.000194543,0.000255144,0.000333795,0.000435874,0.000568359,0.000740307,0.000963472,0.00125311,0.00162902,0.0021169,0.00275011,0.00357193,0.00463853,0.00602285,0.0078195,0.0101513,0.0131777,0.0171055,0.0222033,0.0288196,inf	840.125,840.125,994.866,616.554,556.414,522.568,555.236,537.499,467.971,376.032,328.006,334.498,351.082,351.777,351.91,347.559,337.476,339.207,358.533,389,420.257,442.655,449.448,445.611,429.084,399.788,373.43,428.271,428.271,15.4443,15.4443,15.4443
0.00102473	-8497458.31	0,2.65289e-06,6.09599e-06,1.05647e-05,1.63644e-05,2.38917e-05,3.36611e-05,4.63405e-05,6.27967e-05,8.41545e-05,0.000111874,0.000147851,0.000194543,0.000255144,0.000333795,0.000435874,0.000568359,0.000740307,0.000963472,0.00125311,0.00162902,0.0021169,0.00275011,0.00357193,0.00463853,0.00602285,0.0078195,0.0101513,0.0131777,0.0171055,0.0222033,0.0288196,inf	835.228,835.228,1003.28,606.038,546.616,514.354,553.59,538.694,467.652,372.346,324.318,333.283,351.664,352.882,353.636,349.129,338.028,339.194,358.536,389.091,420.104,441.941,448.115,443.816,426.065,394.509,365.707,417.09,417.09,4.64009,4.64009,4.64009
0.00104814	-8497825.76	0,2.65289e-06,6.09599e-06,1.05647e-05,1.63644e-05,2.38917e-05,3.36611e-05,4.63405e-05,6.27967e-05,8.41545e-05,0.000111874,0.000147851,0.000194543,0.000255144,0.000333795,0.000435874,0.000568359,0.000740307,0.000963472,0.00125311,0.00162902,0.0021169,0.00275011,0.00357193,0.00463853,0.00602285,0.0078195,0.0101513,0.0131777,0.0171055,0.0222033,0.0288196,inf	830.733,830.733,1011.58,596.848,537.964,507.022,552.455,540.204,467.606,369.016,321.036,332.332,352.291,353.94,355.31,350.693,338.675,339.382,358.819,389.538,420.416,441.888,447.786,443.594,425.594,393.43,365.005,446.299,446.299,14.2473,14.2473,14.2473
0.00107146	-8497094.19	0,2.65289e-06,6.09599e-06,1.05647e-05,1.63644e-05,2.38917e-05,3.36611e-05,4.63405e-05,6.27967e-05,8.41545e-05,0.000111874,0.000147851,0.000194543,0.000255144,0.000333795,0.000435874,0.000568359,0.000740307,0.000963472,0.00125311,0.00162902,0.0021169,0.00275011,0.00357193,0.00463853,0.00602285,0.0078195,0.0101513,0.0131777,0.0171055,0.0222033,0.0288196,inf	826.091,826.091,1019.12,588.489,529.998,500.18,551.496,541.77,467.627,365.885,318.01,331.495,352.821,354.8,356.756,352.041,339.168,339.463,358.992,389.81,420.435,441.358,446.699,442.101,422.927,388.565,357.684,432.291,432.291,4.44983,4.44983,4.44983
0.00109251	-8497483.35	0,2.65289e-06,6.09599e-06,1.05647e-05,1.63644e-05,2.38917e-05,3.36611e-05,4.63405e-05,6.27967e-05,8.41545e-05,0.000111874,0.000147851,0.000194543,0.000255144,0.000333795,0.000435874,0.000568359,0.000740307,0.000963472,0.00125311,0.00162902,0.0021169,0.00275011,0.00357193,0.00463853,0.00602285,0.0078195,0.0101513,0.0131777,0.0171055,0.0222033,0.0288196,inf	821.717,821.717,1026.32,581.091,522.809,493.947,550.852,543.535,467.849,363.061,315.343,330.907,353.417,355.645,358.162,353.365,339.706,339.665,359.35,390.341,420.837,441.431,446.591,442.201,422.888,388.006,357.378,462.655,462.655,15.0839,15.0839,15.0839
0.00111362	-8496755.92	0,2.65289e-06,6.09599e-06,1.05647e-05,1.63644e-05,2.38917e-05,3.36611e-05,4.63405e-05,6.27967e-05,8.41545e-05,0.000111874,0.000147851,0.000194543,0.000255144,0.000333795,0.000435874,0.000568359,0.000740307,0.000963472,0.00125311,0.00162902,0.0021169,0.00275011,0.00357193,0.00463853,0.00602285,0.0078195,0.0101513,0.0131777,0.0171055,0.0222033,0.0288196,inf	817.201,817.201,1032.77,574.259,516.018,487.997,550.246,545.253,468.064,360.373,312.874,330.411,353.934,356.326,359.366,354.478,340.064,339.708,359.52,390.606,420.844,440.917,445.6,440.882,420.493,383.537,350.55,446.638,446.638,4.57373,4.57373,4.57373
0.00113265	-8497193.14	0,2.65289e-06,6.09599e-06,1.05647e-05,1.63644e-05,2.38917e-05,3.36611e-05,4.63405e-05,6.27967e-05,8.41545e-05,0.000111874,0.000147851,0.000194543,0.000255144,0.000333795,0.000435874,0.000568359,0.000740307,0.000963472,0.00125311,0.00162902,0.0021169,0.00275011,0.00357193,0.00463853,0.00602285,0.0078195,0.0101513,0.0131777,0.0171055,0.0222033,0.0288196,inf	813.077,813.077,1038.94,568.249,509.858,482.53,549.872,547.108,468.438,357.95,310.724,330.156,354.554,357.045,360.585,355.612,340.49,339.872,359.865,391.113,421.211,440.967,445.513,441.021,420.465,382.864,349.733,472.128,472.128,14.6155,14.6155,14.6155
0.0011518	-8496549.93	0,2.65289e-06,6.09599e-06,1.05647e-05,1.63644e-05,2.38917e-05,3.36611e-05,4.63405e-05,6.27967e-05,8.41545e-05,0.000111874,0.000147851,0.000194543,0.000255144,0.000333795,0.000435874,0.000568359,0.000740307,0.000963472,0.00125311,0.00162902,0.0021169,0.00275011,0.00357193,0.00463853,0.00602285,0.0078195,0.0101513,0.0131777,0.0171055,0.0222033,0.0288196,inf	808.85,808.85,1044.47,562.686,504,477.261,549.458,548.854,468.76,355.617,308.723,329.97,355.108,357.635,361.64,356.57,340.761,339.89,360.035,391.374,421.218,440.493,444.645,439.911,418.38,378.839,343.5,455.66,455.66,4.54043,4.54043,4.54043
0.00116898	-8497002.16	0,2.65289e-06,6.09599e-06,1.05647e-05,1.63644e-05,2.38917e-05,3.36611e-05,4.63405e-05,6.27967e-05,8.41545e-05,0.000111874,0.000147851,0.000194543,0.000255144,0.000333795,0.000435874,0.000568359,0.000740307,0.000963472,0.00125311,0.00162902,0.0021169,0.00275011,0.00357193,0.00463853,0.00602285,0.0078195,0.0101513,0.0131777,0.0171055,0.0222033,0.0288196,inf	805.012,805.012,1049.84,557.855,498.649,472.398,549.209,550.685,469.185,353.494,306.982,329.984,355.757,358.276,362.729,357.563,341.103,340.024,360.365,391.86,421.566,440.559,444.648,440.212,418.592,378.458,342.903,480.78,480.78,14.7692,14.7692,14.7692
0.00118639	-8496371.47	0,2.65289e-06,6.09599e-06,1.05647e-05,1.63644e-05,2.38917e-05,3.36611e-05,4.63405e-05,6.27967e-05,8.41545e-05,0.000111874,0.000147851,0.000194543,0.000255144,0.000333795,0.000435874,0.000568359,0.000740307,0.000963472,0.00125311,0.00162902,0.0021169,0.00275011,0.00357193,0.00463853,0.00602285,0.0078195,0.0101513,0.0131777,0.0171055,0.0222033,0.0288196,inf	801.143,801.143,1054.62,553.364,493.525,467.656,548.88,552.364,469.511,351.414,305.34,330.033,356.332,358.794,363.666,358.389,341.292,340.007,360.508,392.083,421.537,440.077,443.841,439.235,416.735,374.788,337.175,463.996,463.996,4.59422,4.59422,4.59422
0.00120195	-8496844.65	0,2.65289e-06,6.09599e-06,1.05647e-05,1.63644e-05,2.38917e-05,3.36611e-05,4.63405e-05,6.27967e-05,8.41545e-05,0.000111874,0.000147851,0.000194543,0.000255144,0.000333795,0.000435874,0.000568359,0.000740307,0.000963472,0.00125311,0.00162902,0.0021169,0.00275011,0.00357193,0.00463853,0.00602285,0.0078195,0.0101513,0.0131777,0.0171055,0.0222033,0.0288196,inf	797.711,797.711,1059.3,549.526,488.857,463.268,548.709,554.125,469.928,349.513,303.915,330.256,357,359.375,364.654,359.271,341.567,340.112,360.814,392.532,421.842,440.12,443.866,439.596,417.039,374.495,336.543,487.179,487.179,14.5757,14.5757,14.5757
