0.000682641	-13682238.69	0,4.079e-06,1.11567e-05,2.34374e-05,4.47463e-05,8.17202e-05,0.000145875,0.000257194,0.000450347,0.000785496,0.00136703,0.00237607,0.0041269,0.00716485,0.0124361,0.0215825,inf	593.241,593.241,505.538,449.418,422.714,371.258,358.662,356.654,361.6,376.171,408.642,419.247,395.19,347.045,347.045,347.045
0.000737678	-13679820.46	0,4.079e-06,1.11567e-05,2.34374e-05,4.47463e-05,8.17202e-05,0.000145875,0.000257194,0.000450347,0.000785496,0.00136703,0.00237607,0.0041269,0.00716485,0.0124361,0.0215825,inf	679.701,679.701,554.957,481.154,451.042,365.961,349.718,345.272,349.211,366.268,414.836,431.82,392.892,315.346,315.346,315.346
0.000788655	-13678225.56	0,4.079e-06,1.11567e-05,2.34374e-05,4.47463e-05,8.17202e-05,0.000145875,0.000257194,0.000450347,0.000785496,0.00136703,0.00237607,0.0041269,0.00716485,0.0124361,0.0215825,inf	698.428,698.428,563.74,491.639,470.44,362.798,348.465,343.084,345.131,360.867,418.452,439.967,392.278,294.696,294.696,294.696
0.000835836	-13677063.13	0,4.079e-06,1.11567e-05,2.34374e-05,4.47463e-05,8.17202e-05,0.000145875,0.000257194,0.000450347,0.000785496,0.00136703,0.00237607,0.0041269,0.00716485,0.0124361,0.0215825,inf	693.788,693.788,554.569,490.044,482.267,358.595,349.054,344.003,344.392,357.488,420.378,445.166,392.683,280.381,280.381,280.381
0.00087959	-13676172.28	0,4.079e-06,1.11567e-05,2.34374e-05,4.47463e-05,8.17202e-05,0.000145875,0.000257194,0.000450347,0.000785496,0.00136703,0.00237607,0.0041269,0.00716485,0.0124361,0.0215825,inf	686.045,686.045,540.067,483.309,489.544,353.454,349.923,345.999,345.189,355.254,421.32,448.39,393.699,269.994,269.994,269.994
0.000920256	-13675467.66	0,4.079e-06,1.11567e-05,2.34374e-05,4.47463e-05,8.17202e-05,0.000145875,0.000257194,0.000450347,0.000785496,0.00136703,0.00237607,0.0041269,0.00716485,0.0124361,0.0215825,inf	681.099,681.099,525.379,475.084,494.419,347.885,350.664,348.29,346.721,353.754,421.712,450.263,395.062,262.182,262.182,262.182
0.00095813	-13674898.50	0,4.079e-06,1.11567e-05,2.34374e-05,4.47463e-05,8.17202e-05,0.000145875,0.000257194,0.000450347,0.000785496,0.00136703,0.00237607,0.0041269,0.00716485,0.0124361,0.0215825,inf	679.388,679.388,512.086,466.968,498.133,342.282,351.211,350.556,348.592,352.753,421.806,451.195,396.604,256.133,256.133,256.133
0.00099347	-13674432.03	0,4.079e-06,1.11567e-05,2.34374e-05,4.47463e-05,8.17202e-05,0.000145875,0.000257194,0.000450347,0.000785496,0.00136703,0.00237607,0.0041269,0.00716485,0.0124361,0.0215825,inf	679.957,679.957,500.448,459.57,501.343,336.885,351.597,352.67,350.589,352.103,421.75,451.46,398.218,251.334,251.334,251.334
0.0010265	-13674045.71	0,4.079e-06,1.11567e-05,2.34374e-05,4.47463e-05,8.17202e-05,0.000145875,0.000257194,0.000450347,0.000785496,0.00136703,0.00237607,0.0041269,0.00716485,0.0124361,0.0215825,inf	681.859,681.859,490.261,453.036,504.367,331.822,351.876,354.587,352.593,351.705,421.628,451.25,399.838,247.446,247.446,247.446
0.00105742	-13673723.31	0,4.079e-06,1.11567e-05,2.34374e-05,4.47463e-05,8.17202e-05,0.000145875,0.000257194,0.000450347,0.000785496,0.00136703,0.00237607,0.0041269,0.00716485,0.0124361,0.0215825,inf	684.407,684.407,481.297,447.324,507.348,327.147,352.095,356.303,354.538,351.489,421.49,450.7,401.425,244.239,244.239,244.239
0.0010864	-13673452.69	0,4.079e-06,1.11567e-05,2.34374e-05,4.47463e-05,8.17202e-05,0.000145875,0.000257194,0.000450347,0.000785496,0.00136703,0.00237607,0.0041269,0.00716485,0.0124361,0.0215825,inf	687.079,687.079,473.286,442.326,510.332,322.871,352.295,357.831,356.39,351.406,421.363,449.907,402.957,241.551,241.551,241.551
0.0011136	-13673224.53	0,4.079e-06,1.11567e-05,2.34374e-05,4.47463e-05,8.17202e-05,0.000145875,0.000257194,0.000450347,0.000785496,0.00136703,0.00237607,0.0041269,0.00716485,0.0124361,0.0215825,inf	689.732,689.732,466.063,437.938,513.311,318.98,352.503,359.188,358.129,351.418,421.263,448.941,404.422,239.268,239.268,239.268
0.00113916	-13673031.49	0,4.079e-06,1.11567e-05,2.34374e-05,4.47463e-05,8.17202e-05,0.000145875,0.000257194,0.000450347,0.000785496,0.00136703,0.00237607,0.0041269,0.00716485,0.0124361,0.0215825,inf	692.196,692.196,459.49,434.053,516.271,315.449,352.738,360.394,359.748,351.499,421.197,447.856,405.816,237.304,237.304,237.304
0.0011632	-13672867.75	0,4.079e-06,1.11567e-05,2.34374e-05,4.47463e-05,8.17202e-05,0.000145875,0.000257194,0.000450347,0.000785496,0.00136703,0.00237607,0.0041269,0.00716485,0.0124361,0.0215825,inf	694.486,694.486,453.466,430.587,519.185,312.248,353.01,361.47,361.246,351.629,421.169,446.69,407.138,235.596,235.596,235.596
0.00118584	-13672728.58	0,4.079e-06,1.11567e-05,2.34374e-05,4.47463e-05,8.17202e-05,0.000145875,0.000257194,0.000450347,0.000785496,0.00136703,0.00237607,0.0041269,0.00716485,0.0124361,0.0215825,inf	696.556,696.556,447.919,427.467,522.028,309.347,353.326,362.433,362.626,351.793,421.179,445.471,408.389,234.097,234.097,234.097
0.00120717	-13672610.15	0,4.079e-06,1.11567e-05,2.34374e-05,4.47463e-05,8.17202e-05,0.000145875,0.000257194,0.000450347,0.000785496,0.00136703,0.00237607,0.0041269,0.00716485,0.0124361,0.0215825,inf	698.488,698.488,442.798,424.641,524.774,306.713,353.688,363.299,363.892,351.98,421.225,444.221,409.574,232.769,232.769,232.769
0.0012273	-13672509.29	0,4.079e-06,1.11567e-05,2.34374e-05,4.47463e-05,8.17202e-05,0.000145875,0.000257194,0.000450347,0.000785496,0.00136703,0.00237607,0.0041269,0.00716485,0.0124361,0.0215825,inf	700.279,700.279,438.062,422.066,527.413,304.317,354.096,364.08,365.05,352.181,421.306,442.957,410.695,231.584,231.584,231.584
0.00124629	-13672423.35	0,4.079e-06,1.11567e-05,2.34374e-05,4.47463e-05,8.17202e-05,0.000145875,0.000257194,0.000450347,0.000785496,0.00136703,0.00237607,0.0041269,0.00716485,0.0124361,0.0215825,inf	701.955,701.955,433.677,419.712,529.929,302.135,354.548,364.789,366.108,352.389,421.419,441.69,411.757,230.518,230.518,230.518
0.00126423	-13672350.16	0,4.079e-06,1.11567e-05,2.34374e-05,4.47463e-05,8.17202e-05,0.000145875,0.000257194,0.000450347,0.000785496,0.00136703,0.00237607,0.0041269,0.00716485,0.0124361,0.0215825,inf	703.548,703.548,429.602,417.549,532.307,300.14,355.039,365.436,367.073,352.6,421.561,440.43,412.764,229.555,229.555,229.555
0.00128119	-13672287.86	0,4.079e-06,1.11567e-05,2.34374e-05,4.47463e-05,8.17202e-05,0.000145875,0.000257194,0.000450347,0.000785496,0.00136703,0.00237607,0.0041269,0.00716485,0.0124361,0.0215825,inf	704.987,704.987,425.838,415.565,534.552,298.312,355.568,366.028,367.95,352.81,421.73,439.184,413.72,228.678,228.678,228.678
