time_index	left_time_boundary	right_time_boundary	lambda
0	0	9.93287e-06	1158.37
1	9.93287e-06	2.22189e-05	1158.37
2	2.22189e-05	3.74154e-05	90.0734
3	3.74154e-05	5.62121e-05	291.369
4	5.62121e-05	7.94617e-05	425.143
5	7.94617e-05	0.000108219	354.747
6	0.000108219	0.000143789	280.326
7	0.000143789	0.000187786	275.965
8	0.000187786	0.000242206	304.354
9	0.000242206	0.000309518	341.023
10	0.000309518	0.000392776	379.644
11	0.000392776	0.000495758	384.764
12	0.000495758	0.000623136	356.965
13	0.000623136	0.000780691	331.439
14	0.000780691	0.000975571	327.805
15	0.000975571	0.00121662	346.724
16	0.00121662	0.00151477	380.429
17	0.00151477	0.00188355	416.652
18	0.00188355	0.0023397	442.698
19	0.0023397	0.00290392	451.973
20	0.00290392	0.00360179	448.848
21	0.00360179	0.004465	444.217
22	0.004465	0.00553269	431.765
23	0.00553269	0.00685333	403.526
24	0.00685333	0.00848683	366.374
25	0.00848683	0.0105073	320.142
26	0.0105073	0.0130064	303.79
27	0.0130064	0.0160976	461.297
28	0.0160976	0.0199211	461.297
29	0.0199211	0.0246504	2.50076
30	0.0246504	0.0305	2.50076
31	0.0305	inf	2.50076
