AIC = 576335.50425453437492

y0 1.2590250795788231475
y0_prime 0
y1 0.96577342680837030553
y1_prime 0
y2 0.92477079309043075384
y2_prime 0
y3 1.8866903314116103552
y3_prime 0
rho 0.00026798652929081425355
theta 0.0047890589054245371117
