AIC = 1715137.1201793351211

y0 0.36334258231326199695
y0_prime 0
y1 1.3603152340419273347
y1_prime 0
y2 1.4539153231355530504
y2_prime 0
y3 1.5337279964469048288
y3_prime 0
rho 9.9999999999999997989e-13
theta 0.002519906910572886332
