AIC = 1715140.7791563544888

y0 8.9618479157447797665e-12
y0_prime 0
y1 9.9999999999999997989e-13
y1_prime 0
y2 7.4893798739236761008
y2_prime 0
y3 8.2214441755904612563
y3_prime 0
rho 1.6872985207697402174e-08
rho.alpha 0.050000000000000009714
r_ii 0.99999994346203691098
theta 0.002519906910572886332
