LogLikelihood = -217620.65737017491483

y0 0.9895801598982189029
y0_prime 0
y1 1.1189568295443566015
y1_prime 0
y2 0.81799927303685682212
y2_prime 0
y3 2.1645153477582210755
y3_prime 0
rho 9.6169669054204569379e-05
theta 0.00052352057435857217958
