4.94186e-05	-1723096.74	0,1.63212e-07,3.78202e-07,6.61398e-07,1.03444e-06,1.52582e-06,2.1731e-06,3.02572e-06,4.14884e-06,5.62827e-06,7.57704e-06,1.01441e-05,1.35255e-05,1.79796e-05,2.38468e-05,3.15754e-05,4.17558e-05,5.5166e-05,7.28306e-05,9.60992e-05,0.00012675,0.000167124,0.000220307,0.000290363,0.000382643,0.000504199,0.000664319,0.000875237,0.00115307,0.00151904,0.00200112,0.00263613,inf	562.555,562.555,1240.97,2207.08,3270.08,4308.13,4989.96,4684.75,3988.55,3776.68,3925.53,4363.47,4561.36,4568.78,4640.86,4664.37,4782.6,4848.01,4750.69,4644.25,4536.66,4405.31,4189.84,3955,3810.65,3629.22,3493.24,3796.97,3796.97,3967.96,3967.96,3967.96
4.29304e-05	-1722417.53	0,1.63212e-07,3.78202e-07,6.61398e-07,1.03444e-06,1.52582e-06,2.1731e-06,3.02572e-06,4.14884e-06,5.62827e-06,7.57704e-06,1.01441e-05,1.35255e-05,1.79796e-05,2.38468e-05,3.15754e-05,4.17558e-05,5.5166e-05,7.28306e-05,9.60992e-05,0.00012675,0.000167124,0.000220307,0.000290363,0.000382643,0.000504199,0.000664319,0.000875237,0.00115307,0.00151904,0.00200112,0.00263613,inf	115.535,115.535,370.25,1169.53,2570.26,4449.37,6013,5410.15,3942.37,3480.05,3634.03,4391.94,4751.09,4645.42,4730.25,4725.15,4940.4,5123.07,4966.64,4810.97,4685.63,4520.86,4156.03,3740.82,3531.03,3253.88,3031.61,3561.58,3561.58,3831.83,3831.83,3831.83
3.78107e-05	-1722016.83	0,1.63212e-07,3.78202e-07,6.61398e-07,1.03444e-06,1.52582e-06,2.1731e-06,3.02572e-06,4.14884e-06,5.62827e-06,7.57704e-06,1.01441e-05,1.35255e-05,1.79796e-05,2.38468e-05,3.15754e-05,4.17558e-05,5.5166e-05,7.28306e-05,9.60992e-05,0.00012675,0.000167124,0.000220307,0.000290363,0.000382643,0.000504199,0.000664319,0.000875237,0.00115307,0.00151904,0.00200112,0.00263613,inf	78.9943,78.9943,109.072,601.04,1967.5,4479.2,7133.49,6307.75,4019.71,3323.16,3423.5,4443.43,4982.66,4698.27,4758.85,4682.28,4946.57,5253.94,5038.3,4848.06,4757.1,4628.95,4167.7,3603.7,3376.16,3044.77,2747.47,3478.19,3478.19,3735.62,3735.62,3735.62
3.37484e-05	-1721746.69	0,1.63212e-07,3.78202e-07,6.61398e-07,1.03444e-06,1.52582e-06,2.1731e-06,3.02572e-06,4.14884e-06,5.62827e-06,7.57704e-06,1.01441e-05,1.35255e-05,1.79796e-05,2.38468e-05,3.15754e-05,4.17558e-05,5.5166e-05,7.28306e-05,9.60992e-05,0.00012675,0.000167124,0.000220307,0.000290363,0.000382643,0.000504199,0.000664319,0.000875237,0.00115307,0.00151904,0.00200112,0.00263613,inf	78.7907,78.7907,32.6741,295.522,1445.75,4338.32,8204.87,7282.7,4148.53,3242.83,3258.79,4502.12,5265.82,4772.72,4795.13,4624.08,4895.8,5325.33,5035.73,4801.16,4765.62,4712.16,4195.24,3500.19,3283.73,2924.8,2554.6,3489.52,3489.52,3607.04,3607.04,3607.04
3.05399e-05	-1721558.31	0,1.63212e-07,3.78202e-07,6.61398e-07,1.03444e-06,1.52582e-06,2.1731e-06,3.02572e-06,4.14884e-06,5.62827e-06,7.57704e-06,1.01441e-05,1.35255e-05,1.79796e-05,2.38468e-05,3.15754e-05,4.17558e-05,5.5166e-05,7.28306e-05,9.60992e-05,0.00012675,0.000167124,0.000220307,0.000290363,0.000382643,0.000504199,0.000664319,0.000875237,0.00115307,0.00151904,0.00200112,0.00263613,inf	78.7907,78.7907,9.24702,138.964,1018.2,4032.16,9103.44,8245.29,4275.01,3190.24,3102.87,4527.62,5561.84,4853.75,4840.02,4569.24,4820.9,5375.28,5000.18,4706.3,4731.68,4766.22,4224.58,3408.75,3218.87,2852.71,2409.89,3566.91,3566.91,3420.5,3420.5,3420.5
2.80314e-05	-1721430.18	0,1.63212e-07,3.78202e-07,6.61398e-07,1.03444e-06,1.52582e-06,2.1731e-06,3.02572e-06,4.14884e-06,5.62827e-06,7.57704e-06,1.01441e-05,1.35255e-05,1.79796e-05,2.38468e-05,3.15754e-05,4.17558e-05,5.5166e-05,7.28306e-05,9.60992e-05,0.00012675,0.000167124,0.000220307,0.000290363,0.000382643,0.000504199,0.000664319,0.000875237,0.00115307,0.00151904,0.00200112,0.00263613,inf	78.7907,78.7907,4.37283,63.0182,692.952,3626.3,9811.45,9176.67,4393.53,3156.96,2952.71,4514.5,5855.78,4937.05,4894.82,4526.99,4739.9,5426.1,4959.09,4592.22,4677.32,4796.96,4253.3,3322.81,3165.24,2807.36,2291.29,3693.31,3693.31,3187.19,3187.19,3187.19
2.60912e-05	-1721347.33	0,1.63212e-07,3.78202e-07,6.61398e-07,1.03444e-06,1.52582e-06,2.1731e-06,3.02572e-06,4.14884e-06,5.62827e-06,7.57704e-06,1.01441e-05,1.35255e-05,1.79796e-05,2.38468e-05,3.15754e-05,4.17558e-05,5.5166e-05,7.28306e-05,9.60992e-05,0.00012675,0.000167124,0.000220307,0.000290363,0.000382643,0.000504199,0.000664319,0.000875237,0.00115307,0.00151904,0.00200112,0.00263613,inf	78.7907,78.7907,4.37283,27.803,459.712,3179.4,10328.2,10063,4501.07,3137.85,2807.81,4464.33,6135.31,5015.49,4954.72,4496.43,4657.62,5484.49,4924.56,4475.51,4617.66,4811.17,4282.28,3241.78,3116.38,2777.89,2187.38,3854.69,3854.69,2938.71,2938.71,2938.71
2.46052e-05	-1721297.43	0,1.63212e-07,3.78202e-07,6.61398e-07,1.03444e-06,1.52582e-06,2.1731e-06,3.02572e-06,4.14884e-06,5.62827e-06,7.57704e-06,1.01441e-05,1.35255e-05,1.79796e-05,2.38468e-05,3.15754e-05,4.17558e-05,5.5166e-05,7.28306e-05,9.60992e-05,0.00012675,0.000167124,0.000220307,0.000290363,0.000382643,0.000504199,0.000664319,0.000875237,0.00115307,0.00151904,0.00200112,0.00263613,inf	78.7907,78.7907,4.37283,12.0206,299.344,2731.61,10666.2,10895,4595.89,3131.36,2670.06,4382.87,6393.3,5084.26,5015.36,4475.01,4574.69,5550.29,4900.46,4364.64,4561.47,4814.35,4312.68,3167,3070.79,2758.81,2092.59,4037.12,4037.12,2707.08,2707.08,2707.08
2.34766e-05	-1721270.27	0,1.63212e-07,3.78202e-07,6.61398e-07,1.03444e-06,1.52582e-06,2.1731e-06,3.02572e-06,4.14884e-06,5.62827e-06,7.57704e-06,1.01441e-05,1.35255e-05,1.79796e-05,2.38468e-05,3.15754e-05,4.17558e-05,5.5166e-05,7.28306e-05,9.60992e-05,0.00012675,0.000167124,0.000220307,0.000290363,0.000382643,0.000504199,0.000664319,0.000875237,0.00115307,0.00151904,0.00200112,0.00263613,inf	77.8361,77.8361,4.37283,5.11321,192.574,2313.1,10846.4,11666,4678.91,3136.06,2541.38,4279.55,6627.23,5140.8,5073.77,4460.38,4490.87,5620.94,4886.58,4263.33,4513.02,4810.33,4344.96,3099.66,3028.9,2747.22,2004.59,4226.71,4226.71,2511.86,2511.86,2511.86
2.26248e-05	-1721257.86	0,1.63212e-07,3.78202e-07,6.61398e-07,1.03444e-06,1.52582e-06,2.1731e-06,3.02572e-06,4.14884e-06,5.62827e-06,7.57704e-06,1.01441e-05,1.35255e-05,1.79796e-05,2.38468e-05,3.15754e-05,4.17558e-05,5.5166e-05,7.28306e-05,9.60992e-05,0.00012675,0.000167124,0.000220307,0.000290363,0.000382643,0.000504199,0.000664319,0.000875237,0.00115307,0.00151904,0.00200112,0.00263613,inf	77.8361,77.8361,4.37283,4.31988,122.078,1934.47,10892.3,12373.4,4749.9,3150.84,2422.5,4161.27,6837.44,5184.44,5128.57,4450.97,4406.14,5693.71,4881.24,4172.73,4473.86,4801.57,4378.85,3040.3,2991.54,2741.42,1922.75,4411.14,4411.14,2358.37,2358.37,2358.37
2.19851e-05	-1721254.31	0,1.63212e-07,3.78202e-07,6.61398e-07,1.03444e-06,1.52582e-06,2.1731e-06,3.02572e-06,4.14884e-06,5.62827e-06,7.57704e-06,1.01441e-05,1.35255e-05,1.79796e-05,2.38468e-05,3.15754e-05,4.17558e-05,5.5166e-05,7.28306e-05,9.60992e-05,0.00012675,0.000167124,0.000220307,0.000290363,0.000382643,0.000504199,0.000664319,0.000875237,0.00115307,0.00151904,0.00200112,0.00263613,inf	63.007,63.007,4.37283,4.31988,76.5877,1603.69,10831.2,13018.8,4809.62,3174.91,2313.75,4035.84,7026.22,5215.56,5179.37,4446.03,4320.95,5766.31,4882.34,4092.67,4443.95,4789.66,4413.61,2988.76,2959.21,2740.25,1847.13,4581.18,4581.18,2242.54,2242.54,2242.54
2.15063e-05	-1721255.82	0,1.63212e-07,3.78202e-07,6.61398e-07,1.03444e-06,1.52582e-06,2.1731e-06,3.02572e-06,4.14884e-06,5.62827e-06,7.57704e-06,1.01441e-05,1.35255e-05,1.79796e-05,2.38468e-05,3.15754e-05,4.17558e-05,5.5166e-05,7.28306e-05,9.60992e-05,0.00012675,0.000167124,0.000220307,0.000290363,0.000382643,0.000504199,0.000664319,0.000875237,0.00115307,0.00151904,0.00200112,0.00263613,inf	63.007,63.007,4.37283,4.31988,48.009,1321.21,10685.8,13604.7,4858.94,3206.88,2214.59,3907.48,7195.99,5235.06,5226.19,4445.17,4235.87,5837.23,4887.96,4022.29,4422.59,4775.65,4448.38,2944.43,2932.01,2742.72,1777.89,4731.35,4731.35,2156.8,2156.8,2156.8
2.11487e-05	-1721259.41	0,1.63212e-07,3.78202e-07,6.61398e-07,1.03444e-06,1.52582e-06,2.1731e-06,3.02572e-06,4.14884e-06,5.62827e-06,7.57704e-06,1.01441e-05,1.35255e-05,1.79796e-05,2.38468e-05,3.15754e-05,4.17558e-05,5.5166e-05,7.28306e-05,9.60992e-05,0.00012675,0.000167124,0.000220307,0.000290363,0.000382643,0.000504199,0.000664319,0.000875237,0.00115307,0.00151904,0.00200112,0.00263613,inf	63.007,63.007,4.37283,4.31988,29.9573,1083.85,10477,14135.4,4897.95,3245.85,2124.66,3780.08,7349.57,5244.16,5269.3,4448.13,4151.68,5905.53,4896.48,3960.58,4408.65,4760.25,4482.36,2906.48,2909.63,2747.96,1715.11,4859.62,4859.62,2093.73,2093.73,2093.73
2.08831e-05	-1721263.76	0,1.63212e-07,3.78202e-07,6.61398e-07,1.03444e-06,1.52582e-06,2.1731e-06,3.02572e-06,4.14884e-06,5.62827e-06,7.57704e-06,1.01441e-05,1.35255e-05,1.79796e-05,2.38468e-05,3.15754e-05,4.17558e-05,5.5166e-05,7.28306e-05,9.60992e-05,0.00012675,0.000167124,0.000220307,0.000290363,0.000382643,0.000504199,0.000664319,0.000875237,0.00115307,0.00151904,0.00200112,0.00263613,inf	63.007,63.007,4.37283,4.31988,18.6066,888.146,10234,14630.5,4932.46,3293.53,2044.75,3659.29,7496.84,5248.97,5313.76,4458.51,4072.01,5974.73,4909.12,3907.79,4402.15,4745.03,4515.87,2874.18,2891.74,2755.61,1658.48,4967.02,4967.02,2047.47,2047.47,2047.47
2.06845e-05	-1721267.98	0,1.63212e-07,3.78202e-07,6.61398e-07,1.03444e-06,1.52582e-06,2.1731e-06,3.02572e-06,4.14884e-06,5.62827e-06,7.57704e-06,1.01441e-05,1.35255e-05,1.79796e-05,2.38468e-05,3.15754e-05,4.17558e-05,5.5166e-05,7.28306e-05,9.60992e-05,0.00012675,0.000167124,0.000220307,0.000290363,0.000382643,0.000504199,0.000664319,0.000875237,0.00115307,0.00151904,0.00200112,0.00263613,inf	63.5945,63.5945,4.37283,4.31988,11.5491,725.716,9948.78,15064.2,4953.39,3342.33,1969.78,3539.12,7624.78,5240.41,5350.16,4468.45,3991.05,6036.69,4919.81,3859.92,4399.56,4728.25,4546.69,2846.19,2877.31,2764.24,1607.79,5054.63,5054.63,2013.09,2013.09,2013.09
2.05364e-05	-1721271.81	0,1.63212e-07,3.78202e-07,6.61398e-07,1.03444e-06,1.52582e-06,2.1731e-06,3.02572e-06,4.14884e-06,5.62827e-06,7.57704e-06,1.01441e-05,1.35255e-05,1.79796e-05,2.38468e-05,3.15754e-05,4.17558e-05,5.5166e-05,7.28306e-05,9.60992e-05,0.00012675,0.000167124,0.000220307,0.000290363,0.000382643,0.000504199,0.000664319,0.000875237,0.00115307,0.00151904,0.00200112,0.00263613,inf	63.5945,63.5945,4.37283,4.31988,6.22416,592.022,9644.17,15458.8,4965.62,3395.67,1901.21,3424.28,7742.57,5224.28,5383.18,4481.06,3911.64,6094.62,4930,3817.29,4401.02,4711.22,4575.28,2822.09,2865.98,2773.5,1562.66,5125.28,5125.28,1987.61,1987.61,1987.61
2.0426e-05	-1721275.06	0,1.63212e-07,3.78202e-07,6.61398e-07,1.03444e-06,1.52582e-06,2.1731e-06,3.02572e-06,4.14884e-06,5.62827e-06,7.57704e-06,1.01441e-05,1.35255e-05,1.79796e-05,2.38468e-05,3.15754e-05,4.17558e-05,5.5166e-05,7.28306e-05,9.60992e-05,0.00012675,0.000167124,0.000220307,0.000290363,0.000382643,0.000504199,0.000664319,0.000875237,0.00115307,0.00151904,0.00200112,0.00263613,inf	60.3793,60.3793,4.37283,4.31988,4.32381,483.16,9332.51,15819.8,4971.58,3452.23,1838.36,3315.22,7852.8,5202.31,5413.67,4496.72,3834.56,6149.33,4939.71,3779.34,4405.85,4694.32,4601.67,2801.28,2857.23,2782.98,1522.58,5181.84,5181.84,1968.66,1968.66,1968.66
2.03437e-05	-1721277.76	0,1.63212e-07,3.78202e-07,6.61398e-07,1.03444e-06,1.52582e-06,2.1731e-06,3.02572e-06,4.14884e-06,5.62827e-06,7.57704e-06,1.01441e-05,1.35255e-05,1.79796e-05,2.38468e-05,3.15754e-05,4.17558e-05,5.5166e-05,7.28306e-05,9.60992e-05,0.00012675,0.000167124,0.000220307,0.000290363,0.000382643,0.000504199,0.000664319,0.000875237,0.00115307,0.00151904,0.00200112,0.00263613,inf	60.3793,60.3793,4.37283,4.31988,4.32381,394.015,9019.58,16152.3,4971.12,3511.57,1780.7,3211.95,7956.73,5175.48,5441.87,4515.23,3759.9,6201.11,4948.66,3745.36,4413.33,4677.75,4625.88,2783.2,2850.54,2792.37,1487.05,5226.98,5226.98,1954.51,1954.51,1954.51
2.02823e-05	-1721279.87	0,1.63212e-07,3.78202e-07,6.61398e-07,1.03444e-06,1.52582e-06,2.1731e-06,3.02572e-06,4.14884e-06,5.62827e-06,7.57704e-06,1.01441e-05,1.35255e-05,1.79796e-05,2.38468e-05,3.15754e-05,4.17558e-05,5.5166e-05,7.28306e-05,9.60992e-05,0.00012675,0.000167124,0.000220307,0.000290363,0.000382643,0.000504199,0.000664319,0.000875237,0.00115307,0.00151904,0.00200112,0.00263613,inf	60.3793,60.3793,4.37283,4.31988,4.32381,321.891,8707.3,16459.1,4965.03,3573.25,1726.92,3114.23,8055.75,5144.57,5468.1,4536.4,3687.71,6250.3,4956.7,3714.72,4422.78,4661.64,4647.99,2767.41,2845.49,2801.42,1455.55,5262.98,5262.98,1943.87,1943.87,1943.87
2.02365e-05	-1721281.53	0,1.63212e-07,3.78202e-07,6.61398e-07,1.03444e-06,1.52582e-06,2.1731e-06,3.02572e-06,4.14884e-06,5.62827e-06,7.57704e-06,1.01441e-05,1.35255e-05,1.79796e-05,2.38468e-05,3.15754e-05,4.17558e-05,5.5166e-05,7.28306e-05,9.60992e-05,0.00012675,0.000167124,0.000220307,0.000290363,0.000382643,0.000504199,0.000664319,0.000875237,0.00115307,0.00151904,0.00200112,0.00263613,inf	60.3793,60.3793,4.37283,4.31988,4.32381,262.9,8400.44,16743.8,4953.05,3635.82,1677.31,3022.04,8150.5,5110.21,5492.36,4559.91,3617.9,6297.11,4963.75,3686.9,4433.68,4646.08,4668.11,2753.55,2841.76,2810,1427.63,5291.76,5291.76,1935.85,1935.85,1935.85
