time_index	left_time_boundary	right_time_boundary	lambda
0	0	1.63212e-07	60.3793
1	1.63212e-07	3.78202e-07	60.3793
2	3.78202e-07	6.61398e-07	4.37283
3	6.61398e-07	1.03444e-06	4.31988
4	1.03444e-06	1.52582e-06	4.32381
5	1.52582e-06	2.1731e-06	262.9
6	2.1731e-06	3.02572e-06	8400.44
7	3.02572e-06	4.14884e-06	16743.8
8	4.14884e-06	5.62827e-06	4953.05
9	5.62827e-06	7.57704e-06	3635.82
10	7.57704e-06	1.01441e-05	1677.31
11	1.01441e-05	1.35255e-05	3022.04
12	1.35255e-05	1.79796e-05	8150.5
13	1.79796e-05	2.38468e-05	5110.21
14	2.38468e-05	3.15754e-05	5492.36
15	3.15754e-05	4.17558e-05	4559.91
16	4.17558e-05	5.5166e-05	3617.9
17	5.5166e-05	7.28306e-05	6297.11
18	7.28306e-05	9.60992e-05	4963.75
19	9.60992e-05	0.00012675	3686.9
20	0.00012675	0.000167124	4433.68
21	0.000167124	0.000220307	4646.08
22	0.000220307	0.000290363	4668.11
23	0.000290363	0.000382643	2753.55
24	0.000382643	0.000504199	2841.76
25	0.000504199	0.000664319	2810
26	0.000664319	0.000875237	1427.63
27	0.000875237	0.00115307	5291.76
28	0.00115307	0.00151904	5291.76
29	0.00151904	0.00200112	1935.85
30	0.00200112	0.00263613	1935.85
31	0.00263613	inf	1935.85
