LogLikelihood = -1380201.381351523567

y0 0.74519721976462638402
y0_prime 0
y1 1.0081596868282323154
y1_prime 0
y2 0.80342425882088963629
y2_prime 0
y3 1.5662665950541896365
y3_prime 0
rho 0.002287951606142998081
theta 0.0045158284404008272941
