LogLikelihood = -1424781.0212779089343

y0 17.22881494283804571
y0_prime 0
y1 2.8439090241153944976e-09
y1_prime 0
y2 1.862027392067719278
y2_prime 0
y3 2.2435275862797130486
y3_prime 0
rho 1.5162572305006524389e-07
rho.alpha 0.050000068758898917609
r_ii 1
theta 0.0048811385863312397801
