LogLikelihood = -7196.926124628240359

y0 8.475178320039037756e-11
y0_prime 0
y1 1.1643817911269014331
y1_prime 0
y2 1.4786083657745068276
y2_prime 0
y3 1.1347576670279571065
y3_prime 0
rho 0.00091939282209094099884
rho.alpha 0.38824934903822810872
r_ii 0.99995000110666820703
theta 6.8542183140894290825e-05
