AIC = 1835648.1355920545757

y0 0.93045078031922157091
y0_prime 0
y1 1.048643991024322375
y1_prime 0
y2 0.93482906142383914716
y2_prime 0
y3 1.6582228254197315387
y3_prime 0
rho 0.0027308319423806890792
theta 0.0050066741766779318534
