LogLikelihood = -129312.99252402692218

y0 0.22172048996903737095
y0_prime 0
y1 0.27659696382906479029
y1_prime 0
y2 2.0616307787027716714
y2_prime 0
y3 7.7155878852227575138
y3_prime 0
rho 0.00061653361461216915629
rho.alpha 3.0157875016157307257
r_ii 0.9745023157995489349
theta 0.0017823105156320423297
