time_index	left_time_boundary	right_time_boundary	lambda
0	0	3.38567e-05	523.737
1	3.38567e-05	8.01833e-05	523.737
2	8.01833e-05	0.000143573	204.004
3	0.000143573	0.000230309	136.595
4	0.000230309	0.000348992	128.14
5	0.000348992	0.000511388	338.844
6	0.000511388	0.000733597	1014.69
7	0.000733597	0.00103765	2652.84
8	0.00103765	0.00145369	2525.91
9	0.00145369	0.00202296	3086.92
10	0.00202296	0.0028019	2837.47
11	0.0028019	0.00386774	1269.39
12	0.00386774	0.00532614	922.269
13	0.00532614	0.00732169	1.08786
14	0.00732169	0.0100522	1.08786
15	0.0100522	inf	1.08786
