0.000325844	-163957.36	0,4.43696e-05,0.000105081,0.000188154,0.000301823,0.000457359,0.000670181,0.000961388,0.00135985,0.00190507,0.00265111,0.00367193,0.00506872,0.00697998,0.00959517,0.0131736,inf	848.66,848.66,852.805,798.413,767.441,800.323,856.612,908.374,927.37,879.784,834.164,883.512,768.593,428.454,428.454,428.454
0.000347228	-163932.73	0,4.43696e-05,0.000105081,0.000188154,0.000301823,0.000457359,0.000670181,0.000961388,0.00135985,0.00190507,0.00265111,0.00367193,0.00506872,0.00697998,0.00959517,0.0131736,inf	860.208,860.208,885.525,784.618,724.358,772.132,859.394,949.768,991.695,903.462,826.007,936.81,744.248,285.921,285.921,285.921
0.000365985	-163920.03	0,4.43696e-05,0.000105081,0.000188154,0.000301823,0.000457359,0.000670181,0.000961388,0.00135985,0.00190507,0.00265111,0.00367193,0.00506872,0.00697998,0.00959517,0.0131736,inf	862.435,862.435,920.778,780.824,695.323,750.445,854.469,972.39,1036.44,912.001,811.729,989.269,736.881,193.406,193.406,193.406
0.000382577	-163913.82	0,4.43696e-05,0.000105081,0.000188154,0.000301823,0.000457359,0.000670181,0.000961388,0.00135985,0.00190507,0.00265111,0.00367193,0.00506872,0.00697998,0.00959517,0.0131736,inf	857.404,857.404,954.512,781.888,675.355,734.559,847.376,985.125,1069.48,912.01,795.138,1042.89,741.626,118.572,118.572,118.572
0.000397275	-163914.62	0,4.43696e-05,0.000105081,0.000188154,0.000301823,0.000457359,0.000670181,0.000961388,0.00135985,0.00190507,0.00265111,0.00367193,0.00506872,0.00697998,0.00959517,0.0131736,inf	848.128,848.128,985.046,785.023,661.242,723.072,840.011,992.356,1095.34,907.356,778.622,1102.3,756.588,72.4842,72.4842,72.4842
0.000410098	-163919.81	0,4.43696e-05,0.000105081,0.000188154,0.000301823,0.000457359,0.000670181,0.000961388,0.00135985,0.00190507,0.00265111,0.00367193,0.00506872,0.00697998,0.00959517,0.0131736,inf	836.888,836.888,1011.73,788.644,650.891,714.668,832.781,995.982,1116.04,899.576,762.326,1167.8,775.006,56.427,56.427,56.427
0.000421502	-163920.39	0,4.43696e-05,0.000105081,0.000188154,0.000301823,0.000457359,0.000670181,0.000961388,0.00135985,0.00190507,0.00265111,0.00367193,0.00506872,0.00697998,0.00959517,0.0131736,inf	825.422,825.422,1034.84,792.184,643.197,708.644,826.026,997.353,1132.94,889.126,744.769,1229.14,780.56,62.0853,62.0853,62.0853
0.000432019	-163913.69	0,4.43696e-05,0.000105081,0.000188154,0.000301823,0.000457359,0.000670181,0.000961388,0.00135985,0.00190507,0.00265111,0.00367193,0.00506872,0.00697998,0.00959517,0.0131736,inf	814.701,814.701,1054.82,795.398,637.48,704.575,820.073,997.7,1147.53,876.858,725.585,1276.87,767.952,55.0393,55.0393,55.0393
0.000441625	-163913.43	0,4.43696e-05,0.000105081,0.000188154,0.000301823,0.000457359,0.000670181,0.000961388,0.00135985,0.00190507,0.00265111,0.00367193,0.00506872,0.00697998,0.00959517,0.0131736,inf	805.104,805.104,1071.92,798.039,633.137,701.938,814.822,997.631,1161.32,864.701,707.559,1323.98,759.479,58.6098,58.6098,58.6098
0.000450551	-163909.09	0,4.43696e-05,0.000105081,0.000188154,0.000301823,0.000457359,0.000670181,0.000961388,0.00135985,0.00190507,0.00265111,0.00367193,0.00506872,0.00697998,0.00959517,0.0131736,inf	796.771,796.771,1086.53,800.043,629.767,700.327,810.071,997.192,1174.32,852.303,689.706,1363.15,746.076,52.8333,52.8333,52.8333
0.000458748	-163909.41	0,4.43696e-05,0.000105081,0.000188154,0.000301823,0.000457359,0.000670181,0.000961388,0.00135985,0.00190507,0.00265111,0.00367193,0.00506872,0.00697998,0.00959517,0.0131736,inf	789.704,789.704,1099.03,801.439,627.112,699.463,805.679,996.512,1187.11,840.436,673.207,1402.57,738.864,56.9523,56.9523,56.9523
0.000466414	-163905.44	0,4.43696e-05,0.000105081,0.000188154,0.000301823,0.000457359,0.000670181,0.000961388,0.00135985,0.00190507,0.00265111,0.00367193,0.00506872,0.00697998,0.00959517,0.0131736,inf	783.802,783.802,1109.78,802.311,625.013,699.166,801.541,995.558,1199.48,828.565,657.026,1434.3,727.108,50.6129,50.6129,50.6129
0.000473461	-163906.74	0,4.43696e-05,0.000105081,0.000188154,0.000301823,0.000457359,0.000670181,0.000961388,0.00135985,0.00190507,0.00265111,0.00367193,0.00506872,0.00697998,0.00959517,0.0131736,inf	778.928,778.928,1119.05,802.728,623.353,699.294,797.582,994.416,1211.9,817.376,642.237,1467.71,722.972,56.7694,56.7694,56.7694
0.000480111	-163902.15	0,4.43696e-05,0.000105081,0.000188154,0.000301823,0.000457359,0.000670181,0.000961388,0.00135985,0.00190507,0.00265111,0.00367193,0.00506872,0.00697998,0.00959517,0.0131736,inf	774.935,774.935,1127.13,802.779,622.059,699.769,793.757,993.027,1224.02,806.147,627.608,1492.05,711.963,48.113,48.113,48.113
0.000486199	-163905.12	0,4.43696e-05,0.000105081,0.000188154,0.000301823,0.000457359,0.000670181,0.000961388,0.00135985,0.00190507,0.00265111,0.00367193,0.00506872,0.00697998,0.00959517,0.0131736,inf	771.682,771.682,1134.2,802.518,621.062,700.502,790.019,991.489,1236.42,795.762,614.5,1521.01,711.963,58.5771,58.5771,58.5771
0.000492031	-163898.65	0,4.43696e-05,0.000105081,0.000188154,0.000301823,0.000457359,0.000670181,0.000961388,0.00135985,0.00190507,0.00265111,0.00367193,0.00506872,0.00697998,0.00959517,0.0131736,inf	769.039,769.039,1140.44,802.018,620.328,701.465,786.346,989.698,1248.47,785.12,601.188,1537.44,699.777,45.0026,45.0026,45.0026
0.000497304	-163904.57	0,4.43696e-05,0.000105081,0.000188154,0.000301823,0.000457359,0.000670181,0.000961388,0.00135985,0.00190507,0.00265111,0.00367193,0.00506872,0.00697998,0.00959517,0.0131736,inf	766.91,766.91,1145.97,801.301,619.807,702.589,782.712,987.802,1261.07,775.6,589.714,1564.02,705.677,63.8151,63.8151,63.8151
0.000502499	-163894.21	0,4.43696e-05,0.000105081,0.000188154,0.000301823,0.000457359,0.000670181,0.000961388,0.00135985,0.00190507,0.00265111,0.00367193,0.00506872,0.00697998,0.00959517,0.0131736,inf	765.184,765.184,1150.94,800.436,619.491,703.881,779.106,985.612,1273.08,765.392,577.422,1571.11,689.075,41.6863,41.6863,41.6863
0.000507072	-163904.80	0,4.43696e-05,0.000105081,0.000188154,0.000301823,0.000457359,0.000670181,0.000961388,0.00135985,0.00190507,0.00265111,0.00367193,0.00506872,0.00697998,0.00959517,0.0131736,inf	763.818,763.818,1155.38,799.417,619.33,705.275,775.52,983.397,1286.08,756.791,567.537,1597.52,703.224,72.7438,72.7438,72.7438
0.000511775	-163888.96	0,4.43696e-05,0.000105081,0.000188154,0.000301823,0.000457359,0.000670181,0.000961388,0.00135985,0.00190507,0.00265111,0.00367193,0.00506872,0.00697998,0.00959517,0.0131736,inf	762.715,762.715,1159.45,798.308,619.332,706.794,771.921,980.79,1298.05,746.882,556.05,1594.4,679.624,40.0284,40.0284,40.0284
