time_index	left_time_boundary	right_time_boundary	lambda
0	0	4.43696e-05	762.715
1	4.43696e-05	0.000105081	762.715
2	0.000105081	0.000188154	1159.45
3	0.000188154	0.000301823	798.308
4	0.000301823	0.000457359	619.332
5	0.000457359	0.000670181	706.794
6	0.000670181	0.000961388	771.921
7	0.000961388	0.00135985	980.79
8	0.00135985	0.00190507	1298.05
9	0.00190507	0.00265111	746.882
10	0.00265111	0.00367193	556.05
11	0.00367193	0.00506872	1594.4
12	0.00506872	0.00697998	679.624
13	0.00697998	0.00959517	40.0284
14	0.00959517	0.0131736	40.0284
15	0.0131736	inf	40.0284
