0.000331543	-7523541.18	0,2.0091e-06,5.49519e-06,1.1544e-05,2.20397e-05,4.02511e-05,7.18506e-05,0.00012668,0.000221818,0.000386895,0.000673327,0.00117033,0.0020327,0.00352903,0.00612539,0.0106304,inf	761.865,761.865,903.83,876.381,887.925,815.006,761.988,747.253,745.682,788.237,841.602,831.83,773.025,739.787,739.787,739.787
0.000354224	-7522612.34	0,2.0091e-06,5.49519e-06,1.1544e-05,2.20397e-05,4.02511e-05,7.18506e-05,0.00012668,0.000221818,0.000386895,0.000673327,0.00117033,0.0020327,0.00352903,0.00612539,0.0106304,inf	685.52,685.52,939.635,905.33,954.798,835.023,751.259,727.733,716.779,779.092,864.277,847.798,750.311,697.991,697.991,697.991
0.000375125	-7521954.72	0,2.0091e-06,5.49519e-06,1.1544e-05,2.20397e-05,4.02511e-05,7.18506e-05,0.00012668,0.000221818,0.000386895,0.000673327,0.00117033,0.0020327,0.00352903,0.00612539,0.0106304,inf	615.876,615.876,939.884,900.2,997.737,848.635,749.393,723.11,701.722,774.098,879.839,860.054,736.546,671.963,671.963,671.963
0.000394303	-7521456.79	0,2.0091e-06,5.49519e-06,1.1544e-05,2.20397e-05,4.02511e-05,7.18506e-05,0.00012668,0.000221818,0.000386895,0.000673327,0.00117033,0.0020327,0.00352903,0.00612539,0.0106304,inf	565.498,565.498,928.138,877.664,1022.8,854.31,749.232,724.55,693.337,770.892,890.16,869.249,727.786,654.694,654.694,654.694
0.0004119	-7521066.12	0,2.0091e-06,5.49519e-06,1.1544e-05,2.20397e-05,4.02511e-05,7.18506e-05,0.00012668,0.000221818,0.000386895,0.000673327,0.00117033,0.0020327,0.00352903,0.00612539,0.0106304,inf	534.07,534.07,916.179,849.273,1037.27,854.145,748.947,728.73,688.705,768.801,896.961,876.146,721.97,642.638,642.638,642.638
0.000428069	-7520752.69	0,2.0091e-06,5.49519e-06,1.1544e-05,2.20397e-05,4.02511e-05,7.18506e-05,0.00012668,0.000221818,0.000386895,0.000673327,0.00117033,0.0020327,0.00352903,0.00612539,0.0106304,inf	515.534,515.534,907.06,820.845,1046.16,850.206,748.104,734.12,686.339,767.516,901.437,881.355,717.953,633.847,633.847,633.847
0.000442949	-7520497.46	0,2.0091e-06,5.49519e-06,1.1544e-05,2.20397e-05,4.02511e-05,7.18506e-05,0.00012668,0.000221818,0.000386895,0.000673327,0.00117033,0.0020327,0.00352903,0.00612539,0.0106304,inf	506.659,506.659,901.427,794.795,1052.48,843.999,746.687,739.948,685.382,766.832,904.369,885.329,715.074,627.187,627.187,627.187
0.000456665	-7520287.41	0,2.0091e-06,5.49519e-06,1.1544e-05,2.20397e-05,4.02511e-05,7.18506e-05,0.00012668,0.000221818,0.000386895,0.000673327,0.00117033,0.0020327,0.00352903,0.00612539,0.0106304,inf	504.813,504.813,898.046,771.786,1057.88,836.525,744.802,745.801,685.306,766.594,906.262,888.394,712.936,621.967,621.967,621.967
0.000469327	-7520113.16	0,2.0091e-06,5.49519e-06,1.1544e-05,2.20397e-05,4.02511e-05,7.18506e-05,0.00012668,0.000221818,0.000386895,0.000673327,0.00117033,0.0020327,0.00352903,0.00612539,0.0106304,inf	506.271,506.271,896.17,751.763,1063.22,828.433,742.587,751.462,685.774,766.686,907.448,890.789,711.295,617.753,617.753,617.753
0.000481033	-7519967.68	0,2.0091e-06,5.49519e-06,1.1544e-05,2.20397e-05,4.02511e-05,7.18506e-05,0.00012668,0.000221818,0.000386895,0.000673327,0.00117033,0.0020327,0.00352903,0.00612539,0.0106304,inf	509.708,509.708,894.827,734.386,1068.92,820.138,740.168,756.831,686.573,767.015,908.144,892.683,709.998,614.26,614.26,614.26
0.00049187	-7519845.55	0,2.0091e-06,5.49519e-06,1.1544e-05,2.20397e-05,4.02511e-05,7.18506e-05,0.00012668,0.000221818,0.000386895,0.000673327,0.00117033,0.0020327,0.00352903,0.00612539,0.0106304,inf	515.146,515.146,893.817,719.269,1075.1,811.898,737.651,761.861,687.558,767.516,908.498,894.2,708.946,611.301,611.301,611.301
0.000501913	-7519742.56	0,2.0091e-06,5.49519e-06,1.1544e-05,2.20397e-05,4.02511e-05,7.18506e-05,0.00012668,0.000221818,0.000386895,0.000673327,0.00117033,0.0020327,0.00352903,0.00612539,0.0106304,inf	521.016,521.016,892.452,705.951,1081.79,803.86,735.12,766.542,688.633,768.136,908.609,895.432,708.075,608.747,608.747,608.747
0.000511231	-7519655.34	0,2.0091e-06,5.49519e-06,1.1544e-05,2.20397e-05,4.02511e-05,7.18506e-05,0.00012668,0.000221818,0.000386895,0.000673327,0.00117033,0.0020327,0.00352903,0.00612539,0.0106304,inf	527.162,527.162,890.775,694.133,1088.95,796.109,732.636,770.883,689.741,768.84,908.547,896.445,707.34,606.507,606.507,606.507
0.000519885	-7519581.20	0,2.0091e-06,5.49519e-06,1.1544e-05,2.20397e-05,4.02511e-05,7.18506e-05,0.00012668,0.000221818,0.000386895,0.000673327,0.00117033,0.0020327,0.00352903,0.00612539,0.0106304,inf	534.142,534.142,888.769,683.549,1096.48,788.678,730.243,774.901,690.838,769.597,908.361,897.29,706.712,604.518,604.518,604.518
0.000527928	-7519517.96	0,2.0091e-06,5.49519e-06,1.1544e-05,2.20397e-05,4.02511e-05,7.18506e-05,0.00012668,0.000221818,0.000386895,0.000673327,0.00117033,0.0020327,0.00352903,0.00612539,0.0106304,inf	540.751,540.751,886.215,673.911,1104.29,781.591,727.972,778.62,691.9,770.388,908.086,898.002,706.169,602.733,602.733,602.733
0.000535411	-7519463.87	0,2.0091e-06,5.49519e-06,1.1544e-05,2.20397e-05,4.02511e-05,7.18506e-05,0.00012668,0.000221818,0.000386895,0.000673327,0.00117033,0.0020327,0.00352903,0.00612539,0.0106304,inf	547.211,547.211,883.272,665.075,1112.29,774.834,725.84,782.06,692.909,771.197,907.747,898.611,705.695,601.116,601.116,601.116
0.000542377	-7519417.47	0,2.0091e-06,5.49519e-06,1.1544e-05,2.20397e-05,4.02511e-05,7.18506e-05,0.00012668,0.000221818,0.000386895,0.000673327,0.00117033,0.0020327,0.00352903,0.00612539,0.0106304,inf	554.333,554.333,879.983,656.891,1120.41,768.404,723.861,785.248,693.856,772.013,907.362,899.137,705.279,599.643,599.643,599.643
0.000548866	-7519377.56	0,2.0091e-06,5.49519e-06,1.1544e-05,2.20397e-05,4.02511e-05,7.18506e-05,0.00012668,0.000221818,0.000386895,0.000673327,0.00117033,0.0020327,0.00352903,0.00612539,0.0106304,inf	561.724,561.724,876.585,649.256,1128.57,762.281,722.039,788.203,694.737,772.826,906.946,899.597,704.911,598.293,598.293,598.293
0.000554915	-7519343.15	0,2.0091e-06,5.49519e-06,1.1544e-05,2.20397e-05,4.02511e-05,7.18506e-05,0.00012668,0.000221818,0.000386895,0.000673327,0.00117033,0.0020327,0.00352903,0.00612539,0.0106304,inf	568.821,568.821,872.743,642.049,1136.71,756.444,720.372,790.946,695.549,773.633,906.509,900.002,704.586,597.049,597.049,597.049
0.000560557	-7519313.41	0,2.0091e-06,5.49519e-06,1.1544e-05,2.20397e-05,4.02511e-05,7.18506e-05,0.00012668,0.000221818,0.000386895,0.000673327,0.00117033,0.0020327,0.00352903,0.00612539,0.0106304,inf	575.708,575.708,868.64,635.218,1144.81,750.879,718.86,793.495,696.291,774.428,906.058,900.363,704.297,595.899,595.899,595.899
