LogLikelihood = -1466315.8814745817799

y0 0.79239535726869347876
y0_prime 0
y1 0.79949559887675858416
y1_prime 0
y2 1.2486305242357289558
y2_prime 0
y3 1.5283803483813853674
y3_prime 0
rho 0.00045423597511560999309
theta 0.0047953674741379927887
