time_index	left_time_boundary	right_time_boundary	lambda
0	0	1.57863e-06	16263.2
1	1.57863e-06	3.65808e-06	16263.2
2	3.65808e-06	6.39722e-06	11673.1
3	6.39722e-06	1.00054e-05	7063.29
4	1.00054e-05	1.47582e-05	3998.11
5	1.47582e-05	2.10188e-05	2286.91
6	2.10188e-05	2.92656e-05	1458.75
7	2.92656e-05	4.01288e-05	985.353
8	4.01288e-05	5.44382e-05	675.988
9	5.44382e-05	7.32872e-05	454.502
10	7.32872e-05	9.81162e-05	286.15
11	9.81162e-05	0.000130822	195.77
12	0.000130822	0.000173904	175.277
13	0.000173904	0.000230653	186.246
14	0.000230653	0.000305406	204.161
15	0.000305406	0.000403874	219.189
16	0.000403874	0.000533582	209.898
17	0.000533582	0.000704438	214.792
18	0.000704438	0.000929499	233.645
19	0.000929499	0.00122596	274.483
20	0.00122596	0.00161647	349.952
21	0.00161647	0.00213087	457.781
22	0.00213087	0.00280847	568.329
23	0.00280847	0.00370103	616.284
24	0.00370103	0.00487676	575.615
25	0.00487676	0.00642548	476.213
26	0.00642548	0.00846554	380.607
27	0.00846554	0.0111528	372.71
28	0.0111528	0.0146926	372.71
29	0.0146926	0.0193554	66619.8
30	0.0193554	0.0254974	66619.8
31	0.0254974	inf	66619.8
