0.000345417	-7655142.86	0,2.05504e-06,5.62084e-06,1.1808e-05,2.25437e-05,4.11715e-05,7.34936e-05,0.000129577,0.00022689,0.000395741,0.000688723,0.00119709,0.00207918,0.00360973,0.00626545,0.0108735,inf	596.599,596.599,726.242,813.489,864.509,796.126,768.012,769.901,773.924,788.849,803.863,809.262,766.099,615.797,615.797,615.797
0.000374673	-7653774.72	0,2.05504e-06,5.62084e-06,1.1808e-05,2.25437e-05,4.11715e-05,7.34936e-05,0.000129577,0.00022689,0.000395741,0.000688723,0.00119709,0.00207918,0.00360973,0.00626545,0.0108735,inf	492.08,492.08,671.044,817.675,921.629,801.246,757.861,763.901,768.038,789.231,811.294,827.173,762.013,533.79,533.79,533.79
0.000401463	-7652973.63	0,2.05504e-06,5.62084e-06,1.1808e-05,2.25437e-05,4.11715e-05,7.34936e-05,0.000129577,0.00022689,0.000395741,0.000688723,0.00119709,0.00207918,0.00360973,0.00626545,0.0108735,inf	436.292,436.292,625.227,809.04,962.047,802.201,752.02,764.209,767.206,790.258,814.149,841.974,767.665,489.115,489.115,489.115
0.000425717	-7652414.99	0,2.05504e-06,5.62084e-06,1.1808e-05,2.25437e-05,4.11715e-05,7.34936e-05,0.000129577,0.00022689,0.000395741,0.000688723,0.00119709,0.00207918,0.00360973,0.00626545,0.0108735,inf	409.135,409.135,589.116,794.798,990.33,799.644,747.745,767.257,768.794,791.415,813.611,852.552,776.731,462.183,462.183,462.183
0.000447607	-7651993.96	0,2.05504e-06,5.62084e-06,1.1808e-05,2.25437e-05,4.11715e-05,7.34936e-05,0.000129577,0.00022689,0.000395741,0.000688723,0.00119709,0.00207918,0.00360973,0.00626545,0.0108735,inf	399.124,399.124,561.398,779.457,1010.72,794.941,744.173,771.53,771.693,792.833,811.129,859.458,786.493,444.825,444.825,444.825
0.000467368	-7651664.87	0,2.05504e-06,5.62084e-06,1.1808e-05,2.25437e-05,4.11715e-05,7.34936e-05,0.000129577,0.00022689,0.000395741,0.000688723,0.00119709,0.00207918,0.00360973,0.00626545,0.0108735,inf	399.119,399.119,540.185,765.203,1026.19,789.124,740.955,776.225,775.25,794.577,807.719,863.566,795.814,433.092,433.092,433.092
0.000485238	-7651402.58	0,2.05504e-06,5.62084e-06,1.1808e-05,2.25437e-05,4.11715e-05,7.34936e-05,0.000129577,0.00022689,0.000395741,0.000688723,0.00119709,0.00207918,0.00360973,0.00626545,0.0108735,inf	404.678,404.678,523.683,752.915,1038.59,782.866,737.947,780.89,779.042,796.62,803.99,865.663,804.272,424.876,424.876,424.876
0.000501433	-7651190.97	0,2.05504e-06,5.62084e-06,1.1808e-05,2.25437e-05,4.11715e-05,7.34936e-05,0.000129577,0.00022689,0.000395741,0.000688723,0.00119709,0.00207918,0.00360973,0.00626545,0.0108735,inf	412.985,412.985,510.636,742.747,1049.09,776.6,735.108,785.293,782.8,798.893,800.278,866.362,811.761,418.961,418.961,418.961
0.000516141	-7651018.77	0,2.05504e-06,5.62084e-06,1.1808e-05,2.25437e-05,4.11715e-05,7.34936e-05,0.000129577,0.00022689,0.000395741,0.000688723,0.00119709,0.00207918,0.00360973,0.00626545,0.0108735,inf	422.311,422.311,500.038,734.538,1058.3,770.572,732.441,789.33,786.361,801.321,796.758,866.113,818.316,414.608,414.608,414.608
0.000529527	-7650877.67	0,2.05504e-06,5.62084e-06,1.1808e-05,2.25437e-05,4.11715e-05,7.34936e-05,0.000129577,0.00022689,0.000395741,0.000688723,0.00119709,0.00207918,0.00360973,0.00626545,0.0108735,inf	431.54,431.54,491.227,728.071,1066.66,764.936,729.971,792.972,789.634,803.836,793.507,865.232,824.026,411.347,411.347,411.347
0.000541734	-7650761.41	0,2.05504e-06,5.62084e-06,1.1808e-05,2.25437e-05,4.11715e-05,7.34936e-05,0.000129577,0.00022689,0.000395741,0.000688723,0.00119709,0.00207918,0.00360973,0.00626545,0.0108735,inf	440.203,440.203,483.729,723.036,1074.29,759.744,727.711,796.231,792.577,806.381,790.553,863.946,828.992,408.867,408.867,408.867
0.000552885	-7650665.16	0,2.05504e-06,5.62084e-06,1.1808e-05,2.25437e-05,4.11715e-05,7.34936e-05,0.000129577,0.00022689,0.000395741,0.000688723,0.00119709,0.00207918,0.00360973,0.00626545,0.0108735,inf	448.065,448.065,477.241,719.174,1081.34,755.021,725.68,799.139,795.176,808.913,787.893,862.409,833.315,406.957,406.957,406.957
0.000563088	-7650585.14	0,2.05504e-06,5.62084e-06,1.1808e-05,2.25437e-05,4.11715e-05,7.34936e-05,0.000129577,0.00022689,0.000395741,0.000688723,0.00119709,0.00207918,0.00360973,0.00626545,0.0108735,inf	455.033,455.033,471.543,716.26,1087.86,750.756,723.882,801.737,797.438,811.404,785.511,860.73,837.086,405.471,405.471,405.471
0.000572436	-7650518.35	0,2.05504e-06,5.62084e-06,1.1808e-05,2.25437e-05,4.11715e-05,7.34936e-05,0.000129577,0.00022689,0.000395741,0.000688723,0.00119709,0.00207918,0.00360973,0.00626545,0.0108735,inf	461.106,461.106,466.49,714.137,1093.89,746.919,722.318,804.067,799.379,813.829,783.386,858.985,840.385,404.303,404.303,404.303
0.000581013	-7650462.42	0,2.05504e-06,5.62084e-06,1.1808e-05,2.25437e-05,4.11715e-05,7.34936e-05,0.000129577,0.00022689,0.000395741,0.000688723,0.00119709,0.00207918,0.00360973,0.00626545,0.0108735,inf	466.431,466.431,461.926,712.603,1099.45,743.473,720.978,806.167,801.023,816.174,781.492,857.223,843.28,403.378,403.378,403.378
0.00058889	-7650415.44	0,2.05504e-06,5.62084e-06,1.1808e-05,2.25437e-05,4.11715e-05,7.34936e-05,0.000129577,0.00022689,0.000395741,0.000688723,0.00119709,0.00207918,0.00360973,0.00626545,0.0108735,inf	471.07,471.07,457.794,711.555,1104.5,740.371,719.849,808.069,802.392,818.431,779.807,855.48,845.829,402.64,402.64,402.64
0.000596133	-7650375.87	0,2.05504e-06,5.62084e-06,1.1808e-05,2.25437e-05,4.11715e-05,7.34936e-05,0.000129577,0.00022689,0.000395741,0.000688723,0.00119709,0.00207918,0.00360973,0.00626545,0.0108735,inf	475.119,475.119,454.045,710.921,1109.1,737.593,718.92,809.807,803.513,820.593,778.306,853.78,848.083,402.048,402.048,402.048
0.000602798	-7650342.44	0,2.05504e-06,5.62084e-06,1.1808e-05,2.25437e-05,4.11715e-05,7.34936e-05,0.000129577,0.00022689,0.000395741,0.000688723,0.00119709,0.00207918,0.00360973,0.00626545,0.0108735,inf	478.671,478.671,450.621,710.6,1113.25,735.085,718.173,811.405,804.41,822.66,776.97,852.136,850.081,401.569,401.569,401.569
0.000608937	-7650314.14	0,2.05504e-06,5.62084e-06,1.1808e-05,2.25437e-05,4.11715e-05,7.34936e-05,0.000129577,0.00022689,0.000395741,0.000688723,0.00119709,0.00207918,0.00360973,0.00626545,0.0108735,inf	481.761,481.761,447.459,710.536,1116.99,732.822,717.588,812.886,805.108,824.63,775.779,850.559,851.859,401.181,401.181,401.181
0.000614595	-7650290.13	0,2.05504e-06,5.62084e-06,1.1808e-05,2.25437e-05,4.11715e-05,7.34936e-05,0.000129577,0.00022689,0.000395741,0.000688723,0.00119709,0.00207918,0.00360973,0.00626545,0.0108735,inf	484.525,484.525,444.545,710.708,1120.32,730.771,717.15,814.267,805.628,826.505,774.718,849.052,853.447,400.865,400.865,400.865
