time_index	left_time_boundary	right_time_boundary	lambda
0	0	2.05504e-06	484.525
1	2.05504e-06	5.62084e-06	484.525
2	5.62084e-06	1.1808e-05	444.545
3	1.1808e-05	2.25437e-05	710.708
4	2.25437e-05	4.11715e-05	1120.32
5	4.11715e-05	7.34936e-05	730.771
6	7.34936e-05	0.000129577	717.15
7	0.000129577	0.00022689	814.267
8	0.00022689	0.000395741	805.628
9	0.000395741	0.000688723	826.505
10	0.000688723	0.00119709	774.718
11	0.00119709	0.00207918	849.052
12	0.00207918	0.00360973	853.447
13	0.00360973	0.00626545	400.865
14	0.00626545	0.0108735	400.865
15	0.0108735	inf	400.865
