time_index	left_time_boundary	right_time_boundary	lambda
0	0	9.65745e-05	692.278
1	9.65745e-05	0.000228719	692.278
2	0.000228719	0.000409534	167.667
3	0.000409534	0.000656946	411.23
4	0.000656946	0.000995483	401.305
5	0.000995483	0.00145871	288.578
6	0.00145871	0.00209255	440.008
7	0.00209255	0.00295984	437.802
8	0.00295984	0.00414657	281.115
9	0.00414657	0.00577038	367.309
10	0.00577038	0.00799228	436.533
11	0.00799228	0.0110325	231.389
12	0.0110325	0.0151925	149.215
13	0.0151925	0.0208848	446.831
14	0.0208848	0.0286735	446.831
15	0.0286735	inf	446.831
