time_index	left_time_boundary	right_time_boundary	lambda
0	0	4.16252e-06	292.328
1	4.16252e-06	1.13851e-05	292.328
2	1.13851e-05	2.39173e-05	1777.56
3	2.39173e-05	4.56625e-05	209.931
4	4.56625e-05	8.33934e-05	466.193
5	8.33934e-05	0.000148862	394.105
6	0.000148862	0.00026246	336.943
7	0.00026246	0.000459568	484.697
8	0.000459568	0.000801579	356.699
9	0.000801579	0.00139502	374.229
10	0.00139502	0.00242472	389.394
11	0.00242472	0.0042114	328.73
12	0.0042114	0.00731155	456.676
13	0.00731155	0.0126907	255.182
14	0.0126907	0.0220244	255.182
15	0.0220244	inf	255.182
