time_index	left_time_boundary	right_time_boundary	lambda
0	0	1.0206e-05	1088.93
1	1.0206e-05	2.674e-05	1088.93
2	2.674e-05	5.35257e-05	110.193
3	5.35257e-05	9.69193e-05	723.75
4	9.69193e-05	0.000167218	167.97
5	0.000167218	0.000281105	336.493
6	0.000281105	0.000465605	484.743
7	0.000465605	0.000764501	343.083
8	0.000764501	0.00124872	380.39
9	0.00124872	0.00203317	382.921
10	0.00203317	0.00330401	348.527
11	0.00330401	0.00536281	406.43
12	0.00536281	0.00869813	380.837
13	0.00869813	0.0141014	223.803
14	0.0141014	0.022855	223.803
15	0.022855	inf	223.803
