0.000135502	-89995.50	0,9.77624e-06,2.1212e-05,3.4589e-05,5.02367e-05,6.85406e-05,8.99516e-05,0.000114997,0.000144294,0.000178564,0.000218652,0.000265544,0.000320396,0.00038456,0.000459615,0.000547411,0.00065011,0.000770243,0.000910768,0.00107515,0.00126743,0.00149235,0.00175545,0.00206322,0.00242323,0.00284434,0.00333695,0.00391317,0.00458721,0.00537566,0.00629796,0.00737681,inf	41.4324,41.4324,87.4089,133.36,188.184,254.498,336.2,439.36,573.516,753.049,998.691,1339.28,1803.87,2364.69,2841.93,3051.21,3028.87,2879.92,2690.29,2508.68,2359.4,2251.46,2176.36,2118.34,2067.77,2021.8,1979.78,1932.31,1932.31,1856.26,1856.26,1856.26
0.000136147	-89686.72	0,9.77624e-06,2.1212e-05,3.4589e-05,5.02367e-05,6.85406e-05,8.99516e-05,0.000114997,0.000144294,0.000178564,0.000218652,0.000265544,0.000320396,0.00038456,0.000459615,0.000547411,0.00065011,0.000770243,0.000910768,0.00107515,0.00126743,0.00149235,0.00175545,0.00206322,0.00242323,0.00284434,0.00333695,0.00391317,0.00458721,0.00537566,0.00629796,0.00737681,inf	1.73635,1.73635,5.46186,12.8567,25.8386,47.5097,82.7837,139.673,231.491,380.027,619.666,1004.11,1611.06,2494.56,3481.43,4128.14,4285.28,4077.1,3691.49,3288.21,2961.57,2742.88,2605.12,2502.57,2409.88,2321.97,2239.52,2144.46,2144.46,1991.96,1991.96,1991.96
0.000138345	-89575.94	0,9.77624e-06,2.1212e-05,3.4589e-05,5.02367e-05,6.85406e-05,8.99516e-05,0.000114997,0.000144294,0.000178564,0.000218652,0.000265544,0.000320396,0.00038456,0.000459615,0.000547411,0.00065011,0.000770243,0.000910768,0.00107515,0.00126743,0.00149235,0.00175545,0.00206322,0.00242323,0.00284434,0.00333695,0.00391317,0.00458721,0.00537566,0.00629796,0.00737681,inf	1.73635,1.73635,1.73635,1.73635,3.85757,9.64524,22.1555,48.1468,100.751,204.528,402.322,764.902,1403.23,2444.24,3814.91,4934.37,5389.57,5214.35,4640.64,3989.21,3475.34,3160.02,2985.1,2861.96,2743.67,2623.79,2506.85,2367.7,2367.7,2142.61,2142.61,2142.61
0.00014073	-89524.94	0,9.77624e-06,2.1212e-05,3.4589e-05,5.02367e-05,6.85406e-05,8.99516e-05,0.000114997,0.000144294,0.000178564,0.000218652,0.000265544,0.000320396,0.00038456,0.000459615,0.000547411,0.00065011,0.000770243,0.000910768,0.00107515,0.00126743,0.00149235,0.00175545,0.00206322,0.00242323,0.00284434,0.00333695,0.00391317,0.00458721,0.00537566,0.00629796,0.00737681,inf	1.73635,1.73635,1.73635,1.73635,1.73635,2.08698,6.30758,17.6005,46.2882,115.408,271.112,596.074,1225.99,2342.7,3988.76,5549.01,6348.78,6264.38,5495.75,4572.07,3872.84,3481.86,3297.68,3180.91,3057.47,2918.97,2776.03,2598.18,2598.18,2305.08,2305.08,2305.08
0.000142988	-89497.38	0,9.77624e-06,2.1212e-05,3.4589e-05,5.02367e-05,6.85406e-05,8.99516e-05,0.000114997,0.000144294,0.000178564,0.000218652,0.000265544,0.000320396,0.00038456,0.000459615,0.000547411,0.00065011,0.000770243,0.000910768,0.00107515,0.00126743,0.00149235,0.00175545,0.00206322,0.00242323,0.00284434,0.00333695,0.00391317,0.00458721,0.00537566,0.00629796,0.00737681,inf	1.73635,1.73635,1.73635,1.73635,1.73635,1.73635,1.89089,6.75339,22.2227,67.6542,188.367,474.33,1080.78,2232.14,4078.67,6036.69,7192.56,7226.93,6239.51,5024.66,4152.27,3707.37,3537.04,3450.82,3343.24,3201.33,3042.65,2833.38,2833.38,2477.26,2477.26,2477.26
0.000145058	-89480.71	0,9.77624e-06,2.1212e-05,3.4589e-05,5.02367e-05,6.85406e-05,8.99516e-05,0.000114997,0.000144294,0.000178564,0.000218652,0.000265544,0.000320396,0.00038456,0.000459615,0.000547411,0.00065011,0.000770243,0.000910768,0.00107515,0.00126743,0.00149235,0.00175545,0.00206322,0.00242323,0.00284434,0.00333695,0.00391317,0.00458721,0.00537566,0.00629796,0.00737681,inf	1.73635,1.73635,1.73635,1.73635,1.73635,1.73635,1.73635,2.70044,11.0734,40.9464,134.254,384.299,961.882,2126.1,4122.26,6438.65,7947.24,8108.09,6867.43,5353.17,4328.37,3848.55,3707.24,3669.11,3595.99,3466.47,3303.25,3069.58,3069.58,2660.8,2660.8,2660.8
0.000146943	-89469.77	0,9.77624e-06,2.1212e-05,3.4589e-05,5.02367e-05,6.85406e-05,8.99516e-05,0.000114997,0.000144294,0.000178564,0.000218652,0.000265544,0.000320396,0.00038456,0.000459615,0.000547411,0.00065011,0.000770243,0.000910768,0.00107515,0.00126743,0.00149235,0.00175545,0.00206322,0.00242323,0.00284434,0.00333695,0.00391317,0.00458721,0.00537566,0.00629796,0.00737681,inf	1.73635,1.73635,1.73635,1.73635,1.73635,1.73635,1.73635,1.73635,5.69684,25.4661,97.7711,316.15,863.538,2028.27,4139.29,6781.3,8632.88,8914.58,7382.93,5574.65,4423.33,3923.33,3818,3837.79,3813.75,3711,3554.47,3306.57,3306.57,2853.07,2853.07,2853.07
0.000148664	-89462.14	0,9.77624e-06,2.1212e-05,3.4589e-05,5.02367e-05,6.85406e-05,8.99516e-05,0.000114997,0.000144294,0.000178564,0.000218652,0.000265544,0.000320396,0.00038456,0.000459615,0.000547411,0.00065011,0.000770243,0.000910768,0.00107515,0.00126743,0.00149235,0.00175545,0.00206322,0.00242323,0.00284434,0.00333695,0.00391317,0.00458721,0.00537566,0.00629796,0.00737681,inf	1.73635,1.73635,1.73635,1.73635,1.73635,1.73635,1.73635,1.73635,3.01361,16.2157,72.5314,263.514,781.299,1939.55,4140.29,7079.98,9263.02,9651.47,7793.84,5709.99,4459.44,3949.83,3881.38,3961.97,3996.24,3932.83,3795.6,3541.68,3541.68,3076.5,3076.5,3076.5
0.000150243	-89456.56	0,9.77624e-06,2.1212e-05,3.4589e-05,5.02367e-05,6.85406e-05,8.99516e-05,0.000114997,0.000144294,0.000178564,0.000218652,0.000265544,0.000320396,0.00038456,0.000459615,0.000547411,0.00065011,0.000770243,0.000910768,0.00107515,0.00126743,0.00149235,0.00175545,0.00206322,0.00242323,0.00284434,0.00333695,0.00391317,0.00458721,0.00537566,0.00629796,0.00737681,inf	1.73635,1.73635,1.73635,1.73635,1.73635,1.73635,1.73635,1.73635,1.73635,10.5401,54.6788,222.139,711.719,1859.4,4131.43,7345.44,9847.91,10323.3,8111.37,5780.17,4455.96,3943.78,3909.28,4048.28,4145.33,4129.75,4023.99,3779.37,3779.37,3250.32,3250.32,3250.32
0.0001517	-89452.32	0,9.77624e-06,2.1212e-05,3.4589e-05,5.02367e-05,6.85406e-05,8.99516e-05,0.000114997,0.000144294,0.000178564,0.000218652,0.000265544,0.000320396,0.00038456,0.000459615,0.000547411,0.00065011,0.000770243,0.000910768,0.00107515,0.00126743,0.00149235,0.00175545,0.00206322,0.00242323,0.00284434,0.00333695,0.00391317,0.00458721,0.00537566,0.00629796,0.00737681,inf	1.73635,1.73635,1.73635,1.73635,1.73635,1.73635,1.73635,1.73635,1.73635,6.97731,41.8064,189.116,652.212,1786.92,4116.42,7585.01,10395.1,10933.8,8348.14,5803.47,4427.74,3917.33,3912.04,4103.84,4263.93,4303.44,4238.42,4017.72,4017.72,3420.98,3420.98,3420.98
0.000153051	-89449.03	0,9.77624e-06,2.1212e-05,3.4589e-05,5.02367e-05,6.85406e-05,8.99516e-05,0.000114997,0.000144294,0.000178564,0.000218652,0.000265544,0.000320396,0.00038456,0.000459615,0.000547411,0.00065011,0.000770243,0.000910768,0.00107515,0.00126743,0.00149235,0.00175545,0.00206322,0.00242323,0.00284434,0.00333695,0.00391317,0.00458721,0.00537566,0.00629796,0.00737681,inf	1.73635,1.73635,1.73635,1.73635,1.73635,1.73635,1.73635,1.73635,1.73635,4.69408,32.3649,162.399,600.813,1721.17,4097.56,7803.84,10910.3,11486.3,8517.02,5794.64,4385.38,3879.24,3897.83,4135.32,4355.3,4454.26,4439.13,4246.56,4246.56,3705.04,3705.04,3705.04
0.00015431	-89446.40	0,9.77624e-06,2.1212e-05,3.4589e-05,5.02367e-05,6.85406e-05,8.99516e-05,0.000114997,0.000144294,0.000178564,0.000218652,0.000265544,0.000320396,0.00038456,0.000459615,0.000547411,0.00065011,0.000770243,0.000910768,0.00107515,0.00126743,0.00149235,0.00175545,0.00206322,0.00242323,0.00284434,0.00333695,0.00391317,0.00458721,0.00537566,0.00629796,0.00737681,inf	1.73635,1.73635,1.73635,1.73635,1.73635,1.73635,1.73635,1.73635,1.73635,3.20425,25.3362,140.53,556.028,1661.3,4076.34,8005.73,11397.8,11983.9,8630.17,5764.84,4336.13,3835.47,3872.95,4148.49,4423.26,4581.89,4626.97,4472.55,4472.55,3815.02,3815.02,3815.02
0.00015549	-89444.25	0,9.77624e-06,2.1212e-05,3.4589e-05,5.02367e-05,6.85406e-05,8.99516e-05,0.000114997,0.000144294,0.000178564,0.000218652,0.000265544,0.000320396,0.00038456,0.000459615,0.000547411,0.00065011,0.000770243,0.000910768,0.00107515,0.00126743,0.00149235,0.00175545,0.00206322,0.00242323,0.00284434,0.00333695,0.00391317,0.00458721,0.00537566,0.00629796,0.00737681,inf	1.73635,1.73635,1.73635,1.73635,1.73635,1.73635,1.73635,1.73635,1.73635,2.21633,20.0337,122.441,516.703,1606.57,4053.72,8193.47,11861,12429.3,8698.57,5722.26,4284.66,3790,3841.89,4148.11,4472.04,4689.75,4796.87,4694.69,4694.69,3814.74,3814.74,3814.74
0.0001566	-89442.47	0,9.77624e-06,2.1212e-05,3.4589e-05,5.02367e-05,6.85406e-05,8.99516e-05,0.000114997,0.000144294,0.000178564,0.000218652,0.000265544,0.000320396,0.00038456,0.000459615,0.000547411,0.00065011,0.000770243,0.000910768,0.00107515,0.00126743,0.00149235,0.00175545,0.00206322,0.00242323,0.00284434,0.00333695,0.00391317,0.00458721,0.00537566,0.00629796,0.00737681,inf	1.73635,1.73635,1.73635,1.73635,1.73635,1.73635,1.73635,1.73635,1.73635,1.73635,15.9853,107.34,481.93,1556.35,4030.34,8369.19,12302.7,12825.4,8731.75,5672.57,4233.94,3745.35,3807.81,4138.28,4504.75,4778.45,4949,4911.54,4911.54,3853.38,3853.38,3853.38
0.000157648	-89440.97	0,9.77624e-06,2.1212e-05,3.4589e-05,5.02367e-05,6.85406e-05,8.99516e-05,0.000114997,0.000144294,0.000178564,0.000218652,0.000265544,0.000320396,0.00038456,0.000459615,0.000547411,0.00065011,0.000770243,0.000910768,0.00107515,0.00126743,0.00149235,0.00175545,0.00206322,0.00242323,0.00284434,0.00333695,0.00391317,0.00458721,0.00537566,0.00629796,0.00737681,inf	1.73635,1.73635,1.73635,1.73635,1.73635,1.73635,1.73635,1.73635,1.73635,1.73635,12.8606,94.6254,450.984,1510.06,4006.62,8534.57,12725,13175,8737.77,5619.71,4185.49,3702.84,3772.85,4121.89,4523.38,4848.91,5086.95,5127.37,5127.37,4051.4,4051.4,4051.4
0.000158641	-89439.71	0,9.77624e-06,2.1212e-05,3.4589e-05,5.02367e-05,6.85406e-05,8.99516e-05,0.000114997,0.000144294,0.000178564,0.000218652,0.000265544,0.000320396,0.00038456,0.000459615,0.000547411,0.00065011,0.000770243,0.000910768,0.00107515,0.00126743,0.00149235,0.00175545,0.00206322,0.00242323,0.00284434,0.00333695,0.00391317,0.00458721,0.00537566,0.00629796,0.00737681,inf	1.73635,1.73635,1.73635,1.73635,1.73635,1.73635,1.73635,1.73635,1.73635,1.73635,10.4247,83.8375,423.279,1467.24,3982.86,8690.93,13129.8,13481.1,8723.25,5566.2,4140.3,3663.3,3738.47,4101.14,4532.37,4904.45,5203.14,5333.11,5333.11,4643.94,4643.94,4643.94
0.000159584	-89438.61	0,9.77624e-06,2.1212e-05,3.4589e-05,5.02367e-05,6.85406e-05,8.99516e-05,0.000114997,0.000144294,0.000178564,0.000218652,0.000265544,0.000320396,0.00038456,0.000459615,0.000547411,0.00065011,0.000770243,0.000910768,0.00107515,0.00126743,0.00149235,0.00175545,0.00206322,0.00242323,0.00284434,0.00333695,0.00391317,0.00458721,0.00537566,0.00629796,0.00737681,inf	1.73635,1.73635,1.73635,1.73635,1.73635,1.73635,1.73635,1.73635,1.73635,1.73635,8.50838,74.6216,398.352,1427.5,3959.24,8839.37,13518.6,13746.6,8693.52,5513.74,4098.66,3627.08,3705.42,4078.29,4534,4948.2,5307.27,5507.03,5507.03,4986.39,4986.39,4986.39
0.000160483	-89437.67	0,9.77624e-06,2.1212e-05,3.4589e-05,5.02367e-05,6.85406e-05,8.99516e-05,0.000114997,0.000144294,0.000178564,0.000218652,0.000265544,0.000320396,0.00038456,0.000459615,0.000547411,0.00065011,0.000770243,0.000910768,0.00107515,0.00126743,0.00149235,0.00175545,0.00206322,0.00242323,0.00284434,0.00333695,0.00391317,0.00458721,0.00537566,0.00629796,0.00737681,inf	1.73635,1.73635,1.73635,1.73635,1.73635,1.73635,1.73635,1.73635,1.73635,1.73635,6.9887,66.6999,375.818,1390.5,3935.92,8980.75,13892.6,13974.3,8652.83,5463.3,4060.74,3594.26,3674.38,4054.07,4528.86,4978.98,5391.46,5710.18,5710.18,4903.88,4903.88,4903.88
0.000161341	-89436.84	0,9.77624e-06,2.1212e-05,3.4589e-05,5.02367e-05,6.85406e-05,8.99516e-05,0.000114997,0.000144294,0.000178564,0.000218652,0.000265544,0.000320396,0.00038456,0.000459615,0.000547411,0.00065011,0.000770243,0.000910768,0.00107515,0.00126743,0.00149235,0.00175545,0.00206322,0.00242323,0.00284434,0.00333695,0.00391317,0.00458721,0.00537566,0.00629796,0.00737681,inf	1.73635,1.73635,1.73635,1.73635,1.73635,1.73635,1.73635,1.73635,1.73635,1.73635,5.77422,59.8509,355.361,1355.93,3912.99,9115.8,14252.8,14167.2,8604.52,5415.44,4026.38,3564.63,3645.58,4029.45,4519.31,5000.92,5469.94,5887.22,5887.22,4882.81,4882.81,4882.81
0.000162163	-89436.10	0,9.77624e-06,2.1212e-05,3.4589e-05,5.02367e-05,6.85406e-05,8.99516e-05,0.000114997,0.000144294,0.000178564,0.000218652,0.000265544,0.000320396,0.00038456,0.000459615,0.000547411,0.00065011,0.000770243,0.000910768,0.00107515,0.00126743,0.00149235,0.00175545,0.00206322,0.00242323,0.00284434,0.00333695,0.00391317,0.00458721,0.00537566,0.00629796,0.00737681,inf	1.73635,1.73635,1.73635,1.73635,1.73635,1.73635,1.73635,1.73635,1.73635,1.73635,4.79696,53.899,336.716,1323.57,3890.49,9245.14,14600.3,14328.3,8551.15,5370.42,3995.29,3538.04,3619.06,4005.22,4506.53,5014.43,5532,6044.43,6044.43,4559.62,4559.62,4559.62
