0.00032808	-7604845.23	0,2.04519e-06,5.5939e-06,1.17514e-05,2.24356e-05,4.09742e-05,7.31413e-05,0.000128956,0.000225802,0.000393844,0.000685422,0.00119135,0.00206921,0.00359242,0.00623542,0.0108214,inf	564.108,564.108,541.76,709.854,800.746,775.762,790.931,792.894,786.433,804.965,834.08,819.309,809.798,936.225,936.225,936.225
0.000339358	-7604752.50	0,2.04519e-06,5.5939e-06,1.17514e-05,2.24356e-05,4.09742e-05,7.31413e-05,0.000128956,0.000225802,0.000393844,0.000685422,0.00119135,0.00206921,0.00359242,0.00623542,0.0108214,inf	518.588,518.588,415.054,665.981,818.494,762.278,789.795,791.7,773.769,800.166,849.679,822.481,802.02,1068.72,1068.72,1068.72
0.00034834	-7604827.08	0,2.04519e-06,5.5939e-06,1.17514e-05,2.24356e-05,4.09742e-05,7.31413e-05,0.000128956,0.000225802,0.000393844,0.000685422,0.00119135,0.00206921,0.00359242,0.00623542,0.0108214,inf	531.496,531.496,336.455,638.916,839.29,751.386,791.778,794.903,765.025,794.582,859.106,820.36,786.419,1199.71,1199.71,1199.71
0.000355753	-7604962.46	0,2.04519e-06,5.5939e-06,1.17514e-05,2.24356e-05,4.09742e-05,7.31413e-05,0.000128956,0.000225802,0.000393844,0.000685422,0.00119135,0.00206921,0.00359242,0.00623542,0.0108214,inf	563.947,563.947,280.067,619.32,858.812,740.313,794.106,800.088,759.144,789.775,866.363,817.081,767.67,1333.06,1333.06,1333.06
0.000361997	-7605129.87	0,2.04519e-06,5.5939e-06,1.17514e-05,2.24356e-05,4.09742e-05,7.31413e-05,0.000128956,0.000225802,0.000393844,0.000685422,0.00119135,0.00206921,0.00359242,0.00623542,0.0108214,inf	600.236,600.236,236.366,604.114,876.44,728.723,795.839,805.881,755.01,785.689,872.647,814.016,747.785,1473.7,1473.7,1473.7
0.000367321	-7605319.70	0,2.04519e-06,5.5939e-06,1.17514e-05,2.24356e-05,4.09742e-05,7.31413e-05,0.000128956,0.000225802,0.000393844,0.000685422,0.00119135,0.00206921,0.00359242,0.00623542,0.0108214,inf	634.193,634.193,201.189,592.054,892.529,716.963,796.857,811.675,751.945,782.078,878.311,811.545,727.603,1628.75,1628.75,1628.75
0.000371888	-7605530.66	0,2.04519e-06,5.5939e-06,1.17514e-05,2.24356e-05,4.09742e-05,7.31413e-05,0.000128956,0.000225802,0.000393844,0.000685422,0.00119135,0.00206921,0.00359242,0.00623542,0.0108214,inf	663.563,663.563,172.288,582.398,907.491,705.408,797.286,817.239,749.586,778.771,883.458,809.675,707.404,1809.63,1809.63,1809.63
0.000375818	-7605767.27	0,2.04519e-06,5.5939e-06,1.17514e-05,2.24356e-05,4.09742e-05,7.31413e-05,0.000128956,0.000225802,0.000393844,0.000685422,0.00119135,0.00206921,0.00359242,0.00623542,0.0108214,inf	688.219,688.219,148.242,574.552,921.586,694.304,797.282,822.494,747.736,775.676,888.13,808.259,687.175,2037.07,2037.07,2037.07
0.000379195	-7606040.27	0,2.04519e-06,5.5939e-06,1.17514e-05,2.24356e-05,4.09742e-05,7.31413e-05,0.000128956,0.000225802,0.000393844,0.000685422,0.00119135,0.00206921,0.00359242,0.00623542,0.0108214,inf	708.596,708.596,128.055,568.043,934.969,683.776,796.967,827.421,746.29,772.759,892.362,807.057,666.708,2354.38,2354.38,2354.38
0.000382083	-7606369.52	0,2.04519e-06,5.5939e-06,1.17514e-05,2.24356e-05,4.09742e-05,7.31413e-05,0.000128956,0.000225802,0.000393844,0.000685422,0.00119135,0.00206921,0.00359242,0.00623542,0.0108214,inf	725.395,725.395,110.986,562.535,947.708,673.881,796.432,832.026,745.188,770.029,896.196,805.728,645.614,2868.38,2868.38,2868.38
0.00038454	-7606789.21	0,2.04519e-06,5.5939e-06,1.17514e-05,2.24356e-05,4.09742e-05,7.31413e-05,0.000128956,0.000225802,0.000393844,0.000685422,0.00119135,0.00206921,0.00359242,0.00623542,0.0108214,inf	739.346,739.346,96.4375,557.779,959.888,664.63,795.739,836.331,744.408,767.528,899.686,803.751,623.281,3881.1,3881.1,3881.1
0.000386677	-7607331.17	0,2.04519e-06,5.5939e-06,1.17514e-05,2.24356e-05,4.09742e-05,7.31413e-05,0.000128956,0.000225802,0.000393844,0.000685422,0.00119135,0.00206921,0.00359242,0.00623542,0.0108214,inf	750.8,750.8,84.014,553.618,971.622,656.028,794.952,840.377,743.961,765.338,902.925,800.395,598.938,6491.8,6491.8,6491.8
0.000388511	-7607900.84	0,2.04519e-06,5.5939e-06,1.17514e-05,2.24356e-05,4.09742e-05,7.31413e-05,0.000128956,0.000225802,0.000393844,0.000685422,0.00119135,0.00206921,0.00359242,0.00623542,0.0108214,inf	760.334,760.334,73.3276,549.858,982.864,647.985,794.015,844.11,743.774,763.482,905.993,794.994,572.423,72678.5,72678.5,72678.5
0.000388511	-7608719.40	0,2.04519e-06,5.5939e-06,1.17514e-05,2.24356e-05,4.09742e-05,7.31413e-05,0.000128956,0.000225802,0.000393844,0.000685422,0.00119135,0.00206921,0.00359242,0.00623542,0.0108214,inf	767.606,767.606,64.0847,546.042,992.915,639.944,792.186,846.779,743.133,760.932,906.111,782.744,542.99,100089,100089,100089
0.000388511	-7608634.72	0,2.04519e-06,5.5939e-06,1.17514e-05,2.24356e-05,4.09742e-05,7.31413e-05,0.000128956,0.000225802,0.000393844,0.000685422,0.00119135,0.00206921,0.00359242,0.00623542,0.0108214,inf	767.606,767.606,56.0973,542.172,997.799,632.527,790.235,848.967,742.795,759.895,907.089,777.226,517.934,100095,100095,100095
0.000388511	-7608553.57	0,2.04519e-06,5.5939e-06,1.17514e-05,2.24356e-05,4.09742e-05,7.31413e-05,0.000128956,0.000225802,0.000393844,0.000685422,0.00119135,0.00206921,0.00359242,0.00623542,0.0108214,inf	767.611,767.611,49.3297,539.415,1001.55,626.249,788.641,849.016,742.269,759.27,907.089,776.278,496.232,100099,100099,100099
0.000388511	-7608489.54	0,2.04519e-06,5.5939e-06,1.17514e-05,2.24356e-05,4.09742e-05,7.31413e-05,0.000128956,0.000225802,0.000393844,0.000685422,0.00119135,0.00206921,0.00359242,0.00623542,0.0108214,inf	767.616,767.616,43.5625,537.786,1004.41,621.31,787.906,851.079,741.961,758.993,907.089,776.429,477.126,100103,100103,100103
0.000388511	-7608437.07	0,2.04519e-06,5.5939e-06,1.17514e-05,2.24356e-05,4.09742e-05,7.31413e-05,0.000128956,0.000225802,0.000393844,0.000685422,0.00119135,0.00206921,0.00359242,0.00623542,0.0108214,inf	767.622,767.622,38.5928,536.855,1006.59,617.047,787.212,852.689,741.453,758.795,907.41,776.429,460.167,100107,100107,100107
0.000388511	-7608393.66	0,2.04519e-06,5.5939e-06,1.17514e-05,2.24356e-05,4.09742e-05,7.31413e-05,0.000128956,0.000225802,0.000393844,0.000685422,0.00119135,0.00206921,0.00359242,0.00623542,0.0108214,inf	767.622,767.622,34.2812,536.415,1006.62,613.403,786.637,854,740.822,758.608,907.833,776.429,445.035,100110,100110,100110
0.000388511	-7608357.45	0,2.04519e-06,5.5939e-06,1.17514e-05,2.24356e-05,4.09742e-05,7.31413e-05,0.000128956,0.000225802,0.000393844,0.000685422,0.00119135,0.00206921,0.00359242,0.00623542,0.0108214,inf	767.626,767.626,30.5265,536.741,1007.68,610.441,786.254,855.142,740.114,758.433,908.174,776.433,431.467,100113,100113,100113
