0.000709331	-18327781.49	0,9.83467e-06,2.19992e-05,3.70455e-05,5.56563e-05,7.8676e-05,0.000107149,0.000142368,0.000185929,0.000239811,0.000306457,0.000388892,0.000490856,0.000616976,0.000772973,0.000965926,0.00120459,0.00149979,0.00186493,0.00231657,0.00287521,0.00356618,0.00442085,0.00547799,0.00678557,0.00840292,0.0104034,0.0128778,0.0159385,0.0197241,0.0244067,0.0301985,inf	358.123,358.123,377.077,367.164,365.265,361.951,355.254,348.679,344.745,343.842,345.401,349.169,354.805,362.091,371.325,382.545,395.138,407.803,418.512,425.563,428.297,426.97,422.954,417.707,411.827,405.817,401.341,402.644,402.644,432.172,432.172,432.172
0.000791488	-18319285.91	0,9.83467e-06,2.19992e-05,3.70455e-05,5.56563e-05,7.8676e-05,0.000107149,0.000142368,0.000185929,0.000239811,0.000306457,0.000388892,0.000490856,0.000616976,0.000772973,0.000965926,0.00120459,0.00149979,0.00186493,0.00231657,0.00287521,0.00356618,0.00442085,0.00547799,0.00678557,0.00840292,0.0104034,0.0128778,0.0159385,0.0197241,0.0244067,0.0301985,inf	349.615,349.615,387.227,370.068,368.932,363.671,351.187,338.647,330.663,327.641,328.442,332.594,339.411,348.524,360.539,375.659,393.153,411.277,427.078,437.915,442.539,440.927,434.891,426.509,416.628,406.253,398.688,402.131,402.131,462.919,462.919,462.919
0.00086875	-18313100.50	0,9.83467e-06,2.19992e-05,3.70455e-05,5.56563e-05,7.8676e-05,0.000107149,0.000142368,0.000185929,0.000239811,0.000306457,0.000388892,0.000490856,0.000616976,0.000772973,0.000965926,0.00120459,0.00149979,0.00186493,0.00231657,0.00287521,0.00356618,0.00442085,0.00547799,0.00678557,0.00840292,0.0104034,0.0128778,0.0159385,0.0197241,0.0244067,0.0301985,inf	339.916,339.916,394.548,373.064,375.753,370.816,354.525,337.835,327.18,322.798,322.997,327.107,334.096,343.509,356.248,372.696,392.153,412.728,431.02,443.911,449.786,448.274,441.23,430.908,418.199,404.577,394.862,400.819,400.819,494.179,494.179,494.179
0.000941515	-18308239.86	0,9.83467e-06,2.19992e-05,3.70455e-05,5.56563e-05,7.8676e-05,0.000107149,0.000142368,0.000185929,0.000239811,0.000306457,0.000388892,0.000490856,0.000616976,0.000772973,0.000965926,0.00120459,0.00149979,0.00186493,0.00231657,0.00287521,0.00356618,0.00442085,0.00547799,0.00678557,0.00840292,0.0104034,0.0128778,0.0159385,0.0197241,0.0244067,0.0301985,inf	329.274,329.274,396.513,372.034,380.142,376.956,358.389,339.052,326.947,322.021,322.071,326.232,333.14,342.312,354.943,371.597,391.661,413.216,432.639,446.582,453.225,451.9,444.343,432.756,417.963,401.856,390.619,399.209,399.209,526.418,526.418,526.418
0.00101021	-18304286.89	0,9.83467e-06,2.19992e-05,3.70455e-05,5.56563e-05,7.8676e-05,0.000107149,0.000142368,0.000185929,0.000239811,0.000306457,0.000388892,0.000490856,0.000616976,0.000772973,0.000965926,0.00120459,0.00149979,0.00186493,0.00231657,0.00287521,0.00356618,0.00442085,0.00547799,0.00678557,0.00840292,0.0104034,0.0128778,0.0159385,0.0197241,0.0244067,0.0301985,inf	320.046,320.046,395.127,367.884,381.852,381.024,361.138,340.215,327.55,322.709,323.013,327.407,334.206,342.948,355.116,371.456,391.465,413.246,433.064,447.472,454.549,453.396,445.569,433.113,416.721,398.664,386.332,397.545,397.545,560.087,560.087,560.087
0.00107521	-18301006.11	0,9.83467e-06,2.19992e-05,3.70455e-05,5.56563e-05,7.8676e-05,0.000107149,0.000142368,0.000185929,0.000239811,0.000306457,0.000388892,0.000490856,0.000616976,0.000772973,0.000965926,0.00120459,0.00149979,0.00186493,0.00231657,0.00287521,0.00356618,0.00442085,0.00547799,0.00678557,0.00840292,0.0104034,0.0128778,0.0159385,0.0197241,0.0244067,0.0301985,inf	313.361,313.361,392.476,362.249,381.89,383.474,362.761,340.917,328.271,323.935,324.78,329.55,336.265,344.513,356.064,371.841,391.462,413.071,432.876,447.4,454.687,453.659,445.684,432.598,414.937,395.311,382.182,395.943,395.943,595.673,595.673,595.673
0.00113685	-18298244.74	0,9.83467e-06,2.19992e-05,3.70455e-05,5.56563e-05,7.8676e-05,0.000107149,0.000142368,0.000185929,0.000239811,0.000306457,0.000388892,0.000490856,0.000616976,0.000772973,0.000965926,0.00120459,0.00149979,0.00186493,0.00231657,0.00287521,0.00356618,0.00442085,0.00547799,0.00678557,0.00840292,0.0104034,0.0128778,0.0159385,0.0197241,0.0244067,0.0301985,inf	309.264,309.264,389.786,356.271,381.151,384.926,363.57,341.189,328.916,325.34,326.908,332.149,338.804,346.543,357.414,372.514,391.584,412.81,432.375,446.811,454.158,453.206,445.143,431.578,412.879,391.966,378.249,394.456,394.456,633.75,633.75,633.75
0.0011954	-18295895.46	0,9.83467e-06,2.19992e-05,3.70455e-05,5.56563e-05,7.8676e-05,0.000107149,0.000142368,0.000185929,0.000239811,0.000306457,0.000388892,0.000490856,0.000616976,0.000772973,0.000965926,0.00120459,0.00149979,0.00186493,0.00231657,0.00287521,0.00356618,0.00442085,0.00547799,0.00678557,0.00840292,0.0104034,0.0128778,0.0159385,0.0197241,0.0244067,0.0301985,inf	307.263,307.263,387.552,350.576,380.224,385.843,363.864,341.159,329.458,326.785,329.179,334.94,341.55,348.784,358.956,373.336,391.779,412.519,431.721,445.949,453.259,452.343,444.22,430.274,410.704,388.714,374.56,393.101,393.101,675.04,675.04,675.04
0.0012511	-18293879.32	0,9.83467e-06,2.19992e-05,3.70455e-05,5.56563e-05,7.8676e-05,0.000107149,0.000142368,0.000185929,0.000239811,0.000306457,0.000388892,0.000490856,0.000616976,0.000772973,0.000965926,0.00120459,0.00149979,0.00186493,0.00231657,0.00287521,0.00356618,0.00442085,0.00547799,0.00678557,0.00840292,0.0104034,0.0128778,0.0159385,0.0197241,0.0244067,0.0301985,inf	306.801,306.801,385.904,345.445,379.434,386.531,363.864,340.943,329.919,328.218,331.484,337.782,344.354,351.091,360.569,374.22,392.014,412.221,431,444.953,452.164,451.251,443.081,428.82,408.503,385.599,371.116,391.879,391.879,720.502,720.502,720.502
0.00130417	-18292136.32	0,9.83467e-06,2.19992e-05,3.70455e-05,5.56563e-05,7.8676e-05,0.000107149,0.000142368,0.000185929,0.000239811,0.000306457,0.000388892,0.000490856,0.000616976,0.000772973,0.000965926,0.00120459,0.00149979,0.00186493,0.00231657,0.00287521,0.00356618,0.00442085,0.00547799,0.00678557,0.00840292,0.0104034,0.0128778,0.0159385,0.0197241,0.0244067,0.0301985,inf	307.348,307.348,384.801,340.954,378.944,387.169,363.717,340.625,330.327,329.62,333.77,340.6,347.129,353.38,362.179,375.117,392.265,411.927,430.259,443.901,450.975,450.041,441.829,427.298,406.331,382.638,367.906,390.784,390.784,771.472,771.472,771.472
0.00135479	-18290619.86	0,9.83467e-06,2.19992e-05,3.70455e-05,5.56563e-05,7.8676e-05,0.000107149,0.000142368,0.000185929,0.000239811,0.000306457,0.000388892,0.000490856,0.000616976,0.000772973,0.000965926,0.00120459,0.00149979,0.00186493,0.00231657,0.00287521,0.00356618,0.00442085,0.00547799,0.00678557,0.00840292,0.0104034,0.0128778,0.0159385,0.0197241,0.0244067,0.0301985,inf	308.556,308.556,384.138,337.094,378.811,387.854,363.513,340.266,330.707,330.987,336.008,343.35,349.828,355.604,363.745,375.993,392.516,411.641,429.523,442.841,449.755,448.781,440.528,425.762,404.216,379.834,364.914,389.807,389.807,829.932,829.932,829.932
0.00140311	-18289293.10	0,9.83467e-06,2.19992e-05,3.70455e-05,5.56563e-05,7.8676e-05,0.000107149,0.000142368,0.000185929,0.000239811,0.000306457,0.000388892,0.000490856,0.000616976,0.000772973,0.000965926,0.00120459,0.00149979,0.00186493,0.00231657,0.00287521,0.00356618,0.00442085,0.00547799,0.00678557,0.00840292,0.0104034,0.0128778,0.0159385,0.0197241,0.0244067,0.0301985,inf	310.136,310.136,383.804,333.818,379.047,388.632,363.311,339.908,331.08,332.322,338.187,346.012,352.425,357.736,365.244,376.833,392.757,411.365,428.806,441.799,448.539,447.512,439.219,424.24,402.175,377.183,362.119,388.937,388.937,899.021,899.021,899.021
0.0014493	-18288126.52	0,9.83467e-06,2.19992e-05,3.70455e-05,5.56563e-05,7.8676e-05,0.000107149,0.000142368,0.000185929,0.000239811,0.000306457,0.000388892,0.000490856,0.000616976,0.000772973,0.000965926,0.00120459,0.00149979,0.00186493,0.00231657,0.00287521,0.00356618,0.00442085,0.00547799,0.00678557,0.00840292,0.0104034,0.0128778,0.0159385,0.0197241,0.0244067,0.0301985,inf	311.891,311.891,383.681,331.048,379.621,389.52,363.136,339.574,331.458,333.628,340.302,348.574,354.907,359.763,366.661,377.624,392.982,411.099,428.116,440.788,447.351,446.262,437.926,422.754,400.216,374.679,359.505,388.163,388.163,984.182,984.182,984.182
0.00149349	-18287096.20	0,9.83467e-06,2.19992e-05,3.70455e-05,5.56563e-05,7.8676e-05,0.000107149,0.000142368,0.000185929,0.000239811,0.000306457,0.000388892,0.000490856,0.000616976,0.000772973,0.000965926,0.00120459,0.00149979,0.00186493,0.00231657,0.00287521,0.00356618,0.00442085,0.00547799,0.00678557,0.00840292,0.0104034,0.0128778,0.0159385,0.0197241,0.0244067,0.0301985,inf	313.725,313.725,383.698,328.724,380.504,390.522,363.001,339.278,331.85,334.909,342.353,351.035,357.271,361.679,367.993,378.362,393.188,410.841,427.455,439.818,446.202,445.045,436.665,421.313,398.34,372.311,357.052,387.475,387.475,1096.16,1096.16,1096.16
0.00153579	-18286182.54	0,9.83467e-06,2.19992e-05,3.70455e-05,5.56563e-05,7.8676e-05,0.000107149,0.000142368,0.000185929,0.000239811,0.000306457,0.000388892,0.000490856,0.000616976,0.000772973,0.000965926,0.00120459,0.00149979,0.00186493,0.00231657,0.00287521,0.00356618,0.00442085,0.00547799,0.00678557,0.00840292,0.0104034,0.0128778,0.0159385,0.0197241,0.0244067,0.0301985,inf	315.539,315.539,383.785,326.773,381.651,391.619,362.913,339.024,332.261,336.168,344.338,353.393,359.515,363.485,369.239,379.048,393.374,410.591,426.824,438.893,445.099,443.871,435.444,419.924,396.547,370.069,354.743,386.865,386.865,1261.01,1261.01,1261.01
0.00157632	-18285369.38	0,9.83467e-06,2.19992e-05,3.70455e-05,5.56563e-05,7.8676e-05,0.000107149,0.000142368,0.000185929,0.000239811,0.000306457,0.000388892,0.000490856,0.000616976,0.000772973,0.000965926,0.00120459,0.00149979,0.00186493,0.00231657,0.00287521,0.00356618,0.00442085,0.00547799,0.00678557,0.00840292,0.0104034,0.0128778,0.0159385,0.0197241,0.0244067,0.0301985,inf	317.32,317.32,383.901,325.142,383.027,392.801,362.873,338.817,332.692,337.407,346.263,355.653,361.644,365.183,370.4,379.68,393.539,410.35,426.225,438.012,444.046,442.743,434.269,418.588,394.832,367.941,352.562,386.327,386.327,1572.31,1572.31,1572.31
0.00161518	-18284643.31	0,9.83467e-06,2.19992e-05,3.70455e-05,5.56563e-05,7.8676e-05,0.000107149,0.000142368,0.000185929,0.000239811,0.000306457,0.000388892,0.000490856,0.000616976,0.000772973,0.000965926,0.00120459,0.00149979,0.00186493,0.00231657,0.00287521,0.00356618,0.00442085,0.00547799,0.00678557,0.00840292,0.0104034,0.0128778,0.0159385,0.0197241,0.0244067,0.0301985,inf	319.026,319.026,384.003,323.782,384.59,394.052,362.873,338.655,333.145,338.626,348.127,357.816,363.662,366.777,371.48,380.26,393.684,410.115,425.655,437.176,443.043,441.664,433.14,417.303,393.19,365.913,350.491,385.857,385.857,2816.79,2816.79,2816.79
0.00165247	-18283993.28	0,9.83467e-06,2.19992e-05,3.70455e-05,5.56563e-05,7.8676e-05,0.000107149,0.000142368,0.000185929,0.000239811,0.000306457,0.000388892,0.000490856,0.000616976,0.000772973,0.000965926,0.00120459,0.00149979,0.00186493,0.00231657,0.00287521,0.00356618,0.00442085,0.00547799,0.00678557,0.00840292,0.0104034,0.0128778,0.0159385,0.0197241,0.0244067,0.0301985,inf	320.674,320.674,384.073,322.649,386.307,395.352,362.911,338.534,333.618,339.829,349.933,359.887,365.574,368.272,372.481,380.792,393.809,409.887,425.114,436.383,442.087,440.63,432.053,416.063,391.604,363.962,348.5,385.455,385.455,50103.2,50103.2,50103.2
0.00165247	-18283409.54	0,9.83467e-06,2.19992e-05,3.70455e-05,5.56563e-05,7.8676e-05,0.000107149,0.000142368,0.000185929,0.000239811,0.000306457,0.000388892,0.000490856,0.000616976,0.000772973,0.000965926,0.00120459,0.00149979,0.00186493,0.00231657,0.00287521,0.00356618,0.00442085,0.00547799,0.00678557,0.00840292,0.0104034,0.0128778,0.0159385,0.0197241,0.0244067,0.0301985,inf	320.022,320.022,381.428,319.469,385.43,393.887,360.413,336.059,331.743,338.592,349.177,359.288,364.771,367.071,370.823,378.694,391.324,407.074,422.058,433.214,438.957,437.666,429.285,413.379,388.734,360.965,345.694,384.282,384.282,68778.5,68778.5,68778.5
0.00165247	-18283395.95	0,9.83467e-06,2.19992e-05,3.70455e-05,5.56563e-05,7.8676e-05,0.000107149,0.000142368,0.000185929,0.000239811,0.000306457,0.000388892,0.000490856,0.000616976,0.000772973,0.000965926,0.00120459,0.00149979,0.00186493,0.00231657,0.00287521,0.00356618,0.00442085,0.00547799,0.00678557,0.00840292,0.0104034,0.0128778,0.0159385,0.0197241,0.0244067,0.0301985,inf	320.15,320.15,380.604,317.755,386.21,394.058,359.365,334.886,331.109,338.597,349.706,360.03,364.962,367.071,370.624,378.071,390.318,405.728,420.428,431.394,437.066,435.756,427.473,411.47,386.589,358.562,343.331,383.408,383.408,68781.4,68781.4,68781.4
