time_index	left_time_boundary	right_time_boundary	lambda
0	0	2.65598e-06	240.842
1	2.65598e-06	6.10309e-06	240.842
2	6.10309e-06	1.0577e-05	678.097
3	1.0577e-05	1.63835e-05	348.409
4	1.63835e-05	2.39195e-05	287.627
5	2.39195e-05	3.37003e-05	272.767
6	3.37003e-05	4.63945e-05	331.492
7	4.63945e-05	6.28698e-05	387.319
8	6.28698e-05	8.42525e-05	400.227
9	8.42525e-05	0.000112004	381.921
10	0.000112004	0.000148023	350.794
11	0.000148023	0.00019477	334.44
12	0.00019477	0.000255441	338.804
13	0.000255441	0.000334184	349.809
14	0.000334184	0.000436382	359.027
15	0.000436382	0.000569021	366.024
16	0.000569021	0.000741169	370.946
17	0.000741169	0.000964594	375.48
18	0.000964594	0.00125457	382.338
19	0.00125457	0.00163092	394.218
20	0.00163092	0.00211937	410.786
21	0.00211937	0.00275331	428.116
22	0.00275331	0.00357609	439.357
23	0.00357609	0.00464393	437.615
24	0.00464393	0.00602986	421.727
25	0.00602986	0.0078286	400.628
26	0.0078286	0.0101631	394.65
27	0.0101631	0.013193	426.894
28	0.013193	0.0171254	426.894
29	0.0171254	0.0222292	486.693
30	0.0222292	0.0288532	486.693
31	0.0288532	inf	486.693
