0.000724613	-18327236.91	0,2.19992e-05,5.56563e-05,0.000107149,0.000185929,0.000306457,0.000490856,0.000772973,0.00120459,0.00186493,0.00287521,0.00442085,0.00678557,0.0104034,0.0159385,0.0244067,inf	368.969,368.969,366.537,353.38,345.384,348.2,359.341,378.143,404.2,425.351,428.247,419.181,404.41,401.184,401.184,401.184
0.00081906	-18317690.59	0,2.19992e-05,5.56563e-05,0.000107149,0.000185929,0.000306457,0.000490856,0.000772973,0.00120459,0.00186493,0.00287521,0.00442085,0.00678557,0.0104034,0.0159385,0.0244067,inf	370.018,370.018,370.652,346.67,330.949,332.421,345.917,370.142,405.715,435.879,440.708,427.603,402.374,398.548,398.548,398.548
0.000906478	-18310969.28	0,2.19992e-05,5.56563e-05,0.000107149,0.000185929,0.000306457,0.000490856,0.000772973,0.00120459,0.00186493,0.00287521,0.00442085,0.00678557,0.0104034,0.0159385,0.0244067,inf	369.776,369.776,379.057,348.145,327.466,327.978,341.844,367.322,406.332,440.157,446.061,431.167,398.171,395.164,395.164,395.164
0.00098779	-18305830.44	0,2.19992e-05,5.56563e-05,0.000107149,0.000185929,0.000306457,0.000490856,0.000772973,0.00120459,0.00186493,0.00287521,0.00442085,0.00678557,0.0104034,0.0159385,0.0244067,inf	365.393,365.393,385.475,350.536,327.319,327.807,341.6,366.758,406.594,441.512,447.866,432.205,393.184,391.743,391.743,391.743
0.00106378	-18301748.35	0,2.19992e-05,5.56563e-05,0.000107149,0.000185929,0.000306457,0.000490856,0.000772973,0.00120459,0.00186493,0.00287521,0.00442085,0.00678557,0.0104034,0.0159385,0.0244067,inf	359.035,359.035,389.577,352.292,328.214,329.438,343.101,367.291,406.745,441.481,447.88,431.923,388.057,388.566,388.566,388.566
0.00113507	-18298430.37	0,2.19992e-05,5.56563e-05,0.000107149,0.000185929,0.000306457,0.000490856,0.000772973,0.00120459,0.00186493,0.00287521,0.00442085,0.00678557,0.0104034,0.0159385,0.0244067,inf	352.58,352.58,392.124,353.285,329.399,331.857,345.415,368.365,406.87,440.792,446.99,430.959,383.078,385.725,385.725,385.725
0.00120215	-18295689.66	0,2.19992e-05,5.56563e-05,0.000107149,0.000185929,0.000306457,0.000490856,0.000772973,0.00120459,0.00186493,0.00287521,0.00442085,0.00678557,0.0104034,0.0159385,0.0244067,inf	346.971,346.971,393.813,353.697,330.625,334.608,348.082,369.689,406.99,439.799,445.658,429.655,378.368,383.227,383.227,383.227
0.00126542	-18293397.48	0,2.19992e-05,5.56563e-05,0.000107149,0.000185929,0.000306457,0.000490856,0.000772973,0.00120459,0.00186493,0.00287521,0.00442085,0.00678557,0.0104034,0.0159385,0.0244067,inf	342.512,342.512,395.105,353.728,331.818,337.47,350.862,371.103,407.105,438.682,444.129,428.198,373.963,381.049,381.049,381.049
0.00132522	-18291460.92	0,2.19992e-05,5.56563e-05,0.000107149,0.000185929,0.000306457,0.000490856,0.000772973,0.00120459,0.00186493,0.00287521,0.00442085,0.00678557,0.0104034,0.0159385,0.0244067,inf	339.183,339.183,396.269,353.533,332.967,340.332,353.626,372.516,407.211,437.533,442.536,426.693,369.864,379.157,379.157,379.157
0.00138185	-18289810.77	0,2.19992e-05,5.56563e-05,0.000107149,0.000185929,0.000306457,0.000490856,0.000772973,0.00120459,0.00186493,0.00287521,0.00442085,0.00678557,0.0104034,0.0159385,0.0244067,inf	336.828,336.828,397.443,353.219,334.078,343.138,356.307,373.88,407.304,436.398,440.952,425.198,366.056,377.515,377.515,377.515
0.00143554	-18288394.28	0,2.19992e-05,5.56563e-05,0.000107149,0.000185929,0.000306457,0.000490856,0.000772973,0.00120459,0.00186493,0.00287521,0.00442085,0.00678557,0.0104034,0.0159385,0.0244067,inf	335.261,335.261,398.692,352.856,335.161,345.863,358.868,375.169,407.38,435.302,439.415,423.744,362.517,376.088,376.088,376.088
0.00148652	-18287170.54	0,2.19992e-05,5.56563e-05,0.000107149,0.000185929,0.000306457,0.000490856,0.000772973,0.00120459,0.00186493,0.00287521,0.00442085,0.00678557,0.0104034,0.0159385,0.0244067,inf	334.295,334.295,400.035,352.489,336.227,348.492,361.294,376.371,407.438,434.257,437.945,422.347,359.22,374.849,374.849,374.849
0.00153498	-18286107.26	0,2.19992e-05,5.56563e-05,0.000107149,0.000185929,0.000306457,0.000490856,0.000772973,0.00120459,0.00186493,0.00287521,0.00442085,0.00678557,0.0104034,0.0159385,0.0244067,inf	333.791,333.791,401.476,352.141,337.283,351.022,363.581,377.482,407.479,433.266,436.552,421.017,356.145,373.771,373.771,373.771
0.00158111	-18285178.70	0,2.19992e-05,5.56563e-05,0.000107149,0.000185929,0.000306457,0.000490856,0.000772973,0.00120459,0.00186493,0.00287521,0.00442085,0.00678557,0.0104034,0.0159385,0.0244067,inf	333.623,333.623,403.001,351.828,338.334,353.454,365.728,378.504,407.504,432.331,435.238,419.755,353.268,372.833,372.833,372.833
0.00162505	-18284364.08	0,2.19992e-05,5.56563e-05,0.000107149,0.000185929,0.000306457,0.000490856,0.000772973,0.00120459,0.00186493,0.00287521,0.00442085,0.00678557,0.0104034,0.0159385,0.0244067,inf	333.7,333.7,404.598,351.554,339.381,355.79,367.741,379.439,407.512,431.452,434.003,418.561,350.57,372.015,372.015,372.015
0.00166696	-18283646.48	0,2.19992e-05,5.56563e-05,0.000107149,0.000185929,0.000306457,0.000490856,0.000772973,0.00120459,0.00186493,0.00287521,0.00442085,0.00678557,0.0104034,0.0159385,0.0244067,inf	333.949,333.949,406.249,351.324,340.426,358.032,369.627,380.293,407.507,430.624,432.845,417.433,348.034,371.303,371.303,371.303
0.00170696	-18283011.95	0,2.19992e-05,5.56563e-05,0.000107149,0.000185929,0.000306457,0.000490856,0.000772973,0.00120459,0.00186493,0.00287521,0.00442085,0.00678557,0.0104034,0.0159385,0.0244067,inf	334.319,334.319,407.94,351.133,341.469,360.186,371.392,381.071,407.49,429.847,431.759,416.369,345.644,370.683,370.683,370.683
0.00174517	-18282448.96	0,2.19992e-05,5.56563e-05,0.000107149,0.000185929,0.000306457,0.000490856,0.000772973,0.00120459,0.00186493,0.00287521,0.00442085,0.00678557,0.0104034,0.0159385,0.0244067,inf	334.766,334.766,409.656,350.981,342.511,362.255,373.043,381.778,407.461,429.116,430.741,415.365,343.387,370.144,370.144,370.144
0.00178169	-18281947.89	0,2.19992e-05,5.56563e-05,0.000107149,0.000185929,0.000306457,0.000490856,0.000772973,0.00120459,0.00186493,0.00287521,0.00442085,0.00678557,0.0104034,0.0159385,0.0244067,inf	335.267,335.267,411.383,350.862,343.548,364.243,374.59,382.42,407.422,428.43,429.788,414.417,341.251,369.675,369.675,369.675
0.00181664	-18281500.65	0,2.19992e-05,5.56563e-05,0.000107149,0.000185929,0.000306457,0.000490856,0.000772973,0.00120459,0.00186493,0.00287521,0.00442085,0.00678557,0.0104034,0.0159385,0.0244067,inf	335.801,335.801,413.114,350.774,344.581,366.153,376.038,383.003,407.375,427.784,428.894,413.523,339.224,369.27,369.27,369.27
