0.000232918	-133245.55	0,3.35778e-05,7.95228e-05,0.00014239,0.000228412,0.000346118,0.000507176,0.000727554,0.0010291,0.00144171,0.00200629,0.00277882,0.00383588,0.00528226,0.00726138,0.00996943,inf	254.264,254.264,384.541,461.646,605.616,837.936,1202.8,1531.49,1584.73,1510.05,1432.16,1396.15,1389.42,1418.24,1418.24,1418.24
0.000243143	-132991.14	0,3.35778e-05,7.95228e-05,0.00014239,0.000228412,0.000346118,0.000507176,0.000727554,0.0010291,0.00144171,0.00200629,0.00277882,0.00383588,0.00528226,0.00726138,0.00996943,inf	130.896,130.896,246.794,288.268,428.625,697.146,1191.47,1749.28,1923.64,1863.29,1763.07,1748.78,1804.35,2001.61,2001.61,2001.61
0.000252896	-132904.45	0,3.35778e-05,7.95228e-05,0.00014239,0.000228412,0.000346118,0.000507176,0.000727554,0.0010291,0.00144171,0.00200629,0.00277882,0.00383588,0.00528226,0.00726138,0.00996943,inf	101.308,101.308,216.967,220.738,344.266,613.684,1160.98,1848.78,2137.71,2147.78,2086.33,2185.37,2486.53,3633.8,3633.8,3633.8
0.000261695	-132867.00	0,3.35778e-05,7.95228e-05,0.00014239,0.000228412,0.000346118,0.000507176,0.000727554,0.0010291,0.00144171,0.00200629,0.00277882,0.00383588,0.00528226,0.00726138,0.00996943,inf	93.5188,93.5188,221.403,189.639,298.733,561.709,1134.61,1892.1,2268.21,2373.31,2409.14,2779.01,4070.49,19335.6,19335.6,19335.6
0.000261695	-132848.01	0,3.35778e-05,7.95228e-05,0.00014239,0.000228412,0.000346118,0.000507176,0.000727554,0.0010291,0.00144171,0.00200629,0.00277882,0.00383588,0.00528226,0.00726138,0.00996943,inf	90.9299,90.9299,238.549,172.939,271.151,525.937,1108.83,1889.68,2330.25,2540.8,2734.01,3722.4,13140.4,149398,149398,149398
0.000269446	-132840.39	0,3.35778e-05,7.95228e-05,0.00014239,0.000228412,0.000346118,0.000507176,0.000727554,0.0010291,0.00144171,0.00200629,0.00277882,0.00383588,0.00528226,0.00726138,0.00996943,inf	88.8687,88.8687,263.088,163.778,254.667,503.88,1099.86,1901.76,2382.01,2691.46,3101.92,5933.71,91291,120522,120522,120522
0.000276696	-132832.65	0,3.35778e-05,7.95228e-05,0.00014239,0.000228412,0.000346118,0.000507176,0.000727554,0.0010291,0.00144171,0.00200629,0.00277882,0.00383588,0.00528226,0.00726138,0.00996943,inf	85.1029,85.1029,288.126,157.663,243.726,488.27,1094.56,1905.02,2408.27,2808.25,3505.37,18949.4,409479,4738.71,4738.71,4738.71
0.000283589	-132827.57	0,3.35778e-05,7.95228e-05,0.00014239,0.000228412,0.000346118,0.000507176,0.000727554,0.0010291,0.00144171,0.00200629,0.00277882,0.00383588,0.00528226,0.00726138,0.00996943,inf	79.7013,79.7013,311.931,153.185,236.285,477.1,1092.53,1904.32,2418.35,2897.19,3959.42,198514,354991,186.317,186.317,186.317
0.000290221	-132824.11	0,3.35778e-05,7.95228e-05,0.00014239,0.000228412,0.000346118,0.000507176,0.000727554,0.0010291,0.00144171,0.00200629,0.00277882,0.00383588,0.00528226,0.00726138,0.00996943,inf	73.1971,73.1971,333.71,149.639,231.158,469.059,1093.22,1902.27,2418.43,2964.18,4504.66,608814,2767.63,2554.18,2554.18,2554.18
0.000296639	-132821.54	0,3.35778e-05,7.95228e-05,0.00014239,0.000228412,0.000346118,0.000507176,0.000727554,0.0010291,0.00144171,0.00200629,0.00277882,0.00383588,0.00528226,0.00726138,0.00996943,inf	66.1732,66.1732,353.134,146.631,227.571,463.179,1095.89,1899.87,2412.1,3012.66,5201.24,684944,94.0456,100.426,100.426,100.426
