LogLikelihood = -651665.29315796075389

y0 0.33451541979212140454
y0_prime 0
y1 0.28567047566280878712
y1_prime 0
y2 1.9963516922709825252
y2_prime 0
y3 28.892099943579655275
y3_prime 0
rho 7.1642097010006408316e-05
theta 0.0017976853473633980663
