time_index	left_time_boundary	right_time_boundary	lambda
0	0	9.26773e-05	413.455
1	9.26773e-05	0.000219489	413.455
2	0.000219489	0.000393007	370.38
3	0.000393007	0.000630435	391.99
4	0.000630435	0.000955311	411.42
5	0.000955311	0.00139984	415.52
6	0.00139984	0.0020081	408.173
7	0.0020081	0.0028404	397.492
8	0.0028404	0.00397924	394.143
9	0.00397924	0.00553752	400.573
10	0.00553752	0.00766975	413.123
11	0.00766975	0.0105873	382.731
12	0.0105873	0.0145795	316.919
13	0.0145795	0.020042	295.799
14	0.020042	0.0275164	295.799
15	0.0275164	inf	295.799
