AIC = 268484.85670750593999

y0 0.047020050011923338051
y0_prime 0
y1 0.50192767158854290077
y1_prime 0
y2 1.7405422323019208442
y2_prime 0
y3 19.409773595725773987
y3_prime 0
rho 0.0016398205372216922114
rho.alpha 0.17040398788803035046
r_ii 0.99995797723536283819
theta 0.0018560416159752988769
