AIC = 1362663.7922756120097

y0 0.013562013488346286519
y0_prime 0
y1 0.487032458094806886
y1_prime 0
y2 1.7739218427312071213
y2_prime 0
y3 40.873877680259290912
y3_prime 0
rho 0.0017278767655225771207
rho.alpha 0.15964798146924621958
r_ii 0.99995305222575936455
theta 0.0018850954038161526517
