LogLikelihood = -56008.325836745614652

y0 1.5744441996488489762e-08
y0_prime 0
y1 1.3436755270794795702
y1_prime 0
y2 1.7156827575497533012
y2_prime 0
y3 1.6757341282851683228
y3_prime 0
rho 0.33054417572054872743
theta 0.00067517189172079596256
