0.00035334	-174751.12	0,2.13523e-05,4.6329e-05,7.55457e-05,0.000109722,0.000149699,0.000196463,0.000251165,0.000315152,0.000390002,0.000477557,0.000579974,0.000699777,0.000839916,0.00100384,0.0011956,0.0014199,0.00168228,0.0019892,0.00234822,0.00276819,0.00325944,0.00383408,0.00450627,0.00529256,0.00621232,0.00728822,0.00854674,0.0100189,0.011741,0.0137553,0.0161117,inf	756.211,756.211,517.073,416.015,398.01,411.632,440.113,480.087,531.432,594.796,670.494,757.731,851.866,942.03,1012.68,1048.67,1047.96,1023.98,992.784,964.197,941.775,925.146,912.769,903.209,895.24,888.864,885.835,890.028,890.028,917.044,917.044,917.044
0.000394401	-174546.81	0,2.13523e-05,4.6329e-05,7.55457e-05,0.000109722,0.000149699,0.000196463,0.000251165,0.000315152,0.000390002,0.000477557,0.000579974,0.000699777,0.000839916,0.00100384,0.0011956,0.0014199,0.00168228,0.0019892,0.00234822,0.00276819,0.00325944,0.00383408,0.00450627,0.00529256,0.00621232,0.00728822,0.00854674,0.0100189,0.011741,0.0137553,0.0161117,inf	903.971,903.971,458.969,308.232,279.473,289.988,319.284,364.229,425.495,504.726,603.551,723.099,860.286,1002.63,1126.65,1202.05,1215.47,1184.46,1137.14,1092.58,1058.2,1033.52,1015.86,1002.57,991.283,982.468,980.588,995.852,995.852,1066.77,1066.77,1066.77
0.00043438	-174452.48	0,2.13523e-05,4.6329e-05,7.55457e-05,0.000109722,0.000149699,0.000196463,0.000251165,0.000315152,0.000390002,0.000477557,0.000579974,0.000699777,0.000839916,0.00100384,0.0011956,0.0014199,0.00168228,0.0019892,0.00234822,0.00276819,0.00325944,0.00383408,0.00450627,0.00529256,0.00621232,0.00728822,0.00854674,0.0100189,0.011741,0.0137553,0.0161117,inf	1044.03,1044.03,440.905,263.204,230,237.915,265.479,310.208,373.408,457.306,564.357,697.238,854.898,1025.96,1184.45,1290.79,1320.83,1291.43,1238.21,1187.21,1149.04,1123.19,1106.07,1093.97,1083.5,1076.06,1079.75,1114.02,1114.02,1255.93,1255.93,1255.93
0.000472935	-174395.42	0,2.13523e-05,4.6329e-05,7.55457e-05,0.000109722,0.000149699,0.000196463,0.000251165,0.000315152,0.000390002,0.000477557,0.000579974,0.000699777,0.000839916,0.00100384,0.0011956,0.0014199,0.00168228,0.0019892,0.00234822,0.00276819,0.00325944,0.00383408,0.00450627,0.00529256,0.00621232,0.00728822,0.00854674,0.0100189,0.011741,0.0137553,0.0161117,inf	1134.89,1134.89,433.431,240.978,206.34,212.94,239.162,283.084,346.363,431.439,541.214,679.46,846.767,1033.25,1212.76,1340.78,1385.18,1360.75,1307.43,1256.16,1219.86,1197.83,1185.69,1178.79,1172.8,1170.46,1184.53,1247.48,1247.48,1509.21,1509.21,1509.21
0.000510229	-174354.14	0,2.13523e-05,4.6329e-05,7.55457e-05,0.000109722,0.000149699,0.000196463,0.000251165,0.000315152,0.000390002,0.000477557,0.000579974,0.000699777,0.000839916,0.00100384,0.0011956,0.0014199,0.00168228,0.0019892,0.00234822,0.00276819,0.00325944,0.00383408,0.00450627,0.00529256,0.00621232,0.00728822,0.00854674,0.0100189,0.011741,0.0137553,0.0161117,inf	1178.56,1178.56,429.532,229.342,194.779,200.967,226.48,269.841,332.819,417.816,527.953,667.799,839.153,1033.43,1225.13,1367.4,1422.83,1404.11,1353.75,1305.96,1275.22,1260.51,1256.74,1258.32,1260.11,1266.64,1296.55,1400.85,1400.85,1885.96,1885.96,1885.96
0.000546488	-174320.75	0,2.13523e-05,4.6329e-05,7.55457e-05,0.000109722,0.000149699,0.000196463,0.000251165,0.000315152,0.000390002,0.000477557,0.000579974,0.000699777,0.000839916,0.00100384,0.0011956,0.0014199,0.00168228,0.0019892,0.00234822,0.00276819,0.00325944,0.00383408,0.00450627,0.00529256,0.00621232,0.00728822,0.00854674,0.0100189,0.011741,0.0137553,0.0161117,inf	1187.86,1187.86,426.932,223.307,189.698,196.093,221.422,264.564,327.236,411.64,521.015,660.534,832.859,1030.39,1228.55,1379.62,1442.93,1429.57,1383.62,1341.48,1318.63,1313.64,1320.78,1333.6,1346.28,1365.69,1417.95,1581.39,1581.39,2581.27,2581.27,2581.27
0.000581908	-174291.85	0,2.13523e-05,4.6329e-05,7.55457e-05,0.000109722,0.000149699,0.000196463,0.000251165,0.000315152,0.000390002,0.000477557,0.000579974,0.000699777,0.000839916,0.00100384,0.0011956,0.0014199,0.00168228,0.0019892,0.00234822,0.00276819,0.00325944,0.00383408,0.00450627,0.00529256,0.00621232,0.00728822,0.00854674,0.0100189,0.011741,0.0137553,0.0161117,inf	1175.12,1175.12,424.611,220.403,188.362,195.424,220.975,264.188,326.618,410.191,518.226,656.384,827.921,1025.95,1226.8,1382.75,1451.32,1442.57,1401.6,1366.3,1352.74,1359.09,1379.09,1405.53,1432.13,1468.76,1551.5,1800.97,1800.97,4869.44,4869.44,4869.44
0.000616643	-174265.85	0,2.13523e-05,4.6329e-05,7.55457e-05,0.000109722,0.000149699,0.000196463,0.000251165,0.000315152,0.000390002,0.000477557,0.000579974,0.000699777,0.000839916,0.00100384,0.0011956,0.0014199,0.00168228,0.0019892,0.00234822,0.00276819,0.00325944,0.00383408,0.00450627,0.00529256,0.00621232,0.00728822,0.00854674,0.0100189,0.011741,0.0137553,0.0161117,inf	1149.56,1149.56,422.002,219.249,189.268,197.365,223.453,266.958,329.204,411.821,518.21,654.439,824.158,1020.96,1222,1380.06,1451.82,1446.83,1410.92,1383.02,1379.53,1398.3,1432.65,1474.82,1518.39,1577.18,1700.95,2080.96,2080.96,48748.5,48748.5,48748.5
0.000649146	-174241.92	0,2.13523e-05,4.6329e-05,7.55457e-05,0.000109722,0.000149699,0.000196463,0.000251165,0.000315152,0.000390002,0.000477557,0.000579974,0.000699777,0.000839916,0.00100384,0.0011956,0.0014199,0.00168228,0.0019892,0.00234822,0.00276819,0.00325944,0.00383408,0.00450627,0.00529256,0.00621232,0.00728822,0.00854674,0.0100189,0.011741,0.0137553,0.0161117,inf	1116.81,1116.81,418.553,218.906,191.414,200.849,227.706,271.636,333.688,415.212,519.72,653.613,820.782,1015.13,1214.61,1372.78,1446.22,1444.3,1413.42,1393.14,1400.14,1432.04,1481.94,1541.8,1605.51,1692.25,1871.36,2465.29,2465.29,162010,162010,162010
0.000649146	-174220.58	0,2.13523e-05,4.6329e-05,7.55457e-05,0.000109722,0.000149699,0.000196463,0.000251165,0.000315152,0.000390002,0.000477557,0.000579974,0.000699777,0.000839916,0.00100384,0.0011956,0.0014199,0.00168228,0.0019892,0.00234822,0.00276819,0.00325944,0.00383408,0.00450627,0.00529256,0.00621232,0.00728822,0.00854674,0.0100189,0.011741,0.0137553,0.0161117,inf	1069.01,1069.01,409.289,216.259,191.89,202.766,230.22,274.099,335.149,414.464,515.653,645.32,807.455,996.389,1191.41,1348.13,1423.71,1426.43,1402.1,1390.6,1408.97,1455,1522.27,1568.58,1605.51,1692.25,1871.36,2465.29,2465.29,162006,162006,162006
0.000649146	-174218.86	0,2.13523e-05,4.6329e-05,7.55457e-05,0.000109722,0.000149699,0.000196463,0.000251165,0.000315152,0.000390002,0.000477557,0.000579974,0.000699777,0.000839916,0.00100384,0.0011956,0.0014199,0.00168228,0.0019892,0.00234822,0.00276819,0.00325944,0.00383408,0.00450627,0.00529256,0.00621232,0.00728822,0.00854674,0.0100189,0.011741,0.0137553,0.0161117,inf	1047.58,1047.58,405.435,215.476,193.675,205.994,234.263,278.463,339.008,416.713,515.285,641.533,799.523,983.887,1175.02,1330.17,1407.06,1413.2,1394.18,1390.42,1419.5,1479.61,1565.23,1585.18,1612.64,1692.25,1871.36,2465.29,2465.29,161996,161996,161996
0.000649146	-174217.97	0,2.13523e-05,4.6329e-05,7.55457e-05,0.000109722,0.000149699,0.000196463,0.000251165,0.000315152,0.000390002,0.000477557,0.000579974,0.000699777,0.000839916,0.00100384,0.0011956,0.0014199,0.00168228,0.0019892,0.00234822,0.00276819,0.00325944,0.00383408,0.00450627,0.00529256,0.00621232,0.00728822,0.00854674,0.0100189,0.011741,0.0137553,0.0161117,inf	1034.16,1034.16,402.169,214.535,195.251,209.125,238.41,283.218,343.629,420.175,516.66,640.104,794.63,975.099,1162.83,1316.47,1394.21,1402.99,1388.46,1391.75,1431.2,1505.62,1610.26,1647,1707.84,1765.31,2027.94,2465.29,2465.29,161856,161856,161856
0.000649146	-174217.50	0,2.13523e-05,4.6329e-05,7.55457e-05,0.000109722,0.000149699,0.000196463,0.000251165,0.000315152,0.000390002,0.000477557,0.000579974,0.000699777,0.000839916,0.00100384,0.0011956,0.0014199,0.00168228,0.0019892,0.00234822,0.00276819,0.00325944,0.00383408,0.00450627,0.00529256,0.00621232,0.00728822,0.00854674,0.0100189,0.011741,0.0137553,0.0161117,inf	1023.94,1023.94,398.387,212.961,196.196,211.698,242.138,287.756,348.297,424.014,518.815,639.926,791.52,968.625,1153.36,1305.59,1383.9,1394.78,1384.14,1393.99,1443.58,1532.58,1657.65,1714.57,1802.2,1864.07,2266.02,2510.32,2510.32,161709,161709,161709
0.000649146	-174217.25	0,2.13523e-05,4.6329e-05,7.55457e-05,0.000109722,0.000149699,0.000196463,0.000251165,0.000315152,0.000390002,0.000477557,0.000579974,0.000699777,0.000839916,0.00100384,0.0011956,0.0014199,0.00168228,0.0019892,0.00234822,0.00276819,0.00325944,0.00383408,0.00450627,0.00529256,0.00621232,0.00728822,0.00854674,0.0100189,0.011741,0.0137553,0.0161117,inf	1015.91,1015.91,394.047,210.753,196.459,213.603,245.269,291.831,352.696,427.837,521.268,640.422,789.5,963.672,1145.75,1296.69,1375.36,1387.95,1380.76,1396.8,1456.42,1560.47,1707.53,1787.43,1907.17,2009.87,2513.47,2510.32,2510.32,161567,161567,161567
0.000649146	-174217.13	0,2.13523e-05,4.6329e-05,7.55457e-05,0.000109722,0.000149699,0.000196463,0.000251165,0.000315152,0.000390002,0.000477557,0.000579974,0.000699777,0.000839916,0.00100384,0.0011956,0.0014199,0.00168228,0.0019892,0.00234822,0.00276819,0.00325944,0.00383408,0.00450627,0.00529256,0.00621232,0.00728822,0.00854674,0.0100189,0.011741,0.0137553,0.0161117,inf	1009.57,1009.57,389.148,207.903,195.967,214.704,247.619,295.219,356.589,431.413,523.772,641.268,788.173,959.763,1139.4,1289.07,1368.01,1382.11,1378.01,1399.98,1469.65,1589.73,1725.2,1787.43,1907.17,2009.87,2513.47,2510.32,2510.32,161567,161567,161567
0.000649146	-174217.02	0,2.13523e-05,4.6329e-05,7.55457e-05,0.000109722,0.000149699,0.000196463,0.000251165,0.000315152,0.000390002,0.000477557,0.000579974,0.000699777,0.000839916,0.00100384,0.0011956,0.0014199,0.00168228,0.0019892,0.00234822,0.00276819,0.00325944,0.00383408,0.00450627,0.00529256,0.00621232,0.00728822,0.00854674,0.0100189,0.011741,0.0137553,0.0161117,inf	1006.71,1006.71,384.732,205.04,195.286,215.535,249.67,298.316,360.234,434.821,526.259,642.342,787.357,956.657,1134.17,1282.75,1361.82,1377.11,1375.85,1403.55,1483.31,1619.72,1778.79,1866.01,2025.19,2084.78,2588.43,2510.32,2510.32,161475,161475,161475
0.000649146	-174217.07	0,2.13523e-05,4.6329e-05,7.55457e-05,0.000109722,0.000149699,0.000196463,0.000251165,0.000315152,0.000390002,0.000477557,0.000579974,0.000699777,0.000839916,0.00100384,0.0011956,0.0014199,0.00168228,0.0019892,0.00234822,0.00276819,0.00325944,0.00383408,0.00450627,0.00529256,0.00621232,0.00728822,0.00854674,0.0100189,0.011741,0.0137553,0.0161117,inf	1004.45,1004.45,380.1,201.868,194.153,215.792,251.059,300.772,361.898,434.821,526.259,642.342,786.727,954.025,1129.57,1277.13,1356.28,1372.62,1373.99,1407.41,1492.33,1619.91,1778.79,1866.01,2025.19,2084.78,2588.43,2510.32,2510.32,161475,161475,161475
0.00068327	-174216.97	0,2.13523e-05,4.6329e-05,7.55457e-05,0.000109722,0.000149699,0.000196463,0.000251165,0.000315152,0.000390002,0.000477557,0.000579974,0.000699777,0.000839916,0.00100384,0.0011956,0.0014199,0.00168228,0.0019892,0.00234822,0.00276819,0.00325944,0.00383408,0.00450627,0.00529256,0.00621232,0.00728822,0.00854674,0.0100189,0.011741,0.0137553,0.0161117,inf	1019.82,1019.82,381.772,201.852,195.932,219.277,256.267,307.853,370.606,444.617,536.794,653.513,798.438,965.982,1141.42,1288.27,1365.84,1380.68,1382.57,1420.3,1514.82,1658.72,1842.9,1958.13,2165.16,2277.94,3057.2,2667.22,2667.22,161075,161075,161075
0.000716523	-174196.50	0,2.13523e-05,4.6329e-05,7.55457e-05,0.000109722,0.000149699,0.000196463,0.000251165,0.000315152,0.000390002,0.000477557,0.000579974,0.000699777,0.000839916,0.00100384,0.0011956,0.0014199,0.00168228,0.0019892,0.00234822,0.00276819,0.00325944,0.00383408,0.00450627,0.00529256,0.00621232,0.00728822,0.00854674,0.0100189,0.011741,0.0137553,0.0161117,inf	1007.9,1007.9,376.965,199.812,196.319,221.468,260.034,313.114,376.945,451.421,543.664,660.24,804.77,971.503,1145.78,1291.2,1367.16,1381.15,1384.47,1427.29,1532.04,1693.11,1904.41,2051.47,2316.66,2503.58,3817.97,3434.77,3434.77,160227,160227,160227
0.000750654	-174177.51	0,2.13523e-05,4.6329e-05,7.55457e-05,0.000109722,0.000149699,0.000196463,0.000251165,0.000315152,0.000390002,0.000477557,0.000579974,0.000699777,0.000839916,0.00100384,0.0011956,0.0014199,0.00168228,0.0019892,0.00234822,0.00276819,0.00325944,0.00383408,0.00450627,0.00529256,0.00621232,0.00728822,0.00854674,0.0100189,0.011741,0.0137553,0.0161117,inf	989.958,989.958,371.169,197.894,196.982,223.95,263.989,318.325,382.883,457.433,549.335,665.308,808.874,974.11,1146.46,1289.78,1363.82,1377.1,1382.18,1430.39,1545.61,1724.35,1964.34,2147.16,2483.05,2775.51,5561.95,5496.05,5496.05,124375,124375,124375
