0.000384223	-7924648.74	0,2.0722e-06,5.66778e-06,1.19066e-05,2.27319e-05,4.15153e-05,7.41073e-05,0.000130659,0.000228784,0.000399046,0.000694474,0.00120709,0.00209654,0.00363987,0.00631777,0.0109643,inf	124.551,124.551,224.522,284.29,317.68,332.82,352.778,397.762,482.659,648.696,1006.68,1110.5,1018.96,1070.68,1070.68,1070.68
0.000446609	-7912710.60	0,2.0722e-06,5.66778e-06,1.19066e-05,2.27319e-05,4.15153e-05,7.41073e-05,0.000130659,0.000228784,0.000399046,0.000694474,0.00120709,0.00209654,0.00363987,0.00631777,0.0109643,inf	49.8706,49.8706,152.734,225.523,257.852,255.301,255.991,290.887,378.785,572.013,1064.03,1290.53,1194.43,1462.58,1462.58,1462.58
0.000501543	-7908416.13	0,2.0722e-06,5.66778e-06,1.19066e-05,2.27319e-05,4.15153e-05,7.41073e-05,0.000130659,0.000228784,0.000399046,0.000694474,0.00120709,0.00209654,0.00363987,0.00631777,0.0109643,inf	26.5619,26.5619,135.825,230.411,267.845,248.402,230.593,253.947,336.139,531.566,1069.24,1386.6,1330.05,2233.13,2233.13,2233.13
0.000550564	-7906227.00	0,2.0722e-06,5.66778e-06,1.19066e-05,2.27319e-05,4.15153e-05,7.41073e-05,0.000130659,0.000228784,0.000399046,0.000694474,0.00120709,0.00209654,0.00363987,0.00631777,0.0109643,inf	14.7983,14.7983,125.368,244.834,293.978,260.844,227.519,241.95,318.617,510.238,1057.93,1435.74,1441.29,5720.85,5720.85,5720.85
0.000550564	-7904853.83	0,2.0722e-06,5.66778e-06,1.19066e-05,2.27319e-05,4.15153e-05,7.41073e-05,0.000130659,0.000228784,0.000399046,0.000694474,0.00120709,0.00209654,0.00363987,0.00631777,0.0109643,inf	8.09,8.09,112.464,252.743,318.048,276.358,231.53,239.862,312.282,496.694,1018.46,1426.94,1525.13,98571.8,98571.8,98571.8
0.000550564	-7904881.21	0,2.0722e-06,5.66778e-06,1.19066e-05,2.27319e-05,4.15153e-05,7.41073e-05,0.000130659,0.000228784,0.000399046,0.000694474,0.00120709,0.00209654,0.00363987,0.00631777,0.0109643,inf	4.30367,4.30367,97.7765,252.605,324.038,276.358,231.53,239.862,311.883,492.149,993.227,1421.5,1537.56,98571.8,98571.8,98571.8
