LogLikelihood = -836068.53414758341387

y0 1.0190800194239781895
y0_prime 0
y1 1.0333312648800403455
y1_prime 0
y2 0.88510929042589936433
y2_prime 0
y3 1.8733653349803089938
y3_prime 0
rho 0.00040818310983427942605
theta 0.0024845381381924337358
