time_index	left_time_boundary	right_time_boundary	lambda
0	0	2.66742e-06	428.363
1	2.66742e-06	6.12938e-06	428.363
2	6.12938e-06	1.06225e-05	2.37383
3	1.06225e-05	1.64541e-05	97.5748
4	1.64541e-05	2.40226e-05	812.224
5	2.40226e-05	3.38455e-05	523.571
6	3.38455e-05	4.65943e-05	256.831
7	4.65943e-05	6.31406e-05	233.108
8	6.31406e-05	8.46155e-05	344.07
9	8.46155e-05	0.000112487	392.036
10	0.000112487	0.00014866	334.609
11	0.00014866	0.000195609	316.246
12	0.000195609	0.000256541	356.456
13	0.000256541	0.000335623	341.477
14	0.000335623	0.000438262	324.04
15	0.000438262	0.000571472	343.38
16	0.000571472	0.000744362	366.564
17	0.000744362	0.000968749	369.487
18	0.000968749	0.00125997	379.207
19	0.00125997	0.00163794	386.538
20	0.00163794	0.0021285	397.85
21	0.0021285	0.00276517	426.735
22	0.00276517	0.00359149	460.103
23	0.00359149	0.00466394	469.573
24	0.00466394	0.00605583	453.984
25	0.00605583	0.00786233	422.477
26	0.00786233	0.0102069	317.262
27	0.0102069	0.0132499	427.218
28	0.0132499	0.0171992	427.218
29	0.0171992	0.0223249	61049.9
30	0.0223249	0.0289775	61049.9
31	0.0289775	inf	61049.9
