0.000671414	-8543618.55	0,2.66742e-06,6.12938e-06,1.06225e-05,1.64541e-05,2.40226e-05,3.38455e-05,4.65943e-05,6.31406e-05,8.46155e-05,0.000112487,0.00014866,0.000195609,0.000256541,0.000335623,0.000438262,0.000571472,0.000744362,0.000968749,0.00125997,0.00163794,0.0021285,0.00276517,0.00359149,0.00466394,0.00605583,0.00786233,0.0102069,0.0132499,0.0171992,0.0223249,0.0289775,inf	410.251,410.251,291.022,372.982,435.453,413.752,370.197,354.621,357.239,359.805,356.223,353.879,356.644,358.038,359.849,365.89,374.435,383.745,393.569,403.613,414.208,423.575,428.629,427.879,422.489,415.13,403.596,408.712,408.712,493.369,493.369,493.369
0.00071076	-8542458.05	0,2.66742e-06,6.12938e-06,1.06225e-05,1.64541e-05,2.40226e-05,3.38455e-05,4.65943e-05,6.31406e-05,8.46155e-05,0.000112487,0.00014866,0.000195609,0.000256541,0.000335623,0.000438262,0.000571472,0.000744362,0.000968749,0.00125997,0.00163794,0.0021285,0.00276517,0.00359149,0.00466394,0.00605583,0.00786233,0.0102069,0.0132499,0.0171992,0.0223249,0.0289775,inf	424.764,424.764,223.693,364.031,493.888,449.968,367.484,342.404,349.508,354.566,346.818,341.4,345.006,344.938,345.174,352.641,364.039,376.369,389.418,403.184,419.059,434.74,444.661,444.902,436.481,423.884,402.438,413.954,413.954,637.736,637.736,637.736
0.000745923	-8541761.48	0,2.66742e-06,6.12938e-06,1.06225e-05,1.64541e-05,2.40226e-05,3.38455e-05,4.65943e-05,6.31406e-05,8.46155e-05,0.000112487,0.00014866,0.000195609,0.000256541,0.000335623,0.000438262,0.000571472,0.000744362,0.000968749,0.00125997,0.00163794,0.0021285,0.00276517,0.00359149,0.00466394,0.00605583,0.00786233,0.0102069,0.0132499,0.0171992,0.0223249,0.0289775,inf	429.22,429.22,169.894,347.239,545.126,479.926,363.807,334.184,347.905,356.581,345.561,338.088,342.958,341.275,339.531,347.363,359.875,373.004,386.65,401.3,419.593,439.362,453.315,455.068,444.831,428.273,398.289,416.662,416.662,914.556,914.556,914.556
0.000777746	-8541256.86	0,2.66742e-06,6.12938e-06,1.06225e-05,1.64541e-05,2.40226e-05,3.38455e-05,4.65943e-05,6.31406e-05,8.46155e-05,0.000112487,0.00014866,0.000195609,0.000256541,0.000335623,0.000438262,0.000571472,0.000744362,0.000968749,0.00125997,0.00163794,0.0021285,0.00276517,0.00359149,0.00466394,0.00605583,0.00786233,0.0102069,0.0132499,0.0171992,0.0223249,0.0289775,inf	429.783,429.783,127.717,324.162,586.053,500.477,355.916,325.018,346.359,359.264,345.716,337.181,343.945,341.006,337.566,345.66,358.78,371.901,385.046,399.256,418.424,440.808,457.971,461.292,449.88,430.152,392.743,418.068,418.068,1813.21,1813.21,1813.21
0.000806839	-8540860.37	0,2.66742e-06,6.12938e-06,1.06225e-05,1.64541e-05,2.40226e-05,3.38455e-05,4.65943e-05,6.31406e-05,8.46155e-05,0.000112487,0.00014866,0.000195609,0.000256541,0.000335623,0.000438262,0.000571472,0.000744362,0.000968749,0.00125997,0.00163794,0.0021285,0.00276517,0.00359149,0.00466394,0.00605583,0.00786233,0.0102069,0.0132499,0.0171992,0.0223249,0.0289775,inf	430.163,430.163,95.785,299.116,619.725,514.107,345.265,314.975,344.087,361.25,345.551,336.618,345.704,341.87,337.115,345.615,359.254,372.105,384.3,397.455,416.651,440.7,460.41,465.2,452.961,430.571,386.608,418.849,418.849,17823.5,17823.5,17823.5
0.000806839	-8540535.94	0,2.66742e-06,6.12938e-06,1.06225e-05,1.64541e-05,2.40226e-05,3.38455e-05,4.65943e-05,6.31406e-05,8.46155e-05,0.000112487,0.00014866,0.000195609,0.000256541,0.000335623,0.000438262,0.000571472,0.000744362,0.000968749,0.00125997,0.00163794,0.0021285,0.00276517,0.00359149,0.00466394,0.00605583,0.00786233,0.0102069,0.0132499,0.0171992,0.0223249,0.0289775,inf	427.021,427.021,71.3279,272.1,643.266,518.561,330.37,301.978,338.215,359.104,341.49,332.595,344.064,339.608,333.903,342.872,356.916,369.338,380.374,392.204,410.955,436.056,457.98,464.527,452.187,427.879,378.624,417.772,417.772,61042,61042,61042
0.000806839	-8540514.82	0,2.66742e-06,6.12938e-06,1.06225e-05,1.64541e-05,2.40226e-05,3.38455e-05,4.65943e-05,6.31406e-05,8.46155e-05,0.000112487,0.00014866,0.000195609,0.000256541,0.000335623,0.000438262,0.000571472,0.000744362,0.000968749,0.00125997,0.00163794,0.0021285,0.00276517,0.00359149,0.00466394,0.00605583,0.00786233,0.0102069,0.0132499,0.0171992,0.0223249,0.0289775,inf	427.175,427.175,54.0355,249.814,670.754,518.561,319.864,292.953,336.061,360.419,340.364,331.182,344.961,339.787,333.1,342.639,357.243,369.368,379.296,389.716,407.774,433.492,457.114,465.015,452.369,425.951,371.687,417.331,417.331,61044.4,61044.4,61044.4
0.000806839	-8540505.64	0,2.66742e-06,6.12938e-06,1.06225e-05,1.64541e-05,2.40226e-05,3.38455e-05,4.65943e-05,6.31406e-05,8.46155e-05,0.000112487,0.00014866,0.000195609,0.000256541,0.000335623,0.000438262,0.000571472,0.000744362,0.000968749,0.00125997,0.00163794,0.0021285,0.00276517,0.00359149,0.00466394,0.00605583,0.00786233,0.0102069,0.0132499,0.0171992,0.0223249,0.0289775,inf	427.328,427.328,41.304,230.067,693.529,518.561,311.104,285.402,335.002,362.535,339.714,330.056,346.111,340.23,332.615,342.836,358.165,369.487,379.207,388.331,405.685,431.862,456.95,466.042,452.983,424.629,365.475,417.335,417.335,61045.9,61045.9,61045.9
0.000806839	-8540500.46	0,2.66742e-06,6.12938e-06,1.06225e-05,1.64541e-05,2.40226e-05,3.38455e-05,4.65943e-05,6.31406e-05,8.46155e-05,0.000112487,0.00014866,0.000195609,0.000256541,0.000335623,0.000438262,0.000571472,0.000744362,0.000968749,0.00125997,0.00163794,0.0021285,0.00276517,0.00359149,0.00466394,0.00605583,0.00786233,0.0102069,0.0132499,0.0171992,0.0223249,0.0289775,inf	427.36,427.36,31.8208,212.361,712.801,518.561,303.522,278.783,334.503,364.979,339.155,328.904,347.17,340.577,332.068,343.035,359.096,369.487,379.207,387.478,404.147,430.694,457.11,467.33,453.203,423.645,359.789,417.671,417.671,61046.9,61046.9,61046.9
0.000806839	-8540496.73	0,2.66742e-06,6.12938e-06,1.06225e-05,1.64541e-05,2.40226e-05,3.38455e-05,4.65943e-05,6.31406e-05,8.46155e-05,0.000112487,0.00014866,0.000195609,0.000256541,0.000335623,0.000438262,0.000571472,0.000744362,0.000968749,0.00125997,0.00163794,0.0021285,0.00276517,0.00359149,0.00466394,0.00605583,0.00786233,0.0102069,0.0132499,0.0171992,0.0223249,0.0289775,inf	427.595,427.595,24.662,196.423,729.331,518.561,296.867,272.878,334.437,367.65,338.65,327.728,348.153,340.841,331.456,343.208,359.917,369.487,379.207,386.958,402.953,429.801,457.11,468.59,453.203,422.984,354.543,418.286,418.286,61047.7,61047.7,61047.7
0.000806839	-8540493.79	0,2.66742e-06,6.12938e-06,1.06225e-05,1.64541e-05,2.40226e-05,3.38455e-05,4.65943e-05,6.31406e-05,8.46155e-05,0.000112487,0.00014866,0.000195609,0.000256541,0.000335623,0.000438262,0.000571472,0.000744362,0.000968749,0.00125997,0.00163794,0.0021285,0.00276517,0.00359149,0.00466394,0.00605583,0.00786233,0.0102069,0.0132499,0.0171992,0.0223249,0.0289775,inf	427.693,427.693,19.2126,182.029,743.656,518.561,290.957,267.535,334.696,370.481,338.173,326.533,349.082,340.841,330.787,343.348,360.761,369.487,379.207,386.678,402.011,429.118,457.611,468.611,453.61,422.598,349.675,419.141,419.141,61048.2,61048.2,61048.2
0.000806839	-8540491.37	0,2.66742e-06,6.12938e-06,1.06225e-05,1.64541e-05,2.40226e-05,3.38455e-05,4.65943e-05,6.31406e-05,8.46155e-05,0.000112487,0.00014866,0.000195609,0.000256541,0.000335623,0.000438262,0.000571472,0.000744362,0.000968749,0.00125997,0.00163794,0.0021285,0.00276517,0.00359149,0.00466394,0.00605583,0.00786233,0.0102069,0.0132499,0.0171992,0.0223249,0.0289775,inf	427.737,427.737,15.038,168.964,756.201,518.561,285.666,262.627,335.198,373.448,337.726,325.334,349.992,341.015,330.096,343.458,361.425,369.487,379.207,386.557,401.243,428.582,458.228,468.848,453.61,422.477,345.131,420.198,420.198,61048.5,61048.5,61048.5
0.000806839	-8540489.45	0,2.66742e-06,6.12938e-06,1.06225e-05,1.64541e-05,2.40226e-05,3.38455e-05,4.65943e-05,6.31406e-05,8.46155e-05,0.000112487,0.00014866,0.000195609,0.000256541,0.000335623,0.000438262,0.000571472,0.000744362,0.000968749,0.00125997,0.00163794,0.0021285,0.00276517,0.00359149,0.00466394,0.00605583,0.00786233,0.0102069,0.0132499,0.0171992,0.0223249,0.0289775,inf	427.808,427.808,11.8219,157.072,767.274,518.561,280.861,258.074,335.862,376.48,337.265,324.132,350.875,341.16,329.377,343.54,362.053,369.487,379.207,386.538,400.586,428.134,458.917,468.89,453.61,422.477,340.869,421.429,421.429,61048.7,61048.7,61048.7
0.000806839	-8540487.86	0,2.66742e-06,6.12938e-06,1.06225e-05,1.64541e-05,2.40226e-05,3.38455e-05,4.65943e-05,6.31406e-05,8.46155e-05,0.000112487,0.00014866,0.000195609,0.000256541,0.000335623,0.000438262,0.000571472,0.000744362,0.000968749,0.00125997,0.00163794,0.0021285,0.00276517,0.00359149,0.00466394,0.00605583,0.00786233,0.0102069,0.0132499,0.0171992,0.0223249,0.0289775,inf	427.891,427.891,9.3206,146.227,777.114,518.561,276.442,253.808,336.65,376.494,336.768,322.888,351.726,341.282,328.626,343.592,363.179,369.487,379.207,386.538,400.01,427.756,458.92,468.89,453.984,422.477,336.858,422.774,422.774,61048.7,61048.7,61048.7
0.000806839	-8540486.52	0,2.66742e-06,6.12938e-06,1.06225e-05,1.64541e-05,2.40226e-05,3.38455e-05,4.65943e-05,6.31406e-05,8.46155e-05,0.000112487,0.00014866,0.000195609,0.000256541,0.000335623,0.000438262,0.000571472,0.000744362,0.000968749,0.00125997,0.00163794,0.0021285,0.00276517,0.00359149,0.00466394,0.00605583,0.00786233,0.0102069,0.0132499,0.0171992,0.0223249,0.0289775,inf	427.974,427.974,7.3799,136.358,785.87,518.561,272.671,250.057,337.892,379.489,336.488,321.76,351.726,341.373,327.823,343.57,363.996,369.487,379.207,386.538,399.529,427.473,459.416,468.895,453.984,422.477,333.069,424.044,424.044,61048.7,61048.7,61048.7
0.000806839	-8540485.24	0,2.66742e-06,6.12938e-06,1.06225e-05,1.64541e-05,2.40226e-05,3.38455e-05,4.65943e-05,6.31406e-05,8.46155e-05,0.000112487,0.00014866,0.000195609,0.000256541,0.000335623,0.000438262,0.000571472,0.000744362,0.000968749,0.00125997,0.00163794,0.0021285,0.00276517,0.00359149,0.00466394,0.00605583,0.00786233,0.0102069,0.0132499,0.0171992,0.0223249,0.0289775,inf	428.137,428.137,5.85688,127.276,793.773,518.561,269.136,246.459,339.172,382.255,336.219,320.692,352.676,341.398,327.045,343.535,364.485,369.487,379.207,386.538,399.096,427.234,459.857,468.895,453.984,422.477,329.524,424.044,424.044,61049.4,61049.4,61049.4
0.000806839	-8540483.66	0,2.66742e-06,6.12938e-06,1.06225e-05,1.64541e-05,2.40226e-05,3.38455e-05,4.65943e-05,6.31406e-05,8.46155e-05,0.000112487,0.00014866,0.000195609,0.000256541,0.000335623,0.000438262,0.000571472,0.000744362,0.000968749,0.00125997,0.00163794,0.0021285,0.00276517,0.00359149,0.00466394,0.00605583,0.00786233,0.0102069,0.0132499,0.0171992,0.0223249,0.0289775,inf	428.142,428.142,4.65821,118.915,800.926,518.561,265.795,242.972,340.421,384.891,335.886,319.597,353.623,341.456,326.289,343.501,364.966,369.487,379.207,386.538,398.712,427.039,459.861,469.184,453.984,422.477,326.192,425.162,425.162,61049.4,61049.4,61049.4
0.000806839	-8540482.72	0,2.66742e-06,6.12938e-06,1.06225e-05,1.64541e-05,2.40226e-05,3.38455e-05,4.65943e-05,6.31406e-05,8.46155e-05,0.000112487,0.00014866,0.000195609,0.000256541,0.000335623,0.000438262,0.000571472,0.000744362,0.000968749,0.00125997,0.00163794,0.0021285,0.00276517,0.00359149,0.00466394,0.00605583,0.00786233,0.0102069,0.0132499,0.0171992,0.0223249,0.0289775,inf	428.168,428.168,3.71201,111.206,800.927,523.571,262.656,239.596,341.659,387.378,335.499,318.486,354.561,341.468,325.53,343.467,365.49,369.487,379.207,386.538,398.385,426.898,459.861,469.417,453.984,422.477,323.041,426.218,426.218,61049.4,61049.4,61049.4
0.000806839	-8540481.84	0,2.66742e-06,6.12938e-06,1.06225e-05,1.64541e-05,2.40226e-05,3.38455e-05,4.65943e-05,6.31406e-05,8.46155e-05,0.000112487,0.00014866,0.000195609,0.000256541,0.000335623,0.000438262,0.000571472,0.000744362,0.000968749,0.00125997,0.00163794,0.0021285,0.00276517,0.00359149,0.00466394,0.00605583,0.00786233,0.0102069,0.0132499,0.0171992,0.0223249,0.0289775,inf	428.18,428.18,2.96412,104.114,806.835,523.571,259.642,236.289,342.855,389.798,335.063,317.366,355.504,341.468,324.784,343.427,366.026,369.487,379.207,386.538,398.104,426.803,460.102,469.417,453.984,422.477,320.06,427.218,427.218,61049.4,61049.4,61049.4
0.000806839	-8540481.03	0,2.66742e-06,6.12938e-06,1.06225e-05,1.64541e-05,2.40226e-05,3.38455e-05,4.65943e-05,6.31406e-05,8.46155e-05,0.000112487,0.00014866,0.000195609,0.000256541,0.000335623,0.000438262,0.000571472,0.000744362,0.000968749,0.00125997,0.00163794,0.0021285,0.00276517,0.00359149,0.00466394,0.00605583,0.00786233,0.0102069,0.0132499,0.0171992,0.0223249,0.0289775,inf	428.363,428.363,2.37383,97.5748,812.224,523.571,256.831,233.108,344.07,392.036,334.609,316.246,356.456,341.477,324.04,343.38,366.564,369.487,379.207,386.538,397.85,426.735,460.103,469.573,453.984,422.477,317.262,427.218,427.218,61049.9,61049.9,61049.9
