0.00030208	-8552577.12	0,9.96284e-07,2.30864e-06,4.03734e-06,6.31446e-06,9.314e-06,1.32651e-05,1.84698e-05,2.53256e-05,3.43563e-05,4.62521e-05,6.19218e-05,8.25627e-05,0.000109752,0.000145567,0.000192744,0.000254888,0.000336747,0.000444576,0.000586614,0.000773712,0.00102017,0.00134481,0.00177245,0.00233575,0.00307776,0.00405517,0.00534266,0.00703861,0.0092726,0.0122153,0.0160916,inf	3.35084,3.35084,7.6846,121.181,18.8012,17.594,23.9062,80.0872,49.2895,53.5552,73.2985,106.501,150.277,171.918,229.915,332.335,487.91,650.124,677.863,566.093,492.452,537.362,710.505,928.954,974.502,934.569,895.183,856.633,856.633,832.234,832.234,832.234
0.000258024	-8538865.69	0,9.96284e-07,2.30864e-06,4.03734e-06,6.31446e-06,9.314e-06,1.32651e-05,1.84698e-05,2.53256e-05,3.43563e-05,4.62521e-05,6.19218e-05,8.25627e-05,0.000109752,0.000145567,0.000192744,0.000254888,0.000336747,0.000444576,0.000586614,0.000773712,0.00102017,0.00134481,0.00177245,0.00233575,0.00307776,0.00405517,0.00534266,0.00703861,0.0092726,0.0122153,0.0160916,inf	0.707631,0.707631,0.707634,9.46359,0.735264,0.707626,0.707626,6.6217,3.36071,3.85481,7.06918,14.6079,38.4045,44.1994,80.6376,170.277,369.048,664.993,732.587,489.611,352.12,405.672,659.628,1093.7,1236.39,1179.54,1111.84,1036.64,1036.64,1002.9,1002.9,1002.9
0.000217019	-8530107.36	0,9.96284e-07,2.30864e-06,4.03734e-06,6.31446e-06,9.314e-06,1.32651e-05,1.84698e-05,2.53256e-05,3.43563e-05,4.62521e-05,6.19218e-05,8.25627e-05,0.000109752,0.000145567,0.000192744,0.000254888,0.000336747,0.000444576,0.000586614,0.000773712,0.00102017,0.00134481,0.00177245,0.00233575,0.00307776,0.00405517,0.00534266,0.00703861,0.0092726,0.0122153,0.0160916,inf	0.707631,0.707631,0.707628,1.01821,0.735264,0.707626,0.707626,0.978825,0.710494,0.707626,0.707627,1.75875,15.365,10.4869,26.2492,81.6885,265.74,666.345,820.536,441.274,251.302,303.73,593.502,1208.52,1487.98,1444.04,1373.29,1271.45,1271.45,1276.32,1276.32,1276.32
0.000178628	-8523404.67	0,9.96284e-07,2.30864e-06,4.03734e-06,6.31446e-06,9.314e-06,1.32651e-05,1.84698e-05,2.53256e-05,3.43563e-05,4.62521e-05,6.19218e-05,8.25627e-05,0.000109752,0.000145567,0.000192744,0.000254888,0.000336747,0.000444576,0.000586614,0.000773712,0.00102017,0.00134481,0.00177245,0.00233575,0.00307776,0.00405517,0.00534266,0.00703861,0.0092726,0.0122153,0.0160916,inf	0.70763,0.70763,0.707627,0.709495,0.735264,0.707626,0.707626,0.707638,0.710494,0.707626,0.707626,0.707626,11.6173,2.29422,7.59187,35.0184,174.479,624.607,908.671,411.851,176.834,224.397,528.23,1282.83,1730.62,1735.05,1715.31,1619.68,1619.68,1877.72,1877.72,1877.72
0.000143115	-8517802.72	0,9.96284e-07,2.30864e-06,4.03734e-06,6.31446e-06,9.314e-06,1.32651e-05,1.84698e-05,2.53256e-05,3.43563e-05,4.62521e-05,6.19218e-05,8.25627e-05,0.000109752,0.000145567,0.000192744,0.000254888,0.000336747,0.000444576,0.000586614,0.000773712,0.00102017,0.00134481,0.00177245,0.00233575,0.00307776,0.00405517,0.00534266,0.00703861,0.0092726,0.0122153,0.0160916,inf	0.707626,0.707626,0.707626,0.709495,0.735264,0.707626,0.707626,0.707638,0.710494,0.707626,0.707626,0.707626,12.5162,0.70768,1.9191,13.1529,102.763,541.518,958.942,397.642,121.049,161.93,468.511,1324.39,1965.51,2062.77,2222.55,2265.5,2265.5,4851.58,4851.58,4851.58
0.000110924	-8512890.26	0,9.96284e-07,2.30864e-06,4.03734e-06,6.31446e-06,9.314e-06,1.32651e-05,1.84698e-05,2.53256e-05,3.43563e-05,4.62521e-05,6.19218e-05,8.25627e-05,0.000109752,0.000145567,0.000192744,0.000254888,0.000336747,0.000444576,0.000586614,0.000773712,0.00102017,0.00134481,0.00177245,0.00233575,0.00307776,0.00405517,0.00534266,0.00703861,0.0092726,0.0122153,0.0160916,inf	0.707626,0.707626,0.707626,0.708201,0.735264,0.707626,0.707626,0.707627,0.710494,0.707626,0.707626,0.707626,15.3687,0.70768,0.707626,4.26147,53.5383,435.565,936.455,392.232,78.8111,112.323,414.258,1340.03,2188.15,2438.02,3154.6,4207.39,4207.39,102289,102289,102289
