time_index	left_time_boundary	right_time_boundary	lambda
0	0	1.13364e-05	1.49739
1	1.13364e-05	2.45972e-05	1.49739
2	2.45972e-05	4.01089e-05	1.49739
3	4.01089e-05	5.82538e-05	1.49739
4	5.82538e-05	7.94788e-05	1.49739
5	7.94788e-05	0.000104307	1.49739
6	0.000104307	0.000133349	1.49739
7	0.000133349	0.000167322	1.49739
8	0.000167322	0.000207061	1.49739
9	0.000207061	0.000253546	1.49739
10	0.000253546	0.000307922	6.90788
11	0.000307922	0.000371528	74.1843
12	0.000371528	0.000445931	418.803
13	0.000445931	0.000532964	1403.43
14	0.000532964	0.000634771	3339.66
15	0.000634771	0.00075386	6257.38
16	0.00075386	0.000893164	10027.3
17	0.000893164	0.00105611	16763.9
18	0.00105611	0.00124673	92536.2
19	0.00124673	0.00146969	2.73404e+06
20	0.00146969	0.00173051	750.866
21	0.00173051	0.0020356	326.357
22	0.0020356	0.00239248	817.598
23	0.00239248	0.00280994	2985.56
24	0.00280994	0.00329827	3064.44
25	0.00329827	0.00386948	11640.5
26	0.00386948	0.00453766	19896.9
27	0.00453766	0.00531927	3367.87
28	0.00531927	0.00623355	3367.87
29	0.00623355	0.00730303	21706.5
30	0.00730303	0.00855405	21706.5
31	0.00855405	inf	21706.5
