0.000718306	-317865.49	0,9.69683e-05,0.000229651,0.000411204,0.000659625,0.000999543,0.00146466,0.00210108,0.00297191,0.00416347,0.00579391,0.00802487,0.0110775,0.0152545,0.0209699,0.0287904,inf	329.861,329.861,345.393,356.828,369.999,384.228,390.976,392.978,396.126,398.289,404.085,407.543,382.497,258.825,258.825,258.825
0.000770896	-317811.84	0,9.69683e-05,0.000229651,0.000411204,0.000659625,0.000999543,0.00146466,0.00210108,0.00297191,0.00416347,0.00579391,0.00802487,0.0110775,0.0152545,0.0209699,0.0287904,inf	315.601,315.601,335.064,348.189,365.679,386.646,395.157,396.5,401.837,407.107,420.497,429.988,383.049,191.942,191.942,191.942
0.000817354	-317777.16	0,9.69683e-05,0.000229651,0.000411204,0.000659625,0.000999543,0.00146466,0.00210108,0.00297191,0.00416347,0.00579391,0.00802487,0.0110775,0.0152545,0.0209699,0.0287904,inf	311.174,311.174,332.508,344.723,363.756,388.656,396.869,396.247,402.656,410.808,432.152,449.148,383.255,139.451,139.451,139.451
0.000858523	-317753.16	0,9.69683e-05,0.000229651,0.000411204,0.000659625,0.000999543,0.00146466,0.00210108,0.00297191,0.00416347,0.00579391,0.00802487,0.0110775,0.0152545,0.0209699,0.0287904,inf	309.447,309.447,332.669,343.304,362.979,390.667,397.738,394.571,401.195,411.731,440.926,466.759,386.194,77.3794,77.3794,77.3794
0.000895502	-317742.16	0,9.69683e-05,0.000229651,0.000411204,0.000659625,0.000999543,0.00146466,0.00210108,0.00297191,0.00416347,0.00579391,0.00802487,0.0110775,0.0152545,0.0209699,0.0287904,inf	308.396,308.396,333.869,342.797,362.852,392.843,398.47,392.56,398.838,411.346,448.545,486.441,400.851,21.843,21.843,21.843
0.00092805	-317766.94	0,9.69683e-05,0.000229651,0.000411204,0.000659625,0.000999543,0.00146466,0.00210108,0.00297191,0.00416347,0.00579391,0.00802487,0.0110775,0.0152545,0.0209699,0.0287904,inf	307.441,307.441,335.483,342.72,363.096,395.206,399.382,390.785,396.455,410.816,457.261,517.068,447.448,30.5458,30.5458,30.5458
0.000957619	-317739.51	0,9.69683e-05,0.000229651,0.000411204,0.000659625,0.000999543,0.00146466,0.00210108,0.00297191,0.00416347,0.00579391,0.00802487,0.0110775,0.0152545,0.0209699,0.0287904,inf	306.404,306.404,337.056,342.548,363.208,397.244,399.901,388.493,392.902,407.915,460.781,534.507,461.159,19.7865,19.7865,19.7865
0.000984022	-317742.06	0,9.69683e-05,0.000229651,0.000411204,0.000659625,0.000999543,0.00146466,0.00210108,0.00297191,0.00416347,0.00579391,0.00802487,0.0110775,0.0152545,0.0209699,0.0287904,inf	305.451,305.451,338.709,342.454,363.44,399.389,400.685,386.625,389.614,404.921,463.863,554.067,483.17,32.9424,32.9424,32.9424
0.00100863	-317719.05	0,9.69683e-05,0.000229651,0.000411204,0.000659625,0.000999543,0.00146466,0.00210108,0.00297191,0.00416347,0.00579391,0.00802487,0.0110775,0.0152545,0.0209699,0.0287904,inf	304.565,304.565,340.315,342.272,363.617,401.451,401.505,384.893,386.231,401.209,464.469,564.535,476.832,17.5101,17.5101,17.5101
0.0010306	-317730.17	0,9.69683e-05,0.000229651,0.000411204,0.000659625,0.000999543,0.00146466,0.00210108,0.00297191,0.00416347,0.00579391,0.00802487,0.0110775,0.0152545,0.0209699,0.0287904,inf	303.773,303.773,341.915,342.056,363.781,403.522,402.564,383.676,383.459,398.124,466.185,582.235,495.384,36.3925,36.3925,36.3925
0.00105142	-317705.06	0,9.69683e-05,0.000229651,0.000411204,0.000659625,0.000999543,0.00146466,0.00210108,0.00297191,0.00416347,0.00579391,0.00802487,0.0110775,0.0152545,0.0209699,0.0287904,inf	303.063,303.063,343.435,341.699,363.794,405.382,403.514,382.463,380.56,394.434,465.612,589.309,478.685,15.6383,15.6383,15.6383
0.00106983	-317723.53	0,9.69683e-05,0.000229651,0.000411204,0.000659625,0.000999543,0.00146466,0.00210108,0.00297191,0.00416347,0.00579391,0.00802487,0.0110775,0.0152545,0.0209699,0.0287904,inf	302.463,302.463,344.98,341.332,363.786,407.222,404.655,381.729,378.331,391.604,466.873,607.567,501.346,39.1833,39.1833,39.1833
0.00108755	-317695.76	0,9.69683e-05,0.000229651,0.000411204,0.000659625,0.000999543,0.00146466,0.00210108,0.00297191,0.00416347,0.00579391,0.00802487,0.0110775,0.0152545,0.0209699,0.0287904,inf	301.917,301.917,346.444,340.838,363.617,408.803,405.588,380.859,375.848,388.071,465.626,612.451,477.586,14.5437,14.5437,14.5437
0.00110306	-317718.93	0,9.69683e-05,0.000229651,0.000411204,0.000659625,0.000999543,0.00146466,0.00210108,0.00297191,0.00416347,0.00579391,0.00802487,0.0110775,0.0152545,0.0209699,0.0287904,inf	301.473,301.473,347.964,340.384,363.466,410.393,406.717,380.455,374.052,385.496,466.58,631.374,503.35,40.666,40.666,40.666
0.00111821	-317689.90	0,9.69683e-05,0.000229651,0.000411204,0.000659625,0.000999543,0.00146466,0.00210108,0.00297191,0.00416347,0.00579391,0.00802487,0.0110775,0.0152545,0.0209699,0.0287904,inf	301.048,301.048,349.397,339.819,363.163,411.715,407.589,379.835,371.924,382.166,464.937,634.88,474.571,13.9385,13.9385,13.9385
0.00113135	-317715.68	0,9.69683e-05,0.000229651,0.000411204,0.000659625,0.000999543,0.00146466,0.00210108,0.00297191,0.00416347,0.00579391,0.00802487,0.0110775,0.0152545,0.0209699,0.0287904,inf	300.703,300.703,350.896,339.326,362.911,413.077,408.664,379.664,370.474,379.815,465.639,654.401,501.609,41.3692,41.3692,41.3692
0.00114436	-317686.20	0,9.69683e-05,0.000229651,0.000411204,0.000659625,0.000999543,0.00146466,0.00210108,0.00297191,0.00416347,0.00579391,0.00802487,0.0110775,0.0152545,0.0209699,0.0287904,inf	300.343,300.343,352.298,338.733,362.521,414.177,409.461,379.231,368.648,376.695,463.759,657.054,469.358,13.5406,13.5406,13.5406
0.00115552	-317713.62	0,9.69683e-05,0.000229651,0.000411204,0.000659625,0.000999543,0.00146466,0.00210108,0.00297191,0.00416347,0.00579391,0.00802487,0.0110775,0.0152545,0.0209699,0.0287904,inf	300.056,300.056,353.772,338.232,362.204,415.341,410.466,379.232,367.479,374.543,464.263,677.352,497.158,41.7567,41.7567,41.7567
0.00116674	-317683.90	0,9.69683e-05,0.000229651,0.000411204,0.000659625,0.000999543,0.00146466,0.00210108,0.00297191,0.00416347,0.00579391,0.00802487,0.0110775,0.0152545,0.0209699,0.0287904,inf	299.733,299.733,355.137,337.64,361.76,416.253,411.182,378.94,365.905,371.615,462.218,679.436,462.386,13.228,13.228,13.228
0.00117625	-317712.54	0,9.69683e-05,0.000229651,0.000411204,0.000659625,0.000999543,0.00146466,0.00210108,0.00297191,0.00416347,0.00579391,0.00802487,0.0110775,0.0152545,0.0209699,0.0287904,inf	299.476,299.476,356.576,337.15,361.406,417.247,412.113,379.07,364.968,369.634,462.557,700.748,490.93,42.026,42.026,42.026
