time_index	left_time_boundary	right_time_boundary	lambda
0	0	1.77725e-06	0.396683
1	1.77725e-06	4.11832e-06	0.396683
2	4.11832e-06	7.2021e-06	6.19186
3	7.2021e-06	1.12642e-05	141.519
4	1.12642e-05	1.6615e-05	226.186
5	1.6615e-05	2.36633e-05	90.0444
6	2.36633e-05	3.29477e-05	267.71
7	3.29477e-05	4.51776e-05	424.427
8	4.51776e-05	6.12874e-05	387.556
9	6.12874e-05	8.2508e-05	374.234
10	8.2508e-05	0.000110461	367.265
11	0.000110461	0.000147282	366.425
12	0.000147282	0.000195784	379.898
13	0.000195784	0.000259673	392.648
14	0.000259673	0.000343831	392.315
15	0.000343831	0.000454688	381.755
16	0.000454688	0.000600715	377.434
17	0.000600715	0.000793068	376.059
18	0.000793068	0.00104644	381.781
19	0.00104644	0.00138021	394.932
20	0.00138021	0.00181985	404.979
21	0.00181985	0.00239897	410.872
22	0.00239897	0.00316182	410.512
23	0.00316182	0.00416668	390.077
24	0.00416668	0.00549033	362.963
25	0.00549033	0.00723391	365.956
26	0.00723391	0.00953064	377.436
27	0.00953064	0.012556	654.648
28	0.012556	0.0165411	654.648
29	0.0165411	0.0217906	17.5828
30	0.0217906	0.0287054	17.5828
31	0.0287054	inf	17.5828
