time_index	left_time_boundary	right_time_boundary	lambda
0	0	4.7927e-05	399.48
1	4.7927e-05	0.000104579	399.48
2	0.000104579	0.000171543	399.48
3	0.000171543	0.000250698	399.48
4	0.000250698	0.000344262	399.48
5	0.000344262	0.000454859	399.48
6	0.000454859	0.000585589	399.48
7	0.000585589	0.000740117	399.48
8	0.000740117	0.000922776	399.48
9	0.000922776	0.00113869	399.48
10	0.00113869	0.0013939	399.48
11	0.0013939	0.00169557	399.48
12	0.00169557	0.00205217	399.48
13	0.00205217	0.00247367	399.48
14	0.00247367	0.00297191	399.48
15	0.00297191	0.00356084	399.48
16	0.00356084	0.00425699	399.48
17	0.00425699	0.00507987	399.48
18	0.00507987	0.00605254	399.48
19	0.00605254	0.00720227	399.48
20	0.00720227	0.00856131	399.48
21	0.00856131	0.0101677	399.48
22	0.0101677	0.0120666	399.48
23	0.0120666	0.0143112	399.48
24	0.0143112	0.0169643	399.48
25	0.0169643	0.0201004	399.48
26	0.0201004	0.0238075	399.48
27	0.0238075	0.0281893	399.48
28	0.0281893	0.0333689	399.48
29	0.0333689	inf	399.48
