0.000689092	-13757636.08	0,1.77725e-06,4.11832e-06,7.2021e-06,1.12642e-05,1.6615e-05,2.36633e-05,3.29477e-05,4.51776e-05,6.12874e-05,8.2508e-05,0.000110461,0.000147282,0.000195784,0.000259673,0.000343831,0.000454688,0.000600715,0.000793068,0.00104644,0.00138021,0.00181985,0.00239897,0.00316182,0.00416668,0.00549033,0.00723391,0.00953064,0.012556,0.0165411,0.0217906,0.0287054,inf	99.5747,99.5747,154.358,204.618,255.121,286.088,330.212,361.378,372.42,377.06,378.076,376.996,376.262,375.914,375.391,374.712,375.843,378.919,383.513,389.641,395.597,400.173,402.748,401.345,397.754,398.084,399.175,398.534,398.534,327.848,327.848,327.848
0.000742879	-13755048.57	0,1.77725e-06,4.11832e-06,7.2021e-06,1.12642e-05,1.6615e-05,2.36633e-05,3.29477e-05,4.51776e-05,6.12874e-05,8.2508e-05,0.000110461,0.000147282,0.000195784,0.000259673,0.000343831,0.000454688,0.000600715,0.000793068,0.00104644,0.00138021,0.00181985,0.00239897,0.00316182,0.00416668,0.00549033,0.00723391,0.00953064,0.012556,0.0165411,0.0217906,0.0287054,inf	39.0657,39.0657,87.5921,143.835,206.82,239.362,305.275,356.364,372.149,377.972,378.395,375.695,374.031,372.991,371.287,368.911,369.513,373.184,379.309,388.072,396.587,403.061,406.589,403.59,397.198,398.222,400.54,399.92,399.92,278.118,278.118,278.118
0.000791804	-13753115.48	0,1.77725e-06,4.11832e-06,7.2021e-06,1.12642e-05,1.6615e-05,2.36633e-05,3.29477e-05,4.51776e-05,6.12874e-05,8.2508e-05,0.000110461,0.000147282,0.000195784,0.000259673,0.000343831,0.000454688,0.000600715,0.000793068,0.00104644,0.00138021,0.00181985,0.00239897,0.00316182,0.00416668,0.00549033,0.00723391,0.00953064,0.012556,0.0165411,0.0217906,0.0287054,inf	19.2091,19.2091,60.2451,118.45,187.097,212.193,291.289,357.174,374.876,380.783,380.604,376.925,375.12,374.03,371.56,367.704,367.599,371.19,377.844,387.942,397.678,404.983,408.829,404.339,395.763,397.662,401.228,401.147,401.147,237.359,237.359,237.359
0.00083637	-13751628.57	0,1.77725e-06,4.11832e-06,7.2021e-06,1.12642e-05,1.6615e-05,2.36633e-05,3.29477e-05,4.51776e-05,6.12874e-05,8.2508e-05,0.000110461,0.000147282,0.000195784,0.000259673,0.000343831,0.000454688,0.000600715,0.000793068,0.00104644,0.00138021,0.00181985,0.00239897,0.00316182,0.00416668,0.00549033,0.00723391,0.00953064,0.012556,0.0165411,0.0217906,0.0287054,inf	10.7517,10.7517,46.2527,107.005,179.806,193.732,281.828,359.25,377.025,382.421,381.766,377.682,376.388,375.812,373.02,368.038,367.328,370.641,377.433,388.271,398.593,406.221,410.08,404.24,393.926,396.769,401.557,402.53,402.53,200.029,200.029,200.029
0.000877056	-13750469.62	0,1.77725e-06,4.11832e-06,7.2021e-06,1.12642e-05,1.6615e-05,2.36633e-05,3.29477e-05,4.51776e-05,6.12874e-05,8.2508e-05,0.000110461,0.000147282,0.000195784,0.000259673,0.000343831,0.000454688,0.000600715,0.000793068,0.00104644,0.00138021,0.00181985,0.00239897,0.00316182,0.00416668,0.00549033,0.00723391,0.00953064,0.012556,0.0165411,0.0217906,0.0287054,inf	6.48982,6.48982,37.9477,102.276,178.935,180.017,275.123,361.866,378.422,382.89,381.814,377.679,377.29,377.574,374.765,368.947,367.759,370.734,377.497,388.768,399.339,407.024,410.738,403.679,391.949,395.752,401.735,404.439,404.439,161.524,161.524,161.524
0.000914234	-13749566.41	0,1.77725e-06,4.11832e-06,7.2021e-06,1.12642e-05,1.6615e-05,2.36633e-05,3.29477e-05,4.51776e-05,6.12874e-05,8.2508e-05,0.000110461,0.000147282,0.000195784,0.000259673,0.000343831,0.000454688,0.000600715,0.000793068,0.00104644,0.00138021,0.00181985,0.00239897,0.00316182,0.00416668,0.00549033,0.00723391,0.00953064,0.012556,0.0165411,0.0217906,0.0287054,inf	4.10553,4.10553,32.3904,101.13,181.529,169.16,270.383,364.962,379.381,382.633,381.125,377.133,377.846,379.167,376.52,370.069,368.505,371.127,377.785,389.318,399.954,407.551,411.036,402.873,389.972,394.74,401.941,407.545,407.545,114.631,114.631,114.631
0.000948057	-13748904.86	0,1.77725e-06,4.11832e-06,7.2021e-06,1.12642e-05,1.6615e-05,2.36633e-05,3.29477e-05,4.51776e-05,6.12874e-05,8.2508e-05,0.000110461,0.000147282,0.000195784,0.000259673,0.000343831,0.000454688,0.000600715,0.000793068,0.00104644,0.00138021,0.00181985,0.00239897,0.00316182,0.00416668,0.00549033,0.00723391,0.00953064,0.012556,0.0165411,0.0217906,0.0287054,inf	2.67336,2.67336,28.2794,102.011,185.901,160.084,267.103,368.496,380.135,381.989,380.032,376.264,378.155,380.581,378.188,371.24,369.371,371.643,378.163,389.859,400.455,407.89,411.107,401.952,388.092,393.879,402.499,413.969,413.969,43.5267,43.5267,43.5267
0.000979235	-13748947.81	0,1.77725e-06,4.11832e-06,7.2021e-06,1.12642e-05,1.6615e-05,2.36633e-05,3.29477e-05,4.51776e-05,6.12874e-05,8.2508e-05,0.000110461,0.000147282,0.000195784,0.000259673,0.000343831,0.000454688,0.000600715,0.000793068,0.00104644,0.00138021,0.00181985,0.00239897,0.00316182,0.00416668,0.00549033,0.00723391,0.00953064,0.012556,0.0165411,0.0217906,0.0287054,inf	1.7697,1.7697,25.0123,104.091,191.135,152.248,265.023,372.572,381.003,381.357,378.917,375.407,378.48,382.012,379.902,372.54,370.405,372.331,378.707,390.521,401.036,408.3,411.281,401.311,386.83,394.177,405.822,439.537,439.537,16.3012,16.3012,16.3012
0.00100661	-13749340.00	0,1.77725e-06,4.11832e-06,7.2021e-06,1.12642e-05,1.6615e-05,2.36633e-05,3.29477e-05,4.51776e-05,6.12874e-05,8.2508e-05,0.000110461,0.000147282,0.000195784,0.000259673,0.000343831,0.000454688,0.000600715,0.000793068,0.00104644,0.00138021,0.00181985,0.00239897,0.00316182,0.00416668,0.00549033,0.00723391,0.00953064,0.012556,0.0165411,0.0217906,0.0287054,inf	1.17605,1.17605,22.254,106.756,196.469,145.143,263.642,376.764,381.705,380.554,377.622,374.372,378.593,383.192,381.362,373.635,371.258,372.841,379.075,390.975,401.379,408.441,411.159,400.432,385.471,394.599,410.503,491.162,491.162,20.6268,20.6268,20.6268
0.00103187	-13748419.11	0,1.77725e-06,4.11832e-06,7.2021e-06,1.12642e-05,1.6615e-05,2.36633e-05,3.29477e-05,4.51776e-05,6.12874e-05,8.2508e-05,0.000110461,0.000147282,0.000195784,0.000259673,0.000343831,0.000454688,0.000600715,0.000793068,0.00104644,0.00138021,0.00181985,0.00239897,0.00316182,0.00416668,0.00549033,0.00723391,0.00953064,0.012556,0.0165411,0.0217906,0.0287054,inf	0.785536,0.785536,19.8397,109.696,201.542,138.562,262.791,381.069,382.328,379.683,376.27,373.284,378.61,384.233,382.677,374.632,372.037,373.283,379.368,391.295,401.495,408.216,410.436,398.644,382.69,392.329,409.941,521.74,521.74,18.202,18.202,18.202
0.00105515	-13748070.49	0,1.77725e-06,4.11832e-06,7.2021e-06,1.12642e-05,1.6615e-05,2.36633e-05,3.29477e-05,4.51776e-05,6.12874e-05,8.2508e-05,0.000110461,0.000147282,0.000195784,0.000259673,0.000343831,0.000454688,0.000600715,0.000793068,0.00104644,0.00138021,0.00181985,0.00239897,0.00316182,0.00416668,0.00549033,0.00723391,0.00953064,0.012556,0.0165411,0.0217906,0.0287054,inf	0.423312,0.423312,17.7,112.767,206.185,132.433,262.408,385.51,382.978,378.878,374.991,372.259,378.639,385.234,383.94,375.62,372.844,373.794,379.772,391.752,401.777,408.17,409.87,396.961,379.871,389.566,408.092,549.093,549.093,18.7896,18.7896,18.7896
0.00107676	-13747697.89	0,1.77725e-06,4.11832e-06,7.2021e-06,1.12642e-05,1.6615e-05,2.36633e-05,3.29477e-05,4.51776e-05,6.12874e-05,8.2508e-05,0.000110461,0.000147282,0.000195784,0.000259673,0.000343831,0.000454688,0.000600715,0.000793068,0.00104644,0.00138021,0.00181985,0.00239897,0.00316182,0.00416668,0.00549033,0.00723391,0.00953064,0.012556,0.0165411,0.0217906,0.0287054,inf	0.396689,0.396689,15.7873,115.907,210.339,126.681,262.361,390.034,383.629,378.139,373.785,371.289,378.66,386.161,385.104,376.534,373.601,374.284,380.194,392.262,402.155,408.268,409.468,395.434,377.111,386.478,405.171,569.717,569.717,18.0704,18.0704,18.0704
0.00109684	-13747442.07	0,1.77725e-06,4.11832e-06,7.2021e-06,1.12642e-05,1.6615e-05,2.36633e-05,3.29477e-05,4.51776e-05,6.12874e-05,8.2508e-05,0.000110461,0.000147282,0.000195784,0.000259673,0.000343831,0.000454688,0.000600715,0.000793068,0.00104644,0.00138021,0.00181985,0.00239897,0.00316182,0.00416668,0.00549033,0.00723391,0.00953064,0.012556,0.0165411,0.0217906,0.0287054,inf	0.396689,0.396689,14.0706,119.046,213.957,121.254,262.574,394.587,384.279,377.478,372.675,370.398,378.692,387.032,386.174,377.362,374.281,374.717,380.593,392.779,402.595,408.496,409.261,394.153,374.585,383.415,401.864,587.354,587.354,18.0982,18.0982,18.0982
0.00111554	-13747210.72	0,1.77725e-06,4.11832e-06,7.2021e-06,1.12642e-05,1.6615e-05,2.36633e-05,3.29477e-05,4.51776e-05,6.12874e-05,8.2508e-05,0.000110461,0.000147282,0.000195784,0.000259673,0.000343831,0.000454688,0.000600715,0.000793068,0.00104644,0.00138021,0.00181985,0.00239897,0.00316182,0.00416668,0.00549033,0.00723391,0.00953064,0.012556,0.0165411,0.0217906,0.0287054,inf	0.396689,0.396689,12.5366,122.188,217.034,116.109,263.005,399.122,384.917,376.889,371.665,369.596,378.754,387.865,387.166,378.112,374.881,375.076,380.934,393.26,403.044,408.801,409.202,393.09,372.292,380.434,398.315,601.749,601.749,17.874,17.874,17.874
0.00113297	-13747024.74	0,1.77725e-06,4.11832e-06,7.2021e-06,1.12642e-05,1.6615e-05,2.36633e-05,3.29477e-05,4.51776e-05,6.12874e-05,8.2508e-05,0.000110461,0.000147282,0.000195784,0.000259673,0.000343831,0.000454688,0.000600715,0.000793068,0.00104644,0.00138021,0.00181985,0.00239897,0.00316182,0.00416668,0.00549033,0.00723391,0.00953064,0.012556,0.0165411,0.0217906,0.0287054,inf	0.396683,0.396683,11.1494,125.365,219.603,111.222,263.59,403.61,385.522,376.367,370.759,368.888,378.857,388.679,388.102,378.801,375.41,375.362,381.21,393.687,403.476,409.151,409.265,392.231,370.241,377.606,394.703,614.039,614.039,17.8149,17.8149,17.8149
0.00114923	-13746863.72	0,1.77725e-06,4.11832e-06,7.2021e-06,1.12642e-05,1.6615e-05,2.36633e-05,3.29477e-05,4.51776e-05,6.12874e-05,8.2508e-05,0.000110461,0.000147282,0.000195784,0.000259673,0.000343831,0.000454688,0.000600715,0.000793068,0.00104644,0.00138021,0.00181985,0.00239897,0.00316182,0.00416668,0.00549033,0.00723391,0.00953064,0.012556,0.0165411,0.0217906,0.0287054,inf	0.396683,0.396683,9.91735,128.532,221.703,106.566,264.287,408.015,386.078,375.895,369.937,368.266,379.002,389.484,388.995,379.443,375.882,375.585,381.423,394.052,403.87,409.518,409.417,391.544,368.414,374.943,391.096,624.497,624.497,17.7278,17.7278,17.7278
0.0011644	-13746727.50	0,1.77725e-06,4.11832e-06,7.2021e-06,1.12642e-05,1.6615e-05,2.36633e-05,3.29477e-05,4.51776e-05,6.12874e-05,8.2508e-05,0.000110461,0.000147282,0.000195784,0.000259673,0.000343831,0.000454688,0.000600715,0.000793068,0.00104644,0.00138021,0.00181985,0.00239897,0.00316182,0.00416668,0.00549033,0.00723391,0.00953064,0.012556,0.0165411,0.0217906,0.0287054,inf	0.396683,0.396683,8.82292,131.725,223.375,102.128,265.066,412.309,386.567,375.461,369.189,367.722,379.187,390.286,389.86,380.052,376.311,375.756,381.578,394.354,404.22,409.883,409.635,391.007,366.793,372.453,387.545,633.56,633.56,17.6797,17.6797,17.6797
0.00117858	-13746609.99	0,1.77725e-06,4.11832e-06,7.2021e-06,1.12642e-05,1.6615e-05,2.36633e-05,3.29477e-05,4.51776e-05,6.12874e-05,8.2508e-05,0.000110461,0.000147282,0.000195784,0.000259673,0.000343831,0.000454688,0.000600715,0.000793068,0.00104644,0.00138021,0.00181985,0.00239897,0.00316182,0.00416668,0.00549033,0.00723391,0.00953064,0.012556,0.0165411,0.0217906,0.0287054,inf	0.396683,0.396683,7.84032,134.952,224.661,97.9065,265.91,416.482,386.978,375.045,368.502,367.242,379.405,391.083,390.7,380.637,376.707,375.885,381.683,394.598,404.522,410.236,409.9,390.596,365.356,370.131,384.076,641.469,641.469,17.6367,17.6367,17.6367
0.00119182	-13746508.78	0,1.77725e-06,4.11832e-06,7.2021e-06,1.12642e-05,1.6615e-05,2.36633e-05,3.29477e-05,4.51776e-05,6.12874e-05,8.2508e-05,0.000110461,0.000147282,0.000195784,0.000259673,0.000343831,0.000454688,0.000600715,0.000793068,0.00104644,0.00138021,0.00181985,0.00239897,0.00316182,0.00416668,0.00549033,0.00723391,0.00953064,0.012556,0.0165411,0.0217906,0.0287054,inf	0.396683,0.396683,6.97072,138.212,225.586,93.8776,266.79,420.52,387.307,374.636,367.863,366.813,379.644,391.872,391.519,381.204,377.079,375.984,381.748,394.788,404.774,410.567,410.196,390.292,364.086,367.968,380.704,648.446,648.446,17.6066,17.6066,17.6066
0.00120421	-13746421.03	0,1.77725e-06,4.11832e-06,7.2021e-06,1.12642e-05,1.6615e-05,2.36633e-05,3.29477e-05,4.51776e-05,6.12874e-05,8.2508e-05,0.000110461,0.000147282,0.000195784,0.000259673,0.000343831,0.000454688,0.000600715,0.000793068,0.00104644,0.00138021,0.00181985,0.00239897,0.00316182,0.00416668,0.00549033,0.00723391,0.00953064,0.012556,0.0165411,0.0217906,0.0287054,inf	0.396683,0.396683,6.19186,141.519,226.186,90.0444,267.71,424.427,387.556,374.234,367.265,366.425,379.898,392.648,392.315,381.755,377.434,376.059,381.781,394.932,404.979,410.872,410.512,390.077,362.963,365.956,377.436,654.648,654.648,17.5828,17.5828,17.5828
