AIC = 623385.09920684422832

y0 0.84960044675133483683
y0_prime 0
y1 1.2125508665260220642
y1_prime 0
y2 0.85617567771303892954
y2_prime 0
y3 1.7557852546957928297
y3_prime 0
rho 0.013402240962261748741
rho.alpha 0.69216479459543589492
r_ii 0.99998534325413079848
theta 0.0050724002955405533138
