time_index	left_time_boundary	right_time_boundary	lambda
0	0	6.08839e-06	218.01
1	6.08839e-06	1.6344e-05	218.01
2	1.6344e-05	3.36192e-05	278.667
3	3.36192e-05	6.27184e-05	459.503
4	6.27184e-05	0.000111735	425.583
5	0.000111735	0.000194301	416.906
6	0.000194301	0.000333379	427.304
7	0.000333379	0.000567651	393.59
8	0.000567651	0.000962271	408.139
9	0.000962271	0.00162699	401.308
10	0.00162699	0.00274668	386.073
11	0.00274668	0.00463275	440.723
12	0.00463275	0.00780975	319.403
13	0.00780975	0.0131613	275.521
14	0.0131613	0.0221757	275.521
15	0.0221757	inf	275.521
