LogLikelihood = -126195.60337701770186

y0 1.0700670438133420232e-10
y0_prime 0
y1 1.9084830623553274975
y1_prime 0
y2 1.0948626191140584663
y2_prime 0
y3 0.46134233506149252557
y3_prime 0
rho 0.0038732117528744148226
theta 0.0017426442909472903559
