time_index	left_time_boundary	right_time_boundary	lambda
0	0	3.34411e-05	504.933
1	3.34411e-05	7.91991e-05	504.933
2	7.91991e-05	0.00014181	371.206
3	0.00014181	0.000227483	277.676
4	0.000227483	0.000344709	302.936
5	0.000344709	0.000505111	481.842
6	0.000505111	0.000724593	746.106
7	0.000724593	0.00102491	1727.1
8	0.00102491	0.00143584	4189.43
9	0.00143584	0.00199813	4430.11
10	0.00199813	0.00276751	1458.78
11	0.00276751	0.00382026	689321
12	0.00382026	0.00526077	138.778
13	0.00526077	0.00723182	143.611
14	0.00723182	0.00992885	143.611
15	0.00992885	inf	143.611
