time_index	left_time_boundary	right_time_boundary	lambda
0	0	9.8803e-06	129.588
1	9.8803e-06	2.21013e-05	129.588
2	2.21013e-05	3.72174e-05	232.149
3	3.72174e-05	5.59146e-05	170.703
4	5.59146e-05	7.90411e-05	161.422
5	7.90411e-05	0.000107646	157.517
6	0.000107646	0.000143028	147.533
7	0.000143028	0.000186792	136.721
8	0.000186792	0.000240924	130.089
9	0.000240924	0.000307879	128.785
10	0.000307879	0.000390697	135.429
11	0.000390697	0.000493134	140.778
12	0.000493134	0.000619838	160.599
13	0.000619838	0.00077656	187.404
14	0.00077656	0.000970408	228.792
15	0.000970408	0.00121018	284.371
16	0.00121018	0.00150675	356.523
17	0.00150675	0.00187359	443.817
18	0.00187359	0.00232732	539.076
19	0.00232732	0.00288855	625.569
20	0.00288855	0.00358273	675.494
21	0.00358273	0.00444136	677.209
22	0.00444136	0.00550341	634.042
23	0.00550341	0.00681706	565.077
24	0.00681706	0.00844191	493.662
25	0.00844191	0.0104517	436.609
26	0.0104517	0.0129376	412.23
27	0.0129376	0.0160124	474.715
28	0.0160124	0.0198157	474.715
29	0.0198157	0.0245199	68281
30	0.0245199	0.0303386	68281
31	0.0303386	inf	68281
