time_index	left_time_boundary	right_time_boundary	lambda
0	0	4.2439e-05	169.515
1	4.2439e-05	9.2082e-05	169.515
2	9.2082e-05	0.000150152	139.569
3	0.000150152	0.000218079	120.22
4	0.000218079	0.000297537	127.383
5	0.000297537	0.000390483	145.035
6	0.000390483	0.000499207	166.118
7	0.000499207	0.000626386	188.003
8	0.000626386	0.000775154	212.563
9	0.000775154	0.000949175	243.973
10	0.000949175	0.00115274	286.166
11	0.00115274	0.00139085	341.713
12	0.00139085	0.00166939	411.462
13	0.00166939	0.00199521	492.948
14	0.00199521	0.00237633	576.093
15	0.00237633	0.00282215	641.857
16	0.00282215	0.00334365	676.052
17	0.00334365	0.00395368	682.392
18	0.00395368	0.00466725	670.676
19	0.00466725	0.00550196	645.366
20	0.00550196	0.00647835	608.773
21	0.00647835	0.00762049	563.775
22	0.00762049	0.00895651	512.968
23	0.00895651	0.0105193	457.997
24	0.0105193	0.0123474	402.349
25	0.0123474	0.0144858	354.876
26	0.0144858	0.0169872	325.145
27	0.0169872	0.0199132	323.563
28	0.0199132	0.0233359	323.563
29	0.0233359	0.0273397	425.048
30	0.0273397	0.032023	425.048
31	0.032023	inf	425.048
