0.000370557	-8699173.59	0,2.31469e-06,6.33102e-06,1.32999e-05,2.5392e-05,4.63734e-05,8.27793e-05,0.000145949,0.000255557,0.000445742,0.000775741,0.00134834,0.00234187,0.0040658,0.00705707,0.0122473,inf	9.46054,9.46054,25.152,65.1358,187.596,156.986,175.538,194.435,251.638,422.384,851.065,1090.58,906.47,877.304,877.304,877.304
0.000390445	-8681111.07	0,2.31469e-06,6.33102e-06,1.32999e-05,2.5392e-05,4.63734e-05,8.27793e-05,0.000145949,0.000255557,0.000445742,0.000775741,0.00134834,0.00234187,0.0040658,0.00705707,0.0122473,inf	0.705775,0.705775,1.26815,9.68111,126.608,75.1507,88.8312,91.5788,126.114,301.941,857.543,1357.22,1055.36,1059.8,1059.8,1059.8
0.000405139	-8675887.78	0,2.31469e-06,6.33102e-06,1.32999e-05,2.5392e-05,4.63734e-05,8.27793e-05,0.000145949,0.000255557,0.000445742,0.000775741,0.00134834,0.00234187,0.0040658,0.00705707,0.0122473,inf	0.705775,0.705775,0.705776,1.87102,121.304,54.2529,67.1557,60.5348,75.6013,237.291,831.038,1535.53,1155.59,1275.77,1275.77,1275.77
0.000415504	-8673981.98	0,2.31469e-06,6.33102e-06,1.32999e-05,2.5392e-05,4.63734e-05,8.27793e-05,0.000145949,0.000255557,0.000445742,0.000775741,0.00134834,0.00234187,0.0040658,0.00705707,0.0122473,inf	0.705775,0.705775,0.705775,0.705775,125.373,46.8034,61.3984,49.4756,51.3427,198.421,802.542,1658.11,1219.7,1587.48,1587.48,1587.48
0.000422686	-8673210.47	0,2.31469e-06,6.33102e-06,1.32999e-05,2.5392e-05,4.63734e-05,8.27793e-05,0.000145949,0.000255557,0.000445742,0.000775741,0.00134834,0.00234187,0.0040658,0.00705707,0.0122473,inf	0.705775,0.705775,0.705775,0.705775,130.12,43.5146,60.7374,45.6859,38.2641,173.276,778.878,1744.78,1258.39,2213.87,2213.87,2213.87
0.000427499	-8672905.79	0,2.31469e-06,6.33102e-06,1.32999e-05,2.5392e-05,4.63734e-05,8.27793e-05,0.000145949,0.000255557,0.000445742,0.000775741,0.00134834,0.00234187,0.0040658,0.00705707,0.0122473,inf	0.705775,0.705775,0.705775,0.705775,133.901,41.8356,61.8105,45.0406,30.5933,156.122,760.594,1807.11,1279.79,4816.21,4816.21,4816.21
0.000427499	-8672825.87	0,2.31469e-06,6.33102e-06,1.32999e-05,2.5392e-05,4.63734e-05,8.27793e-05,0.000145949,0.000255557,0.000445742,0.000775741,0.00134834,0.00234187,0.0040658,0.00705707,0.0122473,inf	0.705775,0.705775,0.705775,0.705775,136.75,40.9157,63.3755,45.8917,25.8195,144.051,746.575,1848.2,1289.37,88195.9,88195.9,88195.9
