time_index	left_time_boundary	right_time_boundary	lambda
0	0	1.54057e-06	5082.11
1	1.54057e-06	3.56988e-06	5082.11
2	3.56988e-06	6.24299e-06	16825.7
3	6.24299e-06	9.76414e-06	4303.1
4	9.76414e-06	1.44024e-05	848.676
5	1.44024e-05	2.05121e-05	187.191
6	2.05121e-05	2.85601e-05	3.80904
7	2.85601e-05	3.91613e-05	47.8956
8	3.91613e-05	5.31257e-05	370.019
9	5.31257e-05	7.15203e-05	149.579
10	7.15203e-05	9.57506e-05	191.071
11	9.57506e-05	0.000127668	233.958
12	0.000127668	0.000169711	222.086
13	0.000169711	0.000225092	199.514
14	0.000225092	0.000298043	236.715
15	0.000298043	0.000394137	245.844
16	0.000394137	0.000520717	256.96
17	0.000520717	0.000687454	276.218
18	0.000687454	0.000907089	301.961
19	0.000907089	0.0011964	345.542
20	0.0011964	0.0015775	377.38
21	0.0015775	0.0020795	393.186
22	0.0020795	0.00274076	433.977
23	0.00274076	0.0036118	514.284
24	0.0036118	0.00475918	537.595
25	0.00475918	0.00627057	468.681
26	0.00627057	0.00826144	394.655
27	0.00826144	0.0108839	361.903
28	0.0108839	0.0143383	361.903
29	0.0143383	0.0188887	846.823
30	0.0188887	0.0248827	846.823
31	0.0248827	inf	846.823
