time_index	left_time_boundary	right_time_boundary	lambda
0	0	4.49809e-05	889.628
1	4.49809e-05	0.000106529	889.628
2	0.000106529	0.000190746	967.573
3	0.000190746	0.000305981	573.574
4	0.000305981	0.00046366	667.216
5	0.00046366	0.000679414	834.517
6	0.000679414	0.000974633	870.47
7	0.000974633	0.00137859	833.671
8	0.00137859	0.00193132	813.044
9	0.00193132	0.00268763	802.784
10	0.00268763	0.00372251	769.317
11	0.00372251	0.00513855	626.771
12	0.00513855	0.00707613	1206.79
13	0.00707613	0.00972736	115131
14	0.00972736	0.0133551	115131
15	0.0133551	inf	115131
