0.000347082	-7756812.64	0,2.07359e-06,5.67156e-06,1.19146e-05,2.27471e-05,4.1543e-05,7.41567e-05,0.000130746,0.000228937,0.000399312,0.000694938,0.00120789,0.00209794,0.0036423,0.00632198,0.0109716,inf	428.806,428.806,607.18,670.97,646.278,676.82,674.567,665.369,695.482,749.812,828.538,865.341,840.329,855.558,855.558,855.558
0.000372097	-7755394.28	0,2.07359e-06,5.67156e-06,1.19146e-05,2.27471e-05,4.1543e-05,7.41567e-05,0.000130746,0.000228937,0.000399312,0.000694938,0.00120789,0.00209794,0.0036423,0.00632198,0.0109716,inf	328.154,328.154,564.735,670.086,615.333,668.697,656.712,627.419,661.405,729.451,841.479,900.692,862.385,900.359,900.359,900.359
0.000393701	-7754687.40	0,2.07359e-06,5.67156e-06,1.19146e-05,2.27471e-05,4.1543e-05,7.41567e-05,0.000130746,0.000228937,0.000399312,0.000694938,0.00120789,0.00209794,0.0036423,0.00632198,0.0109716,inf	284.226,284.226,541.937,681.587,600.392,679.716,661.624,614.835,648.223,718.147,845.06,916.581,869.318,930.747,930.747,930.747
0.00041285	-7754211.91	0,2.07359e-06,5.67156e-06,1.19146e-05,2.27471e-05,4.1543e-05,7.41567e-05,0.000130746,0.000228937,0.000399312,0.000694938,0.00120789,0.00209794,0.0036423,0.00632198,0.0109716,inf	260.793,260.793,522.524,688.912,584.453,690.98,670.708,610.858,643.836,711.888,845.647,923.376,868.89,952.061,952.061,952.061
0.00043013	-7753848.60	0,2.07359e-06,5.67156e-06,1.19146e-05,2.27471e-05,4.1543e-05,7.41567e-05,0.000130746,0.000228937,0.000399312,0.000694938,0.00120789,0.00209794,0.0036423,0.00632198,0.0109716,inf	247.214,247.214,506.274,692.465,566.392,698.995,678.936,609.837,643.442,708.522,845.426,925.83,864.932,967.529,967.529,967.529
0.000445904	-7753556.02	0,2.07359e-06,5.67156e-06,1.19146e-05,2.27471e-05,4.1543e-05,7.41567e-05,0.000130746,0.000228937,0.000399312,0.000694938,0.00120789,0.00209794,0.0036423,0.00632198,0.0109716,inf	238.881,238.881,494.015,694.664,547.76,704.144,685.29,609.742,644.909,706.832,845.121,926.184,859.36,979.115,979.115,979.115
0.000460413	-7753314.51	0,2.07359e-06,5.67156e-06,1.19146e-05,2.27471e-05,4.1543e-05,7.41567e-05,0.000130746,0.000228937,0.000399312,0.000694938,0.00120789,0.00209794,0.0036423,0.00632198,0.0109716,inf	233.307,233.307,485.653,697.002,529.814,707.476,689.911,609.843,647.224,706.106,844.936,925.534,853.145,988.047,988.047,988.047
0.00047383	-7753112.34	0,2.07359e-06,5.67156e-06,1.19146e-05,2.27471e-05,4.1543e-05,7.41567e-05,0.000130746,0.000228937,0.000399312,0.000694938,0.00120789,0.00209794,0.0036423,0.00632198,0.0109716,inf	229.292,229.292,480.531,700.006,513.185,709.845,693.189,609.902,649.883,705.926,844.902,924.428,846.784,995.112,995.112,995.112
0.000486282	-7752941.50	0,2.07359e-06,5.67156e-06,1.19146e-05,2.27471e-05,4.1543e-05,7.41567e-05,0.000130746,0.000228937,0.000399312,0.000694938,0.00120789,0.00209794,0.0036423,0.00632198,0.0109716,inf	226.009,226.009,477.843,703.696,498.08,711.815,695.487,609.865,652.637,706.042,844.993,923.146,840.531,1000.83,1000.83,1000.83
0.000497872	-7752796.11	0,2.07359e-06,5.67156e-06,1.19146e-05,2.27471e-05,4.1543e-05,7.41567e-05,0.000130746,0.000228937,0.000399312,0.000694938,0.00120789,0.00209794,0.0036423,0.00632198,0.0109716,inf	223.051,223.051,476.867,707.852,484.462,713.714,697.095,609.738,655.36,706.308,845.176,921.834,834.514,1005.54,1005.54,1005.54
0.000508682	-7752671.67	0,2.07359e-06,5.67156e-06,1.19146e-05,2.27471e-05,4.1543e-05,7.41567e-05,0.000130746,0.000228937,0.000399312,0.000694938,0.00120789,0.00209794,0.0036423,0.00632198,0.0109716,inf	220.405,220.405,477.052,712.219,472.186,715.711,698.211,609.549,657.991,706.634,845.42,920.566,828.788,1009.51,1009.51,1009.51
0.000518783	-7752564.63	0,2.07359e-06,5.67156e-06,1.19146e-05,2.27471e-05,4.1543e-05,7.41567e-05,0.000130746,0.000228937,0.000399312,0.000694938,0.00120789,0.00209794,0.0036423,0.00632198,0.0109716,inf	217.872,217.872,477.985,716.61,461.096,717.881,698.974,609.325,660.506,706.969,845.699,919.377,823.374,1012.89,1012.89,1012.89
0.000528235	-7752472.16	0,2.07359e-06,5.67156e-06,1.19146e-05,2.27471e-05,4.1543e-05,7.41567e-05,0.000130746,0.000228937,0.000399312,0.000694938,0.00120789,0.00209794,0.0036423,0.00632198,0.0109716,inf	215.485,215.485,479.41,720.843,451.022,720.251,699.482,609.087,662.896,707.286,845.997,918.284,818.271,1015.81,1015.81,1015.81
0.000537091	-7752391.97	0,2.07359e-06,5.67156e-06,1.19146e-05,2.27471e-05,4.1543e-05,7.41567e-05,0.000130746,0.000228937,0.000399312,0.000694938,0.00120789,0.00209794,0.0036423,0.00632198,0.0109716,inf	213.187,213.187,481.137,724.839,441.836,722.812,699.798,608.853,665.162,707.567,846.301,917.291,813.47,1018.37,1018.37,1018.37
0.000545397	-7752322.17	0,2.07359e-06,5.67156e-06,1.19146e-05,2.27471e-05,4.1543e-05,7.41567e-05,0.000130746,0.000228937,0.000399312,0.000694938,0.00120789,0.00209794,0.0036423,0.00632198,0.0109716,inf	211.104,211.104,483.054,728.515,433.393,725.54,699.961,608.633,667.309,707.805,846.602,916.396,808.955,1020.63,1020.63,1020.63
0.000553196	-7752261.24	0,2.07359e-06,5.67156e-06,1.19146e-05,2.27471e-05,4.1543e-05,7.41567e-05,0.000130746,0.000228937,0.000399312,0.000694938,0.00120789,0.00209794,0.0036423,0.00632198,0.0109716,inf	209.142,209.142,485.077,731.874,425.604,728.413,700.005,608.435,669.345,707.997,846.894,915.595,804.709,1022.65,1022.65,1022.65
0.000560524	-7752207.88	0,2.07359e-06,5.67156e-06,1.19146e-05,2.27471e-05,4.1543e-05,7.41567e-05,0.000130746,0.000228937,0.000399312,0.000694938,0.00120789,0.00209794,0.0036423,0.00632198,0.0109716,inf	207.241,207.241,487.19,734.895,418.379,731.399,699.948,608.261,671.277,708.144,847.175,914.883,800.712,1024.48,1024.48,1024.48
0.000567416	-7752161.03	0,2.07359e-06,5.67156e-06,1.19146e-05,2.27471e-05,4.1543e-05,7.41567e-05,0.000130746,0.000228937,0.000399312,0.000694938,0.00120789,0.00209794,0.0036423,0.00632198,0.0109716,inf	205.531,205.531,489.357,737.589,411.655,734.478,699.805,608.115,673.114,708.247,847.441,914.253,796.949,1026.13,1026.13,1026.13
0.000573901	-7752119.79	0,2.07359e-06,5.67156e-06,1.19146e-05,2.27471e-05,4.1543e-05,7.41567e-05,0.000130746,0.000228937,0.000399312,0.000694938,0.00120789,0.00209794,0.0036423,0.00632198,0.0109716,inf	203.915,203.915,491.564,739.961,405.361,737.617,699.587,607.995,674.862,708.309,847.691,913.698,793.401,1027.64,1027.64,1027.64
0.000580008	-7752083.41	0,2.07359e-06,5.67156e-06,1.19146e-05,2.27471e-05,4.1543e-05,7.41567e-05,0.000130746,0.000228937,0.000399312,0.000694938,0.00120789,0.00209794,0.0036423,0.00632198,0.0109716,inf	202.365,202.365,493.792,742.06,399.444,740.806,699.305,607.903,676.528,708.333,847.925,913.212,790.053,1029.03,1029.03,1029.03
