LogLikelihood = -801925.71063232328743

y0 0.44836785935477568854
y0_prime 0
y1 1.0359085559109442176
y1_prime 0
y2 0.71278084345124015364
y2_prime 0
y3 1.9321671269739484345
y3_prime 0
rho 0.0015950039798071620565
rho.alpha 0.16237987397867165162
r_ii 0.99991018793824437694
theta 0.0023516976060209988236
