AIC = 2503774.2545398911461

y0 0.67746731866229492613
y0_prime 0
y1 0.833232555048683321
y1_prime 0
y2 1.1464620482988483463
y2_prime 0
y3 1.876834819513533148
y3_prime 0
rho 0.0018417649035230661183
theta 0.0051214164834735157253
