AIC = 638702.10915047163144

y0 0.50881006006757434346
y0_prime 0
y1 1.1042556266527365771
y1_prime 0
y2 0.80386829828360539807
y2_prime 0
y3 1.6662137711006534957
y3_prime 0
rho 0.0085367816916238330877
rho.alpha 0.32735391127049678905
r_ii 0.99984363586300051274
theta 0.0052361094346871847605
