AIC = 1880427.1465621120296

y0 0.69277343594034301866
y0_prime 0
y1 0.81846469243077368816
y1_prime 0
y2 1.1565451896177838531
y2_prime 0
y3 1.8508769145593588767
y3_prime 0
rho 0.0018753016980293695567
theta 0.0051312739102913921749
