0.00145277	-664599.18	0,0.000103524,0.000224621,0.000366274,0.000531973,0.0007258,0.000952528,0.00121774,0.00152798,0.00189088,0.00231538,0.00281194,0.00339279,0.00407224,0.00486702,0.00579672,0.00688424,0.00815636,0.00964443,0.0113851,0.0134212,0.015803,0.0185891,0.0218481,0.0256604,0.0301197,0.0353361,0.0414379,0.0485755,0.0569247,0.0666912,0.0781156,inf	3.6243,3.6243,7.74075,11.9539,17.0585,23.284,30.9701,40.6565,53.2028,69.947,92.8967,124.769,167.915,219.564,264.284,283.459,279.16,264.727,248.572,233.871,221.333,210.911,202.495,196.048,191.552,188.762,187.09,185.569,185.569,183.736,183.736,183.736
0.00147413	-661444.32	0,0.000103524,0.000224621,0.000366274,0.000531973,0.0007258,0.000952528,0.00121774,0.00152798,0.00189088,0.00231538,0.00281194,0.00339279,0.00407224,0.00486702,0.00579672,0.00688424,0.00815636,0.00964443,0.0113851,0.0134212,0.015803,0.0185891,0.0218481,0.0256604,0.0301197,0.0353361,0.0414379,0.0485755,0.0569247,0.0666912,0.0781156,inf	0.163972,0.163972,0.458904,1.10493,2.26824,4.24441,7.49358,12.7586,21.267,35.0461,57.3849,93.3905,149.919,231.296,322.585,379.789,386.15,364.447,334.25,304.681,278.658,256.778,239.233,226.233,217.897,213.612,211.763,210.065,210.065,207.188,207.188,207.188
0.00151012	-660307.35	0,0.000103524,0.000224621,0.000366274,0.000531973,0.0007258,0.000952528,0.00121774,0.00152798,0.00189088,0.00231538,0.00281194,0.00339279,0.00407224,0.00486702,0.00579672,0.00688424,0.00815636,0.00964443,0.0113851,0.0134212,0.015803,0.0185891,0.0218481,0.0256604,0.0301197,0.0353361,0.0414379,0.0485755,0.0569247,0.0666912,0.0781156,inf	0.163972,0.163972,0.163972,0.163972,0.331388,0.847354,1.97924,4.35235,9.18047,18.7499,37.1436,71.1499,130.869,227.232,353.919,451.368,476.025,454.182,414.147,371.521,332.477,299.047,272.329,253.157,241.997,237.777,237.502,237.298,237.298,234.773,234.773,234.773
0.0015471	-659777.75	0,0.000103524,0.000224621,0.000366274,0.000531973,0.0007258,0.000952528,0.00121774,0.00152798,0.00189088,0.00231538,0.00281194,0.00339279,0.00407224,0.00486702,0.00579672,0.00688424,0.00815636,0.00964443,0.0113851,0.0134212,0.015803,0.0185891,0.0218481,0.0256604,0.0301197,0.0353361,0.0414379,0.0485755,0.0569247,0.0666912,0.0781156,inf	0.163972,0.163972,0.163972,0.163972,0.163972,0.16802,0.558917,1.57895,4.18922,10.5236,24.9604,55.4673,114.648,218.6,371.185,505.593,550.551,533.05,486.875,433.351,382.253,337.646,302.062,277.268,264.256,261.514,264.501,267.612,267.612,267.726,267.726,267.726
0.00158204	-659488.31	0,0.000103524,0.000224621,0.000366274,0.000531973,0.0007258,0.000952528,0.00121774,0.00152798,0.00189088,0.00231538,0.00281194,0.00339279,0.00407224,0.00486702,0.00579672,0.00688424,0.00815636,0.00964443,0.0113851,0.0134212,0.015803,0.0185891,0.0218481,0.0256604,0.0301197,0.0353361,0.0414379,0.0485755,0.0569247,0.0666912,0.0781156,inf	0.163972,0.163972,0.163972,0.163972,0.163972,0.163972,0.167032,0.603069,2.00087,6.14044,17.2968,44.1541,101.34,209.089,381.043,548.327,613.067,602.291,552.724,490.311,428.311,373.185,329.278,299.462,285.425,285.351,293.231,301.775,301.775,307.678,307.678,307.678
0.0016144	-659311.55	0,0.000103524,0.000224621,0.000366274,0.000531973,0.0007258,0.000952528,0.00121774,0.00152798,0.00189088,0.00231538,0.00281194,0.00339279,0.00407224,0.00486702,0.00579672,0.00688424,0.00815636,0.00964443,0.0113851,0.0134212,0.015803,0.0185891,0.0218481,0.0256604,0.0301197,0.0353361,0.0414379,0.0485755,0.0569247,0.0666912,0.0781156,inf	0.163972,0.163972,0.163972,0.163972,0.163972,0.163972,0.163972,0.240708,0.993331,3.70125,12.2962,35.782,90.4242,199.925,386.743,583.181,666.297,663.361,612.347,542.791,471.084,406.272,354.736,320.514,306.155,309.837,324.365,341.143,341.143,359.655,359.655,359.655
0.00164431	-659194.75	0,0.000103524,0.000224621,0.000366274,0.000531973,0.0007258,0.000952528,0.00121774,0.00152798,0.00189088,0.00231538,0.00281194,0.00339279,0.00407224,0.00486702,0.00579672,0.00688424,0.00815636,0.00964443,0.0113851,0.0134212,0.015803,0.0185891,0.0218481,0.0256604,0.0301197,0.0353361,0.0414379,0.0485755,0.0569247,0.0666912,0.0781156,inf	0.163972,0.163972,0.163972,0.163972,0.163972,0.163972,0.163972,0.163972,0.509911,2.29395,8.93243,29.4407,81.3836,191.468,390.011,612.464,712.301,717.563,666.443,591.22,510.965,437.382,378.985,340.968,326.934,335.469,358.74,387.945,387.945,432.807,432.807,432.807
0.00167205	-659112.89	0,0.000103524,0.000224621,0.000366274,0.000531973,0.0007258,0.000952528,0.00121774,0.00152798,0.00189088,0.00231538,0.00281194,0.00339279,0.00407224,0.00486702,0.00579672,0.00688424,0.00815636,0.00964443,0.0113851,0.0134212,0.015803,0.0185891,0.0218481,0.0256604,0.0301197,0.0353361,0.0414379,0.0485755,0.0569247,0.0666912,0.0781156,inf	0.163972,0.163972,0.163972,0.163972,0.163972,0.163972,0.163972,0.163972,0.269527,1.45653,6.61052,24.539,73.8072,183.781,391.796,637.657,752.566,765.954,715.643,635.985,548.265,466.839,402.384,361.182,348.132,362.714,397.591,446.09,446.09,558.943,558.943,558.943
0.00169792	-659052.85	0,0.000103524,0.000224621,0.000366274,0.000531973,0.0007258,0.000952528,0.00121774,0.00152798,0.00189088,0.00231538,0.00281194,0.00339279,0.00407224,0.00486702,0.00579672,0.00688424,0.00815636,0.00964443,0.0113851,0.0134212,0.015803,0.0185891,0.0218481,0.0256604,0.0301197,0.0353361,0.0414379,0.0485755,0.0569247,0.0666912,0.0781156,inf	0.163972,0.163972,0.163972,0.163972,0.163972,0.163972,0.163972,0.163972,0.163972,0.944701,4.97192,20.6835,67.384,176.824,392.653,659.741,788.182,809.376,760.483,677.427,583.239,494.886,425.182,381.408,369.988,392.144,442.618,523.904,523.904,959.294,959.294,959.294
0.00172217	-659007.22	0,0.000103524,0.000224621,0.000366274,0.000531973,0.0007258,0.000952528,0.00121774,0.00152798,0.00189088,0.00231538,0.00281194,0.00339279,0.00407224,0.00486702,0.00579672,0.00688424,0.00815636,0.00964443,0.0113851,0.0134212,0.015803,0.0185891,0.0218481,0.0256604,0.0301197,0.0353361,0.0414379,0.0485755,0.0569247,0.0666912,0.0781156,inf	0.163972,0.163972,0.163972,0.163972,0.163972,0.163972,0.163972,0.163972,0.163972,0.624398,3.79307,17.6044,61.8799,170.525,392.915,679.394,819.96,848.5,801.426,715.847,616.099,521.694,447.536,401.813,392.77,424.237,496.772,642.318,642.318,10998.7,10998.7,10998.7
0.00174503	-658971.60	0,0.000103524,0.000224621,0.000366274,0.000531973,0.0007258,0.000952528,0.00121774,0.00152798,0.00189088,0.00231538,0.00281194,0.00339279,0.00407224,0.00486702,0.00579672,0.00688424,0.00815636,0.00964443,0.0113851,0.0134212,0.015803,0.0185891,0.0218481,0.0256604,0.0301197,0.0353361,0.0414379,0.0485755,0.0569247,0.0666912,0.0781156,inf	0.163972,0.163972,0.163972,0.163972,0.163972,0.163972,0.163972,0.163972,0.163972,0.419691,2.93032,15.1121,57.1167,164.808,392.791,697.095,848.518,883.874,838.864,751.506,647.031,547.402,469.574,422.554,416.705,459.936,564.657,873.795,873.795,10998.7,10998.7,10998.7
0.00176666	-658943.07	0,0.000103524,0.000224621,0.000366274,0.000531973,0.0007258,0.000952528,0.00121774,0.00152798,0.00189088,0.00231538,0.00281194,0.00339279,0.00407224,0.00486702,0.00579672,0.00688424,0.00815636,0.00964443,0.0113851,0.0134212,0.015803,0.0185891,0.0218481,0.0256604,0.0301197,0.0353361,0.0414379,0.0485755,0.0569247,0.0666912,0.0781156,inf	0.163972,0.163972,0.163972,0.163972,0.163972,0.163972,0.163972,0.163972,0.163972,0.286413,2.28943,13.0711,52.9592,159.6,392.42,713.197,874.334,915.942,873.134,784.634,676.19,572.115,491.366,443.703,441.997,500.193,656.553,1836.28,1836.28,10998.7,10998.7,10998.7
0.00178723	-658919.77	0,0.000103524,0.000224621,0.000366274,0.000531973,0.0007258,0.000952528,0.00121774,0.00152798,0.00189088,0.00231538,0.00281194,0.00339279,0.00407224,0.00486702,0.00579672,0.00688424,0.00815636,0.00964443,0.0113851,0.0134212,0.015803,0.0185891,0.0218481,0.0256604,0.0301197,0.0353361,0.0414379,0.0485755,0.0569247,0.0666912,0.0781156,inf	0.163972,0.163972,0.163972,0.163972,0.163972,0.163972,0.163972,0.163972,0.163972,0.19816,1.80693,11.3825,49.3021,154.838,391.89,727.963,897.788,945.077,904.528,815.433,703.716,595.933,513.002,465.357,469.004,546.645,797.129,41593.6,41593.6,432.448,432.448,432.448
0.00180686	-658900.43	0,0.000103524,0.000224621,0.000366274,0.000531973,0.0007258,0.000952528,0.00121774,0.00152798,0.00189088,0.00231538,0.00281194,0.00339279,0.00407224,0.00486702,0.00579672,0.00688424,0.00815636,0.00964443,0.0113851,0.0134212,0.015803,0.0185891,0.0218481,0.0256604,0.0301197,0.0353361,0.0414379,0.0485755,0.0569247,0.0666912,0.0781156,inf	0.163972,0.163972,0.163972,0.163972,0.163972,0.163972,0.163972,0.163972,0.163972,0.163972,1.43929,9.97246,46.0629,150.469,391.262,741.596,919.187,971.592,933.3,844.084,729.732,618.936,534.513,487.595,497.815,601.541,1083.08,43099.5,43099.5,432.448,432.448,432.448
0.00182566	-658884.19	0,0.000103524,0.000224621,0.000366274,0.000531973,0.0007258,0.000952528,0.00121774,0.00152798,0.00189088,0.00231538,0.00281194,0.00339279,0.00407224,0.00486702,0.00579672,0.00688424,0.00815636,0.00964443,0.0113851,0.0134212,0.015803,0.0185891,0.0218481,0.0256604,0.0301197,0.0353361,0.0414379,0.0485755,0.0569247,0.0666912,0.0781156,inf	0.163972,0.163972,0.163972,0.163972,0.163972,0.163972,0.163972,0.163972,0.163972,0.163972,1.15604,8.78502,43.1754,146.443,390.576,754.254,938.778,995.752,959.672,870.742,754.345,641.198,555.965,510.556,528.942,669.004,2439.9,26879.8,26879.8,1175.52,1175.52,1175.52
0.00184371	-658870.39	0,0.000103524,0.000224621,0.000366274,0.000531973,0.0007258,0.000952528,0.00121774,0.00152798,0.00189088,0.00231538,0.00281194,0.00339279,0.00407224,0.00486702,0.00579672,0.00688424,0.00815636,0.00964443,0.0113851,0.0134212,0.015803,0.0185891,0.0218481,0.0256604,0.0301197,0.0353361,0.0414379,0.0485755,0.0569247,0.0666912,0.0781156,inf	0.163972,0.163972,0.163972,0.163972,0.163972,0.163972,0.163972,0.163972,0.163972,0.163972,0.935604,7.77739,40.5865,142.72,389.861,766.062,956.769,1017.79,983.843,895.545,777.651,662.75,577.407,534.311,562.772,755.035,46494.5,1056.87,1056.87,3195.38,3195.38,3195.38
0.00186109	-658858.49	0,0.000103524,0.000224621,0.000366274,0.000531973,0.0007258,0.000952528,0.00121774,0.00152798,0.00189088,0.00231538,0.00281194,0.00339279,0.00407224,0.00486702,0.00579672,0.00688424,0.00815636,0.00964443,0.0113851,0.0134212,0.015803,0.0185891,0.0218481,0.0256604,0.0301197,0.0353361,0.0414379,0.0485755,0.0569247,0.0666912,0.0781156,inf	0.163972,0.163972,0.163972,0.163972,0.163972,0.163972,0.163972,0.163972,0.163972,0.163972,0.762508,6.91653,38.2534,139.267,389.136,777.126,973.335,1037.9,1005.99,918.626,799.736,683.658,598.904,558.998,600.019,875.986,111858,209.564,209.564,125.637,125.637,125.637
0.00187787	-658848.15	0,0.000103524,0.000224621,0.000366274,0.000531973,0.0007258,0.000952528,0.00121774,0.00152798,0.00189088,0.00231538,0.00281194,0.00339279,0.00407224,0.00486702,0.00579672,0.00688424,0.00815636,0.00964443,0.0113851,0.0134212,0.015803,0.0185891,0.0218481,0.0256604,0.0301197,0.0353361,0.0414379,0.0485755,0.0569247,0.0666912,0.0781156,inf	0.163972,0.163972,0.163972,0.163972,0.163972,0.163972,0.163972,0.163972,0.163972,0.163972,0.625459,6.17653,36.1412,136.052,388.416,787.528,988.621,1056.26,1026.27,940.096,820.67,703.978,620.491,584.639,641.754,1077.62,112450,112.956,112.956,633.607,633.607,633.607
