time_index	left_time_boundary	right_time_boundary	lambda
0	0	5.58114e-06	3.1867e+06
1	5.58114e-06	1.52652e-05	3.1867e+06
2	1.52652e-05	3.20685e-05	0.292709
3	3.20685e-05	6.12246e-05	0.29271
4	6.12246e-05	0.000111815	0.297673
5	0.000111815	0.000199596	15.3689
6	0.000199596	0.000351908	2.82865
7	0.000351908	0.000616193	0.29271
8	0.000616193	0.00107476	0.292709
9	0.00107476	0.00187045	0.29271
10	0.00187045	0.00325109	0.292709
11	0.00325109	0.00564668	132.089
12	0.00564668	0.00980339	539.847
13	0.00980339	0.0170159	34107.4
14	0.0170159	0.0295306	34107.4
15	0.0295306	inf	34107.4
