0.000257006	-6060175.09	0,1.50096e-06,4.10535e-06,8.62434e-06,1.64654e-05,3.00709e-05,5.36782e-05,9.46404e-05,0.000165716,0.000289042,0.00050303,0.00087433,0.00151859,0.00263647,0.00457616,0.00794179,inf	47.2154,47.2154,92.6817,123.261,134.158,141.288,168.719,236.143,369.762,652.057,1666.17,2036.95,1631.18,1362.52,1362.52,1362.52
0.000285313	-6040328.63	0,1.50096e-06,4.10535e-06,8.62434e-06,1.64654e-05,3.00709e-05,5.36782e-05,9.46404e-05,0.000165716,0.000289042,0.00050303,0.00087433,0.00151859,0.00263647,0.00457616,0.00794179,inf	14.2422,14.2422,52.1042,83.0353,79.6256,61.753,57.9157,85.9831,179.187,446.796,1735.57,2866.32,2203.08,1589.93,1589.93,1589.93
0.000306033	-6034712.35	0,1.50096e-06,4.10535e-06,8.62434e-06,1.64654e-05,3.00709e-05,5.36782e-05,9.46404e-05,0.000165716,0.000289042,0.00050303,0.00087433,0.00151859,0.00263647,0.00457616,0.00794179,inf	8.32161,8.32161,57.0121,110.393,95.6185,53.8076,34.3045,43.9064,105.853,338.682,1647.4,3606.8,2825.23,1788.71,1788.71,1788.71
0.000321561	-6032520.00	0,1.50096e-06,4.10535e-06,8.62434e-06,1.64654e-05,3.00709e-05,5.36782e-05,9.46404e-05,0.000165716,0.000289042,0.00050303,0.00087433,0.00151859,0.00263647,0.00457616,0.00794179,inf	4.838,4.838,63.273,155.699,132.467,59.6824,27.129,28.2127,71.4111,273.421,1524.63,4353.75,3596.58,2008.93,2008.93,2008.93
0.000333676	-6031575.42	0,1.50096e-06,4.10535e-06,8.62434e-06,1.64654e-05,3.00709e-05,5.36782e-05,9.46404e-05,0.000165716,0.000289042,0.00050303,0.00087433,0.00151859,0.00263647,0.00457616,0.00794179,inf	2.37252,2.37252,60.4206,196.64,176.527,69.942,24.674,21.0702,52.9514,230.054,1399.85,5212.23,4798.51,2365.81,2365.81,2365.81
0.000343303	-6031270.78	0,1.50096e-06,4.10535e-06,8.62434e-06,1.64654e-05,3.00709e-05,5.36782e-05,9.46404e-05,0.000165716,0.000289042,0.00050303,0.00087433,0.00151859,0.00263647,0.00457616,0.00794179,inf	1.0885,1.0885,49.9665,221.021,219.825,81.9833,24.1082,17.3697,42.0299,198.885,1279.9,6358.2,7912.47,3344.55,3344.55,3344.55
0.0003509	-6031414.49	0,1.50096e-06,4.10535e-06,8.62434e-06,1.64654e-05,3.00709e-05,5.36782e-05,9.46404e-05,0.000165716,0.000289042,0.00050303,0.00087433,0.00151859,0.00263647,0.00457616,0.00794179,inf	1.0884,1.0884,37.1155,226.828,257.744,94.7613,24.4884,15.2846,34.9759,174.594,1164.27,8270.04,40492.5,10335.8,10335.8,10335.8
0.000356751	-6032016.21	0,1.50096e-06,4.10535e-06,8.62434e-06,1.64654e-05,3.00709e-05,5.36782e-05,9.46404e-05,0.000165716,0.000289042,0.00050303,0.00087433,0.00151859,0.00263647,0.00457616,0.00794179,inf	1.0884,1.0884,25.5701,217.854,287.979,107.6,25.3629,13.994,29.8899,153.577,1050.09,13304.5,643628,80.5812,80.5812,80.5812
