time_index	left_time_boundary	right_time_boundary	lambda
0	0	1.84847e-06	544.435
1	1.84847e-06	4.3285e-06	544.435
2	4.3285e-06	7.65588e-06	544.435
3	7.65588e-06	1.21201e-05	544.435
4	1.21201e-05	1.81097e-05	544.435
5	1.81097e-05	2.61457e-05	544.435
6	2.61457e-05	3.69273e-05	544.435
7	3.69273e-05	5.13927e-05	544.435
8	5.13927e-05	7.08005e-05	544.435
9	7.08005e-05	9.68393e-05	544.435
10	9.68393e-05	0.000131775	544.435
11	0.000131775	0.000178647	544.435
12	0.000178647	0.000241533	544.435
13	0.000241533	0.000325907	544.435
14	0.000325907	0.000439107	544.435
15	0.000439107	0.000590986	544.435
16	0.000590986	0.000794756	544.435
17	0.000794756	0.00106815	544.435
18	0.00106815	0.00143495	544.435
19	0.00143495	0.00192708	544.435
20	0.00192708	0.00258735	544.435
21	0.00258735	0.00347322	544.435
22	0.00347322	0.00466176	544.435
23	0.00466176	0.00625639	544.435
24	0.00625639	0.00839586	544.435
25	0.00839586	0.0112663	544.435
26	0.0112663	0.0151175	544.435
27	0.0151175	0.0202846	544.435
28	0.0202846	0.0272171	544.435
29	0.0272171	inf	544.435
