time_index	left_time_boundary	right_time_boundary	lambda
0	0	8.55902e-06	0.46131
1	8.55902e-06	1.91457e-05	0.46131
2	1.91457e-05	3.22404e-05	0.46131
3	3.22404e-05	4.84372e-05	0.46131
4	4.84372e-05	6.84711e-05	0.46131
5	6.84711e-05	9.3251e-05	0.46131
6	9.3251e-05	0.000123901	0.46131
7	0.000123901	0.000161813	0.46131
8	0.000161813	0.000208705	0.46131
9	0.000208705	0.000266707	0.46131
10	0.000266707	0.00033845	1.1745
11	0.00033845	0.000427188	14.4888
12	0.000427188	0.000536948	122.582
13	0.000536948	0.000672711	291.08
14	0.000672711	0.000840637	203.773
15	0.000840637	0.00104834	134.415
16	0.00104834	0.00130526	168.184
17	0.00130526	0.00162303	310.03
18	0.00162303	0.00201609	605.465
19	0.00201609	0.00250227	1116.72
20	0.00250227	0.00310362	1642.17
21	0.00310362	0.00384743	1902.56
22	0.00384743	0.00476745	1784.32
23	0.00476745	0.00590542	1353.68
24	0.00590542	0.00731299	811.166
25	0.00731299	0.009054	497.025
26	0.009054	0.0112075	426.32
27	0.0112075	0.0138711	786.655
28	0.0138711	0.0171657	786.655
29	0.0171657	0.0212409	11.8916
30	0.0212409	0.0262814	11.8916
31	0.0262814	inf	11.8916
