LogLikelihood = -660735.91402966307942

y0 0.22577521718350343494
y0_prime 0
y1 0.34892401313257431772
y1_prime 0
y2 1.8997108045873285498
y2_prime 0
y3 29.998452081900833122
y3_prime 0
rho 0.0010870552892645909786
rho.alpha 3.4130085956045892459
r_ii 0.99959677065003549323
theta 0.001816083153523120235
