0.000246437	-6071034.70	0,1.51612e-06,4.14682e-06,8.71145e-06,1.66317e-05,3.03746e-05,5.42204e-05,9.55964e-05,0.00016739,0.000291961,0.000508111,0.000883161,0.00153393,0.0026631,0.00462238,0.00802201,inf	309.57,309.57,488.616,421.913,334.949,314.745,344.871,417.076,540.557,776.658,1248.53,1566.49,1414.86,1233.84,1233.84,1233.84
0.000261371	-6060998.29	0,1.51612e-06,4.14682e-06,8.71145e-06,1.66317e-05,3.03746e-05,5.42204e-05,9.55964e-05,0.00016739,0.000291961,0.000508111,0.000883161,0.00153393,0.0026631,0.00462238,0.00802201,inf	221.05,221.05,569.357,442.939,277.388,218.713,221.1,271.106,382.679,647.288,1260.26,1858.58,1683.67,1333.36,1333.36,1333.36
0.000273387	-6057919.80	0,1.51612e-06,4.14682e-06,8.71145e-06,1.66317e-05,3.03746e-05,5.42204e-05,9.55964e-05,0.00016739,0.000291961,0.000508111,0.000883161,0.00153393,0.0026631,0.00462238,0.00802201,inf	155.278,155.278,672.103,520.3,292.3,207.414,192.544,225.608,318.478,581.813,1238.78,2019.5,1884.92,1389.23,1389.23,1389.23
0.000283238	-6056696.43	0,1.51612e-06,4.14682e-06,8.71145e-06,1.66317e-05,3.03746e-05,5.42204e-05,9.55964e-05,0.00016739,0.000291961,0.000508111,0.000883161,0.00153393,0.0026631,0.00462238,0.00802201,inf	98.0574,98.0574,717.25,575.975,313.258,213.822,189.247,211.565,288.988,546.497,1216.52,2105.7,2032.71,1417.72,1417.72,1417.72
0.00029167	-6056116.48	0,1.51612e-06,4.14682e-06,8.71145e-06,1.66317e-05,3.03746e-05,5.42204e-05,9.55964e-05,0.00016739,0.000291961,0.000508111,0.000883161,0.00153393,0.0026631,0.00462238,0.00802201,inf	58.6116,58.6116,718.347,600.495,325.986,222.29,193.765,209.583,274.764,526.952,1199.71,2150.17,2140.36,1430.31,1430.31,1430.31
0.000299174	-6055802.94	0,1.51612e-06,4.14682e-06,8.71145e-06,1.66317e-05,3.03746e-05,5.42204e-05,9.55964e-05,0.00016739,0.000291961,0.000508111,0.000883161,0.00153393,0.0026631,0.00462238,0.00802201,inf	34.6523,34.6523,702.498,604.091,329.514,228.311,200.092,212.503,267.872,516.167,1188.4,2171.28,2218.43,1433.98,1433.98,1433.98
0.000306054	-6055615.35	0,1.51612e-06,4.14682e-06,8.71145e-06,1.66317e-05,3.03746e-05,5.42204e-05,9.55964e-05,0.00016739,0.000291961,0.000508111,0.000883161,0.00153393,0.0026631,0.00462238,0.00802201,inf	20.7014,20.7014,685.698,597.784,326.577,231.088,205.919,217.247,264.648,510.428,1181.41,2179.27,2274.86,1432.73,1432.73,1432.73
0.000312497	-6055493.72	0,1.51612e-06,4.14682e-06,8.71145e-06,1.66317e-05,3.03746e-05,5.42204e-05,9.55964e-05,0.00016739,0.000291961,0.000508111,0.000883161,0.00153393,0.0026631,0.00462238,0.00802201,inf	12.5695,12.5695,673.623,588.591,320.116,231.129,210.473,222.42,263.279,507.662,1177.58,2179.92,2315.48,1428.8,1428.8,1428.8
0.000318618	-6055409.55	0,1.51612e-06,4.14682e-06,8.71145e-06,1.66317e-05,3.03746e-05,5.42204e-05,9.55964e-05,0.00016739,0.000291961,0.000508111,0.000883161,0.00153393,0.0026631,0.00462238,0.00802201,inf	7.73963,7.73963,666.764,579.769,312.262,229.275,213.655,227.406,262.83,506.663,1175.98,2176.57,2344.52,1423.47,1423.47,1423.47
0.000324488	-6055348.07	0,1.51612e-06,4.14682e-06,8.71145e-06,1.66317e-05,3.03746e-05,5.42204e-05,9.55964e-05,0.00016739,0.000291961,0.000508111,0.000883161,0.00153393,0.0026631,0.00462238,0.00802201,inf	4.81681,4.81681,663.907,572.479,304.279,226.281,215.639,231.967,262.812,506.713,1175.94,2171.11,2365.05,1417.49,1417.49,1417.49
0.000330152	-6055301.09	0,1.51612e-06,4.14682e-06,8.71145e-06,1.66317e-05,3.03746e-05,5.42204e-05,9.55964e-05,0.00016739,0.000291961,0.000508111,0.000883161,0.00153393,0.0026631,0.00462238,0.00802201,inf	3.01427,3.01427,663.424,566.9,296.829,222.724,216.668,236.049,262.974,507.377,1176.95,2164.65,2379.3,1411.28,1411.28,1411.28
0.000335639	-6055263.82	0,1.51612e-06,4.14682e-06,8.71145e-06,1.66317e-05,3.03746e-05,5.42204e-05,9.55964e-05,0.00016739,0.000291961,0.000508111,0.000883161,0.00153393,0.0026631,0.00462238,0.00802201,inf	1.90174,1.90174,664.029,562.71,290.18,218.987,216.991,239.682,263.188,508.388,1178.67,2157.85,2388.88,1405.11,1405.11,1405.11
0.000340969	-6055233.34	0,1.51612e-06,4.14682e-06,8.71145e-06,1.66317e-05,3.03746e-05,5.42204e-05,9.55964e-05,0.00016739,0.000291961,0.000508111,0.000883161,0.00153393,0.0026631,0.00462238,0.00802201,inf	1.20245,1.20245,664.854,559.658,284.401,215.307,216.813,242.927,263.393,509.579,1180.85,2151.05,2394.99,1399.13,1399.13,1399.13
0.000346153	-6055207.78	0,1.51612e-06,4.14682e-06,8.71145e-06,1.66317e-05,3.03746e-05,5.42204e-05,9.55964e-05,0.00016739,0.000291961,0.000508111,0.000883161,0.00153393,0.0026631,0.00462238,0.00802201,inf	1.07755,1.07755,665.452,557.353,279.458,211.813,216.297,245.849,263.565,510.85,1183.32,2144.46,2398.49,1393.41,1393.41,1393.41
0.000351202	-6055185.93	0,1.51612e-06,4.14682e-06,8.71145e-06,1.66317e-05,3.03746e-05,5.42204e-05,9.55964e-05,0.00016739,0.000291961,0.000508111,0.000883161,0.00153393,0.0026631,0.00462238,0.00802201,inf	1.07755,1.07755,665.542,555.502,275.24,208.574,215.553,248.511,263.696,512.138,1185.95,2138.18,2400.03,1388,1388,1388
0.000356122	-6055166.96	0,1.51612e-06,4.14682e-06,8.71145e-06,1.66317e-05,3.03746e-05,5.42204e-05,9.55964e-05,0.00016739,0.000291961,0.000508111,0.000883161,0.00153393,0.0026631,0.00462238,0.00802201,inf	1.07755,1.07755,665.152,553.914,271.679,205.612,214.67,250.967,263.788,513.406,1188.65,2132.25,2400.09,1382.93,1382.93,1382.93
0.000360918	-6055150.30	0,1.51612e-06,4.14682e-06,8.71145e-06,1.66317e-05,3.03746e-05,5.42204e-05,9.55964e-05,0.00016739,0.000291961,0.000508111,0.000883161,0.00153393,0.0026631,0.00462238,0.00802201,inf	1.07755,1.07755,664.356,552.426,268.648,202.921,213.707,253.258,263.846,514.632,1191.37,2126.69,2399.04,1378.2,1378.2,1378.2
0.000365595	-6055135.54	0,1.51612e-06,4.14682e-06,8.71145e-06,1.66317e-05,3.03746e-05,5.42204e-05,9.55964e-05,0.00016739,0.000291961,0.000508111,0.000883161,0.00153393,0.0026631,0.00462238,0.00802201,inf	1.07755,1.07755,663.201,550.926,266.052,200.485,212.701,255.421,263.879,515.806,1194.07,2121.49,2397.15,1373.8,1373.8,1373.8
0.000370158	-6055122.37	0,1.51612e-06,4.14682e-06,8.71145e-06,1.66317e-05,3.03746e-05,5.42204e-05,9.55964e-05,0.00016739,0.000291961,0.000508111,0.000883161,0.00153393,0.0026631,0.00462238,0.00802201,inf	1.07755,1.07755,661.9,549.367,263.823,198.288,211.677,257.482,263.892,516.919,1196.71,2116.63,2394.63,1369.72,1369.72,1369.72
0.000374608	-6055110.57	0,1.51612e-06,4.14682e-06,8.71145e-06,1.66317e-05,3.03746e-05,5.42204e-05,9.55964e-05,0.00016739,0.000291961,0.000508111,0.000883161,0.00153393,0.0026631,0.00462238,0.00802201,inf	1.07755,1.07755,660.49,547.698,261.903,196.305,210.656,259.461,263.891,517.972,1199.29,2112.09,2391.63,1365.95,1365.95,1365.95
