LogLikelihood = -25260.841684521583375

y0 0.11982421803196381671
y0_prime 0
y1 1.7984677561049799976
y1_prime 0
y2 8.3611119671281617372
y2_prime 0
y3 2.1017190707961423968
y3_prime 0
rho 9.9999999999999997989e-13
theta 4.6772750307797133303e-05
