LogLikelihood = -309887.47090451407712

y0 0.83960581887161667147
y0_prime 0
y1 1.1328788387561199436
y1_prime 0
y2 0.90836068543617731752
y2_prime 0
y3 1.7037455703135475638
y3_prime 0
rho 0.0029051697827252322658
theta 0.0050688529357614947601
