0.00076722	-15162915.63	0,4.58335e-06,1.25361e-05,2.63353e-05,5.02789e-05,9.18244e-05,0.000163912,0.000288994,0.00050603,0.000882618,0.00153605,0.00266986,0.00463717,0.00805074,0.0139738,0.0242511,inf	176.78,176.78,33.9885,25.8984,42.1591,76.5479,135.707,219.139,290.764,316.551,338.093,398.605,401.284,397.23,397.23,397.23
0.000830802	-15156131.58	0,4.58335e-06,1.25361e-05,2.63353e-05,5.02789e-05,9.18244e-05,0.000163912,0.000288994,0.00050603,0.000882618,0.00153605,0.00266986,0.00463717,0.00805074,0.0139738,0.0242511,inf	214.607,214.607,11.6562,3.41756,7.26999,23.9589,74.2099,180.818,285.499,308.185,324.823,418.596,429.561,429.131,429.131,429.131
0.000889073	-15153213.19	0,4.58335e-06,1.25361e-05,2.63353e-05,5.02789e-05,9.18244e-05,0.000163912,0.000288994,0.00050603,0.000882618,0.00153605,0.00266986,0.00463717,0.00805074,0.0139738,0.0242511,inf	237.993,237.993,4.13193,0.5055,1.49191,8.88443,47.3577,165.74,294.904,307.349,313.675,427.263,446.926,454.072,454.072,454.072
0.000943224	-15151300.63	0,4.58335e-06,1.25361e-05,2.63353e-05,5.02789e-05,9.18244e-05,0.000163912,0.000288994,0.00050603,0.000882618,0.00153605,0.00266986,0.00463717,0.00805074,0.0139738,0.0242511,inf	238.157,238.157,1.35899,0.356432,0.356435,3.64143,32.9106,158.892,308.555,308.692,304.347,430.416,457.455,473.876,473.876,473.876
0.000994278	-15149815.15	0,4.58335e-06,1.25361e-05,2.63353e-05,5.02789e-05,9.18244e-05,0.000163912,0.000288994,0.00050603,0.000882618,0.00153605,0.00266986,0.00463717,0.00805074,0.0139738,0.0242511,inf	231.616,231.616,0.430758,0.356432,0.356433,1.59949,24.1715,155.566,322.899,310.535,296.597,430.904,463.639,489.836,489.836,489.836
0.00104289	-15148576.17	0,4.58335e-06,1.25361e-05,2.63353e-05,5.02789e-05,9.18244e-05,0.000163912,0.000288994,0.00050603,0.000882618,0.00153605,0.00266986,0.00463717,0.00805074,0.0139738,0.0242511,inf	224.252,224.252,0.356433,0.356432,0.356433,0.741683,18.4941,153.983,336.611,312.314,290.174,430.124,466.991,502.853,502.853,502.853
0.00108946	-15147507.50	0,4.58335e-06,1.25361e-05,2.63353e-05,5.02789e-05,9.18244e-05,0.000163912,0.000288994,0.00050603,0.000882618,0.00153605,0.00266986,0.00463717,0.00805074,0.0139738,0.0242511,inf	216.98,216.98,0.356432,0.356432,0.356433,0.359353,14.629,153.404,349.239,313.853,284.844,428.774,468.451,513.565,513.565,513.565
0.00113425	-15146568.53	0,4.58335e-06,1.25361e-05,2.63353e-05,5.02789e-05,9.18244e-05,0.000163912,0.000288994,0.00050603,0.000882618,0.00153605,0.00266986,0.00463717,0.00805074,0.0139738,0.0242511,inf	210.325,210.325,0.356432,0.356432,0.356433,0.356433,11.9091,153.496,360.691,315.116,280.408,427.201,468.62,522.439,522.439,522.439
0.00117744	-15145733.77	0,4.58335e-06,1.25361e-05,2.63353e-05,5.02789e-05,9.18244e-05,0.000163912,0.000288994,0.00050603,0.000882618,0.00153605,0.00266986,0.00463717,0.00805074,0.0139738,0.0242511,inf	204.382,204.382,0.356432,0.356432,0.356433,0.356433,9.94542,154.086,371.018,316.119,276.698,425.58,467.894,529.824,529.824,529.824
0.00121915	-15144984.84	0,4.58335e-06,1.25361e-05,2.63353e-05,5.02789e-05,9.18244e-05,0.000163912,0.000288994,0.00050603,0.000882618,0.00153605,0.00266986,0.00463717,0.00805074,0.0139738,0.0242511,inf	199.136,199.136,0.356432,0.356432,0.356433,0.356433,8.50047,155.086,380.324,316.889,273.583,423.998,466.542,535.991,535.991,535.991
0.00125949	-15144308.41	0,4.58335e-06,1.25361e-05,2.63353e-05,5.02789e-05,9.18244e-05,0.000163912,0.000288994,0.00050603,0.000882618,0.00153605,0.00266986,0.00463717,0.00805074,0.0139738,0.0242511,inf	194.349,194.349,0.356432,0.356432,0.356433,0.356433,7.42155,156.435,388.721,317.458,270.954,422.494,464.752,541.15,541.15,541.15
0.00129854	-15143694.17	0,4.58335e-06,1.25361e-05,2.63353e-05,5.02789e-05,9.18244e-05,0.000163912,0.000288994,0.00050603,0.000882618,0.00153605,0.00266986,0.00463717,0.00805074,0.0139738,0.0242511,inf	189.997,189.997,0.356432,0.356432,0.356433,0.356433,6.60727,158.089,396.317,317.853,268.725,421.085,462.658,545.471,545.471,545.471
0.00133636	-15143133.88	0,4.58335e-06,1.25361e-05,2.63353e-05,5.02789e-05,9.18244e-05,0.000163912,0.000288994,0.00050603,0.000882618,0.00153605,0.00266986,0.00463717,0.00805074,0.0139738,0.0242511,inf	186.057,186.057,0.356432,0.356432,0.356433,0.356433,5.9887,160.01,403.205,318.098,266.83,419.776,460.354,549.089,549.089,549.089
0.00137301	-15142620.85	0,4.58335e-06,1.25361e-05,2.63353e-05,5.02789e-05,9.18244e-05,0.000163912,0.000288994,0.00050603,0.000882618,0.00153605,0.00266986,0.00463717,0.00805074,0.0139738,0.0242511,inf	182.102,182.102,0.356432,0.356432,0.356433,0.356433,5.51809,162.166,409.469,318.215,265.212,418.564,457.913,552.117,552.117,552.117
0.00140855	-15142149.56	0,4.58335e-06,1.25361e-05,2.63353e-05,5.02789e-05,9.18244e-05,0.000163912,0.000288994,0.00050603,0.000882618,0.00153605,0.00266986,0.00463717,0.00805074,0.0139738,0.0242511,inf	178.708,178.708,0.356432,0.356432,0.356433,0.356433,5.16136,164.529,415.177,318.222,263.829,417.444,455.384,554.646,554.646,554.646
0.00144303	-15141715.30	0,4.58335e-06,1.25361e-05,2.63353e-05,5.02789e-05,9.18244e-05,0.000163912,0.000288994,0.00050603,0.000882618,0.00153605,0.00266986,0.00463717,0.00805074,0.0139738,0.0242511,inf	175.797,175.797,0.356432,0.356432,0.356433,0.356433,4.89441,167.073,420.39,318.135,262.643,416.41,452.809,556.753,556.753,556.753
0.00147649	-15141314.13	0,4.58335e-06,1.25361e-05,2.63353e-05,5.02789e-05,9.18244e-05,0.000163912,0.000288994,0.00050603,0.000882618,0.00153605,0.00266986,0.00463717,0.00805074,0.0139738,0.0242511,inf	172.647,172.647,0.356432,0.356432,0.356433,0.356433,4.69949,169.773,425.16,317.967,261.626,415.455,450.214,558.502,558.502,558.502
0.00150898	-15140942.71	0,4.58335e-06,1.25361e-05,2.63353e-05,5.02789e-05,9.18244e-05,0.000163912,0.000288994,0.00050603,0.000882618,0.00153605,0.00266986,0.00463717,0.00805074,0.0139738,0.0242511,inf	169.959,169.959,0.356432,0.356432,0.356433,0.356433,4.56373,172.609,429.529,317.73,260.755,414.572,447.621,559.946,559.946,559.946
0.00154054	-15140598.05	0,4.58335e-06,1.25361e-05,2.63353e-05,5.02789e-05,9.18244e-05,0.000163912,0.000288994,0.00050603,0.000882618,0.00153605,0.00266986,0.00463717,0.00805074,0.0139738,0.0242511,inf	167.415,167.415,0.356432,0.356432,0.356433,0.356433,4.47734,175.561,433.537,317.434,260.008,413.755,445.047,561.13,561.13,561.13
0.0015712	-15140277.63	0,4.58335e-06,1.25361e-05,2.63353e-05,5.02789e-05,9.18244e-05,0.000163912,0.000288994,0.00050603,0.000882618,0.00153605,0.00266986,0.00463717,0.00805074,0.0139738,0.0242511,inf	165.323,165.323,0.356432,0.356432,0.356433,0.356433,4.4331,178.612,437.217,317.087,259.371,412.999,442.504,562.092,562.092,562.092
