0.000647692	-4538229.14	0,4.47964e-06,1.01813e-05,1.74385e-05,2.66755e-05,3.84323e-05,5.33964e-05,7.24429e-05,9.66852e-05,0.000127541,0.000166814,0.000216802,0.000280426,0.000361407,0.00046448,0.000595672,0.000762654,0.00097519,0.00124571,0.00159002,0.00202826,0.00258606,0.00329603,0.00419968,0.00534986,0.0068138,0.00867712,0.0110488,0.0140674,0.0179095,0.0227998,0.0290242,inf	27.017,27.017,66.1581,141.811,216.027,194.818,214.216,238.38,257.576,271.235,276.885,278.146,283.145,294.745,312.75,332.485,350.973,367.254,384.34,405.21,426.875,443.4,451.436,449.625,441.119,431.476,422.389,413.912,413.912,429.417,429.417,429.417
0.000679652	-4537201.84	0,4.47964e-06,1.01813e-05,1.74385e-05,2.66755e-05,3.84323e-05,5.33964e-05,7.24429e-05,9.66852e-05,0.000127541,0.000166814,0.000216802,0.000280426,0.000361407,0.00046448,0.000595672,0.000762654,0.00097519,0.00124571,0.00159002,0.00202826,0.00258606,0.00329603,0.00419968,0.00534986,0.0068138,0.00867712,0.0110488,0.0140674,0.0179095,0.0227998,0.0290242,inf	2.6677,2.6677,16.6508,86.9135,202.584,147.533,169.426,201.616,227.463,245.454,249.311,244.034,245.536,258.302,282.077,308.481,332.317,352.099,373.779,403.405,436.917,464.638,480.244,479.255,465.522,448.925,432.587,417.531,417.531,453.562,453.562,453.562
0.000709585	-4536782.91	0,4.47964e-06,1.01813e-05,1.74385e-05,2.66755e-05,3.84323e-05,5.33964e-05,7.24429e-05,9.66852e-05,0.000127541,0.000166814,0.000216802,0.000280426,0.000361407,0.00046448,0.000595672,0.000762654,0.00097519,0.00124571,0.00159002,0.00202826,0.00258606,0.00329603,0.00419968,0.00534986,0.0068138,0.00867712,0.0110488,0.0140674,0.0179095,0.0227998,0.0290242,inf	0.406004,0.406004,4.92422,63.7933,220.009,127.737,153.664,191.968,223.231,245.07,246.705,234.215,231.396,243.695,270.65,300.364,325.701,344.909,366.879,400.38,440.83,476.182,498.191,499.134,482.221,460.561,438.395,418.254,418.254,478.453,478.453,478.453
0.000737626	-4536534.17	0,4.47964e-06,1.01813e-05,1.74385e-05,2.66755e-05,3.84323e-05,5.33964e-05,7.24429e-05,9.66852e-05,0.000127541,0.000166814,0.000216802,0.000280426,0.000361407,0.00046448,0.000595672,0.000762654,0.00097519,0.00124571,0.00159002,0.00202826,0.00258606,0.00329603,0.00419968,0.00534986,0.0068138,0.00867712,0.0110488,0.0140674,0.0179095,0.0227998,0.0290242,inf	0.405992,0.405992,1.54183,49.1577,242.016,113.94,145.819,189.009,225.146,251.109,251.082,232.017,225.373,237.226,266.799,298.783,324.233,341.319,361.869,396.986,441.669,482.234,509.378,512.537,493.648,468.211,441.28,417.161,417.161,504.121,504.121,504.121
0.000764115	-4536351.66	0,4.47964e-06,1.01813e-05,1.74385e-05,2.66755e-05,3.84323e-05,5.33964e-05,7.24429e-05,9.66852e-05,0.000127541,0.000166814,0.000216802,0.000280426,0.000361407,0.00046448,0.000595672,0.000762654,0.00097519,0.00124571,0.00159002,0.00202826,0.00258606,0.00329603,0.00419968,0.00534986,0.0068138,0.00867712,0.0110488,0.0140674,0.0179095,0.0227998,0.0290242,inf	0.405992,0.405992,0.492541,38.4669,261.788,102.087,140.863,187.532,227.773,257.938,256.871,232.154,222.38,234.119,266.257,300.186,325.233,339.61,358.072,393.713,441.065,485.206,516.363,521.653,501.488,473.152,442.255,414.966,414.966,530.592,530.592,530.592
0.000789329	-4536202.13	0,4.47964e-06,1.01813e-05,1.74385e-05,2.66755e-05,3.84323e-05,5.33964e-05,7.24429e-05,9.66852e-05,0.000127541,0.000166814,0.000216802,0.000280426,0.000361407,0.00046448,0.000595672,0.000762654,0.00097519,0.00124571,0.00159002,0.00202826,0.00258606,0.00329603,0.00419968,0.00534986,0.0068138,0.00867712,0.0110488,0.0140674,0.0179095,0.0227998,0.0290242,inf	0.405992,0.405992,0.405992,30.4334,278.046,91.5759,137.518,186.294,229.755,263.945,262.306,232.809,220.517,232.469,267.217,303,327.465,338.958,355.127,390.763,439.853,486.451,520.703,527.894,506.866,476.246,442,412.129,412.129,557.908,557.908,557.908
0.00081347	-4536072.72	0,4.47964e-06,1.01813e-05,1.74385e-05,2.66755e-05,3.84323e-05,5.33964e-05,7.24429e-05,9.66852e-05,0.000127541,0.000166814,0.000216802,0.000280426,0.000361407,0.00046448,0.000595672,0.000762654,0.00097519,0.00124571,0.00159002,0.00202826,0.00258606,0.00329603,0.00419968,0.00534986,0.0068138,0.00867712,0.0110488,0.0140674,0.0179095,0.0227998,0.0290242,inf	0.405992,0.405992,0.405992,24.3532,291.072,82.3355,135.435,185.118,230.971,268.865,266.946,233.396,219.056,231.457,268.841,306.457,330.302,338.92,352.801,388.189,438.448,486.73,523.352,532.179,510.535,478.078,440.963,408.945,408.945,586.137,586.137,586.137
0.000836677	-4535957.57	0,4.47964e-06,1.01813e-05,1.74385e-05,2.66755e-05,3.84323e-05,5.33964e-05,7.24429e-05,9.66852e-05,0.000127541,0.000166814,0.000216802,0.000280426,0.000361407,0.00046448,0.000595672,0.000762654,0.00097519,0.00124571,0.00159002,0.00202826,0.00258606,0.00329603,0.00419968,0.00534986,0.0068138,0.00867712,0.0110488,0.0140674,0.0179095,0.0227998,0.0290242,inf	0.405992,0.405992,0.405992,19.7416,301.447,74.2984,134.463,184.055,231.621,272.851,270.802,233.775,217.724,230.727,270.731,310.163,333.4,339.235,350.93,385.977,437.05,486.475,524.9,535.106,513.002,479.043,439.443,405.6,405.6,615.381,615.381,615.381
0.000859052	-4535853.60	0,4.47964e-06,1.01813e-05,1.74385e-05,2.66755e-05,3.84323e-05,5.33964e-05,7.24429e-05,9.66852e-05,0.000127541,0.000166814,0.000216802,0.000280426,0.000361407,0.00046448,0.000595672,0.000762654,0.00097519,0.00124571,0.00159002,0.00202826,0.00258606,0.00329603,0.00419968,0.00534986,0.0068138,0.00867712,0.0110488,0.0140674,0.0179095,0.0227998,0.0290242,inf	0.405992,0.405992,0.405992,16.2386,309.706,67.351,134.47,183.157,231.923,276.132,274.017,233.957,216.43,230.118,272.689,313.911,336.569,339.745,349.398,384.089,435.752,485.935,525.719,537.077,514.611,479.41,437.637,402.211,402.211,645.768,645.768,645.768
0.00088067	-4535758.94	0,4.47964e-06,1.01813e-05,1.74385e-05,2.66755e-05,3.84323e-05,5.33964e-05,7.24429e-05,9.66852e-05,0.000127541,0.000166814,0.000216802,0.000280426,0.000361407,0.00046448,0.000595672,0.000762654,0.00097519,0.00124571,0.00159002,0.00202826,0.00258606,0.00329603,0.00419968,0.00534986,0.0068138,0.00867712,0.0110488,0.0140674,0.0179095,0.0227998,0.0290242,inf	0.405992,0.405992,0.405992,13.5587,316.266,61.3293,135.32,182.436,232.034,278.911,276.749,234,215.155,229.564,274.622,317.591,339.699,340.349,348.118,382.478,434.589,485.25,526.048,538.362,515.604,479.366,435.678,398.852,398.852,677.478,677.478,677.478
0.000901587	-4535672.32	0,4.47964e-06,1.01813e-05,1.74385e-05,2.66755e-05,3.84323e-05,5.33964e-05,7.24429e-05,9.66852e-05,0.000127541,0.000166814,0.000216802,0.000280426,0.000361407,0.00046448,0.000595672,0.000762654,0.00097519,0.00124571,0.00159002,0.00202826,0.00258606,0.00329603,0.00419968,0.00534986,0.0068138,0.00867712,0.0110488,0.0140674,0.0179095,0.0227998,0.0290242,inf	0.405992,0.405992,0.405992,11.5041,321.466,56.0992,136.886,181.873,232.058,281.342,279.126,233.957,213.904,229.039,276.486,321.147,342.728,340.987,347.027,381.104,433.569,484.506,526.045,539.149,516.149,479.042,433.652,395.569,395.569,710.737,710.737,710.737
0.000921849	-4535592.79	0,4.47964e-06,1.01813e-05,1.74385e-05,2.66755e-05,3.84323e-05,5.33964e-05,7.24429e-05,9.66852e-05,0.000127541,0.000166814,0.000216802,0.000280426,0.000361407,0.00046448,0.000595672,0.000762654,0.00097519,0.00124571,0.00159002,0.00202826,0.00258606,0.00329603,0.00419968,0.00534986,0.0068138,0.00867712,0.0110488,0.0140674,0.0179095,0.0227998,0.0290242,inf	0.405992,0.405992,0.405992,9.9135,325.563,51.5259,139.047,181.428,232.054,283.535,281.248,233.875,212.69,228.539,278.266,324.555,345.626,341.618,346.08,379.926,432.687,483.748,525.814,539.568,516.365,478.529,431.617,392.386,392.386,745.822,745.822,745.822
0.000941492	-4535519.58	0,4.47964e-06,1.01813e-05,1.74385e-05,2.66755e-05,3.84323e-05,5.33964e-05,7.24429e-05,9.66852e-05,0.000127541,0.000166814,0.000216802,0.000280426,0.000361407,0.00046448,0.000595672,0.000762654,0.00097519,0.00124571,0.00159002,0.00202826,0.00258606,0.00329603,0.00419968,0.00534986,0.0068138,0.00867712,0.0110488,0.0140674,0.0179095,0.0227998,0.0290242,inf	0.405992,0.405992,0.405992,8.68491,328.763,47.5015,141.687,181.065,232.059,285.559,283.183,233.791,211.522,228.062,279.959,327.807,348.375,342.219,345.242,378.914,431.932,483.005,525.425,539.713,516.34,477.891,429.61,389.319,389.319,783.097,783.097,783.097
0.000960547	-4535452.06	0,4.47964e-06,1.01813e-05,1.74385e-05,2.66755e-05,3.84323e-05,5.33964e-05,7.24429e-05,9.66852e-05,0.000127541,0.000166814,0.000216802,0.000280426,0.000361407,0.00046448,0.000595672,0.000762654,0.00097519,0.00124571,0.00159002,0.00202826,0.00258606,0.00329603,0.00419968,0.00534986,0.0068138,0.00867712,0.0110488,0.0140674,0.0179095,0.0227998,0.0290242,inf	0.405992,0.405992,0.405992,7.73059,331.23,43.9379,144.708,180.747,232.081,287.464,284.983,233.723,210.408,227.611,281.57,330.902,350.973,342.776,344.488,378.041,431.292,482.291,524.929,539.653,516.135,477.175,427.655,386.372,386.372,823.03,823.03,823.03
0.000979041	-4535389.68	0,4.47964e-06,1.01813e-05,1.74385e-05,2.66755e-05,3.84323e-05,5.33964e-05,7.24429e-05,9.66852e-05,0.000127541,0.000166814,0.000216802,0.000280426,0.000361407,0.00046448,0.000595672,0.000762654,0.00097519,0.00124571,0.00159002,0.00202826,0.00258606,0.00329603,0.00419968,0.00534986,0.0068138,0.00867712,0.0110488,0.0140674,0.0179095,0.0227998,0.0290242,inf	0.405992,0.405992,0.405992,6.99481,333.136,40.7613,148.035,180.44,232.131,289.278,286.683,233.687,209.352,227.19,283.105,333.848,353.421,343.282,343.799,377.285,430.753,481.613,524.358,539.437,515.799,476.414,425.767,383.546,383.546,866.246,866.246,866.246
0.000996999	-4535331.98	0,4.47964e-06,1.01813e-05,1.74385e-05,2.66755e-05,3.84323e-05,5.33964e-05,7.24429e-05,9.66852e-05,0.000127541,0.000166814,0.000216802,0.000280426,0.000361407,0.00046448,0.000595672,0.000762654,0.00097519,0.00124571,0.00159002,0.00202826,0.00258606,0.00329603,0.00419968,0.00534986,0.0068138,0.00867712,0.0110488,0.0140674,0.0179095,0.0227998,0.0290242,inf	0.405992,0.405992,0.405992,6.42554,334.575,37.9097,151.6,180.118,232.208,291.021,288.306,233.689,208.358,226.801,284.572,336.653,355.724,343.733,343.16,376.627,430.304,480.976,523.736,539.102,515.365,475.63,423.952,380.839,380.839,913.59,913.59,913.59
0.00101444	-4535278.53	0,4.47964e-06,1.01813e-05,1.74385e-05,2.66755e-05,3.84323e-05,5.33964e-05,7.24429e-05,9.66852e-05,0.000127541,0.000166814,0.000216802,0.000280426,0.000361407,0.00046448,0.000595672,0.000762654,0.00097519,0.00124571,0.00159002,0.00202826,0.00258606,0.00329603,0.00419968,0.00534986,0.0068138,0.00867712,0.0110488,0.0140674,0.0179095,0.0227998,0.0290242,inf	0.405992,0.405992,0.405992,6.00588,335.642,35.3385,155.339,179.765,232.303,292.705,289.866,233.733,207.424,226.445,285.978,339.326,357.888,344.128,342.561,376.054,429.933,480.378,523.081,538.675,514.859,474.841,422.216,378.245,378.245,966.258,966.258,966.258
0.00103139	-4535228.97	0,4.47964e-06,1.01813e-05,1.74385e-05,2.66755e-05,3.84323e-05,5.33964e-05,7.24429e-05,9.66852e-05,0.000127541,0.000166814,0.000216802,0.000280426,0.000361407,0.00046448,0.000595672,0.000762654,0.00097519,0.00124571,0.00159002,0.00202826,0.00258606,0.00329603,0.00419968,0.00534986,0.0068138,0.00867712,0.0110488,0.0140674,0.0179095,0.0227998,0.0290242,inf	0.405992,0.405992,0.405992,5.69917,336.402,33.0107,159.202,179.373,232.427,294.337,291.377,233.818,206.549,226.122,287.33,341.878,359.922,344.468,341.995,375.552,429.632,479.82,522.406,538.179,514.301,474.058,420.557,375.759,375.759,1026.02,1026.02,1026.02
0.00104786	-4535182.97	0,4.47964e-06,1.01813e-05,1.74385e-05,2.66755e-05,3.84323e-05,5.33964e-05,7.24429e-05,9.66852e-05,0.000127541,0.000166814,0.000216802,0.000280426,0.000361407,0.00046448,0.000595672,0.000762654,0.00097519,0.00124571,0.00159002,0.00202826,0.00258606,0.00329603,0.00419968,0.00534986,0.0068138,0.00867712,0.0110488,0.0140674,0.0179095,0.0227998,0.0290242,inf	0.405992,0.405992,0.405992,5.49007,336.932,30.8897,163.152,178.936,232.568,295.922,292.844,233.943,205.73,225.833,288.634,344.317,361.833,344.756,341.455,375.112,429.392,479.3,521.719,537.63,513.706,473.288,418.975,373.373,373.373,1095.66,1095.66,1095.66
0.00106387	-4535140.22	0,4.47964e-06,1.01813e-05,1.74385e-05,2.66755e-05,3.84323e-05,5.33964e-05,7.24429e-05,9.66852e-05,0.000127541,0.000166814,0.000216802,0.000280426,0.000361407,0.00046448,0.000595672,0.000762654,0.00097519,0.00124571,0.00159002,0.00202826,0.00258606,0.00329603,0.00419968,0.00534986,0.0068138,0.00867712,0.0110488,0.0140674,0.0179095,0.0227998,0.0290242,inf	0.405992,0.405992,0.405992,5.37362,337.27,28.9563,167.152,178.448,232.723,297.465,294.272,234.104,204.963,225.576,289.894,346.652,363.63,344.994,340.937,374.726,429.205,478.816,521.026,537.04,513.085,472.537,417.467,371.079,371.079,1179.9,1179.9,1179.9
