time_index	left_time_boundary	right_time_boundary	lambda
0	0	9.66671e-06	0.408449
1	9.66671e-06	2.16235e-05	0.408449
2	2.16235e-05	3.64128e-05	15.0624
3	3.64128e-05	5.47058e-05	133.774
4	5.47058e-05	7.73324e-05	154.058
5	7.73324e-05	0.000105319	137.454
6	0.000105319	0.000139936	218.746
7	0.000139936	0.000182754	243.512
8	0.000182754	0.000235716	262.765
9	0.000235716	0.000301224	227.145
10	0.000301224	0.000382251	203.24
11	0.000382251	0.000482473	242.754
12	0.000482473	0.000606439	310.206
13	0.000606439	0.000759772	362.232
14	0.000759772	0.00094943	377.103
15	0.00094943	0.00118402	358.152
16	0.00118402	0.00147418	345.08
17	0.00147418	0.00183308	364.921
18	0.00183308	0.00227701	411.386
19	0.00227701	0.0028261	459.181
20	0.0028261	0.00350528	493.648
21	0.00350528	0.00434535	507.623
22	0.00434535	0.00538444	488.384
23	0.00538444	0.00666969	459.796
24	0.00666969	0.00825941	447.192
25	0.00825941	0.0102257	457.928
26	0.0102257	0.0126579	499.154
27	0.0126579	0.0156663	571.186
28	0.0156663	0.0193873	571.186
29	0.0193873	0.0239898	828.804
30	0.0239898	0.0296827	828.804
31	0.0296827	inf	828.804
