LogLikelihood = -864465.92186237999704

y0 0.88464850952041029775
y0_prime 0
y1 1.0632335612770826838
y1_prime 0
y2 0.89985153043068721868
y2_prime 0
y3 1.866763394526394837
y3_prime 0
rho 0.0013592221487085474202
theta 0.0025434110296145609996
