0.000657691	-292992.99	0,8.80171e-05,0.000208452,0.000373246,0.000598735,0.000907275,0.00132945,0.00190713,0.00269757,0.00377914,0.00525908,0.00728409,0.0100549,0.0138463,0.0190342,0.0261328,inf	441.425,441.425,338.707,317.335,341.968,370.134,407.256,442.288,466.249,462.739,455.198,487.623,527.333,643.401,643.401,643.401
0.000713048	-292913.02	0,8.80171e-05,0.000208452,0.000373246,0.000598735,0.000907275,0.00132945,0.00190713,0.00269757,0.00377914,0.00525908,0.00728409,0.0100549,0.0138463,0.0190342,0.0261328,inf	474.844,474.844,313.988,278.83,314.377,350.742,401.385,452.778,493.03,486.525,476.187,554.042,680.574,1262.78,1262.78,1262.78
0.000762776	-292877.46	0,8.80171e-05,0.000208452,0.000373246,0.000598735,0.000907275,0.00132945,0.00190713,0.00269757,0.00377914,0.00525908,0.00728409,0.0100549,0.0138463,0.0190342,0.0261328,inf	495.987,495.987,304.391,260.455,303.391,341.65,397.28,456.547,507.866,497.747,487.112,622.294,953.456,6515.41,6515.41,6515.41
0.000762776	-292856.64	0,8.80171e-05,0.000208452,0.000373246,0.000598735,0.000907275,0.00132945,0.00190713,0.00269757,0.00377914,0.00525908,0.00728409,0.0100549,0.0138463,0.0190342,0.0261328,inf	497.284,497.284,295.479,246.82,294.994,332.042,387.955,449.905,508.343,495.563,487.396,693.516,1678.77,58450.9,58450.9,58450.9
0.000762776	-292861.72	0,8.80171e-05,0.000208452,0.000373246,0.000598735,0.000907275,0.00132945,0.00190713,0.00269757,0.00377914,0.00525908,0.00728409,0.0100549,0.0138463,0.0190342,0.0261328,inf	497.293,497.293,293.766,239.809,293.258,328.334,383.47,446.35,509.811,492.751,487.086,698.051,1678.77,58450.9,58450.9,58450.9
0.000762776	-292861.32	0,8.80171e-05,0.000208452,0.000373246,0.000598735,0.000907275,0.00132945,0.00190713,0.00269757,0.00377914,0.00525908,0.00728409,0.0100549,0.0138463,0.0190342,0.0261328,inf	497.326,497.326,293.766,235.24,294.066,326.958,381.046,444.283,512.144,490.302,486.982,700.112,1678.77,58450.9,58450.9,58450.9
0.000762776	-292861.17	0,8.80171e-05,0.000208452,0.000373246,0.000598735,0.000907275,0.00132945,0.00190713,0.00269757,0.00377914,0.00525908,0.00728409,0.0100549,0.0138463,0.0190342,0.0261328,inf	497.357,497.357,293.766,231.587,295.845,326.496,379.477,442.829,514.492,488.003,486.984,701.337,1678.77,58450.9,58450.9,58450.9
0.000762776	-292861.08	0,8.80171e-05,0.000208452,0.000373246,0.000598735,0.000907275,0.00132945,0.00190713,0.00269757,0.00377914,0.00525908,0.00728409,0.0100549,0.0138463,0.0190342,0.0261328,inf	497.442,497.442,293.766,228.374,298.028,326.42,378.32,441.698,516.013,485.824,487.07,702.439,1678.77,58450.9,58450.9,58450.9
0.000762776	-292860.95	0,8.80171e-05,0.000208452,0.000373246,0.000598735,0.000907275,0.00132945,0.00190713,0.00269757,0.00377914,0.00525908,0.00728409,0.0100549,0.0138463,0.0190342,0.0261328,inf	497.455,497.455,293.766,225.405,300.198,326.42,377.416,440.827,517.132,483.803,487.071,703.517,1678.77,58450.9,58450.9,58450.9
0.000762776	-292860.81	0,8.80171e-05,0.000208452,0.000373246,0.000598735,0.000907275,0.00132945,0.00190713,0.00269757,0.00377914,0.00525908,0.00728409,0.0100549,0.0138463,0.0190342,0.0261328,inf	497.498,497.498,293.766,222.618,302.234,326.42,376.692,440.17,517.999,481.93,487.369,704.3,1678.77,58450.9,58450.9,58450.9
0.000762776	-292860.71	0,8.80171e-05,0.000208452,0.000373246,0.000598735,0.000907275,0.00132945,0.00190713,0.00269757,0.00377914,0.00525908,0.00728409,0.0100549,0.0138463,0.0190342,0.0261328,inf	497.559,497.559,293.766,219.991,302.234,326.589,376.078,439.666,519.177,480.172,487.761,704.952,1678.77,58450.9,58450.9,58450.9
0.000762776	-292860.69	0,8.80171e-05,0.000208452,0.000373246,0.000598735,0.000907275,0.00132945,0.00190713,0.00269757,0.00377914,0.00525908,0.00728409,0.0100549,0.0138463,0.0190342,0.0261328,inf	497.621,497.621,293.766,217.773,303.856,326.589,375.648,439.301,519.673,478.505,488.224,705.505,1678.77,58450.9,58450.9,58450.9
0.000762776	-292860.61	0,8.80171e-05,0.000208452,0.000373246,0.000598735,0.000907275,0.00132945,0.00190713,0.00269757,0.00377914,0.00525908,0.00728409,0.0100549,0.0138463,0.0190342,0.0261328,inf	497.663,497.663,293.766,215.669,305.393,326.589,375.293,439.057,520.04,476.96,488.778,705.925,1678.77,58450.9,58450.9,58450.9
0.000762776	-292860.53	0,8.80171e-05,0.000208452,0.000373246,0.000598735,0.000907275,0.00132945,0.00190713,0.00269757,0.00377914,0.00525908,0.00728409,0.0100549,0.0138463,0.0190342,0.0261328,inf	497.672,497.672,293.766,213.67,306.854,326.589,374.993,438.912,520.306,475.525,489.417,706.225,1678.77,58450.9,58450.9,58450.9
0.000762776	-292860.48	0,8.80171e-05,0.000208452,0.000373246,0.000598735,0.000907275,0.00132945,0.00190713,0.00269757,0.00377914,0.00525908,0.00728409,0.0100549,0.0138463,0.0190342,0.0261328,inf	497.707,497.707,293.766,211.768,308.244,326.589,374.73,438.85,520.492,474.189,490.132,706.416,1678.77,58450.9,58450.9,58450.9
0.000762776	-292860.43	0,8.80171e-05,0.000208452,0.000373246,0.000598735,0.000907275,0.00132945,0.00190713,0.00269757,0.00377914,0.00525908,0.00728409,0.0100549,0.0138463,0.0190342,0.0261328,inf	497.731,497.731,293.766,209.954,309.57,326.589,374.492,438.856,520.492,472.945,490.919,706.553,1678.77,58450.9,58450.9,58450.9
0.000762776	-292860.38	0,8.80171e-05,0.000208452,0.000373246,0.000598735,0.000907275,0.00132945,0.00190713,0.00269757,0.00377914,0.00525908,0.00728409,0.0100549,0.0138463,0.0190342,0.0261328,inf	497.747,497.747,293.766,208.223,310.835,326.589,374.279,438.934,520.492,471.789,491.777,706.566,1678.77,58450.9,58450.9,58450.9
0.000762776	-292860.35	0,8.80171e-05,0.000208452,0.000373246,0.000598735,0.000907275,0.00132945,0.00190713,0.00269757,0.00377914,0.00525908,0.00728409,0.0100549,0.0138463,0.0190342,0.0261328,inf	497.756,497.756,293.766,206.57,312.043,326.589,374.075,439.064,520.506,470.709,492.566,706.566,1678.77,58450.9,58450.9,58450.9
0.000762776	-292860.33	0,8.80171e-05,0.000208452,0.000373246,0.000598735,0.000907275,0.00132945,0.00190713,0.00269757,0.00377914,0.00525908,0.00728409,0.0100549,0.0138463,0.0190342,0.0261328,inf	497.797,497.797,293.766,204.99,313.198,326.589,373.87,439.214,520.506,469.695,493.307,706.566,1678.77,58450.9,58450.9,58450.9
0.000762776	-292860.31	0,8.80171e-05,0.000208452,0.000373246,0.000598735,0.000907275,0.00132945,0.00190713,0.00269757,0.00377914,0.00525908,0.00728409,0.0100549,0.0138463,0.0190342,0.0261328,inf	497.84,497.84,293.766,203.479,314.302,326.589,373.664,439.364,520.506,468.744,493.983,706.579,1678.77,58450.9,58450.9,58450.9
