time_index	left_time_boundary	right_time_boundary	lambda
0	0	4.05656e-05	214.783
1	4.05656e-05	8.80171e-05	214.783
2	8.80171e-05	0.000143524	982.998
3	0.000143524	0.000208452	426.011
4	0.000208452	0.000284403	313.446
5	0.000284403	0.000373246	248.105
6	0.000373246	0.000477169	185.727
7	0.000477169	0.000598735	219.851
8	0.000598735	0.000740935	281.382
9	0.000740935	0.000907275	320.617
10	0.000907275	0.00110185	326.416
11	0.00110185	0.00132945	348.438
12	0.00132945	0.00159569	376.354
13	0.00159569	0.00190713	399.147
14	0.00190713	0.00227143	414.373
15	0.00227143	0.00269757	441.192
16	0.00269757	0.00319605	485.019
17	0.00319605	0.00377914	511.939
18	0.00377914	0.00446122	503.456
19	0.00446122	0.00525908	473.27
20	0.00525908	0.00619237	462.673
21	0.00619237	0.00728409	509.317
22	0.00728409	0.00856113	530.914
23	0.00856113	0.0100549	545.528
24	0.0100549	0.0118023	548.729
25	0.0118023	0.0138463	563.49
26	0.0138463	0.0162373	620.062
27	0.0162373	0.0190342	849.574
28	0.0190342	0.0223058	849.574
29	0.0223058	0.0261328	86119.3
30	0.0261328	0.0306094	86119.3
31	0.0306094	inf	86119.3
