0.000634744	-12484522.82	0,3.70379e-06,1.01304e-05,2.12815e-05,4.06303e-05,7.42032e-05,0.000132457,0.000233536,0.000408922,0.000713242,0.00124128,0.00215751,0.00374729,0.00650578,0.0112922,0.0195973,inf	5651.28,5651.28,1135.03,541.684,390.905,346.133,338.784,334.717,337.421,358.396,409.091,498.325,520.152,635.643,635.643,635.643
0.000688795	-12481985.22	0,3.70379e-06,1.01304e-05,2.12815e-05,4.06303e-05,7.42032e-05,0.000132457,0.000233536,0.000408922,0.000713242,0.00124128,0.00215751,0.00374729,0.00650578,0.0112922,0.0195973,inf	8785.14,8785.14,1103.58,521.996,366.809,327.766,322.034,314.112,311.249,330.956,388.831,519.969,569.318,960.952,960.952,960.952
0.000729598	-12483034.28	0,3.70379e-06,1.01304e-05,2.12815e-05,4.06303e-05,7.42032e-05,0.000132457,0.000233536,0.000408922,0.000713242,0.00124128,0.00215751,0.00374729,0.00650578,0.0112922,0.0195973,inf	9620.18,9620.18,939.758,495.992,352.047,323.808,322.547,313.397,305.687,320.421,374.614,523.994,602.401,1807.59,1807.59,1807.59
0.000761123	-12485130.21	0,3.70379e-06,1.01304e-05,2.12815e-05,4.06303e-05,7.42032e-05,0.000132457,0.000233536,0.000408922,0.000713242,0.00124128,0.00215751,0.00374729,0.00650578,0.0112922,0.0195973,inf	9780.28,9780.28,794.894,478.862,340.594,321.6,325.644,317.601,307.185,317.089,364.465,518.669,629.531,9668.7,9668.7,9668.7
0.000761123	-12487574.91	0,3.70379e-06,1.01304e-05,2.12815e-05,4.06303e-05,7.42032e-05,0.000132457,0.000233536,0.000408922,0.000713242,0.00124128,0.00215751,0.00374729,0.00650578,0.0112922,0.0195973,inf	9700.52,9700.52,677.773,466.923,328.419,316.39,325.279,319.81,308.848,315.111,354.318,502.707,654.458,55249.3,55249.3,55249.3
0.000761123	-12488278.09	0,3.70379e-06,1.01304e-05,2.12815e-05,4.06303e-05,7.42032e-05,0.000132457,0.000233536,0.000408922,0.000713242,0.00124128,0.00215751,0.00374729,0.00650578,0.0112922,0.0195973,inf	9700.52,9700.52,598.846,467.32,321.436,312.642,324.652,321.869,312.034,315.22,348.564,490.14,663.604,55249.3,55249.3,55249.3
0.000761123	-12488221.43	0,3.70379e-06,1.01304e-05,2.12815e-05,4.06303e-05,7.42032e-05,0.000132457,0.000233536,0.000408922,0.000713242,0.00124128,0.00215751,0.00374729,0.00650578,0.0112922,0.0195973,inf	9700.52,9700.52,539.326,473.53,316.928,309.631,323.359,322.821,314.775,315.22,345.967,480.932,663.604,55250.6,55250.6,55250.6
0.000761123	-12488054.97	0,3.70379e-06,1.01304e-05,2.12815e-05,4.06303e-05,7.42032e-05,0.000132457,0.000233536,0.000408922,0.000713242,0.00124128,0.00215751,0.00374729,0.00650578,0.0112922,0.0195973,inf	9700.52,9700.52,491.942,483.023,313.914,307.373,321.826,322.985,317.087,315.22,345.427,473.828,667.757,55250.6,55250.6,55250.6
0.000761123	-12488023.63	0,3.70379e-06,1.01304e-05,2.12815e-05,4.06303e-05,7.42032e-05,0.000132457,0.000233536,0.000408922,0.000713242,0.00124128,0.00215751,0.00374729,0.00650578,0.0112922,0.0195973,inf	9700.52,9700.52,452.656,494.29,311.792,305.828,320.357,322.666,319.011,315.22,345.427,468.054,670.991,55250.6,55250.6,55250.6
0.000761123	-12487998.77	0,3.70379e-06,1.01304e-05,2.12815e-05,4.06303e-05,7.42032e-05,0.000132457,0.000233536,0.000408922,0.000713242,0.00124128,0.00215751,0.00374729,0.00650578,0.0112922,0.0195973,inf	9700.52,9700.52,419.016,506.259,310.086,304.854,319.063,322.051,320.642,315.22,345.427,463.297,673.733,55250.6,55250.6,55250.6
0.000761123	-12487981.68	0,3.70379e-06,1.01304e-05,2.12815e-05,4.06303e-05,7.42032e-05,0.000132457,0.000233536,0.000408922,0.000713242,0.00124128,0.00215751,0.00374729,0.00650578,0.0112922,0.0195973,inf	9700.52,9700.52,389.527,518.285,308.525,304.316,317.974,321.266,322.048,315.22,345.427,459.363,676,55250.6,55250.6,55250.6
0.000761123	-12487968.75	0,3.70379e-06,1.01304e-05,2.12815e-05,4.06303e-05,7.42032e-05,0.000132457,0.000233536,0.000408922,0.000713242,0.00124128,0.00215751,0.00374729,0.00650578,0.0112922,0.0195973,inf	9700.52,9700.52,363.28,530.015,306.959,304.099,317.091,320.389,323.276,315.22,345.427,456.103,677.879,55250.6,55250.6,55250.6
0.000761123	-12487958.85	0,3.70379e-06,1.01304e-05,2.12815e-05,4.06303e-05,7.42032e-05,0.000132457,0.000233536,0.000408922,0.000713242,0.00124128,0.00215751,0.00374729,0.00650578,0.0112922,0.0195973,inf	9700.52,9700.52,339.691,541.268,305.297,304.124,316.405,319.467,324.363,315.22,345.427,453.395,679.439,55250.6,55250.6,55250.6
0.000761123	-12487951.18	0,3.70379e-06,1.01304e-05,2.12815e-05,4.06303e-05,7.42032e-05,0.000132457,0.000233536,0.000408922,0.000713242,0.00124128,0.00215751,0.00374729,0.00650578,0.0112922,0.0195973,inf	9700.52,9700.52,318.315,551.98,303.524,304.326,315.89,318.53,325.333,315.22,345.427,451.142,680.738,55250.6,55250.6,55250.6
0.000761123	-12487945.19	0,3.70379e-06,1.01304e-05,2.12815e-05,4.06303e-05,7.42032e-05,0.000132457,0.000233536,0.000408922,0.000713242,0.00124128,0.00215751,0.00374729,0.00650578,0.0112922,0.0195973,inf	9700.52,9700.52,298.837,562.178,301.618,304.657,315.523,317.597,326.205,315.22,345.427,449.265,681.82,55250.6,55250.6,55250.6
0.000761123	-12487940.44	0,3.70379e-06,1.01304e-05,2.12815e-05,4.06303e-05,7.42032e-05,0.000132457,0.000233536,0.000408922,0.000713242,0.00124128,0.00215751,0.00374729,0.00650578,0.0112922,0.0195973,inf	9700.52,9700.52,281.031,571.79,299.609,305.077,315.288,316.68,326.995,315.22,345.427,447.697,682.723,55250.6,55250.6,55250.6
0.000761123	-12487936.65	0,3.70379e-06,1.01304e-05,2.12815e-05,4.06303e-05,7.42032e-05,0.000132457,0.000233536,0.000408922,0.000713242,0.00124128,0.00215751,0.00374729,0.00650578,0.0112922,0.0195973,inf	9700.52,9700.52,264.685,580.889,297.498,305.097,315.153,315.782,327.807,315.22,345.427,446.386,683.479,55250.6,55250.6,55250.6
0.000761123	-12487933.51	0,3.70379e-06,1.01304e-05,2.12815e-05,4.06303e-05,7.42032e-05,0.000132457,0.000233536,0.000408922,0.000713242,0.00124128,0.00215751,0.00374729,0.00650578,0.0112922,0.0195973,inf	9700.52,9700.52,249.651,589.553,295.403,305.718,315.148,314.902,328.428,315.22,345.427,445.289,684.111,55250.6,55250.6,55250.6
0.000761123	-12487931.06	0,3.70379e-06,1.01304e-05,2.12815e-05,4.06303e-05,7.42032e-05,0.000132457,0.000233536,0.000408922,0.000713242,0.00124128,0.00215751,0.00374729,0.00650578,0.0112922,0.0195973,inf	9700.52,9700.52,235.771,597.552,293.209,306.325,315.213,314.056,329.019,315.22,345.427,444.371,684.64,55250.6,55250.6,55250.6
0.000761123	-12487929.03	0,3.70379e-06,1.01304e-05,2.12815e-05,4.06303e-05,7.42032e-05,0.000132457,0.000233536,0.000408922,0.000713242,0.00124128,0.00215751,0.00374729,0.00650578,0.0112922,0.0195973,inf	9700.52,9700.52,222.931,604.952,290.967,306.923,315.332,313.244,329.58,315.22,345.427,443.601,685.084,55250.6,55250.6,55250.6
