AIC = 3074079.4381416784599

y0 1.0447761001395674541
y0_prime 0
y1 1.0592125041611426539
y1_prime 0
y2 0.92985407495619132323
y2_prime 0
y3 1.6377121113763499771
y3_prime 0
rho 0.01690156647919239391
rho.alpha 0.52730998750164304045
r_ii 0.99998660757088986273
theta 0.0049596355479181366416
