AIC = 615330.67232227919158

y0 0.98776217783326381028
y0_prime 0
y1 1.1816847648261452619
y1_prime 0
y2 0.81706418578547201914
y2_prime 0
y3 1.8099735060267465592
y3_prime 0
rho 0.016527806880316634613
rho.alpha 0.54922984250078976665
r_ii 0.99998256787355166431
theta 0.0049646420638381986296
