time_index	left_time_boundary	right_time_boundary	lambda
0	0	1.71635e-06	0.410755
1	1.71635e-06	3.9772e-06	0.410755
2	3.9772e-06	6.9553e-06	0.410755
3	6.9553e-06	1.08782e-05	0.410755
4	1.08782e-05	1.60457e-05	266.313
5	1.60457e-05	2.28525e-05	1.85071
6	2.28525e-05	3.18187e-05	1.62048
7	3.18187e-05	4.36295e-05	332.815
8	4.36295e-05	5.91872e-05	152.05
9	5.91872e-05	7.96807e-05	3.64827
10	7.96807e-05	0.000106676	0.410756
11	0.000106676	0.000142235	0.410755
12	0.000142235	0.000189075	0.410755
13	0.000189075	0.000250775	2.51331
14	0.000250775	0.000332049	32.7812
15	0.000332049	0.000439107	70.3295
16	0.000439107	0.00058013	40.6382
17	0.00058013	0.000765892	53.1762
18	0.000765892	0.00101059	79.8146
19	0.00101059	0.00133291	181.186
20	0.00133291	0.00175749	400.018
21	0.00175749	0.00231677	690.844
22	0.00231677	0.00305348	874.982
23	0.00305348	0.0040239	968.839
24	0.0040239	0.0053022	883.669
25	0.0053022	0.00698603	769.011
26	0.00698603	0.00920405	566.374
27	0.00920405	0.0121257	415.272
28	0.0121257	0.0159743	415.272
29	0.0159743	0.0210439	0.410755
30	0.0210439	0.0277217	0.410755
31	0.0277217	inf	0.410755
