0.000702997	-1853966.93	0,2.19302e-05,5.54817e-05,0.000106813,0.000185346,0.000305496,0.000489317,0.000770548,0.00120081,0.00185908,0.00286619,0.00440698,0.00676429,0.0103708,0.0158885,0.0243301,inf	189.13,189.13,210.005,222.117,221.047,233.728,263.695,321.544,413.642,523.923,508.838,452.014,431.208,504.535,504.535,504.535
0.0007829	-1852132.53	0,2.19302e-05,5.54817e-05,0.000106813,0.000185346,0.000305496,0.000489317,0.000770548,0.00120081,0.00185908,0.00286619,0.00440698,0.00676429,0.0103708,0.0158885,0.0243301,inf	163.298,163.298,185.058,195.119,179.609,185.09,214.57,284.348,406.358,589.142,575.471,476.642,444.427,642.617,642.617,642.617
0.000856067	-1851397.94	0,2.19302e-05,5.54817e-05,0.000106813,0.000185346,0.000305496,0.000489317,0.000770548,0.00120081,0.00185908,0.00286619,0.00440698,0.00676429,0.0103708,0.0158885,0.0243301,inf	161.664,161.664,190.245,199.904,170.003,167.351,192.546,264.526,396.679,623.801,616.13,485.735,448.333,862.833,862.833,862.833
0.000923583	-1850986.79	0,2.19302e-05,5.54817e-05,0.000106813,0.000185346,0.000305496,0.000489317,0.000770548,0.00120081,0.00185908,0.00286619,0.00440698,0.00676429,0.0103708,0.0158885,0.0243301,inf	160.254,160.254,200.369,212.583,170.318,160.785,181.847,253.428,388.262,642.558,640.951,485.969,447.192,1391.12,1391.12,1391.12
0.000986789	-1850703.21	0,2.19302e-05,5.54817e-05,0.000106813,0.000185346,0.000305496,0.000489317,0.000770548,0.00120081,0.00185908,0.00286619,0.00440698,0.00676429,0.0103708,0.0158885,0.0243301,inf	155.404,155.404,208.273,225.594,173.788,158.941,176.715,247.216,381.606,652.852,656.042,481.223,443.597,5283.01,5283.01,5283.01
0.000986789	-1850486.30	0,2.19302e-05,5.54817e-05,0.000106813,0.000185346,0.000305496,0.000489317,0.000770548,0.00120081,0.00185908,0.00286619,0.00440698,0.00676429,0.0103708,0.0158885,0.0243301,inf	147.159,147.159,210.722,234.444,176.533,158.016,173.287,242.033,372.971,644.711,655.293,468.594,435.615,51851.1,51851.1,51851.1
0.000986789	-1850486.49	0,2.19302e-05,5.54817e-05,0.000106813,0.000185346,0.000305496,0.000489317,0.000770548,0.00120081,0.00185908,0.00286619,0.00440698,0.00676429,0.0103708,0.0158885,0.0243301,inf	140.504,140.504,211.129,238.177,176.533,158.016,171.984,239.73,367.967,640.947,657.276,458.023,428.789,51855,51855,51855
0.000986789	-1850483.06	0,2.19302e-05,5.54817e-05,0.000106813,0.000185346,0.000305496,0.000489317,0.000770548,0.00120081,0.00185908,0.00286619,0.00440698,0.00676429,0.0103708,0.0158885,0.0243301,inf	135.972,135.972,211.258,240.889,176.533,158.016,171.701,238.823,364.851,639.326,659.972,449.02,422.618,51858.1,51858.1,51858.1
0.000986789	-1850480.79	0,2.19302e-05,5.54817e-05,0.000106813,0.000185346,0.000305496,0.000489317,0.000770548,0.00120081,0.00185908,0.00286619,0.00440698,0.00676429,0.0103708,0.0158885,0.0243301,inf	132.866,132.866,211.101,240.891,177.896,158.016,171.701,238.583,362.633,638.896,661.268,441.207,416.96,51860.9,51860.9,51860.9
0.000986789	-1850479.40	0,2.19302e-05,5.54817e-05,0.000106813,0.000185346,0.000305496,0.000489317,0.000770548,0.00120081,0.00185908,0.00286619,0.00440698,0.00676429,0.0103708,0.0158885,0.0243301,inf	130.837,130.837,210.909,242.167,177.897,158.016,171.701,238.583,360.918,639.287,661.744,434.449,411.77,51863.4,51863.4,51863.4
0.000986789	-1850478.57	0,2.19302e-05,5.54817e-05,0.000106813,0.000185346,0.000305496,0.000489317,0.000770548,0.00120081,0.00185908,0.00286619,0.00440698,0.00676429,0.0103708,0.0158885,0.0243301,inf	129.458,129.458,210.592,243.15,177.902,158.016,171.701,238.583,359.512,640.207,661.744,428.613,406.997,51865.6,51865.6,51865.6
0.000986789	-1850478.14	0,2.19302e-05,5.54817e-05,0.000106813,0.000185346,0.000305496,0.000489317,0.000770548,0.00120081,0.00185908,0.00286619,0.00440698,0.00676429,0.0103708,0.0158885,0.0243301,inf	128.544,128.544,210.2,244.148,177.902,158.016,171.701,238.583,358.333,640.978,661.744,423.572,402.592,51867.6,51867.6,51867.6
0.000986789	-1850477.93	0,2.19302e-05,5.54817e-05,0.000106813,0.000185346,0.000305496,0.000489317,0.000770548,0.00120081,0.00185908,0.00286619,0.00440698,0.00676429,0.0103708,0.0158885,0.0243301,inf	127.916,127.916,209.707,244.827,177.902,158.016,171.701,238.583,357.345,641.623,661.744,419.22,398.512,51869.4,51869.4,51869.4
0.000986789	-1850477.88	0,2.19302e-05,5.54817e-05,0.000106813,0.000185346,0.000305496,0.000489317,0.000770548,0.00120081,0.00185908,0.00286619,0.00440698,0.00676429,0.0103708,0.0158885,0.0243301,inf	127.51,127.51,209.184,245.4,177.902,158.016,171.701,238.583,356.519,642.163,661.744,415.469,394.718,51871,51871,51871
0.000986789	-1850477.93	0,2.19302e-05,5.54817e-05,0.000106813,0.000185346,0.000305496,0.000489317,0.000770548,0.00120081,0.00185908,0.00286619,0.00440698,0.00676429,0.0103708,0.0158885,0.0243301,inf	127.262,127.262,208.654,245.404,178.218,158.016,171.701,238.583,355.854,642.164,662.028,412.234,391.177,51872.4,51872.4,51872.4
0.000986789	-1850477.99	0,2.19302e-05,5.54817e-05,0.000106813,0.000185346,0.000305496,0.000489317,0.000770548,0.00120081,0.00185908,0.00286619,0.00440698,0.00676429,0.0103708,0.0158885,0.0243301,inf	127.145,127.145,208.162,245.405,178.472,158.016,171.701,238.583,355.321,642.512,662.028,409.459,387.858,51873.8,51873.8,51873.8
0.000986789	-1850478.14	0,2.19302e-05,5.54817e-05,0.000106813,0.000185346,0.000305496,0.000489317,0.000770548,0.00120081,0.00185908,0.00286619,0.00440698,0.00676429,0.0103708,0.0158885,0.0243301,inf	127.102,127.102,207.707,245.728,178.472,158.016,171.701,238.583,354.882,642.789,662.034,407.084,384.739,51875,51875,51875
0.000986789	-1850478.29	0,2.19302e-05,5.54817e-05,0.000106813,0.000185346,0.000305496,0.000489317,0.000770548,0.00120081,0.00185908,0.00286619,0.00440698,0.00676429,0.0103708,0.0158885,0.0243301,inf	127.089,127.089,207.26,246.029,178.472,158.016,171.701,238.583,354.535,642.789,662.034,405.06,381.799,51876.1,51876.1,51876.1
0.000986789	-1850478.49	0,2.19302e-05,5.54817e-05,0.000106813,0.000185346,0.000305496,0.000489317,0.000770548,0.00120081,0.00185908,0.00286619,0.00440698,0.00676429,0.0103708,0.0158885,0.0243301,inf	127.09,127.09,206.815,246.322,178.472,158.016,171.701,238.583,354.27,642.962,662.034,403.354,379.02,51877.1,51877.1,51877.1
0.000986789	-1850478.62	0,2.19302e-05,5.54817e-05,0.000106813,0.000185346,0.000305496,0.000489317,0.000770548,0.00120081,0.00185908,0.00286619,0.00440698,0.00676429,0.0103708,0.0158885,0.0243301,inf	127.095,127.095,206.377,246.609,178.472,158.016,171.701,238.583,354.059,643.1,662.034,401.917,376.384,51878,51878,51878
