time_index	left_time_boundary	right_time_boundary	lambda
0	0	9.30956e-05	635.345
1	9.30956e-05	0.00022048	635.345
2	0.00022048	0.000394781	147.751
3	0.000394781	0.000633281	300.351
4	0.000633281	0.000959623	444.851
5	0.000959623	0.00140616	396.646
6	0.00140616	0.00201717	373.088
7	0.00201717	0.00285322	402.046
8	0.00285322	0.00399719	681.415
9	0.00399719	0.00556252	364.119
10	0.00556252	0.00770437	264.064
11	0.00770437	0.0106351	14046.5
12	0.0106351	0.0146453	172.605
13	0.0146453	0.0201324	22.9404
14	0.0201324	0.0276406	22.9404
15	0.0276406	inf	22.9404
