0.000656906	-13758092.94	0,1.75479e-06,4.06629e-06,7.11111e-06,1.11219e-05,1.64051e-05,2.33644e-05,3.25315e-05,4.46068e-05,6.05131e-05,8.14656e-05,0.000109065,0.000145421,0.00019331,0.000256392,0.000339487,0.000448944,0.000593125,0.000783048,0.00103322,0.00136277,0.00179686,0.00236866,0.00312187,0.00411404,0.00542097,0.00714252,0.00941023,0.0123974,0.0163322,0.0215153,0.0283427,inf	73.1704,73.1704,171.308,244.777,248.985,201.812,180.211,191.751,214.508,231.539,242.804,255.642,267.138,275.753,283.175,293.258,308.3,325.397,345.739,370.474,398.153,424.762,444.37,452.608,448.984,438.365,425.945,399.368,399.368,369.02,369.02,369.02
0.000690451	-13754596.23	0,1.75479e-06,4.06629e-06,7.11111e-06,1.11219e-05,1.64051e-05,2.33644e-05,3.25315e-05,4.46068e-05,6.05131e-05,8.14656e-05,0.000109065,0.000145421,0.00019331,0.000256392,0.000339487,0.000448944,0.000593125,0.000783048,0.00103322,0.00136277,0.00179686,0.00236866,0.00312187,0.00411404,0.00542097,0.00714252,0.00941023,0.0123974,0.0163322,0.0215153,0.0283427,inf	24.0776,24.0776,131.03,264.448,273.669,177.337,136.139,148.021,177.601,197.902,209.084,224.741,238.046,245.722,250.672,259.91,277.348,297.358,322.596,355.661,394.922,435.035,467.392,483.96,480.746,463.935,442.143,391.165,391.165,340.246,340.246,340.246
0.000721288	-13753212.76	0,1.75479e-06,4.06629e-06,7.11111e-06,1.11219e-05,1.64051e-05,2.33644e-05,3.25315e-05,4.46068e-05,6.05131e-05,8.14656e-05,0.000109065,0.000145421,0.00019331,0.000256392,0.000339487,0.000448944,0.000593125,0.000783048,0.00103322,0.00136277,0.00179686,0.00236866,0.00312187,0.00411404,0.00542097,0.00714252,0.00941023,0.0123974,0.0163322,0.0215153,0.0283427,inf	8.39219,8.39219,105.447,299.578,318.418,170.505,117.067,131.798,168.324,191.037,201.239,219.391,234.03,240.078,241.525,248.515,265.94,285.389,311.133,347.104,391.616,438.793,479.2,502.895,501.898,481.695,452.723,379.994,379.994,316.221,316.221,316.221
0.000749816	-13752430.39	0,1.75479e-06,4.06629e-06,7.11111e-06,1.11219e-05,1.64051e-05,2.33644e-05,3.25315e-05,4.46068e-05,6.05131e-05,8.14656e-05,0.000109065,0.000145421,0.00019331,0.000256392,0.000339487,0.000448944,0.000593125,0.000783048,0.00103322,0.00136277,0.00179686,0.00236866,0.00312187,0.00411404,0.00542097,0.00714252,0.00941023,0.0123974,0.0163322,0.0215153,0.0283427,inf	2.81741,2.81741,81.4098,324.702,356.467,162.361,103.402,122.213,165.712,190.387,199.351,220.321,236.731,241.695,240.082,245.171,262.312,280.293,305.107,341.852,388.723,439.518,484.863,514.249,516.092,494.211,459.596,367.745,367.745,296.593,296.593,296.593
0.00077653	-13751876.35	0,1.75479e-06,4.06629e-06,7.11111e-06,1.11219e-05,1.64051e-05,2.33644e-05,3.25315e-05,4.46068e-05,6.05131e-05,8.14656e-05,0.000109065,0.000145421,0.00019331,0.000256392,0.000339487,0.000448944,0.000593125,0.000783048,0.00103322,0.00136277,0.00179686,0.00236866,0.00312187,0.00411404,0.00542097,0.00714252,0.00941023,0.0123974,0.0163322,0.0215153,0.0283427,inf	0.915395,0.915395,60.7142,338.756,384.887,152.057,92.0387,115.063,165.001,190.927,198.311,222.148,240.63,245.131,241.126,244.983,262.093,278.493,301.959,338.609,386.431,438.919,487.166,520.962,525.731,503.231,464.083,355.503,355.503,280.69,280.69,280.69
0.000801801	-13751432.34	0,1.75479e-06,4.06629e-06,7.11111e-06,1.11219e-05,1.64051e-05,2.33644e-05,3.25315e-05,4.46068e-05,6.05131e-05,8.14656e-05,0.000109065,0.000145421,0.00019331,0.000256392,0.000339487,0.000448944,0.000593125,0.000783048,0.00103322,0.00136277,0.00179686,0.00236866,0.00312187,0.00411404,0.00542097,0.00714252,0.00941023,0.0123974,0.0163322,0.0215153,0.0283427,inf	0.401804,0.401804,44.409,345.373,406.032,141.02,82.4632,109.4,165.159,191.559,196.958,223.483,244.081,248.564,242.747,245.993,263.407,278.36,300.443,336.67,384.738,437.811,487.621,524.792,532.347,509.908,467.061,343.839,343.839,267.828,267.828,267.828
0.000825887	-13751053.63	0,1.75479e-06,4.06629e-06,7.11111e-06,1.11219e-05,1.64051e-05,2.33644e-05,3.25315e-05,4.46068e-05,6.05131e-05,8.14656e-05,0.000109065,0.000145421,0.00019331,0.000256392,0.000339487,0.000448944,0.000593125,0.000783048,0.00103322,0.00136277,0.00179686,0.00236866,0.00312187,0.00411404,0.00542097,0.00714252,0.00941023,0.0123974,0.0163322,0.0215153,0.0283427,inf	0.401755,0.401755,32.1604,347.57,422.195,130.206,74.4326,104.928,165.986,192.168,195.238,224.169,246.752,251.469,244.257,247.378,265.38,279.083,299.892,335.605,383.568,436.573,487.061,526.794,536.92,514.997,469.103,333.019,333.019,257.413,257.413,257.413
0.000848964	-13750720.37	0,1.75479e-06,4.06629e-06,7.11111e-06,1.11219e-05,1.64051e-05,2.33644e-05,3.25315e-05,4.46068e-05,6.05131e-05,8.14656e-05,0.000109065,0.000145421,0.00019331,0.000256392,0.000339487,0.000448944,0.000593125,0.000783048,0.00103322,0.00136277,0.00179686,0.00236866,0.00312187,0.00411404,0.00542097,0.00714252,0.00941023,0.0123974,0.0163322,0.0215153,0.0283427,inf	0.401755,0.401755,23.1966,347.076,434.85,120.027,67.7034,101.443,167.432,192.824,193.325,224.387,248.735,253.788,245.45,248.793,267.59,280.23,299.917,335.134,382.826,435.375,485.945,527.614,540.084,518.994,470.58,323.136,323.136,248.964,248.964,248.964
0.000871159	-13750422.21	0,1.75479e-06,4.06629e-06,7.11111e-06,1.11219e-05,1.64051e-05,2.33644e-05,3.25315e-05,4.46068e-05,6.05131e-05,8.14656e-05,0.000109065,0.000145421,0.00019331,0.000256392,0.000339487,0.000448944,0.000593125,0.000783048,0.00103322,0.00136277,0.00179686,0.00236866,0.00312187,0.00411404,0.00542097,0.00714252,0.00941023,0.0123974,0.0163322,0.0215153,0.0283427,inf	0.401755,0.401755,16.704,344.954,444.802,110.622,62.0244,98.7536,169.422,193.585,191.377,224.349,250.218,255.615,246.309,250.104,269.828,281.564,300.285,335.071,382.424,434.287,484.535,527.654,542.255,522.228,471.731,314.187,314.187,242.093,242.093,242.093
0.000892561	-13750152.87	0,1.75479e-06,4.06629e-06,7.11111e-06,1.11219e-05,1.64051e-05,2.33644e-05,3.25315e-05,4.46068e-05,6.05131e-05,8.14656e-05,0.000109065,0.000145421,0.00019331,0.000256392,0.000339487,0.000448944,0.000593125,0.000783048,0.00103322,0.00136277,0.00179686,0.00236866,0.00312187,0.00411404,0.00542097,0.00714252,0.00941023,0.0123974,0.0163322,0.0215153,0.0283427,inf	0.401755,0.401755,12.0307,341.81,452.59,101.981,57.1843,96.6937,171.856,194.461,189.496,224.22,251.377,257.072,246.877,251.272,271.996,282.953,300.851,335.287,382.287,433.33,482.98,527.171,543.712,524.919,472.708,306.12,306.12,236.493,236.493,236.493
0.000913238	-13749908.05	0,1.75479e-06,4.06629e-06,7.11111e-06,1.11219e-05,1.64051e-05,2.33644e-05,3.25315e-05,4.46068e-05,6.05131e-05,8.14656e-05,0.000109065,0.000145421,0.00019331,0.000256392,0.000339487,0.000448944,0.000593125,0.000783048,0.00103322,0.00136277,0.00179686,0.00236866,0.00312187,0.00411404,0.00542097,0.00714252,0.00941023,0.0123974,0.0163322,0.0215153,0.0283427,inf	0.401755,0.401755,8.67664,338.068,458.555,94.0696,53.0091,95.1076,174.631,195.427,187.733,224.106,252.348,258.27,247.217,252.299,274.051,284.325,301.524,335.694,382.356,432.503,481.366,526.332,544.644,527.215,473.606,298.861,298.861,231.921,231.921,231.921
0.000933244	-13749684.49	0,1.75479e-06,4.06629e-06,7.11111e-06,1.11219e-05,1.64051e-05,2.33644e-05,3.25315e-05,4.46068e-05,6.05131e-05,8.14656e-05,0.000109065,0.000145421,0.00019331,0.000256392,0.000339487,0.000448944,0.000593125,0.000783048,0.00103322,0.00136277,0.00179686,0.00236866,0.00312187,0.00411404,0.00542097,0.00714252,0.00941023,0.0123974,0.0163322,0.0215153,0.0283427,inf	0.401755,0.401755,6.26405,334.096,463.002,86.8332,49.3732,93.8931,177.644,196.442,186.103,224.069,253.223,259.294,247.385,253.202,275.976,285.638,302.247,336.23,382.582,431.798,479.744,525.249,545.182,529.217,474.48,292.331,292.331,228.183,228.183,228.183
0.00095262	-13749479.63	0,1.75479e-06,4.06629e-06,7.11111e-06,1.11219e-05,1.64051e-05,2.33644e-05,3.25315e-05,4.46068e-05,6.05131e-05,8.14656e-05,0.000109065,0.000145421,0.00019331,0.000256392,0.000339487,0.000448944,0.000593125,0.000783048,0.00103322,0.00136277,0.00179686,0.00236866,0.00312187,0.00411404,0.00542097,0.00714252,0.00941023,0.0123974,0.0163322,0.0215153,0.0283427,inf	0.401755,0.401755,4.54519,330.111,466.172,80.2168,46.1743,92.9548,180.801,197.466,184.605,224.138,254.061,260.208,247.432,254.003,277.773,286.873,302.983,336.852,382.93,431.201,478.142,523.996,545.421,530.996,475.364,286.447,286.447,225.127,225.127,225.127
0.000971402	-13749291.35	0,1.75479e-06,4.06629e-06,7.11111e-06,1.11219e-05,1.64051e-05,2.33644e-05,3.25315e-05,4.46068e-05,6.05131e-05,8.14656e-05,0.000109065,0.000145421,0.00019331,0.000256392,0.000339487,0.000448944,0.000593125,0.000783048,0.00103322,0.00136277,0.00179686,0.00236866,0.00312187,0.00411404,0.00542097,0.00714252,0.00941023,0.0123974,0.0163322,0.0215153,0.0283427,inf	0.401755,0.401755,3.30262,326.268,468.269,74.1628,43.3359,92.2275,184.038,198.465,183.227,224.322,254.901,261.054,247.392,254.723,279.447,288.021,303.708,337.529,383.372,430.7,476.577,522.628,545.428,532.599,476.273,281.135,281.135,222.628,222.628,222.628
0.000989622	-13749117.85	0,1.75479e-06,4.06629e-06,7.11111e-06,1.11219e-05,1.64051e-05,2.33644e-05,3.25315e-05,4.46068e-05,6.05131e-05,8.14656e-05,0.000109065,0.000145421,0.00019331,0.000256392,0.000339487,0.000448944,0.000593125,0.000783048,0.00103322,0.00136277,0.00179686,0.00236866,0.00312187,0.00411404,0.00542097,0.00714252,0.00941023,0.0123974,0.0163322,0.0215153,0.0283427,inf	0.401755,0.401755,2.40757,322.713,469.486,68.6312,40.7975,91.667,187.303,199.412,181.958,224.621,255.76,261.863,247.296,255.38,281.009,289.08,304.409,338.24,383.886,430.282,475.058,521.18,545.252,534.061,477.214,276.327,276.327,220.587,220.587,220.587
0.0010073	-13748957.60	0,1.75479e-06,4.06629e-06,7.11111e-06,1.11219e-05,1.64051e-05,2.33644e-05,3.25315e-05,4.46068e-05,6.05131e-05,8.14656e-05,0.000109065,0.000145421,0.00019331,0.000256392,0.000339487,0.000448944,0.000593125,0.000783048,0.00103322,0.00136277,0.00179686,0.00236866,0.00312187,0.00411404,0.00542097,0.00714252,0.00941023,0.0123974,0.0163322,0.0215153,0.0283427,inf	0.401755,0.401755,1.76042,319.499,469.933,63.5717,38.5198,91.2358,190.562,200.285,180.782,225.027,256.649,262.653,247.164,255.99,282.468,290.052,305.076,338.968,384.454,429.938,473.591,519.679,544.93,535.408,478.188,271.962,271.962,218.926,218.926,218.926
0.00102448	-13748809.30	0,1.75479e-06,4.06629e-06,7.11111e-06,1.11219e-05,1.64051e-05,2.33644e-05,3.25315e-05,4.46068e-05,6.05131e-05,8.14656e-05,0.000109065,0.000145421,0.00019331,0.000256392,0.000339487,0.000448944,0.000593125,0.000783048,0.00103322,0.00136277,0.00179686,0.00236866,0.00312187,0.00411404,0.00542097,0.00714252,0.00941023,0.0123974,0.0163322,0.0215153,0.0283427,inf	0.401755,0.401755,1.29287,316.69,469.761,58.9558,36.4552,90.9082,193.775,201.069,179.687,225.528,257.57,263.436,247.012,256.566,283.835,290.939,305.706,339.702,385.065,429.659,472.176,518.146,544.492,536.656,479.192,267.985,267.985,217.578,217.578,217.578
0.00104116	-13748671.79	0,1.75479e-06,4.06629e-06,7.11111e-06,1.11219e-05,1.64051e-05,2.33644e-05,3.25315e-05,4.46068e-05,6.05131e-05,8.14656e-05,0.000109065,0.000145421,0.00019331,0.000256392,0.000339487,0.000448944,0.000593125,0.000783048,0.00103322,0.00136277,0.00179686,0.00236866,0.00312187,0.00411404,0.00542097,0.00714252,0.00941023,0.0123974,0.0163322,0.0215153,0.0283427,inf	0.401755,0.401755,0.951742,314.333,469.043,54.7202,34.5912,90.6678,196.933,201.765,178.662,226.112,258.522,264.217,246.85,257.116,285.119,291.747,306.296,340.436,385.707,429.436,470.813,516.594,543.959,537.821,480.223,264.349,264.349,216.49,216.49,216.49
0.00105737	-13748544.07	0,1.75479e-06,4.06629e-06,7.11111e-06,1.11219e-05,1.64051e-05,2.33644e-05,3.25315e-05,4.46068e-05,6.05131e-05,8.14656e-05,0.000109065,0.000145421,0.00019331,0.000256392,0.000339487,0.000448944,0.000593125,0.000783048,0.00103322,0.00136277,0.00179686,0.00236866,0.00312187,0.00411404,0.00542097,0.00714252,0.00941023,0.0123974,0.0163322,0.0215153,0.0283427,inf	0.401755,0.401755,0.51299,312.415,467.843,50.8537,32.8965,90.5096,200.023,202.367,177.699,226.765,259.501,265,246.686,257.647,286.329,292.482,306.844,341.163,386.374,429.262,469.504,515.033,543.349,538.913,481.275,261.015,261.015,215.62,215.62,215.62
0.00107313	-13748425.26	0,1.75479e-06,4.06629e-06,7.11111e-06,1.11219e-05,1.64051e-05,2.33644e-05,3.25315e-05,4.46068e-05,6.05131e-05,8.14656e-05,0.000109065,0.000145421,0.00019331,0.000256392,0.000339487,0.000448944,0.000593125,0.000783048,0.00103322,0.00136277,0.00179686,0.00236866,0.00312187,0.00411404,0.00542097,0.00714252,0.00941023,0.0123974,0.0163322,0.0215153,0.0283427,inf	0.401755,0.401755,0.401761,310.959,466.257,47.314,31.3529,90.4166,203.036,202.878,176.792,227.479,260.504,265.786,246.525,258.168,287.472,293.148,307.352,341.879,387.057,429.133,468.245,513.474,542.677,539.94,482.341,257.945,257.945,214.93,214.93,214.93
