0.000665395	-4648160.82	0,4.59157e-06,1.04357e-05,1.78742e-05,2.7342e-05,3.93926e-05,5.47306e-05,7.42529e-05,9.91011e-05,0.000130728,0.000170983,0.000222219,0.000287433,0.000370437,0.000476086,0.000610556,0.00078171,0.000999556,0.00127683,0.00162975,0.00207894,0.00265068,0.00337839,0.00430462,0.00548353,0.00698405,0.00889393,0.0113248,0.0144189,0.018357,0.0233695,0.0297494,inf	44.4292,44.4292,92.4807,134.547,149.111,164.038,199.34,231.567,254.084,267.692,272.532,271.166,273.505,284.987,301.663,318.933,338.23,361.48,387.832,413.33,433.519,445.214,447.867,442.601,432.674,421.241,404.58,380.27,380.27,382.658,382.658,382.658
0.000698806	-4646877.21	0,4.59157e-06,1.04357e-05,1.78742e-05,2.7342e-05,3.93926e-05,5.47306e-05,7.42529e-05,9.91011e-05,0.000130728,0.000170983,0.000222219,0.000287433,0.000370437,0.000476086,0.000610556,0.00078171,0.000999556,0.00127683,0.00162975,0.00207894,0.00265068,0.00337839,0.00430462,0.00548353,0.00698405,0.00889393,0.0113248,0.0144189,0.018357,0.0233695,0.0297494,inf	11.5661,11.5661,49.451,99.7487,108.193,113.239,155.141,199.405,230.673,247.701,249.433,239.472,235.964,248.237,268.908,289.633,313.601,344.783,382.429,420.636,452.675,473.322,480.578,474.076,458.134,438.046,406.238,361.121,361.121,368.666,368.666,368.666
0.000729619	-4646373.62	0,4.59157e-06,1.04357e-05,1.78742e-05,2.7342e-05,3.93926e-05,5.47306e-05,7.42529e-05,9.91011e-05,0.000130728,0.000170983,0.000222219,0.000287433,0.000370437,0.000476086,0.000610556,0.00078171,0.000999556,0.00127683,0.00162975,0.00207894,0.00265068,0.00337839,0.00430462,0.00548353,0.00698405,0.00889393,0.0113248,0.0144189,0.018357,0.0233695,0.0297494,inf	4.09494,4.09494,35.7327,97.5158,98.5197,93.0229,138.839,192.722,231.547,251.827,250.205,231.332,221.844,233.811,255.986,276.649,301.029,335.055,378.139,423.042,461.91,488.82,500.84,495.169,475.76,449.021,403.647,341.475,341.475,355.474,355.474,355.474
0.00075819	-4646094.22	0,4.59157e-06,1.04357e-05,1.78742e-05,2.7342e-05,3.93926e-05,5.47306e-05,7.42529e-05,9.91011e-05,0.000130728,0.000170983,0.000222219,0.000287433,0.000370437,0.000476086,0.000610556,0.00078171,0.000999556,0.00127683,0.00162975,0.00207894,0.00265068,0.00337839,0.00430462,0.00548353,0.00698405,0.00889393,0.0113248,0.0144189,0.018357,0.0233695,0.0297494,inf	1.61506,1.61506,28.5482,103.723,95.6674,80.5918,129.321,191.181,236.884,261.14,257.045,230.187,215.865,228.058,251.345,270.892,294.202,329.048,374.897,423.368,466.013,497.068,513.332,509.427,488.153,456.174,398.719,322.831,322.831,343.632,343.632,343.632
0.000784996	-4645899.91	0,4.59157e-06,1.04357e-05,1.78742e-05,2.7342e-05,3.93926e-05,5.47306e-05,7.42529e-05,9.91011e-05,0.000130728,0.000170983,0.000222219,0.000287433,0.000370437,0.000476086,0.000610556,0.00078171,0.000999556,0.00127683,0.00162975,0.00207894,0.00265068,0.00337839,0.00430462,0.00548353,0.00698405,0.00889393,0.0113248,0.0144189,0.018357,0.0233695,0.0297494,inf	0.657672,0.657672,23.5885,112.754,94.1566,71.0845,121.969,190.011,241.488,270.159,264.523,230.842,212.935,226.086,250.593,268.743,290.47,325.291,372.603,422.927,467.482,501.145,520.976,519.202,497.081,460.88,392.681,305.821,305.821,333.254,333.254,333.254
0.000810398	-4645745.97	0,4.59157e-06,1.04357e-05,1.78742e-05,2.7342e-05,3.93926e-05,5.47306e-05,7.42529e-05,9.91011e-05,0.000130728,0.000170983,0.000222219,0.000287433,0.000370437,0.000476086,0.000610556,0.00078171,0.000999556,0.00127683,0.00162975,0.00207894,0.00265068,0.00337839,0.00430462,0.00548353,0.00698405,0.00889393,0.0113248,0.0144189,0.018357,0.0233695,0.0297494,inf	0.396101,0.396101,19.7222,122.816,92.5952,63.3062,115.846,188.456,244.391,277.517,271.029,231.573,211.136,225.857,251.774,268.502,288.517,322.977,371.094,422.298,467.604,502.794,525.552,526.002,503.708,464.045,386.281,290.615,290.615,324.263,324.263,324.263
0.000834649	-4645615.43	0,4.59157e-06,1.04357e-05,1.78742e-05,2.7342e-05,3.93926e-05,5.47306e-05,7.42529e-05,9.91011e-05,0.000130728,0.000170983,0.000222219,0.000287433,0.000370437,0.000476086,0.000610556,0.00078171,0.000999556,0.00127683,0.00162975,0.00207894,0.00265068,0.00337839,0.00430462,0.00548353,0.00698405,0.00889393,0.0113248,0.0144189,0.018357,0.0233695,0.0297494,inf	0.396101,0.396101,16.547,133.111,90.6393,56.8522,110.817,186.714,245.839,283.198,276.272,231.868,209.712,226.44,253.928,269.291,287.619,321.613,370.202,421.723,467.049,503.01,528.148,530.794,508.79,466.259,379.952,277.156,277.156,316.513,316.513,316.513
0.000857923	-4645500.81	0,4.59157e-06,1.04357e-05,1.78742e-05,2.7342e-05,3.93926e-05,5.47306e-05,7.42529e-05,9.91011e-05,0.000130728,0.000170983,0.000222219,0.000287433,0.000370437,0.000476086,0.000610556,0.00078171,0.000999556,0.00127683,0.00162975,0.00207894,0.00265068,0.00337839,0.00430462,0.00548353,0.00698405,0.00889393,0.0113248,0.0144189,0.018357,0.0233695,0.0297494,inf	0.396101,0.396101,13.8708,143.182,88.2612,51.487,106.841,185.104,246.306,287.559,280.393,231.654,208.372,227.394,256.55,270.623,287.352,320.883,369.782,421.288,466.171,502.371,529.441,534.204,512.822,467.902,373.932,265.296,265.296,309.846,309.846,309.846
0.000880342	-4645398.32	0,4.59157e-06,1.04357e-05,1.78742e-05,2.7342e-05,3.93926e-05,5.47306e-05,7.42529e-05,9.91011e-05,0.000130728,0.000170983,0.000222219,0.000287433,0.000370437,0.000476086,0.000610556,0.00078171,0.000999556,0.00127683,0.00162975,0.00207894,0.00265068,0.00337839,0.00430462,0.00548353,0.00698405,0.00889393,0.0113248,0.0144189,0.018357,0.0233695,0.0297494,inf	0.396101,0.396101,11.6032,152.755,85.5195,47.0202,103.842,183.814,246.194,290.984,283.634,230.999,207.018,228.503,259.371,272.221,287.458,320.58,369.717,421.012,465.156,501.221,529.859,536.643,516.13,469.216,368.343,254.854,254.854,304.109,304.109,304.109
0.000901993	-4645305.71	0,4.59157e-06,1.04357e-05,1.78742e-05,2.7342e-05,3.93926e-05,5.47306e-05,7.42529e-05,9.91011e-05,0.000130728,0.000170983,0.000222219,0.000287433,0.000370437,0.000476086,0.000610556,0.00078171,0.000999556,0.00127683,0.00162975,0.00207894,0.00265068,0.00337839,0.00430462,0.00548353,0.00698405,0.00889393,0.0113248,0.0144189,0.018357,0.0233695,0.0297494,inf	0.396101,0.396101,9.67735,161.63,82.4758,43.2869,101.709,182.937,245.778,293.782,286.218,230.002,205.628,229.662,262.241,273.925,287.779,320.563,369.917,420.888,464.101,499.765,529.677,538.383,518.929,470.354,363.23,245.65,245.65,299.166,299.166,299.166
0.000922941	-4645221.47	0,4.59157e-06,1.04357e-05,1.78742e-05,2.7342e-05,3.93926e-05,5.47306e-05,7.42529e-05,9.91011e-05,0.000130728,0.000170983,0.000222219,0.000287433,0.000370437,0.000476086,0.000610556,0.00078171,0.000999556,0.00127683,0.00162975,0.00207894,0.00265068,0.00337839,0.00430462,0.00548353,0.00698405,0.00889393,0.0113248,0.0144189,0.018357,0.0233695,0.0297494,inf	0.396101,0.396101,8.04791,169.724,79.2219,40.1463,100.328,182.471,245.225,296.177,288.333,228.764,204.212,230.824,265.081,275.638,288.215,320.738,370.313,420.897,463.06,498.132,529.078,539.61,521.361,471.41,358.598,237.518,237.518,294.9,294.9,294.9
0.000943238	-4645144.48	0,4.59157e-06,1.04357e-05,1.78742e-05,2.7342e-05,3.93926e-05,5.47306e-05,7.42529e-05,9.91011e-05,0.000130728,0.000170983,0.000222219,0.000287433,0.000370437,0.000476086,0.000610556,0.00078171,0.000999556,0.00127683,0.00162975,0.00207894,0.00265068,0.00337839,0.00430462,0.00548353,0.00698405,0.00889393,0.0113248,0.0144189,0.018357,0.0233695,0.0297494,inf	0.396101,0.396101,6.67524,176.984,75.8282,37.491,99.5846,182.385,244.624,298.321,290.11,227.359,202.788,231.97,267.85,277.307,288.701,321.041,370.855,421.019,462.057,496.401,528.184,540.452,523.525,472.441,354.426,230.311,230.311,291.212,291.212,291.212
0.000962925	-4645073.86	0,4.59157e-06,1.04357e-05,1.78742e-05,2.7342e-05,3.93926e-05,5.47306e-05,7.42529e-05,9.91011e-05,0.000130728,0.000170983,0.000222219,0.000287433,0.000370437,0.000476086,0.000610556,0.00078171,0.000999556,0.00127683,0.00162975,0.00207894,0.00265068,0.00337839,0.00430462,0.00548353,0.00698405,0.00889393,0.0113248,0.0144189,0.018357,0.0233695,0.0297494,inf	0.396101,0.396101,5.52609,183.448,72.3599,35.2245,99.3812,182.617,244.019,300.311,291.648,225.85,201.377,233.095,270.526,278.901,289.198,321.427,371.504,421.236,461.104,494.622,527.079,540.998,525.485,473.479,350.685,223.901,223.901,288.018,288.018,288.018
0.000982034	-4645008.88	0,4.59157e-06,1.04357e-05,1.78742e-05,2.7342e-05,3.93926e-05,5.47306e-05,7.42529e-05,9.91011e-05,0.000130728,0.000170983,0.000222219,0.000287433,0.000370437,0.000476086,0.000610556,0.00078171,0.000999556,0.00127683,0.00162975,0.00207894,0.00265068,0.00337839,0.00430462,0.00548353,0.00698405,0.00889393,0.0113248,0.0144189,0.018357,0.0233695,0.0297494,inf	0.396101,0.396101,4.57027,189.172,68.8782,33.2762,99.6294,183.107,243.427,302.214,293.016,224.279,199.995,234.201,273.102,280.405,289.682,321.865,372.232,421.53,460.207,492.827,525.821,541.314,527.284,474.54,347.335,218.179,218.179,285.247,285.247,285.247
0.0010006	-4644948.94	0,4.59157e-06,1.04357e-05,1.78742e-05,2.7342e-05,3.93926e-05,5.47306e-05,7.42529e-05,9.91011e-05,0.000130728,0.000170983,0.000222219,0.000287433,0.000370437,0.000476086,0.000610556,0.00078171,0.000999556,0.00127683,0.00162975,0.00207894,0.00265068,0.00337839,0.00430462,0.00548353,0.00698405,0.00889393,0.0113248,0.0144189,0.018357,0.0233695,0.0297494,inf	0.396101,0.396101,3.77936,194.206,65.4206,31.5861,100.257,183.795,242.851,304.064,294.262,222.681,198.654,235.292,275.578,281.811,290.137,322.334,373.017,421.888,459.365,491.038,524.454,541.446,528.955,475.63,344.338,213.051,213.051,282.84,282.84,282.84
0.00101863	-4644893.50	0,4.59157e-06,1.04357e-05,1.78742e-05,2.7342e-05,3.93926e-05,5.47306e-05,7.42529e-05,9.91011e-05,0.000130728,0.000170983,0.000222219,0.000287433,0.000370437,0.000476086,0.000610556,0.00078171,0.000999556,0.00127683,0.00162975,0.00207894,0.00265068,0.00337839,0.00430462,0.00548353,0.00698405,0.00889393,0.0113248,0.0144189,0.018357,0.0233695,0.0297494,inf	0.396101,0.396101,3.1246,198.641,62.0266,30.1103,101.202,184.627,242.283,305.89,295.417,221.077,197.364,236.372,277.955,283.119,290.555,322.819,373.844,422.3,458.578,489.268,523.006,541.429,530.519,476.749,341.655,208.438,208.438,280.746,280.746,280.746
0.00103617	-4644842.13	0,4.59157e-06,1.04357e-05,1.78742e-05,2.7342e-05,3.93926e-05,5.47306e-05,7.42529e-05,9.91011e-05,0.000130728,0.000170983,0.000222219,0.000287433,0.000370437,0.000476086,0.000610556,0.00078171,0.000999556,0.00127683,0.00162975,0.00207894,0.00265068,0.00337839,0.00430462,0.00548353,0.00698405,0.00889393,0.0113248,0.0144189,0.018357,0.0233695,0.0297494,inf	0.396101,0.396101,2.58426,202.538,58.7197,28.8132,102.418,185.557,241.72,307.705,296.506,219.483,196.13,237.447,280.24,284.328,290.931,323.31,374.701,422.755,457.842,487.526,521.502,541.29,531.991,477.894,339.253,204.272,204.272,278.923,278.923,278.923
0.00105323	-4644794.42	0,4.59157e-06,1.04357e-05,1.78742e-05,2.7342e-05,3.93926e-05,5.47306e-05,7.42529e-05,9.91011e-05,0.000130728,0.000170983,0.000222219,0.000287433,0.000370437,0.000476086,0.000610556,0.00078171,0.000999556,0.00127683,0.00162975,0.00207894,0.00265068,0.00337839,0.00430462,0.00548353,0.00698405,0.00889393,0.0113248,0.0144189,0.018357,0.0233695,0.0297494,inf	0.396101,0.396101,2.13798,205.963,55.5165,27.663,103.863,186.544,241.151,309.514,297.543,217.912,194.956,238.52,282.437,285.444,291.263,323.799,375.578,423.246,457.156,485.818,519.959,541.05,533.383,479.062,337.097,200.496,200.496,277.334,277.334,277.334
0.00106983	-4644750.05	0,4.59157e-06,1.04357e-05,1.78742e-05,2.7342e-05,3.93926e-05,5.47306e-05,7.42529e-05,9.91011e-05,0.000130728,0.000170983,0.000222219,0.000287433,0.000370437,0.000476086,0.000610556,0.00078171,0.000999556,0.00127683,0.00162975,0.00207894,0.00265068,0.00337839,0.00430462,0.00548353,0.00698405,0.00889393,0.0113248,0.0144189,0.018357,0.0233695,0.0297494,inf	0.396101,0.396101,1.77177,208.977,52.4233,26.6382,105.5,187.556,240.57,311.326,298.539,216.368,193.845,239.595,284.551,286.469,291.55,324.281,376.468,423.767,456.515,484.147,518.389,540.727,534.703,480.245,335.159,197.061,197.061,275.949,275.949,275.949
0.00108598	-4644708.72	0,4.59157e-06,1.04357e-05,1.78742e-05,2.7342e-05,3.93926e-05,5.47306e-05,7.42529e-05,9.91011e-05,0.000130728,0.000170983,0.000222219,0.000287433,0.000370437,0.000476086,0.000610556,0.00078171,0.000999556,0.00127683,0.00162975,0.00207894,0.00265068,0.00337839,0.00430462,0.00548353,0.00698405,0.00889393,0.0113248,0.0144189,0.018357,0.0233695,0.0297494,inf	0.396101,0.396101,1.47017,211.633,49.4578,25.7187,107.305,188.567,239.974,313.14,299.503,214.857,192.795,240.674,286.589,287.409,291.793,324.754,377.366,424.312,455.918,482.516,516.803,540.332,535.958,481.44,333.412,193.927,193.927,274.742,274.742,274.742
