time_index	left_time_boundary	right_time_boundary	lambda
0	0	4.59157e-06	0.396101
1	4.59157e-06	1.04357e-05	0.396101
2	1.04357e-05	1.78742e-05	1.47017
3	1.78742e-05	2.7342e-05	211.633
4	2.7342e-05	3.93926e-05	49.4578
5	3.93926e-05	5.47306e-05	25.7187
6	5.47306e-05	7.42529e-05	107.305
7	7.42529e-05	9.91011e-05	188.567
8	9.91011e-05	0.000130728	239.974
9	0.000130728	0.000170983	313.14
10	0.000170983	0.000222219	299.503
11	0.000222219	0.000287433	214.857
12	0.000287433	0.000370437	192.795
13	0.000370437	0.000476086	240.674
14	0.000476086	0.000610556	286.589
15	0.000610556	0.00078171	287.409
16	0.00078171	0.000999556	291.793
17	0.000999556	0.00127683	324.754
18	0.00127683	0.00162975	377.366
19	0.00162975	0.00207894	424.312
20	0.00207894	0.00265068	455.918
21	0.00265068	0.00337839	482.516
22	0.00337839	0.00430462	516.803
23	0.00430462	0.00548353	540.332
24	0.00548353	0.00698405	535.958
25	0.00698405	0.00889393	481.44
26	0.00889393	0.0113248	333.412
27	0.0113248	0.0144189	193.927
28	0.0144189	0.018357	193.927
29	0.018357	0.0233695	274.742
30	0.0233695	0.0297494	274.742
31	0.0297494	inf	274.742
