0.000482792	-264883.43	0,8.15693e-05,0.000193182,0.000345903,0.000554873,0.000840811,0.00123206,0.00176742,0.00249996,0.0035023,0.00487381,0.00675048,0.00931836,0.012832,0.0176398,0.0242184,inf	473.261,473.261,373.99,415.481,421.857,434.209,431.17,410.255,398.984,400.205,401.815,366.652,301.913,246.164,246.164,246.164
0.00043437	-264808.10	0,8.15693e-05,0.000193182,0.000345903,0.000554873,0.000840811,0.00123206,0.00176742,0.00249996,0.0035023,0.00487381,0.00675048,0.00931836,0.012832,0.0176398,0.0242184,inf	524.859,524.859,335.178,408.097,415.932,438.568,436.306,396.198,376.721,380.839,386.253,329.038,244.62,193.207,193.207,193.207
0.000396192	-264787.70	0,8.15693e-05,0.000193182,0.000345903,0.000554873,0.000840811,0.00123206,0.00176742,0.00249996,0.0035023,0.00487381,0.00675048,0.00931836,0.012832,0.0176398,0.0242184,inf	572.83,572.83,308.829,406.905,413.418,444.157,447.521,390.947,365.962,374.777,386.466,310.833,217.689,171.296,171.296,171.296
0.000364559	-264771.66	0,8.15693e-05,0.000193182,0.000345903,0.000554873,0.000840811,0.00123206,0.00176742,0.00249996,0.0035023,0.00487381,0.00675048,0.00931836,0.012832,0.0176398,0.0242184,inf	611.406,611.406,288.939,407.016,410.361,445.771,458.298,387.939,359.288,373.65,393.191,299.668,203.088,160.764,160.764,160.764
0.000338193	-264756.38	0,8.15693e-05,0.000193182,0.000345903,0.000554873,0.000840811,0.00123206,0.00176742,0.00249996,0.0035023,0.00487381,0.00675048,0.00931836,0.012832,0.0176398,0.0242184,inf	642.783,642.783,274.036,408.033,407.352,443.584,467.288,385.367,354.141,374.047,402.149,290.397,194.275,155.263,155.263,155.263
0.000316387	-264743.74	0,8.15693e-05,0.000193182,0.000345903,0.000554873,0.000840811,0.00123206,0.00176742,0.00249996,0.0035023,0.00487381,0.00675048,0.00931836,0.012832,0.0176398,0.0242184,inf	668.741,668.741,263.009,409.768,405.203,438.757,474.612,382.922,349.751,374.714,411.513,281.248,188.593,152.157,152.157,152.157
0.000298537	-264734.53	0,8.15693e-05,0.000193182,0.000345903,0.000554873,0.000840811,0.00123206,0.00176742,0.00249996,0.0035023,0.00487381,0.00675048,0.00931836,0.012832,0.0176398,0.0242184,inf	690.284,690.284,254.906,411.855,404.298,432.316,480.645,380.648,345.922,375.245,420.571,271.933,184.851,150.231,150.231,150.231
0.000284067	-264728.51	0,8.15693e-05,0.000193182,0.000345903,0.000554873,0.000840811,0.00123206,0.00176742,0.00249996,0.0035023,0.00487381,0.00675048,0.00931836,0.012832,0.0176398,0.0242184,inf	708.053,708.053,248.97,413.899,404.685,424.997,485.716,378.612,342.599,375.53,429.06,262.695,182.433,148.913,148.913,148.913
0.000272435	-264725.00	0,8.15693e-05,0.000193182,0.000345903,0.000554873,0.000840811,0.00123206,0.00176742,0.00249996,0.0035023,0.00487381,0.00675048,0.00931836,0.012832,0.0176398,0.0242184,inf	722.565,722.565,244.637,415.587,406.238,417.3,490.069,376.836,339.751,375.556,436.88,253.863,180.951,147.933,147.933,147.933
0.000263149	-264723.26	0,8.15693e-05,0.000193182,0.000345903,0.000554873,0.000840811,0.00123206,0.00176742,0.00249996,0.0035023,0.00487381,0.00675048,0.00931836,0.012832,0.0176398,0.0242184,inf	734.306,734.306,241.503,416.727,408.755,409.559,493.883,375.316,337.34,375.342,443.992,245.695,180.131,147.163,147.163,147.163
0.000255779	-264722.67	0,8.15693e-05,0.000193182,0.000345903,0.000554873,0.000840811,0.00123206,0.00176742,0.00249996,0.0035023,0.00487381,0.00675048,0.00931836,0.012832,0.0176398,0.0242184,inf	743.736,743.736,239.278,417.236,412.019,401.989,497.29,374.025,335.33,374.92,450.387,238.341,179.762,146.542,146.542,146.542
0.000249955	-264722.78	0,8.15693e-05,0.000193182,0.000345903,0.000554873,0.000840811,0.00123206,0.00176742,0.00249996,0.0035023,0.00487381,0.00675048,0.00931836,0.012832,0.0176398,0.0242184,inf	751.245,751.245,237.754,417.112,415.828,394.724,500.388,372.931,333.679,374.328,456.076,231.858,179.689,146.038,146.038,146.038
0.000245371	-264723.26	0,8.15693e-05,0.000193182,0.000345903,0.000554873,0.000840811,0.00123206,0.00176742,0.00249996,0.0035023,0.00487381,0.00675048,0.00931836,0.012832,0.0176398,0.0242184,inf	757.2,757.2,236.777,416.409,420.003,387.84,503.244,371.999,332.347,373.608,461.088,226.233,179.795,145.628,145.628,145.628
0.000241772	-264723.91	0,8.15693e-05,0.000193182,0.000345903,0.000554873,0.000840811,0.00123206,0.00176742,0.00249996,0.0035023,0.00487381,0.00675048,0.00931836,0.012832,0.0176398,0.0242184,inf	761.892,761.892,236.235,415.208,424.394,381.371,505.906,371.197,331.296,372.799,465.469,221.415,180.002,145.298,145.298,145.298
0.000238954	-264724.60	0,8.15693e-05,0.000193182,0.000345903,0.000554873,0.000840811,0.00123206,0.00176742,0.00249996,0.0035023,0.00487381,0.00675048,0.00931836,0.012832,0.0176398,0.0242184,inf	765.565,765.565,236.034,413.6,428.881,375.326,508.405,370.494,330.488,371.938,469.271,217.329,180.254,145.035,145.035,145.035
0.000236759	-264725.26	0,8.15693e-05,0.000193182,0.000345903,0.000554873,0.000840811,0.00123206,0.00176742,0.00249996,0.0035023,0.00487381,0.00675048,0.00931836,0.012832,0.0176398,0.0242184,inf	768.973,768.973,236.236,411.898,433.536,369.796,510.897,369.915,329.899,371.044,472.612,213.899,180.536,144.837,144.837,144.837
0.000235038	-264725.84	0,8.15693e-05,0.000193182,0.000345903,0.000554873,0.000840811,0.00123206,0.00176742,0.00249996,0.0035023,0.00487381,0.00675048,0.00931836,0.012832,0.0176398,0.0242184,inf	771.146,771.146,236.502,409.762,437.954,364.56,513.142,369.337,329.47,370.144,475.451,211.015,180.792,144.674,144.674,144.674
0.000233694	-264726.37	0,8.15693e-05,0.000193182,0.000345903,0.000554873,0.000840811,0.00123206,0.00176742,0.00249996,0.0035023,0.00487381,0.00675048,0.00931836,0.012832,0.0176398,0.0242184,inf	772.76,772.76,236.925,407.431,442.227,359.687,515.245,368.785,329.191,369.268,477.873,208.612,181.023,144.544,144.544,144.544
0.000232645	-264726.81	0,8.15693e-05,0.000193182,0.000345903,0.000554873,0.000840811,0.00123206,0.00176742,0.00249996,0.0035023,0.00487381,0.00675048,0.00931836,0.012832,0.0176398,0.0242184,inf	773.976,773.976,237.489,405.001,446.347,355.169,517.234,368.256,329.039,368.43,479.937,206.62,181.229,144.444,144.444,144.444
0.000231827	-264727.19	0,8.15693e-05,0.000193182,0.000345903,0.000554873,0.000840811,0.00123206,0.00176742,0.00249996,0.0035023,0.00487381,0.00675048,0.00931836,0.012832,0.0176398,0.0242184,inf	774.888,774.888,238.157,402.526,450.297,350.987,519.123,367.739,328.989,367.636,481.695,204.974,181.407,144.367,144.367,144.367
