time_index	left_time_boundary	right_time_boundary	lambda
0	0	1.75575e-06	903.261
1	1.75575e-06	4.06852e-06	903.261
2	4.06852e-06	7.115e-06	382.997
3	7.115e-06	1.1128e-05	443.2
4	1.1128e-05	1.64141e-05	662.187
5	1.64141e-05	2.33772e-05	664.886
6	2.33772e-05	3.25493e-05	562.089
7	3.25493e-05	4.46312e-05	557.223
8	4.46312e-05	6.05462e-05	625.161
9	6.05462e-05	8.15101e-05	729.305
10	8.15101e-05	0.000109125	840.281
11	0.000109125	0.0001455	902.983
12	0.0001455	0.000193416	881.284
13	0.000193416	0.000256533	787.444
14	0.000256533	0.000339673	666.099
15	0.000339673	0.000449189	554.526
16	0.000449189	0.00059345	467.392
17	0.00059345	0.000783477	405.249
18	0.000783477	0.00103379	363.775
19	0.00103379	0.00136351	337.944
20	0.00136351	0.00179784	323.619
21	0.00179784	0.00236996	318.062
22	0.00236996	0.00312358	319.655
23	0.00312358	0.00411629	327.042
24	0.00411629	0.00542394	338.285
25	0.00542394	0.00714643	350.702
26	0.00714643	0.00941538	361.626
27	0.00941538	0.0124041	368.008
28	0.0124041	0.0163411	368.008
29	0.0163411	0.0215271	344.375
30	0.0215271	0.0283582	344.375
31	0.0283582	inf	344.375
