time_index	left_time_boundary	right_time_boundary	lambda
0	0	1.05226e-05	399.968
1	1.05226e-05	2.37238e-05	399.968
2	2.37238e-05	4.02855e-05	399.968
3	4.02855e-05	6.10631e-05	399.968
4	6.10631e-05	8.71298e-05	399.968
5	8.71298e-05	0.000119832	399.968
6	0.000119832	0.000160859	399.968
7	0.000160859	0.000212329	399.968
8	0.000212329	0.000276902	399.968
9	0.000276902	0.000357912	399.968
10	0.000357912	0.000459544	399.968
11	0.000459544	0.000587048	399.968
12	0.000587048	0.000747008	399.968
13	0.000747008	0.000947688	399.968
14	0.000947688	0.00119945	399.968
15	0.00119945	0.00151531	399.968
16	0.00151531	0.00191156	399.968
17	0.00191156	0.00240869	399.968
18	0.00240869	0.00303236	399.968
19	0.00303236	0.0038148	399.968
20	0.0038148	0.00479641	399.968
21	0.00479641	0.0060279	399.968
22	0.0060279	0.00757287	399.968
23	0.00757287	0.00951113	399.968
24	0.00951113	0.0119428	399.968
25	0.0119428	0.0149934	399.968
26	0.0149934	0.0188207	399.968
27	0.0188207	0.0236221	399.968
28	0.0236221	0.0296459	399.968
29	0.0296459	inf	399.968
