time_index	left_time_boundary	right_time_boundary	lambda
0	0	2.85726e-06	396.545
1	2.85726e-06	6.63062e-06	396.545
2	6.63062e-06	1.16138e-05	396.545
3	1.16138e-05	1.81947e-05	396.545
4	1.81947e-05	2.68856e-05	396.545
5	2.68856e-05	3.83629e-05	396.545
6	3.83629e-05	5.35202e-05	396.545
7	5.35202e-05	7.35372e-05	396.545
8	7.35372e-05	9.99721e-05	396.545
9	9.99721e-05	0.000134883	396.545
10	0.000134883	0.000180986	396.545
11	0.000180986	0.000241871	396.545
12	0.000241871	0.000322278	396.545
13	0.000322278	0.000428464	396.545
14	0.000428464	0.000568697	396.545
15	0.000568697	0.00075389	396.545
16	0.00075389	0.000998461	396.545
17	0.000998461	0.00132145	396.545
18	0.00132145	0.00174799	396.545
19	0.00174799	0.00231129	396.545
20	0.00231129	0.00305519	396.545
21	0.00305519	0.00403761	396.545
22	0.00403761	0.00533502	396.545
23	0.00533502	0.0070484	396.545
24	0.0070484	0.00931112	396.545
25	0.00931112	0.0122993	396.545
26	0.0122993	0.0162456	396.545
27	0.0162456	0.0214572	396.545
28	0.0214572	0.0283397	396.545
29	0.0283397	inf	396.545
