0.000674494	-301259.82	0,4.51599e-05,9.85407e-05,0.000161639,0.000236224,0.000324386,0.000428598,0.00055178,0.000697387,0.000869499,0.00107294,0.00131342,0.00159768,0.00193368,0.00233085,0.00280032,0.00335526,0.00401121,0.00478658,0.00570309,0.00678645,0.00806702,0.00958071,0.01137,0.0134849,0.0159849,0.0189399,0.022433,0.0265618,0.0314423,inf	394.988,394.988,394.988,394.988,394.988,394.988,394.988,394.988,394.988,394.988,394.988,394.988,394.988,394.988,394.988,394.988,394.988,394.988,394.988,394.988,394.988,394.988,394.988,394.988,394.988,394.988,394.988,394.988,394.988,394.988
0.000725291	-301201.27	0,4.51599e-05,9.85407e-05,0.000161639,0.000236224,0.000324386,0.000428598,0.00055178,0.000697387,0.000869499,0.00107294,0.00131342,0.00159768,0.00193368,0.00233085,0.00280032,0.00335526,0.00401121,0.00478658,0.00570309,0.00678645,0.00806702,0.00958071,0.01137,0.0134849,0.0159849,0.0189399,0.022433,0.0265618,0.0314423,inf	392.174,392.174,392.174,392.174,392.174,392.174,392.174,392.174,392.174,392.174,392.174,392.174,392.174,392.174,392.174,392.174,392.174,392.174,392.174,392.174,392.174,392.174,392.174,392.174,392.174,392.174,392.174,392.174,392.174,392.174
0.000772334	-301156.51	0,4.51599e-05,9.85407e-05,0.000161639,0.000236224,0.000324386,0.000428598,0.00055178,0.000697387,0.000869499,0.00107294,0.00131342,0.00159768,0.00193368,0.00233085,0.00280032,0.00335526,0.00401121,0.00478658,0.00570309,0.00678645,0.00806702,0.00958071,0.01137,0.0134849,0.0159849,0.0189399,0.022433,0.0265618,0.0314423,inf	391.402,391.402,391.402,391.402,391.402,391.402,391.402,391.402,391.402,391.402,391.402,391.402,391.402,391.402,391.402,391.402,391.402,391.402,391.402,391.402,391.402,391.402,391.402,391.402,391.402,391.402,391.402,391.402,391.402,391.402
0.000815733	-301121.20	0,4.51599e-05,9.85407e-05,0.000161639,0.000236224,0.000324386,0.000428598,0.00055178,0.000697387,0.000869499,0.00107294,0.00131342,0.00159768,0.00193368,0.00233085,0.00280032,0.00335526,0.00401121,0.00478658,0.00570309,0.00678645,0.00806702,0.00958071,0.01137,0.0134849,0.0159849,0.0189399,0.022433,0.0265618,0.0314423,inf	391.399,391.399,391.399,391.399,391.399,391.399,391.399,391.399,391.399,391.399,391.399,391.399,391.399,391.399,391.399,391.399,391.399,391.399,391.399,391.399,391.399,391.399,391.399,391.399,391.399,391.399,391.399,391.399,391.399,391.399
0.000855722	-301092.98	0,4.51599e-05,9.85407e-05,0.000161639,0.000236224,0.000324386,0.000428598,0.00055178,0.000697387,0.000869499,0.00107294,0.00131342,0.00159768,0.00193368,0.00233085,0.00280032,0.00335526,0.00401121,0.00478658,0.00570309,0.00678645,0.00806702,0.00958071,0.01137,0.0134849,0.0159849,0.0189399,0.022433,0.0265618,0.0314423,inf	391.656,391.656,391.656,391.656,391.656,391.656,391.656,391.656,391.656,391.656,391.656,391.656,391.656,391.656,391.656,391.656,391.656,391.656,391.656,391.656,391.656,391.656,391.656,391.656,391.656,391.656,391.656,391.656,391.656,391.656
0.000892574	-301070.22	0,4.51599e-05,9.85407e-05,0.000161639,0.000236224,0.000324386,0.000428598,0.00055178,0.000697387,0.000869499,0.00107294,0.00131342,0.00159768,0.00193368,0.00233085,0.00280032,0.00335526,0.00401121,0.00478658,0.00570309,0.00678645,0.00806702,0.00958071,0.01137,0.0134849,0.0159849,0.0189399,0.022433,0.0265618,0.0314423,inf	391.97,391.97,391.97,391.97,391.97,391.97,391.97,391.97,391.97,391.97,391.97,391.97,391.97,391.97,391.97,391.97,391.97,391.97,391.97,391.97,391.97,391.97,391.97,391.97,391.97,391.97,391.97,391.97,391.97,391.97
0.000926558	-301051.71	0,4.51599e-05,9.85407e-05,0.000161639,0.000236224,0.000324386,0.000428598,0.00055178,0.000697387,0.000869499,0.00107294,0.00131342,0.00159768,0.00193368,0.00233085,0.00280032,0.00335526,0.00401121,0.00478658,0.00570309,0.00678645,0.00806702,0.00958071,0.01137,0.0134849,0.0159849,0.0189399,0.022433,0.0265618,0.0314423,inf	392.265,392.265,392.265,392.265,392.265,392.265,392.265,392.265,392.265,392.265,392.265,392.265,392.265,392.265,392.265,392.265,392.265,392.265,392.265,392.265,392.265,392.265,392.265,392.265,392.265,392.265,392.265,392.265,392.265,392.265
0.000957929	-301036.55	0,4.51599e-05,9.85407e-05,0.000161639,0.000236224,0.000324386,0.000428598,0.00055178,0.000697387,0.000869499,0.00107294,0.00131342,0.00159768,0.00193368,0.00233085,0.00280032,0.00335526,0.00401121,0.00478658,0.00570309,0.00678645,0.00806702,0.00958071,0.01137,0.0134849,0.0159849,0.0189399,0.022433,0.0265618,0.0314423,inf	392.515,392.515,392.515,392.515,392.515,392.515,392.515,392.515,392.515,392.515,392.515,392.515,392.515,392.515,392.515,392.515,392.515,392.515,392.515,392.515,392.515,392.515,392.515,392.515,392.515,392.515,392.515,392.515,392.515,392.515
0.000986919	-301024.04	0,4.51599e-05,9.85407e-05,0.000161639,0.000236224,0.000324386,0.000428598,0.00055178,0.000697387,0.000869499,0.00107294,0.00131342,0.00159768,0.00193368,0.00233085,0.00280032,0.00335526,0.00401121,0.00478658,0.00570309,0.00678645,0.00806702,0.00958071,0.01137,0.0134849,0.0159849,0.0189399,0.022433,0.0265618,0.0314423,inf	392.72,392.72,392.72,392.72,392.72,392.72,392.72,392.72,392.72,392.72,392.72,392.72,392.72,392.72,392.72,392.72,392.72,392.72,392.72,392.72,392.72,392.72,392.72,392.72,392.72,392.72,392.72,392.72,392.72,392.72
0.00101374	-301013.66	0,4.51599e-05,9.85407e-05,0.000161639,0.000236224,0.000324386,0.000428598,0.00055178,0.000697387,0.000869499,0.00107294,0.00131342,0.00159768,0.00193368,0.00233085,0.00280032,0.00335526,0.00401121,0.00478658,0.00570309,0.00678645,0.00806702,0.00958071,0.01137,0.0134849,0.0159849,0.0189399,0.022433,0.0265618,0.0314423,inf	392.882,392.882,392.882,392.882,392.882,392.882,392.882,392.882,392.882,392.882,392.882,392.882,392.882,392.882,392.882,392.882,392.882,392.882,392.882,392.882,392.882,392.882,392.882,392.882,392.882,392.882,392.882,392.882,392.882,392.882
0.00103857	-301005.00	0,4.51599e-05,9.85407e-05,0.000161639,0.000236224,0.000324386,0.000428598,0.00055178,0.000697387,0.000869499,0.00107294,0.00131342,0.00159768,0.00193368,0.00233085,0.00280032,0.00335526,0.00401121,0.00478658,0.00570309,0.00678645,0.00806702,0.00958071,0.01137,0.0134849,0.0159849,0.0189399,0.022433,0.0265618,0.0314423,inf	393.009,393.009,393.009,393.009,393.009,393.009,393.009,393.009,393.009,393.009,393.009,393.009,393.009,393.009,393.009,393.009,393.009,393.009,393.009,393.009,393.009,393.009,393.009,393.009,393.009,393.009,393.009,393.009,393.009,393.009
0.0010616	-300997.73	0,4.51599e-05,9.85407e-05,0.000161639,0.000236224,0.000324386,0.000428598,0.00055178,0.000697387,0.000869499,0.00107294,0.00131342,0.00159768,0.00193368,0.00233085,0.00280032,0.00335526,0.00401121,0.00478658,0.00570309,0.00678645,0.00806702,0.00958071,0.01137,0.0134849,0.0159849,0.0189399,0.022433,0.0265618,0.0314423,inf	393.106,393.106,393.106,393.106,393.106,393.106,393.106,393.106,393.106,393.106,393.106,393.106,393.106,393.106,393.106,393.106,393.106,393.106,393.106,393.106,393.106,393.106,393.106,393.106,393.106,393.106,393.106,393.106,393.106,393.106
0.00108296	-300991.60	0,4.51599e-05,9.85407e-05,0.000161639,0.000236224,0.000324386,0.000428598,0.00055178,0.000697387,0.000869499,0.00107294,0.00131342,0.00159768,0.00193368,0.00233085,0.00280032,0.00335526,0.00401121,0.00478658,0.00570309,0.00678645,0.00806702,0.00958071,0.01137,0.0134849,0.0159849,0.0189399,0.022433,0.0265618,0.0314423,inf	393.179,393.179,393.179,393.179,393.179,393.179,393.179,393.179,393.179,393.179,393.179,393.179,393.179,393.179,393.179,393.179,393.179,393.179,393.179,393.179,393.179,393.179,393.179,393.179,393.179,393.179,393.179,393.179,393.179,393.179
0.00110281	-300986.41	0,4.51599e-05,9.85407e-05,0.000161639,0.000236224,0.000324386,0.000428598,0.00055178,0.000697387,0.000869499,0.00107294,0.00131342,0.00159768,0.00193368,0.00233085,0.00280032,0.00335526,0.00401121,0.00478658,0.00570309,0.00678645,0.00806702,0.00958071,0.01137,0.0134849,0.0159849,0.0189399,0.022433,0.0265618,0.0314423,inf	393.234,393.234,393.234,393.234,393.234,393.234,393.234,393.234,393.234,393.234,393.234,393.234,393.234,393.234,393.234,393.234,393.234,393.234,393.234,393.234,393.234,393.234,393.234,393.234,393.234,393.234,393.234,393.234,393.234,393.234
0.00112125	-300982.00	0,4.51599e-05,9.85407e-05,0.000161639,0.000236224,0.000324386,0.000428598,0.00055178,0.000697387,0.000869499,0.00107294,0.00131342,0.00159768,0.00193368,0.00233085,0.00280032,0.00335526,0.00401121,0.00478658,0.00570309,0.00678645,0.00806702,0.00958071,0.01137,0.0134849,0.0159849,0.0189399,0.022433,0.0265618,0.0314423,inf	393.274,393.274,393.274,393.274,393.274,393.274,393.274,393.274,393.274,393.274,393.274,393.274,393.274,393.274,393.274,393.274,393.274,393.274,393.274,393.274,393.274,393.274,393.274,393.274,393.274,393.274,393.274,393.274,393.274,393.274
0.00113841	-300978.24	0,4.51599e-05,9.85407e-05,0.000161639,0.000236224,0.000324386,0.000428598,0.00055178,0.000697387,0.000869499,0.00107294,0.00131342,0.00159768,0.00193368,0.00233085,0.00280032,0.00335526,0.00401121,0.00478658,0.00570309,0.00678645,0.00806702,0.00958071,0.01137,0.0134849,0.0159849,0.0189399,0.022433,0.0265618,0.0314423,inf	393.301,393.301,393.301,393.301,393.301,393.301,393.301,393.301,393.301,393.301,393.301,393.301,393.301,393.301,393.301,393.301,393.301,393.301,393.301,393.301,393.301,393.301,393.301,393.301,393.301,393.301,393.301,393.301,393.301,393.301
0.00115438	-300975.01	0,4.51599e-05,9.85407e-05,0.000161639,0.000236224,0.000324386,0.000428598,0.00055178,0.000697387,0.000869499,0.00107294,0.00131342,0.00159768,0.00193368,0.00233085,0.00280032,0.00335526,0.00401121,0.00478658,0.00570309,0.00678645,0.00806702,0.00958071,0.01137,0.0134849,0.0159849,0.0189399,0.022433,0.0265618,0.0314423,inf	393.319,393.319,393.319,393.319,393.319,393.319,393.319,393.319,393.319,393.319,393.319,393.319,393.319,393.319,393.319,393.319,393.319,393.319,393.319,393.319,393.319,393.319,393.319,393.319,393.319,393.319,393.319,393.319,393.319,393.319
0.00116925	-300972.25	0,4.51599e-05,9.85407e-05,0.000161639,0.000236224,0.000324386,0.000428598,0.00055178,0.000697387,0.000869499,0.00107294,0.00131342,0.00159768,0.00193368,0.00233085,0.00280032,0.00335526,0.00401121,0.00478658,0.00570309,0.00678645,0.00806702,0.00958071,0.01137,0.0134849,0.0159849,0.0189399,0.022433,0.0265618,0.0314423,inf	393.329,393.329,393.329,393.329,393.329,393.329,393.329,393.329,393.329,393.329,393.329,393.329,393.329,393.329,393.329,393.329,393.329,393.329,393.329,393.329,393.329,393.329,393.329,393.329,393.329,393.329,393.329,393.329,393.329,393.329
0.00118312	-300969.87	0,4.51599e-05,9.85407e-05,0.000161639,0.000236224,0.000324386,0.000428598,0.00055178,0.000697387,0.000869499,0.00107294,0.00131342,0.00159768,0.00193368,0.00233085,0.00280032,0.00335526,0.00401121,0.00478658,0.00570309,0.00678645,0.00806702,0.00958071,0.01137,0.0134849,0.0159849,0.0189399,0.022433,0.0265618,0.0314423,inf	393.334,393.334,393.334,393.334,393.334,393.334,393.334,393.334,393.334,393.334,393.334,393.334,393.334,393.334,393.334,393.334,393.334,393.334,393.334,393.334,393.334,393.334,393.334,393.334,393.334,393.334,393.334,393.334,393.334,393.334
0.00119605	-300967.81	0,4.51599e-05,9.85407e-05,0.000161639,0.000236224,0.000324386,0.000428598,0.00055178,0.000697387,0.000869499,0.00107294,0.00131342,0.00159768,0.00193368,0.00233085,0.00280032,0.00335526,0.00401121,0.00478658,0.00570309,0.00678645,0.00806702,0.00958071,0.01137,0.0134849,0.0159849,0.0189399,0.022433,0.0265618,0.0314423,inf	393.335,393.335,393.335,393.335,393.335,393.335,393.335,393.335,393.335,393.335,393.335,393.335,393.335,393.335,393.335,393.335,393.335,393.335,393.335,393.335,393.335,393.335,393.335,393.335,393.335,393.335,393.335,393.335,393.335,393.335
