0.000610989	-12807663.99	0,1.6381e-06,3.79588e-06,6.63822e-06,1.03823e-05,1.53141e-05,2.18106e-05,3.03681e-05,4.16405e-05,5.64889e-05,7.60481e-05,0.000101812,0.00013575,0.000180455,0.000239342,0.000316911,0.000419089,0.000553682,0.000730975,0.000964514,0.00127214,0.00167737,0.00221115,0.00291427,0.00384046,0.00506047,0.00666754,0.00878444,0.0115729,0.0152461,0.0200845,0.0264579,inf	8533.2,8533.2,8218.73,4320.8,1638.43,647.725,376.714,264.116,231.393,254.997,274.18,278.692,285.263,291.204,295.341,302.478,314.291,328.514,345.659,365.382,387.24,411.668,437.426,461.126,473.866,472.89,465.984,460.691,460.691,430.814,430.814,430.814
0.000643393	-12804432.06	0,1.6381e-06,3.79588e-06,6.63822e-06,1.03823e-05,1.53141e-05,2.18106e-05,3.03681e-05,4.16405e-05,5.64889e-05,7.60481e-05,0.000101812,0.00013575,0.000180455,0.000239342,0.000316911,0.000419089,0.000553682,0.000730975,0.000964514,0.00127214,0.00167737,0.00221115,0.00291427,0.00384046,0.00506047,0.00666754,0.00878444,0.0115729,0.0152461,0.0200845,0.0264579,inf	13041,13041,14784.4,5835.83,1520.85,485.291,277.387,178.707,164.104,214.809,247.876,249.669,255.827,261.024,262.166,268.051,281.648,298.334,319.26,343.811,371.523,404.003,441.064,479.733,504.254,505.018,493.733,485.291,485.291,418.473,418.473,418.473
0.000674082	-12803284.28	0,1.6381e-06,3.79588e-06,6.63822e-06,1.03823e-05,1.53141e-05,2.18106e-05,3.03681e-05,4.16405e-05,5.64889e-05,7.60481e-05,0.000101812,0.00013575,0.000180455,0.000239342,0.000316911,0.000419089,0.000553682,0.000730975,0.000964514,0.00127214,0.00167737,0.00221115,0.00291427,0.00384046,0.00506047,0.00666754,0.00878444,0.0115729,0.0152461,0.0200845,0.0264579,inf	13286.7,13286.7,18075.4,5936.25,1239.77,369.499,227.327,136.386,132.053,204.573,249.467,246.391,251.656,255.871,253.608,257.494,271.399,288.188,309.721,335.082,363.854,398.748,441.051,489.828,524.921,528.879,514.98,504.944,504.944,395.525,395.525,395.525
0.000702772	-12802610.68	0,1.6381e-06,3.79588e-06,6.63822e-06,1.03823e-05,1.53141e-05,2.18106e-05,3.03681e-05,4.16405e-05,5.64889e-05,7.60481e-05,0.000101812,0.00013575,0.000180455,0.000239342,0.000316911,0.000419089,0.000553682,0.000730975,0.000964514,0.00127214,0.00167737,0.00221115,0.00291427,0.00384046,0.00506047,0.00666754,0.00878444,0.0115729,0.0152461,0.0200845,0.0264579,inf	12369.4,12369.4,19948.8,5671.22,1010.86,298.325,203.182,111.369,111.965,202.303,257.2,248.305,253.224,257.136,252.139,254.553,268.851,285.337,306.636,331.477,359.523,394.414,438.883,494.617,538.932,546.695,531.34,520.743,520.743,364.623,364.623,364.623
0.000729681	-12802112.83	0,1.6381e-06,3.79588e-06,6.63822e-06,1.03823e-05,1.53141e-05,2.18106e-05,3.03681e-05,4.16405e-05,5.64889e-05,7.60481e-05,0.000101812,0.00013575,0.000180455,0.000239342,0.000316911,0.000419089,0.000553682,0.000730975,0.000964514,0.00127214,0.00167737,0.00221115,0.00291427,0.00384046,0.00506047,0.00666754,0.00878444,0.0115729,0.0152461,0.0200845,0.0264579,inf	11310.1,11310.1,21209.1,5320.94,838.309,252.932,192.489,94.4777,97.3502,202.294,265.262,250.105,255.29,259.536,252.54,254.139,269.178,285.461,306.39,330.303,356.937,390.706,435.65,496.187,548.424,560.137,544.086,533.614,533.614,327.872,327.872,327.872
0.000755064	-12801701.62	0,1.6381e-06,3.79588e-06,6.63822e-06,1.03823e-05,1.53141e-05,2.18106e-05,3.03681e-05,4.16405e-05,5.64889e-05,7.60481e-05,0.000101812,0.00013575,0.000180455,0.000239342,0.000316911,0.000419089,0.000553682,0.000730975,0.000964514,0.00127214,0.00167737,0.00221115,0.00291427,0.00384046,0.00506047,0.00666754,0.00878444,0.0115729,0.0152461,0.0200845,0.0264579,inf	10358.2,10358.2,22139.2,4957.41,706.756,222.427,189.4,82.0013,85.9801,203.118,272.333,250.735,256.639,261.627,253.181,254.481,270.562,286.841,307.49,330.416,355.42,387.549,431.994,495.821,554.823,570.394,554.168,544.309,544.309,286.404,286.404,286.404
0.000779133	-12801341.61	0,1.6381e-06,3.79588e-06,6.63822e-06,1.03823e-05,1.53141e-05,2.18106e-05,3.03681e-05,4.16405e-05,5.64889e-05,7.60481e-05,0.000101812,0.00013575,0.000180455,0.000239342,0.000316911,0.000419089,0.000553682,0.000730975,0.000964514,0.00127214,0.00167737,0.00221115,0.00291427,0.00384046,0.00506047,0.00666754,0.00878444,0.0115729,0.0152461,0.0200845,0.0264579,inf	9557.03,9557.03,22854.6,4602.62,604.113,200.922,190.815,72.167,76.8527,204.485,278.383,250.313,257.24,263.16,253.609,254.952,272.268,288.72,309.234,331.253,354.617,384.887,428.264,494.3,559.077,578.313,562.296,553.468,553.468,239.937,239.937,239.937
0.000802048	-12801015.00	0,1.6381e-06,3.79588e-06,6.63822e-06,1.03823e-05,1.53141e-05,2.18106e-05,3.03681e-05,4.16405e-05,5.64889e-05,7.60481e-05,0.000101812,0.00013575,0.000180455,0.000239342,0.000316911,0.000419089,0.000553682,0.000730975,0.000964514,0.00127214,0.00167737,0.00221115,0.00291427,0.00384046,0.00506047,0.00666754,0.00878444,0.0115729,0.0152461,0.0200845,0.0264579,inf	8897.5,8897.5,23415.3,4265.1,522.271,185.082,194.879,64.0426,69.3862,206.36,283.645,249.174,257.331,264.233,253.763,255.349,273.991,290.744,311.267,332.509,354.317,382.662,424.641,492.102,561.824,584.506,569.024,561.755,561.755,185.565,185.565,185.565
0.00082391	-12800709.27	0,1.6381e-06,3.79588e-06,6.63822e-06,1.03823e-05,1.53141e-05,2.18106e-05,3.03681e-05,4.16405e-05,5.64889e-05,7.60481e-05,0.000101812,0.00013575,0.000180455,0.000239342,0.000316911,0.000419089,0.000553682,0.000730975,0.000964514,0.00127214,0.00167737,0.00221115,0.00291427,0.00384046,0.00506047,0.00666754,0.00878444,0.0115729,0.0152461,0.0200845,0.0264579,inf	8358.74,8358.74,23857.2,3947.59,455.701,172.936,200.388,57.0952,63.1852,208.719,288.316,247.613,257.154,265.008,253.695,255.625,275.609,292.741,313.396,334,354.376,380.815,421.21,489.526,563.511,589.447,574.857,570.242,570.242,111.173,111.173,111.173
0.000844827	-12800410.65	0,1.6381e-06,3.79588e-06,6.63822e-06,1.03823e-05,1.53141e-05,2.18106e-05,3.03681e-05,4.16405e-05,5.64889e-05,7.60481e-05,0.000101812,0.00013575,0.000180455,0.000239342,0.000316911,0.000419089,0.000553682,0.000730975,0.000964514,0.00127214,0.00167737,0.00221115,0.00291427,0.00384046,0.00506047,0.00666754,0.00878444,0.0115729,0.0152461,0.0200845,0.0264579,inf	7920.18,7920.18,24208.9,3651.5,400.785,163.29,206.52,51.023,57.9715,211.517,292.521,245.839,256.913,265.646,253.497,255.805,277.096,294.644,315.526,335.626,354.71,379.307,418.027,486.79,564.515,593.649,580.628,582.801,582.801,29.0105,29.0105,29.0105
0.000864732	-12800360.97	0,1.6381e-06,3.79588e-06,6.63822e-06,1.03823e-05,1.53141e-05,2.18106e-05,3.03681e-05,4.16405e-05,5.64889e-05,7.60481e-05,0.000101812,0.00013575,0.000180455,0.000239342,0.000316911,0.000419089,0.000553682,0.000730975,0.000964514,0.00127214,0.00167737,0.00221115,0.00291427,0.00384046,0.00506047,0.00666754,0.00878444,0.0115729,0.0152461,0.0200845,0.0264579,inf	7564.1,7564.1,24488.9,3376.99,354.905,155.408,212.719,45.6405,53.5293,214.678,296.315,243.971,256.734,266.248,253.226,255.913,278.443,296.41,317.579,337.286,355.201,378.031,415.037,483.948,565.04,597.598,587.895,620.693,620.693,19.3467,19.3467,19.3467
0.000883502	-12800320.35	0,1.6381e-06,3.79588e-06,6.63822e-06,1.03823e-05,1.53141e-05,2.18106e-05,3.03681e-05,4.16405e-05,5.64889e-05,7.60481e-05,0.000101812,0.00013575,0.000180455,0.000239342,0.000316911,0.000419089,0.000553682,0.000730975,0.000964514,0.00127214,0.00167737,0.00221115,0.00291427,0.00384046,0.00506047,0.00666754,0.00878444,0.0115729,0.0152461,0.0200845,0.0264579,inf	7271.83,7271.83,24701.3,3122.15,316.088,148.757,218.551,40.8171,49.6933,218.126,299.742,241.972,256.423,266.653,252.803,255.878,279.573,297.949,319.455,338.871,355.736,376.865,412.098,480.805,564.653,600.219,593.973,669.665,669.665,34.2799,34.2799,34.2799
0.000901666	-12800022.49	0,1.6381e-06,3.79588e-06,6.63822e-06,1.03823e-05,1.53141e-05,2.18106e-05,3.03681e-05,4.16405e-05,5.64889e-05,7.60481e-05,0.000101812,0.00013575,0.000180455,0.000239342,0.000316911,0.000419089,0.000553682,0.000730975,0.000964514,0.00127214,0.00167737,0.00221115,0.00291427,0.00384046,0.00506047,0.00666754,0.00878444,0.0115729,0.0152461,0.0200845,0.0264579,inf	7034.81,7034.81,24873.1,2888.5,283.185,143.152,223.911,36.5003,46.3584,221.848,302.899,240.046,256.297,267.178,252.444,255.857,280.621,299.385,321.272,340.496,356.432,375.936,409.366,477.563,563.504,601.209,596.91,689.706,689.706,11.8073,11.8073,11.8073
0.00091884	-12800143.09	0,1.6381e-06,3.79588e-06,6.63822e-06,1.03823e-05,1.53141e-05,2.18106e-05,3.03681e-05,4.16405e-05,5.64889e-05,7.60481e-05,0.000101812,0.00013575,0.000180455,0.000239342,0.000316911,0.000419089,0.000553682,0.000730975,0.000964514,0.00127214,0.00167737,0.00221115,0.00291427,0.00384046,0.00506047,0.00666754,0.00878444,0.0115729,0.0152461,0.0200845,0.0264579,inf	6839.52,6839.52,24995.4,2672.37,254.926,138.29,228.555,32.6158,43.4257,225.758,305.735,238.053,256.074,267.545,251.971,255.726,281.482,300.61,322.914,342.046,357.186,375.18,406.853,474.413,562.173,602.061,600.89,750.561,750.561,84.1834,84.1834,84.1834
0.000935606	-12799766.97	0,1.6381e-06,3.79588e-06,6.63822e-06,1.03823e-05,1.53141e-05,2.18106e-05,3.03681e-05,4.16405e-05,5.64889e-05,7.60481e-05,0.000101812,0.00013575,0.000180455,0.000239342,0.000316911,0.000419089,0.000553682,0.000730975,0.000964514,0.00127214,0.00167737,0.00221115,0.00291427,0.00384046,0.00506047,0.00666754,0.00878444,0.0115729,0.0152461,0.0200845,0.0264579,inf	6682.25,6682.25,25095,2474.85,230.684,134.15,232.583,29.1373,40.8371,229.853,308.361,236.233,256.154,268.159,251.659,255.678,282.318,301.768,324.504,343.623,358.076,374.642,404.565,471.284,560.31,601.481,601.582,754.111,754.111,9.48687,9.48687,9.48687
0.000951584	-12799906.56	0,1.6381e-06,3.79588e-06,6.63822e-06,1.03823e-05,1.53141e-05,2.18106e-05,3.03681e-05,4.16405e-05,5.64889e-05,7.60481e-05,0.000101812,0.00013575,0.000180455,0.000239342,0.000316911,0.000419089,0.000553682,0.000730975,0.000964514,0.00127214,0.00167737,0.00221115,0.00291427,0.00384046,0.00506047,0.00666754,0.00878444,0.0115729,0.0152461,0.0200845,0.0264579,inf	6552.56,6552.56,25155,2292.39,209.628,130.529,235.809,26.0117,38.5246,234.002,310.616,234.36,256.191,268.677,251.272,255.551,282.991,302.723,325.906,345.089,358.976,374.236,402.498,468.355,558.529,601.122,603.657,811.391,811.391,82.6259,82.6259,82.6259
0.000967196	-12799566.58	0,1.6381e-06,3.79588e-06,6.63822e-06,1.03823e-05,1.53141e-05,2.18106e-05,3.03681e-05,4.16405e-05,5.64889e-05,7.60481e-05,0.000101812,0.00013575,0.000180455,0.000239342,0.000316911,0.000419089,0.000553682,0.000730975,0.000964514,0.00127214,0.00167737,0.00221115,0.00291427,0.00384046,0.00506047,0.00666754,0.00878444,0.0115729,0.0152461,0.0200845,0.0264579,inf	6450.61,6450.61,25202.4,2125.66,191.389,127.47,238.44,23.224,36.4631,238.294,312.689,232.666,256.518,269.442,251.061,255.533,283.676,303.639,327.263,346.565,359.976,374.013,400.651,465.543,556.512,599.956,603.843,814.009,814.009,7.40045,7.40045,7.40045
0.000982119	-12799694.50	0,1.6381e-06,3.79588e-06,6.63822e-06,1.03823e-05,1.53141e-05,2.18106e-05,3.03681e-05,4.16405e-05,5.64889e-05,7.60481e-05,0.000101812,0.00013575,0.000180455,0.000239342,0.000316911,0.000419089,0.000553682,0.000730975,0.000964514,0.00127214,0.00167737,0.00221115,0.00291427,0.00384046,0.00506047,0.00666754,0.00878444,0.0115729,0.0152461,0.0200845,0.0264579,inf	6366.37,6366.37,25214.6,1971.07,175.375,124.805,240.321,20.7247,34.599,242.552,314.36,230.902,256.783,270.104,250.775,255.436,284.203,304.35,328.412,347.888,360.924,373.846,398.948,462.881,554.549,598.892,604.874,869.578,869.578,77.9506,77.9506,77.9506
0.000996705	-12799391.10	0,1.6381e-06,3.79588e-06,6.63822e-06,1.03823e-05,1.53141e-05,2.18106e-05,3.03681e-05,4.16405e-05,5.64889e-05,7.60481e-05,0.000101812,0.00013575,0.000180455,0.000239342,0.000316911,0.000419089,0.000553682,0.000730975,0.000964514,0.00127214,0.00167737,0.00221115,0.00291427,0.00384046,0.00506047,0.00666754,0.00878444,0.0115729,0.0152461,0.0200845,0.0264579,inf	6303.2,6303.2,25224,1829.93,161.405,122.611,241.742,18.5013,32.9263,246.934,315.892,229.312,257.31,270.996,250.669,255.473,284.782,305.059,329.541,349.223,361.953,373.834,397.445,460.369,552.507,597.392,604.884,872.878,872.878,5.88847,5.88847,5.88847
0.00101067	-12799503.29	0,1.6381e-06,3.79588e-06,6.63822e-06,1.03823e-05,1.53141e-05,2.18106e-05,3.03681e-05,4.16405e-05,5.64889e-05,7.60481e-05,0.000101812,0.00013575,0.000180455,0.000239342,0.000316911,0.000419089,0.000553682,0.000730975,0.000964514,0.00127214,0.00167737,0.00221115,0.00291427,0.00384046,0.00506047,0.00666754,0.00878444,0.0115729,0.0152461,0.0200845,0.0264579,inf	6251.65,6251.65,25201.2,1698.85,148.997,120.734,242.5,16.5131,31.3987,251.242,317.034,227.652,257.766,271.786,250.492,255.438,285.219,305.584,330.47,350.394,362.9,373.834,396.036,457.965,550.493,595.914,605.397,927.98,927.98,73.766,73.766,73.766
