time_index	left_time_boundary	right_time_boundary	lambda
0	0	9.44801e-05	137.319
1	9.44801e-05	0.000223759	137.319
2	0.000223759	0.000400652	194.922
3	0.000400652	0.000642699	246.324
4	0.000642699	0.000973894	281.082
5	0.000973894	0.00142707	283.257
6	0.00142707	0.00204717	327.134
7	0.00204717	0.00289565	444.605
8	0.00289565	0.00405664	511.766
9	0.00405664	0.00564524	499.346
10	0.00564524	0.00781895	390.105
11	0.00781895	0.0107933	465.126
12	0.0107933	0.0148631	629.233
13	0.0148631	0.0204318	54797.3
14	0.0204318	0.0280517	54797.3
15	0.0280517	inf	54797.3
