0.000260857	-7478982.93	0,2.03297e-06,5.56047e-06,1.16812e-05,2.23015e-05,4.07293e-05,7.27042e-05,0.000128185,0.000224453,0.000391491,0.000681326,0.00118423,0.00205685,0.00357096,0.00619816,0.0107567,inf	75.5537,75.5537,613.308,675.025,720.76,595.049,651.268,762.856,859.929,867.125,800.896,756.176,743.348,547.822,547.822,547.822
0.000223291	-7476835.62	0,2.03297e-06,5.56047e-06,1.16812e-05,2.23015e-05,4.07293e-05,7.27042e-05,0.000128185,0.000224453,0.000391491,0.000681326,0.00118423,0.00205685,0.00357096,0.00619816,0.0107567,inf	8.15943,8.15943,575.232,695.417,802.623,535.288,581.412,726.728,895.206,917.372,803.284,738.581,736.084,448.045,448.045,448.045
0.000193165	-7475606.79	0,2.03297e-06,5.56047e-06,1.16812e-05,2.23015e-05,4.07293e-05,7.27042e-05,0.000128185,0.000224453,0.000391491,0.000681326,0.00118423,0.00205685,0.00357096,0.00619816,0.0107567,inf	0.872282,0.872282,539.453,725.906,930.26,526.241,549.742,695.115,912.837,949.674,800.55,728.031,747.136,398.875,398.875,398.875
0.000168908	-7474551.17	0,2.03297e-06,5.56047e-06,1.16812e-05,2.23015e-05,4.07293e-05,7.27042e-05,0.000128185,0.000224453,0.000391491,0.000681326,0.00118423,0.00205685,0.00357096,0.00619816,0.0107567,inf	0.8036,0.8036,494.041,740.374,1063.9,537.244,538.284,669.746,921.1,969.255,793.184,717.782,760.33,370.691,370.691,370.691
0.000149769	-7473713.16	0,2.03297e-06,5.56047e-06,1.16812e-05,2.23015e-05,4.07293e-05,7.27042e-05,0.000128185,0.000224453,0.000391491,0.000681326,0.00118423,0.00205685,0.00357096,0.00619816,0.0107567,inf	0.8036,0.8036,447.47,741.541,1188.11,556.732,538.487,651.016,925.718,981.701,783.774,707.565,769.596,352.455,352.455,352.455
0.000135027	-7473135.45	0,2.03297e-06,5.56047e-06,1.16812e-05,2.23015e-05,4.07293e-05,7.27042e-05,0.000128185,0.000224453,0.000391491,0.000681326,0.00118423,0.00205685,0.00357096,0.00619816,0.0107567,inf	0.8036,0.8036,404.167,734.267,1292.53,577.594,544.122,637.098,928.532,989.998,773.875,698.6,773.73,339.554,339.554,339.554
0.000123925	-7472790.27	0,2.03297e-06,5.56047e-06,1.16812e-05,2.23015e-05,4.07293e-05,7.27042e-05,0.000128185,0.000224453,0.000391491,0.000681326,0.00118423,0.00205685,0.00357096,0.00619816,0.0107567,inf	0.8036,0.8036,366.952,725.143,1375.97,597.103,552.196,626.987,930.621,996.061,764.392,691.689,773.786,330.078,330.078,330.078
0.000115716	-7472614.05	0,2.03297e-06,5.56047e-06,1.16812e-05,2.23015e-05,4.07293e-05,7.27042e-05,0.000128185,0.000224453,0.000391491,0.000681326,0.00118423,0.00205685,0.00357096,0.00619816,0.0107567,inf	0.8036,0.8036,335.975,717.609,1439.7,613.864,560.799,619.651,932.255,1000.84,755.737,686.956,771.309,323.081,323.081,323.081
0.000109734	-7472543.59	0,2.03297e-06,5.56047e-06,1.16812e-05,2.23015e-05,4.07293e-05,7.27042e-05,0.000128185,0.000224453,0.000391491,0.000681326,0.00118423,0.00205685,0.00357096,0.00619816,0.0107567,inf	0.8036,0.8036,310.239,712.906,1486.51,627.411,568.867,614.283,933.482,1004.83,748.106,684.091,767.646,317.966,317.966,317.966
0.000105422	-7472530.78	0,2.03297e-06,5.56047e-06,1.16812e-05,2.23015e-05,4.07293e-05,7.27042e-05,0.000128185,0.000224453,0.000391491,0.000681326,0.00118423,0.00205685,0.00357096,0.00619816,0.0107567,inf	0.8036,0.8036,288.804,711.063,1519.84,637.894,575.91,610.296,934.312,1008.26,741.575,682.618,763.727,314.279,314.279,314.279
0.000102337	-7472544.63	0,2.03297e-06,5.56047e-06,1.16812e-05,2.23015e-05,4.07293e-05,7.27042e-05,0.000128185,0.000224453,0.000391491,0.000681326,0.00118423,0.00205685,0.00357096,0.00619816,0.0107567,inf	0.8036,0.8036,270.64,711.725,1542.98,645.754,581.809,607.312,934.788,1011.26,736.132,682.068,760.086,311.655,311.655,311.655
0.000100144	-7472567.65	0,2.03297e-06,5.56047e-06,1.16812e-05,2.23015e-05,4.07293e-05,7.27042e-05,0.000128185,0.000224453,0.000391491,0.000681326,0.00118423,0.00205685,0.00357096,0.00619816,0.0107567,inf	0.8036,0.8036,254.928,714.192,1558.64,651.485,586.607,605.06,934.97,1013.87,731.697,682.068,756.965,309.805,309.805,309.805
9.8591e-05	-7472591.21	0,2.03297e-06,5.56047e-06,1.16812e-05,2.23015e-05,4.07293e-05,7.27042e-05,0.000128185,0.000224453,0.000391491,0.000681326,0.00118423,0.00205685,0.00357096,0.00619816,0.0107567,inf	0.8036,0.8036,241.175,717.765,1569.03,655.566,590.448,603.367,934.937,1016.12,728.151,682.354,754.424,308.508,308.508,308.508
9.74988e-05	-7472611.75	0,2.03297e-06,5.56047e-06,1.16812e-05,2.23015e-05,4.07293e-05,7.27042e-05,0.000128185,0.000224453,0.000391491,0.000681326,0.00118423,0.00205685,0.00357096,0.00619816,0.0107567,inf	0.8036,0.8036,229.184,722.466,1576.67,658.764,593.786,602.376,935.126,1018.25,725.364,682.759,752.578,307.665,307.665,307.665
9.67267e-05	-7472627.17	0,2.03297e-06,5.56047e-06,1.16812e-05,2.23015e-05,4.07293e-05,7.27042e-05,0.000128185,0.000224453,0.000391491,0.000681326,0.00118423,0.00205685,0.00357096,0.00619816,0.0107567,inf	0.8036,0.8036,218.186,727.01,1580.73,660.639,596.131,601.402,934.833,1019.82,723.174,683.159,751.056,307.027,307.027,307.027
9.61824e-05	-7472640.02	0,2.03297e-06,5.56047e-06,1.16812e-05,2.23015e-05,4.07293e-05,7.27042e-05,0.000128185,0.000224453,0.000391491,0.000681326,0.00118423,0.00205685,0.00357096,0.00619816,0.0107567,inf	0.8036,0.8036,208.412,731.7,1583.07,661.851,597.916,600.643,934.443,1021.08,721.503,683.54,749.879,306.574,306.574,306.574
9.57991e-05	-7472649.80	0,2.03297e-06,5.56047e-06,1.16812e-05,2.23015e-05,4.07293e-05,7.27042e-05,0.000128185,0.000224453,0.000391491,0.000681326,0.00118423,0.00205685,0.00357096,0.00619816,0.0107567,inf	0.8036,0.8036,199.527,736.344,1584.35,662.638,599.311,600.08,934.046,1022.1,720.237,683.876,748.994,306.258,306.258,306.258
9.55518e-05	-7472657.01	0,2.03297e-06,5.56047e-06,1.16812e-05,2.23015e-05,4.07293e-05,7.27042e-05,0.000128185,0.000224453,0.000391491,0.000681326,0.00118423,0.00205685,0.00357096,0.00619816,0.0107567,inf	0.8036,0.8036,191.453,741.06,1585.54,663.372,600.651,599.934,934.269,1023.9,719.89,684.648,748.853,306.205,306.205,306.205
9.53663e-05	-7472658.05	0,2.03297e-06,5.56047e-06,1.16812e-05,2.23015e-05,4.07293e-05,7.27042e-05,0.000128185,0.000224453,0.000391491,0.000681326,0.00118423,0.00205685,0.00357096,0.00619816,0.0107567,inf	0.8036,0.8036,184.078,745.348,1585.59,663.606,601.487,599.62,933.848,1024.45,719.082,684.8,748.366,306.03,306.03,306.03
9.52318e-05	-7472662.26	0,2.03297e-06,5.56047e-06,1.16812e-05,2.23015e-05,4.07293e-05,7.27042e-05,0.000128185,0.000224453,0.000391491,0.000681326,0.00118423,0.00205685,0.00357096,0.00619816,0.0107567,inf	0.8036,0.8036,177.311,749.332,1585.33,663.693,602.095,599.369,933.415,1024.77,718.408,684.858,747.924,305.887,305.887,305.887
