time_index	left_time_boundary	right_time_boundary	lambda
0	0	4.0461e-07	115.926
1	4.0461e-07	1.10667e-06	115.926
2	1.10667e-06	2.32483e-06	3507.18
3	2.32483e-06	4.43853e-06	1040.48
4	4.43853e-06	8.1061e-06	1284.56
5	8.1061e-06	1.44699e-05	2313.8
6	1.44699e-05	2.55119e-05	2390.66
7	2.55119e-05	4.46714e-05	2504.89
8	4.46714e-05	7.7916e-05	2940.71
9	7.7916e-05	0.0001356	3203.79
10	0.0001356	0.00023569	4915.55
11	0.00023569	0.000409361	5686.78
12	0.000409361	0.000710705	4977.67
13	0.000710705	0.00123358	2256.05
14	0.00123358	0.00214084	2256.05
15	0.00214084	inf	2256.05
