6.35328e-05	-1845840.98	0,3.96229e-07,1.08374e-06,2.27668e-06,4.34659e-06,7.93819e-06,1.41701e-05,2.49835e-05,4.37461e-05,7.63021e-05,0.000132791,0.000230808,0.000400882,0.000695984,0.00120803,0.0020965,inf	1402.14,1402.14,2688.84,3627.88,3621.35,3288.95,3365.79,3509.58,3651.05,3895.07,4147.62,3934.25,3346.41,1947.34,1947.34,1947.34
6.73903e-05	-1846419.23	0,3.96229e-07,1.08374e-06,2.27668e-06,4.34659e-06,7.93819e-06,1.41701e-05,2.49835e-05,4.37461e-05,7.63021e-05,0.000132791,0.000230808,0.000400882,0.000695984,0.00120803,0.0020965,inf	580.071,580.071,2125.97,3834.14,3783.5,3097.18,3188.57,3371.71,3532.49,3882.69,4328.24,4024.05,3186.27,1452.26,1452.26,1452.26
7.07681e-05	-1846803.54	0,3.96229e-07,1.08374e-06,2.27668e-06,4.34659e-06,7.93819e-06,1.41701e-05,2.49835e-05,4.37461e-05,7.63021e-05,0.000132791,0.000230808,0.000400882,0.000695984,0.00120803,0.0020965,inf	243.464,243.464,1699.13,4080.56,4007.16,3013.94,3136.45,3341.32,3483.3,3871.52,4451.94,4140.55,3204.85,1223.96,1223.96,1223.96
7.35264e-05	-1847008.39	0,3.96229e-07,1.08374e-06,2.27668e-06,4.34659e-06,7.93819e-06,1.41701e-05,2.49835e-05,4.37461e-05,7.63021e-05,0.000132791,0.000230808,0.000400882,0.000695984,0.00120803,0.0020965,inf	100.946,100.946,1337.78,4263.63,4192.77,2948.92,3122.72,3349.99,3462,3853.26,4513.51,4229.86,3279.8,1081.46,1081.46,1081.46
7.57109e-05	-1847148.50	0,3.96229e-07,1.08374e-06,2.27668e-06,4.34659e-06,7.93819e-06,1.41701e-05,2.49835e-05,4.37461e-05,7.63021e-05,0.000132791,0.000230808,0.000400882,0.000695984,0.00120803,0.0020965,inf	41.4723,41.4723,1039.74,4383.4,4331.96,2883.59,3121.36,3375.4,3457.43,3836.48,4536.95,4289.18,3370.16,974.885,974.885,974.885
7.73757e-05	-1847275.11	0,3.96229e-07,1.08374e-06,2.27668e-06,4.34659e-06,7.93819e-06,1.41701e-05,2.49835e-05,4.37461e-05,7.63021e-05,0.000132791,0.000230808,0.000400882,0.000695984,0.00120803,0.0020965,inf	16.8915,16.8915,802.022,4458.96,4435.82,2815.54,3122.31,3406.41,3462.57,3824.71,4540.36,4326.13,3461.55,884.755,884.755,884.755
7.8551e-05	-1847412.36	0,3.96229e-07,1.08374e-06,2.27668e-06,4.34659e-06,7.93819e-06,1.41701e-05,2.49835e-05,4.37461e-05,7.63021e-05,0.000132791,0.000230808,0.000400882,0.000695984,0.00120803,0.0020965,inf	6.8662,6.8662,616.584,4508.47,4517.48,2746.48,3121.71,3437.15,3472.33,3817.85,4533.93,4348.32,3549.29,801.241,801.241,801.241
7.92368e-05	-1847576.16	0,3.96229e-07,1.08374e-06,2.27668e-06,4.34659e-06,7.93819e-06,1.41701e-05,2.49835e-05,4.37461e-05,7.63021e-05,0.000132791,0.000230808,0.000400882,0.000695984,0.00120803,0.0020965,inf	4.12326,4.12326,473.438,4543.99,4587.59,2678.68,3118.68,3464.58,3483.31,3814.56,4522.78,4361.54,3632.57,717.941,717.941,717.941
7.93969e-05	-1847783.19	0,3.96229e-07,1.08374e-06,2.27668e-06,4.34659e-06,7.93819e-06,1.41701e-05,2.49835e-05,4.37461e-05,7.63021e-05,0.000132791,0.000230808,0.000400882,0.000695984,0.00120803,0.0020965,inf	4.12305,4.12305,363.278,4571.94,4653.62,2613.78,3113.51,3487.36,3492.99,3812.96,4508.7,4370.56,3712.01,629.419,629.419,629.419
7.89488e-05	-1848057.81	0,3.96229e-07,1.08374e-06,2.27668e-06,4.34659e-06,7.93819e-06,1.41701e-05,2.49835e-05,4.37461e-05,7.63021e-05,0.000132791,0.000230808,0.000400882,0.000695984,0.00120803,0.0020965,inf	4.12305,4.12305,278.83,4598.16,4723.27,2554.44,3108.41,3506.57,3500.96,3811.86,4492.89,4378.27,3790.31,530.452,530.452,530.452
7.77362e-05	-1848437.95	0,3.96229e-07,1.08374e-06,2.27668e-06,4.34659e-06,7.93819e-06,1.41701e-05,2.49835e-05,4.37461e-05,7.63021e-05,0.000132791,0.000230808,0.000400882,0.000695984,0.00120803,0.0020965,inf	4.12301,4.12301,213.723,4620.45,4797.54,2499.76,3102.22,3520.37,3505.06,3810,4476.12,4386.43,3867.92,417.045,417.045,417.045
7.55407e-05	-1848983.04	0,3.96229e-07,1.08374e-06,2.27668e-06,4.34659e-06,7.93819e-06,1.41701e-05,2.49835e-05,4.37461e-05,7.63021e-05,0.000132791,0.000230808,0.000400882,0.000695984,0.00120803,0.0020965,inf	4.12301,4.12301,163.631,4643.67,4885.33,2452.27,3097.68,3530.39,3505,3805.73,4457.56,4400.81,3948.49,294.599,294.599,294.599
7.21574e-05	-1849713.12	0,3.96229e-07,1.08374e-06,2.27668e-06,4.34659e-06,7.93819e-06,1.41701e-05,2.49835e-05,4.37461e-05,7.63021e-05,0.000132791,0.000230808,0.000400882,0.000695984,0.00120803,0.0020965,inf	4.12301,4.12301,125.003,4669.7,4994.18,2413.37,3096.45,3537.48,3500.28,3797.91,4437.04,4425.58,4028.13,186.758,186.758,186.758
6.77337e-05	-1850451.03	0,3.96229e-07,1.08374e-06,2.27668e-06,4.34659e-06,7.93819e-06,1.41701e-05,2.49835e-05,4.37461e-05,7.63021e-05,0.000132791,0.000230808,0.000400882,0.000695984,0.00120803,0.0020965,inf	4.12301,4.12301,95.1592,4697.18,5130.46,2383.56,3099.21,3542.12,3490.06,3785.17,4414.66,4458.71,4071.88,127.344,127.344,127.344
6.31527e-05	-1850821.20	0,3.96229e-07,1.08374e-06,2.27668e-06,4.34659e-06,7.93819e-06,1.41701e-05,2.49835e-05,4.37461e-05,7.63021e-05,0.000132791,0.000230808,0.000400882,0.000695984,0.00120803,0.0020965,inf	4.12301,4.12301,71.9659,4719.63,5295.34,2361.01,3104.92,3543.84,3473.07,3765.51,4390.58,4483.84,4024.08,122.685,122.685,122.685
5.92557e-05	-1850803.66	0,3.96229e-07,1.08374e-06,2.27668e-06,4.34659e-06,7.93819e-06,1.41701e-05,2.49835e-05,4.37461e-05,7.63021e-05,0.000132791,0.000230808,0.000400882,0.000695984,0.00120803,0.0020965,inf	4.12301,4.12301,53.9768,4727.68,5482.74,2342.99,3113,3543.91,3450.39,3739.11,4367.76,4489.08,3898.24,131.343,131.343,131.343
5.60696e-05	-1850795.18	0,3.96229e-07,1.08374e-06,2.27668e-06,4.34659e-06,7.93819e-06,1.41701e-05,2.49835e-05,4.37461e-05,7.63021e-05,0.000132791,0.000230808,0.000400882,0.000695984,0.00120803,0.0020965,inf	4.12301,4.12301,40.0914,4715.45,5685.84,2328.78,3125.86,3547.37,3427.79,3711.51,4354.73,4493.11,3761.58,136.729,136.729,136.729
5.34255e-05	-1850851.14	0,3.96229e-07,1.08374e-06,2.27668e-06,4.34659e-06,7.93819e-06,1.41701e-05,2.49835e-05,4.37461e-05,7.63021e-05,0.000132791,0.000230808,0.000400882,0.000695984,0.00120803,0.0020965,inf	4.12301,4.12301,29.5549,4678.5,5895.69,2316.3,3142.97,3555.46,3407.38,3683.57,4349.59,4502.77,3639.99,141.106,141.106,141.106
5.12296e-05	-1850912.11	0,3.96229e-07,1.08374e-06,2.27668e-06,4.34659e-06,7.93819e-06,1.41701e-05,2.49835e-05,4.37461e-05,7.63021e-05,0.000132791,0.000230808,0.000400882,0.000695984,0.00120803,0.0020965,inf	4.12301,4.12301,21.6133,4616.47,6104.8,2303.4,3162.39,3567.37,3389.56,3654.93,4347.58,4514.11,3534.18,144.976,144.976,144.976
4.94108e-05	-1850970.50	0,3.96229e-07,1.08374e-06,2.27668e-06,4.34659e-06,7.93819e-06,1.41701e-05,2.49835e-05,4.37461e-05,7.63021e-05,0.000132791,0.000230808,0.000400882,0.000695984,0.00120803,0.0020965,inf	4.12301,4.12301,15.6819,4531.34,6308.93,2288.8,3182.53,3582.3,3374.9,3626.57,4346.78,4524.81,3443.31,148.33,148.33,148.33
