time_index	left_time_boundary	right_time_boundary	lambda
0	0	8.70199e-06	4577.2
1	8.70199e-06	2.06091e-05	4577.2
2	2.06091e-05	3.69017e-05	2700.07
3	3.69017e-05	5.91951e-05	4607.56
4	5.91951e-05	8.96995e-05	4737.31
5	8.96995e-05	0.000131439	3933.4
6	0.000131439	0.000188552	3544.62
7	0.000188552	0.000266701	3727.66
8	0.000266701	0.000373633	4067.53
9	0.000373633	0.000519949	5706.04
10	0.000519949	0.000720156	6631.51
11	0.000720156	0.000994102	2571.56
12	0.000994102	0.00136895	1630.97
13	0.00136895	0.00188185	1859.38
14	0.00188185	0.00258367	1859.38
15	0.00258367	inf	1859.38
