LogLikelihood = -170371.70729743520496

y0 0.50635521986662890281
y0_prime 0
y1 0.9158054946763617421
y1_prime 0
y2 0.83103713307653714892
y2_prime 0
y3 1.5295414824523660968
y3_prime 0
rho 0.0015046615622691546493
rho.alpha 0.15258459653434844339
r_ii 0.99990102150000015335
theta 0.0025139511686091803831
