AIC = 3042370.4536522123963

y0 0.97801961407045678865
y0_prime 0
y1 1.06909863327875021
y1_prime 0
y2 0.85603774750024574924
y2_prime 0
y3 1.8311801510232348367
y3_prime 0
rho 0.002810505079827508787
theta 0.0049771247941231468864
