time_index	left_time_boundary	right_time_boundary	lambda
0	0	1.03488e-05	165.578
1	1.03488e-05	2.71142e-05	165.578
2	2.71142e-05	5.42746e-05	138.111
3	5.42746e-05	9.82754e-05	110.294
4	9.82754e-05	0.000169558	121.104
5	0.000169558	0.000285038	157.78
6	0.000285038	0.00047212	178.931
7	0.00047212	0.000775197	202.701
8	0.000775197	0.00126619	288.345
9	0.00126619	0.00206162	465.233
10	0.00206162	0.00335024	633.717
11	0.00335024	0.00543784	599.976
12	0.00543784	0.00881983	555.455
13	0.00881983	0.0142987	163.326
14	0.0142987	0.0231748	163.326
15	0.0231748	inf	163.326
