time_index	left_time_boundary	right_time_boundary	lambda
0	0	4.48541e-05	453.42
1	4.48541e-05	9.78734e-05	453.42
2	9.78734e-05	0.000160544	453.42
3	0.000160544	0.000234624	453.42
4	0.000234624	0.000322189	453.42
5	0.000322189	0.000425695	453.42
6	0.000425695	0.000548043	453.42
7	0.000548043	0.000692664	453.42
8	0.000692664	0.000863611	453.42
9	0.000863611	0.00106568	453.42
10	0.00106568	0.00130453	453.42
11	0.00130453	0.00158686	453.42
12	0.00158686	0.00192059	453.42
13	0.00192059	0.00231507	453.42
14	0.00231507	0.00278136	453.42
15	0.00278136	0.00333254	453.42
16	0.00333254	0.00398405	453.42
17	0.00398405	0.00475416	453.42
18	0.00475416	0.00566447	453.42
19	0.00566447	0.00674049	453.42
20	0.00674049	0.00801239	453.42
21	0.00801239	0.00951583	453.42
22	0.00951583	0.011293	453.42
23	0.011293	0.0133936	453.42
24	0.0133936	0.0158766	453.42
25	0.0158766	0.0188117	453.42
26	0.0188117	0.022281	453.42
27	0.022281	0.026382	453.42
28	0.026382	0.0312294	453.42
29	0.0312294	inf	453.42
