time_index	left_time_boundary	right_time_boundary	lambda
0	0	2.66278e-06	0.536489
1	2.66278e-06	6.11871e-06	0.536489
2	6.11871e-06	1.0604e-05	85.5954
3	1.0604e-05	1.64254e-05	222.261
4	1.64254e-05	2.39808e-05	203.294
5	2.39808e-05	3.37866e-05	142.036
6	3.37866e-05	4.65132e-05	121.522
7	4.65132e-05	6.30307e-05	126.535
8	6.30307e-05	8.44682e-05	133.15
9	8.44682e-05	0.000112291	133.18
10	0.000112291	0.000148402	133.41
11	0.000148402	0.000195268	138.487
12	0.000195268	0.000256095	146.14
13	0.000256095	0.000335039	152.734
14	0.000335039	0.000437499	158.981
15	0.000437499	0.000570477	171.019
16	0.000570477	0.000743066	197.106
17	0.000743066	0.000967062	243.452
18	0.000967062	0.00125778	312.99
19	0.00125778	0.00163509	407.039
20	0.00163509	0.00212479	520.99
21	0.00212479	0.00276036	617.854
22	0.00276036	0.00358524	653.763
23	0.00358524	0.00465582	648.252
24	0.00465582	0.00604529	609.664
25	0.00604529	0.00784864	546.854
26	0.00784864	0.0101891	477.027
27	0.0101891	0.0132268	699.784
28	0.0132268	0.0171693	699.784
29	0.0171693	0.0222861	1.7543
30	0.0222861	0.028927	1.7543
31	0.028927	inf	1.7543
