time_index	left_time_boundary	right_time_boundary	lambda
0	0	2.21049e-05	215.607
1	2.21049e-05	5.59238e-05	215.607
2	5.59238e-05	0.000107664	39.5238
3	0.000107664	0.000186823	140.724
4	0.000186823	0.00030793	171.52
5	0.00030793	0.000493215	151.552
6	0.000493215	0.000776687	177.491
7	0.000776687	0.00121038	260.358
8	0.00121038	0.00187389	404.627
9	0.00187389	0.00288902	631.873
10	0.00288902	0.0044421	613.379
11	0.0044421	0.00681818	467.809
12	0.00681818	0.0104534	433.915
13	0.0104534	0.0160151	51483.3
14	0.0160151	0.0245239	51483.3
15	0.0245239	inf	51483.3
