LogLikelihood = -41629.970144028324285

y0 0.86933907639033070058
y0_prime 0
y1 1.0418710758193612254
y1_prime 0
y2 1.0103159320733792192
y2_prime 0
y3 1.7464185021336384729
y3_prime 0
rho 0.00010477268038236446808
theta 0.00049673235584252531383
