0.00067345	-304037.89	0,9.21545e-05,0.000218251,0.000390791,0.000626879,0.000949923,0.00139195,0.00199678,0.00282438,0.00395679,0.00550629,0.00762649,0.0105276,0.0144972,0.0199289,0.0273612,inf	375.638,375.638,320.538,323.322,336.119,360.704,389.627,399.881,407.11,416.224,415.493,406.379,353.018,346.114,346.114,346.114
0.000720372	-303988.37	0,9.21545e-05,0.000218251,0.000390791,0.000626879,0.000949923,0.00139195,0.00199678,0.00282438,0.00395679,0.00550629,0.00762649,0.0105276,0.0144972,0.0199289,0.0273612,inf	394.636,394.636,297.711,300.77,315.656,349.986,391.974,401.846,411.011,427.933,427.931,412.424,320.727,320.252,320.252,320.252
0.000763998	-303955.11	0,9.21545e-05,0.000218251,0.000390791,0.000626879,0.000949923,0.00139195,0.00199678,0.00282438,0.00395679,0.00550629,0.00762649,0.0105276,0.0144972,0.0199289,0.0273612,inf	413.245,413.245,287.752,292.943,307.175,346.871,396.27,402.265,411.661,435.781,437.532,417.506,297.169,305.137,305.137,305.137
0.000804306	-303929.34	0,9.21545e-05,0.000218251,0.000390791,0.000626879,0.000949923,0.00139195,0.00199678,0.00282438,0.00395679,0.00550629,0.00762649,0.0105276,0.0144972,0.0199289,0.0273612,inf	425.357,425.357,281.816,290.664,303.204,346.498,400.545,401.328,410.263,441.011,445.104,421.794,279.451,295.315,295.315,295.315
0.000841605	-303908.87	0,9.21545e-05,0.000218251,0.000390791,0.000626879,0.000949923,0.00139195,0.00199678,0.00282438,0.00395679,0.00550629,0.00762649,0.0105276,0.0144972,0.0199289,0.0273612,inf	432.129,432.129,277.622,290.942,301.263,347.327,404.452,399.549,407.708,444.509,451.251,425.454,265.823,288.466,288.466,288.466
0.000876221	-303892.32	0,9.21545e-05,0.000218251,0.000390791,0.000626879,0.000949923,0.00139195,0.00199678,0.00282438,0.00395679,0.00550629,0.00762649,0.0105276,0.0144972,0.0199289,0.0273612,inf	435.47,435.47,274.417,292.53,300.322,348.744,407.983,397.317,404.553,446.858,456.378,428.602,255.15,283.436,283.436,283.436
0.000908436	-303878.74	0,9.21545e-05,0.000218251,0.000390791,0.000626879,0.000949923,0.00139195,0.00199678,0.00282438,0.00395679,0.00550629,0.00762649,0.0105276,0.0144972,0.0199289,0.0273612,inf	436.797,436.797,271.862,294.808,299.88,350.456,411.19,394.874,401.126,448.431,460.756,431.316,246.667,279.587,279.587,279.587
0.000938485	-303867.49	0,9.21545e-05,0.000218251,0.000390791,0.000626879,0.000949923,0.00139195,0.00199678,0.00282438,0.00395679,0.00550629,0.00762649,0.0105276,0.0144972,0.0199289,0.0273612,inf	436.998,436.998,269.769,297.434,299.673,352.311,414.125,392.366,397.619,449.472,464.567,433.653,239.843,276.539,276.539,276.539
0.000966572	-303858.10	0,9.21545e-05,0.000218251,0.000390791,0.000626879,0.000949923,0.00139195,0.00199678,0.00282438,0.00395679,0.00550629,0.00762649,0.0105276,0.0144972,0.0199289,0.0273612,inf	436.598,436.598,268.018,300.21,299.556,354.221,416.832,389.878,394.14,450.141,467.939,435.654,234.299,274.056,274.056,274.056
0.000992869	-303850.19	0,9.21545e-05,0.000218251,0.000390791,0.000626879,0.000949923,0.00139195,0.00199678,0.00282438,0.00395679,0.00550629,0.00762649,0.0105276,0.0144972,0.0199289,0.0273612,inf	435.904,435.904,266.531,303.02,299.449,356.137,419.345,387.456,390.753,450.548,470.963,437.354,229.76,271.982,271.982,271.982
0.00101752	-303843.51	0,9.21545e-05,0.000218251,0.000390791,0.000626879,0.000949923,0.00139195,0.00199678,0.00282438,0.00395679,0.00550629,0.00762649,0.0105276,0.0144972,0.0199289,0.0273612,inf	435.089,435.089,265.251,305.796,299.308,358.03,421.692,385.126,387.489,450.767,473.705,438.783,226.022,270.213,270.213,270.213
0.00104067	-303837.83	0,9.21545e-05,0.000218251,0.000390791,0.000626879,0.000949923,0.00139195,0.00199678,0.00282438,0.00395679,0.00550629,0.00762649,0.0105276,0.0144972,0.0199289,0.0273612,inf	434.245,434.245,264.141,308.498,299.113,359.884,423.894,382.901,384.364,450.852,476.216,439.967,222.93,268.679,268.679,268.679
0.00106243	-303833.00	0,9.21545e-05,0.000218251,0.000390791,0.000626879,0.000949923,0.00139195,0.00199678,0.00282438,0.00395679,0.00550629,0.00762649,0.0105276,0.0144972,0.0199289,0.0273612,inf	433.428,433.428,263.172,311.105,298.852,361.689,425.968,380.784,381.383,450.84,478.535,440.929,220.368,267.326,267.326,267.326
0.00108289	-303828.86	0,9.21545e-05,0.000218251,0.000390791,0.000626879,0.000949923,0.00139195,0.00199678,0.00282438,0.00395679,0.00550629,0.00762649,0.0105276,0.0144972,0.0199289,0.0273612,inf	432.659,432.659,262.322,313.607,298.524,363.441,427.927,378.774,378.546,450.758,480.691,441.692,218.243,266.119,266.119,266.119
0.00110217	-303825.32	0,9.21545e-05,0.000218251,0.000390791,0.000626879,0.000949923,0.00139195,0.00199678,0.00282438,0.00395679,0.00550629,0.00762649,0.0105276,0.0144972,0.0199289,0.0273612,inf	431.952,431.952,261.576,315.999,298.131,365.138,429.783,376.87,375.849,450.627,482.71,442.275,216.482,265.031,265.031,265.031
0.00112033	-303822.27	0,9.21545e-05,0.000218251,0.000390791,0.000626879,0.000949923,0.00139195,0.00199678,0.00282438,0.00395679,0.00550629,0.00762649,0.0105276,0.0144972,0.0199289,0.0273612,inf	431.307,431.307,260.921,318.283,297.675,366.779,431.547,375.066,373.286,450.462,484.612,442.696,215.027,264.04,264.04,264.04
0.00113746	-303819.65	0,9.21545e-05,0.000218251,0.000390791,0.000626879,0.000949923,0.00139195,0.00199678,0.00282438,0.00395679,0.00550629,0.00762649,0.0105276,0.0144972,0.0199289,0.0273612,inf	430.724,430.724,260.345,320.461,297.161,368.365,433.225,373.357,370.851,450.273,486.412,442.971,213.832,263.133,263.133,263.133
0.00115363	-303817.38	0,9.21545e-05,0.000218251,0.000390791,0.000626879,0.000949923,0.00139195,0.00199678,0.00282438,0.00395679,0.00550629,0.00762649,0.0105276,0.0144972,0.0199289,0.0273612,inf	430.194,430.194,259.841,322.537,296.594,369.897,434.825,371.737,368.535,450.07,488.123,443.115,212.857,262.295,262.295,262.295
0.0011689	-303815.43	0,9.21545e-05,0.000218251,0.000390791,0.000626879,0.000949923,0.00139195,0.00199678,0.00282438,0.00395679,0.00550629,0.00762649,0.0105276,0.0144972,0.0199289,0.0273612,inf	429.717,429.717,259.4,324.517,295.98,371.378,436.353,370.202,366.333,449.858,489.758,443.14,212.072,261.519,261.519,261.519
0.00118334	-303813.74	0,9.21545e-05,0.000218251,0.000390791,0.000626879,0.000949923,0.00139195,0.00199678,0.00282438,0.00395679,0.00550629,0.00762649,0.0105276,0.0144972,0.0199289,0.0273612,inf	429.285,429.285,259.017,326.406,295.322,372.809,437.814,368.745,364.236,449.642,491.326,443.058,211.45,260.797,260.797,260.797
