time_index	left_time_boundary	right_time_boundary	lambda
0	0	4.24724e-05	283.151
1	4.24724e-05	9.21545e-05	283.151
2	9.21545e-05	0.00015027	609.96
3	0.00015027	0.000218251	396.041
4	0.000218251	0.000297772	228.802
5	0.000297772	0.000390791	254.957
6	0.000390791	0.0004996	291.627
7	0.0004996	0.000626879	307.808
8	0.000626879	0.000775764	290.017
9	0.000775764	0.000949923	280.992
10	0.000949923	0.00115364	320.016
11	0.00115364	0.00139195	381.054
12	0.00139195	0.0016707	405.621
13	0.0016707	0.00199678	411.081
14	0.00199678	0.0023782	403.989
15	0.0023782	0.00282438	391.843
16	0.00282438	0.00334629	391.725
17	0.00334629	0.00395679	403.659
18	0.00395679	0.00467093	422.369
19	0.00467093	0.00550629	442.27
20	0.00550629	0.00648345	454.206
21	0.00648345	0.00762649	452.104
22	0.00762649	0.00896356	440.901
23	0.00896356	0.0105276	421.923
24	0.0105276	0.0123571	360.411
25	0.0123571	0.0144972	307.834
26	0.0144972	0.0170006	325.67
27	0.0170006	0.0199289	412.976
28	0.0199289	0.0233543	412.976
29	0.0233543	0.0273612	82768.9
30	0.0273612	0.0320482	82768.9
31	0.0320482	inf	82768.9
