5.49249e-05	-1859842.77	0,1.7693e-07,4.09991e-07,7.16991e-07,1.12139e-06,1.65407e-06,2.35576e-06,3.28005e-06,4.49757e-06,6.10135e-06,8.21392e-06,1.09967e-05,1.46623e-05,1.94909e-05,2.58512e-05,3.42294e-05,4.52656e-05,5.9803e-05,7.89523e-05,0.000104177,0.000137404,0.000181172,0.000238825,0.000314769,0.000414806,0.000546579,0.000720158,0.000948804,0.00124999,0.00164672,0.00216932,0.00285771,inf	535.709,535.709,899.876,1743.49,3619.69,6519.92,8410.73,7024.6,6016.33,5565.28,4654.07,3893.34,3767.26,3840.89,4123.91,4393.85,4431.07,4342.83,4164.42,4067.41,4041.87,3950,3780.52,3608.58,3526.97,3549.25,3512.72,3439.47,3439.47,4543.99,4543.99,4543.99
4.87667e-05	-1859397.38	0,1.7693e-07,4.09991e-07,7.16991e-07,1.12139e-06,1.65407e-06,2.35576e-06,3.28005e-06,4.49757e-06,6.10135e-06,8.21392e-06,1.09967e-05,1.46623e-05,1.94909e-05,2.58512e-05,3.42294e-05,4.52656e-05,5.9803e-05,7.89523e-05,0.000104177,0.000137404,0.000181172,0.000238825,0.000314769,0.000414806,0.000546579,0.000720158,0.000948804,0.00124999,0.00164672,0.00216932,0.00285771,inf	59.7203,59.7203,155.364,532.12,2134.01,6730.07,11556.5,8874.86,7105.36,6650.49,5065.87,3715.95,3499.92,3589.68,4059.25,4599.3,4702.36,4571.42,4255.15,4106.82,4119.09,3991.39,3696.21,3400.74,3277.69,3342.91,3281.21,3119.6,3119.6,4975.91,4975.91,4975.91
4.37505e-05	-1859113.41	0,1.7693e-07,4.09991e-07,7.16991e-07,1.12139e-06,1.65407e-06,2.35576e-06,3.28005e-06,4.49757e-06,6.10135e-06,8.21392e-06,1.09967e-05,1.46623e-05,1.94909e-05,2.58512e-05,3.42294e-05,4.52656e-05,5.9803e-05,7.89523e-05,0.000104177,0.000137404,0.000181172,0.000238825,0.000314769,0.000414806,0.000546579,0.000720158,0.000948804,0.00124999,0.00164672,0.00216932,0.00285771,inf	4.3563,4.3563,24.3875,142.536,1076.41,5896.62,13712.1,10063.8,7712.18,7581.66,5485.75,3613.4,3311.28,3372.99,3934.05,4708.88,4872.5,4715.41,4280.66,4097.49,4179.79,4054.17,3664.56,3276.93,3135.12,3259.35,3169.29,2910.57,2910.57,5287.11,5287.11,5287.11
3.96236e-05	-1858902.99	0,1.7693e-07,4.09991e-07,7.16991e-07,1.12139e-06,1.65407e-06,2.35576e-06,3.28005e-06,4.49757e-06,6.10135e-06,8.21392e-06,1.09967e-05,1.46623e-05,1.94909e-05,2.58512e-05,3.42294e-05,4.52656e-05,5.9803e-05,7.89523e-05,0.000104177,0.000137404,0.000181172,0.000238825,0.000314769,0.000414806,0.000546579,0.000720158,0.000948804,0.00124999,0.00164672,0.00216932,0.00285771,inf	3.98461,3.98461,3.98533,35.6402,500.624,4763.13,15195.7,10876.2,8006.79,8417.27,5940.91,3580.26,3196.05,3209.6,3793.03,4767.86,4981.97,4806.91,4266.19,4049.9,4211.87,4109.97,3648.89,3192.46,3045.85,3243.6,3117.92,2763.4,2763.4,5493.02,5493.02,5493.02
3.62396e-05	-1858743.16	0,1.7693e-07,4.09991e-07,7.16991e-07,1.12139e-06,1.65407e-06,2.35576e-06,3.28005e-06,4.49757e-06,6.10135e-06,8.21392e-06,1.09967e-05,1.46623e-05,1.94909e-05,2.58512e-05,3.42294e-05,4.52656e-05,5.9803e-05,7.89523e-05,0.000104177,0.000137404,0.000181172,0.000238825,0.000314769,0.000414806,0.000546579,0.000720158,0.000948804,0.00124999,0.00164672,0.00216932,0.00285771,inf	3.9846,3.9846,3.98461,7.06692,221.921,3674.24,16253.7,11489.9,8090,9164.41,6425.36,3598.25,3138.07,3098.01,3656.17,4803.16,5059.79,4872.72,4236.39,3982.39,4220.07,4150.43,3633.76,3126.39,2982.7,3265.73,3094.7,2655.37,2655.37,5619.53,5619.53,5619.53
3.34874e-05	-1858624.80	0,1.7693e-07,4.09991e-07,7.16991e-07,1.12139e-06,1.65407e-06,2.35576e-06,3.28005e-06,4.49757e-06,6.10135e-06,8.21392e-06,1.09967e-05,1.46623e-05,1.94909e-05,2.58512e-05,3.42294e-05,4.52656e-05,5.9803e-05,7.89523e-05,0.000104177,0.000137404,0.000181172,0.000238825,0.000314769,0.000414806,0.000546579,0.000720158,0.000948804,0.00124999,0.00164672,0.00216932,0.00285771,inf	3.9846,3.9846,3.9846,3.98461,95.122,2751.74,17026.7,11992.6,8018.26,9806.88,6916.33,3646.54,3118.56,3028.06,3527.88,4824.84,5119.09,4926.46,4205.76,3908.81,4212.85,4175.87,3614.44,3069.82,2932.16,3308.46,3080.69,2574.77,2574.77,5695.65,5695.65,5695.65
3.12701e-05	-1858540.67	0,1.7693e-07,4.09991e-07,7.16991e-07,1.12139e-06,1.65407e-06,2.35576e-06,3.28005e-06,4.49757e-06,6.10135e-06,8.21392e-06,1.09967e-05,1.46623e-05,1.94909e-05,2.58512e-05,3.42294e-05,4.52656e-05,5.9803e-05,7.89523e-05,0.000104177,0.000137404,0.000181172,0.000238825,0.000314769,0.000414806,0.000546579,0.000720158,0.000948804,0.00124999,0.00164672,0.00216932,0.00285771,inf	3.9846,3.9846,3.9846,3.98461,39.7213,2017.83,17598.9,12435.3,7835.6,10334.7,7393.98,3709.07,3123.11,2990,3408.2,4836.69,5165.25,4973.72,4181.01,3837.49,4197.64,4189.75,3591.07,3019.69,2888,3361.7,3065.32,2514.81,2514.81,5745.4,5745.4,5745.4
2.95004e-05	-1858483.49	0,1.7693e-07,4.09991e-07,7.16991e-07,1.12139e-06,1.65407e-06,2.35576e-06,3.28005e-06,4.49757e-06,6.10135e-06,8.21392e-06,1.09967e-05,1.46623e-05,1.94909e-05,2.58512e-05,3.42294e-05,4.52656e-05,5.9803e-05,7.89523e-05,0.000104177,0.000137404,0.000181172,0.000238825,0.000314769,0.000414806,0.000546579,0.000720158,0.000948804,0.00124999,0.00164672,0.00216932,0.00285771,inf	3.9846,3.9846,3.9846,3.9846,16.3302,1456.57,18024,12849.4,7577.38,10748,7844.77,3775.11,3141.81,2976.25,3296.63,4840.72,5200.67,5015.99,4164.26,3772.51,4179.73,4195.95,3565.57,2975.44,2847.68,3419.63,3043.83,2470.93,2470.93,5784.06,5784.06,5784.06
2.80995e-05	-1858446.34	0,1.7693e-07,4.09991e-07,7.16991e-07,1.12139e-06,1.65407e-06,2.35576e-06,3.28005e-06,4.49757e-06,6.10135e-06,8.21392e-06,1.09967e-05,1.46623e-05,1.94909e-05,2.58512e-05,3.42294e-05,4.52656e-05,5.9803e-05,7.89523e-05,0.000104177,0.000137404,0.000181172,0.000238825,0.000314769,0.000414806,0.000546579,0.000720158,0.000948804,0.00124999,0.00164672,0.00216932,0.00285771,inf	3.9846,3.9846,3.9846,3.9846,6.63376,1038.71,18336.8,13254.6,7272.44,11055.5,8260.48,3837.38,3167.74,2981.17,3192.71,4838.95,5226.99,5053.48,4155.3,3715.19,4162.3,4197.66,3539.93,2937.16,2810.31,3478.85,3015.34,2439.59,2439.59,5818.78,5818.78,5818.78
2.69985e-05	-1858423.30	0,1.7693e-07,4.09991e-07,7.16991e-07,1.12139e-06,1.65407e-06,2.35576e-06,3.28005e-06,4.49757e-06,6.10135e-06,8.21392e-06,1.09967e-05,1.46623e-05,1.94909e-05,2.58512e-05,3.42294e-05,4.52656e-05,5.9803e-05,7.89523e-05,0.000104177,0.000137404,0.000181172,0.000238825,0.000314769,0.000414806,0.000546579,0.000720158,0.000948804,0.00124999,0.00164672,0.00216932,0.00285771,inf	3.9846,3.9846,3.9846,3.9846,3.98461,733.986,18561.1,13660.3,6942,11270.7,8638.44,3891.81,3196.11,3000.51,3096.07,4833.44,5245.76,5086.02,4152.85,3665.45,4146.91,4197.06,3515.66,2904.88,2775.66,3537.35,2981.17,2417.87,2417.87,5851.52,5851.52,5851.52
2.61382e-05	-1858409.72	0,1.7693e-07,4.09991e-07,7.16991e-07,1.12139e-06,1.65407e-06,2.35576e-06,3.28005e-06,4.49757e-06,6.10135e-06,8.21392e-06,1.09967e-05,1.46623e-05,1.94909e-05,2.58512e-05,3.42294e-05,4.52656e-05,5.9803e-05,7.89523e-05,0.000104177,0.000137404,0.000181172,0.000238825,0.000314769,0.000414806,0.000546579,0.000720158,0.000948804,0.00124999,0.00164672,0.00216932,0.00285771,inf	3.9846,3.9846,3.9846,3.9846,3.98461,514.694,18710.3,14072.1,6601.49,11409.3,8978.56,3935.98,3223.95,3030.96,3006.34,4826.09,5258.52,5113.64,4155.48,3622.52,4134.21,4195.6,3493.69,2878.38,2743.61,3593.84,2943.56,2403.36,2403.36,5881.53,5881.53,5881.53
2.54692e-05	-1858402.20	0,1.7693e-07,4.09991e-07,7.16991e-07,1.12139e-06,1.65407e-06,2.35576e-06,3.28005e-06,4.49757e-06,6.10135e-06,8.21392e-06,1.09967e-05,1.46623e-05,1.94909e-05,2.58512e-05,3.42294e-05,4.52656e-05,5.9803e-05,7.89523e-05,0.000104177,0.000137404,0.000181172,0.000238825,0.000314769,0.000414806,0.000546579,0.000720158,0.000948804,0.00124999,0.00164672,0.00216932,0.00285771,inf	3.9846,3.9846,3.9846,3.9846,3.98461,358.881,18792.1,14491.7,6261.22,11486.3,9283.26,3969.14,3249.17,3069.96,2922.99,4818.41,5266.69,5136.51,4161.81,3585.38,4124.22,4194.05,3474.43,2857.2,2714.03,3647.43,2904.78,2394.09,2394.09,5907.44,5907.44,5907.44
2.4951e-05	-1858398.40	0,1.7693e-07,4.09991e-07,7.16991e-07,1.12139e-06,1.65407e-06,2.35576e-06,3.28005e-06,4.49757e-06,6.10135e-06,8.21392e-06,1.09967e-05,1.46623e-05,1.94909e-05,2.58512e-05,3.42294e-05,4.52656e-05,5.9803e-05,7.89523e-05,0.000104177,0.000137404,0.000181172,0.000238825,0.000314769,0.000414806,0.000546579,0.000720158,0.000948804,0.00124999,0.00164672,0.00216932,0.00285771,inf	3.9846,3.9846,3.9846,3.9846,3.98461,248.858,18816.4,14921.1,5928.73,11515.6,9556.59,3991.15,3270.52,3115.35,2845.43,4811.55,5271.53,5155.05,4170.7,3553.1,4116.73,4192.76,3457.95,2840.74,2686.81,3697.52,2866.68,2388.54,2388.54,5928.23,5928.23,5928.23
2.45508e-05	-1858396.77	0,1.7693e-07,4.09991e-07,7.16991e-07,1.12139e-06,1.65407e-06,2.35576e-06,3.28005e-06,4.49757e-06,6.10135e-06,8.21392e-06,1.09967e-05,1.46623e-05,1.94909e-05,2.58512e-05,3.42294e-05,4.52656e-05,5.9803e-05,7.89523e-05,0.000104177,0.000137404,0.000181172,0.000238825,0.000314769,0.000414806,0.000546579,0.000720158,0.000948804,0.00124999,0.00164672,0.00216932,0.00285771,inf	3.9846,3.9846,3.9846,3.9846,3.98461,171.807,18788.2,15359,5607.23,11508.4,9801.93,4002.58,3287.21,3165.46,2773.04,4806.17,5274.06,5169.75,4181.31,3524.87,4111.41,4191.89,3444.07,2828.34,2661.77,3743.72,2830.6,2385.55,2385.55,5943.46,5943.46,5943.46
2.42434e-05	-1858396.35	0,1.7693e-07,4.09991e-07,7.16991e-07,1.12139e-06,1.65407e-06,2.35576e-06,3.28005e-06,4.49757e-06,6.10135e-06,8.21392e-06,1.09967e-05,1.46623e-05,1.94909e-05,2.58512e-05,3.42294e-05,4.52656e-05,5.9803e-05,7.89523e-05,0.000104177,0.000137404,0.000181172,0.000238825,0.000314769,0.000414806,0.000546579,0.000720158,0.000948804,0.00124999,0.00164672,0.00216932,0.00285771,inf	3.9846,3.9846,3.9846,3.9846,3.98461,118.382,18728.9,15820.3,5304.27,11485.3,10032.7,4007.98,3301.77,3221.48,2707.26,4806.38,5278.61,5184.13,4194.88,3501.09,4108.94,4192.37,3433.12,2819.58,2638.72,3786.22,2797.45,2384.58,2384.58,5953.64,5953.64,5953.64
2.40062e-05	-1858396.43	0,1.7693e-07,4.09991e-07,7.16991e-07,1.12139e-06,1.65407e-06,2.35576e-06,3.28005e-06,4.49757e-06,6.10135e-06,8.21392e-06,1.09967e-05,1.46623e-05,1.94909e-05,2.58512e-05,3.42294e-05,4.52656e-05,5.9803e-05,7.89523e-05,0.000104177,0.000137404,0.000181172,0.000238825,0.000314769,0.000414806,0.000546579,0.000720158,0.000948804,0.00124999,0.00164672,0.00216932,0.00285771,inf	3.9846,3.9846,3.9846,3.9846,3.98461,81.0592,18606.4,16270.9,5010.3,11430.1,10233.7,4000.96,3308.31,3277.27,2643.31,4805.26,5278.6,5192.64,4207.05,3478.8,4106.81,4192.27,3423.64,2813.37,2617.46,3824.33,2767.36,2384.53,2384.53,5959.51,5959.51,5959.51
2.38238e-05	-1858396.90	0,1.7693e-07,4.09991e-07,7.16991e-07,1.12139e-06,1.65407e-06,2.35576e-06,3.28005e-06,4.49757e-06,6.10135e-06,8.21392e-06,1.09967e-05,1.46623e-05,1.94909e-05,2.58512e-05,3.42294e-05,4.52656e-05,5.9803e-05,7.89523e-05,0.000104177,0.000137404,0.000181172,0.000238825,0.000314769,0.000414806,0.000546579,0.000720158,0.000948804,0.00124999,0.00164672,0.00216932,0.00285771,inf	3.9846,3.9846,3.9846,3.9846,3.98461,55.4629,18445.6,16727.9,4732.35,11361.3,10418.4,3986.59,3309.83,3334.3,2582.51,4805.68,5277.3,5198.25,4219.14,3458.57,4105.67,4192.26,3415.77,2809.42,2598.02,3858.35,2740.58,2385.08,2385.08,5961.5,5961.5,5961.5
2.36836e-05	-1858397.49	0,1.7693e-07,4.09991e-07,7.16991e-07,1.12139e-06,1.65407e-06,2.35576e-06,3.28005e-06,4.49757e-06,6.10135e-06,8.21392e-06,1.09967e-05,1.46623e-05,1.94909e-05,2.58512e-05,3.42294e-05,4.52656e-05,5.9803e-05,7.89523e-05,0.000104177,0.000137404,0.000181172,0.000238825,0.000314769,0.000414806,0.000546579,0.000720158,0.000948804,0.00124999,0.00164672,0.00216932,0.00285771,inf	3.9846,3.9846,3.9846,3.9846,3.98461,37.8609,18250.7,17189.1,4469.53,11283.3,10590.6,3966.32,3307.06,3392.32,2524.7,4808.13,5275.55,5201.82,4231.26,3440.26,4105.49,4192.39,3409.3,2807.29,2580.28,3888.52,2717.08,2385.99,2385.99,5960.52,5960.52,5960.52
2.35759e-05	-1858398.07	0,1.7693e-07,4.09991e-07,7.16991e-07,1.12139e-06,1.65407e-06,2.35576e-06,3.28005e-06,4.49757e-06,6.10135e-06,8.21392e-06,1.09967e-05,1.46623e-05,1.94909e-05,2.58512e-05,3.42294e-05,4.52656e-05,5.9803e-05,7.89523e-05,0.000104177,0.000137404,0.000181172,0.000238825,0.000314769,0.000414806,0.000546579,0.000720158,0.000948804,0.00124999,0.00164672,0.00216932,0.00285771,inf	3.9846,3.9846,3.9846,3.9846,3.98461,25.7856,18024.7,17653.9,4221.78,11199.3,10752.7,3941.16,3300.38,3450.96,2469.45,4812.6,5273.62,5203.8,4243.31,3423.6,4106.05,4192.63,3403.96,2806.58,2564.13,3915.13,2696.64,2387.09,2387.09,5957.42,5957.42,5957.42
2.34933e-05	-1858398.60	0,1.7693e-07,4.09991e-07,7.16991e-07,1.12139e-06,1.65407e-06,2.35576e-06,3.28005e-06,4.49757e-06,6.10135e-06,8.21392e-06,1.09967e-05,1.46623e-05,1.94909e-05,2.58512e-05,3.42294e-05,4.52656e-05,5.9803e-05,7.89523e-05,0.000104177,0.000137404,0.000181172,0.000238825,0.000314769,0.000414806,0.000546579,0.000720158,0.000948804,0.00124999,0.00164672,0.00216932,0.00285771,inf	3.9846,3.9846,3.9846,3.9846,3.98461,17.4788,17774.6,18122,3988.05,11111.4,10907.1,3912.18,3290.07,3509.97,2416.54,4818.91,5271.62,5204.47,4255.14,3408.35,4107.19,4192.89,3399.55,2806.96,2549.44,3938.46,2679.02,2388.26,2388.26,5952.94,5952.94,5952.94
