LogLikelihood = -287138.19778585148742

y0 0.82694289974505907903
y0_prime 0
y1 0.988743033607631161
y1_prime 0
y2 0.89599086252305037981
y2_prime 0
y3 1.5473277498597408641
y3_prime 0
rho 0.004563453753288358207
rho.alpha 0.84386743564680610774
r_ii 0.99999842258575699638
theta 0.0046042947616684185355
