time_index	left_time_boundary	right_time_boundary	lambda
0	0	9.42243e-05	268.574
1	9.42243e-05	0.000223153	268.574
2	0.000223153	0.000399568	316.67
3	0.000399568	0.000640959	365.363
4	0.000640959	0.000971258	332.038
5	0.000971258	0.00142321	357.397
6	0.00142321	0.00204162	427.627
7	0.00204162	0.00288781	465.84
8	0.00288781	0.00404566	429.704
9	0.00404566	0.00562996	400.99
10	0.00562996	0.00779778	390.818
11	0.00779778	0.010764	397.563
12	0.010764	0.0148228	595.535
13	0.0148228	0.0203765	41.2929
14	0.0203765	0.0279757	41.2929
15	0.0279757	inf	41.2929
