time_index	left_time_boundary	right_time_boundary	lambda
0	0	6.21054e-06	14.7833
1	6.21054e-06	1.66719e-05	14.7833
2	1.66719e-05	3.42936e-05	408.353
3	3.42936e-05	6.39767e-05	461.601
4	6.39767e-05	0.000113976	403.86
5	0.000113976	0.000198199	295.459
6	0.000198199	0.000340067	303.906
7	0.000340067	0.000579039	342.488
8	0.000579039	0.000981576	352.191
9	0.000981576	0.00165963	364.662
10	0.00165963	0.00280179	437.049
11	0.00280179	0.00472569	445.448
12	0.00472569	0.00796643	532.767
13	0.00796643	0.0134253	174.715
14	0.0134253	0.0226205	174.715
15	0.0226205	inf	174.715
