time_index	left_time_boundary	right_time_boundary	lambda
0	0	4.16245e-06	1.03067
1	4.16245e-06	1.13849e-05	1.03067
2	1.13849e-05	2.39169e-05	378.349
3	2.39169e-05	4.56616e-05	343.937
4	4.56616e-05	8.3392e-05	432.8
5	8.3392e-05	0.00014886	318.432
6	0.00014886	0.000262455	297.625
7	0.000262455	0.00045956	321.993
8	0.00045956	0.000801565	353.82
9	0.000801565	0.00139499	355.817
10	0.00139499	0.00242468	420.341
11	0.00242468	0.00421133	432.171
12	0.00421133	0.00731142	543.408
13	0.00731142	0.0126905	197.577
14	0.0126905	0.022024	197.577
15	0.022024	inf	197.577
