time_index	left_time_boundary	right_time_boundary	lambda
0	0	1.00851e-05	0.39152
1	1.00851e-05	2.25594e-05	0.39152
2	2.25594e-05	3.79889e-05	71.0147
3	3.79889e-05	5.70737e-05	541.75
4	5.70737e-05	8.06796e-05	663.926
5	8.06796e-05	0.000109878	462.894
6	0.000109878	0.000145993	289.25
7	0.000145993	0.000190664	216.643
8	0.000190664	0.000245918	211.625
9	0.000245918	0.000314262	233.58
10	0.000314262	0.000398796	290.109
11	0.000398796	0.000503357	346.363
12	0.000503357	0.000632688	367.673
13	0.000632688	0.000792658	358.611
14	0.000792658	0.000990525	348.149
15	0.000990525	0.00123527	357.129
16	0.00123527	0.00153799	380.865
17	0.00153799	0.00191243	408.699
18	0.00191243	0.00237557	434.194
19	0.00237557	0.00294843	448.094
20	0.00294843	0.003657	452.106
21	0.003657	0.00453343	460.371
22	0.00453343	0.0056175	473.472
23	0.0056175	0.00695838	485.77
24	0.00695838	0.00861691	450.363
25	0.00861691	0.0106684	325.742
26	0.0106684	0.0132058	228.666
27	0.0132058	0.0163444	246.542
28	0.0163444	0.0202264	246.542
29	0.0202264	0.0250282	1151.77
30	0.0250282	0.0309675	1151.77
31	0.0309675	inf	1151.77
