LogLikelihood = -1233801.0829062294215

y0 0.73213509579012181483
y0_prime 0
y1 0.83751858846922400126
y1_prime 0
y2 0.74714059092323525935
y2_prime 0
y3 1.4428756206677224583
y3_prime 0
rho 0.0016387773158446313805
rho.alpha 0.75450101751853682064
r_ii 0.99996057165657359356
theta 0.0040418979938411422198
