5.29333e-05	-1749498.94	0,1.63697e-07,3.79326e-07,6.63364e-07,1.03751e-06,1.53036e-06,2.17956e-06,3.03472e-06,4.16117e-06,5.645e-06,7.59956e-06,1.01742e-05,1.35657e-05,1.8033e-05,2.39177e-05,3.16693e-05,4.188e-05,5.533e-05,7.30471e-05,9.63849e-05,0.000127127,0.000167621,0.000220962,0.000291226,0.000383781,0.000505698,0.000666294,0.000877839,0.0011565,0.00152356,0.00200707,0.00264397,inf	159.439,159.439,295.649,653.08,1597.72,3184.3,4239.17,3948.21,3613.21,3820.51,3740.59,3885.28,3994.56,4135.86,4302.92,4137.45,3935.8,3889.38,3898.41,3956.28,4059.74,4255.6,4542.32,4789.64,4936.8,4932.56,4579.43,4685.67,4685.67,7808.87,7808.87,7808.87
4.82255e-05	-1749179.04	0,1.63697e-07,3.79326e-07,6.63364e-07,1.03751e-06,1.53036e-06,2.17956e-06,3.03472e-06,4.16117e-06,5.645e-06,7.59956e-06,1.01742e-05,1.35657e-05,1.8033e-05,2.39177e-05,3.16693e-05,4.188e-05,5.533e-05,7.30471e-05,9.63849e-05,0.000127127,0.000167621,0.000220962,0.000291226,0.000383781,0.000505698,0.000666294,0.000877839,0.0011565,0.00152356,0.00200707,0.00264397,inf	6.61768,6.61768,23.3142,109.181,655.701,2646.66,4793.7,4175.9,3412.77,3780.94,3551.5,3720.88,3896.11,4115.38,4484.65,4188.14,3791.01,3699.48,3688.12,3746.44,3870.81,4159.35,4659.99,5148.6,5498.42,5549.61,4677.89,4864.16,4864.16,23101.6,23101.6,23101.6
4.8224e-05	-1748963.26	0,1.63697e-07,3.79326e-07,6.63364e-07,1.03751e-06,1.53036e-06,2.17956e-06,3.03472e-06,4.16117e-06,5.645e-06,7.59956e-06,1.01742e-05,1.35657e-05,1.8033e-05,2.39177e-05,3.16693e-05,4.188e-05,5.533e-05,7.30471e-05,9.63849e-05,0.000127127,0.000167621,0.000220962,0.000291226,0.000383781,0.000505698,0.000666294,0.000877839,0.0011565,0.00152356,0.00200707,0.00264397,inf	4.30749,4.30749,4.31009,18.9045,273.633,2248.16,5667.89,4726.13,3465.03,4053.14,3648.35,3782.54,4013.33,4244.54,4884.28,4489.3,3874.02,3741.35,3699.96,3732.2,3832.64,4154.41,4824.33,5536.33,6128.45,6307.09,4676.19,4906.26,4906.26,638425,638425,638425
