6.02942e-05	-44184.32	0,4.50675e-06,9.77851e-06,1.59452e-05,2.31586e-05,3.15965e-05,4.14668e-05,5.30125e-05,6.65181e-05,8.23163e-05,0.000100796,0.000122413,0.000147699,0.000177278,0.000211878,0.000252351,0.000299694,0.000355074,0.000419855,0.000495632,0.000584272,0.000687959,0.000809246,0.000951123,0.00111708,0.00131121,0.0015383,0.00180393,0.00211466,0.00247813,0.00290329,0.00340063,inf	1051.76,1051.76,2003.48,2291.04,2869.62,3644.65,4134.36,4278.55,4100.15,3854.36,3711.55,3665.01,3697.25,3780.23,3896.53,4023.45,4103.43,4108.03,4076.81,4036.34,3958.9,3876.71,3840.91,3831.97,3941.99,4159.5,4337.88,4443.3,4443.3,4522.9,4522.9,4522.9
5.4698e-05	-44172.94	0,4.50675e-06,9.77851e-06,1.59452e-05,2.31586e-05,3.15965e-05,4.14668e-05,5.30125e-05,6.65181e-05,8.23163e-05,0.000100796,0.000122413,0.000147699,0.000177278,0.000211878,0.000252351,0.000299694,0.000355074,0.000419855,0.000495632,0.000584272,0.000687959,0.000809246,0.000951123,0.00111708,0.00131121,0.0015383,0.00180393,0.00211466,0.00247813,0.00290329,0.00340063,inf	404.788,404.788,1476.77,1722.1,2352.2,3543.49,4444.18,4746.57,4388.54,3893.51,3612.58,3512.93,3560.6,3705.72,3921.62,4174.1,4339.35,4343.57,4278.93,4207.58,4052.08,3882.89,3825.46,3819.3,4072.91,4582.52,5046.66,5360.49,5360.49,5608.58,5608.58,5608.58
4.9662e-05	-44164.77	0,4.50675e-06,9.77851e-06,1.59452e-05,2.31586e-05,3.15965e-05,4.14668e-05,5.30125e-05,6.65181e-05,8.23163e-05,0.000100796,0.000122413,0.000147699,0.000177278,0.000211878,0.000252351,0.000299694,0.000355074,0.000419855,0.000495632,0.000584272,0.000687959,0.000809246,0.000951123,0.00111708,0.00131121,0.0015383,0.00180393,0.00211466,0.00247813,0.00290329,0.00340063,inf	182.691,182.691,1302.05,1466.12,1990.68,3396.58,4650.25,5150,4641.98,3914.31,3512.65,3360.91,3413.19,3603.29,3900.33,4269.97,4517.09,4508.21,4404.45,4311.46,4078.88,3817.63,3752.32,3757.11,4176.21,5049.17,5958.41,6693.81,6693.81,7376.12,7376.12,7376.12
4.52317e-05	-44158.39	0,4.50675e-06,9.77851e-06,1.59452e-05,2.31586e-05,3.15965e-05,4.14668e-05,5.30125e-05,6.65181e-05,8.23163e-05,0.000100796,0.000122413,0.000147699,0.000177278,0.000211878,0.000252351,0.000299694,0.000355074,0.000419855,0.000495632,0.000584272,0.000687959,0.000809246,0.000951123,0.00111708,0.00131121,0.0015383,0.00180393,0.00211466,0.00247813,0.00290329,0.00340063,inf	90.163,90.163,1281.19,1357.66,1720.82,3213.57,4758.34,5490.45,4872.91,3935.04,3432.71,3230.67,3278.66,3499.78,3861.12,4338.56,4661.46,4624.06,4475.9,4371.51,4065.37,3707.46,3646.35,3666.74,4262.82,5571.36,7187,8876.12,8876.12,11101,11101,11101
4.14014e-05	-44153.35	0,4.50675e-06,9.77851e-06,1.59452e-05,2.31586e-05,3.15965e-05,4.14668e-05,5.30125e-05,6.65181e-05,8.23163e-05,0.000100796,0.000122413,0.000147699,0.000177278,0.000211878,0.000252351,0.000299694,0.000355074,0.000419855,0.000495632,0.000584272,0.000687959,0.000809246,0.000951123,0.00111708,0.00131121,0.0015383,0.00180393,0.00211466,0.00247813,0.00290329,0.00340063,inf	46.8159,46.8159,1349.9,1332.25,1511.69,3012.39,4785.31,5770.16,5084.99,3960.67,3378.42,3127.66,3163.39,3404.22,3815.45,4392.4,4784.9,4703.68,4508.5,4404,4030.29,3572.06,3524.76,3562.59,4338.46,6159.9,8960.57,13377.8,13377.8,25812.8,25812.8,25812.8
3.81362e-05	-44149.44	0,4.50675e-06,9.77851e-06,1.59452e-05,2.31586e-05,3.15965e-05,4.14668e-05,5.30125e-05,6.65181e-05,8.23163e-05,0.000100796,0.000122413,0.000147699,0.000177278,0.000211878,0.000252351,0.000299694,0.000355074,0.000419855,0.000495632,0.000584272,0.000687959,0.000809246,0.000951123,0.00111708,0.00131121,0.0015383,0.00180393,0.00211466,0.00247813,0.00290329,0.00340063,inf	24.9627,24.9627,1480.96,1358.57,1344.16,2808.23,4751.82,5993.51,5277.9,3989.89,3348.79,3050.89,3067.07,3318.42,3767.35,4436.85,4893.43,4754.63,4513.25,4420.06,3986.57,3425.69,3398.88,3454.02,4405.44,6825.62,11838.6,29005.4,29005.4,642189,642189,642189
3.53863e-05	-44146.47	0,4.50675e-06,9.77851e-06,1.59452e-05,2.31586e-05,3.15965e-05,4.14668e-05,5.30125e-05,6.65181e-05,8.23163e-05,0.000100796,0.000122413,0.000147699,0.000177278,0.000211878,0.000252351,0.000299694,0.000355074,0.000419855,0.000495632,0.000584272,0.000687959,0.000809246,0.000951123,0.00111708,0.00131121,0.0015383,0.00180393,0.00211466,0.00247813,0.00290329,0.00340063,inf	13.4435,13.4435,1658.19,1417.79,1205.27,2611.58,4677.99,6167.15,5450.31,4019.08,3340.38,2997.22,2987.36,3241.79,3718.13,4474.24,4990.06,4782.24,4498.66,4427.27,3942.7,3278.41,3275.91,3346.94,4464,7580.08,17745.8,348124,348124,273357,273357,273357
3.30952e-05	-44144.27	0,4.50675e-06,9.77851e-06,1.59452e-05,2.31586e-05,3.15965e-05,4.14668e-05,5.30125e-05,6.65181e-05,8.23163e-05,0.000100796,0.000122413,0.000147699,0.000177278,0.000211878,0.000252351,0.000299694,0.000355074,0.000419855,0.000495632,0.000584272,0.000687959,0.000809246,0.000951123,0.00111708,0.00131121,0.0015383,0.00180393,0.00211466,0.00247813,0.00290329,0.00340063,inf	7.23368,7.23368,1868.06,1496.33,1086.2,2428.52,4581.42,6299.6,5601.61,4044.33,3349.07,2963.09,2921.58,3173.12,3668.31,4505.72,5076.6,4790.88,4471.56,4430.61,3903.78,3137.01,3160.14,3244.82,4512.9,8434.04,39303,1.04182e+06,1.04182e+06,2131.19,2131.19,2131.19
3.12048e-05	-44142.69	0,4.50675e-06,9.77851e-06,1.59452e-05,2.31586e-05,3.15965e-05,4.14668e-05,5.30125e-05,6.65181e-05,8.23163e-05,0.000100796,0.000122413,0.000147699,0.000177278,0.000211878,0.000252351,0.000299694,0.000355074,0.000419855,0.000495632,0.000584272,0.000687959,0.000809246,0.000951123,0.00111708,0.00131121,0.0015383,0.00180393,0.00211466,0.00247813,0.00290329,0.00340063,inf	3.86218,3.86218,2097.44,1583.64,981.314,2262.18,4475.67,6399.71,5732.15,4062.38,3370.81,2945.04,2867.33,3111.38,3618.41,4532.26,5154.44,4784.49,4437.3,4433.13,3872.37,3005.69,3053.85,3149.51,4549.98,9391.63,75510.5,1.04179e+06,1.04179e+06,992.772,992.772,992.772
