0.000774514	-16182773.35	0,2.11019e-06,4.88983e-06,8.55131e-06,1.33744e-05,1.97276e-05,2.80963e-05,3.912e-05,5.3641e-05,7.27687e-05,9.79646e-05,0.000131154,0.000174873,0.000232461,0.000308319,0.000408243,0.000539868,0.00071325,0.000941638,0.00124248,0.00163877,0.00216077,0.00284839,0.00375414,0.00494725,0.00651887,0.00858908,0.0113161,0.0149082,0.0196399,0.0258727,0.0340829,inf	460.669,460.669,914.899,490.875,321.702,163.748,77.0615,74.6842,83.1732,105.285,136.243,171.702,202.381,209.254,197.312,186.004,181.545,188.736,208.69,242.055,292.798,362.364,427.361,445.521,429.758,408.168,389.598,373.109,373.109,371.727,371.727,371.727
0.000808825	-16163087.32	0,2.11019e-06,4.88983e-06,8.55131e-06,1.33744e-05,1.97276e-05,2.80963e-05,3.912e-05,5.3641e-05,7.27687e-05,9.79646e-05,0.000131154,0.000174873,0.000232461,0.000308319,0.000408243,0.000539868,0.00071325,0.000941638,0.00124248,0.00163877,0.00216077,0.00284839,0.00375414,0.00494725,0.00651887,0.00858908,0.0113161,0.0149082,0.0196399,0.0258727,0.0340829,inf	404.068,404.068,1455.05,574.668,376.087,125.39,34.5208,29.9409,32.1438,49.6363,82.9235,131.805,184.271,194.937,169.601,146.634,133.419,137.338,158.751,198.744,265.195,367.583,483.075,528.044,507.79,471.145,436.288,403.763,403.763,411.839,411.839,411.839
0.000840652	-16155761.19	0,2.11019e-06,4.88983e-06,8.55131e-06,1.33744e-05,1.97276e-05,2.80963e-05,3.912e-05,5.3641e-05,7.27687e-05,9.79646e-05,0.000131154,0.000174873,0.000232461,0.000308319,0.000408243,0.000539868,0.00071325,0.000941638,0.00124248,0.00163877,0.00216077,0.00284839,0.00375414,0.00494725,0.00651887,0.00858908,0.0113161,0.0149082,0.0196399,0.0258727,0.0340829,inf	277.58,277.58,1775.79,584.978,441.319,107.962,20.9253,15.5203,14.9554,27.5296,58.8714,116.842,192.143,207.499,168.849,135.416,113.905,113.652,133.2,173.706,245.609,364.579,515.766,587.192,569.501,523.32,474.265,425.989,425.989,456.683,456.683,456.683
0.000869012	-16152418.64	0,2.11019e-06,4.88983e-06,8.55131e-06,1.33744e-05,1.97276e-05,2.80963e-05,3.912e-05,5.3641e-05,7.27687e-05,9.79646e-05,0.000131154,0.000174873,0.000232461,0.000308319,0.000408243,0.000539868,0.00071325,0.000941638,0.00124248,0.00163877,0.00216077,0.00284839,0.00375414,0.00494725,0.00651887,0.00858908,0.0113161,0.0149082,0.0196399,0.0258727,0.0340829,inf	172.526,172.526,1936.91,557.507,501.094,93.7044,14.1091,8.79589,7.47742,16.2902,44.1803,108.08,206.227,227.264,176.52,134.148,105.295,101.363,118.555,157.852,231.398,359.114,535.151,629.759,618.239,566.462,504.674,440.668,440.668,509.365,509.365,509.365
0.000894368	-16150670.30	0,2.11019e-06,4.88983e-06,8.55131e-06,1.33744e-05,1.97276e-05,2.80963e-05,3.912e-05,5.3641e-05,7.27687e-05,9.79646e-05,0.000131154,0.000174873,0.000232461,0.000308319,0.000408243,0.000539868,0.00071325,0.000941638,0.00124248,0.00163877,0.00216077,0.00284839,0.00375414,0.00494725,0.00651887,0.00858908,0.0113161,0.0149082,0.0196399,0.0258727,0.0340829,inf	103.291,103.291,2014.98,515.229,550.491,79.9602,9.88398,5.14608,3.86142,9.93437,33.8652,100.769,219.905,247.044,186.277,136.766,101.576,94.6048,109.595,147.243,220.867,353.276,546.715,660.788,657.007,602.294,528.683,448.909,448.909,574.393,574.393,574.393
0.000917315	-16149657.98	0,2.11019e-06,4.88983e-06,8.55131e-06,1.33744e-05,1.97276e-05,2.80963e-05,3.912e-05,5.3641e-05,7.27687e-05,9.79646e-05,0.000131154,0.000174873,0.000232461,0.000308319,0.000408243,0.000539868,0.00071325,0.000941638,0.00124248,0.00163877,0.00216077,0.00284839,0.00375414,0.00494725,0.00651887,0.00858908,0.0113161,0.0149082,0.0196399,0.0258727,0.0340829,inf	61.1313,61.1313,2055.41,469.872,589.841,67.0459,7.04631,3.05619,2.03706,6.18472,26.2639,93.8725,231.106,264.085,195.604,140.816,100.27,90.8338,103.903,139.883,212.921,347.799,553.542,683.702,688.127,632.232,547.315,451.866,451.866,659.819,659.819,659.819
0.000938349	-16149022.53	0,2.11019e-06,4.88983e-06,8.55131e-06,1.33744e-05,1.97276e-05,2.80963e-05,3.912e-05,5.3641e-05,7.27687e-05,9.79646e-05,0.000131154,0.000174873,0.000232461,0.000308319,0.000408243,0.000539868,0.00071325,0.000941638,0.00124248,0.00163877,0.00216077,0.00284839,0.00375414,0.00494725,0.00651887,0.00858908,0.0113161,0.0149082,0.0196399,0.0258727,0.0340829,inf	36.1161,36.1161,2079.34,426.302,620.84,55.4512,5.07448,1.83549,1.09539,3.92425,20.5907,87.3749,239.654,277.659,203.559,145.204,100.214,88.8013,100.227,134.655,206.839,342.909,557.42,700.805,713.33,657.392,561.441,450.651,450.651,783.953,783.953,783.953
0.000957858	-16148595.50	0,2.11019e-06,4.88983e-06,8.55131e-06,1.33744e-05,1.97276e-05,2.80963e-05,3.912e-05,5.3641e-05,7.27687e-05,9.79646e-05,0.000131154,0.000174873,0.000232461,0.000308319,0.000408243,0.000539868,0.00071325,0.000941638,0.00124248,0.00163877,0.00216077,0.00284839,0.00375414,0.00494725,0.00651887,0.00858908,0.0113161,0.0149082,0.0196399,0.0258727,0.0340829,inf	21.3799,21.3799,2095.9,386.337,645.063,45.3658,3.67863,1.11258,0.597403,2.53997,16.3405,81.4489,246.078,287.959,209.91,149.435,100.815,87.8345,97.8594,130.888,202.131,338.635,559.415,713.664,733.905,678.644,571.8,446.267,446.267,1005.62,1005.62,1005.62
0.000976133	-16148290.80	0,2.11019e-06,4.88983e-06,8.55131e-06,1.33744e-05,1.97276e-05,2.80963e-05,3.912e-05,5.3641e-05,7.27687e-05,9.79646e-05,0.000131154,0.000174873,0.000232461,0.000308319,0.000408243,0.000539868,0.00071325,0.000941638,0.00124248,0.00163877,0.00216077,0.00284839,0.00375414,0.00494725,0.00651887,0.00858908,0.0113161,0.0149082,0.0196399,0.0258727,0.0340829,inf	12.6844,12.6844,2108.68,350.465,663.826,36.7946,2.67989,0.679857,0.334112,1.67782,13.1442,76.2084,251.042,295.51,214.731,153.287,101.747,87.5432,96.3734,128.156,198.46,334.938,560.187,723.369,750.817,696.676,579.019,439.578,439.578,1712.24,1712.24,1712.24
0.000993397	-16148061.51	0,2.11019e-06,4.88983e-06,8.55131e-06,1.33744e-05,1.97276e-05,2.80963e-05,3.912e-05,5.3641e-05,7.27687e-05,9.79646e-05,0.000131154,0.000174873,0.000232461,0.000308319,0.000408243,0.000539868,0.00071325,0.000941638,0.00124248,0.00163877,0.00216077,0.00284839,0.00375414,0.00494725,0.00651887,0.00858908,0.0113161,0.0149082,0.0196399,0.0258727,0.0340829,inf	7.55255,7.55255,2119.33,318.509,678.125,29.6292,1.9587,0.417123,0.334092,1.13126,10.7237,71.6892,255.135,300.893,218.217,156.679,102.825,87.6873,95.4972,126.176,195.582,331.753,560.156,730.691,764.795,712.028,583.632,431.292,431.292,13975.3,13975.3,13975.3
0.000993397	-16147880.75	0,2.11019e-06,4.88983e-06,8.55131e-06,1.33744e-05,1.97276e-05,2.80963e-05,3.912e-05,5.3641e-05,7.27687e-05,9.79646e-05,0.000131154,0.000174873,0.000232461,0.000308319,0.000408243,0.000539868,0.00071325,0.000941638,0.00124248,0.00163877,0.00216077,0.00284839,0.00375414,0.00494725,0.00651887,0.00858908,0.0113161,0.0149082,0.0196399,0.0258727,0.0340829,inf	4.49476,4.49476,2117.04,288.754,685.421,23.5991,1.42827,0.334093,0.334092,0.774489,8.8328,67.5386,257.506,303.174,219.655,158.997,103.595,87.8472,94.7825,124.415,192.786,327.938,557.038,733.698,774.635,723.81,585.157,421.39,421.39,49589.5,49589.5,49589.5
