0.000806774	-16180976.22	0,4.88983e-06,1.33744e-05,2.80963e-05,5.3641e-05,9.79646e-05,0.000174873,0.000308319,0.000539868,0.000941638,0.00163877,0.00284839,0.00494725,0.00858908,0.0149082,0.0258727,inf	630.388,630.388,217.53,74.113,94.3737,155.897,206.76,184.89,178.166,216.674,323.315,463.52,425.484,397.085,397.085,397.085
0.000864863	-16159405.50	0,4.88983e-06,1.33744e-05,2.80963e-05,5.3641e-05,9.79646e-05,0.000174873,0.000308319,0.000539868,0.000941638,0.00163877,0.00284839,0.00494725,0.00858908,0.0149082,0.0258727,inf	837.628,837.628,197.516,30.8644,41.4417,112.744,197.843,152.983,130.731,171.202,302.524,542.767,496.813,446.608,446.608,446.608
0.00091284	-16152619.33	0,4.88983e-06,1.33744e-05,2.80963e-05,5.3641e-05,9.79646e-05,0.000174873,0.000308319,0.000539868,0.000941638,0.00163877,0.00284839,0.00494725,0.00858908,0.0149082,0.0258727,inf	922.036,922.036,194.661,16.444,21.6415,95.212,215.103,148.194,111.46,148.548,285.061,590.069,550.917,481.269,481.269,481.269
0.000952151	-16149982.15	0,4.88983e-06,1.33744e-05,2.80963e-05,5.3641e-05,9.79646e-05,0.000174873,0.000308319,0.000539868,0.000941638,0.00163877,0.00284839,0.00494725,0.00858908,0.0149082,0.0258727,inf	944.713,944.713,194.485,9.47943,12.1077,84.3893,237.902,151.816,102.717,135.909,271.932,618.575,592.203,501.958,501.958,501.958
0.000985041	-16148785.94	0,4.88983e-06,1.33744e-05,2.80963e-05,5.3641e-05,9.79646e-05,0.000174873,0.000308319,0.000539868,0.000941638,0.00163877,0.00284839,0.00494725,0.00858908,0.0149082,0.0258727,inf	944.618,944.618,193.561,5.60893,7.01248,75.866,259.076,157.887,98.679,128.419,262.194,635.896,624.147,510.741,510.741,510.741
0.00101326	-16148168.23	0,4.88983e-06,1.33744e-05,2.80963e-05,5.3641e-05,9.79646e-05,0.000174873,0.000308319,0.000539868,0.000941638,0.00163877,0.00284839,0.00494725,0.00858908,0.0149082,0.0258727,inf	937.722,937.722,191.513,3.35374,4.16451,68.6094,276.196,164.077,96.937,123.823,254.921,646.352,649.284,510.344,510.344,510.344
0.00103805	-16147809.15	0,4.88983e-06,1.33744e-05,2.80963e-05,5.3641e-05,9.79646e-05,0.000174873,0.000308319,0.000539868,0.000941638,0.00163877,0.00284839,0.00494725,0.00858908,0.0149082,0.0258727,inf	930.057,930.057,188.749,2.0197,2.53319,62.4535,289.134,169.556,96.4055,120.993,249.44,652.501,669.36,503.516,503.516,503.516
0.00106032	-16147576.04	0,4.88983e-06,1.33744e-05,2.80963e-05,5.3641e-05,9.79646e-05,0.000174873,0.000308319,0.000539868,0.000941638,0.00163877,0.00284839,0.00494725,0.00858908,0.0149082,0.0258727,inf	923.451,923.451,185.645,1.22464,1.57894,57.3496,298.573,174.08,96.5311,119.294,245.275,655.884,685.61,492.62,492.62,492.62
0.00108066	-16147408.80	0,4.88983e-06,1.33744e-05,2.80963e-05,5.3641e-05,9.79646e-05,0.000174873,0.000308319,0.000539868,0.000941638,0.00163877,0.00284839,0.00494725,0.00858908,0.0149082,0.0258727,inf	918.071,918.071,182.416,0.747654,1.0085,53.224,305.376,177.647,97.0102,118.349,242.09,657.463,698.917,479.463,479.463,479.463
0.00109951	-16147278.36	0,4.88983e-06,1.33744e-05,2.80963e-05,5.3641e-05,9.79646e-05,0.000174873,0.000308319,0.000539868,0.000941638,0.00163877,0.00284839,0.00494725,0.00858908,0.0149082,0.0258727,inf	913.588,913.588,179.175,0.402987,0.659542,49.966,310.281,180.352,97.6728,117.925,239.665,657.819,709.856,465.282,465.282,465.282
0.00111721	-16147169.94	0,4.88983e-06,1.33744e-05,2.80963e-05,5.3641e-05,9.79646e-05,0.000174873,0.000308319,0.000539868,0.000941638,0.00163877,0.00284839,0.00494725,0.00858908,0.0149082,0.0258727,inf	910.18,910.18,176.044,0.334092,0.355495,47.4647,313.923,182.316,98.4053,117.851,237.796,657.396,718.984,450.957,450.957,450.957
0.001134	-16147075.60	0,4.88983e-06,1.33744e-05,2.80963e-05,5.3641e-05,9.79646e-05,0.000174873,0.000308319,0.000539868,0.000941638,0.00163877,0.00284839,0.00494725,0.00858908,0.0149082,0.0258727,inf	907.287,907.287,172.929,0.334092,0.334092,45.6102,316.752,183.67,99.1484,118.021,236.357,656.457,726.658,437.001,437.001,437.001
0.00115004	-16146991.03	0,4.88983e-06,1.33744e-05,2.80963e-05,5.3641e-05,9.79646e-05,0.000174873,0.000308319,0.000539868,0.000941638,0.00163877,0.00284839,0.00494725,0.00858908,0.0149082,0.0258727,inf	904.727,904.727,169.795,0.334092,0.334092,44.2914,319.058,184.527,99.866,118.363,235.256,655.175,733.151,423.712,423.712,423.712
0.00116546	-16146913.64	0,4.88983e-06,1.33744e-05,2.80963e-05,5.3641e-05,9.79646e-05,0.000174873,0.000308319,0.000539868,0.000941638,0.00163877,0.00284839,0.00494725,0.00858908,0.0149082,0.0258727,inf	902.66,902.66,166.726,0.334092,0.334092,43.4229,321.046,184.986,100.538,118.824,234.421,653.669,738.677,411.248,411.248,411.248
0.00118036	-16146841.87	0,4.88983e-06,1.33744e-05,2.80963e-05,5.3641e-05,9.79646e-05,0.000174873,0.000308319,0.000539868,0.000941638,0.00163877,0.00284839,0.00494725,0.00858908,0.0149082,0.0258727,inf	900.898,900.898,163.713,0.334092,0.334092,42.9342,322.846,185.13,101.152,119.367,233.799,652.021,743.403,399.677,399.677,399.677
0.00119481	-16146774.72	0,4.88983e-06,1.33744e-05,2.80963e-05,5.3641e-05,9.79646e-05,0.000174873,0.000308319,0.000539868,0.000941638,0.00163877,0.00284839,0.00494725,0.00858908,0.0149082,0.0258727,inf	899.411,899.411,160.769,0.334092,0.334092,42.767,324.537,185.025,101.706,119.965,233.348,650.287,747.46,389.011,389.011,389.011
0.00120886	-16146711.48	0,4.88983e-06,1.33744e-05,2.80963e-05,5.3641e-05,9.79646e-05,0.000174873,0.000308319,0.000539868,0.000941638,0.00163877,0.00284839,0.00494725,0.00858908,0.0149082,0.0258727,inf	898.091,898.091,157.863,0.334092,0.334092,42.8716,326.167,184.729,102.197,120.599,233.035,648.505,750.956,379.231,379.231,379.231
0.00122258	-16146651.66	0,4.88983e-06,1.33744e-05,2.80963e-05,5.3641e-05,9.79646e-05,0.000174873,0.000308319,0.000539868,0.000941638,0.00163877,0.00284839,0.00494725,0.00858908,0.0149082,0.0258727,inf	896.972,896.972,154.998,0.334092,0.334092,43.2072,327.761,184.287,102.628,121.254,232.834,646.704,753.975,370.294,370.294,370.294
0.00123598	-16146594.89	0,4.88983e-06,1.33744e-05,2.80963e-05,5.3641e-05,9.79646e-05,0.000174873,0.000308319,0.000539868,0.000941638,0.00163877,0.00284839,0.00494725,0.00858908,0.0149082,0.0258727,inf	896.046,896.046,152.162,0.334092,0.334092,43.7401,329.332,183.735,103.002,121.92,232.726,644.9,756.588,362.152,362.152,362.152
0.0012491	-16146540.87	0,4.88983e-06,1.33744e-05,2.80963e-05,5.3641e-05,9.79646e-05,0.000174873,0.000308319,0.000539868,0.000941638,0.00163877,0.00284839,0.00494725,0.00858908,0.0149082,0.0258727,inf	895.326,895.326,149.353,0.334092,0.334092,44.4425,330.884,183.104,103.323,122.589,232.693,643.107,758.852,354.748,354.748,354.748
