0.000248452	-5948123.61	0,1.47652e-06,4.03851e-06,8.48392e-06,1.61973e-05,2.95812e-05,5.28042e-05,9.30995e-05,0.000163018,0.000284335,0.000494839,0.000860094,0.00149386,0.00259354,0.00450165,0.00781249,inf	777.925,777.925,284.698,271.709,282.499,289.801,323.214,385.684,507.449,762.216,1472.56,1744.99,1494.54,1259.33,1259.33,1259.33
0.00027077	-5935551.36	0,1.47652e-06,4.03851e-06,8.48392e-06,1.61973e-05,2.95812e-05,5.28042e-05,9.30995e-05,0.000163018,0.000284335,0.000494839,0.000860094,0.00149386,0.00259354,0.00450165,0.00781249,inf	1037.67,1037.67,212.899,221.859,216.436,193.596,198.01,228.821,327.162,591.302,1540.21,2180.01,1814.85,1286.38,1286.38,1286.38
0.000288755	-5931763.74	0,1.47652e-06,4.03851e-06,8.48392e-06,1.61973e-05,2.95812e-05,5.28042e-05,9.30995e-05,0.000163018,0.000284335,0.000494839,0.000860094,0.00149386,0.00259354,0.00450165,0.00781249,inf	1218.73,1218.73,193.866,245.761,233.84,188.979,174.1,180.085,252.498,497.723,1518.09,2467.68,2065.27,1216.82,1216.82,1216.82
0.000303649	-5930214.61	0,1.47652e-06,4.03851e-06,8.48392e-06,1.61973e-05,2.95812e-05,5.28042e-05,9.30995e-05,0.000163018,0.000284335,0.000494839,0.000860094,0.00149386,0.00259354,0.00450165,0.00781249,inf	1259.35,1259.35,170.281,271.793,264.171,205.684,177.858,164.411,216.874,441.629,1475.86,2665.98,2260.78,1099.99,1099.99,1099.99
0.000316489	-5929437.61	0,1.47652e-06,4.03851e-06,8.48392e-06,1.61973e-05,2.95812e-05,5.28042e-05,9.30995e-05,0.000163018,0.000284335,0.000494839,0.000860094,0.00149386,0.00259354,0.00450165,0.00781249,inf	1227.19,1227.19,140.101,282.694,287.76,225.715,191.159,161.701,198.839,405.775,1433.19,2808.92,2415.61,969.368,969.368,969.368
0.000327902	-5928991.81	0,1.47652e-06,4.03851e-06,8.48392e-06,1.61973e-05,2.95812e-05,5.28042e-05,9.30995e-05,0.000163018,0.000284335,0.000494839,0.000860094,0.00149386,0.00259354,0.00450165,0.00781249,inf	1182.31,1182.31,110.333,279.145,299.386,242.226,207.287,164.833,189.842,381.804,1394.97,2915.8,2541.83,841.152,841.152,841.152
0.000338266	-5928710.92	0,1.47652e-06,4.03851e-06,8.48392e-06,1.61973e-05,2.95812e-05,5.28042e-05,9.30995e-05,0.000163018,0.000284335,0.000494839,0.000860094,0.00149386,0.00259354,0.00450165,0.00781249,inf	1147.47,1147.47,85.2474,267.508,300.437,252.918,223.146,170.734,185.945,365.264,1361.81,2998.01,2649.63,720.598,720.598,720.598
0.00034781	-5928521.77	0,1.47652e-06,4.03851e-06,8.48392e-06,1.61973e-05,2.95812e-05,5.28042e-05,9.30995e-05,0.000163018,0.000284335,0.000494839,0.000860094,0.00149386,0.00259354,0.00450165,0.00781249,inf	1124.75,1124.75,65.7518,253.603,294.489,257.789,237.247,177.886,185.129,353.605,1333.14,3062.59,2747.87,605.396,605.396,605.396
0.000356668	-5928389.72	0,1.47652e-06,4.03851e-06,8.48392e-06,1.61973e-05,2.95812e-05,5.28042e-05,9.30995e-05,0.000163018,0.000284335,0.000494839,0.000860094,0.00149386,0.00259354,0.00450165,0.00781249,inf	1110.72,1110.72,51.1842,241.009,284.968,257.865,248.963,185.469,186.267,345.282,1308.18,3114.07,2845.71,484.446,484.446,484.446
0.000364827	-5928301.75	0,1.47652e-06,4.03851e-06,8.48392e-06,1.61973e-05,2.95812e-05,5.28042e-05,9.30995e-05,0.000163018,0.000284335,0.000494839,0.000860094,0.00149386,0.00259354,0.00450165,0.00781249,inf	1101.85,1101.85,40.4276,231.376,274.326,254.439,258.16,193.023,188.697,339.323,1286.18,3155.48,2957.96,315.274,315.274,315.274
0.000371789	-5928287.28	0,1.47652e-06,4.03851e-06,8.48392e-06,1.61973e-05,2.95812e-05,5.28042e-05,9.30995e-05,0.000163018,0.000284335,0.000494839,0.000860094,0.00149386,0.00259354,0.00450165,0.00781249,inf	1096.13,1096.13,32.4669,225.21,264.093,248.759,265.012,200.304,192.019,335.122,1266.38,3189.33,3142.11,26.2956,26.2956,26.2956
0.000377737	-5928683.84	0,1.47652e-06,4.03851e-06,8.48392e-06,1.61973e-05,2.95812e-05,5.28042e-05,9.30995e-05,0.000163018,0.000284335,0.000494839,0.000860094,0.00149386,0.00259354,0.00450165,0.00781249,inf	1094.51,1094.51,26.536,222.692,255.396,242.073,270.027,207.271,195.998,332.235,1248.42,3225.15,3757.86,8.2159,8.2159,8.2159
0.000383109	-5928302.72	0,1.47652e-06,4.03851e-06,8.48392e-06,1.61973e-05,2.95812e-05,5.28042e-05,9.30995e-05,0.000163018,0.000284335,0.000494839,0.000860094,0.00149386,0.00259354,0.00450165,0.00781249,inf	1092.09,1092.09,21.9618,222.753,247.841,234.541,273.028,213.537,200.205,329.976,1229.49,3225.66,4027.3,6.24224,6.24224,6.24224
0.000388377	-5928161.08	0,1.47652e-06,4.03851e-06,8.48392e-06,1.61973e-05,2.95812e-05,5.28042e-05,9.30995e-05,0.000163018,0.000284335,0.000494839,0.000860094,0.00149386,0.00259354,0.00450165,0.00781249,inf	1088.57,1088.57,18.3548,224.954,241.548,226.766,274.518,219.328,204.902,328.898,1213.99,3219.29,4113.36,4.20831,4.20831,4.20831
0.000393634	-5928098.06	0,1.47652e-06,4.03851e-06,8.48392e-06,1.61973e-05,2.95812e-05,5.28042e-05,9.30995e-05,0.000163018,0.000284335,0.000494839,0.000860094,0.00149386,0.00259354,0.00450165,0.00781249,inf	1083.48,1083.48,15.4507,228.824,236.365,218.983,274.611,224.477,209.88,328.747,1201.9,3213.6,4150.26,2.16409,2.16409,2.16409
0.000398867	-5928055.09	0,1.47652e-06,4.03851e-06,8.48392e-06,1.61973e-05,2.95812e-05,5.28042e-05,9.30995e-05,0.000163018,0.000284335,0.000494839,0.000860094,0.00149386,0.00259354,0.00450165,0.00781249,inf	1077.3,1077.3,13.0721,233.986,232.221,211.443,273.53,228.871,214.915,329.182,1192.22,3209.23,4168.02,1.10642,1.10642,1.10642
0.000404056	-5928020.02	0,1.47652e-06,4.03851e-06,8.48392e-06,1.61973e-05,2.95812e-05,5.28042e-05,9.30995e-05,0.000163018,0.000284335,0.000494839,0.000860094,0.00149386,0.00259354,0.00450165,0.00781249,inf	1069.96,1069.96,11.0964,240.148,229.05,204.36,271.576,232.517,219.876,329.971,1184.21,3206.02,4184.53,1.10642,1.10642,1.10642
0.000409185	-5927986.48	0,1.47652e-06,4.03851e-06,8.48392e-06,1.61973e-05,2.95812e-05,5.28042e-05,9.30995e-05,0.000163018,0.000284335,0.000494839,0.000860094,0.00149386,0.00259354,0.00450165,0.00781249,inf	1061.58,1061.58,9.43628,246.964,226.736,197.867,269.031,235.477,224.697,330.966,1177.33,3203.43,4198.92,1.10642,1.10642,1.10642
0.000414243	-5927955.53	0,1.47652e-06,4.03851e-06,8.48392e-06,1.61973e-05,2.95812e-05,5.28042e-05,9.30995e-05,0.000163018,0.000284335,0.000494839,0.000860094,0.00149386,0.00259354,0.00450165,0.00781249,inf	1052.36,1052.36,8.02205,254.117,225.158,192.027,266.144,237.843,229.355,332.081,1171.25,3201.21,4211.92,1.10642,1.10642,1.10642
0.000419223	-5927926.63	0,1.47652e-06,4.03851e-06,8.48392e-06,1.61973e-05,2.95812e-05,5.28042e-05,9.30995e-05,0.000163018,0.000284335,0.000494839,0.000860094,0.00149386,0.00259354,0.00450165,0.00781249,inf	1042.41,1042.41,6.8104,261.31,224.182,186.846,263.094,239.705,233.843,333.268,1165.76,3199.16,4223.98,1.10642,1.10642,1.10642
