time_index	left_time_boundary	right_time_boundary	lambda
0	0	6.37189e-07	2.15589
1	6.37189e-07	1.47652e-06	2.15589
2	1.47652e-06	2.58214e-06	3505.75
3	2.58214e-06	4.03851e-06	155.994
4	4.03851e-06	5.95691e-06	5.7719
5	5.95691e-06	8.48392e-06	9.84437
6	8.48392e-06	1.18126e-05	93.088
7	1.18126e-05	1.61973e-05	318.867
8	1.61973e-05	2.19731e-05	300.957
9	2.19731e-05	2.95812e-05	198.317
10	2.95812e-05	3.9603e-05	176.532
11	3.9603e-05	5.28042e-05	206.674
12	5.28042e-05	7.01935e-05	253.239
13	7.01935e-05	9.30995e-05	276.909
14	9.30995e-05	0.000123272	252.448
15	0.000123272	0.000163018	213.961
16	0.000163018	0.000215372	198.584
17	0.000215372	0.000284335	217.059
18	0.000284335	0.000375178	273.518
19	0.000375178	0.000494839	410.957
20	0.000494839	0.000652464	757.224
21	0.000652464	0.000860094	1622.16
22	0.000860094	0.00113359	3183.96
23	0.00113359	0.00149386	3701.13
24	0.00149386	0.00196843	3628.83
25	0.00196843	0.00259354	3081.82
26	0.00259354	0.00341698	2061.88
27	0.00341698	0.00450165	1309.89
28	0.00450165	0.00593043	1309.89
29	0.00593043	0.00781249	1.10642
30	0.00781249	0.0102916	1.10642
31	0.0102916	inf	1.10642
