0.000717767	-85771308.16	0,2.65909e-06,6.11023e-06,1.05894e-05,1.64027e-05,2.39475e-05,3.37398e-05,4.64488e-05,6.29434e-05,8.43511e-05,0.000112136,0.000148196,0.000194998,0.00025574,0.000334575,0.000436893,0.000569687,0.000742036,0.000965722,0.00125604,0.00163283,0.00212185,0.00275653,0.00358027,0.00464937,0.00603692,0.00783777,0.010175,0.0132085,0.0171455,0.0222552,0.0288869,inf	227.147,227.147,341.766,378.243,378.481,377.68,375.279,369.454,363.346,357.553,352.164,348.24,346.241,346.132,348.27,353.321,361.801,373.598,387.599,401.936,414.56,423.444,427.153,426.075,422.456,417.72,412.969,410.961,410.961,423.834,423.834,423.834
0.000804781	-85728863.25	0,2.65909e-06,6.11023e-06,1.05894e-05,1.64027e-05,2.39475e-05,3.37398e-05,4.64488e-05,6.29434e-05,8.43511e-05,0.000112136,0.000148196,0.000194998,0.00025574,0.000334575,0.000436893,0.000569687,0.000742036,0.000965722,0.00125604,0.00163283,0.00212185,0.00275653,0.00358027,0.00464937,0.00603692,0.00783777,0.010175,0.0132085,0.0171455,0.0222552,0.0288869,inf	153.357,153.357,322.452,386.241,385.924,386.423,383.972,374.9,364.985,354.978,345.137,337.482,332.672,330.564,331.795,337.498,348.466,364.431,383.587,403.289,420.97,434.015,440.139,439.387,434.635,427.558,419.955,417.453,417.453,444.723,444.723,444.723
0.000885911	-85698218.24	0,2.65909e-06,6.11023e-06,1.05894e-05,1.64027e-05,2.39475e-05,3.37398e-05,4.64488e-05,6.29434e-05,8.43511e-05,0.000112136,0.000148196,0.000194998,0.00025574,0.000334575,0.000436893,0.000569687,0.000742036,0.000965722,0.00125604,0.00163283,0.00212185,0.00275653,0.00358027,0.00464937,0.00603692,0.00783777,0.010175,0.0132085,0.0171455,0.0222552,0.0288869,inf	111.747,111.747,306.24,389.481,388.011,391.571,391.313,381.708,370.601,358.612,346.245,336.39,329.764,326.095,326.285,331.835,343.677,361.319,382.407,403.935,423.396,438.224,445.775,445.729,440.94,432.761,423.419,421.269,421.269,463.721,463.721,463.721
0.000961767	-85674329.20	0,2.65909e-06,6.11023e-06,1.05894e-05,1.64027e-05,2.39475e-05,3.37398e-05,4.64488e-05,6.29434e-05,8.43511e-05,0.000112136,0.000148196,0.000194998,0.00025574,0.000334575,0.000436893,0.000569687,0.000742036,0.000965722,0.00125604,0.00163283,0.00212185,0.00275653,0.00358027,0.00464937,0.00603692,0.00783777,0.010175,0.0132085,0.0171455,0.0222552,0.0288869,inf	87.4239,87.4239,292.945,388.464,384.325,391.138,393.839,385.179,374.495,362.053,348.621,337.837,330.354,325.763,325.233,330.566,342.746,361.031,382.61,404.336,423.997,439.333,447.619,448.273,443.883,435.233,424.804,423.463,423.463,481.536,481.536,481.536
0.00103291	-85655033.21	0,2.65909e-06,6.11023e-06,1.05894e-05,1.64027e-05,2.39475e-05,3.37398e-05,4.64488e-05,6.29434e-05,8.43511e-05,0.000112136,0.000148196,0.000194998,0.00025574,0.000334575,0.000436893,0.000569687,0.000742036,0.000965722,0.00125604,0.00163283,0.00212185,0.00275653,0.00358027,0.00464937,0.00603692,0.00783777,0.010175,0.0132085,0.0171455,0.0222552,0.0288869,inf	73.1312,73.1312,283.818,386.334,377.903,387.371,392.835,385.605,376.085,364.018,350.442,339.594,331.954,326.975,326.08,331.317,343.67,362.132,383.514,404.656,423.744,438.905,447.475,448.716,444.867,436.066,424.939,424.649,424.649,498.647,498.647,498.647
0.00109984	-85639114.70	0,2.65909e-06,6.11023e-06,1.05894e-05,1.64027e-05,2.39475e-05,3.37398e-05,4.64488e-05,6.29434e-05,8.43511e-05,0.000112136,0.000148196,0.000194998,0.00025574,0.000334575,0.000436893,0.000569687,0.000742036,0.000965722,0.00125604,0.00163283,0.00212185,0.00275653,0.00358027,0.00464937,0.00603692,0.00783777,0.010175,0.0132085,0.0171455,0.0222552,0.0288869,inf	64.7529,64.7529,279.043,385.12,371.136,382.505,390.165,384.297,376.115,364.748,351.514,341.107,333.756,328.756,327.772,333.046,345.528,363.941,384.781,404.961,423.101,437.724,446.292,447.991,444.698,435.902,424.314,425.195,425.195,515.401,515.401,515.401
0.00116296	-85625788.43	0,2.65909e-06,6.11023e-06,1.05894e-05,1.64027e-05,2.39475e-05,3.37398e-05,4.64488e-05,6.29434e-05,8.43511e-05,0.000112136,0.000148196,0.000194998,0.00025574,0.000334575,0.000436893,0.000569687,0.000742036,0.000965722,0.00125604,0.00163283,0.00212185,0.00275653,0.00358027,0.00464937,0.00603692,0.00783777,0.010175,0.0132085,0.0171455,0.0222552,0.0288869,inf	59.9621,59.9621,277.899,385.455,365.132,377.838,387.071,382.289,375.327,364.7,352.019,342.318,335.501,330.711,329.826,335.245,347.848,366.095,386.221,405.269,422.292,436.192,444.584,446.625,443.851,435.13,423.227,425.327,425.327,532.06,532.06,532.06
0.0012226	-85614505.84	0,2.65909e-06,6.11023e-06,1.05894e-05,1.64027e-05,2.39475e-05,3.37398e-05,4.64488e-05,6.29434e-05,8.43511e-05,0.000112136,0.000148196,0.000194998,0.00025574,0.000334575,0.000436893,0.000569687,0.000742036,0.000965722,0.00125604,0.00163283,0.00212185,0.00275653,0.00358027,0.00464937,0.00603692,0.00783777,0.010175,0.0132085,0.0171455,0.0222552,0.0288869,inf	57.3394,57.3394,279.415,387.165,360.205,373.905,384.202,380.191,374.231,364.25,352.169,343.285,337.123,332.672,332.009,337.645,350.372,368.391,387.723,405.578,421.428,434.52,442.63,444.921,442.611,433.989,421.86,425.188,425.188,548.839,548.839,548.839
0.00127906	-85604865.41	0,2.65909e-06,6.11023e-06,1.05894e-05,1.64027e-05,2.39475e-05,3.37398e-05,4.64488e-05,6.29434e-05,8.43511e-05,0.000112136,0.000148196,0.000194998,0.00025574,0.000334575,0.000436893,0.000569687,0.000742036,0.000965722,0.00125604,0.00163283,0.00212185,0.00275653,0.00358027,0.00464937,0.00603692,0.00783777,0.010175,0.0132085,0.0171455,0.0222552,0.0288869,inf	56.0435,56.0435,282.722,389.826,356.284,370.845,381.843,378.327,373.128,363.643,352.135,344.089,338.621,334.572,334.201,340.102,352.954,370.712,389.219,405.88,420.56,432.821,440.589,443.058,441.15,432.629,420.33,424.872,424.872,565.923,565.923,565.923
0.00133261	-85596563.79	0,2.65909e-06,6.11023e-06,1.05894e-05,1.64027e-05,2.39475e-05,3.37398e-05,4.64488e-05,6.29434e-05,8.43511e-05,0.000112136,0.000148196,0.000194998,0.00025574,0.000334575,0.000436893,0.000569687,0.000742036,0.000965722,0.00125604,0.00163283,0.00212185,0.00275653,0.00358027,0.00464937,0.00603692,0.00783777,0.010175,0.0132085,0.0171455,0.0222552,0.0288869,inf	55.582,55.582,287.138,393.05,353.201,368.607,380.066,376.824,372.178,363.026,352.029,344.795,340.012,336.387,336.344,342.533,355.512,372.991,390.672,406.168,419.716,431.152,438.549,441.14,439.577,431.146,418.71,424.44,424.44,583.484,583.484,583.484
0.00138345	-85589366.75	0,2.65909e-06,6.11023e-06,1.05894e-05,1.64027e-05,2.39475e-05,3.37398e-05,4.64488e-05,6.29434e-05,8.43511e-05,0.000112136,0.000148196,0.000194998,0.00025574,0.000334575,0.000436893,0.000569687,0.000742036,0.000965722,0.00125604,0.00163283,0.00212185,0.00275653,0.00358027,0.00464937,0.00603692,0.00783777,0.010175,0.0132085,0.0171455,0.0222552,0.0288869,inf	55.6263,55.6263,292.146,396.448,350.747,367.07,378.839,375.724,371.447,362.485,351.926,345.451,341.318,338.109,338.409,344.897,357.997,375.189,392.06,406.439,418.907,429.545,436.56,439.23,437.961,429.602,417.049,423.934,423.934,601.69,601.69,601.69
0.00143179	-85583090.09	0,2.65909e-06,6.11023e-06,1.05894e-05,1.64027e-05,2.39475e-05,3.37398e-05,4.64488e-05,6.29434e-05,8.43511e-05,0.000112136,0.000148196,0.000194998,0.00025574,0.000334575,0.000436893,0.000569687,0.000742036,0.000965722,0.00125604,0.00163283,0.00212185,0.00275653,0.00358027,0.00464937,0.00603692,0.00783777,0.010175,0.0132085,0.0171455,0.0222552,0.0288869,inf	55.9743,55.9743,297.436,399.795,348.73,366.101,378.091,374.998,370.952,362.061,351.864,346.091,342.558,339.745,340.383,347.17,360.386,377.286,393.371,406.688,418.139,428.013,434.646,437.366,436.344,428.038,415.378,423.383,423.383,620.719,620.719,620.719
0.00147781	-85577587.10	0,2.65909e-06,6.11023e-06,1.05894e-05,1.64027e-05,2.39475e-05,3.37398e-05,4.64488e-05,6.29434e-05,8.43511e-05,0.000112136,0.000148196,0.000194998,0.00025574,0.000334575,0.000436893,0.000569687,0.000742036,0.000965722,0.00125604,0.00163283,0.00212185,0.00275653,0.00358027,0.00464937,0.00603692,0.00783777,0.010175,0.0132085,0.0171455,0.0222552,0.0288869,inf	56.5107,56.5107,302.781,402.941,347.034,365.583,377.747,374.614,370.684,361.764,351.867,346.737,343.749,341.297,342.264,349.343,362.664,379.273,394.601,406.916,417.41,426.563,432.823,435.566,434.753,426.48,413.717,422.806,422.806,640.759,640.759,640.759
0.00152165	-85572739.39	0,2.65909e-06,6.11023e-06,1.05894e-05,1.64027e-05,2.39475e-05,3.37398e-05,4.64488e-05,6.29434e-05,8.43511e-05,0.000112136,0.000148196,0.000194998,0.00025574,0.000334575,0.000436893,0.000569687,0.000742036,0.000965722,0.00125604,0.00163283,0.00212185,0.00275653,0.00358027,0.00464937,0.00603692,0.00783777,0.010175,0.0132085,0.0171455,0.0222552,0.0288869,inf	57.1874,57.1874,308.047,405.772,345.552,365.411,377.731,374.519,370.623,361.594,351.945,347.398,344.898,342.774,344.052,351.41,364.829,381.148,395.749,407.12,416.721,425.195,431.094,433.844,433.204,424.945,412.079,422.217,422.217,662.029,662.029,662.029
0.00156348	-85568450.54	0,2.65909e-06,6.11023e-06,1.05894e-05,1.64027e-05,2.39475e-05,3.37398e-05,4.64488e-05,6.29434e-05,8.43511e-05,0.000112136,0.000148196,0.000194998,0.00025574,0.000334575,0.000436893,0.000569687,0.000742036,0.000965722,0.00125604,0.00163283,0.00212185,0.00275653,0.00358027,0.00464937,0.00603692,0.00783777,0.010175,0.0132085,0.0171455,0.0222552,0.0288869,inf	57.8964,57.8964,313.178,408.215,344.213,365.5,377.969,374.663,370.739,361.543,352.099,348.082,346.017,344.182,345.751,353.374,366.879,382.911,396.818,407.302,416.07,423.907,429.461,432.204,431.708,423.443,410.473,421.626,421.626,684.783,684.783,684.783
0.00160341	-85564641.23	0,2.65909e-06,6.11023e-06,1.05894e-05,1.64027e-05,2.39475e-05,3.37398e-05,4.64488e-05,6.29434e-05,8.43511e-05,0.000112136,0.000148196,0.000194998,0.00025574,0.000334575,0.000436893,0.000569687,0.000742036,0.000965722,0.00125604,0.00163283,0.00212185,0.00275653,0.00358027,0.00464937,0.00603692,0.00783777,0.010175,0.0132085,0.0171455,0.0222552,0.0288869,inf	58.678,58.678,318.142,410.296,342.989,365.78,378.407,375.003,371.003,361.595,352.324,348.791,347.108,345.528,347.364,355.238,368.819,384.567,397.811,407.463,415.454,422.695,427.92,430.648,430.269,421.982,408.903,421.04,421.04,709.331,709.331,709.331
0.00164156	-85561245.72	0,2.65909e-06,6.11023e-06,1.05894e-05,1.64027e-05,2.39475e-05,3.37398e-05,4.64488e-05,6.29434e-05,8.43511e-05,0.000112136,0.000148196,0.000194998,0.00025574,0.000334575,0.000436893,0.000569687,0.000742036,0.000965722,0.00125604,0.00163283,0.00212185,0.00275653,0.00358027,0.00464937,0.00603692,0.00783777,0.010175,0.0132085,0.0171455,0.0222552,0.0288869,inf	59.4674,59.4674,322.951,412.012,341.824,366.204,378.991,375.496,371.388,361.737,352.615,349.524,348.177,346.816,348.898,357.005,370.651,386.12,398.732,407.603,414.872,421.554,426.469,429.174,428.89,420.564,407.372,420.464,420.464,736.063,736.063,736.063
0.00167804	-85558209.13	0,2.65909e-06,6.11023e-06,1.05894e-05,1.64027e-05,2.39475e-05,3.37398e-05,4.64488e-05,6.29434e-05,8.43511e-05,0.000112136,0.000148196,0.000194998,0.00025574,0.000334575,0.000436893,0.000569687,0.000742036,0.000965722,0.00125604,0.00163283,0.00212185,0.00275653,0.00358027,0.00464937,0.00603692,0.00783777,0.010175,0.0132085,0.0171455,0.0222552,0.0288869,inf	60.2665,60.2665,327.62,413.403,340.721,366.743,379.697,376.112,371.875,361.958,352.965,350.281,349.227,348.05,350.357,358.682,372.382,387.577,399.586,407.725,414.32,420.481,425.103,427.78,427.572,419.193,405.882,419.9,419.9,765.473,765.473,765.473
0.00171295	-85555485.30	0,2.65909e-06,6.11023e-06,1.05894e-05,1.64027e-05,2.39475e-05,3.37398e-05,4.64488e-05,6.29434e-05,8.43511e-05,0.000112136,0.000148196,0.000194998,0.00025574,0.000334575,0.000436893,0.000569687,0.000742036,0.000965722,0.00125604,0.00163283,0.00212185,0.00275653,0.00358027,0.00464937,0.00603692,0.00783777,0.010175,0.0132085,0.0171455,0.0222552,0.0288869,inf	61.0734,61.0734,332.169,414.485,339.647,367.358,380.484,376.819,372.436,362.244,353.367,351.059,350.257,349.236,351.745,360.272,374.018,388.943,400.378,407.829,413.796,419.471,423.816,426.463,426.313,417.868,404.432,419.352,419.352,798.235,798.235,798.235
0.00174639	-85553035.28	0,2.65909e-06,6.11023e-06,1.05894e-05,1.64027e-05,2.39475e-05,3.37398e-05,4.64488e-05,6.29434e-05,8.43511e-05,0.000112136,0.000148196,0.000194998,0.00025574,0.000334575,0.000436893,0.000569687,0.000742036,0.000965722,0.00125604,0.00163283,0.00212185,0.00275653,0.00358027,0.00464937,0.00603692,0.00783777,0.010175,0.0132085,0.0171455,0.0222552,0.0288869,inf	61.8698,61.8698,336.622,415.293,338.608,368.031,381.328,377.595,373.055,362.581,353.815,351.854,351.269,350.375,353.068,361.782,375.564,390.224,401.111,407.918,413.299,418.519,422.605,425.218,425.112,416.589,403.021,418.821,418.821,835.262,835.262,835.262
