LogLikelihood = -1343041.2483722856268

y0 0.80652091191523245239
y0_prime 0
y1 0.80127112178869075443
y1_prime 0
y2 0.85905908328665303575
y2_prime 0
y3 1.5751290208286805594
y3_prime 0
rho 0.0020172351582131951842
theta 0.0043892574415152017103
