AIC = 3060179.6446641692892

y0 0.92944414699716559891
y0_prime 0
y1 1.0616345887823803729
y1_prime 0
y2 0.91382398423419330946
y2_prime 0
y3 1.7228313347124672994
y3_prime 0
rho 0.0016373431676855742817
rho.alpha 2.4937458362197197914
r_ii 0.99999999998597555173
theta 0.0050515194219360442379
