AIC = 1831025.4748323897365

y0 0.9330504359637298295
y0_prime 0
y1 1.0414356806042621706
y1_prime 0
y2 0.92587195161313240455
y2_prime 0
y3 1.6884542280820165061
y3_prime 0
rho 0.0014217471007502470188
theta 0.0050392642800155288893
