0.000678391	-13556289.45	0,4.02361e-06,1.10051e-05,2.31191e-05,4.41386e-05,8.06104e-05,0.000143894,0.000253701,0.000444231,0.000774829,0.00134846,0.0023438,0.00407085,0.00706754,0.0122672,0.0212894,inf	242.019,242.019,340.469,378.017,369.387,359.22,352.472,347.646,359.962,392.028,440.929,438.38,410.729,385.928,385.928,385.928
0.000733527	-13553180.82	0,4.02361e-06,1.10051e-05,2.31191e-05,4.41386e-05,8.06104e-05,0.000143894,0.000253701,0.000444231,0.000774829,0.00134846,0.0023438,0.00407085,0.00706754,0.0122672,0.0212894,inf	174.362,174.362,322.067,390.486,373.794,355.855,342.664,328.303,340.205,382.267,458.198,454.311,409.896,370.277,370.277,370.277
0.0007829	-13551260.52	0,4.02361e-06,1.10051e-05,2.31191e-05,4.41386e-05,8.06104e-05,0.000143894,0.000253701,0.000444231,0.000774829,0.00134846,0.0023438,0.00407085,0.00706754,0.0122672,0.0212894,inf	134.617,134.617,307.325,402.834,381.064,360.181,344.549,321.996,331.003,375.439,467.478,462.395,407.2,358.607,358.607,358.607
0.000827792	-13549864.67	0,4.02361e-06,1.10051e-05,2.31191e-05,4.41386e-05,8.06104e-05,0.000143894,0.000253701,0.000444231,0.000774829,0.00134846,0.0023438,0.00407085,0.00706754,0.0122672,0.0212894,inf	109.491,109.491,292.075,409.237,384.083,363.766,349.247,320.732,326.826,370.608,472.94,466.622,404.104,350.013,350.013,350.013
0.000869008	-13548780.58	0,4.02361e-06,1.10051e-05,2.31191e-05,4.41386e-05,8.06104e-05,0.000143894,0.000253701,0.000444231,0.000774829,0.00134846,0.0023438,0.00407085,0.00706754,0.0122672,0.0212894,inf	93.6262,93.6262,277.999,411.464,383.114,365.101,354.038,321.53,325.283,367.112,476.42,468.851,401.124,343.682,343.682,343.682
0.000907078	-13547910.36	0,4.02361e-06,1.10051e-05,2.31191e-05,4.41386e-05,8.06104e-05,0.000143894,0.000253701,0.000444231,0.000774829,0.00134846,0.0023438,0.00407085,0.00706754,0.0122672,0.0212894,inf	83.7314,83.7314,266.346,411.916,379.727,364.502,358.163,323.152,325.203,364.51,478.78,469.982,398.408,338.992,338.992,338.992
0.000942379	-13547197.59	0,4.02361e-06,1.10051e-05,2.31191e-05,4.41386e-05,8.06104e-05,0.000143894,0.000253701,0.000444231,0.000774829,0.00134846,0.0023438,0.00407085,0.00706754,0.0122672,0.0212894,inf	77.6369,77.6369,257.369,412.131,375.227,362.614,361.515,325.047,325.965,362.512,480.458,470.479,395.968,335.492,335.492,335.492
0.000975202	-13546605.55	0,4.02361e-06,1.10051e-05,2.31191e-05,4.41386e-05,8.06104e-05,0.000143894,0.000253701,0.000444231,0.000774829,0.00134846,0.0023438,0.00407085,0.00706754,0.0122672,0.0212894,inf	73.9381,73.9381,250.761,412.841,370.434,359.988,364.184,326.967,327.215,360.931,481.694,470.594,393.775,332.86,332.86,332.86
0.00100578	-13546108.57	0,4.02361e-06,1.10051e-05,2.31191e-05,4.41386e-05,8.06104e-05,0.000143894,0.000253701,0.000444231,0.000774829,0.00134846,0.0023438,0.00407085,0.00706754,0.0122672,0.0212894,inf	71.7355,71.7355,246.033,414.26,365.782,357.018,366.302,328.795,328.747,359.644,482.632,470.474,391.791,330.867,330.867,330.867
0.00103432	-13545687.87	0,4.02361e-06,1.10051e-05,2.31191e-05,4.41386e-05,8.06104e-05,0.000143894,0.000253701,0.000444231,0.000774829,0.00134846,0.0023438,0.00407085,0.00706754,0.0122672,0.0212894,inf	70.453,70.453,242.684,416.345,361.475,353.963,367.997,330.48,330.434,358.567,483.363,470.208,389.981,329.349,329.349,329.349
0.001061	-13545329.30	0,4.02361e-06,1.10051e-05,2.31191e-05,4.41386e-05,8.06104e-05,0.000143894,0.000253701,0.000444231,0.000774829,0.00134846,0.0023438,0.00407085,0.00706754,0.0122672,0.0212894,inf	69.7033,69.7033,240.32,418.966,357.586,350.981,369.37,332.007,332.198,357.644,483.945,469.853,388.318,328.188,328.188,328.188
0.00108595	-13545021.89	0,4.02361e-06,1.10051e-05,2.31191e-05,4.41386e-05,8.06104e-05,0.000143894,0.000253701,0.000444231,0.000774829,0.00134846,0.0023438,0.00407085,0.00706754,0.0122672,0.0212894,inf	69.2777,69.2777,238.607,421.957,354.116,348.164,370.503,333.373,333.989,356.835,484.419,469.446,386.777,327.297,327.297,327.297
0.00110933	-13544757.02	0,4.02361e-06,1.10051e-05,2.31191e-05,4.41386e-05,8.06104e-05,0.000143894,0.000253701,0.000444231,0.000774829,0.00134846,0.0023438,0.00407085,0.00706754,0.0122672,0.0212894,inf	69.0259,69.0259,237.324,425.182,351.04,345.563,371.457,334.584,335.773,356.111,484.814,469.012,385.342,326.611,326.611,326.611
0.00113125	-13544527.81	0,4.02361e-06,1.10051e-05,2.31191e-05,4.41386e-05,8.06104e-05,0.000143894,0.000253701,0.000444231,0.000774829,0.00134846,0.0023438,0.00407085,0.00706754,0.0122672,0.0212894,inf	68.8682,68.8682,236.308,428.513,348.314,343.198,372.279,335.651,337.533,355.452,485.152,468.569,383.998,326.084,326.084,326.084
0.00115182	-13544328.66	0,4.02361e-06,1.10051e-05,2.31191e-05,4.41386e-05,8.06104e-05,0.000143894,0.000253701,0.000444231,0.000774829,0.00134846,0.0023438,0.00407085,0.00706754,0.0122672,0.0212894,inf	68.7442,68.7442,235.459,431.857,345.895,341.075,373.003,336.583,339.254,354.843,485.445,468.127,382.734,325.68,325.68,325.68
0.00117114	-13544155.02	0,4.02361e-06,1.10051e-05,2.31191e-05,4.41386e-05,8.06104e-05,0.000143894,0.000253701,0.000444231,0.000774829,0.00134846,0.0023438,0.00407085,0.00706754,0.0122672,0.0212894,inf	68.656,68.656,234.693,435.13,343.742,339.188,373.652,337.393,340.93,354.273,485.706,467.694,381.542,325.372,325.372,325.372
0.00118931	-13544003.14	0,4.02361e-06,1.10051e-05,2.31191e-05,4.41386e-05,8.06104e-05,0.000143894,0.000253701,0.000444231,0.000774829,0.00134846,0.0023438,0.00407085,0.00706754,0.0122672,0.0212894,inf	68.5735,68.5735,233.979,438.29,341.814,337.524,374.247,338.09,342.557,353.733,485.942,467.275,380.415,325.139,325.139,325.139
0.00120639	-13543869.90	0,4.02361e-06,1.10051e-05,2.31191e-05,4.41386e-05,8.06104e-05,0.000143894,0.000253701,0.000444231,0.000774829,0.00134846,0.0023438,0.00407085,0.00706754,0.0122672,0.0212894,inf	68.5015,68.5015,233.282,441.303,340.083,336.07,374.801,338.687,344.131,353.217,486.158,466.875,379.346,324.966,324.966,324.966
0.00122247	-13543752.68	0,4.02361e-06,1.10051e-05,2.31191e-05,4.41386e-05,8.06104e-05,0.000143894,0.000253701,0.000444231,0.000774829,0.00134846,0.0023438,0.00407085,0.00706754,0.0122672,0.0212894,inf	68.4565,68.4565,232.596,444.154,338.515,334.809,375.323,339.19,345.655,352.72,486.36,466.494,378.331,324.84,324.84,324.84
0.00123761	-13543649.31	0,4.02361e-06,1.10051e-05,2.31191e-05,4.41386e-05,8.06104e-05,0.000143894,0.000253701,0.000444231,0.000774829,0.00134846,0.0023438,0.00407085,0.00706754,0.0122672,0.0212894,inf	68.4083,68.4083,231.91,446.833,337.091,333.724,375.821,339.611,347.127,352.237,486.551,466.134,377.366,324.752,324.752,324.752
