time_index	left_time_boundary	right_time_boundary	lambda
0	0	4.48429e-05	633.051
1	4.48429e-05	0.000106202	633.051
2	0.000106202	0.000190161	567.573
3	0.000190161	0.000305043	711.755
4	0.000305043	0.000462237	767.141
5	0.000462237	0.000677329	803.282
6	0.000677329	0.000971642	877.124
7	0.000971642	0.00137436	871.405
8	0.00137436	0.00192539	747.988
9	0.00192539	0.00267939	650.614
10	0.00267939	0.00371109	623.455
11	0.00371109	0.00512278	963.91
12	0.00512278	0.00705442	1768.45
13	0.00705442	0.00969751	115340
14	0.00969751	0.0133141	115340
15	0.0133141	inf	115340
