0.000365153	-7752924.36	0,8.92409e-07,2.06793e-06,3.61639e-06,5.6561e-06,8.34289e-06,1.18821e-05,1.65441e-05,2.2685e-05,3.07743e-05,4.14297e-05,5.54657e-05,7.39545e-05,9.83089e-05,0.00013039,0.000172648,0.000228313,0.000301637,0.000398223,0.000525452,0.000693043,0.000913802,0.0012046,0.00158765,0.00209222,0.00275686,0.00363237,0.00478562,0.00630475,0.00830581,0.0109417,0.0144138,inf	3536.25,3536.25,448.502,314.446,424.652,545.845,657.504,732.245,747.888,720.826,690.525,673.417,668.138,669.739,676.39,688.856,707.243,730.173,755.887,782.365,806.705,822.752,825.254,821.45,816.913,808.19,794.866,767.108,767.108,695.18,695.18,695.18
0.000411092	-7749320.84	0,8.92409e-07,2.06793e-06,3.61639e-06,5.6561e-06,8.34289e-06,1.18821e-05,1.65441e-05,2.2685e-05,3.07743e-05,4.14297e-05,5.54657e-05,7.39545e-05,9.83089e-05,0.00013039,0.000172648,0.000228313,0.000301637,0.000398223,0.000525452,0.000693043,0.000913802,0.0012046,0.00158765,0.00209222,0.00275686,0.00363237,0.00478562,0.00630475,0.00830581,0.0109417,0.0144138,inf	4101.49,4101.49,166.399,144.375,265.055,434.566,624.363,766.243,793.222,736.279,677.82,645.729,634.268,633.473,640.182,655.93,680.919,712.696,748.359,785.01,818.811,840.365,841.902,835.99,830.56,817.796,796.111,749.672,749.672,630.711,630.711,630.711
0.000454177	-7746643.17	0,8.92409e-07,2.06793e-06,3.61639e-06,5.6561e-06,8.34289e-06,1.18821e-05,1.65441e-05,2.2685e-05,3.07743e-05,4.14297e-05,5.54657e-05,7.39545e-05,9.83089e-05,0.00013039,0.000172648,0.000228313,0.000301637,0.000398223,0.000525452,0.000693043,0.000913802,0.0012046,0.00158765,0.00209222,0.00275686,0.00363237,0.00478562,0.00630475,0.00830581,0.0109417,0.0144138,inf	3960.76,3960.76,61.0644,69.0016,171.213,355.232,603.624,810.208,847.931,762.259,680.727,638.542,623.709,621.459,627.719,644.849,673.086,709.022,748.899,789.478,826.747,849.411,848.78,841.666,836.946,822.613,795.706,736.848,736.848,583.701,583.701,583.701
0.000494615	-7744542.51	0,8.92409e-07,2.06793e-06,3.61639e-06,5.6561e-06,8.34289e-06,1.18821e-05,1.65441e-05,2.2685e-05,3.07743e-05,4.14297e-05,5.54657e-05,7.39545e-05,9.83089e-05,0.00013039,0.000172648,0.000228313,0.000301637,0.000398223,0.000525452,0.000693043,0.000913802,0.0012046,0.00158765,0.00209222,0.00275686,0.00363237,0.00478562,0.00630475,0.00830581,0.0109417,0.0144138,inf	3711.34,3711.34,22.4962,33.5978,111.878,291.461,581.087,847.171,894.401,782.599,683.47,635.678,620.179,617.901,624.254,642.464,672.767,710.886,752.421,794.103,832.067,853.805,850.591,842.705,839.321,824.719,794.626,727.72,727.72,547.531,547.531,547.531
0.000532642	-7742850.10	0,8.92409e-07,2.06793e-06,3.61639e-06,5.6561e-06,8.34289e-06,1.18821e-05,1.65441e-05,2.2685e-05,3.07743e-05,4.14297e-05,5.54657e-05,7.39545e-05,9.83089e-05,0.00013039,0.000172648,0.000228313,0.000301637,0.000398223,0.000525452,0.000693043,0.000913802,0.0012046,0.00158765,0.00209222,0.00275686,0.00363237,0.00478562,0.00630475,0.00830581,0.0109417,0.0144138,inf	3479.55,3479.55,8.36649,16.653,73.9348,240.021,557.166,876.339,930.828,795.437,683.309,633.246,618.997,617.773,624.766,644.08,675.922,715.233,757.133,798.519,835.807,855.649,849.763,841.301,839.429,825.241,793.315,721.486,721.486,518.453,518.453,518.453
0.000568468	-7741462.21	0,8.92409e-07,2.06793e-06,3.61639e-06,5.6561e-06,8.34289e-06,1.18821e-05,1.65441e-05,2.2685e-05,3.07743e-05,4.14297e-05,5.54657e-05,7.39545e-05,9.83089e-05,0.00013039,0.000172648,0.000228313,0.000301637,0.000398223,0.000525452,0.000693043,0.000913802,0.0012046,0.00158765,0.00209222,0.00275686,0.00363237,0.00478562,0.00630475,0.00830581,0.0109417,0.0144138,inf	3283.95,3283.95,3.15373,8.43113,49.5642,199.061,534.105,900.371,959.274,802.264,680.625,630.529,618.729,619.233,627.232,647.686,680.762,720.699,762.259,802.635,838.561,856.061,847.559,838.615,838.228,824.796,791.959,717.499,717.499,494.199,494.199,494.199
0.000602281	-7740308.57	0,8.92409e-07,2.06793e-06,3.61639e-06,5.6561e-06,8.34289e-06,1.18821e-05,1.65441e-05,2.2685e-05,3.07743e-05,4.14297e-05,5.54657e-05,7.39545e-05,9.83089e-05,0.00013039,0.000172648,0.000228313,0.000301637,0.000398223,0.000525452,0.000693043,0.000913802,0.0012046,0.00158765,0.00209222,0.00275686,0.00363237,0.00478562,0.00630475,0.00830581,0.0109417,0.0144138,inf	3121.15,3121.15,1.19922,4.37201,33.7704,166.682,513.382,921.732,982.062,804.865,676.247,627.596,618.924,621.52,630.717,652.304,686.396,726.598,767.421,806.428,840.662,855.653,844.659,835.274,836.257,823.742,790.631,715.268,715.268,473.314,473.314,473.314
0.000634241	-7739339.10	0,8.92409e-07,2.06793e-06,3.61639e-06,5.6561e-06,8.34289e-06,1.18821e-05,1.65441e-05,2.2685e-05,3.07743e-05,4.14297e-05,5.54657e-05,7.39545e-05,9.83089e-05,0.00013039,0.000172648,0.000228313,0.000301637,0.000398223,0.000525452,0.000693043,0.000913802,0.0012046,0.00158765,0.00209222,0.00275686,0.00363237,0.00478562,0.00630475,0.00830581,0.0109417,0.0144138,inf	2984.48,2984.48,0.790037,2.31728,23.4047,141.083,495.605,942.107,1000.95,804.657,670.916,624.634,619.434,624.279,634.742,657.411,692.339,732.566,772.426,809.9,842.308,854.769,841.432,831.626,833.834,822.289,789.354,714.422,714.422,454.824,454.824,454.824
0.000664494	-7738516.88	0,8.92409e-07,2.06793e-06,3.61639e-06,5.6561e-06,8.34289e-06,1.18821e-05,1.65441e-05,2.2685e-05,3.07743e-05,4.14297e-05,5.54657e-05,7.39545e-05,9.83089e-05,0.00013039,0.000172648,0.000228313,0.000301637,0.000398223,0.000525452,0.000693043,0.000913802,0.0012046,0.00158765,0.00209222,0.00275686,0.00363237,0.00478562,0.00630475,0.00830581,0.0109417,0.0144138,inf	2868,2868,0.790037,1.24644,16.5045,120.736,480.787,962.512,1017.1,802.588,665.14,621.799,620.215,627.329,639.044,662.713,698.324,738.405,777.179,813.069,843.627,853.615,838.088,827.87,831.152,820.569,788.128,714.685,714.685,438.047,438.047,438.047
0.000693166	-7737814.02	0,8.92409e-07,2.06793e-06,3.61639e-06,5.6561e-06,8.34289e-06,1.18821e-05,1.65441e-05,2.2685e-05,3.07743e-05,4.14297e-05,5.54657e-05,7.39545e-05,9.83089e-05,0.00013039,0.000172648,0.000228313,0.000301637,0.000398223,0.000525452,0.000693043,0.000913802,0.0012046,0.00158765,0.00209222,0.00275686,0.00363237,0.00478562,0.00630475,0.00830581,0.0109417,0.0144138,inf	2767.66,2767.66,0.790037,0.790014,11.8196,104.404,468.736,983.346,1031.18,799.273,659.221,619.191,621.241,630.563,643.469,668.036,704.195,744.008,781.638,815.957,844.701,852.313,834.749,824.122,828.328,818.67,786.947,715.855,715.855,422.482,422.482,422.482
0.000720373	-7737209.09	0,8.92409e-07,2.06793e-06,3.61639e-06,5.6561e-06,8.34289e-06,1.18821e-05,1.65441e-05,2.2685e-05,3.07743e-05,4.14297e-05,5.54657e-05,7.39545e-05,9.83089e-05,0.00013039,0.000172648,0.000228313,0.000301637,0.000398223,0.000525452,0.000693043,0.000913802,0.0012046,0.00158765,0.00209222,0.00275686,0.00363237,0.00478562,0.00630475,0.00830581,0.0109417,0.0144138,inf	2679.87,2679.87,0.790037,0.790014,8.59448,91.1601,459.126,1004.84,1043.65,795.15,653.363,616.869,622.486,633.923,647.925,673.281,709.867,749.324,785.79,818.59,845.59,850.942,831.48,820.446,825.439,816.648,785.806,717.783,717.783,407.747,407.747,407.747
0.000746216	-7736685.31	0,8.92409e-07,2.06793e-06,3.61639e-06,5.6561e-06,8.34289e-06,1.18821e-05,1.65441e-05,2.2685e-05,3.07743e-05,4.14297e-05,5.54657e-05,7.39545e-05,9.83089e-05,0.00013039,0.000172648,0.000228313,0.000301637,0.000398223,0.000525452,0.000693043,0.000913802,0.0012046,0.00158765,0.00209222,0.00275686,0.00363237,0.00478562,0.00630475,0.00830581,0.0109417,0.0144138,inf	2602.65,2602.65,0.790037,0.790014,6.33523,80.3193,451.601,1026.95,1054.73,790.436,647.676,614.857,623.945,637.364,652.352,678.387,715.292,754.329,789.641,820.993,846.336,849.551,828.322,816.88,822.532,814.545,784.697,720.363,720.363,393.535,393.535,393.535
0.00077079	-7736229.41	0,8.92409e-07,2.06793e-06,3.61639e-06,5.6561e-06,8.34289e-06,1.18821e-05,1.65441e-05,2.2685e-05,3.07743e-05,4.14297e-05,5.54657e-05,7.39545e-05,9.83089e-05,0.00013039,0.000172648,0.000228313,0.000301637,0.000398223,0.000525452,0.000693043,0.000913802,0.0012046,0.00158765,0.00209222,0.00275686,0.00363237,0.00478562,0.00630475,0.00830581,0.0109417,0.0144138,inf	2534.07,2534.07,0.790037,0.790014,4.72861,71.3275,445.836,1049.58,1064.63,785.328,642.224,613.156,625.59,640.856,656.716,683.319,720.451,759.022,793.203,823.19,846.971,848.17,825.294,813.444,819.642,812.388,783.618,723.525,723.525,379.585,379.585,379.585
0.000794179	-7735830.77	0,8.92409e-07,2.06793e-06,3.61639e-06,5.6561e-06,8.34289e-06,1.18821e-05,1.65441e-05,2.2685e-05,3.07743e-05,4.14297e-05,5.54657e-05,7.39545e-05,9.83089e-05,0.00013039,0.000172648,0.000228313,0.000301637,0.000398223,0.000525452,0.000693043,0.000913802,0.0012046,0.00158765,0.00209222,0.00275686,0.00363237,0.00478562,0.00630475,0.00830581,0.0109417,0.0144138,inf	2472.55,2472.55,0.790037,0.790014,3.57041,63.8073,441.586,1072.65,1073.39,779.965,637.04,611.76,627.414,644.38,660.99,688.058,725.335,763.408,796.495,825.203,847.519,846.822,822.406,810.146,816.786,810.201,782.565,727.224,727.224,365.659,365.659,365.659
0.00081646	-7735480.81	0,8.92409e-07,2.06793e-06,3.61639e-06,5.6561e-06,8.34289e-06,1.18821e-05,1.65441e-05,2.2685e-05,3.07743e-05,4.14297e-05,5.54657e-05,7.39545e-05,9.83089e-05,0.00013039,0.000172648,0.000228313,0.000301637,0.000398223,0.000525452,0.000693043,0.000913802,0.0012046,0.00158765,0.00209222,0.00275686,0.00363237,0.00478562,0.00630475,0.00830581,0.0109417,0.0144138,inf	2417,2417,0.790037,0.790014,2.7222,57.448,438.584,1096.05,1081.08,774.401,632.137,610.659,629.392,647.913,665.16,692.597,729.947,767.501,799.534,827.051,847.998,845.518,819.66,806.99,813.98,807.998,781.54,731.441,731.441,351.526,351.526,351.526
0.000837703	-7735172.57	0,8.92409e-07,2.06793e-06,3.61639e-06,5.6561e-06,8.34289e-06,1.18821e-05,1.65441e-05,2.2685e-05,3.07743e-05,4.14297e-05,5.54657e-05,7.39545e-05,9.83089e-05,0.00013039,0.000172648,0.000228313,0.000301637,0.000398223,0.000525452,0.000693043,0.000913802,0.0012046,0.00158765,0.00209222,0.00275686,0.00363237,0.00478562,0.00630475,0.00830581,0.0109417,0.0144138,inf	2367.03,2367.03,0.790037,0.790014,2.09212,52.0084,436.649,1119.61,1087.8,768.703,627.523,609.824,631.505,651.442,669.216,696.932,734.294,771.314,802.342,828.753,848.422,844.265,817.054,803.973,811.232,805.792,780.545,736.185,736.185,336.942,336.942,336.942
0.000857972	-7734900.38	0,8.92409e-07,2.06793e-06,3.61639e-06,5.6561e-06,8.34289e-06,1.18821e-05,1.65441e-05,2.2685e-05,3.07743e-05,4.14297e-05,5.54657e-05,7.39545e-05,9.83089e-05,0.00013039,0.000172648,0.000228313,0.000301637,0.000398223,0.000525452,0.000693043,0.000913802,0.0012046,0.00158765,0.00209222,0.00275686,0.00363237,0.00478562,0.00630475,0.00830581,0.0109417,0.0144138,inf	2321.2,2321.2,0.790037,0.790014,1.6181,47.3377,435.609,1143.25,1093.51,762.913,623.188,609.243,633.738,654.958,673.152,701.066,738.387,774.868,804.937,830.325,848.803,843.068,814.585,801.093,808.547,803.594,779.586,741.487,741.487,321.63,321.63,321.63
0.000877325	-7734659.61	0,8.92409e-07,2.06793e-06,3.61639e-06,5.6561e-06,8.34289e-06,1.18821e-05,1.65441e-05,2.2685e-05,3.07743e-05,4.14297e-05,5.54657e-05,7.39545e-05,9.83089e-05,0.00013039,0.000172648,0.000228313,0.000301637,0.000398223,0.000525452,0.000693043,0.000913802,0.0012046,0.00158765,0.00209222,0.00275686,0.00363237,0.00478562,0.00630475,0.00830581,0.0109417,0.0144138,inf	2279.34,2279.34,0.790037,0.790014,1.25701,43.289,435.314,1166.83,1098.3,757.054,619.117,608.896,636.074,658.45,676.967,705.003,742.237,778.177,807.335,831.78,849.15,841.929,812.246,798.344,805.927,801.413,778.671,747.413,747.413,305.258,305.258,305.258
0.000895816	-7734446.61	0,8.92409e-07,2.06793e-06,3.61639e-06,5.6561e-06,8.34289e-06,1.18821e-05,1.65441e-05,2.2685e-05,3.07743e-05,4.14297e-05,5.54657e-05,7.39545e-05,9.83089e-05,0.00013039,0.000172648,0.000228313,0.000301637,0.000398223,0.000525452,0.000693043,0.000913802,0.0012046,0.00158765,0.00209222,0.00275686,0.00363237,0.00478562,0.00630475,0.00830581,0.0109417,0.0144138,inf	2241.17,2241.17,0.790037,0.790014,0.983795,39.7488,435.662,1190.3,1102.25,751.176,615.299,608.765,638.502,661.913,680.66,708.75,745.858,781.258,809.554,833.13,849.471,840.849,810.032,795.718,803.373,799.257,777.815,754.073,754.073,287.388,287.388,287.388
0.000913494	-7734258.56	0,8.92409e-07,2.06793e-06,3.61639e-06,5.6561e-06,8.34289e-06,1.18821e-05,1.65441e-05,2.2685e-05,3.07743e-05,4.14297e-05,5.54657e-05,7.39545e-05,9.83089e-05,0.00013039,0.000172648,0.000228313,0.000301637,0.000398223,0.000525452,0.000693043,0.000913802,0.0012046,0.00158765,0.00209222,0.00275686,0.00363237,0.00478562,0.00630475,0.00830581,0.0109417,0.0144138,inf	2206.14,2206.14,0.790037,0.790014,0.790018,36.6414,436.574,1213.53,1105.43,745.311,611.725,608.82,641.007,665.337,684.23,712.314,749.262,784.128,811.61,834.388,849.769,839.826,807.936,793.211,800.888,797.136,777.038,761.643,761.643,267.42,267.42,267.42
