LogLikelihood = -220645.52616599126486

y0 0.69186965820554391371
y0_prime 0
y1 1.0651250765538526899
y1_prime 0
y2 1.0759684898370462935
y2_prime 0
y3 2.1006121453828834333
y3_prime 0
rho 2.2900156655987536795e-05
theta 0.00053271290513065474442
