AIC = 3070385.5289651770145

y0 0.50408505647545276407
y0_prime 0
y1 1.1355571867759115534
y1_prime 0
y2 0.74797796606636635097
y2_prime 0
y3 1.6060063329040681346
y3_prime 0
rho 0.0071410391553063910786
rho.alpha 0.29143510519800075453
r_ii 0.9998421405683020069
theta 0.0050107891488902550278
