0.000667643	-310512.30	0,9.30815e-05,0.000220446,0.000394721,0.000633185,0.000959478,0.00140595,0.00201686,0.00285278,0.00399659,0.00556167,0.0077032,0.0106335,0.014643,0.0201294,0.0276364,inf	189.083,189.083,277.559,308.038,332.871,375.123,414.166,443.063,447.022,440.743,437.315,415.266,356.237,300.155,300.155,300.155
0.000701313	-310432.35	0,9.30815e-05,0.000220446,0.000394721,0.000633185,0.000959478,0.00140595,0.00201686,0.00285278,0.00399659,0.00556167,0.0077032,0.0106335,0.014643,0.0201294,0.0276364,inf	131.233,131.233,252.637,282.837,306.665,364.548,421.055,467.788,475.585,468.806,469.297,426.624,315.565,234.997,234.997,234.997
0.000731536	-310404.95	0,9.30815e-05,0.000220446,0.000394721,0.000633185,0.000959478,0.00140595,0.00201686,0.00285278,0.00399659,0.00556167,0.0077032,0.0106335,0.014643,0.0201294,0.0276364,inf	106.477,106.477,252.718,275.6,292.629,357.816,422.699,480.299,490.518,485.715,494.409,432.121,278.276,188.294,188.294,188.294
0.000759113	-310391.36	0,9.30815e-05,0.000220446,0.000394721,0.000633185,0.000959478,0.00140595,0.00201686,0.00285278,0.00399659,0.00556167,0.0077032,0.0106335,0.014643,0.0201294,0.0276364,inf	92.6012,92.6012,261.21,274.686,284.013,353.464,422.422,486.568,497.704,495.68,515.014,434.087,246.506,153.509,153.509,153.509
0.000784748	-310383.12	0,9.30815e-05,0.000220446,0.000394721,0.000633185,0.000959478,0.00140595,0.00201686,0.00285278,0.00399659,0.00556167,0.0077032,0.0106335,0.014643,0.0201294,0.0276364,inf	83.2656,83.2656,272.253,275.924,278.19,350.78,421.658,489.668,500.499,501.339,532.8,434.426,220.79,127.114,127.114,127.114
0.000808892	-310377.89	0,9.30815e-05,0.000220446,0.000394721,0.000633185,0.000959478,0.00140595,0.00201686,0.00285278,0.00399659,0.00556167,0.0077032,0.0106335,0.014643,0.0201294,0.0276364,inf	76.2679,76.2679,283.52,277.671,273.963,349.311,420.973,491.149,500.77,504.288,548.911,434.563,200.838,107.283,107.283,107.283
0.000831809	-310374.68	0,9.30815e-05,0.000220446,0.000394721,0.000633185,0.000959478,0.00140595,0.00201686,0.00285278,0.00399659,0.00556167,0.0077032,0.0106335,0.014643,0.0201294,0.0276364,inf	70.7328,70.7328,294.112,279.282,270.724,348.732,420.557,491.792,499.552,505.466,564.048,435.396,185.974,92.936,92.936,92.936
0.000853642	-310372.61	0,9.30815e-05,0.000220446,0.000394721,0.000633185,0.000959478,0.00140595,0.00201686,0.00285278,0.00399659,0.00556167,0.0077032,0.0106335,0.014643,0.0201294,0.0276364,inf	66.2493,66.2493,303.75,280.535,268.139,348.807,420.438,491.99,497.421,505.405,578.532,437.255,175.306,83.0913,83.0913,83.0913
0.000874469	-310370.87	0,9.30815e-05,0.000220446,0.000394721,0.000633185,0.000959478,0.00140595,0.00201686,0.00285278,0.00399659,0.00556167,0.0077032,0.0106335,0.014643,0.0201294,0.0276364,inf	62.5831,62.5831,312.417,281.381,266.008,349.355,420.584,491.942,494.7,504.399,592.387,439.937,167.822,76.6561,76.6561,76.6561
0.000894356	-310368.90	0,9.30815e-05,0.000220446,0.000394721,0.000633185,0.000959478,0.00140595,0.00201686,0.00285278,0.00399659,0.00556167,0.0077032,0.0106335,0.014643,0.0201294,0.0276364,inf	59.5751,59.5751,320.196,281.84,264.201,350.244,420.951,491.757,491.594,502.629,605.487,442.936,162.536,72.5791,72.5791,72.5791
0.000913371	-310366.58	0,9.30815e-05,0.000220446,0.000394721,0.000633185,0.000959478,0.00140595,0.00201686,0.00285278,0.00399659,0.00556167,0.0077032,0.0106335,0.014643,0.0201294,0.0276364,inf	57.1027,57.1027,327.197,281.957,262.634,351.378,421.497,491.509,488.248,500.246,617.715,445.749,158.659,70.0328,70.0328,70.0328
0.000931584	-310363.98	0,9.30815e-05,0.000220446,0.000394721,0.000633185,0.000959478,0.00140595,0.00201686,0.00285278,0.00399659,0.00556167,0.0077032,0.0106335,0.014643,0.0201294,0.0276364,inf	55.0706,55.0706,333.535,281.786,261.249,352.683,422.188,491.25,484.776,497.392,629.037,448.043,155.649,68.4523,68.4523,68.4523
0.000949066	-310361.29	0,9.30815e-05,0.000220446,0.000394721,0.000633185,0.000959478,0.00140595,0.00201686,0.00285278,0.00399659,0.00556167,0.0077032,0.0106335,0.014643,0.0201294,0.0276364,inf	53.3995,53.3995,339.314,281.374,260.003,354.107,422.996,491.017,481.269,494.197,639.498,449.672,153.183,67.4797,67.4797,67.4797
0.000965876	-310358.61	0,9.30815e-05,0.000220446,0.000394721,0.000633185,0.000959478,0.00140595,0.00201686,0.00285278,0.00399659,0.00556167,0.0077032,0.0106335,0.014643,0.0201294,0.0276364,inf	52.026,52.026,344.622,280.765,258.866,355.605,423.895,490.83,477.791,490.774,649.187,450.624,151.078,66.8941,66.8941,66.8941
0.000982067	-310356.03	0,9.30815e-05,0.000220446,0.000394721,0.000633185,0.000959478,0.00140595,0.00201686,0.00285278,0.00399659,0.00556167,0.0077032,0.0106335,0.014643,0.0201294,0.0276364,inf	50.8981,50.8981,349.539,279.997,257.815,357.147,424.859,490.7,474.385,487.213,658.208,450.956,149.239,66.5586,66.5586,66.5586
0.000997681	-310353.58	0,9.30815e-05,0.000220446,0.000394721,0.000633185,0.000959478,0.00140595,0.00201686,0.00285278,0.00399659,0.00556167,0.0077032,0.0106335,0.014643,0.0201294,0.0276364,inf	49.9728,49.9728,354.123,279.103,256.835,358.704,425.868,490.629,471.077,483.58,666.66,450.753,147.615,66.3865,66.3865,66.3865
0.00101276	-310351.28	0,9.30815e-05,0.000220446,0.000394721,0.000633185,0.000959478,0.00140595,0.00201686,0.00285278,0.00399659,0.00556167,0.0077032,0.0106335,0.014643,0.0201294,0.0276364,inf	49.2147,49.2147,358.429,278.11,255.912,360.259,426.904,490.614,467.882,479.923,674.63,450.104,146.178,66.3216,66.3216,66.3216
0.00102732	-310349.13	0,9.30815e-05,0.000220446,0.000394721,0.000633185,0.000959478,0.00140595,0.00201686,0.00285278,0.00399659,0.00556167,0.0077032,0.0106335,0.014643,0.0201294,0.0276364,inf	48.5942,48.5942,362.499,277.04,255.039,361.798,427.953,490.65,464.807,476.277,682.193,449.091,144.913,66.3262,66.3262,66.3262
0.00104141	-310347.13	0,9.30815e-05,0.000220446,0.000394721,0.000633185,0.000959478,0.00140595,0.00201686,0.00285278,0.00399659,0.00556167,0.0077032,0.0106335,0.014643,0.0201294,0.0276364,inf	48.0878,48.0878,366.366,275.913,254.208,363.31,429.003,490.732,461.853,472.666,689.411,447.784,143.806,66.3748,66.3748,66.3748
0.00105503	-310345.28	0,9.30815e-05,0.000220446,0.000394721,0.000633185,0.000959478,0.00140595,0.00201686,0.00285278,0.00399659,0.00556167,0.0077032,0.0106335,0.014643,0.0201294,0.0276364,inf	47.6751,47.6751,370.058,274.744,253.415,364.788,430.044,490.854,459.017,469.105,696.332,446.241,142.849,66.4493,66.4493,66.4493
