time_index	left_time_boundary	right_time_boundary	lambda
0	0	5.06532e-05	728.078
1	5.06532e-05	0.000119963	728.078
2	0.000119963	0.0002148	1189.61
3	0.0002148	0.000344567	756.089
4	0.000344567	0.000522129	652.323
5	0.000522129	0.00076509	940.116
6	0.00076509	0.00109754	817.653
7	0.00109754	0.00155243	805.275
8	0.00155243	0.00217487	817.931
9	0.00217487	0.00302656	734.574
10	0.00302656	0.00419193	525.677
11	0.00419193	0.00578654	523.046
12	0.00578654	0.00796846	1248.02
13	0.00796846	0.010954	102119
14	0.010954	0.0150392	102119
15	0.0150392	inf	102119
