0.000274761	-7686033.14	0,2.10213e-06,5.74962e-06,1.20785e-05,2.30601e-05,4.21148e-05,7.51773e-05,0.000132546,0.000232088,0.000404808,0.000704502,0.00122451,0.00212681,0.00369243,0.00640899,0.0111226,inf	546.523,546.523,687.253,767.519,691.695,666.469,730.16,768.56,790.274,794.09,811.214,807.994,746.523,687.967,687.967,687.967
0.000236131	-7683067.37	0,2.10213e-06,5.74962e-06,1.20785e-05,2.30601e-05,4.21148e-05,7.51773e-05,0.000132546,0.000232088,0.000404808,0.000704502,0.00122451,0.00212681,0.00369243,0.00640899,0.0111226,inf	556.566,556.566,635.819,876.067,696.07,636.648,717.852,767.813,798.352,794.892,833.472,840.855,731.074,637.918,637.918,637.918
0.000204591	-7680802.93	0,2.10213e-06,5.74962e-06,1.20785e-05,2.30601e-05,4.21148e-05,7.51773e-05,0.000132546,0.000232088,0.000404808,0.000704502,0.00122451,0.00212681,0.00369243,0.00640899,0.0111226,inf	611.513,611.513,541.506,1024.18,723.916,640.77,722.438,773.144,807.801,787.948,846.612,871.348,723.365,609.986,609.986,609.986
0.000179306	-7679076.69	0,2.10213e-06,5.74962e-06,1.20785e-05,2.30601e-05,4.21148e-05,7.51773e-05,0.000132546,0.000232088,0.000404808,0.000704502,0.00122451,0.00212681,0.00369243,0.00640899,0.0111226,inf	676.662,676.662,418.95,1183.79,754.098,661.101,735.581,782.452,820.753,778.383,853.833,897.475,718.356,595.334,595.334,595.334
0.00015949	-7677812.54	0,2.10213e-06,5.74962e-06,1.20785e-05,2.30601e-05,4.21148e-05,7.51773e-05,0.000132546,0.000232088,0.000404808,0.000704502,0.00122451,0.00212681,0.00369243,0.00640899,0.0111226,inf	739.801,739.801,297.355,1333.5,776.578,686.948,750.748,792.296,836.327,768.494,857.68,919.033,713.018,588.724,588.724,588.724
0.000144325	-7676937.85	0,2.10213e-06,5.74962e-06,1.20785e-05,2.30601e-05,4.21148e-05,7.51773e-05,0.000132546,0.000232088,0.000404808,0.000704502,0.00122451,0.00212681,0.00369243,0.00640899,0.0111226,inf	797.532,797.532,197.398,1464.86,790.44,714.037,765.542,801.115,853.301,759.25,859.714,936.85,706.228,586.926,586.926,586.926
0.000132969	-7676368.60	0,2.10213e-06,5.74962e-06,1.20785e-05,2.30601e-05,4.21148e-05,7.51773e-05,0.000132546,0.000232088,0.000404808,0.000704502,0.00122451,0.00212681,0.00369243,0.00640899,0.0111226,inf	847.123,847.123,124.494,1574.12,796.678,739.761,778.634,807.96,870.29,750.929,860.695,951.856,698.116,587.803,587.803,587.803
0.00012462	-7676019.56	0,2.10213e-06,5.74962e-06,1.20785e-05,2.30601e-05,4.21148e-05,7.51773e-05,0.000132546,0.000232088,0.000404808,0.000704502,0.00122451,0.00212681,0.00369243,0.00640899,0.0111226,inf	887.394,887.394,75.5005,1661.67,797.046,762.705,789.495,812.527,886.207,743.611,860.977,964.69,689.419,589.954,589.954,589.954
0.000118572	-7675817.07	0,2.10213e-06,5.74962e-06,1.20785e-05,2.30601e-05,4.21148e-05,7.51773e-05,0.000132546,0.000232088,0.000404808,0.000704502,0.00122451,0.00212681,0.00369243,0.00640899,0.0111226,inf	918.605,918.605,44.4399,1729.89,793.358,782.305,798.152,814.982,900.393,737.327,860.76,975.668,680.954,592.505,592.505,592.505
0.00011424	-7675705.46	0,2.10213e-06,5.74962e-06,1.20785e-05,2.30601e-05,4.21148e-05,7.51773e-05,0.000132546,0.000232088,0.000404808,0.000704502,0.00122451,0.00212681,0.00369243,0.00640899,0.0111226,inf	942.036,942.036,25.5747,1782.32,787.194,798.521,804.895,815.728,912.568,732.068,860.211,984.923,673.322,594.967,594.967,594.967
0.000111163	-7675646.93	0,2.10213e-06,5.74962e-06,1.20785e-05,2.30601e-05,4.21148e-05,7.51773e-05,0.000132546,0.000232088,0.000404808,0.000704502,0.00122451,0.00212681,0.00369243,0.00640899,0.0111226,inf	959.08,959.08,14.4718,1822.42,779.786,811.671,810.124,815.248,922.722,727.78,859.477,992.556,666.832,597.111,597.111,597.111
0.000108989	-7675617.84	0,2.10213e-06,5.74962e-06,1.20785e-05,2.30601e-05,4.21148e-05,7.51773e-05,0.000132546,0.000232088,0.000404808,0.000704502,0.00122451,0.00212681,0.00369243,0.00640899,0.0111226,inf	971.243,971.243,8.08486,1853,771.969,822.158,814.187,813.971,931.005,724.367,858.681,998.7,661.549,598.864,598.864,598.864
0.000107461	-7675604.35	0,2.10213e-06,5.74962e-06,1.20785e-05,2.30601e-05,4.21148e-05,7.51773e-05,0.000132546,0.000232088,0.000404808,0.000704502,0.00122451,0.00212681,0.00369243,0.00640899,0.0111226,inf	979.838,979.838,4.47615,1876.52,764.29,830.441,817.409,812.256,937.651,721.701,857.911,1003.54,657.39,600.238,600.238,600.238
0.000106393	-7675598.76	0,2.10213e-06,5.74962e-06,1.20785e-05,2.30601e-05,4.21148e-05,7.51773e-05,0.000132546,0.000232088,0.000404808,0.000704502,0.00122451,0.00212681,0.00369243,0.00640899,0.0111226,inf	986.131,986.131,2.46213,1895.74,757.486,837.358,820.412,810.75,943.226,719.697,857.122,1007.4,654.286,601.351,601.351,601.351
0.000105642	-7675596.91	0,2.10213e-06,5.74962e-06,1.20785e-05,2.30601e-05,4.21148e-05,7.51773e-05,0.000132546,0.000232088,0.000404808,0.000704502,0.00122451,0.00212681,0.00369243,0.00640899,0.0111226,inf	990.017,990.017,1.3457,1909.69,750.826,842.319,822.482,808.827,947.349,718.135,856.487,1010.25,651.876,602.132,602.132,602.132
0.000105117	-7675596.80	0,2.10213e-06,5.74962e-06,1.20785e-05,2.30601e-05,4.21148e-05,7.51773e-05,0.000132546,0.000232088,0.000404808,0.000704502,0.00122451,0.00212681,0.00369243,0.00640899,0.0111226,inf	992.387,992.387,0.777191,1920.65,744.859,846.11,824.151,806.943,950.501,716.955,856.004,1012.36,650.068,602.692,602.692,602.692
0.00010475	-7675597.37	0,2.10213e-06,5.74962e-06,1.20785e-05,2.30601e-05,4.21148e-05,7.51773e-05,0.000132546,0.000232088,0.000404808,0.000704502,0.00122451,0.00212681,0.00369243,0.00640899,0.0111226,inf	994.028,994.028,0.777144,1929.43,739.637,849.024,825.567,805.228,952.926,716.069,855.64,1013.91,648.736,603.095,603.095,603.095
0.000104513	-7675598.11	0,2.10213e-06,5.74962e-06,1.20785e-05,2.30601e-05,4.21148e-05,7.51773e-05,0.000132546,0.000232088,0.000404808,0.000704502,0.00122451,0.00212681,0.00369243,0.00640899,0.0111226,inf	995.458,995.458,0.777144,1937.11,735.254,851.534,827.13,803.957,955.45,715.811,856.104,1015.71,648.124,603.581,603.581,603.581
0.000104333	-7675599.34	0,2.10213e-06,5.74962e-06,1.20785e-05,2.30601e-05,4.21148e-05,7.51773e-05,0.000132546,0.000232088,0.000404808,0.000704502,0.00122451,0.00212681,0.00369243,0.00640899,0.0111226,inf	996.094,996.094,0.777144,1942.77,731.312,853.221,828.212,802.559,956.9,715.206,855.867,1016.5,647.418,603.789,603.789,603.789
0.000104204	-7675599.88	0,2.10213e-06,5.74962e-06,1.20785e-05,2.30601e-05,4.21148e-05,7.51773e-05,0.000132546,0.000232088,0.000404808,0.000704502,0.00122451,0.00212681,0.00369243,0.00640899,0.0111226,inf	996.461,996.461,0.777144,1947.28,727.949,854.478,829.101,801.336,957.917,714.689,855.57,1016.94,646.839,603.895,603.895,603.895
