time_index	left_time_boundary	right_time_boundary	lambda
0	0	9.86968e-06	581.717
1	9.86968e-06	2.20775e-05	581.717
2	2.20775e-05	3.71774e-05	104.716
3	3.71774e-05	5.58544e-05	339.692
4	5.58544e-05	7.89561e-05	388.818
5	7.89561e-05	0.000107531	374.454
6	0.000107531	0.000142874	340.567
7	0.000142874	0.000186591	331.111
8	0.000186591	0.000240665	333.244
9	0.000240665	0.000307548	330.051
10	0.000307548	0.000390277	324.15
11	0.000390277	0.000492603	321.087
12	0.000492603	0.000619172	322.247
13	0.000619172	0.000775724	328.14
14	0.000775724	0.000969364	339.147
15	0.000969364	0.00120888	353.929
16	0.00120888	0.00150513	370.629
17	0.00150513	0.00187157	388.685
18	0.00187157	0.00232482	408.472
19	0.00232482	0.00288544	428.955
20	0.00288544	0.00357888	446.928
21	0.00357888	0.00443659	460.448
22	0.00443659	0.00549749	468.442
23	0.00549749	0.00680973	468.332
24	0.00680973	0.00843283	463.813
25	0.00843283	0.0104404	466.554
26	0.0104404	0.0129237	483.389
27	0.0129237	0.0159952	471.405
28	0.0159952	0.0197943	471.405
29	0.0197943	0.0244935	10.1988
30	0.0244935	0.030306	10.1988
31	0.030306	inf	10.1988
