time_index	left_time_boundary	right_time_boundary	lambda
0	0	9.21997e-05	368.079
1	9.21997e-05	0.000218358	368.079
2	0.000218358	0.000390982	313.735
3	0.000390982	0.000627186	308.557
4	0.000627186	0.000950388	342.696
5	0.000950388	0.00139263	365.353
6	0.00139263	0.00199775	385.254
7	0.00199775	0.00282576	423.231
8	0.00282576	0.00395873	439.155
9	0.00395873	0.00550898	448.212
10	0.00550898	0.00763022	469.101
11	0.00763022	0.0105327	462.01
12	0.0105327	0.0145043	425.555
13	0.0145043	0.0199387	442.804
14	0.0199387	0.0273746	442.804
15	0.0273746	inf	442.804
