time_index	left_time_boundary	right_time_boundary	lambda
0	0	4.03273e-07	4.05209
1	4.03273e-07	1.10301e-06	4.05209
2	1.10301e-06	2.31715e-06	1396.54
3	2.31715e-06	4.42386e-06	6592.94
4	4.42386e-06	8.07931e-06	2979.7
5	8.07931e-06	1.4422e-05	4103.47
6	1.4422e-05	2.54276e-05	3237.09
7	2.54276e-05	4.45238e-05	3152.11
8	4.45238e-05	7.76585e-05	4066.49
9	7.76585e-05	0.000135152	3675.67
10	0.000135152	0.000234911	4060.76
11	0.000234911	0.000408008	4891.72
12	0.000408008	0.000708356	3305.06
13	0.000708356	0.0012295	2088.88
14	0.0012295	0.00213377	2088.88
15	0.00213377	inf	2088.88
