time_index	left_time_boundary	right_time_boundary	lambda
0	0	9.082e-06	3467.19
1	9.082e-06	2.1509e-05	3467.19
2	2.1509e-05	3.85131e-05	3252.78
3	3.85131e-05	6.17801e-05	4769.54
4	6.17801e-05	9.36166e-05	3996.35
5	9.36166e-05	0.000137179	2656.08
6	0.000137179	0.000196786	2997.82
7	0.000196786	0.000278347	5188.68
8	0.000278347	0.000389949	6275.61
9	0.000389949	0.000542655	5594.46
10	0.000542655	0.000751605	3187.93
11	0.000751605	0.00103751	1680.78
12	0.00103751	0.00142873	10521.7
13	0.00142873	0.00196403	567591
14	0.00196403	0.0026965	567591
15	0.0026965	inf	567591
