LogLikelihood = -6785.6331204899770455

y0 4.6709613314342870295e-09
y0_prime 0
y1 0.80934671172302596887
y1_prime 0
y2 1.4622684667948664394
y2_prime 0
y3 3.8033409031297629177
y3_prime 0
rho 1.5403781113667031885e-05
rho.alpha 10.894121321068283237
r_ii 0.99873915079166719622
theta 6.4942954734760545052e-05
