AIC = 267513.93353159382241

y0 0.083159015076630385388
y0_prime 0
y1 0.36561692245822208225
y1_prime 0
y2 2.3873416757633707519
y2_prime 0
y3 20.668860985151027876
y3_prime 0
rho 0.0035275564104567517544
rho.alpha 0.14305925148305892458
r_ii 0.99999999999820721186
theta 0.0018353809402994671496
