0.000721887	-3061737.58	0,9.19476e-05,0.000217761,0.000389913,0.000625472,0.00094779,0.00138882,0.00199229,0.00281803,0.0039479,0.00549392,0.00760937,0.010504,0.0144647,0.0198842,0.0272998,inf	362.961,362.961,346.131,355.989,370.128,391.17,413.203,428.202,432.146,427.206,420.137,415.435,409.732,384.414,384.414,384.414
0.000812328	-3060164.63	0,9.19476e-05,0.000217761,0.000389913,0.000625472,0.00094779,0.00138882,0.00199229,0.00281803,0.0039479,0.00549392,0.00760937,0.010504,0.0144647,0.0198842,0.0272998,inf	359.995,359.995,328.33,340.855,358.633,387.301,417.964,439.899,446.957,440.471,430.208,423.346,413.601,366.718,366.718,366.718
0.000895987	-3059053.46	0,9.19476e-05,0.000217761,0.000389913,0.000625472,0.00094779,0.00138882,0.00199229,0.00281803,0.0039479,0.00549392,0.00760937,0.010504,0.0144647,0.0198842,0.0272998,inf	363.119,363.119,322.003,336.044,354.406,385.856,419.526,444.265,453.306,446.564,435.012,427.279,414.531,349.529,349.529,349.529
0.000973757	-3058196.30	0,9.19476e-05,0.000217761,0.000389913,0.000625472,0.00094779,0.00138882,0.00199229,0.00281803,0.0039479,0.00549392,0.00760937,0.010504,0.0144647,0.0198842,0.0272998,inf	365.795,365.795,319.985,335.584,353.538,385.722,419.797,445.201,455.343,448.801,436.896,428.947,413.89,333.603,333.603,333.603
0.0010464	-3057507.82	0,9.19476e-05,0.000217761,0.000389913,0.000625472,0.00094779,0.00138882,0.00199229,0.00281803,0.0039479,0.00549392,0.00760937,0.010504,0.0144647,0.0198842,0.0272998,inf	366.981,366.981,319.826,337.153,354.374,386.343,419.556,444.512,455.157,448.949,437.155,429.327,412.462,319.135,319.135,319.135
0.00111452	-3056941.93	0,9.19476e-05,0.000217761,0.000389913,0.000625472,0.00094779,0.00138882,0.00199229,0.00281803,0.0039479,0.00549392,0.00760937,0.010504,0.0144647,0.0198842,0.0272998,inf	366.958,366.958,320.554,339.694,356.096,387.39,419.122,443.061,453.822,447.968,436.513,428.987,410.692,306.09,306.09,306.09
0.00117861	-3056469.55	0,9.19476e-05,0.000217761,0.000389913,0.000625472,0.00094779,0.00138882,0.00199229,0.00281803,0.0039479,0.00549392,0.00760937,0.010504,0.0144647,0.0198842,0.0272998,inf	366.199,366.199,321.738,342.675,358.262,388.661,418.625,441.272,451.913,446.391,435.382,428.257,408.835,294.348,294.348,294.348
0.00123905	-3056070.62	0,9.19476e-05,0.000217761,0.000389913,0.000625472,0.00094779,0.00138882,0.00199229,0.00281803,0.0039479,0.00549392,0.00760937,0.010504,0.0144647,0.0198842,0.0272998,inf	365.079,365.079,323.165,345.811,360.62,390.03,418.117,439.362,449.738,444.517,434,427.334,407.035,283.767,283.767,283.767
0.00129617	-3055730.56	0,9.19476e-05,0.000217761,0.000389913,0.000625472,0.00094779,0.00138882,0.00199229,0.00281803,0.0039479,0.00549392,0.00760937,0.010504,0.0144647,0.0198842,0.0272998,inf	363.85,363.85,324.719,348.946,363.027,391.42,417.619,437.44,447.469,442.518,432.507,426.336,405.37,274.21,274.21,274.21
0.00135025	-3055438.41	0,9.19476e-05,0.000217761,0.000389913,0.000625472,0.00094779,0.00138882,0.00199229,0.00281803,0.0039479,0.00549392,0.00760937,0.010504,0.0144647,0.0198842,0.0272998,inf	362.662,362.662,326.336,351.995,365.401,392.787,417.138,435.564,445.202,440.494,430.985,425.334,403.881,265.55,265.55,265.55
0.00140154	-3055185.72	0,9.19476e-05,0.000217761,0.000389913,0.000625472,0.00094779,0.00138882,0.00199229,0.00281803,0.0039479,0.00549392,0.00760937,0.010504,0.0144647,0.0198842,0.0272998,inf	361.594,361.594,327.977,354.914,367.696,394.103,416.675,433.761,442.989,438.501,429.481,424.369,402.585,257.676,257.676,257.676
0.00145024	-3054965.86	0,9.19476e-05,0.000217761,0.000389913,0.000625472,0.00094779,0.00138882,0.00199229,0.00281803,0.0039479,0.00549392,0.00760937,0.010504,0.0144647,0.0198842,0.0272998,inf	360.681,360.681,329.619,357.679,369.888,395.356,416.231,432.043,440.855,436.569,428.023,423.463,401.488,250.491,250.491,250.491
0.00149655	-3054773.54	0,9.19476e-05,0.000217761,0.000389913,0.000625472,0.00094779,0.00138882,0.00199229,0.00281803,0.0039479,0.00549392,0.00760937,0.010504,0.0144647,0.0198842,0.0272998,inf	359.933,359.933,331.245,360.285,371.967,396.54,415.804,430.414,438.816,434.715,426.625,422.628,400.586,243.913,243.913,243.913
0.00154063	-3054604.52	0,9.19476e-05,0.000217761,0.000389913,0.000625472,0.00094779,0.00138882,0.00199229,0.00281803,0.0039479,0.00549392,0.00760937,0.010504,0.0144647,0.0198842,0.0272998,inf	359.344,359.344,332.847,362.733,373.93,397.654,415.393,428.873,436.874,432.945,425.292,421.87,399.871,237.869,237.869,237.869
0.00158263	-3054455.34	0,9.19476e-05,0.000217761,0.000389913,0.000625472,0.00094779,0.00138882,0.00199229,0.00281803,0.0039479,0.00549392,0.00760937,0.010504,0.0144647,0.0198842,0.0272998,inf	358.903,358.903,334.418,365.027,375.779,398.699,414.998,427.416,435.03,431.262,424.028,421.188,399.333,232.298,232.298,232.298
0.00162268	-3054323.14	0,9.19476e-05,0.000217761,0.000389913,0.000625472,0.00094779,0.00138882,0.00199229,0.00281803,0.0039479,0.00549392,0.00760937,0.010504,0.0144647,0.0198842,0.0272998,inf	358.595,358.595,335.956,367.175,377.518,399.679,414.618,426.039,433.281,429.663,422.831,420.581,398.96,227.146,227.146,227.146
0.00166092	-3054205.57	0,9.19476e-05,0.000217761,0.000389913,0.000625472,0.00094779,0.00138882,0.00199229,0.00281803,0.0039479,0.00549392,0.00760937,0.010504,0.0144647,0.0198842,0.0272998,inf	358.402,358.402,337.459,369.187,379.153,400.597,414.252,424.738,431.622,428.145,421.699,420.046,398.74,222.366,222.366,222.366
0.00169744	-3054100.67	0,9.19476e-05,0.000217761,0.000389913,0.000625472,0.00094779,0.00138882,0.00199229,0.00281803,0.0039479,0.00549392,0.00760937,0.010504,0.0144647,0.0198842,0.0272998,inf	358.31,358.31,338.924,371.07,380.692,401.458,413.899,423.507,430.049,426.704,420.628,419.577,398.663,217.92,217.92,217.92
0.00173236	-3054006.79	0,9.19476e-05,0.000217761,0.000389913,0.000625472,0.00094779,0.00138882,0.00199229,0.00281803,0.0039479,0.00549392,0.00760937,0.010504,0.0144647,0.0198842,0.0272998,inf	358.302,358.302,340.351,372.833,382.139,402.265,413.559,422.343,428.556,425.336,419.614,419.17,398.718,213.772,213.772,213.772
0.00176577	-3053922.52	0,9.19476e-05,0.000217761,0.000389913,0.000625472,0.00094779,0.00138882,0.00199229,0.00281803,0.0039479,0.00549392,0.00760937,0.010504,0.0144647,0.0198842,0.0272998,inf	358.368,358.368,341.741,374.485,383.502,403.023,413.232,421.239,427.138,424.035,418.653,418.819,398.893,209.891,209.891,209.891
