0.000237212	-6026740.93	0,6.46838e-07,1.49888e-06,2.62124e-06,4.09967e-06,6.04712e-06,8.6124e-06,1.19915e-05,1.64426e-05,2.23059e-05,3.00292e-05,4.02028e-05,5.36039e-05,7.12565e-05,9.45094e-05,0.000125139,0.000165486,0.000218633,0.000288641,0.000380859,0.000502333,0.000662344,0.000873119,0.00115076,0.00151649,0.00199824,0.00263282,0.00346873,0.00456982,0.00602024,0.0079308,0.0104475,inf	294.252,294.252,346.542,283.253,212.186,182.098,196.508,231.282,261.96,280.501,293.908,307.918,322.497,340.883,367.839,407.784,466.915,555.4,689.616,893.486,1189.14,1521.53,1673.83,1619.8,1518.96,1429.85,1359.27,1310.08,1310.08,1316.46,1316.46,1316.46
0.000250117	-6014711.39	0,6.46838e-07,1.49888e-06,2.62124e-06,4.09967e-06,6.04712e-06,8.6124e-06,1.19915e-05,1.64426e-05,2.23059e-05,3.00292e-05,4.02028e-05,5.36039e-05,7.12565e-05,9.45094e-05,0.000125139,0.000165486,0.000218633,0.000288641,0.000380859,0.000502333,0.000662344,0.000873119,0.00115076,0.00151649,0.00199824,0.00263282,0.00346873,0.00456982,0.00602024,0.0079308,0.0104475,inf	317.435,317.435,438.962,288.529,154.734,105.912,116.52,155.601,190.507,204.035,206.506,207.483,205.925,206.441,215.507,238.377,283.142,364.315,506.807,751.027,1155.18,1720.05,2087.63,2056.92,1907.46,1754.72,1624.87,1547.2,1547.2,1652.41,1652.41,1652.41
0.000262347	-6010567.09	0,6.46838e-07,1.49888e-06,2.62124e-06,4.09967e-06,6.04712e-06,8.6124e-06,1.19915e-05,1.64426e-05,2.23059e-05,3.00292e-05,4.02028e-05,5.36039e-05,7.12565e-05,9.45094e-05,0.000125139,0.000165486,0.000218633,0.000288641,0.000380859,0.000502333,0.000662344,0.000873119,0.00115076,0.00151649,0.00199824,0.00263282,0.00346873,0.00456982,0.00602024,0.0079308,0.0104475,inf	350.523,350.523,587.927,328.456,138.142,83.7988,99.5956,152.973,202.89,218.229,214.349,206.043,191.081,176.781,171.306,179.398,208.738,274.912,406.923,654.573,1098.71,1803.33,2366.98,2396.46,2243.61,2057.58,1885.79,1811.91,1811.91,2265.04,2265.04,2265.04
0.000273258	-6008777.07	0,6.46838e-07,1.49888e-06,2.62124e-06,4.09967e-06,6.04712e-06,8.6124e-06,1.19915e-05,1.64426e-05,2.23059e-05,3.00292e-05,4.02028e-05,5.36039e-05,7.12565e-05,9.45094e-05,0.000125139,0.000165486,0.000218633,0.000288641,0.000380859,0.000502333,0.000662344,0.000873119,0.00115076,0.00151649,0.00199824,0.00263282,0.00346873,0.00456982,0.00602024,0.0079308,0.0104475,inf	336.561,336.561,697.717,341.53,118.187,66.8262,88.112,157.169,228.259,251.418,245.747,231.413,204.585,176.975,159.422,156.15,173.738,227.251,347.065,588.282,1045.83,1834,2559.27,2659.59,2533.92,2343.09,2150.08,2128.76,2128.76,4068.75,4068.75,4068.75
0.000282982	-6007873.29	0,6.46838e-07,1.49888e-06,2.62124e-06,4.09967e-06,6.04712e-06,8.6124e-06,1.19915e-05,1.64426e-05,2.23059e-05,3.00292e-05,4.02028e-05,5.36039e-05,7.12565e-05,9.45094e-05,0.000125139,0.000165486,0.000218633,0.000288641,0.000380859,0.000502333,0.000662344,0.000873119,0.00115076,0.00151649,0.00199824,0.00263282,0.00346873,0.00456982,0.00602024,0.0079308,0.0104475,inf	300.005,300.005,771.548,332.745,95.3047,50.4355,73.9176,153.448,245.711,281.161,279.061,263.268,227.194,187.855,159.811,147.273,155.851,199.596,308.795,541.312,1001.06,1839.99,2695.87,2866.34,2787.66,2618.69,2430.48,2545.63,2545.63,23892.7,23892.7,23892.7
0.000282982	-6007361.91	0,6.46838e-07,1.49888e-06,2.62124e-06,4.09967e-06,6.04712e-06,8.6124e-06,1.19915e-05,1.64426e-05,2.23059e-05,3.00292e-05,4.02028e-05,5.36039e-05,7.12565e-05,9.45094e-05,0.000125139,0.000165486,0.000218633,0.000288641,0.000380859,0.000502333,0.000662344,0.000873119,0.00115076,0.00151649,0.00199824,0.00263282,0.00346873,0.00456982,0.00602024,0.0079308,0.0104475,inf	259.891,259.891,829.068,313.943,73.8137,36.119,58.4001,140.778,248.9,297.82,303.688,291.474,250.18,201.682,164.85,144.554,145.909,181.959,282.084,504.995,959.273,1819.48,2773.55,3017.36,3002.48,2884.91,2740.71,3171.52,3171.52,160033,160033,160033
0.000282982	-6007144.29	0,6.46838e-07,1.49888e-06,2.62124e-06,4.09967e-06,6.04712e-06,8.6124e-06,1.19915e-05,1.64426e-05,2.23059e-05,3.00292e-05,4.02028e-05,5.36039e-05,7.12565e-05,9.45094e-05,0.000125139,0.000165486,0.000218633,0.000288641,0.000380859,0.000502333,0.000662344,0.000873119,0.00115076,0.00151649,0.00199824,0.00263282,0.00346873,0.00456982,0.00602024,0.0079308,0.0104475,inf	228.005,228.005,905.897,300.811,57.4414,25.5208,44.8999,125.061,243.777,305.23,321.061,316.127,273.137,215.347,164.85,144.554,141.101,170.967,263.862,478.707,927.675,1805.99,2774.63,3054.26,3002.48,2884.91,2740.71,3171.52,3171.52,160033,160033,160033
0.000282982	-6007091.77	0,6.46838e-07,1.49888e-06,2.62124e-06,4.09967e-06,6.04712e-06,8.6124e-06,1.19915e-05,1.64426e-05,2.23059e-05,3.00292e-05,4.02028e-05,5.36039e-05,7.12565e-05,9.45094e-05,0.000125139,0.000165486,0.000218633,0.000288641,0.000380859,0.000502333,0.000662344,0.000873119,0.00115076,0.00151649,0.00199824,0.00263282,0.00346873,0.00456982,0.00602024,0.0079308,0.0104475,inf	198.231,198.231,986.086,288.279,44.6534,17.8682,33.9982,108.995,233.532,305.318,331.532,336.53,295.152,232.329,174.851,148.498,139.409,164.074,251.136,459.345,903.668,1795.6,2842.28,3191.19,3006.17,2884.91,2740.71,3171.52,3171.52,160019,160019,160019
0.000282982	-6007013.77	0,6.46838e-07,1.49888e-06,2.62124e-06,4.09967e-06,6.04712e-06,8.6124e-06,1.19915e-05,1.64426e-05,2.23059e-05,3.00292e-05,4.02028e-05,5.36039e-05,7.12565e-05,9.45094e-05,0.000125139,0.000165486,0.000218633,0.000288641,0.000380859,0.000502333,0.000662344,0.000873119,0.00115076,0.00151649,0.00199824,0.00263282,0.00346873,0.00456982,0.00602024,0.0079308,0.0104475,inf	169.927,169.927,1064.74,275.636,34.6986,12.4606,25.5257,93.7762,219.727,298.332,333.395,349.307,312.521,247.446,184.685,153.171,139.11,159.348,241.502,443.807,883.298,1786.08,2883.89,3194.3,3006.17,2884.91,2740.71,3171.52,3171.52,160017,160017,160017
0.000282982	-6006989.14	0,6.46838e-07,1.49888e-06,2.62124e-06,4.09967e-06,6.04712e-06,8.6124e-06,1.19915e-05,1.64426e-05,2.23059e-05,3.00292e-05,4.02028e-05,5.36039e-05,7.12565e-05,9.45094e-05,0.000125139,0.000165486,0.000218633,0.000288641,0.000380859,0.000502333,0.000662344,0.000873119,0.00115076,0.00151649,0.00199824,0.00263282,0.00346873,0.00456982,0.00602024,0.0079308,0.0104475,inf	143.14,143.14,1137.2,262.508,27.0206,8.74007,19.2295,80.6437,205.465,287.699,329.196,355.601,325.308,260.34,185.849,153.171,139.11,156.179,234.278,431.625,867.047,1781.08,2905.57,3194.3,3006.17,2884.91,2740.71,3171.52,3171.52,160017,160017,160017
0.000282982	-6006975.49	0,6.46838e-07,1.49888e-06,2.62124e-06,4.09967e-06,6.04712e-06,8.6124e-06,1.19915e-05,1.64426e-05,2.23059e-05,3.00292e-05,4.02028e-05,5.36039e-05,7.12565e-05,9.45094e-05,0.000125139,0.000165486,0.000218633,0.000288641,0.000380859,0.000502333,0.000662344,0.000873119,0.00115076,0.00151649,0.00199824,0.00263282,0.00346873,0.00456982,0.00602024,0.0079308,0.0104475,inf	118.719,118.719,1204.2,249.58,21.1813,6.2122,14.7009,70.207,193.462,277.506,323.45,359.601,336.732,273.166,189.169,153.171,139.11,153.894,226.823,417.831,847.962,1779.41,2926.04,3195.06,3006.17,2884.91,2740.71,3171.52,3171.52,160017,160017,160017
0.000282982	-6006963.29	0,6.46838e-07,1.49888e-06,2.62124e-06,4.09967e-06,6.04712e-06,8.6124e-06,1.19915e-05,1.64426e-05,2.23059e-05,3.00292e-05,4.02028e-05,5.36039e-05,7.12565e-05,9.45094e-05,0.000125139,0.000165486,0.000218633,0.000288641,0.000380859,0.000502333,0.000662344,0.000873119,0.00115076,0.00151649,0.00199824,0.00263282,0.00346873,0.00456982,0.00602024,0.0079308,0.0104475,inf	97.1883,97.1883,1265.61,237.091,16.7176,4.47282,11.4151,61.97,183.773,268.36,317.009,362.062,347.328,286.355,199.398,159.896,141.992,153.531,223.463,410.868,837.777,1778.41,2966.05,3298.24,3141.97,2896.59,2740.71,3171.52,3171.52,159990,159990,159990
0.000282982	-6006909.43	0,6.46838e-07,1.49888e-06,2.62124e-06,4.09967e-06,6.04712e-06,8.6124e-06,1.19915e-05,1.64426e-05,2.23059e-05,3.00292e-05,4.02028e-05,5.36039e-05,7.12565e-05,9.45094e-05,0.000125139,0.000165486,0.000218633,0.000288641,0.000380859,0.000502333,0.000662344,0.000873119,0.00115076,0.00151649,0.00199824,0.00263282,0.00346873,0.00456982,0.00602024,0.0079308,0.0104475,inf	78.6573,78.6573,1319.8,224.856,13.2632,3.25497,8.96872,55.1491,175.042,258.304,307.263,359.246,352.746,295.96,207.865,165.764,144.536,153.206,220.447,404.38,827.687,1775.8,2978.79,3298.24,3141.97,2896.59,2740.71,3171.52,3171.52,159990,159990,159990
