0.000678699	-12843565.86	0,3.72631e-06,1.0192e-05,2.14109e-05,4.08773e-05,7.46543e-05,0.000133262,0.000234956,0.000411408,0.000717579,0.00124883,0.00217062,0.00377007,0.00654534,0.0113608,0.0197164,inf	5729.43,5729.43,2486.26,1059.44,473.587,271.013,211.135,211.944,243.577,312.292,453.394,560.334,515.807,532.129,532.129,532.129
0.000787161	-12825761.63	0,3.72631e-06,1.0192e-05,2.14109e-05,4.08773e-05,7.46543e-05,0.000133262,0.000234956,0.000411408,0.000717579,0.00124883,0.00217062,0.00377007,0.00654534,0.0113608,0.0197164,inf	9646.58,9646.58,3629.04,1245.91,454.089,215.358,151.853,152.15,187.455,270.919,455.037,622.906,562.875,621.679,621.679,621.679
0.00088831	-12818118.59	0,3.72631e-06,1.0192e-05,2.14109e-05,4.08773e-05,7.46543e-05,0.000133262,0.000234956,0.000411408,0.000717579,0.00124883,0.00217062,0.00377007,0.00654534,0.0113608,0.0197164,inf	10422.1,10422.1,3931.35,1283.82,442.114,193.847,130.656,130.157,165.546,253.827,453.832,652.121,589.383,711.245,711.245,711.245
0.000983046	-12813484.21	0,3.72631e-06,1.0192e-05,2.14109e-05,4.08773e-05,7.46543e-05,0.000133262,0.000234956,0.000411408,0.000717579,0.00124883,0.00217062,0.00377007,0.00654534,0.0113608,0.0197164,inf	10166.1,10166.1,3927.36,1276.6,436.296,185.042,122.562,121.551,156.739,247.035,452.718,663.53,603.135,807.729,807.729,807.729
0.00107276	-12810078.65	0,3.72631e-06,1.0192e-05,2.14109e-05,4.08773e-05,7.46543e-05,0.000133262,0.000234956,0.000411408,0.000717579,0.00124883,0.00217062,0.00377007,0.00654534,0.0113608,0.0197164,inf	9739,9739,3813.32,1246.3,430.643,180.805,119.746,118.718,154.006,245.345,452.214,665.24,609.007,921.193,921.193,921.193
0.00115847	-12807316.19	0,3.72631e-06,1.0192e-05,2.14109e-05,4.08773e-05,7.46543e-05,0.000133262,0.000234956,0.000411408,0.000717579,0.00124883,0.00217062,0.00377007,0.00654534,0.0113608,0.0197164,inf	9370.97,9370.97,3660.66,1202.16,422.82,177.956,119.191,118.653,154.405,246.398,452.268,661.51,609.956,1070.37,1070.37,1070.37
0.00124083	-12804967.02	0,3.72631e-06,1.0192e-05,2.14109e-05,4.08773e-05,7.46543e-05,0.000133262,0.000234956,0.000411408,0.000717579,0.00124883,0.00217062,0.00377007,0.00654534,0.0113608,0.0197164,inf	9102.26,9102.26,3499.89,1151.12,412.731,175.301,119.589,119.986,156.522,248.992,452.717,654.621,607.784,1303.79,1303.79,1303.79
0.00132012	-12802936.58	0,3.72631e-06,1.0192e-05,2.14109e-05,4.08773e-05,7.46543e-05,0.000133262,0.000234956,0.000411408,0.000717579,0.00124883,0.00217062,0.00377007,0.00654534,0.0113608,0.0197164,inf	8920.13,8920.13,3344.26,1098.29,401.101,172.468,120.349,122.033,159.608,252.461,453.384,645.769,603.605,1831.05,1831.05,1831.05
0.00139619	-12801218.36	0,3.72631e-06,1.0192e-05,2.14109e-05,4.08773e-05,7.46543e-05,0.000133262,0.000234956,0.000411408,0.000717579,0.00124883,0.00217062,0.00377007,0.00654534,0.0113608,0.0197164,inf	8801.55,8801.55,3199.45,1047.15,388.819,169.439,121.215,124.445,163.257,256.424,454.141,635.386,598.077,4849.77,4849.77,4849.77
0.00139619	-12799911.63	0,3.72631e-06,1.0192e-05,2.14109e-05,4.08773e-05,7.46543e-05,0.000133262,0.000234956,0.000411408,0.000717579,0.00124883,0.00217062,0.00377007,0.00654534,0.0113608,0.0197164,inf	8660.86,8660.86,3047.83,994.173,374.677,165.5,121.505,126.442,166.336,258.583,446.602,613.225,586.358,54962.5,54962.5,54962.5
0.00139619	-12799938.73	0,3.72631e-06,1.0192e-05,2.14109e-05,4.08773e-05,7.46543e-05,0.000133262,0.000234956,0.000411408,0.000717579,0.00124883,0.00217062,0.00377007,0.00654534,0.0113608,0.0197164,inf	8660.86,8660.86,2989.77,966.017,365.807,162.105,121.411,128.028,169.632,259.371,443.537,595.749,576.864,54966.8,54966.8,54966.8
0.00139619	-12799794.75	0,3.72631e-06,1.0192e-05,2.14109e-05,4.08773e-05,7.46543e-05,0.000133262,0.000234956,0.000411408,0.000717579,0.00124883,0.00217062,0.00377007,0.00654534,0.0113608,0.0197164,inf	8660.87,8660.87,2967.51,949.439,359.755,159.057,121.088,129.378,172.082,259.371,443.537,582.379,568.937,54970.1,54970.1,54970.1
0.00139619	-12799716.01	0,3.72631e-06,1.0192e-05,2.14109e-05,4.08773e-05,7.46543e-05,0.000133262,0.000234956,0.000411408,0.000717579,0.00124883,0.00217062,0.00377007,0.00654534,0.0113608,0.0197164,inf	8660.88,8660.88,2964.48,939.555,355.449,156.232,120.573,130.5,173.362,259.371,443.537,572.077,562.152,54972.8,54972.8,54972.8
0.00139619	-12799673.94	0,3.72631e-06,1.0192e-05,2.14109e-05,4.08773e-05,7.46543e-05,0.000133262,0.000234956,0.000411408,0.000717579,0.00124883,0.00217062,0.00377007,0.00654534,0.0113608,0.0197164,inf	8660.88,8660.88,2964.48,933.81,352.432,153.677,120.015,131.545,174.132,259.371,443.537,564.156,556.258,54975,54975,54975
0.00139619	-12799652.69	0,3.72631e-06,1.0192e-05,2.14109e-05,4.08773e-05,7.46543e-05,0.000133262,0.000234956,0.000411408,0.000717579,0.00124883,0.00217062,0.00377007,0.00654534,0.0113608,0.0197164,inf	8660.9,8660.9,2964.48,930.897,350.378,151.357,119.448,132.557,174.593,259.371,443.537,558.089,551.068,54976.8,54976.8,54976.8
0.00139619	-12799642.86	0,3.72631e-06,1.0192e-05,2.14109e-05,4.08773e-05,7.46543e-05,0.000133262,0.000234956,0.000411408,0.000717579,0.00124883,0.00217062,0.00377007,0.00654534,0.0113608,0.0197164,inf	8660.9,8660.9,2964.48,929.992,349.049,149.231,118.886,133.551,174.818,259.371,443.537,553.472,546.438,54978.3,54978.3,54978.3
0.00139619	-12799638.95	0,3.72631e-06,1.0192e-05,2.14109e-05,4.08773e-05,7.46543e-05,0.000133262,0.000234956,0.000411408,0.000717579,0.00124883,0.00217062,0.00377007,0.00654534,0.0113608,0.0197164,inf	8660.92,8660.92,2964.48,929.992,348.261,147.264,118.333,134.538,174.896,259.371,443.537,549.994,542.257,54979.6,54979.6,54979.6
0.00139619	-12799637.70	0,3.72631e-06,1.0192e-05,2.14109e-05,4.08773e-05,7.46543e-05,0.000133262,0.000234956,0.000411408,0.000717579,0.00124883,0.00217062,0.00377007,0.00654534,0.0113608,0.0197164,inf	8660.92,8660.92,2964.48,929.992,347.892,145.428,117.787,135.52,174.904,259.371,443.537,547.411,538.442,54980.8,54980.8,54980.8
0.00139619	-12799637.28	0,3.72631e-06,1.0192e-05,2.14109e-05,4.08773e-05,7.46543e-05,0.000133262,0.000234956,0.000411408,0.000717579,0.00124883,0.00217062,0.00377007,0.00654534,0.0113608,0.0197164,inf	8660.93,8660.93,2964.48,929.992,347.882,143.704,117.247,136.406,174.904,259.371,443.537,545.535,534.925,54981.7,54981.7,54981.7
0.00139619	-12799636.63	0,3.72631e-06,1.0192e-05,2.14109e-05,4.08773e-05,7.46543e-05,0.000133262,0.000234956,0.000411408,0.000717579,0.00124883,0.00217062,0.00377007,0.00654534,0.0113608,0.0197164,inf	8660.94,8660.94,2964.48,929.992,347.882,142.082,116.713,137.253,174.904,259.371,443.537,544.215,531.653,54982.6,54982.6,54982.6
