0.000643679	-12789555.44	0,1.63486e-06,3.78839e-06,6.62511e-06,1.03618e-05,1.52839e-05,2.17676e-05,3.03082e-05,4.15583e-05,5.63774e-05,7.58979e-05,0.000101611,0.000135482,0.000180099,0.00023887,0.000316285,0.000418261,0.000552589,0.000729532,0.00096261,0.00126963,0.00167406,0.00220678,0.00290852,0.00383287,0.00505048,0.00665437,0.0087671,0.0115501,0.015216,0.0200449,0.0264057,inf	7181.43,7181.43,5867.96,2445.78,988.662,582.061,427.793,363.777,340.167,332.172,325.657,322.134,326.099,332.426,337.252,341.061,345.95,352.354,361.158,374.426,393.479,416.55,437.566,450.35,453.693,449.625,442.835,435.93,435.93,465.522,465.522,465.522
0.000707483	-12784699.47	0,1.63486e-06,3.78839e-06,6.62511e-06,1.03618e-05,1.52839e-05,2.17676e-05,3.03082e-05,4.15583e-05,5.63774e-05,7.58979e-05,0.000101611,0.000135482,0.000180099,0.00023887,0.000316285,0.000418261,0.000552589,0.000729532,0.00096261,0.00126963,0.00167406,0.00220678,0.00290852,0.00383287,0.00505048,0.00665437,0.0087671,0.0115501,0.015216,0.0200449,0.0264057,inf	10596.7,10596.7,9634.91,2808.84,917.126,522.194,381.883,327.057,312.346,310.372,303.062,297.744,304.254,313.569,319.016,321.824,325.924,331.772,340.788,356.488,381.251,412.996,443.142,462.308,467.8,461.255,449.621,437.476,437.476,500.8,500.8,500.8
0.000768109	-12781682.00	0,1.63486e-06,3.78839e-06,6.62511e-06,1.03618e-05,1.52839e-05,2.17676e-05,3.03082e-05,4.15583e-05,5.63774e-05,7.58979e-05,0.000101611,0.000135482,0.000180099,0.00023887,0.000316285,0.000418261,0.000552589,0.000729532,0.00096261,0.00126963,0.00167406,0.00220678,0.00290852,0.00383287,0.00505048,0.00665437,0.0087671,0.0115501,0.015216,0.0200449,0.0264057,inf	10819.9,10819.9,11224.3,2579.6,775.964,459.961,348.002,306.574,302.04,306.204,297.77,290.937,300.186,312.277,317.975,319.404,322.071,326.206,333.655,349.093,375.676,411.247,445.949,468.787,476.019,468.097,452.949,436.721,436.721,537.094,537.094,537.094
0.000825372	-12779350.25	0,1.63486e-06,3.78839e-06,6.62511e-06,1.03618e-05,1.52839e-05,2.17676e-05,3.03082e-05,4.15583e-05,5.63774e-05,7.58979e-05,0.000101611,0.000135482,0.000180099,0.00023887,0.000316285,0.000418261,0.000552589,0.000729532,0.00096261,0.00126963,0.00167406,0.00220678,0.00290852,0.00383287,0.00505048,0.00665437,0.0087671,0.0115501,0.015216,0.0200449,0.0264057,inf	10336.5,10336.5,11994.5,2262.22,656.568,412.709,324.374,293.647,297.574,306.427,295.948,287.801,300.026,314.984,321.134,321.592,323.133,325.604,331.218,345.62,372.54,409.786,446.784,471.825,480.523,471.895,454.094,434.52,434.52,574.759,574.759,574.759
0.00087952	-12777448.95	0,1.63486e-06,3.78839e-06,6.62511e-06,1.03618e-05,1.52839e-05,2.17676e-05,3.03082e-05,4.15583e-05,5.63774e-05,7.58979e-05,0.000101611,0.000135482,0.000180099,0.00023887,0.000316285,0.000418261,0.000552589,0.000729532,0.00096261,0.00126963,0.00167406,0.00220678,0.00290852,0.00383287,0.00505048,0.00665437,0.0087671,0.0115501,0.015216,0.0200449,0.0264057,inf	9825.87,9825.87,12428.7,1963.64,563.712,377.994,307.823,285.031,295.677,307.719,294.358,285.09,300.371,318.162,324.956,324.903,325.754,326.87,330.783,343.965,370.586,408.41,446.449,472.798,482.738,473.805,453.907,431.461,431.461,614.261,614.261,614.261
0.000930847	-12775860.91	0,1.63486e-06,3.78839e-06,6.62511e-06,1.03618e-05,1.52839e-05,2.17676e-05,3.03082e-05,4.15583e-05,5.63774e-05,7.58979e-05,0.000101611,0.000135482,0.000180099,0.00023887,0.000316285,0.000418261,0.000552589,0.000729532,0.00096261,0.00126963,0.00167406,0.00220678,0.00290852,0.00383287,0.00505048,0.00665437,0.0087671,0.0115501,0.015216,0.0200449,0.0264057,inf	9416.37,9416.37,12678.1,1702.17,491.662,352.471,296.325,279.396,295.414,309.337,292.457,282.265,300.528,320.98,328.488,328.271,328.798,328.877,331.313,343.291,369.329,407.131,445.465,472.552,483.549,474.556,452.928,427.919,427.919,656.191,656.191,656.191
0.000979617	-12774514.30	0,1.63486e-06,3.78839e-06,6.62511e-06,1.03618e-05,1.52839e-05,2.17676e-05,3.03082e-05,4.15583e-05,5.63774e-05,7.58979e-05,0.000101611,0.000135482,0.000180099,0.00023887,0.000316285,0.000418261,0.000552589,0.000729532,0.00096261,0.00126963,0.00167406,0.00220678,0.00290852,0.00383287,0.00505048,0.00665437,0.0087671,0.0115501,0.015216,0.0200449,0.0264057,inf	9115.98,9115.98,12802.8,1477.21,434.903,333.567,288.54,275.96,296.402,311.159,290.324,279.403,300.503,323.357,331.543,331.386,331.853,331.159,332.341,343.198,368.532,405.969,444.143,471.593,483.501,474.6,451.491,424.134,424.134,701.311,701.311,701.311
0.00102605	-12773359.83	0,1.63486e-06,3.78839e-06,6.62511e-06,1.03618e-05,1.52839e-05,2.17676e-05,3.03082e-05,4.15583e-05,5.63774e-05,7.58979e-05,0.000101611,0.000135482,0.000180099,0.00023887,0.000316285,0.000418261,0.000552589,0.000729532,0.00096261,0.00126963,0.00167406,0.00220678,0.00290852,0.00383287,0.00505048,0.00665437,0.0087671,0.0115501,0.015216,0.0200449,0.0264057,inf	8908.44,8908.44,12834.5,1284.54,389.402,319.488,283.475,274.2,298.379,313.146,288.11,276.667,300.431,325.393,334.153,334.183,334.764,333.502,333.627,343.466,368.053,404.925,442.657,470.223,482.929,474.219,449.804,420.254,420.254,750.655,750.655,750.655
0.00107035	-12772361.57	0,1.63486e-06,3.78839e-06,6.62511e-06,1.03618e-05,1.52839e-05,2.17676e-05,3.03082e-05,4.15583e-05,5.63774e-05,7.58979e-05,0.000101611,0.000135482,0.000180099,0.00023887,0.000316285,0.000418261,0.000552589,0.000729532,0.00096261,0.00126963,0.00167406,0.00220678,0.00290852,0.00383287,0.00505048,0.00665437,0.0087671,0.0115501,0.015216,0.0200449,0.0264057,inf	8776.18,8776.18,12795.2,1119.64,352.225,308.925,280.41,273.683,301.126,315.257,285.919,274.172,300.431,327.202,336.399,336.671,337.476,335.804,335.037,343.96,367.799,403.993,441.107,468.627,482.046,473.591,447.995,416.371,416.371,805.685,805.685,805.685
0.00111267	-12771492.34	0,1.63486e-06,3.78839e-06,6.62511e-06,1.03618e-05,1.52839e-05,2.17676e-05,3.03082e-05,4.15583e-05,5.63774e-05,7.58979e-05,0.000101611,0.000135482,0.000180099,0.00023887,0.000316285,0.000418261,0.000552589,0.000729532,0.00096261,0.00126963,0.00167406,0.00220678,0.00290852,0.00383287,0.00505048,0.00665437,0.0087671,0.0115501,0.015216,0.0200449,0.0264057,inf	8703.71,8703.71,12701.9,978.296,321.344,300.97,278.801,274.062,304.439,317.424,283.811,271.981,300.577,328.877,338.361,338.887,339.977,338.012,336.492,344.596,367.707,403.16,439.549,466.915,480.984,472.828,446.143,412.544,412.544,868.599,868.599,868.599
0.00115315	-12770730.99	0,1.63486e-06,3.78839e-06,6.62511e-06,1.03618e-05,1.52839e-05,2.17676e-05,3.03082e-05,4.15583e-05,5.63774e-05,7.58979e-05,0.000101611,0.000135482,0.000180099,0.00023887,0.000316285,0.000418261,0.000552589,0.000729532,0.00096261,0.00126963,0.00167406,0.00220678,0.00290852,0.00383287,0.00505048,0.00665437,0.0087671,0.0115501,0.015216,0.0200449,0.0264057,inf	8679.31,8679.31,12568.4,856.852,295.323,294.947,278.251,275.069,308.14,319.577,281.808,270.118,300.915,330.483,340.106,340.869,342.272,340.104,337.946,345.318,367.731,402.412,438.014,465.157,479.827,472,444.296,408.805,408.805,942.945,942.945,942.945
0.00119191	-12770060.77	0,1.63486e-06,3.78839e-06,6.62511e-06,1.03618e-05,1.52839e-05,2.17676e-05,3.03082e-05,4.15583e-05,5.63774e-05,7.58979e-05,0.000101611,0.000135482,0.000180099,0.00023887,0.000316285,0.000418261,0.000552589,0.000729532,0.00096261,0.00126963,0.00167406,0.00220678,0.00290852,0.00383287,0.00505048,0.00665437,0.0087671,0.0115501,0.015216,0.0200449,0.0264057,inf	8691.77,8691.77,12405.3,752.386,273.149,290.417,278.456,276.51,312.087,321.652,279.91,268.577,301.458,332.062,341.681,342.65,344.375,342.071,339.371,346.089,367.839,401.738,436.519,463.396,478.629,471.152,442.482,405.173,405.173,1035.02,1035.02,1035.02
0.00122908	-12769468.23	0,1.63486e-06,3.78839e-06,6.62511e-06,1.03618e-05,1.52839e-05,2.17676e-05,3.03082e-05,4.15583e-05,5.63774e-05,7.58979e-05,0.000101611,0.000135482,0.000180099,0.00023887,0.000316285,0.000418261,0.000552589,0.000729532,0.00096261,0.00126963,0.00167406,0.00220678,0.00290852,0.00383287,0.00505048,0.00665437,0.0087671,0.0115501,0.015216,0.0200449,0.0264057,inf	8733.08,8733.08,12220,662.256,253.997,287.042,279.21,278.229,316.151,323.596,278.112,267.347,302.206,333.638,343.127,344.26,346.3,343.912,340.751,346.884,368.008,401.126,435.071,461.657,477.425,470.31,440.714,401.659,401.659,1157.76,1157.76,1157.76
0.00126473	-12768942.48	0,1.63486e-06,3.78839e-06,6.62511e-06,1.03618e-05,1.52839e-05,2.17676e-05,3.03082e-05,4.15583e-05,5.63774e-05,7.58979e-05,0.000101611,0.000135482,0.000180099,0.00023887,0.000316285,0.000418261,0.000552589,0.000729532,0.00096261,0.00126963,0.00167406,0.00220678,0.00290852,0.00383287,0.00505048,0.00665437,0.0087671,0.0115501,0.015216,0.0200449,0.0264057,inf	8797.45,8797.45,12020.5,584.312,237.333,284.56,280.331,280.115,320.257,325.377,276.41,266.405,303.15,335.228,344.469,345.723,348.064,345.629,342.077,347.686,368.219,400.566,433.675,459.955,476.235,469.488,438.998,398.267,398.267,1344.73,1344.73,1344.73
0.00129896	-12768474.77	0,1.63486e-06,3.78839e-06,6.62511e-06,1.03618e-05,1.52839e-05,2.17676e-05,3.03082e-05,4.15583e-05,5.63774e-05,7.58979e-05,0.000101611,0.000135482,0.000180099,0.00023887,0.000316285,0.000418261,0.000552589,0.000729532,0.00096261,0.00126963,0.00167406,0.00220678,0.00290852,0.00383287,0.00505048,0.00665437,0.0087671,0.0115501,0.015216,0.0200449,0.0264057,inf	8879.09,8879.09,11810.9,516.852,222.722,282.814,281.735,282.088,324.333,326.966,274.796,265.727,304.274,336.836,345.728,347.059,349.681,347.23,343.345,348.485,368.46,400.051,432.329,458.297,475.069,468.692,437.327,394.997,394.997,1734.74,1734.74,1734.74
0.00133185	-12768058.62	0,1.63486e-06,3.78839e-06,6.62511e-06,1.03618e-05,1.52839e-05,2.17676e-05,3.03082e-05,4.15583e-05,5.63774e-05,7.58979e-05,0.000101611,0.000135482,0.000180099,0.00023887,0.000316285,0.000418261,0.000552589,0.000729532,0.00096261,0.00126963,0.00167406,0.00220678,0.00290852,0.00383287,0.00505048,0.00665437,0.0087671,0.0115501,0.015216,0.0200449,0.0264057,inf	8973.5,8973.5,11594.9,458.266,209.816,281.651,283.317,284.097,328.334,328.348,273.262,265.286,305.563,338.464,346.917,348.282,351.164,348.722,344.552,349.271,368.722,399.572,431.03,456.683,473.927,467.91,435.681,391.848,391.848,3755.71,3755.71,3755.71
0.00133185	-12767691.58	0,1.63486e-06,3.78839e-06,6.62511e-06,1.03618e-05,1.52839e-05,2.17676e-05,3.03082e-05,4.15583e-05,5.63774e-05,7.58979e-05,0.000101611,0.000135482,0.000180099,0.00023887,0.000316285,0.000418261,0.000552589,0.000729532,0.00096261,0.00126963,0.00167406,0.00220678,0.00290852,0.00383287,0.00505048,0.00665437,0.0087671,0.0115501,0.015216,0.0200449,0.0264057,inf	9000.43,9000.43,11275.6,404.151,196.831,278.852,282.832,283.917,329.695,327.018,269.755,263.073,304.681,337.531,345.414,346.776,349.886,347.519,343.193,347.572,366.47,396.49,427.115,452.58,470.505,465.102,432.354,387.708,387.708,64340.4,64340.4,64340.4
0.00133185	-12767668.62	0,1.63486e-06,3.78839e-06,6.62511e-06,1.03618e-05,1.52839e-05,2.17676e-05,3.03082e-05,4.15583e-05,5.63774e-05,7.58979e-05,0.000101611,0.000135482,0.000180099,0.00023887,0.000316285,0.000418261,0.000552589,0.000729532,0.00096261,0.00126963,0.00167406,0.00220678,0.00290852,0.00383287,0.00505048,0.00665437,0.0087671,0.0115501,0.015216,0.0200449,0.0264057,inf	9000.97,9000.97,11178.3,362.758,187.392,279.097,284.384,285.162,332.514,327.085,267.397,261.901,304.955,337.87,345.238,346.649,350.054,347.796,343.318,347.363,365.739,394.926,424.698,449.75,468.183,463.241,429.777,384.122,384.122,64344,64344,64344
0.00133185	-12767653.72	0,1.63486e-06,3.78839e-06,6.62511e-06,1.03618e-05,1.52839e-05,2.17676e-05,3.03082e-05,4.15583e-05,5.63774e-05,7.58979e-05,0.000101611,0.000135482,0.000180099,0.00023887,0.000316285,0.000418261,0.000552589,0.000729532,0.00096261,0.00126963,0.00167406,0.00220678,0.00290852,0.00383287,0.00505048,0.00665437,0.0087671,0.0115501,0.015216,0.0200449,0.0264057,inf	9001.18,9001.18,11164.7,327.835,179.353,280.235,286.259,286.466,335.365,327.223,265.142,260.8,305.267,338.237,345.116,346.635,350.406,347.796,343.87,347.368,365.683,394.171,423.097,447.824,466.698,462.112,427.815,380.926,380.926,64346.8,64346.8,64346.8
0.00133185	-12767645.67	0,1.63486e-06,3.78839e-06,6.62511e-06,1.03618e-05,1.52839e-05,2.17676e-05,3.03082e-05,4.15583e-05,5.63774e-05,7.58979e-05,0.000101611,0.000135482,0.000180099,0.00023887,0.000316285,0.000418261,0.000552589,0.000729532,0.00096261,0.00126963,0.00167406,0.00220678,0.00290852,0.00383287,0.00505048,0.00665437,0.0087671,0.0115501,0.015216,0.0200449,0.0264057,inf	9001.45,9001.45,11164.7,297.203,172.109,281.725,288.156,287.647,338.148,327.37,262.937,259.713,305.537,338.529,344.901,346.543,350.752,348.422,343.87,347.368,365.683,393.853,422.035,446.47,465.765,461.485,426.292,378.018,378.018,64349.1,64349.1,64349.1
