0.00123516	-3609798.82	0,2.24576e-05,5.02355e-05,8.45941e-05,0.000127092,0.000179658,0.000244677,0.000325099,0.000424573,0.000547613,0.000699801,0.000888043,0.00112088,0.00140887,0.0017651,0.00220571,0.0027507,0.00342481,0.00425861,0.00528993,0.00656559,0.00814344,0.0100951,0.0125091,0.015495,0.0191882,0.0237564,0.0294068,0.0363958,0.0450404,0.055733,0.0689587,inf	4.09981,4.09981,10.1411,17.0437,28.0119,48.3796,101.83,105.033,52.7166,51.0308,63.5763,82.1324,92.9231,82.1654,68.6469,66.5766,75.3281,94.8822,128.33,178.422,231.177,253.401,249.056,237.282,225.333,214.957,206.382,198.397,198.397,190.754,190.754,190.754
0.00112259	-3598181.98	0,2.24576e-05,5.02355e-05,8.45941e-05,0.000127092,0.000179658,0.000244677,0.000325099,0.000424573,0.000547613,0.000699801,0.000888043,0.00112088,0.00140887,0.0017651,0.00220571,0.0027507,0.00342481,0.00425861,0.00528993,0.00656559,0.00814344,0.0100951,0.0125091,0.015495,0.0191882,0.0237564,0.0294068,0.0363958,0.0450404,0.055733,0.0689587,inf	0.175814,0.175814,0.247746,0.900891,2.31321,6.63801,31.7133,45.1809,10.6997,12.1236,21.3687,41.3462,64.5749,47.0721,29.1741,28.4853,37.8878,58.9426,99.0485,170.116,268.865,325.904,324.842,303.315,278.197,255.381,236.451,218.97,218.97,202.001,202.001,202.001
0.00103183	-3592735.34	0,2.24576e-05,5.02355e-05,8.45941e-05,0.000127092,0.000179658,0.000244677,0.000325099,0.000424573,0.000547613,0.000699801,0.000888043,0.00112088,0.00140887,0.0017651,0.00220571,0.0027507,0.00342481,0.00425861,0.00528993,0.00656559,0.00814344,0.0100951,0.0125091,0.015495,0.0191882,0.0237564,0.0294068,0.0363958,0.0450404,0.055733,0.0689587,inf	0.175814,0.175814,0.175814,0.175814,0.175814,0.567204,5.19785,12.2831,1.61992,2.42446,6.17121,18.4477,47.7585,29.7934,12.337,12.6239,20.1959,38.6433,78.4546,158.448,293.067,390.527,399.748,371.321,332.027,294.392,263.134,234.796,234.796,206.858,206.858,206.858
0.000949615	-3589720.07	0,2.24576e-05,5.02355e-05,8.45941e-05,0.000127092,0.000179658,0.000244677,0.000325099,0.000424573,0.000547613,0.000699801,0.000888043,0.00112088,0.00140887,0.0017651,0.00220571,0.0027507,0.00342481,0.00425861,0.00528993,0.00656559,0.00814344,0.0100951,0.0125091,0.015495,0.0191882,0.0237564,0.0294068,0.0363958,0.0450404,0.055733,0.0689587,inf	0.175814,0.175814,0.175814,0.175814,0.175814,0.175814,0.535491,2.52782,0.210772,0.432278,1.5667,7.13436,34.3071,20.6363,5.11985,5.6634,11.0438,25.9983,63.12,146.52,308.281,448.2,473.399,440.708,385.759,330.112,284.313,244.263,244.263,204.576,204.576,204.576
0.000871388	-3587824.55	0,2.24576e-05,5.02355e-05,8.45941e-05,0.000127092,0.000179658,0.000244677,0.000325099,0.000424573,0.000547613,0.000699801,0.000888043,0.00112088,0.00140887,0.0017651,0.00220571,0.0027507,0.00342481,0.00425861,0.00528993,0.00656559,0.00814344,0.0100951,0.0125091,0.015495,0.0191882,0.0237564,0.0294068,0.0363958,0.0450404,0.055733,0.0689587,inf	0.175814,0.175814,0.175814,0.175814,0.175814,0.175814,0.175814,0.461199,0.175814,0.175814,0.351448,2.43027,23.2132,15.3315,2.06536,2.53179,6.08102,17.6737,51.2148,135.269,317.494,500.44,546.4,511.787,439.029,361.307,298.937,247.295,247.295,196.659,196.659,196.659
0.0007962	-3586483.94	0,2.24576e-05,5.02355e-05,8.45941e-05,0.000127092,0.000179658,0.000244677,0.000325099,0.000424573,0.000547613,0.000699801,0.000888043,0.00112088,0.00140887,0.0017651,0.00220571,0.0027507,0.00342481,0.00425861,0.00528993,0.00656559,0.00814344,0.0100951,0.0125091,0.015495,0.0191882,0.0237564,0.0294068,0.0363958,0.0450404,0.055733,0.0689587,inf	0.175814,0.175814,0.175814,0.175814,0.175814,0.175814,0.175814,0.176258,0.175814,0.175814,0.175814,0.745432,14.583,11.7249,0.803761,1.11276,3.33144,12.0214,41.6935,124.913,322.7,548.707,619.74,585.561,492.162,387.578,307.288,245.232,245.232,185.722,185.722,185.722
0.000724368	-3585444.00	0,2.24576e-05,5.02355e-05,8.45941e-05,0.000127092,0.000179658,0.000244677,0.000325099,0.000424573,0.000547613,0.000699801,0.000888043,0.00112088,0.00140887,0.0017651,0.00220571,0.0027507,0.00342481,0.00425861,0.00528993,0.00656559,0.00814344,0.0100951,0.0125091,0.015495,0.0191882,0.0237564,0.0294068,0.0363958,0.0450404,0.055733,0.0689587,inf	0.175814,0.175814,0.175814,0.175814,0.175814,0.175814,0.175814,0.176257,0.175814,0.175814,0.175814,0.211803,8.467,8.72952,0.29382,0.476642,1.8006,8.12332,33.9168,115.416,325.262,594.219,694.52,663.721,546.268,409.387,310.707,240.033,240.033,174.232,174.232,174.232
0.000656516	-3584585.30	0,2.24576e-05,5.02355e-05,8.45941e-05,0.000127092,0.000179658,0.000244677,0.000325099,0.000424573,0.000547613,0.000699801,0.000888043,0.00112088,0.00140887,0.0017651,0.00220571,0.0027507,0.00342481,0.00425861,0.00528993,0.00656559,0.00814344,0.0100951,0.0125091,0.015495,0.0191882,0.0237564,0.0294068,0.0363958,0.0450404,0.055733,0.0689587,inf	0.175814,0.175814,0.175814,0.175814,0.175814,0.175814,0.175814,0.176257,0.175814,0.175814,0.175814,0.175814,4.36922,5.96145,0.175814,0.197589,0.954244,5.42273,27.4731,106.662,326.121,637.941,771.851,748.933,603.503,427.876,310.954,233.507,233.507,163.314,163.314,163.314
0.000593307	-3583851.07	0,2.24576e-05,5.02355e-05,8.45941e-05,0.000127092,0.000179658,0.000244677,0.000325099,0.000424573,0.000547613,0.000699801,0.000888043,0.00112088,0.00140887,0.0017651,0.00220571,0.0027507,0.00342481,0.00425861,0.00528993,0.00656559,0.00814344,0.0100951,0.0125091,0.015495,0.0191882,0.0237564,0.0294068,0.0363958,0.0450404,0.055733,0.0689587,inf	0.175814,0.175814,0.175814,0.175814,0.175814,0.175814,0.175814,0.176257,0.175814,0.175814,0.175814,0.175814,1.82075,3.55577,0.175814,0.175814,0.493315,3.55841,22.0858,98.5161,325.94,680.646,852.863,845.585,667.701,444.676,309.751,227.074,227.074,153.882,153.882,153.882
0.00053515	-3583213.18	0,2.24576e-05,5.02355e-05,8.45941e-05,0.000127092,0.000179658,0.000244677,0.000325099,0.000424573,0.000547613,0.000699801,0.000888043,0.00112088,0.00140887,0.0017651,0.00220571,0.0027507,0.00342481,0.00425861,0.00528993,0.00656559,0.00814344,0.0100951,0.0125091,0.015495,0.0191882,0.0237564,0.0294068,0.0363958,0.0450404,0.055733,0.0689587,inf	0.175814,0.175814,0.175814,0.175814,0.175814,0.175814,0.175814,0.176257,0.175814,0.175814,0.175814,0.175814,0.587629,1.83289,0.175814,0.175814,0.246819,2.28471,17.5642,90.8496,325.168,722.913,938.722,961.451,745.81,461.662,308.524,221.42,221.42,146.141,146.141,146.141
0.000481967	-3582654.57	0,2.24576e-05,5.02355e-05,8.45941e-05,0.000127092,0.000179658,0.000244677,0.000325099,0.000424573,0.000547613,0.000699801,0.000888043,0.00112088,0.00140887,0.0017651,0.00220571,0.0027507,0.00342481,0.00425861,0.00528993,0.00656559,0.00814344,0.0100951,0.0125091,0.015495,0.0191882,0.0237564,0.0294068,0.0363958,0.0450404,0.055733,0.0689587,inf	0.175814,0.175814,0.175814,0.175814,0.175814,0.175814,0.175814,0.176257,0.175814,0.175814,0.175814,0.175814,0.175814,0.84397,0.175814,0.175814,0.175814,1.42935,13.776,83.5574,324.055,765.068,1030.68,1111.96,851.86,480.802,308.226,216.997,216.997,140.532,140.532,140.532
0.000433457	-3582162.88	0,2.24576e-05,5.02355e-05,8.45941e-05,0.000127092,0.000179658,0.000244677,0.000325099,0.000424573,0.000547613,0.000699801,0.000888043,0.00112088,0.00140887,0.0017651,0.00220571,0.0027507,0.00342481,0.00425861,0.00528993,0.00656559,0.00814344,0.0100951,0.0125091,0.015495,0.0191882,0.0237564,0.0294068,0.0363958,0.0450404,0.055733,0.0689587,inf	0.175814,0.175814,0.175814,0.175814,0.175814,0.175814,0.175814,0.176257,0.175814,0.175814,0.175814,0.175814,0.175814,0.35836,0.175814,0.175814,0.175814,0.867588,10.6219,76.5533,322.734,807.245,1130.27,1333.79,1020.75,504.534,309.301,214.041,214.041,136.514,136.514,136.514
0.000389281	-3581726.76	0,2.24576e-05,5.02355e-05,8.45941e-05,0.000127092,0.000179658,0.000244677,0.000325099,0.000424573,0.000547613,0.000699801,0.000888043,0.00112088,0.00140887,0.0017651,0.00220571,0.0027507,0.00342481,0.00425861,0.00528993,0.00656559,0.00814344,0.0100951,0.0125091,0.015495,0.0191882,0.0237564,0.0294068,0.0363958,0.0450404,0.055733,0.0689587,inf	0.175814,0.175814,0.175814,0.175814,0.175814,0.175814,0.175814,0.176257,0.175814,0.175814,0.175814,0.175814,0.175814,0.175845,0.175814,0.175814,0.175814,0.508864,8.02572,69.778,321.288,849.403,1239.65,1746.18,1380.45,535.452,312.355,212.718,212.718,132.698,132.698,132.698
0.000349122	-3581337.24	0,2.24576e-05,5.02355e-05,8.45941e-05,0.000127092,0.000179658,0.000244677,0.000325099,0.000424573,0.000547613,0.000699801,0.000888043,0.00112088,0.00140887,0.0017651,0.00220571,0.0027507,0.00342481,0.00425861,0.00528993,0.00656559,0.00814344,0.0100951,0.0125091,0.015495,0.0191882,0.0237564,0.0294068,0.0363958,0.0450404,0.055733,0.0689587,inf	0.175814,0.175814,0.175814,0.175814,0.175814,0.175814,0.175814,0.176257,0.175814,0.175814,0.175814,0.175814,0.175814,0.175815,0.175814,0.175814,0.175814,0.286302,5.92386,63.1975,319.772,891.282,1361.8,3113.9,2964.64,577.879,318.953,213.415,213.415,131.662,131.662,131.662
0.000312674	-3580987.95	0,2.24576e-05,5.02355e-05,8.45941e-05,0.000127092,0.000179658,0.000244677,0.000325099,0.000424573,0.000547613,0.000699801,0.000888043,0.00112088,0.00140887,0.0017651,0.00220571,0.0027507,0.00342481,0.00425861,0.00528993,0.00656559,0.00814344,0.0100951,0.0125091,0.015495,0.0191882,0.0237564,0.0294068,0.0363958,0.0450404,0.055733,0.0689587,inf	0.175814,0.175814,0.175814,0.175814,0.175814,0.175814,0.175814,0.176257,0.175814,0.175814,0.175814,0.175814,0.175814,0.175815,0.175814,0.175814,0.175814,0.175814,4.25749,56.7958,318.228,932.333,1500.54,26356,71490.2,584.309,502.016,177.675,177.675,1804.92,1804.92,1804.92
0.000279652	-3580675.91	0,2.24576e-05,5.02355e-05,8.45941e-05,0.000127092,0.000179658,0.000244677,0.000325099,0.000424573,0.000547613,0.000699801,0.000888043,0.00112088,0.00140887,0.0017651,0.00220571,0.0027507,0.00342481,0.00425861,0.00528993,0.00656559,0.00814344,0.0100951,0.0125091,0.015495,0.0191882,0.0237564,0.0294068,0.0363958,0.0450404,0.055733,0.0689587,inf	0.175814,0.175814,0.175814,0.175814,0.175814,0.175814,0.175814,0.176257,0.175814,0.175814,0.175814,0.175814,0.175814,0.175815,0.175814,0.175814,0.175814,0.175814,2.96941,50.5741,316.711,971.838,1666.94,207997,557.362,314.944,1364.62,482.972,482.972,2644.5,2644.5,2644.5
0.000249786	-3580397.92	0,2.24576e-05,5.02355e-05,8.45941e-05,0.000127092,0.000179658,0.000244677,0.000325099,0.000424573,0.000547613,0.000699801,0.000888043,0.00112088,0.00140887,0.0017651,0.00220571,0.0027507,0.00342481,0.00425861,0.00528993,0.00656559,0.00814344,0.0100951,0.0125091,0.015495,0.0191882,0.0237564,0.0294068,0.0363958,0.0450404,0.055733,0.0689587,inf	0.175814,0.175814,0.175814,0.175814,0.175814,0.175814,0.175814,0.176257,0.175814,0.175814,0.175814,0.175814,0.175814,0.175815,0.175814,0.175814,0.175814,0.175814,2.00248,44.5441,315.284,1008.87,1898.72,241523,13.6674,62.4498,15.5879,11.8432,11.8432,20.6174,20.6174,20.6174
