0.00189373	-828272.73	0,0.000145673,0.000317865,0.000521403,0.000761993,0.00104638,0.00138254,0.00177989,0.00224958,0.00280477,0.00346102,0.00423674,0.00515368,0.00623753,0.00751869,0.00903307,0.0108231,0.0129391,0.0154402,0.0183966,0.0218912,0.026022,0.0309047,0.0366763,0.0434986,0.0515628,0.061095,0.0723625,0.0856811,0.101424,inf	162.019,162.019,162.019,162.019,162.019,162.019,162.019,162.019,162.019,162.019,162.019,162.019,162.019,162.019,162.019,162.019,162.019,162.019,162.019,162.019,162.019,162.019,162.019,162.019,162.019,162.019,162.019,162.019,162.019,162.019
0.00173554	-827063.11	0,0.000145673,0.000317865,0.000521403,0.000761993,0.00104638,0.00138254,0.00177989,0.00224958,0.00280477,0.00346102,0.00423674,0.00515368,0.00623753,0.00751869,0.00903307,0.0108231,0.0129391,0.0154402,0.0183966,0.0218912,0.026022,0.0309047,0.0366763,0.0434986,0.0515628,0.061095,0.0723625,0.0856811,0.101424,inf	180.098,180.098,180.098,180.098,180.098,180.098,180.098,180.098,180.098,180.098,180.098,180.098,180.098,180.098,180.098,180.098,180.098,180.098,180.098,180.098,180.098,180.098,180.098,180.098,180.098,180.098,180.098,180.098,180.098,180.098
0.00154115	-826657.09	0,0.000145673,0.000317865,0.000521403,0.000761993,0.00104638,0.00138254,0.00177989,0.00224958,0.00280477,0.00346102,0.00423674,0.00515368,0.00623753,0.00751869,0.00903307,0.0108231,0.0129391,0.0154402,0.0183966,0.0218912,0.026022,0.0309047,0.0366763,0.0434986,0.0515628,0.061095,0.0723625,0.0856811,0.101424,inf	188.41,188.41,188.41,188.41,188.41,188.41,188.41,188.41,188.41,188.41,188.41,188.41,188.41,188.41,188.41,188.41,188.41,188.41,188.41,188.41,188.41,188.41,188.41,188.41,188.41,188.41,188.41,188.41,188.41,188.41
0.00133168	-826324.60	0,0.000145673,0.000317865,0.000521403,0.000761993,0.00104638,0.00138254,0.00177989,0.00224958,0.00280477,0.00346102,0.00423674,0.00515368,0.00623753,0.00751869,0.00903307,0.0108231,0.0129391,0.0154402,0.0183966,0.0218912,0.026022,0.0309047,0.0366763,0.0434986,0.0515628,0.061095,0.0723625,0.0856811,0.101424,inf	192.945,192.945,192.945,192.945,192.945,192.945,192.945,192.945,192.945,192.945,192.945,192.945,192.945,192.945,192.945,192.945,192.945,192.945,192.945,192.945,192.945,192.945,192.945,192.945,192.945,192.945,192.945,192.945,192.945,192.945
0.00111765	-825954.62	0,0.000145673,0.000317865,0.000521403,0.000761993,0.00104638,0.00138254,0.00177989,0.00224958,0.00280477,0.00346102,0.00423674,0.00515368,0.00623753,0.00751869,0.00903307,0.0108231,0.0129391,0.0154402,0.0183966,0.0218912,0.026022,0.0309047,0.0366763,0.0434986,0.0515628,0.061095,0.0723625,0.0856811,0.101424,inf	196.361,196.361,196.361,196.361,196.361,196.361,196.361,196.361,196.361,196.361,196.361,196.361,196.361,196.361,196.361,196.361,196.361,196.361,196.361,196.361,196.361,196.361,196.361,196.361,196.361,196.361,196.361,196.361,196.361,196.361
0.000904727	-825523.66	0,0.000145673,0.000317865,0.000521403,0.000761993,0.00104638,0.00138254,0.00177989,0.00224958,0.00280477,0.00346102,0.00423674,0.00515368,0.00623753,0.00751869,0.00903307,0.0108231,0.0129391,0.0154402,0.0183966,0.0218912,0.026022,0.0309047,0.0366763,0.0434986,0.0515628,0.061095,0.0723625,0.0856811,0.101424,inf	199.728,199.728,199.728,199.728,199.728,199.728,199.728,199.728,199.728,199.728,199.728,199.728,199.728,199.728,199.728,199.728,199.728,199.728,199.728,199.728,199.728,199.728,199.728,199.728,199.728,199.728,199.728,199.728,199.728,199.728
0.000697724	-825017.90	0,0.000145673,0.000317865,0.000521403,0.000761993,0.00104638,0.00138254,0.00177989,0.00224958,0.00280477,0.00346102,0.00423674,0.00515368,0.00623753,0.00751869,0.00903307,0.0108231,0.0129391,0.0154402,0.0183966,0.0218912,0.026022,0.0309047,0.0366763,0.0434986,0.0515628,0.061095,0.0723625,0.0856811,0.101424,inf	203.506,203.506,203.506,203.506,203.506,203.506,203.506,203.506,203.506,203.506,203.506,203.506,203.506,203.506,203.506,203.506,203.506,203.506,203.506,203.506,203.506,203.506,203.506,203.506,203.506,203.506,203.506,203.506,203.506,203.506
0.000502384	-824424.38	0,0.000145673,0.000317865,0.000521403,0.000761993,0.00104638,0.00138254,0.00177989,0.00224958,0.00280477,0.00346102,0.00423674,0.00515368,0.00623753,0.00751869,0.00903307,0.0108231,0.0129391,0.0154402,0.0183966,0.0218912,0.026022,0.0309047,0.0366763,0.0434986,0.0515628,0.061095,0.0723625,0.0856811,0.101424,inf	207.962,207.962,207.962,207.962,207.962,207.962,207.962,207.962,207.962,207.962,207.962,207.962,207.962,207.962,207.962,207.962,207.962,207.962,207.962,207.962,207.962,207.962,207.962,207.962,207.962,207.962,207.962,207.962,207.962,207.962
0.000326227	-823732.95	0,0.000145673,0.000317865,0.000521403,0.000761993,0.00104638,0.00138254,0.00177989,0.00224958,0.00280477,0.00346102,0.00423674,0.00515368,0.00623753,0.00751869,0.00903307,0.0108231,0.0129391,0.0154402,0.0183966,0.0218912,0.026022,0.0309047,0.0366763,0.0434986,0.0515628,0.061095,0.0723625,0.0856811,0.101424,inf	213.236,213.236,213.236,213.236,213.236,213.236,213.236,213.236,213.236,213.236,213.236,213.236,213.236,213.236,213.236,213.236,213.236,213.236,213.236,213.236,213.236,213.236,213.236,213.236,213.236,213.236,213.236,213.236,213.236,213.236
0.000178822	-822943.91	0,0.000145673,0.000317865,0.000521403,0.000761993,0.00104638,0.00138254,0.00177989,0.00224958,0.00280477,0.00346102,0.00423674,0.00515368,0.00623753,0.00751869,0.00903307,0.0108231,0.0129391,0.0154402,0.0183966,0.0218912,0.026022,0.0309047,0.0366763,0.0434986,0.0515628,0.061095,0.0723625,0.0856811,0.101424,inf	218.796,218.796,218.796,218.796,218.796,218.796,218.796,218.796,218.796,218.796,218.796,218.796,218.796,218.796,218.796,218.796,218.796,218.796,218.796,218.796,218.796,218.796,218.796,218.796,218.796,218.796,218.796,218.796,218.796,218.796
7.11956e-05	-822085.58	0,0.000145673,0.000317865,0.000521403,0.000761993,0.00104638,0.00138254,0.00177989,0.00224958,0.00280477,0.00346102,0.00423674,0.00515368,0.00623753,0.00751869,0.00903307,0.0108231,0.0129391,0.0154402,0.0183966,0.0218912,0.026022,0.0309047,0.0366763,0.0434986,0.0515628,0.061095,0.0723625,0.0856811,0.101424,inf	219.83,219.83,219.83,219.83,219.83,219.83,219.83,219.83,219.83,219.83,219.83,219.83,219.83,219.83,219.83,219.83,219.83,219.83,219.83,219.83,219.83,219.83,219.83,219.83,219.83,219.83,219.83,219.83,219.83,219.83
1.40237e-05	-821257.27	0,0.000145673,0.000317865,0.000521403,0.000761993,0.00104638,0.00138254,0.00177989,0.00224958,0.00280477,0.00346102,0.00423674,0.00515368,0.00623753,0.00751869,0.00903307,0.0108231,0.0129391,0.0154402,0.0183966,0.0218912,0.026022,0.0309047,0.0366763,0.0434986,0.0515628,0.061095,0.0723625,0.0856811,0.101424,inf	185.956,185.956,185.956,185.956,185.956,185.956,185.956,185.956,185.956,185.956,185.956,185.956,185.956,185.956,185.956,185.956,185.956,185.956,185.956,185.956,185.956,185.956,185.956,185.956,185.956,185.956,185.956,185.956,185.956,185.956
6.55955e-07	-820714.17	0,0.000145673,0.000317865,0.000521403,0.000761993,0.00104638,0.00138254,0.00177989,0.00224958,0.00280477,0.00346102,0.00423674,0.00515368,0.00623753,0.00751869,0.00903307,0.0108231,0.0129391,0.0154402,0.0183966,0.0218912,0.026022,0.0309047,0.0366763,0.0434986,0.0515628,0.061095,0.0723625,0.0856811,0.101424,inf	51.6359,51.6359,51.6359,51.6359,51.6359,51.6359,51.6359,51.6359,51.6359,51.6359,51.6359,51.6359,51.6359,51.6359,51.6359,51.6359,51.6359,51.6359,51.6359,51.6359,51.6359,51.6359,51.6359,51.6359,51.6359,51.6359,51.6359,51.6359,51.6359,51.6359
1.92699e-09	-820577.87	0,0.000145673,0.000317865,0.000521403,0.000761993,0.00104638,0.00138254,0.00177989,0.00224958,0.00280477,0.00346102,0.00423674,0.00515368,0.00623753,0.00751869,0.00903307,0.0108231,0.0129391,0.0154402,0.0183966,0.0218912,0.026022,0.0309047,0.0366763,0.0434986,0.0515628,0.061095,0.0723625,0.0856811,0.101424,inf	0.248249,0.248249,0.248249,0.248249,0.248249,0.248249,0.248249,0.248249,0.248249,0.248249,0.248249,0.248249,0.248249,0.248249,0.248249,0.248249,0.248249,0.248249,0.248249,0.248249,0.248249,0.248249,0.248249,0.248249,0.248249,0.248249,0.248249,0.248249,0.248249,0.248249
1.04699e-11	-820577.01	0,0.000145673,0.000317865,0.000521403,0.000761993,0.00104638,0.00138254,0.00177989,0.00224958,0.00280477,0.00346102,0.00423674,0.00515368,0.00623753,0.00751869,0.00903307,0.0108231,0.0129391,0.0154402,0.0183966,0.0218912,0.026022,0.0309047,0.0366763,0.0434986,0.0515628,0.061095,0.0723625,0.0856811,0.101424,inf	0.124966,0.124966,0.124966,0.124966,0.124966,0.124966,0.124966,0.124966,0.124966,0.124966,0.124966,0.124966,0.124966,0.124966,0.124966,0.124966,0.124966,0.124966,0.124966,0.124966,0.124966,0.124966,0.124966,0.124966,0.124966,0.124966,0.124966,0.124966,0.124966,0.124966
5.97308e-14	-820577.67	0,0.000145673,0.000317865,0.000521403,0.000761993,0.00104638,0.00138254,0.00177989,0.00224958,0.00280477,0.00346102,0.00423674,0.00515368,0.00623753,0.00751869,0.00903307,0.0108231,0.0129391,0.0154402,0.0183966,0.0218912,0.026022,0.0309047,0.0366763,0.0434986,0.0515628,0.061095,0.0723625,0.0856811,0.101424,inf	0.124966,0.124966,0.124966,0.124966,0.124966,0.124966,0.124966,0.124966,0.124966,0.124966,0.124966,0.124966,0.124966,0.124966,0.124966,0.124966,0.124966,0.124966,0.124966,0.124966,0.124966,0.124966,0.124966,0.124966,0.124966,0.124966,0.124966,0.124966,0.124966,0.124966
3.0626e-15	-820577.67	0,0.000145673,0.000317865,0.000521403,0.000761993,0.00104638,0.00138254,0.00177989,0.00224958,0.00280477,0.00346102,0.00423674,0.00515368,0.00623753,0.00751869,0.00903307,0.0108231,0.0129391,0.0154402,0.0183966,0.0218912,0.026022,0.0309047,0.0366763,0.0434986,0.0515628,0.061095,0.0723625,0.0856811,0.101424,inf	0.124966,0.124966,0.124966,0.124966,0.124966,0.124966,0.124966,0.124966,0.124966,0.124966,0.124966,0.124966,0.124966,0.124966,0.124966,0.124966,0.124966,0.124966,0.124966,0.124966,0.124966,0.124966,0.124966,0.124966,0.124966,0.124966,0.124966,0.124966,0.124966,0.124966
3.05673e-15	-820577.67	0,0.000145673,0.000317865,0.000521403,0.000761993,0.00104638,0.00138254,0.00177989,0.00224958,0.00280477,0.00346102,0.00423674,0.00515368,0.00623753,0.00751869,0.00903307,0.0108231,0.0129391,0.0154402,0.0183966,0.0218912,0.026022,0.0309047,0.0366763,0.0434986,0.0515628,0.061095,0.0723625,0.0856811,0.101424,inf	0.124966,0.124966,0.124966,0.124966,0.124966,0.124966,0.124966,0.124966,0.124966,0.124966,0.124966,0.124966,0.124966,0.124966,0.124966,0.124966,0.124966,0.124966,0.124966,0.124966,0.124966,0.124966,0.124966,0.124966,0.124966,0.124966,0.124966,0.124966,0.124966,0.124966
3.05088e-15	-820577.67	0,0.000145673,0.000317865,0.000521403,0.000761993,0.00104638,0.00138254,0.00177989,0.00224958,0.00280477,0.00346102,0.00423674,0.00515368,0.00623753,0.00751869,0.00903307,0.0108231,0.0129391,0.0154402,0.0183966,0.0218912,0.026022,0.0309047,0.0366763,0.0434986,0.0515628,0.061095,0.0723625,0.0856811,0.101424,inf	0.124966,0.124966,0.124966,0.124966,0.124966,0.124966,0.124966,0.124966,0.124966,0.124966,0.124966,0.124966,0.124966,0.124966,0.124966,0.124966,0.124966,0.124966,0.124966,0.124966,0.124966,0.124966,0.124966,0.124966,0.124966,0.124966,0.124966,0.124966,0.124966,0.124966
3.05088e-15	-820577.67	0,0.000145673,0.000317865,0.000521403,0.000761993,0.00104638,0.00138254,0.00177989,0.00224958,0.00280477,0.00346102,0.00423674,0.00515368,0.00623753,0.00751869,0.00903307,0.0108231,0.0129391,0.0154402,0.0183966,0.0218912,0.026022,0.0309047,0.0366763,0.0434986,0.0515628,0.061095,0.0723625,0.0856811,0.101424,inf	0.124966,0.124966,0.124966,0.124966,0.124966,0.124966,0.124966,0.124966,0.124966,0.124966,0.124966,0.124966,0.124966,0.124966,0.124966,0.124966,0.124966,0.124966,0.124966,0.124966,0.124966,0.124966,0.124966,0.124966,0.124966,0.124966,0.124966,0.124966,0.124966,0.124966
