0.00098622	-22987129.31	0,7.83585e-06,2.14322e-05,4.50238e-05,8.59586e-05,0.000156986,0.00028023,0.000494075,0.000865127,0.00150896,0.00262609,0.00456448,0.00792787,0.0137638,0.0238901,0.0414605,inf	4.37395,4.37395,12.7399,60.2958,79.5117,210.854,196.866,73.8885,90.3299,66.9739,81.615,191.338,272.063,254.856,254.856,254.856
0.000868227	-22911170.82	0,7.83585e-06,2.14322e-05,4.50238e-05,8.59586e-05,0.000156986,0.00028023,0.000494075,0.000865127,0.00150896,0.00262609,0.00456448,0.00792787,0.0137638,0.0238901,0.0414605,inf	0.208484,0.208484,0.548408,26.5256,24.0583,152.433,143.711,23.0525,52.5879,27.944,44.9848,177.033,336.732,305.806,305.806,305.806
0.00076956	-22881063.84	0,7.83585e-06,2.14322e-05,4.50238e-05,8.59586e-05,0.000156986,0.00028023,0.000494075,0.000865127,0.00150896,0.00262609,0.00456448,0.00792787,0.0137638,0.0238901,0.0414605,inf	0.208484,0.208484,0.208484,20.0549,7.64763,99.5882,94.804,7.42397,34.817,13.2609,27.4304,164.009,397.248,356.575,356.575,356.575
0.000680766	-22864105.22	0,7.83585e-06,2.14322e-05,4.50238e-05,8.59586e-05,0.000156986,0.00028023,0.000494075,0.000865127,0.00150896,0.00262609,0.00456448,0.00792787,0.0137638,0.0238901,0.0414605,inf	0.208484,0.208484,0.208484,10.1697,1.68972,58.7412,60.176,3.16132,24.9216,7.14259,17.3365,153.114,453.038,407.107,407.107,407.107
0.000599934	-22852901.42	0,7.83585e-06,2.14322e-05,4.50238e-05,8.59586e-05,0.000156986,0.00028023,0.000494075,0.000865127,0.00150896,0.00262609,0.00456448,0.00792787,0.0137638,0.0238901,0.0414605,inf	0.208484,0.208484,0.208484,3.70545,0.227948,30.0137,38.8745,2.18659,19.0642,4.51308,11.0053,144.048,503.872,463.996,463.996,463.996
0.000526756	-22844721.28	0,7.83585e-06,2.14322e-05,4.50238e-05,8.59586e-05,0.000156986,0.00028023,0.000494075,0.000865127,0.00150896,0.00262609,0.00456448,0.00792787,0.0137638,0.0238901,0.0414605,inf	0.208484,0.208484,0.208484,0.797551,0.209314,11.948,27.3523,2.16531,15.6911,3.46499,6.8804,136.278,549.621,551.336,551.336,551.336
0.000461091	-22838355.88	0,7.83585e-06,2.14322e-05,4.50238e-05,8.59586e-05,0.000156986,0.00028023,0.000494075,0.000865127,0.00150896,0.00262609,0.00456448,0.00792787,0.0137638,0.0238901,0.0414605,inf	0.208484,0.208484,0.208484,0.208485,0.209314,3.14342,22.4158,2.40359,14.0821,3.22953,4.17645,129.363,590.31,774.254,774.254,774.254
0.000402763	-22833187.54	0,7.83585e-06,2.14322e-05,4.50238e-05,8.59586e-05,0.000156986,0.00028023,0.000494075,0.000865127,0.00150896,0.00262609,0.00456448,0.00792787,0.0137638,0.0238901,0.0414605,inf	0.208484,0.208484,0.208484,0.208485,0.209314,0.597414,21.8882,2.79081,13.7758,3.45115,2.43411,123.016,625.86,2512.98,2512.98,2512.98
0.000402752	-22828880.20	0,7.83585e-06,2.14322e-05,4.50238e-05,8.59586e-05,0.000156986,0.00028023,0.000494075,0.000865127,0.00150896,0.00262609,0.00456448,0.00792787,0.0137638,0.0238901,0.0414605,inf	0.208484,0.208484,0.208484,0.208485,0.209314,0.208614,28.4167,3.19738,14.4034,3.83408,1.30893,115.325,664.271,26060.2,26060.2,26060.2
