LogLikelihood = -39832.781834116554819

y0 0.025843410111804805684
y0_prime 0
y1 1.0208322825424729352
y1_prime 0
y2 1.5347744547864401454
y2_prime 0
y3 2.2049829384684920264
y3_prime 0
rho 2.101258078172944937e-05
theta 7.6730419125897974782e-05
