LogLikelihood = -135986.49813431085204

y0 0.18798907615577228891
y0_prime 0
y1 0.27394473863034302097
y1_prime 0
y2 2.1371094479795846865
y2_prime 0
y3 37.235631780398001922
y3_prime 0
rho 0.00046908826608964542676
theta 0.001877609652403700426
