AIC = 1359067.1911008809693

y0 0.16713482569110643672
y0_prime 0
y1 0.45732063869655514843
y1_prime 0
y2 1.8917364637453943921
y2_prime 0
y3 39.28304989855487861
y3_prime 0
rho 0.0012439952754997153986
rho.alpha 0.72981579878413294082
r_ii 0.99992889853300381819
theta 0.001875235637017487857
