6.69433e-05	-41407.36	0,4.15653e-06,9.01864e-06,1.47061e-05,2.1359e-05,2.91412e-05,3.82444e-05,4.8893e-05,6.13491e-05,7.59196e-05,9.29635e-05,0.000112901,0.000136222,0.000163502,0.000195413,0.000232741,0.000276405,0.000327482,0.000387228,0.000457117,0.000538869,0.000634498,0.000746361,0.000877212,0.00103028,0.00120932,0.00141876,0.00166375,0.00195033,0.00228555,0.00267768,0.00313638,inf	2075.22,2075.22,2928.76,3222.71,3268.58,3231.26,3297.58,3495.09,3768.6,4069.16,4327.42,4494.74,4574.85,4605.84,4623.57,4626.87,4588.62,4480.42,4313.04,4133.17,3976.5,3888.02,3927.98,4074.52,4223.44,4320.61,4426.5,4729.57,4729.57,5268.32,5268.32,5268.32
7.21807e-05	-41397.79	0,4.15653e-06,9.01864e-06,1.47061e-05,2.1359e-05,2.91412e-05,3.82444e-05,4.8893e-05,6.13491e-05,7.59196e-05,9.29635e-05,0.000112901,0.000136222,0.000163502,0.000195413,0.000232741,0.000276405,0.000327482,0.000387228,0.000457117,0.000538869,0.000634498,0.000746361,0.000877212,0.00103028,0.00120932,0.00141876,0.00166375,0.00195033,0.00228555,0.00267768,0.00313638,inf	1423.9,1423.9,2677.97,3097.43,3052.45,2871.76,2896.64,3158.29,3561.85,4027.36,4433.25,4690.55,4809.2,4860.55,4907.61,4941.95,4900.91,4719.55,4419.56,4098.59,3828.63,3688.46,3771.55,4039.18,4317.19,4506.44,4723.18,5386.04,5386.04,6830.05,6830.05,6830.05
7.69687e-05	-41392.23	0,4.15653e-06,9.01864e-06,1.47061e-05,2.1359e-05,2.91412e-05,3.82444e-05,4.8893e-05,6.13491e-05,7.59196e-05,9.29635e-05,0.000112901,0.000136222,0.000163502,0.000195413,0.000232741,0.000276405,0.000327482,0.000387228,0.000457117,0.000538869,0.000634498,0.000746361,0.000877212,0.00103028,0.00120932,0.00141876,0.00166375,0.00195033,0.00228555,0.00267768,0.00313638,inf	1097.46,1097.46,2688.52,3212.95,3030.31,2683.93,2653.1,2944.12,3426.5,3997.68,4493.7,4795.2,4924.3,4984.25,5060.16,5134.59,5107.38,4873.88,4466.25,4033.38,3681.11,3511.38,3633.26,3996.26,4381.22,4654.03,4982.44,6057.29,6057.29,9177.33,9177.33,9177.33
8.13818e-05	-41388.21	0,4.15653e-06,9.01864e-06,1.47061e-05,2.1359e-05,2.91412e-05,3.82444e-05,4.8893e-05,6.13491e-05,7.59196e-05,9.29635e-05,0.000112901,0.000136222,0.000163502,0.000195413,0.000232741,0.000276405,0.000327482,0.000387228,0.000457117,0.000538869,0.000634498,0.000746361,0.000877212,0.00103028,0.00120932,0.00141876,0.00166375,0.00195033,0.00228555,0.00267768,0.00313638,inf	879.925,879.925,2782.22,3415.63,3072.83,2563.88,2485.89,2798.24,3338.45,3985.91,4540.09,4858.98,4981.81,5042.48,5144.51,5261.1,5255.41,4982.54,4484.87,3961.23,3547.79,3361.42,3516.21,3953.3,4425.11,4771.89,5209.86,6746.68,6746.68,13785.8,13785.8,13785.8
8.5476e-05	-41385.04	0,4.15653e-06,9.01864e-06,1.47061e-05,2.1359e-05,2.91412e-05,3.82444e-05,4.8893e-05,6.13491e-05,7.59196e-05,9.29635e-05,0.000112901,0.000136222,0.000163502,0.000195413,0.000232741,0.000276405,0.000327482,0.000387228,0.000457117,0.000538869,0.000634498,0.000746361,0.000877212,0.00103028,0.00120932,0.00141876,0.00166375,0.00195033,0.00228555,0.00267768,0.00313638,inf	712.071,712.071,2893.14,3642.92,3129.91,2472.36,2360.75,2694.04,3282.34,3989.69,4582.63,4902.54,5009.38,5066.17,5191.77,5350.17,5369.61,5065.57,4490.6,3891.54,3431.45,3236.11,3418.43,3913.1,4454.74,4865.94,5409.26,7456.51,7456.51,32092.2,32092.2,32092.2
8.5476e-05	-41382.46	0,4.15653e-06,9.01864e-06,1.47061e-05,2.1359e-05,2.91412e-05,3.82444e-05,4.8893e-05,6.13491e-05,7.59196e-05,9.29635e-05,0.000112901,0.000136222,0.000163502,0.000195413,0.000232741,0.000276405,0.000327482,0.000387228,0.000457117,0.000538869,0.000634498,0.000746361,0.000877212,0.00103028,0.00120932,0.00141876,0.00166375,0.00195033,0.00228555,0.00267768,0.00313638,inf	568.566,568.566,2957.96,3816.31,3139.48,2362.37,2231.82,2582.44,3204.24,3949.39,4558.79,4866.41,4954.29,5008.8,5158.71,5359.5,5409.36,5087.65,4454.76,3799.84,3308.91,3112.23,3317.35,3854.91,4452.2,4921.02,5565.4,8169.06,8169.06,839205,839205,839205
8.5476e-05	-41382.28	0,4.15653e-06,9.01864e-06,1.47061e-05,2.1359e-05,2.91412e-05,3.82444e-05,4.8893e-05,6.13491e-05,7.59196e-05,9.29635e-05,0.000112901,0.000136222,0.000163502,0.000195413,0.000232741,0.000276405,0.000327482,0.000387228,0.000457117,0.000538869,0.000634498,0.000746361,0.000877212,0.00103028,0.00120932,0.00141876,0.00166375,0.00195033,0.00228555,0.00267768,0.00313638,inf	453.721,453.721,3027.79,3908.34,3139.48,2284.49,2137.82,2506.51,3162.46,3946.21,4570.91,4862.21,4926.18,4973.96,5144.83,5386.79,5468.13,5110.72,4439.41,3730.29,3209.78,3010.47,3234.25,3807.96,4452.35,4972.33,5707.89,8169.06,8169.06,839205,839205,839205
8.5476e-05	-41382.18	0,4.15653e-06,9.01864e-06,1.47061e-05,2.1359e-05,2.91412e-05,3.82444e-05,4.8893e-05,6.13491e-05,7.59196e-05,9.29635e-05,0.000112901,0.000136222,0.000163502,0.000195413,0.000232741,0.000276405,0.000327482,0.000387228,0.000457117,0.000538869,0.000634498,0.000746361,0.000877212,0.00103028,0.00120932,0.00141876,0.00166375,0.00195033,0.00228555,0.00267768,0.00313638,inf	362.741,362.741,3106.91,3946.28,3139.48,2225.98,2063.48,2449.12,3137.92,3958.82,4597.33,4869.39,4906.72,4945.72,5136.26,5419.86,5503.27,5110.72,4436.42,3675.33,3127.56,2925.94,3165.35,3769.64,4455,5022.13,5814,8169.06,8169.06,839205,839205,839205
8.5476e-05	-41382.13	0,4.15653e-06,9.01864e-06,1.47061e-05,2.1359e-05,2.91412e-05,3.82444e-05,4.8893e-05,6.13491e-05,7.59196e-05,9.29635e-05,0.000112901,0.000136222,0.000163502,0.000195413,0.000232741,0.000276405,0.000327482,0.000387228,0.000457117,0.000538869,0.000634498,0.000746361,0.000877212,0.00103028,0.00120932,0.00141876,0.00166375,0.00195033,0.00228555,0.00267768,0.00313638,inf	290.543,290.543,3196.07,3964.36,3139.48,2180.65,2001.75,2402.73,3122.66,3979.27,4630.2,4881.24,4890.81,4920.54,5130.79,5457.59,5510.81,5110.72,4436.42,3632.74,3059.34,2854.96,3107.87,3738.3,4459.56,5070.45,5892.9,8169.06,8169.06,839205,839205,839205
8.5476e-05	-41382.10	0,4.15653e-06,9.01864e-06,1.47061e-05,2.1359e-05,2.91412e-05,3.82444e-05,4.8893e-05,6.13491e-05,7.59196e-05,9.29635e-05,0.000112901,0.000136222,0.000163502,0.000195413,0.000232741,0.000276405,0.000327482,0.000387228,0.000457117,0.000538869,0.000634498,0.000746361,0.000877212,0.00103028,0.00120932,0.00141876,0.00166375,0.00195033,0.00228555,0.00267768,0.00313638,inf	232.766,232.766,3285.91,3964.36,3139.48,2144.11,1948.33,2363.1,3111.91,4002.95,4665.49,4894.53,4876.1,4896.83,5127.23,5490.23,5510.81,5110.72,4436.42,3600.6,3002.37,2795.2,3059.61,3712.58,4465.5,5117.31,5950.59,8169.06,8169.06,839205,839205,839205
8.5476e-05	-41382.08	0,4.15653e-06,9.01864e-06,1.47061e-05,2.1359e-05,2.91412e-05,3.82444e-05,4.8893e-05,6.13491e-05,7.59196e-05,9.29635e-05,0.000112901,0.000136222,0.000163502,0.000195413,0.000232741,0.000276405,0.000327482,0.000387228,0.000457117,0.000538869,0.000634498,0.000746361,0.000877212,0.00103028,0.00120932,0.00141876,0.00166375,0.00195033,0.00228555,0.00267768,0.00313638,inf	186.401,186.401,3301.91,4019.47,3139.48,2114.54,1901.19,2328.2,3103.83,4028.32,4701.33,4902.1,4861.55,4873.92,5125.47,5517.56,5510.81,5110.72,4436.42,3577.18,2954.79,2744.3,3018.81,3691.41,4472.4,5162.74,5991.35,8169.06,8169.06,839205,839205,839205
8.5476e-05	-41382.07	0,4.15653e-06,9.01864e-06,1.47061e-05,2.1359e-05,2.91412e-05,3.82444e-05,4.8893e-05,6.13491e-05,7.59196e-05,9.29635e-05,0.000112901,0.000136222,0.000163502,0.000195413,0.000232741,0.000276405,0.000327482,0.000387228,0.000457117,0.000538869,0.000634498,0.000746361,0.000877212,0.00103028,0.00120932,0.00141876,0.00166375,0.00195033,0.00228555,0.00267768,0.00313638,inf	149.382,149.382,3360.1,4019.47,3139.48,2089.07,1858.18,2296.35,3097.38,4054.39,4737.05,4903.14,4847,4851.67,5125.14,5543.19,5510.81,5110.72,4436.42,3560.89,2914.66,2700.68,2984.03,3673.86,4479.9,5206.76,6018.8,8169.06,8169.06,839205,839205,839205
8.5476e-05	-41382.07	0,4.15653e-06,9.01864e-06,1.47061e-05,2.1359e-05,2.91412e-05,3.82444e-05,4.8893e-05,6.13491e-05,7.59196e-05,9.29635e-05,0.000112901,0.000136222,0.000163502,0.000195413,0.000232741,0.000276405,0.000327482,0.000387228,0.000457117,0.000538869,0.000634498,0.000746361,0.000877212,0.00103028,0.00120932,0.00141876,0.00166375,0.00195033,0.00228555,0.00267768,0.00313638,inf	119.721,119.721,3402.2,4019.47,3139.48,2068.29,1819.31,2267.47,3092.7,4081.34,4765.72,4903.14,4832.6,4830.05,5126.02,5567.24,5510.81,5110.72,4436.42,3550.38,2880.55,2662.85,2954.21,3659.2,4487.72,5249.38,6035.83,8169.06,8169.06,839205,839205,839205
8.5476e-05	-41382.06	0,4.15653e-06,9.01864e-06,1.47061e-05,2.1359e-05,2.91412e-05,3.82444e-05,4.8893e-05,6.13491e-05,7.59196e-05,9.29635e-05,0.000112901,0.000136222,0.000163502,0.000195413,0.000232741,0.000276405,0.000327482,0.000387228,0.000457117,0.000538869,0.000634498,0.000746361,0.000877212,0.00103028,0.00120932,0.00141876,0.00166375,0.00195033,0.00228555,0.00267768,0.00313638,inf	95.9757,95.9757,3446.42,4019.47,3139.48,2051.78,1784.11,2241.24,3089.48,4109.16,4787.02,4903.14,4818.45,4809.05,5127.9,5589.82,5510.81,5110.72,4436.42,3544.58,2851.35,2629.92,2928.28,3646.87,4495.63,5290.62,6044.71,8169.06,8169.06,839205,839205,839205
8.5476e-05	-41382.06	0,4.15653e-06,9.01864e-06,1.47061e-05,2.1359e-05,2.91412e-05,3.82444e-05,4.8893e-05,6.13491e-05,7.59196e-05,9.29635e-05,0.000112901,0.000136222,0.000163502,0.000195413,0.000232741,0.000276405,0.000327482,0.000387228,0.000457117,0.000538869,0.000634498,0.000746361,0.000877212,0.00103028,0.00120932,0.00141876,0.00166375,0.00195033,0.00228555,0.00267768,0.00313638,inf	76.9197,76.9197,3452.53,4041.84,3139.48,2038.74,1751.96,2217.29,3087.49,4137.9,4801.99,4903.14,4804.65,4788.64,5130.66,5611,5510.81,5110.72,4436.42,3542.59,2826.16,2600.94,2905.62,3636.4,4503.46,5330.51,6047.26,8169.06,8169.06,839205,839205,839205
8.5476e-05	-41382.06	0,4.15653e-06,9.01864e-06,1.47061e-05,2.1359e-05,2.91412e-05,3.82444e-05,4.8893e-05,6.13491e-05,7.59196e-05,9.29635e-05,0.000112901,0.000136222,0.000163502,0.000195413,0.000232741,0.000276405,0.000327482,0.000387228,0.000457117,0.000538869,0.000634498,0.000746361,0.000877212,0.00103028,0.00120932,0.00141876,0.00166375,0.00195033,0.00228555,0.00267768,0.00313638,inf	61.6772,61.6772,3468.51,4061.46,3139.48,2028.41,1722.27,2195.21,3086.78,4167.49,4811.58,4903.14,4791.25,4768.78,5134.16,5630.89,5510.81,5110.72,4436.42,3542.59,2804.26,2575.07,2885.68,3627.45,4511.15,5366.09,6047.82,8169.06,8169.06,839204,839204,839204
8.5476e-05	-41382.06	0,4.15653e-06,9.01864e-06,1.47061e-05,2.1359e-05,2.91412e-05,3.82444e-05,4.8893e-05,6.13491e-05,7.59196e-05,9.29635e-05,0.000112901,0.000136222,0.000163502,0.000195413,0.000232741,0.000276405,0.000327482,0.000387228,0.000457117,0.000538869,0.000634498,0.000746361,0.000877212,0.00103028,0.00120932,0.00141876,0.00166375,0.00195033,0.00228555,0.00267768,0.00313638,inf	49.4411,49.4411,3485.86,4063.45,3139.48,2020.06,1694.57,2174.64,3087.11,4197.7,4816.98,4903.14,4778.32,4749.49,5138.33,5649.51,5510.81,5110.72,4436.42,3542.59,2785.13,2551.97,2868.04,3619.77,4518.65,5397.38,6047.82,8169.06,8169.06,839204,839204,839204
8.5476e-05	-41382.06	0,4.15653e-06,9.01864e-06,1.47061e-05,2.1359e-05,2.91412e-05,3.82444e-05,4.8893e-05,6.13491e-05,7.59196e-05,9.29635e-05,0.000112901,0.000136222,0.000163502,0.000195413,0.000232741,0.000276405,0.000327482,0.000387228,0.000457117,0.000538869,0.000634498,0.000746361,0.000877212,0.00103028,0.00120932,0.00141876,0.00166375,0.00195033,0.00228555,0.00267768,0.00313638,inf	39.6417,39.6417,3499.73,4073.87,3139.48,2014.21,1668.97,2155.25,3088.64,4228.69,4817.82,4903.14,4765.9,4730.77,5143.13,5666.84,5510.81,5110.72,4436.42,3542.59,2768.4,2531.25,2852.4,3613.19,4525.95,5424.43,6047.82,8169.06,8169.06,839204,839204,839204
8.5476e-05	-41382.06	0,4.15653e-06,9.01864e-06,1.47061e-05,2.1359e-05,2.91412e-05,3.82444e-05,4.8893e-05,6.13491e-05,7.59196e-05,9.29635e-05,0.000112901,0.000136222,0.000163502,0.000195413,0.000232741,0.000276405,0.000327482,0.000387228,0.000457117,0.000538869,0.000634498,0.000746361,0.000877212,0.00103028,0.00120932,0.00141876,0.00166375,0.00195033,0.00228555,0.00267768,0.00313638,inf	31.7725,31.7725,3519.21,4073.87,3139.48,2010.03,1644.93,2137.47,3090.77,4257.13,4817.82,4903.14,4754.06,4712.65,5148.56,5682.84,5510.81,5110.72,4436.42,3542.59,2753.76,2512.64,2838.48,3607.55,4533.04,5447.37,6048.21,8169.06,8169.06,839204,839204,839204
8.5476e-05	-41382.06	0,4.15653e-06,9.01864e-06,1.47061e-05,2.1359e-05,2.91412e-05,3.82444e-05,4.8893e-05,6.13491e-05,7.59196e-05,9.29635e-05,0.000112901,0.000136222,0.000163502,0.000195413,0.000232741,0.000276405,0.000327482,0.000387228,0.000457117,0.000538869,0.000634498,0.000746361,0.000877212,0.00103028,0.00120932,0.00141876,0.00166375,0.00195033,0.00228555,0.00267768,0.00313638,inf	25.4565,25.4565,3519.21,4083.32,3139.48,2007.61,1622.43,2120.87,3093.83,4281.99,4817.82,4903.14,4742.83,4695.01,5154.6,5697.43,5510.95,5110.72,4436.42,3542.59,2740.94,2495.86,2826.08,3602.76,4540.21,5447.49,6065.14,8169.06,8169.06,839204,839204,839204
