LogLikelihood = -1235225.2273985310458

y0 0.95833319528216542871
y0_prime 0
y1 1.0701474066229466064
y1_prime 0
y2 0.86059087983703774771
y2_prime 0
y3 1.8129214630415200205
y3_prime 0
rho 0.0027343235161652146119
theta 0.0050685412193319017912
