LogLikelihood = -171194.41546694742283

y0 0.86301843302187963847
y0_prime 0
y1 1.1346050582901026083
y1_prime 0
y2 0.8101446842545902971
y2_prime 0
y3 1.7831377131599999153
y3_prime 0
rho 0.0021775478727548403489
rho.alpha 0.38090402316798804838
r_ii 0.99986972025116283014
theta 0.0025261157378091200071
