LogLikelihood = -845348.50280460738577

y0 0.87915866984695467679
y0_prime 0
y1 0.95814039038480158794
y1_prime 0
y2 0.97686719214664619049
y2_prime 0
y3 1.9704996596176296286
y3_prime 0
rho 0.0005998138803024784119
theta 0.0024894948497537752394
