LogLikelihood = -1508653.5606369371526

y0 1.070678844487446435
y0_prime 0
y1 1.0327132087339292443
y1_prime 0
y2 0.90318661962568735913
y2_prime 0
y3 1.8534535220449015469
y3_prime 0
rho 0.00010258328704738711116
theta 0.005051500225705371494
