LogLikelihood = -133895.00959743151907

y0 0.21874192693251043318
y0_prime 0
y1 0.4495328679141082362
y1_prime 0
y2 2.0533507779376729552
y2_prime 0
y3 7.2948995337596054256
y3_prime 0
rho 0.017208751115843190505
rho.alpha 0.28710255216128799383
r_ii 0.99260182866161361659
theta 0.0018364345861080161402
