0.000671966	-308459.76	0,4.27465e-05,9.27491e-05,0.00015124,0.000219659,0.000299693,0.000393312,0.000502823,0.000630924,0.00078077,0.000956052,0.00116109,0.00140093,0.00168148,0.00200966,0.00239355,0.0028426,0.00336788,0.00398232,0.00470106,0.00554181,0.00652528,0.0076757,0.00902139,0.0105955,0.0124369,0.0145908,0.0171103,0.0200575,0.023505,0.0275377,0.032255,inf	347.252,347.252,371.397,398.377,359.597,333.475,331.718,339.404,350.507,363.514,377.883,393.521,409.197,422.995,433.386,439.941,442.571,441.522,438.389,434.609,430.187,424.901,419.776,416.58,415.355,414.622,412.762,409.693,409.693,420.94,420.94,420.94
0.000710755	-308392.85	0,4.27465e-05,9.27491e-05,0.00015124,0.000219659,0.000299693,0.000393312,0.000502823,0.000630924,0.00078077,0.000956052,0.00116109,0.00140093,0.00168148,0.00200966,0.00239355,0.0028426,0.00336788,0.00398232,0.00470106,0.00554181,0.00652528,0.0076757,0.00902139,0.0105955,0.0124369,0.0145908,0.0171103,0.0200575,0.023505,0.0275377,0.032255,inf	333.078,333.078,373.611,428.594,351.943,304.881,300.584,311.052,326.54,344.64,364.842,387.709,411.687,433.652,450.942,462.621,468.111,467.392,463.175,457.981,451.494,442.985,434.474,429.609,428.441,427.919,424.718,419.127,419.127,443.214,443.214,443.214
0.000746283	-308358.15	0,4.27465e-05,9.27491e-05,0.00015124,0.000219659,0.000299693,0.000393312,0.000502823,0.000630924,0.00078077,0.000956052,0.00116109,0.00140093,0.00168148,0.00200966,0.00239355,0.0028426,0.00336788,0.00398232,0.00470106,0.00554181,0.00652528,0.0076757,0.00902139,0.0105955,0.0124369,0.0145908,0.0171103,0.0200575,0.023505,0.0275377,0.032255,inf	323.234,323.234,377.451,464.193,352.181,289.1,283.513,295.799,313.593,333.847,356.356,382.611,411.07,437.787,459.361,474.551,482.306,482.202,477.762,472.317,465.059,454.593,443.853,438.336,438.063,438.358,434.16,426.478,426.478,464.45,464.45,464.45
0.000779169	-308334.80	0,4.27465e-05,9.27491e-05,0.00015124,0.000219659,0.000299693,0.000393312,0.000502823,0.000630924,0.00078077,0.000956052,0.00116109,0.00140093,0.00168148,0.00200966,0.00239355,0.0028426,0.00336788,0.00398232,0.00470106,0.00554181,0.00652528,0.0076757,0.00902139,0.0105955,0.0124369,0.0145908,0.0171103,0.0200575,0.023505,0.0275377,0.032255,inf	313.109,313.109,377.078,497.847,353.793,278.789,273.208,287.294,306.697,327.842,351.018,378.763,409.656,439.115,463.262,480.728,490.085,490.512,486.156,480.966,473.591,461.911,449.696,444.196,445.352,446.848,441.882,432.447,432.447,485.027,485.027,485.027
0.000809905	-308316.48	0,4.27465e-05,9.27491e-05,0.00015124,0.000219659,0.000299693,0.000393312,0.000502823,0.000630924,0.00078077,0.000956052,0.00116109,0.00140093,0.00168148,0.00200966,0.00239355,0.0028426,0.00336788,0.00398232,0.00470106,0.00554181,0.00652528,0.0076757,0.00902139,0.0105955,0.0124369,0.0145908,0.0171103,0.0200575,0.023505,0.0275377,0.032255,inf	303.253,303.253,372.379,527.568,354.784,271.079,266.503,282.582,303.357,324.785,347.8,376.045,408.234,439.246,464.879,483.765,494.192,494.982,490.781,486.03,478.833,466.364,453.168,448.121,451.044,453.981,448.403,437.482,437.482,505.223,505.223,505.223
0.00083884	-308300.97	0,4.27465e-05,9.27491e-05,0.00015124,0.000219659,0.000299693,0.000393312,0.000502823,0.000630924,0.00078077,0.000956052,0.00116109,0.00140093,0.00168148,0.00200966,0.00239355,0.0028426,0.00336788,0.00398232,0.00470106,0.00554181,0.00652528,0.0076757,0.00902139,0.0105955,0.0124369,0.0145908,0.0171103,0.0200575,0.023505,0.0275377,0.032255,inf	294.528,294.528,364.619,553.284,354.668,264.728,261.855,280.123,302.191,323.583,345.995,374.202,407.037,438.884,465.321,485.057,496.166,497.162,493.098,488.812,481.9,468.883,455.031,450.723,455.62,460.145,454.067,441.871,441.871,525.241,525.241,525.241
0.000866224	-308287.34	0,4.27465e-05,9.27491e-05,0.00015124,0.000219659,0.000299693,0.000393312,0.000502823,0.000630924,0.00078077,0.000956052,0.00116109,0.00140093,0.00168148,0.00200966,0.00239355,0.0028426,0.00336788,0.00398232,0.00470106,0.00554181,0.00652528,0.0076757,0.00902139,0.0105955,0.0124369,0.0145908,0.0171103,0.0200575,0.023505,0.0275377,0.032255,inf	287.302,287.302,355.082,575.527,353.466,259.156,258.448,279.053,302.388,323.554,345.119,372.996,406.099,438.343,465.153,485.364,496.888,497.965,493.992,490.131,483.514,470.076,455.787,452.404,459.4,465.6,459.098,445.805,445.805,545.249,545.249,545.249
0.000892242	-308275.17	0,4.27465e-05,9.27491e-05,0.00015124,0.000219659,0.000299693,0.000393312,0.000502823,0.000630924,0.00078077,0.000956052,0.00116109,0.00140093,0.00168148,0.00200966,0.00239355,0.0028426,0.00336788,0.00398232,0.00470106,0.00554181,0.00652528,0.0076757,0.00902139,0.0105955,0.0124369,0.0145908,0.0171103,0.0200575,0.023505,0.0275377,0.032255,inf	281.556,281.556,344.733,594.953,351.349,254.079,255.822,278.862,303.447,324.268,344.848,372.238,405.388,437.758,464.671,485.113,496.87,497.941,494.01,490.506,484.144,470.35,455.775,453.435,462.599,470.519,463.653,449.415,449.415,565.389,565.389,565.389
0.000917031	-308264.19	0,4.27465e-05,9.27491e-05,0.00015124,0.000219659,0.000299693,0.000393312,0.000502823,0.000630924,0.00078077,0.000956052,0.00116109,0.00140093,0.00168148,0.00200966,0.00239355,0.0028426,0.00336788,0.00398232,0.00470106,0.00554181,0.00652528,0.0076757,0.00902139,0.0105955,0.0124369,0.0145908,0.0171103,0.0200575,0.023505,0.0275377,0.032255,inf	277.094,277.094,334.218,612.151,348.518,249.351,253.71,279.237,305.054,325.444,344.963,371.785,404.856,437.189,464.034,484.55,496.421,497.427,493.493,490.271,484.102,469.982,455.222,454.003,465.366,475.025,467.842,452.784,452.784,585.799,585.799,585.799
0.000940699	-308254.23	0,4.27465e-05,9.27491e-05,0.00015124,0.000219659,0.000299693,0.000393312,0.000502823,0.000630924,0.00078077,0.000956052,0.00116109,0.00140093,0.00168148,0.00200966,0.00239355,0.0028426,0.00336788,0.00398232,0.00470106,0.00554181,0.00652528,0.0076757,0.00902139,0.0105955,0.0124369,0.0145908,0.0171103,0.0200575,0.023505,0.0275377,0.032255,inf	273.669,273.669,323.932,627.605,345.149,244.895,251.95,279.982,307.006,326.898,345.319,371.539,404.459,436.654,463.327,483.82,495.727,496.628,492.657,489.644,483.601,469.161,454.289,454.235,467.804,479.204,471.738,455.974,455.974,606.591,606.591,606.591
0.000963336	-308245.18	0,4.27465e-05,9.27491e-05,0.00015124,0.000219659,0.000299693,0.000393312,0.000502823,0.000630924,0.00078077,0.000956052,0.00116109,0.00140093,0.00168148,0.00200966,0.00239355,0.0028426,0.00336788,0.00398232,0.00470106,0.00554181,0.00652528,0.0076757,0.00902139,0.0105955,0.0124369,0.0145908,0.0171103,0.0200575,0.023505,0.0275377,0.032255,inf	271.05,271.05,314.097,641.687,341.389,240.666,250.441,280.973,309.169,328.511,345.816,371.427,404.161,436.158,462.599,483.006,494.901,495.677,491.64,488.771,482.784,468.02,453.087,454.222,469.989,483.118,475.398,459.028,459.028,627.912,627.912,627.912
0.000985015	-308236.91	0,4.27465e-05,9.27491e-05,0.00015124,0.000219659,0.000299693,0.000393312,0.000502823,0.000630924,0.00078077,0.000956052,0.00116109,0.00140093,0.00168148,0.00200966,0.00239355,0.0028426,0.00336788,0.00398232,0.00470106,0.00554181,0.00652528,0.0076757,0.00902139,0.0105955,0.0124369,0.0145908,0.0171103,0.0200575,0.023505,0.0275377,0.032255,inf	269.039,269.039,304.83,654.684,337.349,236.639,249.118,282.126,311.457,330.203,346.389,371.4,403.933,435.702,461.874,482.161,494.015,494.655,490.53,487.746,481.751,466.652,451.695,454.031,471.973,486.812,478.863,461.975,461.975,649.862,649.862,649.862
0.0010058	-308229.36	0,4.27465e-05,9.27491e-05,0.00015124,0.000219659,0.000299693,0.000393312,0.000502823,0.000630924,0.00078077,0.000956052,0.00116109,0.00140093,0.00168148,0.00200966,0.00239355,0.0028426,0.00336788,0.00398232,0.00470106,0.00554181,0.00652528,0.0076757,0.00902139,0.0105955,0.0124369,0.0145908,0.0171103,0.0200575,0.023505,0.0275377,0.032255,inf	267.487,267.487,296.175,666.8,333.121,232.794,247.94,283.39,313.812,331.92,346.993,371.424,403.755,435.278,461.166,481.314,493.112,493.614,489.386,486.635,480.572,465.124,450.171,453.708,473.795,490.322,482.163,464.837,464.837,672.555,672.555,672.555
0.00102574	-308222.44	0,4.27465e-05,9.27491e-05,0.00015124,0.000219659,0.000299693,0.000393312,0.000502823,0.000630924,0.00078077,0.000956052,0.00116109,0.00140093,0.00168148,0.00200966,0.00239355,0.0028426,0.00336788,0.00398232,0.00470106,0.00554181,0.00652528,0.0076757,0.00902139,0.0105955,0.0124369,0.0145908,0.0171103,0.0200575,0.023505,0.0275377,0.032255,inf	266.276,266.276,288.131,678.191,328.768,229.121,246.879,284.728,316.195,333.628,347.601,371.475,403.61,434.884,460.483,480.484,492.221,492.586,488.244,485.481,479.297,463.486,448.555,453.287,475.487,493.674,485.323,467.633,467.633,696.161,696.161,696.161
0.00104489	-308216.09	0,4.27465e-05,9.27491e-05,0.00015124,0.000219659,0.000299693,0.000393312,0.000502823,0.000630924,0.00078077,0.000956052,0.00116109,0.00140093,0.00168148,0.00200966,0.00239355,0.0028426,0.00336788,0.00398232,0.00470106,0.00554181,0.00652528,0.0076757,0.00902139,0.0105955,0.0124369,0.0145908,0.0171103,0.0200575,0.023505,0.0275377,0.032255,inf	265.316,265.316,280.68,688.97,324.342,225.606,245.914,286.116,318.579,335.305,348.192,371.537,403.486,434.514,459.827,479.681,491.357,491.592,487.128,484.315,477.96,461.774,446.88,452.795,477.071,496.887,488.36,470.376,470.376,720.823,720.823,720.823
0.00106329	-308210.25	0,4.27465e-05,9.27491e-05,0.00015124,0.000219659,0.000299693,0.000393312,0.000502823,0.000630924,0.00078077,0.000956052,0.00116109,0.00140093,0.00168148,0.00200966,0.00239355,0.0028426,0.00336788,0.00398232,0.00470106,0.00554181,0.00652528,0.0076757,0.00902139,0.0105955,0.0124369,0.0145908,0.0171103,0.0200575,0.023505,0.0275377,0.032255,inf	264.545,264.545,273.784,699.226,319.882,222.243,245.033,287.537,320.949,336.937,348.755,371.6,403.376,434.164,459.198,478.911,490.529,490.643,486.052,483.155,476.588,460.013,445.166,452.251,478.564,499.979,491.287,473.072,473.072,746.69,746.69,746.69
0.00108098	-308204.87	0,4.27465e-05,9.27491e-05,0.00015124,0.000219659,0.000299693,0.000393312,0.000502823,0.000630924,0.00078077,0.000956052,0.00116109,0.00140093,0.00168148,0.00200966,0.00239355,0.0028426,0.00336788,0.00398232,0.00470106,0.00554181,0.00652528,0.0076757,0.00902139,0.0105955,0.0124369,0.0145908,0.0171103,0.0200575,0.023505,0.0275377,0.032255,inf	263.917,263.917,267.408,709.017,315.415,219.02,244.223,288.98,323.293,338.514,349.282,371.655,403.274,433.832,458.597,478.175,489.744,489.745,485.025,482.015,475.198,458.223,443.433,451.67,479.98,502.962,494.118,475.728,475.728,773.997,773.997,773.997
0.00109801	-308199.90	0,4.27465e-05,9.27491e-05,0.00015124,0.000219659,0.000299693,0.000393312,0.000502823,0.000630924,0.00078077,0.000956052,0.00116109,0.00140093,0.00168148,0.00200966,0.00239355,0.0028426,0.00336788,0.00398232,0.00470106,0.00554181,0.00652528,0.0076757,0.00902139,0.0105955,0.0124369,0.0145908,0.0171103,0.0200575,0.023505,0.0275377,0.032255,inf	263.396,263.396,261.51,718.394,310.962,215.931,243.476,290.438,325.604,340.033,349.77,371.698,403.176,433.514,458.022,477.474,489.003,488.903,484.052,480.904,473.804,456.419,441.692,451.062,481.33,505.847,496.864,478.351,478.351,802.977,802.977,802.977
0.00111439	-308195.31	0,4.27465e-05,9.27491e-05,0.00015124,0.000219659,0.000299693,0.000393312,0.000502823,0.000630924,0.00078077,0.000956052,0.00116109,0.00140093,0.00168148,0.00200966,0.00239355,0.0028426,0.00336788,0.00398232,0.00470106,0.00554181,0.00652528,0.0076757,0.00902139,0.0105955,0.0124369,0.0145908,0.0171103,0.0200575,0.023505,0.0275377,0.032255,inf	262.956,262.956,256.05,727.396,306.543,212.968,242.787,291.904,327.876,341.49,350.216,371.727,403.078,433.209,457.471,476.809,488.306,488.116,483.134,479.827,472.416,454.613,439.953,450.437,482.622,508.644,499.529,480.947,480.947,833.95,833.95,833.95
0.00113016	-308191.06	0,4.27465e-05,9.27491e-05,0.00015124,0.000219659,0.000299693,0.000393312,0.000502823,0.000630924,0.00078077,0.000956052,0.00116109,0.00140093,0.00168148,0.00200966,0.00239355,0.0028426,0.00336788,0.00398232,0.00470106,0.00554181,0.00652528,0.0076757,0.00902139,0.0105955,0.0124369,0.0145908,0.0171103,0.0200575,0.023505,0.0275377,0.032255,inf	262.583,262.583,250.993,736.053,302.166,210.122,242.15,293.375,330.107,342.884,350.62,371.74,402.98,432.914,456.945,476.178,487.653,487.384,482.272,478.788,471.04,452.812,438.223,449.802,483.865,511.359,502.123,483.518,483.518,867.237,867.237,867.237
