time_index	left_time_boundary	right_time_boundary	lambda
0	0	1.7335e-06	473.757
1	1.7335e-06	4.01695e-06	473.757
2	4.01695e-06	7.02482e-06	191.622
3	7.02482e-06	1.09869e-05	646.819
4	1.09869e-05	1.6206e-05	691.608
5	1.6206e-05	2.30809e-05	390.425
6	2.30809e-05	3.21367e-05	228.417
7	3.21367e-05	4.40656e-05	199.5
8	4.40656e-05	5.97788e-05	230.485
9	5.97788e-05	8.04771e-05	369.746
10	8.04771e-05	0.000107742	409.561
11	0.000107742	0.000143656	323.585
12	0.000143656	0.000190964	280.104
13	0.000190964	0.000253281	288.709
14	0.000253281	0.000335368	311.209
15	0.000335368	0.000443496	312.294
16	0.000443496	0.000585928	310.231
17	0.000585928	0.000773547	327.855
18	0.000773547	0.00102069	345.703
19	0.00102069	0.00134623	362.912
20	0.00134623	0.00177506	389.734
21	0.00177506	0.00233992	423.069
22	0.00233992	0.00308399	457.134
23	0.00308399	0.00406412	477.417
24	0.00406412	0.00535519	473.644
25	0.00535519	0.00705585	459.515
26	0.00705585	0.00929604	431.808
27	0.00929604	0.0122469	422.894
28	0.0122469	0.016134	422.894
29	0.016134	0.0212542	1012.61
30	0.0212542	0.0279988	1012.61
31	0.0279988	inf	1012.61
