time_index	left_time_boundary	right_time_boundary	lambda
0	0	9.80341e-06	276.75
1	9.80341e-06	2.19293e-05	276.75
2	2.19293e-05	3.69278e-05	442.518
3	3.69278e-05	5.54794e-05	111.263
4	5.54794e-05	7.8426e-05	331.445
5	7.8426e-05	0.000106809	316.382
6	0.000106809	0.000141915	246.688
7	0.000141915	0.000185339	275.739
8	0.000185339	0.000239049	292.156
9	0.000239049	0.000305484	297.44
10	0.000305484	0.000387656	295.386
11	0.000387656	0.000489296	297.79
12	0.000489296	0.000615015	325.454
13	0.000615015	0.000770516	353.167
14	0.000770516	0.000962856	360.207
15	0.000962856	0.00120076	362.123
16	0.00120076	0.00149503	374.928
17	0.00149503	0.00185901	399.471
18	0.00185901	0.00230921	428.807
19	0.00230921	0.00286607	453.029
20	0.00286607	0.00355485	465.229
21	0.00355485	0.0044068	466.325
22	0.0044068	0.00546058	465.015
23	0.00546058	0.00676401	466.938
24	0.00676401	0.00837622	460.597
25	0.00837622	0.0103704	437.676
26	0.0103704	0.0128369	417.836
27	0.0128369	0.0158878	439.302
28	0.0158878	0.0196615	439.302
29	0.0196615	0.0243291	654.813
30	0.0243291	0.0301025	654.813
31	0.0301025	inf	654.813
