0.000665806	-4558054.48	0,4.50757e-06,1.02448e-05,1.75472e-05,2.68418e-05,3.86719e-05,5.37294e-05,7.28946e-05,9.72881e-05,0.000128336,0.000167855,0.000218154,0.000282175,0.000363661,0.000467377,0.000599387,0.00076741,0.00098127,0.00125347,0.00159993,0.00204091,0.00260219,0.00331658,0.00422587,0.00538321,0.00685629,0.00873122,0.0111176,0.0141551,0.0180212,0.022942,0.0292051,inf	176.819,176.819,296.208,304.024,292.938,288.554,301.722,314.109,311.661,308.147,307.985,310.743,316.513,324.621,335.723,349.701,364.522,379.959,396.998,414.808,429.967,438.95,440.811,437.497,431.037,423.183,415.265,409.289,409.289,412.06,412.06,412.06
0.000709363	-4557051.14	0,4.50757e-06,1.02448e-05,1.75472e-05,2.68418e-05,3.86719e-05,5.37294e-05,7.28946e-05,9.72881e-05,0.000128336,0.000167855,0.000218154,0.000282175,0.000363661,0.000467377,0.000599387,0.00076741,0.00098127,0.00125347,0.00159993,0.00204091,0.00260219,0.00331658,0.00422587,0.00538321,0.00685629,0.00873122,0.0111176,0.0141551,0.0180212,0.022942,0.0292051,inf	108.918,108.918,296.478,302.744,275.028,263.372,286.155,307.115,298.514,288.379,284.108,284.544,289.72,298.37,311.897,330.069,349.235,369.316,392.768,419.054,442.919,458.272,462.661,458.529,448.58,435.402,421.51,411.533,411.533,419.614,419.614,419.614
0.000749686	-4556500.07	0,4.50757e-06,1.02448e-05,1.75472e-05,2.68418e-05,3.86719e-05,5.37294e-05,7.28946e-05,9.72881e-05,0.000128336,0.000167855,0.000218154,0.000282175,0.000363661,0.000467377,0.000599387,0.00076741,0.00098127,0.00125347,0.00159993,0.00204091,0.00260219,0.00331658,0.00422587,0.00538321,0.00685629,0.00873122,0.0111176,0.0141551,0.0180212,0.022942,0.0292051,inf	71.5529,71.5529,311.161,313.919,269.365,252.148,285.876,316.31,301.876,286.063,278.367,276.65,280.681,288.587,302.593,322.268,342.481,363.472,389.228,419.759,448.748,468.447,475.179,471.318,459.553,442.71,424.281,411.708,411.708,426.679,426.679,426.679
0.000787226	-4556108.43	0,4.50757e-06,1.02448e-05,1.75472e-05,2.68418e-05,3.86719e-05,5.37294e-05,7.28946e-05,9.72881e-05,0.000128336,0.000167855,0.000218154,0.000282175,0.000363661,0.000467377,0.000599387,0.00076741,0.00098127,0.00125347,0.00159993,0.00204091,0.00260219,0.00331658,0.00422587,0.00538321,0.00685629,0.00873122,0.0111176,0.0141551,0.0180212,0.022942,0.0292051,inf	47.3652,47.3652,324.956,322.952,262.59,241.566,286.667,327.009,307.55,287.487,277.629,274.681,278.012,285.176,299.285,319.624,339.662,360.067,386.317,418.964,450.983,473.578,482.208,479.002,466.33,446.894,424.974,410.766,410.766,433.562,433.562,433.562
0.00082244	-4555796.63	0,4.50757e-06,1.02448e-05,1.75472e-05,2.68418e-05,3.86719e-05,5.37294e-05,7.28946e-05,9.72881e-05,0.000128336,0.000167855,0.000218154,0.000282175,0.000363661,0.000467377,0.000599387,0.00076741,0.00098127,0.00125347,0.00159993,0.00204091,0.00260219,0.00331658,0.00422587,0.00538321,0.00685629,0.00873122,0.0111176,0.0141551,0.0180212,0.022942,0.0292051,inf	31.421,31.421,336.561,328.781,253.789,230.121,286.079,335.973,312.045,288.925,277.984,274.647,277.794,284.479,298.737,319.497,338.893,358.093,384.004,417.64,451.432,475.92,485.998,483.513,470.421,449.099,424.458,409.266,409.266,440.433,440.433,440.433
0.000855677	-4555535.18	0,4.50757e-06,1.02448e-05,1.75472e-05,2.68418e-05,3.86719e-05,5.37294e-05,7.28946e-05,9.72881e-05,0.000128336,0.000167855,0.000218154,0.000282175,0.000363661,0.000467377,0.000599387,0.00076741,0.00098127,0.00125347,0.00159993,0.00204091,0.00260219,0.00331658,0.00422587,0.00538321,0.00685629,0.00873122,0.0111176,0.0141551,0.0180212,0.022942,0.0292051,inf	20.897,20.897,346.939,332.768,244.122,218.523,284.429,343.053,314.888,289.539,278.277,275.157,278.509,284.973,299.52,320.664,339.253,357.015,382.206,416.215,451.013,476.707,487.85,486.027,472.774,450.047,423.263,407.534,407.534,447.386,447.386,447.386
0.00088719	-4555310.24	0,4.50757e-06,1.02448e-05,1.75472e-05,2.68418e-05,3.86719e-05,5.37294e-05,7.28946e-05,9.72881e-05,0.000128336,0.000167855,0.000218154,0.000282175,0.000363661,0.000467377,0.000599387,0.00076741,0.00098127,0.00125347,0.00159993,0.00204091,0.00260219,0.00331658,0.00422587,0.00538321,0.00685629,0.00873122,0.0111176,0.0141551,0.0180212,0.022942,0.0292051,inf	13.9024,13.9024,356.739,335.988,234.528,207.461,282.412,348.801,316.385,289.336,278.245,275.732,279.538,285.972,300.943,322.494,340.241,356.507,380.823,414.868,450.191,476.624,488.529,487.267,473.991,450.196,421.711,405.755,405.755,454.476,454.476,454.476
0.000917169	-4555113.92	0,4.50757e-06,1.02448e-05,1.75472e-05,2.68418e-05,3.86719e-05,5.37294e-05,7.28946e-05,9.72881e-05,0.000128336,0.000167855,0.000218154,0.000282175,0.000363661,0.000467377,0.000599387,0.00076741,0.00098127,0.00125347,0.00159993,0.00204091,0.00260219,0.00331658,0.00422587,0.00538321,0.00685629,0.00873122,0.0111176,0.0141551,0.0180212,0.022942,0.0292051,inf	9.29327,9.29327,366.14,338.964,225.458,197.293,280.541,353.756,316.944,288.529,277.906,276.229,280.627,287.154,302.652,324.646,341.57,356.364,379.764,413.659,449.205,476.056,488.493,487.683,474.457,449.838,419.995,404.03,404.03,461.739,461.739,461.739
0.000945759	-4554941.05	0,4.50757e-06,1.02448e-05,1.75472e-05,2.68418e-05,3.86719e-05,5.37294e-05,7.28946e-05,9.72881e-05,0.000128336,0.000167855,0.000218154,0.000282175,0.000363661,0.000467377,0.000599387,0.00076741,0.00098127,0.00125347,0.00159993,0.00204091,0.00260219,0.00331658,0.00422587,0.00538321,0.00685629,0.00873122,0.0111176,0.0141551,0.0180212,0.022942,0.0292051,inf	6.21744,6.21744,375.051,341.847,217.058,188.126,279.101,358.298,316.892,287.321,277.35,276.631,281.676,288.367,304.46,326.928,343.067,356.451,378.95,412.6,448.177,475.226,488.018,487.563,474.422,449.163,418.234,402.414,402.414,469.192,469.192,469.192
0.000973075	-4554787.85	0,4.50757e-06,1.02448e-05,1.75472e-05,2.68418e-05,3.86719e-05,5.37294e-05,7.28946e-05,9.72881e-05,0.000128336,0.000167855,0.000218154,0.000282175,0.000363661,0.000467377,0.000599387,0.00076741,0.00098127,0.00125347,0.00159993,0.00204091,0.00260219,0.00331658,0.00422587,0.00538321,0.00685629,0.00873122,0.0111176,0.0141551,0.0180212,0.022942,0.0292051,inf	4.15849,4.15849,383.332,344.634,209.311,179.928,278.211,362.657,316.458,285.883,276.669,276.961,282.655,289.542,306.268,329.23,344.628,356.679,378.323,411.683,447.168,474.262,487.278,487.092,474.052,448.292,416.497,400.931,400.931,476.847,476.847,476.847
0.000999212	-4554651.44	0,4.50757e-06,1.02448e-05,1.75472e-05,2.68418e-05,3.86719e-05,5.37294e-05,7.28946e-05,9.72881e-05,0.000128336,0.000167855,0.000218154,0.000282175,0.000363661,0.000467377,0.000599387,0.00076741,0.00098127,0.00125347,0.00159993,0.00204091,0.00260219,0.00331658,0.00422587,0.00538321,0.00685629,0.00873122,0.0111176,0.0141551,0.0180212,0.022942,0.0292051,inf	2.78236,2.78236,390.864,347.306,202.15,172.598,277.885,366.951,315.785,284.324,275.931,277.25,283.565,290.649,308.027,331.492,346.191,356.99,377.835,410.89,446.206,473.239,486.379,486.391,473.459,447.308,414.823,399.59,399.59,484.713,484.713,484.713
0.00102425	-4554529.49	0,4.50757e-06,1.02448e-05,1.75472e-05,2.68418e-05,3.86719e-05,5.37294e-05,7.28946e-05,9.72881e-05,0.000128336,0.000167855,0.000218154,0.000282175,0.000363661,0.000467377,0.000599387,0.00076741,0.00098127,0.00125347,0.00159993,0.00204091,0.00260219,0.00331658,0.00422587,0.00538321,0.00685629,0.00873122,0.0111176,0.0141551,0.0180212,0.022942,0.0292051,inf	1.86054,1.86054,397.65,349.8,195.496,166.019,278.094,371.231,314.963,282.722,275.192,277.526,284.412,291.68,309.712,333.678,347.717,357.344,377.453,410.204,445.303,472.204,485.392,485.542,472.717,446.263,413.235,398.39,398.39,492.796,492.796,492.796
0.00104826	-4554420.09	0,4.50757e-06,1.02448e-05,1.75472e-05,2.68418e-05,3.86719e-05,5.37294e-05,7.28946e-05,9.72881e-05,0.000128336,0.000167855,0.000218154,0.000282175,0.000363661,0.000467377,0.000599387,0.00076741,0.00098127,0.00125347,0.00159993,0.00204091,0.00260219,0.00331658,0.00422587,0.00538321,0.00685629,0.00873122,0.0111176,0.0141551,0.0180212,0.022942,0.0292051,inf	1.24421,1.24421,403.694,352.099,189.274,160.097,278.791,375.508,314.042,281.123,274.484,277.812,285.21,292.636,311.314,335.773,349.186,357.717,377.15,409.61,444.464,471.181,484.36,484.599,471.878,445.192,411.742,397.324,397.324,501.102,501.102,501.102
0.0010713	-4554321.66	0,4.50757e-06,1.02448e-05,1.75472e-05,2.68418e-05,3.86719e-05,5.37294e-05,7.28946e-05,9.72881e-05,0.000128336,0.000167855,0.000218154,0.000282175,0.000363661,0.000467377,0.000599387,0.00076741,0.00098127,0.00125347,0.00159993,0.00204091,0.00260219,0.00331658,0.00422587,0.00538321,0.00685629,0.00873122,0.0111176,0.0141551,0.0180212,0.022942,0.0292051,inf	0.83123,0.83123,409.069,354.194,183.43,154.739,279.915,379.77,313.047,279.555,273.831,278.122,285.971,293.524,312.83,337.77,350.585,358.091,376.906,409.093,443.687,470.187,483.313,483.6,470.979,444.118,410.346,396.383,396.383,509.638,509.638,509.638
0.00109344	-4554232.87	0,4.50757e-06,1.02448e-05,1.75472e-05,2.68418e-05,3.86719e-05,5.37294e-05,7.28946e-05,9.72881e-05,0.000128336,0.000167855,0.000218154,0.000282175,0.000363661,0.000467377,0.000599387,0.00076741,0.00098127,0.00125347,0.00159993,0.00204091,0.00260219,0.00331658,0.00422587,0.00538321,0.00685629,0.00873122,0.0111176,0.0141551,0.0180212,0.022942,0.0292051,inf	0.448035,0.448035,413.853,356.085,177.904,149.864,281.405,383.999,311.997,278.034,273.247,278.468,286.704,294.348,314.261,339.666,351.911,358.455,376.709,408.641,442.969,469.229,482.269,482.57,470.044,443.057,409.048,395.558,395.558,518.41,518.41,518.41
0.0011147	-4554152.56	0,4.50757e-06,1.02448e-05,1.75472e-05,2.68418e-05,3.86719e-05,5.37294e-05,7.28946e-05,9.72881e-05,0.000128336,0.000167855,0.000218154,0.000282175,0.000363661,0.000467377,0.000599387,0.00076741,0.00098127,0.00125347,0.00159993,0.00204091,0.00260219,0.00331658,0.00422587,0.00538321,0.00685629,0.00873122,0.0111176,0.0141551,0.0180212,0.022942,0.0292051,inf	0.403478,0.403478,418.161,357.777,172.655,145.403,283.212,388.172,310.897,276.565,272.737,278.856,287.415,295.118,315.614,341.465,353.16,358.802,376.546,408.246,442.306,468.312,481.24,481.528,469.091,442.018,407.844,394.838,394.838,527.425,527.425,527.425
0.00113515	-4554079.77	0,4.50757e-06,1.02448e-05,1.75472e-05,2.68418e-05,3.86719e-05,5.37294e-05,7.28946e-05,9.72881e-05,0.000128336,0.000167855,0.000218154,0.000282175,0.000363661,0.000467377,0.000599387,0.00076741,0.00098127,0.00125347,0.00159993,0.00204091,0.00260219,0.00331658,0.00422587,0.00538321,0.00685629,0.00873122,0.0111176,0.0141551,0.0180212,0.022942,0.0292051,inf	0.403478,0.403478,422.002,359.258,167.646,141.301,285.287,392.258,309.751,275.152,272.303,279.29,288.11,295.837,316.892,343.169,354.335,359.13,376.41,407.898,441.694,467.437,480.233,480.485,468.132,441.007,406.728,394.212,394.212,536.693,536.693,536.693
0.00115483	-4554013.67	0,4.50757e-06,1.02448e-05,1.75472e-05,2.68418e-05,3.86719e-05,5.37294e-05,7.28946e-05,9.72881e-05,0.000128336,0.000167855,0.000218154,0.000282175,0.000363661,0.000467377,0.000599387,0.00076741,0.00098127,0.00125347,0.00159993,0.00204091,0.00260219,0.00331658,0.00422587,0.00538321,0.00685629,0.00873122,0.0111176,0.0141551,0.0180212,0.022942,0.0292051,inf	0.403478,0.403478,425.492,360.567,162.859,137.51,287.596,396.252,308.561,273.797,271.946,279.77,288.796,296.511,318.1,344.783,355.437,359.434,376.295,407.591,441.128,466.604,479.254,479.451,467.176,440.028,405.696,393.671,393.671,546.221,546.221,546.221
0.00117377	-4553953.51	0,4.50757e-06,1.02448e-05,1.75472e-05,2.68418e-05,3.86719e-05,5.37294e-05,7.28946e-05,9.72881e-05,0.000128336,0.000167855,0.000218154,0.000282175,0.000363661,0.000467377,0.000599387,0.00076741,0.00098127,0.00125347,0.00159993,0.00204091,0.00260219,0.00331658,0.00422587,0.00538321,0.00685629,0.00873122,0.0111176,0.0141551,0.0180212,0.022942,0.0292051,inf	0.403477,0.403477,428.723,361.723,158.271,133.993,290.102,400.13,307.327,272.498,271.662,280.294,289.472,297.146,319.245,346.313,356.47,359.716,376.196,407.319,440.605,465.812,478.305,478.431,466.229,439.082,404.741,393.207,393.207,556.022,556.022,556.022
0.00119201	-4553898.67	0,4.50757e-06,1.02448e-05,1.75472e-05,2.68418e-05,3.86719e-05,5.37294e-05,7.28946e-05,9.72881e-05,0.000128336,0.000167855,0.000218154,0.000282175,0.000363661,0.000467377,0.000599387,0.00076741,0.00098127,0.00125347,0.00159993,0.00204091,0.00260219,0.00331658,0.00422587,0.00538321,0.00685629,0.00873122,0.0111176,0.0141551,0.0180212,0.022942,0.0292051,inf	0.403476,0.403476,431.73,362.733,153.87,130.712,292.776,403.875,306.052,271.251,271.45,280.862,290.141,297.745,320.33,347.764,357.437,359.973,376.109,407.078,440.121,465.061,477.387,477.43,465.296,438.17,403.857,392.811,392.811,566.109,566.109,566.109
