0.000219079	-5927966.00	0,6.40143e-07,1.48337e-06,2.59411e-06,4.05723e-06,5.98453e-06,8.52325e-06,1.18674e-05,1.62724e-05,2.2075e-05,2.97184e-05,3.97867e-05,5.30491e-05,7.0519e-05,9.35312e-05,0.000123844,0.000163773,0.00021637,0.000285654,0.000376917,0.000497134,0.000655489,0.000864082,0.00113885,0.00150079,0.00197755,0.00260557,0.00343282,0.00452252,0.00595793,0.00784871,0.0103393,inf	819.766,819.766,605.969,108.961,94.4701,136.499,252.11,288.347,326.653,320.846,299.426,304.699,324.972,361.998,407.451,464.836,539.402,638.133,763.679,922.362,1121.58,1345.86,1530.65,1585.52,1537.49,1465.77,1402.59,1317.4,1317.4,1218.13,1218.13,1218.13
0.000214785	-5919380.03	0,6.40143e-07,1.48337e-06,2.59411e-06,4.05723e-06,5.98453e-06,8.52325e-06,1.18674e-05,1.62724e-05,2.2075e-05,2.97184e-05,3.97867e-05,5.30491e-05,7.0519e-05,9.35312e-05,0.000123844,0.000163773,0.00021637,0.000285654,0.000376917,0.000497134,0.000655489,0.000864082,0.00113885,0.00150079,0.00197755,0.00260557,0.00343282,0.00452252,0.00595793,0.00784871,0.0103393,inf	1012.88,1012.88,575.729,22.6619,19.8806,44.7356,183.473,232.965,288.658,262.433,205.161,196.562,199.211,221.956,253.781,299.701,366.689,468.407,609.723,802.887,1072.59,1427.27,1799.72,1975.85,1933.62,1820.08,1715.23,1528.2,1528.2,1309.51,1309.51,1309.51
0.000210155	-5916481.08	0,6.40143e-07,1.48337e-06,2.59411e-06,4.05723e-06,5.98453e-06,8.52325e-06,1.18674e-05,1.62724e-05,2.2075e-05,2.97184e-05,3.97867e-05,5.30491e-05,7.0519e-05,9.35312e-05,0.000123844,0.000163773,0.00021637,0.000285654,0.000376917,0.000497134,0.000655489,0.000864082,0.00113885,0.00150079,0.00197755,0.00260557,0.00343282,0.00452252,0.00595793,0.00784871,0.0103393,inf	1167.64,1167.64,526.51,5.36254,5.20208,18.4771,171.85,241.799,325.751,284.304,194.377,181.602,174.093,188.596,210.272,244.903,298.988,391.793,528.333,723.903,1016.55,1439.67,1961.13,2277.36,2275.62,2146.59,2035.09,1727.84,1727.84,1375.67,1375.67,1375.67
0.000204936	-5915257.15	0,6.40143e-07,1.48337e-06,2.59411e-06,4.05723e-06,5.98453e-06,8.52325e-06,1.18674e-05,1.62724e-05,2.2075e-05,2.97184e-05,3.97867e-05,5.30491e-05,7.0519e-05,9.35312e-05,0.000123844,0.000163773,0.00021637,0.000285654,0.000376917,0.000497134,0.000655489,0.000864082,0.00113885,0.00150079,0.00197755,0.00260557,0.00343282,0.00452252,0.00595793,0.00784871,0.0103393,inf	1298.88,1298.88,472.439,1.2654,1.35723,7.57668,160.657,249.816,362.265,313.212,195.946,185.638,172.58,183.719,199.778,227.247,270.952,355.333,483.511,671.606,967.921,1425.44,2058.8,2513.51,2567.81,2438.33,2368.52,1918.55,1918.55,1422.76,1422.76,1422.76
0.000199338	-5914639.01	0,6.40143e-07,1.48337e-06,2.59411e-06,4.05723e-06,5.98453e-06,8.52325e-06,1.18674e-05,1.62724e-05,2.2075e-05,2.97184e-05,3.97867e-05,5.30491e-05,7.0519e-05,9.35312e-05,0.000123844,0.000163773,0.00021637,0.000285654,0.000376917,0.000497134,0.000655489,0.000864082,0.00113885,0.00150079,0.00197755,0.00260557,0.00343282,0.00452252,0.00595793,0.00784871,0.0103393,inf	1424.16,1424.16,423.592,1.10131,1.10131,3.00411,147.129,251.919,386.403,336.295,196.844,192.671,176.743,187.26,200.674,224.158,260.126,338.473,458.946,636.745,928.448,1401.72,2118.62,2704.24,2817.97,2691.77,2730.66,2108.46,2108.46,1458.75,1458.75,1458.75
0.00019357	-5914275.00	0,6.40143e-07,1.48337e-06,2.59411e-06,4.05723e-06,5.98453e-06,8.52325e-06,1.18674e-05,1.62724e-05,2.2075e-05,2.97184e-05,3.97867e-05,5.30491e-05,7.0519e-05,9.35312e-05,0.000123844,0.000163773,0.00021637,0.000285654,0.000376917,0.000497134,0.000655489,0.000864082,0.00113885,0.00150079,0.00197755,0.00260557,0.00343282,0.00452252,0.00595793,0.00784871,0.0103393,inf	1544.58,1544.58,381.843,1.10131,1.10131,1.16292,133.862,252.249,401.157,354.172,195.551,198.785,181.326,192.528,205.154,226.891,257.131,331.767,446.272,613.502,897.019,1375.53,2155.31,2863.65,3033.16,2904.68,3149.12,2311,2311,1490.76,1490.76,1490.76
0.000187788	-5914031.69	0,6.40143e-07,1.48337e-06,2.59411e-06,4.05723e-06,5.98453e-06,8.52325e-06,1.18674e-05,1.62724e-05,2.2075e-05,2.97184e-05,3.97867e-05,5.30491e-05,7.0519e-05,9.35312e-05,0.000123844,0.000163773,0.00021637,0.000285654,0.000376917,0.000497134,0.000655489,0.000864082,0.00113885,0.00150079,0.00197755,0.00260557,0.00343282,0.00452252,0.00595793,0.00784871,0.0103393,inf	1660.72,1660.72,346.993,1.10131,1.10131,1.10132,121.871,253.787,410.806,369.6,192.952,203.542,185.005,197.224,210.09,231.587,257.536,330.366,440.826,598.201,872.137,1349.79,2177.42,3001.42,3218.89,3075.61,3674.78,2545.48,2545.48,1524.13,1524.13,1524.13
0.000182095	-5913852.50	0,6.40143e-07,1.48337e-06,2.59411e-06,4.05723e-06,5.98453e-06,8.52325e-06,1.18674e-05,1.62724e-05,2.2075e-05,2.97184e-05,3.97867e-05,5.30491e-05,7.0519e-05,9.35312e-05,0.000123844,0.000163773,0.00021637,0.000285654,0.000376917,0.000497134,0.000655489,0.000864082,0.00113885,0.00150079,0.00197755,0.00260557,0.00343282,0.00452252,0.00595793,0.00784871,0.0103393,inf	1769.98,1769.98,318.287,1.10131,1.10131,1.10132,110.967,257.664,417.723,384.555,189.991,207.41,187.791,200.807,214.341,236.503,259.121,331.587,439.837,588.452,852.482,1325.66,2190.06,3124.25,3379.25,3203.87,4415.61,2841.34,2841.34,1561.95,1561.95,1561.95
0.00017656	-5913711.14	0,6.40143e-07,1.48337e-06,2.59411e-06,4.05723e-06,5.98453e-06,8.52325e-06,1.18674e-05,1.62724e-05,2.2075e-05,2.97184e-05,3.97867e-05,5.30491e-05,7.0519e-05,9.35312e-05,0.000123844,0.000163773,0.00021637,0.000285654,0.000376917,0.000497134,0.000655489,0.000864082,0.00113885,0.00150079,0.00197755,0.00260557,0.00343282,0.00452252,0.00595793,0.00784871,0.0103393,inf	1872.83,1872.83,294.798,1.10131,1.10131,1.10132,100.656,263.906,422.982,400.019,187.228,210.913,190.074,203.415,217.659,240.933,260.776,333.88,441.571,582.656,837.002,1303.5,2196.38,3236.83,3517.1,3289.68,5671.55,3250.9,3250.9,1605.99,1605.99,1605.99
0.000171228	-5913594.35	0,6.40143e-07,1.48337e-06,2.59411e-06,4.05723e-06,5.98453e-06,8.52325e-06,1.18674e-05,1.62724e-05,2.2075e-05,2.97184e-05,3.97867e-05,5.30491e-05,7.0519e-05,9.35312e-05,0.000123844,0.000163773,0.00021637,0.000285654,0.000376917,0.000497134,0.000655489,0.000864082,0.00113885,0.00150079,0.00197755,0.00260557,0.00343282,0.00452252,0.00595793,0.00784871,0.0103393,inf	1969.93,1969.93,275.796,1.10131,1.10131,1.10132,90.5954,272.087,426.753,416.346,184.89,214.401,192.223,205.378,220.178,244.689,261.996,336.343,444.901,579.714,824.875,1283.37,2198.36,3342.55,3634.31,3334.2,8870.22,3891.38,3891.38,1651.35,1651.35,1651.35
0.000166128	-5913494.87	0,6.40143e-07,1.48337e-06,2.59411e-06,4.05723e-06,5.98453e-06,8.52325e-06,1.18674e-05,1.62724e-05,2.2075e-05,2.97184e-05,3.97867e-05,5.30491e-05,7.0519e-05,9.35312e-05,0.000123844,0.000163773,0.00021637,0.000285654,0.000376917,0.000497134,0.000655489,0.000864082,0.00113885,0.00150079,0.00197755,0.00260557,0.00343282,0.00452252,0.00595793,0.00784871,0.0103393,inf	2060.53,2060.53,260.96,1.10131,1.10131,1.10132,80.6044,281.766,428.985,433.552,183.013,218.029,194.502,207.007,222.154,247.839,262.607,338.465,449.08,578.843,815.467,1265.14,2197.25,3443.81,3731.69,3338.94,33169.3,5143.08,5143.08,1649.42,1649.42,1649.42
0.000161276	-5913408.85	0,6.40143e-07,1.48337e-06,2.59411e-06,4.05723e-06,5.98453e-06,8.52325e-06,1.18674e-05,1.62724e-05,2.2075e-05,2.97184e-05,3.97867e-05,5.30491e-05,7.0519e-05,9.35312e-05,0.000123844,0.000163773,0.00021637,0.000285654,0.000376917,0.000497134,0.000655489,0.000864082,0.00113885,0.00150079,0.00197755,0.00260557,0.00343282,0.00452252,0.00595793,0.00784871,0.0103393,inf	2145.8,2145.8,249.504,1.10131,1.10131,1.10132,70.7089,292.501,429.543,451.531,181.537,221.833,197.031,208.538,223.84,250.549,262.616,339.984,453.604,579.482,808.285,1248.66,2193.85,3542.42,3809.44,3307.53,870631,202.217,202.217,601.874,601.874,601.874
