time_index	left_time_boundary	right_time_boundary	lambda
0	0	3.40207e-05	379.569
1	3.40207e-05	8.05718e-05	379.569
2	8.05718e-05	0.000144268	154.453
3	0.000144268	0.000231425	144.051
4	0.000231425	0.000350683	174.944
5	0.000350683	0.000513866	262.507
6	0.000513866	0.000737151	919.862
7	0.000737151	0.00104268	2765.97
8	0.00104268	0.00146073	2278.06
9	0.00146073	0.00203276	2155.94
10	0.00203276	0.00281547	2146.04
11	0.00281547	0.00388648	2375.41
12	0.00388648	0.00535194	3619.6
13	0.00535194	0.00735717	150739
14	0.00735717	0.0101009	150739
15	0.0101009	inf	150739
