0.000715475	-18362054.55	0,9.86203e-06,2.20604e-05,3.71486e-05,5.58111e-05,7.88949e-05,0.000107447,0.000142764,0.000186447,0.000240478,0.00030731,0.000389974,0.000492222,0.000618692,0.000775123,0.000968613,0.00120794,0.00150397,0.00187012,0.00232302,0.00288321,0.0035761,0.00443315,0.00549323,0.00680445,0.0084263,0.0104324,0.0129137,0.0159828,0.019779,0.0244746,0.0302825,inf	468.57,468.57,421.323,385.924,367.55,356.883,351.087,348.724,347.956,347.971,349.399,352.863,358.435,365.791,374.536,384.583,395.588,406.468,415.557,421.524,424.013,423.502,420.698,416.711,412.695,409.378,407.136,404.644,404.644,406.298,406.298,406.298
0.000801605	-18353016.18	0,9.86203e-06,2.20604e-05,3.71486e-05,5.58111e-05,7.88949e-05,0.000107447,0.000142764,0.000186447,0.000240478,0.00030731,0.000389974,0.000492222,0.000618692,0.000775123,0.000968613,0.00120794,0.00150397,0.00187012,0.00232302,0.00288321,0.0035761,0.00443315,0.00549323,0.00680445,0.0084263,0.0104324,0.0129137,0.0159828,0.019779,0.0244746,0.0302825,inf	518.23,518.23,450.535,394.954,366.947,350.462,341.354,337.336,335.196,333.763,334.376,338.145,345.131,354.679,366.131,379.536,394.607,409.865,422.919,431.821,435.92,435.68,431.784,425.747,419.432,414.127,410.537,406.211,406.211,409.773,409.773,409.773
0.000882511	-18346350.40	0,9.86203e-06,2.20604e-05,3.71486e-05,5.58111e-05,7.88949e-05,0.000107447,0.000142764,0.000186447,0.000240478,0.00030731,0.000389974,0.000492222,0.000618692,0.000775123,0.000968613,0.00120794,0.00150397,0.00187012,0.00232302,0.00288321,0.0035761,0.00443315,0.00549323,0.00680445,0.0084263,0.0104324,0.0129137,0.0159828,0.019779,0.0244746,0.0302825,inf	535.962,535.962,466.165,400.76,368.857,350.089,340.022,335.792,333.034,330.484,330.239,333.812,341.193,351.381,363.529,377.91,394.397,411.348,426.058,436.34,441.431,441.683,437.504,430.466,422.851,416.355,411.933,406.163,406.163,411.639,411.639,411.639
0.000958556	-18341101.02	0,9.86203e-06,2.20604e-05,3.71486e-05,5.58111e-05,7.88949e-05,0.000107447,0.000142764,0.000186447,0.000240478,0.00030731,0.000389974,0.000492222,0.000618692,0.000775123,0.000968613,0.00120794,0.00150397,0.00187012,0.00232302,0.00288321,0.0035761,0.00443315,0.00549323,0.00680445,0.0084263,0.0104324,0.0129137,0.0159828,0.019779,0.0244746,0.0302825,inf	534.406,534.406,470.351,401.007,368.377,349.396,339.885,336.492,333.831,330.693,329.931,333.386,340.935,351.227,363.291,377.666,394.408,411.804,427.016,437.824,443.471,444.209,440.11,432.64,424.309,417.101,412.143,405.159,405.159,412.467,412.467,412.467
0.00103022	-18336837.37	0,9.86203e-06,2.20604e-05,3.71486e-05,5.58111e-05,7.88949e-05,0.000107447,0.000142764,0.000186447,0.000240478,0.00030731,0.000389974,0.000492222,0.000618692,0.000775123,0.000968613,0.00120794,0.00150397,0.00187012,0.00232302,0.00288321,0.0035761,0.00443315,0.00549323,0.00680445,0.0084263,0.0104324,0.0129137,0.0159828,0.019779,0.0244746,0.0302825,inf	526.342,526.342,469.24,398.493,366.42,348.121,339.911,337.905,335.753,332.397,331.403,334.872,342.533,352.689,364.303,378.204,394.629,411.826,426.923,437.759,443.655,444.796,440.922,433.324,424.619,416.985,411.66,403.608,403.608,412.639,412.639,412.639
0.00109791	-18333307.44	0,9.86203e-06,2.20604e-05,3.71486e-05,5.58111e-05,7.88949e-05,0.000107447,0.000142764,0.000186447,0.000240478,0.00030731,0.000389974,0.000492222,0.000618692,0.000775123,0.000968613,0.00120794,0.00150397,0.00187012,0.00232302,0.00288321,0.0035761,0.00443315,0.00549323,0.00680445,0.0084263,0.0104324,0.0129137,0.0159828,0.019779,0.0244746,0.0302825,inf	517.273,517.273,465.958,394.739,363.597,346.291,339.696,339.326,337.912,334.588,333.585,337.202,344.984,354.907,365.913,379.131,394.966,411.644,426.299,436.88,442.826,444.277,440.678,433.118,424.245,416.363,410.765,401.74,401.74,412.394,412.394,412.394
0.00116197	-18330344.67	0,9.86203e-06,2.20604e-05,3.71486e-05,5.58111e-05,7.88949e-05,0.000107447,0.000142764,0.000186447,0.000240478,0.00030731,0.000389974,0.000492222,0.000618692,0.000775123,0.000968613,0.00120794,0.00150397,0.00187012,0.00232302,0.00288321,0.0035761,0.00443315,0.00549323,0.00680445,0.0084263,0.0104324,0.0129137,0.0159828,0.019779,0.0244746,0.0302825,inf	509.415,509.415,462.213,390.752,360.493,344.191,339.284,340.612,340.025,336.882,336.023,339.887,347.814,357.462,367.796,380.248,395.37,411.373,425.418,435.589,441.454,443.134,439.816,432.383,423.467,415.444,409.627,399.697,399.697,411.892,411.892,411.892
0.0012227	-18327831.13	0,9.86203e-06,2.20604e-05,3.71486e-05,5.58111e-05,7.88949e-05,0.000107447,0.000142764,0.000186447,0.000240478,0.00030731,0.000389974,0.000492222,0.000618692,0.000775123,0.000968613,0.00120794,0.00150397,0.00187012,0.00232302,0.00288321,0.0035761,0.00443315,0.00549323,0.00680445,0.0084263,0.0104324,0.0129137,0.0159828,0.019779,0.0244746,0.0302825,inf	503.28,503.28,458.78,387.068,357.486,342.062,338.792,341.776,342.017,339.132,338.513,342.691,350.776,360.132,369.778,381.442,395.809,411.069,424.427,434.102,439.804,441.648,438.599,431.34,422.455,414.357,408.35,397.566,397.566,411.236,411.236,411.236
0.00128035	-18325679.75	0,9.86203e-06,2.20604e-05,3.71486e-05,5.58111e-05,7.88949e-05,0.000107447,0.000142764,0.000186447,0.000240478,0.00030731,0.000389974,0.000492222,0.000618692,0.000775123,0.000968613,0.00120794,0.00150397,0.00187012,0.00232302,0.00288321,0.0035761,0.00443315,0.00549323,0.00680445,0.0084263,0.0104324,0.0129137,0.0159828,0.019779,0.0244746,0.0302825,inf	498.71,498.71,455.932,383.907,354.766,340.058,338.322,342.862,343.884,341.284,340.961,345.491,353.74,362.796,371.762,382.651,396.26,410.761,423.401,432.541,438.03,439.986,437.186,430.123,421.315,413.184,406.999,395.401,395.401,410.495,410.495,410.495
0.00133518	-18323824.37	0,9.86203e-06,2.20604e-05,3.71486e-05,5.58111e-05,7.88949e-05,0.000107447,0.000142764,0.000186447,0.000240478,0.00030731,0.000389974,0.000492222,0.000618692,0.000775123,0.000968613,0.00120794,0.00150397,0.00187012,0.00232302,0.00288321,0.0035761,0.00443315,0.00549323,0.00680445,0.0084263,0.0104324,0.0129137,0.0159828,0.019779,0.0244746,0.0302825,inf	495.339,495.339,453.701,381.329,352.411,338.258,337.94,343.915,345.642,343.326,343.325,348.224,356.634,365.388,373.694,383.835,396.708,410.459,422.383,430.975,436.22,438.25,435.677,428.82,420.115,411.973,405.615,393.237,393.237,409.717,409.717,409.717
0.00138737	-18322213.69	0,9.86203e-06,2.20604e-05,3.71486e-05,5.58111e-05,7.88949e-05,0.000107447,0.000142764,0.000186447,0.000240478,0.00030731,0.000389974,0.000492222,0.000618692,0.000775123,0.000968613,0.00120794,0.00150397,0.00187012,0.00232302,0.00288321,0.0035761,0.00443315,0.00549323,0.00680445,0.0084263,0.0104324,0.0129137,0.0159828,0.019779,0.0244746,0.0302825,inf	492.836,492.836,452.003,379.306,350.431,336.698,337.682,344.967,347.312,345.261,345.586,350.859,359.422,367.873,375.542,384.973,397.143,410.168,421.392,429.441,434.427,436.501,434.135,427.484,418.895,410.755,404.224,391.094,391.094,408.933,408.933,408.933
0.00143711	-18320807.29	0,9.86203e-06,2.20604e-05,3.71486e-05,5.58111e-05,7.88949e-05,0.000107447,0.000142764,0.000186447,0.000240478,0.00030731,0.000389974,0.000492222,0.000618692,0.000775123,0.000968613,0.00120794,0.00150397,0.00187012,0.00232302,0.00288321,0.0035761,0.00443315,0.00549323,0.00680445,0.0084263,0.0104324,0.0129137,0.0159828,0.019779,0.0244746,0.0302825,inf	490.91,490.91,450.76,377.778,348.808,335.382,337.568,346.037,348.911,347.094,347.743,353.382,362.084,370.232,377.292,386.055,397.558,409.892,420.441,427.958,432.679,434.776,432.598,426.15,417.684,409.552,402.843,388.986,388.986,408.164,408.164,408.164
0.00148458	-18319572.83	0,9.86203e-06,2.20604e-05,3.71486e-05,5.58111e-05,7.88949e-05,0.000107447,0.000142764,0.000186447,0.000240478,0.00030731,0.000389974,0.000492222,0.000618692,0.000775123,0.000968613,0.00120794,0.00150397,0.00187012,0.00232302,0.00288321,0.0035761,0.00443315,0.00549323,0.00680445,0.0084263,0.0104324,0.0129137,0.0159828,0.019779,0.0244746,0.0302825,inf	489.369,489.369,449.873,376.674,347.505,334.308,337.6,347.137,350.455,348.837,349.797,355.788,364.613,372.461,378.939,387.073,397.951,409.629,419.534,426.537,430.994,433.096,431.09,424.839,416.498,408.374,401.484,386.922,386.922,407.426,407.426,407.426
0.00152991	-18318484.22	0,9.86203e-06,2.20604e-05,3.71486e-05,5.58111e-05,7.88949e-05,0.000107447,0.000142764,0.000186447,0.000240478,0.00030731,0.000389974,0.000492222,0.000618692,0.000775123,0.000968613,0.00120794,0.00150397,0.00187012,0.00232302,0.00288321,0.0035761,0.00443315,0.00549323,0.00680445,0.0084263,0.0104324,0.0129137,0.0159828,0.019779,0.0244746,0.0302825,inf	488.08,488.08,449.263,375.927,346.483,333.449,337.773,348.273,351.953,350.499,351.75,358.077,367.009,374.556,380.482,388.028,398.32,409.378,418.671,425.183,429.378,431.476,429.627,423.564,415.347,407.23,400.152,384.906,384.906,406.728,406.728,406.728
0.00157324	-18317520.16	0,9.86203e-06,2.20604e-05,3.71486e-05,5.58111e-05,7.88949e-05,0.000107447,0.000142764,0.000186447,0.000240478,0.00030731,0.000389974,0.000492222,0.000618692,0.000775123,0.000968613,0.00120794,0.00150397,0.00187012,0.00232302,0.00288321,0.0035761,0.00443315,0.00549323,0.00680445,0.0084263,0.0104324,0.0129137,0.0159828,0.019779,0.0244746,0.0302825,inf	486.968,486.968,448.849,375.474,345.699,332.785,338.075,349.445,353.411,352.086,353.611,360.255,369.274,376.524,381.924,388.92,398.665,409.14,417.852,423.895,427.837,429.92,428.217,422.335,414.238,406.125,398.851,382.941,382.941,406.075,406.075,406.075
0.00161469	-18316663.08	0,9.86203e-06,2.20604e-05,3.71486e-05,5.58111e-05,7.88949e-05,0.000107447,0.000142764,0.000186447,0.000240478,0.00030731,0.000389974,0.000492222,0.000618692,0.000775123,0.000968613,0.00120794,0.00150397,0.00187012,0.00232302,0.00288321,0.0035761,0.00443315,0.00549323,0.00680445,0.0084263,0.0104324,0.0129137,0.0159828,0.019779,0.0244746,0.0302825,inf	485.949,485.949,448.586,375.262,345.113,332.293,338.496,350.649,354.836,353.606,355.384,362.325,371.415,378.368,383.268,389.751,398.985,408.912,417.076,422.673,426.368,428.433,426.864,421.155,413.173,405.059,397.585,381.027,381.027,405.473,405.473,405.473
0.00165439	-18315898.43	0,9.86203e-06,2.20604e-05,3.71486e-05,5.58111e-05,7.88949e-05,0.000107447,0.000142764,0.000186447,0.000240478,0.00030731,0.000389974,0.000492222,0.000618692,0.000775123,0.000968613,0.00120794,0.00150397,0.00187012,0.00232302,0.00288321,0.0035761,0.00443315,0.00549323,0.00680445,0.0084263,0.0104324,0.0129137,0.0159828,0.019779,0.0244746,0.0302825,inf	485.012,485.012,448.436,375.241,344.696,331.949,339.021,351.883,356.229,355.065,357.076,364.294,373.437,380.097,384.521,390.524,399.282,408.695,416.341,421.514,424.972,427.014,425.571,420.027,412.155,404.035,396.354,379.165,379.165,404.922,404.922,404.922
0.00169242	-18315214.01	0,9.86203e-06,2.20604e-05,3.71486e-05,5.58111e-05,7.88949e-05,0.000107447,0.000142764,0.000186447,0.000240478,0.00030731,0.000389974,0.000492222,0.000618692,0.000775123,0.000968613,0.00120794,0.00150397,0.00187012,0.00232302,0.00288321,0.0035761,0.00443315,0.00549323,0.00680445,0.0084263,0.0104324,0.0129137,0.0159828,0.019779,0.0244746,0.0302825,inf	484.144,484.144,448.356,375.372,344.41,331.735,339.639,353.142,357.591,356.466,358.692,366.165,375.347,381.716,385.688,391.243,399.558,408.487,415.644,420.414,423.646,425.662,424.337,418.95,411.183,403.052,395.159,377.355,377.355,404.424,404.424,404.424
0.00172889	-18314599.57	0,9.86203e-06,2.20604e-05,3.71486e-05,5.58111e-05,7.88949e-05,0.000107447,0.000142764,0.000186447,0.000240478,0.00030731,0.000389974,0.000492222,0.000618692,0.000775123,0.000968613,0.00120794,0.00150397,0.00187012,0.00232302,0.00288321,0.0035761,0.00443315,0.00549323,0.00680445,0.0084263,0.0104324,0.0129137,0.0159828,0.019779,0.0244746,0.0302825,inf	483.325,483.325,448.334,375.626,344.238,331.63,340.336,354.42,358.926,357.813,360.236,367.947,377.151,383.232,386.775,391.912,399.812,408.289,414.983,419.372,422.386,424.375,423.161,417.925,410.258,402.109,393.999,375.594,375.594,403.98,403.98,403.98
0.00176389	-18314046.44	0,9.86203e-06,2.20604e-05,3.71486e-05,5.58111e-05,7.88949e-05,0.000107447,0.000142764,0.000186447,0.000240478,0.00030731,0.000389974,0.000492222,0.000618692,0.000775123,0.000968613,0.00120794,0.00150397,0.00187012,0.00232302,0.00288321,0.0035761,0.00443315,0.00549323,0.00680445,0.0084263,0.0104324,0.0129137,0.0159828,0.019779,0.0244746,0.0302825,inf	482.567,482.567,448.347,375.971,344.152,331.616,341.101,355.713,360.232,359.111,361.713,369.643,378.857,384.653,387.787,392.533,400.047,408.098,414.356,418.382,421.189,423.151,422.043,416.95,409.377,401.206,392.874,373.882,373.882,403.589,403.589,403.589
