0.000733977	-18361559.83	0,2.20604e-05,5.58111e-05,0.000107447,0.000186447,0.00030731,0.000492222,0.000775123,0.00120794,0.00187012,0.00288321,0.00443315,0.00680445,0.0104324,0.0159828,0.0244746,inf	411.614,411.614,363.769,352.21,350.115,352.861,363.796,381.565,404.964,425.216,430.945,424.763,420.297,426.328,426.328,426.328
0.000834186	-18351246.77	0,2.20604e-05,5.58111e-05,0.000107447,0.000186447,0.00030731,0.000492222,0.000775123,0.00120794,0.00187012,0.00288321,0.00443315,0.00680445,0.0104324,0.0159828,0.0244746,inf	434.639,434.639,359.406,342.131,337.513,338.976,352.502,375.083,405.993,434.285,444.114,436.369,431.242,445.103,445.103,445.103
0.000926065	-18344105.02	0,2.20604e-05,5.58111e-05,0.000107447,0.000186447,0.00030731,0.000492222,0.000775123,0.00120794,0.00187012,0.00288321,0.00443315,0.00680445,0.0104324,0.0159828,0.0244746,inf	447.178,447.178,359.037,340.994,335.571,335.797,349.921,373.21,405.864,436.67,448.844,441.178,437.084,459.146,459.146,459.146
0.00101085	-18338694.38	0,2.20604e-05,5.58111e-05,0.000107447,0.000186447,0.00030731,0.000492222,0.000775123,0.00120794,0.00187012,0.00288321,0.00443315,0.00680445,0.0104324,0.0159828,0.0244746,inf	450.245,450.245,357.617,341.762,336.943,336.604,350.893,373.407,405.479,436.216,449.452,442.353,439.984,470,470,470
0.00108955	-18334417.45	0,2.20604e-05,5.58111e-05,0.000107447,0.000186447,0.00030731,0.000492222,0.000775123,0.00120794,0.00187012,0.00288321,0.00443315,0.00680445,0.0104324,0.0159828,0.0244746,inf	448.29,448.29,355.002,342.699,339.292,338.979,353.405,374.601,405.137,434.586,448.038,441.565,441.15,478.638,478.638,478.638
0.00116294	-18330951.44	0,2.20604e-05,5.58111e-05,0.000107447,0.000186447,0.00030731,0.000492222,0.000775123,0.00120794,0.00187012,0.00288321,0.00443315,0.00680445,0.0104324,0.0159828,0.0244746,inf	444.514,444.514,351.81,343.467,341.817,341.931,356.558,376.268,404.915,432.523,445.653,439.72,441.273,485.693,485.693,485.693
0.00123163	-18328094.10	0,2.20604e-05,5.58111e-05,0.000107447,0.000186447,0.00030731,0.000492222,0.000775123,0.00120794,0.00187012,0.00288321,0.00443315,0.00680445,0.0104324,0.0159828,0.0244746,inf	440.608,440.608,348.542,344.087,344.249,345.026,359.914,378.13,404.81,430.361,442.841,437.319,440.76,491.588,491.588,491.588
0.00129612	-18325707.59	0,2.20604e-05,5.58111e-05,0.000107447,0.000186447,0.00030731,0.000492222,0.000775123,0.00120794,0.00187012,0.00288321,0.00443315,0.00680445,0.0104324,0.0159828,0.0244746,inf	437.267,437.267,345.485,344.643,346.516,348.073,363.255,380.038,404.803,428.255,439.887,434.649,439.858,496.618,496.618,496.618
0.00135681	-18323693.16	0,2.20604e-05,5.58111e-05,0.000107447,0.000186447,0.00030731,0.000492222,0.000775123,0.00120794,0.00187012,0.00288321,0.00443315,0.00680445,0.0104324,0.0159828,0.0244746,inf	434.686,434.686,342.772,345.211,348.612,350.987,366.474,381.908,404.869,426.27,436.942,431.874,438.72,500.993,500.993,500.993
0.00141406	-18321977.60	0,2.20604e-05,5.58111e-05,0.000107447,0.000186447,0.00030731,0.000492222,0.000775123,0.00120794,0.00187012,0.00288321,0.00443315,0.00680445,0.0104324,0.0159828,0.0244746,inf	432.828,432.828,340.444,345.842,350.557,353.737,369.517,383.696,404.988,424.428,434.086,429.091,437.445,504.867,504.867,504.867
0.00146816	-18320505.34	0,2.20604e-05,5.58111e-05,0.000107447,0.000186447,0.00030731,0.000492222,0.000775123,0.00120794,0.00187012,0.00288321,0.00443315,0.00680445,0.0104324,0.0159828,0.0244746,inf	431.57,431.57,338.497,346.563,352.375,356.317,372.365,385.381,405.143,422.736,431.358,426.354,436.095,508.353,508.353,508.353
0.00151937	-18319233.39	0,2.20604e-05,5.58111e-05,0.000107447,0.000186447,0.00030731,0.000492222,0.000775123,0.00120794,0.00187012,0.00288321,0.00443315,0.00680445,0.0104324,0.0159828,0.0244746,inf	430.777,430.777,336.898,347.388,354.089,358.733,375.015,386.953,405.323,421.186,428.774,423.695,434.71,511.538,511.538,511.538
0.0015679	-18318127.96	0,2.20604e-05,5.58111e-05,0.000107447,0.000186447,0.00030731,0.000492222,0.000775123,0.00120794,0.00187012,0.00288321,0.00443315,0.00680445,0.0104324,0.0159828,0.0244746,inf	430.33,430.33,335.607,348.319,355.715,360.995,377.471,388.412,405.519,419.771,426.34,421.13,433.318,514.492,514.492,514.492
0.00161397	-18317162.16	0,2.20604e-05,5.58111e-05,0.000107447,0.000186447,0.00030731,0.000492222,0.000775123,0.00120794,0.00187012,0.00288321,0.00443315,0.00680445,0.0104324,0.0159828,0.0244746,inf	430.127,430.127,334.583,349.349,357.269,363.114,379.743,389.759,405.723,418.478,424.055,418.668,431.936,517.265,517.265,517.265
0.00165775	-18316314.32	0,2.20604e-05,5.58111e-05,0.000107447,0.000186447,0.00030731,0.000492222,0.000775123,0.00120794,0.00187012,0.00288321,0.00443315,0.00680445,0.0104324,0.0159828,0.0244746,inf	430.094,430.094,333.787,350.47,358.761,365.103,381.843,391.001,405.932,417.297,421.911,416.311,430.575,519.902,519.902,519.902
0.0016994	-18315566.85	0,2.20604e-05,5.58111e-05,0.000107447,0.000186447,0.00030731,0.000492222,0.000775123,0.00120794,0.00187012,0.00288321,0.00443315,0.00680445,0.0104324,0.0159828,0.0244746,inf	430.17,430.17,333.184,351.671,360.197,366.973,383.784,392.143,406.142,416.217,419.903,414.058,429.244,522.435,522.435,522.435
0.00173907	-18314905.30	0,2.20604e-05,5.58111e-05,0.000107447,0.000186447,0.00030731,0.000492222,0.000775123,0.00120794,0.00187012,0.00288321,0.00443315,0.00680445,0.0104324,0.0159828,0.0244746,inf	430.322,430.322,332.743,352.94,361.585,368.734,385.576,393.192,406.351,415.23,418.021,411.904,427.945,524.894,524.894,524.894
0.00177688	-18314317.70	0,2.20604e-05,5.58111e-05,0.000107447,0.000186447,0.00030731,0.000492222,0.000775123,0.00120794,0.00187012,0.00288321,0.00443315,0.00680445,0.0104324,0.0159828,0.0244746,inf	430.515,430.515,332.436,354.265,362.928,370.396,387.234,394.155,406.557,414.326,416.257,409.848,426.682,527.3,527.3,527.3
0.00181295	-18313794.11	0,2.20604e-05,5.58111e-05,0.000107447,0.000186447,0.00030731,0.000492222,0.000775123,0.00120794,0.00187012,0.00288321,0.00443315,0.00680445,0.0104324,0.0159828,0.0244746,inf	430.731,430.731,332.239,355.635,364.229,371.967,388.766,395.038,406.759,413.498,414.603,407.882,425.455,529.674,529.674,529.674
0.00184739	-18313326.17	0,2.20604e-05,5.58111e-05,0.000107447,0.000186447,0.00030731,0.000492222,0.000775123,0.00120794,0.00187012,0.00288321,0.00443315,0.00680445,0.0104324,0.0159828,0.0244746,inf	430.957,430.957,332.132,357.04,365.49,373.456,390.185,395.849,406.956,412.738,413.051,406.004,424.266,532.031,532.031,532.031
