time_index	left_time_boundary	right_time_boundary	lambda
0	0	9.16199e-05	348.97
1	9.16199e-05	0.000216985	348.97
2	0.000216985	0.000388523	381.111
3	0.000388523	0.000623242	378.79
4	0.000623242	0.000944411	380.899
5	0.000944411	0.00138387	387.542
6	0.00138387	0.00198519	403.283
7	0.00198519	0.00280799	421.482
8	0.00280799	0.00393383	428.149
9	0.00393383	0.00547434	415.65
10	0.00547434	0.00758224	418.443
11	0.00758224	0.0104665	422.852
12	0.0104665	0.0144131	371.184
13	0.0144131	0.0198133	259.898
14	0.0198133	0.0272024	259.898
15	0.0272024	inf	259.898
