LogLikelihood = -809727.38635326584335

y0 1.1753418148896459527
y0_prime 0
y1 1.051266914263176977
y1_prime 0
y2 0.92785606251488983442
y2_prime 0
y3 1.534847224223800044
y3_prime 0
rho 0.00013440740024820075531
theta 0.0024220294459148393636
