LogLikelihood = -865874.50242444640025

y0 0.84850070786449938165
y0_prime 0
y1 1.1342057348173515408
y1_prime 0
y2 0.90983885392054109076
y2_prime 0
y3 1.6936711707175862163
y3_prime 0
rho 0.0064462346649038510665
theta 0.0025056039825652764476
