0.000173048	-108679.01	0,2.63344e-05,6.23682e-05,0.000111674,0.000179139,0.000271453,0.000397768,0.000570607,0.000807104,0.00113071,0.0015735,0.00217937,0.0030084,0.00414278,0.00569496,0.00781884,inf	76.6659,76.6659,176.872,308.369,513.572,871.348,1582.24,2414.31,2290.85,1998.49,1815.8,1699.14,1587.23,1488.57,1488.57,1488.57
0.000177842	-108294.93	0,2.63344e-05,6.23682e-05,0.000111674,0.000179139,0.000271453,0.000397768,0.000570607,0.000807104,0.00113071,0.0015735,0.00217937,0.0030084,0.00414278,0.00569496,0.00781884,inf	5.48343,5.48343,29.8724,90.6058,237.895,588.19,1463.44,3044.3,3052.2,2550.13,2220.02,2013.99,1790.69,1596.59,1596.59,1596.59
0.000183459	-108161.71	0,2.63344e-05,6.23682e-05,0.000111674,0.000179139,0.000271453,0.000397768,0.000570607,0.000807104,0.00113071,0.0015735,0.00217937,0.0030084,0.00414278,0.00569496,0.00781884,inf	1.39861,1.39861,5.7068,29.9984,122.277,422.839,1323.04,3377.51,3616.15,2996.91,2580.21,2331,2005.58,1721.6,1721.6,1721.6
0.000188466	-108102.67	0,2.63344e-05,6.23682e-05,0.000111674,0.000179139,0.000271453,0.000397768,0.000570607,0.000807104,0.00113071,0.0015735,0.00217937,0.0030084,0.00414278,0.00569496,0.00781884,inf	1.39861,1.39861,1.39861,10.8313,67.666,319.655,1211.07,3546.23,4013.97,3336.93,2887.98,2645.31,2230.25,1860.42,1860.42,1860.42
0.000192766	-108072.48	0,2.63344e-05,6.23682e-05,0.000111674,0.000179139,0.000271453,0.000397768,0.000570607,0.000807104,0.00113071,0.0015735,0.00217937,0.0030084,0.00414278,0.00569496,0.00781884,inf	1.39861,1.39861,1.39861,4.1841,39.612,251.231,1127.25,3630.4,4290.25,3586.86,3143.45,2953.67,2463.96,2011.66,2011.66,2011.66
0.000196511	-108055.49	0,2.63344e-05,6.23682e-05,0.000111674,0.000179139,0.000271453,0.000397768,0.000570607,0.000807104,0.00113071,0.0015735,0.00217937,0.0030084,0.00414278,0.00569496,0.00781884,inf	1.39861,1.39861,1.39861,1.70532,24.2319,203.489,1064.81,3672.46,4481.69,3766.92,3350.73,3253.27,2706.79,2175.18,2175.18,2175.18
0.000199866	-108045.23	0,2.63344e-05,6.23682e-05,0.000111674,0.000179139,0.000271453,0.000397768,0.000570607,0.000807104,0.00113071,0.0015735,0.00217937,0.0030084,0.00414278,0.00569496,0.00781884,inf	1.39861,1.39861,1.39861,1.39861,15.3543,168.769,1017.97,3694.16,4614.77,3895.09,3515.7,3541.56,2959.24,2351.76,2351.76,2351.76
0.000202952	-108038.71	0,2.63344e-05,6.23682e-05,0.000111674,0.000179139,0.000271453,0.000397768,0.000570607,0.000807104,0.00113071,0.0015735,0.00217937,0.0030084,0.00414278,0.00569496,0.00781884,inf	1.39861,1.39861,1.39861,1.39861,10.0099,142.63,982.494,3706.54,4707.74,3985.65,3644.81,3815.89,3222.57,2543.98,2543.98,2543.98
0.000205859	-108034.35	0,2.63344e-05,6.23682e-05,0.000111674,0.000179139,0.000271453,0.000397768,0.000570607,0.000807104,0.00113071,0.0015735,0.00217937,0.0030084,0.00414278,0.00569496,0.00781884,inf	1.39861,1.39861,1.39861,1.39861,6.67893,122.356,955.23,3715.46,4773.5,4049.56,3744.45,4073.71,3498.98,2757.34,2757.34,2757.34
0.000208632	-108031.28	0,2.63344e-05,6.23682e-05,0.000111674,0.000179139,0.000271453,0.000397768,0.000570607,0.000807104,0.00113071,0.0015735,0.00217937,0.0030084,0.00414278,0.00569496,0.00781884,inf	1.39861,1.39861,1.39861,1.39861,4.54531,106.281,934.306,3722.97,4819.78,4094.24,3820.11,4312.34,3790.96,2996.61,2996.61,2996.61
0.000211307	-108029.04	0,2.63344e-05,6.23682e-05,0.000111674,0.000179139,0.000271453,0.000397768,0.000570607,0.000807104,0.00113071,0.0015735,0.00217937,0.0030084,0.00414278,0.00569496,0.00781884,inf	1.39861,1.39861,1.39861,1.39861,3.14548,93.2739,918.218,3730.24,4852.32,4125.31,3876.75,4529.45,4102.18,3275.03,3275.03,3275.03
0.000213909	-108027.36	0,2.63344e-05,6.23682e-05,0.000111674,0.000179139,0.000271453,0.000397768,0.000570607,0.000807104,0.00113071,0.0015735,0.00217937,0.0030084,0.00414278,0.00569496,0.00781884,inf	1.39861,1.39861,1.39861,1.39861,2.20831,82.5664,905.872,3737.72,4875.05,4146.75,3918.55,4723.29,4438.2,3612.75,3612.75,3612.75
0.000216453	-108026.04	0,2.63344e-05,6.23682e-05,0.000111674,0.000179139,0.000271453,0.000397768,0.000570607,0.000807104,0.00113071,0.0015735,0.00217937,0.0030084,0.00414278,0.00569496,0.00781884,inf	1.39861,1.39861,1.39861,1.39861,1.56971,73.6214,896.458,3745.49,4890.71,4161.4,3948.93,4892.55,4808.41,4055.03,4055.03,4055.03
0.000218951	-108024.97	0,2.63344e-05,6.23682e-05,0.000111674,0.000179139,0.000271453,0.000397768,0.000570607,0.000807104,0.00113071,0.0015735,0.00217937,0.0030084,0.00414278,0.00569496,0.00781884,inf	1.39861,1.39861,1.39861,1.39861,1.39861,66.0549,889.384,3753.43,4901.21,4171.25,3970.64,5036.68,5226.46,4730.12,4730.12,4730.12
0.000221411	-108024.09	0,2.63344e-05,6.23682e-05,0.000111674,0.000179139,0.000271453,0.000397768,0.000570607,0.000807104,0.00113071,0.0015735,0.00217937,0.0030084,0.00414278,0.00569496,0.00781884,inf	1.39861,1.39861,1.39861,1.39861,1.39861,59.5813,884.167,3761.44,4907.92,4177.75,3985.86,5156.01,5717.17,6236.27,6236.27,6236.27
0.000223841	-108023.35	0,2.63344e-05,6.23682e-05,0.000111674,0.000179139,0.000271453,0.000397768,0.000570607,0.000807104,0.00113071,0.0015735,0.00217937,0.0030084,0.00414278,0.00569496,0.00781884,inf	1.39861,1.39861,1.39861,1.39861,1.39861,53.9894,880.45,3769.42,4911.79,4181.88,3996.3,5251.35,6330.1,15841.6,15841.6,15841.6
0.000226245	-108022.71	0,2.63344e-05,6.23682e-05,0.000111674,0.000179139,0.000271453,0.000397768,0.000570607,0.000807104,0.00113071,0.0015735,0.00217937,0.0030084,0.00414278,0.00569496,0.00781884,inf	1.39861,1.39861,1.39861,1.39861,1.39861,49.1201,877.967,3777.28,4913.52,4184.36,4003.28,5324.14,7180.81,191712,191712,191712
0.000228629	-108022.14	0,2.63344e-05,6.23682e-05,0.000111674,0.000179139,0.000271453,0.000397768,0.000570607,0.000807104,0.00113071,0.0015735,0.00217937,0.0030084,0.00414278,0.00569496,0.00781884,inf	1.39861,1.39861,1.39861,1.39861,1.39861,44.8507,876.508,3784.92,4913.64,4185.69,4007.81,5376.09,8706.02,186692,186692,186692
0.000230997	-108021.63	0,2.63344e-05,6.23682e-05,0.000111674,0.000179139,0.000271453,0.000397768,0.000570607,0.000807104,0.00113071,0.0015735,0.00217937,0.0030084,0.00414278,0.00569496,0.00781884,inf	1.39861,1.39861,1.39861,1.39861,1.39861,41.0837,875.904,3792.29,4912.51,4186.22,4010.63,5408.16,13518.7,180203,180203,180203
0.000233341	-108021.17	0,2.63344e-05,6.23682e-05,0.000111674,0.000179139,0.000271453,0.000397768,0.000570607,0.000807104,0.00113071,0.0015735,0.00217937,0.0030084,0.00414278,0.00569496,0.00781884,inf	1.39861,1.39861,1.39861,1.39861,1.39861,37.7476,876.176,3798.94,4909.94,4185.97,4012.14,5419.01,54228.3,105384,105384,105384
