time_index	left_time_boundary	right_time_boundary	lambda
0	0	1.33542e-06	0.527923
1	1.33542e-06	3.0945e-06	0.527923
2	3.0945e-06	5.41164e-06	0.527923
3	5.41164e-06	8.46389e-06	33.5931
4	8.46389e-06	1.24845e-05	51.2913
5	1.24845e-05	1.77806e-05	0.52793
6	1.77806e-05	2.47568e-05	14.5513
7	2.47568e-05	3.39463e-05	532.101
8	3.39463e-05	4.60512e-05	723.004
9	4.60512e-05	6.19963e-05	649.595
10	6.19963e-05	8.29999e-05	545.964
11	8.29999e-05	0.000110667	419.351
12	0.000110667	0.000147111	346.098
13	0.000147111	0.000195118	305.563
14	0.000195118	0.000258354	286.486
15	0.000258354	0.000341652	283.429
16	0.000341652	0.000451376	293.478
17	0.000451376	0.000595909	316.092
18	0.000595909	0.000786296	350.881
19	0.000786296	0.00103708	396.135
20	0.00103708	0.00136743	448.675
21	0.00136743	0.00180258	504.124
22	0.00180258	0.00237579	556.573
23	0.00237579	0.00313084	598.399
24	0.00313084	0.00412542	623.704
25	0.00412542	0.00543554	633.479
26	0.00543554	0.0071613	633.246
27	0.0071613	0.00943455	622.546
28	0.00943455	0.012429	622.546
29	0.012429	0.0163734	583.988
30	0.0163734	0.0215692	583.988
31	0.0215692	inf	583.988
