0.000373186	-3542163.89	0,7.56897e-06,1.98309e-05,3.96957e-05,7.18773e-05,0.000124012,0.000208473,0.000345302,0.000566969,0.000926077,0.00150784,0.00245032,0.00397717,0.0064507,0.0104579,0.0169497,inf	10.6685,10.6685,27.6818,60.3784,190.1,206.153,260.067,339.403,442.069,586.154,536.668,643.201,694.717,642.706,642.706,642.706
0.000294172	-3537574.05	0,7.56897e-06,1.98309e-05,3.96957e-05,7.18773e-05,0.000124012,0.000208473,0.000345302,0.000566969,0.000926077,0.00150784,0.00245032,0.00397717,0.0064507,0.0104579,0.0169497,inf	0.546117,0.546117,1.18232,5.59266,84.0606,86.0207,142.787,243.714,380.424,634.504,506.438,696.768,867.844,744.989,744.989,744.989
0.000219645	-3533937.51	0,7.56897e-06,1.98309e-05,3.96957e-05,7.18773e-05,0.000124012,0.000208473,0.000345302,0.000566969,0.000926077,0.00150784,0.00245032,0.00397717,0.0064507,0.0104579,0.0169497,inf	0.546117,0.546117,0.546117,0.546117,39.8287,35.8732,80.3598,183.1,329.411,684.279,469.59,707.809,1093.13,848.024,848.024,848.024
0.000152247	-3530452.32	0,7.56897e-06,1.98309e-05,3.96957e-05,7.18773e-05,0.000124012,0.000208473,0.000345302,0.000566969,0.000926077,0.00150784,0.00245032,0.00397717,0.0064507,0.0104579,0.0169497,inf	0.546117,0.546117,0.546117,0.546117,6.87632,9.94845,46.2663,134.313,277.854,719.923,435.995,677.711,1459.6,929.052,929.052,929.052
9.58282e-05	-3526978.30	0,7.56897e-06,1.98309e-05,3.96957e-05,7.18773e-05,0.000124012,0.000208473,0.000345302,0.000566969,0.000926077,0.00150784,0.00245032,0.00397717,0.0064507,0.0104579,0.0169497,inf	0.546117,0.546117,0.546117,0.546117,0.578104,1.99131,29.1826,86.9572,216.573,717.073,415.762,607.469,2302.96,928.563,928.563,928.563
5.4543e-05	-3523642.20	0,7.56897e-06,1.98309e-05,3.96957e-05,7.18773e-05,0.000124012,0.000208473,0.000345302,0.000566969,0.000926077,0.00150784,0.00245032,0.00397717,0.0064507,0.0104579,0.0169497,inf	0.546117,0.546117,0.546117,0.546117,0.546117,0.546287,20.112,43.5611,139.854,661.354,425.479,504.489,5789.38,802.119,802.119,802.119
2.95139e-05	-3520817.62	0,7.56897e-06,1.98309e-05,3.96957e-05,7.18773e-05,0.000124012,0.000208473,0.000345302,0.000566969,0.000926077,0.00150784,0.00245032,0.00397717,0.0064507,0.0104579,0.0169497,inf	0.546117,0.546117,0.546117,0.546117,0.546117,0.546126,12.0361,13.5825,64.1051,567.149,507.761,389.837,291371,655.505,655.505,655.505
