LogLikelihood = -173103.18904829749954

y0 0.48757352230056150155
y0_prime 0
y1 1.2812365613596436997
y1_prime 0
y2 0.87538057919431566667
y2_prime 0
y3 1.878249502908865054
y3_prime 0
rho 0.00014938663701311748937
rho.alpha 0.76466885048385191403
r_ii 0.99993772260590796375
theta 0.0025970094272902890381
