LogLikelihood = -315691.64591789769474

y0 0.93437985766808617782
y0_prime 0
y1 0.87588057888885939573
y1_prime 0
y2 1.1992696722686373434
y2_prime 0
y3 1.6748987581114613832
y3_prime 0
rho 0.00038884639503243328875
theta 0.0052742982095148180019
