0.000663477	-8620132.60	0,2.68376e-06,6.16692e-06,1.06876e-05,1.65548e-05,2.41697e-05,3.40528e-05,4.68797e-05,6.35273e-05,8.51336e-05,0.000113176,0.000149571,0.000196807,0.000258112,0.000337679,0.000440945,0.000574972,0.00074892,0.000974681,0.00126769,0.00164797,0.00214153,0.00278211,0.00361348,0.0046925,0.00609292,0.00791048,0.0102694,0.013331,0.0173045,0.0224617,0.0291549,inf	115.331,115.331,183.96,179.267,159.856,159.245,186.1,231.588,242.243,255.6,271.858,274.104,280.818,291.02,301.323,311.837,322.53,334.093,348.029,364.779,384.165,404.933,422.997,432.252,430.13,422.594,417.422,410.825,410.825,333.139,333.139,333.139
0.000697263	-8618452.28	0,2.68376e-06,6.16692e-06,1.06876e-05,1.65548e-05,2.41697e-05,3.40528e-05,4.68797e-05,6.35273e-05,8.51336e-05,0.000113176,0.000149571,0.000196807,0.000258112,0.000337679,0.000440945,0.000574972,0.00074892,0.000974681,0.00126769,0.00164797,0.00214153,0.00278211,0.00361348,0.0046925,0.00609292,0.00791048,0.0102694,0.013331,0.0173045,0.0224617,0.0291549,inf	73.6878,73.6878,182.074,164.42,119.179,106.83,136.834,205.365,210.838,225.363,247.536,244.015,250.499,263.212,275.755,288.279,300.305,313.183,329.968,351.66,378.424,409.26,438.695,455.852,453.565,441.018,432.842,420.979,420.979,277.905,277.905,277.905
0.000729459	-8617692.17	0,2.68376e-06,6.16692e-06,1.06876e-05,1.65548e-05,2.41697e-05,3.40528e-05,4.68797e-05,6.35273e-05,8.51336e-05,0.000113176,0.000149571,0.000196807,0.000258112,0.000337679,0.000440945,0.000574972,0.00074892,0.000974681,0.00126769,0.00164797,0.00214153,0.00278211,0.00361348,0.0046925,0.00609292,0.00791048,0.0102694,0.013331,0.0173045,0.0224617,0.0291549,inf	54.748,54.748,209.597,177.692,105.304,84.5384,116.689,206.735,203.829,218.86,246.165,235.915,241.756,255.993,269.47,282.374,293.586,305.152,321.647,344.506,374.197,410.309,447.274,471.008,469.531,453.687,444.102,428.091,428.091,227.67,227.67,227.67
0.000759956	-8617190.75	0,2.68376e-06,6.16692e-06,1.06876e-05,1.65548e-05,2.41697e-05,3.40528e-05,4.68797e-05,6.35273e-05,8.51336e-05,0.000113176,0.000149571,0.000196807,0.000258112,0.000337679,0.000440945,0.000574972,0.00074892,0.000974681,0.00126769,0.00164797,0.00214153,0.00278211,0.00361348,0.0046925,0.00609292,0.00791048,0.0102694,0.013331,0.0173045,0.0224617,0.0291549,inf	40.2829,40.2829,238.689,193.571,96.0996,70.3194,104.317,214.681,201.798,217.949,250.468,233.731,239.425,255.251,269.6,282.695,292.645,302.224,317.449,340.059,370.7,409.571,451.605,480.674,480.385,462.375,452.533,433.438,433.438,176.95,176.95,176.95
0.000788946	-8616802.07	0,2.68376e-06,6.16692e-06,1.06876e-05,1.65548e-05,2.41697e-05,3.40528e-05,4.68797e-05,6.35273e-05,8.51336e-05,0.000113176,0.000149571,0.000196807,0.000258112,0.000337679,0.000440945,0.000574972,0.00074892,0.000974681,0.00126769,0.00164797,0.00214153,0.00278211,0.00361348,0.0046925,0.00609292,0.00791048,0.0102694,0.013331,0.0173045,0.0224617,0.0291549,inf	28.8934,28.8934,262.761,206.698,87.9309,59.649,95.0223,223.979,200.113,217.994,255.628,232.872,238.913,256.474,271.846,285.285,294.026,301.577,315.309,337.142,367.789,407.996,453.455,486.789,487.764,468.364,459.158,438.318,438.318,112.209,112.209,112.209
0.000816618	-8616477.76	0,2.68376e-06,6.16692e-06,1.06876e-05,1.65548e-05,2.41697e-05,3.40528e-05,4.68797e-05,6.35273e-05,8.51336e-05,0.000113176,0.000149571,0.000196807,0.000258112,0.000337679,0.000440945,0.000574972,0.00074892,0.000974681,0.00126769,0.00164797,0.00214153,0.00278211,0.00361348,0.0046925,0.00609292,0.00791048,0.0102694,0.013331,0.0173045,0.0224617,0.0291549,inf	20.2944,20.2944,281.246,216.704,80.1974,51.239,87.5545,233.381,197.863,217.957,260.396,232.064,238.777,258.122,274.633,288.607,296.327,302.022,314.318,335.22,365.411,406.115,453.876,490.607,492.813,472.645,464.994,445.347,445.347,23.8418,23.8418,23.8418
0.000843729	-8616334.48	0,2.68376e-06,6.16692e-06,1.06876e-05,1.65548e-05,2.41697e-05,3.40528e-05,4.68797e-05,6.35273e-05,8.51336e-05,0.000113176,0.000149571,0.000196807,0.000258112,0.000337679,0.000440945,0.000574972,0.00074892,0.000974681,0.00126769,0.00164797,0.00214153,0.00278211,0.00361348,0.0046925,0.00609292,0.00791048,0.0102694,0.013331,0.0173045,0.0224617,0.0291549,inf	14.1462,14.1462,295.189,224.271,73.4243,44.5065,81.4399,242.653,195.021,217.72,264.572,231.052,238.638,259.721,277.445,292.164,299.116,303.197,314.205,334.161,363.658,404.342,453.644,493.141,496.688,476.8,473.423,477.941,477.941,31.2406,31.2406,31.2406
0.000869543	-8616028.17	0,2.68376e-06,6.16692e-06,1.06876e-05,1.65548e-05,2.41697e-05,3.40528e-05,4.68797e-05,6.35273e-05,8.51336e-05,0.000113176,0.000149571,0.000196807,0.000258112,0.000337679,0.000440945,0.000574972,0.00074892,0.000974681,0.00126769,0.00164797,0.00214153,0.00278211,0.00361348,0.0046925,0.00609292,0.00791048,0.0102694,0.013331,0.0173045,0.0224617,0.0291549,inf	9.81749,9.81749,305.295,229.815,67.3416,39.0448,76.383,251.75,191.792,217.454,268.286,229.859,238.385,261.052,279.915,295.4,301.696,304.366,314.269,333.358,362.063,402.374,452.564,494.065,498.464,478.466,478.052,496.603,496.603,22.4566,22.4566,22.4566
0.000894583	-8615850.58	0,2.68376e-06,6.16692e-06,1.06876e-05,1.65548e-05,2.41697e-05,3.40528e-05,4.68797e-05,6.35273e-05,8.51336e-05,0.000113176,0.000149571,0.000196807,0.000258112,0.000337679,0.000440945,0.000574972,0.00074892,0.000974681,0.00126769,0.00164797,0.00214153,0.00278211,0.00361348,0.0046925,0.00609292,0.00791048,0.0102694,0.013331,0.0173045,0.0224617,0.0291549,inf	6.82524,6.82524,312.573,233.966,61.9274,34.5628,72.1815,260.672,188.321,217.277,271.701,228.615,238.115,262.215,282.149,298.443,304.216,305.673,314.654,332.979,360.864,400.601,451.26,494.26,499.286,479.278,482.063,520.75,520.75,35.1384,35.1384,35.1384
0.000918563	-8615601.71	0,2.68376e-06,6.16692e-06,1.06876e-05,1.65548e-05,2.41697e-05,3.40528e-05,4.68797e-05,6.35273e-05,8.51336e-05,0.000113176,0.000149571,0.000196807,0.000258112,0.000337679,0.000440945,0.000574972,0.00074892,0.000974681,0.00126769,0.00164797,0.00214153,0.00278211,0.00361348,0.0046925,0.00609292,0.00791048,0.0102694,0.013331,0.0173045,0.0224617,0.0291549,inf	4.77066,4.77066,317.793,237.037,57.1124,30.8495,68.6718,269.429,184.754,217.307,274.963,227.41,237.873,263.226,284.109,301.165,306.47,306.873,315.104,332.789,359.878,398.923,449.738,493.781,499.095,478.774,483.689,529.737,529.737,19.9874,19.9874,19.9874
0.000942077	-8615483.84	0,2.68376e-06,6.16692e-06,1.06876e-05,1.65548e-05,2.41697e-05,3.40528e-05,4.68797e-05,6.35273e-05,8.51336e-05,0.000113176,0.000149571,0.000196807,0.000258112,0.000337679,0.000440945,0.000574972,0.00074892,0.000974681,0.00126769,0.00164797,0.00214153,0.00278211,0.00361348,0.0046925,0.00609292,0.00791048,0.0102694,0.013331,0.0173045,0.0224617,0.0291549,inf	3.35593,3.35593,321.403,239.31,52.8358,27.7417,65.7211,277.912,181.092,217.521,278.096,226.279,237.699,264.159,285.904,303.718,308.638,308.136,315.764,332.915,359.244,397.543,448.328,493.158,498.686,478.281,485.988,551.565,551.565,42.1646,42.1646,42.1646
0.000964537	-8615257.68	0,2.68376e-06,6.16692e-06,1.06876e-05,1.65548e-05,2.41697e-05,3.40528e-05,4.68797e-05,6.35273e-05,8.51336e-05,0.000113176,0.000149571,0.000196807,0.000258112,0.000337679,0.000440945,0.000574972,0.00074892,0.000974681,0.00126769,0.00164797,0.00214153,0.00278211,0.00361348,0.0046925,0.00609292,0.00791048,0.0102694,0.013331,0.0173045,0.0224617,0.0291549,inf	2.38885,2.38885,323.904,240.949,49.0267,25.1137,63.2407,286.139,177.424,217.981,281.175,225.257,237.61,265.012,287.481,305.958,310.488,309.186,316.343,333.071,358.695,396.216,446.808,492.128,497.6,476.789,486.123,553.464,553.464,17.5085,17.5085,17.5085
0.000986764	-8615185.52	0,2.68376e-06,6.16692e-06,1.06876e-05,1.65548e-05,2.41697e-05,3.40528e-05,4.68797e-05,6.35273e-05,8.51336e-05,0.000113176,0.000149571,0.000196807,0.000258112,0.000337679,0.000440945,0.000574972,0.00074892,0.000974681,0.00126769,0.00164797,0.00214153,0.00278211,0.00361348,0.0046925,0.00609292,0.00791048,0.0102694,0.013331,0.0173045,0.0224617,0.0291549,inf	1.70789,1.70789,325.645,242.125,45.6312,22.8739,61.1451,294.006,173.723,218.618,284.173,224.349,237.632,265.861,288.979,308.1,312.29,310.29,317.085,333.474,358.44,395.184,445.512,491.209,496.655,475.764,487.706,575.467,575.467,49.014,49.014,49.014
0.0010079	-8614976.22	0,2.68376e-06,6.16692e-06,1.06876e-05,1.65548e-05,2.41697e-05,3.40528e-05,4.68797e-05,6.35273e-05,8.51336e-05,0.000113176,0.000149571,0.000196807,0.000258112,0.000337679,0.000440945,0.000574972,0.00074892,0.000974681,0.00126769,0.00164797,0.00214153,0.00278211,0.00361348,0.0046925,0.00609292,0.00791048,0.0102694,0.013331,0.0173045,0.0224617,0.0291549,inf	1.22806,1.22806,326.876,242.896,42.5908,20.9542,59.3913,301.557,170.062,219.472,287.131,223.558,237.751,266.671,290.31,309.96,313.776,311.141,317.668,333.805,358.167,394.135,444.101,489.959,495.147,473.826,487.105,573.073,573.073,16.3603,16.3603,16.3603
0.00102894	-8614928.87	0,2.68376e-06,6.16692e-06,1.06876e-05,1.65548e-05,2.41697e-05,3.40528e-05,4.68797e-05,6.35273e-05,8.51336e-05,0.000113176,0.000149571,0.000196807,0.000258112,0.000337679,0.000440945,0.000574972,0.00074892,0.000974681,0.00126769,0.00164797,0.00214153,0.00278211,0.00361348,0.0046925,0.00609292,0.00791048,0.0102694,0.013331,0.0173045,0.0224617,0.0291549,inf	0.891103,0.891103,327.679,243.358,39.8648,19.2974,57.9235,308.709,166.408,220.474,290.014,222.879,237.991,267.521,291.626,311.785,315.255,312.056,318.392,334.342,358.143,393.357,442.947,488.932,493.943,472.538,488.22,594.132,594.132,51.7147,51.7147,51.7147
0.0010489	-8614740.96	0,2.68376e-06,6.16692e-06,1.06876e-05,1.65548e-05,2.41697e-05,3.40528e-05,4.68797e-05,6.35273e-05,8.51336e-05,0.000113176,0.000149571,0.000196807,0.000258112,0.000337679,0.000440945,0.000574972,0.00074892,0.000974681,0.00126769,0.00164797,0.00214153,0.00278211,0.00361348,0.0046925,0.00609292,0.00791048,0.0102694,0.013331,0.0173045,0.0224617,0.0291549,inf	0.480286,0.480286,328.242,243.555,37.4093,17.8616,56.7248,315.521,162.815,221.65,292.84,222.301,238.316,268.352,292.816,313.371,316.449,312.725,318.935,334.762,358.049,392.521,441.674,487.624,492.264,470.447,487.322,589.76,589.76,16.1354,16.1354,16.1354
0.00106884	-8614706.14	0,2.68376e-06,6.16692e-06,1.06876e-05,1.65548e-05,2.41697e-05,3.40528e-05,4.68797e-05,6.35273e-05,8.51336e-05,0.000113176,0.000149571,0.000196807,0.000258112,0.000337679,0.000440945,0.000574972,0.00074892,0.000974681,0.00126769,0.00164797,0.00214153,0.00278211,0.00361348,0.0046925,0.00609292,0.00791048,0.0102694,0.013331,0.0173045,0.0224617,0.0291549,inf	0.397809,0.397809,328.638,243.578,35.1956,16.6074,55.7553,321.931,159.255,222.939,295.58,221.815,238.748,269.235,294.024,314.959,317.66,313.461,319.6,335.352,358.162,391.923,440.65,486.568,490.935,469.027,488.089,608.938,608.938,52.2602,52.2602,52.2602
0.00108774	-8614540.52	0,2.68376e-06,6.16692e-06,1.06876e-05,1.65548e-05,2.41697e-05,3.40528e-05,4.68797e-05,6.35273e-05,8.51336e-05,0.000113176,0.000149571,0.000196807,0.000258112,0.000337679,0.000440945,0.000574972,0.00074892,0.000974681,0.00126769,0.00164797,0.00214153,0.00278211,0.00361348,0.0046925,0.00609292,0.00791048,0.0102694,0.013331,0.0173045,0.0224617,0.0291549,inf	0.397809,0.397809,328.9,243.385,33.1953,15.5113,55.0102,328.013,155.773,224.363,298.239,221.405,239.247,270.107,295.133,316.348,318.627,313.975,320.089,335.814,358.185,391.251,439.513,485.276,489.211,466.925,487.095,603.596,603.596,16.1705,16.1705,16.1705
0.00110665	-8614514.92	0,2.68376e-06,6.16692e-06,1.06876e-05,1.65548e-05,2.41697e-05,3.40528e-05,4.68797e-05,6.35273e-05,8.51336e-05,0.000113176,0.000149571,0.000196807,0.000258112,0.000337679,0.000440945,0.000574972,0.00074892,0.000974681,0.00126769,0.00164797,0.00214153,0.00278211,0.00361348,0.0046925,0.00609292,0.00791048,0.0102694,0.013331,0.0173045,0.0224617,0.0291549,inf	0.397809,0.397809,329.126,243.054,31.3872,14.5476,54.4593,333.712,152.344,225.875,300.795,221.065,239.833,271.03,296.275,317.759,319.625,314.557,320.685,336.419,358.382,390.784,438.604,484.236,487.84,465.466,487.643,621.015,621.015,52.1969,52.1969,52.1969
0.00112457	-8614368.56	0,2.68376e-06,6.16692e-06,1.06876e-05,1.65548e-05,2.41697e-05,3.40528e-05,4.68797e-05,6.35273e-05,8.51336e-05,0.000113176,0.000149571,0.000196807,0.000258112,0.000337679,0.000440945,0.000574972,0.00074892,0.000974681,0.00126769,0.00164797,0.00214153,0.00278211,0.00361348,0.0046925,0.00609292,0.00791048,0.0102694,0.013331,0.0173045,0.0224617,0.0291549,inf	0.397809,0.397809,329.263,242.574,29.7491,13.6984,54.105,339.098,149.008,227.496,303.257,220.777,240.466,271.94,297.335,319.001,320.412,314.942,321.118,336.895,358.481,390.235,437.586,482.991,486.133,463.417,486.64,615.135,615.135,16.2792,16.2792,16.2792
