0.000705421	-46869230.17	0,4.53913e-06,1.03166e-05,1.76701e-05,2.70297e-05,3.89426e-05,5.41055e-05,7.34049e-05,9.79692e-05,0.000129235,0.00016903,0.000219681,0.00028415,0.000366207,0.000470649,0.000603583,0.000772782,0.00098814,0.00126225,0.00161113,0.0020552,0.0026204,0.0033398,0.00425545,0.0054209,0.00690429,0.00879235,0.0111955,0.0142542,0.0181473,0.0231026,0.0294096,inf	266.211,266.211,268.878,223.205,193.645,180.693,175.671,174.002,174.746,177.894,183.417,191.462,202.544,217.548,237.76,264.962,301.496,349.733,409.657,472.89,517.912,527.489,510.898,486.498,463.972,445.325,429.745,411.652,411.652,380.407,380.407,380.407
0.000790926	-46807742.10	0,4.53913e-06,1.03166e-05,1.76701e-05,2.70297e-05,3.89426e-05,5.41055e-05,7.34049e-05,9.79692e-05,0.000129235,0.00016903,0.000219681,0.00028415,0.000366207,0.000470649,0.000603583,0.000772782,0.00098814,0.00126225,0.00161113,0.0020552,0.0026204,0.0033398,0.00425545,0.0054209,0.00690429,0.00879235,0.0111955,0.0142542,0.0181473,0.0231026,0.0294096,inf	309.222,309.222,328.422,235.589,181.661,157.673,145.468,137.543,132.699,131.006,132.414,137.154,145.986,160.221,181.766,213.293,258.469,321.614,405.251,502.046,581.634,607.825,586.859,548.262,509.909,476.672,447.92,413.26,413.26,354.783,354.783,354.783
0.000873642	-46779841.04	0,4.53913e-06,1.03166e-05,1.76701e-05,2.70297e-05,3.89426e-05,5.41055e-05,7.34049e-05,9.79692e-05,0.000129235,0.00016903,0.000219681,0.00028415,0.000366207,0.000470649,0.000603583,0.000772782,0.00098814,0.00126225,0.00161113,0.0020552,0.0026204,0.0033398,0.00425545,0.0054209,0.00690429,0.00879235,0.0111955,0.0142542,0.0181473,0.0231026,0.0294096,inf	342.276,342.276,405.503,269.857,196.858,165.472,148.222,135.335,125.775,119.793,117.315,118.59,124.486,136.504,156.844,188.629,236.196,304.882,398.878,513.075,615.052,656.355,636.898,591.063,542.121,497.724,458.01,408.807,408.807,328.401,328.401,328.401
0.000953161	-46762897.51	0,4.53913e-06,1.03166e-05,1.76701e-05,2.70297e-05,3.89426e-05,5.41055e-05,7.34049e-05,9.79692e-05,0.000129235,0.00016903,0.000219681,0.00028415,0.000366207,0.000470649,0.000603583,0.000772782,0.00098814,0.00126225,0.00161113,0.0020552,0.0026204,0.0033398,0.00425545,0.0054209,0.00690429,0.00879235,0.0111955,0.0142542,0.0181473,0.0231026,0.0294096,inf	336.566,336.566,458.122,295.004,211.917,177.882,158.329,142.188,129.06,119.635,113.961,112.368,115.804,125.855,144.837,176.063,224.166,294.936,393.477,516.519,632.134,685.045,669.222,620.236,564.33,511.388,462.558,400.897,400.897,303.339,303.339,303.339
0.00102999	-46750561.94	0,4.53913e-06,1.03166e-05,1.76701e-05,2.70297e-05,3.89426e-05,5.41055e-05,7.34049e-05,9.79692e-05,0.000129235,0.00016903,0.000219681,0.00028415,0.000366207,0.000470649,0.000603583,0.000772782,0.00098814,0.00126225,0.00161113,0.0020552,0.0026204,0.0033398,0.00425545,0.0054209,0.00690429,0.00879235,0.0111955,0.0142542,0.0181473,0.0231026,0.0294096,inf	306.237,306.237,480.362,304.275,219.486,187.202,168.147,150.661,135.26,123.304,115.132,111.264,112.771,121.298,139.189,169.801,217.84,289.222,389.49,516.698,640.226,701.443,689.673,639.813,579.377,519.845,463.417,391.257,391.257,280.26,280.26,280.26
0.00110468	-46740561.24	0,4.53913e-06,1.03166e-05,1.76701e-05,2.70297e-05,3.89426e-05,5.41055e-05,7.34049e-05,9.79692e-05,0.000129235,0.00016903,0.000219681,0.00028415,0.000366207,0.000470649,0.000603583,0.000772782,0.00098814,0.00126225,0.00161113,0.0020552,0.0026204,0.0033398,0.00425545,0.0054209,0.00690429,0.00879235,0.0111955,0.0142542,0.0181473,0.0231026,0.0294096,inf	270.035,270.035,481.85,300.571,219.211,191.536,175.122,157.997,141.6,128.03,118.047,112.457,112.508,119.916,137.023,167.146,214.933,286.236,386.756,515.463,643.22,710.12,702.138,652.638,589.304,524.652,461.882,380.968,380.968,259.193,259.193,259.193
0.00117767	-46731938.12	0,4.53913e-06,1.03166e-05,1.76701e-05,2.70297e-05,3.89426e-05,5.41055e-05,7.34049e-05,9.79692e-05,0.000129235,0.00016903,0.000219681,0.00028415,0.000366207,0.000470649,0.000603583,0.000772782,0.00098814,0.00126225,0.00161113,0.0020552,0.0026204,0.0033398,0.00425545,0.0054209,0.00690429,0.00879235,0.0111955,0.0142542,0.0181473,0.0231026,0.0294096,inf	238.191,238.191,473.915,289.21,213.258,191.367,178.816,163.302,146.983,132.639,121.483,114.671,113.68,120.315,136.904,166.69,214.181,285.057,385.012,513.648,643.252,713.869,709.179,660.685,595.561,526.911,458.844,370.689,370.689,239.913,239.913,239.913
0.00124928	-46724234.12	0,4.53913e-06,1.03166e-05,1.76701e-05,2.70297e-05,3.89426e-05,5.41055e-05,7.34049e-05,9.79692e-05,0.000129235,0.00016903,0.000219681,0.00028415,0.000366207,0.000470649,0.000603583,0.000772782,0.00098814,0.00126225,0.00161113,0.0020552,0.0026204,0.0033398,0.00425545,0.0054209,0.00690429,0.00879235,0.0111955,0.0142542,0.0181473,0.0231026,0.0294096,inf	213.784,213.784,464.203,274.613,204.083,187.969,179.685,166.518,151.072,136.646,124.878,117.289,115.61,121.757,138.051,167.634,214.832,285.095,384.017,511.639,641.541,714.43,712.504,665.333,599.181,527.403,454.917,360.81,360.81,222.118,222.118,222.118
0.00131974	-46717204.66	0,4.53913e-06,1.03166e-05,1.76701e-05,2.70297e-05,3.89426e-05,5.41055e-05,7.34049e-05,9.79692e-05,0.000129235,0.00016903,0.000219681,0.00028415,0.000366207,0.000470649,0.000603583,0.000772782,0.00098814,0.00126225,0.00161113,0.0020552,0.0026204,0.0033398,0.00425545,0.0054209,0.00690429,0.00879235,0.0111955,0.0142542,0.0181473,0.0231026,0.0294096,inf	196.497,196.497,456.615,259.528,193.596,182.627,178.464,167.956,153.889,139.905,127.985,119.996,117.93,123.827,140.006,169.495,216.418,285.963,383.58,509.615,638.802,712.913,713.263,667.551,600.903,526.686,450.522,351.554,351.554,205.5,205.5,205.5
0.00138923	-46710706.56	0,4.53913e-06,1.03166e-05,1.76701e-05,2.70297e-05,3.89426e-05,5.41055e-05,7.34049e-05,9.79692e-05,0.000129235,0.00016903,0.000219681,0.00028415,0.000366207,0.000470649,0.000603583,0.000772782,0.00098814,0.00126225,0.00161113,0.0020552,0.0026204,0.0033398,0.00425545,0.0054209,0.00690429,0.00879235,0.0111955,0.0142542,0.0181473,0.0231026,0.0294096,inf	184.925,184.925,452.523,245.376,183.025,176.356,175.877,168.026,155.607,142.428,130.715,122.639,120.437,126.279,142.485,171.968,218.633,287.4,383.553,507.655,635.468,710.041,712.246,668.026,601.263,525.16,445.95,343.043,343.043,189.765,189.765,189.765
0.00145787	-46704648.92	0,4.53913e-06,1.03166e-05,1.76701e-05,2.70297e-05,3.89426e-05,5.41055e-05,7.34049e-05,9.79692e-05,0.000129235,0.00016903,0.000219681,0.00028415,0.000366207,0.000470649,0.000603583,0.000772782,0.00098814,0.00126225,0.00161113,0.0020552,0.0026204,0.0033398,0.00425545,0.0054209,0.00690429,0.00879235,0.0111955,0.0142542,0.0181473,0.0231026,0.0294096,inf	177.569,177.569,452.018,232.695,173.058,169.865,172.512,167.133,156.449,144.298,133.058,125.142,123.012,128.96,145.308,174.85,221.271,289.225,383.825,505.794,631.807,706.294,710,667.252,600.651,523.114,441.403,335.341,335.341,174.643,174.643,174.643
0.00152575	-46698969.75	0,4.53913e-06,1.03166e-05,1.76701e-05,2.70297e-05,3.89426e-05,5.41055e-05,7.34049e-05,9.79692e-05,0.000129235,0.00016903,0.000219681,0.00028415,0.000366207,0.000470649,0.000603583,0.000772782,0.00098814,0.00126225,0.00161113,0.0020552,0.0026204,0.0033398,0.00425545,0.0054209,0.00690429,0.00879235,0.0111955,0.0142542,0.0181473,0.0231026,0.0294096,inf	173.163,173.163,454.49,221.596,164.023,163.595,168.809,165.617,156.633,145.627,135.043,127.481,125.59,131.773,148.353,178.002,224.188,291.308,384.311,504.042,627.987,701.996,706.91,665.588,599.355,520.761,437.023,328.481,328.481,159.869,159.869,159.869
0.00159295	-46693624.26	0,4.53913e-06,1.03166e-05,1.76701e-05,2.70297e-05,3.89426e-05,5.41055e-05,7.34049e-05,9.79692e-05,0.000129235,0.00016903,0.000219681,0.00028415,0.000366207,0.000470649,0.000603583,0.000772782,0.00098814,0.00126225,0.00161113,0.0020552,0.0026204,0.0033398,0.00425545,0.0054209,0.00690429,0.00879235,0.0111955,0.0142542,0.0181473,0.0231026,0.0294096,inf	170.716,170.716,459.262,211.98,156.029,157.795,165.066,163.743,156.347,146.523,136.715,129.652,128.131,134.655,151.536,181.33,227.286,293.56,384.95,502.395,624.115,697.366,703.251,663.296,597.588,518.258,432.912,322.483,322.483,145.184,145.184,145.184
0.00165949	-46688578.54	0,4.53913e-06,1.03166e-05,1.76701e-05,2.70297e-05,3.89426e-05,5.41055e-05,7.34049e-05,9.79692e-05,0.000129235,0.00016903,0.000219681,0.00028415,0.000366207,0.000470649,0.000603583,0.000772782,0.00098814,0.00126225,0.00161113,0.0020552,0.0026204,0.0033398,0.00425545,0.0054209,0.00690429,0.00879235,0.0111955,0.0142542,0.0181473,0.0231026,0.0294096,inf	169.505,169.505,465.628,203.653,149.061,152.591,161.477,161.708,155.745,147.086,138.124,131.664,130.617,137.563,154.802,184.764,230.491,295.914,385.694,500.847,620.257,692.556,699.218,660.571,595.512,515.725,429.151,317.377,317.377,130.314,130.314,130.314
0.00172544	-46683806.14	0,4.53913e-06,1.03166e-05,1.76701e-05,2.70297e-05,3.89426e-05,5.41055e-05,7.34049e-05,9.79692e-05,0.000129235,0.00016903,0.000219681,0.00028415,0.000366207,0.000470649,0.000603583,0.000772782,0.00098814,0.00126225,0.00161113,0.0020552,0.0026204,0.0033398,0.00425545,0.0054209,0.00690429,0.00879235,0.0111955,0.0142542,0.0181473,0.0231026,0.0294096,inf	169.018,169.018,473.008,196.439,143.053,148.018,158.158,159.653,154.951,147.403,139.318,133.532,133.038,140.472,158.109,188.255,233.752,298.323,386.507,499.389,616.456,687.671,694.955,657.559,593.252,513.259,425.812,313.223,313.223,114.957,114.957,114.957
0.00179081	-46679286.59	0,4.53913e-06,1.03166e-05,1.76701e-05,2.70297e-05,3.89426e-05,5.41055e-05,7.34049e-05,9.79692e-05,0.000129235,0.00016903,0.000219681,0.00028415,0.000366207,0.000470649,0.000603583,0.000772782,0.00098814,0.00126225,0.00161113,0.0020552,0.0026204,0.0033398,0.00425545,0.0054209,0.00690429,0.00879235,0.0111955,0.0142542,0.0181473,0.0231026,0.0294096,inf	168.898,168.898,480.866,190.146,137.915,144.078,155.18,157.671,154.057,147.544,140.338,135.275,135.392,143.362,161.427,191.768,237.031,300.752,387.363,498.013,612.74,682.781,690.566,654.372,590.91,510.951,422.979,310.145,310.145,98.7839,98.7839,98.7839
0.00185563	-46675005.67	0,4.53913e-06,1.03166e-05,1.76701e-05,2.70297e-05,3.89426e-05,5.41055e-05,7.34049e-05,9.79692e-05,0.000129235,0.00016903,0.000219681,0.00028415,0.000366207,0.000470649,0.000603583,0.000772782,0.00098814,0.00126225,0.00161113,0.0020552,0.0026204,0.0033398,0.00425545,0.0054209,0.00690429,0.00879235,0.0111955,0.0142542,0.0181473,0.0231026,0.0294096,inf	168.948,168.948,488.874,184.632,133.54,140.729,152.564,155.822,153.131,147.564,141.223,136.909,137.679,146.222,164.737,195.275,240.3,303.175,388.243,496.709,609.122,677.94,686.13,651.102,588.578,508.898,420.781,308.399,308.399,81.524,81.524,81.524
0.00191994	-46670959.04	0,4.53913e-06,1.03166e-05,1.76701e-05,2.70297e-05,3.89426e-05,5.41055e-05,7.34049e-05,9.79692e-05,0.000129235,0.00016903,0.000219681,0.00028415,0.000366207,0.000470649,0.000603583,0.000772782,0.00098814,0.00126225,0.00161113,0.0020552,0.0026204,0.0033398,0.00425545,0.0054209,0.00690429,0.00879235,0.0111955,0.0142542,0.0181473,0.0231026,0.0294096,inf	169.012,169.012,496.717,179.766,129.837,137.935,150.314,154.145,152.222,147.51,142.005,138.452,139.902,149.043,168.022,198.758,243.54,305.574,389.131,495.47,605.614,673.184,681.71,647.83,586.358,507.242,419.441,308.538,308.538,63.3592,63.3592,63.3592
0.00198377	-46667162.64	0,4.53913e-06,1.03166e-05,1.76701e-05,2.70297e-05,3.89426e-05,5.41055e-05,7.34049e-05,9.79692e-05,0.000129235,0.00016903,0.000219681,0.00028415,0.000366207,0.000470649,0.000603583,0.000772782,0.00098814,0.00126225,0.00161113,0.0020552,0.0026204,0.0033398,0.00425545,0.0054209,0.00690429,0.00879235,0.0111955,0.0142542,0.0181473,0.0231026,0.0294096,inf	169.053,169.053,504.236,175.44,126.716,135.643,148.421,152.66,151.362,147.418,142.711,139.92,142.067,151.824,171.273,202.204,246.734,307.936,390.015,494.288,602.221,668.542,677.363,644.644,584.384,506.213,419.393,311.782,311.782,45.9323,45.9323,45.9323
0.00204712	-46663663.14	0,4.53913e-06,1.03166e-05,1.76701e-05,2.70297e-05,3.89426e-05,5.41055e-05,7.34049e-05,9.79692e-05,0.000129235,0.00016903,0.000219681,0.00028415,0.000366207,0.000470649,0.000603583,0.000772782,0.00098814,0.00126225,0.00161113,0.0020552,0.0026204,0.0033398,0.00425545,0.0054209,0.00690429,0.00879235,0.0111955,0.0142542,0.0181473,0.0231026,0.0294096,inf	169.033,169.033,511.255,171.565,124.096,133.798,146.864,151.376,150.578,147.313,143.363,141.325,144.177,154.559,174.482,205.6,249.872,310.247,390.884,493.154,598.938,664.028,673.13,641.625,582.813,506.137,421.33,320.541,320.541,32.0549,32.0549,32.0549
