time_index	left_time_boundary	right_time_boundary	lambda
0	0	4.53913e-06	169.033
1	4.53913e-06	1.03166e-05	169.033
2	1.03166e-05	1.76701e-05	511.255
3	1.76701e-05	2.70297e-05	171.565
4	2.70297e-05	3.89426e-05	124.096
5	3.89426e-05	5.41055e-05	133.798
6	5.41055e-05	7.34049e-05	146.864
7	7.34049e-05	9.79692e-05	151.376
8	9.79692e-05	0.000129235	150.578
9	0.000129235	0.00016903	147.313
10	0.00016903	0.000219681	143.363
11	0.000219681	0.00028415	141.325
12	0.00028415	0.000366207	144.177
13	0.000366207	0.000470649	154.559
14	0.000470649	0.000603583	174.482
15	0.000603583	0.000772782	205.6
16	0.000772782	0.00098814	249.872
17	0.00098814	0.00126225	310.247
18	0.00126225	0.00161113	390.884
19	0.00161113	0.0020552	493.154
20	0.0020552	0.0026204	598.938
21	0.0026204	0.0033398	664.028
22	0.0033398	0.00425545	673.13
23	0.00425545	0.0054209	641.625
24	0.0054209	0.00690429	582.813
25	0.00690429	0.00879235	506.137
26	0.00879235	0.0111955	421.33
27	0.0111955	0.0142542	320.541
28	0.0142542	0.0181473	320.541
29	0.0181473	0.0231026	32.0549
30	0.0231026	0.0294096	32.0549
31	0.0294096	inf	32.0549
