time_index	left_time_boundary	right_time_boundary	lambda
0	0	1.03166e-05	267.321
1	1.03166e-05	2.70297e-05	267.321
2	2.70297e-05	5.41055e-05	133.879
3	5.41055e-05	9.79692e-05	149.011
4	9.79692e-05	0.00016903	146.914
5	0.00016903	0.00028415	147.217
6	0.00028415	0.000470649	165.88
7	0.000470649	0.000772782	213.112
8	0.000772782	0.00126225	286.994
9	0.00126225	0.0020552	418.037
10	0.0020552	0.0033398	663.229
11	0.0033398	0.0054209	610.839
12	0.0054209	0.00879235	520.633
13	0.00879235	0.0142542	255.749
14	0.0142542	0.0231026	255.749
15	0.0231026	inf	255.749
