LogLikelihood = -6139.6904942185501568

y0 0.00014705128555522005277
y0_prime 0
y1 1.2649824100238429292
y1_prime 0
y2 1.1294831529846607321
y2_prime 0
y3 4.6527451033448983253
y3_prime 0
rho 1.2508954697388587686e-05
rho.alpha 0.38348402536648612537
r_ii 0.99978799422618402915
theta 5.7751783236702704965e-05
