AIC = 1198198.6931362436153

y0 0.92597202291872360291
y0_prime 0
y1 1.055319048247040925
y1_prime 0
y2 0.89018415684787188802
y2_prime 0
y3 1.7151599461340398811
y3_prime 0
rho 0.001382149043698681877
theta 0.0049400522257236935408
