LogLikelihood = -307578.18669488886371

y0 0.65826056773035346303
y0_prime 0
y1 0.81251481180823903472
y1_prime 0
y2 1.1543191838385777892
y2_prime 0
y3 1.9227891472440261644
y3_prime 0
rho 0.0011978695743892118185
theta 0.0050285226283518277141
