LogLikelihood = -1590642.3151461160742

y0 0.5413177353597189434
y0_prime 0
y1 0.87042959787953466666
y1_prime 0
y2 1.1794275412557091443
y2_prime 0
y3 1.8789322156395993346
y3_prime 0
rho 0.0012378242344329149199
theta 0.0052266235198058386829
