LogLikelihood = -6572.019978658875516

y0 1.0925707135575938419e-10
y0_prime 0
y1 1.0687068402581698656
y1_prime 0
y2 1.3694413769735265252
y2_prime 0
y3 2.4092285606297751954
y3_prime 0
rho 6.6543799260627465946e-05
rho.alpha 1.4608884652776215063
r_ii 0.99982543804084245131
theta 6.1995832435497247597e-05
