LogLikelihood = -33522.064983770993422

y0 4.7926552112839477666e-11
y0_prime 0
y1 0.79903866846340487751
y1_prime 0
y2 1.857707945073519884
y2_prime 0
y3 1.6839054399080111146
y3_prime 0
rho 8.5432034345273713603e-05
rho.alpha 0.1645104560466839061
r_ii 0.99984861681175629666
theta 6.3128184752351014226e-05
