0.000634001	-12750016.11	0,1.61165e-06,3.7346e-06,6.53106e-06,1.02147e-05,1.50669e-05,2.14585e-05,2.98779e-05,4.09683e-05,5.55771e-05,7.48205e-05,0.000100169,0.000133559,0.000177542,0.000235478,0.000311795,0.000412324,0.000544744,0.000719175,0.000948945,0.00125161,0.00165029,0.00217545,0.00286723,0.00377846,0.00497878,0.00655991,0.00864264,0.0113861,0.015,0.0197603,0.0260308,inf	14597,14597,6676.82,4403.72,3077.86,2017.99,1263.17,800.404,545.089,412.817,342.5,301.29,277.068,265.145,261.5,264.84,275.322,293.181,320.208,359.21,412.376,472.104,512.98,517.73,499.952,481.889,475.891,476.544,476.544,564.636,564.636,564.636
0.000697795	-12740756.37	0,1.61165e-06,3.7346e-06,6.53106e-06,1.02147e-05,1.50669e-05,2.14585e-05,2.98779e-05,4.09683e-05,5.55771e-05,7.48205e-05,0.000100169,0.000133559,0.000177542,0.000235478,0.000311795,0.000412324,0.000544744,0.000719175,0.000948945,0.00125161,0.00165029,0.00217545,0.00286723,0.00377846,0.00497878,0.00655991,0.00864264,0.0113861,0.015,0.0197603,0.0260308,inf	24066.1,24066.1,10355.6,6800.97,4514.56,2674.66,1490.22,851.338,537.914,388.349,310.557,263.655,235.218,220.209,213.554,214.743,224.819,244.477,276.959,327.214,400.571,489.963,557.994,569.013,539.522,509.316,502.231,508.447,508.447,783.482,783.482,783.482
0.00075805	-12736706.17	0,1.61165e-06,3.7346e-06,6.53106e-06,1.02147e-05,1.50669e-05,2.14585e-05,2.98779e-05,4.09683e-05,5.55771e-05,7.48205e-05,0.000100169,0.000133559,0.000177542,0.000235478,0.000311795,0.000412324,0.000544744,0.000719175,0.000948945,0.00125161,0.00165029,0.00217545,0.00286723,0.00377846,0.00497878,0.00655991,0.00864264,0.0113861,0.015,0.0197603,0.0260308,inf	24585.6,24585.6,10710.8,7414.72,4956.63,2842.91,1519.12,841.052,524.99,379.442,303.317,255.389,225.286,208.306,198.718,197.036,204.898,223.177,256.134,310.127,392.671,498.193,583.91,600.454,562.955,524.72,519.564,535.026,535.026,1328.69,1328.69,1328.69
0.000814705	-12734181.47	0,1.61165e-06,3.7346e-06,6.53106e-06,1.02147e-05,1.50669e-05,2.14585e-05,2.98779e-05,4.09683e-05,5.55771e-05,7.48205e-05,0.000100169,0.000133559,0.000177542,0.000235478,0.000311795,0.000412324,0.000544744,0.000719175,0.000948945,0.00125161,0.00165029,0.00217545,0.00286723,0.00377846,0.00497878,0.00655991,0.00864264,0.0113861,0.015,0.0197603,0.0260308,inf	23539.1,23539.1,10256.2,7485.27,5067.12,2848.97,1485.58,812.493,510.196,374.787,303.275,256.145,225.642,207.498,195.474,191.223,196.771,213.019,244.995,300.004,386.982,501.576,598.659,619.342,575.941,532.343,530.747,558.331,558.331,4893.92,4893.92,4893.92
0.000814705	-12732290.98	0,1.61165e-06,3.7346e-06,6.53106e-06,1.02147e-05,1.50669e-05,2.14585e-05,2.98779e-05,4.09683e-05,5.55771e-05,7.48205e-05,0.000100169,0.000133559,0.000177542,0.000235478,0.000311795,0.000412324,0.000544744,0.000719175,0.000948945,0.00125161,0.00165029,0.00217545,0.00286723,0.00377846,0.00497878,0.00655991,0.00864264,0.0113861,0.015,0.0197603,0.0260308,inf	22405.1,22405.1,9592.13,7320.74,4993.98,2751.85,1404.99,763.116,484.788,363.75,299.331,254.944,225.59,207.404,193.826,187.655,191.135,205.147,235.26,289.276,376.704,493.808,596.328,621.365,575.748,530.005,533.332,576.251,576.251,65053.3,65053.3,65053.3
0.000814705	-12732253.37	0,1.61165e-06,3.7346e-06,6.53106e-06,1.02147e-05,1.50669e-05,2.14585e-05,2.98779e-05,4.09683e-05,5.55771e-05,7.48205e-05,0.000100169,0.000133559,0.000177542,0.000235478,0.000311795,0.000412324,0.000544744,0.000719175,0.000948945,0.00125161,0.00165029,0.00217545,0.00286723,0.00377846,0.00497878,0.00655991,0.00864264,0.0113861,0.015,0.0197603,0.0260308,inf	22312.4,22312.4,9319.36,7414.84,5089.9,2745.31,1369.73,736.857,472.194,360.919,301.412,258.583,229.817,211.448,196.319,188.352,189.941,201.879,230.246,283.295,371.015,489.994,596.597,621.956,575.955,527.661,535.963,577.112,577.112,65053.3,65053.3,65053.3
0.000814705	-12732232.28	0,1.61165e-06,3.7346e-06,6.53106e-06,1.02147e-05,1.50669e-05,2.14585e-05,2.98779e-05,4.09683e-05,5.55771e-05,7.48205e-05,0.000100169,0.000133559,0.000177542,0.000235478,0.000311795,0.000412324,0.000544744,0.000719175,0.000948945,0.00125161,0.00165029,0.00217545,0.00286723,0.00377846,0.00497878,0.00655991,0.00864264,0.0113861,0.015,0.0197603,0.0260308,inf	22304.2,22304.2,9066.79,7515.08,5164.81,2744.76,1338.71,712.887,460.297,357.941,303.083,261.85,233.915,215.75,198.268,188.352,190.183,200.437,227.284,279.489,367.477,488.009,597.935,625.637,576.17,525.403,537.678,577.112,577.112,65053.3,65053.3,65053.3
0.000814705	-12732222.97	0,1.61165e-06,3.7346e-06,6.53106e-06,1.02147e-05,1.50669e-05,2.14585e-05,2.98779e-05,4.09683e-05,5.55771e-05,7.48205e-05,0.000100169,0.000133559,0.000177542,0.000235478,0.000311795,0.000412324,0.000544744,0.000719175,0.000948945,0.00125161,0.00165029,0.00217545,0.00286723,0.00377846,0.00497878,0.00655991,0.00864264,0.0113861,0.015,0.0197603,0.0260308,inf	22304.2,22304.2,8828.31,7621.58,5221.49,2744.76,1311.5,690.952,448.966,354.711,304.174,264.462,237.54,219.879,200.711,188.352,190.183,199.918,225.389,276.809,365,486.812,599.597,627.615,576.17,523.071,537.678,577.692,577.692,65053.3,65053.3,65053.3
0.000814705	-12732215.47	0,1.61165e-06,3.7346e-06,6.53106e-06,1.02147e-05,1.50669e-05,2.14585e-05,2.98779e-05,4.09683e-05,5.55771e-05,7.48205e-05,0.000100169,0.000133559,0.000177542,0.000235478,0.000311795,0.000412324,0.000544744,0.000719175,0.000948945,0.00125161,0.00165029,0.00217545,0.00286723,0.00377846,0.00497878,0.00655991,0.00864264,0.0113861,0.015,0.0197603,0.0260308,inf	22304.4,22304.4,8604.32,7735.62,5262.75,2745.71,1288.09,670.971,438.098,351.258,304.568,266.301,240.501,223.616,203.671,188.352,190.183,199.918,224.143,274.827,363.182,486.096,601.459,628.269,576.256,520.745,537.678,578.27,578.27,65053.3,65053.3,65053.3
0.000814705	-12732209.85	0,1.61165e-06,3.7346e-06,6.53106e-06,1.02147e-05,1.50669e-05,2.14585e-05,2.98779e-05,4.09683e-05,5.55771e-05,7.48205e-05,0.000100169,0.000133559,0.000177542,0.000235478,0.000311795,0.000412324,0.000544744,0.000719175,0.000948945,0.00125161,0.00165029,0.00217545,0.00286723,0.00377846,0.00497878,0.00655991,0.00864264,0.0113861,0.015,0.0197603,0.0260308,inf	22304.4,22304.4,8393.92,7857.53,5291.46,2745.71,1268.43,652.971,428.056,347.628,304.407,267.425,242.751,226.837,206.616,188.729,190.183,199.918,223.284,273.28,361.778,485.678,603.447,628.269,576.257,518.473,537.711,578.835,578.835,65053.3,65053.3,65053.3
0.000814705	-12732205.20	0,1.61165e-06,3.7346e-06,6.53106e-06,1.02147e-05,1.50669e-05,2.14585e-05,2.98779e-05,4.09683e-05,5.55771e-05,7.48205e-05,0.000100169,0.000133559,0.000177542,0.000235478,0.000311795,0.000412324,0.000544744,0.000719175,0.000948945,0.00125161,0.00165029,0.00217545,0.00286723,0.00377846,0.00497878,0.00655991,0.00864264,0.0113861,0.015,0.0197603,0.0260308,inf	22304.5,22304.5,8195.44,7987.46,5307.21,2745.71,1252.56,636.982,418.836,344.094,303.9,267.966,244.355,229.514,209.249,189.542,190.183,199.918,222.68,272.026,360.653,485.453,605.016,628.269,576.257,516.235,539.379,578.845,578.845,65053.3,65053.3,65053.3
0.000814705	-12732203.03	0,1.61165e-06,3.7346e-06,6.53106e-06,1.02147e-05,1.50669e-05,2.14585e-05,2.98779e-05,4.09683e-05,5.55771e-05,7.48205e-05,0.000100169,0.000133559,0.000177542,0.000235478,0.000311795,0.000412324,0.000544744,0.000719175,0.000948945,0.00125161,0.00165029,0.00217545,0.00286723,0.00377846,0.00497878,0.00655991,0.00864264,0.0113861,0.015,0.0197603,0.0260308,inf	22304.6,22304.6,8007.42,8124.79,5309.05,2745.71,1240.25,622.933,410.488,340.823,303.201,268.145,245.476,229.618,211.55,191.624,190.387,199.918,222.257,270.986,359.731,485.364,606.209,628.269,576.257,514.03,541.053,578.845,578.845,65053.3,65053.3,65053.3
0.000814705	-12732201.25	0,1.61165e-06,3.7346e-06,6.53106e-06,1.02147e-05,1.50669e-05,2.14585e-05,2.98779e-05,4.09683e-05,5.55771e-05,7.48205e-05,0.000100169,0.000133559,0.000177542,0.000235478,0.000311795,0.000412324,0.000544744,0.000719175,0.000948945,0.00125161,0.00165029,0.00217545,0.00286723,0.00377846,0.00497878,0.00655991,0.00864264,0.0113861,0.015,0.0197603,0.0260308,inf	22304.7,22304.7,7828.47,8260.65,5309.05,2745.71,1231.69,610.939,403.201,337.925,302.562,268.022,246.202,231.37,213.527,191.624,191.167,199.918,221.936,270.091,358.958,485.389,606.245,628.945,576.257,511.863,542.698,578.845,578.845,65053.3,65053.3,65053.3
0.000814705	-12732199.77	0,1.61165e-06,3.7346e-06,6.53106e-06,1.02147e-05,1.50669e-05,2.14585e-05,2.98779e-05,4.09683e-05,5.55771e-05,7.48205e-05,0.000100169,0.000133559,0.000177542,0.000235478,0.000311795,0.000412324,0.000544744,0.000719175,0.000948945,0.00125161,0.00165029,0.00217545,0.00286723,0.00377846,0.00497878,0.00655991,0.00864264,0.0113861,0.015,0.0197603,0.0260308,inf	22304.7,22304.7,7656.25,8391.4,5309.05,2745.71,1225.98,600.534,396.742,335.455,301.972,267.697,246.564,232.79,215.262,192.624,191.167,199.918,221.717,269.336,358.335,485.538,606.857,628.972,576.257,509.775,542.698,578.845,578.845,65053.6,65053.6,65053.6
0.000814705	-12732195.98	0,1.61165e-06,3.7346e-06,6.53106e-06,1.02147e-05,1.50669e-05,2.14585e-05,2.98779e-05,4.09683e-05,5.55771e-05,7.48205e-05,0.000100169,0.000133559,0.000177542,0.000235478,0.000311795,0.000412324,0.000544744,0.000719175,0.000948945,0.00125161,0.00165029,0.00217545,0.00286723,0.00377846,0.00497878,0.00655991,0.00864264,0.0113861,0.015,0.0197603,0.0260308,inf	22304.7,22304.7,7489.54,8517.95,5309.05,2745.71,1222.6,591.419,390.975,333.281,301.449,267.211,246.638,233.898,215.262,194.225,191.596,199.918,221.571,268.678,357.809,485.76,607.328,628.972,576.257,507.783,542.698,579.34,579.34,65053.6,65053.6,65053.6
0.000814705	-12732193.00	0,1.61165e-06,3.7346e-06,6.53106e-06,1.02147e-05,1.50669e-05,2.14585e-05,2.98779e-05,4.09683e-05,5.55771e-05,7.48205e-05,0.000100169,0.000133559,0.000177542,0.000235478,0.000311795,0.000412324,0.000544744,0.000719175,0.000948945,0.00125161,0.00165029,0.00217545,0.00286723,0.00377846,0.00497878,0.00655991,0.00864264,0.0113861,0.015,0.0197603,0.0260308,inf	22304.8,22304.8,7327.48,8641.01,5309.05,2745.71,1221.37,583.556,385.933,331.468,301.078,266.691,246.586,234.798,216.551,195.067,191.596,199.918,221.455,268.078,357.347,486.032,607.689,628.972,576.257,505.846,544.169,579.34,579.34,65053.6,65053.6,65053.6
0.000814705	-12732191.83	0,1.61165e-06,3.7346e-06,6.53106e-06,1.02147e-05,1.50669e-05,2.14585e-05,2.98779e-05,4.09683e-05,5.55771e-05,7.48205e-05,0.000100169,0.000133559,0.000177542,0.000235478,0.000311795,0.000412324,0.000544744,0.000719175,0.000948945,0.00125161,0.00165029,0.00217545,0.00286723,0.00377846,0.00497878,0.00655991,0.00864264,0.0113861,0.015,0.0197603,0.0260308,inf	22304.8,22304.8,7168.85,8761.47,5309.05,2745.71,1221.37,576.606,381.426,329.927,300.751,266.098,246.335,235.49,217.665,195.928,191.596,199.918,221.384,267.54,356.946,486.349,607.939,628.972,576.257,503.992,544.169,579.802,579.802,65053.6,65053.6,65053.6
0.000814705	-12732189.18	0,1.61165e-06,3.7346e-06,6.53106e-06,1.02147e-05,1.50669e-05,2.14585e-05,2.98779e-05,4.09683e-05,5.55771e-05,7.48205e-05,0.000100169,0.000133559,0.000177542,0.000235478,0.000311795,0.000412324,0.000544744,0.000719175,0.000948945,0.00125161,0.00165029,0.00217545,0.00286723,0.00377846,0.00497878,0.00655991,0.00864264,0.0113861,0.015,0.0197603,0.0260308,inf	22304.8,22304.8,7013.21,8879.71,5309.05,2745.72,1221.37,570.448,377.385,328.661,300.521,265.467,245.951,236.009,218.626,196.843,191.596,199.918,221.344,267.048,356.589,486.349,608.373,628.972,576.257,502.223,544.169,580.241,580.241,65053.6,65053.6,65053.6
0.000814705	-12732186.64	0,1.61165e-06,3.7346e-06,6.53106e-06,1.02147e-05,1.50669e-05,2.14585e-05,2.98779e-05,4.09683e-05,5.55771e-05,7.48205e-05,0.000100169,0.000133559,0.000177542,0.000235478,0.000311795,0.000412324,0.000544744,0.000719175,0.000948945,0.00125161,0.00165029,0.00217545,0.00286723,0.00377846,0.00497878,0.00655991,0.00864264,0.0113861,0.015,0.0197603,0.0260308,inf	22304.8,22304.8,6860.17,8995.9,5309.05,2745.76,1221.37,564.963,373.756,327.641,300.412,264.823,245.466,236.381,219.451,197.785,191.596,199.918,221.343,266.613,356.297,486.756,608.423,628.972,576.257,500.503,545.475,580.241,580.241,65053.6,65053.6,65053.6
0.000814705	-12732185.69	0,1.61165e-06,3.7346e-06,6.53106e-06,1.02147e-05,1.50669e-05,2.14585e-05,2.98779e-05,4.09683e-05,5.55771e-05,7.48205e-05,0.000100169,0.000133559,0.000177542,0.000235478,0.000311795,0.000412324,0.000544744,0.000719175,0.000948945,0.00125161,0.00165029,0.00217545,0.00286723,0.00377846,0.00497878,0.00655991,0.00864264,0.0113861,0.015,0.0197603,0.0260308,inf	22304.8,22304.8,6709.7,9110.16,5309.05,2745.76,1221.37,560.083,370.515,326.865,300.4,264.181,244.897,236.621,220.145,197.785,192.323,199.918,221.343,266.204,356.03,487.182,608.432,628.972,576.257,498.861,545.475,580.65,580.65,65053.6,65053.6,65053.6
