LogLikelihood = -1411030.271070967894

y0 0.37114755690688128187
y0_prime 0
y1 0.95861661327182345893
y1_prime 0
y2 0.7249893569389921355
y2_prime 0
y3 1.3832442248218523861
y3_prime 0
rho 0.0042908115350473200952
rho.alpha 0.29224513393506196257
r_ii 0.99990147659363326493
theta 0.0046305087281426427284
