0.000548635	-291446.41	0,4.12962e-05,8.96025e-05,0.000146109,0.000212207,0.000289525,0.000379969,0.000485764,0.000609519,0.000754281,0.000923617,0.0011217,0.0013534,0.00162444,0.00194148,0.00231234,0.00274616,0.00325362,0.00384721,0.00454158,0.0053538,0.00630391,0.00741529,0.00871533,0.0102361,0.0120149,0.0140958,0.0165298,0.019377,0.0227076,0.0266035,0.0311607,inf	214.702,214.702,291.344,314.576,344.765,361.508,384.207,388.018,394.094,404.129,413.797,419.766,421.196,419.289,415.744,412.833,411.695,411.679,411.098,410.171,411.241,414.124,415.432,415.397,417.536,419.993,422.122,437.555,437.555,544.053,544.053,544.053
0.000496217	-291378.21	0,4.12962e-05,8.96025e-05,0.000146109,0.000212207,0.000289525,0.000379969,0.000485764,0.000609519,0.000754281,0.000923617,0.0011217,0.0013534,0.00162444,0.00194148,0.00231234,0.00274616,0.00325362,0.00384721,0.00454158,0.0053538,0.00630391,0.00741529,0.00871533,0.0102361,0.0120149,0.0140958,0.0165298,0.019377,0.0227076,0.0266035,0.0311607,inf	175.993,175.993,267.227,274.864,318.783,336.744,376.958,377.531,383.459,399.091,416.063,427.339,430.118,426.335,419.167,413.332,411.218,411.586,410.723,408.894,411.107,417.175,419.61,419.018,423.715,429.661,434.839,475.318,475.318,827.292,827.292,827.292
0.000450076	-291320.93	0,4.12962e-05,8.96025e-05,0.000146109,0.000212207,0.000289525,0.000379969,0.000485764,0.000609519,0.000754281,0.000923617,0.0011217,0.0013534,0.00162444,0.00194148,0.00231234,0.00274616,0.00325362,0.00384721,0.00454158,0.0053538,0.00630391,0.00741529,0.00871533,0.0102361,0.0120149,0.0140958,0.0165298,0.019377,0.0227076,0.0266035,0.0311607,inf	169.895,169.895,271.047,254.245,309.663,320.62,378.414,372.537,374.832,393.452,416.3,432.811,437.277,432.021,421.401,412.742,409.776,410.864,409.964,407.209,410.603,420.175,423.48,421.692,429.372,440.113,449.92,533.337,533.337,1780.49,1780.49,1780.49
0.000409822	-291272.50	0,4.12962e-05,8.96025e-05,0.000146109,0.000212207,0.000289525,0.000379969,0.000485764,0.000609519,0.000754281,0.000923617,0.0011217,0.0013534,0.00162444,0.00194148,0.00231234,0.00274616,0.00325362,0.00384721,0.00454158,0.0053538,0.00630391,0.00741529,0.00871533,0.0102361,0.0120149,0.0140958,0.0165298,0.019377,0.0227076,0.0266035,0.0311607,inf	171.583,171.583,284.365,240.915,309.557,307.735,384.858,371.015,367.34,387.107,414.63,436.381,442.909,436.691,422.877,411.499,407.679,409.703,408.926,405.171,409.76,423.18,427.017,423.287,434.366,451.543,468.875,631.473,631.473,12772.2,12772.2,12772.2
0.000409816	-291232.51	0,4.12962e-05,8.96025e-05,0.000146109,0.000212207,0.000289525,0.000379969,0.000485764,0.000609519,0.000754281,0.000923617,0.0011217,0.0013534,0.00162444,0.00194148,0.00231234,0.00274616,0.00325362,0.00384721,0.00454158,0.0053538,0.00630391,0.00741529,0.00871533,0.0102361,0.0120149,0.0140958,0.0165298,0.019377,0.0227076,0.0266035,0.0311607,inf	181.47,181.47,312.722,238.822,327.102,305.804,408.727,384.861,372.39,392.181,423.89,451.446,460.202,452.749,434.775,419.62,414.016,416.535,415.28,409.443,414.538,431.941,435.344,428.247,442.938,468.359,498.172,823.811,823.811,84653.1,84653.1,84653.1
0.000409816	-291230.94	0,4.12962e-05,8.96025e-05,0.000146109,0.000212207,0.000289525,0.000379969,0.000485764,0.000609519,0.000754281,0.000923617,0.0011217,0.0013534,0.00162444,0.00194148,0.00231234,0.00274616,0.00325362,0.00384721,0.00454158,0.0053538,0.00630391,0.00741529,0.00871533,0.0102361,0.0120149,0.0140958,0.0165298,0.019377,0.0227076,0.0266035,0.0311607,inf	181.47,181.47,312.767,230.777,333.98,298.056,415.35,384.861,370.648,390.292,425.519,452.523,460.202,452.749,434.775,419.62,414.016,416.535,415.28,409.443,414.538,431.941,435.344,428.247,442.938,468.359,498.172,823.811,823.811,84653.1,84653.1,84653.1
0.000409816	-291230.87	0,4.12962e-05,8.96025e-05,0.000146109,0.000212207,0.000289525,0.000379969,0.000485764,0.000609519,0.000754281,0.000923617,0.0011217,0.0013534,0.00162444,0.00194148,0.00231234,0.00274616,0.00325362,0.00384721,0.00454158,0.0053538,0.00630391,0.00741529,0.00871533,0.0102361,0.0120149,0.0140958,0.0165298,0.019377,0.0227076,0.0266035,0.0311607,inf	181.47,181.47,312.814,223.455,340.239,290.374,421.918,384.861,368.881,388.375,427.069,453.702,460.202,452.749,434.775,419.62,414.016,416.535,415.28,409.443,414.538,431.941,435.344,428.247,442.938,468.359,498.172,823.811,823.811,84653.1,84653.1,84653.1
0.000409816	-291230.81	0,4.12962e-05,8.96025e-05,0.000146109,0.000212207,0.000289525,0.000379969,0.000485764,0.000609519,0.000754281,0.000923617,0.0011217,0.0013534,0.00162444,0.00194148,0.00231234,0.00274616,0.00325362,0.00384721,0.00454158,0.0053538,0.00630391,0.00741529,0.00871533,0.0102361,0.0120149,0.0140958,0.0165298,0.019377,0.0227076,0.0266035,0.0311607,inf	181.47,181.47,312.938,216.791,345.936,282.795,428.397,384.861,367.098,386.436,428.543,454.974,460.202,452.749,434.775,419.62,414.016,416.535,415.28,409.443,414.538,431.941,435.344,428.247,442.938,468.359,498.172,823.811,823.811,84653.1,84653.1,84653.1
0.000409816	-291230.75	0,4.12962e-05,8.96025e-05,0.000146109,0.000212207,0.000289525,0.000379969,0.000485764,0.000609519,0.000754281,0.000923617,0.0011217,0.0013534,0.00162444,0.00194148,0.00231234,0.00274616,0.00325362,0.00384721,0.00454158,0.0053538,0.00630391,0.00741529,0.00871533,0.0102361,0.0120149,0.0140958,0.0165298,0.019377,0.0227076,0.0266035,0.0311607,inf	181.47,181.47,313.04,210.712,351.133,275.35,434.761,384.861,365.31,384.486,429.941,456.32,460.202,452.749,434.775,419.62,414.016,416.535,415.28,409.443,414.538,431.941,435.344,428.247,442.938,468.359,498.172,823.811,823.811,84653.1,84653.1,84653.1
0.000409816	-291230.69	0,4.12962e-05,8.96025e-05,0.000146109,0.000212207,0.000289525,0.000379969,0.000485764,0.000609519,0.000754281,0.000923617,0.0011217,0.0013534,0.00162444,0.00194148,0.00231234,0.00274616,0.00325362,0.00384721,0.00454158,0.0053538,0.00630391,0.00741529,0.00871533,0.0102361,0.0120149,0.0140958,0.0165298,0.019377,0.0227076,0.0266035,0.0311607,inf	181.47,181.47,313.164,205.168,351.133,267.988,444.519,384.861,363.552,382.545,431.28,457.693,460.202,452.749,434.775,419.62,414.016,416.535,415.28,409.443,414.538,431.941,435.344,428.247,442.938,468.359,498.172,823.811,823.811,84653.1,84653.1,84653.1
0.000409816	-291230.63	0,4.12962e-05,8.96025e-05,0.000146109,0.000212207,0.000289525,0.000379969,0.000485764,0.000609519,0.000754281,0.000923617,0.0011217,0.0013534,0.00162444,0.00194148,0.00231234,0.00274616,0.00325362,0.00384721,0.00454158,0.0053538,0.00630391,0.00741529,0.00871533,0.0102361,0.0120149,0.0140958,0.0165298,0.019377,0.0227076,0.0266035,0.0311607,inf	181.47,181.47,313.233,200.616,351.144,260.798,453.502,384.861,361.657,380.523,432.502,459.309,460.202,452.749,434.775,419.62,414.016,416.535,415.28,409.443,414.538,431.941,435.344,428.247,442.938,468.359,498.172,823.811,823.811,84653.1,84653.1,84653.1
0.000409816	-291230.58	0,4.12962e-05,8.96025e-05,0.000146109,0.000212207,0.000289525,0.000379969,0.000485764,0.000609519,0.000754281,0.000923617,0.0011217,0.0013534,0.00162444,0.00194148,0.00231234,0.00274616,0.00325362,0.00384721,0.00454158,0.0053538,0.00630391,0.00741529,0.00871533,0.0102361,0.0120149,0.0140958,0.0165298,0.019377,0.0227076,0.0266035,0.0311607,inf	181.47,181.47,313.251,196.904,354.317,253.869,459.425,384.861,359.664,378.436,433.611,461.132,460.202,452.749,434.775,419.62,414.016,416.535,415.28,409.443,414.538,431.941,435.344,428.247,442.938,468.359,498.172,823.811,823.811,84653.1,84653.1,84653.1
0.000409816	-291230.53	0,4.12962e-05,8.96025e-05,0.000146109,0.000212207,0.000289525,0.000379969,0.000485764,0.000609519,0.000754281,0.000923617,0.0011217,0.0013534,0.00162444,0.00194148,0.00231234,0.00274616,0.00325362,0.00384721,0.00454158,0.0053538,0.00630391,0.00741529,0.00871533,0.0102361,0.0120149,0.0140958,0.0165298,0.019377,0.0227076,0.0266035,0.0311607,inf	181.47,181.47,313.353,193.538,357.188,247.178,465.149,384.861,357.732,376.379,434.654,462.95,460.202,452.749,434.775,419.62,414.016,416.535,415.28,409.443,414.538,431.941,435.344,428.247,442.938,468.359,498.172,823.811,823.811,84653.1,84653.1,84653.1
0.000409816	-291230.48	0,4.12962e-05,8.96025e-05,0.000146109,0.000212207,0.000289525,0.000379969,0.000485764,0.000609519,0.000754281,0.000923617,0.0011217,0.0013534,0.00162444,0.00194148,0.00231234,0.00274616,0.00325362,0.00384721,0.00454158,0.0053538,0.00630391,0.00741529,0.00871533,0.0102361,0.0120149,0.0140958,0.0165298,0.019377,0.0227076,0.0266035,0.0311607,inf	181.47,181.47,313.478,190.478,359.804,240.726,470.666,384.861,355.865,374.355,435.634,464.758,460.202,452.749,434.775,419.62,414.016,416.535,415.28,409.443,414.538,431.941,435.344,428.247,442.938,468.359,498.172,823.811,823.811,84653.1,84653.1,84653.1
0.000409816	-291230.44	0,4.12962e-05,8.96025e-05,0.000146109,0.000212207,0.000289525,0.000379969,0.000485764,0.000609519,0.000754281,0.000923617,0.0011217,0.0013534,0.00162444,0.00194148,0.00231234,0.00274616,0.00325362,0.00384721,0.00454158,0.0053538,0.00630391,0.00741529,0.00871533,0.0102361,0.0120149,0.0140958,0.0165298,0.019377,0.0227076,0.0266035,0.0311607,inf	181.47,181.47,313.581,187.711,362.17,234.507,475.982,384.861,354.064,372.363,436.554,466.553,460.202,452.749,434.775,419.62,414.016,416.535,415.28,409.443,414.538,431.941,435.344,428.247,442.938,468.359,498.172,823.811,823.811,84653.1,84653.1,84653.1
0.000409816	-291230.40	0,4.12962e-05,8.96025e-05,0.000146109,0.000212207,0.000289525,0.000379969,0.000485764,0.000609519,0.000754281,0.000923617,0.0011217,0.0013534,0.00162444,0.00194148,0.00231234,0.00274616,0.00325362,0.00384721,0.00454158,0.0053538,0.00630391,0.00741529,0.00871533,0.0102361,0.0120149,0.0140958,0.0165298,0.019377,0.0227076,0.0266035,0.0311607,inf	181.47,181.47,313.76,185.184,364.33,228.516,481.104,384.861,352.331,370.398,437.417,468.334,460.202,452.749,434.775,419.62,414.016,416.535,415.28,409.443,414.538,431.941,435.344,428.247,442.938,468.359,498.172,823.811,823.811,84653.1,84653.1,84653.1
0.000409816	-291230.36	0,4.12962e-05,8.96025e-05,0.000146109,0.000212207,0.000289525,0.000379969,0.000485764,0.000609519,0.000754281,0.000923617,0.0011217,0.0013534,0.00162444,0.00194148,0.00231234,0.00274616,0.00325362,0.00384721,0.00454158,0.0053538,0.00630391,0.00741529,0.00871533,0.0102361,0.0120149,0.0140958,0.0165298,0.019377,0.0227076,0.0266035,0.0311607,inf	181.47,181.47,313.778,182.886,366.295,222.747,486.035,384.861,350.667,368.479,438.226,470.084,460.202,452.749,434.775,419.62,414.016,416.535,415.28,409.443,414.538,431.941,435.344,428.247,442.938,468.359,498.172,823.811,823.811,84653.1,84653.1,84653.1
0.000409816	-291230.32	0,4.12962e-05,8.96025e-05,0.000146109,0.000212207,0.000289525,0.000379969,0.000485764,0.000609519,0.000754281,0.000923617,0.0011217,0.0013534,0.00162444,0.00194148,0.00231234,0.00274616,0.00325362,0.00384721,0.00454158,0.0053538,0.00630391,0.00741529,0.00871533,0.0102361,0.0120149,0.0140958,0.0165298,0.019377,0.0227076,0.0266035,0.0311607,inf	181.47,181.47,313.825,180.814,368.065,217.196,490.781,384.861,349.073,366.596,438.984,471.809,460.202,452.749,434.775,419.62,414.016,416.535,415.28,409.443,414.538,431.941,435.344,428.247,442.938,468.359,498.172,823.811,823.811,84653.1,84653.1,84653.1
0.000409816	-291230.28	0,4.12962e-05,8.96025e-05,0.000146109,0.000212207,0.000289525,0.000379969,0.000485764,0.000609519,0.000754281,0.000923617,0.0011217,0.0013534,0.00162444,0.00194148,0.00231234,0.00274616,0.00325362,0.00384721,0.00454158,0.0053538,0.00630391,0.00741529,0.00871533,0.0102361,0.0120149,0.0140958,0.0165298,0.019377,0.0227076,0.0266035,0.0311607,inf	181.47,181.47,313.894,178.947,369.662,211.855,495.347,384.861,347.549,364.75,439.694,473.502,460.202,452.749,434.775,419.62,414.016,416.535,415.28,409.443,414.538,431.941,435.344,428.247,442.938,468.359,498.172,823.811,823.811,84653.1,84653.1,84653.1
0.000409816	-291230.25	0,4.12962e-05,8.96025e-05,0.000146109,0.000212207,0.000289525,0.000379969,0.000485764,0.000609519,0.000754281,0.000923617,0.0011217,0.0013534,0.00162444,0.00194148,0.00231234,0.00274616,0.00325362,0.00384721,0.00454158,0.0053538,0.00630391,0.00741529,0.00871533,0.0102361,0.0120149,0.0140958,0.0165298,0.019377,0.0227076,0.0266035,0.0311607,inf	181.47,181.47,313.996,177.269,371.096,206.717,499.739,384.861,346.094,362.943,440.359,475.164,460.202,452.749,434.775,419.62,414.016,416.535,415.28,409.443,414.538,431.941,435.344,428.247,442.938,468.359,498.172,823.811,823.811,84653.1,84653.1,84653.1
