0.000687461	-312489.23	0,4.36723e-05,9.4758e-05,0.000154516,0.000224417,0.000306184,0.000401831,0.000513714,0.000644589,0.000797681,0.000976759,0.00118624,0.00143127,0.0017179,0.00205319,0.00244539,0.00290417,0.00344082,0.00406857,0.00480289,0.00566185,0.00666662,0.00784195,0.00921679,0.010825,0.0127062,0.0149068,0.0174809,0.0204919,0.0240141,0.0281342,0.0329536,inf	614.44,614.44,239.735,280.66,309.433,329.022,342.142,348.973,355.426,365.443,378.139,390.778,402.25,412.433,420.974,426.597,428.394,426.58,422.226,416.655,410.665,404.507,399.109,396.21,394.511,392.583,390.893,390.957,390.957,420.345,420.345,420.345
0.000727034	-312433.22	0,4.36723e-05,9.4758e-05,0.000154516,0.000224417,0.000306184,0.000401831,0.000513714,0.000644589,0.000797681,0.000976759,0.00118624,0.00143127,0.0017179,0.00205319,0.00244539,0.00290417,0.00344082,0.00406857,0.00480289,0.00566185,0.00666662,0.00784195,0.00921679,0.010825,0.0127062,0.0149068,0.0174809,0.0204919,0.0240141,0.0281342,0.0329536,inf	709.057,709.057,165.606,234.902,280.118,309.448,327.254,333.423,339.202,351.897,369.893,388.408,405.655,421.691,436.094,446.476,450.722,448.711,442.085,433.064,422.961,412.217,402.894,398.454,396.163,393.126,390.028,389.834,389.834,447.784,447.784,447.784
0.000762701	-312403.36	0,4.36723e-05,9.4758e-05,0.000154516,0.000224417,0.000306184,0.000401831,0.000513714,0.000644589,0.000797681,0.000976759,0.00118624,0.00143127,0.0017179,0.00205319,0.00244539,0.00290417,0.00344082,0.00406857,0.00480289,0.00566185,0.00666662,0.00784195,0.00921679,0.010825,0.0127062,0.0149068,0.0174809,0.0204919,0.0240141,0.0281342,0.0329536,inf	747.67,747.67,122.498,211.975,269.565,305.493,325.104,327.985,330.747,343.57,363.934,385.3,405.441,424.769,443.014,456.985,463.46,461.806,453.942,442.66,429.57,415.261,403.042,397.964,395.83,392.282,387.973,387.095,387.095,470.566,470.566,470.566
0.000795259	-312382.46	0,4.36723e-05,9.4758e-05,0.000154516,0.000224417,0.000306184,0.000401831,0.000513714,0.000644589,0.000797681,0.000976759,0.00118624,0.00143127,0.0017179,0.00205319,0.00244539,0.00290417,0.00344082,0.00406857,0.00480289,0.00566185,0.00666662,0.00784195,0.00921679,0.010825,0.0127062,0.0149068,0.0174809,0.0204919,0.0240141,0.0281342,0.0329536,inf	760.897,760.897,94.3438,198.88,266.919,308.142,328.387,327.017,326.081,338.196,359.721,382.523,404.079,425.236,445.993,462.601,470.905,469.74,461.147,448.275,432.876,415.681,401.29,396.168,394.689,391.057,385.68,383.713,383.713,488.716,488.716,488.716
0.000825279	-312365.87	0,4.36723e-05,9.4758e-05,0.000154516,0.000224417,0.000306184,0.000401831,0.000513714,0.000644589,0.000797681,0.000976759,0.00118624,0.00143127,0.0017179,0.00205319,0.00244539,0.00290417,0.00344082,0.00406857,0.00480289,0.00566185,0.00666662,0.00784195,0.00921679,0.010825,0.0127062,0.0149068,0.0174809,0.0204919,0.0240141,0.0281342,0.0329536,inf	762.107,762.107,74.5221,190.504,267.683,313.492,333.849,327.964,323.316,334.558,356.764,380.32,402.505,424.641,447.056,465.607,475.368,474.677,465.613,451.542,434.263,414.652,398.605,393.83,393.334,389.922,383.576,380.186,380.186,502.548,502.548,502.548
0.000853157	-312352.03	0,4.36723e-05,9.4758e-05,0.000154516,0.000224417,0.000306184,0.000401831,0.000513714,0.000644589,0.000797681,0.000976759,0.00118624,0.00143127,0.0017179,0.00205319,0.00244539,0.00290417,0.00344082,0.00406857,0.00480289,0.00566185,0.00666662,0.00784195,0.00921679,0.010825,0.0127062,0.0149068,0.0174809,0.0204919,0.0240141,0.0281342,0.0329536,inf	757.689,757.689,59.8904,184.618,269.835,319.738,339.969,329.618,321.515,331.984,354.702,378.677,401.059,423.668,447.184,467.185,478.102,477.827,468.432,453.407,434.531,412.84,395.515,391.344,392.049,389.071,381.832,376.753,376.753,512.51,512.51,512.51
0.000879173	-312340.24	0,4.36723e-05,9.4758e-05,0.000154516,0.000224417,0.000306184,0.000401831,0.000513714,0.000644589,0.000797681,0.000976759,0.00118624,0.00143127,0.0017179,0.00205319,0.00244539,0.00290417,0.00344082,0.00406857,0.00480289,0.00566185,0.00666662,0.00784195,0.00921679,0.010825,0.0127062,0.0149068,0.0174809,0.0204919,0.0240141,0.0281342,0.0329536,inf	750.827,750.827,48.7569,180.176,272.445,326.042,346.033,331.413,320.204,330.091,353.287,377.51,399.844,422.614,446.86,467.958,479.803,479.883,470.24,454.42,434.144,410.627,392.304,388.909,390.958,388.567,380.486,373.516,373.516,519.107,519.107,519.107
0.000903536	-312330.10	0,4.36723e-05,9.4758e-05,0.000154516,0.000224417,0.000306184,0.000401831,0.000513714,0.000644589,0.000797681,0.000976759,0.00118624,0.00143127,0.0017179,0.00205319,0.00244539,0.00290417,0.00344082,0.00406857,0.00480289,0.00566185,0.00666662,0.00784195,0.00921679,0.010825,0.0127062,0.0149068,0.0174809,0.0204919,0.0240141,0.0281342,0.0329536,inf	743.098,743.098,40.1071,176.666,275.092,332.033,351.732,333.088,319.139,328.653,352.344,376.73,398.869,421.601,446.324,468.267,480.865,481.249,471.411,454.909,433.378,408.23,389.122,386.615,390.1,388.408,379.525,370.511,370.511,522.855,522.855,522.855
0.000926407	-312321.31	0,4.36723e-05,9.4758e-05,0.000154516,0.000224417,0.000306184,0.000401831,0.000513714,0.000644589,0.000797681,0.000976759,0.00118624,0.00143127,0.0017179,0.00205319,0.00244539,0.00290417,0.00344082,0.00406857,0.00480289,0.00566185,0.00666662,0.00784195,0.00921679,0.010825,0.0127062,0.0149068,0.0174809,0.0204919,0.0240141,0.0281342,0.0329536,inf	735.285,735.285,33.283,173.816,277.602,337.574,356.951,334.543,318.195,327.531,351.755,376.256,398.111,420.674,445.697,468.299,481.519,482.168,472.174,455.074,432.398,405.775,386.045,384.499,389.479,388.565,378.908,367.741,367.741,524.244,524.244,524.244
0.000947917	-312313.66	0,4.36723e-05,9.4758e-05,0.000154516,0.000224417,0.000306184,0.000401831,0.000513714,0.000644589,0.000797681,0.000976759,0.00118624,0.00143127,0.0017179,0.00205319,0.00244539,0.00290417,0.00344082,0.00406857,0.00480289,0.00566185,0.00666662,0.00784195,0.00921679,0.010825,0.0127062,0.0149068,0.0174809,0.0204919,0.0240141,0.0281342,0.0329536,inf	727.729,727.729,27.8332,171.473,279.911,342.64,361.673,335.746,317.309,326.637,351.432,376.023,397.536,419.841,445.038,468.162,481.906,482.791,472.671,455.036,431.304,403.331,383.106,382.567,389.079,389.001,378.591,365.189,365.189,523.706,523.706,523.706
0.000968177	-312306.97	0,4.36723e-05,9.4758e-05,0.000154516,0.000224417,0.000306184,0.000401831,0.000513714,0.000644589,0.000797681,0.000976759,0.00118624,0.00143127,0.0017179,0.00205319,0.00244539,0.00290417,0.00344082,0.00406857,0.00480289,0.00566185,0.00666662,0.00784195,0.00921679,0.010825,0.0127062,0.0149068,0.0174809,0.0204919,0.0240141,0.0281342,0.0329536,inf	720.587,720.587,23.4367,169.544,282.015,347.252,365.924,336.705,316.45,325.915,351.313,375.976,397.11,419.098,444.376,467.918,482.112,483.211,472.992,454.875,430.156,400.939,380.318,380.813,388.877,389.677,378.528,362.838,362.838,521.621,521.621,521.621
0.000987282	-312301.09	0,4.36723e-05,9.4758e-05,0.000154516,0.000224417,0.000306184,0.000401831,0.000513714,0.000644589,0.000797681,0.000976759,0.00118624,0.00143127,0.0017179,0.00205319,0.00244539,0.00290417,0.00344082,0.00406857,0.00480289,0.00566185,0.00666662,0.00784195,0.00921679,0.010825,0.0127062,0.0149068,0.0174809,0.0204919,0.0240141,0.0281342,0.0329536,inf	713.908,713.908,19.8575,167.961,283.926,351.453,369.747,337.438,315.601,325.324,351.351,376.075,396.804,418.433,443.724,467.607,482.193,483.491,473.196,454.64,428.992,398.618,377.682,379.223,388.848,390.557,378.682,360.665,360.665,518.317,518.317,518.317
0.00100532	-312295.91	0,4.36723e-05,9.4758e-05,0.000154516,0.000224417,0.000306184,0.000401831,0.000513714,0.000644589,0.000797681,0.000976759,0.00118624,0.00143127,0.0017179,0.00205319,0.00244539,0.00290417,0.00344082,0.00406857,0.00480289,0.00566185,0.00666662,0.00784195,0.00921679,0.010825,0.0127062,0.0149068,0.0174809,0.0204919,0.0240141,0.0281342,0.0329536,inf	707.688,707.688,16.9203,166.68,285.667,355.291,373.189,337.972,314.758,324.835,351.513,376.288,396.594,417.835,443.089,467.251,482.186,483.674,473.322,454.364,427.835,396.378,375.19,377.781,388.969,391.608,379.013,358.652,358.652,514.064,514.064,514.064
0.00102235	-312291.32	0,4.36723e-05,9.4758e-05,0.000154516,0.000224417,0.000306184,0.000401831,0.000513714,0.000644589,0.000797681,0.000976759,0.00118624,0.00143127,0.0017179,0.00205319,0.00244539,0.00290417,0.00344082,0.00406857,0.00480289,0.00566185,0.00666662,0.00784195,0.00921679,0.010825,0.0127062,0.0149068,0.0174809,0.0204919,0.0240141,0.0281342,0.0329536,inf	701.901,701.901,14.4916,165.658,287.257,358.813,376.297,338.331,313.915,324.429,351.77,376.588,396.459,417.292,442.472,466.865,482.116,483.788,473.397,454.067,426.7,394.223,372.833,376.472,389.219,392.803,379.493,356.777,356.777,509.079,509.079,509.079
0.00103846	-312287.26	0,4.36723e-05,9.4758e-05,0.000154516,0.000224417,0.000306184,0.000401831,0.000513714,0.000644589,0.000797681,0.000976759,0.00118624,0.00143127,0.0017179,0.00205319,0.00244539,0.00290417,0.00344082,0.00406857,0.00480289,0.00566185,0.00666662,0.00784195,0.00921679,0.010825,0.0127062,0.0149068,0.0174809,0.0204919,0.0240141,0.0281342,0.0329536,inf	696.52,696.52,12.4703,164.863,288.713,362.059,379.11,338.538,313.074,324.09,352.103,376.956,396.383,416.795,441.872,466.461,482,483.854,473.441,453.764,425.595,392.152,370.602,375.281,389.578,394.117,380.096,355.027,355.027,503.558,503.558,503.558
0.00105369	-312283.63	0,4.36723e-05,9.4758e-05,0.000154516,0.000224417,0.000306184,0.000401831,0.000513714,0.000644589,0.000797681,0.000976759,0.00118624,0.00143127,0.0017179,0.00205319,0.00244539,0.00290417,0.00344082,0.00406857,0.00480289,0.00566185,0.00666662,0.00784195,0.00921679,0.010825,0.0127062,0.0149068,0.0174809,0.0204919,0.0240141,0.0281342,0.0329536,inf	691.509,691.509,10.7777,164.266,290.054,365.066,381.666,338.615,312.233,323.806,352.497,377.377,396.354,416.335,441.289,466.045,481.852,483.885,473.465,453.466,424.525,390.163,368.486,374.194,390.029,395.529,380.799,353.386,353.386,497.637,497.637,497.637
0.00106812	-312280.40	0,4.36723e-05,9.4758e-05,0.000154516,0.000224417,0.000306184,0.000401831,0.000513714,0.000644589,0.000797681,0.000976759,0.00118624,0.00143127,0.0017179,0.00205319,0.00244539,0.00290417,0.00344082,0.00406857,0.00480289,0.00566185,0.00666662,0.00784195,0.00921679,0.010825,0.0127062,0.0149068,0.0174809,0.0204919,0.0240141,0.0281342,0.0329536,inf	686.837,686.837,9.35151,163.843,291.293,367.863,383.996,338.579,311.396,323.569,352.94,377.838,396.362,415.908,440.722,465.622,481.68,483.894,473.478,453.177,423.493,388.252,366.475,373.199,390.559,397.022,381.584,351.841,351.841,491.441,491.441,491.441
0.00108177	-312277.50	0,4.36723e-05,9.4758e-05,0.000154516,0.000224417,0.000306184,0.000401831,0.000513714,0.000644589,0.000797681,0.000976759,0.00118624,0.00143127,0.0017179,0.00205319,0.00244539,0.00290417,0.00344082,0.00406857,0.00480289,0.00566185,0.00666662,0.00784195,0.00921679,0.010825,0.0127062,0.0149068,0.0174809,0.0204919,0.0240141,0.0281342,0.0329536,inf	682.472,682.472,8.14323,163.571,292.44,370.478,386.127,338.446,310.561,323.37,353.421,378.331,396.398,415.506,440.17,465.196,481.492,483.886,473.488,452.904,422.5,386.417,364.561,372.284,391.156,398.582,382.436,350.382,350.382,485.063,485.063,485.063
0.00109472	-312274.90	0,4.36723e-05,9.4758e-05,0.000154516,0.000224417,0.000306184,0.000401831,0.000513714,0.000644589,0.000797681,0.000976759,0.00118624,0.00143127,0.0017179,0.00205319,0.00244539,0.00290417,0.00344082,0.00406857,0.00480289,0.00566185,0.00666662,0.00784195,0.00921679,0.010825,0.0127062,0.0149068,0.0174809,0.0204919,0.0240141,0.0281342,0.0329536,inf	678.382,678.382,7.1147,163.43,293.501,372.931,388.084,338.229,309.732,323.205,353.932,378.847,396.456,415.126,439.632,464.769,481.293,483.868,473.499,452.647,421.545,384.651,362.734,371.441,391.808,400.195,383.342,348.999,348.999,478.58,478.58,478.58
0.00110699	-312272.57	0,4.36723e-05,9.4758e-05,0.000154516,0.000224417,0.000306184,0.000401831,0.000513714,0.000644589,0.000797681,0.000976759,0.00118624,0.00143127,0.0017179,0.00205319,0.00244539,0.00290417,0.00344082,0.00406857,0.00480289,0.00566185,0.00666662,0.00784195,0.00921679,0.010825,0.0127062,0.0149068,0.0174809,0.0204919,0.0240141,0.0281342,0.0329536,inf	674.555,674.555,6.23505,163.403,294.486,375.242,389.886,337.94,308.907,323.069,354.468,379.381,396.531,414.765,439.106,464.343,481.086,483.845,473.516,452.41,420.629,382.952,360.988,370.661,392.507,401.851,384.288,347.685,347.685,472.044,472.044,472.044
