LogLikelihood = -7289.3568599225945945

y0 0.0005845043366565041195
y0_prime 0
y1 0.77510857432484925322
y1_prime 0
y2 1.3313886419914444659
y2_prime 0
y3 1.3926338582223607432
y3_prime 0
rho 3.478530625335900326e-05
rho.alpha 0.54726032204594377006
r_ii 0.99999765547523278286
theta 7.0383458574487566873e-05
