time_index	left_time_boundary	right_time_boundary	lambda
0	0	1.9897e-06	1.17798
1	1.9897e-06	5.44212e-06	1.17798
2	5.44212e-06	1.14326e-05	923.057
3	1.14326e-05	2.18269e-05	706.597
4	2.18269e-05	3.98624e-05	934.338
5	3.98624e-05	7.11568e-05	802.66
6	7.11568e-05	0.000125457	711.219
7	0.000125457	0.000219676	733.61
8	0.000219676	0.000383158	801.841
9	0.000383158	0.000666825	783.563
10	0.000666825	0.00115903	860.9
11	0.00115903	0.00201307	934.809
12	0.00201307	0.00349495	581.047
13	0.00349495	0.00606624	1149.7
14	0.00606624	0.0105278	1149.7
15	0.0105278	inf	1149.7
