LogLikelihood = -310270.33483175176661

y0 0.69964605452051309431
y0_prime 0
y1 1.1851831393735177134
y1_prime 0
y2 0.8383994154469572857
y2_prime 0
y3 1.7310297229884539227
y3_prime 0
rho 0.0033797062099899209675
rho.alpha 0.61722681845501292663
r_ii 0.99988141271966968215
theta 0.005100965802458851811
