time_index	left_time_boundary	right_time_boundary	lambda
0	0	1.77373e-06	0.397527
1	1.77373e-06	4.11017e-06	0.397527
2	4.11017e-06	7.18785e-06	3.53458
3	7.18785e-06	1.12419e-05	641.196
4	1.12419e-05	1.65821e-05	903.349
5	1.65821e-05	2.36165e-05	379.954
6	2.36165e-05	3.28825e-05	300.949
7	3.28825e-05	4.50882e-05	270.461
8	4.50882e-05	6.11661e-05	312.802
9	6.11661e-05	8.23447e-05	351.053
10	8.23447e-05	0.000110242	317.397
11	0.000110242	0.00014699	277.083
12	0.00014699	0.000195396	261.294
13	0.000195396	0.000259159	268.471
14	0.000259159	0.000343151	287.565
15	0.000343151	0.000453789	307.284
16	0.000453789	0.000599526	326.955
17	0.000599526	0.000791499	348.793
18	0.000791499	0.00104437	370.066
19	0.00104437	0.00137747	388.869
20	0.00137747	0.00181625	406.867
21	0.00181625	0.00239423	423.279
22	0.00239423	0.00315557	434.029
23	0.00315557	0.00415844	442.191
24	0.00415844	0.00547947	457.991
25	0.00547947	0.0072196	472.181
26	0.0072196	0.00951178	445.204
27	0.00951178	0.0125312	345.4
28	0.0125312	0.0165084	345.4
29	0.0165084	0.0217475	44.1227
30	0.0217475	0.0286486	44.1227
31	0.0286486	inf	44.1227
