LogLikelihood = -8322.4537571262844722

y0 0.025919781353081199071
y0_prime 0
y1 1.0955158690582176284
y1_prime 0
y2 1.7027971452996664148
y2_prime 0
y3 1.7416036710251563413
y3_prime 0
rho 5.89528037871150671e-06
rho.alpha 0.51522018860191720613
r_ii 0.99991692617394201115
theta 8.1469623497690084584e-05
