0.000650646	-4578367.09	0,4.51293e-06,1.0257e-05,1.75681e-05,2.68737e-05,3.87179e-05,5.37933e-05,7.29813e-05,9.74038e-05,0.000128489,0.000168054,0.000218413,0.00028251,0.000364093,0.000467932,0.0006001,0.000768322,0.000982437,0.00125496,0.00160184,0.00204334,0.00260528,0.00332053,0.0042309,0.00538962,0.00686444,0.00874161,0.0111309,0.0141719,0.0180426,0.0229692,0.0292399,inf	27.0167,27.0167,60.9696,105.977,207.588,259.153,210.848,221.633,233.117,243.374,256.408,272.933,288.087,300.416,314.09,331.429,350.571,369.691,389.192,410.517,430.744,445.231,451.309,448.592,441.309,433.005,423.103,408.426,408.426,402.637,402.637,402.637
0.000680482	-4577249.88	0,4.51293e-06,1.0257e-05,1.75681e-05,2.68737e-05,3.87179e-05,5.37933e-05,7.29813e-05,9.74038e-05,0.000128489,0.000168054,0.000218413,0.00028251,0.000364093,0.000467932,0.0006001,0.000768322,0.000982437,0.00125496,0.00160184,0.00204334,0.00260528,0.00332053,0.0042309,0.00538962,0.00686444,0.00874161,0.0111309,0.0141719,0.0180426,0.0229692,0.0292399,inf	3.08606,3.08606,14.6841,42.4726,177.834,263.2,166.819,181.582,193.507,202.657,216.76,237.651,256.125,268.878,283.984,305.734,330.519,355.336,381.472,412.36,444.038,468.986,481.792,479.484,468.409,454.623,436.397,408.089,408.089,399.321,399.321,399.321
0.000708061	-4576797.41	0,4.51293e-06,1.0257e-05,1.75681e-05,2.68737e-05,3.87179e-05,5.37933e-05,7.29813e-05,9.74038e-05,0.000128489,0.000168054,0.000218413,0.00028251,0.000364093,0.000467932,0.0006001,0.000768322,0.000982437,0.00125496,0.00160184,0.00204334,0.00260528,0.00332053,0.0042309,0.00538962,0.00686444,0.00874161,0.0111309,0.0141719,0.0180426,0.0229692,0.0292399,inf	0.431489,0.431489,4.20131,19.6705,171.597,291.353,150.749,170.495,182.734,189.991,204.021,227.812,247.661,258.407,272.273,295.169,321.662,347.79,375.849,411.198,449.536,481.794,500.693,500.172,487.416,470.053,444.688,403.808,403.808,393.696,393.696,393.696
0.000733631	-4576534.38	0,4.51293e-06,1.0257e-05,1.75681e-05,2.68737e-05,3.87179e-05,5.37933e-05,7.29813e-05,9.74038e-05,0.000128489,0.000168054,0.000218413,0.00028251,0.000364093,0.000467932,0.0006001,0.000768322,0.000982437,0.00125496,0.00160184,0.00204334,0.00260528,0.00332053,0.0042309,0.00538962,0.00686444,0.00874161,0.0111309,0.0141719,0.0180426,0.0229692,0.0292399,inf	0.403,0.403,1.27338,9.56978,167.825,319.703,141.228,166.866,180.07,185.703,199.807,226.523,247.47,255.725,267.837,290.984,317.841,343.593,371.583,408.903,451.135,488.408,512.391,514.095,500.845,481.125,449.484,396.992,396.992,386.264,386.264,386.264
0.000757588	-4576344.52	0,4.51293e-06,1.0257e-05,1.75681e-05,2.68737e-05,3.87179e-05,5.37933e-05,7.29813e-05,9.74038e-05,0.000128489,0.000168054,0.000218413,0.00028251,0.000364093,0.000467932,0.0006001,0.000768322,0.000982437,0.00125496,0.00160184,0.00204334,0.00260528,0.00332053,0.0042309,0.00538962,0.00686444,0.00874161,0.0111309,0.0141719,0.0180426,0.0229692,0.0292399,inf	0.402997,0.402997,0.403047,4.76642,163.37,342.672,133.297,165.119,179.741,184.018,198.398,228.17,250.249,256.06,266.536,289.789,316.581,341.304,368.359,406.378,450.859,491.536,519.609,523.542,510.446,489.142,451.866,388.607,388.607,377.401,377.401,377.401
0.000780243	-4576190.50	0,4.51293e-06,1.0257e-05,1.75681e-05,2.68737e-05,3.87179e-05,5.37933e-05,7.29813e-05,9.74038e-05,0.000128489,0.000168054,0.000218413,0.00028251,0.000364093,0.000467932,0.0006001,0.000768322,0.000982437,0.00125496,0.00160184,0.00204334,0.00260528,0.00332053,0.0042309,0.00538962,0.00686444,0.00874161,0.0111309,0.0141719,0.0180426,0.0229692,0.0292399,inf	0.402997,0.402997,0.402999,2.41834,158.699,360.079,125.921,163.797,180.043,183.087,197.823,230.674,253.916,257.47,266.6,290.059,316.706,340.188,365.952,404.005,449.735,492.694,524.006,529.996,517.4,495.009,452.589,379.299,379.299,367.416,367.416,367.416
0.00080182	-4576057.89	0,4.51293e-06,1.0257e-05,1.75681e-05,2.68737e-05,3.87179e-05,5.37933e-05,7.29813e-05,9.74038e-05,0.000128489,0.000168054,0.000218413,0.00028251,0.000364093,0.000467932,0.0006001,0.000768322,0.000982437,0.00125496,0.00160184,0.00204334,0.00260528,0.00332053,0.0042309,0.00538962,0.00686444,0.00874161,0.0111309,0.0141719,0.0180426,0.0229692,0.0292399,inf	0.402997,0.402997,0.402998,1.25111,154.59,373.084,119.009,162.621,180.525,182.352,197.422,233.258,257.634,259.128,267.219,291.049,317.602,339.819,364.183,401.924,448.28,492.734,526.597,534.418,522.502,499.353,452.184,369.505,369.505,356.577,356.577,356.577
0.000822474	-4575940.16	0,4.51293e-06,1.0257e-05,1.75681e-05,2.68737e-05,3.87179e-05,5.37933e-05,7.29813e-05,9.74038e-05,0.000128489,0.000168054,0.000218413,0.00028251,0.000364093,0.000467932,0.0006001,0.000768322,0.000982437,0.00125496,0.00160184,0.00204334,0.00260528,0.00332053,0.0042309,0.00538962,0.00686444,0.00874161,0.0111309,0.0141719,0.0180426,0.0229692,0.0292399,inf	0.402997,0.402997,0.402998,0.654555,151.494,382.848,112.61,161.593,181.117,181.682,197.008,235.671,261.093,260.693,268.015,292.372,318.923,339.933,362.902,400.159,446.748,492.145,528.012,537.44,526.294,502.615,451.024,359.516,359.516,345.126,345.126,345.126
0.000842321	-4575833.86	0,4.51293e-06,1.0257e-05,1.75681e-05,2.68737e-05,3.87179e-05,5.37933e-05,7.29813e-05,9.74038e-05,0.000128489,0.000168054,0.000218413,0.00028251,0.000364093,0.000467932,0.0006001,0.000768322,0.000982437,0.00125496,0.00160184,0.00204334,0.00260528,0.00332053,0.0042309,0.00538962,0.00686444,0.00874161,0.0111309,0.0141719,0.0180426,0.0229692,0.0292399,inf	0.402997,0.402997,0.402998,0.402997,149.626,390.159,106.744,160.754,181.836,181.071,196.561,237.864,264.207,262.038,268.811,293.824,320.468,340.36,361.993,398.69,445.261,491.208,528.648,539.484,529.15,505.104,449.374,349.531,349.531,333.276,333.276,333.276
0.000861442	-4575736.94	0,4.51293e-06,1.0257e-05,1.75681e-05,2.68737e-05,3.87179e-05,5.37933e-05,7.29813e-05,9.74038e-05,0.000128489,0.000168054,0.000218413,0.00028251,0.000364093,0.000467932,0.0006001,0.000768322,0.000982437,0.00125496,0.00160184,0.00204334,0.00260528,0.00332053,0.0042309,0.00538962,0.00686444,0.00874161,0.0111309,0.0141719,0.0180426,0.0229692,0.0292399,inf	0.402997,0.402997,0.402998,0.402997,149.015,395.542,101.392,160.127,182.707,180.54,196.106,239.862,266.98,263.137,269.531,295.296,322.116,340.986,361.367,397.479,443.873,490.086,528.763,540.834,531.332,507.047,447.43,339.686,339.686,321.216,321.216,321.216
0.000879902	-4575648.04	0,4.51293e-06,1.0257e-05,1.75681e-05,2.68737e-05,3.87179e-05,5.37933e-05,7.29813e-05,9.74038e-05,0.000128489,0.000168054,0.000218413,0.00028251,0.000364093,0.000467932,0.0006001,0.000768322,0.000982437,0.00125496,0.00160184,0.00204334,0.00260528,0.00332053,0.0042309,0.00538962,0.00686444,0.00874161,0.0111309,0.0141719,0.0180426,0.0229692,0.0292399,inf	0.402997,0.402997,0.402998,0.402997,149.622,399.307,96.5166,159.717,183.737,180.104,195.679,241.712,269.454,264.003,270.15,296.734,323.794,341.733,360.952,396.488,442.6,488.875,528.526,541.687,533.027,508.606,445.33,330.071,330.071,309.11,309.11,309.11
0.000897753	-4575566.16	0,4.51293e-06,1.0257e-05,1.75681e-05,2.68737e-05,3.87179e-05,5.37933e-05,7.29813e-05,9.74038e-05,0.000128489,0.000168054,0.000218413,0.00028251,0.000364093,0.000467932,0.0006001,0.000768322,0.000982437,0.00125496,0.00160184,0.00204334,0.00260528,0.00332053,0.0042309,0.00538962,0.00686444,0.00874161,0.0111309,0.0141719,0.0180426,0.0229692,0.0292399,inf	0.402997,0.402997,0.402998,0.402997,151.384,401.666,92.0639,159.501,184.916,179.771,195.302,243.461,271.676,264.665,270.664,298.107,325.458,342.549,360.697,395.679,441.445,487.634,528.048,542.181,534.366,509.902,443.179,320.749,320.749,297.095,297.095,297.095
0.000915036	-4575490.55	0,4.51293e-06,1.0257e-05,1.75681e-05,2.68737e-05,3.87179e-05,5.37933e-05,7.29813e-05,9.74038e-05,0.000128489,0.000168054,0.000218413,0.00028251,0.000364093,0.000467932,0.0006001,0.000768322,0.000982437,0.00125496,0.00160184,0.00204334,0.00260528,0.00332053,0.0042309,0.00538962,0.00686444,0.00874161,0.0111309,0.0141719,0.0180426,0.0229692,0.0292399,inf	0.402997,0.402997,0.402998,0.402997,154.228,402.752,87.9931,159.459,186.235,179.536,194.993,245.141,273.692,265.156,271.081,299.405,327.082,343.399,360.562,395.02,440.401,486.393,527.405,542.412,535.448,511.024,441.053,311.76,311.76,285.293,285.293,285.293
0.000931785	-4575420.58	0,4.51293e-06,1.0257e-05,1.75681e-05,2.68737e-05,3.87179e-05,5.37933e-05,7.29813e-05,9.74038e-05,0.000128489,0.000168054,0.000218413,0.00028251,0.000364093,0.000467932,0.0006001,0.000768322,0.000982437,0.00125496,0.00160184,0.00204334,0.00260528,0.00332053,0.0042309,0.00538962,0.00686444,0.00874161,0.0111309,0.0141719,0.0180426,0.0229692,0.0292399,inf	0.402997,0.402997,0.402998,0.402997,158.09,402.666,84.2539,159.565,187.669,179.394,194.757,246.782,275.541,265.507,271.412,300.625,328.651,344.259,360.517,394.485,439.458,485.172,526.649,542.452,536.341,512.038,439.009,303.132,303.132,273.798,273.798,273.798
0.00094803	-4575355.74	0,4.51293e-06,1.0257e-05,1.75681e-05,2.68737e-05,3.87179e-05,5.37933e-05,7.29813e-05,9.74038e-05,0.000128489,0.000168054,0.000218413,0.00028251,0.000364093,0.000467932,0.0006001,0.000768322,0.000982437,0.00125496,0.00160184,0.00204334,0.00260528,0.00332053,0.0042309,0.00538962,0.00686444,0.00874161,0.0111309,0.0141719,0.0180426,0.0229692,0.0292399,inf	0.402997,0.402997,0.402998,0.402997,162.901,401.499,80.8126,159.799,189.2,179.329,194.599,248.407,277.254,265.744,271.67,301.768,330.157,345.113,360.538,394.052,438.605,483.981,525.815,542.349,537.098,512.993,437.089,294.881,294.881,262.691,262.691,262.691
0.000963796	-4575295.60	0,4.51293e-06,1.0257e-05,1.75681e-05,2.68737e-05,3.87179e-05,5.37933e-05,7.29813e-05,9.74038e-05,0.000128489,0.000168054,0.000218413,0.00028251,0.000364093,0.000467932,0.0006001,0.000768322,0.000982437,0.00125496,0.00160184,0.00204334,0.00260528,0.00332053,0.0042309,0.00538962,0.00686444,0.00874161,0.0111309,0.0141719,0.0180426,0.0229692,0.0292399,inf	0.402997,0.402997,0.402998,0.402997,168.607,399.327,77.6381,160.138,190.806,179.331,194.512,250.023,278.855,265.89,271.867,302.839,331.597,345.949,360.608,393.703,437.83,482.824,524.928,542.14,537.756,513.926,435.325,287.016,287.016,252.032,252.032,252.032
0.000979108	-4575239.78	0,4.51293e-06,1.0257e-05,1.75681e-05,2.68737e-05,3.87179e-05,5.37933e-05,7.29813e-05,9.74038e-05,0.000128489,0.000168054,0.000218413,0.00028251,0.000364093,0.000467932,0.0006001,0.000768322,0.000982437,0.00125496,0.00160184,0.00204334,0.00260528,0.00332053,0.0042309,0.00538962,0.00686444,0.00874161,0.0111309,0.0141719,0.0180426,0.0229692,0.0292399,inf	0.402997,0.402997,0.402998,0.402997,175.136,396.231,74.7049,160.568,192.469,179.385,194.494,251.641,280.365,265.963,272.013,303.843,332.971,346.762,360.716,393.423,437.125,481.705,524.006,541.851,538.343,514.865,433.738,279.543,279.543,241.87,241.87,241.87
0.000993984	-4575187.93	0,4.51293e-06,1.0257e-05,1.75681e-05,2.68737e-05,3.87179e-05,5.37933e-05,7.29813e-05,9.74038e-05,0.000128489,0.000168054,0.000218413,0.00028251,0.000364093,0.000467932,0.0006001,0.000768322,0.000982437,0.00125496,0.00160184,0.00204334,0.00260528,0.00332053,0.0042309,0.00538962,0.00686444,0.00874161,0.0111309,0.0141719,0.0180426,0.0229692,0.0292399,inf	0.402997,0.402997,0.402998,0.402997,182.416,392.286,71.9916,161.078,194.174,179.479,194.538,253.264,281.798,265.977,272.119,304.785,334.281,347.548,360.851,393.201,436.481,480.621,523.061,541.502,538.878,515.83,432.347,272.46,272.46,232.236,232.236,232.236
0.00100844	-4575139.75	0,4.51293e-06,1.0257e-05,1.75681e-05,2.68737e-05,3.87179e-05,5.37933e-05,7.29813e-05,9.74038e-05,0.000128489,0.000168054,0.000218413,0.00028251,0.000364093,0.000467932,0.0006001,0.000768322,0.000982437,0.00125496,0.00160184,0.00204334,0.00260528,0.00332053,0.0042309,0.00538962,0.00686444,0.00874161,0.0111309,0.0141719,0.0180426,0.0229692,0.0292399,inf	0.402997,0.402997,0.402998,0.402997,190.374,387.582,69.4798,161.656,195.907,179.601,194.636,254.894,283.164,265.944,272.19,305.672,335.529,348.303,361.005,393.027,435.891,479.572,522.1,541.106,539.376,516.833,431.162,265.766,265.766,223.153,223.153,223.153
0.0010225	-4575094.97	0,4.51293e-06,1.0257e-05,1.75681e-05,2.68737e-05,3.87179e-05,5.37933e-05,7.29813e-05,9.74038e-05,0.000128489,0.000168054,0.000218413,0.00028251,0.000364093,0.000467932,0.0006001,0.000768322,0.000982437,0.00125496,0.00160184,0.00204334,0.00260528,0.00332053,0.0042309,0.00538962,0.00686444,0.00874161,0.0111309,0.0141719,0.0180426,0.0229692,0.0292399,inf	0.402997,0.402997,0.402998,0.402997,198.927,382.179,67.153,162.296,197.655,179.746,194.781,256.532,284.474,265.875,272.235,306.509,336.717,349.028,361.174,392.894,435.348,478.557,521.131,540.673,539.847,517.884,430.19,259.456,259.456,214.631,214.631,214.631
