0.0006678	-312075.49	0,4.6305e-05,0.000101039,0.000165738,0.000242214,0.000332611,0.000439465,0.000565771,0.00071507,0.000891546,0.00110015,0.00134673,0.00163819,0.00198271,0.00238995,0.00287133,0.00344033,0.00411292,0.00490795,0.0058477,0.00695853,0.00827157,0.00982364,0.0116583,0.0138268,0.0163902,0.0194202,0.0230018,0.0272353,0.0322396,inf	415.01,415.01,415.01,415.01,415.01,415.01,415.01,415.01,415.01,415.01,415.01,415.01,415.01,415.01,415.01,415.01,415.01,415.01,415.01,415.01,415.01,415.01,415.01,415.01,415.01,415.01,415.01,415.01,415.01,415.01
0.000695607	-312047.37	0,4.6305e-05,0.000101039,0.000165738,0.000242214,0.000332611,0.000439465,0.000565771,0.00071507,0.000891546,0.00110015,0.00134673,0.00163819,0.00198271,0.00238995,0.00287133,0.00344033,0.00411292,0.00490795,0.0058477,0.00695853,0.00827157,0.00982364,0.0116583,0.0138268,0.0163902,0.0194202,0.0230018,0.0272353,0.0322396,inf	425.093,425.093,425.093,425.093,425.093,425.093,425.093,425.093,425.093,425.093,425.093,425.093,425.093,425.093,425.093,425.093,425.093,425.093,425.093,425.093,425.093,425.093,425.093,425.093,425.093,425.093,425.093,425.093,425.093,425.093
0.00072088	-312033.22	0,4.6305e-05,0.000101039,0.000165738,0.000242214,0.000332611,0.000439465,0.000565771,0.00071507,0.000891546,0.00110015,0.00134673,0.00163819,0.00198271,0.00238995,0.00287133,0.00344033,0.00411292,0.00490795,0.0058477,0.00695853,0.00827157,0.00982364,0.0116583,0.0138268,0.0163902,0.0194202,0.0230018,0.0272353,0.0322396,inf	429.508,429.508,429.508,429.508,429.508,429.508,429.508,429.508,429.508,429.508,429.508,429.508,429.508,429.508,429.508,429.508,429.508,429.508,429.508,429.508,429.508,429.508,429.508,429.508,429.508,429.508,429.508,429.508,429.508,429.508
0.000744585	-312022.89	0,4.6305e-05,0.000101039,0.000165738,0.000242214,0.000332611,0.000439465,0.000565771,0.00071507,0.000891546,0.00110015,0.00134673,0.00163819,0.00198271,0.00238995,0.00287133,0.00344033,0.00411292,0.00490795,0.0058477,0.00695853,0.00827157,0.00982364,0.0116583,0.0138268,0.0163902,0.0194202,0.0230018,0.0272353,0.0322396,inf	431.283,431.283,431.283,431.283,431.283,431.283,431.283,431.283,431.283,431.283,431.283,431.283,431.283,431.283,431.283,431.283,431.283,431.283,431.283,431.283,431.283,431.283,431.283,431.283,431.283,431.283,431.283,431.283,431.283,431.283
0.000767237	-312014.05	0,4.6305e-05,0.000101039,0.000165738,0.000242214,0.000332611,0.000439465,0.000565771,0.00071507,0.000891546,0.00110015,0.00134673,0.00163819,0.00198271,0.00238995,0.00287133,0.00344033,0.00411292,0.00490795,0.0058477,0.00695853,0.00827157,0.00982364,0.0116583,0.0138268,0.0163902,0.0194202,0.0230018,0.0272353,0.0322396,inf	431.845,431.845,431.845,431.845,431.845,431.845,431.845,431.845,431.845,431.845,431.845,431.845,431.845,431.845,431.845,431.845,431.845,431.845,431.845,431.845,431.845,431.845,431.845,431.845,431.845,431.845,431.845,431.845,431.845,431.845
0.000789103	-312006.07	0,4.6305e-05,0.000101039,0.000165738,0.000242214,0.000332611,0.000439465,0.000565771,0.00071507,0.000891546,0.00110015,0.00134673,0.00163819,0.00198271,0.00238995,0.00287133,0.00344033,0.00411292,0.00490795,0.0058477,0.00695853,0.00827157,0.00982364,0.0116583,0.0138268,0.0163902,0.0194202,0.0230018,0.0272353,0.0322396,inf	431.856,431.856,431.856,431.856,431.856,431.856,431.856,431.856,431.856,431.856,431.856,431.856,431.856,431.856,431.856,431.856,431.856,431.856,431.856,431.856,431.856,431.856,431.856,431.856,431.856,431.856,431.856,431.856,431.856,431.856
0.000810322	-311998.74	0,4.6305e-05,0.000101039,0.000165738,0.000242214,0.000332611,0.000439465,0.000565771,0.00071507,0.000891546,0.00110015,0.00134673,0.00163819,0.00198271,0.00238995,0.00287133,0.00344033,0.00411292,0.00490795,0.0058477,0.00695853,0.00827157,0.00982364,0.0116583,0.0138268,0.0163902,0.0194202,0.0230018,0.0272353,0.0322396,inf	431.619,431.619,431.619,431.619,431.619,431.619,431.619,431.619,431.619,431.619,431.619,431.619,431.619,431.619,431.619,431.619,431.619,431.619,431.619,431.619,431.619,431.619,431.619,431.619,431.619,431.619,431.619,431.619,431.619,431.619
0.00083097	-311991.97	0,4.6305e-05,0.000101039,0.000165738,0.000242214,0.000332611,0.000439465,0.000565771,0.00071507,0.000891546,0.00110015,0.00134673,0.00163819,0.00198271,0.00238995,0.00287133,0.00344033,0.00411292,0.00490795,0.0058477,0.00695853,0.00827157,0.00982364,0.0116583,0.0138268,0.0163902,0.0194202,0.0230018,0.0272353,0.0322396,inf	431.273,431.273,431.273,431.273,431.273,431.273,431.273,431.273,431.273,431.273,431.273,431.273,431.273,431.273,431.273,431.273,431.273,431.273,431.273,431.273,431.273,431.273,431.273,431.273,431.273,431.273,431.273,431.273,431.273,431.273
0.000851093	-311985.70	0,4.6305e-05,0.000101039,0.000165738,0.000242214,0.000332611,0.000439465,0.000565771,0.00071507,0.000891546,0.00110015,0.00134673,0.00163819,0.00198271,0.00238995,0.00287133,0.00344033,0.00411292,0.00490795,0.0058477,0.00695853,0.00827157,0.00982364,0.0116583,0.0138268,0.0163902,0.0194202,0.0230018,0.0272353,0.0322396,inf	430.883,430.883,430.883,430.883,430.883,430.883,430.883,430.883,430.883,430.883,430.883,430.883,430.883,430.883,430.883,430.883,430.883,430.883,430.883,430.883,430.883,430.883,430.883,430.883,430.883,430.883,430.883,430.883,430.883,430.883
0.000870722	-311979.86	0,4.6305e-05,0.000101039,0.000165738,0.000242214,0.000332611,0.000439465,0.000565771,0.00071507,0.000891546,0.00110015,0.00134673,0.00163819,0.00198271,0.00238995,0.00287133,0.00344033,0.00411292,0.00490795,0.0058477,0.00695853,0.00827157,0.00982364,0.0116583,0.0138268,0.0163902,0.0194202,0.0230018,0.0272353,0.0322396,inf	430.48,430.48,430.48,430.48,430.48,430.48,430.48,430.48,430.48,430.48,430.48,430.48,430.48,430.48,430.48,430.48,430.48,430.48,430.48,430.48,430.48,430.48,430.48,430.48,430.48,430.48,430.48,430.48,430.48,430.48
0.00088988	-311974.42	0,4.6305e-05,0.000101039,0.000165738,0.000242214,0.000332611,0.000439465,0.000565771,0.00071507,0.000891546,0.00110015,0.00134673,0.00163819,0.00198271,0.00238995,0.00287133,0.00344033,0.00411292,0.00490795,0.0058477,0.00695853,0.00827157,0.00982364,0.0116583,0.0138268,0.0163902,0.0194202,0.0230018,0.0272353,0.0322396,inf	430.076,430.076,430.076,430.076,430.076,430.076,430.076,430.076,430.076,430.076,430.076,430.076,430.076,430.076,430.076,430.076,430.076,430.076,430.076,430.076,430.076,430.076,430.076,430.076,430.076,430.076,430.076,430.076,430.076,430.076
0.000908586	-311969.35	0,4.6305e-05,0.000101039,0.000165738,0.000242214,0.000332611,0.000439465,0.000565771,0.00071507,0.000891546,0.00110015,0.00134673,0.00163819,0.00198271,0.00238995,0.00287133,0.00344033,0.00411292,0.00490795,0.0058477,0.00695853,0.00827157,0.00982364,0.0116583,0.0138268,0.0163902,0.0194202,0.0230018,0.0272353,0.0322396,inf	429.679,429.679,429.679,429.679,429.679,429.679,429.679,429.679,429.679,429.679,429.679,429.679,429.679,429.679,429.679,429.679,429.679,429.679,429.679,429.679,429.679,429.679,429.679,429.679,429.679,429.679,429.679,429.679,429.679,429.679
0.000926857	-311964.61	0,4.6305e-05,0.000101039,0.000165738,0.000242214,0.000332611,0.000439465,0.000565771,0.00071507,0.000891546,0.00110015,0.00134673,0.00163819,0.00198271,0.00238995,0.00287133,0.00344033,0.00411292,0.00490795,0.0058477,0.00695853,0.00827157,0.00982364,0.0116583,0.0138268,0.0163902,0.0194202,0.0230018,0.0272353,0.0322396,inf	429.292,429.292,429.292,429.292,429.292,429.292,429.292,429.292,429.292,429.292,429.292,429.292,429.292,429.292,429.292,429.292,429.292,429.292,429.292,429.292,429.292,429.292,429.292,429.292,429.292,429.292,429.292,429.292,429.292,429.292
0.000944706	-311960.17	0,4.6305e-05,0.000101039,0.000165738,0.000242214,0.000332611,0.000439465,0.000565771,0.00071507,0.000891546,0.00110015,0.00134673,0.00163819,0.00198271,0.00238995,0.00287133,0.00344033,0.00411292,0.00490795,0.0058477,0.00695853,0.00827157,0.00982364,0.0116583,0.0138268,0.0163902,0.0194202,0.0230018,0.0272353,0.0322396,inf	428.914,428.914,428.914,428.914,428.914,428.914,428.914,428.914,428.914,428.914,428.914,428.914,428.914,428.914,428.914,428.914,428.914,428.914,428.914,428.914,428.914,428.914,428.914,428.914,428.914,428.914,428.914,428.914,428.914,428.914
0.00096215	-311956.01	0,4.6305e-05,0.000101039,0.000165738,0.000242214,0.000332611,0.000439465,0.000565771,0.00071507,0.000891546,0.00110015,0.00134673,0.00163819,0.00198271,0.00238995,0.00287133,0.00344033,0.00411292,0.00490795,0.0058477,0.00695853,0.00827157,0.00982364,0.0116583,0.0138268,0.0163902,0.0194202,0.0230018,0.0272353,0.0322396,inf	428.547,428.547,428.547,428.547,428.547,428.547,428.547,428.547,428.547,428.547,428.547,428.547,428.547,428.547,428.547,428.547,428.547,428.547,428.547,428.547,428.547,428.547,428.547,428.547,428.547,428.547,428.547,428.547,428.547,428.547
0.000979199	-311952.10	0,4.6305e-05,0.000101039,0.000165738,0.000242214,0.000332611,0.000439465,0.000565771,0.00071507,0.000891546,0.00110015,0.00134673,0.00163819,0.00198271,0.00238995,0.00287133,0.00344033,0.00411292,0.00490795,0.0058477,0.00695853,0.00827157,0.00982364,0.0116583,0.0138268,0.0163902,0.0194202,0.0230018,0.0272353,0.0322396,inf	428.191,428.191,428.191,428.191,428.191,428.191,428.191,428.191,428.191,428.191,428.191,428.191,428.191,428.191,428.191,428.191,428.191,428.191,428.191,428.191,428.191,428.191,428.191,428.191,428.191,428.191,428.191,428.191,428.191,428.191
0.000995868	-311948.43	0,4.6305e-05,0.000101039,0.000165738,0.000242214,0.000332611,0.000439465,0.000565771,0.00071507,0.000891546,0.00110015,0.00134673,0.00163819,0.00198271,0.00238995,0.00287133,0.00344033,0.00411292,0.00490795,0.0058477,0.00695853,0.00827157,0.00982364,0.0116583,0.0138268,0.0163902,0.0194202,0.0230018,0.0272353,0.0322396,inf	427.845,427.845,427.845,427.845,427.845,427.845,427.845,427.845,427.845,427.845,427.845,427.845,427.845,427.845,427.845,427.845,427.845,427.845,427.845,427.845,427.845,427.845,427.845,427.845,427.845,427.845,427.845,427.845,427.845,427.845
0.00101217	-311944.98	0,4.6305e-05,0.000101039,0.000165738,0.000242214,0.000332611,0.000439465,0.000565771,0.00071507,0.000891546,0.00110015,0.00134673,0.00163819,0.00198271,0.00238995,0.00287133,0.00344033,0.00411292,0.00490795,0.0058477,0.00695853,0.00827157,0.00982364,0.0116583,0.0138268,0.0163902,0.0194202,0.0230018,0.0272353,0.0322396,inf	427.509,427.509,427.509,427.509,427.509,427.509,427.509,427.509,427.509,427.509,427.509,427.509,427.509,427.509,427.509,427.509,427.509,427.509,427.509,427.509,427.509,427.509,427.509,427.509,427.509,427.509,427.509,427.509,427.509,427.509
0.00102811	-311941.73	0,4.6305e-05,0.000101039,0.000165738,0.000242214,0.000332611,0.000439465,0.000565771,0.00071507,0.000891546,0.00110015,0.00134673,0.00163819,0.00198271,0.00238995,0.00287133,0.00344033,0.00411292,0.00490795,0.0058477,0.00695853,0.00827157,0.00982364,0.0116583,0.0138268,0.0163902,0.0194202,0.0230018,0.0272353,0.0322396,inf	427.182,427.182,427.182,427.182,427.182,427.182,427.182,427.182,427.182,427.182,427.182,427.182,427.182,427.182,427.182,427.182,427.182,427.182,427.182,427.182,427.182,427.182,427.182,427.182,427.182,427.182,427.182,427.182,427.182,427.182
0.0010437	-311938.67	0,4.6305e-05,0.000101039,0.000165738,0.000242214,0.000332611,0.000439465,0.000565771,0.00071507,0.000891546,0.00110015,0.00134673,0.00163819,0.00198271,0.00238995,0.00287133,0.00344033,0.00411292,0.00490795,0.0058477,0.00695853,0.00827157,0.00982364,0.0116583,0.0138268,0.0163902,0.0194202,0.0230018,0.0272353,0.0322396,inf	426.865,426.865,426.865,426.865,426.865,426.865,426.865,426.865,426.865,426.865,426.865,426.865,426.865,426.865,426.865,426.865,426.865,426.865,426.865,426.865,426.865,426.865,426.865,426.865,426.865,426.865,426.865,426.865,426.865,426.865
