LogLikelihood = -229058.48474412821815

y0 0.69868543606667010692
y0_prime 0
y1 1.4159826284119030326
y1_prime 0
y2 0.77979567470157973297
y2_prime 0
y3 1.8941272949954537363
y3_prime 0
rho 3.7826126459786829008e-05
rho.alpha 0.21118332842433057417
r_ii 0.99979996530054004999
theta 0.0005622014342457038686
