0.000655034	-294455.29	0,8.85599e-05,0.000209738,0.000375547,0.000602427,0.00091287,0.00133765,0.00191889,0.00271421,0.00380245,0.00529151,0.00732901,0.010117,0.0139317,0.0191516,0.0262939,inf	417.25,417.25,374.676,358.083,369.486,390.322,420.83,442.156,447.428,451.251,462.189,448.484,396.637,268.464,268.464,268.464
0.000703682	-294393.37	0,8.85599e-05,0.000209738,0.000375547,0.000602427,0.00091287,0.00133765,0.00191889,0.00271421,0.00380245,0.00529151,0.00732901,0.010117,0.0139317,0.0191516,0.0262939,inf	434.205,434.205,364.105,334.156,347.43,375.387,421.239,453.685,461.181,470.456,497.411,473.865,380.135,158.702,158.702,158.702
0.000746942	-294358.32	0,8.85599e-05,0.000209738,0.000375547,0.000602427,0.00091287,0.00133765,0.00191889,0.00271421,0.00380245,0.00529151,0.00732901,0.010117,0.0139317,0.0191516,0.0262939,inf	446.975,446.975,362.42,323.174,335.688,365.929,420.447,458.359,465.715,480.112,525.031,496.129,377.669,15.549,15.549,15.549
0.000787216	-294382.10	0,8.85599e-05,0.000209738,0.000375547,0.000602427,0.00091287,0.00133765,0.00191889,0.00271421,0.00380245,0.00529151,0.00732901,0.010117,0.0139317,0.0191516,0.0262939,inf	453.913,453.913,364.282,318.676,329.462,360.073,420.164,460.617,466.687,486.772,557.541,552.234,514.633,2.06458,2.06458,2.06458
0.000819888	-294368.18	0,8.85599e-05,0.000209738,0.000375547,0.000602427,0.00091287,0.00133765,0.00191889,0.00271421,0.00380245,0.00529151,0.00732901,0.010117,0.0139317,0.0191516,0.0262939,inf	454.282,454.282,365.854,316.311,325.15,355.283,418.948,459.721,462.975,486.026,576.403,582.28,639.27,4.92404,4.92404,4.92404
0.000851955	-294337.07	0,8.85599e-05,0.000209738,0.000375547,0.000602427,0.00091287,0.00133765,0.00191889,0.00271421,0.00380245,0.00529151,0.00732901,0.010117,0.0139317,0.0191516,0.0262939,inf	452.902,452.902,368.274,316.099,323.019,352.431,418.821,458.735,458.061,481.897,586.067,587.543,623.146,3.40887,3.40887,3.40887
0.000881224	-294328.06	0,8.85599e-05,0.000209738,0.000375547,0.000602427,0.00091287,0.00133765,0.00191889,0.00271421,0.00380245,0.00529151,0.00732901,0.010117,0.0139317,0.0191516,0.0262939,inf	449.854,449.854,370.411,316.671,321.819,350.577,419.383,458.119,453.475,477.645,594.675,594.688,651.367,8.14006,8.14006,8.14006
0.000911112	-294307.31	0,8.85599e-05,0.000209738,0.000375547,0.000602427,0.00091287,0.00133765,0.00191889,0.00271421,0.00380245,0.00529151,0.00732901,0.010117,0.0139317,0.0191516,0.0262939,inf	446.543,446.543,372.542,317.854,321.304,349.497,420.56,457.874,449.053,472.822,600.479,595.505,624.132,1.09542,1.09542,1.09542
0.00093664	-294310.31	0,8.85599e-05,0.000209738,0.000375547,0.000602427,0.00091287,0.00133765,0.00191889,0.00271421,0.00380245,0.00529151,0.00732901,0.010117,0.0139317,0.0191516,0.0262939,inf	442.417,442.417,373.902,318.839,320.669,348.434,421.635,457.599,444.99,468.462,606.919,602.674,690.636,1.9233,1.9233,1.9233
0.000960925	-294296.55	0,8.85599e-05,0.000209738,0.000375547,0.000602427,0.00091287,0.00133765,0.00191889,0.00271421,0.00380245,0.00529151,0.00732901,0.010117,0.0139317,0.0191516,0.0262939,inf	438.778,438.778,375.207,319.996,320.201,347.605,422.831,457.362,440.945,463.573,610.38,601.533,702.522,4.02089,4.02089,4.02089
0.000984669	-294286.14	0,8.85599e-05,0.000209738,0.000375547,0.000602427,0.00091287,0.00133765,0.00191889,0.00271421,0.00380245,0.00529151,0.00732901,0.010117,0.0139317,0.0191516,0.0262939,inf	435.628,435.628,376.461,321.284,319.876,347.02,424.263,457.414,437.295,458.875,612.967,598.541,688.917,5.86824,5.86824,5.86824
0.00100833	-294276.98	0,8.85599e-05,0.000209738,0.000375547,0.000602427,0.00091287,0.00133765,0.00191889,0.00271421,0.00380245,0.00529151,0.00732901,0.010117,0.0139317,0.0191516,0.0262939,inf	432.878,432.878,377.631,322.629,319.608,346.586,425.858,457.716,434.04,454.514,615.416,596.02,662.986,1.8919,1.8919,1.8919
0.00102896	-294278.91	0,8.85599e-05,0.000209738,0.000375547,0.000602427,0.00091287,0.00133765,0.00191889,0.00271421,0.00380245,0.00529151,0.00732901,0.010117,0.0139317,0.0191516,0.0262939,inf	430.068,430.068,378.383,323.723,319.091,345.983,427.23,457.946,431.06,450.608,618.642,599.007,727.76,3.5909,3.5909,3.5909
0.00104904	-294267.62	0,8.85599e-05,0.000209738,0.000375547,0.000602427,0.00091287,0.00133765,0.00191889,0.00271421,0.00380245,0.00529151,0.00732901,0.010117,0.0139317,0.0191516,0.0262939,inf	427.778,427.778,379.182,324.891,318.601,345.432,428.585,458.145,428.071,446.389,619.69,595.154,726.717,6.9515,6.9515,6.9515
0.00106994	-294257.12	0,8.85599e-05,0.000209738,0.000375547,0.000602427,0.00091287,0.00133765,0.00191889,0.00271421,0.00380245,0.00529151,0.00732901,0.010117,0.0139317,0.0191516,0.0262939,inf	426.002,426.002,380.112,326.22,318.244,345.073,430.162,458.63,425.422,442.436,620.472,590.515,689.735,1.31847,1.31847,1.31847
0.00108762	-294263.56	0,8.85599e-05,0.000209738,0.000375547,0.000602427,0.00091287,0.00133765,0.00191889,0.00271421,0.00380245,0.00529151,0.00732901,0.010117,0.0139317,0.0191516,0.0262939,inf	424.005,424.005,380.633,327.265,317.615,344.503,431.485,459.04,423.063,439.049,622.598,592.46,763.623,2.05896,2.05896,2.05896
0.00110457	-294254.24	0,8.85599e-05,0.000209738,0.000375547,0.000602427,0.00091287,0.00133765,0.00191889,0.00271421,0.00380245,0.00529151,0.00732901,0.010117,0.0139317,0.0191516,0.0262939,inf	422.385,422.385,381.206,328.358,316.985,343.935,432.732,459.357,420.633,435.354,622.727,588.114,776.889,3.90727,3.90727,3.90727
0.00112139	-294247.92	0,8.85599e-05,0.000209738,0.000375547,0.000602427,0.00091287,0.00133765,0.00191889,0.00271421,0.00380245,0.00529151,0.00732901,0.010117,0.0139317,0.0191516,0.0262939,inf	421.087,421.087,381.852,329.542,316.424,343.47,434.09,459.852,418.462,431.883,622.596,582.864,764.903,6.03598,6.03598,6.03598
0.00113869	-294241.53	0,8.85599e-05,0.000209738,0.000375547,0.000602427,0.00091287,0.00133765,0.00191889,0.00271421,0.00380245,0.00529151,0.00732901,0.010117,0.0139317,0.0191516,0.0262939,inf	420.024,420.024,382.544,330.792,315.909,343.085,435.551,460.527,416.554,428.706,622.669,578.082,732.826,1.80021,1.80021,1.80021
0.00115336	-294246.74	0,8.85599e-05,0.000209738,0.000375547,0.000602427,0.00091287,0.00133765,0.00191889,0.00271421,0.00380245,0.00529151,0.00732901,0.010117,0.0139317,0.0191516,0.0262939,inf	418.753,418.753,382.935,331.818,315.176,342.514,436.771,461.104,414.836,425.949,623.812,578.32,801.447,3.01119,3.01119,3.01119
