0.00064734	-294446.02	0,4.08157e-05,8.85599e-05,0.000144409,0.000209738,0.000286157,0.000375547,0.000480112,0.000602427,0.000745505,0.00091287,0.00110865,0.00133765,0.00160554,0.00191889,0.00228544,0.00271421,0.00321576,0.00380245,0.00448873,0.00529151,0.00623056,0.00732901,0.00861393,0.010117,0.0118751,0.0139317,0.0163375,0.0191516,0.0224434,0.0262939,0.0307981,inf	413.768,413.768,402.035,414.84,389.277,362.311,354.816,357.813,363.176,370.724,380.866,394.071,409.177,423.006,433.461,440.539,444.847,447.185,448.992,451.026,452.497,452.174,448.884,442.075,430.238,409.579,377.103,332.638,332.638,284.975,284.975,284.975
0.000690493	-294387.41	0,4.08157e-05,8.85599e-05,0.000144409,0.000209738,0.000286157,0.000375547,0.000480112,0.000602427,0.000745505,0.00091287,0.00110865,0.00133765,0.00160554,0.00191889,0.00228544,0.00271421,0.00321576,0.00380245,0.00448873,0.00529151,0.00623056,0.00732901,0.00861393,0.010117,0.0118751,0.0139317,0.0163375,0.0191516,0.0224434,0.0262939,0.0307981,inf	417.5,417.5,406.253,439.81,392.235,343.285,329.969,333.48,339.584,348.871,362.517,381.705,404.573,425.74,441.739,452.651,459.5,463.678,467.767,473.011,477.694,478.971,474.008,461.414,438.108,397.359,337.205,267.116,267.116,21.0191,21.0191,21.0191
0.000732629	-294354.15	0,4.08157e-05,8.85599e-05,0.000144409,0.000209738,0.000286157,0.000375547,0.000480112,0.000602427,0.000745505,0.00091287,0.00110865,0.00133765,0.00160554,0.00191889,0.00228544,0.00271421,0.00321576,0.00380245,0.00448873,0.00529151,0.00623056,0.00732901,0.00861393,0.010117,0.0118751,0.0139317,0.0163375,0.0191516,0.0224434,0.0262939,0.0307981,inf	413.505,413.505,407.618,467.919,402.032,335.403,318.495,322.397,327.967,337.094,351.876,374.207,401.6,426.919,445.784,458.512,466.555,471.882,478.102,486.923,495.91,500.628,496.388,481.178,451.522,400.115,329.5,277.703,277.703,2.06575,2.06575,2.06575
0.000769044	-294334.93	0,4.08157e-05,8.85599e-05,0.000144409,0.000209738,0.000286157,0.000375547,0.000480112,0.000602427,0.000745505,0.00091287,0.00110865,0.00133765,0.00160554,0.00191889,0.00228544,0.00271421,0.00321576,0.00380245,0.00448873,0.00529151,0.00623056,0.00732901,0.00861393,0.010117,0.0118751,0.0139317,0.0163375,0.0191516,0.0224434,0.0262939,0.0307981,inf	403.293,403.293,402.087,491.602,410.964,330.606,312.07,316.679,321.364,329.638,344.596,368.772,399.036,426.784,447.032,460.433,468.869,474.868,482.922,495.118,508.419,516.913,514.133,497.513,463.669,407.003,338.926,395.072,395.072,4.75825,4.75825,4.75825
0.00080353	-294311.15	0,4.08157e-05,8.85599e-05,0.000144409,0.000209738,0.000286157,0.000375547,0.000480112,0.000602427,0.000745505,0.00091287,0.00110865,0.00133765,0.00160554,0.00191889,0.00228544,0.00271421,0.00321576,0.00380245,0.00448873,0.00529151,0.00623056,0.00732901,0.00861393,0.010117,0.0118751,0.0139317,0.0163375,0.0191516,0.0224434,0.0262939,0.0307981,inf	392.795,392.795,392.845,511.886,418.874,327.559,308.725,314.335,318.041,325.181,339.89,365.267,397.493,426.668,447.372,460.654,468.828,474.961,484.318,499.311,516.397,528.187,526.124,506.411,464.843,396.712,321.084,421.781,421.781,7.08033,7.08033,7.08033
0.000836768	-294293.43	0,4.08157e-05,8.85599e-05,0.000144409,0.000209738,0.000286157,0.000375547,0.000480112,0.000602427,0.000745505,0.00091287,0.00110865,0.00133765,0.00160554,0.00191889,0.00228544,0.00271421,0.00321576,0.00380245,0.00448873,0.00529151,0.00623056,0.00732901,0.00861393,0.010117,0.0118751,0.0139317,0.0163375,0.0191516,0.0224434,0.0262939,0.0307981,inf	383.507,383.507,381.254,528.868,425.216,325.154,307.008,313.857,316.595,322.515,336.821,363.09,396.784,426.813,447.448,460.158,467.689,473.631,483.944,501.35,521.944,537.004,535.844,513.254,464.153,384.906,301.508,410.863,410.863,4.51658,4.51658,4.51658
0.000867386	-294280.11	0,4.08157e-05,8.85599e-05,0.000144409,0.000209738,0.000286157,0.000375547,0.000480112,0.000602427,0.000745505,0.00091287,0.00110865,0.00133765,0.00160554,0.00191889,0.00228544,0.00271421,0.00321576,0.00380245,0.00448873,0.00529151,0.00623056,0.00732901,0.00861393,0.010117,0.0118751,0.0139317,0.0163375,0.0191516,0.0224434,0.0262939,0.0307981,inf	375.651,375.651,368.224,542.714,429.697,322.725,305.978,314.218,316.021,320.716,334.579,361.585,396.445,426.986,447.262,459.17,465.874,471.461,482.509,502.023,525.861,544.144,544.178,519.393,464.116,376.427,288.988,437.861,437.861,7.29505,7.29505,7.29505
0.000897305	-294266.28	0,4.08157e-05,8.85599e-05,0.000144409,0.000209738,0.000286157,0.000375547,0.000480112,0.000602427,0.000745505,0.00091287,0.00110865,0.00133765,0.00160554,0.00191889,0.00228544,0.00271421,0.00321576,0.00380245,0.00448873,0.00529151,0.00623056,0.00732901,0.00861393,0.010117,0.0118751,0.0139317,0.0163375,0.0191516,0.0224434,0.0262939,0.0307981,inf	369.807,369.807,355.111,554.836,433.106,320.485,305.591,315.297,316.181,319.662,333.089,360.754,396.597,427.432,447.155,458.091,463.811,468.877,480.42,501.724,528.5,549.846,551.074,524.129,462.634,366.364,274.026,422.384,422.384,4.13358,4.13358,4.13358
0.000924766	-294256.65	0,4.08157e-05,8.85599e-05,0.000144409,0.000209738,0.000286157,0.000375547,0.000480112,0.000602427,0.000745505,0.00091287,0.00110865,0.00133765,0.00160554,0.00191889,0.00228544,0.00271421,0.00321576,0.00380245,0.00448873,0.00529151,0.00623056,0.00732901,0.00861393,0.010117,0.0118751,0.0139317,0.0163375,0.0191516,0.0224434,0.0262939,0.0307981,inf	365.15,365.15,341.977,565.118,435.201,318.063,305.355,316.552,316.533,318.839,331.868,360.155,396.859,427.859,446.942,456.855,461.556,466.052,477.967,500.838,530.32,554.649,557.309,528.874,462.527,360.046,265.598,453.864,453.864,7.91589,7.91589,7.91589
0.000952062	-294245.05	0,4.08157e-05,8.85599e-05,0.000144409,0.000209738,0.000286157,0.000375547,0.000480112,0.000602427,0.000745505,0.00091287,0.00110865,0.00133765,0.00160554,0.00191889,0.00228544,0.00271421,0.00321576,0.00380245,0.00448873,0.00529151,0.00623056,0.00732901,0.00861393,0.010117,0.0118751,0.0139317,0.0163375,0.0191516,0.0224434,0.0262939,0.0307981,inf	361.969,361.969,329.598,574.786,436.782,315.833,305.498,318.174,317.246,318.4,331.073,359.971,397.461,428.537,446.907,455.732,459.345,463.177,475.295,499.483,531.392,558.489,562.444,532.338,460.744,351.355,253.466,430.926,430.926,3.60424,3.60424,3.60424
0.000976843	-294238.35	0,4.08157e-05,8.85599e-05,0.000144409,0.000209738,0.000286157,0.000375547,0.000480112,0.000602427,0.000745505,0.00091287,0.00110865,0.00133765,0.00160554,0.00191889,0.00228544,0.00271421,0.00321576,0.00380245,0.00448873,0.00529151,0.00623056,0.00732901,0.00861393,0.010117,0.0118751,0.0139317,0.0163375,0.0191516,0.0224434,0.0262939,0.0307981,inf	359.299,359.299,317.615,583.285,437.407,313.406,305.59,319.708,317.872,317.92,330.291,359.796,398.017,429.123,446.777,454.541,457.099,460.279,472.543,497.903,532.068,561.883,567.394,536.359,461.004,346.996,248.043,469.072,469.072,8.67382,8.67382,8.67382
0.00100192	-294228.12	0,4.08157e-05,8.85599e-05,0.000144409,0.000209738,0.000286157,0.000375547,0.000480112,0.000602427,0.000745505,0.00091287,0.00110865,0.00133765,0.00160554,0.00191889,0.00228544,0.00271421,0.00321576,0.00380245,0.00448873,0.00529151,0.00623056,0.00732901,0.00861393,0.010117,0.0118751,0.0139317,0.0163375,0.0191516,0.0224434,0.0262939,0.0307981,inf	357.621,357.621,306.608,591.798,437.886,311.228,305.989,321.499,318.73,317.696,329.807,359.925,398.845,429.945,446.856,453.532,454.997,457.46,469.745,496.073,532.244,564.527,571.334,538.958,459.064,339.301,237.779,439.006,439.006,3.16562,3.16562,3.16562
0.0010244	-294223.75	0,4.08157e-05,8.85599e-05,0.000144409,0.000209738,0.000286157,0.000375547,0.000480112,0.000602427,0.000745505,0.00091287,0.00110865,0.00133765,0.00160554,0.00191889,0.00228544,0.00271421,0.00321576,0.00380245,0.00448873,0.00529151,0.00623056,0.00732901,0.00861393,0.010117,0.0118751,0.0139317,0.0163375,0.0191516,0.0224434,0.0262939,0.0307981,inf	356.007,356.007,296.051,599.443,437.612,308.859,306.25,323.088,319.383,317.312,329.214,359.95,399.537,430.622,446.825,452.471,452.909,454.7,466.99,494.202,532.266,567.013,575.425,542.537,459.701,336.382,234.292,481.736,481.736,8.40374,8.40374,8.40374
0.00104729	-294214.84	0,4.08157e-05,8.85599e-05,0.000144409,0.000209738,0.000286157,0.000375547,0.000480112,0.000602427,0.000745505,0.00091287,0.00110865,0.00133765,0.00160554,0.00191889,0.00228544,0.00271421,0.00321576,0.00380245,0.00448873,0.00529151,0.00623056,0.00732901,0.00861393,0.010117,0.0118751,0.0139317,0.0163375,0.0191516,0.0224434,0.0262939,0.0307981,inf	355.068,355.068,286.432,607.373,437.372,306.753,306.776,324.878,320.207,317.114,328.845,360.207,400.448,431.503,446.989,451.595,450.986,452.06,464.256,492.185,531.917,568.857,578.528,544.549,457.759,329.649,225.78,452.73,452.73,3.24083,3.24083,3.24083
0.00106781	-294211.73	0,4.08157e-05,8.85599e-05,0.000144409,0.000209738,0.000286157,0.000375547,0.000480112,0.000602427,0.000745505,0.00091287,0.00110865,0.00133765,0.00160554,0.00191889,0.00228544,0.00271421,0.00321576,0.00380245,0.00448873,0.00529151,0.00623056,0.00732901,0.00861393,0.010117,0.0118751,0.0139317,0.0163375,0.0191516,0.0224434,0.0262939,0.0307981,inf	354.008,354.008,277.246,614.657,436.558,304.498,307.159,326.454,320.809,316.738,328.342,360.334,401.21,432.241,447.055,450.689,449.103,449.511,461.617,490.21,531.532,570.68,581.902,547.605,458.302,327.196,222.938,492.601,492.601,8.41433,8.41433,8.41433
0.00108884	-294203.99	0,4.08157e-05,8.85599e-05,0.000144409,0.000209738,0.000286157,0.000375547,0.000480112,0.000602427,0.000745505,0.00091287,0.00110865,0.00133765,0.00160554,0.00191889,0.00228544,0.00271421,0.00321576,0.00380245,0.00448873,0.00529151,0.00623056,0.00732901,0.00861393,0.010117,0.0118751,0.0139317,0.0163375,0.0191516,0.0224434,0.0262939,0.0307981,inf	353.436,353.436,268.877,622.311,435.853,302.498,307.775,328.201,321.547,316.511,328.017,360.649,402.154,433.156,447.3,449.959,447.384,447.093,459.034,488.161,530.883,571.992,584.423,549.228,456.433,321.24,215.689,463.23,463.23,3.19887,3.19887,3.19887
0.00110761	-294202.00	0,4.08157e-05,8.85599e-05,0.000144409,0.000209738,0.000286157,0.000375547,0.000480112,0.000602427,0.000745505,0.00091287,0.00110865,0.00133765,0.00160554,0.00191889,0.00228544,0.00271421,0.00321576,0.00380245,0.00448873,0.00529151,0.00623056,0.00732901,0.00861393,0.010117,0.0118751,0.0139317,0.0163375,0.0191516,0.0224434,0.0262939,0.0307981,inf	352.642,352.642,260.867,629.398,434.666,300.365,308.243,329.726,322.059,316.097,327.545,360.816,402.936,433.922,447.444,449.196,445.704,444.77,456.563,486.191,530.268,573.372,587.307,551.969,457.045,319.31,213.484,502.363,502.363,8.27054,8.27054,8.27054
0.00112695	-294195.18	0,4.08157e-05,8.85599e-05,0.000144409,0.000209738,0.000286157,0.000375547,0.000480112,0.000602427,0.000745505,0.00091287,0.00110865,0.00133765,0.00160554,0.00191889,0.00228544,0.00271421,0.00321576,0.00380245,0.00448873,0.00529151,0.00623056,0.00732901,0.00861393,0.010117,0.0118751,0.0139317,0.0163375,0.0191516,0.0224434,0.0262939,0.0307981,inf	352.234,352.234,253.552,636.877,433.625,298.473,308.923,331.407,322.691,315.814,327.224,361.142,403.874,434.844,447.747,448.592,444.175,442.571,454.155,484.18,529.445,574.311,589.399,553.31,455.263,314.002,207.252,473.859,473.859,3.2394,3.2394,3.2394
0.00114416	-294193.95	0,4.08157e-05,8.85599e-05,0.000144409,0.000209738,0.000286157,0.000375547,0.000480112,0.000602427,0.000745505,0.00091287,0.00110865,0.00133765,0.00160554,0.00191889,0.00228544,0.00271421,0.00321576,0.00380245,0.00448873,0.00529151,0.00623056,0.00732901,0.00861393,0.010117,0.0118751,0.0139317,0.0163375,0.0191516,0.0224434,0.0262939,0.0307981,inf	351.581,351.581,246.533,643.838,432.174,296.465,309.46,332.876,323.108,315.352,326.757,361.32,404.651,435.62,447.952,447.956,442.682,440.463,451.86,482.266,528.692,575.365,591.893,555.771,455.861,312.375,205.416,511.257,511.257,8.26135,8.26135,8.26135
0.00116201	-294187.86	0,4.08157e-05,8.85599e-05,0.000144409,0.000209738,0.000286157,0.000375547,0.000480112,0.000602427,0.000745505,0.00091287,0.00110865,0.00133765,0.00160554,0.00191889,0.00228544,0.00271421,0.00321576,0.00380245,0.00448873,0.00529151,0.00623056,0.00732901,0.00861393,0.010117,0.0118751,0.0139317,0.0163375,0.0191516,0.0224434,0.0262939,0.0307981,inf	351.258,351.258,240.097,651.191,430.888,294.686,310.198,334.494,323.64,315.011,326.428,361.639,405.568,436.537,448.302,447.463,441.326,438.469,449.63,480.329,527.774,576.037,593.661,556.901,454.16,307.575,199.946,482.755,482.755,3.22421,3.22421,3.22421
