LogLikelihood = -1635291.9985693907365

y0 1.0232526807745032649
y0_prime 0
y1 0.35645147889417316822
y1_prime 0
y2 1.1540012582332208613
y2_prime 0
y3 4.1523602779614421365
y3_prime 0
rho 0.001677157699074421698
theta 0.0054150935377338437274
