AIC = 2471285.3898051995784

y0 1.0245553862354179753
y0_prime 0
y1 1.0883544190948959418
y1_prime 0
y2 0.88618153318472248081
y2_prime 0
y3 1.6211868397760436089
y3_prime 0
rho 0.015019365027695746537
theta 0.0049658046075002557074
