time_index	left_time_boundary	right_time_boundary	lambda
0	0	4.53679e-06	304.433
1	4.53679e-06	1.03112e-05	304.433
2	1.03112e-05	1.7661e-05	381.9
3	1.7661e-05	2.70158e-05	235.61
4	2.70158e-05	3.89226e-05	501.781
5	3.89226e-05	5.40776e-05	331.562
6	5.40776e-05	7.3367e-05	492.622
7	7.3367e-05	9.79187e-05	430.493
8	9.79187e-05	0.000129168	338.749
9	0.000129168	0.000168943	313.7
10	0.000168943	0.000219568	391.617
11	0.000219568	0.000284004	412.997
12	0.000284004	0.000366018	415.499
13	0.000366018	0.000470406	412.13
14	0.000470406	0.000603272	410.054
15	0.000603272	0.000772384	414.194
16	0.000772384	0.00098763	415.521
17	0.00098763	0.0012616	418.92
18	0.0012616	0.0016103	412.863
19	0.0016103	0.00205414	398.573
20	0.00205414	0.00261905	392.301
21	0.00261905	0.00333808	400.854
22	0.00333808	0.00425326	406.222
23	0.00425326	0.00541811	410.439
24	0.00541811	0.00690073	406.357
25	0.00690073	0.00878781	396.603
26	0.00878781	0.0111897	397.439
27	0.0111897	0.0142468	350.345
28	0.0142468	0.018138	350.345
29	0.018138	0.0230907	63859.6
30	0.0230907	0.0293944	63859.6
31	0.0293944	inf	63859.6
