7.63434e-06	-6378.02	0,1.1094e-06,2.6274e-06,4.7045e-06,7.54664e-06,1.14356e-05,1.67569e-05,2.40381e-05,3.4001e-05,4.76335e-05,6.6287e-05,9.1811e-05,0.000126736,0.000174524,0.000239913,0.000329386,inf	5509.98,5509.98,14171.2,20528.3,25189.8,30305.2,35689.6,38033.6,38812.9,35685.9,25637.4,14389.1,6359.32,48.8017,48.8017,48.8017
7.50769e-06	-6380.75	0,1.1094e-06,2.6274e-06,4.7045e-06,7.54664e-06,1.14356e-05,1.67569e-05,2.40381e-05,3.4001e-05,4.76335e-05,6.6287e-05,9.1811e-05,0.000126736,0.000174524,0.000239913,0.000329386,inf	1353.1,1353.1,8853.04,17012.8,22702.5,29188.7,37020.6,41095.6,44799.5,39866.8,21756.6,10576.9,4110.3,33.1996,33.1996,33.1996
7.31796e-06	-6380.83	0,1.1094e-06,2.6274e-06,4.7045e-06,7.54664e-06,1.14356e-05,1.67569e-05,2.40381e-05,3.4001e-05,4.76335e-05,6.6287e-05,9.1811e-05,0.000126736,0.000174524,0.000239913,0.000329386,inf	380.329,380.329,6340.89,15652.5,21617.9,28266.3,37078.2,41912.6,48918.2,41480.7,18690.8,8865.67,3288.83,33.1996,33.1996,33.1996
7.10366e-06	-6381.14	0,1.1094e-06,2.6274e-06,4.7045e-06,7.54664e-06,1.14356e-05,1.67569e-05,2.40381e-05,3.4001e-05,4.76335e-05,6.6287e-05,9.1811e-05,0.000126736,0.000174524,0.000239913,0.000329386,inf	113.52,113.52,4852.29,15197,21254.7,27642.3,36810.8,41809.7,51883.3,41340.5,16837.3,8049.03,2939.26,33.1996,33.1996,33.1996
6.89086e-06	-6381.41	0,1.1094e-06,2.6274e-06,4.7045e-06,7.54664e-06,1.14356e-05,1.67569e-05,2.40381e-05,3.4001e-05,4.76335e-05,6.6287e-05,9.1811e-05,0.000126736,0.000174524,0.000239913,0.000329386,inf	34.6487,34.6487,3822.82,15133.6,21241.2,27212.9,36477.4,41343.4,54063.6,40391.4,15724.5,7608.44,2761.09,33.1996,33.1996,33.1996
6.6917e-06	-6381.65	0,1.1094e-06,2.6274e-06,4.7045e-06,7.54664e-06,1.14356e-05,1.67569e-05,2.40381e-05,3.4001e-05,4.76335e-05,6.6287e-05,9.1811e-05,0.000126736,0.000174524,0.000239913,0.000329386,inf	33.1996,33.1996,3044,15232.6,21391.1,26899.2,36161.5,40766.9,55704.7,39268.6,15010.8,7347.06,2660.12,33.1996,33.1996,33.1996
6.51118e-06	-6381.85	0,1.1094e-06,2.6274e-06,4.7045e-06,7.54664e-06,1.14356e-05,1.67569e-05,2.40381e-05,3.4001e-05,4.76335e-05,6.6287e-05,9.1811e-05,0.000126736,0.000174524,0.000239913,0.000329386,inf	33.1996,33.1996,2427.7,15383.7,21608,26651.3,35885.9,40185.3,56937.7,38217.8,14505.2,7173.02,2596.02,33.1996,33.1996,33.1996
6.35048e-06	-6382.01	0,1.1094e-06,2.6274e-06,4.7045e-06,7.54664e-06,1.14356e-05,1.67569e-05,2.40381e-05,3.4001e-05,4.76335e-05,6.6287e-05,9.1811e-05,0.000126736,0.000174524,0.000239913,0.000329386,inf	33.1996,33.1996,1931.6,15535.4,21845,26443.1,35654.4,39642.8,57851.3,37304.9,14116.2,7044.13,2550.63,33.1996,33.1996,33.1996
6.20894e-06	-6382.16	0,1.1094e-06,2.6274e-06,4.7045e-06,7.54664e-06,1.14356e-05,1.67569e-05,2.40381e-05,3.4001e-05,4.76335e-05,6.6287e-05,9.1811e-05,0.000126736,0.000174524,0.000239913,0.000329386,inf	33.1996,33.1996,1530.97,15665.6,22079.8,26259.8,35465.6,39159.2,58517.4,36531.3,13801,6941.02,2515.57,33.1996,33.1996,33.1996
6.08512e-06	-6382.28	0,1.1094e-06,2.6274e-06,4.7045e-06,7.54664e-06,1.14356e-05,1.67569e-05,2.40381e-05,3.4001e-05,4.76335e-05,6.6287e-05,9.1811e-05,0.000126736,0.000174524,0.000239913,0.000329386,inf	33.1996,33.1996,1208.29,15766,22303.1,26093,35314.6,38741,58996.4,35880.9,13538.7,6855.29,2487,33.1996,33.1996,33.1996
5.97732e-06	-6382.40	0,1.1094e-06,2.6274e-06,4.7045e-06,7.54664e-06,1.14356e-05,1.67569e-05,2.40381e-05,3.4001e-05,4.76335e-05,6.6287e-05,9.1811e-05,0.000126736,0.000174524,0.000239913,0.000329386,inf	33.1996,33.1996,949.742,15835.9,22511,25938.1,35195.8,38385.7,59337.8,35333.6,13317.2,6782.46,2463,33.1996,33.1996,33.1996
5.88387e-06	-6382.51	0,1.1094e-06,2.6274e-06,4.7045e-06,7.54664e-06,1.14356e-05,1.67569e-05,2.40381e-05,3.4001e-05,4.76335e-05,6.6287e-05,9.1811e-05,0.000126736,0.000174524,0.000239913,0.000329386,inf	33.1996,33.1996,744.111,15883.8,22710,25792.2,35099.7,38078.7,59592.6,34878.5,13130.7,6721.08,2442.74,33.1996,33.1996,33.1996
5.80304e-06	-6382.60	0,1.1094e-06,2.6274e-06,4.7045e-06,7.54664e-06,1.14356e-05,1.67569e-05,2.40381e-05,3.4001e-05,4.76335e-05,6.6287e-05,9.1811e-05,0.000126736,0.000174524,0.000239913,0.000329386,inf	33.1996,33.1996,580.962,15904.2,22893.4,25653.2,35025.2,37824.2,59767.1,34488.6,12969.7,6667.21,2425.26,33.1996,33.1996,33.1996
5.73321e-06	-6382.68	0,1.1094e-06,2.6274e-06,4.7045e-06,7.54664e-06,1.14356e-05,1.67569e-05,2.40381e-05,3.4001e-05,4.76335e-05,6.6287e-05,9.1811e-05,0.000126736,0.000174524,0.000239913,0.000329386,inf	33.1996,33.1996,452.293,15902.6,23064.2,25520.1,34968.6,37615.3,59888.7,34157,12831.8,6620.8,2410.14,33.1996,33.1996,33.1996
5.673e-06	-6382.76	0,1.1094e-06,2.6274e-06,4.7045e-06,7.54664e-06,1.14356e-05,1.67569e-05,2.40381e-05,3.4001e-05,4.76335e-05,6.6287e-05,9.1811e-05,0.000126736,0.000174524,0.000239913,0.000329386,inf	33.1996,33.1996,351.247,15883.4,23224.7,25392.8,34925,37444.7,59974.7,33875.4,12714,6580.84,2397.23,33.1996,33.1996,33.1996
5.62115e-06	-6382.83	0,1.1094e-06,2.6274e-06,4.7045e-06,7.54664e-06,1.14356e-05,1.67569e-05,2.40381e-05,3.4001e-05,4.76335e-05,6.6287e-05,9.1811e-05,0.000126736,0.000174524,0.000239913,0.000329386,inf	33.1996,33.1996,272.304,15850.5,23377.7,25270.8,34890.6,37305.4,60034.5,33634.9,12612.8,6546.38,2386.12,33.1996,33.1996,33.1996
5.57654e-06	-6382.88	0,1.1094e-06,2.6274e-06,4.7045e-06,7.54664e-06,1.14356e-05,1.67569e-05,2.40381e-05,3.4001e-05,4.76335e-05,6.6287e-05,9.1811e-05,0.000126736,0.000174524,0.000239913,0.000329386,inf	33.1996,33.1996,210.697,15806.9,23524.5,25153.5,34863.4,37191.7,60076.8,33429.7,12526.2,6516.58,2376.57,33.1996,33.1996,33.1996
5.5382e-06	-6382.93	0,1.1094e-06,2.6274e-06,4.7045e-06,7.54664e-06,1.14356e-05,1.67569e-05,2.40381e-05,3.4001e-05,4.76335e-05,6.6287e-05,9.1811e-05,0.000126736,0.000174524,0.000239913,0.000329386,inf	33.1996,33.1996,162.826,15755,23666.7,25041.5,34841.8,37099.1,60107,33254.1,12451.8,6490.98,2368.35,33.1996,33.1996,33.1996
5.50526e-06	-6382.98	0,1.1094e-06,2.6274e-06,4.7045e-06,7.54664e-06,1.14356e-05,1.67569e-05,2.40381e-05,3.4001e-05,4.76335e-05,6.6287e-05,9.1811e-05,0.000126736,0.000174524,0.000239913,0.000329386,inf	33.1996,33.1996,125.665,15696.7,23805,24934.5,34824.9,37023.5,60127.9,33103.8,12387.7,6468.98,2361.28,33.1996,33.1996,33.1996
5.47698e-06	-6383.02	0,1.1094e-06,2.6274e-06,4.7045e-06,7.54664e-06,1.14356e-05,1.67569e-05,2.40381e-05,3.4001e-05,4.76335e-05,6.6287e-05,9.1811e-05,0.000126736,0.000174524,0.000239913,0.000329386,inf	33.1996,33.1996,96.9301,15633.4,23940.1,24832.2,34811.5,36961.7,60143,32974.9,12332.9,6450.02,2355.28,33.1996,33.1996,33.1996
