LogLikelihood = -13662.784655719820876

y0 9.9999999999999997989e-13
y0_prime 0
y1 1.1431028761491872636
y1_prime 0
y2 1.6231433106408541533
y2_prime 0
y3 1.9210064968082667392
y3_prime 0
rho 0.15177563180380904129
theta 0.00013837497155959099836
