LogLikelihood = -245264.51976976223523

y0 7.7124025155068887116
y0_prime 0
y1 20.62531736882959521
y1_prime 0
y2 0.0066586571299333567261
y2_prime 0
y3 3.0179819688661351229
y3_prime 0
rho 9.0401290842022465911e-08
rho.alpha 26.601225705826326617
r_ii 0.99967098915003949067
theta 0.00060479596661351859611
