LogLikelihood = -856005.01226090476848

y0 0.94280030471084230737
y0_prime 0
y1 1.0621903315386393984
y1_prime 0
y2 0.91348526211835168187
y2_prime 0
y3 1.7220038398154335901
y3_prime 0
rho 0.0013983174687117769057
theta 0.002516122903072576765
