0.00129425	-32331984.28	0,1.88877e-05,4.225e-05,7.11468e-05,0.000106889,0.000151099,0.000205783,0.000273421,0.000357082,0.000460564,0.00058856,0.000746878,0.000942702,0.00118492,0.00148451,0.00185509,0.00231345,0.00288039,0.00358165,0.00444904,0.00552191,0.00684895,0.00849036,0.0105206,0.0130319,0.016138,0.01998,0.0247322,0.0306102,0.0378807,0.0468736,0.0579969,inf	3.62732,3.62732,7.69058,11.8758,16.867,22.7865,29.7607,37.9325,47.4623,58.5431,71.4269,86.4768,104.26,125.637,151.716,183.321,219.481,254.91,279.829,287.623,281.851,270.893,260.064,250.951,243.751,238.309,234.251,230.7,230.7,230.237,230.237,230.237
0.00140936	-32272479.42	0,1.88877e-05,4.225e-05,7.11468e-05,0.000106889,0.000151099,0.000205783,0.000273421,0.000357082,0.000460564,0.00058856,0.000746878,0.000942702,0.00118492,0.00148451,0.00185509,0.00231345,0.00288039,0.00358165,0.00444904,0.00552191,0.00684895,0.00849036,0.0105206,0.0130319,0.016138,0.01998,0.0247322,0.0306102,0.0378807,0.0468736,0.0579969,inf	0.209044,0.209044,0.433325,1.03242,2.07592,3.77048,6.38743,10.274,15.8597,23.6614,34.2934,48.5043,67.2819,92.0123,124.523,166.588,218.158,273.489,317.933,336.856,331.799,315.936,298.813,283.713,271.542,262.415,255.711,249.814,249.814,251.399,251.399,251.399
0.00151958	-32250503.69	0,1.88877e-05,4.225e-05,7.11468e-05,0.000106889,0.000151099,0.000205783,0.000273421,0.000357082,0.000460564,0.00058856,0.000746878,0.000942702,0.00118492,0.00148451,0.00185509,0.00231345,0.00288039,0.00358165,0.00444904,0.00552191,0.00684895,0.00849036,0.0105206,0.0130319,0.016138,0.01998,0.0247322,0.0306102,0.0378807,0.0468736,0.0579969,inf	0.209044,0.209044,0.209044,0.209044,0.32832,0.796854,1.73576,3.48568,6.5543,11.6474,19.686,31.8172,49.4687,74.4815,109.149,155.746,214.819,281.019,337.985,366.076,364.03,347.02,326.991,308.462,293.228,281.926,273.779,266.516,266.516,272.772,272.772,272.772
0.00162293	-32239770.80	0,1.88877e-05,4.225e-05,7.11468e-05,0.000106889,0.000151099,0.000205783,0.000273421,0.000357082,0.000460564,0.00058856,0.000746878,0.000942702,0.00118492,0.00148451,0.00185509,0.00231345,0.00288039,0.00358165,0.00444904,0.00552191,0.00684895,0.00849036,0.0105206,0.0130319,0.016138,0.01998,0.0247322,0.0306102,0.0378807,0.0468736,0.0579969,inf	0.209044,0.209044,0.209044,0.209044,0.209044,0.209047,0.561309,1.394,3.15719,6.5956,12.8024,23.2342,39.7084,64.4506,100.06,149.015,212.088,284.266,348.716,383.206,384.427,368.132,347.287,327.093,310.191,297.848,289.163,281.268,281.268,295.057,295.057,295.057
0.00172022	-32233389.70	0,1.88877e-05,4.225e-05,7.11468e-05,0.000106889,0.000151099,0.000205783,0.000273421,0.000357082,0.000460564,0.00058856,0.000746878,0.000942702,0.00118492,0.00148451,0.00185509,0.00231345,0.00288039,0.00358165,0.00444904,0.00552191,0.00684895,0.00849036,0.0105206,0.0130319,0.016138,0.01998,0.0247322,0.0306102,0.0378807,0.0468736,0.0579969,inf	0.209044,0.209044,0.209044,0.209044,0.209044,0.209044,0.209044,0.632236,1.70863,4.14946,9.13256,18.3467,33.9406,58.4544,94.6691,145.07,210.402,285.815,354.47,393.052,397.109,382.346,361.894,341.19,323.596,311.027,302.472,294.503,294.503,319.207,319.207,319.207
0.00181251	-32228991.08	0,1.88877e-05,4.225e-05,7.11468e-05,0.000106889,0.000151099,0.000205783,0.000273421,0.000357082,0.000460564,0.00058856,0.000746878,0.000942702,0.00118492,0.00148451,0.00185509,0.00231345,0.00288039,0.00358165,0.00444904,0.00552191,0.00684895,0.00849036,0.0105206,0.0130319,0.016138,0.01998,0.0247322,0.0306102,0.0378807,0.0468736,0.0579969,inf	0.209044,0.209044,0.209044,0.209044,0.209044,0.209044,0.209044,0.314728,1.01187,2.83022,6.98783,15.3579,30.3762,54.8369,91.6006,143.02,209.657,286.685,357.433,398.406,404.725,391.791,372.409,351.938,334.325,322.11,314.178,306.578,306.578,346.483,346.483,346.483
0.00190074	-32225617.24	0,1.88877e-05,4.225e-05,7.11468e-05,0.000106889,0.000151099,0.000205783,0.000273421,0.000357082,0.000460564,0.00058856,0.000746878,0.000942702,0.00118492,0.00148451,0.00185509,0.00231345,0.00288039,0.00358165,0.00444904,0.00552191,0.00684895,0.00849036,0.0105206,0.0130319,0.016138,0.01998,0.0247322,0.0306102,0.0378807,0.0468736,0.0579969,inf	0.209044,0.209044,0.209044,0.209044,0.209044,0.209044,0.209044,0.209044,0.64314,2.05555,5.64244,13.435,28.128,52.7185,90.0611,142.275,209.647,287.285,358.753,400.919,408.969,397.915,379.966,360.199,343.027,331.578,324.634,317.78,317.78,378.722,378.722,378.722
0.00198563	-32222832.38	0,1.88877e-05,4.225e-05,7.11468e-05,0.000106889,0.000151099,0.000205783,0.000273421,0.000357082,0.000460564,0.00058856,0.000746878,0.000942702,0.00118492,0.00148451,0.00185509,0.00231345,0.00288039,0.00358165,0.00444904,0.00552191,0.00684895,0.00849036,0.0105206,0.0130319,0.016138,0.01998,0.0247322,0.0306102,0.0378807,0.0468736,0.0579969,inf	0.209044,0.209044,0.209044,0.209044,0.209044,0.209044,0.209044,0.209044,0.432378,1.56848,4.75026,12.1542,26.7164,51.5944,89.5646,142.44,210.18,287.778,359.065,401.591,410.937,401.702,385.363,366.598,350.18,339.789,334.107,328.327,328.327,418.958,418.958,418.958
0.00206774	-32220419.75	0,1.88877e-05,4.225e-05,7.11468e-05,0.000106889,0.000151099,0.000205783,0.000273421,0.000357082,0.000460564,0.00058856,0.000746878,0.000942702,0.00118492,0.00148451,0.00185509,0.00231345,0.00288039,0.00358165,0.00444904,0.00552191,0.00684895,0.00849036,0.0105206,0.0130319,0.016138,0.01998,0.0247322,0.0306102,0.0378807,0.0468736,0.0579969,inf	0.209044,0.209044,0.209044,0.209044,0.209044,0.209044,0.209044,0.209044,0.233053,1.24463,4.13188,11.2824,25.8631,51.1562,89.7979,143.244,211.102,288.227,358.739,401.055,411.351,403.828,389.171,371.587,356.135,347.006,342.799,338.4,338.4,472.936,472.936,472.936
0.00214748	-32218262.22	0,1.88877e-05,4.225e-05,7.11468e-05,0.000106889,0.000151099,0.000205783,0.000273421,0.000357082,0.000460564,0.00058856,0.000746878,0.000942702,0.00118492,0.00148451,0.00185509,0.00231345,0.00288039,0.00358165,0.00444904,0.00552191,0.00684895,0.00849036,0.0105206,0.0130319,0.016138,0.01998,0.0247322,0.0306102,0.0378807,0.0468736,0.0579969,inf	0.209044,0.209044,0.209044,0.209044,0.209044,0.209044,0.209044,0.209044,0.209044,1.01936,3.68819,10.6845,25.3995,51.2075,90.5522,144.497,212.291,288.652,357.997,399.717,410.7,404.766,391.798,375.5,361.154,353.43,350.861,348.14,348.14,554.154,554.154,554.154
0.00222519	-32216294.39	0,1.88877e-05,4.225e-05,7.11468e-05,0.000106889,0.000151099,0.000205783,0.000273421,0.000357082,0.000460564,0.00058856,0.000746878,0.000942702,0.00118492,0.00148451,0.00185509,0.00231345,0.00288039,0.00358165,0.00444904,0.00552191,0.00684895,0.00849036,0.0105206,0.0130319,0.016138,0.01998,0.0247322,0.0306102,0.0378807,0.0468736,0.0579969,inf	0.209044,0.209044,0.209044,0.209044,0.209044,0.209044,0.209044,0.209044,0.209044,0.856388,3.36026,10.2755,25.2144,51.614,91.6809,146.062,213.659,289.054,356.978,397.849,409.317,404.85,393.543,378.583,365.432,359.211,358.412,357.664,357.664,708.543,708.543,708.543
0.00230109	-32214474.91	0,1.88877e-05,4.225e-05,7.11468e-05,0.000106889,0.000151099,0.000205783,0.000273421,0.000357082,0.000460564,0.00058856,0.000746878,0.000942702,0.00118492,0.00148451,0.00185509,0.00231345,0.00288039,0.00358165,0.00444904,0.00552191,0.00684895,0.00849036,0.0105206,0.0130319,0.016138,0.01998,0.0247322,0.0306102,0.0378807,0.0468736,0.0579969,inf	0.209044,0.209044,0.209044,0.209044,0.209044,0.209044,0.209044,0.209044,0.209044,0.734615,3.11226,10.0024,25.2353,52.2845,93.0807,147.843,215.138,289.431,355.776,395.633,407.435,404.32,394.622,381.019,369.118,364.465,365.545,367.078,367.078,1274.89,1274.89,1274.89
0.0023754	-32212777.66	0,1.88877e-05,4.225e-05,7.11468e-05,0.000106889,0.000151099,0.000205783,0.000273421,0.000357082,0.000460564,0.00058856,0.000746878,0.000942702,0.00118492,0.00148451,0.00185509,0.00231345,0.00288039,0.00358165,0.00444904,0.00552191,0.00684895,0.00849036,0.0105206,0.0130319,0.016138,0.01998,0.0247322,0.0306102,0.0378807,0.0468736,0.0579969,inf	0.209044,0.209044,0.209044,0.209044,0.209044,0.209044,0.209044,0.209044,0.209044,0.641186,2.92138,9.82953,25.412,53.1535,94.6769,149.769,216.68,289.779,354.452,393.195,405.216,403.349,395.198,382.949,372.325,369.281,372.331,376.497,376.497,16066.4,16066.4,16066.4
0.0023754	-32211184.91	0,1.88877e-05,4.225e-05,7.11468e-05,0.000106889,0.000151099,0.000205783,0.000273421,0.000357082,0.000460564,0.00058856,0.000746878,0.000942702,0.00118492,0.00148451,0.00185509,0.00231345,0.00288039,0.00358165,0.00444904,0.00552191,0.00684895,0.00849036,0.0105206,0.0130319,0.016138,0.01998,0.0247322,0.0306102,0.0378807,0.0468736,0.0579969,inf	0.209044,0.209044,0.209044,0.209044,0.209044,0.209044,0.209044,0.209044,0.209044,0.564026,2.75378,9.66703,25.5334,53.793,95.7059,150.605,216.447,287.516,349.956,387.728,400.427,400.159,393.794,383.111,373.973,372.732,377.994,385.347,385.347,35535.5,35535.5,35535.5
