time_index	left_time_boundary	right_time_boundary	lambda
0	0	7.71883e-05	0.219917
1	7.71883e-05	0.000167479	0.219917
2	0.000167479	0.000273097	0.219917
3	0.000273097	0.000396644	0.219917
4	0.000396644	0.000541163	0.252931
5	0.000541163	0.000710213	2.29843
6	0.000710213	0.00090796	9.47965
7	0.00090796	0.00113927	25.0689
8	0.00113927	0.00140986	51.8441
9	0.00140986	0.00172637	91.6535
10	0.00172637	0.00209661	143.518
11	0.00209661	0.00252969	205.121
12	0.00252969	0.0030363	273.468
13	0.0030363	0.00362889	341.202
14	0.00362889	0.00432209	394.692
15	0.00432209	0.00513295	422.232
16	0.00513295	0.00608146	424.51
17	0.00608146	0.00719097	411.752
18	0.00719097	0.00848883	393.317
19	0.00848883	0.010007	374.349
20	0.010007	0.0117829	358.356
21	0.0117829	0.0138602	347.42
22	0.0138602	0.0162902	340.707
23	0.0162902	0.0191326	335.927
24	0.0191326	0.0224575	332.174
25	0.0224575	0.0263469	329.253
26	0.0263469	0.0308965	325.389
27	0.0308965	0.0362183	316.81
28	0.0362183	0.0424436	316.81
29	0.0424436	0.0497256	315.034
30	0.0497256	0.0582437	315.034
31	0.0582437	inf	315.034
