8.08397e-06	-6607.90	0,1.14355e-06,2.70828e-06,4.84933e-06,7.77895e-06,1.17876e-05,1.72727e-05,2.4778e-05,3.50477e-05,4.90998e-05,6.83276e-05,9.46372e-05,0.000130637,0.000179896,0.000247298,0.000339525,inf	3370.93,3370.93,7773.7,13784.8,21928,30730.2,39586.3,43005.7,38310.3,31504.4,31120.2,34670.4,36061.9,34327.5,34327.5,34327.5
8.55808e-06	-6603.20	0,1.14355e-06,2.70828e-06,4.84933e-06,7.77895e-06,1.17876e-05,1.72727e-05,2.4778e-05,3.50477e-05,4.90998e-05,6.83276e-05,9.46372e-05,0.000130637,0.000179896,0.000247298,0.000339525,inf	450.548,450.548,2425.34,7435.63,17151.5,29274.9,43284.3,50338.1,41856,30490.5,30268.2,37044.6,40513.7,37465.3,37465.3,37465.3
9.04839e-06	-6601.52	0,1.14355e-06,2.70828e-06,4.84933e-06,7.77895e-06,1.17876e-05,1.72727e-05,2.4778e-05,3.50477e-05,4.90998e-05,6.83276e-05,9.46372e-05,0.000130637,0.000179896,0.000247298,0.000339525,inf	66.7261,66.7261,840.454,4433.02,14315.3,28074.8,45101.1,54993,43612.8,29499,29689.7,39249.7,45354.8,41371.2,41371.2,41371.2
9.54376e-06	-6600.69	0,1.14355e-06,2.70828e-06,4.84933e-06,7.77895e-06,1.17876e-05,1.72727e-05,2.4778e-05,3.50477e-05,4.90998e-05,6.83276e-05,9.46372e-05,0.000130637,0.000179896,0.000247298,0.000339525,inf	32.2081,32.2081,314.051,2833.2,12510.6,27252.1,46131,57981.4,44327.5,28680.5,29361.7,41297.7,50537.3,46022.2,46022.2,46022.2
1.00459e-05	-6600.16	0,1.14355e-06,2.70828e-06,4.84933e-06,7.77895e-06,1.17876e-05,1.72727e-05,2.4778e-05,3.50477e-05,4.90998e-05,6.83276e-05,9.46372e-05,0.000130637,0.000179896,0.000247298,0.000339525,inf	32.2081,32.2081,124.877,1911.11,11314.9,26754.5,46851,59960.2,44465.3,28054.6,29235.9,43214.3,56098.6,51578.7,51578.7,51578.7
1.05567e-05	-6599.76	0,1.14355e-06,2.70828e-06,4.84933e-06,7.77895e-06,1.17876e-05,1.72727e-05,2.4778e-05,3.50477e-05,4.90998e-05,6.83276e-05,9.46372e-05,0.000130637,0.000179896,0.000247298,0.000339525,inf	32.2081,32.2081,52.3676,1346.62,10501.5,26502.2,47455.3,61310.7,44289.3,27595.7,29264.8,45023.4,62144.4,58440.5,58440.5,58440.5
1.1077e-05	-6599.42	0,1.14355e-06,2.70828e-06,4.84933e-06,7.77895e-06,1.17876e-05,1.72727e-05,2.4778e-05,3.50477e-05,4.90998e-05,6.83276e-05,9.46372e-05,0.000130637,0.000179896,0.000247298,0.000339525,inf	32.2081,32.2081,32.2081,984.028,9940.37,26426.9,48020.1,62250.6,43944.9,27269.3,29409,46743.4,68858.6,67506.2,67506.2,67506.2
1.16064e-05	-6599.11	0,1.14355e-06,2.70828e-06,4.84933e-06,7.77895e-06,1.17876e-05,1.72727e-05,2.4778e-05,3.50477e-05,4.90998e-05,6.83276e-05,9.46372e-05,0.000130637,0.000179896,0.000247298,0.000339525,inf	32.2081,32.2081,32.2081,741.558,9552.7,26477.2,48573.7,62907.5,43513.7,27044.2,29637.4,48386.8,76545.6,81176.7,81176.7,81176.7
1.21443e-05	-6598.82	0,1.14355e-06,2.70828e-06,4.84933e-06,7.77895e-06,1.17876e-05,1.72727e-05,2.4778e-05,3.50477e-05,4.90998e-05,6.83276e-05,9.46372e-05,0.000130637,0.000179896,0.000247298,0.000339525,inf	32.2081,32.2081,32.2081,573.915,9288.16,26616.6,49125.1,63359.9,43041.7,26894.9,29925.7,49961.1,85731.8,109640,109640,109640
1.26897e-05	-6598.53	0,1.14355e-06,2.70828e-06,4.84933e-06,7.77895e-06,1.17876e-05,1.72727e-05,2.4778e-05,3.50477e-05,4.90998e-05,6.83276e-05,9.46372e-05,0.000130637,0.000179896,0.000247298,0.000339525,inf	32.2081,32.2081,32.2081,454.624,9114.31,26819.1,49675.5,63658.6,42555.9,26801.2,30254.9,51468.6,97424.1,265227,265227,265227
1.26897e-05	-6598.26	0,1.14355e-06,2.70828e-06,4.84933e-06,7.77895e-06,1.17876e-05,1.72727e-05,2.4778e-05,3.50477e-05,4.90998e-05,6.83276e-05,9.46372e-05,0.000130637,0.000179896,0.000247298,0.000339525,inf	32.2081,32.2081,32.2081,365.973,8959.21,26811.2,49452.9,62876.4,41670.5,26568.9,30420.2,52660.4,113857,4.47926e+06,4.47926e+06,4.47926e+06
