AIC = 2977750.3960311720148

y0 0.89911422907435778473
y0_prime 0
y1 1.0944504031381248055
y1_prime 0
y2 0.93009183322111932402
y2_prime 0
y3 1.5721306466407232172
y3_prime 0
rho 0.0010617370534991910688
rho.alpha 0.22822649037921843851
r_ii 0.99995842505712495552
theta 0.0049422487616877265604
