time_index	left_time_boundary	right_time_boundary	lambda
0	0	3.57865e-06	6916.52
1	3.57865e-06	9.78813e-06	6916.52
2	9.78813e-06	2.05625e-05	33.1419
3	2.05625e-05	3.92575e-05	174.103
4	3.92575e-05	7.1696e-05	199.107
5	7.1696e-05	0.000127982	179.973
6	0.000127982	0.000225645	286.832
7	0.000225645	0.000395106	249.216
8	0.000395106	0.000689144	246.696
9	0.000689144	0.00119934	335.477
10	0.00119934	0.00208461	400.832
11	0.00208461	0.00362068	425.674
12	0.00362068	0.00628597	637.061
13	0.00628597	0.0109106	232.217
14	0.0109106	0.0189351	232.217
15	0.0189351	inf	232.217
