LogLikelihood = -853700.1651241305517

y0 0.84703134111984024202
y0_prime 0
y1 0.96056864174049638727
y1_prime 0
y2 0.95160056727967090584
y2_prime 0
y3 1.6049060701794872763
y3_prime 0
rho 0.0014454978982037791635
rho.alpha 0.48860897899519339926
r_ii 0.99990502421397597921
theta 0.0025142020524159614317
