6.93609e-05	-1904505.17	0,1.78111e-07,4.12727e-07,7.21775e-07,1.12887e-06,1.66511e-06,2.37147e-06,3.30193e-06,4.52758e-06,6.14205e-06,8.26872e-06,1.10701e-05,1.47602e-05,1.96209e-05,2.60237e-05,3.44578e-05,4.55676e-05,6.0202e-05,7.94791e-05,0.000104872,0.00013832,0.00018238,0.000240419,0.000316869,0.000417573,0.000550226,0.000724963,0.000955134,0.00125833,0.00165771,0.00218379,0.00287678,inf	2790.7,2790.7,4315.8,6674.84,7401.26,5977.01,4746.08,4312.85,4147.02,4062.56,3994.7,3931.68,3859.58,3748.62,3631.82,3578.15,3591.83,3630.05,3709.38,3871.66,4091.89,4286.54,4358.12,4295.54,4233.44,4232.31,4255.05,4594.42,4594.42,5172.29,5172.29,5172.29
7.47758e-05	-1904171.32	0,1.78111e-07,4.12727e-07,7.21775e-07,1.12887e-06,1.66511e-06,2.37147e-06,3.30193e-06,4.52758e-06,6.14205e-06,8.26872e-06,1.10701e-05,1.47602e-05,1.96209e-05,2.60237e-05,3.44578e-05,4.55676e-05,6.0202e-05,7.94791e-05,0.000104872,0.00013832,0.00018238,0.000240419,0.000316869,0.000417573,0.000550226,0.000724963,0.000955134,0.00125833,0.00165771,0.00218379,0.00287678,inf	1461.49,1461.49,3475.28,8077.8,10052.1,7087.85,4966.38,4388,4229.9,4169,4105.43,4036.32,3933.16,3740.62,3530.94,3430.04,3432.67,3459.64,3549.27,3781.42,4123.67,4444.21,4567.74,4458.8,4359.49,4376.74,4435.72,5220.19,5220.19,7277.7,7277.7,7277.7
7.95574e-05	-1903982.09	0,1.78111e-07,4.12727e-07,7.21775e-07,1.12887e-06,1.66511e-06,2.37147e-06,3.30193e-06,4.52758e-06,6.14205e-06,8.26872e-06,1.10701e-05,1.47602e-05,1.96209e-05,2.60237e-05,3.44578e-05,4.55676e-05,6.0202e-05,7.94791e-05,0.000104872,0.00013832,0.00018238,0.000240419,0.000316869,0.000417573,0.000550226,0.000724963,0.000955134,0.00125833,0.00165771,0.00218379,0.00287678,inf	673.468,673.468,2466.85,8479.38,11841.9,7521.08,4852.88,4279.14,4200.91,4209.57,4187.15,4146.03,4040.39,3790.13,3510.57,3377.32,3367.33,3369,3445.63,3709.58,4124.35,4526.63,4682,4531.74,4405.45,4445.89,4545.59,5869.9,5869.9,12898,12898,12898
8.38312e-05	-1903854.87	0,1.78111e-07,4.12727e-07,7.21775e-07,1.12887e-06,1.66511e-06,2.37147e-06,3.30193e-06,4.52758e-06,6.14205e-06,8.26872e-06,1.10701e-05,1.47602e-05,1.96209e-05,2.60237e-05,3.44578e-05,4.55676e-05,6.0202e-05,7.94791e-05,0.000104872,0.00013832,0.00018238,0.000240419,0.000316869,0.000417573,0.000550226,0.000724963,0.000955134,0.00125833,0.00165771,0.00218379,0.00287678,inf	296.104,296.104,1670.36,8399.03,13097.4,7588.92,4596.98,4086.89,4105.99,4194.8,4226.51,4229.83,4139.16,3848.72,3518.16,3366.44,3347.54,3320.7,3376.59,3655.48,4116.85,4574.21,4747.07,4557.47,4408.31,4470.64,4612.04,6580.79,6580.79,58612.4,58612.4,58612.4
8.38312e-05	-1903762.23	0,1.78111e-07,4.12727e-07,7.21775e-07,1.12887e-06,1.66511e-06,2.37147e-06,3.30193e-06,4.52758e-06,6.14205e-06,8.26872e-06,1.10701e-05,1.47602e-05,1.96209e-05,2.60237e-05,3.44578e-05,4.55676e-05,6.0202e-05,7.94791e-05,0.000104872,0.00013832,0.00018238,0.000240419,0.000316869,0.000417573,0.000550226,0.000724963,0.000955134,0.00125833,0.00165771,0.00218379,0.00287678,inf	127.168,127.168,1104.29,8050.5,13929.8,7408.11,4257.2,3830.85,3939.94,4100.78,4184.1,4235.57,4168.29,3852.84,3489.79,3332.09,3308.3,3254.03,3287.2,3569.53,4056.13,4545.97,4729.19,4512.98,4350.95,4435.35,4624.91,7371.87,7371.87,585812,585812,585812
8.38312e-05	-1903765.15	0,1.78111e-07,4.12727e-07,7.21775e-07,1.12887e-06,1.66511e-06,2.37147e-06,3.30193e-06,4.52758e-06,6.14205e-06,8.26872e-06,1.10701e-05,1.47602e-05,1.96209e-05,2.60237e-05,3.44578e-05,4.55676e-05,6.0202e-05,7.94791e-05,0.000104872,0.00013832,0.00018238,0.000240419,0.000316869,0.000417573,0.000550226,0.000724963,0.000955134,0.00125833,0.00165771,0.00218379,0.00287678,inf	55.2486,55.2486,735.087,7756.08,14417.7,7329.3,4008.39,3647.71,3830.58,4049.96,4175.24,4270.85,4227.75,3889.34,3496.82,3337.43,3311.69,3231.43,3240.28,3523.27,4030.74,4546.68,4733.72,4482.95,4301.99,4401.58,4640.34,7394.32,7394.32,585812,585812,585812
8.38312e-05	-1903762.28	0,1.78111e-07,4.12727e-07,7.21775e-07,1.12887e-06,1.66511e-06,2.37147e-06,3.30193e-06,4.52758e-06,6.14205e-06,8.26872e-06,1.10701e-05,1.47602e-05,1.96209e-05,2.60237e-05,3.44578e-05,4.55676e-05,6.0202e-05,7.94791e-05,0.000104872,0.00013832,0.00018238,0.000240419,0.000316869,0.000417573,0.000550226,0.000724963,0.000955134,0.00125833,0.00165771,0.00218379,0.00287678,inf	24.253,24.253,492.596,7505.63,14773.6,7310.84,3807.42,3497.7,3739.88,4005.42,4162.95,4297.33,4279.64,3922.05,3498.31,3345.3,3311.69,3223.33,3209.1,3492.5,4019.45,4560.38,4749.13,4462.55,4261.95,4374.49,4661.5,7405.32,7405.32,585812,585812,585812
