AIC = 3107075.2326867561787

y0 1.0884097360826854306
y0_prime 0
y1 1.0577412336204647936
y1_prime 0
y2 0.95614194528597273859
y2_prime 0
y3 1.5263397408374976827
y3_prime 0
rho 0.016675551559894502551
rho.alpha 0.55151915116181515764
r_ii 0.9999842768043829544
theta 0.0050316411421752801209
