AIC = 3111054.0101237939671

y0 0.58562106627919996438
y0_prime 0
y1 0.94452261831704509287
y1_prime 0
y2 1.2598733287174159745
y2_prime 0
y3 1.3749662690152730793
y3_prime 0
rho 0.0052171112829580857523
theta 0.0050316411421752801209
