LogLikelihood = -1439496.4276001744438

y0 1.239670351667943704
y0_prime 0
y1 0.92229774709628264961
y1_prime 0
y2 0.90377207965024852765
y2_prime 0
y3 1.9739011593623585483
y3_prime 0
rho 9.8036957020334285348e-05
theta 0.0047974882423866896386
