LogLikelihood = -826149.37115151213948

y0 1.0392229261710321797
y0_prime 0
y1 1.0404269753506971696
y1_prime 0
y2 0.9948366910589170331
y2_prime 0
y3 1.6291646558121455346
y3_prime 0
rho 0.00050629260907978713199
rho.alpha 0.59521993283801410968
r_ii 0.9999997578661121711
theta 0.0024684508556356956135
