LogLikelihood = -171924.25411133718444

y0 1.0359966667707869448
y0_prime 0
y1 1.0452001056591520012
y1_prime 0
y2 1.0414594195560802348
y2_prime 0
y3 1.7595127117952307216
y3_prime 0
rho 0.00015135717224414233753
rho.alpha 0.56630581252452905083
r_ii 0.99991008775848211343
theta 0.0025875062811927559796
