AIC = 587831.55402358958963

y0 0.71669799736310069171
y0_prime 0
y1 1.082801980870569114
y1_prime 0
y2 0.84461636638129167221
y2_prime 0
y3 1.6387957704536111336
y3_prime 0
rho 0.0021657320206550580328
rho.alpha 0.22404246348338713313
r_ii 0.99995633642567915977
theta 0.0048153842598608834896
