0.00042619	-9827511.77	0,2.71733e-06,7.4323e-06,1.56134e-05,2.98089e-05,5.44401e-05,9.71787e-05,0.000171336,0.000300011,0.000523279,0.000910681,0.00158288,0.00274924,0.00477305,0.00828464,0.0143778,inf	31.6953,31.6953,122.812,275.186,251.562,209.285,223.583,338.381,455.694,553.39,585.045,683.325,697.148,680.916,680.916,680.916
0.000435508	-9824181.12	0,2.71733e-06,7.4323e-06,1.56134e-05,2.98089e-05,5.44401e-05,9.71787e-05,0.000171336,0.000300011,0.000523279,0.000910681,0.00158288,0.00274924,0.00477305,0.00828464,0.0143778,inf	2.67562,2.67562,46.2388,250.544,207.202,134.164,119.422,256.76,413.816,548.842,565.926,721.703,768.202,759.159,759.159,759.159
0.000442303	-9823193.27	0,2.71733e-06,7.4323e-06,1.56134e-05,2.98089e-05,5.44401e-05,9.71787e-05,0.000171336,0.000300011,0.000523279,0.000910681,0.00158288,0.00274924,0.00477305,0.00828464,0.0143778,inf	0.601197,0.601197,20.9986,265.056,208.22,114.404,76.224,221.352,399.843,557.214,547.071,737.089,820.735,840.849,840.849,840.849
0.000447338	-9822781.73	0,2.71733e-06,7.4323e-06,1.56134e-05,2.98089e-05,5.44401e-05,9.71787e-05,0.000171336,0.000300011,0.000523279,0.000910681,0.00158288,0.00274924,0.00477305,0.00828464,0.0143778,inf	0.601197,0.601197,9.93174,279.432,215.986,109.752,53.7218,203.13,395.286,570.318,530.199,741.178,860.116,932.212,932.212,932.212
0.000451234	-9822573.12	0,2.71733e-06,7.4323e-06,1.56134e-05,2.98089e-05,5.44401e-05,9.71787e-05,0.000171336,0.000300011,0.000523279,0.000910681,0.00158288,0.00274924,0.00477305,0.00828464,0.0143778,inf	0.601197,0.601197,4.73559,287.938,222.521,110.248,40.2007,192.717,393.743,584.955,515.531,739.97,890.07,1041.97,1041.97,1041.97
0.000454355	-9822459.47	0,2.71733e-06,7.4323e-06,1.56134e-05,2.98089e-05,5.44401e-05,9.71787e-05,0.000171336,0.000300011,0.000523279,0.000910681,0.00158288,0.00274924,0.00477305,0.00828464,0.0143778,inf	0.601197,0.601197,2.26097,292.015,226.601,112.538,31.2765,186.335,392.679,599.678,502.915,736.415,912.927,1185.38,1185.38,1185.38
0.000456891	-9822402.28	0,2.71733e-06,7.4323e-06,1.56134e-05,2.98089e-05,5.44401e-05,9.71787e-05,0.000171336,0.000300011,0.000523279,0.000910681,0.00158288,0.00274924,0.00477305,0.00828464,0.0143778,inf	0.601197,0.601197,1.08155,293.817,228.685,115.321,25.0053,182.289,391.159,613.823,492.076,731.936,930.176,1396.5,1396.5,1396.5
0.000458923	-9822385.62	0,2.71733e-06,7.4323e-06,1.56134e-05,2.98089e-05,5.44401e-05,9.71787e-05,0.000171336,0.000300011,0.000523279,0.000910681,0.00158288,0.00274924,0.00477305,0.00828464,0.0143778,inf	0.601197,0.601197,0.601242,294.707,229.463,118.057,20.4007,179.746,388.924,627.102,482.735,727.151,942.721,1780.5,1780.5,1780.5
0.000460442	-9822404.99	0,2.71733e-06,7.4323e-06,1.56134e-05,2.98089e-05,5.44401e-05,9.71787e-05,0.000171336,0.000300011,0.000523279,0.000910681,0.00158288,0.00274924,0.00477305,0.00828464,0.0143778,inf	0.601197,0.601197,0.601242,295.534,229.491,120.536,16.9023,178.254,385.99,639.435,474.631,722.164,950.952,2922.39,2922.39,2922.39
0.00046132	-9822473.26	0,2.71733e-06,7.4323e-06,1.56134e-05,2.98089e-05,5.44401e-05,9.71787e-05,0.000171336,0.000300011,0.000523279,0.000910681,0.00158288,0.00274924,0.00477305,0.00828464,0.0143778,inf	0.601197,0.601197,0.601242,296.592,229.186,122.667,14.1858,177.559,382.515,650.79,467.592,716.567,954.497,18122.5,18122.5,18122.5
0.00046132	-9822613.04	0,2.71733e-06,7.4323e-06,1.56134e-05,2.98089e-05,5.44401e-05,9.71787e-05,0.000171336,0.000300011,0.000523279,0.000910681,0.00158288,0.00274924,0.00477305,0.00828464,0.0143778,inf	0.601197,0.601197,0.601242,298.079,228.911,124.453,12.0251,177.462,378.366,661.231,460.83,709.843,953.825,75250.3,75250.3,75250.3
