time_index	left_time_boundary	right_time_boundary	lambda
0	0	9.16169e-05	233.559
1	9.16169e-05	0.000216978	233.559
2	0.000216978	0.000388511	212.018
3	0.000388511	0.000623222	200.485
4	0.000623222	0.000944381	284.205
5	0.000944381	0.00138383	318.354
6	0.00138383	0.00198513	390.25
7	0.00198513	0.0028079	452.317
8	0.0028079	0.00393371	449.024
9	0.00393371	0.00547416	410.549
10	0.00547416	0.007582	442.19
11	0.007582	0.0104662	567.832
12	0.0104662	0.0144126	1409.1
13	0.0144126	0.0198127	56250.9
14	0.0198127	0.0272016	56250.9
15	0.0272016	inf	56250.9
