time_index	left_time_boundary	right_time_boundary	lambda
0	0	1.74066e-06	144.787
1	1.74066e-06	4.03355e-06	144.787
2	4.03355e-06	7.05385e-06	714.269
3	7.05385e-06	1.10323e-05	238.901
4	1.10323e-05	1.6273e-05	448.142
5	1.6273e-05	2.31762e-05	600.553
6	2.31762e-05	3.22695e-05	620.326
7	3.22695e-05	4.42476e-05	688.06
8	4.42476e-05	6.00258e-05	733.849
9	6.00258e-05	8.08096e-05	762.038
10	8.08096e-05	0.000108187	747.746
11	0.000108187	0.00014425	676.654
12	0.00014425	0.000191754	582.012
13	0.000191754	0.000254328	498.813
14	0.000254328	0.000336754	437.711
15	0.000336754	0.000445329	397.029
16	0.000445329	0.000588349	372.062
17	0.000588349	0.000776743	358.132
18	0.000776743	0.0010249	351.619
19	0.0010249	0.00135179	350.188
20	0.00135179	0.00178239	352.373
21	0.00178239	0.00234959	356.937
22	0.00234959	0.00309674	362.476
23	0.00309674	0.00408091	367.513
24	0.00408091	0.00537732	371.129
25	0.00537732	0.00708501	373.84
26	0.00708501	0.00933445	377.642
27	0.00933445	0.0122975	389.184
28	0.0122975	0.0162007	389.184
29	0.0162007	0.021342	425.186
30	0.021342	0.0281145	425.186
31	0.0281145	inf	425.186
