0.000657827	-304569.67	0,9.16463e-05,0.000217047,0.000388635,0.000623422,0.000944684,0.00138427,0.00198577,0.0028088,0.00393497,0.00547592,0.00758443,0.0104695,0.0144173,0.019819,0.0272103,inf	297.958,297.958,287.05,300.496,335.622,365.148,390.846,412.569,435.481,444.936,441.825,442.501,468.984,518.367,518.367,518.367
0.000693405	-304500.47	0,9.16463e-05,0.000217047,0.000388635,0.000623422,0.000944684,0.00138427,0.00198577,0.0028088,0.00393497,0.00547592,0.00758443,0.0104695,0.0144173,0.019819,0.0272103,inf	282.496,282.496,254.271,265.662,314.77,353.436,386.504,415.518,452.882,472.144,468.823,473.694,540.573,706.151,706.151,706.151
0.000726604	-304471.94	0,9.16463e-05,0.000217047,0.000388635,0.000623422,0.000944684,0.00138427,0.00198577,0.0028088,0.00393497,0.00547592,0.00758443,0.0104695,0.0144173,0.019819,0.0272103,inf	284.039,284.039,243.354,250.058,307.974,349.63,383.839,414.381,461.06,489.034,486.673,497.854,620.485,1135.71,1135.71,1135.71
0.000757608	-304454.99	0,9.16463e-05,0.000217047,0.000388635,0.000623422,0.000944684,0.00138427,0.00198577,0.0028088,0.00393497,0.00547592,0.00758443,0.0104695,0.0144173,0.019819,0.0272103,inf	287.564,287.564,239.914,241.657,306.788,349.114,381.98,411.521,464.252,499.429,498.312,516.958,714.441,3602.19,3602.19,3602.19
0.000757608	-304442.71	0,9.16463e-05,0.000217047,0.000388635,0.000623422,0.000944684,0.00138427,0.00198577,0.0028088,0.00393497,0.00547592,0.00758443,0.0104695,0.0144173,0.019819,0.0272103,inf	286.284,286.284,236.591,233.739,304.575,346.159,376.489,403.989,460.376,501.745,502.707,530.074,830.666,56404.5,56404.5,56404.5
0.000757608	-304443.47	0,9.16463e-05,0.000217047,0.000388635,0.000623422,0.000944684,0.00138427,0.00198577,0.0028088,0.00393497,0.00547592,0.00758443,0.0104695,0.0144173,0.019819,0.0272103,inf	286.289,286.289,236.263,228.797,305.569,346.429,374.1,399.015,457.717,503.75,505.655,530.074,830.666,56404.5,56404.5,56404.5
0.000757608	-304443.50	0,9.16463e-05,0.000217047,0.000388635,0.000623422,0.000944684,0.00138427,0.00198577,0.0028088,0.00393497,0.00547592,0.00758443,0.0104695,0.0144173,0.019819,0.0272103,inf	286.289,286.289,236.263,224.693,307.466,347.235,373.064,395.394,455.902,505.908,506.665,530.14,830.666,56404.5,56404.5,56404.5
0.000757608	-304443.54	0,9.16463e-05,0.000217047,0.000388635,0.000623422,0.000944684,0.00138427,0.00198577,0.0028088,0.00393497,0.00547592,0.00758443,0.0104695,0.0144173,0.019819,0.0272103,inf	286.291,286.291,236.263,221.02,309.638,347.242,372.696,392.61,454.602,508.13,507.005,530.14,830.666,56404.5,56404.5,56404.5
0.000757608	-304443.57	0,9.16463e-05,0.000217047,0.000388635,0.000623422,0.000944684,0.00138427,0.00198577,0.0028088,0.00393497,0.00547592,0.00758443,0.0104695,0.0144173,0.019819,0.0272103,inf	286.291,286.291,236.268,217.69,312.037,347.267,372.696,390.388,453.645,510.016,507.005,530.14,830.666,56404.5,56404.5,56404.5
0.000757608	-304443.59	0,9.16463e-05,0.000217047,0.000388635,0.000623422,0.000944684,0.00138427,0.00198577,0.0028088,0.00393497,0.00547592,0.00758443,0.0104695,0.0144173,0.019819,0.0272103,inf	286.291,286.291,236.268,214.596,312.037,348.921,372.696,388.555,452.928,511.519,507.005,530.14,830.666,56404.5,56404.5,56404.5
0.000757608	-304443.62	0,9.16463e-05,0.000217047,0.000388635,0.000623422,0.000944684,0.00138427,0.00198577,0.0028088,0.00393497,0.00547592,0.00758443,0.0104695,0.0144173,0.019819,0.0272103,inf	286.296,286.296,236.268,211.887,312.037,350.369,372.696,386.971,452.375,512.769,507.005,530.14,830.666,56404.5,56404.5,56404.5
0.000757608	-304443.65	0,9.16463e-05,0.000217047,0.000388635,0.000623422,0.000944684,0.00138427,0.00198577,0.0028088,0.00393497,0.00547592,0.00758443,0.0104695,0.0144173,0.019819,0.0272103,inf	286.305,286.305,236.268,209.511,313.773,350.369,372.696,385.595,451.96,513.807,507.005,530.14,830.666,56404.5,56404.5,56404.5
0.000757608	-304443.67	0,9.16463e-05,0.000217047,0.000388635,0.000623422,0.000944684,0.00138427,0.00198577,0.0028088,0.00393497,0.00547592,0.00758443,0.0104695,0.0144173,0.019819,0.0272103,inf	286.307,286.307,236.268,207.287,313.773,351.556,372.696,384.435,451.674,514.636,507.005,530.14,830.666,56404.5,56404.5,56404.5
0.000757608	-304443.69	0,9.16463e-05,0.000217047,0.000388635,0.000623422,0.000944684,0.00138427,0.00198577,0.0028088,0.00393497,0.00547592,0.00758443,0.0104695,0.0144173,0.019819,0.0272103,inf	286.307,286.307,236.269,205.329,313.773,352.602,372.696,383.41,451.471,515.332,507.005,530.14,830.666,56404.5,56404.5,56404.5
0.000757608	-304443.72	0,9.16463e-05,0.000217047,0.000388635,0.000623422,0.000944684,0.00138427,0.00198577,0.0028088,0.00393497,0.00547592,0.00758443,0.0104695,0.0144173,0.019819,0.0272103,inf	286.311,286.311,236.269,203.603,315.035,352.602,372.696,382.498,451.339,515.915,507.005,530.14,830.666,56404.5,56404.5,56404.5
0.000757608	-304443.73	0,9.16463e-05,0.000217047,0.000388635,0.000623422,0.000944684,0.00138427,0.00198577,0.0028088,0.00393497,0.00547592,0.00758443,0.0104695,0.0144173,0.019819,0.0272103,inf	286.317,286.317,236.269,201.981,315.035,353.468,372.696,381.721,451.3,515.915,507.329,530.14,830.666,56404.5,56404.5,56404.5
0.000757608	-304443.76	0,9.16463e-05,0.000217047,0.000388635,0.000623422,0.000944684,0.00138427,0.00198577,0.0028088,0.00393497,0.00547592,0.00758443,0.0104695,0.0144173,0.019819,0.0272103,inf	286.322,286.322,236.269,200.545,316.085,353.468,372.696,381.028,451.312,516.276,507.329,530.14,830.666,56404.5,56404.5,56404.5
0.000757608	-304443.77	0,9.16463e-05,0.000217047,0.000388635,0.000623422,0.000944684,0.00138427,0.00198577,0.0028088,0.00393497,0.00547592,0.00758443,0.0104695,0.0144173,0.019819,0.0272103,inf	286.327,286.327,236.269,199.193,317.073,353.468,372.696,380.422,451.367,516.56,507.329,530.14,830.666,56404.5,56404.5,56404.5
0.000757608	-304443.77	0,9.16463e-05,0.000217047,0.000388635,0.000623422,0.000944684,0.00138427,0.00198577,0.0028088,0.00393497,0.00547592,0.00758443,0.0104695,0.0144173,0.019819,0.0272103,inf	286.327,286.327,236.273,197.918,318.005,353.468,372.696,379.887,451.455,516.769,507.338,530.14,830.666,56404.5,56404.5,56404.5
0.000757608	-304443.78	0,9.16463e-05,0.000217047,0.000388635,0.000623422,0.000944684,0.00138427,0.00198577,0.0028088,0.00393497,0.00547592,0.00758443,0.0104695,0.0144173,0.019819,0.0272103,inf	286.328,286.328,236.273,196.716,318.883,353.468,372.696,379.41,451.568,516.941,507.338,530.14,830.666,56404.5,56404.5,56404.5
