time_index	left_time_boundary	right_time_boundary	lambda
0	0	4.97661e-06	416.683
1	4.97661e-06	1.14136e-05	416.683
2	1.14136e-05	1.97393e-05	416.683
3	1.97393e-05	3.05082e-05	416.683
4	3.05082e-05	4.44372e-05	416.683
5	4.44372e-05	6.24534e-05	416.683
6	6.24534e-05	8.57562e-05	416.683
7	8.57562e-05	0.000115897	416.683
8	0.000115897	0.000154882	416.683
9	0.000154882	0.000205307	416.683
10	0.000205307	0.000270529	416.683
11	0.000270529	0.000354889	416.683
12	0.000354889	0.000464004	416.683
13	0.000464004	0.000605138	416.683
14	0.000605138	0.000787685	416.683
15	0.000787685	0.0010238	416.683
16	0.0010238	0.0013292	416.683
17	0.0013292	0.00172421	416.683
18	0.00172421	0.00223514	416.683
19	0.00223514	0.00289599	416.683
20	0.00289599	0.00375077	416.683
21	0.00375077	0.00485636	416.683
22	0.00485636	0.00628638	416.683
23	0.00628638	0.00813603	416.683
24	0.00813603	0.0105284	416.683
25	0.0105284	0.0136229	416.683
26	0.0136229	0.0176253	416.683
27	0.0176253	0.0228022	416.683
28	0.0228022	0.0294983	416.683
29	0.0294983	inf	416.683
