0.000657369	-13604710.43	0,4.03355e-06,1.10323e-05,2.31762e-05,4.42476e-05,8.08096e-05,0.00014425,0.000254328,0.000445329,0.000776743,0.00135179,0.00234959,0.00408091,0.00708501,0.0122975,0.021342,inf	221.508,221.508,339.754,288.249,297.277,294.305,295.098,294.571,315.191,343.07,389.152,427.971,427.645,466.389,466.389,466.389
0.000697304	-13601767.78	0,4.03355e-06,1.10323e-05,2.31762e-05,4.42476e-05,8.08096e-05,0.00014425,0.000254328,0.000445329,0.000776743,0.00135179,0.00234959,0.00408091,0.00708501,0.0122975,0.021342,inf	163.466,163.466,365.734,267.921,285.166,277.476,275.478,265.767,290.77,323.461,385.229,439.278,438.22,525.371,525.371,525.371
0.000734219	-13600589.56	0,4.03355e-06,1.10323e-05,2.31762e-05,4.42476e-05,8.08096e-05,0.00014425,0.000254328,0.000445329,0.000776743,0.00135179,0.00234959,0.00408091,0.00708501,0.0122975,0.021342,inf	128.085,128.085,393.868,257.261,286.259,276.877,274.926,256.879,283.7,315.649,384.067,443.937,441.496,583.232,583.232,583.232
0.00076839	-13599892.35	0,4.03355e-06,1.10323e-05,2.31762e-05,4.42476e-05,8.08096e-05,0.00014425,0.000254328,0.000445329,0.000776743,0.00135179,0.00234959,0.00408091,0.00708501,0.0122975,0.021342,inf	104.025,104.025,413.846,245.893,287.475,277.961,278.436,254.042,282.553,312.225,383.906,445.201,440.604,641.762,641.762,641.762
0.000800277	-13599409.76	0,4.03355e-06,1.10323e-05,2.31762e-05,4.42476e-05,8.08096e-05,0.00014425,0.000254328,0.000445329,0.000776743,0.00135179,0.00234959,0.00408091,0.00708501,0.0122975,0.021342,inf	88.5119,88.5119,427.958,234.127,287.544,278.048,282.179,253.151,283.633,310.708,384.271,444.783,437.314,702.961,702.961,702.961
0.000830223	-13599052.51	0,4.03355e-06,1.10323e-05,2.31762e-05,4.42476e-05,8.08096e-05,0.00014425,0.000254328,0.000445329,0.000776743,0.00135179,0.00234959,0.00408091,0.00708501,0.0122975,0.021342,inf	78.2014,78.2014,438.85,222.951,287.112,277.127,285.297,252.865,285.549,310.094,384.973,443.542,432.61,769.301,769.301,769.301
0.000858462	-13598781.81	0,4.03355e-06,1.10323e-05,2.31762e-05,4.42476e-05,8.08096e-05,0.00014425,0.000254328,0.000445329,0.000776743,0.00135179,0.00234959,0.00408091,0.00708501,0.0122975,0.021342,inf	71.4651,71.4651,447.937,212.779,286.745,275.625,287.754,252.741,287.736,309.928,385.9,441.9,427.031,844.259,844.259,844.259
0.000885142	-13598578.28	0,4.03355e-06,1.10323e-05,2.31762e-05,4.42476e-05,8.08096e-05,0.00014425,0.000254328,0.000445329,0.000776743,0.00135179,0.00234959,0.00408091,0.00708501,0.0122975,0.021342,inf	66.9274,66.9274,455.812,203.625,286.716,273.899,289.7,252.645,289.952,309.981,386.977,440.051,420.875,933.378,933.378,933.378
0.000910355	-13598432.21	0,4.03355e-06,1.10323e-05,2.31762e-05,4.42476e-05,8.08096e-05,0.00014425,0.000254328,0.000445329,0.000776743,0.00135179,0.00234959,0.00408091,0.00708501,0.0122975,0.021342,inf	63.8592,63.8592,462.707,195.346,287.086,272.16,291.285,252.547,292.098,310.138,388.149,438.07,414.286,1046.75,1046.75,1046.75
0.000934143	-13598340.39	0,4.03355e-06,1.10323e-05,2.31762e-05,4.42476e-05,8.08096e-05,0.00014425,0.000254328,0.000445329,0.000776743,0.00135179,0.00234959,0.00408091,0.00708501,0.0122975,0.021342,inf	61.4453,61.4453,468.683,187.778,287.819,270.522,292.629,252.451,294.133,310.335,389.371,435.953,407.312,1206.09,1206.09,1206.09
0.000956483	-13598307.20	0,4.03355e-06,1.10323e-05,2.31762e-05,4.42476e-05,8.08096e-05,0.00014425,0.000254328,0.000445329,0.000776743,0.00135179,0.00234959,0.00408091,0.00708501,0.0122975,0.021342,inf	59.5084,59.5084,473.85,180.792,288.841,269.027,293.814,252.367,296.05,310.545,390.607,433.628,399.911,1471,1471,1471
0.000977259	-13598352.14	0,4.03355e-06,1.10323e-05,2.31762e-05,4.42476e-05,8.08096e-05,0.00014425,0.000254328,0.000445329,0.000776743,0.00135179,0.00234959,0.00408091,0.00708501,0.0122975,0.021342,inf	57.9943,57.9943,478.205,174.27,290.075,267.689,294.893,252.31,297.857,310.756,391.805,430.915,391.926,2076.91,2076.91,2076.91
0.00099618	-13598534.73	0,4.03355e-06,1.10323e-05,2.31762e-05,4.42476e-05,8.08096e-05,0.00014425,0.000254328,0.000445329,0.000776743,0.00135179,0.00234959,0.00408091,0.00708501,0.0122975,0.021342,inf	56.6914,56.6914,481.616,168.117,291.438,266.499,295.912,252.299,299.581,310.973,392.873,427.419,383.014,4271.18,4271.18,4271.18
0.001013	-13598904.94	0,4.03355e-06,1.10323e-05,2.31762e-05,4.42476e-05,8.08096e-05,0.00014425,0.000254328,0.000445329,0.000776743,0.00135179,0.00234959,0.00408091,0.00708501,0.0122975,0.021342,inf	55.5525,55.5525,484.113,162.292,292.875,265.443,296.894,252.341,301.259,311.235,393.772,422.8,373.05,14023.2,14023.2,14023.2
0.001013	-13599158.51	0,4.03355e-06,1.10323e-05,2.31762e-05,4.42476e-05,8.08096e-05,0.00014425,0.000254328,0.000445329,0.000776743,0.00135179,0.00234959,0.00408091,0.00708501,0.0122975,0.021342,inf	54.6577,54.6577,484.871,156.285,293.231,263.402,296.565,251.311,301.684,310.293,392.359,415.396,362.036,50809.7,50809.7,50809.7
0.001013	-13599286.76	0,4.03355e-06,1.10323e-05,2.31762e-05,4.42476e-05,8.08096e-05,0.00014425,0.000254328,0.000445329,0.000776743,0.00135179,0.00234959,0.00408091,0.00708501,0.0122975,0.021342,inf	54.2674,54.2674,484.871,151.509,294.611,261.862,296.492,250.493,302.575,310.329,392.359,410.536,352.248,50812.3,50812.3,50812.3
0.001013	-13599283.23	0,4.03355e-06,1.10323e-05,2.31762e-05,4.42476e-05,8.08096e-05,0.00014425,0.000254328,0.000445329,0.000776743,0.00135179,0.00234959,0.00408091,0.00708501,0.0122975,0.021342,inf	54.2674,54.2674,484.877,147.533,296.47,260.575,296.446,249.55,303.384,310.329,392.373,407.851,343.694,50814.5,50814.5,50814.5
0.001013	-13599279.96	0,4.03355e-06,1.10323e-05,2.31762e-05,4.42476e-05,8.08096e-05,0.00014425,0.000254328,0.000445329,0.000776743,0.00135179,0.00234959,0.00408091,0.00708501,0.0122975,0.021342,inf	54.2674,54.2674,484.878,144.089,298.455,259.488,296.493,248.556,304.115,310.349,392.373,406.667,336.096,50816.2,50816.2,50816.2
0.001013	-13599273.18	0,4.03355e-06,1.10323e-05,2.31762e-05,4.42476e-05,8.08096e-05,0.00014425,0.000254328,0.000445329,0.000776743,0.00135179,0.00234959,0.00408091,0.00708501,0.0122975,0.021342,inf	54.2674,54.2674,484.884,141.027,300.22,258.544,296.629,247.565,304.115,310.757,392.373,406.512,329.258,50817.7,50817.7,50817.7
0.001013	-13599261.82	0,4.03355e-06,1.10323e-05,2.31762e-05,4.42476e-05,8.08096e-05,0.00014425,0.000254328,0.000445329,0.000776743,0.00135179,0.00234959,0.00408091,0.00708501,0.0122975,0.021342,inf	54.2674,54.2674,484.892,138.291,301.797,257.774,296.978,246.659,304.668,310.757,392.373,406.512,323.062,50819,50819,50819
