time_index	left_time_boundary	right_time_boundary	lambda
0	0	1.49954e-06	1.08946
1	1.49954e-06	4.10147e-06	1.08946
2	4.10147e-06	8.61618e-06	562.562
3	8.61618e-06	1.64499e-05	373.997
4	1.64499e-05	3.00424e-05	206.542
5	3.00424e-05	5.36275e-05	299.032
6	5.36275e-05	9.45509e-05	313.768
7	9.45509e-05	0.000165559	251.509
8	0.000165559	0.000288768	300.628
9	0.000288768	0.000502554	465.49
10	0.000502554	0.000873503	1073.86
11	0.000873503	0.00151715	2784.47
12	0.00151715	0.00263398	2732.49
13	0.00263398	0.00457183	523.149
14	0.00457183	0.00793429	523.149
15	0.00793429	inf	523.149
