0.000236545	-6014735.62	0,6.47123e-07,1.49954e-06,2.6224e-06,4.10147e-06,6.04978e-06,8.61618e-06,1.19968e-05,1.64499e-05,2.23157e-05,3.00424e-05,4.02205e-05,5.36275e-05,7.12878e-05,9.45509e-05,0.000125194,0.000165559,0.00021873,0.000288768,0.000381027,0.000502554,0.000662636,0.000873503,0.00115127,0.00151715,0.00199912,0.00263398,0.00347025,0.00457183,0.00602289,0.00793429,0.0104521,inf	99.4543,99.4543,213.129,308.685,377.741,405.569,396.366,370.241,351.102,350.043,357.361,365.471,377.142,394.129,419.831,459.997,520.836,608.603,733.888,913.121,1159.03,1434.81,1601.13,1588.53,1500.3,1406.79,1321.9,1249.73,1249.73,1226.2,1226.2,1226.2
0.0002473	-6004651.31	0,6.47123e-07,1.49954e-06,2.6224e-06,4.10147e-06,6.04978e-06,8.61618e-06,1.19968e-05,1.64499e-05,2.23157e-05,3.00424e-05,4.02205e-05,5.36275e-05,7.12878e-05,9.45509e-05,0.000125194,0.000165559,0.00021873,0.000288768,0.000381027,0.000502554,0.000662636,0.000873503,0.00115127,0.00151715,0.00199912,0.00263398,0.00347025,0.00457183,0.00602289,0.00793429,0.0104521,inf	25.5259,25.5259,117.928,247.463,369.109,421.378,395.235,335.032,290.31,276.877,273.658,267.446,263.395,263.162,271.201,295.873,346.391,432.332,570.436,789.024,1125.29,1576.39,1939.49,1984.9,1854.73,1683.06,1504.5,1355.27,1355.27,1337.98,1337.98,1337.98
0.000257227	-6001215.78	0,6.47123e-07,1.49954e-06,2.6224e-06,4.10147e-06,6.04978e-06,8.61618e-06,1.19968e-05,1.64499e-05,2.23157e-05,3.00424e-05,4.02205e-05,5.36275e-05,7.12878e-05,9.45509e-05,0.000125194,0.000165559,0.00021873,0.000288768,0.000381027,0.000502554,0.000662636,0.000873503,0.00115127,0.00151715,0.00199912,0.00263398,0.00347025,0.00457183,0.00602289,0.00793429,0.0104521,inf	7.21333,7.21333,71.6916,218.7,401.161,495.498,458.99,367.554,304.307,287.476,280.788,265.35,249.726,235.329,227.956,237.867,275.034,349.668,481.637,705.999,1075.97,1625.99,2153.89,2283.1,2144.8,1908.12,1624.07,1395.67,1395.67,1405.01,1405.01,1405.01
0.00026594	-5999753.64	0,6.47123e-07,1.49954e-06,2.6224e-06,4.10147e-06,6.04978e-06,8.61618e-06,1.19968e-05,1.64499e-05,2.23157e-05,3.00424e-05,4.02205e-05,5.36275e-05,7.12878e-05,9.45509e-05,0.000125194,0.000165559,0.00021873,0.000288768,0.000381027,0.000502554,0.000662636,0.000873503,0.00115127,0.00151715,0.00199912,0.00263398,0.00347025,0.00457183,0.00602289,0.00793429,0.0104521,inf	1.43031,1.43031,40.0184,177.674,402.536,543.169,505.853,393.014,320.917,308.97,305.743,286.425,263.286,237.529,217.397,215.687,242.301,306.511,429.377,649.735,1031.07,1636.74,2292.08,2507.55,2379.57,2084.59,1683.04,1380.86,1380.86,1420.97,1420.97,1420.97
0.000273627	-5999026.22	0,6.47123e-07,1.49954e-06,2.6224e-06,4.10147e-06,6.04978e-06,8.61618e-06,1.19968e-05,1.64499e-05,2.23157e-05,3.00424e-05,4.02205e-05,5.36275e-05,7.12878e-05,9.45509e-05,0.000125194,0.000165559,0.00021873,0.000288768,0.000381027,0.000502554,0.000662636,0.000873503,0.00115127,0.00151715,0.00199912,0.00263398,0.00347025,0.00457183,0.00602289,0.00793429,0.0104521,inf	1.08948,1.08948,21.0059,135.579,378.947,558.93,524.936,398.688,324.775,322.736,328.292,310.404,284.086,249.86,219.186,208.272,226.9,282.755,397.041,610.596,993.722,1630.94,2383.53,2679.13,2570.15,2218.82,1693,1331.03,1331.03,1395.47,1395.47,1395.47
0.000280512	-5998619.09	0,6.47123e-07,1.49954e-06,2.6224e-06,4.10147e-06,6.04978e-06,8.61618e-06,1.19968e-05,1.64499e-05,2.23157e-05,3.00424e-05,4.02205e-05,5.36275e-05,7.12878e-05,9.45509e-05,0.000125194,0.000165559,0.00021873,0.000288768,0.000381027,0.000502554,0.000662636,0.000873503,0.00115127,0.00151715,0.00199912,0.00263398,0.00347025,0.00457183,0.00602289,0.00793429,0.0104521,inf	1.08943,1.08943,10.821,101.3,348.176,558.732,526.856,389.926,316.664,325.571,342.36,329.92,304.492,264.881,225.85,207.683,220.257,269.555,376.438,582.693,963.301,1618.23,2445.42,2812.75,2726.08,2318,1669.1,1265.68,1265.68,1345.95,1345.95,1345.95
0.000286774	-5998369.12	0,6.47123e-07,1.49954e-06,2.6224e-06,4.10147e-06,6.04978e-06,8.61618e-06,1.19968e-05,1.64499e-05,2.23157e-05,3.00424e-05,4.02205e-05,5.36275e-05,7.12878e-05,9.45509e-05,0.000125194,0.000165559,0.00021873,0.000288768,0.000381027,0.000502554,0.000662636,0.000873503,0.00115127,0.00151715,0.00199912,0.00263398,0.00347025,0.00457183,0.00602289,0.00793429,0.0104521,inf	1.08943,1.08943,5.61555,76.1273,320.414,556.457,523.133,374.585,301.586,319.861,347.784,342.897,321.465,279.373,234.138,210.398,218.403,262.542,363.163,562.401,938.537,1602.95,2487.97,2918.68,2854.87,2389.14,1625.45,1198.16,1198.16,1287.72,1287.72,1287.72
0.000292548	-5998203.64	0,6.47123e-07,1.49954e-06,2.6224e-06,4.10147e-06,6.04978e-06,8.61618e-06,1.19968e-05,1.64499e-05,2.23157e-05,3.00424e-05,4.02205e-05,5.36275e-05,7.12878e-05,9.45509e-05,0.000125194,0.000165559,0.00021873,0.000288768,0.000381027,0.000502554,0.000662636,0.000873503,0.00115127,0.00151715,0.00199912,0.00263398,0.00347025,0.00457183,0.00602289,0.00793429,0.0104521,inf	1.08943,1.08943,2.96697,58.1465,298.65,558.589,520.501,358.07,283.928,309.121,346.566,349.673,334.133,291.948,242.497,214.667,219.291,259.35,354.675,547.412,918.248,1587.1,2517.46,3004.02,2962.32,2438.47,1572.81,1135.65,1135.65,1230.17,1230.17,1230.17
0.00029793	-5998087.01	0,6.47123e-07,1.49954e-06,2.6224e-06,4.10147e-06,6.04978e-06,8.61618e-06,1.19968e-05,1.64499e-05,2.23157e-05,3.00424e-05,4.02205e-05,5.36275e-05,7.12878e-05,9.45509e-05,0.000125194,0.000165559,0.00021873,0.000288768,0.000381027,0.000502554,0.000662636,0.000873503,0.00115127,0.00151715,0.00199912,0.00263398,0.00347025,0.00457183,0.00602289,0.00793429,0.0104521,inf	1.08943,1.08943,1.59071,45.143,282.271,566.755,521.382,342.908,266.386,296.264,341.086,351.501,342.66,302.137,250.177,219.551,221.774,258.606,349.419,536.216,901.478,1571.6,2537.89,3073.74,3052.84,2471.25,1518.33,1081.1,1081.1,1177.76,1177.76,1177.76
0.00030299	-5998000.36	0,6.47123e-07,1.49954e-06,2.6224e-06,4.10147e-06,6.04978e-06,8.61618e-06,1.19968e-05,1.64499e-05,2.23157e-05,3.00424e-05,4.02205e-05,5.36275e-05,7.12878e-05,9.45509e-05,0.000125194,0.000165559,0.00021873,0.000288768,0.000381027,0.000502554,0.000662636,0.000873503,0.00115127,0.00151715,0.00199912,0.00263398,0.00347025,0.00457183,0.00602289,0.00793429,0.0104521,inf	1.08943,1.08943,1.08952,35.4946,269.619,580.237,526.082,329.969,250.318,283.188,333.342,349.818,347.672,309.939,256.845,224.523,225.172,259.464,346.404,527.789,887.487,1556.87,2551.89,3131.41,3129.81,2491.73,1466.18,1035.07,1035.07,1131.98,1131.98,1131.98
0.000307783	-5997933.10	0,6.47123e-07,1.49954e-06,2.6224e-06,4.10147e-06,6.04978e-06,8.61618e-06,1.19968e-05,1.64499e-05,2.23157e-05,3.00424e-05,4.02205e-05,5.36275e-05,7.12878e-05,9.45509e-05,0.000125194,0.000165559,0.00021873,0.000288768,0.000381027,0.000502554,0.000662636,0.000873503,0.00115127,0.00151715,0.00199912,0.00263398,0.00347025,0.00457183,0.00602289,0.00793429,0.0104521,inf	1.08943,1.08943,1.08945,28.0953,259.064,597.455,533.845,319.283,236.186,271.005,324.78,345.886,349.926,315.57,262.394,229.291,229.058,261.381,344.973,521.423,875.707,1543.04,2561.23,3179.63,3195.83,2503.21,1418.45,996.997,996.997,1092.9,1092.9,1092.9
0.000312348	-5997878.93	0,6.47123e-07,1.49954e-06,2.6224e-06,4.10147e-06,6.04978e-06,8.61618e-06,1.19968e-05,1.64499e-05,2.23157e-05,3.00424e-05,4.02205e-05,5.36275e-05,7.12878e-05,9.45509e-05,0.000125194,0.000165559,0.00021873,0.000288768,0.000381027,0.000502554,0.000662636,0.000873503,0.00115127,0.00151715,0.00199912,0.00263398,0.00347025,0.00457183,0.00602289,0.00793429,0.0104521,inf	1.08943,1.08943,1.08945,22.2875,249.441,616.662,543.754,310.52,224.059,260.229,316.306,340.671,350.118,319.346,266.832,233.69,233.164,263.999,344.676,516.612,865.703,1530.17,2567.15,3220.3,3252.9,2508.21,1375.97,965.902,965.902,1059.93,1059.93,1059.93
0.000316715	-5997833.97	0,6.47123e-07,1.49954e-06,2.6224e-06,4.10147e-06,6.04978e-06,8.61618e-06,1.19968e-05,1.64499e-05,2.23157e-05,3.00424e-05,4.02205e-05,5.36275e-05,7.12878e-05,9.45509e-05,0.000125194,0.000165559,0.00021873,0.000288768,0.000381027,0.000502554,0.000662636,0.000873503,0.00115127,0.00151715,0.00199912,0.00263398,0.00347025,0.00457183,0.00602289,0.00793429,0.0104521,inf	1.08943,1.08943,1.08945,17.6419,239.835,636.302,554.884,303.296,213.779,251.027,308.459,334.881,348.86,321.589,270.239,237.64,237.316,267.069,345.199,512.992,857.138,1518.2,2570.52,3254.9,3302.58,2508.6,1338.82,940.706,940.706,1032.25,1032.25,1032.25
0.000320908	-5997795.71	0,6.47123e-07,1.49954e-06,2.6224e-06,4.10147e-06,6.04978e-06,8.61618e-06,1.19968e-05,1.64499e-05,2.23157e-05,3.00424e-05,4.02205e-05,5.36275e-05,7.12878e-05,9.45509e-05,0.000125194,0.000165559,0.00021873,0.000288768,0.000381027,0.000502554,0.000662636,0.000873503,0.00115127,0.00151715,0.00199912,0.00263398,0.00347025,0.00457183,0.00602289,0.00793429,0.0104521,inf	1.08943,1.08943,1.08945,13.9166,229.878,655.321,566.475,297.286,205.118,243.39,301.524,328.999,346.644,322.614,272.72,241.114,241.4,270.423,346.316,510.293,849.751,1507.1,2571.97,3284.52,3346.11,2505.76,1306.71,920.41,920.41,1009.06,1009.06,1009.06
0.000324946	-5997762.51	0,6.47123e-07,1.49954e-06,2.6224e-06,4.10147e-06,6.04978e-06,8.61618e-06,1.19968e-05,1.64499e-05,2.23157e-05,3.00424e-05,4.02205e-05,5.36275e-05,7.12878e-05,9.45509e-05,0.000125194,0.000165559,0.00021873,0.000288768,0.000381027,0.000502554,0.000662636,0.000873503,0.00115127,0.00151715,0.00199912,0.00263398,0.00347025,0.00457183,0.00602289,0.00793429,0.0104521,inf	1.08943,1.08943,1.08945,10.9291,219.396,672.875,578.032,292.183,197.834,237.206,295.604,323.325,343.827,322.686,274.396,244.112,245.345,273.941,347.865,508.315,843.337,1496.79,2571.97,3310.04,3384.46,2500.67,1279.13,904.131,904.131,989.663,989.663,989.663
0.000328844	-5997733.22	0,6.47123e-07,1.49954e-06,2.6224e-06,4.10147e-06,6.04978e-06,8.61618e-06,1.19968e-05,1.64499e-05,2.23157e-05,3.00424e-05,4.02205e-05,5.36275e-05,7.12878e-05,9.45509e-05,0.000125194,0.000165559,0.00021873,0.000288768,0.000381027,0.000502554,0.000662636,0.000873503,0.00115127,0.00151715,0.00199912,0.00263398,0.00347025,0.00457183,0.00602289,0.00793429,0.0104521,inf	1.08943,1.08943,1.08945,8.54705,208.425,688.537,589.212,287.761,191.695,232.324,290.705,318.037,340.688,322.034,275.382,246.652,249.108,277.539,349.728,506.906,837.735,1487.21,2570.85,3332.13,3418.42,2494.09,1255.58,891.128,891.128,973.411,973.411,973.411
0.000332616	-5997707.05	0,6.47123e-07,1.49954e-06,2.6224e-06,4.10147e-06,6.04978e-06,8.61618e-06,1.19968e-05,1.64499e-05,2.23157e-05,3.00424e-05,4.02205e-05,5.36275e-05,7.12878e-05,9.45509e-05,0.000125194,0.000165559,0.00021873,0.000288768,0.000381027,0.000502554,0.000662636,0.000873503,0.00115127,0.00151715,0.00199912,0.00263398,0.00347025,0.00457183,0.00602289,0.00793429,0.0104521,inf	1.08943,1.08943,1.08945,6.65209,197.126,702.091,599.752,283.832,186.517,228.564,286.772,313.223,337.429,320.845,275.794,248.766,252.664,281.156,351.813,505.947,832.815,1478.29,2568.9,3351.35,3448.63,2486.52,1235.52,880.794,880.794,959.769,959.769,959.769
0.00033627	-5997683.42	0,6.47123e-07,1.49954e-06,2.6224e-06,4.10147e-06,6.04978e-06,8.61618e-06,1.19968e-05,1.64499e-05,2.23157e-05,3.00424e-05,4.02205e-05,5.36275e-05,7.12878e-05,9.45509e-05,0.000125194,0.000165559,0.00021873,0.000288768,0.000381027,0.000502554,0.000662636,0.000873503,0.00115127,0.00151715,0.00199912,0.00263398,0.00347025,0.00457183,0.00602289,0.00793429,0.0104521,inf	1.08943,1.08943,1.08945,5.14813,185.702,713.491,609.481,280.269,182.105,225.77,283.717,308.929,334.181,319.278,275.723,250.488,256.001,284.75,354.055,505.349,828.472,1469.98,2566.29,3368.13,3475.61,2478.34,1218.47,872.629,872.629,948.299,948.299,948.299
0.000339816	-5997661.90	0,6.47123e-07,1.49954e-06,2.6224e-06,4.10147e-06,6.04978e-06,8.61618e-06,1.19968e-05,1.64499e-05,2.23157e-05,3.00424e-05,4.02205e-05,5.36275e-05,7.12878e-05,9.45509e-05,0.000125194,0.000165559,0.00021873,0.000288768,0.000381027,0.000502554,0.000662636,0.000873503,0.00115127,0.00151715,0.00199912,0.00263398,0.00347025,0.00457183,0.00602289,0.00793429,0.0104521,inf	1.08943,1.08943,1.08945,3.96985,174.23,722.877,618.386,276.945,178.314,223.795,281.44,305.14,331.036,317.445,275.26,251.861,259.116,288.291,356.404,505.041,824.621,1462.22,2563.2,3382.83,3499.78,2469.83,1204.02,866.217,866.217,938.64,938.64,938.64
0.000343261	-5997642.17	0,6.47123e-07,1.49954e-06,2.6224e-06,4.10147e-06,6.04978e-06,8.61618e-06,1.19968e-05,1.64499e-05,2.23157e-05,3.00424e-05,4.02205e-05,5.36275e-05,7.12878e-05,9.45509e-05,0.000125194,0.000165559,0.00021873,0.000288768,0.000381027,0.000502554,0.000662636,0.000873503,0.00115127,0.00151715,0.00199912,0.00263398,0.00347025,0.00457183,0.00602289,0.00793429,0.0104521,inf	1.08943,1.08943,1.08945,3.05383,163.014,730.397,626.448,273.763,175.004,222.494,279.839,301.841,328.052,315.442,274.479,252.917,262.013,291.76,358.82,504.964,821.193,1454.97,2559.74,3395.76,3521.52,2461.18,1191.78,861.236,861.236,930.492,930.492,930.492
