0.000614607	-303617.47	0,9.26795e-05,0.000219494,0.000393017,0.00063045,0.000955333,0.00139988,0.00200815,0.00284046,0.00397933,0.00553765,0.00766993,0.0105876,0.0145798,0.0200424,0.027517,inf	389.047,389.047,345.12,349.171,346.54,349.113,369.89,381.041,385.265,400.81,426.919,430.693,383.184,314.859,314.859,314.859
0.000605166	-303603.70	0,9.26795e-05,0.000219494,0.000393017,0.00063045,0.000955333,0.00139988,0.00200815,0.00284046,0.00397933,0.00553765,0.00766993,0.0105876,0.0145798,0.0200424,0.027517,inf	405.959,405.959,328.786,339.229,330.62,329.559,362.539,376.529,378.013,402.025,453.448,464.824,364.899,269.64,269.64,269.64
0.000597215	-303599.82	0,9.26795e-05,0.000219494,0.000393017,0.00063045,0.000955333,0.00139988,0.00200815,0.00284046,0.00397933,0.00553765,0.00766993,0.0105876,0.0145798,0.0200424,0.027517,inf	421.285,421.285,320.934,339.792,325.211,318.923,361.655,375.754,372.018,400.655,476.468,499.314,343.098,243.833,243.833,243.833
0.000589962	-303598.19	0,9.26795e-05,0.000219494,0.000393017,0.00063045,0.000955333,0.00139988,0.00200815,0.00284046,0.00397933,0.00553765,0.00766993,0.0105876,0.0145798,0.0200424,0.027517,inf	431.582,431.582,315.216,343.314,323.463,311.547,363.172,376.407,366.581,397.393,496.18,534.197,319.023,229.163,229.163,229.163
0.000583217	-303597.74	0,9.26795e-05,0.000219494,0.000393017,0.00063045,0.000955333,0.00139988,0.00200815,0.00284046,0.00397933,0.00553765,0.00766993,0.0105876,0.0145798,0.0200424,0.027517,inf	438.197,438.197,310.218,347.486,323.126,305.508,365.647,377.718,361.624,392.94,512.89,569.539,293.89,220.862,220.862,220.862
0.000576937	-303598.09	0,9.26795e-05,0.000219494,0.000393017,0.00063045,0.000955333,0.00139988,0.00200815,0.00284046,0.00397933,0.00553765,0.00766993,0.0105876,0.0145798,0.0200424,0.027517,inf	442.671,442.671,305.683,351.563,323.393,300.079,368.483,379.38,357.173,387.833,526.9,605.352,268.722,216.07,216.07,216.07
0.000571108	-303599.04	0,9.26795e-05,0.000219494,0.000393017,0.00063045,0.000955333,0.00139988,0.00200815,0.00284046,0.00397933,0.00553765,0.00766993,0.0105876,0.0145798,0.0200424,0.027517,inf	445.98,445.98,301.591,355.312,323.955,294.961,371.403,381.242,353.245,382.447,538.481,641.567,244.323,213.099,213.099,213.099
0.000565715	-303600.44	0,9.26795e-05,0.000219494,0.000393017,0.00063045,0.000955333,0.00139988,0.00200815,0.00284046,0.00397933,0.00553765,0.00766993,0.0105876,0.0145798,0.0200424,0.027517,inf	448.644,448.644,297.941,358.671,324.7,290.031,374.265,383.206,349.831,377.032,547.885,678.023,221.284,210.983,210.983,210.983
0.00056074	-303602.19	0,9.26795e-05,0.000219494,0.000393017,0.00063045,0.000955333,0.00139988,0.00200815,0.00284046,0.00397933,0.00553765,0.00766993,0.0105876,0.0145798,0.0200424,0.027517,inf	450.918,450.918,294.721,361.643,325.587,285.238,376.993,385.207,346.905,371.754,555.346,714.461,200,209.195,209.195,209.195
0.00055616	-303604.20	0,9.26795e-05,0.000219494,0.000393017,0.00063045,0.000955333,0.00139988,0.00200815,0.00284046,0.00397933,0.00553765,0.00766993,0.0105876,0.0145798,0.0200424,0.027517,inf	452.918,452.918,291.909,364.245,326.606,280.568,379.548,387.192,344.428,366.718,561.091,750.523,180.697,207.467,207.467,207.467
0.000551958	-303606.39	0,9.26795e-05,0.000219494,0.000393017,0.00063045,0.000955333,0.00139988,0.00200815,0.00284046,0.00397933,0.00553765,0.00766993,0.0105876,0.0145798,0.0200424,0.027517,inf	454.983,454.983,289.627,366.661,327.849,276.067,381.955,389.153,342.359,361.984,565.387,785.812,163.472,205.714,205.714,205.714
0.000548088	-303608.67	0,9.26795e-05,0.000219494,0.000393017,0.00063045,0.000955333,0.00139988,0.00200815,0.00284046,0.00397933,0.00553765,0.00766993,0.0105876,0.0145798,0.0200424,0.027517,inf	456.61,456.61,287.571,368.64,329.153,271.653,384.135,391.01,340.653,357.591,568.393,819.799,148.296,203.898,203.898,203.898
0.000544527	-303610.98	0,9.26795e-05,0.000219494,0.000393017,0.00063045,0.000955333,0.00139988,0.00200815,0.00284046,0.00397933,0.00553765,0.00766993,0.0105876,0.0145798,0.0200424,0.027517,inf	458.017,458.017,285.787,370.283,330.572,267.36,386.119,392.758,339.274,353.562,570.324,852.021,135.083,202.072,202.072,202.072
0.000541253	-303613.25	0,9.26795e-05,0.000219494,0.000393017,0.00063045,0.000955333,0.00139988,0.00200815,0.00284046,0.00397933,0.00553765,0.00766993,0.0105876,0.0145798,0.0200424,0.027517,inf	459.262,459.262,284.265,371.629,332.119,263.204,387.927,394.386,338.183,349.902,571.382,882.067,123.689,200.3,200.3,200.3
0.000538241	-303615.40	0,9.26795e-05,0.000219494,0.000393017,0.00063045,0.000955333,0.00139988,0.00200815,0.00284046,0.00397933,0.00553765,0.00766993,0.0105876,0.0145798,0.0200424,0.027517,inf	460.377,460.377,282.984,372.702,333.793,259.189,389.574,395.883,337.343,346.605,571.75,909.62,113.936,198.641,198.641,198.641
0.000535472	-303617.41	0,9.26795e-05,0.000219494,0.000393017,0.00063045,0.000955333,0.00139988,0.00200815,0.00284046,0.00397933,0.00553765,0.00766993,0.0105876,0.0145798,0.0200424,0.027517,inf	461.365,461.365,281.916,373.519,335.59,255.318,391.079,397.246,336.718,343.658,571.595,934.49,105.635,197.14,197.14,197.14
0.000532924	-303619.22	0,9.26795e-05,0.000219494,0.000393017,0.00063045,0.000955333,0.00139988,0.00200815,0.00284046,0.00397933,0.00553765,0.00766993,0.0105876,0.0145798,0.0200424,0.027517,inf	462.249,462.249,281.04,374.095,337.503,251.592,392.457,398.472,336.275,341.043,571.058,956.624,98.5951,195.819,195.819,195.819
0.00053058	-303620.84	0,9.26795e-05,0.000219494,0.000393017,0.00063045,0.000955333,0.00139988,0.00200815,0.00284046,0.00397933,0.00553765,0.00766993,0.0105876,0.0145798,0.0200424,0.027517,inf	463.035,463.035,280.334,374.443,339.52,248.009,393.725,399.563,335.984,338.736,570.257,976.086,92.6373,194.684,194.684,194.684
0.000528424	-303622.26	0,9.26795e-05,0.000219494,0.000393017,0.00063045,0.000955333,0.00139988,0.00200815,0.00284046,0.00397933,0.00553765,0.00766993,0.0105876,0.0145798,0.0200424,0.027517,inf	463.735,463.735,279.782,374.577,341.631,244.566,394.898,400.522,335.816,336.714,569.289,993.035,87.5982,193.725,193.725,193.725
0.00052644	-303623.48	0,9.26795e-05,0.000219494,0.000393017,0.00063045,0.000955333,0.00139988,0.00200815,0.00284046,0.00397933,0.00553765,0.00766993,0.0105876,0.0145798,0.0200424,0.027517,inf	464.354,464.354,279.366,374.511,343.824,241.257,395.991,401.355,335.748,334.95,568.227,1007.69,83.3343,192.927,192.927,192.927
