LogLikelihood = -291220.68323977966793

y0 0.87986683337460958043
y0_prime 0
y1 0.98436670583642826848
y1_prime 0
y2 0.84397760366753271644
y2_prime 0
y3 1.7546209183949021959
y3_prime 0
rho 0.0025677415778215771647
theta 0.0047671558859974719202
