time_index	left_time_boundary	right_time_boundary	lambda
0	0	4.04495e-06	134.129
1	4.04495e-06	1.10635e-05	134.129
2	1.10635e-05	2.32418e-05	350.101
3	2.32418e-05	4.43727e-05	584.814
4	4.43727e-05	8.1038e-05	564.324
5	8.1038e-05	0.000144658	367.235
6	0.000144658	0.000255047	381.386
7	0.000255047	0.000446588	341.526
8	0.000446588	0.000778939	359.793
9	0.000778939	0.00135562	339.481
10	0.00135562	0.00235623	403.712
11	0.00235623	0.00409245	436.831
12	0.00409245	0.00710503	1297.37
13	0.00710503	0.0123323	869.593
14	0.0123323	0.0214024	869.593
15	0.0214024	inf	869.593
