LogLikelihood = -7175.4142036216671841

y0 1.7643668174336374887e-10
y0_prime 0
y1 0.87415847112636613225
y1_prime 0
y2 1.7829274611005718754
y2_prime 0
y3 4.4308907476565320138
y3_prime 0
rho 2.395967280998883924e-05
rho.alpha 2.1196658109741499665
r_ii 0.99999138969666989674
theta 6.8147416972729629205e-05
