0.000442142	-232854.66	0,2.95807e-05,6.41828e-05,0.000104659,0.000152005,0.000207389,0.000272174,0.000347956,0.000436602,0.000540296,0.000661592,0.000803478,0.000969449,0.00116359,0.00139069,0.00165635,0.00196709,0.00233059,0.00275578,0.00325316,0.00383496,0.00451553,0.00531162,0.00624285,0.00733215,0.00860636,0.0100969,0.0118404,0.0138799,0.0162656,0.0190562,0.0223206,inf	16.8787,16.8787,36.2673,56.2845,80.6018,110.105,145.892,189.473,243.092,310.386,397.191,510.496,651.207,797.422,896.996,918.364,886.369,834.624,780.602,732.05,691.959,660.622,637.33,620.688,609.437,603.48,603.614,616.063,616.063,682.654,682.654,682.654
0.000465643	-232221.73	0,2.95807e-05,6.41828e-05,0.000104659,0.000152005,0.000207389,0.000272174,0.000347956,0.000436602,0.000540296,0.000661592,0.000803478,0.000969449,0.00116359,0.00139069,0.00165635,0.00196709,0.00233059,0.00275578,0.00325316,0.00383496,0.00451553,0.00531162,0.00624285,0.00733215,0.00860636,0.0100969,0.0118404,0.0138799,0.0162656,0.0190562,0.0223206,inf	0.637236,0.637236,2.97458,7.22836,14.9023,27.7909,48.3175,79.6646,126.042,193.565,292.084,436.111,638.841,887.315,1100.5,1182.17,1146.57,1056.36,951.921,854.895,774.915,713.928,670.66,641.762,624.285,618.17,625.927,667.374,667.374,876.049,876.049,876.049
0.000490508	-231998.04	0,2.95807e-05,6.41828e-05,0.000104659,0.000152005,0.000207389,0.000272174,0.000347956,0.000436602,0.000540296,0.000661592,0.000803478,0.000969449,0.00116359,0.00139069,0.00165635,0.00196709,0.00233059,0.00275578,0.00325316,0.00383496,0.00451553,0.00531162,0.00624285,0.00733215,0.00860636,0.0100969,0.0118404,0.0138799,0.0162656,0.0190562,0.0223206,inf	0.573853,0.573853,0.573853,1.04757,3.10451,7.88779,17.9244,37.2347,71.6917,129.773,224.561,375.878,606.548,917.752,1223.15,1370.38,1346.14,1229.79,1081.68,939.875,823.254,736.594,678.032,641.762,622.907,621.674,643.513,731.233,731.233,1267.39,1267.39,1267.39
0.000514348	-231895.28	0,2.95807e-05,6.41828e-05,0.000104659,0.000152005,0.000207389,0.000272174,0.000347956,0.000436602,0.000540296,0.000661592,0.000803478,0.000969449,0.00116359,0.00139069,0.00165635,0.00196709,0.00233059,0.00275578,0.00325316,0.00383496,0.00451553,0.00531162,0.00624285,0.00733215,0.00860636,0.0100969,0.0118404,0.0138799,0.0162656,0.0190562,0.0223206,inf	0.573853,0.573853,0.573853,0.573853,0.615587,2.44713,7.2353,18.8082,43.6379,91.8777,179.327,330.016,573.94,924.727,1300.53,1506.12,1497.52,1362.18,1175.81,993.34,844.144,736.348,667.093,627.622,611.069,618.239,658.964,811.145,811.145,2397.06,2397.06,2397.06
0.000536871	-231839.26	0,2.95807e-05,6.41828e-05,0.000104659,0.000152005,0.000207389,0.000272174,0.000347956,0.000436602,0.000540296,0.000661592,0.000803478,0.000969449,0.00116359,0.00139069,0.00165635,0.00196709,0.00233059,0.00275578,0.00325316,0.00383496,0.00451553,0.00531162,0.00624285,0.00733215,0.00860636,0.0100969,0.0118404,0.0138799,0.0162656,0.0190562,0.0223206,inf	0.573853,0.573853,0.573853,0.573853,0.573853,0.817377,3.13042,10.1185,28.0447,67.9432,147.753,295.036,545.43,922.643,1352.51,1607.06,1613.51,1462.67,1241.88,1022.6,845.074,720.657,644.76,605.271,593.451,611.104,674.04,911.513,911.513,11927.3,11927.3,11927.3
0.000536871	-231804.60	0,2.95807e-05,6.41828e-05,0.000104659,0.000152005,0.000207389,0.000272174,0.000347956,0.000436602,0.000540296,0.000661592,0.000803478,0.000969449,0.00116359,0.00139069,0.00165635,0.00196709,0.00233059,0.00275578,0.00325316,0.00383496,0.00451553,0.00531162,0.00624285,0.00733215,0.00860636,0.0100969,0.0118404,0.0138799,0.0162656,0.0190562,0.0223206,inf	0.573853,0.573853,0.573853,0.573853,0.573853,0.573853,1.42731,5.70224,18.7318,51.7282,124.062,265.989,517.118,908.087,1374.29,1670.19,1693.58,1531.5,1281.02,1029.9,829.227,693.027,614.195,577.145,571.61,600.84,688.318,1037.38,1037.38,118035,118035,118035
