0.00035844	-5495096.63	0,1.65036e-06,3.82986e-06,6.70816e-06,1.05093e-05,1.55292e-05,2.21585e-05,3.09134e-05,4.24752e-05,5.77441e-05,7.79084e-05,0.000104538,0.000139705,0.000186148,0.000247482,0.00032848,0.000435449,0.000576713,0.00076327,0.00100964,0.001335,0.00176469,0.00233213,0.00308152,0.00407117,0.00537812,0.00710412,0.0093835,0.0123937,0.016369,inf	824.636,824.636,824.636,824.636,824.636,824.636,824.636,824.636,824.636,824.636,824.636,824.636,824.636,824.636,824.636,824.636,824.636,824.636,824.636,824.636,824.636,824.636,824.636,824.636,824.636,824.636,824.636,824.636,824.636,824.636
0.000349127	-5492895.05	0,1.65036e-06,3.82986e-06,6.70816e-06,1.05093e-05,1.55292e-05,2.21585e-05,3.09134e-05,4.24752e-05,5.77441e-05,7.79084e-05,0.000104538,0.000139705,0.000186148,0.000247482,0.00032848,0.000435449,0.000576713,0.00076327,0.00100964,0.001335,0.00176469,0.00233213,0.00308152,0.00407117,0.00537812,0.00710412,0.0093835,0.0123937,0.016369,inf	885.828,885.828,885.828,885.828,885.828,885.828,885.828,885.828,885.828,885.828,885.828,885.828,885.828,885.828,885.828,885.828,885.828,885.828,885.828,885.828,885.828,885.828,885.828,885.828,885.828,885.828,885.828,885.828,885.828,885.828
0.000335218	-5492410.82	0,1.65036e-06,3.82986e-06,6.70816e-06,1.05093e-05,1.55292e-05,2.21585e-05,3.09134e-05,4.24752e-05,5.77441e-05,7.79084e-05,0.000104538,0.000139705,0.000186148,0.000247482,0.00032848,0.000435449,0.000576713,0.00076327,0.00100964,0.001335,0.00176469,0.00233213,0.00308152,0.00407117,0.00537812,0.00710412,0.0093835,0.0123937,0.016369,inf	912.695,912.695,912.695,912.695,912.695,912.695,912.695,912.695,912.695,912.695,912.695,912.695,912.695,912.695,912.695,912.695,912.695,912.695,912.695,912.695,912.695,912.695,912.695,912.695,912.695,912.695,912.695,912.695,912.695,912.695
0.000319152	-5492149.64	0,1.65036e-06,3.82986e-06,6.70816e-06,1.05093e-05,1.55292e-05,2.21585e-05,3.09134e-05,4.24752e-05,5.77441e-05,7.79084e-05,0.000104538,0.000139705,0.000186148,0.000247482,0.00032848,0.000435449,0.000576713,0.00076327,0.00100964,0.001335,0.00176469,0.00233213,0.00308152,0.00407117,0.00537812,0.00710412,0.0093835,0.0123937,0.016369,inf	925.081,925.081,925.081,925.081,925.081,925.081,925.081,925.081,925.081,925.081,925.081,925.081,925.081,925.081,925.081,925.081,925.081,925.081,925.081,925.081,925.081,925.081,925.081,925.081,925.081,925.081,925.081,925.081,925.081,925.081
0.000302075	-5491888.54	0,1.65036e-06,3.82986e-06,6.70816e-06,1.05093e-05,1.55292e-05,2.21585e-05,3.09134e-05,4.24752e-05,5.77441e-05,7.79084e-05,0.000104538,0.000139705,0.000186148,0.000247482,0.00032848,0.000435449,0.000576713,0.00076327,0.00100964,0.001335,0.00176469,0.00233213,0.00308152,0.00407117,0.00537812,0.00710412,0.0093835,0.0123937,0.016369,inf	931.808,931.808,931.808,931.808,931.808,931.808,931.808,931.808,931.808,931.808,931.808,931.808,931.808,931.808,931.808,931.808,931.808,931.808,931.808,931.808,931.808,931.808,931.808,931.808,931.808,931.808,931.808,931.808,931.808,931.808
0.00028445	-5491600.42	0,1.65036e-06,3.82986e-06,6.70816e-06,1.05093e-05,1.55292e-05,2.21585e-05,3.09134e-05,4.24752e-05,5.77441e-05,7.79084e-05,0.000104538,0.000139705,0.000186148,0.000247482,0.00032848,0.000435449,0.000576713,0.00076327,0.00100964,0.001335,0.00176469,0.00233213,0.00308152,0.00407117,0.00537812,0.00710412,0.0093835,0.0123937,0.016369,inf	936.466,936.466,936.466,936.466,936.466,936.466,936.466,936.466,936.466,936.466,936.466,936.466,936.466,936.466,936.466,936.466,936.466,936.466,936.466,936.466,936.466,936.466,936.466,936.466,936.466,936.466,936.466,936.466,936.466,936.466
0.000266458	-5491281.97	0,1.65036e-06,3.82986e-06,6.70816e-06,1.05093e-05,1.55292e-05,2.21585e-05,3.09134e-05,4.24752e-05,5.77441e-05,7.79084e-05,0.000104538,0.000139705,0.000186148,0.000247482,0.00032848,0.000435449,0.000576713,0.00076327,0.00100964,0.001335,0.00176469,0.00233213,0.00308152,0.00407117,0.00537812,0.00710412,0.0093835,0.0123937,0.016369,inf	940.46,940.46,940.46,940.46,940.46,940.46,940.46,940.46,940.46,940.46,940.46,940.46,940.46,940.46,940.46,940.46,940.46,940.46,940.46,940.46,940.46,940.46,940.46,940.46,940.46,940.46,940.46,940.46,940.46,940.46
0.00024818	-5490930.75	0,1.65036e-06,3.82986e-06,6.70816e-06,1.05093e-05,1.55292e-05,2.21585e-05,3.09134e-05,4.24752e-05,5.77441e-05,7.79084e-05,0.000104538,0.000139705,0.000186148,0.000247482,0.00032848,0.000435449,0.000576713,0.00076327,0.00100964,0.001335,0.00176469,0.00233213,0.00308152,0.00407117,0.00537812,0.00710412,0.0093835,0.0123937,0.016369,inf	944.33,944.33,944.33,944.33,944.33,944.33,944.33,944.33,944.33,944.33,944.33,944.33,944.33,944.33,944.33,944.33,944.33,944.33,944.33,944.33,944.33,944.33,944.33,944.33,944.33,944.33,944.33,944.33,944.33,944.33
0.00022966	-5490543.20	0,1.65036e-06,3.82986e-06,6.70816e-06,1.05093e-05,1.55292e-05,2.21585e-05,3.09134e-05,4.24752e-05,5.77441e-05,7.79084e-05,0.000104538,0.000139705,0.000186148,0.000247482,0.00032848,0.000435449,0.000576713,0.00076327,0.00100964,0.001335,0.00176469,0.00233213,0.00308152,0.00407117,0.00537812,0.00710412,0.0093835,0.0123937,0.016369,inf	948.285,948.285,948.285,948.285,948.285,948.285,948.285,948.285,948.285,948.285,948.285,948.285,948.285,948.285,948.285,948.285,948.285,948.285,948.285,948.285,948.285,948.285,948.285,948.285,948.285,948.285,948.285,948.285,948.285,948.285
0.000210937	-5490114.70	0,1.65036e-06,3.82986e-06,6.70816e-06,1.05093e-05,1.55292e-05,2.21585e-05,3.09134e-05,4.24752e-05,5.77441e-05,7.79084e-05,0.000104538,0.000139705,0.000186148,0.000247482,0.00032848,0.000435449,0.000576713,0.00076327,0.00100964,0.001335,0.00176469,0.00233213,0.00308152,0.00407117,0.00537812,0.00710412,0.0093835,0.0123937,0.016369,inf	952.4,952.4,952.4,952.4,952.4,952.4,952.4,952.4,952.4,952.4,952.4,952.4,952.4,952.4,952.4,952.4,952.4,952.4,952.4,952.4,952.4,952.4,952.4,952.4,952.4,952.4,952.4,952.4,952.4,952.4
0.000192058	-5489639.70	0,1.65036e-06,3.82986e-06,6.70816e-06,1.05093e-05,1.55292e-05,2.21585e-05,3.09134e-05,4.24752e-05,5.77441e-05,7.79084e-05,0.000104538,0.000139705,0.000186148,0.000247482,0.00032848,0.000435449,0.000576713,0.00076327,0.00100964,0.001335,0.00176469,0.00233213,0.00308152,0.00407117,0.00537812,0.00710412,0.0093835,0.0123937,0.016369,inf	956.711,956.711,956.711,956.711,956.711,956.711,956.711,956.711,956.711,956.711,956.711,956.711,956.711,956.711,956.711,956.711,956.711,956.711,956.711,956.711,956.711,956.711,956.711,956.711,956.711,956.711,956.711,956.711,956.711,956.711
0.000173076	-5489111.62	0,1.65036e-06,3.82986e-06,6.70816e-06,1.05093e-05,1.55292e-05,2.21585e-05,3.09134e-05,4.24752e-05,5.77441e-05,7.79084e-05,0.000104538,0.000139705,0.000186148,0.000247482,0.00032848,0.000435449,0.000576713,0.00076327,0.00100964,0.001335,0.00176469,0.00233213,0.00308152,0.00407117,0.00537812,0.00710412,0.0093835,0.0123937,0.016369,inf	961.219,961.219,961.219,961.219,961.219,961.219,961.219,961.219,961.219,961.219,961.219,961.219,961.219,961.219,961.219,961.219,961.219,961.219,961.219,961.219,961.219,961.219,961.219,961.219,961.219,961.219,961.219,961.219,961.219,961.219
0.000154063	-5488522.80	0,1.65036e-06,3.82986e-06,6.70816e-06,1.05093e-05,1.55292e-05,2.21585e-05,3.09134e-05,4.24752e-05,5.77441e-05,7.79084e-05,0.000104538,0.000139705,0.000186148,0.000247482,0.00032848,0.000435449,0.000576713,0.00076327,0.00100964,0.001335,0.00176469,0.00233213,0.00308152,0.00407117,0.00537812,0.00710412,0.0093835,0.0123937,0.016369,inf	965.912,965.912,965.912,965.912,965.912,965.912,965.912,965.912,965.912,965.912,965.912,965.912,965.912,965.912,965.912,965.912,965.912,965.912,965.912,965.912,965.912,965.912,965.912,965.912,965.912,965.912,965.912,965.912,965.912,965.912
0.000135111	-5487864.30	0,1.65036e-06,3.82986e-06,6.70816e-06,1.05093e-05,1.55292e-05,2.21585e-05,3.09134e-05,4.24752e-05,5.77441e-05,7.79084e-05,0.000104538,0.000139705,0.000186148,0.000247482,0.00032848,0.000435449,0.000576713,0.00076327,0.00100964,0.001335,0.00176469,0.00233213,0.00308152,0.00407117,0.00537812,0.00710412,0.0093835,0.0123937,0.016369,inf	970.745,970.745,970.745,970.745,970.745,970.745,970.745,970.745,970.745,970.745,970.745,970.745,970.745,970.745,970.745,970.745,970.745,970.745,970.745,970.745,970.745,970.745,970.745,970.745,970.745,970.745,970.745,970.745,970.745,970.745
0.000116341	-5487125.86	0,1.65036e-06,3.82986e-06,6.70816e-06,1.05093e-05,1.55292e-05,2.21585e-05,3.09134e-05,4.24752e-05,5.77441e-05,7.79084e-05,0.000104538,0.000139705,0.000186148,0.000247482,0.00032848,0.000435449,0.000576713,0.00076327,0.00100964,0.001335,0.00176469,0.00233213,0.00308152,0.00407117,0.00537812,0.00710412,0.0093835,0.0123937,0.016369,inf	975.636,975.636,975.636,975.636,975.636,975.636,975.636,975.636,975.636,975.636,975.636,975.636,975.636,975.636,975.636,975.636,975.636,975.636,975.636,975.636,975.636,975.636,975.636,975.636,975.636,975.636,975.636,975.636,975.636,975.636
9.79167e-05	-5486296.07	0,1.65036e-06,3.82986e-06,6.70816e-06,1.05093e-05,1.55292e-05,2.21585e-05,3.09134e-05,4.24752e-05,5.77441e-05,7.79084e-05,0.000104538,0.000139705,0.000186148,0.000247482,0.00032848,0.000435449,0.000576713,0.00076327,0.00100964,0.001335,0.00176469,0.00233213,0.00308152,0.00407117,0.00537812,0.00710412,0.0093835,0.0123937,0.016369,inf	980.423,980.423,980.423,980.423,980.423,980.423,980.423,980.423,980.423,980.423,980.423,980.423,980.423,980.423,980.423,980.423,980.423,980.423,980.423,980.423,980.423,980.423,980.423,980.423,980.423,980.423,980.423,980.423,980.423,980.423
8.00586e-05	-5485363.22	0,1.65036e-06,3.82986e-06,6.70816e-06,1.05093e-05,1.55292e-05,2.21585e-05,3.09134e-05,4.24752e-05,5.77441e-05,7.79084e-05,0.000104538,0.000139705,0.000186148,0.000247482,0.00032848,0.000435449,0.000576713,0.00076327,0.00100964,0.001335,0.00176469,0.00233213,0.00308152,0.00407117,0.00537812,0.00710412,0.0093835,0.0123937,0.016369,inf	984.823,984.823,984.823,984.823,984.823,984.823,984.823,984.823,984.823,984.823,984.823,984.823,984.823,984.823,984.823,984.823,984.823,984.823,984.823,984.823,984.823,984.823,984.823,984.823,984.823,984.823,984.823,984.823,984.823,984.823
6.30768e-05	-5484317.81	0,1.65036e-06,3.82986e-06,6.70816e-06,1.05093e-05,1.55292e-05,2.21585e-05,3.09134e-05,4.24752e-05,5.77441e-05,7.79084e-05,0.000104538,0.000139705,0.000186148,0.000247482,0.00032848,0.000435449,0.000576713,0.00076327,0.00100964,0.001335,0.00176469,0.00233213,0.00308152,0.00407117,0.00537812,0.00710412,0.0093835,0.0123937,0.016369,inf	988.382,988.382,988.382,988.382,988.382,988.382,988.382,988.382,988.382,988.382,988.382,988.382,988.382,988.382,988.382,988.382,988.382,988.382,988.382,988.382,988.382,988.382,988.382,988.382,988.382,988.382,988.382,988.382,988.382,988.382
4.74073e-05	-5483159.13	0,1.65036e-06,3.82986e-06,6.70816e-06,1.05093e-05,1.55292e-05,2.21585e-05,3.09134e-05,4.24752e-05,5.77441e-05,7.79084e-05,0.000104538,0.000139705,0.000186148,0.000247482,0.00032848,0.000435449,0.000576713,0.00076327,0.00100964,0.001335,0.00176469,0.00233213,0.00308152,0.00407117,0.00537812,0.00710412,0.0093835,0.0123937,0.016369,inf	990.546,990.546,990.546,990.546,990.546,990.546,990.546,990.546,990.546,990.546,990.546,990.546,990.546,990.546,990.546,990.546,990.546,990.546,990.546,990.546,990.546,990.546,990.546,990.546,990.546,990.546,990.546,990.546,990.546,990.546
3.36326e-05	-5481909.51	0,1.65036e-06,3.82986e-06,6.70816e-06,1.05093e-05,1.55292e-05,2.21585e-05,3.09134e-05,4.24752e-05,5.77441e-05,7.79084e-05,0.000104538,0.000139705,0.000186148,0.000247482,0.00032848,0.000435449,0.000576713,0.00076327,0.00100964,0.001335,0.00176469,0.00233213,0.00308152,0.00407117,0.00537812,0.00710412,0.0093835,0.0123937,0.016369,inf	991.044,991.044,991.044,991.044,991.044,991.044,991.044,991.044,991.044,991.044,991.044,991.044,991.044,991.044,991.044,991.044,991.044,991.044,991.044,991.044,991.044,991.044,991.044,991.044,991.044,991.044,991.044,991.044,991.044,991.044
