time_index	left_time_boundary	right_time_boundary	lambda
0	0	1.65036e-06	991.044
1	1.65036e-06	3.82986e-06	991.044
2	3.82986e-06	6.70816e-06	991.044
3	6.70816e-06	1.05093e-05	991.044
4	1.05093e-05	1.55292e-05	991.044
5	1.55292e-05	2.21585e-05	991.044
6	2.21585e-05	3.09134e-05	991.044
7	3.09134e-05	4.24752e-05	991.044
8	4.24752e-05	5.77441e-05	991.044
9	5.77441e-05	7.79084e-05	991.044
10	7.79084e-05	0.000104538	991.044
11	0.000104538	0.000139705	991.044
12	0.000139705	0.000186148	991.044
13	0.000186148	0.000247482	991.044
14	0.000247482	0.00032848	991.044
15	0.00032848	0.000435449	991.044
16	0.000435449	0.000576713	991.044
17	0.000576713	0.00076327	991.044
18	0.00076327	0.00100964	991.044
19	0.00100964	0.001335	991.044
20	0.001335	0.00176469	991.044
21	0.00176469	0.00233213	991.044
22	0.00233213	0.00308152	991.044
23	0.00308152	0.00407117	991.044
24	0.00407117	0.00537812	991.044
25	0.00537812	0.00710412	991.044
26	0.00710412	0.0093835	991.044
27	0.0093835	0.0123937	991.044
28	0.0123937	0.016369	991.044
29	0.016369	inf	991.044
