time_index	left_time_boundary	right_time_boundary	lambda
0	0	2.76655e-06	945.109
1	2.76655e-06	6.34491e-06	945.109
2	6.34491e-06	1.09733e-05	945.109
3	1.09733e-05	1.69598e-05	945.109
4	1.69598e-05	2.47031e-05	945.109
5	2.47031e-05	3.47185e-05	945.109
6	3.47185e-05	4.76728e-05	945.109
7	4.76728e-05	6.44283e-05	945.109
8	6.44283e-05	8.61007e-05	945.109
9	8.61007e-05	0.000114132	945.109
10	0.000114132	0.00015039	945.109
11	0.00015039	0.000197287	945.109
12	0.000197287	0.000257945	945.109
13	0.000257945	0.000336402	945.109
14	0.000336402	0.000437882	945.109
15	0.000437882	0.00056914	945.109
16	0.00056914	0.000738915	945.109
17	0.000738915	0.000958508	945.109
18	0.000958508	0.00124254	945.109
19	0.00124254	0.00160991	945.109
20	0.00160991	0.00208509	945.109
21	0.00208509	0.0026997	945.109
22	0.0026997	0.00349467	945.109
23	0.00349467	0.0045229	945.109
24	0.0045229	0.00585286	945.109
25	0.00585286	0.00757309	945.109
26	0.00757309	0.00979809	945.109
27	0.00979809	0.012676	945.109
28	0.012676	0.0163984	945.109
29	0.0163984	inf	945.109
