time_index	left_time_boundary	right_time_boundary	lambda
0	0	1.57817e-06	17507.6
1	1.57817e-06	3.65702e-06	17507.6
2	3.65702e-06	6.39538e-06	11337.5
3	6.39538e-06	1.00025e-05	8891.1
4	1.00025e-05	1.47539e-05	6338.8
5	1.47539e-05	2.10128e-05	2991.13
6	2.10128e-05	2.92572e-05	1171.8
7	2.92572e-05	4.01172e-05	559.391
8	4.01172e-05	5.44225e-05	378.294
9	5.44225e-05	7.32661e-05	325.194
10	7.32661e-05	9.80879e-05	310.96
11	9.80879e-05	0.000130784	302.082
12	0.000130784	0.000173854	291.246
13	0.000173854	0.000230587	285.994
14	0.000230587	0.000305318	277.47
15	0.000305318	0.000403758	253.588
16	0.000403758	0.000533428	226.336
17	0.000533428	0.000704235	221.343
18	0.000704235	0.000929231	244.04
19	0.000929231	0.00122561	292.689
20	0.00122561	0.00161601	370.113
21	0.00161601	0.00213026	482.688
22	0.00213026	0.00280766	614.016
23	0.00280766	0.00369997	665.425
24	0.00369997	0.00487535	589.01
25	0.00487535	0.00642363	499.151
26	0.00642363	0.0084631	400.591
27	0.0084631	0.0111496	266.806
28	0.0111496	0.0146883	266.806
29	0.0146883	0.0193498	337.216
30	0.0193498	0.0254901	337.216
31	0.0254901	inf	337.216
