time_index	left_time_boundary	right_time_boundary	lambda
0	0	1.51102e-06	1280.62
1	1.51102e-06	4.13284e-06	1280.62
2	4.13284e-06	8.6821e-06	1.08117
3	8.6821e-06	1.65757e-05	55.6447
4	1.65757e-05	3.02722e-05	446.26
5	3.02722e-05	5.40377e-05	272.486
6	5.40377e-05	9.52742e-05	158.891
7	9.52742e-05	0.000166826	289.476
8	0.000166826	0.000290977	295.537
9	0.000290977	0.000506399	293.21
10	0.000506399	0.000880185	966.454
11	0.000880185	0.00152876	4221.61
12	0.00152876	0.00265413	1197.39
13	0.00265413	0.00460681	937.03
14	0.00460681	0.00799498	937.03
15	0.00799498	inf	937.03
