time_index	left_time_boundary	right_time_boundary	lambda
0	0	6.52073e-07	1.0813
1	6.52073e-07	1.51102e-06	1.0813
2	1.51102e-06	2.64246e-06	4535.35
3	2.64246e-06	4.13284e-06	33.2558
4	4.13284e-06	6.09606e-06	1.0812
5	6.09606e-06	8.6821e-06	1.79698
6	8.6821e-06	1.20886e-05	17.6037
7	1.20886e-05	1.65757e-05	101.209
8	1.65757e-05	2.24864e-05	318.337
9	2.24864e-05	3.02722e-05	479.809
10	3.02722e-05	4.05281e-05	380.594
11	4.05281e-05	5.40377e-05	241.419
12	5.40377e-05	7.18332e-05	172.966
13	7.18332e-05	9.52742e-05	172.151
14	9.52742e-05	0.000126152	225.123
15	0.000126152	0.000166826	291.134
16	0.000166826	0.000220403	287.898
17	0.000220403	0.000290977	244.619
18	0.000290977	0.000383942	259.178
19	0.000383942	0.000506399	388.367
20	0.000506399	0.000667705	722.103
21	0.000667705	0.000880185	1539.32
22	0.000880185	0.00116007	3307.57
23	0.00116007	0.00152876	3439.93
24	0.00152876	0.00201441	2734.83
25	0.00201441	0.00265413	2137.14
26	0.00265413	0.0034968	2076.57
27	0.0034968	0.00460681	2022.57
28	0.00460681	0.00606896	2022.57
29	0.00606896	0.00799498	975.133
30	0.00799498	0.010532	975.133
31	0.010532	inf	975.133
