LogLikelihood = -98868.722929176597972

y0 0.00033069551214578069053
y0_prime 0
y1 0.0042649686351659043052
y1_prime 0
y2 7.0285631512683863775
y2_prime 0
y3 3.7256492263813840715
y3_prime 0
rho 1.0134165882320774467e-12
rho.alpha 0.050000000000000002776
r_ii 0.9999999999999980016
theta 0.0012926041497564376512
