LogLikelihood = -34833.022920059258468

y0 3.7171869819577136379e-10
y0_prime 0
y1 0.85865849014170092524
y1_prime 0
y2 1.7524971601785663822
y2_prime 0
y3 2.3548046615492870259
y3_prime 0
rho 2.7414987374788499832e-05
theta 6.5913187289800412435e-05
