0.00165004	-7382268.33	0,0.000117803,0.000255604,0.000416796,0.000605351,0.000825912,0.00108391,0.00138571,0.00173874,0.00215169,0.00263475,0.0031998,0.00386077,0.00463394,0.00553835,0.00659629,0.00783381,0.0092814,0.0109747,0.0129555,0.0152725,0.0179828,0.0211532,0.0248617,0.0291998,0.0342743,0.0402101,0.0471536,0.0552757,0.0647766,0.0758902,0.0888904,inf	3.39973,3.39973,7.21574,11.0644,15.6792,21.2745,28.1643,36.8223,47.9831,62.7929,82.9938,110.966,148.811,194.248,233.661,250.407,246.569,233.983,220.007,207.401,196.73,187.825,180.446,174.406,169.526,165.63,162.57,159.839,159.839,157.683,157.683,157.683
0.00167001	-7346272.06	0,0.000117803,0.000255604,0.000416796,0.000605351,0.000825912,0.00108391,0.00138571,0.00173874,0.00215169,0.00263475,0.0031998,0.00386077,0.00463394,0.00553835,0.00659629,0.00783381,0.0092814,0.0109747,0.0129555,0.0152725,0.0179828,0.0211532,0.0248617,0.0291998,0.0342743,0.0402101,0.0471536,0.0552757,0.0647766,0.0758902,0.0888904,inf	0.144096,0.144096,0.450148,1.07158,2.17218,4.01792,7.02525,11.8573,19.5866,31.9633,51.8258,83.5987,133.284,204.931,285.757,336.672,342.896,324.542,298.762,273.693,251.843,233.379,218.043,205.569,195.61,187.782,181.763,176.595,176.595,173.133,173.133,173.133
0.00170677	-7333273.85	0,0.000117803,0.000255604,0.000416796,0.000605351,0.000825912,0.00108391,0.00138571,0.00173874,0.00215169,0.00263475,0.0031998,0.00386077,0.00463394,0.00553835,0.00659629,0.00783381,0.0092814,0.0109747,0.0129555,0.0152725,0.0179828,0.0211532,0.0248617,0.0291998,0.0342743,0.0402101,0.0471536,0.0552757,0.0647766,0.0758902,0.0888904,inf	0.144096,0.144096,0.144096,0.144096,0.330023,0.830712,1.91322,4.15135,8.63338,17.3654,33.8839,64.0379,116.578,201.318,313.541,401.054,424.891,407.781,374.379,338.869,306.717,278.973,255.729,236.883,222.012,210.561,202.065,195.295,195.295,192.594,192.594,192.594
0.00174481	-7327230.52	0,0.000117803,0.000255604,0.000416796,0.000605351,0.000825912,0.00108391,0.00138571,0.00173874,0.00215169,0.00263475,0.0031998,0.00386077,0.00463394,0.00553835,0.00659629,0.00783381,0.0092814,0.0109747,0.0129555,0.0152725,0.0179828,0.0211532,0.0248617,0.0291998,0.0342743,0.0402101,0.0471536,0.0552757,0.0647766,0.0758902,0.0888904,inf	0.144096,0.144096,0.144096,0.144096,0.144096,0.16472,0.557533,1.54682,4.02429,9.8981,22.9958,50.1797,102.288,193.551,328.585,450.037,493.92,482.721,445.438,401.807,360.653,324.24,293.365,268.38,248.928,234.381,224.211,217.279,217.279,219.717,219.717,219.717
0.00178064	-7323935.28	0,0.000117803,0.000255604,0.000416796,0.000605351,0.000825912,0.00108391,0.00138571,0.00173874,0.00215169,0.00263475,0.0031998,0.00386077,0.00463394,0.00553835,0.00659629,0.00783381,0.0092814,0.0109747,0.0129555,0.0152725,0.0179828,0.0211532,0.0248617,0.0291998,0.0342743,0.0402101,0.0471536,0.0552757,0.0647766,0.0758902,0.0888904,inf	0.144096,0.144096,0.144096,0.144096,0.144096,0.144096,0.172174,0.607389,1.9643,5.86592,16.0924,40.1456,90.542,184.983,336.864,488.805,552.853,550.346,512.048,462.415,413.615,369.246,331.093,300.264,276.65,259.683,248.974,244.055,244.055,259.789,259.789,259.789
0.00181368	-7321926.55	0,0.000117803,0.000255604,0.000416796,0.000605351,0.000825912,0.00108391,0.00138571,0.00173874,0.00215169,0.00263475,0.0031998,0.00386077,0.00463394,0.00553835,0.00659629,0.00783381,0.0092814,0.0109747,0.0129555,0.0152725,0.0179828,0.0211532,0.0248617,0.0291998,0.0342743,0.0402101,0.0471536,0.0552757,0.0647766,0.0758902,0.0888904,inf	0.144096,0.144096,0.144096,0.144096,0.144096,0.144096,0.144096,0.249565,0.997324,3.59225,11.5536,32.6951,80.8932,176.698,341.394,520.699,604.135,611.94,574.768,520.972,465.832,414.238,369.187,332.824,305.523,286.96,277.204,277.333,277.333,325.098,325.098,325.098
0.00184402	-7320598.66	0,0.000117803,0.000255604,0.000416796,0.000605351,0.000825912,0.00108391,0.00138571,0.00173874,0.00215169,0.00263475,0.0031998,0.00386077,0.00463394,0.00553835,0.00659629,0.00783381,0.0092814,0.0109747,0.0129555,0.0152725,0.0179828,0.0211532,0.0248617,0.0291998,0.0342743,0.0402101,0.0471536,0.0552757,0.0647766,0.0758902,0.0888904,inf	0.144096,0.144096,0.144096,0.144096,0.144096,0.144096,0.144096,0.144096,0.523891,2.26237,8.47651,27.0335,72.8948,169.041,343.699,547.714,649.514,668.593,634.188,577.839,517.609,459.528,407.966,366.401,335.928,316.759,309.812,319.978,319.978,456.148,456.148,456.148
0.00187198	-7319666.90	0,0.000117803,0.000255604,0.000416796,0.000605351,0.000825912,0.00108391,0.00138571,0.00173874,0.00215169,0.00263475,0.0031998,0.00386077,0.00463394,0.00553835,0.00659629,0.00783381,0.0092814,0.0109747,0.0129555,0.0152725,0.0179828,0.0211532,0.0248617,0.0291998,0.0342743,0.0402101,0.0471536,0.0552757,0.0647766,0.0758902,0.0888904,inf	0.144096,0.144096,0.144096,0.144096,0.144096,0.144096,0.144096,0.144096,0.283543,1.45995,6.33567,22.6435,66.1867,162.069,344.636,571.162,690.267,721.191,690.853,633.399,569.288,505.461,447.802,401.389,368.321,349.717,348.634,377.593,377.593,946.458,946.458,946.458
0.00189787	-7318982.67	0,0.000117803,0.000255604,0.000416796,0.000605351,0.000825912,0.00108391,0.00138571,0.00173874,0.00215169,0.00263475,0.0031998,0.00386077,0.00463394,0.00553835,0.00659629,0.00783381,0.0092814,0.0109747,0.0129555,0.0152725,0.0179828,0.0211532,0.0248617,0.0291998,0.0342743,0.0402101,0.0471536,0.0552757,0.0647766,0.0758902,0.0888904,inf	0.144096,0.144096,0.144096,0.144096,0.144096,0.144096,0.144096,0.144096,0.15283,0.962457,4.81266,19.179,60.4953,155.749,344.707,591.909,727.313,770.423,745.229,688.011,621.224,552.437,489.114,438.245,403.354,387.223,396.482,463.91,463.91,17744.7,17744.7,17744.7
0.00192198	-7318461.17	0,0.000117803,0.000255604,0.000416796,0.000605351,0.000825912,0.00108391,0.00138571,0.00173874,0.00215169,0.00263475,0.0031998,0.00386077,0.00463394,0.00553835,0.00659629,0.00783381,0.0092814,0.0109747,0.0129555,0.0152725,0.0179828,0.0211532,0.0248617,0.0291998,0.0342743,0.0402101,0.0471536,0.0552757,0.0647766,0.0758902,0.0888904,inf	0.144096,0.144096,0.144096,0.144096,0.144096,0.144096,0.144096,0.144096,0.144096,0.646655,3.70814,16.4034,55.6153,150.016,344.214,610.547,761.328,816.824,797.706,742.011,673.779,600.866,532.37,477.46,441.648,430.056,457.86,611.201,611.201,9564.46,9564.46,9564.46
0.00194453	-7318053.54	0,0.000117803,0.000255604,0.000416796,0.000605351,0.000825912,0.00108391,0.00138571,0.00173874,0.00215169,0.00263475,0.0031998,0.00386077,0.00463394,0.00553835,0.00659629,0.00783381,0.0092814,0.0109747,0.0129555,0.0152725,0.0179828,0.0211532,0.0248617,0.0291998,0.0342743,0.0402101,0.0471536,0.0552757,0.0647766,0.0758902,0.0888904,inf	0.144096,0.144096,0.144096,0.144096,0.144096,0.144096,0.144096,0.144096,0.144096,0.441865,2.89319,14.1494,51.3891,144.8,343.348,627.496,792.817,860.816,848.611,795.709,727.346,651.229,578.091,519.75,484.286,481.477,544.927,1001.02,1001.02,9564.46,9564.46,9564.46
0.00196572	-7317726.22	0,0.000117803,0.000255604,0.000416796,0.000605351,0.000825912,0.00108391,0.00138571,0.00173874,0.00215169,0.00263475,0.0031998,0.00386077,0.00463394,0.00553835,0.00659629,0.00783381,0.0092814,0.0109747,0.0129555,0.0152725,0.0179828,0.0211532,0.0248617,0.0291998,0.0342743,0.0402101,0.0471536,0.0552757,0.0647766,0.0758902,0.0888904,inf	0.144096,0.144096,0.144096,0.144096,0.144096,0.144096,0.144096,0.144096,0.144096,0.306551,2.28285,12.2975,47.6977,140.04,342.234,643.062,822.169,902.732,898.219,849.406,782.338,704.094,627.042,566.068,533.059,544.496,678.687,6109.91,6109.91,23757.2,23757.2,23757.2
0.00198572	-7317458.25	0,0.000117803,0.000255604,0.000416796,0.000605351,0.000825912,0.00108391,0.00138571,0.00173874,0.00215169,0.00263475,0.0031998,0.00386077,0.00463394,0.00553835,0.00659629,0.00783381,0.0092814,0.0109747,0.0129555,0.0152725,0.0179828,0.0211532,0.0248617,0.0291998,0.0342743,0.0402101,0.0471536,0.0552757,0.0647766,0.0758902,0.0888904,inf	0.144096,0.144096,0.144096,0.144096,0.144096,0.144096,0.144096,0.144096,0.144096,0.215615,1.81954,10.7602,44.4485,135.678,340.956,657.475,849.687,942.841,946.767,903.396,839.229,760.133,680.078,617.531,589.393,629.986,982.611,15876.3,15876.3,4710.76,4710.76,4710.76
0.00200467	-7317235.30	0,0.000117803,0.000255604,0.000416796,0.000605351,0.000825912,0.00108391,0.00138571,0.00173874,0.00215169,0.00263475,0.0031998,0.00386077,0.00463394,0.00553835,0.00659629,0.00783381,0.0092814,0.0109747,0.0129555,0.0152725,0.0179828,0.0211532,0.0248617,0.0291998,0.0342743,0.0402101,0.0471536,0.0552757,0.0647766,0.0758902,0.0888904,inf	0.144096,0.144096,0.144096,0.144096,0.144096,0.144096,0.144096,0.144096,0.144096,0.153573,1.4636,9.47223,41.5686,131.666,339.569,670.91,875.611,981.364,994.458,957.968,898.561,820.215,738.43,675.98,657.649,753.364,2556.87,8557.37,8557.37,2539.12,2539.12,2539.12
0.00202269	-7317047.22	0,0.000117803,0.000255604,0.000416796,0.000605351,0.000825912,0.00108391,0.00138571,0.00173874,0.00215169,0.00263475,0.0031998,0.00386077,0.00463394,0.00553835,0.00659629,0.00783381,0.0092814,0.0109747,0.0129555,0.0152725,0.0179828,0.0211532,0.0248617,0.0291998,0.0342743,0.0402101,0.0471536,0.0552757,0.0647766,0.0758902,0.0888904,inf	0.144096,0.144096,0.144096,0.144096,0.144096,0.144096,0.144096,0.144096,0.144096,0.144096,1.18716,8.38425,39.0003,127.963,338.114,683.504,900.136,1018.48,1041.47,1013.43,960.976,885.479,803.571,744.219,745.204,965.913,40557.2,1696.82,1696.82,1368.59,1368.59,1368.59
0.00203986	-7316887.29	0,0.000117803,0.000255604,0.000416796,0.000605351,0.000825912,0.00108391,0.00138571,0.00173874,0.00215169,0.00263475,0.0031998,0.00386077,0.00463394,0.00553835,0.00659629,0.00783381,0.0092814,0.0109747,0.0129555,0.0152725,0.0179828,0.0211532,0.0248617,0.0291998,0.0342743,0.0402101,0.0471536,0.0552757,0.0647766,0.0758902,0.0888904,inf	0.144096,0.144096,0.144096,0.144096,0.144096,0.144096,0.144096,0.144096,0.144096,0.144096,0.970253,7.458,36.6962,124.53,336.615,695.365,923.419,1054.34,1087.98,1070.1,1027.29,957.458,877.93,825.915,859.484,1682.38,8042.02,4612.45,4612.45,10112.6,10112.6,10112.6
0.00205628	-7316749.31	0,0.000117803,0.000255604,0.000416796,0.000605351,0.000825912,0.00108391,0.00138571,0.00173874,0.00215169,0.00263475,0.0031998,0.00386077,0.00463394,0.00553835,0.00659629,0.00783381,0.0092814,0.0109747,0.0129555,0.0152725,0.0179828,0.0211532,0.0248617,0.0291998,0.0342743,0.0402101,0.0471536,0.0552757,0.0647766,0.0758902,0.0888904,inf	0.144096,0.144096,0.144096,0.144096,0.144096,0.144096,0.144096,0.144096,0.144096,0.144096,0.798513,6.66406,34.6186,121.339,335.094,706.582,945.593,1089.08,1134.11,1128.34,1098.5,1038.26,965.746,931.35,1053.52,23232,40557.2,4612.45,4612.45,2005.21,2005.21,2005.21
0.00207201	-7316629.06	0,0.000117803,0.000255604,0.000416796,0.000605351,0.000825912,0.00108391,0.00138571,0.00173874,0.00215169,0.00263475,0.0031998,0.00386077,0.00463394,0.00553835,0.00659629,0.00783381,0.0092814,0.0109747,0.0129555,0.0152725,0.0179828,0.0211532,0.0248617,0.0291998,0.0342743,0.0402101,0.0471536,0.0552757,0.0647766,0.0758902,0.0888904,inf	0.144096,0.144096,0.144096,0.144096,0.144096,0.144096,0.144096,0.144096,0.144096,0.144096,0.661401,5.97939,32.7368,118.362,333.564,717.229,966.769,1122.8,1180.01,1188.54,1175.95,1131.21,1073.34,1073.86,1458.34,18346.9,8042.02,2486.12,2486.12,5450.73,5450.73,5450.73
0.00208712	-7316523.44	0,0.000117803,0.000255604,0.000416796,0.000605351,0.000825912,0.00108391,0.00138571,0.00173874,0.00215169,0.00263475,0.0031998,0.00386077,0.00463394,0.00553835,0.00659629,0.00783381,0.0092814,0.0109747,0.0129555,0.0152725,0.0179828,0.0211532,0.0248617,0.0291998,0.0342743,0.0402101,0.0471536,0.0552757,0.0647766,0.0758902,0.0888904,inf	0.144096,0.144096,0.144096,0.144096,0.144096,0.144096,0.144096,0.144096,0.144096,0.144096,0.551109,5.38558,31.025,115.578,332.037,727.366,987.04,1155.6,1225.81,1251.17,1261.55,1241.8,1213.93,1304.86,4083.01,18346.9,21860.5,6757.99,6757.99,10112.6,10112.6,10112.6
0.00210166	-7316430.01	0,0.000117803,0.000255604,0.000416796,0.000605351,0.000825912,0.00108391,0.00138571,0.00173874,0.00215169,0.00263475,0.0031998,0.00386077,0.00463394,0.00553835,0.00659629,0.00783381,0.0092814,0.0109747,0.0129555,0.0152725,0.0179828,0.0211532,0.0248617,0.0291998,0.0342743,0.0402101,0.0471536,0.0552757,0.0647766,0.0758902,0.0888904,inf	0.144096,0.144096,0.144096,0.144096,0.144096,0.144096,0.144096,0.144096,0.144096,0.144096,0.46175,4.8679,29.4619,112.966,330.519,737.043,1006.49,1187.55,1271.63,1316.77,1357.92,1379.59,1418.56,1854.5,70876.3,9889.04,4334.67,1340.03,1340.03,2005.21,2005.21,2005.21
