0.000215482	-131043.87	0,3.31183e-05,7.84346e-05,0.000140441,0.000225286,0.000341381,0.000500235,0.000717598,0.00101502,0.00142198,0.00197884,0.00274079,0.00378338,0.00520998,0.00716201,0.009833,inf	346.743,346.743,336.681,358.179,530.71,807.99,1190.98,1625.71,1640.4,1455.37,1301.27,1222.15,1119.88,1023.72,1023.72,1023.72
0.000211965	-130796.03	0,3.31183e-05,7.84346e-05,0.000140441,0.000225286,0.000341381,0.000500235,0.000717598,0.00101502,0.00142198,0.00197884,0.00274079,0.00378338,0.00520998,0.00716201,0.009833,inf	246.518,246.518,186.633,162.618,320.371,635.363,1144.06,1946.27,2049.64,1721.62,1438.74,1316.14,1126.48,962.168,962.168,962.168
0.000208182	-130711.44	0,3.31183e-05,7.84346e-05,0.000140441,0.000225286,0.000341381,0.000500235,0.000717598,0.00101502,0.00142198,0.00197884,0.00274079,0.00378338,0.00520998,0.00716201,0.009833,inf	244.224,244.224,148.796,91.9505,220.726,527.818,1074.68,2134.8,2333.71,1902.52,1528.14,1399.98,1139.8,926.604,926.604,926.604
0.000203538	-130675.87	0,3.31183e-05,7.84346e-05,0.000140441,0.000225286,0.000341381,0.000500235,0.000717598,0.00101502,0.00142198,0.00197884,0.00274079,0.00378338,0.00520998,0.00716201,0.009833,inf	257.991,257.991,141.864,61.0333,167.815,457.954,1011.16,2247.78,2523.88,2015.79,1581.94,1477.79,1160.22,908.768,908.768,908.768
0.000198194	-130658.33	0,3.31183e-05,7.84346e-05,0.000140441,0.000225286,0.000341381,0.000500235,0.000717598,0.00101502,0.00142198,0.00197884,0.00274079,0.00378338,0.00520998,0.00716201,0.009833,inf	268.229,268.229,146.968,45.307,137.616,411.045,958.278,2318.45,2650.14,2082.22,1611.1,1551.03,1186,902.095,902.095,902.095
0.000192371	-130648.41	0,3.31183e-05,7.84346e-05,0.000140441,0.000225286,0.000341381,0.000500235,0.000717598,0.00101502,0.00142198,0.00197884,0.00274079,0.00378338,0.00520998,0.00716201,0.009833,inf	271.238,271.238,158.39,36.2031,119.507,378.737,915.063,2365.08,2734.26,2118.65,1623.7,1619.95,1215.38,902.328,902.328,902.328
0.000186239	-130642.03	0,3.31183e-05,7.84346e-05,0.000140441,0.000225286,0.000341381,0.000500235,0.000717598,0.00101502,0.00142198,0.00197884,0.00274079,0.00378338,0.00520998,0.00716201,0.009833,inf	267.259,267.259,173.977,30.2481,108.269,356.051,879.502,2397.63,2790.81,2136.93,1625.38,1684.52,1247.09,906.846,906.846,906.846
0.000179916	-130637.41	0,3.31183e-05,7.84346e-05,0.000140441,0.000225286,0.000341381,0.000500235,0.000717598,0.00101502,0.00142198,0.00197884,0.00274079,0.00378338,0.00520998,0.00716201,0.009833,inf	257.179,257.179,192.761,25.8662,101.121,339.887,849.732,2421.59,2829.23,2144.91,1619.98,1744.72,1280.4,914.071,914.071,914.071
0.000173483	-130633.69	0,3.31183e-05,7.84346e-05,0.000140441,0.000225286,0.000341381,0.000500235,0.000717598,0.00101502,0.00142198,0.00197884,0.00274079,0.00378338,0.00520998,0.00716201,0.009833,inf	242.009,242.009,214.137,22.2925,96.4735,328.245,824.277,2440.02,2855.58,2147.51,1610.11,1800.75,1314.98,923.091,923.091,923.091
0.000167004	-130630.45	0,3.31183e-05,7.84346e-05,0.000140441,0.000225286,0.000341381,0.000500235,0.000717598,0.00101502,0.00142198,0.00197884,0.00274079,0.00378338,0.00520998,0.00716201,0.009833,inf	222.924,222.924,237.508,19.1504,93.3647,319.796,802.026,2454.67,2873.8,2147.76,1597.55,1853,1350.81,933.371,933.371,933.371
0.000160531	-130627.46	0,3.31183e-05,7.84346e-05,0.000140441,0.000225286,0.000341381,0.000500235,0.000717598,0.00101502,0.00142198,0.00197884,0.00274079,0.00378338,0.00520998,0.00716201,0.009833,inf	201.304,201.304,262.162,16.2739,91.1866,313.633,782.169,2466.59,2886.46,2147.45,1583.5,1902,1388.16,944.674,944.674,944.674
0.000154107	-130624.62	0,3.31183e-05,7.84346e-05,0.000140441,0.000225286,0.000341381,0.000500235,0.000717598,0.00101502,0.00142198,0.00197884,0.00274079,0.00378338,0.00520998,0.00716201,0.009833,inf	178.564,178.564,287.384,13.6101,89.5438,309.125,764.117,2476.43,2895.27,2147.57,1568.73,1948.41,1427.43,956.911,956.911,956.911
0.000147773	-130621.85	0,3.31183e-05,7.84346e-05,0.000140441,0.000225286,0.000341381,0.000500235,0.000717598,0.00101502,0.00142198,0.00197884,0.00274079,0.00378338,0.00520998,0.00716201,0.009833,inf	155.927,155.927,312.594,11.1638,88.181,305.827,747.452,2484.62,2901.37,2148.63,1553.78,1992.88,1469.17,970.07,970.07,970.07
0.000141562	-130619.15	0,3.31183e-05,7.84346e-05,0.000140441,0.000225286,0.000341381,0.000500235,0.000717598,0.00101502,0.00142198,0.00197884,0.00274079,0.00378338,0.00520998,0.00716201,0.009833,inf	134.261,134.261,337.443,8.96477,86.9325,303.423,731.879,2491.43,2905.55,2150.83,1538.94,2036.09,1514.04,984.199,984.199,984.199
0.000135499	-130616.50	0,3.31183e-05,7.84346e-05,0.000140441,0.000225286,0.000341381,0.000500235,0.000717598,0.00101502,0.00142198,0.00197884,0.00274079,0.00378338,0.00520998,0.00716201,0.009833,inf	114.102,114.102,361.775,7.04045,85.699,301.679,717.189,2497.03,2908.39,2154.18,1524.42,2078.63,1562.83,999.362,999.362,999.362
0.000129608	-130613.91	0,3.31183e-05,7.84346e-05,0.000140441,0.000225286,0.000341381,0.000500235,0.000717598,0.00101502,0.00142198,0.00197884,0.00274079,0.00378338,0.00520998,0.00716201,0.009833,inf	95.7283,95.7283,385.606,5.40625,84.4294,300.426,703.247,2501.51,2910.31,2158.58,1510.3,2121.05,1616.43,1015.62,1015.62,1015.62
0.000123904	-130611.40	0,3.31183e-05,7.84346e-05,0.000140441,0.000225286,0.000341381,0.000500235,0.000717598,0.00101502,0.00142198,0.00197884,0.00274079,0.00378338,0.00520998,0.00716201,0.009833,inf	79.244,79.244,408.996,4.06043,83.1077,299.534,689.959,2504.93,2911.65,2163.9,1496.61,2163.81,1675.89,1033.05,1033.05,1033.05
0.000118403	-130608.95	0,3.31183e-05,7.84346e-05,0.000140441,0.000225286,0.000341381,0.000500235,0.000717598,0.00101502,0.00142198,0.00197884,0.00274079,0.00378338,0.00520998,0.00716201,0.009833,inf	64.6728,64.6728,432.038,2.9847,81.7442,298.906,677.271,2507.27,2912.71,2169.96,1483.37,2207.31,1742.5,1051.68,1051.68,1051.68
0.000113114	-130606.60	0,3.31183e-05,7.84346e-05,0.000140441,0.000225286,0.000341381,0.000500235,0.000717598,0.00101502,0.00142198,0.00197884,0.00274079,0.00378338,0.00520998,0.00716201,0.009833,inf	51.9831,51.9831,454.819,2.14955,80.3661,298.464,665.158,2508.48,2913.76,2176.63,1470.56,2251.86,1817.75,1071.54,1071.54,1071.54
0.000108047	-130604.33	0,3.31183e-05,7.84346e-05,0.000140441,0.000225286,0.000341381,0.000500235,0.000717598,0.00101502,0.00142198,0.00197884,0.00274079,0.00378338,0.00520998,0.00716201,0.009833,inf	41.1075,41.1075,477.431,1.51555,79.0112,298.151,653.614,2508.5,2915.07,2183.72,1458.16,2297.7,1903.61,1092.62,1092.62,1092.62
