time_index	left_time_boundary	right_time_boundary	lambda
0	0	1.7594e-06	238.988
1	1.7594e-06	4.07696e-06	238.988
2	4.07696e-06	7.12976e-06	1370.78
3	7.12976e-06	1.11511e-05	203.642
4	1.11511e-05	1.64481e-05	242.872
5	1.64481e-05	2.34257e-05	399.656
6	2.34257e-05	3.26168e-05	516.955
7	3.26168e-05	4.47239e-05	456.364
8	4.47239e-05	6.06718e-05	348.566
9	6.06718e-05	8.16793e-05	340.402
10	8.16793e-05	0.000109351	380.828
11	0.000109351	0.000145802	372.844
12	0.000145802	0.000193817	340.349
13	0.000193817	0.000257065	323.384
14	0.000257065	0.000340378	318.787
15	0.000340378	0.000450122	324.151
16	0.000450122	0.000594681	341.885
17	0.000594681	0.000785103	357.679
18	0.000785103	0.00103593	373.744
19	0.00103593	0.00136634	390.977
20	0.00136634	0.00180157	404.004
21	0.00180157	0.00237488	415.032
22	0.00237488	0.00313007	427.687
23	0.00313007	0.00412483	429.471
24	0.00412483	0.00543519	412.987
25	0.00543519	0.00716126	371.299
26	0.00716126	0.00943491	325.052
27	0.00943491	0.0124299	391.67
28	0.0124299	0.016375	391.67
29	0.016375	0.0215717	59774.1
30	0.0215717	0.0284171	59774.1
31	0.0284171	inf	59774.1
