time_index	left_time_boundary	right_time_boundary	lambda
0	0	2.65126e-06	1299.16
1	2.65126e-06	6.09225e-06	1299.16
2	6.09225e-06	1.05582e-05	253.819
3	1.05582e-05	1.63544e-05	248.383
4	1.63544e-05	2.3877e-05	436.288
5	2.3877e-05	3.36405e-05	612.98
6	3.36405e-05	4.63121e-05	504.19
7	4.63121e-05	6.27581e-05	363.048
8	6.27581e-05	8.41029e-05	333.198
9	8.41029e-05	0.000111805	356.616
10	0.000111805	0.00014776	338.494
11	0.00014776	0.000194424	314.075
12	0.000194424	0.000254987	309.865
13	0.000254987	0.00033359	312.734
14	0.00033359	0.000435606	320.208
15	0.000435606	0.00056801	338.62
16	0.00056801	0.000739852	356.217
17	0.000739852	0.00096288	369.901
18	0.00096288	0.00125234	387.005
19	0.00125234	0.00162802	399.523
20	0.00162802	0.0021156	407.444
21	0.0021156	0.00274842	422.009
22	0.00274842	0.00356973	434.595
23	0.00356973	0.00463568	427.83
24	0.00463568	0.00601915	404.444
25	0.00601915	0.0078147	363.25
26	0.0078147	0.0101451	332.576
27	0.0101451	0.0131696	435.33
28	0.0131696	0.017095	435.33
29	0.017095	0.0221897	61463
30	0.0221897	0.0288019	61463
31	0.0288019	inf	61463
