time_index	left_time_boundary	right_time_boundary	lambda
0	0	1.05871e-05	396.129
1	1.05871e-05	2.38693e-05	396.129
2	2.38693e-05	4.05325e-05	396.129
3	4.05325e-05	6.14375e-05	396.129
4	6.14375e-05	8.76641e-05	396.129
5	8.76641e-05	0.000120567	396.129
6	0.000120567	0.000161845	396.129
7	0.000161845	0.000213631	396.129
8	0.000213631	0.0002786	396.129
9	0.0002786	0.000360107	396.129
10	0.000360107	0.000462363	396.129
11	0.000462363	0.000590648	396.129
12	0.000590648	0.00075159	396.129
13	0.00075159	0.0009535	396.129
14	0.0009535	0.00120681	396.129
15	0.00120681	0.0015246	396.129
16	0.0015246	0.00192328	396.129
17	0.00192328	0.00242346	396.129
18	0.00242346	0.00305096	396.129
19	0.00305096	0.00383819	396.129
20	0.00383819	0.00482582	396.129
21	0.00482582	0.00606486	396.129
22	0.00606486	0.00761931	396.129
23	0.00761931	0.00956946	396.129
24	0.00956946	0.012016	396.129
25	0.012016	0.0150854	396.129
26	0.0150854	0.0189361	396.129
27	0.0189361	0.023767	396.129
28	0.023767	0.0298277	396.129
29	0.0298277	inf	396.129
