0.000301074	-177943.68	0,4.96052e-05,0.000117481,0.000210356,0.000337438,0.000511327,0.000749261,0.00107483,0.00152031,0.00212987,0.00296394,0.00410521,0.00566682,0.0078036,0.0107274,0.0147281,inf	654.793,654.793,661.486,695.385,709.033,719.018,749.221,759.689,739.693,708.027,712.503,707.843,720.456,889.274,889.274,889.274
0.000271167	-177904.26	0,4.96052e-05,0.000117481,0.000210356,0.000337438,0.000511327,0.000749261,0.00107483,0.00152031,0.00212987,0.00296394,0.00410521,0.00566682,0.0078036,0.0107274,0.0147281,inf	645.639,645.639,633.141,680.382,695.085,701.793,757.114,777.575,741.678,682.672,694.805,681.737,713.01,1163.66,1163.66,1163.66
0.00024579	-177872.27	0,4.96052e-05,0.000117481,0.000210356,0.000337438,0.000511327,0.000749261,0.00107483,0.00152031,0.00212987,0.00296394,0.00410521,0.00566682,0.0078036,0.0107274,0.0147281,inf	656.069,656.069,622.803,676.442,688.277,684.642,761.839,791.152,744.404,662.172,684.872,658.159,716.406,1871.58,1871.58,1871.58
0.000224392	-177847.07	0,4.96052e-05,0.000117481,0.000210356,0.000337438,0.000511327,0.000749261,0.00107483,0.00152031,0.00212987,0.00296394,0.00410521,0.00566682,0.0078036,0.0107274,0.0147281,inf	670.251,670.251,619.948,677.267,685.411,667.399,763.763,799.188,746.564,644.729,680.366,633.535,729.733,5616.63,5616.63,5616.63
0.000224387	-177828.17	0,4.96052e-05,0.000117481,0.000210356,0.000337438,0.000511327,0.000749261,0.00107483,0.00152031,0.00212987,0.00296394,0.00410521,0.00566682,0.0078036,0.0107274,0.0147281,inf	703.59,703.59,638.972,699.981,705.271,667.608,785.025,823.45,765.067,640.3,691.646,614.153,761.42,104410,104410,104410
0.000224387	-177826.93	0,4.96052e-05,0.000117481,0.000210356,0.000337438,0.000511327,0.000749261,0.00107483,0.00152031,0.00212987,0.00296394,0.00410521,0.00566682,0.0078036,0.0107274,0.0147281,inf	703.59,703.59,638.974,699.981,705.271,657.947,792.085,823.45,765.067,633.069,696.93,594.549,775.747,104410,104410,104410
0.000224387	-177827.19	0,4.96052e-05,0.000117481,0.000210356,0.000337438,0.000511327,0.000749261,0.00107483,0.00152031,0.00212987,0.00296394,0.00410521,0.00566682,0.0078036,0.0107274,0.0147281,inf	703.59,703.59,638.974,699.981,705.271,649.335,798.379,823.45,765.067,627.689,696.93,578.595,789.321,104410,104410,104410
0.000224387	-177827.50	0,4.96052e-05,0.000117481,0.000210356,0.000337438,0.000511327,0.000749261,0.00107483,0.00152031,0.00212987,0.00296394,0.00410521,0.00566682,0.0078036,0.0107274,0.0147281,inf	703.59,703.59,638.974,699.981,705.271,641.631,804.009,823.45,765.067,624.078,699.527,565.806,798.543,104410,104410,104410
0.000224387	-177827.68	0,4.96052e-05,0.000117481,0.000210356,0.000337438,0.000511327,0.000749261,0.00107483,0.00152031,0.00212987,0.00296394,0.00410521,0.00566682,0.0078036,0.0107274,0.0147281,inf	703.59,703.59,638.974,699.981,705.271,634.723,809.059,823.45,765.067,621.42,701.469,555.202,806.292,104410,104410,104410
0.000224387	-177827.83	0,4.96052e-05,0.000117481,0.000210356,0.000337438,0.000511327,0.000749261,0.00107483,0.00152031,0.00212987,0.00296394,0.00410521,0.00566682,0.0078036,0.0107274,0.0147281,inf	703.59,703.59,638.974,699.981,705.271,628.513,813.597,823.45,765.067,619.492,702.878,546.367,812.749,104410,104410,104410
0.000224387	-177827.95	0,4.96052e-05,0.000117481,0.000210356,0.000337438,0.000511327,0.000749261,0.00107483,0.00152031,0.00212987,0.00296394,0.00410521,0.00566682,0.0078036,0.0107274,0.0147281,inf	703.59,703.59,638.975,699.981,705.271,622.898,813.597,826.449,765.067,618.117,703.883,538.981,818.147,104410,104410,104410
0.000224387	-177828.01	0,4.96052e-05,0.000117481,0.000210356,0.000337438,0.000511327,0.000749261,0.00107483,0.00152031,0.00212987,0.00296394,0.00410521,0.00566682,0.0078036,0.0107274,0.0147281,inf	703.59,703.59,638.975,699.981,705.271,618.314,816.946,826.449,765.067,617.084,704.639,532.782,822.677,104410,104410,104410
0.000224387	-177828.10	0,4.96052e-05,0.000117481,0.000210356,0.000337438,0.000511327,0.000749261,0.00107483,0.00152031,0.00212987,0.00296394,0.00410521,0.00566682,0.0078036,0.0107274,0.0147281,inf	703.59,703.59,638.975,699.981,705.271,614.171,819.974,826.449,765.067,616.396,705.141,527.576,826.482,104410,104410,104410
0.000224387	-177828.17	0,4.96052e-05,0.000117481,0.000210356,0.000337438,0.000511327,0.000749261,0.00107483,0.00152031,0.00212987,0.00296394,0.00410521,0.00566682,0.0078036,0.0107274,0.0147281,inf	703.59,703.59,638.975,699.982,705.271,610.418,822.717,826.449,765.067,615.967,705.454,523.198,829.682,104410,104410,104410
0.000224387	-177828.24	0,4.96052e-05,0.000117481,0.000210356,0.000337438,0.000511327,0.000749261,0.00107483,0.00152031,0.00212987,0.00296394,0.00410521,0.00566682,0.0078036,0.0107274,0.0147281,inf	703.59,703.59,638.975,699.982,705.271,607.015,825.204,826.449,765.067,615.735,705.625,519.512,832.375,104410,104410,104410
0.000224387	-177828.29	0,4.96052e-05,0.000117481,0.000210356,0.000337438,0.000511327,0.000749261,0.00107483,0.00152031,0.00212987,0.00296394,0.00410521,0.00566682,0.0078036,0.0107274,0.0147281,inf	703.59,703.59,638.975,699.982,705.271,603.913,825.213,828.099,765.067,615.643,705.691,516.409,834.644,104410,104410,104410
0.000224387	-177828.30	0,4.96052e-05,0.000117481,0.000210356,0.000337438,0.000511327,0.000749261,0.00107483,0.00152031,0.00212987,0.00296394,0.00410521,0.00566682,0.0078036,0.0107274,0.0147281,inf	703.59,703.59,638.976,699.982,705.271,601.354,827.083,828.099,765.067,615.612,705.715,513.789,836.558,104410,104410,104410
0.000224387	-177828.34	0,4.96052e-05,0.000117481,0.000210356,0.000337438,0.000511327,0.000749261,0.00107483,0.00152031,0.00212987,0.00296394,0.00410521,0.00566682,0.0078036,0.0107274,0.0147281,inf	703.59,703.59,638.976,699.982,705.271,599.026,828.784,828.099,765.067,615.612,705.715,511.581,838.172,104410,104410,104410
0.000224387	-177828.37	0,4.96052e-05,0.000117481,0.000210356,0.000337438,0.000511327,0.000749261,0.00107483,0.00152031,0.00212987,0.00296394,0.00410521,0.00566682,0.0078036,0.0107274,0.0147281,inf	703.59,703.59,638.976,699.982,705.271,596.907,830.333,828.099,765.067,615.612,705.715,509.716,839.535,104410,104410,104410
0.000224387	-177828.39	0,4.96052e-05,0.000117481,0.000210356,0.000337438,0.000511327,0.000749261,0.00107483,0.00152031,0.00212987,0.00296394,0.00410521,0.00566682,0.0078036,0.0107274,0.0147281,inf	703.59,703.59,638.977,699.982,705.271,594.969,830.338,829.131,765.067,615.612,705.715,508.141,840.686,104410,104410,104410
