0.000697354	-14021385.02	0,1.77236e-06,4.10701e-06,7.18232e-06,1.12333e-05,1.65694e-05,2.35983e-05,3.28572e-05,4.50535e-05,6.1119e-05,8.22813e-05,0.000110157,0.000146877,0.000195246,0.00025896,0.000342887,0.000453439,0.000599065,0.00079089,0.00104357,0.00137641,0.00181485,0.00239238,0.00315314,0.00415524,0.00547525,0.00721404,0.00950446,0.0125215,0.0164957,0.0217307,0.0286265,inf	465.043,465.043,470.47,356.8,288.4,277.72,285.202,282.815,271.988,262.138,255.572,250.339,245.588,242.884,244.286,251.455,265.405,287.325,319.051,363.099,418.6,470.794,491.6,477.802,453.366,433.118,420.481,420.058,420.058,472.445,472.445,472.445
0.000766263	-14010683.91	0,1.77236e-06,4.10701e-06,7.18232e-06,1.12333e-05,1.65694e-05,2.35983e-05,3.28572e-05,4.50535e-05,6.1119e-05,8.22813e-05,0.000110157,0.000146877,0.000195246,0.00025896,0.000342887,0.000453439,0.000599065,0.00079089,0.00104357,0.00137641,0.00181485,0.00239238,0.00315314,0.00415524,0.00547525,0.00721404,0.00950446,0.0125215,0.0164957,0.0217307,0.0286265,inf	568.409,568.409,609.354,382.167,278.38,276.09,297.471,294.484,273.778,254.923,241.44,229.063,216.275,206.021,201.619,205.524,219.032,244.022,283.612,342.779,423.617,508.467,548.774,528.409,487.264,452.65,431.58,434.99,434.99,571.237,571.237,571.237
0.000831511	-14005640.56	0,1.77236e-06,4.10701e-06,7.18232e-06,1.12333e-05,1.65694e-05,2.35983e-05,3.28572e-05,4.50535e-05,6.1119e-05,8.22813e-05,0.000110157,0.000146877,0.000195246,0.00025896,0.000342887,0.000453439,0.000599065,0.00079089,0.00104357,0.00137641,0.00181485,0.00239238,0.00315314,0.00415524,0.00547525,0.00721404,0.00950446,0.0125215,0.0164957,0.0217307,0.0286265,inf	597.8,597.8,693.045,377.663,262.923,277.888,318.825,319.597,292.764,268.65,251.333,233.869,214.364,197.444,187.534,187.52,198.568,222.895,264.36,329.568,423.118,527.922,583.039,559.353,506.695,461.945,435.455,445.106,445.106,717.852,717.852,717.852
0.000893269	-14002454.84	0,1.77236e-06,4.10701e-06,7.18232e-06,1.12333e-05,1.65694e-05,2.35983e-05,3.28572e-05,4.50535e-05,6.1119e-05,8.22813e-05,0.000110157,0.000146877,0.000195246,0.00025896,0.000342887,0.000453439,0.000599065,0.00079089,0.00104357,0.00137641,0.00181485,0.00239238,0.00315314,0.00415524,0.00547525,0.00721404,0.00950446,0.0125215,0.0164957,0.0217307,0.0286265,inf	582.121,582.121,726.975,348.319,235.928,268.249,328.922,336.052,306.966,281.584,263.843,243.965,219.81,197.83,183.575,180.278,188.859,211.73,253.17,320.846,421.113,538.19,603.758,578.028,517.151,465.131,435.226,452.269,452.269,990.565,990.565,990.565
0.000952133	-14000076.24	0,1.77236e-06,4.10701e-06,7.18232e-06,1.12333e-05,1.65694e-05,2.35983e-05,3.28572e-05,4.50535e-05,6.1119e-05,8.22813e-05,0.000110157,0.000146877,0.000195246,0.00025896,0.000342887,0.000453439,0.000599065,0.00079089,0.00104357,0.00137641,0.00181485,0.00239238,0.00315314,0.00415524,0.00547525,0.00721404,0.00950446,0.0125215,0.0164957,0.0217307,0.0286265,inf	558.577,558.577,741.618,311.361,205.528,251.209,328.21,341.699,312.631,288.751,273.188,253.269,226.516,201.113,183.704,177.894,184.384,205.755,246.534,315.103,418.995,543.697,616.41,589.106,522.145,464.796,432.773,457.672,457.672,1882.56,1882.56,1882.56
0.00100862	-13998134.12	0,1.77236e-06,4.10701e-06,7.18232e-06,1.12333e-05,1.65694e-05,2.35983e-05,3.28572e-05,4.50535e-05,6.1119e-05,8.22813e-05,0.000110157,0.000146877,0.000195246,0.00025896,0.000342887,0.000453439,0.000599065,0.00079089,0.00104357,0.00137641,0.00181485,0.00239238,0.00315314,0.00415524,0.00547525,0.00721404,0.00950446,0.0125215,0.0164957,0.0217307,0.0286265,inf	541.681,541.681,754.784,276.271,177.555,232.496,321.778,339.982,311.51,290.394,278.46,260.159,232.485,205.065,185.543,177.906,182.713,202.736,242.666,311.385,417.199,546.647,624.139,595.434,523.822,462.478,429.162,462.078,462.078,18855.1,18855.1,18855.1
0.00100862	-13996469.06	0,1.77236e-06,4.10701e-06,7.18232e-06,1.12333e-05,1.65694e-05,2.35983e-05,3.28572e-05,4.50535e-05,6.1119e-05,8.22813e-05,0.000110157,0.000146877,0.000195246,0.00025896,0.000342887,0.000453439,0.000599065,0.00079089,0.00104357,0.00137641,0.00181485,0.00239238,0.00315314,0.00415524,0.00547525,0.00721404,0.00950446,0.0125215,0.0164957,0.0217307,0.0286265,inf	526.092,526.092,762.201,242.97,152.261,212.974,310.114,330.604,302.584,284.607,276.872,261.309,234.232,206.238,185.712,176.932,180.38,199.013,237.565,305.105,410.111,539.967,620.016,592.072,518.54,455.302,422.099,463.341,463.341,59221.5,59221.5,59221.5
0.00100862	-13996463.85	0,1.77236e-06,4.10701e-06,7.18232e-06,1.12333e-05,1.65694e-05,2.35983e-05,3.28572e-05,4.50535e-05,6.1119e-05,8.22813e-05,0.000110157,0.000146877,0.000195246,0.00025896,0.000342887,0.000453439,0.000599065,0.00079089,0.00104357,0.00137641,0.00181485,0.00239238,0.00315314,0.00415524,0.00547525,0.00721404,0.00950446,0.0125215,0.0164957,0.0217307,0.0286265,inf	526.307,526.307,762.201,221.322,134.622,200.199,305.228,326.626,297.212,281.133,276.962,263.908,237.396,208.906,185.996,177.659,180.114,197.61,235.07,301.765,406.328,536.757,618.829,591.085,515.173,449.698,416.248,465.245,465.245,59223.3,59223.3,59223.3
0.00100862	-13996472.11	0,1.77236e-06,4.10701e-06,7.18232e-06,1.12333e-05,1.65694e-05,2.35983e-05,3.28572e-05,4.50535e-05,6.1119e-05,8.22813e-05,0.000110157,0.000146877,0.000195246,0.00025896,0.000342887,0.000453439,0.000599065,0.00079089,0.00104357,0.00137641,0.00181485,0.00239238,0.00315314,0.00415524,0.00547525,0.00721404,0.00950446,0.0125215,0.0164957,0.0217307,0.0286265,inf	526.412,526.412,762.202,205.888,121.063,190.692,303.333,324.599,292.666,277.719,276.695,266.082,240.295,208.906,185.996,179.034,180.185,197.141,233.712,299.769,404.089,535.191,619.199,591.295,512.939,445.072,411.191,467.576,467.576,59224.1,59224.1,59224.1
0.00100862	-13996478.77	0,1.77236e-06,4.10701e-06,7.18232e-06,1.12333e-05,1.65694e-05,2.35983e-05,3.28572e-05,4.50535e-05,6.1119e-05,8.22813e-05,0.000110157,0.000146877,0.000195246,0.00025896,0.000342887,0.000453439,0.000599065,0.00079089,0.00104357,0.00137641,0.00181485,0.00239238,0.00315314,0.00415524,0.00547525,0.00721404,0.00950446,0.0125215,0.0164957,0.0217307,0.0286265,inf	526.872,526.872,762.578,194.576,110.267,183.48,303.707,324.117,288.862,274.459,276.249,267.984,243,208.906,187.168,179.034,180.185,197.105,232.902,298.431,402.603,534.402,620.257,592.234,511.304,441.091,406.687,470.216,470.216,59224.1,59224.1,59224.1
0.00100862	-13996482.60	0,1.77236e-06,4.10701e-06,7.18232e-06,1.12333e-05,1.65694e-05,2.35983e-05,3.28572e-05,4.50535e-05,6.1119e-05,8.22813e-05,0.000110157,0.000146877,0.000195246,0.00025896,0.000342887,0.000453439,0.000599065,0.00079089,0.00104357,0.00137641,0.00181485,0.00239238,0.00315314,0.00415524,0.00547525,0.00721404,0.00950446,0.0125215,0.0164957,0.0217307,0.0286265,inf	526.935,526.935,762.578,185.991,101.356,177.734,305.581,324.657,285.497,271.254,275.565,269.563,245.448,209.9,187.168,179.034,180.185,197.105,232.394,297.452,401.508,533.992,621.663,592.29,510.143,437.572,402.602,472.656,472.656,59224.1,59224.1,59224.1
0.00100862	-13996486.84	0,1.77236e-06,4.10701e-06,7.18232e-06,1.12333e-05,1.65694e-05,2.35983e-05,3.28572e-05,4.50535e-05,6.1119e-05,8.22813e-05,0.000110157,0.000146877,0.000195246,0.00025896,0.000342887,0.000453439,0.000599065,0.00079089,0.00104357,0.00137641,0.00181485,0.00239238,0.00315314,0.00415524,0.00547525,0.00721404,0.00950446,0.0125215,0.0164957,0.0217307,0.0286265,inf	527.202,527.202,762.578,179.374,93.7715,173.005,308.506,325.874,282.443,268.104,274.669,270.857,247.667,210.599,187.168,179.034,180.185,197.105,232.086,296.706,400.667,533.836,622.695,592.29,509.317,434.458,398.884,474.804,474.804,59224.1,59224.1,59224.1
0.00100862	-13996491.00	0,1.77236e-06,4.10701e-06,7.18232e-06,1.12333e-05,1.65694e-05,2.35983e-05,3.28572e-05,4.50535e-05,6.1119e-05,8.22813e-05,0.000110157,0.000146877,0.000195246,0.00025896,0.000342887,0.000453439,0.000599065,0.00079089,0.00104357,0.00137641,0.00181485,0.00239238,0.00315314,0.00415524,0.00547525,0.00721404,0.00950446,0.0125215,0.0164957,0.0217307,0.0286265,inf	527.437,527.437,762.578,174.144,87.1973,168.987,312.24,327.629,279.65,265,273.64,271.933,249.699,211.058,187.176,179.034,180.185,197.105,231.916,296.123,400.005,533.863,623.367,592.29,508.808,431.695,395.486,476.69,476.69,59224.1,59224.1,59224.1
0.00100862	-13996494.91	0,1.77236e-06,4.10701e-06,7.18232e-06,1.12333e-05,1.65694e-05,2.35983e-05,3.28572e-05,4.50535e-05,6.1119e-05,8.22813e-05,0.000110157,0.000146877,0.000195246,0.00025896,0.000342887,0.000453439,0.000599065,0.00079089,0.00104357,0.00137641,0.00181485,0.00239238,0.00315314,0.00415524,0.00547525,0.00721404,0.00950446,0.0125215,0.0164957,0.0217307,0.0286265,inf	527.777,527.777,762.578,169.964,81.3673,165.464,316.56,329.796,277.075,261.978,272.528,272.844,251.582,211.334,187.183,179.034,180.185,197.105,231.842,295.657,399.473,534.028,623.777,592.29,508.573,429.238,392.365,478.359,478.359,59224.1,59224.1,59224.1
0.00100862	-13996498.45	0,1.77236e-06,4.10701e-06,7.18232e-06,1.12333e-05,1.65694e-05,2.35983e-05,3.28572e-05,4.50535e-05,6.1119e-05,8.22813e-05,0.000110157,0.000146877,0.000195246,0.00025896,0.000342887,0.000453439,0.000599065,0.00079089,0.00104357,0.00137641,0.00181485,0.00239238,0.00315314,0.00415524,0.00547525,0.00721404,0.00950446,0.0125215,0.0164957,0.0217307,0.0286265,inf	527.994,527.994,762.675,166.55,76.1299,162.28,321.311,331.45,274.677,259.01,271.361,273.629,253.347,211.643,187.183,179.034,180.185,197.105,231.837,295.273,399.034,534.294,623.998,592.29,508.571,427.044,389.487,479.848,479.848,59224.1,59224.1,59224.1
0.00100862	-13996501.54	0,1.77236e-06,4.10701e-06,7.18232e-06,1.12333e-05,1.65694e-05,2.35983e-05,3.28572e-05,4.50535e-05,6.1119e-05,8.22813e-05,0.000110157,0.000146877,0.000195246,0.00025896,0.000342887,0.000453439,0.000599065,0.00079089,0.00104357,0.00137641,0.00181485,0.00239238,0.00315314,0.00415524,0.00547525,0.00721404,0.00950446,0.0125215,0.0164957,0.0217307,0.0286265,inf	527.995,527.995,762.951,163.77,71.3871,159.374,326.451,332.221,272.454,256.148,270.165,274.304,254.999,211.643,187.48,179.034,180.185,197.105,231.837,294.944,398.657,534.294,624.36,592.29,508.571,425.083,386.819,481.209,481.209,59224.1,59224.1,59224.1
0.00100862	-13996504.43	0,1.77236e-06,4.10701e-06,7.18232e-06,1.12333e-05,1.65694e-05,2.35983e-05,3.28572e-05,4.50535e-05,6.1119e-05,8.22813e-05,0.000110157,0.000146877,0.000195246,0.00025896,0.000342887,0.000453439,0.000599065,0.00079089,0.00104357,0.00137641,0.00181485,0.00239238,0.00315314,0.00415524,0.00547525,0.00721404,0.00950446,0.0125215,0.0164957,0.0217307,0.0286265,inf	527.995,527.995,763.337,161.5,67.0772,156.73,331.934,332.221,270.456,253.406,268.971,274.896,256.553,212.059,187.48,179.034,180.185,197.105,231.837,294.672,398.349,534.68,624.364,592.29,508.571,423.332,384.362,481.209,481.209,59224.9,59224.9,59224.9
0.00100862	-13996507.09	0,1.77236e-06,4.10701e-06,7.18232e-06,1.12333e-05,1.65694e-05,2.35983e-05,3.28572e-05,4.50535e-05,6.1119e-05,8.22813e-05,0.000110157,0.000146877,0.000195246,0.00025896,0.000342887,0.000453439,0.000599065,0.00079089,0.00104357,0.00137641,0.00181485,0.00239238,0.00315314,0.00415524,0.00547525,0.00721404,0.00950446,0.0125215,0.0164957,0.0217307,0.0286265,inf	527.995,527.995,763.567,159.689,63.1352,154.32,336.828,332.221,268.665,250.789,267.781,275.403,256.553,212.059,188.656,179.034,180.185,197.105,231.837,294.432,398.078,535.024,624.364,592.29,508.571,421.795,382.082,482.339,482.339,59224.9,59224.9,59224.9
0.00100862	-13996509.65	0,1.77236e-06,4.10701e-06,7.18232e-06,1.12333e-05,1.65694e-05,2.35983e-05,3.28572e-05,4.50535e-05,6.1119e-05,8.22813e-05,0.000110157,0.000146877,0.000195246,0.00025896,0.000342887,0.000453439,0.000599065,0.00079089,0.00104357,0.00137641,0.00181485,0.00239238,0.00315314,0.00415524,0.00547525,0.00721404,0.00950446,0.0125215,0.0164957,0.0217307,0.0286265,inf	527.995,527.995,763.843,158.299,59.5413,152.164,341.144,332.221,267.187,248.397,266.7,275.915,257.934,212.059,188.881,179.034,180.185,197.105,231.837,294.21,397.832,535.03,624.597,592.29,508.571,420.43,379.956,483.369,483.369,59224.9,59224.9,59224.9
0.00100862	-13996512.14	0,1.77236e-06,4.10701e-06,7.18232e-06,1.12333e-05,1.65694e-05,2.35983e-05,3.28572e-05,4.50535e-05,6.1119e-05,8.22813e-05,0.000110157,0.000146877,0.000195246,0.00025896,0.000342887,0.000453439,0.000599065,0.00079089,0.00104357,0.00137641,0.00181485,0.00239238,0.00315314,0.00415524,0.00547525,0.00721404,0.00950446,0.0125215,0.0164957,0.0217307,0.0286265,inf	527.995,527.995,764.133,157.252,56.2324,150.197,345.002,332.221,265.892,246.121,265.633,276.366,259.235,212.361,188.881,179.034,180.185,197.105,231.837,294.026,397.633,535.03,624.597,592.438,508.571,419.219,377.969,484.316,484.316,59224.9,59224.9,59224.9
