0.000408125	-1485517.65	0,1.73647e-05,4.39314e-05,8.45766e-05,0.000146761,0.000241897,0.00038745,0.000610134,0.000950824,0.00147206,0.0022695,0.00348953,0.00535609,0.00821178,0.0125808,0.019265,inf	84.741,84.741,151.069,71.8161,105.782,190.289,359.821,498.676,333.623,341.74,562.949,674.425,662.42,675.217,675.217,675.217
0.000339655	-1482869.27	0,1.73647e-05,4.39314e-05,8.45766e-05,0.000146761,0.000241897,0.00038745,0.000610134,0.000950824,0.00147206,0.0022695,0.00348953,0.00535609,0.00821178,0.0125808,0.019265,inf	5.40826,5.40826,25.513,9.43925,23.2479,76.8528,274.933,578.053,235.627,246.546,577.399,844.532,863.444,1007.11,1007.11,1007.11
0.000277047	-1481157.79	0,1.73647e-05,4.39314e-05,8.45766e-05,0.000146761,0.000241897,0.00038745,0.000610134,0.000950824,0.00147206,0.0022695,0.00348953,0.00535609,0.00821178,0.0125808,0.019265,inf	0.508623,0.508623,3.29382,1.03803,4.59059,28.0177,190.837,673.485,169.022,182.816,566.801,1023.76,1156.23,2211.16,2211.16,2211.16
0.000220638	-1479836.46	0,1.73647e-05,4.39314e-05,8.45766e-05,0.000146761,0.000241897,0.00038745,0.000610134,0.000950824,0.00147206,0.0022695,0.00348953,0.00535609,0.00821178,0.0125808,0.019265,inf	0.508623,0.508623,0.533139,0.508623,0.771143,8.71375,115.303,734.252,122.304,136.11,544.573,1225.84,1691.96,34442.4,34442.4,34442.4
0.000220632	-1478766.58	0,1.73647e-05,4.39314e-05,8.45766e-05,0.000146761,0.000241897,0.00038745,0.000610134,0.000950824,0.00147206,0.0022695,0.00348953,0.00535609,0.00821178,0.0125808,0.019265,inf	0.508623,0.508623,0.509668,0.508623,0.508623,2.29546,60.7175,1014.76,94.0488,98.0564,560.394,1510.19,3451.39,64532.8,64532.8,64532.8
