time_index	left_time_boundary	right_time_boundary	lambda
0	0	8.34142e-06	0.508625
1	8.34142e-06	1.88062e-05	0.508625
2	1.88062e-05	3.19349e-05	0.508625
3	3.19349e-05	4.84056e-05	0.508625
4	4.84056e-05	6.90691e-05	0.508625
5	6.90691e-05	9.49926e-05	0.508625
6	9.49926e-05	0.000127515	0.508625
7	0.000127515	0.000168317	0.508625
8	0.000168317	0.000219505	0.508625
9	0.000219505	0.000283723	0.508625
10	0.000283723	0.000364288	0.508625
11	0.000364288	0.000465362	0.508625
12	0.000465362	0.000592165	0.508625
13	0.000592165	0.000751247	0.508625
14	0.000751247	0.000950824	0.508625
15	0.000950824	0.00120121	0.508625
16	0.00120121	0.00151532	0.508625
17	0.00151532	0.0019094	0.508625
18	0.0019094	0.0024038	0.508625
19	0.0024038	0.00302405	0.508625
20	0.00302405	0.00380219	0.508625
21	0.00380219	0.00477841	0.508625
22	0.00477841	0.00600313	0.508625
23	0.00600313	0.00753962	0.508625
24	0.00753962	0.00946723	0.508625
25	0.00946723	0.0118855	0.508625
26	0.0118855	0.0149194	0.508625
27	0.0149194	0.0187256	0.508625
28	0.0187256	0.0235007	0.508625
29	0.0235007	inf	0.508625
