AIC = 3024595.7453788104467

y0 0.98986494691257753686
y0_prime 0
y1 1.0552928048678895667
y1_prime 0
y2 0.86187167351108984192
y2_prime 0
y3 1.7556328373826546319
y3_prime 0
rho 0.0030558819159854306094
rho.alpha 4.5362353343511960801
r_ii 0.99916274137146854351
theta 0.0049477282020507513255
