LogLikelihood = -671549.40217200899497

y0 0.27024603471479013983
y0_prime 0
y1 0.26050896314576643675
y1_prime 0
y2 2.2507812601294459043
y2_prime 0
y3 14.687829436106271785
y3_prime 0
rho 0.00020580505996578812552
theta 0.0018577624846543184123
