AIC = 623745.45407617220189

y0 0.4681878443545164914
y0_prime 0
y1 0.91044313362946283075
y1_prime 0
y2 1.1930309205068285738
y2_prime 0
y3 1.9900921450201780605
y3_prime 0
rho 0.0018646745145271224897
theta 0.005073225701090009615
