AIC = 623161.50745111820288

y0 0.41407425813018522431
y0_prime 0
y1 1.2220442390712744629
y1_prime 0
y2 0.7434327679054330007
y2_prime 0
y3 1.6129046999125784545
y3_prime 0
rho 0.011026313694485935166
rho.alpha 0.25387127515340962569
r_ii 0.99984872498140231478
theta 0.005073225701090009615
