0.000631709	-12684416.93	0,1.60202e-06,3.71227e-06,6.492e-06,1.01536e-05,1.49768e-05,2.13302e-05,2.96992e-05,4.07233e-05,5.52447e-05,7.4373e-05,9.95697e-05,0.00013276,0.00017648,0.00023407,0.000309931,0.000409858,0.000541486,0.000714874,0.000943269,0.00124412,0.00164042,0.00216244,0.00285008,0.00375586,0.00494901,0.00652067,0.00859095,0.011318,0.0149102,0.0196421,0.0258751,inf	12117.4,12117.4,6709.02,4686.84,3090.52,1971.03,1267.57,847.673,601.284,454.501,363.914,309.558,280.939,269.183,268.067,273.832,284.193,299.722,323.425,359.648,410.065,466.838,505.262,510.176,496.871,483.132,474.761,473.446,473.446,535.947,535.947,535.947
0.000697234	-12675346.40	0,1.60202e-06,3.71227e-06,6.492e-06,1.01536e-05,1.49768e-05,2.13302e-05,2.96992e-05,4.07233e-05,5.52447e-05,7.4373e-05,9.95697e-05,0.00013276,0.00017648,0.00023407,0.000309931,0.000409858,0.000541486,0.000714874,0.000943269,0.00124412,0.00164042,0.00216244,0.00285008,0.00375586,0.00494901,0.00652067,0.00859095,0.011318,0.0149102,0.0196421,0.0258751,inf	19663.8,19663.8,10953.1,7473.65,4572.73,2650.61,1549.96,951.129,625.53,440.886,330.808,267.249,234.918,221.694,220.298,226.289,236.784,253.319,281.215,328.042,397.796,482.081,544.117,553.622,532.389,510.442,497.715,499.303,499.303,668.818,668.818,668.818
0.000759833	-12671098.48	0,1.60202e-06,3.71227e-06,6.492e-06,1.01536e-05,1.49768e-05,2.13302e-05,2.96992e-05,4.07233e-05,5.52447e-05,7.4373e-05,9.95697e-05,0.00013276,0.00017648,0.00023407,0.000309931,0.000409858,0.000541486,0.000714874,0.000943269,0.00124412,0.00164042,0.00216244,0.00285008,0.00375586,0.00494901,0.00652067,0.00859095,0.011318,0.0149102,0.0196421,0.0258751,inf	19866.5,19866.5,11717.3,8233.55,4984.31,2818.56,1609.11,968.752,626.817,433.489,318.212,252.551,219.865,206.604,205.182,210.503,219.143,233.568,261.113,311.652,390.529,489.73,566.304,579.182,553.178,526.557,512.036,519.336,519.336,882.143,882.143,882.143
0.000819322	-12668309.49	0,1.60202e-06,3.71227e-06,6.492e-06,1.01536e-05,1.49768e-05,2.13302e-05,2.96992e-05,4.07233e-05,5.52447e-05,7.4373e-05,9.95697e-05,0.00013276,0.00017648,0.00023407,0.000309931,0.000409858,0.000541486,0.000714874,0.000943269,0.00124412,0.00164042,0.00216244,0.00285008,0.00375586,0.00494901,0.00652067,0.00859095,0.011318,0.0149102,0.0196421,0.0258751,inf	18789.9,18789.9,11518.5,8327.51,5025.45,2810.1,1592.77,957.74,620.39,428.007,312.269,246.914,215.158,202.688,201.79,206.539,212.964,224.497,250.385,302.162,385.738,493.374,578.741,593.659,564.572,535.359,520.523,535.236,535.236,1362.9,1362.9,1362.9
0.000876114	-12666163.56	0,1.60202e-06,3.71227e-06,6.492e-06,1.01536e-05,1.49768e-05,2.13302e-05,2.96992e-05,4.07233e-05,5.52447e-05,7.4373e-05,9.95697e-05,0.00013276,0.00017648,0.00023407,0.000309931,0.000409858,0.000541486,0.000714874,0.000943269,0.00124412,0.00164042,0.00216244,0.00285008,0.00375586,0.00494901,0.00652067,0.00859095,0.011318,0.0149102,0.0196421,0.0258751,inf	17918,17918,11181,8247.04,4945.67,2736.6,1545.06,932.297,607.82,420.778,307.147,243.615,213.738,202.815,203.07,207.593,211.894,220.442,244.373,296.411,382.522,494.989,585.497,601.342,570.071,539.465,525.12,548.251,548.251,4062.15,4062.15,4062.15
0.000876114	-12664380.83	0,1.60202e-06,3.71227e-06,6.492e-06,1.01536e-05,1.49768e-05,2.13302e-05,2.96992e-05,4.07233e-05,5.52447e-05,7.4373e-05,9.95697e-05,0.00013276,0.00017648,0.00023407,0.000309931,0.000409858,0.000541486,0.000714874,0.000943269,0.00124412,0.00164042,0.00216244,0.00285008,0.00375586,0.00494901,0.00652067,0.00859095,0.011318,0.0149102,0.0196421,0.0258751,inf	17152.1,17152.1,10745.4,8026.41,4763.94,2604.43,1464.58,887.454,582.967,405.614,296.976,237.028,210.049,201.366,203.262,207.844,210.197,215.821,237.529,288.617,374.524,487.298,579.179,596.644,565.673,535.587,522.972,555.833,555.833,65473.5,65473.5,65473.5
0.000876114	-12664338.11	0,1.60202e-06,3.71227e-06,6.492e-06,1.01536e-05,1.49768e-05,2.13302e-05,2.96992e-05,4.07233e-05,5.52447e-05,7.4373e-05,9.95697e-05,0.00013276,0.00017648,0.00023407,0.000309931,0.000409858,0.000541486,0.000714874,0.000943269,0.00124412,0.00164042,0.00216244,0.00285008,0.00375586,0.00494901,0.00652067,0.00859095,0.011318,0.0149102,0.0196421,0.0258751,inf	17078,17078,10723.9,8107.56,4763.94,2571.59,1437.41,872.207,575.338,400.831,293.266,234.769,209.633,202.751,206.258,211.06,211.614,214.45,234.125,284.531,370.525,483.591,576.406,594.472,562.889,532.748,521.503,559.085,559.085,65473.5,65473.5,65473.5
0.000876114	-12664325.66	0,1.60202e-06,3.71227e-06,6.492e-06,1.01536e-05,1.49768e-05,2.13302e-05,2.96992e-05,4.07233e-05,5.52447e-05,7.4373e-05,9.95697e-05,0.00013276,0.00017648,0.00023407,0.000309931,0.000409858,0.000541486,0.000714874,0.000943269,0.00124412,0.00164042,0.00216244,0.00285008,0.00375586,0.00494901,0.00652067,0.00859095,0.011318,0.0149102,0.0196421,0.0258751,inf	17028.9,17028.9,10716.4,8156.18,4763.94,2553.03,1419.3,862.254,570.665,397.59,290.251,232.74,209.219,204.108,209.383,214.614,211.614,214.129,232.051,282.033,368.343,481.938,575.377,593.515,561.021,530.553,520.473,561.046,561.046,65473.5,65473.5,65473.5
0.000876114	-12664321.16	0,1.60202e-06,3.71227e-06,6.492e-06,1.01536e-05,1.49768e-05,2.13302e-05,2.96992e-05,4.07233e-05,5.52447e-05,7.4373e-05,9.95697e-05,0.00013276,0.00017648,0.00023407,0.000309931,0.000409858,0.000541486,0.000714874,0.000943269,0.00124412,0.00164042,0.00216244,0.00285008,0.00375586,0.00494901,0.00652067,0.00859095,0.011318,0.0149102,0.0196421,0.0258751,inf	16996.1,16996.1,10718,8183.51,4763.94,2543.52,1406.84,855.538,567.719,395.145,287.483,230.639,208.561,205.177,212.329,216.608,211.708,214.129,230.642,280.346,367.087,481.248,575.228,593.268,559.678,528.746,519.719,562.315,562.315,65473.5,65473.5,65473.5
0.000876114	-12664318.53	0,1.60202e-06,3.71227e-06,6.492e-06,1.01536e-05,1.49768e-05,2.13302e-05,2.96992e-05,4.07233e-05,5.52447e-05,7.4373e-05,9.95697e-05,0.00013276,0.00017648,0.00023407,0.000309931,0.000409858,0.000541486,0.000714874,0.000943269,0.00124412,0.00164042,0.00216244,0.00285008,0.00375586,0.00494901,0.00652067,0.00859095,0.011318,0.0149102,0.0196421,0.0258751,inf	16972.7,16972.7,10725.6,8198.22,4763.94,2540.57,1398.53,851.269,566.149,393.378,284.97,228.533,207.738,206.02,215.106,217.628,211.708,214.129,229.594,279.098,366.319,481.071,575.515,593.376,558.648,527.182,519.154,563.197,563.197,65473.5,65473.5,65473.5
0.000876114	-12664316.27	0,1.60202e-06,3.71227e-06,6.492e-06,1.01536e-05,1.49768e-05,2.13302e-05,2.96992e-05,4.07233e-05,5.52447e-05,7.4373e-05,9.95697e-05,0.00013276,0.00017648,0.00023407,0.000309931,0.000409858,0.000541486,0.000714874,0.000943269,0.00124412,0.00164042,0.00216244,0.00285008,0.00375586,0.00494901,0.00652067,0.00859095,0.011318,0.0149102,0.0196421,0.0258751,inf	16955.4,16955.4,10736.4,8205.11,4763.94,2540.57,1393.15,848.815,565.655,392.198,282.721,226.487,206.838,206.722,217.783,217.85,211.708,214.129,228.773,278.115,365.826,481.15,576.019,593.376,557.806,525.785,518.723,563.89,563.89,65473.5,65473.5,65473.5
0.000876114	-12664314.31	0,1.60202e-06,3.71227e-06,6.492e-06,1.01536e-05,1.49768e-05,2.13302e-05,2.96992e-05,4.07233e-05,5.52447e-05,7.4373e-05,9.95697e-05,0.00013276,0.00017648,0.00023407,0.000309931,0.000409858,0.000541486,0.000714874,0.000943269,0.00124412,0.00164042,0.00216244,0.00285008,0.00375586,0.00494901,0.00652067,0.00859095,0.011318,0.0149102,0.0196421,0.0258751,inf	16940.9,16940.9,10737.9,8205.11,4772.77,2540.57,1389.77,847.66,565.981,391.488,280.709,224.526,205.912,207.344,220.028,217.85,211.708,214.129,228.111,277.305,365.497,481.176,576.629,593.478,557.093,524.521,518.404,564.441,564.441,65473.5,65473.5,65473.5
0.000876114	-12664312.56	0,1.60202e-06,3.71227e-06,6.492e-06,1.01536e-05,1.49768e-05,2.13302e-05,2.96992e-05,4.07233e-05,5.52447e-05,7.4373e-05,9.95697e-05,0.00013276,0.00017648,0.00023407,0.000309931,0.000409858,0.000541486,0.000714874,0.000943269,0.00124412,0.00164042,0.00216244,0.00285008,0.00375586,0.00494901,0.00652067,0.00859095,0.011318,0.0149102,0.0196421,0.0258751,inf	16930.9,16930.9,10749.6,8205.12,4772.77,2540.57,1387.78,847.486,566.999,391.208,278.935,222.664,204.98,207.919,221.653,217.85,211.708,214.129,227.599,276.634,365.289,481.176,577.212,593.478,556.488,523.364,518.184,564.441,564.441,65473.8,65473.8,65473.8
0.000876114	-12664310.68	0,1.60202e-06,3.71227e-06,6.492e-06,1.01536e-05,1.49768e-05,2.13302e-05,2.96992e-05,4.07233e-05,5.52447e-05,7.4373e-05,9.95697e-05,0.00013276,0.00017648,0.00023407,0.000309931,0.000409858,0.000541486,0.000714874,0.000943269,0.00124412,0.00164042,0.00216244,0.00285008,0.00375586,0.00494901,0.00652067,0.00859095,0.011318,0.0149102,0.0196421,0.0258751,inf	16921.5,16921.5,10760.5,8205.14,4772.77,2540.57,1386.52,847.856,567.163,391.19,277.334,220.912,204.101,208.497,223.078,217.85,211.708,214.129,227.159,276.058,365.172,481.559,577.381,593.483,555.983,522.308,518.048,564.844,564.844,65473.8,65473.8,65473.8
0.000876114	-12664309.59	0,1.60202e-06,3.71227e-06,6.492e-06,1.01536e-05,1.49768e-05,2.13302e-05,2.96992e-05,4.07233e-05,5.52447e-05,7.4373e-05,9.95697e-05,0.00013276,0.00017648,0.00023407,0.000309931,0.000409858,0.000541486,0.000714874,0.000943269,0.00124412,0.00164042,0.00216244,0.00285008,0.00375586,0.00494901,0.00652067,0.00859095,0.011318,0.0149102,0.0196421,0.0258751,inf	16912.4,16912.4,10771,8205.14,4772.77,2540.57,1386.22,847.856,567.336,391.19,275.939,219.263,203.242,209.061,224.329,217.85,211.708,214.129,226.802,275.547,365.104,481.559,577.381,593.772,555.557,521.336,517.991,564.844,564.844,65474,65474,65474
0.000876114	-12664308.45	0,1.60202e-06,3.71227e-06,6.492e-06,1.01536e-05,1.49768e-05,2.13302e-05,2.96992e-05,4.07233e-05,5.52447e-05,7.4373e-05,9.95697e-05,0.00013276,0.00017648,0.00023407,0.000309931,0.000409858,0.000541486,0.000714874,0.000943269,0.00124412,0.00164042,0.00216244,0.00285008,0.00375586,0.00494901,0.00652067,0.00859095,0.011318,0.0149102,0.0196421,0.0258751,inf	16903.7,16903.7,10781.1,8205.14,4772.77,2540.57,1386.22,847.856,567.336,391.19,274.709,217.711,202.419,209.623,225.465,217.85,211.708,214.129,226.514,275.113,365.11,481.931,577.381,593.772,555.215,520.441,518.001,564.844,564.844,65474.2,65474.2,65474.2
0.000876114	-12664307.48	0,1.60202e-06,3.71227e-06,6.492e-06,1.01536e-05,1.49768e-05,2.13302e-05,2.96992e-05,4.07233e-05,5.52447e-05,7.4373e-05,9.95697e-05,0.00013276,0.00017648,0.00023407,0.000309931,0.000409858,0.000541486,0.000714874,0.000943269,0.00124412,0.00164042,0.00216244,0.00285008,0.00375586,0.00494901,0.00652067,0.00859095,0.011318,0.0149102,0.0196421,0.0258751,inf	16895.5,16895.5,10781.1,8212.34,4772.77,2540.57,1386.22,847.856,567.336,391.19,273.634,216.246,201.625,210.176,226.501,217.85,211.708,214.129,226.26,274.714,365.141,482.249,577.381,593.772,554.944,519.616,518.071,565.077,565.077,65474.2,65474.2,65474.2
0.000876114	-12664306.92	0,1.60202e-06,3.71227e-06,6.492e-06,1.01536e-05,1.49768e-05,2.13302e-05,2.96992e-05,4.07233e-05,5.52447e-05,7.4373e-05,9.95697e-05,0.00013276,0.00017648,0.00023407,0.000309931,0.000409858,0.000541486,0.000714874,0.000943269,0.00124412,0.00164042,0.00216244,0.00285008,0.00375586,0.00494901,0.00652067,0.00859095,0.011318,0.0149102,0.0196421,0.0258751,inf	16888.1,16888.1,10781.1,8218.66,4772.77,2540.57,1386.22,847.856,567.336,391.19,272.699,214.862,200.859,210.72,227.446,217.85,211.708,214.129,226.036,274.343,365.194,482.249,577.381,593.928,554.726,518.847,518.192,565.27,565.27,65474.2,65474.2,65474.2
0.000876114	-12664306.50	0,1.60202e-06,3.71227e-06,6.492e-06,1.01536e-05,1.49768e-05,2.13302e-05,2.96992e-05,4.07233e-05,5.52447e-05,7.4373e-05,9.95697e-05,0.00013276,0.00017648,0.00023407,0.000309931,0.000409858,0.000541486,0.000714874,0.000943269,0.00124412,0.00164042,0.00216244,0.00285008,0.00375586,0.00494901,0.00652067,0.00859095,0.011318,0.0149102,0.0196421,0.0258751,inf	16881.6,16881.6,10788.9,8218.66,4772.77,2540.57,1386.22,847.856,567.336,391.19,271.89,213.551,200.117,211.256,228.308,217.85,211.708,214.129,225.851,274.016,365.286,482.448,577.381,593.928,554.56,518.125,518.352,565.428,565.428,65474.2,65474.2,65474.2
0.000876114	-12664306.15	0,1.60202e-06,3.71227e-06,6.492e-06,1.01536e-05,1.49768e-05,2.13302e-05,2.96992e-05,4.07233e-05,5.52447e-05,7.4373e-05,9.95697e-05,0.00013276,0.00017648,0.00023407,0.000309931,0.000409858,0.000541486,0.000714874,0.000943269,0.00124412,0.00164042,0.00216244,0.00285008,0.00375586,0.00494901,0.00652067,0.00859095,0.011318,0.0149102,0.0196421,0.0258751,inf	16875.1,16875.1,10788.9,8224.3,4772.77,2540.57,1386.22,847.856,567.336,391.19,271.195,212.307,199.398,211.785,229.096,217.85,211.708,214.129,225.686,273.709,365.392,482.617,577.381,593.928,554.438,517.445,518.551,565.555,565.555,65474.2,65474.2,65474.2
