LogLikelihood = -656834.43777460895944

y0 0.28210597016876315379
y0_prime 0
y1 0.33035269446114506886
y1_prime 0
y2 1.954358735561289917
y2_prime 0
y3 17.616089663739781912
y3_prime 0
rho 0.00090181292475271937828
theta 0.0018058784199598836191
