0.000657335	-4501763.06	0,4.45175e-06,1.0118e-05,1.73299e-05,2.65094e-05,3.8193e-05,5.3064e-05,7.19918e-05,9.60833e-05,0.000126747,0.000165776,0.000215452,0.00027868,0.000359157,0.000461589,0.000591964,0.000757906,0.000969118,0.00123795,0.00158012,0.00201564,0.00256996,0.00327551,0.00417354,0.00531655,0.00677138,0.00862309,0.01098,0.0139798,0.017798,0.0226578,0.0288435,inf	472.474,472.474,398.337,445.452,433.757,392.864,354.058,331.929,318.528,308.711,307.611,310.641,312.938,318.715,326.841,337.298,351.182,367.865,387.915,409.908,429.168,440.905,442.936,438.299,432.551,431.859,433.311,417.323,417.323,320.038,320.038,320.038
0.000701458	-4500696.99	0,4.45175e-06,1.0118e-05,1.73299e-05,2.65094e-05,3.8193e-05,5.3064e-05,7.19918e-05,9.60833e-05,0.000126747,0.000165776,0.000215452,0.00027868,0.000359157,0.000461589,0.000591964,0.000757906,0.000969118,0.00123795,0.00158012,0.00201564,0.00256996,0.00327551,0.00417354,0.00531655,0.00677138,0.00862309,0.01098,0.0139798,0.017798,0.0226578,0.0288435,inf	490.398,490.398,389.383,502.957,493.522,421.608,357.39,324.743,303.93,286.858,284.33,287.023,286.831,292.371,300.93,312.699,329.825,351.403,379.066,411.304,440.997,460.054,463.655,456.074,447.052,448.178,453.199,420.459,420.459,236.531,236.531,236.531
0.00074264	-4500116.32	0,4.45175e-06,1.0118e-05,1.73299e-05,2.65094e-05,3.8193e-05,5.3064e-05,7.19918e-05,9.60833e-05,0.000126747,0.000165776,0.000215452,0.00027868,0.000359157,0.000461589,0.000591964,0.000757906,0.000969118,0.00123795,0.00158012,0.00201564,0.00256996,0.00327551,0.00417354,0.00531655,0.00677138,0.00862309,0.01098,0.0139798,0.017798,0.0226578,0.0288435,inf	474.472,474.472,358.806,536.28,537.314,443.571,363.756,327.587,303.368,281.928,279.811,282.534,279.717,284.371,291.851,302.744,320.134,342.893,373.754,411.398,447.23,471,475.691,466.106,455.304,459.676,469.549,419.628,419.628,130.92,130.92,130.92
0.000781028	-4499702.19	0,4.45175e-06,1.0118e-05,1.73299e-05,2.65094e-05,3.8193e-05,5.3064e-05,7.19918e-05,9.60833e-05,0.000126747,0.000165776,0.000215452,0.00027868,0.000359157,0.000461589,0.000591964,0.000757906,0.000969118,0.00123795,0.00158012,0.00201564,0.00256996,0.00327551,0.00417354,0.00531655,0.00677138,0.00862309,0.01098,0.0139798,0.017798,0.0226578,0.0288435,inf	452.506,452.506,320.803,549.471,562.868,453.815,365.104,329.465,304.296,280.618,280.369,283.775,278.925,283.005,289.233,298.736,315.419,337.948,370.106,410.781,450.364,477.168,482.498,471.416,459.745,468.219,483.998,417.559,417.559,13.364,13.364,13.364
0.000816827	-4499515.77	0,4.45175e-06,1.0118e-05,1.73299e-05,2.65094e-05,3.8193e-05,5.3064e-05,7.19918e-05,9.60833e-05,0.000126747,0.000165776,0.000215452,0.00027868,0.000359157,0.000461589,0.000591964,0.000757906,0.000969118,0.00123795,0.00158012,0.00201564,0.00256996,0.00327551,0.00417354,0.00531655,0.00677138,0.00862309,0.01098,0.0139798,0.017798,0.0226578,0.0288435,inf	435.152,435.152,285.068,552.688,576.881,456.01,362.309,329.17,304.298,279.703,282.179,286.689,280.402,284.337,289.463,297.555,313.224,334.957,367.527,409.977,451.93,480.736,486.466,474.429,463.079,478.024,506.957,473.44,473.44,64.133,64.133,64.133
0.000850798	-4499117.63	0,4.45175e-06,1.0118e-05,1.73299e-05,2.65094e-05,3.8193e-05,5.3064e-05,7.19918e-05,9.60833e-05,0.000126747,0.000165776,0.000215452,0.00027868,0.000359157,0.000461589,0.000591964,0.000757906,0.000969118,0.00123795,0.00158012,0.00201564,0.00256996,0.00327551,0.00417354,0.00531655,0.00677138,0.00862309,0.01098,0.0139798,0.017798,0.0226578,0.0288435,inf	423.231,423.231,254.714,552.694,585.232,454.027,357.225,327.223,303.048,278.239,283.82,289.619,282.378,286.553,290.821,297.661,312.287,333.022,365.557,409.012,452.348,482.206,487.721,474.368,462.68,481.873,517.527,468.622,468.622,8.96135,8.96135,8.96135
0.000882604	-4499006.03	0,4.45175e-06,1.0118e-05,1.73299e-05,2.65094e-05,3.8193e-05,5.3064e-05,7.19918e-05,9.60833e-05,0.000126747,0.000165776,0.000215452,0.00027868,0.000359157,0.000461589,0.000591964,0.000757906,0.000969118,0.00123795,0.00158012,0.00201564,0.00256996,0.00327551,0.00417354,0.00531655,0.00677138,0.00862309,0.01098,0.0139798,0.017798,0.0226578,0.0288435,inf	415.436,415.436,229.695,552.399,590.927,450.113,351.311,324.586,301.149,276.472,285.253,292.345,284.482,289.169,292.779,298.544,312.185,331.895,364.224,408.314,452.544,483.037,488.243,473.867,462.5,487.461,535.82,531.024,531.024,91.6303,91.6303,91.6303
0.00091297	-4498700.00	0,4.45175e-06,1.0118e-05,1.73299e-05,2.65094e-05,3.8193e-05,5.3064e-05,7.19918e-05,9.60833e-05,0.000126747,0.000165776,0.000215452,0.00027868,0.000359157,0.000461589,0.000591964,0.000757906,0.000969118,0.00123795,0.00158012,0.00201564,0.00256996,0.00327551,0.00417354,0.00531655,0.00677138,0.00862309,0.01098,0.0139798,0.017798,0.0226578,0.0288435,inf	410.105,410.105,209.117,552.897,595.574,445.51,345.277,321.664,298.786,274.37,286.267,294.536,286.285,291.674,294.807,299.681,312.434,331.149,363.177,407.615,452.297,482.924,487.407,471.643,459.868,488.287,542.176,514.296,514.296,8.43762,8.43762,8.43762
0.000941744	-4498614.39	0,4.45175e-06,1.0118e-05,1.73299e-05,2.65094e-05,3.8193e-05,5.3064e-05,7.19918e-05,9.60833e-05,0.000126747,0.000165776,0.000215452,0.00027868,0.000359157,0.000461589,0.000591964,0.000757906,0.000969118,0.00123795,0.00158012,0.00201564,0.00256996,0.00327551,0.00417354,0.00531655,0.00677138,0.00862309,0.01098,0.0139798,0.017798,0.0226578,0.0288435,inf	406.103,406.103,192.069,554.385,599.789,440.857,339.65,318.976,296.451,272.329,287.19,296.467,287.964,294.165,296.942,301.07,313.032,330.831,362.568,407.263,452.248,482.894,486.7,469.812,458.132,491.229,555.878,567.177,567.177,90.9028,90.9028,90.9028
0.000969295	-4498381.27	0,4.45175e-06,1.0118e-05,1.73299e-05,2.65094e-05,3.8193e-05,5.3064e-05,7.19918e-05,9.60833e-05,0.000126747,0.000165776,0.000215452,0.00027868,0.000359157,0.000461589,0.000591964,0.000757906,0.000969118,0.00123795,0.00158012,0.00201564,0.00256996,0.00327551,0.00417354,0.00531655,0.00677138,0.00862309,0.01098,0.0139798,0.017798,0.0226578,0.0288435,inf	402.805,402.805,177.71,556.619,603.677,436.275,334.441,316.496,294.1,270.262,287.888,297.972,289.309,296.382,298.902,302.412,313.672,330.625,362.066,406.902,451.979,482.38,485.271,467.02,454.913,490.952,560.67,546.679,546.679,7.88525,7.88525,7.88525
0.000995515	-4498317.05	0,4.45175e-06,1.0118e-05,1.73299e-05,2.65094e-05,3.8193e-05,5.3064e-05,7.19918e-05,9.60833e-05,0.000126747,0.000165776,0.000215452,0.00027868,0.000359157,0.000461589,0.000591964,0.000757906,0.000969118,0.00123795,0.00158012,0.00201564,0.00256996,0.00327551,0.00417354,0.00531655,0.00677138,0.00862309,0.01098,0.0139798,0.017798,0.0226578,0.0288435,inf	399.867,399.867,165.459,559.464,607.308,431.929,329.825,314.461,292.007,268.437,288.643,299.331,290.55,298.516,300.834,303.818,314.453,330.642,361.84,406.811,451.951,482.107,484.178,464.796,452.654,492.615,571.896,594.27,594.27,89.2381,89.2381,89.2381
0.00102067	-4498129.81	0,4.45175e-06,1.0118e-05,1.73299e-05,2.65094e-05,3.8193e-05,5.3064e-05,7.19918e-05,9.60833e-05,0.000126747,0.000165776,0.000215452,0.00027868,0.000359157,0.000461589,0.000591964,0.000757906,0.000969118,0.00123795,0.00158012,0.00201564,0.00256996,0.00327551,0.00417354,0.00531655,0.00677138,0.00862309,0.01098,0.0139798,0.017798,0.0226578,0.0288435,inf	397.077,397.077,154.889,562.632,610.565,427.707,325.641,312.708,290.038,266.72,289.31,300.402,291.534,300.389,302.551,305.092,315.165,330.654,361.623,406.671,451.756,481.51,482.61,461.924,449.339,491.815,575.785,571.545,571.545,7.54526,7.54526,7.54526
0.00104468	-4498082.81	0,4.45175e-06,1.0118e-05,1.73299e-05,2.65094e-05,3.8193e-05,5.3064e-05,7.19918e-05,9.60833e-05,0.000126747,0.000165776,0.000215452,0.00027868,0.000359157,0.000461589,0.000591964,0.000757906,0.000969118,0.00123795,0.00158012,0.00201564,0.00256996,0.00327551,0.00417354,0.00531655,0.00677138,0.00862309,0.01098,0.0139798,0.017798,0.0226578,0.0288435,inf	394.552,394.552,145.702,566.073,613.529,423.704,321.969,311.378,288.369,265.29,290.105,301.424,292.474,302.198,304.221,306.374,315.939,330.8,361.592,406.741,451.79,481.19,481.431,459.646,446.939,492.757,585.391,614.893,614.893,87.7094,87.7094,87.7094
0.00106774	-4497928.18	0,4.45175e-06,1.0118e-05,1.73299e-05,2.65094e-05,3.8193e-05,5.3064e-05,7.19918e-05,9.60833e-05,0.000126747,0.000165776,0.000215452,0.00027868,0.000359157,0.000461589,0.000591964,0.000757906,0.000969118,0.00123795,0.00158012,0.00201564,0.00256996,0.00327551,0.00417354,0.00531655,0.00677138,0.00862309,0.01098,0.0139798,0.017798,0.0226578,0.0288435,inf	392.062,392.062,137.611,569.575,616.013,419.78,318.634,310.277,286.831,263.994,290.87,302.247,293.225,303.788,305.692,307.508,316.608,330.89,361.524,406.737,451.675,480.617,479.894,456.877,443.717,491.704,588.714,590.78,590.78,7.33174,7.33174,7.33174
0.00108979	-4497895.16	0,4.45175e-06,1.0118e-05,1.73299e-05,2.65094e-05,3.8193e-05,5.3064e-05,7.19918e-05,9.60833e-05,0.000126747,0.000165776,0.000215452,0.00027868,0.000359157,0.000461589,0.000591964,0.000757906,0.000969118,0.00123795,0.00158012,0.00201564,0.00256996,0.00327551,0.00417354,0.00531655,0.00677138,0.00862309,0.01098,0.0139798,0.017798,0.0226578,0.0288435,inf	389.868,389.868,130.485,573.22,618.193,416.024,315.708,309.516,285.556,262.968,291.778,303.072,293.975,305.341,307.127,308.638,317.31,331.071,361.593,406.902,451.767,480.319,478.747,454.681,441.342,492.22,597.215,630.767,630.767,86.4735,86.4735,86.4735
0.001111	-4497764.59	0,4.45175e-06,1.0118e-05,1.73299e-05,2.65094e-05,3.8193e-05,5.3064e-05,7.19918e-05,9.60833e-05,0.000126747,0.000165776,0.000215452,0.00027868,0.000359157,0.000461589,0.000591964,0.000757906,0.000969118,0.00123795,0.00158012,0.00201564,0.00256996,0.00327551,0.00417354,0.00531655,0.00677138,0.00862309,0.01098,0.0139798,0.017798,0.0226578,0.0288435,inf	387.671,387.671,124.149,576.816,619.915,412.301,313.022,308.912,284.375,262.06,292.671,303.75,294.583,306.715,308.388,309.626,317.899,331.178,361.6,406.98,451.717,479.803,477.302,452.08,438.285,491.049,600.163,605.749,605.749,7.19538,7.19538,7.19538
0.00113131	-4497742.93	0,4.45175e-06,1.0118e-05,1.73299e-05,2.65094e-05,3.8193e-05,5.3064e-05,7.19918e-05,9.60833e-05,0.000126747,0.000165776,0.000215452,0.00027868,0.000359157,0.000461589,0.000591964,0.000757906,0.000969118,0.00123795,0.00158012,0.00201564,0.00256996,0.00327551,0.00417354,0.00531655,0.00677138,0.00862309,0.01098,0.0139798,0.017798,0.0226578,0.0288435,inf	385.712,385.712,118.518,580.482,621.356,408.734,310.646,308.561,283.408,261.385,293.7,304.455,295.215,308.077,309.628,310.613,318.513,331.354,361.717,407.2,451.855,479.548,476.232,450.016,436.006,491.307,607.887,643.082,643.082,85.5013,85.5013,85.5013
0.00115086	-4497630.59	0,4.45175e-06,1.0118e-05,1.73299e-05,2.65094e-05,3.8193e-05,5.3064e-05,7.19918e-05,9.60833e-05,0.000126747,0.000165776,0.000215452,0.00027868,0.000359157,0.000461589,0.000591964,0.000757906,0.000969118,0.00123795,0.00158012,0.00201564,0.00256996,0.00327551,0.00417354,0.00531655,0.00677138,0.00862309,0.01098,0.0139798,0.017798,0.0226578,0.0288435,inf	383.839,383.839,113.465,584.089,622.396,405.177,308.439,308.306,282.498,260.797,294.709,305.039,295.734,309.288,310.717,311.468,319.016,331.45,361.761,407.325,451.854,479.096,474.898,447.598,433.133,490.089,610.577,617.446,617.446,7.1076,7.1076,7.1076
0.0011696	-4497618.21	0,4.45175e-06,1.0118e-05,1.73299e-05,2.65094e-05,3.8193e-05,5.3064e-05,7.19918e-05,9.60833e-05,0.000126747,0.000165776,0.000215452,0.00027868,0.000359157,0.000461589,0.000591964,0.000757906,0.000969118,0.00123795,0.00158012,0.00201564,0.00256996,0.00327551,0.00417354,0.00531655,0.00677138,0.00862309,0.01098,0.0139798,0.017798,0.0226578,0.0288435,inf	382.159,382.159,108.943,587.739,623.23,401.752,306.475,308.246,281.756,260.408,295.836,305.66,296.29,310.502,311.8,312.329,319.541,331.603,361.897,407.574,452.025,478.89,473.92,445.682,430.975,490.185,617.742,652.677,652.677,84.7356,84.7356,84.7356
0.00118766	-4497519.94	0,4.45175e-06,1.0118e-05,1.73299e-05,2.65094e-05,3.8193e-05,5.3064e-05,7.19918e-05,9.60833e-05,0.000126747,0.000165776,0.000215452,0.00027868,0.000359157,0.000461589,0.000591964,0.000757906,0.000969118,0.00123795,0.00158012,0.00201564,0.00256996,0.00327551,0.00417354,0.00531655,0.00677138,0.00862309,0.01098,0.0139798,0.017798,0.0226578,0.0288435,inf	380.582,380.582,104.859,591.339,623.737,398.338,304.631,308.232,281.04,260.076,296.931,306.174,296.75,311.586,312.752,313.07,319.963,331.676,361.957,407.725,452.06,478.497,472.697,443.442,428.284,488.958,620.25,626.593,626.593,7.05151,7.05151,7.05151
