time_index	left_time_boundary	right_time_boundary	lambda
0	0	4.00317e-06	542.684
1	4.00317e-06	1.09492e-05	542.684
2	1.09492e-05	2.30017e-05	58.1446
3	2.30017e-05	4.39144e-05	490.05
4	4.39144e-05	8.0201e-05	345.494
5	8.0201e-05	0.000143163	257.171
6	0.000143163	0.000252412	271.22
7	0.000252412	0.000441975	339.293
8	0.000441975	0.000770893	334.302
9	0.000770893	0.00134161	350.071
10	0.00134161	0.0023319	395.391
11	0.0023319	0.00405018	498.119
12	0.00405018	0.00703164	358.025
13	0.00703164	0.0122049	840.736
14	0.0122049	0.0211813	840.736
15	0.0211813	inf	840.736
