0.000652109	-299293.15	0,8.98585e-05,0.000212813,0.000381054,0.00061126,0.000926255,0.00135727,0.00194703,0.00275401,0.00385821,0.0053691,0.00743648,0.0102653,0.014136,0.0194324,0.0266795,inf	374.987,374.987,328.3,317.08,338.959,374.484,409.638,428.907,434.136,429.169,413.162,409.789,390.414,389.391,389.391,389.391
0.000693139	-299237.23	0,8.98585e-05,0.000212813,0.000381054,0.00061126,0.000926255,0.00135727,0.00194703,0.00275401,0.00385821,0.0053691,0.00743648,0.0102653,0.014136,0.0194324,0.0266795,inf	388.605,388.605,310.405,283.557,312.136,362.686,414.09,441.421,448.715,441.246,413.478,409.244,374.973,377.204,377.204,377.204
0.000731318	-299204.81	0,8.98585e-05,0.000212813,0.000381054,0.00061126,0.000926255,0.00135727,0.00194703,0.00275401,0.00385821,0.0053691,0.00743648,0.0102653,0.014136,0.0194324,0.0266795,inf	403.674,403.674,307.733,267.446,299.271,357.922,418.095,448.687,456.915,448.689,412.276,408.657,362.789,370.335,370.335,370.335
0.000766808	-299180.84	0,8.98585e-05,0.000212813,0.000381054,0.00061126,0.000926255,0.00135727,0.00194703,0.00275401,0.00385821,0.0053691,0.00743648,0.0102653,0.014136,0.0194324,0.0266795,inf	413.142,413.142,309.502,258.384,292.506,356.105,421.266,452.646,461.288,453.356,410.507,408.311,353.212,366.99,366.99,366.99
0.000799953	-299161.51	0,8.98585e-05,0.000212813,0.000381054,0.00061126,0.000926255,0.00135727,0.00194703,0.00275401,0.00385821,0.0053691,0.00743648,0.0102653,0.014136,0.0194324,0.0266795,inf	417.77,417.77,312.611,252.768,288.925,355.791,423.806,454.61,463.4,456.357,408.64,408.281,345.65,366.01,366.01,366.01
0.00083105	-299145.27	0,8.98585e-05,0.000212813,0.000381054,0.00061126,0.000926255,0.00135727,0.00194703,0.00275401,0.00385821,0.0053691,0.00743648,0.0102653,0.014136,0.0194324,0.0266795,inf	419.332,419.332,316.002,249.028,287.173,356.319,425.906,455.37,464.17,458.333,406.875,408.537,339.618,366.627,366.627,366.627
0.000860328	-299131.31	0,8.98585e-05,0.000212813,0.000381054,0.00061126,0.000926255,0.00135727,0.00194703,0.00275401,0.00385821,0.0053691,0.00743648,0.0102653,0.014136,0.0194324,0.0266795,inf	419.193,419.193,319.263,246.373,286.529,357.335,427.692,455.395,464.137,459.653,405.283,409.014,334.739,368.327,368.327,368.327
0.000887966	-299119.17	0,8.98585e-05,0.000212813,0.000381054,0.00061126,0.000926255,0.00135727,0.00194703,0.00275401,0.00385821,0.0053691,0.00743648,0.0102653,0.014136,0.0194324,0.0266795,inf	418.225,418.225,322.231,244.371,286.578,358.633,429.247,454.97,463.623,460.538,403.872,409.644,330.733,370.761,370.761,370.761
0.000914108	-299108.50	0,8.98585e-05,0.000212813,0.000381054,0.00061126,0.000926255,0.00135727,0.00194703,0.00275401,0.00385821,0.0053691,0.00743648,0.0102653,0.014136,0.0194324,0.0266795,inf	416.934,416.934,324.85,242.774,287.068,360.086,430.621,454.267,462.824,461.124,402.631,410.369,327.392,373.689,373.689,373.689
0.000938872	-299099.09	0,8.98585e-05,0.000212813,0.000381054,0.00061126,0.000926255,0.00135727,0.00194703,0.00275401,0.00385821,0.0053691,0.00743648,0.0102653,0.014136,0.0194324,0.0266795,inf	415.593,415.593,327.115,241.435,287.842,361.617,431.85,453.396,461.862,461.494,401.537,411.143,324.562,376.944,376.944,376.944
0.000962358	-299090.74	0,8.98585e-05,0.000212813,0.000381054,0.00061126,0.000926255,0.00135727,0.00194703,0.00275401,0.00385821,0.0053691,0.00743648,0.0102653,0.014136,0.0194324,0.0266795,inf	414.349,414.349,329.048,240.265,288.797,363.174,432.959,452.429,460.813,461.705,400.57,411.932,322.127,380.411,380.411,380.411
0.000984656	-299083.30	0,8.98585e-05,0.000212813,0.000381054,0.00061126,0.000926255,0.00135727,0.00194703,0.00275401,0.00385821,0.0053691,0.00743648,0.0102653,0.014136,0.0194324,0.0266795,inf	413.262,413.262,330.682,239.211,289.867,364.726,433.969,451.411,459.726,461.798,399.71,412.711,320.004,384.007,384.007,384.007
0.00100584	-299076.66	0,8.98585e-05,0.000212813,0.000381054,0.00061126,0.000926255,0.00135727,0.00194703,0.00275401,0.00385821,0.0053691,0.00743648,0.0102653,0.014136,0.0194324,0.0266795,inf	412.354,412.354,332.052,238.238,291.008,366.254,434.892,450.374,458.635,461.798,398.941,413.465,318.128,387.676,387.676,387.676
0.00102599	-299070.71	0,8.98585e-05,0.000212813,0.000381054,0.00061126,0.000926255,0.00135727,0.00194703,0.00275401,0.00385821,0.0053691,0.00743648,0.0102653,0.014136,0.0194324,0.0266795,inf	411.624,411.624,333.194,237.327,292.189,367.743,435.74,449.336,457.558,461.727,398.248,414.181,316.451,391.374,391.374,391.374
0.00104516	-299065.37	0,8.98585e-05,0.000212813,0.000381054,0.00061126,0.000926255,0.00135727,0.00194703,0.00275401,0.00385821,0.0053691,0.00743648,0.0102653,0.014136,0.0194324,0.0266795,inf	411.057,411.057,334.14,236.463,293.39,369.186,436.521,448.311,456.51,461.599,397.622,414.853,314.936,395.073,395.073,395.073
0.0010634	-299060.55	0,8.98585e-05,0.000212813,0.000381054,0.00061126,0.000926255,0.00135727,0.00194703,0.00275401,0.00385821,0.0053691,0.00743648,0.0102653,0.014136,0.0194324,0.0266795,inf	410.636,410.636,334.922,235.639,294.595,370.578,437.244,447.309,455.499,461.427,397.053,415.477,313.554,398.752,398.752,398.752
0.00108079	-299056.21	0,8.98585e-05,0.000212813,0.000381054,0.00061126,0.000926255,0.00135727,0.00194703,0.00275401,0.00385821,0.0053691,0.00743648,0.0102653,0.014136,0.0194324,0.0266795,inf	410.343,410.343,335.564,234.848,295.794,371.915,437.913,446.334,454.529,461.219,396.534,416.053,312.283,402.396,402.396,402.396
0.00109735	-299052.27	0,8.98585e-05,0.000212813,0.000381054,0.00061126,0.000926255,0.00135727,0.00194703,0.00275401,0.00385821,0.0053691,0.00743648,0.0102653,0.014136,0.0194324,0.0266795,inf	410.152,410.152,336.09,234.086,296.98,373.197,438.534,445.39,453.603,460.984,396.058,416.58,311.106,405.994,405.994,405.994
0.00111314	-299048.71	0,8.98585e-05,0.000212813,0.000381054,0.00061126,0.000926255,0.00135727,0.00194703,0.00275401,0.00385821,0.0053691,0.00743648,0.0102653,0.014136,0.0194324,0.0266795,inf	410.051,410.051,336.52,233.35,298.148,374.424,439.112,444.48,452.723,460.727,395.622,417.059,310.008,409.54,409.54,409.54
0.0011282	-299045.47	0,8.98585e-05,0.000212813,0.000381054,0.00061126,0.000926255,0.00135727,0.00194703,0.00275401,0.00385821,0.0053691,0.00743648,0.0102653,0.014136,0.0194324,0.0266795,inf	410.026,410.026,336.87,232.639,299.294,375.596,439.649,443.604,451.888,460.454,395.221,417.492,308.978,413.028,413.028,413.028
