0.000358195	-7712735.14	0,2.0745e-06,5.67405e-06,1.19198e-05,2.27571e-05,4.15613e-05,7.41893e-05,0.000130804,0.000229038,0.000399488,0.000695243,0.00120842,0.00209886,0.0036439,0.00632476,0.0109764,inf	614.86,614.86,779.499,885.008,866.627,839.323,823.837,789.62,770.467,772.489,784.685,825.61,866.964,1042.73,1042.73,1042.73
0.000390403	-7711771.73	0,2.0745e-06,5.67405e-06,1.19198e-05,2.27571e-05,4.15613e-05,7.41893e-05,0.000130804,0.000229038,0.000399488,0.000695243,0.00120842,0.00209886,0.0036439,0.00632476,0.0109764,inf	488.941,488.941,728.963,920.324,889.269,858.709,845.167,794.161,765.189,765.553,772.789,829.149,903.522,1362.6,1362.6,1362.6
0.000416301	-7711753.33	0,2.0745e-06,5.67405e-06,1.19198e-05,2.27571e-05,4.15613e-05,7.41893e-05,0.000130804,0.000229038,0.000399488,0.000695243,0.00120842,0.00209886,0.0036439,0.00632476,0.0109764,inf	414.726,414.726,680.511,934.739,887.968,863.171,858.067,799.131,766.129,765.315,762.301,819.735,917.549,1878.24,1878.24,1878.24
0.000437278	-7712286.37	0,2.0745e-06,5.67405e-06,1.19198e-05,2.27571e-05,4.15613e-05,7.41893e-05,0.000130804,0.000229038,0.000399488,0.000695243,0.00120842,0.00209886,0.0036439,0.00632476,0.0109764,inf	374.43,374.43,642.829,944.956,877.673,861.063,865.603,802.959,769.41,768.879,754.532,804.683,918.952,3176.61,3176.61,3176.61
0.00045451	-7713294.98	0,2.0745e-06,5.67405e-06,1.19198e-05,2.27571e-05,4.15613e-05,7.41893e-05,0.000130804,0.000229038,0.000399488,0.000695243,0.00120842,0.00209886,0.0036439,0.00632476,0.0109764,inf	354.565,354.565,614.686,956.875,865.155,856.898,870.112,805.488,773.345,774.541,749.04,785.808,912.828,13264.7,13264.7,13264.7
0.00045451	-7714636.38	0,2.0745e-06,5.67405e-06,1.19198e-05,2.27571e-05,4.15613e-05,7.41893e-05,0.000130804,0.000229038,0.000399488,0.000695243,0.00120842,0.00209886,0.0036439,0.00632476,0.0109764,inf	344.448,344.448,588.873,964.758,846.885,846.583,866.434,800.59,770.863,773.629,736.559,756.022,898.508,98629.1,98629.1,98629.1
0.00045451	-7714958.03	0,2.0745e-06,5.67405e-06,1.19198e-05,2.27571e-05,4.15613e-05,7.41893e-05,0.000130804,0.000229038,0.000399488,0.000695243,0.00120842,0.00209886,0.0036439,0.00632476,0.0109764,inf	342.053,342.053,571.19,976.003,835.333,841.152,866.277,798.312,771.512,775.38,733.363,733.811,887.894,98634.3,98634.3,98634.3
0.00045451	-7714827.14	0,2.0745e-06,5.67405e-06,1.19198e-05,2.27571e-05,4.15613e-05,7.41893e-05,0.000130804,0.000229038,0.000399488,0.000695243,0.00120842,0.00209886,0.0036439,0.00632476,0.0109764,inf	342.053,342.053,556.874,984.202,826.245,837.205,866.524,795.894,772.321,776.685,733.363,717.975,879.75,98637.9,98637.9,98637.9
0.00045451	-7714738.20	0,2.0745e-06,5.67405e-06,1.19198e-05,2.27571e-05,4.15613e-05,7.41893e-05,0.000130804,0.000229038,0.000399488,0.000695243,0.00120842,0.00209886,0.0036439,0.00632476,0.0109764,inf	342.053,342.053,545.219,990.878,819.201,834.533,867.187,793.379,772.954,777.772,733.363,706.397,873.335,98640.7,98640.7,98640.7
0.00045451	-7714674.92	0,2.0745e-06,5.67405e-06,1.19198e-05,2.27571e-05,4.15613e-05,7.41893e-05,0.000130804,0.000229038,0.000399488,0.000695243,0.00120842,0.00209886,0.0036439,0.00632476,0.0109764,inf	342.056,342.056,535.621,996.409,813.575,832.704,868.169,790.932,773.477,777.772,733.872,697.894,868.182,98642.8,98642.8,98642.8
0.00045451	-7714628.39	0,2.0745e-06,5.67405e-06,1.19198e-05,2.27571e-05,4.15613e-05,7.41893e-05,0.000130804,0.000229038,0.000399488,0.000695243,0.00120842,0.00209886,0.0036439,0.00632476,0.0109764,inf	342.057,342.057,527.625,1001.02,809.015,831.5,869.511,788.664,774.109,777.772,734.192,691.62,863.953,98644.4,98644.4,98644.4
0.00045451	-7714593.04	0,2.0745e-06,5.67405e-06,1.19198e-05,2.27571e-05,4.15613e-05,7.41893e-05,0.000130804,0.000229038,0.000399488,0.000695243,0.00120842,0.00209886,0.0036439,0.00632476,0.0109764,inf	342.059,342.059,520.866,1004.91,805.102,830.643,869.535,786.434,774.775,777.772,734.192,687.02,860.418,98645.8,98645.8,98645.8
0.00045451	-7714565.58	0,2.0745e-06,5.67405e-06,1.19198e-05,2.27571e-05,4.15613e-05,7.41893e-05,0.000130804,0.000229038,0.000399488,0.000695243,0.00120842,0.00209886,0.0036439,0.00632476,0.0109764,inf	342.06,342.06,515.237,1008.16,802.033,830.387,870.703,784.485,775.552,777.772,734.192,683.694,857.402,98646.8,98646.8,98646.8
0.00045451	-7714543.58	0,2.0745e-06,5.67405e-06,1.19198e-05,2.27571e-05,4.15613e-05,7.41893e-05,0.000130804,0.000229038,0.000399488,0.000695243,0.00120842,0.00209886,0.0036439,0.00632476,0.0109764,inf	342.063,342.063,510.444,1010.92,799.271,830.218,871.717,782.594,775.552,778.4,734.192,681.319,854.772,98647.6,98647.6,98647.6
0.00045451	-7714525.01	0,2.0745e-06,5.67405e-06,1.19198e-05,2.27571e-05,4.15613e-05,7.41893e-05,0.000130804,0.000229038,0.000399488,0.000695243,0.00120842,0.00209886,0.0036439,0.00632476,0.0109764,inf	342.063,342.063,506.381,1013.26,796.872,830.271,872.484,780.894,776.34,778.4,734.256,679.647,852.43,98648.3,98648.3,98648.3
0.00045451	-7714509.44	0,2.0745e-06,5.67405e-06,1.19198e-05,2.27571e-05,4.15613e-05,7.41893e-05,0.000130804,0.000229038,0.000399488,0.000695243,0.00120842,0.00209886,0.0036439,0.00632476,0.0109764,inf	342.067,342.067,502.918,1013.26,794.732,830.438,873.48,779.265,777.086,778.4,734.32,678.512,850.302,98648.9,98648.9,98648.9
0.00045451	-7714495.84	0,2.0745e-06,5.67405e-06,1.19198e-05,2.27571e-05,4.15613e-05,7.41893e-05,0.000130804,0.000229038,0.000399488,0.000695243,0.00120842,0.00209886,0.0036439,0.00632476,0.0109764,inf	342.07,342.07,500.304,1014.77,792.957,830.669,873.936,777.676,777.775,778.532,734.32,677.785,848.334,98649.4,98649.4,98649.4
0.00045451	-7714483.67	0,2.0745e-06,5.67405e-06,1.19198e-05,2.27571e-05,4.15613e-05,7.41893e-05,0.000130804,0.000229038,0.000399488,0.000695243,0.00120842,0.00209886,0.0036439,0.00632476,0.0109764,inf	342.07,342.07,498.099,1014.77,791.39,831.056,874.477,776.184,778.406,778.663,734.32,677.369,846.486,98649.9,98649.9,98649.9
0.00045451	-7714472.56	0,2.0745e-06,5.67405e-06,1.19198e-05,2.27571e-05,4.15613e-05,7.41893e-05,0.000130804,0.000229038,0.000399488,0.000695243,0.00120842,0.00209886,0.0036439,0.00632476,0.0109764,inf	342.071,342.071,496.414,1015.74,790.079,831.549,874.629,774.766,778.975,778.806,734.32,677.192,844.724,98650.3,98650.3,98650.3
0.00045451	-7714462.22	0,2.0745e-06,5.67405e-06,1.19198e-05,2.27571e-05,4.15613e-05,7.41893e-05,0.000130804,0.000229038,0.000399488,0.000695243,0.00120842,0.00209886,0.0036439,0.00632476,0.0109764,inf	342.071,342.071,495.005,1015.74,788.924,831.549,875.168,773.471,779.501,778.933,734.32,677.192,843.027,98650.6,98650.6,98650.6
