time_index	left_time_boundary	right_time_boundary	lambda
0	0	1.03582e-05	298.072
1	1.03582e-05	2.71389e-05	298.072
2	2.71389e-05	5.43241e-05	350.83
3	5.43241e-05	9.8365e-05	378.818
4	9.8365e-05	0.000169713	382.29
5	0.000169713	0.000285298	355.379
6	0.000285298	0.00047255	362.313
7	0.00047255	0.000775905	386.932
8	0.000775905	0.00126735	399.338
9	0.00126735	0.0020635	402.805
10	0.0020635	0.0033533	423.386
11	0.0033533	0.0054428	421.121
12	0.0054428	0.00882787	377.246
13	0.00882787	0.0143118	380.316
14	0.0143118	0.0231959	380.316
15	0.0231959	inf	380.316
