time_index	left_time_boundary	right_time_boundary	lambda
0	0	1.61347e-06	14217.2
1	1.61347e-06	3.73881e-06	14217.2
2	3.73881e-06	6.53842e-06	1120.5
3	6.53842e-06	1.02262e-05	5835.63
4	1.02262e-05	1.50839e-05	4260.27
5	1.50839e-05	2.14827e-05	539.187
6	2.14827e-05	2.99116e-05	88.1413
7	2.99116e-05	4.10144e-05	175.731
8	4.10144e-05	5.56397e-05	590.328
9	5.56397e-05	7.49048e-05	635.74
10	7.49048e-05	0.000100282	397.095
11	0.000100282	0.000133709	281.304
12	0.000133709	0.000177742	288.243
13	0.000177742	0.000235744	359.738
14	0.000235744	0.000312147	426.159
15	0.000312147	0.000412788	406.418
16	0.000412788	0.000545358	358.416
17	0.000545358	0.000719986	324.407
18	0.000719986	0.000950014	332.141
19	0.000950014	0.00125302	363.419
20	0.00125302	0.00165215	394.775
21	0.00165215	0.00217791	410.385
22	0.00217791	0.00287046	424.068
23	0.00287046	0.00378272	429.158
24	0.00378272	0.00498439	424.484
25	0.00498439	0.0065673	428.36
26	0.0065673	0.00865238	422.443
27	0.00865238	0.0113989	300.664
28	0.0113989	0.0150169	300.664
29	0.0150169	0.0197826	65195.6
30	0.0197826	0.0260602	65195.6
31	0.0260602	inf	65195.6
