0.00058254	-12454869.55	0,1.61347e-06,3.73881e-06,6.53842e-06,1.02262e-05,1.50839e-05,2.14827e-05,2.99116e-05,4.10144e-05,5.56397e-05,7.49048e-05,0.000100282,0.000133709,0.000177742,0.000235744,0.000312147,0.000412788,0.000545358,0.000719986,0.000950014,0.00125302,0.00165215,0.00217791,0.00287046,0.00378272,0.00498439,0.0065673,0.00865238,0.0113989,0.0150169,0.0197826,0.0260602,inf	9257.27,9257.27,3307.46,2573.66,1955.51,1186.79,659.391,491.223,459.256,432.192,401.244,382.048,376.601,379.064,381.418,379.431,375.58,374.874,380.51,391.048,403.649,415.352,424.94,430.32,431.69,431.311,429.149,417.091,417.091,474.771,474.771,474.771
0.000596005	-12454122.13	0,1.61347e-06,3.73881e-06,6.53842e-06,1.02262e-05,1.50839e-05,2.14827e-05,2.99116e-05,4.10144e-05,5.56397e-05,7.49048e-05,0.000100282,0.000133709,0.000177742,0.000235744,0.000312147,0.000412788,0.000545358,0.000719986,0.000950014,0.00125302,0.00165215,0.00217791,0.00287046,0.00378272,0.00498439,0.0065673,0.00865238,0.0113989,0.0150169,0.0197826,0.0260602,inf	14166.3,14166.3,4404.98,3757.87,2759.72,1354.32,623.586,465.528,464.86,440.111,395.805,367.735,362.197,369.258,374.412,369.57,359.876,355.277,361.686,376.322,394.16,410.243,423.211,429.879,430.59,429.282,425.258,402.344,402.344,520.308,520.308,520.308
0.000609296	-12453945.80	0,1.61347e-06,3.73881e-06,6.53842e-06,1.02262e-05,1.50839e-05,2.14827e-05,2.99116e-05,4.10144e-05,5.56397e-05,7.49048e-05,0.000100282,0.000133709,0.000177742,0.000235744,0.000312147,0.000412788,0.000545358,0.000719986,0.000950014,0.00125302,0.00165215,0.00217791,0.00287046,0.00378272,0.00498439,0.0065673,0.00865238,0.0113989,0.0150169,0.0197826,0.0260602,inf	14918,14918,4370.33,4244.64,3146.23,1333.03,550.22,431.083,468.52,450.821,396.029,361.196,356.901,369.48,378.299,371.245,356.002,347.351,353.552,370.492,391.281,409.412,423.823,430.665,430.399,428.418,423.117,390.393,390.393,576.721,576.721,576.721
0.000621738	-12453841.55	0,1.61347e-06,3.73881e-06,6.53842e-06,1.02262e-05,1.50839e-05,2.14827e-05,2.99116e-05,4.10144e-05,5.56397e-05,7.49048e-05,0.000100282,0.000133709,0.000177742,0.000235744,0.000312147,0.000412788,0.000545358,0.000719986,0.000950014,0.00125302,0.00165215,0.00217791,0.00287046,0.00378272,0.00498439,0.0065673,0.00865238,0.0113989,0.0150169,0.0197826,0.0260602,inf	14794.4,14794.4,4065.88,4497.18,3392.37,1265.83,480.011,399.027,472.42,461.662,396.5,355.428,352.657,370.988,384.036,375.55,355.487,343.258,349.146,367.739,390.506,409.687,424.767,431.462,430.309,428.032,421.996,380.287,380.287,650.439,650.439,650.439
0.000633215	-12453768.81	0,1.61347e-06,3.73881e-06,6.53842e-06,1.02262e-05,1.50839e-05,2.14827e-05,2.99116e-05,4.10144e-05,5.56397e-05,7.49048e-05,0.000100282,0.000133709,0.000177742,0.000235744,0.000312147,0.000412788,0.000545358,0.000719986,0.000950014,0.00125302,0.00165215,0.00217791,0.00287046,0.00378272,0.00498439,0.0065673,0.00865238,0.0113989,0.0150169,0.0197826,0.0260602,inf	14603.6,14603.6,3721.5,4663.31,3584.25,1188.92,419.285,371.044,477.233,472.411,396.438,349.304,347.978,371.904,389.416,380.113,355.927,340.652,346.319,366.263,390.48,410.181,425.548,432.008,430.13,427.889,421.556,371.51,371.51,754.825,754.825,754.825
0.000643755	-12453720.62	0,1.61347e-06,3.73881e-06,6.53842e-06,1.02262e-05,1.50839e-05,2.14827e-05,2.99116e-05,4.10144e-05,5.56397e-05,7.49048e-05,0.000100282,0.000133709,0.000177742,0.000235744,0.000312147,0.000412788,0.000545358,0.000719986,0.000950014,0.00125302,0.00165215,0.00217791,0.00287046,0.00378272,0.00498439,0.0065673,0.00865238,0.0113989,0.0150169,0.0197826,0.0260602,inf	14465.1,14465.1,3390.07,4786.52,3747.92,1112.09,367.805,346.901,483.165,483.246,396.034,342.95,342.879,372.058,394.036,384.342,356.604,338.74,344.306,365.425,390.755,410.651,426.086,432.292,429.836,427.887,421.592,363.732,363.732,923.844,923.844,923.844
0.000653421	-12453693.67	0,1.61347e-06,3.73881e-06,6.53842e-06,1.02262e-05,1.50839e-05,2.14827e-05,2.99116e-05,4.10144e-05,5.56397e-05,7.49048e-05,0.000100282,0.000133709,0.000177742,0.000235744,0.000312147,0.000412788,0.000545358,0.000719986,0.000950014,0.00125302,0.00165215,0.00217791,0.00287046,0.00378272,0.00498439,0.0065673,0.00865238,0.0113989,0.0150169,0.0197826,0.0260602,inf	14373.6,14373.6,3083.44,4882.14,3892.4,1038.24,324.124,325.951,490.123,494.271,395.51,336.615,337.607,371.639,397.95,388.139,357.292,337.214,342.785,364.962,391.171,411.044,426.407,432.362,429.439,427.965,421.94,356.72,356.72,1284.01,1284.01,1284.01
0.000662278	-12453687.02	0,1.61347e-06,3.73881e-06,6.53842e-06,1.02262e-05,1.50839e-05,2.14827e-05,2.99116e-05,4.10144e-05,5.56397e-05,7.49048e-05,0.000100282,0.000133709,0.000177742,0.000235744,0.000312147,0.000412788,0.000545358,0.000719986,0.000950014,0.00125302,0.00165215,0.00217791,0.00287046,0.00378272,0.00498439,0.0065673,0.00865238,0.0113989,0.0150169,0.0197826,0.0260602,inf	14315.1,14315.1,2803.92,4957.6,4021.6,968.196,286.82,307.548,497.865,505.445,394.98,330.467,332.358,370.844,401.285,391.53,357.92,335.927,341.59,364.74,391.659,411.358,426.557,432.267,428.954,428.067,422.434,350.293,350.293,2839.16,2839.16,2839.16
0.000662278	-12453704.55	0,1.61347e-06,3.73881e-06,6.53842e-06,1.02262e-05,1.50839e-05,2.14827e-05,2.99116e-05,4.10144e-05,5.56397e-05,7.49048e-05,0.000100282,0.000133709,0.000177742,0.000235744,0.000312147,0.000412788,0.000545358,0.000719986,0.000950014,0.00125302,0.00165215,0.00217791,0.00287046,0.00378272,0.00498439,0.0065673,0.00865238,0.0113989,0.0150169,0.0197826,0.0260602,inf	14216.6,14216.6,2541.42,4998.1,4121.48,898.761,253.762,290.048,504.191,514.692,392.972,323.352,326.005,368.389,402.566,392.997,357.063,333.525,339.355,363.34,390.756,410.153,425.181,430.784,427.302,427.166,421.912,343.75,343.75,65170.3,65170.3,65170.3
0.000662278	-12453744.92	0,1.61347e-06,3.73881e-06,6.53842e-06,1.02262e-05,1.50839e-05,2.14827e-05,2.99116e-05,4.10144e-05,5.56397e-05,7.49048e-05,0.000100282,0.000133709,0.000177742,0.000235744,0.000312147,0.000412788,0.000545358,0.000719986,0.000950014,0.00125302,0.00165215,0.00217791,0.00287046,0.00378272,0.00498439,0.0065673,0.00865238,0.0113989,0.0150169,0.0197826,0.0260602,inf	14216.6,14216.6,2323.54,5069.52,4192.87,841.329,226.658,275.604,513.275,526.532,392.905,317.918,321.075,367.038,404.75,392.997,357.117,332.091,338.108,362.912,390.787,409.831,424.587,430.018,426.266,426.768,421.692,337.887,337.887,65174.1,65174.1,65174.1
0.000662278	-12453739.62	0,1.61347e-06,3.73881e-06,6.53842e-06,1.02262e-05,1.50839e-05,2.14827e-05,2.99116e-05,4.10144e-05,5.56397e-05,7.49048e-05,0.000100282,0.000133709,0.000177742,0.000235744,0.000312147,0.000412788,0.000545358,0.000719986,0.000950014,0.00125302,0.00165215,0.00217791,0.00287046,0.00378272,0.00498439,0.0065673,0.00865238,0.0113989,0.0150169,0.0197826,0.0260602,inf	14216.7,14216.7,2133.24,5156.15,4195.41,791.471,203.538,262.601,523.019,539.209,393.617,313.378,316.945,366.212,407.422,395.827,357.652,331.115,337.283,362.86,391.161,409.831,424.369,429.604,425.615,426.831,422.088,332.59,332.59,65177.3,65177.3,65177.3
0.000662278	-12453733.54	0,1.61347e-06,3.73881e-06,6.53842e-06,1.02262e-05,1.50839e-05,2.14827e-05,2.99116e-05,4.10144e-05,5.56397e-05,7.49048e-05,0.000100282,0.000133709,0.000177742,0.000235744,0.000312147,0.000412788,0.000545358,0.000719986,0.000950014,0.00125302,0.00165215,0.00217791,0.00287046,0.00378272,0.00498439,0.0065673,0.00865238,0.0113989,0.0150169,0.0197826,0.0260602,inf	14216.8,14216.8,1969.91,5273.03,4197.81,749.261,183.678,250.78,532.694,551.576,394.188,308.941,312.869,365.242,409.67,396.105,357.974,330.106,336.496,362.843,391.598,409.935,424.283,429.369,425.165,427.172,422.443,327.741,327.741,65180,65180,65180
0.000662278	-12453728.29	0,1.61347e-06,3.73881e-06,6.53842e-06,1.02262e-05,1.50839e-05,2.14827e-05,2.99116e-05,4.10144e-05,5.56397e-05,7.49048e-05,0.000100282,0.000133709,0.000177742,0.000235744,0.000312147,0.000412788,0.000545358,0.000719986,0.000950014,0.00125302,0.00165215,0.00217791,0.00287046,0.00378272,0.00498439,0.0065673,0.00865238,0.0113989,0.0150169,0.0197826,0.0260602,inf	14216.8,14216.8,1823.88,5383.89,4197.81,712.436,166.359,239.753,542.081,563.809,394.888,304.895,309.194,364.519,412.049,396.174,358.416,329.231,335.819,362.906,392.06,410.063,424.244,429.221,424.835,427.678,422.443,323.285,323.285,65182.6,65182.6,65182.6
0.000662278	-12453723.79	0,1.61347e-06,3.73881e-06,6.53842e-06,1.02262e-05,1.50839e-05,2.14827e-05,2.99116e-05,4.10144e-05,5.56397e-05,7.49048e-05,0.000100282,0.000133709,0.000177742,0.000235744,0.000312147,0.000412788,0.000545358,0.000719986,0.000950014,0.00125302,0.00165215,0.00217791,0.00287046,0.00378272,0.00498439,0.0065673,0.00865238,0.0113989,0.0150169,0.0197826,0.0260602,inf	14216.9,14216.9,1692.18,5483.88,4197.81,679.88,151.079,229.278,550.899,575.676,395.579,301.135,305.83,363.889,414.491,398.181,358.416,328.454,335.207,362.975,392.51,410.18,424.22,429.123,424.606,427.928,422.443,319.192,319.192,65185,65185,65185
0.000662278	-12453720.02	0,1.61347e-06,3.73881e-06,6.53842e-06,1.02262e-05,1.50839e-05,2.14827e-05,2.99116e-05,4.10144e-05,5.56397e-05,7.49048e-05,0.000100282,0.000133709,0.000177742,0.000235744,0.000312147,0.000412788,0.000545358,0.000719986,0.000950014,0.00125302,0.00165215,0.00217791,0.00287046,0.00378272,0.00498439,0.0065673,0.00865238,0.0113989,0.0150169,0.0197826,0.0260602,inf	14216.9,14216.9,1572.98,5574.38,4197.81,650.667,137.515,219.34,558.997,586.787,395.971,297.39,302.466,363.154,416.627,398.293,358.416,327.653,334.589,362.983,392.928,410.277,424.206,429.071,424.467,428.234,422.443,315.432,315.432,65187.1,65187.1,65187.1
0.000662278	-12453716.96	0,1.61347e-06,3.73881e-06,6.53842e-06,1.02262e-05,1.50839e-05,2.14827e-05,2.99116e-05,4.10144e-05,5.56397e-05,7.49048e-05,0.000100282,0.000133709,0.000177742,0.000235744,0.000312147,0.000412788,0.000545358,0.000719986,0.000950014,0.00125302,0.00165215,0.00217791,0.00287046,0.00378272,0.00498439,0.0065673,0.00865238,0.0113989,0.0150169,0.0197826,0.0260602,inf	14217,14217,1464.6,5574.38,4260.27,624.637,125.461,209.864,566.573,597.635,396.439,293.961,299.44,362.593,418.913,399.758,358.416,326.987,334.07,363.078,393.344,410.277,424.188,429.044,424.401,428.333,422.443,311.971,311.971,65189.1,65189.1,65189.1
0.000662278	-12453714.40	0,1.61347e-06,3.73881e-06,6.53842e-06,1.02262e-05,1.50839e-05,2.14827e-05,2.99116e-05,4.10144e-05,5.56397e-05,7.49048e-05,0.000100282,0.000133709,0.000177742,0.000235744,0.000312147,0.000412788,0.000545358,0.000719986,0.000950014,0.00125302,0.00165215,0.00217791,0.00287046,0.00378272,0.00498439,0.0065673,0.00865238,0.0113989,0.0150169,0.0197826,0.0260602,inf	14217,14217,1366.83,5648.61,4260.27,599.937,114.525,200.654,573.226,607.755,396.69,290.601,296.482,361.943,420.995,401.497,358.416,326.337,333.565,363.176,393.741,410.342,424.173,429.048,424.408,428.337,422.443,308.787,308.787,65191,65191,65191
0.000662278	-12453712.26	0,1.61347e-06,3.73881e-06,6.53842e-06,1.02262e-05,1.50839e-05,2.14827e-05,2.99116e-05,4.10144e-05,5.56397e-05,7.49048e-05,0.000100282,0.000133709,0.000177742,0.000235744,0.000312147,0.000412788,0.000545358,0.000719986,0.000950014,0.00125302,0.00165215,0.00217791,0.00287046,0.00378272,0.00498439,0.0065673,0.00865238,0.0113989,0.0150169,0.0197826,0.0260602,inf	14217.1,14217.1,1277.5,5716.42,4260.27,577.673,104.76,191.913,579.383,617.452,396.86,287.36,293.617,361.241,422.874,403.21,358.416,325.684,333.077,363.257,394.106,410.378,424.146,429.069,424.408,428.36,422.443,305.856,305.856,65192.6,65192.6,65192.6
0.000662278	-12453710.52	0,1.61347e-06,3.73881e-06,6.53842e-06,1.02262e-05,1.50839e-05,2.14827e-05,2.99116e-05,4.10144e-05,5.56397e-05,7.49048e-05,0.000100282,0.000133709,0.000177742,0.000235744,0.000312147,0.000412788,0.000545358,0.000719986,0.000950014,0.00125302,0.00165215,0.00217791,0.00287046,0.00378272,0.00498439,0.0065673,0.00865238,0.0113989,0.0150169,0.0197826,0.0260602,inf	14217.1,14217.1,1195.69,5778.55,4260.27,557.514,96.0112,183.614,585.078,626.769,396.986,284.258,290.865,360.472,424.605,404.86,358.416,325.038,332.598,363.334,394.449,410.391,424.111,429.107,424.446,428.36,422.443,303.155,303.155,65194.2,65194.2,65194.2
0.000662278	-12453709.12	0,1.61347e-06,3.73881e-06,6.53842e-06,1.02262e-05,1.50839e-05,2.14827e-05,2.99116e-05,4.10144e-05,5.56397e-05,7.49048e-05,0.000100282,0.000133709,0.000177742,0.000235744,0.000312147,0.000412788,0.000545358,0.000719986,0.000950014,0.00125302,0.00165215,0.00217791,0.00287046,0.00378272,0.00498439,0.0065673,0.00865238,0.0113989,0.0150169,0.0197826,0.0260602,inf	14217.2,14217.2,1120.5,5835.63,4260.27,539.187,88.1413,175.731,590.328,635.74,397.095,281.304,288.243,359.738,426.159,406.418,358.416,324.407,332.141,363.419,394.775,410.385,424.068,429.158,424.484,428.36,422.443,300.664,300.664,65195.6,65195.6,65195.6
