7.22781e-05	-1949043.77	0,1.79563e-07,4.16092e-07,7.27659e-07,1.13807e-06,1.67869e-06,2.39081e-06,3.32885e-06,4.56449e-06,6.19213e-06,8.33614e-06,1.11603e-05,1.48805e-05,1.97809e-05,2.62359e-05,3.47388e-05,4.59391e-05,6.06928e-05,8.01271e-05,0.000105727,0.000139448,0.000183867,0.000242379,0.000319453,0.000420978,0.000554712,0.000730874,0.000962922,0.00126859,0.00167122,0.0022016,0.00290023,inf	949.076,949.076,1650.56,2052.44,2266.3,2335.74,2343.45,2354.5,2380.38,2405,2421.54,2428.39,2424.16,2426.35,2463.26,2552.69,2705.69,2937.74,3266.78,3711.77,4271.91,4823.79,5026.56,4850.05,4623.12,4483.67,4469.75,4629.82,4629.82,5350.16,5350.16,5350.16
8.06507e-05	-1947723.50	0,1.79563e-07,4.16092e-07,7.27659e-07,1.13807e-06,1.67869e-06,2.39081e-06,3.32885e-06,4.56449e-06,6.19213e-06,8.33614e-06,1.11603e-05,1.48805e-05,1.97809e-05,2.62359e-05,3.47388e-05,4.59391e-05,6.06928e-05,8.01271e-05,0.000105727,0.000139448,0.000183867,0.000242379,0.000319453,0.000420978,0.000554712,0.000730874,0.000962922,0.00126859,0.00167122,0.0022016,0.00290023,inf	390.736,390.736,1169.12,1783.16,2140.54,2236.29,2215.25,2203.6,2219.65,2228.98,2217.31,2179.35,2112.65,2050.31,2039.55,2105.04,2260.6,2528.66,2937.58,3528.56,4340.96,5251.81,5671.33,5411.87,5051.48,4854.39,4908.3,5387.62,5387.62,8230.9,8230.9,8230.9
8.8476e-05	-1947123.70	0,1.79563e-07,4.16092e-07,7.27659e-07,1.13807e-06,1.67869e-06,2.39081e-06,3.32885e-06,4.56449e-06,6.19213e-06,8.33614e-06,1.11603e-05,1.48805e-05,1.97809e-05,2.62359e-05,3.47388e-05,4.59391e-05,6.06928e-05,8.01271e-05,0.000105727,0.000139448,0.000183867,0.000242379,0.000319453,0.000420978,0.000554712,0.000730874,0.000962922,0.00126859,0.00167122,0.0022016,0.00290023,inf	173.99,173.99,893.656,1667.56,2175.91,2313.12,2281.6,2270.72,2301.39,2316.62,2291.64,2215.86,2088.06,1961.22,1900.02,1930.99,2066.33,2330.2,2754.76,3395.77,4326.77,5455.57,6042.65,5738.35,5298.48,5093.51,5270.93,6242.93,6242.93,18437.8,18437.8,18437.8
9.58085e-05	-1946756.41	0,1.79563e-07,4.16092e-07,7.27659e-07,1.13807e-06,1.67869e-06,2.39081e-06,3.32885e-06,4.56449e-06,6.19213e-06,8.33614e-06,1.11603e-05,1.48805e-05,1.97809e-05,2.62359e-05,3.47388e-05,4.59391e-05,6.06928e-05,8.01271e-05,0.000105727,0.000139448,0.000183867,0.000242379,0.000319453,0.000420978,0.000554712,0.000730874,0.000962922,0.00126859,0.00167122,0.0022016,0.00290023,inf	76.3031,76.3031,671.003,1526,2159.77,2340.29,2312.36,2323.05,2392.01,2437.59,2421.37,2324.26,2147.29,1966.4,1863.36,1864.42,1978.57,2229.12,2648.64,3302.78,4290.74,5552.41,6257.5,5921.04,5429.86,5244.08,5582.41,7261.61,7261.61,282679,282679,282679
9.58085e-05	-1946487.88	0,1.79563e-07,4.16092e-07,7.27659e-07,1.13807e-06,1.67869e-06,2.39081e-06,3.32885e-06,4.56449e-06,6.19213e-06,8.33614e-06,1.11603e-05,1.48805e-05,1.97809e-05,2.62359e-05,3.47388e-05,4.59391e-05,6.06928e-05,8.01271e-05,0.000105727,0.000139448,0.000183867,0.000242379,0.000319453,0.000420978,0.000554712,0.000730874,0.000962922,0.00126859,0.00167122,0.0022016,0.00290023,inf	32.8076,32.8076,489.819,1349.67,2059.69,2266.41,2242.6,2280.69,2397.36,2488.05,2499.03,2399.33,2191.06,1972.33,1839.69,1817.92,1912.47,2144.25,2544.15,3183.47,4176.17,5486.17,6265.16,5931.74,5425.6,5283.45,5814.41,8513.78,8513.78,579871,579871,579871
