LogLikelihood = -295229.79026243364206

y0 0.8498819136545184838
y0_prime 0
y1 0.97438946477597276896
y1_prime 0
y2 0.96132823575024284324
y2_prime 0
y3 1.4264589071604452108
y3_prime 0
rho 0.0024192119083059253695
rho.alpha 0.073142017743424894705
r_ii 0.9999993252207662886
theta 0.0047501603087849210427
