LogLikelihood = -672500.59477015642915

y0 0.21747029533373435362
y0_prime 0
y1 0.30469842918829559419
y1_prime 0
y2 2.161900573731608155
y2_prime 0
y3 23.760883339141440018
y3_prime 0
rho 0.00043330956393092761149
theta 0.001853725210662865051
