time_index	left_time_boundary	right_time_boundary	lambda
0	0	4.35637e-06	4408.96
1	4.35637e-06	9.45223e-06	4408.96
2	9.45223e-06	1.54131e-05	39.2236
3	1.54131e-05	2.23859e-05	1530.08
4	2.23859e-05	3.05422e-05	7652.68
5	3.05422e-05	4.00831e-05	6861.19
6	4.00831e-05	5.12436e-05	3980.13
7	5.12436e-05	6.42986e-05	3297.59
8	6.42986e-05	7.95696e-05	3192.78
9	7.95696e-05	9.74329e-05	2960.8
10	9.74329e-05	0.000118329	2848.28
11	0.000118329	0.000142771	3087.37
12	0.000142771	0.000171363	3714.11
13	0.000171363	0.000204808	4598.22
14	0.000204808	0.000243931	5394.41
15	0.000243931	0.000289694	5511.43
16	0.000289694	0.000343226	4764.78
17	0.000343226	0.000405845	3821.49
18	0.000405845	0.000479094	3199.41
19	0.000479094	0.000564776	2955.98
20	0.000564776	0.000665003	3068.95
21	0.000665003	0.000782244	3542.71
22	0.000782244	0.000919386	4353.14
23	0.000919386	0.00107981	4929.35
24	0.00107981	0.00126746	3821.44
25	0.00126746	0.00148697	2238.8
26	0.00148697	0.00174374	1659.69
27	0.00174374	0.0020441	3025.18
28	0.0020441	0.00239544	3025.18
29	0.00239544	0.00280642	3.89659
30	0.00280642	0.00328717	3.89659
31	0.00328717	inf	3.89659
