time_index	left_time_boundary	right_time_boundary	lambda
0	0	4.5511e-06	373.58
1	4.5511e-06	1.03438e-05	373.58
2	1.03438e-05	1.77167e-05	392.615
3	1.77167e-05	2.7101e-05	324.387
4	2.7101e-05	3.90453e-05	412.273
5	3.90453e-05	5.42482e-05	438.253
6	5.42482e-05	7.35984e-05	393.32
7	7.35984e-05	9.82275e-05	363.853
8	9.82275e-05	0.000129575	359.602
9	0.000129575	0.000169475	354.945
10	0.000169475	0.00022026	345.751
11	0.00022026	0.000284899	340.313
12	0.000284899	0.000367172	343.103
13	0.000367172	0.000471889	354.572
14	0.000471889	0.000605174	370.603
15	0.000605174	0.00077482	384.218
16	0.00077482	0.000990745	392.18
17	0.000990745	0.00126558	397.555
18	0.00126558	0.00161538	403.996
19	0.00161538	0.00206062	411.827
20	0.00206062	0.00262731	420.306
21	0.00262731	0.00334861	428.221
22	0.00334861	0.00426667	431.66
23	0.00426667	0.00543519	427.423
24	0.00543519	0.00692249	415.332
25	0.00692249	0.00881553	393.399
26	0.00881553	0.011225	362.283
27	0.011225	0.0142918	316.88
28	0.0142918	0.0181952	316.88
29	0.0181952	0.0231635	299.086
30	0.0231635	0.0294871	299.086
31	0.0294871	inf	299.086
