time_index	left_time_boundary	right_time_boundary	lambda
0	0	4.2564e-05	471.526
1	4.2564e-05	9.23533e-05	471.526
2	9.23533e-05	0.000150594	385.002
3	0.000150594	0.000218722	303.561
4	0.000218722	0.000298414	311.025
5	0.000298414	0.000391633	328.992
6	0.000391633	0.000500677	345.174
7	0.000500677	0.000628231	361.323
8	0.000628231	0.000777437	376.289
9	0.000777437	0.000951971	387.497
10	0.000951971	0.00115613	393.885
11	0.00115613	0.00139495	397.946
12	0.00139495	0.00167431	403.364
13	0.00167431	0.00200108	411.05
14	0.00200108	0.00238333	419.452
15	0.00238333	0.00283047	427.019
16	0.00283047	0.0033535	432.3
17	0.0033535	0.00396532	433.834
18	0.00396532	0.004681	430.812
19	0.004681	0.00551816	422.378
20	0.00551816	0.00649744	409.87
21	0.00649744	0.00764294	398.738
22	0.00764294	0.00898289	396.034
23	0.00898289	0.0105503	405.753
24	0.0105503	0.0123838	427.158
25	0.0123838	0.0145285	457.708
26	0.0145285	0.0170373	491.519
27	0.0170373	0.0199719	508.05
28	0.0199719	0.0234047	508.05
29	0.0234047	0.0274202	331.057
30	0.0274202	0.0321173	331.057
31	0.0321173	inf	331.057
