time_index	left_time_boundary	right_time_boundary	lambda
0	0	6.88435e-06	28650.4
1	6.88435e-06	1.63043e-05	28650.4
2	1.63043e-05	2.91938e-05	6195.72
3	2.91938e-05	4.68306e-05	10056.5
4	4.68306e-05	7.09634e-05	4689.54
5	7.09634e-05	0.000103985	2020.49
6	0.000103985	0.000149168	3709.31
7	0.000149168	0.000210993	3835.11
8	0.000210993	0.000295589	6961.65
9	0.000295589	0.000411344	3434.03
10	0.000411344	0.000569732	1356.37
11	0.000569732	0.000786457	1463.72
12	0.000786457	0.00108301	5013.66
13	0.00108301	0.00148878	751664
14	0.00148878	0.002044	751664
15	0.002044	inf	751664
