time_index	left_time_boundary	right_time_boundary	lambda
0	0	2.0825e-05	808.905
1	2.0825e-05	4.5185e-05	808.905
2	4.5185e-05	7.36802e-05	1125.26
3	7.36802e-05	0.000107012	445.732
4	0.000107012	0.000146003	707.198
5	0.000146003	0.000191612	962.94
6	0.000191612	0.000244963	858.892
7	0.000244963	0.00030737	726.199
8	0.00030737	0.000380371	655.002
9	0.000380371	0.000465764	626.909
10	0.000465764	0.000565652	642.326
11	0.000565652	0.000682497	679.813
12	0.000682497	0.000819176	709.347
13	0.000819176	0.000979056	717.748
14	0.000979056	0.00116608	734.383
15	0.00116608	0.00138484	785.8
16	0.00138484	0.00164074	857.559
17	0.00164074	0.00194008	924.469
18	0.00194008	0.00229024	976.883
19	0.00229024	0.00269983	1005.62
20	0.00269983	0.00317895	990.486
21	0.00317895	0.0037394	923.386
22	0.0037394	0.00439499	829.404
23	0.00439499	0.00516187	754.658
24	0.00516187	0.00605892	729.401
25	0.00605892	0.00710825	769.702
26	0.00710825	0.00833569	886.992
27	0.00833569	0.0097715	1163.82
28	0.0097715	0.011451	1163.82
29	0.011451	0.0134157	168379
30	0.0134157	0.0157138	168379
31	0.0157138	inf	168379
