time_index	left_time_boundary	right_time_boundary	lambda
0	0	4.56627e-05	408.794
1	4.56627e-05	9.96378e-05	408.794
2	9.96378e-05	0.000163439	408.794
3	0.000163439	0.000238854	408.794
4	0.000238854	0.000327998	408.794
5	0.000327998	0.00043337	408.794
6	0.00043337	0.000557923	408.794
7	0.000557923	0.000705151	408.794
8	0.000705151	0.00087918	408.794
9	0.00087918	0.00108489	408.794
10	0.00108489	0.00132805	408.794
11	0.00132805	0.00161547	408.794
12	0.00161547	0.00195521	408.794
13	0.00195521	0.0023568	408.794
14	0.0023568	0.0028315	408.794
15	0.0028315	0.00339261	408.794
16	0.00339261	0.00405587	408.794
17	0.00405587	0.00483987	408.794
18	0.00483987	0.00576659	408.794
19	0.00576659	0.00686201	408.794
20	0.00686201	0.00815684	408.794
21	0.00815684	0.00968738	408.794
22	0.00968738	0.0114965	408.794
23	0.0114965	0.013635	408.794
24	0.013635	0.0161629	408.794
25	0.0161629	0.0191508	408.794
26	0.0191508	0.0226827	408.794
27	0.0226827	0.0268576	408.794
28	0.0268576	0.0317924	408.794
29	0.0317924	inf	408.794
