time_index	left_time_boundary	right_time_boundary	lambda
0	0	2.2021e-05	438.712
1	2.2021e-05	5.57114e-05	438.712
2	5.57114e-05	0.000107255	344.115
3	0.000107255	0.000186113	337.01
4	0.000186113	0.000306761	310.986
5	0.000306761	0.000491342	349.437
6	0.000491342	0.000773738	388.444
7	0.000773738	0.00120578	409.996
8	0.00120578	0.00186678	416.792
9	0.00186678	0.00287805	394.917
10	0.00287805	0.00442523	351.964
11	0.00442523	0.00679229	462.564
12	0.00679229	0.0104137	589.937
13	0.0104137	0.0159542	193.827
14	0.0159542	0.0244308	193.827
15	0.0244308	inf	193.827
