time_index	left_time_boundary	right_time_boundary	lambda
0	0	1.76359e-06	90.231
1	1.76359e-06	4.08667e-06	90.231
2	4.08667e-06	7.14675e-06	247.073
3	7.14675e-06	1.11776e-05	20.0393
4	1.11776e-05	1.64873e-05	49.8659
5	1.64873e-05	2.34815e-05	205.467
6	2.34815e-05	3.26945e-05	424.523
7	3.26945e-05	4.48304e-05	494.582
8	4.48304e-05	6.08164e-05	418.176
9	6.08164e-05	8.18739e-05	344.4
10	8.18739e-05	0.000109612	333.577
11	0.000109612	0.00014615	347.778
12	0.00014615	0.000194279	347.603
13	0.000194279	0.000257677	342.328
14	0.000257677	0.000341189	347.72
15	0.000341189	0.000451194	357.652
16	0.000451194	0.000596098	364.382
17	0.000596098	0.000786973	373.133
18	0.000786973	0.0010384	387.568
19	0.0010384	0.0013696	401.815
20	0.0013696	0.00180587	412.058
21	0.00180587	0.00238054	418.183
22	0.00238054	0.00313752	416.095
23	0.00313752	0.00413466	407.931
24	0.00413466	0.00544814	408.576
25	0.00544814	0.00717832	433.294
26	0.00717832	0.00945739	456.68
27	0.00945739	0.0124595	414.116
28	0.0124595	0.016414	414.116
29	0.016414	0.0216231	450.127
30	0.0216231	0.0284848	450.127
31	0.0284848	inf	450.127
