0.000594989	-4640090.62	0,4.73764e-06,1.07677e-05,1.84428e-05,2.82118e-05,4.06457e-05,5.64717e-05,7.66151e-05,0.000102254,0.000134887,0.000176422,0.000229288,0.000296577,0.000382222,0.000491231,0.000629979,0.000806578,0.00103135,0.00131745,0.00168159,0.00214508,0.002735,0.00348586,0.00444156,0.00565797,0.00720623,0.00917686,0.0116851,0.0148776,0.018941,0.0241129,0.0306958,inf	266.759,266.759,380.877,387.085,422.883,489.524,511.441,455.881,419.781,401.104,391.734,391.58,398.662,401.985,400.596,399.636,397.73,395.365,397.966,403.515,405.927,403.83,401.173,399.231,395.467,392.091,396.515,393.797,393.797,353.951,353.951,353.951
0.000542992	-4639125.64	0,4.73764e-06,1.07677e-05,1.84428e-05,2.82118e-05,4.06457e-05,5.64717e-05,7.66151e-05,0.000102254,0.000134887,0.000176422,0.000229288,0.000296577,0.000382222,0.000491231,0.000629979,0.000806578,0.00103135,0.00131745,0.00168159,0.00214508,0.002735,0.00348586,0.00444156,0.00565797,0.00720623,0.00917686,0.0116851,0.0148776,0.018941,0.0241129,0.0306958,inf	181.379,181.379,363.852,358.325,412.386,544.367,604.835,497.552,433.191,402.616,386.95,386.926,400.603,407.721,404.928,403.263,399.834,394.815,400.036,412.213,418.539,415.371,411.264,408.844,402.056,395.963,407.443,403.818,403.818,329.017,329.017,329.017
0.000497112	-4638354.45	0,4.73764e-06,1.07677e-05,1.84428e-05,2.82118e-05,4.06457e-05,5.64717e-05,7.66151e-05,0.000102254,0.000134887,0.000176422,0.000229288,0.000296577,0.000382222,0.000491231,0.000629979,0.000806578,0.00103135,0.00131745,0.00168159,0.00214508,0.002735,0.00348586,0.00444156,0.00565797,0.00720623,0.00917686,0.0116851,0.0148776,0.018941,0.0241129,0.0306958,inf	129.196,129.196,361.026,331.477,388.601,576.074,687.146,531.468,443.076,403.99,382.593,381.668,400.551,411.405,406.668,404.097,399.121,390.543,397.524,416.218,426.777,422.573,417.416,415.323,405.679,397.02,417.678,415.012,415.012,311.131,311.131,311.131
0.000457628	-4637736.15	0,4.73764e-06,1.07677e-05,1.84428e-05,2.82118e-05,4.06457e-05,5.64717e-05,7.66151e-05,0.000102254,0.000134887,0.000176422,0.000229288,0.000296577,0.000382222,0.000491231,0.000629979,0.000806578,0.00103135,0.00131745,0.00168159,0.00214508,0.002735,0.00348586,0.00444156,0.00565797,0.00720623,0.00917686,0.0116851,0.0148776,0.018941,0.0241129,0.0306958,inf	96.133,96.133,373.387,311.283,361.749,593.98,765.13,563.664,453.676,408.279,381.094,378.279,401.041,415.71,408.548,404.954,398.585,385.582,393.391,418.217,432.953,427.376,421.266,420.042,407.424,396.063,427.615,427.937,427.937,300.742,300.742,300.742
0.000424142	-4637255.10	0,4.73764e-06,1.07677e-05,1.84428e-05,2.82118e-05,4.06457e-05,5.64717e-05,7.66151e-05,0.000102254,0.000134887,0.000176422,0.000229288,0.000296577,0.000382222,0.000491231,0.000629979,0.000806578,0.00103135,0.00131745,0.00168159,0.00214508,0.002735,0.00348586,0.00444156,0.00565797,0.00720623,0.00917686,0.0116851,0.0148776,0.018941,0.0241129,0.0306958,inf	73.3761,73.3761,396.992,295.631,333.611,599.465,837.04,593.268,463.845,414.195,381.234,375.896,401.423,420.218,410.399,405.909,398.672,380.672,388.583,419.191,437.986,430.619,423.589,423.697,407.864,393.527,437.314,442.845,442.845,297.292,297.292,297.292
0.00039607	-4636892.93	0,4.73764e-06,1.07677e-05,1.84428e-05,2.82118e-05,4.06457e-05,5.64717e-05,7.66151e-05,0.000102254,0.000134887,0.000176422,0.000229288,0.000296577,0.000382222,0.000491231,0.000629979,0.000806578,0.00103135,0.00131745,0.00168159,0.00214508,0.002735,0.00348586,0.00444156,0.00565797,0.00720623,0.00917686,0.0116851,0.0148776,0.018941,0.0241129,0.0306958,inf	56.8055,56.8055,429.911,283.526,306.05,595.556,903.273,620.651,473.506,421.413,382.662,374.355,401.633,424.888,412.22,406.987,399.571,376.17,383.594,419.657,442.365,432.774,424.855,426.738,407.404,389.752,446.747,459.869,459.869,299.61,299.61,299.61
0.000372747	-4636629.62	0,4.73764e-06,1.07677e-05,1.84428e-05,2.82118e-05,4.06457e-05,5.64717e-05,7.66151e-05,0.000102254,0.000134887,0.000176422,0.000229288,0.000296577,0.000382222,0.000491231,0.000629979,0.000806578,0.00103135,0.00131745,0.00168159,0.00214508,0.002735,0.00348586,0.00444156,0.00565797,0.00720623,0.00917686,0.0116851,0.0148776,0.018941,0.0241129,0.0306958,inf	44.1771,44.1771,470.092,273.777,279.829,584.494,963.712,645.68,482.293,429.433,384.932,373.399,401.528,429.561,413.873,408.036,401.217,372.157,378.631,419.851,446.323,434.102,425.35,429.448,406.335,385.023,455.853,479.053,479.053,306.102,306.102,306.102
0.000353512	-4636445.20	0,4.73764e-06,1.07677e-05,1.84428e-05,2.82118e-05,4.06457e-05,5.64717e-05,7.66151e-05,0.000102254,0.000134887,0.000176422,0.000229288,0.000296577,0.000382222,0.000491231,0.000629979,0.000806578,0.00103135,0.00131745,0.00168159,0.00214508,0.002735,0.00348586,0.00444156,0.00565797,0.00720623,0.00917686,0.0116851,0.0148776,0.018941,0.0241129,0.0306958,inf	34.2655,34.2655,515.608,265.471,255.324,568.184,1018.36,668.216,489.907,437.83,387.695,372.823,401.032,434.128,415.25,408.913,403.489,368.624,373.795,419.896,449.985,434.766,425.266,432.011,404.883,379.589,464.574,500.377,500.377,314.942,314.942,314.942
0.000337747	-4636321.43	0,4.73764e-06,1.07677e-05,1.84428e-05,2.82118e-05,4.06457e-05,5.64717e-05,7.66151e-05,0.000102254,0.000134887,0.000176422,0.000229288,0.000296577,0.000382222,0.000491231,0.000629979,0.000806578,0.00103135,0.00131745,0.00168159,0.00214508,0.002735,0.00348586,0.00444156,0.00565797,0.00720623,0.00917686,0.0116851,0.0148776,0.018941,0.0241129,0.0306958,inf	26.3764,26.3764,564.54,257.971,232.696,548.236,1067.41,688.197,496.157,446.279,390.687,372.489,400.131,438.53,416.301,409.52,406.263,365.537,369.143,419.865,453.426,434.89,424.741,434.549,403.225,373.668,472.868,523.77,523.77,324.303,324.303,324.303
0.000324891	-4636242.69	0,4.73764e-06,1.07677e-05,1.84428e-05,2.82118e-05,4.06457e-05,5.64717e-05,7.66151e-05,0.000102254,0.000134887,0.000176422,0.000229288,0.000296577,0.000382222,0.000491231,0.000629979,0.000806578,0.00103135,0.00131745,0.00168159,0.00214508,0.002735,0.00348586,0.00444156,0.00565797,0.00720623,0.00917686,0.0116851,0.0148776,0.018941,0.0241129,0.0306958,inf	20.1056,20.1056,615.132,250.875,211.993,525.985,1111.28,705.669,500.968,454.546,393.726,372.308,398.856,442.754,417.016,409.808,409.426,362.85,364.707,419.805,456.698,434.575,423.884,437.138,401.497,367.445,480.716,549.099,549.099,332.618,332.618,332.618
0.000314453	-4636196.38	0,4.73764e-06,1.07677e-05,1.84428e-05,2.82118e-05,4.06457e-05,5.64717e-05,7.66151e-05,0.000102254,0.000134887,0.000176422,0.000229288,0.000296577,0.000382222,0.000491231,0.000629979,0.000806578,0.00103135,0.00131745,0.00168159,0.00214508,0.002735,0.00348586,0.00444156,0.00565797,0.00720623,0.00917686,0.0116851,0.0148776,0.018941,0.0241129,0.0306958,inf	15.1465,15.1465,665.919,243.941,193.17,502.487,1150.5,720.762,504.344,462.473,396.691,372.216,397.249,446.804,417.41,409.759,412.877,360.516,360.504,419.749,459.84,433.907,422.777,439.817,399.795,361.069,488.119,576.16,576.16,338.814,338.814,338.814
0.000306009	-4636172.73	0,4.73764e-06,1.07677e-05,1.84428e-05,2.82118e-05,4.06457e-05,5.64717e-05,7.66151e-05,0.000102254,0.000134887,0.000176422,0.000229288,0.000296577,0.000382222,0.000491231,0.000629979,0.000806578,0.00103135,0.00131745,0.00168159,0.00214508,0.002735,0.00348586,0.00444156,0.00565797,0.00720623,0.00917686,0.0116851,0.0148776,0.018941,0.0241129,0.0306958,inf	11.2759,11.2759,715.721,237.103,176.141,478.56,1185.62,733.651,506.358,469.966,399.506,372.177,395.366,450.7,417.515,409.382,416.535,358.49,356.538,419.715,462.88,432.961,421.482,442.603,398.184,354.657,495.096,604.681,604.681,342.424,342.424,342.424
0.000299196	-4636164.53	0,4.73764e-06,1.07677e-05,1.84428e-05,2.82118e-05,4.06457e-05,5.64717e-05,7.66151e-05,0.000102254,0.000134887,0.000176422,0.000229288,0.000296577,0.000382222,0.000491231,0.000629979,0.000806578,0.00103135,0.00131745,0.00168159,0.00214508,0.002735,0.00348586,0.00444156,0.00565797,0.00720623,0.00917686,0.0116851,0.0148776,0.018941,0.0241129,0.0306958,inf	8.29808,8.29808,763.584,230.335,160.801,454.785,1217.18,744.541,507.117,476.976,402.123,372.171,393.257,454.463,417.368,408.696,420.331,356.729,352.805,419.713,465.84,431.799,420.049,445.491,396.702,348.294,501.685,634.317,634.317,343.548,343.548,343.548
0.000293713	-4636166.60	0,4.73764e-06,1.07677e-05,1.84428e-05,2.82118e-05,4.06457e-05,5.64717e-05,7.66151e-05,0.000102254,0.000134887,0.000176422,0.000229288,0.000296577,0.000382222,0.000491231,0.000629979,0.000806578,0.00103135,0.00131745,0.00168159,0.00214508,0.002735,0.00348586,0.00444156,0.00565797,0.00720623,0.00917686,0.0116851,0.0148776,0.018941,0.0241129,0.0306958,inf	6.04112,6.04112,808.935,223.667,147.021,431.567,1245.77,753.662,506.764,483.497,404.528,372.185,390.977,458.115,417.009,407.733,424.205,355.193,349.296,419.746,468.733,430.475,418.514,448.469,395.37,342.046,507.941,664.666,664.666,342.652,342.652,342.652
0.000289307	-4636175.30	0,4.73764e-06,1.07677e-05,1.84428e-05,2.82118e-05,4.06457e-05,5.64717e-05,7.66151e-05,0.000102254,0.000134887,0.000176422,0.000229288,0.000296577,0.000382222,0.000491231,0.000629979,0.000806578,0.00103135,0.00131745,0.00168159,0.00214508,0.002735,0.00348586,0.00444156,0.00565797,0.00720623,0.00917686,0.0116851,0.0148776,0.018941,0.0241129,0.0306958,inf	4.35725,4.35725,851.501,217.126,134.659,409.17,1271.81,761.21,505.441,489.539,406.715,372.214,388.563,461.679,416.477,406.527,428.115,353.85,345.997,419.81,471.569,429.03,416.904,451.517,394.19,335.955,513.924,695.269,695.269,340.362,340.362,340.362
0.000285771	-4636188.12	0,4.73764e-06,1.07677e-05,1.84428e-05,2.82118e-05,4.06457e-05,5.64717e-05,7.66151e-05,0.000102254,0.000134887,0.000176422,0.000229288,0.000296577,0.000382222,0.000491231,0.000629979,0.000806578,0.00103135,0.00131745,0.00168159,0.00214508,0.002735,0.00348586,0.00444156,0.00565797,0.00720623,0.00917686,0.0116851,0.0148776,0.018941,0.0241129,0.0306958,inf	3.11092,3.11092,891.116,210.774,123.581,387.761,1295.76,767.407,503.287,495.135,408.692,372.256,386.054,465.175,415.807,405.114,432.023,352.668,342.893,419.903,474.355,427.503,415.24,454.613,393.159,330.05,519.705,725.625,725.625,337.27,337.27,337.27
0.000282945	-4636203.29	0,4.73764e-06,1.07677e-05,1.84428e-05,2.82118e-05,4.06457e-05,5.64717e-05,7.66151e-05,0.000102254,0.000134887,0.000176422,0.000229288,0.000296577,0.000382222,0.000491231,0.000629979,0.000806578,0.00103135,0.00131745,0.00168159,0.00214508,0.002735,0.00348586,0.00444156,0.00565797,0.00720623,0.00917686,0.0116851,0.0148776,0.018941,0.0241129,0.0306958,inf	2.20668,2.20668,928.369,204.777,113.719,367.667,1318.85,772.942,500.775,500.655,410.736,372.546,383.713,468.886,415.246,403.723,436.081,351.733,340.051,420.092,477.166,425.957,413.555,457.763,392.285,324.347,525.387,755.215,755.215,333.861,333.861,333.861
0.000280672	-4636219.70	0,4.73764e-06,1.07677e-05,1.84428e-05,2.82118e-05,4.06457e-05,5.64717e-05,7.66151e-05,0.000102254,0.000134887,0.000176422,0.000229288,0.000296577,0.000382222,0.000491231,0.000629979,0.000806578,0.00103135,0.00131745,0.00168159,0.00214508,0.002735,0.00348586,0.00444156,0.00565797,0.00720623,0.00917686,0.0116851,0.0148776,0.018941,0.0241129,0.0306958,inf	1.55382,1.55382,962.062,198.876,104.788,348.382,1339.47,776.891,497.327,505.458,412.332,372.62,381.102,472.302,414.398,402.011,439.926,350.808,337.294,420.224,479.873,424.34,411.821,460.898,391.52,318.844,530.997,783.43,783.43,330.446,330.446,330.446
0.000278849	-4636236.12	0,4.73764e-06,1.07677e-05,1.84428e-05,2.82118e-05,4.06457e-05,5.64717e-05,7.66151e-05,0.000102254,0.000134887,0.000176422,0.000229288,0.000296577,0.000382222,0.000491231,0.000629979,0.000806578,0.00103135,0.00131745,0.00168159,0.00214508,0.002735,0.00348586,0.00444156,0.00565797,0.00720623,0.00917686,0.0116851,0.0148776,0.018941,0.0241129,0.0306958,inf	1.0877,1.0877,993.06,193.243,96.761,330.172,1358.8,779.93,493.387,509.895,413.727,372.674,378.422,475.634,413.447,400.145,443.669,349.957,334.671,420.348,482.523,422.701,410.07,464.017,390.86,313.552,536.611,809.722,809.722,327.243,327.243,327.243
0.00027739	-4636251.99	0,4.73764e-06,1.07677e-05,1.84428e-05,2.82118e-05,4.06457e-05,5.64717e-05,7.66151e-05,0.000102254,0.000134887,0.000176422,0.000229288,0.000296577,0.000382222,0.000491231,0.000629979,0.000806578,0.00103135,0.00131745,0.00168159,0.00214508,0.002735,0.00348586,0.00444156,0.00565797,0.00720623,0.00917686,0.0116851,0.0148776,0.018941,0.0241129,0.0306958,inf	0.757127,0.757127,1021.53,187.888,89.5378,313.026,1377.1,782.257,489.104,514.067,414.98,372.746,375.725,478.934,412.449,398.183,447.33,349.186,332.183,420.471,485.129,421.062,408.315,467.11,390.294,308.467,542.295,833.56,833.56,324.371,324.371,324.371
