time_index	left_time_boundary	right_time_boundary	lambda
0	0	4.30962e-06	604.73
1	4.30962e-06	1.17874e-05	604.73
2	1.17874e-05	2.47625e-05	885.475
3	2.47625e-05	4.72761e-05	541.12
4	4.72761e-05	8.63405e-05	812.729
5	8.63405e-05	0.000154123	599.671
6	0.000154123	0.000271735	448.012
7	0.000271735	0.000475809	419.338
8	0.000475809	0.000829906	384.133
9	0.000829906	0.00144432	380.699
10	0.00144432	0.00251041	408.247
11	0.00251041	0.00436023	444.668
12	0.00436023	0.00756993	381.603
13	0.00756993	0.0131392	544.75
14	0.0131392	0.0228028	544.75
15	0.0228028	inf	544.75
