time_index	left_time_boundary	right_time_boundary	lambda
0	0	1.07677e-05	421.964
1	1.07677e-05	2.82118e-05	421.964
2	2.82118e-05	5.64717e-05	205.496
3	5.64717e-05	0.000102254	1097.31
4	0.000102254	0.000176422	487.563
5	0.000176422	0.000296577	370.446
6	0.000296577	0.000491231	482.37
7	0.000491231	0.000806578	385.058
8	0.000806578	0.00131745	379.059
9	0.00131745	0.00214508	385.66
10	0.00214508	0.00348586	477.326
11	0.00348586	0.00565797	480.383
12	0.00565797	0.00917686	229.684
13	0.00917686	0.0148776	1445.99
14	0.0148776	0.0241129	1445.99
15	0.0241129	inf	1445.99
