0.000620979	-327526.39	0,0.000102436,0.000242601,0.000434391,0.00069682,0.00105591,0.00154725,0.00221956,0.00313949,0.00439825,0.00612063,0.00847738,0.0117022,0.0161147,0.0221524,0.0304139,inf	241.748,241.748,344.425,366.009,390.923,380.678,383.043,377.198,372.167,376.419,365.778,379.156,397.736,358.216,358.216,358.216
0.000553592	-327431.02	0,0.000102436,0.000242601,0.000434391,0.00069682,0.00105591,0.00154725,0.00221956,0.00313949,0.00439825,0.00612063,0.00847738,0.0117022,0.0161147,0.0221524,0.0304139,inf	192.291,192.291,337.384,359.211,406.283,385.725,394.06,385.698,377.629,389.932,365.663,395.896,450.182,357.558,357.558,357.558
0.00049511	-327358.07	0,0.000102436,0.000242601,0.000434391,0.00069682,0.00105591,0.00154725,0.00221956,0.00313949,0.00439825,0.00612063,0.00847738,0.0117022,0.0161147,0.0221524,0.0304139,inf	167.859,167.859,336.198,347.482,415.258,383.664,399.504,390.308,379.354,402.576,360.933,409.282,528.66,357.957,357.957,357.957
0.000445799	-327302.23	0,0.000102436,0.000242601,0.000434391,0.00069682,0.00105591,0.00154725,0.00221956,0.00313949,0.00439825,0.00612063,0.00847738,0.0117022,0.0161147,0.0221524,0.0304139,inf	154.087,154.087,339.161,334.506,422.164,378.722,402.511,393.479,378.778,415.586,352.691,418.102,657.376,356.622,356.622,356.622
0.000404998	-327262.53	0,0.000102436,0.000242601,0.000434391,0.00069682,0.00105591,0.00154725,0.00221956,0.00313949,0.00439825,0.00612063,0.00847738,0.0117022,0.0161147,0.0221524,0.0304139,inf	144.901,144.901,344.308,321.464,428.276,372.602,404.181,396.185,376.335,429.419,341.729,420.927,890.412,346.685,346.685,346.685
0.000371773	-327238.41	0,0.000102436,0.000242601,0.000434391,0.00069682,0.00105591,0.00154725,0.00221956,0.00313949,0.00439825,0.00612063,0.00847738,0.0117022,0.0161147,0.0221524,0.0304139,inf	137.888,137.888,350.738,309.159,434.17,366.252,404.989,398.944,372.209,444.21,328.774,416.939,1312.44,320.403,320.403,320.403
0.000345254	-327227.51	0,0.000102436,0.000242601,0.000434391,0.00069682,0.00105591,0.00154725,0.00221956,0.00313949,0.00439825,0.00612063,0.00847738,0.0117022,0.0161147,0.0221524,0.0304139,inf	131.989,131.989,357.793,297.992,440.045,360.222,405.171,402.109,366.612,460.048,314.695,407.066,1870.84,281.686,281.686,281.686
0.000324585	-327221.90	0,0.000102436,0.000242601,0.000434391,0.00069682,0.00105591,0.00154725,0.00221956,0.00313949,0.00439825,0.00612063,0.00847738,0.0117022,0.0161147,0.0221524,0.0304139,inf	126.772,126.772,365.016,288.115,445.926,354.803,404.852,405.889,359.791,477.149,300.804,394.544,2210.39,253.217,253.217,253.217
0.000308759	-327215.79	0,0.000102436,0.000242601,0.000434391,0.00069682,0.00105591,0.00154725,0.00221956,0.00313949,0.00439825,0.00612063,0.00847738,0.0117022,0.0161147,0.0221524,0.0304139,inf	122.067,122.067,371.954,279.473,451.656,350.042,404.024,410.256,351.872,495.422,288.181,382.608,2289.62,241.912,241.912,241.912
0.000296737	-327210.11	0,0.000102436,0.000242601,0.000434391,0.00069682,0.00105591,0.00154725,0.00221956,0.00313949,0.00439825,0.00612063,0.00847738,0.0117022,0.0161147,0.0221524,0.0304139,inf	117.817,117.817,378.274,271.925,457.051,345.89,402.676,415.09,342.966,514.228,276.996,372.326,2322.26,240.736,240.736,240.736
0.000287645	-327207.11	0,0.000102436,0.000242601,0.000434391,0.00069682,0.00105591,0.00154725,0.00221956,0.00313949,0.00439825,0.00612063,0.00847738,0.0117022,0.0161147,0.0221524,0.0304139,inf	114.021,114.021,383.828,265.341,462.011,342.301,400.864,420.304,333.283,532.832,267.017,363.631,2347.87,244.89,244.89,244.89
0.000280804	-327206.07	0,0.000102436,0.000242601,0.000434391,0.00069682,0.00105591,0.00154725,0.00221956,0.00313949,0.00439825,0.00612063,0.00847738,0.0117022,0.0161147,0.0221524,0.0304139,inf	110.681,110.681,388.608,259.612,466.517,339.234,398.683,425.854,323.116,550.725,258.069,356.336,2369.78,251.403,251.403,251.403
0.000275688	-327206.18	0,0.000102436,0.000242601,0.000434391,0.00069682,0.00105591,0.00154725,0.00221956,0.00313949,0.00439825,0.00612063,0.00847738,0.0117022,0.0161147,0.0221524,0.0304139,inf	107.793,107.793,392.671,254.642,470.581,336.644,396.22,431.693,312.753,567.602,250.031,350.261,2388.33,258.417,258.417,258.417
0.000271891	-327206.88	0,0.000102436,0.000242601,0.000434391,0.00069682,0.00105591,0.00154725,0.00221956,0.00313949,0.00439825,0.00612063,0.00847738,0.0117022,0.0161147,0.0221524,0.0304139,inf	105.329,105.329,396.094,250.34,474.226,334.48,393.54,437.762,302.424,583.302,242.813,345.24,2403.75,264.888,264.888,264.888
0.0002691	-327207.84	0,0.000102436,0.000242601,0.000434391,0.00069682,0.00105591,0.00154725,0.00221956,0.00313949,0.00439825,0.00612063,0.00847738,0.0117022,0.0161147,0.0221524,0.0304139,inf	103.251,103.251,398.961,246.619,477.481,332.691,390.695,443.991,292.306,597.763,236.335,341.122,2416.37,270.35,270.35,270.35
0.000267082	-327208.87	0,0.000102436,0.000242601,0.000434391,0.00069682,0.00105591,0.00154725,0.00221956,0.00313949,0.00439825,0.00612063,0.00847738,0.0117022,0.0161147,0.0221524,0.0304139,inf	101.57,101.57,401.518,243.498,480.546,331.305,387.766,450.386,282.497,611.069,230.53,337.798,2426.53,274.701,274.701,274.701
0.000265636	-327209.88	0,0.000102436,0.000242601,0.000434391,0.00069682,0.00105591,0.00154725,0.00221956,0.00313949,0.00439825,0.00612063,0.00847738,0.0117022,0.0161147,0.0221524,0.0304139,inf	100.143,100.143,403.488,240.727,483.13,330.138,384.688,456.759,273.085,623.137,225.315,335.104,2434.55,278.02,278.02,278.02
0.000264625	-327210.81	0,0.000102436,0.000242601,0.000434391,0.00069682,0.00105591,0.00154725,0.00221956,0.00313949,0.00439825,0.00612063,0.00847738,0.0117022,0.0161147,0.0221524,0.0304139,inf	98.9661,98.9661,405.089,238.316,485.389,329.22,381.535,463.086,264.126,634.069,220.635,332.941,2440.88,280.477,280.477,280.477
0.00026394	-327211.66	0,0.000102436,0.000242601,0.000434391,0.00069682,0.00105591,0.00154725,0.00221956,0.00313949,0.00439825,0.00612063,0.00847738,0.0117022,0.0161147,0.0221524,0.0304139,inf	98.0083,98.0083,406.411,236.229,487.379,328.535,378.343,469.326,255.639,643.962,216.437,331.221,2445.81,282.248,282.248,282.248
0.0002635	-327212.42	0,0.000102436,0.000242601,0.000434391,0.00069682,0.00105591,0.00154725,0.00221956,0.00313949,0.00439825,0.00612063,0.00847738,0.0117022,0.0161147,0.0221524,0.0304139,inf	97.2362,97.2362,407.499,234.423,489.129,328.062,375.132,475.444,247.623,652.912,212.668,329.866,2449.6,283.492,283.492,283.492
