LogLikelihood = -175827.67544003634248

y0 0.95462150817532254177
y0_prime 0
y1 1.0664697832358152052
y1_prime 0
y2 0.92440799261428019395
y2_prime 0
y3 1.9444179839611930305
y3_prime 0
rho 0.0010149764840659766547
rho.alpha 1.2677449464254813005
r_ii 0.99999999023642149876
theta 0.0026476688393898242975
