time_index	left_time_boundary	right_time_boundary	lambda
0	0	1.00455e-05	623.256
1	1.00455e-05	2.63196e-05	623.256
2	2.63196e-05	5.2684e-05	318.14
3	5.2684e-05	9.53953e-05	317.318
4	9.53953e-05	0.000164589	349.251
5	0.000164589	0.000276685	347.951
6	0.000276685	0.000458283	347.209
7	0.000458283	0.000752479	368.13
8	0.000752479	0.00122909	370.782
9	0.00122909	0.0020012	437.681
10	0.0020012	0.00325206	504.693
11	0.00325206	0.00527848	397.331
12	0.00527848	0.00856135	389.256
13	0.00856135	0.0138797	249.637
14	0.0138797	0.0224956	249.637
15	0.0224956	inf	249.637
