time_index	left_time_boundary	right_time_boundary	lambda
0	0	4.227e-05	452.021
1	4.227e-05	9.17154e-05	452.021
2	9.17154e-05	0.000149554	222.224
3	0.000149554	0.000217211	422.556
4	0.000217211	0.000296353	447.403
5	0.000296353	0.000388928	431.033
6	0.000388928	0.000497219	384.376
7	0.000497219	0.000623892	354.853
8	0.000623892	0.000772068	346.062
9	0.000772068	0.000945396	354.851
10	0.000945396	0.00114815	370.74
11	0.00114815	0.00138531	395.393
12	0.00138531	0.00166274	426.595
13	0.00166274	0.00198726	459.654
14	0.00198726	0.00236687	478.247
15	0.00236687	0.00281092	466.441
16	0.00281092	0.00333034	430.949
17	0.00333034	0.00393793	393.952
18	0.00393793	0.00464867	371.135
19	0.00464867	0.00548005	367.911
20	0.00548005	0.00645256	386.193
21	0.00645256	0.00759015	421.578
22	0.00759015	0.00892085	452.468
23	0.00892085	0.0104774	435.925
24	0.0104774	0.0122982	358.713
25	0.0122982	0.0144281	288.132
26	0.0144281	0.0169196	274.873
27	0.0169196	0.019834	550.281
28	0.019834	0.023243	550.281
29	0.023243	0.0272308	11.5785
30	0.0272308	0.0318955	11.5785
31	0.0318955	inf	11.5785
