0.000645594	-1804028.71	0,2.15797e-05,5.45949e-05,0.000105106,0.000182384,0.000300613,0.000481496,0.000758232,0.00118162,0.00182937,0.00282038,0.00433654,0.00665617,0.010205,0.0156345,0.0239412,inf	216.476,216.476,227.289,264.69,262.876,284.838,317.739,349.27,389.406,427.438,452.414,453.853,436.717,342.776,342.776,342.776
0.000679723	-1803588.51	0,2.15797e-05,5.45949e-05,0.000105106,0.000182384,0.000300613,0.000481496,0.000758232,0.00118162,0.00182937,0.00282038,0.00433654,0.00665617,0.010205,0.0156345,0.0239412,inf	190.358,190.358,184.045,240.948,223.403,248.472,290.758,328.537,381.675,435.161,476.983,486.194,458.342,284.835,284.835,284.835
0.000710889	-1803419.87	0,2.15797e-05,5.45949e-05,0.000105106,0.000182384,0.000300613,0.000481496,0.000758232,0.00118162,0.00182937,0.00282038,0.00433654,0.00665617,0.010205,0.0156345,0.0239412,inf	191.709,191.709,167.316,244.452,209.785,235.809,282.419,319.778,377.411,437.03,490.113,509.744,476.12,236.171,236.171,236.171
0.000739495	-1803326.21	0,2.15797e-05,5.45949e-05,0.000105106,0.000182384,0.000300613,0.000481496,0.000758232,0.00118162,0.00182937,0.00282038,0.00433654,0.00665617,0.010205,0.0156345,0.0239412,inf	197.468,197.468,156.716,254.998,204.117,231.498,281.089,315.895,374.802,436.169,496.572,527.387,492.113,195.012,195.012,195.012
0.000766021	-1803265.33	0,2.15797e-05,5.45949e-05,0.000105106,0.000182384,0.000300613,0.000481496,0.000758232,0.00118162,0.00182937,0.00282038,0.00433654,0.00665617,0.010205,0.0156345,0.0239412,inf	202.772,202.772,147.578,266.576,200.989,230.433,282.645,314.281,373.227,434.182,499.132,541.087,508.128,158.748,158.748,158.748
0.000790758	-1803225.95	0,2.15797e-05,5.45949e-05,0.000105106,0.000182384,0.000300613,0.000481496,0.000758232,0.00118162,0.00182937,0.00282038,0.00433654,0.00665617,0.010205,0.0156345,0.0239412,inf	207.065,207.065,138.977,277.388,198.597,230.654,285.379,313.791,372.366,431.83,499.368,552.164,526.021,124.626,124.626,124.626
0.000813795	-1803208.41	0,2.15797e-05,5.45949e-05,0.000105106,0.000182384,0.000300613,0.000481496,0.000758232,0.00118162,0.00182937,0.00282038,0.00433654,0.00665617,0.010205,0.0156345,0.0239412,inf	210.642,210.642,130.865,287.052,196.351,231.362,288.523,313.865,372.017,429.458,498.187,561.596,548.399,89.9042,89.9042,89.9042
0.000835143	-1803226.82	0,2.15797e-05,5.45949e-05,0.000105106,0.000182384,0.000300613,0.000481496,0.000758232,0.00118162,0.00182937,0.00282038,0.00433654,0.00665617,0.010205,0.0156345,0.0239412,inf	213.832,213.832,123.325,295.65,194.105,232.246,291.74,314.226,372.056,427.228,496.161,570.335,580.337,54.9942,54.9942,54.9942
0.000854936	-1803321.19	0,2.15797e-05,5.45949e-05,0.000105106,0.000182384,0.000300613,0.000481496,0.000758232,0.00118162,0.00182937,0.00282038,0.00433654,0.00665617,0.010205,0.0156345,0.0239412,inf	216.823,216.823,116.409,303.398,191.879,233.236,294.919,314.766,372.443,425.244,493.677,579.413,632.107,32.1188,32.1188,32.1188
0.000872412	-1803449.57	0,2.15797e-05,5.45949e-05,0.000105106,0.000182384,0.000300613,0.000481496,0.000758232,0.00118162,0.00182937,0.00282038,0.00433654,0.00665617,0.010205,0.0156345,0.0239412,inf	219.383,219.383,110.074,310.378,189.646,234.223,297.89,315.279,372.947,423.245,490.259,587.151,705.285,23.9912,23.9912,23.9912
0.000887979	-1803463.11	0,2.15797e-05,5.45949e-05,0.000105106,0.000182384,0.000300613,0.000481496,0.000758232,0.00118162,0.00182937,0.00282038,0.00433654,0.00665617,0.010205,0.0156345,0.0239412,inf	221.406,221.406,104.267,316.666,187.367,235.096,300.561,315.679,373.487,421.116,485.383,590.116,777.959,23.5715,23.5715,23.5715
0.000902859	-1803402.00	0,2.15797e-05,5.45949e-05,0.000105106,0.000182384,0.000300613,0.000481496,0.000758232,0.00118162,0.00182937,0.00282038,0.00433654,0.00665617,0.010205,0.0156345,0.0239412,inf	223.11,223.11,98.9503,322.378,185.048,235.833,302.971,316.048,374.248,419.224,479.692,588.389,828.145,24.2581,24.2581,24.2581
0.000917474	-1803357.03	0,2.15797e-05,5.45949e-05,0.000105106,0.000182384,0.000300613,0.000481496,0.000758232,0.00118162,0.00182937,0.00282038,0.00433654,0.00665617,0.010205,0.0156345,0.0239412,inf	224.662,224.662,94.1206,327.71,182.755,236.485,305.17,316.435,375.362,417.937,474.19,584.517,859.548,24.5816,24.5816,24.5816
0.00093189	-1803329.18	0,2.15797e-05,5.45949e-05,0.000105106,0.000182384,0.000300613,0.000481496,0.000758232,0.00118162,0.00182937,0.00282038,0.00433654,0.00665617,0.010205,0.0156345,0.0239412,inf	226.1,226.1,89.7483,332.779,180.532,237.076,307.142,316.768,376.736,417.26,469.268,579.989,880.489,24.6964,24.6964,24.6964
0.000946086	-1803308.78	0,2.15797e-05,5.45949e-05,0.000105106,0.000182384,0.000300613,0.000481496,0.000758232,0.00118162,0.00182937,0.00282038,0.00433654,0.00665617,0.010205,0.0156345,0.0239412,inf	227.414,227.414,85.7906,337.654,178.404,237.635,308.88,316.974,378.225,417.052,464.95,575.364,895.574,24.7272,24.7272,24.7272
0.000960029	-1803292.04	0,2.15797e-05,5.45949e-05,0.000105106,0.000182384,0.000300613,0.000481496,0.000758232,0.00118162,0.00182937,0.00282038,0.00433654,0.00665617,0.010205,0.0156345,0.0239412,inf	228.585,228.585,82.201,342.37,176.393,238.199,310.407,317.022,379.726,417.172,461.16,570.843,907.187,24.7154,24.7154,24.7154
0.000973691	-1803277.57	0,2.15797e-05,5.45949e-05,0.000105106,0.000182384,0.000300613,0.000481496,0.000758232,0.00118162,0.00182937,0.00282038,0.00433654,0.00665617,0.010205,0.0156345,0.0239412,inf	229.619,229.619,78.9405,346.938,174.506,238.803,311.765,316.914,381.18,417.514,457.81,566.491,916.651,24.6822,24.6822,24.6822
0.000987053	-1803264.69	0,2.15797e-05,5.45949e-05,0.000105106,0.000182384,0.000300613,0.000481496,0.000758232,0.00118162,0.00182937,0.00282038,0.00433654,0.00665617,0.010205,0.0156345,0.0239412,inf	230.508,230.508,75.97,351.355,172.74,239.469,312.995,316.666,382.556,418.005,454.823,562.324,924.72,24.6382,24.6382,24.6382
0.0010001	-1803253.05	0,2.15797e-05,5.45949e-05,0.000105106,0.000182384,0.000300613,0.000481496,0.000758232,0.00118162,0.00182937,0.00282038,0.00433654,0.00665617,0.010205,0.0156345,0.0239412,inf	231.262,231.262,73.2577,355.604,171.085,240.208,314.131,316.301,383.841,418.592,452.134,558.334,931.842,24.5895,24.5895,24.5895
0.00101283	-1803242.42	0,2.15797e-05,5.45949e-05,0.000105106,0.000182384,0.000300613,0.000481496,0.000758232,0.00118162,0.00182937,0.00282038,0.00433654,0.00665617,0.010205,0.0156345,0.0239412,inf	231.891,231.891,70.778,359.68,169.53,241.024,315.198,315.839,385.035,419.243,449.694,554.506,938.288,24.5391,24.5391,24.5391
