0.0006577	-4548161.19	0,1.01964e-05,2.67149e-05,5.34754e-05,9.68283e-05,0.000167061,0.000280841,0.000465168,0.000763783,0.00124755,0.00203126,0.00330091,0.00535777,0.00868995,0.0140882,0.0228335,inf	151.697,151.697,262.637,207.017,229.124,244.219,276.089,311.21,346.203,394.104,445.242,460.906,445.226,329.91,329.91,329.91
0.000696514	-4546884.70	0,1.01964e-05,2.67149e-05,5.34754e-05,9.68283e-05,0.000167061,0.000280841,0.000465168,0.000763783,0.00124755,0.00203126,0.00330091,0.00535777,0.00868995,0.0140882,0.0228335,inf	106.652,106.652,275.291,162.55,192.146,201.926,241.589,284.447,325.183,386.988,463.973,497.362,478.303,269.038,269.038,269.038
0.000731218	-4546441.15	0,1.01964e-05,2.67149e-05,5.34754e-05,9.68283e-05,0.000167061,0.000280841,0.000465168,0.000763783,0.00124755,0.00203126,0.00330091,0.00535777,0.00868995,0.0140882,0.0228335,inf	90.1634,90.1634,308.114,144.738,185.285,187.709,232.063,276.941,316.133,381.046,471.188,521.06,506.896,220.988,220.988,220.988
0.000762599	-4546230.98	0,1.01964e-05,2.67149e-05,5.34754e-05,9.68283e-05,0.000167061,0.000280841,0.000465168,0.000763783,0.00124755,0.00203126,0.00330091,0.00535777,0.00868995,0.0140882,0.0228335,inf	81.2714,81.2714,335.9,132.983,187.159,182.235,231.144,276.574,312.168,376.14,472.57,536.602,533.333,182.306,182.306,182.306
0.000791321	-4546124.63	0,1.01964e-05,2.67149e-05,5.34754e-05,9.68283e-05,0.000167061,0.000280841,0.000465168,0.000763783,0.00124755,0.00203126,0.00330091,0.00535777,0.00868995,0.0140882,0.0228335,inf	75.9726,75.9726,354.855,123.017,191.682,179.668,233.36,279.016,310.679,372.202,471.051,546.835,559.552,149.735,149.735,149.735
0.000817736	-4546088.88	0,1.01964e-05,2.67149e-05,5.34754e-05,9.68283e-05,0.000167061,0.000280841,0.000465168,0.000763783,0.00124755,0.00203126,0.00330091,0.00535777,0.00868995,0.0140882,0.0228335,inf	72.8958,72.8958,366.833,114.037,196.906,178.028,236.621,282.478,310.486,369.102,468.104,553.481,587.38,120.697,120.697,120.697
0.000841953	-4546124.01	0,1.01964e-05,2.67149e-05,5.34754e-05,9.68283e-05,0.000167061,0.000280841,0.000465168,0.000763783,0.00124755,0.00203126,0.00330091,0.00535777,0.00868995,0.0140882,0.0228335,inf	71.2596,71.2596,374.314,105.947,202.233,176.665,240.13,286.173,310.995,366.699,464.466,557.602,619.036,93.3496,93.3496,93.3496
0.000863948	-4546255.43	0,1.01964e-05,2.67149e-05,5.34754e-05,9.68283e-05,0.000167061,0.000280841,0.000465168,0.000763783,0.00124755,0.00203126,0.00330091,0.00535777,0.00868995,0.0140882,0.0228335,inf	70.5696,70.5696,379.157,98.7348,207.55,175.439,243.66,289.773,311.895,364.872,460.504,559.891,657.911,67.4791,67.4791,67.4791
0.000883734	-4546527.88	0,1.01964e-05,2.67149e-05,5.34754e-05,9.68283e-05,0.000167061,0.000280841,0.000465168,0.000763783,0.00124755,0.00203126,0.00330091,0.00535777,0.00868995,0.0140882,0.0228335,inf	70.4318,70.4318,382.6,92.3787,212.935,174.431,247.28,293.179,313.032,363.534,456.391,560.737,709.114,46.9103,46.9103,46.9103
0.000901064	-4546892.37	0,1.01964e-05,2.67149e-05,5.34754e-05,9.68283e-05,0.000167061,0.000280841,0.000465168,0.000763783,0.00124755,0.00203126,0.00330091,0.00535777,0.00868995,0.0140882,0.0228335,inf	70.5051,70.5051,385.305,86.7756,218.4,173.687,251.055,296.318,314.272,362.556,452.022,559.668,774.415,35.3751,35.3751,35.3751
0.000916015	-4547110.96	0,1.01964e-05,2.67149e-05,5.34754e-05,9.68283e-05,0.000167061,0.000280841,0.000465168,0.000763783,0.00124755,0.00203126,0.00330091,0.00535777,0.00868995,0.0140882,0.0228335,inf	70.4719,70.4719,387.306,81.7184,223.577,172.927,254.654,299.004,315.487,361.834,447.231,555.468,842.206,30.6841,30.6841,30.6841
0.0009295	-4547122.71	0,1.01964e-05,2.67149e-05,5.34754e-05,9.68283e-05,0.000167061,0.000280841,0.000465168,0.000763783,0.00124755,0.00203126,0.00330091,0.00535777,0.00868995,0.0140882,0.0228335,inf	70.2905,70.2905,388.569,77.0282,228.029,171.781,257.613,301.126,316.7,361.503,442.387,548.282,897.666,29.1961,29.1961,29.1961
0.000942357	-4547056.03	0,1.01964e-05,2.67149e-05,5.34754e-05,9.68283e-05,0.000167061,0.000280841,0.000465168,0.000763783,0.00124755,0.00203126,0.00330091,0.00535777,0.00868995,0.0140882,0.0228335,inf	70.1319,70.1319,389.411,72.678,231.772,170.202,259.823,302.728,317.974,361.738,438.075,539.516,937.042,28.5999,28.5999,28.5999
0.000954984	-4546992.94	0,1.01964e-05,2.67149e-05,5.34754e-05,9.68283e-05,0.000167061,0.000280841,0.000465168,0.000763783,0.00124755,0.00203126,0.00330091,0.00535777,0.00868995,0.0140882,0.0228335,inf	70.0489,70.0489,390.17,68.7131,235.126,168.404,261.475,303.902,319.282,362.531,434.602,530.392,964.67,28.2493,28.2493,28.2493
0.000967502	-4546941.47	0,1.01964e-05,2.67149e-05,5.34754e-05,9.68283e-05,0.000167061,0.000280841,0.000465168,0.000763783,0.00124755,0.00203126,0.00330091,0.00535777,0.00868995,0.0140882,0.0228335,inf	70.0414,70.0414,390.912,65.1319,238.328,166.568,262.767,304.703,320.53,363.739,431.961,521.494,984.973,28.0153,28.0153,28.0153
0.000979926	-4546897.20	0,1.01964e-05,2.67149e-05,5.34754e-05,9.68283e-05,0.000167061,0.000280841,0.000465168,0.000763783,0.00124755,0.00203126,0.00330091,0.00535777,0.00868995,0.0140882,0.0228335,inf	70.0898,70.0898,391.59,61.8984,241.492,164.805,263.847,305.184,321.64,365.2,430.021,513.024,1000.75,27.8394,27.8394,27.8394
0.000992231	-4546858.07	0,1.01964e-05,2.67149e-05,5.34754e-05,9.68283e-05,0.000167061,0.000280841,0.000465168,0.000763783,0.00124755,0.00203126,0.00330091,0.00535777,0.00868995,0.0140882,0.0228335,inf	70.1763,70.1763,392.147,58.9663,244.655,163.17,264.828,305.407,322.572,366.788,428.641,505.021,1013.68,27.6965,27.6965,27.6965
0.00100439	-4546822.83	0,1.01964e-05,2.67149e-05,5.34754e-05,9.68283e-05,0.000167061,0.000280841,0.000465168,0.000763783,0.00124755,0.00203126,0.00330091,0.00535777,0.00868995,0.0140882,0.0228335,inf	70.2839,70.2839,392.554,56.2948,247.812,161.686,265.79,305.436,323.318,368.419,427.696,497.464,1024.75,27.5738,27.5738,27.5738
0.00101637	-4546790.74	0,1.01964e-05,2.67149e-05,5.34754e-05,9.68283e-05,0.000167061,0.000280841,0.000465168,0.000763783,0.00124755,0.00203126,0.00330091,0.00535777,0.00868995,0.0140882,0.0228335,inf	70.417,70.417,392.805,53.8506,250.939,160.352,266.782,305.326,323.887,370.036,427.087,490.312,1034.54,27.465,27.465,27.465
0.00102815	-4546761.32	0,1.01964e-05,2.67149e-05,5.34754e-05,9.68283e-05,0.000167061,0.000280841,0.000465168,0.000763783,0.00124755,0.00203126,0.00330091,0.00535777,0.00868995,0.0140882,0.0228335,inf	70.5544,70.5544,392.904,51.6032,254.005,159.157,267.833,305.123,324.297,371.608,426.742,483.52,1043.41,27.3661,27.3661,27.3661
