LogLikelihood = -852696.05566057935357

y0 0.69845850553228383539
y0_prime 0
y1 1.0397735031296353458
y1_prime 0
y2 1.0359934482789501242
y2_prime 0
y3 1.7249254527639128476
y3_prime 0
rho 0.00068495303992210953593
theta 0.0025130546377227403095
