time_index	left_time_boundary	right_time_boundary	lambda
0	0	1.88053e-07	3.74893
1	1.88053e-07	4.35766e-07	3.74893
2	4.35766e-07	7.62065e-07	3.74893
3	7.62065e-07	1.19188e-06	3.74893
4	1.19188e-06	1.75806e-06	3.74893
5	1.75806e-06	2.50385e-06	3.74898
6	2.50385e-06	3.48625e-06	2370.4
7	3.48625e-06	4.78031e-06	7687.56
8	4.78031e-06	6.48491e-06	14366.8
9	6.48491e-06	8.73029e-06	2040.6
10	8.73029e-06	1.1688e-05	883.323
11	1.1688e-05	1.55841e-05	2598.11
12	1.55841e-05	2.07161e-05	6041.97
13	2.07161e-05	2.74764e-05	5911.31
14	2.74764e-05	3.63813e-05	5302.12
15	3.63813e-05	4.81112e-05	4118.05
16	4.81112e-05	6.35625e-05	2926.83
17	6.35625e-05	8.39157e-05	2438.39
18	8.39157e-05	0.000110726	3052.25
19	0.000110726	0.000146042	3720.24
20	0.000146042	0.000192561	3579.18
21	0.000192561	0.000253839	3786.4
22	0.000253839	0.000334557	4064.38
23	0.000334557	0.000440883	3318.38
24	0.000440883	0.00058094	2817.95
25	0.00058094	0.000765431	2872.6
26	0.000765431	0.00100845	11495
27	0.00100845	0.00132857	928.709
28	0.00132857	0.00175024	928.709
29	0.00175024	0.00230569	2917.92
30	0.00230569	0.00303736	2917.92
31	0.00303736	inf	2917.92
