AIC = 613251.33102340297773

y0 1.0537624829308764873
y0_prime 0
y1 1.0354217652681201312
y1_prime 0
y2 0.89226575232165905582
y2_prime 0
y3 1.7325896422180746548
y3_prime 0
rho 0.0027927270821389246248
theta 0.0050235557614689519898
