time_index	left_time_boundary	right_time_boundary	lambda
0	0	1.58496e-06	25424.4
1	1.58496e-06	3.67275e-06	25424.4
2	3.67275e-06	6.42288e-06	1986.42
3	6.42288e-06	1.00455e-05	1652.51
4	1.00455e-05	1.48174e-05	1917.13
5	1.48174e-05	2.11031e-05	909.481
6	2.11031e-05	2.9383e-05	314.762
7	2.9383e-05	4.02897e-05	188.801
8	4.02897e-05	5.46565e-05	194.51
9	5.46565e-05	7.35812e-05	226.771
10	7.35812e-05	9.85097e-05	282.943
11	9.85097e-05	0.000131347	356.558
12	0.000131347	0.000174601	354.817
13	0.000174601	0.000231578	309.678
14	0.000231578	0.000306631	277.234
15	0.000306631	0.000405494	281.914
16	0.000405494	0.000535722	310.633
17	0.000535722	0.000707264	345.021
18	0.000707264	0.000933227	373.306
19	0.000933227	0.00123088	389.1
20	0.00123088	0.00162296	405.288
21	0.00162296	0.00213942	414.095
22	0.00213942	0.00281974	412.667
23	0.00281974	0.00371588	412.912
24	0.00371588	0.00489632	419.277
25	0.00489632	0.00645126	422.217
26	0.00645126	0.00849949	414.075
27	0.00849949	0.0111975	498.903
28	0.0111975	0.0147515	498.903
29	0.0147515	0.019433	66312.1
30	0.019433	0.0255997	66312.1
31	0.0255997	inf	66312.1
