time_index	left_time_boundary	right_time_boundary	lambda
0	0	4.49118e-05	399.397
1	4.49118e-05	9.79994e-05	399.397
2	9.79994e-05	0.000160751	399.397
3	0.000160751	0.000234926	399.397
4	0.000234926	0.000322604	399.397
5	0.000322604	0.000426243	399.397
6	0.000426243	0.000548749	399.397
7	0.000548749	0.000693556	399.397
8	0.000693556	0.000864723	399.397
9	0.000864723	0.00106705	399.397
10	0.00106705	0.00130621	399.397
11	0.00130621	0.0015889	399.397
12	0.0015889	0.00192306	399.397
13	0.00192306	0.00231805	399.397
14	0.00231805	0.00278494	399.397
15	0.00278494	0.00333683	399.397
16	0.00333683	0.00398918	399.397
17	0.00398918	0.00476028	399.397
18	0.00476028	0.00567176	399.397
19	0.00567176	0.00674917	399.397
20	0.00674917	0.00802271	399.397
21	0.00802271	0.00952808	399.397
22	0.00952808	0.0113075	399.397
23	0.0113075	0.0134108	399.397
24	0.0134108	0.0158971	399.397
25	0.0158971	0.0188359	399.397
26	0.0188359	0.0223097	399.397
27	0.0223097	0.0264159	399.397
28	0.0264159	0.0312696	399.397
29	0.0312696	inf	399.397
