0.000699388	-8529412.69	0,6.13766e-06,1.64763e-05,3.38912e-05,6.32259e-05,0.000112639,0.000195873,0.000336077,0.000572244,0.000970057,0.00164016,0.00276891,0.00467024,0.00787294,0.0132678,0.0223551,inf	773.634,773.634,550.121,455.312,400.814,381.079,376.736,381.907,393.821,399.98,413.332,414.385,398.32,419.977,419.977,419.977
0.000760827	-8527670.39	0,6.13766e-06,1.64763e-05,3.38912e-05,6.32259e-05,0.000112639,0.000195873,0.000336077,0.000572244,0.000970057,0.00164016,0.00276891,0.00467024,0.00787294,0.0132678,0.0223551,inf	935.581,935.581,608.138,480.19,400.135,374.162,367.986,375.908,393.5,398.677,419.181,421.383,393.9,435.241,435.241,435.241
0.000814494	-8526471.70	0,6.13766e-06,1.64763e-05,3.38912e-05,6.32259e-05,0.000112639,0.000195873,0.000336077,0.000572244,0.000970057,0.00164016,0.00276891,0.00467024,0.00787294,0.0132678,0.0223551,inf	978.827,978.827,622.982,490.56,397.832,371.389,364.458,374.527,395.434,396.943,421.522,424.428,388.087,446.585,446.585,446.585
0.000861962	-8525591.96	0,6.13766e-06,1.64763e-05,3.38912e-05,6.32259e-05,0.000112639,0.000195873,0.000336077,0.000572244,0.000970057,0.00164016,0.00276891,0.00467024,0.00787294,0.0132678,0.0223551,inf	979.626,979.626,620.868,494.434,394.671,370.308,363.009,375.117,398.374,395.287,422.452,425.7,382.052,455.402,455.402,455.402
0.000904302	-8524926.65	0,6.13766e-06,1.64763e-05,3.38912e-05,6.32259e-05,0.000112639,0.000195873,0.000336077,0.000572244,0.000970057,0.00164016,0.00276891,0.00467024,0.00787294,0.0132678,0.0223551,inf	969.486,969.486,612.894,495.469,391.148,369.979,362.35,376.49,401.67,393.769,422.799,426.168,376.233,462.51,462.51,462.51
0.000942295	-8524414.17	0,6.13766e-06,1.64763e-05,3.38912e-05,6.32259e-05,0.000112639,0.000195873,0.000336077,0.000572244,0.000970057,0.00164016,0.00276891,0.00467024,0.00787294,0.0132678,0.0223551,inf	958.696,958.696,603.405,495.351,387.585,370.056,361.957,378.115,405.006,392.366,422.909,426.28,370.774,468.416,468.416,468.416
0.000976542	-8524014.05	0,6.13766e-06,1.64763e-05,3.38912e-05,6.32259e-05,0.000112639,0.000195873,0.000336077,0.000572244,0.000970057,0.00164016,0.00276891,0.00467024,0.00787294,0.0132678,0.0223551,inf	949.879,949.879,594.021,494.863,384.167,370.411,361.628,379.76,408.235,391.043,422.931,426.251,365.706,473.451,473.451,473.451
0.00100752	-8523698.24	0,6.13766e-06,1.64763e-05,3.38912e-05,6.32259e-05,0.000112639,0.000195873,0.000336077,0.000572244,0.000970057,0.00164016,0.00276891,0.00467024,0.00787294,0.0132678,0.0223551,inf	943.207,943.207,585.277,494.353,380.98,370.989,361.288,381.327,411.297,389.774,422.93,426.188,361.014,477.836,477.836,477.836
0.00103563	-8523446.72	0,6.13766e-06,1.64763e-05,3.38912e-05,6.32259e-05,0.000112639,0.000195873,0.000336077,0.000572244,0.000970057,0.00164016,0.00276891,0.00467024,0.00787294,0.0132678,0.0223551,inf	938.178,938.178,577.3,493.959,378.046,371.762,360.913,382.78,414.173,388.543,422.935,426.14,356.665,481.73,481.73,481.73
0.00106119	-8523244.89	0,6.13766e-06,1.64763e-05,3.38912e-05,6.32259e-05,0.000112639,0.000195873,0.000336077,0.000572244,0.000970057,0.00164016,0.00276891,0.00467024,0.00787294,0.0132678,0.0223551,inf	934.377,934.377,570.057,493.713,375.361,372.701,360.5,384.111,416.864,387.339,422.956,426.133,352.624,485.245,485.245,485.245
0.00108448	-8523081.90	0,6.13766e-06,1.64763e-05,3.38912e-05,6.32259e-05,0.000112639,0.000195873,0.000336077,0.000572244,0.000970057,0.00164016,0.00276891,0.00467024,0.00787294,0.0132678,0.0223551,inf	931.445,931.445,563.494,493.629,372.901,373.783,360.051,385.322,419.381,386.155,422.997,426.175,348.857,488.463,488.463,488.463
0.00110574	-8522949.56	0,6.13766e-06,1.64763e-05,3.38912e-05,6.32259e-05,0.000112639,0.000195873,0.000336077,0.000572244,0.000970057,0.00164016,0.00276891,0.00467024,0.00787294,0.0132678,0.0223551,inf	929.126,929.126,557.523,493.675,370.634,374.986,359.569,386.423,421.738,384.988,423.056,426.27,345.335,491.449,491.449,491.449
0.00112519	-8522841.65	0,6.13766e-06,1.64763e-05,3.38912e-05,6.32259e-05,0.000112639,0.000195873,0.000336077,0.000572244,0.000970057,0.00164016,0.00276891,0.00467024,0.00787294,0.0132678,0.0223551,inf	927.275,927.275,552.071,493.831,368.532,376.289,359.058,387.422,423.949,383.836,423.131,426.416,342.028,494.249,494.249,494.249
0.001143	-8522753.33	0,6.13766e-06,1.64763e-05,3.38912e-05,6.32259e-05,0.000112639,0.000195873,0.000336077,0.000572244,0.000970057,0.00164016,0.00276891,0.00467024,0.00787294,0.0132678,0.0223551,inf	925.743,925.743,547.088,494.075,366.566,377.672,358.522,388.329,426.03,382.698,423.222,426.612,338.915,496.901,496.901,496.901
0.00115933	-8522680.87	0,6.13766e-06,1.64763e-05,3.38912e-05,6.32259e-05,0.000112639,0.000195873,0.000336077,0.000572244,0.000970057,0.00164016,0.00276891,0.00467024,0.00787294,0.0132678,0.0223551,inf	924.476,924.476,542.512,494.39,364.713,379.117,357.964,389.154,427.993,381.574,423.323,426.852,335.974,499.432,499.432,499.432
0.00117431	-8522621.29	0,6.13766e-06,1.64763e-05,3.38912e-05,6.32259e-05,0.000112639,0.000195873,0.000336077,0.000572244,0.000970057,0.00164016,0.00276891,0.00467024,0.00787294,0.0132678,0.0223551,inf	923.431,923.431,538.323,494.755,362.953,380.611,357.386,389.903,429.851,380.464,423.434,427.133,333.187,501.868,501.868,501.868
0.00118809	-8522572.27	0,6.13766e-06,1.64763e-05,3.38912e-05,6.32259e-05,0.000112639,0.000195873,0.000336077,0.000572244,0.000970057,0.00164016,0.00276891,0.00467024,0.00787294,0.0132678,0.0223551,inf	922.546,922.546,534.458,495.163,361.271,382.143,356.789,390.585,431.616,379.367,423.552,427.452,330.539,504.224,504.224,504.224
0.00120076	-8522531.91	0,6.13766e-06,1.64763e-05,3.38912e-05,6.32259e-05,0.000112639,0.000195873,0.000336077,0.000572244,0.000970057,0.00164016,0.00276891,0.00467024,0.00787294,0.0132678,0.0223551,inf	921.785,921.785,530.909,495.605,359.651,383.701,356.176,391.204,433.296,378.285,423.675,427.804,328.015,506.517,506.517,506.517
0.00121242	-8522498.72	0,6.13766e-06,1.64763e-05,3.38912e-05,6.32259e-05,0.000112639,0.000195873,0.000336077,0.000572244,0.000970057,0.00164016,0.00276891,0.00467024,0.00787294,0.0132678,0.0223551,inf	921.144,921.144,527.633,496.075,358.082,385.276,355.548,391.767,434.901,377.218,423.801,428.186,325.606,508.757,508.757,508.757
0.00122316	-8522471.48	0,6.13766e-06,1.64763e-05,3.38912e-05,6.32259e-05,0.000112639,0.000195873,0.000336077,0.000572244,0.000970057,0.00164016,0.00276891,0.00467024,0.00787294,0.0132678,0.0223551,inf	920.612,920.612,524.611,496.566,356.558,386.864,354.907,392.278,436.438,376.166,423.929,428.595,323.299,510.956,510.956,510.956
