0.00983668	-13774325.13	0,1.76929e-06,4.09988e-06,7.16985e-06,1.12138e-05,1.65406e-05,2.35574e-05,3.28002e-05,4.49753e-05,6.10129e-05,8.21385e-05,0.000109966,0.000146622,0.000194907,0.00025851,0.000342291,0.000452652,0.000598025,0.000789517,0.00104176,0.00137402,0.0018117,0.00238823,0.00314766,0.00414802,0.00546575,0.00720152,0.00948796,0.0124998,0.0164671,0.021693,0.0285768,inf	1001.68,1001.68,889.59,864.096,850.774,836.331,812.807,773.177,716.362,650.483,585.748,529.318,484.289,450.532,426.398,409.87,399.073,392.425,388.647,386.759,386.071,386.161,386.806,387.859,389.153,390.491,391.739,393.263,393.263,395.96,395.96,395.96
0.00965323	-13768031.54	0,1.76929e-06,4.09988e-06,7.16985e-06,1.12138e-05,1.65406e-05,2.35574e-05,3.28002e-05,4.49753e-05,6.10129e-05,8.21385e-05,0.000109966,0.000146622,0.000194907,0.00025851,0.000342291,0.000452652,0.000598025,0.000789517,0.00104176,0.00137402,0.0018117,0.00238823,0.00314766,0.00414802,0.00546575,0.00720152,0.00948796,0.0124998,0.0164671,0.021693,0.0285768,inf	1096.06,1096.06,960.414,965.636,996.406,1028.37,1040.26,1012.62,939.307,836.347,726.951,628.359,548.633,488.613,445.706,416.408,397.379,385.778,379.303,376.174,375.139,375.44,376.69,378.657,381.062,383.555,385.892,388.772,388.772,393.995,393.995,393.995
0.00948446	-13764259.20	0,1.76929e-06,4.09988e-06,7.16985e-06,1.12138e-05,1.65406e-05,2.35574e-05,3.28002e-05,4.49753e-05,6.10129e-05,8.21385e-05,0.000109966,0.000146622,0.000194907,0.00025851,0.000342291,0.000452652,0.000598025,0.000789517,0.00104176,0.00137402,0.0018117,0.00238823,0.00314766,0.00414802,0.00546575,0.00720152,0.00948796,0.0124998,0.0164671,0.021693,0.0285768,inf	1044.76,1044.76,874.628,888.678,951.118,1032.66,1100.04,1117.66,1065.78,958.97,829.197,704.262,599.579,519.246,461.272,421.545,395.754,380.094,371.424,367.296,365.976,366.424,368.131,370.813,374.117,377.575,380.842,384.916,384.916,392.511,392.511,392.511
0.00932802	-13761610.78	0,1.76929e-06,4.09988e-06,7.16985e-06,1.12138e-05,1.65406e-05,2.35574e-05,3.28002e-05,4.49753e-05,6.10129e-05,8.21385e-05,0.000109966,0.000146622,0.000194907,0.00025851,0.000342291,0.000452652,0.000598025,0.000789517,0.00104176,0.00137402,0.0018117,0.00238823,0.00314766,0.00414802,0.00546575,0.00720152,0.00948796,0.0124998,0.0164671,0.021693,0.0285768,inf	1021.11,1021.11,793.754,788.359,852.751,958.969,1069.37,1136.09,1122.84,1033.9,902.476,764.149,642.328,546.115,475.574,426.857,395.135,375.872,365.225,360.155,358.502,358.978,360.973,364.174,368.18,372.429,376.484,381.61,381.61,391.446,391.446,391.446
0.00918174	-13759592.16	0,1.76929e-06,4.09988e-06,7.16985e-06,1.12138e-05,1.65406e-05,2.35574e-05,3.28002e-05,4.49753e-05,6.10129e-05,8.21385e-05,0.000109966,0.000146622,0.000194907,0.00025851,0.000342291,0.000452652,0.000598025,0.000789517,0.00104176,0.00137402,0.0018117,0.00238823,0.00314766,0.00414802,0.00546575,0.00720152,0.00948796,0.0124998,0.0164671,0.021693,0.0285768,inf	1038.09,1038.09,749.519,712.222,760.078,868.546,1002.01,1107.43,1135,1074.61,954.007,812.148,679.436,570.82,489.551,432.823,395.69,373.085,360.562,354.548,352.49,352.874,355.006,358.556,363.097,367.988,372.711,378.769,378.769,390.743,390.743,390.743
0.0090437	-13757974.89	0,1.76929e-06,4.09988e-06,7.16985e-06,1.12138e-05,1.65406e-05,2.35574e-05,3.28002e-05,4.49753e-05,6.10129e-05,8.21385e-05,0.000109966,0.000146622,0.000194907,0.00025851,0.000342291,0.000452652,0.000598025,0.000789517,0.00104176,0.00137402,0.0018117,0.00238823,0.00314766,0.00414802,0.00546575,0.00720152,0.00948796,0.0124998,0.0164671,0.021693,0.0285768,inf	1076.54,1076.54,736.806,664.936,688.613,785.957,925.968,1056.37,1119.43,1090.81,988.514,850.453,711.97,593.889,503.411,439.437,397.282,371.52,357.184,350.214,347.689,347.884,350.028,353.79,358.729,364.139,369.429,376.319,376.319,390.349,390.349,390.349
0.00891231	-13756627.71	0,1.76929e-06,4.09988e-06,7.16985e-06,1.12138e-05,1.65406e-05,2.35574e-05,3.28002e-05,4.49753e-05,6.10129e-05,8.21385e-05,0.000109966,0.000146622,0.000194907,0.00025851,0.000342291,0.000452652,0.000598025,0.000789517,0.00104176,0.00137402,0.0018117,0.00238823,0.00314766,0.00414802,0.00546575,0.00720152,0.00948796,0.0124998,0.0164671,0.021693,0.0285768,inf	1118.31,1118.31,745.799,640.935,638.583,718.368,853.905,997.086,1087.55,1089.47,1009.32,880.352,740.344,615.394,517.075,446.533,399.69,370.931,354.843,346.915,343.879,343.808,345.868,349.731,354.955,360.784,366.557,374.197,374.197,390.221,390.221,390.221
0.00878628	-13755467.21	0,1.76929e-06,4.09988e-06,7.16985e-06,1.12138e-05,1.65406e-05,2.35574e-05,3.28002e-05,4.49753e-05,6.10129e-05,8.21385e-05,0.000109966,0.000146622,0.000194907,0.00025851,0.000342291,0.000452652,0.000598025,0.000789517,0.00104176,0.00137402,0.0018117,0.00238823,0.00314766,0.00414802,0.00546575,0.00720152,0.00948796,0.0124998,0.0164671,0.021693,0.0285768,inf	1151.78,1151.78,768.61,633.952,606.285,666.174,790.781,937.361,1046.91,1075.79,1019.05,902.79,764.75,635.269,530.385,453.916,402.7,371.098,353.323,344.448,340.873,340.483,342.384,346.261,351.679,357.842,364.031,372.353,372.353,390.324,390.324,390.324
0.00866458	-13754437.92	0,1.76929e-06,4.09988e-06,7.16985e-06,1.12138e-05,1.65406e-05,2.35574e-05,3.28002e-05,4.49753e-05,6.10129e-05,8.21385e-05,0.000109966,0.000146622,0.000194907,0.00025851,0.000342291,0.000452652,0.000598025,0.000789517,0.00104176,0.00137402,0.0018117,0.00238823,0.00314766,0.00414802,0.00546575,0.00720152,0.00948796,0.0124998,0.0164671,0.021693,0.0285768,inf	1171.18,1171.18,799.273,638.885,587.747,627.462,737.817,881.197,1002.5,1053.72,1019.9,918.611,785.351,653.426,543.187,461.409,406.131,371.841,352.451,342.65,338.524,337.777,339.462,343.283,348.822,355.251,361.796,370.744,370.744,390.63,390.63,390.63
0.00854642	-13753502.03	0,1.76929e-06,4.09988e-06,7.16985e-06,1.12138e-05,1.65406e-05,2.35574e-05,3.28002e-05,4.49753e-05,6.10129e-05,8.21385e-05,0.000109966,0.000146622,0.000194907,0.00025851,0.000342291,0.000452652,0.000598025,0.000789517,0.00104176,0.00137402,0.0018117,0.00238823,0.00314766,0.00414802,0.00546575,0.00720152,0.00948796,0.0124998,0.0164671,0.021693,0.0285768,inf	1175.42,1175.42,833.477,651.832,579.612,599.904,694.611,830.472,957.506,1026.28,1013.78,928.636,802.335,669.814,555.356,468.87,409.836,373.014,352.089,341.393,336.715,335.586,337.012,340.722,346.32,352.958,359.811,369.337,369.337,391.116,391.116,391.116
0.00843116	-13752633.16	0,1.76929e-06,4.09988e-06,7.16985e-06,1.12138e-05,1.65406e-05,2.35574e-05,3.28002e-05,4.49753e-05,6.10129e-05,8.21385e-05,0.000109966,0.000146622,0.000194907,0.00025851,0.000342291,0.000452652,0.000598025,0.000789517,0.00104176,0.00137402,0.0018117,0.00238823,0.00314766,0.00414802,0.00546575,0.00720152,0.00948796,0.0124998,0.0164671,0.021693,0.0285768,inf	1166.03,1166.03,867.876,669.701,579.204,581.295,660.08,785.815,913.907,995.735,1002.32,933.654,815.938,684.425,566.805,476.192,413.702,374.507,352.127,340.575,335.353,333.827,334.961,338.515,344.123,350.919,358.039,368.103,368.103,391.762,391.762,391.762
0.00831831	-13751812.59	0,1.76929e-06,4.09988e-06,7.16985e-06,1.12138e-05,1.65406e-05,2.35574e-05,3.28002e-05,4.49753e-05,6.10129e-05,8.21385e-05,0.000109966,0.000146622,0.000194907,0.00025851,0.000342291,0.000452652,0.000598025,0.000789517,0.00104176,0.00137402,0.0018117,0.00238823,0.00314766,0.00414802,0.00546575,0.00720152,0.00948796,0.0124998,0.0164671,0.021693,0.0285768,inf	1145.74,1145.74,900.086,689.999,584.428,569.758,633.009,747.172,872.867,963.733,986.892,934.416,826.427,697.283,577.479,483.295,417.643,376.23,352.481,340.115,334.364,332.433,333.25,336.612,342.186,349.1,356.451,367.02,367.02,392.555,392.555,392.555
0.00820746	-13751026.81	0,1.76929e-06,4.09988e-06,7.16985e-06,1.12138e-05,1.65406e-05,2.35574e-05,3.28002e-05,4.49753e-05,6.10129e-05,8.21385e-05,0.000109966,0.000146622,0.000194907,0.00025851,0.000342291,0.000452652,0.000598025,0.000789517,0.00104176,0.00137402,0.0018117,0.00238823,0.00314766,0.00414802,0.00546575,0.00720152,0.00948796,0.0124998,0.0164671,0.021693,0.0285768,inf	1117.89,1117.89,928.481,710.735,593.604,563.771,612.217,714.173,834.983,931.466,968.617,931.62,834.083,708.447,587.349,490.122,421.592,378.117,353.084,339.95,333.688,331.349,331.832,334.97,340.476,347.472,355.024,366.067,366.067,393.48,393.48,393.48
0.00809829	-13750265.92	0,1.76929e-06,4.09988e-06,7.16985e-06,1.12138e-05,1.65406e-05,2.35574e-05,3.28002e-05,4.49753e-05,6.10129e-05,8.21385e-05,0.000109966,0.000146622,0.000194907,0.00025851,0.000342291,0.000452652,0.000598025,0.000789517,0.00104176,0.00137402,0.0018117,0.00238823,0.00314766,0.00414802,0.00546575,0.00720152,0.00948796,0.0124998,0.0164671,0.021693,0.0285768,inf	1085.38,1085.38,952.201,730.33,605.403,562.101,596.662,686.271,800.494,899.764,948.417,925.887,839.194,717.997,596.404,496.635,425.502,380.113,353.881,340.027,333.276,330.533,330.666,333.557,338.963,346.011,353.736,365.23,365.23,394.528,394.528,394.528
0.00799055	-13749522.54	0,1.76929e-06,4.09988e-06,7.16985e-06,1.12138e-05,1.65406e-05,2.35574e-05,3.28002e-05,4.49753e-05,6.10129e-05,8.21385e-05,0.000109966,0.000146622,0.000194907,0.00025851,0.000342291,0.000452652,0.000598025,0.000789517,0.00104176,0.00137402,0.0018117,0.00238823,0.00314766,0.00414802,0.00546575,0.00720152,0.00948796,0.0124998,0.0164671,0.021693,0.0285768,inf	1050.93,1050.93,970.919,747.598,618.725,563.732,585.429,662.901,769.408,869.179,927.018,917.777,842.042,726.027,604.653,502.808,429.336,382.179,354.83,340.305,333.091,329.947,329.722,332.344,337.624,344.696,352.57,364.493,364.493,395.69,395.69,395.69
0.00788402	-13748791.12	0,1.76929e-06,4.09988e-06,7.16985e-06,1.12138e-05,1.65406e-05,2.35574e-05,3.28002e-05,4.49753e-05,6.10129e-05,8.21385e-05,0.000109966,0.000146622,0.000194907,0.00025851,0.000342291,0.000452652,0.000598025,0.000789517,0.00104176,0.00137402,0.0018117,0.00238823,0.00314766,0.00414802,0.00546575,0.00720152,0.00948796,0.0124998,0.0164671,0.021693,0.0285768,inf	1016.25,1016.25,984.744,761.643,632.665,567.858,577.747,643.484,741.6,840.056,904.987,907.768,842.896,732.636,612.115,508.627,433.066,384.281,355.898,340.75,333.098,329.563,328.971,331.308,336.438,343.51,351.513,363.845,363.845,396.96,396.96,396.96
0.00777854	-13748067.42	0,1.76929e-06,4.09988e-06,7.16985e-06,1.12138e-05,1.65406e-05,2.35574e-05,3.28002e-05,4.49753e-05,6.10129e-05,8.21385e-05,0.000109966,0.000146622,0.000194907,0.00025851,0.000342291,0.000452652,0.000598025,0.000789517,0.00104176,0.00137402,0.0018117,0.00238823,0.00314766,0.00414802,0.00546575,0.00720152,0.00948796,0.0124998,0.0164671,0.021693,0.0285768,inf	982.734,982.734,994.208,771.946,646.511,573.79,572.965,627.507,716.872,812.596,882.762,896.271,842.001,737.928,618.815,514.086,436.672,386.394,357.057,341.334,333.273,329.356,328.392,330.427,335.388,342.438,350.551,363.277,363.277,398.332,398.332,398.332
0.00767398	-13747348.20	0,1.76929e-06,4.09988e-06,7.16985e-06,1.12138e-05,1.65406e-05,2.35574e-05,3.28002e-05,4.49753e-05,6.10129e-05,8.21385e-05,0.000109966,0.000146622,0.000194907,0.00025851,0.000342291,0.000452652,0.000598025,0.000789517,0.00104176,0.00137402,0.0018117,0.00238823,0.00314766,0.00414802,0.00546575,0.00720152,0.00948796,0.0124998,0.0164671,0.021693,0.0285768,inf	951.214,951.214,1000,778.262,659.673,580.958,570.529,614.488,694.984,786.889,860.666,883.637,839.589,742.006,624.782,519.184,440.142,388.499,358.284,342.035,333.592,329.304,327.966,329.687,334.459,341.468,349.673,362.779,362.779,399.801,399.801,399.801
0.00757021	-13746630.92	0,1.76929e-06,4.09988e-06,7.16985e-06,1.12138e-05,1.65406e-05,2.35574e-05,3.28002e-05,4.49753e-05,6.10129e-05,8.21385e-05,0.000109966,0.000146622,0.000194907,0.00025851,0.000342291,0.000452652,0.000598025,0.000789517,0.00104176,0.00137402,0.0018117,0.00238823,0.00314766,0.00414802,0.00546575,0.00720152,0.00948796,0.0124998,0.0164671,0.021693,0.0285768,inf	922.109,922.109,1002.94,780.558,671.725,588.911,569.985,604.014,675.676,762.957,838.948,870.158,835.866,744.971,630.052,523.924,443.466,390.58,359.562,342.834,334.037,329.391,327.676,329.071,333.639,340.59,348.872,362.344,362.344,401.364,401.364,401.364
0.00746714	-13745913.59	0,1.76929e-06,4.09988e-06,7.16985e-06,1.12138e-05,1.65406e-05,2.35574e-05,3.28002e-05,4.49753e-05,6.10129e-05,8.21385e-05,0.000109966,0.000146622,0.000194907,0.00025851,0.000342291,0.000452652,0.000598025,0.000789517,0.00104176,0.00137402,0.0018117,0.00238823,0.00314766,0.00414802,0.00546575,0.00720152,0.00948796,0.0124998,0.0164671,0.021693,0.0285768,inf	895.538,895.538,1003.84,778.992,682.31,597.23,570.936,595.706,658.704,740.769,817.781,856.081,831.018,746.919,634.661,528.314,446.637,392.625,360.874,343.714,334.592,329.601,327.51,328.569,332.917,339.793,348.138,361.965,361.965,403.018,403.018,403.018
