0.000349816	-172805.25	0,4.61091e-05,0.000109201,0.00019553,0.000313656,0.000475289,0.000696454,0.000999078,0.00141316,0.00197976,0.00275504,0.00381588,0.00526743,0.00725361,0.00997134,0.01369,inf	523.042,523.042,434.464,485.701,572.968,705.857,886.111,1027.52,997.909,954.23,917.888,898.577,842.171,649.454,649.454,649.454
0.000386091	-172659.85	0,4.61091e-05,0.000109201,0.00019553,0.000313656,0.000475289,0.000696454,0.000999078,0.00141316,0.00197976,0.00275504,0.00381588,0.00526743,0.00725361,0.00997134,0.01369,inf	507.608,507.608,334.462,383.449,482.898,652.409,911.469,1157.73,1117.61,1059.23,1004.16,976.758,863.107,514.887,514.887,514.887
0.0004194	-172600.39	0,4.61091e-05,0.000109201,0.00019553,0.000313656,0.000475289,0.000696454,0.000999078,0.00141316,0.00197976,0.00275504,0.00381588,0.00526743,0.00725361,0.00997134,0.01369,inf	534.843,534.843,297.259,339.436,438.142,618.906,914.819,1230.62,1185.49,1128.13,1065.59,1037.71,870.911,387.792,387.792,387.792
0.000449974	-172567.27	0,4.61091e-05,0.000109201,0.00019553,0.000313656,0.000475289,0.000696454,0.000999078,0.00141316,0.00197976,0.00275504,0.00381588,0.00526743,0.00725361,0.00997134,0.01369,inf	563.801,563.801,282.037,318.574,414.262,597.574,911.146,1271.69,1222.1,1173.15,1109.88,1087.29,876.603,229.744,229.744,229.744
0.000478269	-172545.14	0,4.61091e-05,0.000109201,0.00019553,0.000313656,0.000475289,0.000696454,0.000999078,0.00141316,0.00197976,0.00275504,0.00381588,0.00526743,0.00725361,0.00997134,0.01369,inf	584.755,584.755,276.181,308.78,401.547,584.012,905.736,1294.67,1239.99,1202.65,1143.21,1133.88,902.027,32.148,32.148,32.148
0.000504668	-172539.63	0,4.61091e-05,0.000109201,0.00019553,0.000313656,0.000475289,0.000696454,0.000999078,0.00141316,0.00197976,0.00275504,0.00381588,0.00526743,0.00725361,0.00997134,0.01369,inf	597.18,597.18,274.895,304.996,395.467,575.721,900.741,1307.83,1248.33,1226.04,1178.69,1219.33,1235.64,144.526,144.526,144.526
0.000529609	-172516.04	0,4.61091e-05,0.000109201,0.00019553,0.000313656,0.000475289,0.000696454,0.000999078,0.00141316,0.00197976,0.00275504,0.00381588,0.00526743,0.00725361,0.00997134,0.01369,inf	602.438,602.438,275.831,304.534,393.33,570.707,895.974,1312.98,1246.42,1235.23,1191.27,1235.15,1191.17,31.5888,31.5888,31.5888
0.00055319	-172510.95	0,4.61091e-05,0.000109201,0.00019553,0.000313656,0.000475289,0.000696454,0.000999078,0.00141316,0.00197976,0.00275504,0.00381588,0.00526743,0.00725361,0.00997134,0.01369,inf	602.804,602.804,277.94,306.104,393.864,568.273,892.49,1315.16,1241.91,1242.68,1205.6,1270.33,1464.82,167.94,167.94,167.94
0.000575704	-172493.64	0,4.61091e-05,0.000109201,0.00019553,0.000313656,0.000475289,0.000696454,0.000999078,0.00141316,0.00197976,0.00275504,0.00381588,0.00526743,0.00725361,0.00997134,0.01369,inf	599.939,599.939,280.54,308.783,396.002,567.42,889.657,1314.36,1233.65,1243.91,1209.32,1269.43,1333.53,56.6156,56.6156,56.6156
0.000597513	-172486.89	0,4.61091e-05,0.000109201,0.00019553,0.000313656,0.000475289,0.000696454,0.000999078,0.00141316,0.00197976,0.00275504,0.00381588,0.00526743,0.00725361,0.00997134,0.01369,inf	595.238,595.238,283.315,312.11,399.241,567.811,887.766,1312.71,1224.94,1244.68,1214.07,1277.73,1370.57,50.4039,50.4039,50.4039
0.000618469	-172478.52	0,4.61091e-05,0.000109201,0.00019553,0.000313656,0.000475289,0.000696454,0.000999078,0.00141316,0.00197976,0.00275504,0.00381588,0.00526743,0.00725361,0.00997134,0.01369,inf	589.553,589.553,286.043,315.732,403.124,568.972,886.402,1310.03,1215.46,1244.03,1217.3,1283.9,1425.33,72.9023,72.9023,72.9023
0.00063873	-172468.57	0,4.61091e-05,0.000109201,0.00019553,0.000313656,0.000475289,0.000696454,0.000999078,0.00141316,0.00197976,0.00275504,0.00381588,0.00526743,0.00725361,0.00997134,0.01369,inf	583.505,583.505,288.622,319.454,407.403,570.669,885.454,1306.61,1205.37,1241.79,1218.05,1283,1373.84,39.7015,39.7015,39.7015
0.000658251	-172463.97	0,4.61091e-05,0.000109201,0.00019553,0.000313656,0.000475289,0.000696454,0.000999078,0.00141316,0.00197976,0.00275504,0.00381588,0.00526743,0.00725361,0.00997134,0.01369,inf	577.483,577.483,290.998,323.164,411.925,572.777,884.933,1302.98,1195.62,1239.87,1220.31,1290.66,1498.48,131.667,131.667,131.667
0.000677124	-172452.30	0,4.61091e-05,0.000109201,0.00019553,0.000313656,0.000475289,0.000696454,0.000999078,0.00141316,0.00197976,0.00275504,0.00381588,0.00526743,0.00725361,0.00997134,0.01369,inf	571.686,571.686,293.128,326.757,416.53,575.099,884.578,1298.72,1185.24,1235.95,1218.57,1283.77,1360.48,46.8252,46.8252,46.8252
0.000695529	-172449.60	0,4.61091e-05,0.000109201,0.00019553,0.000313656,0.000475289,0.000696454,0.000999078,0.00141316,0.00197976,0.00275504,0.00381588,0.00526743,0.00725361,0.00997134,0.01369,inf	566.281,566.281,295.027,330.225,421.204,577.669,884.616,1294.77,1175.75,1233.16,1219.5,1288.63,1429.29,85.5792,85.5792,85.5792
0.000713414	-172440.72	0,4.61091e-05,0.000109201,0.00019553,0.000313656,0.000475289,0.000696454,0.000999078,0.00141316,0.00197976,0.00275504,0.00381588,0.00526743,0.00725361,0.00997134,0.01369,inf	561.301,561.301,296.684,333.508,425.83,580.31,884.735,1290.45,1165.99,1229.16,1217.94,1284.72,1348.94,36.5362,36.5362,36.5362
0.000730686	-172439.48	0,4.61091e-05,0.000109201,0.00019553,0.000313656,0.000475289,0.000696454,0.000999078,0.00141316,0.00197976,0.00275504,0.00381588,0.00526743,0.00725361,0.00997134,0.01369,inf	556.794,556.794,298.13,336.627,430.424,583.07,885.1,1286.37,1157.07,1226.33,1219.25,1293.73,1499.01,137.649,137.649,137.649
0.000747395	-172428.86	0,4.61091e-05,0.000109201,0.00019553,0.000313656,0.000475289,0.000696454,0.000999078,0.00141316,0.00197976,0.00275504,0.00381588,0.00526743,0.00725361,0.00997134,0.01369,inf	552.71,552.71,299.351,339.537,434.895,585.795,885.406,1281.79,1147.57,1221.57,1216.21,1285.61,1358.81,48.0232,48.0232,48.0232
0.000763822	-172427.83	0,4.61091e-05,0.000109201,0.00019553,0.000313656,0.000475289,0.000696454,0.000999078,0.00141316,0.00197976,0.00275504,0.00381588,0.00526743,0.00725361,0.00997134,0.01369,inf	549.096,549.096,300.408,342.304,439.331,588.641,886.022,1277.77,1139.11,1218.24,1216.13,1289.52,1414.84,76.6394,76.6394,76.6394
0.000779821	-172420.87	0,4.61091e-05,0.000109201,0.00019553,0.000313656,0.000475289,0.000696454,0.000999078,0.00141316,0.00197976,0.00275504,0.00381588,0.00526743,0.00725361,0.00997134,0.01369,inf	545.869,545.869,301.281,344.878,443.632,591.44,886.613,1273.53,1130.54,1214.05,1214.13,1286.33,1353.2,37.0892,37.0892,37.0892
