0.000220716	-5946110.88	0,1.48563e-06,4.0634e-06,8.53621e-06,1.62972e-05,2.97636e-05,5.31297e-05,9.36733e-05,0.000164022,0.000286088,0.000497889,0.000865395,0.00150307,0.00260953,0.0045294,0.00786064,inf	106.616,106.616,177.894,222.357,233.619,263.678,323.001,421.441,573.302,803.323,1250.52,1496.19,1394.49,1319.88,1319.88,1319.88
0.000215534	-5937863.61	0,1.48563e-06,4.0634e-06,8.53621e-06,1.62972e-05,2.97636e-05,5.31297e-05,9.36733e-05,0.000164022,0.000286088,0.000497889,0.000865395,0.00150307,0.00260953,0.0045294,0.00786064,inf	46.8137,46.8137,128.001,179.107,163.748,166.049,195.286,270.357,416.706,666.424,1271.42,1723.01,1623.33,1511.48,1511.48,1511.48
0.000208907	-5935259.22	0,1.48563e-06,4.0634e-06,8.53621e-06,1.62972e-05,2.97636e-05,5.31297e-05,9.36733e-05,0.000164022,0.000286088,0.000497889,0.000865395,0.00150307,0.00260953,0.0045294,0.00786064,inf	26.6265,26.6265,123.237,197.038,165.932,154.409,167.557,224.601,356.563,591.693,1259.13,1838.68,1787.83,1681.07,1681.07,1681.07
0.000201518	-5934166.91	0,1.48563e-06,4.0634e-06,8.53621e-06,1.62972e-05,2.97636e-05,5.31297e-05,9.36733e-05,0.000164022,0.000286088,0.000497889,0.000865395,0.00150307,0.00260953,0.0045294,0.00786064,inf	14.7146,14.7146,116.796,215.978,176.11,158.924,164.353,210.605,333.048,547.551,1244.3,1892.27,1902.39,1845.99,1845.99,1845.99
0.000193959	-5933607.90	0,1.48563e-06,4.0634e-06,8.53621e-06,1.62972e-05,2.97636e-05,5.31297e-05,9.36733e-05,0.000164022,0.000286088,0.000497889,0.000865395,0.00150307,0.00260953,0.0045294,0.00786064,inf	7.88074,7.88074,107.536,229.014,183.493,165.719,167.758,207.556,325.478,519.638,1234.16,1912.47,1980.21,2027.17,2027.17,2027.17
0.000186566	-5933278.34	0,1.48563e-06,4.0634e-06,8.53621e-06,1.62972e-05,2.97636e-05,5.31297e-05,9.36733e-05,0.000164022,0.000286088,0.000497889,0.000865395,0.00150307,0.00260953,0.0045294,0.00786064,inf	4.18924,4.18924,98.2027,238.747,187.579,171.822,172.339,208.078,325.152,500.648,1229.21,1915.17,2031.22,2251.97,2251.97,2251.97
0.000179507	-5933062.93	0,1.48563e-06,4.0634e-06,8.53621e-06,1.62972e-05,2.97636e-05,5.31297e-05,9.36733e-05,0.000164022,0.000286088,0.000497889,0.000865395,0.00150307,0.00260953,0.0045294,0.00786064,inf	2.23069,2.23069,89.9402,247.715,189.637,177.098,176.538,209.374,328.037,486.67,1228.26,1909.07,2062.22,2567.46,2567.46,2567.46
0.000172861	-5932910.29	0,1.48563e-06,4.0634e-06,8.53621e-06,1.62972e-05,2.97636e-05,5.31297e-05,9.36733e-05,0.000164022,0.000286088,0.000497889,0.000865395,0.00150307,0.00260953,0.0045294,0.00786064,inf	1.19819,1.19819,82.7671,257.1,190.698,181.995,180.129,210.484,332.223,475.573,1229.97,1898.92,2077.41,3089.08,3089.08,3089.08
0.000166654	-5932793.65	0,1.48563e-06,4.0634e-06,8.53621e-06,1.62972e-05,2.97636e-05,5.31297e-05,9.36733e-05,0.000164022,0.000286088,0.000497889,0.000865395,0.00150307,0.00260953,0.0045294,0.00786064,inf	1.09964,1.09964,76.422,267.133,191.209,186.845,183.272,211.191,336.817,466.201,1233.21,1887.24,2078.46,4273.83,4273.83,4273.83
0.000160892	-5932694.73	0,1.48563e-06,4.0634e-06,8.53621e-06,1.62972e-05,2.97636e-05,5.31297e-05,9.36733e-05,0.000164022,0.000286088,0.000497889,0.000865395,0.00150307,0.00260953,0.0045294,0.00786064,inf	1.09964,1.09964,70.6037,277.701,191.383,191.812,186.17,211.547,341.429,457.941,1237.15,1875.25,2063.52,10285.5,10285.5,10285.5
0.000160884	-5932598.34	0,1.48563e-06,4.0634e-06,8.53621e-06,1.62972e-05,2.97636e-05,5.31297e-05,9.36733e-05,0.000164022,0.000286088,0.000497889,0.000865395,0.00150307,0.00260953,0.0045294,0.00786064,inf	1.09964,1.09964,65.2342,289.078,191.583,197.238,189.251,211.932,346.291,450.539,1250.3,1882.72,2035.2,137318,137318,137318
