0.000220349	-134242.29	0,3.40484e-05,8.06373e-05,0.000144386,0.000231613,0.000350968,0.000514284,0.00073775,0.00104352,0.00146192,0.00203441,0.00281776,0.00388964,0.0053563,0.00736315,0.0101092,inf	275.027,275.027,407.596,480.808,636.085,861.962,1142.49,1402.83,1467.68,1435.33,1414.45,1375.55,1307.99,1264.01,1264.01,1264.01
0.000214338	-134039.40	0,3.40484e-05,8.06373e-05,0.000144386,0.000231613,0.000350968,0.000514284,0.00073775,0.00104352,0.00146192,0.00203441,0.00281776,0.00388964,0.0053563,0.00736315,0.0101092,inf	164.334,164.334,286.861,312.109,460.764,738.181,1126.88,1562.68,1720.2,1716.29,1760.52,1742.11,1596.51,1499.63,1499.63,1499.63
0.000208523	-133968.58	0,3.40484e-05,8.06373e-05,0.000144386,0.000231613,0.000350968,0.000514284,0.00073775,0.00104352,0.00146192,0.00203441,0.00281776,0.00388964,0.0053563,0.00736315,0.0101092,inf	141.373,141.373,272.07,248.152,371.647,662.212,1097.61,1635.62,1867.84,1916.61,2117.3,2242.23,2011.47,1851.82,1851.82,1851.82
0.000202569	-133937.30	0,3.40484e-05,8.06373e-05,0.000144386,0.000231613,0.000350968,0.000514284,0.00073775,0.00104352,0.00146192,0.00203441,0.00281776,0.00388964,0.0053563,0.00736315,0.0101092,inf	134.987,134.987,288.434,220.059,320.856,614.447,1072.3,1667.71,1948.6,2048.62,2491.21,3036.43,2734.5,2515.89,2515.89,2515.89
0.000196596	-133921.16	0,3.40484e-05,8.06373e-05,0.000144386,0.000231613,0.000350968,0.000514284,0.00073775,0.00104352,0.00146192,0.00203441,0.00281776,0.00388964,0.0053563,0.00736315,0.0101092,inf	130.365,130.365,314.005,206.427,289.424,583.839,1053.97,1681.46,1989.3,2127.74,2890.95,4733.32,4649.32,4749.44,4749.44,4749.44
0.000190729	-133911.86	0,3.40484e-05,8.06373e-05,0.000144386,0.000231613,0.000350968,0.000514284,0.00073775,0.00104352,0.00146192,0.00203441,0.00281776,0.00388964,0.0053563,0.00736315,0.0101092,inf	124.653,124.653,340.543,199.427,268.564,563.867,1041.8,1687.41,2006.7,2167.52,3325.32,12197.1,20115,47010.8,47010.8,47010.8
0.000185054	-133906.04	0,3.40484e-05,8.06373e-05,0.000144386,0.000231613,0.000350968,0.000514284,0.00073775,0.00104352,0.00146192,0.00203441,0.00281776,0.00388964,0.0053563,0.00736315,0.0101092,inf	118.082,118.082,364.986,195.854,253.784,550.542,1034.26,1690.42,2011,2178.83,3803.76,642268,20114.9,366.512,366.512,366.512
0.000179602	-133902.32	0,3.40484e-05,8.06373e-05,0.000144386,0.000231613,0.000350968,0.000514284,0.00073775,0.00104352,0.00146192,0.00203441,0.00281776,0.00388964,0.0053563,0.00736315,0.0101092,inf	111.347,111.347,386.481,194.272,242.63,541.368,1029.91,1692.74,2008.59,2171.37,4369.08,676514,140.125,176.438,176.438,176.438
