AIC = 3087905.3110427549109

y0 0.76497867996996415929
y0_prime 0
y1 0.98271932334858846936
y1_prime 0
y2 1.0674359621112148311
y2_prime 0
y3 1.6389554716572203308
y3_prime 0
rho 0.0017378907729704250445
theta 0.005070791557414263892
