time_index	left_time_boundary	right_time_boundary	lambda
0	0	4.28845e-05	250.887
1	4.28845e-05	9.30487e-05	250.887
2	9.30487e-05	0.000151728	207.073
3	0.000151728	0.000220369	251.324
4	0.000220369	0.000300661	210.274
5	0.000300661	0.000394582	245.661
6	0.000394582	0.000504447	281.378
7	0.000504447	0.000632962	278.522
8	0.000632962	0.000783291	269.977
9	0.000783291	0.000959139	281.602
10	0.000959139	0.00116484	310.278
11	0.00116484	0.00140545	341.846
12	0.00140545	0.00168691	368.549
13	0.00168691	0.00201615	389.21
14	0.00201615	0.00240128	410.433
15	0.00240128	0.00285178	440.104
16	0.00285178	0.00337875	475.633
17	0.00337875	0.00399518	508.514
18	0.00399518	0.00471625	531.843
19	0.00471625	0.00555971	540.461
20	0.00555971	0.00654636	530.85
21	0.00654636	0.00770049	503.994
22	0.00770049	0.00905053	470.302
23	0.00905053	0.0106297	440.225
24	0.0106297	0.012477	413.957
25	0.012477	0.0146379	394.759
26	0.0146379	0.0171655	402.297
27	0.0171655	0.0201223	496.784
28	0.0201223	0.0235809	496.784
29	0.0235809	0.0276267	81812.7
30	0.0276267	0.0323592	81812.7
31	0.0323592	inf	81812.7
