time_index	left_time_boundary	right_time_boundary	lambda
0	0	4.51184e-06	273.963
1	4.51184e-06	1.02545e-05	273.963
2	1.02545e-05	1.75639e-05	370.246
3	1.75639e-05	2.68672e-05	55.4165
4	2.68672e-05	3.87085e-05	286.186
5	3.87085e-05	5.37803e-05	305.368
6	5.37803e-05	7.29636e-05	144.811
7	7.29636e-05	9.73803e-05	186.497
8	9.73803e-05	0.000128458	234.351
9	0.000128458	0.000168014	254.895
10	0.000168014	0.00021836	264.837
11	0.00021836	0.000282442	273.112
12	0.000282442	0.000364005	276.862
13	0.000364005	0.000467819	279.795
14	0.000467819	0.000599954	284.545
15	0.000599954	0.000768137	292.529
16	0.000768137	0.0009822	304.353
17	0.0009822	0.00125466	322.966
18	0.00125466	0.00160145	354.581
19	0.00160145	0.00204284	394.506
20	0.00204284	0.00260465	431.798
21	0.00260465	0.00331973	463.953
22	0.00331973	0.00422987	496.978
23	0.00422987	0.00538831	522.931
24	0.00538831	0.00686278	525.743
25	0.00686278	0.00873949	505.144
26	0.00873949	0.0111282	460.919
27	0.0111282	0.0141685	360.57
28	0.0141685	0.0180383	360.57
29	0.0180383	0.0229637	200.866
30	0.0229637	0.0292328	200.866
31	0.0292328	inf	200.866
