LogLikelihood = -607470.60682461538818

y0 0.91282193935166933141
y0_prime 0
y1 1.0501977519016050255
y1_prime 0
y2 0.9034577011613871278
y2_prime 0
y3 1.6760404820461913822
y3_prime 0
rho 0.0027502799366652562127
theta 0.0049709001211836597797
