LogLikelihood = -213665.6953507445869

y0 1.0276756269701492474
y0_prime 0
y1 0.92703497872705087346
y1_prime 0
y2 1.0761548187141807276
y2_prime 0
y3 1.5253989502809908174
y3_prime 0
rho 0.00014830102671423866546
rho.alpha 0.71378000689076626095
r_ii 0.99993870730298062277
theta 0.00051166415399744500335
