0.000547552	-82923427.02	0,6.04934e-06,1.62392e-05,3.34035e-05,6.23161e-05,0.000111018,0.000193054,0.000331241,0.00056401,0.000956099,0.00161656,0.00272906,0.00460304,0.00775966,0.0130769,0.0220334,inf	384.971,384.971,346.891,353.041,360.497,374.67,399.201,406.093,406.569,404.534,401.531,393.024,393.28,389.503,389.503,389.503
0.000490471	-82904083.35	0,6.04934e-06,1.62392e-05,3.34035e-05,6.23161e-05,0.000111018,0.000193054,0.000331241,0.00056401,0.000956099,0.00161656,0.00272906,0.00460304,0.00775966,0.0130769,0.0220334,inf	414.956,414.956,347.657,350.978,353.39,364.206,400.798,408.744,408.49,406.009,402.976,388.485,389.437,382.49,382.49,382.49
0.000444227	-82889804.20	0,6.04934e-06,1.62392e-05,3.34035e-05,6.23161e-05,0.000111018,0.000193054,0.000331241,0.00056401,0.000956099,0.00161656,0.00272906,0.00460304,0.00775966,0.0130769,0.0220334,inf	443.803,443.803,358.852,360.692,358.139,360.566,404.266,410.663,408.873,406.413,405.036,386.644,388.996,379.388,379.388,379.388
0.000406974	-82879355.18	0,6.04934e-06,1.62392e-05,3.34035e-05,6.23161e-05,0.000111018,0.000193054,0.000331241,0.00056401,0.000956099,0.00161656,0.00272906,0.00460304,0.00775966,0.0130769,0.0220334,inf	466.135,466.135,370.758,372.368,367.084,359.895,408.585,412.363,408.489,405.816,406.643,385.806,390.119,378.328,378.328,378.328
0.00037728	-82871971.63	0,6.04934e-06,1.62392e-05,3.34035e-05,6.23161e-05,0.000111018,0.000193054,0.000331241,0.00056401,0.000956099,0.00161656,0.00272906,0.00460304,0.00775966,0.0130769,0.0220334,inf	483.419,483.419,381.368,382.96,377.109,360.43,413.167,414.107,407.951,404.671,407.609,385.26,391.823,378.28,378.28,378.28
0.000353882	-82866966.94	0,6.04934e-06,1.62392e-05,3.34035e-05,6.23161e-05,0.000111018,0.000193054,0.000331241,0.00056401,0.000956099,0.00161656,0.00272906,0.00460304,0.00775966,0.0130769,0.0220334,inf	497.286,497.286,390.47,391.62,386.834,361.289,417.581,415.885,407.537,403.348,408.048,384.752,393.602,378.671,378.671,378.671
0.000335643	-82863715.01	0,6.04934e-06,1.62392e-05,3.34035e-05,6.23161e-05,0.000111018,0.000193054,0.000331241,0.00056401,0.000956099,0.00161656,0.00272906,0.00460304,0.00775966,0.0130769,0.0220334,inf	508.522,508.522,398.222,398.308,395.672,362.063,421.559,417.587,407.307,402.066,408.137,384.23,395.223,379.194,379.194,379.194
0.000321557	-82861686.74	0,6.04934e-06,1.62392e-05,3.34035e-05,6.23161e-05,0.000111018,0.000193054,0.000331241,0.00056401,0.000956099,0.00161656,0.00272906,0.00460304,0.00775966,0.0130769,0.0220334,inf	517.529,517.529,404.777,403.262,403.426,362.592,424.983,419.116,407.233,400.929,408.03,383.711,396.601,379.699,379.699,379.699
0.000310762	-82860470.86	0,6.04934e-06,1.62392e-05,3.34035e-05,6.23161e-05,0.000111018,0.000193054,0.000331241,0.00056401,0.000956099,0.00161656,0.00272906,0.00460304,0.00775966,0.0130769,0.0220334,inf	524.732,524.732,410.322,406.786,410.077,362.852,427.837,420.418,407.266,399.97,407.834,383.222,397.726,380.126,380.126,380.126
0.00030254	-82859770.41	0,6.04934e-06,1.62392e-05,3.34035e-05,6.23161e-05,0.000111018,0.000193054,0.000331241,0.00056401,0.000956099,0.00161656,0.00272906,0.00460304,0.00775966,0.0130769,0.0220334,inf	530.323,530.323,414.957,409.177,415.704,362.878,430.169,421.48,407.356,399.185,407.616,382.786,398.624,380.46,380.46,380.46
0.000296309	-82859383.91	0,6.04934e-06,1.62392e-05,3.34035e-05,6.23161e-05,0.000111018,0.000193054,0.000331241,0.00056401,0.000956099,0.00161656,0.00272906,0.00460304,0.00775966,0.0130769,0.0220334,inf	534.617,534.617,418.81,410.698,420.417,362.721,432.053,422.317,407.476,398.555,407.411,382.412,399.329,380.708,380.708,380.708
0.000291604	-82859181.55	0,6.04934e-06,1.62392e-05,3.34035e-05,6.23161e-05,0.000111018,0.000193054,0.000331241,0.00056401,0.000956099,0.00161656,0.00272906,0.00460304,0.00775966,0.0130769,0.0220334,inf	537.881,537.881,421.998,411.572,424.345,362.436,433.565,422.957,407.602,398.055,407.234,382.101,399.879,380.885,380.885,380.885
0.000288062	-82859083.25	0,6.04934e-06,1.62392e-05,3.34035e-05,6.23161e-05,0.000111018,0.000193054,0.000331241,0.00056401,0.000956099,0.00161656,0.00272906,0.00460304,0.00775966,0.0130769,0.0220334,inf	540.331,540.331,424.63,411.977,427.607,362.072,434.779,423.435,407.724,397.662,407.091,381.847,400.305,381.008,381.008,381.008
0.000285408	-82859041.42	0,6.04934e-06,1.62392e-05,3.34035e-05,6.23161e-05,0.000111018,0.000193054,0.000331241,0.00056401,0.000956099,0.00161656,0.00272906,0.00460304,0.00775966,0.0130769,0.0220334,inf	542.418,542.418,427.016,412.281,430.535,361.847,435.963,423.949,407.941,397.378,406.982,381.668,400.687,381.126,381.126,381.126
0.000283413	-82859029.32	0,6.04934e-06,1.62392e-05,3.34035e-05,6.23161e-05,0.000111018,0.000193054,0.000331241,0.00056401,0.000956099,0.00161656,0.00272906,0.00460304,0.00775966,0.0130769,0.0220334,inf	543.639,543.639,428.738,412.1,432.733,361.401,436.745,424.193,408.048,397.127,406.889,381.507,400.953,381.184,381.184,381.184
0.000281917	-82859030.74	0,6.04934e-06,1.62392e-05,3.34035e-05,6.23161e-05,0.000111018,0.000193054,0.000331241,0.00056401,0.000956099,0.00161656,0.00272906,0.00460304,0.00775966,0.0130769,0.0220334,inf	544.529,544.529,430.151,411.775,434.535,360.935,437.345,424.327,408.123,396.93,406.824,381.374,401.146,381.212,381.212,381.212
0.000280797	-82859037.81	0,6.04934e-06,1.62392e-05,3.34035e-05,6.23161e-05,0.000111018,0.000193054,0.000331241,0.00056401,0.000956099,0.00161656,0.00272906,0.00460304,0.00775966,0.0130769,0.0220334,inf	545.17,545.17,431.317,411.377,436.035,360.487,437.834,424.399,408.186,396.776,406.78,381.268,401.29,381.225,381.225,381.225
0.00027996	-82859046.52	0,6.04934e-06,1.62392e-05,3.34035e-05,6.23161e-05,0.000111018,0.000193054,0.000331241,0.00056401,0.000956099,0.00161656,0.00272906,0.00460304,0.00775966,0.0130769,0.0220334,inf	545.648,545.648,432.289,410.949,437.286,360.067,438.239,424.432,408.24,396.657,406.751,381.185,401.398,381.23,381.23,381.23
0.000279379	-82859054.97	0,6.04934e-06,1.62392e-05,3.34035e-05,6.23161e-05,0.000111018,0.000193054,0.000331241,0.00056401,0.000956099,0.00161656,0.00272906,0.00460304,0.00775966,0.0130769,0.0220334,inf	546.085,546.085,433.218,410.628,438.481,359.793,438.765,424.643,408.524,396.823,407.029,381.351,401.66,381.338,381.338,381.338
0.000278914	-82859062.38	0,6.04934e-06,1.62392e-05,3.34035e-05,6.23161e-05,0.000111018,0.000193054,0.000331241,0.00056401,0.000956099,0.00161656,0.00272906,0.00460304,0.00775966,0.0130769,0.0220334,inf	546.247,546.247,433.889,410.185,439.363,359.429,439.058,424.626,408.559,396.731,407.016,381.314,401.751,381.343,381.343,381.343
