0.000561951	-82921077.53	0,2.63259e-06,6.04934e-06,1.04838e-05,1.62392e-05,2.37089e-05,3.34035e-05,4.59859e-05,6.23161e-05,8.35106e-05,0.000111018,0.000146719,0.000193054,0.000253191,0.000331241,0.000432539,0.00056401,0.000734642,0.000956099,0.00124352,0.00161656,0.0021007,0.00272906,0.00354459,0.00460304,0.00597676,0.00775966,0.0100736,0.0130769,0.0169746,0.0220334,0.0285991,inf	410.426,410.426,377.303,369.179,351.888,338.507,345.493,350.959,357.055,357.346,363.645,378.101,390.561,399.508,403.049,405.243,406.551,406.611,406.144,406.163,406.586,406.29,405.164,403.771,402.897,402.434,402.084,397.681,397.681,350.819,350.819,350.819
0.0005131	-82905691.65	0,2.63259e-06,6.04934e-06,1.04838e-05,1.62392e-05,2.37089e-05,3.34035e-05,4.59859e-05,6.23161e-05,8.35106e-05,0.000111018,0.000146719,0.000193054,0.000253191,0.000331241,0.000432539,0.00056401,0.000734642,0.000956099,0.00124352,0.00161656,0.0021007,0.00272906,0.00354459,0.00460304,0.00597676,0.00775966,0.0100736,0.0130769,0.0169746,0.0220334,0.0285991,inf	442.215,442.215,398.551,387.036,357.236,329.924,338.958,344.749,350.321,343.613,347.322,367.997,386.414,399.775,403.767,406.165,407.902,407.676,406.726,406.968,408.265,408.195,406.469,404.135,402.79,402.276,402.112,393.979,393.979,308.665,308.665,308.665
0.000471355	-82893268.60	0,2.63259e-06,6.04934e-06,1.04838e-05,1.62392e-05,2.37089e-05,3.34035e-05,4.59859e-05,6.23161e-05,8.35106e-05,0.000111018,0.000146719,0.000193054,0.000253191,0.000331241,0.000432539,0.00056401,0.000734642,0.000956099,0.00124352,0.00161656,0.0021007,0.00272906,0.00354459,0.00460304,0.00597676,0.00775966,0.0100736,0.0130769,0.0169746,0.0220334,0.0285991,inf	462.752,462.752,422.718,410.28,373.589,334.211,345.601,352.731,357.526,342.686,341.047,364.885,386.591,402.384,405.396,406.951,408.695,407.96,406.431,406.881,409.227,409.646,407.653,404.681,403.149,402.923,403.467,392.321,392.321,273.648,273.648,273.648
0.000435989	-82883473.51	0,2.63259e-06,6.04934e-06,1.04838e-05,1.62392e-05,2.37089e-05,3.34035e-05,4.59859e-05,6.23161e-05,8.35106e-05,0.000111018,0.000146719,0.000193054,0.000253191,0.000331241,0.000432539,0.00056401,0.000734642,0.000956099,0.00124352,0.00161656,0.0021007,0.00272906,0.00354459,0.00460304,0.00597676,0.00775966,0.0100736,0.0130769,0.0169746,0.0220334,0.0285991,inf	473.368,473.368,443.044,428.982,389.746,339.8,353.667,363.806,368.74,346.379,338.605,364.33,388.196,405.57,407.055,407.28,408.948,407.65,405.498,406.084,409.527,410.55,408.496,405.09,403.555,403.865,405.586,392.186,392.186,243.31,243.31,243.31
0.000406319	-82875971.36	0,2.63259e-06,6.04934e-06,1.04838e-05,1.62392e-05,2.37089e-05,3.34035e-05,4.59859e-05,6.23161e-05,8.35106e-05,0.000111018,0.000146719,0.000193054,0.000253191,0.000331241,0.000432539,0.00056401,0.000734642,0.000956099,0.00124352,0.00161656,0.0021007,0.00272906,0.00354459,0.00460304,0.00597676,0.00775966,0.0100736,0.0130769,0.0169746,0.0220334,0.0285991,inf	480.406,480.406,461.166,443.389,404.573,344.801,360.608,375,380.932,352.088,338.039,365.014,390.523,409.086,408.848,407.467,409.067,407.174,404.332,404.911,409.382,410.999,408.988,405.266,403.816,404.812,408.083,393.237,393.237,215.985,215.985,215.985
0.000381653	-82870402.66	0,2.63259e-06,6.04934e-06,1.04838e-05,1.62392e-05,2.37089e-05,3.34035e-05,4.59859e-05,6.23161e-05,8.35106e-05,0.000111018,0.000146719,0.000193054,0.000253191,0.000331241,0.000432539,0.00056401,0.000734642,0.000956099,0.00124352,0.00161656,0.0021007,0.00272906,0.00354459,0.00460304,0.00597676,0.00775966,0.0100736,0.0130769,0.0169746,0.0220334,0.0285991,inf	486.452,486.452,477.788,454.427,418.212,348.991,365.857,385.23,392.749,358.55,338.35,366.211,393.128,412.71,410.748,407.613,409.218,406.732,403.154,403.571,408.957,411.094,409.174,405.206,403.857,405.599,410.673,395.267,395.267,190.389,190.389,190.389
0.00036131	-82866407.07	0,2.63259e-06,6.04934e-06,1.04838e-05,1.62392e-05,2.37089e-05,3.34035e-05,4.59859e-05,6.23161e-05,8.35106e-05,0.000111018,0.000146719,0.000193054,0.000253191,0.000331241,0.000432539,0.00056401,0.000734642,0.000956099,0.00124352,0.00161656,0.0021007,0.00272906,0.00354459,0.00460304,0.00597676,0.00775966,0.0100736,0.0130769,0.0169746,0.0220334,0.0285991,inf	492.3,492.3,493.106,462.73,430.946,352.491,369.489,394.174,403.579,365.115,339.006,367.51,395.73,416.26,412.678,407.725,409.442,406.398,402.07,402.193,408.375,410.936,409.127,404.955,403.68,406.152,413.164,398.205,398.205,165.374,165.374,165.374
0.000344647	-82863653.79	0,2.63259e-06,6.04934e-06,1.04838e-05,1.62392e-05,2.37089e-05,3.34035e-05,4.59859e-05,6.23161e-05,8.35106e-05,0.000111018,0.000146719,0.000193054,0.000253191,0.000331241,0.000432539,0.00056401,0.000734642,0.000956099,0.00124352,0.00161656,0.0021007,0.00272906,0.00354459,0.00460304,0.00597676,0.00775966,0.0100736,0.0130769,0.0169746,0.0220334,0.0285991,inf	497.823,497.823,507.036,468.753,442.898,355.455,371.709,401.791,413.176,371.444,339.72,368.694,398.155,419.609,414.566,407.778,409.73,406.186,401.125,400.855,407.728,410.612,408.926,404.581,403.327,406.459,415.426,402.154,402.154,139.744,139.744,139.744
0.000331071	-82861869.02	0,2.63259e-06,6.04934e-06,1.04838e-05,1.62392e-05,2.37089e-05,3.34035e-05,4.59859e-05,6.23161e-05,8.35106e-05,0.000111018,0.000146719,0.000193054,0.000253191,0.000331241,0.000432539,0.00056401,0.000734642,0.000956099,0.00124352,0.00161656,0.0021007,0.00272906,0.00354459,0.00460304,0.00597676,0.00775966,0.0100736,0.0130769,0.0169746,0.0220334,0.0285991,inf	502.928,502.928,519.504,472.86,454.142,358.016,372.808,408.186,421.48,377.369,340.349,369.654,400.319,422.68,416.352,407.746,410.054,406.081,400.33,399.6,407.076,410.193,408.634,404.146,402.854,406.538,417.378,407.474,407.474,112.111,112.111,112.111
0.000320042	-82860865.42	0,2.63259e-06,6.04934e-06,1.04838e-05,1.62392e-05,2.37089e-05,3.34035e-05,4.59859e-05,6.23161e-05,8.35106e-05,0.000111018,0.000146719,0.000193054,0.000253191,0.000331241,0.000432539,0.00056401,0.000734642,0.000956099,0.00124352,0.00161656,0.0021007,0.00272906,0.00354459,0.00460304,0.00597676,0.00775966,0.0100736,0.0130769,0.0169746,0.0220334,0.0285991,inf	507.454,507.454,530.49,475.169,464.67,360.233,373.026,413.508,428.531,382.818,340.828,370.354,402.183,425.435,417.999,407.608,410.386,406.056,399.672,398.443,406.457,409.726,408.302,403.703,402.314,406.423,418.965,415.038,415.038,81.5298,81.5298,81.5298
0.000311082	-82860584.60	0,2.63259e-06,6.04934e-06,1.04838e-05,1.62392e-05,2.37089e-05,3.34035e-05,4.59859e-05,6.23161e-05,8.35106e-05,0.000111018,0.000146719,0.000193054,0.000253191,0.000331241,0.000432539,0.00056401,0.000734642,0.000956099,0.00124352,0.00161656,0.0021007,0.00272906,0.00354459,0.00460304,0.00597676,0.00775966,0.0100736,0.0130769,0.0169746,0.0220334,0.0285991,inf	511.404,511.404,540.073,476.028,474.5,362.186,372.576,417.901,434.433,387.783,341.133,370.792,403.742,427.864,419.485,407.354,410.698,406.081,399.13,397.387,405.888,409.242,407.959,403.282,401.751,406.146,420.145,426.786,426.786,51.7288,51.7288,51.7288
0.00030376	-82861014.28	0,2.63259e-06,6.04934e-06,1.04838e-05,1.62392e-05,2.37089e-05,3.34035e-05,4.59859e-05,6.23161e-05,8.35106e-05,0.000111018,0.000146719,0.000193054,0.000253191,0.000331241,0.000432539,0.00056401,0.000734642,0.000956099,0.00124352,0.00161656,0.0021007,0.00272906,0.00354459,0.00460304,0.00597676,0.00775966,0.0100736,0.0130769,0.0169746,0.0220334,0.0285991,inf	514.642,514.642,548.307,475.56,483.569,363.869,371.613,421.524,439.322,392.293,341.27,370.987,405.002,429.962,420.795,406.974,410.966,406.123,398.676,396.417,405.366,408.747,407.614,402.895,401.177,405.695,420.759,445.62,445.62,29.8598,29.8598,29.8598
0.000297724	-82861765.51	0,2.63259e-06,6.04934e-06,1.04838e-05,1.62392e-05,2.37089e-05,3.34035e-05,4.59859e-05,6.23161e-05,8.35106e-05,0.000111018,0.000146719,0.000193054,0.000253191,0.000331241,0.000432539,0.00056401,0.000734642,0.000956099,0.00124352,0.00161656,0.0021007,0.00272906,0.00354459,0.00460304,0.00597676,0.00775966,0.0100736,0.0130769,0.0169746,0.0220334,0.0285991,inf	517.58,517.58,555.483,474.055,491.913,365.35,370.279,424.51,443.327,396.391,341.25,370.968,405.989,431.751,421.943,406.494,411.199,406.18,398.299,395.524,404.883,408.242,407.272,402.542,400.584,404.959,420.29,471.914,471.914,18.1755,18.1755,18.1755
0.000292771	-82862191.73	0,2.63259e-06,6.04934e-06,1.04838e-05,1.62392e-05,2.37089e-05,3.34035e-05,4.59859e-05,6.23161e-05,8.35106e-05,0.000111018,0.000146719,0.000193054,0.000253191,0.000331241,0.000432539,0.00056401,0.000734642,0.000956099,0.00124352,0.00161656,0.0021007,0.00272906,0.00354459,0.00460304,0.00597676,0.00775966,0.0100736,0.0130769,0.0169746,0.0220334,0.0285991,inf	520.041,520.041,561.847,471.81,499.655,366.706,368.731,427.014,446.588,400.145,341.131,370.817,406.788,433.305,422.978,405.95,411.413,406.256,397.998,394.717,404.461,407.756,406.962,402.247,399.976,403.783,417.953,499.915,499.915,8.57448,8.57448,8.57448
0.000288729	-82862652.14	0,2.63259e-06,6.04934e-06,1.04838e-05,1.62392e-05,2.37089e-05,3.34035e-05,4.59859e-05,6.23161e-05,8.35106e-05,0.000111018,0.000146719,0.000193054,0.000253191,0.000331241,0.000432539,0.00056401,0.000734642,0.000956099,0.00124352,0.00161656,0.0021007,0.00272906,0.00354459,0.00460304,0.00597676,0.00775966,0.0100736,0.0130769,0.0169746,0.0220334,0.0285991,inf	522.227,522.227,567.576,469.033,506.882,367.974,367.079,429.166,449.228,403.615,340.969,370.595,407.459,434.69,423.951,405.388,411.639,406.373,397.793,394.021,404.138,407.341,406.738,402.098,399.532,402.475,414.151,529.016,529.016,2.96898,2.96898,2.96898
0.000285591	-82862822.68	0,2.63259e-06,6.04934e-06,1.04838e-05,1.62392e-05,2.37089e-05,3.34035e-05,4.59859e-05,6.23161e-05,8.35106e-05,0.000111018,0.000146719,0.000193054,0.000253191,0.000331241,0.000432539,0.00056401,0.000734642,0.000956099,0.00124352,0.00161656,0.0021007,0.00272906,0.00354459,0.00460304,0.00597676,0.00775966,0.0100736,0.0130769,0.0169746,0.0220334,0.0285991,inf	524.597,524.597,573.243,466.209,514.026,369.496,365.672,431.406,451.71,407.174,341.057,370.643,408.371,436.281,425.194,405.089,412.129,406.74,397.846,393.56,404,407.038,406.592,402.045,399.184,400.91,408.438,541.828,541.828,1.85368,1.85368,1.85368
0.000283174	-82862771.10	0,2.63259e-06,6.04934e-06,1.04838e-05,1.62392e-05,2.37089e-05,3.34035e-05,4.59859e-05,6.23161e-05,8.35106e-05,0.000111018,0.000146719,0.000193054,0.000253191,0.000331241,0.000432539,0.00056401,0.000734642,0.000956099,0.00124352,0.00161656,0.0021007,0.00272906,0.00354459,0.00460304,0.00597676,0.00775966,0.0100736,0.0130769,0.0169746,0.0220334,0.0285991,inf	526.047,526.047,577.821,462.652,520.165,370.545,363.879,432.979,453.267,410.112,340.817,370.358,408.88,437.427,426.109,404.541,412.414,406.951,397.828,393.084,403.871,406.742,406.475,402.11,399.123,399.731,402.428,542.847,542.847,0.630789,0.630789,0.630789
0.000281356	-82862843.34	0,2.63259e-06,6.04934e-06,1.04838e-05,1.62392e-05,2.37089e-05,3.34035e-05,4.59859e-05,6.23161e-05,8.35106e-05,0.000111018,0.000146719,0.000193054,0.000253191,0.000331241,0.000432539,0.00056401,0.000734642,0.000956099,0.00124352,0.00161656,0.0021007,0.00272906,0.00354459,0.00460304,0.00597676,0.00775966,0.0100736,0.0130769,0.0169746,0.0220334,0.0285991,inf	527.046,527.046,581.877,458.829,525.755,371.463,362.053,434.288,454.328,412.75,340.488,369.992,409.248,438.391,426.924,403.942,412.665,407.149,397.844,392.675,403.811,406.495,406.403,402.282,399.374,399.174,396.867,533.55,533.55,0.404091,0.404091,0.404091
0.000279926	-82862879.79	0,2.63259e-06,6.04934e-06,1.04838e-05,1.62392e-05,2.37089e-05,3.34035e-05,4.59859e-05,6.23161e-05,8.35106e-05,0.000111018,0.000146719,0.000193054,0.000253191,0.000331241,0.000432539,0.00056401,0.000734642,0.000956099,0.00124352,0.00161656,0.0021007,0.00272906,0.00354459,0.00460304,0.00597676,0.00775966,0.0100736,0.0130769,0.0169746,0.0220334,0.0285991,inf	527.902,527.902,585.51,454.82,530.818,372.255,360.211,435.397,454.966,415.127,340.092,369.571,409.5,439.189,427.644,403.297,412.879,407.321,397.877,392.308,403.796,406.269,406.332,402.502,399.915,399.51,392.971,531.236,531.236,0.404091,0.404091,0.404091
0.000278801	-82862868.16	0,2.63259e-06,6.04934e-06,1.04838e-05,1.62392e-05,2.37089e-05,3.34035e-05,4.59859e-05,6.23161e-05,8.35106e-05,0.000111018,0.000146719,0.000193054,0.000253191,0.000331241,0.000432539,0.00056401,0.000734642,0.000956099,0.00124352,0.00161656,0.0021007,0.00272906,0.00354459,0.00460304,0.00597676,0.00775966,0.0100736,0.0130769,0.0169746,0.0220334,0.0285991,inf	528.48,528.48,588.839,450.766,535.416,372.923,358.397,436.364,455.274,417.299,339.657,369.121,409.664,439.853,428.29,402.622,413.061,407.465,397.913,391.967,403.804,406.035,406.202,402.624,400.431,400.148,389.717,530.566,530.566,0.404091,0.404091,0.404091
