0.000566015	-2999920.45	0,9.22396e-05,0.000218452,0.000391151,0.000627458,0.0009508,0.00139323,0.00199862,0.00282698,0.00396044,0.00551137,0.00763353,0.0105373,0.0145106,0.0199473,0.0273865,inf	353.728,353.728,396.522,393.397,393.124,396.338,401.249,403.174,402.646,403.172,402.184,404.981,407.693,343.58,343.58,343.58
0.000514384	-2999325.87	0,9.22396e-05,0.000218452,0.000391151,0.000627458,0.0009508,0.00139323,0.00199862,0.00282698,0.00396044,0.00551137,0.00763353,0.0105373,0.0145106,0.0199473,0.0273865,inf	337.788,337.788,401.214,391.326,388.444,393.261,402.321,405.948,404.98,406.504,404.906,411.752,419.486,297.996,297.996,297.996
0.000470489	-2998850.36	0,9.22396e-05,0.000218452,0.000391151,0.000627458,0.0009508,0.00139323,0.00199862,0.00282698,0.00396044,0.00551137,0.00763353,0.0105373,0.0145106,0.0199473,0.0273865,inf	333.635,333.635,407.709,390.871,384.532,390.044,402.724,407.835,406.41,409.225,407.205,419.221,434.48,259.992,259.992,259.992
0.000433597	-2998481.93	0,9.22396e-05,0.000218452,0.000391151,0.000627458,0.0009508,0.00139323,0.00199862,0.00282698,0.00396044,0.00551137,0.00763353,0.0105373,0.0145106,0.0199473,0.0273865,inf	334.053,334.053,413.55,391.015,381.042,386.722,402.625,409.008,407.043,411.301,408.878,426.97,452.218,227.818,227.818,227.818
0.000402962	-2998206.79	0,9.22396e-05,0.000218452,0.000391151,0.000627458,0.0009508,0.00139323,0.00199862,0.00282698,0.00396044,0.00551137,0.00763353,0.0105373,0.0145106,0.0199473,0.0273865,inf	336.577,336.577,418.41,391.674,378.046,383.497,402.254,409.697,407.066,412.804,409.855,434.661,472.038,200.276,200.276,200.276
0.000377794	-2998009.24	0,9.22396e-05,0.000218452,0.000391151,0.000627458,0.0009508,0.00139323,0.00199862,0.00282698,0.00396044,0.00551137,0.00763353,0.0105373,0.0145106,0.0199473,0.0273865,inf	339.993,339.993,422.278,392.76,375.539,380.468,401.753,410.077,406.651,413.84,410.147,442.034,493.093,176.538,176.538,176.538
0.000357314	-2997873.32	0,9.22396e-05,0.000218452,0.000391151,0.000627458,0.0009508,0.00139323,0.00199862,0.00282698,0.00396044,0.00551137,0.00763353,0.0105373,0.0145106,0.0199473,0.0273865,inf	343.662,343.662,425.247,394.159,373.474,377.685,401.21,410.276,405.951,414.531,409.826,448.923,514.468,156.092,156.092,156.092
0.000340785	-2997784.19	0,9.22396e-05,0.000218452,0.000391151,0.000627458,0.0009508,0.00139323,0.00199862,0.00282698,0.00396044,0.00551137,0.00763353,0.0105373,0.0145106,0.0199473,0.0273865,inf	347.226,347.226,427.441,395.76,371.788,375.169,400.678,410.387,405.089,415,409.002,455.256,535.305,138.693,138.693,138.693
0.000327538	-2997729.06	0,9.22396e-05,0.000218452,0.000391151,0.000627458,0.0009508,0.00139323,0.00199862,0.00282698,0.00396044,0.00551137,0.00763353,0.0105373,0.0145106,0.0199473,0.0273865,inf	350.507,350.507,428.988,397.458,370.423,372.928,400.19,410.47,404.156,415.351,407.789,461.026,554.881,124.309,124.309,124.309
0.000316983	-2997697.38	0,9.22396e-05,0.000218452,0.000391151,0.000627458,0.0009508,0.00139323,0.00199862,0.00282698,0.00396044,0.00551137,0.00763353,0.0105373,0.0145106,0.0199473,0.0273865,inf	353.421,353.421,430.01,399.168,369.321,370.954,399.759,410.559,403.213,415.665,406.294,466.264,572.603,112.979,112.979,112.979
0.000308613	-2997680.90	0,9.22396e-05,0.000218452,0.000391151,0.000627458,0.0009508,0.00139323,0.00199862,0.00282698,0.00396044,0.00551137,0.00763353,0.0105373,0.0145106,0.0199473,0.0273865,inf	355.948,355.948,430.613,400.826,368.432,369.236,399.392,410.67,402.295,415.998,404.602,471.017,587.957,104.622,104.622,104.622
0.000302002	-2997673.46	0,9.22396e-05,0.000218452,0.000391151,0.000627458,0.0009508,0.00139323,0.00199862,0.00282698,0.00396044,0.00551137,0.00763353,0.0105373,0.0145106,0.0199473,0.0273865,inf	358.1,358.1,430.896,402.387,367.717,367.755,399.085,410.809,401.418,416.387,402.783,475.345,600.52,98.8749,98.8749,98.8749
0.000296798	-2997670.88	0,9.22396e-05,0.000218452,0.000391151,0.000627458,0.0009508,0.00139323,0.00199862,0.00282698,0.00396044,0.00551137,0.00763353,0.0105373,0.0145106,0.0199473,0.0273865,inf	359.914,359.914,430.941,403.828,367.14,366.49,398.834,410.973,400.591,416.851,400.89,479.325,610.061,95.1407,95.1407,95.1407
0.000292713	-2997670.70	0,9.22396e-05,0.000218452,0.000391151,0.000627458,0.0009508,0.00139323,0.00199862,0.00282698,0.00396044,0.00551137,0.00763353,0.0105373,0.0145106,0.0199473,0.0273865,inf	361.425,361.425,430.818,405.136,366.675,365.418,398.632,411.159,399.811,417.4,398.962,483.051,616.659,92.7929,92.7929,92.7929
0.000289513	-2997671.61	0,9.22396e-05,0.000218452,0.000391151,0.000627458,0.0009508,0.00139323,0.00199862,0.00282698,0.00396044,0.00551137,0.00763353,0.0105373,0.0145106,0.0199473,0.0273865,inf	362.679,362.679,430.58,406.307,366.299,364.516,398.472,411.363,399.075,418.033,397.027,486.624,620.659,91.3416,91.3416,91.3416
0.000287021	-2997672.98	0,9.22396e-05,0.000218452,0.000391151,0.000627458,0.0009508,0.00139323,0.00199862,0.00282698,0.00396044,0.00551137,0.00763353,0.0105373,0.0145106,0.0199473,0.0273865,inf	363.931,363.931,430.505,407.523,366.114,363.841,398.399,411.611,398.39,418.767,395.121,490.157,622.571,90.4729,90.4729,90.4729
0.00028507	-2997674.49	0,9.22396e-05,0.000218452,0.000391151,0.000627458,0.0009508,0.00139323,0.00199862,0.00282698,0.00396044,0.00551137,0.00763353,0.0105373,0.0145106,0.0199473,0.0273865,inf	364.765,364.765,430.159,408.441,365.868,363.213,398.299,411.834,397.715,419.552,393.207,493.662,622.805,89.9704,89.9704,89.9704
0.000283549	-2997676.04	0,9.22396e-05,0.000218452,0.000391151,0.000627458,0.0009508,0.00139323,0.00199862,0.00282698,0.00396044,0.00551137,0.00763353,0.0105373,0.0145106,0.0199473,0.0273865,inf	365.419,365.419,429.757,409.21,365.645,362.677,398.212,412.061,397.061,420.39,391.295,497.194,621.801,89.7255,89.7255,89.7255
0.000282365	-2997677.52	0,9.22396e-05,0.000218452,0.000391151,0.000627458,0.0009508,0.00139323,0.00199862,0.00282698,0.00396044,0.00551137,0.00763353,0.0105373,0.0145106,0.0199473,0.0273865,inf	365.955,365.955,429.356,409.874,365.455,362.228,398.14,412.292,396.426,421.276,389.382,500.781,619.888,89.659,89.659,89.659
0.000281444	-2997678.93	0,9.22396e-05,0.000218452,0.000391151,0.000627458,0.0009508,0.00139323,0.00199862,0.00282698,0.00396044,0.00551137,0.00763353,0.0105373,0.0145106,0.0199473,0.0273865,inf	366.395,366.395,428.973,410.451,365.296,361.858,398.081,412.526,395.805,422.201,387.461,504.44,617.307,89.7179,89.7179,89.7179
