time_index	left_time_boundary	right_time_boundary	lambda
0	0	9.46297e-05	357.297
1	9.46297e-05	0.000224113	357.297
2	0.000224113	0.000401287	179.303
3	0.000401287	0.000643716	299.664
4	0.000643716	0.000975436	360.462
5	0.000975436	0.00142933	402.005
6	0.00142933	0.00205041	414.276
7	0.00205041	0.00290023	395.296
8	0.00290023	0.00406306	376.339
9	0.00406306	0.00565418	482.985
10	0.00565418	0.00783133	745.711
11	0.00783133	0.0108104	462.357
12	0.0108104	0.0148866	257.567
13	0.0148866	0.0204642	361.484
14	0.0204642	0.0280961	361.484
15	0.0280961	inf	361.484
