time_index	left_time_boundary	right_time_boundary	lambda
0	0	2.7342e-06	0.442547
1	2.7342e-06	6.28282e-06	0.442547
2	6.28282e-06	1.08885e-05	33.5417
3	1.08885e-05	1.6866e-05	655.482
4	1.6866e-05	2.4624e-05	723.227
5	2.4624e-05	3.46928e-05	240.253
6	3.46928e-05	4.77608e-05	130.101
7	4.77608e-05	6.47213e-05	150.285
8	6.47213e-05	8.67337e-05	241.594
9	8.67337e-05	0.000115303	348.319
10	0.000115303	0.000152382	335.483
11	0.000152382	0.000200506	299.872
12	0.000200506	0.000262963	308.067
13	0.000262963	0.000344025	311.913
14	0.000344025	0.000449233	310.803
15	0.000449233	0.000585778	308.172
16	0.000585778	0.000762996	300.406
17	0.000762996	0.000993	311.755
18	0.000993	0.00129152	341.409
19	0.00129152	0.00167895	374.775
20	0.00167895	0.00218178	396.458
21	0.00218178	0.0028344	414.258
22	0.0028344	0.0036814	435.815
23	0.0036814	0.0047807	438.657
24	0.0047807	0.00620744	433.386
25	0.00620744	0.00805915	428.403
26	0.00805915	0.0104624	368.833
27	0.0104624	0.0135816	271.043
28	0.0135816	0.0176298	271.043
29	0.0176298	0.0228838	149.214
30	0.0228838	0.0297029	149.214
31	0.0297029	inf	149.214
