0.00068293	-313431.56	0,4.36132e-05,9.46297e-05,0.000154306,0.000224113,0.000305769,0.000401287,0.000513018,0.000643716,0.0007966,0.000975436,0.00118463,0.00142933,0.00171558,0.00205041,0.00244208,0.00290023,0.00343616,0.00406306,0.00479638,0.00565418,0.00665759,0.00783133,0.00920431,0.0108104,0.012689,0.0148866,0.0174572,0.0204642,0.0239816,0.0280961,0.032909,inf	524.455,524.455,315.956,275.301,287.885,296.978,312.245,328.083,343.249,357.985,372.46,386.513,399.634,410.727,418.672,423.665,426.584,427.968,428.687,429.622,430.164,428.907,425.044,418.957,412.152,406.587,403.617,405.882,405.882,424.614,424.614,424.614
0.000720511	-313363.25	0,4.36132e-05,9.46297e-05,0.000154306,0.000224113,0.000305769,0.000401287,0.000513018,0.000643716,0.0007966,0.000975436,0.00118463,0.00142933,0.00171558,0.00205041,0.00244208,0.00290023,0.00343616,0.00406306,0.00479638,0.00565418,0.00665759,0.00783133,0.00920431,0.0108104,0.012689,0.0148866,0.0174572,0.0204642,0.0239816,0.0280961,0.032909,inf	637.712,637.712,276.014,231.141,251.465,261.061,281.792,303.416,324.004,344.108,364.158,384.013,403.042,419.597,431.803,439.865,445.2,448.685,451.765,455.849,459.326,458.882,452.567,441.266,428.392,418.158,413.23,419.2,419.2,460.653,460.653,460.653
0.00075496	-313329.66	0,4.36132e-05,9.46297e-05,0.000154306,0.000224113,0.000305769,0.000401287,0.000513018,0.000643716,0.0007966,0.000975436,0.00118463,0.00142933,0.00171558,0.00205041,0.00244208,0.00290023,0.00343616,0.00406306,0.00479638,0.00565418,0.00665759,0.00783133,0.00920431,0.0108104,0.012689,0.0148866,0.0174572,0.0204642,0.0239816,0.0280961,0.032909,inf	709.34,709.34,246.562,210.085,237.328,245.128,268.64,292.917,315.677,337.804,360.003,382.187,403.773,422.841,437.062,446.685,453.573,458.939,464.741,472.776,480.301,481.794,473.874,457.965,439.641,425.501,419.412,430.094,430.094,498.019,498.019,498.019
0.000786854	-313307.10	0,4.36132e-05,9.46297e-05,0.000154306,0.000224113,0.000305769,0.000401287,0.000513018,0.000643716,0.0007966,0.000975436,0.00118463,0.00142933,0.00171558,0.00205041,0.00244208,0.00290023,0.00343616,0.00406306,0.00479638,0.00565418,0.00665759,0.00783133,0.00920431,0.0108104,0.012689,0.0148866,0.0174572,0.0204642,0.0239816,0.0280961,0.032909,inf	748.888,748.888,222.573,198.828,232.672,237.784,263.171,288.907,312.566,335.351,358.219,381.134,403.63,423.657,438.603,448.789,456.478,463.258,471.612,483.698,495.668,499.643,490.594,470.49,447.224,429.798,423.146,439.22,439.22,537.449,537.449,537.449
0.000816695	-313289.06	0,4.36132e-05,9.46297e-05,0.000154306,0.000224113,0.000305769,0.000401287,0.000513018,0.000643716,0.0007966,0.000975436,0.00118463,0.00142933,0.00171558,0.00205041,0.00244208,0.00290023,0.00343616,0.00406306,0.00479638,0.00565418,0.00665759,0.00783133,0.00920431,0.0108104,0.012689,0.0148866,0.0174572,0.0204642,0.0239816,0.0280961,0.032909,inf	768.527,768.527,202.22,192.358,232.476,234.446,261.362,288.049,312.085,334.962,357.842,380.729,403.313,423.48,438.427,448.556,456.489,464.217,474.775,490.709,507.151,513.827,503.9,479.887,452.096,431.886,425.114,447.029,447.029,579.755,579.755,579.755
0.000844841	-313273.46	0,4.36132e-05,9.46297e-05,0.000154306,0.000224113,0.000305769,0.000401287,0.000513018,0.000643716,0.0007966,0.000975436,0.00118463,0.00142933,0.00171558,0.00205041,0.00244208,0.00290023,0.00343616,0.00406306,0.00479638,0.00565418,0.00665759,0.00783133,0.00920431,0.0108104,0.012689,0.0148866,0.0174572,0.0204642,0.0239816,0.0280961,0.032909,inf	776.851,776.851,184.582,188.463,234.455,233.012,261.308,288.719,312.933,335.688,358.302,380.808,403.072,422.954,437.507,447.204,454.99,463.274,475.665,495.126,515.895,525.31,514.629,486.91,454.944,432.354,425.787,453.825,453.825,625.899,625.899,625.899
0.000871541	-313259.56	0,4.36132e-05,9.46297e-05,0.000154306,0.000224113,0.000305769,0.000401287,0.000513018,0.000643716,0.0007966,0.000975436,0.00118463,0.00142933,0.00171558,0.00205041,0.00244208,0.00290023,0.00343616,0.00406306,0.00479638,0.00565418,0.00665759,0.00783133,0.00920431,0.0108104,0.012689,0.0148866,0.0174572,0.0204642,0.0239816,0.0280961,0.032909,inf	779.005,779.005,169.094,186.069,237.482,232.454,262.056,290.087,314.424,337.005,359.254,381.227,402.98,422.365,436.32,445.365,452.735,461.265,475.147,497.791,522.666,534.767,523.377,492.106,456.262,431.622,425.502,459.815,459.815,677.126,677.126,677.126
0.000896972	-313246.98	0,4.36132e-05,9.46297e-05,0.000154306,0.000224113,0.000305769,0.000401287,0.000513018,0.000643716,0.0007966,0.000975436,0.00118463,0.00142933,0.00171558,0.00205041,0.00244208,0.00290023,0.00343616,0.00406306,0.00479638,0.00565418,0.00665759,0.00783133,0.00920431,0.0108104,0.012689,0.0148866,0.0174572,0.0204642,0.0239816,0.0280961,0.032909,inf	777.883,777.883,155.382,184.626,240.984,232.266,263.125,291.721,316.187,338.614,360.484,381.876,403.04,421.836,435.095,443.364,450.139,458.676,473.752,499.251,527.986,542.675,530.58,495.879,456.418,429.999,424.496,465.154,465.154,735.113,735.113,735.113
0.000921263	-313235.54	0,4.36132e-05,9.46297e-05,0.000154306,0.000224113,0.000305769,0.000401287,0.000513018,0.000643716,0.0007966,0.000975436,0.00118463,0.00142933,0.00171558,0.00205041,0.00244208,0.00290023,0.00343616,0.00406306,0.00479638,0.00565418,0.00665759,0.00783133,0.00920431,0.0108104,0.012689,0.0148866,0.0174572,0.0204642,0.0239816,0.0280961,0.032909,inf	775.065,775.065,143.167,183.834,244.67,232.194,264.27,293.401,318.026,340.344,361.863,382.672,403.231,421.41,433.939,441.369,447.429,455.793,471.816,499.87,532.22,549.378,536.562,498.53,455.68,427.71,422.949,469.955,469.955,802.347,802.347,802.347
0.000944515	-313225.09	0,4.36132e-05,9.46297e-05,0.000154306,0.000224113,0.000305769,0.000401287,0.000513018,0.000643716,0.0007966,0.000975436,0.00118463,0.00142933,0.00171558,0.00205041,0.00244208,0.00290023,0.00343616,0.00406306,0.00479638,0.00565418,0.00665759,0.00783133,0.00920431,0.0108104,0.012689,0.0148866,0.0174572,0.0204642,0.0239816,0.0280961,0.032909,inf	771.392,771.392,132.234,183.528,248.387,232.121,265.374,295.018,319.837,342.102,363.307,383.557,403.524,421.097,432.896,439.463,444.732,452.786,469.55,499.894,535.628,555.133,541.566,500.29,454.256,424.926,420.99,474.303,474.303,882.772,882.772,882.772
0.000966805	-313215.51	0,4.36132e-05,9.46297e-05,0.000154306,0.000224113,0.000305769,0.000401287,0.000513018,0.000643716,0.0007966,0.000975436,0.00118463,0.00142933,0.00171558,0.00205041,0.00244208,0.00290023,0.00343616,0.00406306,0.00479638,0.00565418,0.00665759,0.00783133,0.00920431,0.0108104,0.012689,0.0148866,0.0174572,0.0204642,0.0239816,0.0280961,0.032909,inf	767.317,767.317,122.411,183.601,252.061,231.996,266.387,296.524,321.57,343.833,364.765,384.491,403.895,420.888,431.983,437.681,442.113,449.757,467.093,499.493,538.398,560.129,545.778,501.337,452.304,421.777,418.725,478.264,478.264,983.346,983.346,983.346
0.000988199	-313206.70	0,4.36132e-05,9.46297e-05,0.000154306,0.000224113,0.000305769,0.000401287,0.000513018,0.000643716,0.0007966,0.000975436,0.00118463,0.00142933,0.00171558,0.00205041,0.00244208,0.00290023,0.00343616,0.00406306,0.00479638,0.00565418,0.00665759,0.00783133,0.00920431,0.0108104,0.012689,0.0148866,0.0174572,0.0204642,0.0239816,0.0280961,0.032909,inf	763.09,763.09,113.554,183.991,255.655,231.805,267.292,297.901,323.201,345.508,366.207,385.442,404.32,420.772,431.195,436.039,439.607,446.765,464.534,498.788,540.671,564.515,549.346,501.81,449.947,418.362,416.229,481.891,481.891,1118.04,1118.04,1118.04
0.00100875	-313198.59	0,4.36132e-05,9.46297e-05,0.000154306,0.000224113,0.000305769,0.000401287,0.000513018,0.000643716,0.0007966,0.000975436,0.00118463,0.00142933,0.00171558,0.00205041,0.00244208,0.00290023,0.00343616,0.00406306,0.00479638,0.00565418,0.00665759,0.00783133,0.00920431,0.0108104,0.012689,0.0148866,0.0174572,0.0204642,0.0239816,0.0280961,0.032909,inf	758.829,758.829,105.54,184.649,259.152,231.544,268.088,299.149,324.724,347.113,367.611,386.391,404.781,420.733,430.524,434.536,437.229,443.847,461.934,497.865,542.55,568.402,552.382,501.819,447.282,414.759,413.566,485.222,485.222,1322.01,1322.01,1322.01
0.00102852	-313191.11	0,4.36132e-05,9.46297e-05,0.000154306,0.000224113,0.000305769,0.000401287,0.000513018,0.000643716,0.0007966,0.000975436,0.00118463,0.00142933,0.00171558,0.00205041,0.00244208,0.00290023,0.00343616,0.00406306,0.00479638,0.00565418,0.00665759,0.00783133,0.00920431,0.0108104,0.012689,0.0148866,0.0174572,0.0204642,0.0239816,0.0280961,0.032909,inf	754.609,754.609,98.2682,185.539,262.545,231.221,268.786,300.277,326.141,348.641,368.968,387.323,405.262,420.758,429.959,433.166,434.982,441.021,459.333,496.787,544.117,571.881,554.978,501.454,444.385,411.027,410.781,488.293,488.293,1730.91,1730.91,1730.91
0.00104753	-313184.18	0,4.36132e-05,9.46297e-05,0.000154306,0.000224113,0.000305769,0.000401287,0.000513018,0.000643716,0.0007966,0.000975436,0.00118463,0.00142933,0.00171558,0.00205041,0.00244208,0.00290023,0.00343616,0.00406306,0.00479638,0.00565418,0.00665759,0.00783133,0.00920431,0.0108104,0.012689,0.0148866,0.0174572,0.0204642,0.0239816,0.0280961,0.032909,inf	750.462,750.462,91.6474,186.629,265.829,230.843,269.395,301.294,327.458,350.092,370.271,388.229,405.752,420.835,429.489,431.919,432.866,438.297,456.757,495.599,545.434,575.021,557.209,500.785,441.316,407.213,407.912,491.119,491.119,3620.69,3620.69,3620.69
0.00104753	-313177.77	0,4.36132e-05,9.46297e-05,0.000154306,0.000224113,0.000305769,0.000401287,0.000513018,0.000643716,0.0007966,0.000975436,0.00118463,0.00142933,0.00171558,0.00205041,0.00244208,0.00290023,0.00343616,0.00406306,0.00479638,0.00565418,0.00665759,0.00783133,0.00920431,0.0108104,0.012689,0.0148866,0.0174572,0.0204642,0.0239816,0.0280961,0.032909,inf	741.292,741.292,85.0821,186.74,267.315,229.017,268.29,300.404,326.745,349.436,369.414,386.961,404.082,418.814,427.058,428.904,429.176,434.155,452.817,492.974,545.206,576.63,558.06,498.927,437.402,402.735,404.43,493.13,493.13,80399.4,80399.4,80399.4
0.00104753	-313176.48	0,4.36132e-05,9.46297e-05,0.000154306,0.000224113,0.000305769,0.000401287,0.000513018,0.000643716,0.0007966,0.000975436,0.00118463,0.00142933,0.00171558,0.00205041,0.00244208,0.00290023,0.00343616,0.00406306,0.00479638,0.00565418,0.00665759,0.00783133,0.00920431,0.0108104,0.012689,0.0148866,0.0174572,0.0204642,0.0239816,0.0280961,0.032909,inf	740.432,740.432,79.5143,187.593,269.599,227.811,267.89,300.303,326.913,349.755,369.627,386.853,403.654,418.091,425.93,427.141,426.642,431.033,449.727,491.06,545.568,578.747,559.328,497.478,433.81,398.514,401.157,495.175,495.175,80401.4,80401.4,80401.4
0.00104753	-313175.84	0,4.36132e-05,9.46297e-05,0.000154306,0.000224113,0.000305769,0.000401287,0.000513018,0.000643716,0.0007966,0.000975436,0.00118463,0.00142933,0.00171558,0.00205041,0.00244208,0.00290023,0.00343616,0.00406306,0.00479638,0.00565418,0.00665759,0.00783133,0.00920431,0.0108104,0.012689,0.0148866,0.0174572,0.0204642,0.0239816,0.0280961,0.032909,inf	740.645,740.645,74.4187,188.498,271.912,226.639,267.535,300.28,327.225,350.293,369.927,386.853,403.654,417.977,425.479,426.08,424.792,428.542,447.2,489.597,546.306,581.189,560.854,496.241,430.382,394.503,398.041,497.288,497.288,80402.8,80402.8,80402.8
0.00104753	-313175.47	0,4.36132e-05,9.46297e-05,0.000154306,0.000224113,0.000305769,0.000401287,0.000513018,0.000643716,0.0007966,0.000975436,0.00118463,0.00142933,0.00171558,0.00205041,0.00244208,0.00290023,0.00343616,0.00406306,0.00479638,0.00565418,0.00665759,0.00783133,0.00920431,0.0108104,0.012689,0.0148866,0.0174572,0.0204642,0.0239816,0.0280961,0.032909,inf	741.267,741.267,69.7185,189.401,274.159,225.419,267.137,300.236,327.515,350.862,370.188,386.853,403.654,417.977,425.423,425.455,423.386,426.47,445.041,488.434,547.294,583.866,561.443,495.103,427.101,390.65,395.042,499.448,499.448,80403.9,80403.9,80403.9
0.00104753	-313175.22	0,4.36132e-05,9.46297e-05,0.000154306,0.000224113,0.000305769,0.000401287,0.000513018,0.000643716,0.0007966,0.000975436,0.00118463,0.00142933,0.00171558,0.00205041,0.00244208,0.00290023,0.00343616,0.00406306,0.00479638,0.00565418,0.00665759,0.00783133,0.00920431,0.0108104,0.012689,0.0148866,0.0174572,0.0204642,0.0239816,0.0280961,0.032909,inf	742.131,742.131,65.3687,190.295,276.346,224.164,266.721,300.143,327.778,351.427,370.455,386.853,403.654,417.977,425.423,425.131,422.296,424.7,443.153,487.493,548.479,586.29,561.443,494.087,423.953,386.943,392.149,501.649,501.649,80404.9,80404.9,80404.9
