time_index	left_time_boundary	right_time_boundary	lambda
0	0	8.67373e-05	254.059
1	8.67373e-05	0.000205421	254.059
2	0.000205421	0.000367818	146.136
3	0.000367818	0.000590028	285.101
4	0.000590028	0.000894082	296.127
5	0.000894082	0.00131012	267.044
6	0.00131012	0.0018794	314.557
7	0.0018794	0.00265834	610.26
8	0.00265834	0.00372419	660.779
9	0.00372419	0.0051826	668.283
10	0.0051826	0.00717817	651.207
11	0.00717817	0.00990873	911.307
12	0.00990873	0.013645	77.0681
13	0.013645	0.0187574	59690.9
14	0.0187574	0.0257528	59690.9
15	0.0257528	inf	59690.9
