0.000658327	-1825401.80	0,9.91503e-06,2.21789e-05,3.73482e-05,5.61111e-05,7.93189e-05,0.000108025,0.000143531,0.000187449,0.000241771,0.000308961,0.00039207,0.000494867,0.000622017,0.000779288,0.000973818,0.00121443,0.00151205,0.00188017,0.0023355,0.0028987,0.00359532,0.00445697,0.00552275,0.00684101,0.00847158,0.0104884,0.0129831,0.0160687,0.0198853,0.0246061,0.0304452,inf	406.782,406.782,521.681,491.289,439.329,405.938,392.727,386.919,377.108,374.089,374.456,378.128,383.021,386.869,391.127,395.695,401.022,407.133,412.697,416.961,418.296,416.334,416.187,419.141,416.383,403.952,383.699,380.328,380.328,476.221,476.221,476.221
0.000684622	-1825290.58	0,9.91503e-06,2.21789e-05,3.73482e-05,5.61111e-05,7.93189e-05,0.000108025,0.000143531,0.000187449,0.000241771,0.000308961,0.00039207,0.000494867,0.000622017,0.000779288,0.000973818,0.00121443,0.00151205,0.00188017,0.0023355,0.0028987,0.00359532,0.00445697,0.00552275,0.00684101,0.00847158,0.0104884,0.0129831,0.0160687,0.0198853,0.0246061,0.0304452,inf	370.588,370.588,604.064,554.284,462.942,409.353,391.994,384.682,367.653,362.814,363.102,368.909,376.241,381.077,386.417,392.319,399.876,409.359,418.538,426.058,428.655,425.426,426.281,433.629,429.484,405.969,368.822,364.489,364.489,567.872,567.872,567.872
0.000707783	-1825224.24	0,9.91503e-06,2.21789e-05,3.73482e-05,5.61111e-05,7.93189e-05,0.000108025,0.000143531,0.000187449,0.000241771,0.000308961,0.00039207,0.000494867,0.000622017,0.000779288,0.000973818,0.00121443,0.00151205,0.00188017,0.0023355,0.0028987,0.00359532,0.00445697,0.00552275,0.00684101,0.00847158,0.0104884,0.0129831,0.0160687,0.0198853,0.0246061,0.0304452,inf	325.392,325.392,655.011,594.556,474.088,408.655,392.102,385.601,363.007,357.319,357.654,365.21,374.088,378.79,383.882,389.662,397.918,409.217,420.681,430.515,433.95,429.61,431.887,444.218,439.502,406.088,355.072,351.163,351.163,683.041,683.041,683.041
0.000728491	-1825177.00	0,9.91503e-06,2.21789e-05,3.73482e-05,5.61111e-05,7.93189e-05,0.000108025,0.000143531,0.000187449,0.000241771,0.000308961,0.00039207,0.000494867,0.000622017,0.000779288,0.000973818,0.00121443,0.00151205,0.00188017,0.0023355,0.0028987,0.00359532,0.00445697,0.00552275,0.00684101,0.00847158,0.0104884,0.0129831,0.0160687,0.0198853,0.0246061,0.0304452,inf	285.889,285.889,685.944,619.86,477.315,405.049,391.907,387.375,360.262,354.388,354.968,364.235,374.337,378.485,382.795,387.823,396.043,408.308,421.235,432.689,436.544,431.069,434.87,452.365,447.58,405.275,342.868,340.109,340.109,843.002,843.002,843.002
0.000747184	-1825140.50	0,9.91503e-06,2.21789e-05,3.73482e-05,5.61111e-05,7.93189e-05,0.000108025,0.000143531,0.000187449,0.000241771,0.000308961,0.00039207,0.000494867,0.000622017,0.000779288,0.000973818,0.00121443,0.00151205,0.00188017,0.0023355,0.0028987,0.00359532,0.00445697,0.00552275,0.00684101,0.00847158,0.0104884,0.0129831,0.0160687,0.0198853,0.0246061,0.0304452,inf	255.351,255.351,705.2,635.987,475.946,399.752,391.291,389.209,358.225,352.569,353.538,364.554,375.771,379.238,382.584,386.617,394.463,407.236,421.127,433.723,437.658,430.98,436.273,458.917,454.379,404.025,332.191,330.914,330.914,1111.12,1111.12,1111.12
0.000764166	-1825111.31	0,9.91503e-06,2.21789e-05,3.73482e-05,5.61111e-05,7.93189e-05,0.000108025,0.000143531,0.000187449,0.000241771,0.000308961,0.00039207,0.000494867,0.000622017,0.000779288,0.000973818,0.00121443,0.00151205,0.00188017,0.0023355,0.0028987,0.00359532,0.00445697,0.00552275,0.00684101,0.00847158,0.0104884,0.0129831,0.0160687,0.0198853,0.0246061,0.0304452,inf	232.887,232.887,717.891,646.705,472.134,393.668,390.437,390.901,356.431,351.216,352.645,365.445,377.734,380.51,382.869,385.846,393.185,406.222,420.776,434.187,437.947,429.993,436.695,464.379,460.285,402.576,322.852,323.161,323.161,1835.92,1835.92,1835.92
0.000779659	-1825087.61	0,9.91503e-06,2.21789e-05,3.73482e-05,5.61111e-05,7.93189e-05,0.000108025,0.000143531,0.000187449,0.000241771,0.000308961,0.00039207,0.000494867,0.000622017,0.000779288,0.000973818,0.00121443,0.00151205,0.00188017,0.0023355,0.0028987,0.00359532,0.00445697,0.00552275,0.00684101,0.00847158,0.0104884,0.0129831,0.0160687,0.0198853,0.0246061,0.0304452,inf	216.694,216.694,726.851,654.262,467.155,387.376,389.542,392.445,354.721,350.053,351.956,366.544,379.881,382.001,383.416,385.36,392.159,405.335,420.369,434.377,437.768,428.478,436.484,469.053,465.515,401.011,314.584,316.422,316.422,9435.51,9435.51,9435.51
0.000779659	-1825068.24	0,9.91503e-06,2.21789e-05,3.73482e-05,5.61111e-05,7.93189e-05,0.000108025,0.000143531,0.000187449,0.000241771,0.000308961,0.00039207,0.000494867,0.000622017,0.000779288,0.000973818,0.00121443,0.00151205,0.00188017,0.0023355,0.0028987,0.00359532,0.00445697,0.00552275,0.00684101,0.00847158,0.0104884,0.0129831,0.0160687,0.0198853,0.0246061,0.0304452,inf	203.898,203.898,729.478,656.178,459.067,378.999,386.481,391.582,350.982,346.906,349.253,365.503,379.772,381.297,381.867,382.889,389.195,402.458,417.894,432.418,435.487,425.111,434.479,471.731,468.922,398.348,306.369,309.711,309.711,68174.2,68174.2,68174.2
0.000779659	-1825065.65	0,9.91503e-06,2.21789e-05,3.73482e-05,5.61111e-05,7.93189e-05,0.000108025,0.000143531,0.000187449,0.000241771,0.000308961,0.00039207,0.000494867,0.000622017,0.000779288,0.000973818,0.00121443,0.00151205,0.00188017,0.0023355,0.0028987,0.00359532,0.00445697,0.00552275,0.00684101,0.00847158,0.0104884,0.0129831,0.0160687,0.0198853,0.0246061,0.0304452,inf	195.998,195.998,736.615,658.49,454.466,373.445,385.923,392.996,349.067,345.348,347.971,365.83,381.06,382.034,381.825,381.964,387.779,401.086,416.822,431.709,434.234,422.53,433.028,474.9,470.6,396.23,299.205,303.916,303.916,68180.1,68180.1,68180.1
0.000779659	-1825064.44	0,9.91503e-06,2.21789e-05,3.73482e-05,5.61111e-05,7.93189e-05,0.000108025,0.000143531,0.000187449,0.000241771,0.000308961,0.00039207,0.000494867,0.000622017,0.000779288,0.000973818,0.00121443,0.00151205,0.00188017,0.0023355,0.0028987,0.00359532,0.00445697,0.00552275,0.00684101,0.00847158,0.0104884,0.0129831,0.0160687,0.0198853,0.0246061,0.0304452,inf	190.579,190.579,743.581,658.492,451.033,368.843,386.1,395.015,347.575,344.096,346.893,366.26,382.531,382.927,381.825,381.544,386.956,400.355,416.4,431.625,433.534,420.386,431.908,478.225,470.6,394.778,293.058,298.977,298.977,68185.1,68185.1,68185.1
0.000779659	-1825063.78	0,9.91503e-06,2.21789e-05,3.73482e-05,5.61111e-05,7.93189e-05,0.000108025,0.000143531,0.000187449,0.000241771,0.000308961,0.00039207,0.000494867,0.000622017,0.000779288,0.000973818,0.00121443,0.00151205,0.00188017,0.0023355,0.0028987,0.00359532,0.00445697,0.00552275,0.00684101,0.00847158,0.0104884,0.0129831,0.0160687,0.0198853,0.0246061,0.0304452,inf	186.78,186.78,748.385,658.492,448.416,364.832,386.668,397.323,346.259,342.923,345.771,366.633,383.943,383.407,381.849,381.317,386.396,399.935,416.314,431.884,433.157,418.519,431.035,480.555,470.6,393.899,287.785,294.762,294.762,68189.2,68189.2,68189.2
0.000779659	-1825063.30	0,9.91503e-06,2.21789e-05,3.73482e-05,5.61111e-05,7.93189e-05,0.000108025,0.000143531,0.000187449,0.000241771,0.000308961,0.00039207,0.000494867,0.000622017,0.000779288,0.000973818,0.00121443,0.00151205,0.00188017,0.0023355,0.0028987,0.00359532,0.00445697,0.00552275,0.00684101,0.00847158,0.0104884,0.0129831,0.0160687,0.0198853,0.0246061,0.0304452,inf	184.126,184.126,751.897,658.492,446.416,361.25,387.492,399.828,345.074,341.844,344.694,366.96,385.296,383.602,381.849,381.178,385.968,399.675,416.411,432.258,432.989,416.851,430.356,482.242,470.634,393.511,283.241,291.141,291.141,68192.7,68192.7,68192.7
0.000779659	-1825062.95	0,9.91503e-06,2.21789e-05,3.73482e-05,5.61111e-05,7.93189e-05,0.000108025,0.000143531,0.000187449,0.000241771,0.000308961,0.00039207,0.000494867,0.000622017,0.000779288,0.000973818,0.00121443,0.00151205,0.00188017,0.0023355,0.0028987,0.00359532,0.00445697,0.00552275,0.00684101,0.00847158,0.0104884,0.0129831,0.0160687,0.0198853,0.0246061,0.0304452,inf	182.262,182.262,754.089,658.492,444.865,357.926,388.469,402.031,343.974,340.828,343.6,367.25,386.599,383.607,381.965,381.083,385.609,399.502,416.611,432.44,432.965,415.332,429.829,483.673,470.634,393.511,279.299,288.008,288.008,68195.7,68195.7,68195.7
0.000779659	-1825062.68	0,9.91503e-06,2.21789e-05,3.73482e-05,5.61111e-05,7.93189e-05,0.000108025,0.000143531,0.000187449,0.000241771,0.000308961,0.00039207,0.000494867,0.000622017,0.000779288,0.000973818,0.00121443,0.00151205,0.00188017,0.0023355,0.0028987,0.00359532,0.00445697,0.00552275,0.00684101,0.00847158,0.0104884,0.0129831,0.0160687,0.0198853,0.0246061,0.0304452,inf	180.988,180.988,755.583,658.492,443.695,354.864,389.566,403.763,342.956,339.871,342.527,367.509,386.61,384.529,382.15,381.015,385.296,399.382,416.888,432.488,432.965,413.934,429.427,484.912,470.634,393.511,275.86,285.279,285.279,68198.3,68198.3,68198.3
0.000779659	-1825062.49	0,9.91503e-06,2.21789e-05,3.73482e-05,5.61111e-05,7.93189e-05,0.000108025,0.000143531,0.000187449,0.000241771,0.000308961,0.00039207,0.000494867,0.000622017,0.000779288,0.000973818,0.00121443,0.00151205,0.00188017,0.0023355,0.0028987,0.00359532,0.00445697,0.00552275,0.00684101,0.00847158,0.0104884,0.0129831,0.0160687,0.0198853,0.0246061,0.0304452,inf	180.118,180.118,757.029,658.557,442.925,352.066,390.841,404.969,342.081,339.04,341.523,367.777,387.834,384.534,382.163,380.933,384.995,399.296,417.198,432.488,432.965,412.643,429.134,485.993,470.634,393.511,272.854,282.895,282.895,68200.6,68200.6,68200.6
0.000779659	-1825062.34	0,9.91503e-06,2.21789e-05,3.73482e-05,5.61111e-05,7.93189e-05,0.000108025,0.000143531,0.000187449,0.000241771,0.000308961,0.00039207,0.000494867,0.000622017,0.000779288,0.000973818,0.00121443,0.00151205,0.00188017,0.0023355,0.0028987,0.00359532,0.00445697,0.00552275,0.00684101,0.00847158,0.0104884,0.0129831,0.0160687,0.0198853,0.0246061,0.0304452,inf	179.51,179.51,757.118,659.115,442.439,349.449,392.237,405.807,341.294,338.273,340.544,368.02,389.018,384.534,382.164,380.861,384.721,399.254,417.45,432.488,432.965,411.448,428.939,486.931,470.634,393.511,270.222,280.808,280.808,68202.6,68202.6,68202.6
0.000779659	-1825062.22	0,9.91503e-06,2.21789e-05,3.73482e-05,5.61111e-05,7.93189e-05,0.000108025,0.000143531,0.000187449,0.000241771,0.000308961,0.00039207,0.000494867,0.000622017,0.000779288,0.000973818,0.00121443,0.00151205,0.00188017,0.0023355,0.0028987,0.00359532,0.00445697,0.00552275,0.00684101,0.00847158,0.0104884,0.0129831,0.0160687,0.0198853,0.0246061,0.0304452,inf	179.128,179.128,757.582,659.115,442.181,346.987,393.738,405.852,340.593,337.569,339.58,368.236,390.164,384.654,382.164,380.799,384.467,399.248,417.652,432.488,432.965,410.338,428.831,487.744,470.634,393.511,267.914,278.978,278.978,68204.3,68204.3,68204.3
0.000779659	-1825062.14	0,9.91503e-06,2.21789e-05,3.73482e-05,5.61111e-05,7.93189e-05,0.000108025,0.000143531,0.000187449,0.000241771,0.000308961,0.00039207,0.000494867,0.000622017,0.000779288,0.000973818,0.00121443,0.00151205,0.00188017,0.0023355,0.0028987,0.00359532,0.00445697,0.00552275,0.00684101,0.00847158,0.0104884,0.0129831,0.0160687,0.0198853,0.0246061,0.0304452,inf	178.866,178.866,758.001,659.115,442.181,344.729,393.738,407.328,340.013,336.949,338.649,368.236,391.257,384.728,382.164,380.733,384.229,399.269,417.652,432.629,432.965,409.304,428.8,488.445,470.634,393.511,265.888,277.37,277.37,68205.8,68205.8,68205.8
0.000779659	-1825062.08	0,9.91503e-06,2.21789e-05,3.73482e-05,5.61111e-05,7.93189e-05,0.000108025,0.000143531,0.000187449,0.000241771,0.000308961,0.00039207,0.000494867,0.000622017,0.000779288,0.000973818,0.00121443,0.00151205,0.00188017,0.0023355,0.0028987,0.00359532,0.00445697,0.00552275,0.00684101,0.00847158,0.0104884,0.0129831,0.0160687,0.0198853,0.0246061,0.0304452,inf	178.716,178.716,758.001,659.259,442.181,342.638,395.429,407.328,339.509,336.385,337.748,368.415,392.215,384.728,382.164,380.675,384.013,399.322,417.781,432.629,432.965,408.336,428.837,489.048,470.634,393.511,264.107,275.955,275.955,68207.2,68207.2,68207.2
0.000779659	-1825062.04	0,9.91503e-06,2.21789e-05,3.73482e-05,5.61111e-05,7.93189e-05,0.000108025,0.000143531,0.000187449,0.000241771,0.000308961,0.00039207,0.000494867,0.000622017,0.000779288,0.000973818,0.00121443,0.00151205,0.00188017,0.0023355,0.0028987,0.00359532,0.00445697,0.00552275,0.00684101,0.00847158,0.0104884,0.0129831,0.0160687,0.0198853,0.0246061,0.0304452,inf	178.631,178.631,758.097,659.277,442.181,340.66,395.43,408.62,339.096,335.891,336.873,368.591,393.082,384.728,382.164,380.619,383.809,399.401,417.881,432.629,432.965,407.427,428.934,489.563,470.634,393.511,262.54,274.708,274.708,68208.4,68208.4,68208.4
