time_index	left_time_boundary	right_time_boundary	lambda
0	0	4.34897e-05	1322.16
1	4.34897e-05	9.43618e-05	1322.16
2	9.43618e-05	0.000153869	346.767
3	0.000153869	0.000223479	391.836
4	0.000223479	0.000304904	301.205
5	0.000304904	0.000400151	323.33
6	0.000400151	0.000511566	292.74
7	0.000511566	0.000641894	321.367
8	0.000641894	0.000794346	357.411
9	0.000794346	0.000972675	364.497
10	0.000972675	0.00118128	360.091
11	0.00118128	0.00142529	356.542
12	0.00142529	0.00171072	387.16
13	0.00171072	0.0020446	435.346
14	0.0020446	0.00243517	457.001
15	0.00243517	0.00289202	458.362
16	0.00289202	0.00342644	444.639
17	0.00342644	0.00405156	422.68
18	0.00405156	0.0047828	378.565
19	0.0047828	0.00563818	369.933
20	0.00563818	0.00663875	410.769
21	0.00663875	0.00780916	461.606
22	0.00780916	0.00917826	457.198
23	0.00917826	0.0107798	437.505
24	0.0107798	0.0126531	382.323
25	0.0126531	0.0148445	280.673
26	0.0148445	0.0174078	371.282
27	0.0174078	0.0204063	762.412
28	0.0204063	0.0239137	762.412
29	0.0239137	0.0280165	80506.5
30	0.0280165	0.0328158	80506.5
31	0.0328158	inf	80506.5
