time_index	left_time_boundary	right_time_boundary	lambda
0	0	1.04094e-05	169.845
1	1.04094e-05	2.72728e-05	169.845
2	2.72728e-05	5.45922e-05	936.953
3	5.45922e-05	9.88505e-05	283.725
4	9.88505e-05	0.00017055	370.867
5	0.00017055	0.000286706	395.784
6	0.000286706	0.000474882	363.128
7	0.000474882	0.000779734	379.772
8	0.000779734	0.0012736	380.195
9	0.0012736	0.00207369	404.719
10	0.00207369	0.00336985	466.048
11	0.00336985	0.00546967	361.239
12	0.00546967	0.00887144	337.976
13	0.00887144	0.0143824	543.122
14	0.0143824	0.0233104	543.122
15	0.0233104	inf	543.122
