time_index	left_time_boundary	right_time_boundary	lambda
0	0	4.11835e-06	25.9701
1	4.11835e-06	1.12643e-05	25.9701
2	1.12643e-05	2.36635e-05	196.427
3	2.36635e-05	4.5178e-05	564.098
4	4.5178e-05	8.25086e-05	463.014
5	8.25086e-05	0.000147283	382.302
6	0.000147283	0.000259675	363.929
7	0.000259675	0.000454692	382.969
8	0.000454692	0.000793074	370.624
9	0.000793074	0.00138022	376.836
10	0.00138022	0.00239899	432.635
11	0.00239899	0.00416672	472.981
12	0.00416672	0.00723397	264.301
13	0.00723397	0.0125561	520.78
14	0.0125561	0.0217908	520.78
15	0.0217908	inf	520.78
