0.00070684	-15181620.79	0,1.95692e-06,4.53467e-06,7.93021e-06,1.2403e-05,1.82947e-05,2.60556e-05,3.62787e-05,4.9745e-05,6.74834e-05,9.08493e-05,0.000121628,0.000162171,0.000215577,0.000285925,0.000378592,0.000500656,0.000661446,0.000873245,0.00115224,0.00151974,0.00200383,0.0026415,0.00348147,0.00458792,0.00604539,0.00796524,0.0104942,0.0138254,0.0182134,0.0239936,0.0316074,inf	3335.74,3335.74,2413.04,1629.89,518.845,164.727,79.0318,66.2563,74.2099,93.6294,121.454,153.804,186.252,206.513,204.588,190.576,183.886,190.574,212.451,253.409,314.807,390.224,458.108,480.52,463.155,437.631,415.841,399.04,399.04,412.165,412.165,412.165
0.000730393	-15162255.30	0,1.95692e-06,4.53467e-06,7.93021e-06,1.2403e-05,1.82947e-05,2.60556e-05,3.62787e-05,4.9745e-05,6.74834e-05,9.08493e-05,0.000121628,0.000162171,0.000215577,0.000285925,0.000378592,0.000500656,0.000661446,0.000873245,0.00115224,0.00151974,0.00200383,0.0026415,0.00348147,0.00458792,0.00604539,0.00796524,0.0104942,0.0138254,0.0182134,0.0239936,0.0316074,inf	4736.91,4736.91,3653.53,2243.03,393.773,68.866,22.9048,18.752,24.5305,39.1168,65.2457,103.661,153.035,187.479,179.208,148.079,130.507,132.434,154.84,204.39,285.977,397.65,517.63,571.374,548.209,502.969,461.138,429.69,429.69,483.631,483.631,483.631
0.00075266	-15155165.86	0,1.95692e-06,4.53467e-06,7.93021e-06,1.2403e-05,1.82947e-05,2.60556e-05,3.62787e-05,4.9745e-05,6.74834e-05,9.08493e-05,0.000121628,0.000162171,0.000215577,0.000285925,0.000378592,0.000500656,0.000661446,0.000873245,0.00115224,0.00151974,0.00200383,0.0026415,0.00348147,0.00458792,0.00604539,0.00796524,0.0104942,0.0138254,0.0182134,0.0239936,0.0316074,inf	4930.07,4930.07,4117.09,2469.18,286.713,31.8313,7.96497,6.50316,9.89115,19.7407,41.8447,82.3966,147.27,198.959,184.839,136.335,108.939,105.491,125,175.969,265.71,396.245,552.782,637.23,615.657,555.828,495.916,452.37,452.37,593.589,593.589,593.589
0.000772314	-15151977.25	0,1.95692e-06,4.53467e-06,7.93021e-06,1.2403e-05,1.82947e-05,2.60556e-05,3.62787e-05,4.9745e-05,6.74834e-05,9.08493e-05,0.000121628,0.000162171,0.000215577,0.000285925,0.000378592,0.000500656,0.000661446,0.000873245,0.00115224,0.00151974,0.00200383,0.0026415,0.00348147,0.00458792,0.00604539,0.00796524,0.0104942,0.0138254,0.0182134,0.0239936,0.0316074,inf	4829.04,4829.04,4279.83,2562.34,212.614,15.7409,3.02519,2.45631,4.30848,10.6748,28.5026,68.8197,147.344,218.84,200.344,135.022,99.1658,91.0771,107.401,157.825,251.174,392.014,573.658,684.961,668.717,597.943,521.584,468.364,468.364,798.887,798.887,798.887
0.000789618	-15150346.08	0,1.95692e-06,4.53467e-06,7.93021e-06,1.2403e-05,1.82947e-05,2.60556e-05,3.62787e-05,4.9745e-05,6.74834e-05,9.08493e-05,0.000121628,0.000162171,0.000215577,0.000285925,0.000378592,0.000500656,0.000661446,0.000873245,0.00115224,0.00151974,0.00200383,0.0026415,0.00348147,0.00458792,0.00604539,0.00796524,0.0104942,0.0138254,0.0182134,0.0239936,0.0316074,inf	4692.96,4692.96,4320.55,2598.21,160.148,8.06815,1.19847,0.962557,1.9355,5.91855,19.7771,58.0235,147.192,239.242,218.311,137.604,94.6122,82.6552,96.1426,145.562,240.606,387.244,586.106,719.93,710.56,631.256,539.778,479.023,479.023,1403.14,1403.14,1403.14
0.000805036	-15149429.85	0,1.95692e-06,4.53467e-06,7.93021e-06,1.2403e-05,1.82947e-05,2.60556e-05,3.62787e-05,4.9745e-05,6.74834e-05,9.08493e-05,0.000121628,0.000162171,0.000215577,0.000285925,0.000378592,0.000500656,0.000661446,0.000873245,0.00115224,0.00151974,0.00200383,0.0026415,0.00348147,0.00458792,0.00604539,0.00796524,0.0104942,0.0138254,0.0182134,0.0239936,0.0316074,inf	4578.99,4578.99,4310.65,2606.17,121.972,4.21947,0.484696,0.384369,0.881923,3.31823,13.813,48.8608,145.361,257.1,235.617,141.512,92.635,77.4453,88.5214,136.955,232.851,382.769,593.453,745.873,743.747,657.484,552.005,485.487,485.487,8055.47,8055.47,8055.47
0.000805036	-15148875.98	0,1.95692e-06,4.53467e-06,7.93021e-06,1.2403e-05,1.82947e-05,2.60556e-05,3.62787e-05,4.9745e-05,6.74834e-05,9.08493e-05,0.000121628,0.000162171,0.000215577,0.000285925,0.000378592,0.000500656,0.000661446,0.000873245,0.00115224,0.00151974,0.00200383,0.0026415,0.00348147,0.00458792,0.00604539,0.00796524,0.0104942,0.0138254,0.0182134,0.0239936,0.0316074,inf	4470.68,4470.68,4260.66,2588.8,93.2921,2.22711,0.360258,0.360258,0.40473,1.86959,9.65895,40.911,141.387,270.361,249.933,145.115,91.7254,73.8844,82.9087,130.378,226.401,377.356,594.743,762.581,768.35,676.716,558.619,488.033,488.033,53474.9,53474.9,53474.9
