time_index	left_time_boundary	right_time_boundary	lambda
0	0	4.53467e-06	2766.62
1	4.53467e-06	1.2403e-05	2766.62
2	1.2403e-05	2.60556e-05	0.360258
3	2.60556e-05	4.9745e-05	0.360258
4	4.9745e-05	9.08493e-05	0.360258
5	9.08493e-05	0.000162171	2.17063
6	0.000162171	0.000285925	272.701
7	0.000285925	0.000500656	223.322
8	0.000500656	0.000873245	77.8523
9	0.000873245	0.00151974	100.201
10	0.00151974	0.0026415	281.484
11	0.0026415	0.00458792	693.13
12	0.00458792	0.00796524	664.133
13	0.00796524	0.0138254	330.397
14	0.0138254	0.0239936	330.397
15	0.0239936	inf	330.397
