LogLikelihood = -1237813.8815936236642

y0 0.69766588129267392837
y0_prime 0
y1 0.6165170650583522427
y1_prime 0
y2 0.81811356245559552214
y2_prime 0
y3 1.7459960422765827825
y3_prime 0
rho 0.0011364114705733783725
theta 0.0040323470986973319191
