time_index	left_time_boundary	right_time_boundary	lambda
0	0	3.96667e-05	506.189
1	3.96667e-05	8.60669e-05	506.189
2	8.60669e-05	0.000140343	62.3548
3	0.000140343	0.000203833	40.7107
4	0.000203833	0.000278101	64.0211
5	0.000278101	0.000364975	208.476
6	0.000364975	0.000466597	370.916
7	0.000466597	0.000585468	388.69
8	0.000585468	0.000724518	342.625
9	0.000724518	0.000887171	279.556
10	0.000887171	0.00107744	266.169
11	0.00107744	0.0013	299.497
12	0.0013	0.00156034	346.961
13	0.00156034	0.00186487	384.539
14	0.00186487	0.0022211	408.343
15	0.0022211	0.0026378	433.864
16	0.0026378	0.00312523	475.068
17	0.00312523	0.00369541	521.879
18	0.00369541	0.00436237	544.753
19	0.00436237	0.00514255	538.234
20	0.00514255	0.00605516	531.87
21	0.00605516	0.00712269	539.207
22	0.00712269	0.00837143	549.262
23	0.00837143	0.00983215	555.689
24	0.00983215	0.0115408	552.086
25	0.0115408	0.0135395	499.378
26	0.0135395	0.0158775	386.632
27	0.0158775	0.0186124	452.892
28	0.0186124	0.0218116	452.892
29	0.0218116	0.0255537	88463.3
30	0.0255537	0.0299311	88463.3
31	0.0299311	inf	88463.3
