time_index	left_time_boundary	right_time_boundary	lambda
0	0	9.01202e-05	2663.14
1	9.01202e-05	0.000213433	2663.14
2	0.000213433	0.000382164	78.1345
3	0.000382164	0.000613041	546.613
4	0.000613041	0.000928953	436.851
5	0.000928953	0.00136122	297.961
6	0.00136122	0.0019527	674.621
7	0.0019527	0.00276203	247.849
8	0.00276203	0.00386944	491.888
9	0.00386944	0.00538474	215.763
10	0.00538474	0.00745814	245.668
11	0.00745814	0.0102952	529.964
12	0.0102952	0.0141772	9108.62
13	0.0141772	0.019489	17.2606
14	0.019489	0.0267572	17.2606
15	0.0267572	inf	17.2606
