AIC = 1840888.9857633581851

y0 0.92592119808163664274
y0_prime 0
y1 1.0656299125956416596
y1_prime 0
y2 0.91747346694310782933
y2_prime 0
y3 1.6878825864804687384
y3_prime 0
rho 0.00141499783532258506
theta 0.0050702330867201028317
