0.000492583	-12248866.48	0,1.60059e-06,3.70896e-06,6.48621e-06,1.01445e-05,1.49635e-05,2.13112e-05,2.96727e-05,4.0687e-05,5.51954e-05,7.43067e-05,9.9481e-05,0.000132642,0.000176323,0.000233862,0.000309654,0.000409492,0.000541004,0.000714237,0.000942429,0.00124301,0.00163896,0.00216052,0.00284754,0.00375252,0.0049446,0.00651486,0.00858329,0.0113079,0.014897,0.0196246,0.0258521,inf	11912.8,11912.8,1528.06,870.004,397.86,178.936,174.364,250.37,286.693,299.954,316.739,324.361,337.59,359.389,385.121,414.744,437.778,451.487,460.328,462.997,454.137,440.412,426.768,415.192,409.071,400.842,391.806,373.993,373.993,257.062,257.062,257.062
0.000433231	-12243852.29	0,1.60059e-06,3.70896e-06,6.48621e-06,1.01445e-05,1.49635e-05,2.13112e-05,2.96727e-05,4.0687e-05,5.51954e-05,7.43067e-05,9.9481e-05,0.000132642,0.000176323,0.000233862,0.000309654,0.000409492,0.000541004,0.000714237,0.000942429,0.00124301,0.00163896,0.00216052,0.00284754,0.00375252,0.0049446,0.00651486,0.00858329,0.0113079,0.014897,0.0196246,0.0258521,inf	18245.9,18245.9,1583.22,894.949,273.012,78.7969,90.268,201.036,266.519,272.42,291.358,291.328,299.937,324.577,355.733,399.252,435.258,457,473.595,482.32,468.27,444.613,421.799,402.597,394.183,380.306,364.716,336.972,336.972,164.847,164.847,164.847
0.000384522	-12240783.66	0,1.60059e-06,3.70896e-06,6.48621e-06,1.01445e-05,1.49635e-05,2.13112e-05,2.96727e-05,4.0687e-05,5.51954e-05,7.43067e-05,9.9481e-05,0.000132642,0.000176323,0.000233862,0.000309654,0.000409492,0.000541004,0.000714237,0.000942429,0.00124301,0.00163896,0.00216052,0.00284754,0.00375252,0.0049446,0.00651486,0.00858329,0.0113079,0.014897,0.0196246,0.0258521,inf	21310.2,21310.2,1573.98,987.478,222.505,41.645,52.9697,180.134,282.131,275.094,296.982,286.583,287.096,310.164,338.436,388.17,431.194,456.552,478.782,495.355,478.921,448.458,420.256,396.269,388.54,370.591,350.126,319.195,319.195,96.6718,96.6718,96.6718
0.000344008	-12238927.59	0,1.60059e-06,3.70896e-06,6.48621e-06,1.01445e-05,1.49635e-05,2.13112e-05,2.96727e-05,4.0687e-05,5.51954e-05,7.43067e-05,9.9481e-05,0.000132642,0.000176323,0.000233862,0.000309654,0.000409492,0.000541004,0.000714237,0.000942429,0.00124301,0.00163896,0.00216052,0.00284754,0.00375252,0.0049446,0.00651486,0.00858329,0.0113079,0.014897,0.0196246,0.0258521,inf	23443.3,23443.3,1570.52,1144.87,201.202,24.202,32.2294,162.502,307.002,284.585,312.929,292.317,284.885,306.48,328.095,380.223,426.891,452.706,477.993,502.711,485.487,450.317,419.63,392.634,387.842,366.814,342.893,318.132,318.132,52.1195,52.1195,52.1195
0.000310179	-12237869.30	0,1.60059e-06,3.70896e-06,6.48621e-06,1.01445e-05,1.49635e-05,2.13112e-05,2.96727e-05,4.0687e-05,5.51954e-05,7.43067e-05,9.9481e-05,0.000132642,0.000176323,0.000233862,0.000309654,0.000409492,0.000541004,0.000714237,0.000942429,0.00124301,0.00163896,0.00216052,0.00284754,0.00375252,0.0049446,0.00651486,0.00858329,0.0113079,0.014897,0.0196246,0.0258521,inf	25195.4,25195.4,1548.62,1339.34,190.633,14.7553,19.7112,143.268,332.128,293.237,331.439,301.481,287.2,308.945,321.973,374.629,423.265,447.609,473.554,505.886,488.557,449.925,418.877,389.76,389.454,365.812,339.322,334.192,334.192,40.9152,40.9152,40.9152
0.000282467	-12236390.48	0,1.60059e-06,3.70896e-06,6.48621e-06,1.01445e-05,1.49635e-05,2.13112e-05,2.96727e-05,4.0687e-05,5.51954e-05,7.43067e-05,9.9481e-05,0.000132642,0.000176323,0.000233862,0.000309654,0.000409492,0.000541004,0.000714237,0.000942429,0.00124301,0.00163896,0.00216052,0.00284754,0.00375252,0.0049446,0.00651486,0.00858329,0.0113079,0.014897,0.0196246,0.0258521,inf	26800.2,26800.2,1500.31,1553.21,184.028,9.26336,11.979,123.197,355.421,299.559,350.169,311.597,291.607,315.59,318.86,371.176,421.114,442.986,467.581,506.611,489.171,447.557,417.461,386.384,391.229,364.281,333.407,350.783,350.783,44.7278,44.7278,44.7278
0.000260338	-12234866.91	0,1.60059e-06,3.70896e-06,6.48621e-06,1.01445e-05,1.49635e-05,2.13112e-05,2.96727e-05,4.0687e-05,5.51954e-05,7.43067e-05,9.9481e-05,0.000132642,0.000176323,0.000233862,0.000309654,0.000409492,0.000541004,0.000714237,0.000942429,0.00124301,0.00163896,0.00216052,0.00284754,0.00375252,0.0049446,0.00651486,0.00858329,0.0113079,0.014897,0.0196246,0.0258521,inf	28209.8,28209.8,1421.26,1766.49,178.094,5.87761,7.23266,103.476,375.471,302.758,367.251,320.666,296.016,324.378,317.197,368.836,420.041,439.245,461.132,506.096,488.417,444.028,415.758,382.574,393.021,361.982,324.263,357.017,357.017,39.4033,39.4033,39.4033
0.000242802	-12234117.04	0,1.60059e-06,3.70896e-06,6.48621e-06,1.01445e-05,1.49635e-05,2.13112e-05,2.96727e-05,4.0687e-05,5.51954e-05,7.43067e-05,9.9481e-05,0.000132642,0.000176323,0.000233862,0.000309654,0.000409492,0.000541004,0.000714237,0.000942429,0.00124301,0.00163896,0.00216052,0.00284754,0.00375252,0.0049446,0.00651486,0.00858329,0.0113079,0.014897,0.0196246,0.0258521,inf	29445,29445,1319.28,1968.74,171.996,3.75747,4.33751,85.3526,392.693,303.481,382.485,328.233,299.697,334.364,316.292,367.183,419.865,436.612,454.893,505.194,487.176,440.179,414.443,378.905,395.65,360.7,315.653,364.361,364.361,45.5982,45.5982,45.5982
0.000229137	-12233301.61	0,1.60059e-06,3.70896e-06,6.48621e-06,1.01445e-05,1.49635e-05,2.13112e-05,2.96727e-05,4.0687e-05,5.51954e-05,7.43067e-05,9.9481e-05,0.000132642,0.000176323,0.000233862,0.000309654,0.000409492,0.000541004,0.000714237,0.000942429,0.00124301,0.00163896,0.00216052,0.00284754,0.00375252,0.0049446,0.00651486,0.00858329,0.0113079,0.014897,0.0196246,0.0258521,inf	30512,30512,1203.9,2153.34,165.476,2.4145,2.60688,69.4183,407.514,302.319,395.944,334.17,302.263,344.856,315.645,365.847,420.286,434.994,449.098,504.232,485.737,436.178,413.352,375.007,398.383,359.536,306.316,364.398,364.398,36.3292,36.3292,36.3292
0.000218456	-12233164.52	0,1.60059e-06,3.70896e-06,6.48621e-06,1.01445e-05,1.49635e-05,2.13112e-05,2.96727e-05,4.0687e-05,5.51954e-05,7.43067e-05,9.9481e-05,0.000132642,0.000176323,0.000233862,0.000309654,0.000409492,0.000541004,0.000714237,0.000942429,0.00124301,0.00163896,0.00216052,0.00284754,0.00375252,0.0049446,0.00651486,0.00858329,0.0113079,0.014897,0.0196246,0.0258521,inf	31403.2,31403.2,1082.88,2316.61,158.435,1.54995,1.5524,55.8452,420.242,299.74,407.732,338.52,303.556,355.358,314.926,364.563,421.02,434.191,443.814,503.422,484.418,432.418,412.87,371.273,401.712,359.722,299.149,371.265,371.265,51.5803,51.5803,51.5803
0.000210291	-12232493.03	0,1.60059e-06,3.70896e-06,6.48621e-06,1.01445e-05,1.49635e-05,2.13112e-05,2.96727e-05,4.0687e-05,5.51954e-05,7.43067e-05,9.9481e-05,0.000132642,0.000176323,0.000233862,0.000309654,0.000409492,0.000541004,0.000714237,0.000942429,0.00124301,0.00163896,0.00216052,0.00284754,0.00375252,0.0049446,0.00651486,0.00858329,0.0113079,0.014897,0.0196246,0.0258521,inf	32147.5,32147.5,963.452,2458.56,151.147,1.00381,0.928789,44.5804,431.336,296.207,418.176,341.557,303.675,365.647,314.019,363.245,421.923,434.042,439.032,502.794,483.193,428.757,412.54,367.131,404.434,359.236,290.657,366.06,366.06,28.225,28.225,28.225
0.000203684	-12232974.99	0,1.60059e-06,3.70896e-06,6.48621e-06,1.01445e-05,1.49635e-05,2.13112e-05,2.96727e-05,4.0687e-05,5.51954e-05,7.43067e-05,9.9481e-05,0.000132642,0.000176323,0.000233862,0.000309654,0.000409492,0.000541004,0.000714237,0.000942429,0.00124301,0.00163896,0.00216052,0.00284754,0.00375252,0.0049446,0.00651486,0.00858329,0.0113079,0.014897,0.0196246,0.0258521,inf	32731.9,32731.9,849.334,2579.54,143.784,0.654069,0.50062,35.3145,440.844,291.869,427.291,343.385,302.636,375.422,312.77,361.731,422.73,434.258,434.614,502.323,482.212,425.567,413.036,363.5,408.051,361.01,286.554,381.389,381.389,66.6148,66.6148,66.6148
0.000198926	-12231942.29	0,1.60059e-06,3.70896e-06,6.48621e-06,1.01445e-05,1.49635e-05,2.13112e-05,2.96727e-05,4.0687e-05,5.51954e-05,7.43067e-05,9.9481e-05,0.000132642,0.000176323,0.000233862,0.000309654,0.000409492,0.000541004,0.000714237,0.000942429,0.00124301,0.00163896,0.00216052,0.00284754,0.00375252,0.0049446,0.00651486,0.00858329,0.0113079,0.014897,0.0196246,0.0258521,inf	33246.2,33246.2,744.553,2684.81,136.553,0.440589,0.440517,27.8507,449.541,287.324,435.848,344.631,300.922,385.008,311.437,360.3,423.697,434.999,430.718,502.136,481.379,422.41,413.321,359.081,409.937,360.052,277.978,367.407,367.407,19.7708,19.7708,19.7708
0.00019443	-12233087.46	0,1.60059e-06,3.70896e-06,6.48621e-06,1.01445e-05,1.49635e-05,2.13112e-05,2.96727e-05,4.0687e-05,5.51954e-05,7.43067e-05,9.9481e-05,0.000132642,0.000176323,0.000233862,0.000309654,0.000409492,0.000541004,0.000714237,0.000942429,0.00124301,0.00163896,0.00216052,0.00284754,0.00375252,0.0049446,0.00651486,0.00858329,0.0113079,0.014897,0.0196246,0.0258521,inf	33589.1,33589.1,648.502,2769.55,129.426,0.440462,0.440517,21.852,456.666,282.095,443.066,344.855,298.162,393.713,309.605,358.484,424.205,435.636,426.887,501.88,480.715,419.833,414.739,355.87,413.968,363.652,277.303,396.425,396.425,79.1561,79.1561,79.1561
0.000191827	-12231656.75	0,1.60059e-06,3.70896e-06,6.48621e-06,1.01445e-05,1.49635e-05,2.13112e-05,2.96727e-05,4.0687e-05,5.51954e-05,7.43067e-05,9.9481e-05,0.000132642,0.000176323,0.000233862,0.000309654,0.000409492,0.000541004,0.000714237,0.000942429,0.00124301,0.00163896,0.00216052,0.00284754,0.00375252,0.0049446,0.00651486,0.00858329,0.0113079,0.014897,0.0196246,0.0258521,inf	33986.2,33986.2,564.573,2849.23,122.889,0.440462,0.440517,17.1195,463.876,277.329,450.716,345.355,295.425,402.729,308.082,357.141,425.199,436.972,423.74,502.107,480.244,417.11,415.482,351.28,414.713,361.538,268.136,373.564,373.564,16.9049,16.9049,16.9049
0.000188834	-12233077.58	0,1.60059e-06,3.70896e-06,6.48621e-06,1.01445e-05,1.49635e-05,2.13112e-05,2.96727e-05,4.0687e-05,5.51954e-05,7.43067e-05,9.9481e-05,0.000132642,0.000176323,0.000233862,0.000309654,0.000409492,0.000541004,0.000714237,0.000942429,0.00124301,0.00163896,0.00216052,0.00284754,0.00375252,0.0049446,0.00651486,0.00858329,0.0113079,0.014897,0.0196246,0.0258521,inf	34170.4,34170.4,488.232,2908.17,116.191,0.440462,0.440517,13.3462,469.428,271.847,456.857,344.874,291.726,410.63,305.996,355.349,425.591,437.976,420.528,502.218,479.987,415.097,417.645,348.477,418.768,365.784,268.831,405.695,405.695,80.5701,80.5701,80.5701
0.000187583	-12231599.89	0,1.60059e-06,3.70896e-06,6.48621e-06,1.01445e-05,1.49635e-05,2.13112e-05,2.96727e-05,4.0687e-05,5.51954e-05,7.43067e-05,9.9481e-05,0.000132642,0.000176323,0.000233862,0.000309654,0.000409492,0.000541004,0.000714237,0.000942429,0.00124301,0.00163896,0.00216052,0.00284754,0.00375252,0.0049446,0.00651486,0.00858329,0.0113079,0.014897,0.0196246,0.0258521,inf	34477,34477,423.137,2968.94,110.39,0.440462,0.440517,10.3944,475.689,267.124,463.956,345.131,288.44,419.161,304.448,354.257,426.661,439.745,418.029,502.858,479.883,412.786,418.884,344.085,418.951,363.241,260.203,379.064,379.064,16.0041,16.0041,16.0041
0.000185583	-12233045.22	0,1.60059e-06,3.70896e-06,6.48621e-06,1.01445e-05,1.49635e-05,2.13112e-05,2.96727e-05,4.0687e-05,5.51954e-05,7.43067e-05,9.9481e-05,0.000132642,0.000176323,0.000233862,0.000309654,0.000409492,0.000541004,0.000714237,0.000942429,0.00124301,0.00163896,0.00216052,0.00284754,0.00375252,0.0049446,0.00651486,0.00858329,0.0113079,0.014897,0.0196246,0.0258521,inf	34536.6,34536.6,364.368,3007.89,104.419,0.440462,0.440517,8.06238,479.936,261.5,469.132,344.218,284.093,426.163,302.133,352.481,426.823,440.826,415.196,503.147,479.832,411.078,421.484,341.582,422.803,367.575,261.626,410.554,410.554,80.4261,80.4261,80.4261
0.000185129	-12231590.28	0,1.60059e-06,3.70896e-06,6.48621e-06,1.01445e-05,1.49635e-05,2.13112e-05,2.96727e-05,4.0687e-05,5.51954e-05,7.43067e-05,9.9481e-05,0.000132642,0.000176323,0.000233862,0.000309654,0.000409492,0.000541004,0.000714237,0.000942429,0.00124301,0.00163896,0.00216052,0.00284754,0.00375252,0.0049446,0.00651486,0.00858329,0.0113079,0.014897,0.0196246,0.0258521,inf	34757,34757,314.755,3052.93,99.049,0.440462,0.440517,6.25202,485.142,256.7,475.448,344.22,280.317,433.893,300.398,351.424,427.664,442.601,412.989,503.9,479.862,408.978,423.03,337.481,422.66,364.852,253.851,382.372,382.372,15.585,15.585,15.585
0.00018373	-12233030.62	0,1.60059e-06,3.70896e-06,6.48621e-06,1.01445e-05,1.49635e-05,2.13112e-05,2.96727e-05,4.0687e-05,5.51954e-05,7.43067e-05,9.9481e-05,0.000132642,0.000176323,0.000233862,0.000309654,0.000409492,0.000541004,0.000714237,0.000942429,0.00124301,0.00163896,0.00216052,0.00284754,0.00375252,0.0049446,0.00651486,0.00858329,0.0113079,0.014897,0.0196246,0.0258521,inf	34780.3,34780.3,270.475,3081.13,94.0329,0.440462,0.440517,4.83188,488.96,251.358,480.362,343.507,275.909,440.527,298.227,350.028,427.957,443.959,410.666,504.536,480.113,407.544,425.958,335.264,426.35,369.218,255.934,413.414,413.414,80.2277,80.2277,80.2277
