LogLikelihood = -162288.80090328646475

y0 1.0987003737244107615
y0_prime 0
y1 1.0957661507157978598
y1_prime 0
y2 0.83953283044275694991
y2_prime 0
y3 1.5552844660474973715
y3_prime 0
rho 0.00073124697641045624356
rho.alpha 0.65611795464902789021
r_ii 0.99990524236222366739
theta 0.0024004014940588662246
