LogLikelihood = -1389083.5674566156231

y0 0.53623573905424659625
y0_prime 0
y1 0.94028457295691003637
y1_prime 0
y2 0.69999509402815662806
y2_prime 0
y3 1.3597201999445251985
y3_prime 0
rho 0.0046084938290915436476
rho.alpha 0.24983636761562610928
r_ii 0.99989065017430167615
theta 0.0045437121990260179866
