0.000228133	-5971743.31	0,6.41565e-07,1.48666e-06,2.59987e-06,4.06624e-06,5.99782e-06,8.54218e-06,1.18937e-05,1.63086e-05,2.2124e-05,2.97844e-05,3.9875e-05,5.31669e-05,7.06755e-05,9.37388e-05,0.000124119,0.000164137,0.000216851,0.000286288,0.000377754,0.000498238,0.000656944,0.000866001,0.00114138,0.00150412,0.00198194,0.00261136,0.00344045,0.00453256,0.00597116,0.00786614,0.0103623,inf	739.938,739.938,2023.26,855.286,331.186,299.762,266.605,255.832,265.664,280.141,291.425,302.045,318.807,340.701,370.784,416.834,484.982,580.444,711.706,896.26,1153.96,1461.29,1663.88,1660.21,1568.38,1466.66,1375.89,1310.76,1310.76,1277.94,1277.94,1277.94
0.000233418	-5960506.97	0,6.41565e-07,1.48666e-06,2.59987e-06,4.06624e-06,5.99782e-06,8.54218e-06,1.18937e-05,1.63086e-05,2.2124e-05,2.97844e-05,3.9875e-05,5.31669e-05,7.06755e-05,9.37388e-05,0.000124119,0.000164137,0.000216851,0.000286288,0.000377754,0.000498238,0.000656944,0.000866001,0.00114138,0.00150412,0.00198194,0.00261136,0.00344045,0.00453256,0.00597116,0.00786614,0.0103623,inf	426.99,426.99,3439.48,890.943,279.477,258.647,207.195,187.563,195.394,205.665,205.828,201.613,204.241,209.289,220.079,248.671,304.439,395.729,535.709,754.624,1100.62,1601.6,2055.46,2139.24,2012.52,1822.56,1632.95,1507.83,1507.83,1471.1,1471.1,1471.1
0.000238066	-5956734.22	0,6.41565e-07,1.48666e-06,2.59987e-06,4.06624e-06,5.99782e-06,8.54218e-06,1.18937e-05,1.63086e-05,2.2124e-05,2.97844e-05,3.9875e-05,5.31669e-05,7.06755e-05,9.37388e-05,0.000124119,0.000164137,0.000216851,0.000286288,0.000377754,0.000498238,0.000656944,0.000866001,0.00114138,0.00150412,0.00198194,0.00261136,0.00344045,0.00453256,0.00597116,0.00786614,0.0103623,inf	181.432,181.432,4298.22,856.129,275.748,274.249,208.102,185.597,199.838,213.925,208.477,194.623,189.028,182.291,178.177,192.018,233.682,311.767,441.071,659.767,1034.22,1641.36,2315.53,2527.63,2413.13,2147.43,1851.87,1676.77,1676.77,1677.52,1677.52,1677.52
0.000241572	-5955172.84	0,6.41565e-07,1.48666e-06,2.59987e-06,4.06624e-06,5.99782e-06,8.54218e-06,1.18937e-05,1.63086e-05,2.2124e-05,2.97844e-05,3.9875e-05,5.31669e-05,7.06755e-05,9.37388e-05,0.000124119,0.000164137,0.000216851,0.000286288,0.000377754,0.000498238,0.000656944,0.000866001,0.00114138,0.00150412,0.00198194,0.00261136,0.00344045,0.00453256,0.00597116,0.00786614,0.0103623,inf	66.7384,66.7384,4608.71,760.408,266.641,287.419,209.372,187.023,211.344,234.026,227.152,207.802,198.506,183.553,167.99,171.357,203.026,269.882,386.158,595.195,975.26,1639.23,2492.47,2844.99,2771.77,2432.91,2022.37,1809.26,1809.26,1897.17,1897.17,1897.17
0.000244103	-5954429.60	0,6.41565e-07,1.48666e-06,2.59987e-06,4.06624e-06,5.99782e-06,8.54218e-06,1.18937e-05,1.63086e-05,2.2124e-05,2.97844e-05,3.9875e-05,5.31669e-05,7.06755e-05,9.37388e-05,0.000124119,0.000164137,0.000216851,0.000286288,0.000377754,0.000498238,0.000656944,0.000866001,0.00114138,0.00150412,0.00198194,0.00261136,0.00344045,0.00453256,0.00597116,0.00786614,0.0103623,inf	23.3126,23.3126,4670.96,651.841,252.573,293.238,203.842,182.091,216.2,248.954,243.742,222.73,213.8,193.761,169.173,164.972,189.973,248.452,352.82,549.944,926.209,1619.71,2617.08,3110.6,3094.1,2673.79,2139.2,1900.88,1900.88,2129.1,2129.1,2129.1
0.000245886	-5954038.80	0,6.41565e-07,1.48666e-06,2.59987e-06,4.06624e-06,5.99782e-06,8.54218e-06,1.18937e-05,1.63086e-05,2.2124e-05,2.97844e-05,3.9875e-05,5.31669e-05,7.06755e-05,9.37388e-05,0.000124119,0.000164137,0.000216851,0.000286288,0.000377754,0.000498238,0.000656944,0.000866001,0.00114138,0.00150412,0.00198194,0.00261136,0.00344045,0.00453256,0.00597116,0.00786614,0.0103623,inf	8.0542,8.0542,4671.79,556.418,239.689,297.105,194.87,172.642,214.139,255.89,253.591,233.567,228.2,205.988,174.541,164.918,185.642,238.06,332.136,517.358,885.838,1593.26,2707.6,3338.84,3385.58,2866.58,2202.48,1951.65,1951.65,2371.04,2371.04,2371.04
0.000247107	-5953817.96	0,6.41565e-07,1.48666e-06,2.59987e-06,4.06624e-06,5.99782e-06,8.54218e-06,1.18937e-05,1.63086e-05,2.2124e-05,2.97844e-05,3.9875e-05,5.31669e-05,7.06755e-05,9.37388e-05,0.000124119,0.000164137,0.000216851,0.000286288,0.000377754,0.000498238,0.000656944,0.000866001,0.00114138,0.00150412,0.00198194,0.00261136,0.00344045,0.00453256,0.00597116,0.00786614,0.0103623,inf	2.77885,2.77885,4673.69,479.099,230.774,303.321,185.914,161.938,208.279,256.877,257.184,239.25,239.369,217.375,181.019,167.714,185.957,234.086,319.325,493.358,852.444,1564.55,2775,3539.88,3650.48,3009.63,2217.36,1965.76,1965.76,2617.15,2617.15,2617.15
0.000247906	-5953686.42	0,6.41565e-07,1.48666e-06,2.59987e-06,4.06624e-06,5.99782e-06,8.54218e-06,1.18937e-05,1.63086e-05,2.2124e-05,2.97844e-05,3.9875e-05,5.31669e-05,7.06755e-05,9.37388e-05,0.000124119,0.000164137,0.000216851,0.000286288,0.000377754,0.000498238,0.000656944,0.000866001,0.00114138,0.00150412,0.00198194,0.00261136,0.00344045,0.00453256,0.00597116,0.00786614,0.0103623,inf	1.0989,1.0989,4684.99,416.901,225.892,313.806,178.655,152.017,201.442,254.823,256.608,240.68,246.993,226.862,187.231,171.666,188.842,234.078,311.674,475.379,824.51,1535.5,2826.42,3721.12,3892.05,3103.66,2192.57,1950.14,1950.14,2857.39,2857.39,2857.39
0.000248381	-5953605.00	0,6.41565e-07,1.48666e-06,2.59987e-06,4.06624e-06,5.99782e-06,8.54218e-06,1.18937e-05,1.63086e-05,2.2124e-05,2.97844e-05,3.9875e-05,5.31669e-05,7.06755e-05,9.37388e-05,0.000124119,0.000164137,0.000216851,0.000286288,0.000377754,0.000498238,0.000656944,0.000866001,0.00114138,0.00150412,0.00198194,0.00261136,0.00344045,0.00453256,0.00597116,0.00786614,0.0103623,inf	1.0989,1.0989,4698.12,365.424,223.83,328.337,173.235,143.538,195.08,251.735,253.667,239.03,251.391,234.063,192.436,175.77,193.028,236.521,307.473,461.721,800.92,1507.26,2865.94,3887.51,4112.23,3151.53,2138.08,1912.56,1912.56,3070.76,3070.76,3070.76
0.000248608	-5953553.49	0,6.41565e-07,1.48666e-06,2.59987e-06,4.06624e-06,5.99782e-06,8.54218e-06,1.18937e-05,1.63086e-05,2.2124e-05,2.97844e-05,3.9875e-05,5.31669e-05,7.06755e-05,9.37388e-05,0.000124119,0.000164137,0.000216851,0.000286288,0.000377754,0.000498238,0.000656944,0.000866001,0.00114138,0.00150412,0.00198194,0.00261136,0.00344045,0.00453256,0.00597116,0.00786614,0.0103623,inf	1.0989,1.0989,4710.83,321.692,223.434,346.393,169.415,136.578,189.927,248.957,249.854,235.565,253.348,239.17,196.417,179.527,197.796,240.52,305.67,451.257,780.799,1480.24,2896.56,4042.87,4312.39,3158.38,2063.54,1860.36,1860.36,3228.19,3228.19,3228.19
0.000248642	-5953520.63	0,6.41565e-07,1.48666e-06,2.59987e-06,4.06624e-06,5.99782e-06,8.54218e-06,1.18937e-05,1.63086e-05,2.2124e-05,2.97844e-05,3.9875e-05,5.31669e-05,7.06755e-05,9.37388e-05,0.000124119,0.000164137,0.000216851,0.000286288,0.000377754,0.000498238,0.000656944,0.000866001,0.00114138,0.00150412,0.00198194,0.00261136,0.00344045,0.00453256,0.00597116,0.00786614,0.0103623,inf	1.0989,1.0989,4721.15,283.413,223.627,367.015,166.721,130.892,186.127,247.138,246.07,231.221,253.621,242.537,199.175,182.679,202.689,245.491,305.563,443.204,763.477,1454.58,2920.34,4190.11,4493.3,3130.74,1977.16,1799.62,1799.62,3300.17,3300.17,3300.17
0.000248524	-5953499.87	0,6.41565e-07,1.48666e-06,2.59987e-06,4.06624e-06,5.99782e-06,8.54218e-06,1.18937e-05,1.63086e-05,2.2124e-05,2.97844e-05,3.9875e-05,5.31669e-05,7.06755e-05,9.37388e-05,0.000124119,0.000164137,0.000216851,0.000286288,0.000377754,0.000498238,0.000656944,0.000866001,0.00114138,0.00150412,0.00198194,0.00261136,0.00344045,0.00453256,0.00597116,0.00786614,0.0103623,inf	1.0989,1.0989,4729.21,249.307,223.573,389.175,164.647,126.168,183.556,246.479,242.785,226.619,252.834,244.548,200.818,185.112,207.416,251.038,306.676,437.009,748.443,1430.29,2938.74,4331.48,4655.3,3075.77,1885.3,1734.92,1734.92,3279.88,3279.88,3279.88
0.000248286	-5953487.25	0,6.41565e-07,1.48666e-06,2.59987e-06,4.06624e-06,5.99782e-06,8.54218e-06,1.18937e-05,1.63086e-05,2.2124e-05,2.97844e-05,3.9875e-05,5.31669e-05,7.06755e-05,9.37388e-05,0.000124119,0.000164137,0.000216851,0.000286288,0.000377754,0.000498238,0.000656944,0.000866001,0.00114138,0.00150412,0.00198194,0.00261136,0.00344045,0.00453256,0.00597116,0.00786614,0.0103623,inf	1.0989,1.0989,4735.41,218.788,222.655,412.052,162.837,122.117,181.969,246.959,240.189,222.141,251.48,245.581,201.508,186.799,211.791,256.883,308.674,432.268,735.303,1407.33,2952.82,4468.77,4798.42,3000.54,1792.61,1669.55,1669.55,3188.65,3188.65,3188.65
0.000247953	-5953480.30	0,6.41565e-07,1.48666e-06,2.59987e-06,4.06624e-06,5.99782e-06,8.54218e-06,1.18937e-05,1.63086e-05,2.2124e-05,2.97844e-05,3.9875e-05,5.31669e-05,7.06755e-05,9.37388e-05,0.000124119,0.000164137,0.000216851,0.000286288,0.000377754,0.000498238,0.000656944,0.000866001,0.00114138,0.00150412,0.00198194,0.00261136,0.00344045,0.00453256,0.00597116,0.00786614,0.0103623,inf	1.0989,1.0989,4740.88,191.396,220.687,434.933,161.035,118.496,181.131,248.441,238.327,217.992,249.903,245.942,201.427,187.774,215.709,262.832,311.316,428.685,723.746,1385.61,2963.36,4603.48,4922.47,2911.44,1702.22,1605.71,1605.71,3060.56,3060.56,3060.56
0.000247543	-5953477.41	0,6.41565e-07,1.48666e-06,2.59987e-06,4.06624e-06,5.99782e-06,8.54218e-06,1.18937e-05,1.63086e-05,2.2124e-05,2.97844e-05,3.9875e-05,5.31669e-05,7.06755e-05,9.37388e-05,0.000124119,0.000164137,0.000216851,0.000286288,0.000377754,0.000498238,0.000656944,0.000866001,0.00114138,0.00150412,0.00198194,0.00261136,0.00344045,0.00453256,0.00597116,0.00786614,0.0103623,inf	1.0989,1.0989,4745.56,166.818,217.591,457.366,159.08,115.14,180.818,250.741,237.15,214.277,248.334,245.893,200.743,188.098,219.11,268.746,314.425,426.036,713.53,1365.04,2970.96,4736.85,5027.17,2813.96,1616.19,1544.75,1544.75,2920.5,2920.5,2920.5
0.000247072	-5953477.51	0,6.41565e-07,1.48666e-06,2.59987e-06,4.06624e-06,5.99782e-06,8.54218e-06,1.18937e-05,1.63086e-05,2.2124e-05,2.97844e-05,3.9875e-05,5.31669e-05,7.06755e-05,9.37388e-05,0.000124119,0.000164137,0.000216851,0.000286288,0.000377754,0.000498238,0.000656944,0.000866001,0.00114138,0.00150412,0.00198194,0.00261136,0.00344045,0.00453256,0.00597116,0.00786614,0.0103623,inf	1.0989,1.0989,4750.98,144.934,213.388,479.063,156.913,111.922,180.83,253.666,236.56,211.011,246.936,245.629,199.609,187.848,221.97,274.528,317.871,424.151,704.459,1345.52,2976.06,4869.98,5112.2,2712.52,1535.72,1487.46,1487.46,2782.37,2782.37,2782.37
0.000246551	-5953479.90	0,6.41565e-07,1.48666e-06,2.59987e-06,4.06624e-06,5.99782e-06,8.54218e-06,1.18937e-05,1.63086e-05,2.2124e-05,2.97844e-05,3.9875e-05,5.31669e-05,7.06755e-05,9.37388e-05,0.000124119,0.000164137,0.000216851,0.000286288,0.000377754,0.000498238,0.000656944,0.000866001,0.00114138,0.00150412,0.00198194,0.00261136,0.00344045,0.00453256,0.00597116,0.00786614,0.0103623,inf	1.0989,1.0989,4756.84,125.498,208.183,499.859,154.462,108.774,181.003,257.054,236.451,208.176,245.785,245.304,198.157,187.107,224.291,280.106,321.557,422.896,696.375,1326.96,2979.01,5003.85,5177.31,2610.57,1461.41,1434.24,1434.24,2652.05,2652.05,2652.05
0.00024599	-5953484.07	0,6.41565e-07,1.48666e-06,2.59987e-06,4.06624e-06,5.99782e-06,8.54218e-06,1.18937e-05,1.63086e-05,2.2124e-05,2.97844e-05,3.9875e-05,5.31669e-05,7.06755e-05,9.37388e-05,0.000124119,0.000164137,0.000216851,0.000286288,0.000377754,0.000498238,0.000656944,0.000866001,0.00114138,0.00150412,0.00198194,0.00261136,0.00344045,0.00453256,0.00597116,0.00786614,0.0103623,inf	1.0989,1.0989,4762.63,108.409,202.14,519.791,151.765,105.662,181.249,260.742,236.72,205.729,244.935,245.014,196.496,185.956,226.092,285.432,325.405,422.169,689.149,1309.28,2980.06,5139.39,5222.32,2510.65,1393.51,1385.24,1385.24,2532.82,2532.82,2532.82
0.000245397	-5953489.68	0,6.41565e-07,1.48666e-06,2.59987e-06,4.06624e-06,5.99782e-06,8.54218e-06,1.18937e-05,1.63086e-05,2.2124e-05,2.97844e-05,3.9875e-05,5.31669e-05,7.06755e-05,9.37388e-05,0.000124119,0.000164137,0.000216851,0.000286288,0.000377754,0.000498238,0.000656944,0.000866001,0.00114138,0.00150412,0.00198194,0.00261136,0.00344045,0.00453256,0.00597116,0.00786614,0.0103623,inf	1.0989,1.0989,4769.42,93.4014,195.523,538.87,148.847,102.555,181.457,264.604,237.273,203.63,244.395,244.845,194.712,184.47,227.401,290.475,329.359,421.887,682.672,1292.4,2979.43,5277.45,5247.24,2414.57,1331.95,1340.41,1340.41,2424.3,2424.3,2424.3
0.000244777	-5953496.50	0,6.41565e-07,1.48666e-06,2.59987e-06,4.06624e-06,5.99782e-06,8.54218e-06,1.18937e-05,1.63086e-05,2.2124e-05,2.97844e-05,3.9875e-05,5.31669e-05,7.06755e-05,9.37388e-05,0.000124119,0.000164137,0.000216851,0.000286288,0.000377754,0.000498238,0.000656944,0.000866001,0.00114138,0.00150412,0.00198194,0.00261136,0.00344045,0.00453256,0.00597116,0.00786614,0.0103623,inf	1.0989,1.0989,4776.67,80.3231,188.39,557.153,145.772,99.448,181.585,268.529,238.017,201.821,244.16,244.843,192.877,182.721,228.253,295.212,333.373,421.981,676.854,1276.24,2977.27,5418.9,5252.24,2323.49,1276.52,1299.58,1299.58,2326.38,2326.38,2326.38
