0.000228809	-134345.41	0,1.56438e-05,3.39432e-05,5.53489e-05,8.03882e-05,0.000109678,0.00014394,0.000184017,0.000230898,0.000285737,0.000349884,0.000424921,0.000512695,0.000615369,0.000735472,0.000875962,0.0010403,0.00123253,0.0014574,0.00172044,0.00202813,0.00238805,0.00280906,0.00330154,0.00387762,0.00455149,0.00533975,0.00626182,0.0073404,0.00860208,0.0100779,0.0118043,inf	95.448,95.448,204.117,290.772,349.678,388.359,440.728,511.296,592.76,692.436,814.888,956.045,1118.25,1298.75,1465.22,1570.97,1600.15,1575.68,1526.1,1468.78,1413.23,1362.36,1316.9,1278.02,1245.26,1217.43,1194.27,1175.46,1175.46,1178.94,1178.94,1178.94
0.000232786	-134104.65	0,1.56438e-05,3.39432e-05,5.53489e-05,8.03882e-05,0.000109678,0.00014394,0.000184017,0.000230898,0.000285737,0.000349884,0.000424921,0.000512695,0.000615369,0.000735472,0.000875962,0.0010403,0.00123253,0.0014574,0.00172044,0.00202813,0.00238805,0.00280906,0.00330154,0.00387762,0.00455149,0.00533975,0.00626182,0.0073404,0.00860208,0.0100779,0.0118043,inf	15.5446,15.5446,73.5522,153.949,211.857,228.987,265.262,332.174,413.628,521.197,666.725,847.343,1073.01,1354.77,1658.61,1897.33,2003.36,1993.01,1919.46,1821.46,1722.57,1628.75,1541.21,1464.42,1398.47,1341.2,1292.91,1255.03,1255.03,1270.11,1270.11,1270.11
0.000236951	-134019.22	0,1.56438e-05,3.39432e-05,5.53489e-05,8.03882e-05,0.000109678,0.00014394,0.000184017,0.000230898,0.000285737,0.000349884,0.000424921,0.000512695,0.000615369,0.000735472,0.000875962,0.0010403,0.00123253,0.0014574,0.00172044,0.00202813,0.00238805,0.00280906,0.00330154,0.00387762,0.00455149,0.00533975,0.00626182,0.0073404,0.00860208,0.0100779,0.0118043,inf	3.50393,3.50393,37.2138,118.031,183.032,179.044,198.63,257.627,329.667,429.576,575.751,765.931,1016.08,1351.4,1749.84,2106.66,2301.74,2326.25,2248.67,2127.24,2001.82,1878.98,1757.28,1646.43,1548.41,1460.86,1385.86,1328.88,1328.88,1363.31,1363.31,1363.31
0.000240562	-133981.93	0,1.56438e-05,3.39432e-05,5.53489e-05,8.03882e-05,0.000109678,0.00014394,0.000184017,0.000230898,0.000285737,0.000349884,0.000424921,0.000512695,0.000615369,0.000735472,0.000875962,0.0010403,0.00123253,0.0014574,0.00172044,0.00202813,0.00238805,0.00280906,0.00330154,0.00387762,0.00455149,0.00533975,0.00626182,0.0073404,0.00860208,0.0100779,0.0118043,inf	1.08509,1.08509,22.1627,108.142,188.697,163.368,169.79,223.827,286.693,376.502,517.336,706.531,964.528,1328.18,1790.2,2243.24,2523.65,2589.88,2518.97,2386.11,2249.95,2114.22,1968.79,1829.36,1701.06,1582.42,1478.93,1402.37,1402.37,1463.29,1463.29,1463.29
0.000243607	-133963.19	0,1.56438e-05,3.39432e-05,5.53489e-05,8.03882e-05,0.000109678,0.00014394,0.000184017,0.000230898,0.000285737,0.000349884,0.000424921,0.000512695,0.000615369,0.000735472,0.000875962,0.0010403,0.00123253,0.0014574,0.00172044,0.00202813,0.00238805,0.00280906,0.00330154,0.00387762,0.00455149,0.00533975,0.00626182,0.0073404,0.00860208,0.0100779,0.0118043,inf	1.08509,1.08509,14.0392,105.724,208.356,160.391,156.596,208.81,264.026,344.253,478.539,662.848,921.094,1299.54,1804.87,2335.01,2692.31,2800.11,2740.07,2602.53,2468.6,2336.49,2179.38,2018.04,1861.75,1710.94,1576.69,1479.55,1479.55,1575.56,1575.56,1575.56
0.000246193	-133952.71	0,1.56438e-05,3.39432e-05,5.53489e-05,8.03882e-05,0.000109678,0.00014394,0.000184017,0.000230898,0.000285737,0.000349884,0.000424921,0.000512695,0.000615369,0.000735472,0.000875962,0.0010403,0.00123253,0.0014574,0.00172044,0.00202813,0.00238805,0.00280906,0.00330154,0.00387762,0.00455149,0.00533975,0.00626182,0.0073404,0.00860208,0.0100779,0.0118043,inf	1.08509,1.08509,9.00485,104.441,233.64,162.247,150.617,203.494,252.405,324.124,452.127,630.201,885.074,1270.74,1806.17,2398.47,2823.7,2970.04,2921.31,2782,2660.18,2547.63,2392.09,2216.73,2035.15,1850.76,1682.73,1563.47,1563.47,1704.79,1704.79,1704.79
0.000248426	-133946.35	0,1.56438e-05,3.39432e-05,5.53489e-05,8.03882e-05,0.000109678,0.00014394,0.000184017,0.000230898,0.000285737,0.000349884,0.000424921,0.000512695,0.000615369,0.000735472,0.000875962,0.0010403,0.00123253,0.0014574,0.00172044,0.00202813,0.00238805,0.00280906,0.00330154,0.00387762,0.00455149,0.00533975,0.00626182,0.0073404,0.00860208,0.0100779,0.0118043,inf	1.08509,1.08509,5.72945,101.958,260.129,165.563,148.124,203.567,247.197,311.456,433.862,605.391,855.159,1243.64,1800.41,2443.41,2928.51,3109.33,3070.44,2929.82,2827.21,2749.09,2609.5,2429.41,2225.81,2006.1,1800.42,1656.65,1656.65,1859.24,1859.24,1859.24
0.000250389	-133942.24	0,1.56438e-05,3.39432e-05,5.53489e-05,8.03882e-05,0.000109678,0.00014394,0.000184017,0.000230898,0.000285737,0.000349884,0.000424921,0.000512695,0.000615369,0.000735472,0.000875962,0.0010403,0.00123253,0.0014574,0.00172044,0.00202813,0.00238805,0.00280906,0.00330154,0.00387762,0.00455149,0.00533975,0.00626182,0.0073404,0.00860208,0.0100779,0.0118043,inf	1.08509,1.08509,3.59216,97.6984,285.358,168.796,147.288,206.765,245.888,303.592,421.155,586.259,830.13,1218.81,1790.94,2475.88,3013.91,3225.04,3193.63,3050.74,2972.12,2942,2833.9,2660.31,2439,2181.62,1933.09,1761.87,1761.87,2049.92,2049.92,2049.92
0.000252144	-133939.44	0,1.56438e-05,3.39432e-05,5.53489e-05,8.03882e-05,0.000109678,0.00014394,0.000184017,0.000230898,0.000285737,0.000349884,0.000424921,0.000512695,0.000615369,0.000735472,0.000875962,0.0010403,0.00123253,0.0014574,0.00172044,0.00202813,0.00238805,0.00280906,0.00330154,0.00387762,0.00455149,0.00533975,0.00626182,0.0073404,0.00860208,0.0100779,0.0118043,inf	1.08509,1.08509,2.21763,91.8881,308.079,171.271,147.156,211.802,247.028,298.935,412.361,571.328,808.998,1196.28,1779.62,2499.72,3084.8,3322.32,3295.74,3148.9,3097.22,3127.25,3067.58,2914.37,2681.24,2383.22,2085.24,1882.38,1882.38,2293.28,2293.28,2293.28
0.000253735	-133937.46	0,1.56438e-05,3.39432e-05,5.53489e-05,8.03882e-05,0.000109678,0.00014394,0.000184017,0.000230898,0.000285737,0.000349884,0.000424921,0.000512695,0.000615369,0.000735472,0.000875962,0.0010403,0.00123253,0.0014574,0.00172044,0.00202813,0.00238805,0.00280906,0.00330154,0.00387762,0.00455149,0.00533975,0.00626182,0.0073404,0.00860208,0.0100779,0.0118043,inf	1.08509,1.08509,1.19531,85.036,327.827,172.747,147.211,217.899,249.728,296.479,406.392,559.563,790.984,1175.9,1767.48,2517.43,3144.66,3405,3380.61,3227.88,3204.67,3305.54,3312.95,3197.93,2961.51,2619.36,2262.31,2023.16,2023.16,2636.6,2636.6,2636.6
0.000255198	-133936.01	0,1.56438e-05,3.39432e-05,5.53489e-05,8.03882e-05,0.000109678,0.00014394,0.000184017,0.000230898,0.000285737,0.000349884,0.000424921,0.000512695,0.000615369,0.000735472,0.000875962,0.0010403,0.00123253,0.0014574,0.00172044,0.00202813,0.00238805,0.00280906,0.00330154,0.00387762,0.00455149,0.00533975,0.00626182,0.0073404,0.00860208,0.0100779,0.0118043,inf	1.08509,1.08509,1.08509,77.6751,344.631,173.199,147.173,224.563,253.426,295.566,402.509,550.225,775.489,1157.45,1755.12,2530.73,3195.94,3475.94,3451.28,3290.72,3296.46,3477.46,3572.76,3519.5,3293.14,2901.6,2473.08,2189.17,2189.17,3160.86,3160.86,3160.86
0.000256558	-133934.91	0,1.56438e-05,3.39432e-05,5.53489e-05,8.03882e-05,0.000109678,0.00014394,0.000184017,0.000230898,0.000285737,0.000349884,0.000424921,0.000512695,0.000615369,0.000735472,0.000875962,0.0010403,0.00123253,0.0014574,0.00172044,0.00202813,0.00238805,0.00280906,0.00330154,0.00387762,0.00455149,0.00533975,0.00626182,0.0073404,0.00860208,0.0100779,0.0118043,inf	1.08509,1.08509,1.08509,70.2337,358.719,172.694,146.893,231.467,257.74,295.744,400.187,542.775,762.04,1140.71,1742.89,2540.78,3240.47,3537.34,3510.18,3340.03,3374.41,3643.5,3850.27,3891.37,3696.31,3249.68,2730.42,2391.83,2391.83,4267.82,4267.82,4267.82
0.000257833	-133934.06	0,1.56438e-05,3.39432e-05,5.53489e-05,8.03882e-05,0.000109678,0.00014394,0.000184017,0.000230898,0.000285737,0.000349884,0.000424921,0.000512695,0.000615369,0.000735472,0.000875962,0.0010403,0.00123253,0.0014574,0.00172044,0.00202813,0.00238805,0.00280906,0.00330154,0.00387762,0.00455149,0.00533975,0.00626182,0.0073404,0.00860208,0.0100779,0.0118043,inf	1.08509,1.08509,1.08509,63.0246,370.488,171.367,146.305,238.391,262.415,296.7,399.053,536.812,750.272,1125.47,1730.97,2548.4,3279.59,3590.9,3559.28,3378.01,3440.19,3804.07,4149.45,4331.94,4206.75,3696.8,3056.98,2646.16,2646.16,9008.74,9008.74,9008.74
0.000259037	-133933.39	0,1.56438e-05,3.39432e-05,5.53489e-05,8.03882e-05,0.000109678,0.00014394,0.000184017,0.000230898,0.000285737,0.000349884,0.000424921,0.000512695,0.000615369,0.000735472,0.000875962,0.0010403,0.00123253,0.0014574,0.00172044,0.00202813,0.00238805,0.00280906,0.00330154,0.00387762,0.00455149,0.00533975,0.00626182,0.0073404,0.00860208,0.0100779,0.0118043,inf	1.08509,1.08509,1.08509,56.2494,380.346,169.356,145.389,245.189,267.273,298.21,398.83,532.031,739.893,1111.54,1719.47,2554.2,3314.33,3637.94,3600.17,3406.53,3495.31,3959.5,4475.32,4871.18,4891.76,4308.64,3486.44,2983.69,2983.69,176247,176247,176247
0.000260184	-133932.85	0,1.56438e-05,3.39432e-05,5.53489e-05,8.03882e-05,0.000109678,0.00014394,0.000184017,0.000230898,0.000285737,0.000349884,0.000424921,0.000512695,0.000615369,0.000735472,0.000875962,0.0010403,0.00123253,0.0014574,0.00172044,0.00202813,0.00238805,0.00280906,0.00330154,0.00387762,0.00455149,0.00533975,0.00626182,0.0073404,0.00860208,0.0100779,0.0118043,inf	1.08509,1.08509,1.08509,50.0154,388.676,166.792,144.151,251.759,272.186,300.109,399.31,528.2,730.674,1098.76,1708.44,2558.6,3345.48,3679.51,3634.15,3427.17,3541.11,4110.09,4834.46,5562.21,5905.25,5240.16,4121.11,3451.32,3451.32,94997.5,94997.5,94997.5
0.00026128	-133932.41	0,1.56438e-05,3.39432e-05,5.53489e-05,8.03882e-05,0.000109678,0.00014394,0.000184017,0.000230898,0.000285737,0.000349884,0.000424921,0.000512695,0.000615369,0.000735472,0.000875962,0.0010403,0.00123253,0.0014574,0.00172044,0.00202813,0.00238805,0.00280906,0.00330154,0.00387762,0.00455149,0.00533975,0.00626182,0.0073404,0.00860208,0.0100779,0.0118043,inf	1.08509,1.08509,1.08509,44.3623,395.811,163.793,142.61,258.037,277.063,302.278,400.338,525.139,722.43,1086.98,1697.89,2561.93,3373.66,3716.48,3662.32,3441.27,3578.8,4256.06,5235.79,6513.18,7726.04,7023.25,5183.17,4139.9,4139.9,176247,176247,176247
0.000262333	-133932.05	0,1.56438e-05,3.39432e-05,5.53489e-05,8.03882e-05,0.000109678,0.00014394,0.000184017,0.000230898,0.000285737,0.000349884,0.000424921,0.000512695,0.000615369,0.000735472,0.000875962,0.0010403,0.00123253,0.0014574,0.00172044,0.00202813,0.00238805,0.00280906,0.00330154,0.00387762,0.00455149,0.00533975,0.00626182,0.0073404,0.00860208,0.0100779,0.0118043,inf	1.08509,1.08509,1.08509,39.291,402.027,160.463,140.799,263.98,281.84,304.624,401.795,522.708,715.01,1076.09,1687.83,2564.43,3399.34,3749.52,3685.55,3449.94,3609.42,4397.58,5691.77,7998.48,13175.3,13290.6,7774.08,11253.4,11253.4,94997.5,94997.5,94997.5
0.000263349	-133931.74	0,1.56438e-05,3.39432e-05,5.53489e-05,8.03882e-05,0.000109678,0.00014394,0.000184017,0.000230898,0.000285737,0.000349884,0.000424921,0.000512695,0.000615369,0.000735472,0.000875962,0.0010403,0.00123253,0.0014574,0.00172044,0.00202813,0.00238805,0.00280906,0.00330154,0.00387762,0.00455149,0.00533975,0.00626182,0.0073404,0.00860208,0.0100779,0.0118043,inf	1.08509,1.08509,1.08509,34.7746,407.55,156.879,138.748,269.566,286.474,307.081,403.586,520.794,708.295,1065.99,1678.23,2566.27,3422.93,3779.2,3704.59,3454.14,3633.93,4534.77,6220.51,11078.1,82941.9,127737,106573,83152.1,83152.1,18836.9,18836.9,18836.9
0.000264332	-133931.48	0,1.56438e-05,3.39432e-05,5.53489e-05,8.03882e-05,0.000109678,0.00014394,0.000184017,0.000230898,0.000285737,0.000349884,0.000424921,0.000512695,0.000615369,0.000735472,0.000875962,0.0010403,0.00123253,0.0014574,0.00172044,0.00202813,0.00238805,0.00280906,0.00330154,0.00387762,0.00455149,0.00533975,0.00626182,0.0073404,0.00860208,0.0100779,0.0118043,inf	1.08509,1.08509,1.08509,30.7713,412.553,153.116,136.493,274.786,290.935,309.599,405.639,519.308,702.187,1056.58,1669.08,2567.61,3444.72,3805.97,3720.06,3454.65,3653.13,4667.72,6849.99,25365.7,567363,5022.38,21132.1,16488.1,16488.1,10153.1,10153.1,10153.1
0.000265285	-133931.26	0,1.56438e-05,3.39432e-05,5.53489e-05,8.03882e-05,0.000109678,0.00014394,0.000184017,0.000230898,0.000285737,0.000349884,0.000424921,0.000512695,0.000615369,0.000735472,0.000875962,0.0010403,0.00123253,0.0014574,0.00172044,0.00202813,0.00238805,0.00280906,0.00330154,0.00387762,0.00455149,0.00533975,0.00626182,0.0073404,0.00860208,0.0100779,0.0118043,inf	1.08509,1.08509,1.08509,27.2334,417.178,149.231,134.069,279.642,295.206,312.141,407.899,518.179,696.602,1047.79,1660.36,2568.55,3464.97,3830.23,3732.48,3452.14,3667.75,4796.37,7625.68,472376,442206,13652.2,21132.1,3269.39,3269.39,10153.1,10153.1,10153.1
