0.000740361	-8633308.67	0,6.15399e-06,1.65201e-05,3.39814e-05,6.33941e-05,0.000112939,0.000196394,0.000336971,0.000573766,0.000972638,0.00164452,0.00277627,0.00468266,0.00789389,0.0133031,0.0224146,inf	324.566,324.566,385.836,354.835,365.055,359.927,356.653,356.523,366.49,391.537,422.37,427.346,407.169,381.495,381.495,381.495
0.000841727	-8628503.76	0,6.15399e-06,1.65201e-05,3.39814e-05,6.33941e-05,0.000112939,0.000196394,0.000336971,0.000573766,0.000972638,0.00164452,0.00277627,0.00468266,0.00789389,0.0133031,0.0224146,inf	291.646,291.646,400.488,343.861,365.208,355.752,348.702,344.765,355.455,388.653,432.324,441.115,411.229,369.419,369.419,369.419
0.000934806	-8625158.76	0,6.15399e-06,1.65201e-05,3.39814e-05,6.33941e-05,0.000112939,0.000196394,0.000336971,0.000573766,0.000972638,0.00164452,0.00277627,0.00468266,0.00789389,0.0133031,0.0224146,inf	266.414,266.414,412.978,335.829,369.847,358.445,349.571,342.223,351.561,387.27,435.81,446.875,412.774,360.513,360.513,360.513
0.00102089	-8622630.90	0,6.15399e-06,1.65201e-05,3.39814e-05,6.33941e-05,0.000112939,0.000196394,0.000336971,0.000573766,0.000972638,0.00164452,0.00277627,0.00468266,0.00789389,0.0133031,0.0224146,inf	246.063,246.063,420.92,326.811,373.43,361.756,352.832,343.095,350.792,386.851,436.47,448.602,413.247,353.956,353.956,353.956
0.00110094	-8620642.46	0,6.15399e-06,1.65201e-05,3.39814e-05,6.33941e-05,0.000112939,0.000196394,0.000336971,0.000573766,0.000972638,0.00164452,0.00277627,0.00468266,0.00789389,0.0133031,0.0224146,inf	230.662,230.662,426.285,317.402,375.507,364.343,356.531,345.292,351.517,387.049,435.858,448.229,413.26,349.068,349.068,349.068
0.00117569	-8619039.44	0,6.15399e-06,1.65201e-05,3.39814e-05,6.33941e-05,0.000112939,0.000196394,0.000336971,0.000573766,0.000972638,0.00164452,0.00277627,0.00468266,0.00789389,0.0133031,0.0224146,inf	219.743,219.743,430.74,308.492,376.626,366.137,360.075,347.966,352.973,387.632,434.668,446.738,413.078,345.358,345.358,345.358
0.00124571	-8617724.36	0,6.15399e-06,1.65201e-05,3.39814e-05,6.33941e-05,0.000112939,0.000196394,0.000336971,0.000573766,0.000972638,0.00164452,0.00277627,0.00468266,0.00789389,0.0133031,0.0224146,inf	212.476,212.476,435.057,300.568,377.316,367.345,363.313,350.743,354.77,388.447,433.23,444.654,412.814,342.486,342.486,342.486
0.00131147	-8616630.86	0,6.15399e-06,1.65201e-05,3.39814e-05,6.33941e-05,0.000112939,0.000196394,0.000336971,0.000573766,0.000972638,0.00164452,0.00277627,0.00468266,0.00789389,0.0133031,0.0224146,inf	207.994,207.994,439.454,293.789,377.928,368.182,366.24,353.456,356.698,389.395,431.704,442.267,412.52,340.218,340.218,340.218
0.00137335	-8615711.55	0,6.15399e-06,1.65201e-05,3.39814e-05,6.33941e-05,0.000112939,0.000196394,0.000336971,0.000573766,0.000972638,0.00164452,0.00277627,0.00468266,0.00789389,0.0133031,0.0224146,inf	205.58,205.58,443.879,288.117,378.653,368.809,368.892,356.03,358.644,390.412,430.171,439.744,412.217,338.393,338.393,338.393
0.0014317	-8614931.51	0,6.15399e-06,1.65201e-05,3.39814e-05,6.33941e-05,0.000112939,0.000196394,0.000336971,0.000573766,0.000972638,0.00164452,0.00277627,0.00468266,0.00789389,0.0133031,0.0224146,inf	204.684,204.684,448.185,283.473,379.575,369.333,371.316,358.436,360.544,391.458,428.675,437.186,411.916,336.895,336.895,336.895
0.00148679	-8614264.38	0,6.15399e-06,1.65201e-05,3.39814e-05,6.33941e-05,0.000112939,0.000196394,0.000336971,0.000573766,0.000972638,0.00164452,0.00277627,0.00468266,0.00789389,0.0133031,0.0224146,inf	204.904,204.904,452.216,279.69,380.719,369.82,373.55,360.666,362.365,392.508,427.236,434.65,411.621,335.645,335.645,335.645
0.0015389	-8613689.84	0,6.15399e-06,1.65201e-05,3.39814e-05,6.33941e-05,0.000112939,0.000196394,0.000336971,0.000573766,0.000972638,0.00164452,0.00277627,0.00468266,0.00789389,0.0133031,0.0224146,inf	205.947,205.947,455.881,276.655,382.077,370.311,375.627,362.724,364.09,393.547,425.863,432.172,411.333,334.584,334.584,334.584
0.00158826	-8613192.00	0,6.15399e-06,1.65201e-05,3.39814e-05,6.33941e-05,0.000112939,0.000196394,0.000336971,0.000573766,0.000972638,0.00164452,0.00277627,0.00468266,0.00789389,0.0133031,0.0224146,inf	207.616,207.616,459.088,274.242,383.627,370.827,377.572,364.619,365.711,394.564,424.561,429.771,411.055,333.67,333.67,333.67
0.00163505	-8612758.28	0,6.15399e-06,1.65201e-05,3.39814e-05,6.33941e-05,0.000112939,0.000196394,0.000336971,0.000573766,0.000972638,0.00164452,0.00277627,0.00468266,0.00789389,0.0133031,0.0224146,inf	209.772,209.772,461.795,272.352,385.333,371.376,379.406,366.362,367.229,395.554,423.329,427.46,410.785,332.872,332.872,332.872
0.00167948	-8612378.54	0,6.15399e-06,1.65201e-05,3.39814e-05,6.33941e-05,0.000112939,0.000196394,0.000336971,0.000573766,0.000972638,0.00164452,0.00277627,0.00468266,0.00789389,0.0133031,0.0224146,inf	212.311,212.311,463.997,270.906,387.163,371.963,381.146,367.965,368.645,396.513,422.165,425.244,410.523,332.166,332.166,332.166
0.0017217	-8612044.61	0,6.15399e-06,1.65201e-05,3.39814e-05,6.33941e-05,0.000112939,0.000196394,0.000336971,0.000573766,0.000972638,0.00164452,0.00277627,0.00468266,0.00789389,0.0133031,0.0224146,inf	215.169,215.169,465.695,269.833,389.086,372.586,382.803,369.438,369.964,397.441,421.066,423.124,410.271,331.534,331.534,331.534
0.00176186	-8611749.76	0,6.15399e-06,1.65201e-05,3.39814e-05,6.33941e-05,0.000112939,0.000196394,0.000336971,0.000573766,0.000972638,0.00164452,0.00277627,0.00468266,0.00789389,0.0133031,0.0224146,inf	218.293,218.293,466.88,269.064,391.075,373.24,384.388,370.794,371.191,398.338,420.029,421.1,410.026,330.963,330.963,330.963
0.0018001	-8611488.47	0,6.15399e-06,1.65201e-05,3.39814e-05,6.33941e-05,0.000112939,0.000196394,0.000336971,0.000573766,0.000972638,0.00164452,0.00277627,0.00468266,0.00789389,0.0133031,0.0224146,inf	221.645,221.645,467.628,268.557,393.108,373.922,385.908,372.041,372.33,399.202,419.051,419.169,409.791,330.443,330.443,330.443
0.00183654	-8611256.14	0,6.15399e-06,1.65201e-05,3.39814e-05,6.33941e-05,0.000112939,0.000196394,0.000336971,0.000573766,0.000972638,0.00164452,0.00277627,0.00468266,0.00789389,0.0133031,0.0224146,inf	225.188,225.188,467.956,268.279,395.166,374.627,387.37,373.189,373.389,400.036,418.127,417.328,409.563,329.965,329.965,329.965
0.0018713	-8611048.90	0,6.15399e-06,1.65201e-05,3.39814e-05,6.33941e-05,0.000112939,0.000196394,0.000336971,0.000573766,0.000972638,0.00164452,0.00277627,0.00468266,0.00789389,0.0133031,0.0224146,inf	228.894,228.894,467.882,268.2,397.226,375.349,388.781,374.247,374.373,400.84,417.253,415.575,409.344,329.523,329.523,329.523
