0.000722354	-8633674.06	0,2.67813e-06,6.15399e-06,1.06652e-05,1.65201e-05,2.4119e-05,3.39814e-05,4.67814e-05,6.33941e-05,8.49551e-05,0.000112939,0.000149257,0.000196394,0.000257571,0.000336971,0.000440021,0.000573766,0.00074735,0.000972638,0.00126503,0.00164452,0.00213704,0.00277627,0.00360591,0.00468266,0.00608014,0.00789389,0.0102479,0.0133031,0.0172683,0.0224146,0.0290938,inf	178.04,178.04,305.753,368.651,389.131,372.399,353.836,353.893,360.543,362.391,359.189,356.206,354.871,354.049,354.209,356.469,361.821,371.01,383.993,399.107,413.254,423.551,428.177,426.875,422.877,419.086,412.857,399.299,399.299,407.474,407.474,407.474
0.000809158	-8629406.18	0,2.67813e-06,6.15399e-06,1.06652e-05,1.65201e-05,2.4119e-05,3.39814e-05,4.67814e-05,6.33941e-05,8.49551e-05,0.000112939,0.000149257,0.000196394,0.000257571,0.000336971,0.000440021,0.000573766,0.00074735,0.000972638,0.00126503,0.00164452,0.00213704,0.00277627,0.00360591,0.00468266,0.00608014,0.00789389,0.0102479,0.0133031,0.0172683,0.0224146,0.0290938,inf	90.0911,90.0911,261.839,374.67,411.976,376.142,342.298,344.572,357.953,361.378,355.052,349.183,345.883,342.884,341.046,342.259,348.182,360.063,377.915,399.298,419.688,435.162,443.091,442.302,437.362,432.595,422.342,397.573,397.573,415.465,415.465,415.465
0.000890067	-8626351.05	0,2.67813e-06,6.15399e-06,1.06652e-05,1.65201e-05,2.4119e-05,3.39814e-05,4.67814e-05,6.33941e-05,8.49551e-05,0.000112939,0.000149257,0.000196394,0.000257571,0.000336971,0.000440021,0.000573766,0.00074735,0.000972638,0.00126503,0.00164452,0.00213704,0.00277627,0.00360591,0.00468266,0.00608014,0.00789389,0.0102479,0.0133031,0.0172683,0.0224146,0.0290938,inf	46.7777,46.7777,227.58,382.069,433.916,378.358,332.99,339.651,360.62,366.375,358.092,350.63,346.248,341.559,337.795,337.469,342.767,355.287,375.036,399.041,421.983,439.755,449.709,449.926,445.437,441.115,428.192,394.107,394.107,422.075,422.075,422.075
0.000965728	-8623978.60	0,2.67813e-06,6.15399e-06,1.06652e-05,1.65201e-05,2.4119e-05,3.39814e-05,4.67814e-05,6.33941e-05,8.49551e-05,0.000112939,0.000149257,0.000196394,0.000257571,0.000336971,0.000440021,0.000573766,0.00074735,0.000972638,0.00126503,0.00164452,0.00213704,0.00277627,0.00360591,0.00468266,0.00608014,0.00789389,0.0102479,0.0133031,0.0172683,0.0224146,0.0290938,inf	24.6543,24.6543,198.776,387.541,451.002,375.558,321.756,333.836,362.459,370.87,361.58,353.663,349.116,343.461,338.26,336.567,341.019,353.474,373.88,398.823,422.473,440.936,451.978,453.229,449.794,446.607,431.856,389.943,389.943,427.818,427.818,427.818
0.00103674	-8622063.82	0,2.67813e-06,6.15399e-06,1.06652e-05,1.65201e-05,2.4119e-05,3.39814e-05,4.67814e-05,6.33941e-05,8.49551e-05,0.000112939,0.000149257,0.000196394,0.000257571,0.000336971,0.000440021,0.000573766,0.00074735,0.000972638,0.00126503,0.00164452,0.00213704,0.00277627,0.00360591,0.00468266,0.00608014,0.00789389,0.0102479,0.0133031,0.0172683,0.0224146,0.0290938,inf	13.2299,13.2299,175.165,392.903,465.092,369.543,309.529,327.202,362.94,373.849,364.073,356.453,352.392,346.359,340.194,337.42,341.082,353.235,373.743,398.788,422.183,440.431,451.933,454.104,451.953,450.213,434.166,385.591,385.591,433.002,433.002,433.002
0.00110359	-8620483.25	0,2.67813e-06,6.15399e-06,1.06652e-05,1.65201e-05,2.4119e-05,3.39814e-05,4.67814e-05,6.33941e-05,8.49551e-05,0.000112939,0.000149257,0.000196394,0.000257571,0.000336971,0.000440021,0.000573766,0.00074735,0.000972638,0.00126503,0.00164452,0.00213704,0.00277627,0.00360591,0.00468266,0.00608014,0.00789389,0.0102479,0.0133031,0.0172683,0.0224146,0.0290938,inf	7.24186,7.24186,156.134,399.55,478.007,362.148,297.511,320.566,362.659,375.618,365.541,358.633,355.45,349.446,342.678,339.083,342.076,353.873,374.223,398.943,421.57,439.093,450.647,453.597,452.789,452.61,435.61,381.298,381.298,437.811,437.811,437.811
0.0011667	-8619158.35	0,2.67813e-06,6.15399e-06,1.06652e-05,1.65201e-05,2.4119e-05,3.39814e-05,4.67814e-05,6.33941e-05,8.49551e-05,0.000112939,0.000149257,0.000196394,0.000257571,0.000336971,0.000440021,0.000573766,0.00074735,0.000972638,0.00126503,0.00164452,0.00213704,0.00277627,0.00360591,0.00468266,0.00608014,0.00789389,0.0102479,0.0133031,0.0172683,0.0224146,0.0290938,inf	4.04113,4.04113,140.729,407.966,490.67,354.435,286.383,314.541,362.204,376.647,366.264,360.254,358.15,352.428,345.311,341.097,343.546,354.997,375.077,399.25,420.84,437.357,448.704,452.304,452.817,454.212,436.485,377.174,377.174,442.362,442.362,442.362
0.00122639	-8618034.76	0,2.67813e-06,6.15399e-06,1.06652e-05,1.65201e-05,2.4119e-05,3.39814e-05,4.67814e-05,6.33941e-05,8.49551e-05,0.000112939,0.000149257,0.000196394,0.000257571,0.000336971,0.000440021,0.000573766,0.00074735,0.000972638,0.00126503,0.00164452,0.00213704,0.00277627,0.00360591,0.00468266,0.00608014,0.00789389,0.0102479,0.0133031,0.0172683,0.0224146,0.0290938,inf	2.2904,2.2904,128.053,417.97,503.274,346.873,276.434,309.422,361.946,377.308,366.515,361.455,360.507,355.211,347.91,343.229,345.24,356.383,376.15,399.667,420.087,435.45,446.429,450.573,452.349,455.279,436.976,373.265,373.265,446.726,446.726,446.726
0.00128295	-8617072.89	0,2.67813e-06,6.15399e-06,1.06652e-05,1.65201e-05,2.4119e-05,3.39814e-05,4.67814e-05,6.33941e-05,8.49551e-05,0.000112939,0.000149257,0.000196394,0.000257571,0.000336971,0.000440021,0.000573766,0.00074735,0.000972638,0.00126503,0.00164452,0.00213704,0.00277627,0.00360591,0.00468266,0.00608014,0.00789389,0.0102479,0.0133031,0.0172683,0.0224146,0.0290938,inf	1.30942,1.30942,117.383,429.157,515.732,339.606,267.677,305.291,362.082,377.844,366.503,362.371,362.582,357.78,350.398,345.356,347.014,357.895,377.342,400.158,419.351,433.495,444.009,448.61,451.58,455.978,437.2,369.582,369.582,450.951,450.951,450.951
0.00133664	-8616242.93	0,2.67813e-06,6.15399e-06,1.06652e-05,1.65201e-05,2.4119e-05,3.39814e-05,4.67814e-05,6.33941e-05,8.49551e-05,0.000112939,0.000149257,0.000196394,0.000257571,0.000336971,0.000440021,0.000573766,0.00074735,0.000972638,0.00126503,0.00164452,0.00213704,0.00277627,0.00360591,0.00468266,0.00608014,0.00789389,0.0102479,0.0133031,0.0172683,0.0224146,0.0290938,inf	0.760333,0.760333,108.213,441.152,527.768,332.635,260.012,302.112,362.684,378.394,366.368,363.108,364.436,360.147,352.742,347.413,348.789,359.452,378.591,400.696,418.65,431.556,441.551,446.543,450.633,456.421,437.237,366.121,366.121,455.073,455.073,455.073
0.00138767	-8615521.89	0,2.67813e-06,6.15399e-06,1.06652e-05,1.65201e-05,2.4119e-05,3.39814e-05,4.67814e-05,6.33941e-05,8.49551e-05,0.000112939,0.000149257,0.000196394,0.000257571,0.000336971,0.000440021,0.000573766,0.00074735,0.000972638,0.00126503,0.00164452,0.00213704,0.00277627,0.00360591,0.00468266,0.00608014,0.00789389,0.0102479,0.0133031,0.0172683,0.0224146,0.0290938,inf	0.409812,0.409812,100.19,453.569,539.185,325.911,253.332,299.791,363.766,379.029,366.194,363.737,366.12,362.334,354.935,349.37,350.517,361.002,379.856,401.258,417.99,429.669,439.118,444.447,449.585,456.683,437.14,362.869,362.869,459.111,459.111,459.111
0.00143623	-8614891.71	0,2.67813e-06,6.15399e-06,1.06652e-05,1.65201e-05,2.4119e-05,3.39814e-05,4.67814e-05,6.33941e-05,8.49551e-05,0.000112939,0.000149257,0.000196394,0.000257571,0.000336971,0.000440021,0.000573766,0.00074735,0.000972638,0.00126503,0.00164452,0.00213704,0.00277627,0.00360591,0.00468266,0.00608014,0.00789389,0.0102479,0.0133031,0.0172683,0.0224146,0.0290938,inf	0.39723,0.39723,93.0586,466.133,549.775,319.403,247.481,298.243,365.291,379.777,366.037,364.314,367.679,364.365,356.98,351.212,352.172,362.516,381.11,401.831,417.371,427.85,436.746,442.369,448.489,456.817,436.946,359.811,359.811,463.081,463.081,463.081
0.0014825	-8614337.99	0,2.67813e-06,6.15399e-06,1.06652e-05,1.65201e-05,2.4119e-05,3.39814e-05,4.67814e-05,6.33941e-05,8.49551e-05,0.000112939,0.000149257,0.000196394,0.000257571,0.000336971,0.000440021,0.000573766,0.00074735,0.000972638,0.00126503,0.00164452,0.00213704,0.00277627,0.00360591,0.00468266,0.00608014,0.00789389,0.0102479,0.0133031,0.0172683,0.0224146,0.0290938,inf	0.39723,0.39723,86.6625,478.648,559.414,313.08,242.351,297.358,367.209,380.642,365.92,364.868,369.142,366.262,358.886,352.936,353.742,363.977,382.338,402.405,416.792,426.108,434.454,440.338,447.379,456.859,436.682,356.93,356.93,466.995,466.995,466.995
0.00152663	-8613849.13	0,2.67813e-06,6.15399e-06,1.06652e-05,1.65201e-05,2.4119e-05,3.39814e-05,4.67814e-05,6.33941e-05,8.49551e-05,0.000112939,0.000149257,0.000196394,0.000257571,0.000336971,0.000440021,0.000573766,0.00074735,0.000972638,0.00126503,0.00164452,0.00213704,0.00277627,0.00360591,0.00468266,0.00608014,0.00789389,0.0102479,0.0133031,0.0172683,0.0224146,0.0290938,inf	0.39723,0.39723,80.863,490.99,568.044,306.887,237.832,297.041,369.465,381.613,365.858,365.42,370.533,368.044,360.664,354.543,355.221,365.377,383.53,402.972,416.249,424.445,432.252,438.372,446.276,456.836,436.367,354.212,354.212,470.863,470.863,470.863
0.00156876	-8613415.65	0,2.67813e-06,6.15399e-06,1.06652e-05,1.65201e-05,2.4119e-05,3.39814e-05,4.67814e-05,6.33941e-05,8.49551e-05,0.000112939,0.000149257,0.000196394,0.000257571,0.000336971,0.000440021,0.000573766,0.00074735,0.000972638,0.00126503,0.00164452,0.00213704,0.00277627,0.00360591,0.00468266,0.00608014,0.00789389,0.0102479,0.0133031,0.0172683,0.0224146,0.0290938,inf	0.39723,0.39723,75.6083,503.141,575.647,300.82,233.825,297.208,372.004,382.67,365.85,365.981,371.868,369.725,362.323,356.039,356.609,366.709,384.68,403.528,415.739,422.861,430.145,436.478,445.194,456.767,436.015,351.642,351.642,474.69,474.69,474.69
0.00160902	-8613029.76	0,2.67813e-06,6.15399e-06,1.06652e-05,1.65201e-05,2.4119e-05,3.39814e-05,4.67814e-05,6.33941e-05,8.49551e-05,0.000112939,0.000149257,0.000196394,0.000257571,0.000336971,0.000440021,0.000573766,0.00074735,0.000972638,0.00126503,0.00164452,0.00213704,0.00277627,0.00360591,0.00468266,0.00608014,0.00789389,0.0102479,0.0133031,0.0172683,0.0224146,0.0290938,inf	0.39723,0.39723,70.8136,515.034,582.235,294.859,230.265,297.781,374.774,383.795,365.893,366.559,373.159,371.319,363.874,357.429,357.907,367.973,385.786,404.071,415.26,421.352,428.131,434.662,444.144,456.666,435.635,349.207,349.207,478.481,478.481,478.481
0.00164753	-8612685.00	0,2.67813e-06,6.15399e-06,1.06652e-05,1.65201e-05,2.4119e-05,3.39814e-05,4.67814e-05,6.33941e-05,8.49551e-05,0.000112939,0.000149257,0.000196394,0.000257571,0.000336971,0.000440021,0.000573766,0.00074735,0.000972638,0.00126503,0.00164452,0.00213704,0.00277627,0.00360591,0.00468266,0.00608014,0.00789389,0.0102479,0.0133031,0.0172683,0.0224146,0.0290938,inf	0.39723,0.39723,66.4387,526.692,587.87,289.019,227.08,298.704,377.725,384.968,365.983,367.153,374.417,372.837,365.326,358.72,359.119,369.17,386.848,404.599,414.809,419.915,426.211,432.926,443.13,456.543,435.237,346.895,346.895,482.24,482.24,482.24
0.00168438	-8612375.95	0,2.67813e-06,6.15399e-06,1.06652e-05,1.65201e-05,2.4119e-05,3.39814e-05,4.67814e-05,6.33941e-05,8.49551e-05,0.000112939,0.000149257,0.000196394,0.000257571,0.000336971,0.000440021,0.000573766,0.00074735,0.000972638,0.00126503,0.00164452,0.00213704,0.00277627,0.00360591,0.00468266,0.00608014,0.00789389,0.0102479,0.0133031,0.0172683,0.0224146,0.0290938,inf	0.39723,0.39723,62.4453,538.134,592.578,283.297,224.21,299.916,380.813,386.169,366.111,367.766,375.645,374.286,366.689,359.919,360.25,370.301,387.864,405.11,414.383,418.547,424.381,431.268,442.156,456.406,434.827,344.696,344.696,485.969,485.969,485.969
0.00171968	-8612098.08	0,2.67813e-06,6.15399e-06,1.06652e-05,1.65201e-05,2.4119e-05,3.39814e-05,4.67814e-05,6.33941e-05,8.49551e-05,0.000112939,0.000149257,0.000196394,0.000257571,0.000336971,0.000440021,0.000573766,0.00074735,0.000972638,0.00126503,0.00164452,0.00213704,0.00277627,0.00360591,0.00468266,0.00608014,0.00789389,0.0102479,0.0133031,0.0172683,0.0224146,0.0290938,inf	0.39723,0.39723,58.7914,549.388,596.415,277.676,221.631,301.369,384.007,387.379,366.272,368.396,376.851,375.675,367.971,361.032,361.303,371.37,388.838,405.605,413.98,417.244,422.636,429.687,441.224,456.262,434.408,342.6,342.6,489.674,489.674,489.674
0.00175352	-8611847.53	0,2.67813e-06,6.15399e-06,1.06652e-05,1.65201e-05,2.4119e-05,3.39814e-05,4.67814e-05,6.33941e-05,8.49551e-05,0.000112939,0.000149257,0.000196394,0.000257571,0.000336971,0.000440021,0.000573766,0.00074735,0.000972638,0.00126503,0.00164452,0.00213704,0.00277627,0.00360591,0.00468266,0.00608014,0.00789389,0.0102479,0.0133031,0.0172683,0.0224146,0.0290938,inf	0.39723,0.39723,55.4354,560.486,599.442,272.166,219.284,303.035,387.278,388.585,366.457,369.042,378.035,377.01,369.178,362.067,362.285,372.38,389.769,406.083,413.598,416.001,420.972,428.181,440.334,456.113,433.985,340.598,340.598,493.355,493.355,493.355
