time_index	left_time_boundary	right_time_boundary	lambda
0	0	1.04491e-05	300.419
1	1.04491e-05	2.7377e-05	300.419
2	2.7377e-05	5.48007e-05	378.164
3	5.48007e-05	9.92279e-05	407.349
4	9.92279e-05	0.000171201	341.428
5	0.000171201	0.000287801	382.064
6	0.000287801	0.000476695	372.673
7	0.000476695	0.000782711	360.458
8	0.000782711	0.00127847	382.313
9	0.00127847	0.0020816	412.772
10	0.0020816	0.00338271	434.361
11	0.00338271	0.00549055	394.143
12	0.00549055	0.00890531	417.522
13	0.00890531	0.0144373	297.223
14	0.0144373	0.0233994	297.223
15	0.0233994	inf	297.223
