0.000233069	-134814.29	0,1.57021e-05,3.40697e-05,5.55552e-05,8.06878e-05,0.000110087,0.000144476,0.000184703,0.000231758,0.000286802,0.000351188,0.000426505,0.000514606,0.000617662,0.000738213,0.000879226,0.00104418,0.00123713,0.00146283,0.00172685,0.00203569,0.00239695,0.00281953,0.00331385,0.00389207,0.00456845,0.00535965,0.00628515,0.00736776,0.00863414,0.0101155,0.0118483,inf	367.559,367.559,207.719,254.742,315.37,378.278,443.162,512.632,591.628,686.517,804.95,954.254,1131.92,1314.5,1466.33,1564.21,1599.54,1580.37,1532.68,1475.73,1419.21,1369.55,1329.8,1298.06,1270.49,1246.35,1228.3,1218.19,1218.19,1223.91,1223.91,1223.91
0.000240628	-134564.92	0,1.57021e-05,3.40697e-05,5.55552e-05,8.06878e-05,0.000110087,0.000144476,0.000184703,0.000231758,0.000286802,0.000351188,0.000426505,0.000514606,0.000617662,0.000738213,0.000879226,0.00104418,0.00123713,0.00146283,0.00172685,0.00203569,0.00239695,0.00281953,0.00331385,0.00389207,0.00456845,0.00535965,0.00628515,0.00736776,0.00863414,0.0101155,0.0118483,inf	347.262,347.262,90.3593,113.553,157.79,209.604,267.185,332.266,411.192,513.906,653.311,844.672,1094.92,1383.56,1661.48,1878.8,1995.39,2001.86,1938.84,1844.21,1741.29,1648.86,1576.31,1518.94,1467.13,1419.63,1384.34,1367.86,1367.86,1390.23,1390.23,1390.23
0.00024843	-134475.40	0,1.57021e-05,3.40697e-05,5.55552e-05,8.06878e-05,0.000110087,0.000144476,0.000184703,0.000231758,0.000286802,0.000351188,0.000426505,0.000514606,0.000617662,0.000738213,0.000879226,0.00104418,0.00123713,0.00146283,0.00172685,0.00203569,0.00239695,0.00281953,0.00331385,0.00389207,0.00456845,0.00535965,0.00628515,0.00736776,0.00863414,0.0101155,0.0118483,inf	398.826,398.826,58.2385,72.2189,107.309,150.997,200.386,256.223,325.782,421.742,560.678,763.193,1044.13,1390.74,1754.72,2073.69,2279.46,2335.86,2284.78,2173.7,2038.43,1914.19,1819.42,1745.49,1674.54,1605.15,1553.31,1533.95,1533.95,1585.73,1585.73,1585.73
0.000255645	-134435.51	0,1.57021e-05,3.40697e-05,5.55552e-05,8.06878e-05,0.000110087,0.000144476,0.000184703,0.000231758,0.000286802,0.000351188,0.000426505,0.000514606,0.000617662,0.000738213,0.000879226,0.00104418,0.00123713,0.00146283,0.00172685,0.00203569,0.00239695,0.00281953,0.00331385,0.00389207,0.00456845,0.00535965,0.00628515,0.00736776,0.00863414,0.0101155,0.0118483,inf	454.805,454.805,44.291,55.1092,86.914,127.715,172.72,221.281,281.504,368.415,501.255,704.228,997.917,1376.78,1797.87,2195.88,2483.09,2597.98,2576.34,2466.1,2311.84,2167.49,2062.56,1982.85,1899.06,1809.35,1741.35,1722.75,1722.75,1823.54,1823.54,1823.54
0.000262214	-134414.95	0,1.57021e-05,3.40697e-05,5.55552e-05,8.06878e-05,0.000110087,0.000144476,0.000184703,0.000231758,0.000286802,0.000351188,0.000426505,0.000514606,0.000617662,0.000738213,0.000879226,0.00104418,0.00123713,0.00146283,0.00172685,0.00203569,0.00239695,0.00281953,0.00331385,0.00389207,0.00456845,0.00535965,0.00628515,0.00736776,0.00863414,0.0101155,0.0118483,inf	496.5,496.5,35.9546,46.0514,77.6647,119.004,162.518,205.737,257.815,336.041,461.593,661.106,959.292,1356.43,1815.81,2274.06,2631.25,2805.15,2823.15,2726.83,2565.32,2412.43,2310.31,2237.36,2148.46,2040.16,1956.22,1943.07,1943.07,2128.71,2128.71,2128.71
0.000268225	-134403.09	0,1.57021e-05,3.40697e-05,5.55552e-05,8.06878e-05,0.000110087,0.000144476,0.000184703,0.000231758,0.000286802,0.000351188,0.000426505,0.000514606,0.000617662,0.000738213,0.000879226,0.00104418,0.00123713,0.00146283,0.00172685,0.00203569,0.00239695,0.00281953,0.00331385,0.00389207,0.00456845,0.00535965,0.00628515,0.00736776,0.00863414,0.0101155,0.0118483,inf	521.545,521.545,29.9558,40.3198,73.3339,117.391,161.34,200.477,245.416,315.801,434.233,628.94,927.615,1335.09,1820.57,2324.82,2740.88,2970.84,3034.02,2961.48,2803.05,2653.05,2567.94,2516.81,2432.8,2308.26,2208.66,2208.41,2208.41,2553.83,2553.83,2553.83
0.000273777	-134395.60	0,1.57021e-05,3.40697e-05,5.55552e-05,8.06878e-05,0.000110087,0.000144476,0.000184703,0.000231758,0.000286802,0.000351188,0.000426505,0.000514606,0.000617662,0.000738213,0.000879226,0.00104418,0.00123713,0.00146283,0.00172685,0.00203569,0.00239695,0.00281953,0.00331385,0.00389207,0.00456845,0.00535965,0.00628515,0.00736776,0.00863414,0.0101155,0.0118483,inf	533.648,533.648,25.2101,36.1465,71.3239,119.537,165.238,201.058,239.57,302.944,414.823,604.432,901.612,1314.74,1818.24,2357.91,2823.21,3104.94,3216.03,3174.91,3028.91,2893.45,2841.48,2831.35,2766.34,2629.59,2515.47,2541.96,2541.96,3246.83,3246.83,3246.83
0.000278958	-134390.50	0,1.57021e-05,3.40697e-05,5.55552e-05,8.06878e-05,0.000110087,0.000144476,0.000184703,0.000231758,0.000286802,0.000351188,0.000426505,0.000514606,0.000617662,0.000738213,0.000879226,0.00104418,0.00123713,0.00146283,0.00172685,0.00203569,0.00239695,0.00281953,0.00331385,0.00389207,0.00456845,0.00535965,0.00628515,0.00736776,0.00863414,0.0101155,0.0118483,inf	537.209,537.209,21.2711,32.755,70.3546,123.653,172.053,205.065,237.659,294.743,400.721,585.38,880.103,1296.03,1812.1,2379.28,2885.75,3214.65,3374.7,3371.07,3246.32,3137.75,3138.26,3195.33,3171.46,3029.86,2904.5,2988.25,2988.25,4861.36,4861.36,4861.36
0.000283834	-134386.79	0,1.57021e-05,3.40697e-05,5.55552e-05,8.06878e-05,0.000110087,0.000144476,0.000184703,0.000231758,0.000286802,0.000351188,0.000426505,0.000514606,0.000617662,0.000738213,0.000879226,0.00104418,0.00123713,0.00146283,0.00172685,0.00203569,0.00239695,0.00281953,0.00331385,0.00389207,0.00456845,0.00535965,0.00628515,0.00736776,0.00863414,0.0101155,0.0118483,inf	535.647,535.647,17.927,29.7685,69.7124,128.645,180.473,211.055,238.143,289.559,390.267,570.304,862.144,1279.1,1803.95,2392.67,2933.65,3305.24,3514.25,3553.14,3458.26,3390.21,3467.55,3630.49,3686.25,3556.85,3431.85,3649.55,3649.55,16295.5,16295.5,16295.5
0.000288456	-134383.98	0,1.57021e-05,3.40697e-05,5.55552e-05,8.06878e-05,0.000110087,0.000144476,0.000184703,0.000231758,0.000286802,0.000351188,0.000426505,0.000514606,0.000617662,0.000738213,0.000879226,0.00104418,0.00123713,0.00146283,0.00172685,0.00203569,0.00239695,0.00281953,0.00331385,0.00389207,0.00456845,0.00535965,0.00628515,0.00736776,0.00863414,0.0101155,0.0118483,inf	531.296,531.296,15.0651,27.0223,69.0124,133.833,189.64,218.136,240.083,286.377,382.391,558.191,847.015,1263.87,1794.84,2400.53,2970.51,3380.62,3637.95,3723.66,3667.35,3655.47,3841.95,4172.69,4384.69,4311.3,4227.61,4854.61,4854.61,95089.7,95089.7,95089.7
0.000292864	-134381.74	0,1.57021e-05,3.40697e-05,5.55552e-05,8.06878e-05,0.000110087,0.000144476,0.000184703,0.000231758,0.000286802,0.000351188,0.000426505,0.000514606,0.000617662,0.000738213,0.000879226,0.00104418,0.00123713,0.00146283,0.00172685,0.00203569,0.00239695,0.00281953,0.00331385,0.00389207,0.00456845,0.00535965,0.00628515,0.00736776,0.00863414,0.0101155,0.0118483,inf	525.645,525.645,12.6145,24.4392,68.0489,138.762,198.986,225.737,242.895,284.548,376.382,548.338,834.169,1250.23,1785.38,2404.51,2998.92,3443.71,3748.37,3884.67,3875.97,3938.74,4279.62,4887.95,5440.57,5575.64,5725.13,8480.06,8480.06,34981.6,34981.6,34981.6
0.000297088	-134379.92	0,1.57021e-05,3.40697e-05,5.55552e-05,8.06878e-05,0.000110087,0.000144476,0.000184703,0.000231758,0.000286802,0.000351188,0.000426505,0.000514606,0.000617662,0.000738213,0.000879226,0.00104418,0.00123713,0.00146283,0.00172685,0.00203569,0.00239695,0.00281953,0.00331385,0.00389207,0.00456845,0.00535965,0.00628515,0.00736776,0.00863414,0.0101155,0.0118483,inf	519.59,519.59,10.5245,22.0161,66.7516,143.168,208.14,233.489,246.208,283.656,371.763,540.247,823.191,1238,1775.93,2405.73,3020.75,3496.77,3847.51,4037.81,4086.34,4246.29,4808.49,5918.26,7414.29,8627.53,10812.4,86513.6,86513.6,34981.6,34981.6,34981.6
0.00030115	-134378.40	0,1.57021e-05,3.40697e-05,5.55552e-05,8.06878e-05,0.000110087,0.000144476,0.000184703,0.000231758,0.000286802,0.000351188,0.000426505,0.000514606,0.000617662,0.000738213,0.000879226,0.00104418,0.00123713,0.00146283,0.00172685,0.00203569,0.00239695,0.00281953,0.00331385,0.00389207,0.00456845,0.00535965,0.00628515,0.00736776,0.00863414,0.0101155,0.0118483,inf	513.642,513.642,8.75513,19.7459,65.1106,146.914,216.874,241.168,249.792,283.422,368.201,533.555,813.757,1227.05,1766.73,2404.98,3037.42,3541.55,3936.99,4184.43,4300.57,4585.91,5475.65,7658.24,13809.9,28717.1,128103,31826.6,31826.6,95089.7,95089.7,95089.7
0.000305069	-134377.10	0,1.57021e-05,3.40697e-05,5.55552e-05,8.06878e-05,0.000110087,0.000144476,0.000184703,0.000231758,0.000286802,0.000351188,0.000426505,0.000514606,0.000617662,0.000738213,0.000879226,0.00104418,0.00123713,0.00146283,0.00172685,0.00203569,0.00239695,0.00281953,0.00331385,0.00389207,0.00456845,0.00535965,0.00628515,0.00736776,0.00863414,0.0101155,0.0118483,inf	508.053,508.053,7.26484,17.6399,63.1679,149.939,225.051,248.637,253.499,283.661,365.459,527.991,805.616,1217.23,1757.87,2402.82,3049.97,3579.41,4018.1,4325.65,4520.78,4967.83,6369.57,11914.2,121968,559837,25401.3,17154.6,17154.6,27625.9,27625.9,27625.9
0.000308859	-134375.98	0,1.57021e-05,3.40697e-05,5.55552e-05,8.06878e-05,0.000110087,0.000144476,0.000184703,0.000231758,0.000286802,0.000351188,0.000426505,0.000514606,0.000617662,0.000738213,0.000879226,0.00104418,0.00123713,0.00146283,0.00172685,0.00203569,0.00239695,0.00281953,0.00331385,0.00389207,0.00456845,0.00535965,0.00628515,0.00736776,0.00863414,0.0101155,0.0118483,inf	502.945,502.945,6.01363,15.6958,60.983,152.254,232.61,255.815,257.236,284.245,363.366,523.352,798.566,1208.41,1749.43,2399.64,3059.21,3611.45,4091.9,4462.38,4749.14,5406.06,7687.71,40507.3,384954,4364.68,13691.4,9246.4,9246.4,14890.4,14890.4,14890.4
0.000312533	-134374.99	0,1.57021e-05,3.40697e-05,5.55552e-05,8.06878e-05,0.000110087,0.000144476,0.000184703,0.000231758,0.000286802,0.000351188,0.000426505,0.000514606,0.000617662,0.000738213,0.000879226,0.00104418,0.00123713,0.00146283,0.00172685,0.00203569,0.00239695,0.00281953,0.00331385,0.00389207,0.00456845,0.00535965,0.00628515,0.00736776,0.00863414,0.0101155,0.0118483,inf	498.353,498.353,4.97102,13.9265,58.6134,153.885,239.534,262.658,260.946,285.082,361.792,519.476,792.442,1200.48,1741.43,2395.74,3065.77,3638.55,4159.29,4595.41,4987.98,5920.99,10022.4,779967,3001.23,2352.58,7379.68,17154.6,17154.6,40476.4,40476.4,40476.4
0.000316099	-134374.11	0,1.57021e-05,3.40697e-05,5.55552e-05,8.06878e-05,0.000110087,0.000144476,0.000184703,0.000231758,0.000286802,0.000351188,0.000426505,0.000514606,0.000617662,0.000738213,0.000879226,0.00104418,0.00123713,0.00146283,0.00172685,0.00203569,0.00239695,0.00281953,0.00331385,0.00389207,0.00456845,0.00535965,0.00628515,0.00736776,0.00863414,0.0101155,0.0118483,inf	494.242,494.242,4.10461,12.323,56.1275,154.912,245.824,269.152,264.592,286.108,360.641,516.24,787.11,1193.33,1733.87,2391.32,3070.14,3661.43,4220.99,4725.41,5239.88,6544.03,16609.6,1.22376e+06,23.3986,18.3415,57.5345,133.743,133.743,315.567,315.567,315.567
