AIC = 1315127.6320497787092

y0 0.18423049720180181832
y0_prime 0
y1 0.44362755600222736341
y1_prime 0
y2 2.0180868918093302078
y2_prime 0
y3 19.77653655718524206
y3_prime 0
rho 0.00050635687615777655399
rho.alpha 0.72059827169056889229
r_ii 0.99994187679725210494
theta 0.0018101303255032424877
