LogLikelihood = -177185.98899907513987

y0 0.71674245722658713742
y0_prime 0
y1 1.068362823470769829
y1_prime 0
y2 0.98887835310020133495
y2_prime 0
y3 1.9959051924452309024
y3_prime 0
rho 0.00085237101561098298046
theta 0.0026191346163175338591
