time_index	left_time_boundary	right_time_boundary	lambda
0	0	6.44948e-07	1.09372
1	6.44948e-07	1.4945e-06	1.09372
2	1.4945e-06	2.61358e-06	224.265
3	2.61358e-06	4.08768e-06	265.679
4	4.08768e-06	6.02944e-06	54.0437
5	6.02944e-06	8.58723e-06	17.4226
6	8.58723e-06	1.19565e-05	26.972
7	1.19565e-05	1.63946e-05	91.9835
8	1.63946e-05	2.22407e-05	234.099
9	2.22407e-05	2.99415e-05	336.432
10	2.99415e-05	4.00853e-05	317.965
11	4.00853e-05	5.34472e-05	222.775
12	5.34472e-05	7.10482e-05	120.931
13	7.10482e-05	9.42332e-05	54.9511
14	9.42332e-05	0.000124773	23.7962
15	0.000124773	0.000165003	12.0758
16	0.000165003	0.000217994	9.84459
17	0.000217994	0.000287798	16.1195
18	0.000287798	0.000379746	46.2187
19	0.000379746	0.000500865	168.843
20	0.000500865	0.000660409	602.009
21	0.000660409	0.000870567	2001.09
22	0.000870567	0.0011474	4329.65
23	0.0011474	0.00151205	5046.58
24	0.00151205	0.0019924	5284.29
25	0.0019924	0.00262513	3837.35
26	0.00262513	0.00345859	2537.56
27	0.00345859	0.00455647	1899.64
28	0.00455647	0.00600264	1899.64
29	0.00600264	0.00790762	1377.74
30	0.00790762	0.0104169	1377.74
31	0.0104169	inf	1377.74
