time_index	left_time_boundary	right_time_boundary	lambda
0	0	2.09613e-06	296.408
1	2.09613e-06	5.73322e-06	296.408
2	5.73322e-06	1.20441e-05	8.85859
3	1.20441e-05	2.29944e-05	351.838
4	2.29944e-05	4.19947e-05	802.467
5	4.19947e-05	7.49629e-05	609.149
6	7.49629e-05	0.000132168	536.215
7	0.000132168	0.000231426	742.809
8	0.000231426	0.000403653	714.039
9	0.000403653	0.000702493	703.978
10	0.000702493	0.00122102	675.619
11	0.00122102	0.00212075	1118.07
12	0.00212075	0.00368189	1247.5
13	0.00368189	0.00639071	97485.1
14	0.00639071	0.0110909	97485.1
15	0.0110909	inf	97485.1
