0.00972471	-13629471.23	0,1.73582e-06,4.02233e-06,7.03423e-06,1.10017e-05,1.62277e-05,2.31118e-05,3.21798e-05,4.41246e-05,5.98589e-05,8.05849e-05,0.000107886,0.000143849,0.00019122,0.000253621,0.000335817,0.00044409,0.000586713,0.000774583,0.00102205,0.00134804,0.00177743,0.00234306,0.00308813,0.00406957,0.00536237,0.0070653,0.0093085,0.0122633,0.0161556,0.0212827,0.0280363,inf	428.213,428.213,613.286,646.417,647.312,652.739,638.301,600.023,555.83,513.081,475.699,446.717,426.108,412.283,403.558,398.481,395.849,394.779,394.693,395.238,396.184,397.344,398.551,399.657,400.567,401.282,401.911,402.958,402.958,405.635,405.635,405.635
0.00961576	-13627418.16	0,1.73582e-06,4.02233e-06,7.03423e-06,1.10017e-05,1.62277e-05,2.31118e-05,3.21798e-05,4.41246e-05,5.98589e-05,8.05849e-05,0.000107886,0.000143849,0.00019122,0.000253621,0.000335817,0.00044409,0.000586713,0.000774583,0.00102205,0.00134804,0.00177743,0.00234306,0.00308813,0.00406957,0.00536237,0.0070653,0.0093085,0.0122633,0.0161556,0.0212827,0.0280363,inf	330.985,330.985,652.83,723.308,745.662,786.676,788.29,736.087,666.274,594.566,529.91,479.215,442.927,418.394,402.756,393.525,388.621,386.499,386.153,386.968,388.531,390.507,392.586,394.493,396.054,397.276,398.369,400.292,400.292,405.465,405.465,405.465
0.0095177	-13626174.94	0,1.73582e-06,4.02233e-06,7.03423e-06,1.10017e-05,1.62277e-05,2.31118e-05,3.21798e-05,4.41246e-05,5.98589e-05,8.05849e-05,0.000107886,0.000143849,0.00019122,0.000253621,0.000335817,0.00044409,0.000586713,0.000774583,0.00102205,0.00134804,0.00177743,0.00234306,0.00308813,0.00406957,0.00536237,0.0070653,0.0093085,0.0122633,0.0161556,0.0212827,0.0280363,inf	246.262,246.262,630.22,711.667,749.789,830.962,865.155,819.744,742.462,655.388,572.661,506.147,457.845,424.799,403.48,390.707,383.755,380.574,379.829,380.702,382.639,385.176,387.877,390.355,392.368,393.937,395.367,398.033,398.033,405.566,405.566,405.566
0.00942777	-13625346.18	0,1.73582e-06,4.02233e-06,7.03423e-06,1.10017e-05,1.62277e-05,2.31118e-05,3.21798e-05,4.41246e-05,5.98589e-05,8.05849e-05,0.000107886,0.000143849,0.00019122,0.000253621,0.000335817,0.00044409,0.000586713,0.000774583,0.00102205,0.00134804,0.00177743,0.00234306,0.00308813,0.00406957,0.00536237,0.0070653,0.0093085,0.0122633,0.0161556,0.0212827,0.0280363,inf	191.412,191.412,604.109,673.393,712.934,824.024,892.34,864.297,791.881,699.981,606.583,528.908,471.389,431.457,405.356,389.489,380.657,376.416,375.173,375.953,378.087,380.999,384.137,387.014,389.331,391.123,392.792,396.098,396.098,405.887,405.887,405.887
0.00934404	-13624747.67	0,1.73582e-06,4.02233e-06,7.03423e-06,1.10017e-05,1.62277e-05,2.31118e-05,3.21798e-05,4.41246e-05,5.98589e-05,8.05849e-05,0.000107886,0.000143849,0.00019122,0.000253621,0.000335817,0.00044409,0.000586713,0.000774583,0.00102205,0.00134804,0.00177743,0.00234306,0.00308813,0.00406957,0.00536237,0.0070653,0.0093085,0.0122633,0.0161556,0.0212827,0.0280363,inf	157.092,157.092,591.513,636.023,665.436,793.653,890.164,882.167,821.308,731.821,633.387,548.224,483.705,438.173,408.005,389.408,378.844,373.563,371.765,372.35,374.557,377.71,381.15,384.299,386.804,388.725,390.556,394.421,394.421,406.388,406.388,406.388
0.00926511	-13624285.56	0,1.73582e-06,4.02233e-06,7.03423e-06,1.10017e-05,1.62277e-05,2.31118e-05,3.21798e-05,4.41246e-05,5.98589e-05,8.05849e-05,0.000107886,0.000143849,0.00019122,0.000253621,0.000335817,0.00044409,0.000586713,0.000774583,0.00102205,0.00134804,0.00177743,0.00234306,0.00308813,0.00406957,0.00536237,0.0070653,0.0093085,0.0122633,0.0161556,0.0212827,0.0280363,inf	134.394,134.394,593.302,608.001,620.595,755.681,872.51,882.821,836.157,753.602,654.269,564.517,494.802,444.735,411.103,390.095,377.948,371.666,369.286,369.614,371.809,375.108,378.753,382.076,384.684,386.66,388.593,392.953,392.953,407.039,407.039,407.039
0.00918993	-13623908.41	0,1.73582e-06,4.02233e-06,7.03423e-06,1.10017e-05,1.62277e-05,2.31118e-05,3.21798e-05,4.41246e-05,5.98589e-05,8.05849e-05,0.000107886,0.000143849,0.00019122,0.000253621,0.000335817,0.00044409,0.000586713,0.000774583,0.00102205,0.00134804,0.00177743,0.00234306,0.00308813,0.00406957,0.00536237,0.0070653,0.0093085,0.0122633,0.0161556,0.0212827,0.0280363,inf	117.79,117.79,605.806,590.043,582.86,718.083,848.07,873.038,840.606,767.466,670.163,578.085,504.665,450.969,414.401,391.276,377.692,370.465,367.502,367.536,369.665,373.043,376.822,380.249,382.892,384.865,386.851,391.656,391.656,407.816,407.816,407.816
0.00911775	-13623586.37	0,1.73582e-06,4.02233e-06,7.03423e-06,1.10017e-05,1.62277e-05,2.31118e-05,3.21798e-05,4.41246e-05,5.98589e-05,8.05849e-05,0.000107886,0.000143849,0.00019122,0.000253621,0.000335817,0.00044409,0.000586713,0.000774583,0.00102205,0.00134804,0.00177743,0.00234306,0.00308813,0.00406957,0.00536237,0.0070653,0.0093085,0.0122633,0.0161556,0.0212827,0.0280363,inf	104.285,104.285,624.846,580.418,552.84,684.33,821.871,857.389,837.839,775.167,681.856,589.199,513.304,456.76,417.722,392.751,377.875,369.769,366.24,365.964,367.99,371.403,375.263,378.739,381.366,383.291,385.293,390.501,390.501,408.701,408.701,408.701
0.00904799	-13623301.33	0,1.73582e-06,4.02233e-06,7.03423e-06,1.10017e-05,1.62277e-05,2.31118e-05,3.21798e-05,4.41246e-05,5.98589e-05,8.05849e-05,0.000107886,0.000143849,0.00019122,0.000253621,0.000335817,0.00044409,0.000586713,0.000774583,0.00102205,0.00134804,0.00177743,0.00234306,0.00308813,0.00406957,0.00536237,0.0070653,0.0093085,0.0122633,0.0161556,0.0212827,0.0280363,inf	92.3914,92.3914,646.845,576.978,529.68,655.538,796.671,838.925,830.227,778.128,690.045,598.122,520.757,462.034,420.945,394.377,378.353,369.44,365.37,364.781,366.685,370.101,374.005,377.491,380.061,381.9,383.886,389.464,389.464,409.68,409.68,409.68
0.0089802	-13623041.88	0,1.73582e-06,4.02233e-06,7.03423e-06,1.10017e-05,1.62277e-05,2.31118e-05,3.21798e-05,4.41246e-05,5.98589e-05,8.05849e-05,0.000107886,0.000143849,0.00019122,0.000253621,0.000335817,0.00044409,0.000586713,0.000774583,0.00102205,0.00134804,0.00177743,0.00234306,0.00308813,0.00406957,0.00536237,0.0070653,0.0093085,0.0122633,0.0161556,0.0212827,0.0280363,inf	81.5059,81.5059,669.025,577.835,512.167,631.76,773.835,819.59,819.527,777.508,695.333,605.107,527.089,466.762,423.991,396.055,379.019,369.375,364.798,363.903,365.674,369.072,372.993,376.457,378.938,380.663,382.608,388.527,388.527,410.742,410.742,410.742
0.00891405	-13622800.58	0,1.73582e-06,4.02233e-06,7.03423e-06,1.10017e-05,1.62277e-05,2.31118e-05,3.21798e-05,4.41246e-05,5.98589e-05,8.05849e-05,0.000107886,0.000143849,0.00019122,0.000253621,0.000335817,0.00044409,0.000586713,0.000774583,0.00102205,0.00134804,0.00177743,0.00234306,0.00308813,0.00406957,0.00536237,0.0070653,0.0093085,0.0122633,0.0161556,0.0212827,0.0280363,inf	71.3981,71.3981,689.443,581.448,499.166,612.502,753.919,800.595,806.992,774.234,698.254,610.401,532.381,470.94,426.814,397.719,379.799,369.498,364.451,363.263,364.899,368.267,372.184,375.603,377.97,379.556,381.438,387.676,387.676,411.878,411.878,411.878
0.00884927	-13622572.42	0,1.73582e-06,4.02233e-06,7.03423e-06,1.10017e-05,1.62277e-05,2.31118e-05,3.21798e-05,4.41246e-05,5.98589e-05,8.05849e-05,0.000107886,0.000143849,0.00019122,0.000253621,0.000335817,0.00044409,0.000586713,0.000774583,0.00102205,0.00134804,0.00177743,0.00234306,0.00308813,0.00406957,0.00536237,0.0070653,0.0093085,0.0122633,0.0161556,0.0212827,0.0280363,inf	62.0687,62.0687,706.929,586.641,489.558,597.187,737.027,782.615,793.529,769.048,699.263,614.237,536.725,474.581,429.388,399.322,380.641,369.755,364.277,362.813,364.314,367.644,371.545,374.9,377.134,378.561,380.362,386.899,386.899,413.081,413.081,413.081
0.00878567	-13622353.96	0,1.73582e-06,4.02233e-06,7.03423e-06,1.10017e-05,1.62277e-05,2.31118e-05,3.21798e-05,4.41246e-05,5.98589e-05,8.05849e-05,0.000107886,0.000143849,0.00019122,0.000253621,0.000335817,0.00044409,0.000586713,0.000774583,0.00102205,0.00134804,0.00177743,0.00234306,0.00308813,0.00406957,0.00536237,0.0070653,0.0093085,0.0122633,0.0161556,0.0212827,0.0280363,inf	53.5797,53.5797,720.86,592.55,482.539,585.123,723.025,766.041,779.765,762.525,698.749,616.825,540.216,477.712,431.703,400.836,381.504,370.104,364.235,362.513,363.885,367.174,371.049,374.326,376.409,377.66,379.366,386.185,386.185,414.345,414.345,414.345
0.00872307	-13622142.77	0,1.73582e-06,4.02233e-06,7.03423e-06,1.10017e-05,1.62277e-05,2.31118e-05,3.21798e-05,4.41246e-05,5.98589e-05,8.05849e-05,0.000107886,0.000143849,0.00019122,0.000253621,0.000335817,0.00044409,0.000586713,0.000774583,0.00102205,0.00134804,0.00177743,0.00234306,0.00308813,0.00406957,0.00536237,0.0070653,0.0093085,0.0122633,0.0161556,0.0212827,0.0280363,inf	45.9558,45.9558,731.059,598.561,477.432,575.7,711.653,751.022,766.122,755.111,697.036,618.354,542.944,480.365,433.756,402.243,382.363,370.515,364.294,362.334,363.585,366.832,370.674,373.863,375.781,376.844,378.44,385.528,385.528,415.666,415.666,415.666
0.00866136	-13621937.09	0,1.73582e-06,4.02233e-06,7.03423e-06,1.10017e-05,1.62277e-05,2.31118e-05,3.21798e-05,4.41246e-05,5.98589e-05,8.05849e-05,0.000107886,0.000143849,0.00019122,0.000253621,0.000335817,0.00044409,0.000586713,0.000774583,0.00102205,0.00134804,0.00177743,0.00234306,0.00308813,0.00406957,0.00536237,0.0070653,0.0093085,0.0122633,0.0161556,0.0212827,0.0280363,inf	39.1643,39.1643,737.704,604.219,473.661,568.369,702.581,737.586,752.869,747.144,694.392,618.99,544.996,482.576,435.557,403.532,383.199,370.965,364.43,362.253,363.391,366.597,370.403,373.495,375.238,376.099,377.576,384.92,384.92,417.039,417.039,417.039
0.00860041	-13621735.64	0,1.73582e-06,4.02233e-06,7.03423e-06,1.10017e-05,1.62277e-05,2.31118e-05,3.21798e-05,4.41246e-05,5.98589e-05,8.05849e-05,0.000107886,0.000143849,0.00019122,0.000253621,0.000335817,0.00044409,0.000586713,0.000774583,0.00102205,0.00134804,0.00177743,0.00234306,0.00308813,0.00406957,0.00536237,0.0070653,0.0093085,0.0122633,0.0161556,0.0212827,0.0280363,inf	33.1726,33.1726,741.135,609.239,470.798,562.655,695.498,725.668,740.18,738.88,691.038,618.884,546.455,484.382,437.114,404.698,383.998,371.436,364.625,362.25,363.286,366.454,370.221,373.211,374.769,375.419,376.767,384.356,384.356,418.463,418.463,418.463
0.00854015	-13621537.47	0,1.73582e-06,4.02233e-06,7.03423e-06,1.10017e-05,1.62277e-05,2.31118e-05,3.21798e-05,4.41246e-05,5.98589e-05,8.05849e-05,0.000107886,0.000143849,0.00019122,0.000253621,0.000335817,0.00044409,0.000586713,0.000774583,0.00102205,0.00134804,0.00177743,0.00234306,0.00308813,0.00406957,0.00536237,0.0070653,0.0093085,0.0122633,0.0161556,0.0212827,0.0280363,inf	27.9381,27.9381,741.836,613.47,468.535,558.164,690.09,715.165,728.153,730.512,687.158,618.159,547.393,485.82,438.44,405.739,384.75,371.917,364.862,362.312,363.255,366.388,370.116,372.998,374.366,374.795,376.005,383.831,383.831,419.933,419.933,419.933
0.0084805	-13621341.87	0,1.73582e-06,4.02233e-06,7.03423e-06,1.10017e-05,1.62277e-05,2.31118e-05,3.21798e-05,4.41246e-05,5.98589e-05,8.05849e-05,0.000107886,0.000143849,0.00019122,0.000253621,0.000335817,0.00044409,0.000586713,0.000774583,0.00102205,0.00134804,0.00177743,0.00234306,0.00308813,0.00406957,0.00536237,0.0070653,0.0093085,0.0122633,0.0161556,0.0212827,0.0280363,inf	23.421,23.421,740.294,616.827,466.602,554.563,686.103,705.963,716.836,722.179,682.896,616.928,547.876,486.923,439.549,406.659,385.452,372.396,365.133,362.425,363.287,366.39,370.079,372.85,374.02,374.221,375.286,383.341,383.341,421.449,421.449,421.449
0.00842141	-13621148.29	0,1.73582e-06,4.02233e-06,7.03423e-06,1.10017e-05,1.62277e-05,2.31118e-05,3.21798e-05,4.41246e-05,5.98589e-05,8.05849e-05,0.000107886,0.000143849,0.00019122,0.000253621,0.000335817,0.00044409,0.000586713,0.000774583,0.00102205,0.00134804,0.00177743,0.00234306,0.00308813,0.00406957,0.00536237,0.0070653,0.0093085,0.0122633,0.0161556,0.0212827,0.0280363,inf	19.5302,19.5302,736.898,619.27,464.81,551.56,683.238,697.935,706.215,713.974,678.369,615.283,547.966,487.724,440.455,407.459,386.099,372.868,365.427,362.581,363.372,366.45,370.101,372.759,373.725,373.693,374.606,382.882,382.882,423.008,423.008,423.008
0.00836283	-13620956.31	0,1.73582e-06,4.02233e-06,7.03423e-06,1.10017e-05,1.62277e-05,2.31118e-05,3.21798e-05,4.41246e-05,5.98589e-05,8.05849e-05,0.000107886,0.000143849,0.00019122,0.000253621,0.000335817,0.00044409,0.000586713,0.000774583,0.00102205,0.00134804,0.00177743,0.00234306,0.00308813,0.00406957,0.00536237,0.0070653,0.0093085,0.0122633,0.0161556,0.0212827,0.0280363,inf	16.1996,16.1996,732.133,620.84,463.017,548.939,681.299,690.951,696.307,705.97,673.67,613.301,547.714,488.254,441.173,408.144,386.689,373.326,365.737,362.772,363.502,366.56,370.174,372.718,373.477,373.205,373.96,382.452,382.452,424.61,424.61,424.61
