time_index	left_time_boundary	right_time_boundary	lambda
0	0	1.42587e-05	1.1905
1	1.42587e-05	3.09379e-05	1.1905
2	3.09379e-05	5.04483e-05	997.134
3	5.04483e-05	7.32706e-05	203.254
4	7.32706e-05	9.9967e-05	1330.63
5	9.9967e-05	0.000131195	94.5439
6	0.000131195	0.000167724	11.1953
7	0.000167724	0.000210454	11.3484
8	0.000210454	0.000260437	172.292
9	0.000260437	0.000318905	586.55
10	0.000318905	0.000387298	444.935
11	0.000387298	0.000467301	409.403
12	0.000467301	0.000560884	503.61
13	0.000560884	0.000670352	716.893
14	0.000670352	0.000798403	1138.42
15	0.000798403	0.000948191	1823.01
16	0.000948191	0.00112341	2701.73
17	0.00112341	0.00132836	3104.07
18	0.00132836	0.00156811	2890.8
19	0.00156811	0.00184855	2898.68
20	0.00184855	0.00217661	2704.98
21	0.00217661	0.00256034	2598.92
22	0.00256034	0.00300922	3027.46
23	0.00300922	0.00353429	3657.14
24	0.00353429	0.0041485	3263.42
25	0.0041485	0.00486696	2308.67
26	0.00486696	0.00570739	1657.04
27	0.00570739	0.00669048	1251.45
28	0.00669048	0.00784044	1251.45
29	0.00784044	0.00918562	1117.32
30	0.00918562	0.0107591	1117.32
31	0.0107591	inf	1117.32
