time_index	left_time_boundary	right_time_boundary	lambda
0	0	4.63623e-05	781.744
1	4.63623e-05	0.000109801	781.744
2	0.000109801	0.000196604	148.941
3	0.000196604	0.000315379	320.478
4	0.000315379	0.0004779	436.751
5	0.0004779	0.000700279	590.442
6	0.000700279	0.00100457	911.944
7	0.00100457	0.00142092	1211.56
8	0.00142092	0.00199063	1215.18
9	0.00199063	0.00277018	980.177
10	0.00277018	0.00383684	1203.54
11	0.00383684	0.00529636	1519.55
12	0.00529636	0.00729345	5232.11
13	0.00729345	0.0100261	110123
14	0.0100261	0.0137652	110123
15	0.0137652	inf	110123
