LogLikelihood = -1441550.9665752574801

y0 0.86153845252183802739
y0_prime 0
y1 0.93348096004865066533
y1_prime 0
y2 0.84991188175302667673
y2_prime 0
y3 1.656990617307330993
y3_prime 0
rho 0.0030129672764151378163
rho.alpha 1.3848845933147033715
r_ii 0.99976961454704837973
theta 0.0047099008260346984789
