time_index	left_time_boundary	right_time_boundary	lambda
0	0	6.80406e-05	0.541317
1	6.80406e-05	0.000161141	0.541317
2	0.000161141	0.000288533	1.34763
3	0.000288533	0.000462844	56.9783
4	0.000462844	0.000701357	362.911
5	0.000701357	0.00102772	860.434
6	0.00102772	0.00147428	1053.89
7	0.00147428	0.00208532	783.673
8	0.00208532	0.00292142	585.073
9	0.00292142	0.00406546	529.593
10	0.00406546	0.00563087	545.957
11	0.00563087	0.00777285	560.552
12	0.00777285	0.0107037	479.408
13	0.0107037	0.0147141	286.972
14	0.0147141	0.0202016	286.972
15	0.0202016	inf	286.972
