0.000681593	-1829023.46	0,1.06663e-05,2.40478e-05,4.08356e-05,6.1897e-05,8.83196e-05,0.000121468,0.000163055,0.000215229,0.000280683,0.0003628,0.00046582,0.000595065,0.00075721,0.00096063,0.00121583,0.001536,0.00193767,0.00244158,0.00307377,0.00386689,0.00486191,0.00611021,0.00767629,0.00964101,0.0121059,0.0151982,0.0190777,0.0239447,0.0300507,inf	403.483,403.483,403.483,403.483,403.483,403.483,403.483,403.483,403.483,403.483,403.483,403.483,403.483,403.483,403.483,403.483,403.483,403.483,403.483,403.483,403.483,403.483,403.483,403.483,403.483,403.483,403.483,403.483,403.483,403.483
0.000729122	-1828724.92	0,1.06663e-05,2.40478e-05,4.08356e-05,6.1897e-05,8.83196e-05,0.000121468,0.000163055,0.000215229,0.000280683,0.0003628,0.00046582,0.000595065,0.00075721,0.00096063,0.00121583,0.001536,0.00193767,0.00244158,0.00307377,0.00386689,0.00486191,0.00611021,0.00767629,0.00964101,0.0121059,0.0151982,0.0190777,0.0239447,0.0300507,inf	405.642,405.642,405.642,405.642,405.642,405.642,405.642,405.642,405.642,405.642,405.642,405.642,405.642,405.642,405.642,405.642,405.642,405.642,405.642,405.642,405.642,405.642,405.642,405.642,405.642,405.642,405.642,405.642,405.642,405.642
0.000772086	-1828493.06	0,1.06663e-05,2.40478e-05,4.08356e-05,6.1897e-05,8.83196e-05,0.000121468,0.000163055,0.000215229,0.000280683,0.0003628,0.00046582,0.000595065,0.00075721,0.00096063,0.00121583,0.001536,0.00193767,0.00244158,0.00307377,0.00386689,0.00486191,0.00611021,0.00767629,0.00964101,0.0121059,0.0151982,0.0190777,0.0239447,0.0300507,inf	406.235,406.235,406.235,406.235,406.235,406.235,406.235,406.235,406.235,406.235,406.235,406.235,406.235,406.235,406.235,406.235,406.235,406.235,406.235,406.235,406.235,406.235,406.235,406.235,406.235,406.235,406.235,406.235,406.235,406.235
0.000811177	-1828308.59	0,1.06663e-05,2.40478e-05,4.08356e-05,6.1897e-05,8.83196e-05,0.000121468,0.000163055,0.000215229,0.000280683,0.0003628,0.00046582,0.000595065,0.00075721,0.00096063,0.00121583,0.001536,0.00193767,0.00244158,0.00307377,0.00386689,0.00486191,0.00611021,0.00767629,0.00964101,0.0121059,0.0151982,0.0190777,0.0239447,0.0300507,inf	406.146,406.146,406.146,406.146,406.146,406.146,406.146,406.146,406.146,406.146,406.146,406.146,406.146,406.146,406.146,406.146,406.146,406.146,406.146,406.146,406.146,406.146,406.146,406.146,406.146,406.146,406.146,406.146,406.146,406.146
0.000846903	-1828159.72	0,1.06663e-05,2.40478e-05,4.08356e-05,6.1897e-05,8.83196e-05,0.000121468,0.000163055,0.000215229,0.000280683,0.0003628,0.00046582,0.000595065,0.00075721,0.00096063,0.00121583,0.001536,0.00193767,0.00244158,0.00307377,0.00386689,0.00486191,0.00611021,0.00767629,0.00964101,0.0121059,0.0151982,0.0190777,0.0239447,0.0300507,inf	405.771,405.771,405.771,405.771,405.771,405.771,405.771,405.771,405.771,405.771,405.771,405.771,405.771,405.771,405.771,405.771,405.771,405.771,405.771,405.771,405.771,405.771,405.771,405.771,405.771,405.771,405.771,405.771,405.771,405.771
0.000879659	-1828038.29	0,1.06663e-05,2.40478e-05,4.08356e-05,6.1897e-05,8.83196e-05,0.000121468,0.000163055,0.000215229,0.000280683,0.0003628,0.00046582,0.000595065,0.00075721,0.00096063,0.00121583,0.001536,0.00193767,0.00244158,0.00307377,0.00386689,0.00486191,0.00611021,0.00767629,0.00964101,0.0121059,0.0151982,0.0190777,0.0239447,0.0300507,inf	405.287,405.287,405.287,405.287,405.287,405.287,405.287,405.287,405.287,405.287,405.287,405.287,405.287,405.287,405.287,405.287,405.287,405.287,405.287,405.287,405.287,405.287,405.287,405.287,405.287,405.287,405.287,405.287,405.287,405.287
0.000909764	-1827938.31	0,1.06663e-05,2.40478e-05,4.08356e-05,6.1897e-05,8.83196e-05,0.000121468,0.000163055,0.000215229,0.000280683,0.0003628,0.00046582,0.000595065,0.00075721,0.00096063,0.00121583,0.001536,0.00193767,0.00244158,0.00307377,0.00386689,0.00486191,0.00611021,0.00767629,0.00964101,0.0121059,0.0151982,0.0190777,0.0239447,0.0300507,inf	404.776,404.776,404.776,404.776,404.776,404.776,404.776,404.776,404.776,404.776,404.776,404.776,404.776,404.776,404.776,404.776,404.776,404.776,404.776,404.776,404.776,404.776,404.776,404.776,404.776,404.776,404.776,404.776,404.776,404.776
0.000937486	-1827855.31	0,1.06663e-05,2.40478e-05,4.08356e-05,6.1897e-05,8.83196e-05,0.000121468,0.000163055,0.000215229,0.000280683,0.0003628,0.00046582,0.000595065,0.00075721,0.00096063,0.00121583,0.001536,0.00193767,0.00244158,0.00307377,0.00386689,0.00486191,0.00611021,0.00767629,0.00964101,0.0121059,0.0151982,0.0190777,0.0239447,0.0300507,inf	404.272,404.272,404.272,404.272,404.272,404.272,404.272,404.272,404.272,404.272,404.272,404.272,404.272,404.272,404.272,404.272,404.272,404.272,404.272,404.272,404.272,404.272,404.272,404.272,404.272,404.272,404.272,404.272,404.272,404.272
0.000963056	-1827785.91	0,1.06663e-05,2.40478e-05,4.08356e-05,6.1897e-05,8.83196e-05,0.000121468,0.000163055,0.000215229,0.000280683,0.0003628,0.00046582,0.000595065,0.00075721,0.00096063,0.00121583,0.001536,0.00193767,0.00244158,0.00307377,0.00386689,0.00486191,0.00611021,0.00767629,0.00964101,0.0121059,0.0151982,0.0190777,0.0239447,0.0300507,inf	403.793,403.793,403.793,403.793,403.793,403.793,403.793,403.793,403.793,403.793,403.793,403.793,403.793,403.793,403.793,403.793,403.793,403.793,403.793,403.793,403.793,403.793,403.793,403.793,403.793,403.793,403.793,403.793,403.793,403.793
0.000986674	-1827727.48	0,1.06663e-05,2.40478e-05,4.08356e-05,6.1897e-05,8.83196e-05,0.000121468,0.000163055,0.000215229,0.000280683,0.0003628,0.00046582,0.000595065,0.00075721,0.00096063,0.00121583,0.001536,0.00193767,0.00244158,0.00307377,0.00386689,0.00486191,0.00611021,0.00767629,0.00964101,0.0121059,0.0151982,0.0190777,0.0239447,0.0300507,inf	403.343,403.343,403.343,403.343,403.343,403.343,403.343,403.343,403.343,403.343,403.343,403.343,403.343,403.343,403.343,403.343,403.343,403.343,403.343,403.343,403.343,403.343,403.343,403.343,403.343,403.343,403.343,403.343,403.343,403.343
0.00100852	-1827678.00	0,1.06663e-05,2.40478e-05,4.08356e-05,6.1897e-05,8.83196e-05,0.000121468,0.000163055,0.000215229,0.000280683,0.0003628,0.00046582,0.000595065,0.00075721,0.00096063,0.00121583,0.001536,0.00193767,0.00244158,0.00307377,0.00386689,0.00486191,0.00611021,0.00767629,0.00964101,0.0121059,0.0151982,0.0190777,0.0239447,0.0300507,inf	402.925,402.925,402.925,402.925,402.925,402.925,402.925,402.925,402.925,402.925,402.925,402.925,402.925,402.925,402.925,402.925,402.925,402.925,402.925,402.925,402.925,402.925,402.925,402.925,402.925,402.925,402.925,402.925,402.925,402.925
0.00102874	-1827635.87	0,1.06663e-05,2.40478e-05,4.08356e-05,6.1897e-05,8.83196e-05,0.000121468,0.000163055,0.000215229,0.000280683,0.0003628,0.00046582,0.000595065,0.00075721,0.00096063,0.00121583,0.001536,0.00193767,0.00244158,0.00307377,0.00386689,0.00486191,0.00611021,0.00767629,0.00964101,0.0121059,0.0151982,0.0190777,0.0239447,0.0300507,inf	402.536,402.536,402.536,402.536,402.536,402.536,402.536,402.536,402.536,402.536,402.536,402.536,402.536,402.536,402.536,402.536,402.536,402.536,402.536,402.536,402.536,402.536,402.536,402.536,402.536,402.536,402.536,402.536,402.536,402.536
0.00104748	-1827599.81	0,1.06663e-05,2.40478e-05,4.08356e-05,6.1897e-05,8.83196e-05,0.000121468,0.000163055,0.000215229,0.000280683,0.0003628,0.00046582,0.000595065,0.00075721,0.00096063,0.00121583,0.001536,0.00193767,0.00244158,0.00307377,0.00386689,0.00486191,0.00611021,0.00767629,0.00964101,0.0121059,0.0151982,0.0190777,0.0239447,0.0300507,inf	402.177,402.177,402.177,402.177,402.177,402.177,402.177,402.177,402.177,402.177,402.177,402.177,402.177,402.177,402.177,402.177,402.177,402.177,402.177,402.177,402.177,402.177,402.177,402.177,402.177,402.177,402.177,402.177,402.177,402.177
0.00106486	-1827568.80	0,1.06663e-05,2.40478e-05,4.08356e-05,6.1897e-05,8.83196e-05,0.000121468,0.000163055,0.000215229,0.000280683,0.0003628,0.00046582,0.000595065,0.00075721,0.00096063,0.00121583,0.001536,0.00193767,0.00244158,0.00307377,0.00386689,0.00486191,0.00611021,0.00767629,0.00964101,0.0121059,0.0151982,0.0190777,0.0239447,0.0300507,inf	401.844,401.844,401.844,401.844,401.844,401.844,401.844,401.844,401.844,401.844,401.844,401.844,401.844,401.844,401.844,401.844,401.844,401.844,401.844,401.844,401.844,401.844,401.844,401.844,401.844,401.844,401.844,401.844,401.844,401.844
0.00108099	-1827542.03	0,1.06663e-05,2.40478e-05,4.08356e-05,6.1897e-05,8.83196e-05,0.000121468,0.000163055,0.000215229,0.000280683,0.0003628,0.00046582,0.000595065,0.00075721,0.00096063,0.00121583,0.001536,0.00193767,0.00244158,0.00307377,0.00386689,0.00486191,0.00611021,0.00767629,0.00964101,0.0121059,0.0151982,0.0190777,0.0239447,0.0300507,inf	401.536,401.536,401.536,401.536,401.536,401.536,401.536,401.536,401.536,401.536,401.536,401.536,401.536,401.536,401.536,401.536,401.536,401.536,401.536,401.536,401.536,401.536,401.536,401.536,401.536,401.536,401.536,401.536,401.536,401.536
0.00109598	-1827518.82	0,1.06663e-05,2.40478e-05,4.08356e-05,6.1897e-05,8.83196e-05,0.000121468,0.000163055,0.000215229,0.000280683,0.0003628,0.00046582,0.000595065,0.00075721,0.00096063,0.00121583,0.001536,0.00193767,0.00244158,0.00307377,0.00386689,0.00486191,0.00611021,0.00767629,0.00964101,0.0121059,0.0151982,0.0190777,0.0239447,0.0300507,inf	401.251,401.251,401.251,401.251,401.251,401.251,401.251,401.251,401.251,401.251,401.251,401.251,401.251,401.251,401.251,401.251,401.251,401.251,401.251,401.251,401.251,401.251,401.251,401.251,401.251,401.251,401.251,401.251,401.251,401.251
0.00110992	-1827498.63	0,1.06663e-05,2.40478e-05,4.08356e-05,6.1897e-05,8.83196e-05,0.000121468,0.000163055,0.000215229,0.000280683,0.0003628,0.00046582,0.000595065,0.00075721,0.00096063,0.00121583,0.001536,0.00193767,0.00244158,0.00307377,0.00386689,0.00486191,0.00611021,0.00767629,0.00964101,0.0121059,0.0151982,0.0190777,0.0239447,0.0300507,inf	400.987,400.987,400.987,400.987,400.987,400.987,400.987,400.987,400.987,400.987,400.987,400.987,400.987,400.987,400.987,400.987,400.987,400.987,400.987,400.987,400.987,400.987,400.987,400.987,400.987,400.987,400.987,400.987,400.987,400.987
0.00112288	-1827481.00	0,1.06663e-05,2.40478e-05,4.08356e-05,6.1897e-05,8.83196e-05,0.000121468,0.000163055,0.000215229,0.000280683,0.0003628,0.00046582,0.000595065,0.00075721,0.00096063,0.00121583,0.001536,0.00193767,0.00244158,0.00307377,0.00386689,0.00486191,0.00611021,0.00767629,0.00964101,0.0121059,0.0151982,0.0190777,0.0239447,0.0300507,inf	400.742,400.742,400.742,400.742,400.742,400.742,400.742,400.742,400.742,400.742,400.742,400.742,400.742,400.742,400.742,400.742,400.742,400.742,400.742,400.742,400.742,400.742,400.742,400.742,400.742,400.742,400.742,400.742,400.742,400.742
0.00113495	-1827465.55	0,1.06663e-05,2.40478e-05,4.08356e-05,6.1897e-05,8.83196e-05,0.000121468,0.000163055,0.000215229,0.000280683,0.0003628,0.00046582,0.000595065,0.00075721,0.00096063,0.00121583,0.001536,0.00193767,0.00244158,0.00307377,0.00386689,0.00486191,0.00611021,0.00767629,0.00964101,0.0121059,0.0151982,0.0190777,0.0239447,0.0300507,inf	400.515,400.515,400.515,400.515,400.515,400.515,400.515,400.515,400.515,400.515,400.515,400.515,400.515,400.515,400.515,400.515,400.515,400.515,400.515,400.515,400.515,400.515,400.515,400.515,400.515,400.515,400.515,400.515,400.515,400.515
0.00114619	-1827451.98	0,1.06663e-05,2.40478e-05,4.08356e-05,6.1897e-05,8.83196e-05,0.000121468,0.000163055,0.000215229,0.000280683,0.0003628,0.00046582,0.000595065,0.00075721,0.00096063,0.00121583,0.001536,0.00193767,0.00244158,0.00307377,0.00386689,0.00486191,0.00611021,0.00767629,0.00964101,0.0121059,0.0151982,0.0190777,0.0239447,0.0300507,inf	400.304,400.304,400.304,400.304,400.304,400.304,400.304,400.304,400.304,400.304,400.304,400.304,400.304,400.304,400.304,400.304,400.304,400.304,400.304,400.304,400.304,400.304,400.304,400.304,400.304,400.304,400.304,400.304,400.304,400.304
