0.000311502	-7647081.06	0,8.82556e-07,2.0451e-06,3.57646e-06,5.59365e-06,8.25078e-06,1.17509e-05,1.63614e-05,2.24346e-05,3.04345e-05,4.09723e-05,5.48533e-05,7.3138e-05,9.72235e-05,0.00012895,0.000170742,0.000225792,0.000298307,0.000393827,0.00051965,0.000685391,0.000903713,0.0011913,0.00157012,0.00206912,0.00272642,0.00359226,0.00473278,0.00623514,0.00821411,0.0108209,0.0142547,inf	19.1114,19.1114,45.8907,98.6244,204.842,368.801,483.683,523.552,519.312,536.388,586.277,571.865,550.135,553.634,574.796,603.836,637.127,668.358,700.665,737.968,776.861,814.528,845.924,865.634,875.772,869.447,842.675,775.173,775.173,603.921,603.921,603.921
0.000310359	-7646171.75	0,8.82556e-07,2.0451e-06,3.57646e-06,5.59365e-06,8.25078e-06,1.17509e-05,1.63614e-05,2.24346e-05,3.04345e-05,4.09723e-05,5.48533e-05,7.3138e-05,9.72235e-05,0.00012895,0.000170742,0.000225792,0.000298307,0.000393827,0.00051965,0.000685391,0.000903713,0.0011913,0.00157012,0.00206912,0.00272642,0.00359226,0.00473278,0.00623514,0.00821411,0.0108209,0.0142547,inf	0.798996,0.798996,3.56845,17.6695,81.6528,269.325,441.74,497.761,471.84,482.849,570.456,535.395,484.931,479.8,503.908,539.804,582.72,620.849,660.502,710.297,764.888,820.808,870.985,905.949,929.764,924.604,875.777,746.937,746.937,441.498,441.498,441.498
0.000308468	-7645888.08	0,8.82556e-07,2.0451e-06,3.57646e-06,5.59365e-06,8.25078e-06,1.17509e-05,1.63614e-05,2.24346e-05,3.04345e-05,4.09723e-05,5.48533e-05,7.3138e-05,9.72235e-05,0.00012895,0.000170742,0.000225792,0.000298307,0.000393827,0.00051965,0.000685391,0.000903713,0.0011913,0.00157012,0.00206912,0.00272642,0.00359226,0.00473278,0.00623514,0.00821411,0.0108209,0.0142547,inf	0.79882,0.79882,0.798827,3.54491,37.5344,224.839,444.52,512.167,461.89,465.602,595.375,542.107,465.131,452.05,477.19,515.8,563.029,601.548,640.954,694.798,755.999,821.136,882.687,928.871,967.24,968.146,901.442,723.663,723.663,26.5252,26.5252,26.5252
0.000306033	-7646238.23	0,8.82556e-07,2.0451e-06,3.57646e-06,5.59365e-06,8.25078e-06,1.17509e-05,1.63614e-05,2.24346e-05,3.04345e-05,4.09723e-05,5.48533e-05,7.3138e-05,9.72235e-05,0.00012895,0.000170742,0.000225792,0.000298307,0.000393827,0.00051965,0.000685391,0.000903713,0.0011913,0.00157012,0.00206912,0.00272642,0.00359226,0.00473278,0.00623514,0.00821411,0.0108209,0.0142547,inf	0.798813,0.798813,0.798827,0.799119,18.2033,195.789,455.465,530.921,455.439,451.617,625.656,558.438,458.693,439.79,466.485,507.21,557.655,594.773,631.431,686.182,750.077,819.932,888.601,943.465,998.335,1015.72,954.674,867.645,867.645,1.47623,1.47623,1.47623
0.000303168	-7646062.09	0,8.82556e-07,2.0451e-06,3.57646e-06,5.59365e-06,8.25078e-06,1.17509e-05,1.63614e-05,2.24346e-05,3.04345e-05,4.09723e-05,5.48533e-05,7.3138e-05,9.72235e-05,0.00012895,0.000170742,0.000225792,0.000298307,0.000393827,0.00051965,0.000685391,0.000903713,0.0011913,0.00157012,0.00206912,0.00272642,0.00359226,0.00473278,0.00623514,0.00821411,0.0108209,0.0142547,inf	0.798813,0.798813,0.798827,0.79882,9.01373,173.367,467.161,548.037,448.314,436.312,652.423,574.41,455.219,432.294,461.051,503.796,557.335,592.72,625.878,680.283,744.885,816.623,888.754,948.093,1014.92,1042.97,974.961,959.612,959.612,8.73242,8.73242,8.73242
0.000300558	-7645862.37	0,8.82556e-07,2.0451e-06,3.57646e-06,5.59365e-06,8.25078e-06,1.17509e-05,1.63614e-05,2.24346e-05,3.04345e-05,4.09723e-05,5.48533e-05,7.3138e-05,9.72235e-05,0.00012895,0.000170742,0.000225792,0.000298307,0.000393827,0.00051965,0.000685391,0.000903713,0.0011913,0.00157012,0.00206912,0.00272642,0.00359226,0.00473278,0.00623514,0.00821411,0.0108209,0.0142547,inf	0.798813,0.798813,0.798815,0.79882,4.52921,154.873,478.695,563.498,440.195,419.364,674.974,588.889,452.594,426.815,457.826,502.515,559.294,593.201,622.929,676.809,741.467,813.841,887.526,948.808,1024.66,1059.81,977.727,996.353,996.353,1.51417,1.51417,1.51417
0.000297901	-7645823.46	0,8.82556e-07,2.0451e-06,3.57646e-06,5.59365e-06,8.25078e-06,1.17509e-05,1.63614e-05,2.24346e-05,3.04345e-05,4.09723e-05,5.48533e-05,7.3138e-05,9.72235e-05,0.00012895,0.000170742,0.000225792,0.000298307,0.000393827,0.00051965,0.000685391,0.000903713,0.0011913,0.00157012,0.00206912,0.00272642,0.00359226,0.00473278,0.00623514,0.00821411,0.0108209,0.0142547,inf	0.798813,0.798813,0.798815,0.79882,2.29032,139.037,489.888,578.046,431.956,401.773,693.73,601.612,449.993,422.127,455.325,501.737,561.817,594.577,621.168,674.698,739.305,811.845,886.192,948.128,1031.71,1073.14,975.467,1019.39,1019.39,10.0434,10.0434,10.0434
0.000295502	-7645755.06	0,8.82556e-07,2.0451e-06,3.57646e-06,5.59365e-06,8.25078e-06,1.17509e-05,1.63614e-05,2.24346e-05,3.04345e-05,4.09723e-05,5.48533e-05,7.3138e-05,9.72235e-05,0.00012895,0.000170742,0.000225792,0.000298307,0.000393827,0.00051965,0.000685391,0.000903713,0.0011913,0.00157012,0.00206912,0.00272642,0.00359226,0.00473278,0.00623514,0.00821411,0.0108209,0.0142547,inf	0.798813,0.798813,0.798815,0.798816,1.16595,125.219,500.725,592.293,424.32,384.416,709.806,613.225,447.526,418.062,453.239,501.055,564.395,596.293,620.05,673.485,738.112,810.632,885.116,946.769,1037,1083.79,969.252,1023.88,1023.88,1.12905,1.12905,1.12905
0.000293079	-7645759.62	0,8.82556e-07,2.0451e-06,3.57646e-06,5.59365e-06,8.25078e-06,1.17509e-05,1.63614e-05,2.24346e-05,3.04345e-05,4.09723e-05,5.48533e-05,7.3138e-05,9.72235e-05,0.00012895,0.000170742,0.000225792,0.000298307,0.000393827,0.00051965,0.000685391,0.000903713,0.0011913,0.00157012,0.00206912,0.00272642,0.00359226,0.00473278,0.00623514,0.00821411,0.0108209,0.0142547,inf	0.798813,0.798813,0.798815,0.798816,0.798848,112.919,510.898,606.262,417.433,367.673,723.568,623.799,445.084,414.401,451.305,500.161,566.629,597.87,619.05,672.629,737.412,809.891,884.278,945.137,1041.54,1093.82,962.874,1030.65,1030.65,4.97943,4.97943,4.97943
0.00029095	-7645727.14	0,8.82556e-07,2.0451e-06,3.57646e-06,5.59365e-06,8.25078e-06,1.17509e-05,1.63614e-05,2.24346e-05,3.04345e-05,4.09723e-05,5.48533e-05,7.3138e-05,9.72235e-05,0.00012895,0.000170742,0.000225792,0.000298307,0.000393827,0.00051965,0.000685391,0.000903713,0.0011913,0.00157012,0.00206912,0.00272642,0.00359226,0.00473278,0.00623514,0.00821411,0.0108209,0.0142547,inf	0.798813,0.798813,0.798815,0.798816,0.79882,101.947,520.682,620.517,411.728,352.043,736.185,634.246,443.136,411.493,449.891,499.449,568.901,599.616,618.387,672.282,737.31,809.72,883.797,943.366,1045.37,1102.71,955.063,1030.49,1030.49,4.24813,4.24813,4.24813
0.000288922	-7645714.87	0,8.82556e-07,2.0451e-06,3.57646e-06,5.59365e-06,8.25078e-06,1.17509e-05,1.63614e-05,2.24346e-05,3.04345e-05,4.09723e-05,5.48533e-05,7.3138e-05,9.72235e-05,0.00012895,0.000170742,0.000225792,0.000298307,0.000393827,0.00051965,0.000685391,0.000903713,0.0011913,0.00157012,0.00206912,0.00272642,0.00359226,0.00473278,0.00623514,0.00821411,0.0108209,0.0142547,inf	0.798813,0.798813,0.798815,0.798816,0.79882,91.9362,529.117,633.968,406.494,337.061,746.857,643.786,441.124,408.81,448.496,498.43,570.684,600.994,617.525,671.913,737.326,809.744,883.467,941.465,1048.74,1111.2,947.297,1030.05,1030.05,5.65969,5.65969,5.65969
0.000287007	-7645698.79	0,8.82556e-07,2.0451e-06,3.57646e-06,5.59365e-06,8.25078e-06,1.17509e-05,1.63614e-05,2.24346e-05,3.04345e-05,4.09723e-05,5.48533e-05,7.3138e-05,9.72235e-05,0.00012895,0.000170742,0.000225792,0.000298307,0.000393827,0.00051965,0.000685391,0.000903713,0.0011913,0.00157012,0.00206912,0.00272642,0.00359226,0.00473278,0.00623514,0.00821411,0.0108209,0.0142547,inf	0.798813,0.798813,0.798815,0.798816,0.79882,82.8628,536.511,646.971,401.942,322.91,756.113,652.777,439.203,406.475,447.262,497.28,572.16,602.139,616.545,671.547,737.445,809.937,883.279,939.463,1051.68,1119.25,939.445,1027.5,1027.5,3.35921,3.35921,3.35921
0.000285167	-7645694.65	0,8.82556e-07,2.0451e-06,3.57646e-06,5.59365e-06,8.25078e-06,1.17509e-05,1.63614e-05,2.24346e-05,3.04345e-05,4.09723e-05,5.48533e-05,7.3138e-05,9.72235e-05,0.00012895,0.000170742,0.000225792,0.000298307,0.000393827,0.00051965,0.000685391,0.000903713,0.0011913,0.00157012,0.00206912,0.00272642,0.00359226,0.00473278,0.00623514,0.00821411,0.0108209,0.0142547,inf	0.798813,0.798813,0.798815,0.798816,0.79882,74.6511,542.945,659.53,398.073,309.637,764.175,661.339,437.408,404.486,446.226,496.075,573.416,603.121,615.479,671.178,737.638,810.269,883.234,937.427,1054.36,1127.22,932.14,1027.36,1027.36,8.60932,8.60932,8.60932
0.000283443	-7645670.02	0,8.82556e-07,2.0451e-06,3.57646e-06,5.59365e-06,8.25078e-06,1.17509e-05,1.63614e-05,2.24346e-05,3.04345e-05,4.09723e-05,5.48533e-05,7.3138e-05,9.72235e-05,0.00012895,0.000170742,0.000225792,0.000298307,0.000393827,0.00051965,0.000685391,0.000903713,0.0011913,0.00157012,0.00206912,0.00272642,0.00359226,0.00473278,0.00623514,0.00821411,0.0108209,0.0142547,inf	0.798813,0.798813,0.798815,0.798813,0.79882,67.2312,548.395,671.597,394.811,297.16,771.185,669.525,435.728,402.809,445.386,494.851,574.507,603.985,614.35,670.802,737.875,810.692,883.279,935.292,1056.61,1134.66,924.527,1022.14,1022.14,1.52314,1.52314,1.52314
0.000281696	-7645682.67	0,8.82556e-07,2.0451e-06,3.57646e-06,5.59365e-06,8.25078e-06,1.17509e-05,1.63614e-05,2.24346e-05,3.04345e-05,4.09723e-05,5.48533e-05,7.3138e-05,9.72235e-05,0.00012895,0.000170742,0.000225792,0.000298307,0.000393827,0.00051965,0.000685391,0.000903713,0.0011913,0.00157012,0.00206912,0.00272642,0.00359226,0.00473278,0.00623514,0.00821411,0.0108209,0.0142547,inf	0.798813,0.798813,0.798815,0.798813,0.79882,60.4968,552.959,683.151,392.173,285.486,777.23,677.319,434.104,401.395,444.705,493.606,575.444,604.732,613.143,670.383,738.106,811.169,883.423,933.172,1058.79,1142.44,918.172,1023.73,1023.73,10.1564,10.1564,10.1564
0.000280156	-7645648.22	0,8.82556e-07,2.0451e-06,3.57646e-06,5.59365e-06,8.25078e-06,1.17509e-05,1.63614e-05,2.24346e-05,3.04345e-05,4.09723e-05,5.48533e-05,7.3138e-05,9.72235e-05,0.00012895,0.000170742,0.000225792,0.000298307,0.000393827,0.00051965,0.000685391,0.000903713,0.0011913,0.00157012,0.00206912,0.00272642,0.00359226,0.00473278,0.00623514,0.00821411,0.0108209,0.0142547,inf	0.798813,0.798813,0.798815,0.798813,0.79882,54.4414,556.801,694.32,390.084,274.554,782.516,684.901,432.603,400.276,444.238,492.425,576.34,605.485,611.967,670.023,738.424,811.772,883.699,931.002,1060.55,1149.5,911.083,1018.33,1018.33,1.07051,1.07051,1.07051
0.000278562	-7645668.95	0,8.82556e-07,2.0451e-06,3.57646e-06,5.59365e-06,8.25078e-06,1.17509e-05,1.63614e-05,2.24346e-05,3.04345e-05,4.09723e-05,5.48533e-05,7.3138e-05,9.72235e-05,0.00012895,0.000170742,0.000225792,0.000298307,0.000393827,0.00051965,0.000685391,0.000903713,0.0011913,0.00157012,0.00206912,0.00272642,0.00359226,0.00473278,0.00623514,0.00821411,0.0108209,0.0142547,inf	0.798813,0.798813,0.798815,0.798813,0.79882,48.964,559.856,704.892,388.507,264.333,786.97,692.102,431.091,399.32,443.868,491.207,577.101,606.136,610.712,669.587,738.678,812.362,884.029,928.854,1062.27,1156.92,905.26,1020.23,1020.23,4.25384,4.25384,4.25384
0.000277203	-7645651.06	0,8.82556e-07,2.0451e-06,3.57646e-06,5.59365e-06,8.25078e-06,1.17509e-05,1.63614e-05,2.24346e-05,3.04345e-05,4.09723e-05,5.48533e-05,7.3138e-05,9.72235e-05,0.00012895,0.000170742,0.000225792,0.000298307,0.000393827,0.00051965,0.000685391,0.000903713,0.0011913,0.00157012,0.00206912,0.00272642,0.00359226,0.00473278,0.00623514,0.00821411,0.0108209,0.0142547,inf	0.798813,0.798813,0.798815,0.798813,0.79882,44.0081,562.359,715.165,387.506,254.801,790.894,699.168,429.692,398.619,443.702,490.085,577.893,606.865,609.544,669.248,739.04,813.098,884.535,926.743,1063.72,1163.69,898.778,1018.73,1018.73,5.53238,5.53238,5.53238
0.000275927	-7645642.29	0,8.82556e-07,2.0451e-06,3.57646e-06,5.59365e-06,8.25078e-06,1.17509e-05,1.63614e-05,2.24346e-05,3.04345e-05,4.09723e-05,5.48533e-05,7.3138e-05,9.72235e-05,0.00012895,0.000170742,0.000225792,0.000298307,0.000393827,0.00051965,0.000685391,0.000903713,0.0011913,0.00157012,0.00206912,0.00272642,0.00359226,0.00473278,0.00623514,0.00821411,0.0108209,0.0142547,inf	0.798813,0.798813,0.798815,0.798813,0.79882,39.5767,564.144,724.729,386.822,245.83,794.101,705.875,428.258,398.037,443.613,488.951,578.597,607.543,608.337,668.862,739.351,813.817,885.08,924.614,1064.96,1170.22,892.422,1016.12,1016.12,3.43094,3.43094,3.43094
0.000274689	-7645643.13	0,8.82556e-07,2.0451e-06,3.57646e-06,5.59365e-06,8.25078e-06,1.17509e-05,1.63614e-05,2.24346e-05,3.04345e-05,4.09723e-05,5.48533e-05,7.3138e-05,9.72235e-05,0.00012895,0.000170742,0.000225792,0.000298307,0.000393827,0.00051965,0.000685391,0.000903713,0.0011913,0.00157012,0.00206912,0.00272642,0.00359226,0.00473278,0.00623514,0.00821411,0.0108209,0.0142547,inf	0.798813,0.798813,0.798815,0.798813,0.79882,35.5656,565.498,733.778,386.519,237.36,796.75,712.349,426.804,397.576,443.61,487.819,579.253,608.217,607.12,668.457,739.636,814.545,885.699,922.516,1066.14,1176.85,886.624,1016.08,1016.08,8.12377,8.12377,8.12377
