LogLikelihood = -302496.57305564172566

y0 0.68621098552934267634
y0_prime 0
y1 1.1927328992540477959
y1_prime 0
y2 0.90337870711653323053
y2_prime 0
y3 1.596783348745856479
y3_prime 0
rho 0.00018018252900913026048
theta 0.0051153575530126331461
