LogLikelihood = -1413055.7760902503505

y0 0.97011318221109232862
y0_prime 0
y1 0.95847963064983243697
y1_prime 0
y2 0.82614938180952435243
y2_prime 0
y3 1.6218205957888347513
y3_prime 0
rho 0.0025799126015090502115
rho.alpha 16.419554321975535771
r_ii 0.99999404403323466362
theta 0.0046189184756739026794
