time_index	left_time_boundary	right_time_boundary	lambda
0	0	4.17103e-07	19302.9
1	4.17103e-07	1.14084e-06	19302.9
2	1.14084e-06	2.39662e-06	2345.66
3	2.39662e-06	4.57558e-06	3.91669
4	4.57558e-06	8.3564e-06	324.447
5	8.3564e-06	1.49167e-05	5530.24
6	1.49167e-05	2.62997e-05	2286.06
7	2.62997e-05	4.60508e-05	4027.95
8	4.60508e-05	8.03219e-05	4333.26
9	8.03219e-05	0.000139787	4887.01
10	0.000139787	0.000242968	3152.7
11	0.000242968	0.000422001	5235.58
12	0.000422001	0.00073265	1794.52
13	0.00073265	0.00127167	1378.33
14	0.00127167	0.00220695	1378.33
15	0.00220695	inf	1378.33
