0.000641529	-12443745.86	0,1.58891e-06,3.68191e-06,6.4389e-06,1.00705e-05,1.48543e-05,2.11557e-05,2.94563e-05,4.03902e-05,5.47928e-05,7.37647e-05,9.87553e-05,0.000131674,0.000175037,0.000232156,0.000307396,0.000406505,0.000537058,0.000709027,0.000935554,0.00123395,0.001627,0.00214476,0.00282677,0.00372514,0.00490853,0.00646734,0.00852068,0.0112254,0.0147883,0.0194814,0.0256635,inf	16211.4,16211.4,9224.98,4696.53,2195.61,1198.96,776.391,576.419,457.138,387.76,353.549,340.198,337.815,338.819,339.42,340.648,345.642,355.664,369.507,385.484,402.63,419.793,434.343,443.674,446.568,444.556,438.575,427.395,427.395,442.09,442.09,442.09
0.000719867	-12436626.63	0,1.58891e-06,3.68191e-06,6.4389e-06,1.00705e-05,1.48543e-05,2.11557e-05,2.94563e-05,4.03902e-05,5.47928e-05,7.37647e-05,9.87553e-05,0.000131674,0.000175037,0.000232156,0.000307396,0.000406505,0.000537058,0.000709027,0.000935554,0.00123395,0.001627,0.00214476,0.00282677,0.00372514,0.00490853,0.00646734,0.00852068,0.0112254,0.0147883,0.0194814,0.0256635,inf	25599.8,25599.8,14605,6209.06,2490.04,1251.34,779.426,562.672,432.45,358.715,324.176,313.285,314.6,317.628,317.224,316.523,321.699,334.729,352.953,373.359,394.737,415.968,434.145,445.982,449.173,445.353,434.891,414.612,414.612,438.53,438.53,438.53
0.000794577	-12432002.13	0,1.58891e-06,3.68191e-06,6.4389e-06,1.00705e-05,1.48543e-05,2.11557e-05,2.94563e-05,4.03902e-05,5.47928e-05,7.37647e-05,9.87553e-05,0.000131674,0.000175037,0.000232156,0.000307396,0.000406505,0.000537058,0.000709027,0.000935554,0.00123395,0.001627,0.00214476,0.00282677,0.00372514,0.00490853,0.00646734,0.00852068,0.0112254,0.0147883,0.0194814,0.0256635,inf	26333.5,26333.5,15995.9,6201.69,2347.68,1169.86,740.143,539.952,414.302,343.376,311.798,305.028,310.727,315.747,313.877,310.758,315.364,329.865,349.994,371.7,393.843,415.637,434.53,447.113,450.216,445.241,431.556,403.897,403.897,433.591,433.591,433.591
0.000865238	-12428362.14	0,1.58891e-06,3.68191e-06,6.4389e-06,1.00705e-05,1.48543e-05,2.11557e-05,2.94563e-05,4.03902e-05,5.47928e-05,7.37647e-05,9.87553e-05,0.000131674,0.000175037,0.000232156,0.000307396,0.000406505,0.000537058,0.000709027,0.000935554,0.00123395,0.001627,0.00214476,0.00282677,0.00372514,0.00490853,0.00646734,0.00852068,0.0112254,0.0147883,0.0194814,0.0256635,inf	25458,25458,16365.3,5887.74,2154.21,1082.43,702.929,520.975,400.615,332.762,304.317,301.859,312.042,319,315.627,310.283,314.428,330.004,351.109,372.928,394.578,415.702,434.316,447.066,450.099,444.496,428.5,394.754,394.754,427.894,427.894,427.894
0.000931991	-12425404.28	0,1.58891e-06,3.68191e-06,6.4389e-06,1.00705e-05,1.48543e-05,2.11557e-05,2.94563e-05,4.03902e-05,5.47928e-05,7.37647e-05,9.87553e-05,0.000131674,0.000175037,0.000232156,0.000307396,0.000406505,0.000537058,0.000709027,0.000935554,0.00123395,0.001627,0.00214476,0.00282677,0.00372514,0.00490853,0.00646734,0.00852068,0.0112254,0.0147883,0.0194814,0.0256635,inf	24556.1,24556.1,16480.6,5529.86,1974.68,1006.25,672.05,505.531,389.193,323.838,298.283,300.055,314.644,323.452,318.652,311.436,315.4,331.944,353.585,374.986,395.625,415.599,433.553,446.242,449.276,443.41,425.748,386.883,386.883,421.867,421.867,421.867
0.000995098	-12422963.83	0,1.58891e-06,3.68191e-06,6.4389e-06,1.00705e-05,1.48543e-05,2.11557e-05,2.94563e-05,4.03902e-05,5.47928e-05,7.37647e-05,9.87553e-05,0.000131674,0.000175037,0.000232156,0.000307396,0.000406505,0.000537058,0.000709027,0.000935554,0.00123395,0.001627,0.00214476,0.00282677,0.00372514,0.00490853,0.00646734,0.00852068,0.0112254,0.0147883,0.0194814,0.0256635,inf	23841.1,23841.1,16507.7,5183.23,1818.1,942.483,647.395,493.157,379.407,315.872,292.879,298.678,317.481,327.982,321.824,313.073,317.119,334.592,356.519,377.239,396.646,415.29,432.44,444.966,448.061,442.174,423.307,380.058,380.058,415.779,415.779,415.779
0.00105483	-12420925.97	0,1.58891e-06,3.68191e-06,6.4389e-06,1.00705e-05,1.48543e-05,2.11557e-05,2.94563e-05,4.03902e-05,5.47928e-05,7.37647e-05,9.87553e-05,0.000131674,0.000175037,0.000232156,0.000307396,0.000406505,0.000537058,0.000709027,0.000935554,0.00123395,0.001627,0.00214476,0.00282677,0.00372514,0.00490853,0.00646734,0.00852068,0.0112254,0.0147883,0.0194814,0.0256635,inf	23296.6,23296.6,16486.6,4859.98,1683.21,889.695,628.233,483.498,371.034,308.712,287.967,297.546,320.312,332.3,324.817,314.812,319.149,337.517,359.564,379.467,397.561,414.831,431.135,443.449,446.645,440.9,421.162,374.097,374.097,409.792,409.792,409.792
0.00111144	-12419206.80	0,1.58891e-06,3.68191e-06,6.4389e-06,1.00705e-05,1.48543e-05,2.11557e-05,2.94563e-05,4.03902e-05,5.47928e-05,7.37647e-05,9.87553e-05,0.000131674,0.000175037,0.000232156,0.000307396,0.000406505,0.000537058,0.000709027,0.000935554,0.00123395,0.001627,0.00214476,0.00282677,0.00372514,0.00490853,0.00646734,0.00852068,0.0112254,0.0147883,0.0194814,0.0256635,inf	22882.4,22882.4,16429.4,4562.05,1566.98,846.097,613.73,476.183,363.917,302.306,283.537,296.649,323.111,336.354,327.553,316.52,321.298,340.523,362.573,381.59,398.359,414.275,429.738,441.819,445.146,439.65,419.289,368.857,368.857,403.999,403.999,403.999
0.00116516	-12417743.58	0,1.58891e-06,3.68191e-06,6.4389e-06,1.00705e-05,1.48543e-05,2.11557e-05,2.94563e-05,4.03902e-05,5.47928e-05,7.37647e-05,9.87553e-05,0.000131674,0.000175037,0.000232156,0.000307396,0.000406505,0.000537058,0.000709027,0.000935554,0.00123395,0.001627,0.00214476,0.00282677,0.00372514,0.00490853,0.00646734,0.00852068,0.0112254,0.0147883,0.0194814,0.0256635,inf	22566.8,22566.8,16343.1,4288.45,1466.26,809.976,603.063,470.809,357.885,296.603,279.589,296.011,325.898,340.158,330.029,318.147,323.478,343.514,365.477,383.578,399.047,413.659,428.311,440.153,443.628,438.454,417.657,364.219,364.219,398.447,398.447,398.447
0.0012162	-12416488.52	0,1.58891e-06,3.68191e-06,6.4389e-06,1.00705e-05,1.48543e-05,2.11557e-05,2.94563e-05,4.03902e-05,5.47928e-05,7.37647e-05,9.87553e-05,0.000131674,0.000175037,0.000232156,0.000307396,0.000406505,0.000537058,0.000709027,0.000935554,0.00123395,0.001627,0.00214476,0.00282677,0.00372514,0.00490853,0.00646734,0.00852068,0.0112254,0.0147883,0.0194814,0.0256635,inf	22326.3,22326.3,16233,4037.36,1378.45,779.914,595.541,467.011,352.759,291.522,276.096,295.634,328.699,343.74,332.265,319.679,325.639,346.438,368.247,385.425,399.637,413.011,426.892,438.496,442.131,437.327,416.237,360.088,360.088,393.158,393.158,393.158
0.00126475	-12415404.63	0,1.58891e-06,3.68191e-06,6.4389e-06,1.00705e-05,1.48543e-05,2.11557e-05,2.94563e-05,4.03902e-05,5.47928e-05,7.37647e-05,9.87553e-05,0.000131674,0.000175037,0.000232156,0.000307396,0.000406505,0.000537058,0.000709027,0.000935554,0.00123395,0.001627,0.00214476,0.00282677,0.00372514,0.00490853,0.00646734,0.00852068,0.0112254,0.0147883,0.0194814,0.0256635,inf	22146,22146,16103.7,3806.97,1301.27,754.781,590.53,464.466,348.361,286.977,273.022,295.514,331.525,347.126,334.283,321.114,327.756,349.267,370.869,387.132,400.14,412.347,425.501,436.874,440.677,436.274,415.002,356.388,356.388,388.137,388.137,388.137
0.00131098	-12414462.87	0,1.58891e-06,3.68191e-06,6.4389e-06,1.00705e-05,1.48543e-05,2.11557e-05,2.94563e-05,4.03902e-05,5.47928e-05,7.37647e-05,9.87553e-05,0.000131674,0.000175037,0.000232156,0.000307396,0.000406505,0.000537058,0.000709027,0.000935554,0.00123395,0.001627,0.00214476,0.00282677,0.00372514,0.00490853,0.00646734,0.00852068,0.0112254,0.0147883,0.0194814,0.0256635,inf	22013.4,22013.4,15958.3,3595.25,1232.98,733.626,587.568,462.889,344.546,282.892,270.329,295.637,334.384,350.338,336.106,322.455,329.816,351.988,373.34,388.706,400.568,411.679,424.152,435.301,439.276,435.294,413.927,353.055,353.055,383.38,383.38,383.38
0.00135505	-12413640.12	0,1.58891e-06,3.68191e-06,6.4389e-06,1.00705e-05,1.48543e-05,2.11557e-05,2.94563e-05,4.03902e-05,5.47928e-05,7.37647e-05,9.87553e-05,0.000131674,0.000175037,0.000232156,0.000307396,0.000406505,0.000537058,0.000709027,0.000935554,0.00123395,0.001627,0.00214476,0.00282677,0.00372514,0.00490853,0.00646734,0.00852068,0.0112254,0.0147883,0.0194814,0.0256635,inf	21919.7,21919.7,15801.2,3400.56,1172.14,715.756,586.233,462.047,341.19,279.199,267.977,295.985,337.277,353.392,337.757,323.71,331.811,354.595,375.665,390.156,400.931,411.014,422.849,433.785,437.935,434.386,412.993,350.039,350.039,378.876,378.876,378.876
0.00139709	-12412917.83	0,1.58891e-06,3.68191e-06,6.4389e-06,1.00705e-05,1.48543e-05,2.11557e-05,2.94563e-05,4.03902e-05,5.47928e-05,7.37647e-05,9.87553e-05,0.000131674,0.000175037,0.000232156,0.000307396,0.000406505,0.000537058,0.000709027,0.000935554,0.00123395,0.001627,0.00214476,0.00282677,0.00372514,0.00490853,0.00646734,0.00852068,0.0112254,0.0147883,0.0194814,0.0256635,inf	21857,21857,15635.1,3221.32,1117.63,700.547,586.203,461.75,338.185,275.833,265.925,296.535,340.2,356.299,339.252,324.882,333.737,357.088,377.849,391.491,401.236,410.358,421.597,432.33,436.654,433.545,412.18,347.297,347.297,374.614,374.614,374.614
0.00143723	-12412280.91	0,1.58891e-06,3.68191e-06,6.4389e-06,1.00705e-05,1.48543e-05,2.11557e-05,2.94563e-05,4.03902e-05,5.47928e-05,7.37647e-05,9.87553e-05,0.000131674,0.000175037,0.000232156,0.000307396,0.000406505,0.000537058,0.000709027,0.000935554,0.00123395,0.001627,0.00214476,0.00282677,0.00372514,0.00490853,0.00646734,0.00852068,0.0112254,0.0147883,0.0194814,0.0256635,inf	21820.6,21820.6,15462.9,3056.08,1068.49,687.595,587.245,461.865,335.453,272.743,264.139,297.266,343.149,359.071,340.607,325.98,335.595,359.467,379.9,392.722,401.492,409.715,420.396,430.937,435.433,432.766,411.474,344.794,344.794,370.578,370.578,370.578
0.0014756	-12411716.99	0,1.58891e-06,3.68191e-06,6.4389e-06,1.00705e-05,1.48543e-05,2.11557e-05,2.94563e-05,4.03902e-05,5.47928e-05,7.37647e-05,9.87553e-05,0.000131674,0.000175037,0.000232156,0.000307396,0.000406505,0.000537058,0.000709027,0.000935554,0.00123395,0.001627,0.00214476,0.00282677,0.00372514,0.00490853,0.00646734,0.00852068,0.0112254,0.0147883,0.0194814,0.0256635,inf	21804.8,21804.8,15286.2,2903.65,1024.02,676.534,589.136,462.261,332.924,269.887,262.587,298.161,346.116,361.715,341.833,327.008,337.385,361.737,381.825,393.856,401.705,409.087,419.246,429.604,434.271,432.044,410.861,342.499,342.499,366.754,366.754,366.754
0.0015123	-12411215.87	0,1.58891e-06,3.68191e-06,6.4389e-06,1.00705e-05,1.48543e-05,2.11557e-05,2.94563e-05,4.03902e-05,5.47928e-05,7.37647e-05,9.87553e-05,0.000131674,0.000175037,0.000232156,0.000307396,0.000406505,0.000537058,0.000709027,0.000935554,0.00123395,0.001627,0.00214476,0.00282677,0.00372514,0.00490853,0.00646734,0.00852068,0.0112254,0.0147883,0.0194814,0.0256635,inf	21806.1,21806.1,15107.3,2762.9,983.6,667.092,591.71,462.845,330.547,267.231,261.239,299.198,349.097,364.238,342.942,327.972,339.109,363.902,383.634,394.903,401.882,408.475,418.145,428.329,433.164,431.375,410.33,340.39,340.39,363.128,363.128,363.128
0.00154742	-12410769.05	0,1.58891e-06,3.68191e-06,6.4389e-06,1.00705e-05,1.48543e-05,2.11557e-05,2.94563e-05,4.03902e-05,5.47928e-05,7.37647e-05,9.87553e-05,0.000131674,0.000175037,0.000232156,0.000307396,0.000406505,0.000537058,0.000709027,0.000935554,0.00123395,0.001627,0.00214476,0.00282677,0.00372514,0.00490853,0.00646734,0.00852068,0.0112254,0.0147883,0.0194814,0.0256635,inf	21821.4,21821.4,14927.2,2632.64,946.751,658.999,594.844,463.536,328.284,264.745,260.071,300.363,352.082,366.647,343.946,328.877,340.768,365.967,385.335,395.87,402.026,407.88,417.092,427.111,432.111,430.754,409.872,338.443,338.443,359.687,359.687,359.687
0.00158106	-12410369.40	0,1.58891e-06,3.68191e-06,6.4389e-06,1.00705e-05,1.48543e-05,2.11557e-05,2.94563e-05,4.03902e-05,5.47928e-05,7.37647e-05,9.87553e-05,0.000131674,0.000175037,0.000232156,0.000307396,0.000406505,0.000537058,0.000709027,0.000935554,0.00123395,0.001627,0.00214476,0.00282677,0.00372514,0.00490853,0.00646734,0.00852068,0.0112254,0.0147883,0.0194814,0.0256635,inf	21847.4,21847.4,14747.5,2512.15,912.982,652.095,598.436,464.29,326.097,262.401,259.063,301.64,355.067,368.945,344.852,329.728,342.365,367.938,386.935,396.765,402.142,407.303,416.084,425.947,431.107,430.178,409.477,336.643,336.643,356.416,356.416,356.416
0.0016133	-12410010.91	0,1.58891e-06,3.68191e-06,6.4389e-06,1.00705e-05,1.48543e-05,2.11557e-05,2.94563e-05,4.03902e-05,5.47928e-05,7.37647e-05,9.87553e-05,0.000131674,0.000175037,0.000232156,0.000307396,0.000406505,0.000537058,0.000709027,0.000935554,0.00123395,0.001627,0.00214476,0.00282677,0.00372514,0.00490853,0.00646734,0.00852068,0.0112254,0.0147883,0.0194814,0.0256635,inf	21883,21883,14568.7,2400.39,881.988,646.222,602.374,465.048,323.974,260.187,258.196,303.013,358.046,371.137,345.668,330.528,343.904,369.818,388.441,397.593,402.235,406.744,415.12,424.834,430.151,429.643,409.138,334.972,334.972,353.305,353.305,353.305
