time_index	left_time_boundary	right_time_boundary	lambda
0	0	9.41143e-05	575.333
1	9.41143e-05	0.000222892	575.333
2	0.000222892	0.000399101	323.334
3	0.000399101	0.00064021	508.533
4	0.00064021	0.000970124	245.751
5	0.000970124	0.00142155	427.695
6	0.00142155	0.00203924	448.946
7	0.00203924	0.00288444	431.398
8	0.00288444	0.00404093	371.28
9	0.00404093	0.00562339	360.366
10	0.00562339	0.00778868	781.911
11	0.00778868	0.0107515	273.707
12	0.0107515	0.0148055	272.353
13	0.0148055	0.0203527	364.235
14	0.0203527	0.0279431	364.235
15	0.0279431	inf	364.235
