0.000568349	-1800494.27	0,2.21444e-05,5.60237e-05,0.000107857,0.000187157,0.000308481,0.000494097,0.000778076,0.00121254,0.00187724,0.00289419,0.00445004,0.00683037,0.0104721,0.0160437,0.0245678,inf	654.582,654.582,479.93,412.024,390.375,402.784,400.855,396.886,400.398,410.963,406.554,401.592,429.723,435.781,435.781,435.781
0.000515784	-1800163.66	0,2.21444e-05,5.60237e-05,0.000107857,0.000187157,0.000308481,0.000494097,0.000778076,0.00121254,0.00187724,0.00289419,0.00445004,0.00683037,0.0104721,0.0160437,0.0245678,inf	785.353,785.353,515.555,417.896,380.378,404.443,400.72,391.841,397.755,419.392,410.983,399.223,461.58,483.334,483.334,483.334
0.000469914	-1799905.69	0,2.21444e-05,5.60237e-05,0.000107857,0.000187157,0.000308481,0.000494097,0.000778076,0.00121254,0.00187724,0.00289419,0.00445004,0.00683037,0.0104721,0.0160437,0.0245678,inf	857.634,857.634,538.977,427.989,373.147,406.686,401.14,386.477,393.628,426.155,413.975,393.229,495.329,551.794,551.794,551.794
0.000430564	-1799718.40	0,2.21444e-05,5.60237e-05,0.000107857,0.000187157,0.000308481,0.000494097,0.000778076,0.00121254,0.00187724,0.00289419,0.00445004,0.00683037,0.0104721,0.0160437,0.0245678,inf	905.548,905.548,558.523,442.765,368.236,409.334,402.387,381.447,388.94,431.921,416.375,384.533,531.282,663.214,663.214,663.214
0.000397174	-1799604.39	0,2.21444e-05,5.60237e-05,0.000107857,0.000187157,0.000308481,0.000494097,0.000778076,0.00121254,0.00187724,0.00289419,0.00445004,0.00683037,0.0104721,0.0160437,0.0245678,inf	942.16,942.16,575.42,460.688,364.735,411.9,404.294,376.894,384.074,436.849,418.596,373.845,569.259,872.407,872.407,872.407
0.000369138	-1799571.28	0,2.21444e-05,5.60237e-05,0.000107857,0.000187157,0.000308481,0.000494097,0.000778076,0.00121254,0.00187724,0.00289419,0.00445004,0.00683037,0.0104721,0.0160437,0.0245678,inf	972.592,972.592,589.523,480.282,362.021,414.1,406.706,372.881,379.287,440.974,420.888,361.813,608.822,1310.09,1310.09,1310.09
0.00034605	-1799627.14	0,2.21444e-05,5.60237e-05,0.000107857,0.000187157,0.000308481,0.000494097,0.000778076,0.00121254,0.00187724,0.00289419,0.00445004,0.00683037,0.0104721,0.0160437,0.0245678,inf	999.12,999.12,600.736,500.486,359.777,415.893,409.583,369.524,374.847,444.395,423.472,349.051,649.86,2010.12,2010.12,2010.12
0.000327511	-1799711.56	0,2.21444e-05,5.60237e-05,0.000107857,0.000187157,0.000308481,0.000494097,0.000778076,0.00121254,0.00187724,0.00289419,0.00445004,0.00683037,0.0104721,0.0160437,0.0245678,inf	1022.53,1022.53,609.078,520.46,357.816,417.302,412.835,366.848,370.905,447.169,426.463,336.186,693.336,3376.11,3376.11,3376.11
0.000312661	-1799811.93	0,2.21444e-05,5.60237e-05,0.000107857,0.000187157,0.000308481,0.000494097,0.000778076,0.00121254,0.00187724,0.00289419,0.00445004,0.00683037,0.0104721,0.0160437,0.0245678,inf	1042.69,1042.69,614.443,539.332,355.874,418.175,416.102,364.597,367.351,449.129,429.706,323.527,741.673,5186.03,5186.03,5186.03
0.000301163	-1799877.62	0,2.21444e-05,5.60237e-05,0.000107857,0.000187157,0.000308481,0.000494097,0.000778076,0.00121254,0.00187724,0.00289419,0.00445004,0.00683037,0.0104721,0.0160437,0.0245678,inf	1060.39,1060.39,617.46,556.93,354.055,418.755,419.439,362.851,364.356,450.515,433.23,311.365,796.829,26021.5,26021.5,26021.5
0.000301159	-1799955.29	0,2.21444e-05,5.60237e-05,0.000107857,0.000187157,0.000308481,0.000494097,0.000778076,0.00121254,0.00187724,0.00289419,0.00445004,0.00683037,0.0104721,0.0160437,0.0245678,inf	1080.33,1080.33,621.284,576.717,354.638,422.155,426.573,364.581,364.709,455.513,440.109,300.789,862.626,51197.4,51197.4,51197.4
0.000301159	-1800016.01	0,2.21444e-05,5.60237e-05,0.000107857,0.000187157,0.000308481,0.000494097,0.000778076,0.00121254,0.00187724,0.00289419,0.00445004,0.00683037,0.0104721,0.0160437,0.0245678,inf	1080.33,1080.33,616.4,579.91,351.888,421.968,426.601,364.444,363.57,456.67,440.109,290.433,869.394,51197.4,51197.4,51197.4
0.000301159	-1800020.08	0,2.21444e-05,5.60237e-05,0.000107857,0.000187157,0.000308481,0.000494097,0.000778076,0.00121254,0.00187724,0.00289419,0.00445004,0.00683037,0.0104721,0.0160437,0.0245678,inf	1080.33,1080.33,612.744,582.3,349.734,422.15,427.403,364.444,362.598,456.67,440.525,282.43,874.625,51197.4,51197.4,51197.4
0.000301159	-1800023.56	0,2.21444e-05,5.60237e-05,0.000107857,0.000187157,0.000308481,0.000494097,0.000778076,0.00121254,0.00187724,0.00289419,0.00445004,0.00683037,0.0104721,0.0160437,0.0245678,inf	1080.33,1080.33,609.972,584.112,347.909,422.299,427.403,364.635,361.913,456.672,440.887,276.153,878.728,51197.4,51197.4,51197.4
0.000301159	-1800026.53	0,2.21444e-05,5.60237e-05,0.000107857,0.000187157,0.000308481,0.000494097,0.000778076,0.00121254,0.00187724,0.00289419,0.00445004,0.00683037,0.0104721,0.0160437,0.0245678,inf	1080.33,1080.33,607.895,585.47,346.418,422.571,427.862,364.635,361.394,457.012,440.887,271.192,881.971,51197.4,51197.4,51197.4
0.000301159	-1800029.08	0,2.21444e-05,5.60237e-05,0.000107857,0.000187157,0.000308481,0.000494097,0.000778076,0.00121254,0.00187724,0.00289419,0.00445004,0.00683037,0.0104721,0.0160437,0.0245678,inf	1080.33,1080.33,606.335,586.49,345.153,422.794,427.862,364.639,360.961,457.403,440.887,267.267,884.537,51197.4,51197.4,51197.4
0.000301159	-1800031.23	0,2.21444e-05,5.60237e-05,0.000107857,0.000187157,0.000308481,0.000494097,0.000778076,0.00121254,0.00187724,0.00289419,0.00445004,0.00683037,0.0104721,0.0160437,0.0245678,inf	1080.33,1080.33,605.184,587.242,344.113,422.794,427.862,364.929,360.596,457.642,440.887,264.144,886.578,51197.4,51197.4,51197.4
0.000301159	-1800032.98	0,2.21444e-05,5.60237e-05,0.000107857,0.000187157,0.000308481,0.000494097,0.000778076,0.00121254,0.00187724,0.00289419,0.00445004,0.00683037,0.0104721,0.0160437,0.0245678,inf	1080.33,1080.33,604.371,587.773,343.295,423.176,427.962,364.929,360.26,457.642,441.031,261.647,888.21,51197.4,51197.4,51197.4
0.000301159	-1800034.42	0,2.21444e-05,5.60237e-05,0.000107857,0.000187157,0.000308481,0.000494097,0.000778076,0.00121254,0.00187724,0.00289419,0.00445004,0.00683037,0.0104721,0.0160437,0.0245678,inf	1080.33,1080.33,603.787,588.155,342.576,423.498,428.058,364.929,360.022,457.798,441.031,259.635,889.525,51197.4,51197.4,51197.4
0.000301159	-1800035.63	0,2.21444e-05,5.60237e-05,0.000107857,0.000187157,0.000308481,0.000494097,0.000778076,0.00121254,0.00187724,0.00289419,0.00445004,0.00683037,0.0104721,0.0160437,0.0245678,inf	1080.33,1080.33,603.379,588.422,341.952,423.772,428.146,364.929,359.827,457.925,441.031,258.018,890.582,51197.4,51197.4,51197.4
