LogLikelihood = -847335.61241235479247

y0 1.0049695112277488018
y0_prime 0
y1 1.0054554264873376557
y1_prime 0
y2 0.94934420272980890587
y2_prime 0
y3 1.6171265290594574182
y3_prime 0
rho 0.00068416739698935649227
theta 0.0025103146423420641224
