0.000674159	-292044.28	0,8.77926e-05,0.00020792,0.000372293,0.000597207,0.00090496,0.00132606,0.00190226,0.00269069,0.0037695,0.00524566,0.0072655,0.0100293,0.013811,0.0189856,0.0260661,inf	330.773,330.773,328.232,337.628,349.21,367.123,387.935,405.824,422.935,423.063,408.427,384.586,359.72,326.225,326.225,326.225
0.000753341	-291908.01	0,8.77926e-05,0.00020792,0.000372293,0.000597207,0.00090496,0.00132606,0.00190226,0.00269069,0.0037695,0.00524566,0.0072655,0.0100293,0.013811,0.0189856,0.0260661,inf	321.401,321.401,310.791,321.548,334.225,356.684,382.508,403.902,428.401,428.065,403.036,364.479,328.425,275.966,275.966,275.966
0.000829262	-291811.49	0,8.77926e-05,0.00020792,0.000372293,0.000597207,0.00090496,0.00132606,0.00190226,0.00269069,0.0037695,0.00524566,0.0072655,0.0100293,0.013811,0.0189856,0.0260661,inf	324.112,324.112,308.295,319.91,331.764,355.569,382.074,403.182,432.139,432.245,400.078,352.215,310.852,243.561,243.561,243.561
0.00090131	-291734.56	0,8.77926e-05,0.00020792,0.000372293,0.000597207,0.00090496,0.00132606,0.00190226,0.00269069,0.0037695,0.00524566,0.0072655,0.0100293,0.013811,0.0189856,0.0260661,inf	327.387,327.387,309.431,322.31,332.997,357.048,382.53,402.031,434.063,435.39,398.418,344.702,301.083,220.106,220.106,220.106
0.000969518	-291672.13	0,8.77926e-05,0.00020792,0.000372293,0.000597207,0.00090496,0.00132606,0.00190226,0.00269069,0.0037695,0.00524566,0.0072655,0.0100293,0.013811,0.0189856,0.0260661,inf	329.544,329.544,311.5,325.972,335.494,359.321,382.991,400.374,434.61,437.635,397.505,340.26,296.228,201.608,201.608,201.608
0.00103407	-291620.83	0,8.77926e-05,0.00020792,0.000372293,0.000597207,0.00090496,0.00132606,0.00190226,0.00269069,0.0037695,0.00524566,0.0072655,0.0100293,0.013811,0.0189856,0.0260661,inf	330.786,330.786,313.797,330.008,338.442,361.821,383.296,398.377,434.186,439.145,397.027,337.884,294.717,185.976,185.976,185.976
0.0010952	-291578.24	0,8.77926e-05,0.00020792,0.000372293,0.000597207,0.00090496,0.00132606,0.00190226,0.00269069,0.0037695,0.00524566,0.0072655,0.0100293,0.013811,0.0189856,0.0260661,inf	331.511,331.511,316.118,334.08,341.517,364.341,383.449,396.195,433.096,440.067,396.801,336.947,295.647,171.961,171.961,171.961
0.00115312	-291542.61	0,8.77926e-05,0.00020792,0.000372293,0.000597207,0.00090496,0.00132606,0.00190226,0.00269069,0.0037695,0.00524566,0.0072655,0.0100293,0.013811,0.0189856,0.0260661,inf	332.018,332.018,318.397,338.042,344.572,366.8,383.486,393.936,431.556,440.52,396.717,337.052,298.504,158.725,158.725,158.725
0.00120803	-291512.66	0,8.77926e-05,0.00020792,0.000372293,0.000597207,0.00090496,0.00132606,0.00190226,0.00269069,0.0037695,0.00524566,0.0072655,0.0100293,0.013811,0.0189856,0.0260661,inf	332.479,332.479,320.604,341.825,347.537,369.163,383.442,391.672,429.721,440.602,396.719,337.952,303.033,145.612,145.612,145.612
0.00126011	-291487.54	0,8.77926e-05,0.00020792,0.000372293,0.000597207,0.00090496,0.00132606,0.00190226,0.00269069,0.0037695,0.00524566,0.0072655,0.0100293,0.013811,0.0189856,0.0260661,inf	332.983,332.983,322.727,345.396,350.376,371.419,383.345,389.449,427.696,440.395,396.786,339.51,309.187,132.009,132.009,132.009
0.00130952	-291466.67	0,8.77926e-05,0.00020792,0.000372293,0.000597207,0.00090496,0.00132606,0.00190226,0.00269069,0.0037695,0.00524566,0.0072655,0.0100293,0.013811,0.0189856,0.0260661,inf	333.579,333.579,324.758,348.745,353.075,373.568,383.214,387.292,425.56,439.97,396.928,341.685,317.143,117.216,117.216,117.216
0.00135637	-291449.89	0,8.77926e-05,0.00020792,0.000372293,0.000597207,0.00090496,0.00132606,0.00190226,0.00269069,0.0037695,0.00524566,0.0072655,0.0100293,0.013811,0.0189856,0.0260661,inf	334.269,334.269,326.693,351.87,355.634,375.613,383.066,385.215,423.365,439.393,397.191,344.545,327.407,100.284,100.284,100.284
0.00140075	-291437.72	0,8.77926e-05,0.00020792,0.000372293,0.000597207,0.00090496,0.00132606,0.00190226,0.00269069,0.0037695,0.00524566,0.0072655,0.0100293,0.013811,0.0189856,0.0260661,inf	335.061,335.061,328.53,354.781,358.061,377.565,382.909,383.226,421.158,438.743,397.685,348.327,341.12,79.8541,79.8541,79.8541
0.0014427	-291432.30	0,8.77926e-05,0.00020792,0.000372293,0.000597207,0.00090496,0.00132606,0.00190226,0.00269069,0.0037695,0.00524566,0.0072655,0.0100293,0.013811,0.0189856,0.0260661,inf	335.947,335.947,330.274,357.502,360.386,379.448,382.763,381.337,418.991,438.144,398.659,353.639,360.951,55.0692,55.0692,55.0692
0.00148234	-291439.91	0,8.77926e-05,0.00020792,0.000372293,0.000597207,0.00090496,0.00132606,0.00190226,0.00269069,0.0037695,0.00524566,0.0072655,0.0100293,0.013811,0.0189856,0.0260661,inf	336.938,336.938,331.951,360.097,362.688,381.326,382.665,379.581,416.951,437.824,400.639,361.849,393.642,32.2155,32.2155,32.2155
0.00151881	-291461.66	0,8.77926e-05,0.00020792,0.000372293,0.000597207,0.00090496,0.00132606,0.00190226,0.00269069,0.0037695,0.00524566,0.0072655,0.0100293,0.013811,0.0189856,0.0260661,inf	337.964,337.964,333.519,362.544,364.944,383.141,382.524,377.837,414.891,437.638,403.617,373.66,451.159,20.096,20.096,20.096
0.00155162	-291463.31	0,8.77926e-05,0.00020792,0.000372293,0.000597207,0.00090496,0.00132606,0.00190226,0.00269069,0.0037695,0.00524566,0.0072655,0.0100293,0.013811,0.0189856,0.0260661,inf	338.896,338.896,334.873,364.649,366.868,384.622,382.074,375.744,412.136,436.202,405.025,384.188,533.645,15.2267,15.2267,15.2267
0.00158195	-291437.63	0,8.77926e-05,0.00020792,0.000372293,0.000597207,0.00090496,0.00132606,0.00190226,0.00269069,0.0037695,0.00524566,0.0072655,0.0100293,0.013811,0.0189856,0.0260661,inf	339.728,339.728,336.054,366.429,368.463,385.841,381.423,373.341,408.526,432.773,402.916,388.26,621.524,12.9853,12.9853,12.9853
0.00161102	-291410.64	0,8.77926e-05,0.00020792,0.000372293,0.000597207,0.00090496,0.00132606,0.00190226,0.00269069,0.0037695,0.00524566,0.0072655,0.0100293,0.013811,0.0189856,0.0260661,inf	340.536,340.536,337.193,368.106,370.026,387.181,381.012,371.124,404.731,428.231,398.278,386.594,698.932,12.1069,12.1069,12.1069
0.0016395	-291389.57	0,8.77926e-05,0.00020792,0.000372293,0.000597207,0.00090496,0.00132606,0.00190226,0.00269069,0.0037695,0.00524566,0.0072655,0.0100293,0.013811,0.0189856,0.0260661,inf	341.318,341.318,338.279,369.71,371.648,388.786,381.042,369.388,401.273,423.482,392.502,381.519,755.703,12.168,12.168,12.168
