0.000218503	-133112.56	0,1.55418e-05,3.37219e-05,5.49879e-05,7.9864e-05,0.000108963,0.000143001,0.000182817,0.000229392,0.000283873,0.000347603,0.00042215,0.000509352,0.000611356,0.000730675,0.000870249,0.00103352,0.0012245,0.0014479,0.00170922,0.0020149,0.00237247,0.00279074,0.00328001,0.00385233,0.00452181,0.00530493,0.00622098,0.00729253,0.00854598,0.0100122,0.0117273,inf	55.891,55.891,135.821,231.013,338.352,428.43,499.535,576.473,666.063,766.001,885.441,1021.24,1158.76,1291.54,1413.65,1501.3,1534.38,1527.44,1503.47,1468.2,1426.7,1385.26,1346.3,1311.57,1282.98,1259.73,1237.78,1210.95,1210.95,1182.77,1182.77,1182.77
0.000212449	-132915.34	0,1.55418e-05,3.37219e-05,5.49879e-05,7.9864e-05,0.000108963,0.000143001,0.000182817,0.000229392,0.000283873,0.000347603,0.00042215,0.000509352,0.000611356,0.000730675,0.000870249,0.00103352,0.0012245,0.0014479,0.00170922,0.0020149,0.00237247,0.00279074,0.00328001,0.00385233,0.00452181,0.00530493,0.00622098,0.00729253,0.00854598,0.0100122,0.0117273,inf	3.81016,3.81016,24.2141,77.1559,175.971,271.19,328.694,396.174,491.652,604.855,752.337,935.752,1136.35,1348.43,1570.5,1759.67,1855.02,1868.17,1845.73,1796.26,1728.76,1656.66,1585.7,1521.93,1471.04,1431.02,1390.34,1334.83,1334.83,1276.78,1276.78,1276.78
0.00020669	-132847.23	0,1.55418e-05,3.37219e-05,5.49879e-05,7.9864e-05,0.000108963,0.000143001,0.000182817,0.000229392,0.000283873,0.000347603,0.00042215,0.000509352,0.000611356,0.000730675,0.000870249,0.00103352,0.0012245,0.0014479,0.00170922,0.0020149,0.00237247,0.00279074,0.00328001,0.00385233,0.00452181,0.00530493,0.00622098,0.00729253,0.00854598,0.0100122,0.0117273,inf	1.09221,1.09221,5.14516,33.061,123.729,228.883,268.456,316.654,405.422,513.759,664.633,865.412,1094.91,1350.37,1641.18,1917.64,2076.79,2116.98,2108.15,2059.97,1982.99,1894.34,1802.42,1719.46,1655.95,1608.23,1553.27,1466.44,1466.44,1374.78,1374.78,1374.78
0.00020082	-132817.74	0,1.55418e-05,3.37219e-05,5.49879e-05,7.9864e-05,0.000108963,0.000143001,0.000182817,0.000229392,0.000283873,0.000347603,0.00042215,0.000509352,0.000611356,0.000730675,0.000870249,0.00103352,0.0012245,0.0014479,0.00170922,0.0020149,0.00237247,0.00279074,0.00328001,0.00385233,0.00452181,0.00530493,0.00622098,0.00729253,0.00854598,0.0100122,0.0117273,inf	1.09221,1.09221,1.19418,16.0843,101.816,226.288,249.21,278.471,360.222,459.731,606.16,812.631,1055.13,1333.66,1670.46,2017.15,2232.24,2295.46,2301.17,2261.93,2188.9,2097.27,1996.7,1906.58,1841.96,1797.15,1733.12,1611.31,1611.31,1480.51,1480.51,1480.51
0.000194911	-132802.48	0,1.55418e-05,3.37219e-05,5.49879e-05,7.9864e-05,0.000108963,0.000143001,0.000182817,0.000229392,0.000283873,0.000347603,0.00042215,0.000509352,0.000611356,0.000730675,0.000870249,0.00103352,0.0012245,0.0014479,0.00170922,0.0020149,0.00237247,0.00279074,0.00328001,0.00385233,0.00452181,0.00530493,0.00622098,0.00729253,0.00854598,0.0100122,0.0117273,inf	1.09221,1.09221,1.09221,8.20014,89.1513,240.021,247.174,259.182,336.169,426.721,566.368,773.943,1021.73,1311.85,1679.7,2082.89,2344.75,2423.2,2438.76,2410.79,2351.71,2268.83,2171.85,2087.8,2034.81,2005.02,1938.32,1776.36,1776.36,1597.79,1597.79,1597.79
0.00018907	-132793.33	0,1.55418e-05,3.37219e-05,5.49879e-05,7.9864e-05,0.000108963,0.000143001,0.000182817,0.000229392,0.000283873,0.000347603,0.00042215,0.000509352,0.000611356,0.000730675,0.000870249,0.00103352,0.0012245,0.0014479,0.00170922,0.0020149,0.00237247,0.00279074,0.00328001,0.00385233,0.00452181,0.00530493,0.00622098,0.00729253,0.00854598,0.0100122,0.0117273,inf	1.09221,1.09221,1.09221,4.19649,78.9502,260.238,252.476,248.953,323.722,406.215,538.69,745.739,994.98,1289.95,1679.09,2128.73,2429.41,2514.71,2533.45,2516.31,2478.43,2413.83,2332.02,2268.01,2240.78,2240.55,2179.53,1970.25,1970.25,1732.25,1732.25,1732.25
0.00018338	-132787.15	0,1.55418e-05,3.37219e-05,5.49879e-05,7.9864e-05,0.000108963,0.000143001,0.000182817,0.000229392,0.000283873,0.000347603,0.00042215,0.000509352,0.000611356,0.000730675,0.000870249,0.00103352,0.0012245,0.0014479,0.00170922,0.0020149,0.00237247,0.00279074,0.00328001,0.00385233,0.00452181,0.00530493,0.00622098,0.00729253,0.00854598,0.0100122,0.0117273,inf	1.09221,1.09221,1.09221,2.11449,69.1289,281.958,260.549,243.086,317.924,393.441,519.024,725.221,974.002,1269.7,1673.64,2162.63,2495.84,2580.21,2595.38,2587.55,2575.92,2537.1,2481.11,2451.97,2467.06,2515.35,2472.32,2205.36,2205.36,1892.1,1892.1,1892.1
0.000177892	-132782.59	0,1.55418e-05,3.37219e-05,5.49879e-05,7.9864e-05,0.000108963,0.000143001,0.000182817,0.000229392,0.000283873,0.000347603,0.00042215,0.000509352,0.000611356,0.000730675,0.000870249,0.00103352,0.0012245,0.0014479,0.00170922,0.0020149,0.00237247,0.00279074,0.00328001,0.00385233,0.00452181,0.00530493,0.00622098,0.00729253,0.00854598,0.0100122,0.0117273,inf	1.09221,1.09221,1.09221,1.09222,59.3745,302.602,269.234,239.214,316.031,385.592,504.747,710.344,957.75,1251.52,1665.87,2189.28,2550.23,2626.87,2632.44,2632.21,2650.28,2642.9,2622.52,2644.31,2722.28,2846.54,2842.37,2501.1,2501.1,2095.35,2095.35,2095.35
0.000172639	-132779.02	0,1.55418e-05,3.37219e-05,5.49879e-05,7.9864e-05,0.000108963,0.000143001,0.000182817,0.000229392,0.000283873,0.000347603,0.00042215,0.000509352,0.000611356,0.000730675,0.000870249,0.00103352,0.0012245,0.0014479,0.00170922,0.0020149,0.00237247,0.00279074,0.00328001,0.00385233,0.00452181,0.00530493,0.00622098,0.00729253,0.00854598,0.0100122,0.0117273,inf	1.09221,1.09221,1.09221,1.09221,49.9595,320.973,277.561,236.117,316.445,380.949,494.13,699.626,945.287,1235.36,1657.01,2211.46,2596.65,2659.72,2650.71,2656.63,2706.57,2734.81,2759.08,2849.77,3018.05,3262.11,3337.21,2890.38,2890.38,2340.92,2340.92,2340.92
0.000167636	-132776.11	0,1.55418e-05,3.37219e-05,5.49879e-05,7.9864e-05,0.000108963,0.000143001,0.000182817,0.000229392,0.000283873,0.000347603,0.00042215,0.000509352,0.000611356,0.000730675,0.000870249,0.00103352,0.0012245,0.0014479,0.00170922,0.0020149,0.00237247,0.00279074,0.00328001,0.00385233,0.00452181,0.00530493,0.00622098,0.00729253,0.00854598,0.0100122,0.0117273,inf	1.09221,1.09221,1.09221,1.09221,41.2325,336.665,285.175,233.176,318.209,378.418,486.008,691.994,935.833,1220.96,1647.69,2230.9,2637.83,2682.33,2654.84,2665.86,2748.88,2815.71,2893.1,3073.61,3371.43,3814.56,4065.06,3448.51,3448.51,2699.99,2699.99,2699.99
0.000162892	-132773.64	0,1.55418e-05,3.37219e-05,5.49879e-05,7.9864e-05,0.000108963,0.000143001,0.000182817,0.000229392,0.000283873,0.000347603,0.00042215,0.000509352,0.000611356,0.000730675,0.000870249,0.00103352,0.0012245,0.0014479,0.00170922,0.0020149,0.00237247,0.00279074,0.00328001,0.00385233,0.00452181,0.00530493,0.00622098,0.00729253,0.00854598,0.0100122,0.0117273,inf	1.09221,1.09221,1.09221,1.09221,33.4579,349.768,292.071,230.106,320.734,377.295,479.581,686.665,928.767,1208.02,1638.15,2248.63,2675.59,2697.25,2648.38,2663.86,2780.44,2887.88,3026.56,3322.08,3809.81,4619.15,5350.85,4369.02,4369.02,3637.56,3637.56,3637.56
0.000158409	-132771.53	0,1.55418e-05,3.37219e-05,5.49879e-05,7.9864e-05,0.000108963,0.000143001,0.000182817,0.000229392,0.000283873,0.000347603,0.00042215,0.000509352,0.000611356,0.000730675,0.000870249,0.00103352,0.0012245,0.0014479,0.00170922,0.0020149,0.00237247,0.00279074,0.00328001,0.00385233,0.00452181,0.00530493,0.00622098,0.00729253,0.00854598,0.0100122,0.0117273,inf	1.09221,1.09221,1.09221,1.09221,26.7541,360.562,298.37,226.786,323.65,377.114,474.291,683.061,923.606,1196.25,1628.5,2265.31,2711.2,2706.34,2634.06,2653.72,2803.77,2953.1,3161.12,3603.25,4381.64,6012.44,9024.5,6655.43,6655.43,92516,92516,92516
0.000154185	-132769.69	0,1.55418e-05,3.37219e-05,5.49879e-05,7.9864e-05,0.000108963,0.000143001,0.000182817,0.000229392,0.000283873,0.000347603,0.00042215,0.000509352,0.000611356,0.000730675,0.000870249,0.00103352,0.0012245,0.0014479,0.00170922,0.0020149,0.00237247,0.00279074,0.00328001,0.00385233,0.00452181,0.00530493,0.00622098,0.00729253,0.00854598,0.0100122,0.0117273,inf	1.09221,1.09221,1.09221,1.09221,21.1224,369.391,304.253,223.191,326.73,377.561,469.749,680.756,919.976,1185.42,1618.72,2281.3,2745.49,2710.92,2613.94,2637.82,2820.81,3012.77,3298.29,3928.08,5186.52,9700.15,49211.7,16028.7,16028.7,26878.2,26878.2,26878.2
0.000150214	-132768.09	0,1.55418e-05,3.37219e-05,5.49879e-05,7.9864e-05,0.000108963,0.000143001,0.000182817,0.000229392,0.000283873,0.000347603,0.00042215,0.000509352,0.000611356,0.000730675,0.000870249,0.00103352,0.0012245,0.0014479,0.00170922,0.0020149,0.00237247,0.00279074,0.00328001,0.00385233,0.00452181,0.00530493,0.00622098,0.00729253,0.00854598,0.0100122,0.0117273,inf	1.09221,1.09221,1.09221,1.09221,16.4914,376.567,309.893,219.348,329.829,378.428,465.678,679.437,917.588,1175.31,1608.8,2296.84,2779.04,2711.96,2589.62,2617.96,2833.06,3067.96,3439.44,4312.4,6478.66,41529.4,733644,1713.11,1713.11,209.551,209.551,209.551
