0.000323534	-7902117.19	0,9.15173e-07,2.12068e-06,3.70864e-06,5.80037e-06,8.55571e-06,1.21852e-05,1.69661e-05,2.32637e-05,3.15592e-05,4.24865e-05,5.68805e-05,7.58409e-05,0.000100817,0.000133716,0.000177052,0.000234137,0.000309331,0.000408381,0.000538855,0.000710721,0.000937112,0.00123532,0.00162814,0.00214559,0.00282719,0.00372502,0.00490769,0.00646557,0.00851768,0.0112208,0.0147815,inf	155.627,155.627,246.089,368.063,303.615,214.158,257.132,334.094,403.767,443.123,476.146,518.251,571.314,608.362,612.11,613.113,624.622,644.93,673.608,707.315,740.558,772.032,801.275,823.439,821.542,805.414,795.125,803.296,803.296,819.908,819.908,819.908
0.00032342	-7901355.07	0,9.15173e-07,2.12068e-06,3.70864e-06,5.80037e-06,8.55571e-06,1.21852e-05,1.69661e-05,2.32637e-05,3.15592e-05,4.24865e-05,5.68805e-05,7.58409e-05,0.000100817,0.000133716,0.000177052,0.000234137,0.000309331,0.000408381,0.000538855,0.000710721,0.000937112,0.00123532,0.00162814,0.00214559,0.00282719,0.00372502,0.00490769,0.00646557,0.00851768,0.0112208,0.0147815,inf	83.7496,83.7496,201.546,435.1,273.545,111.949,147.08,237.434,331.34,368.607,398.305,448.785,527.077,584.073,577.282,566.097,574.383,597.414,634.725,681.163,727.683,773.119,819.013,858.585,855.909,827.078,810.43,832.664,832.664,876.569,876.569,876.569
0.000323177	-7901101.34	0,9.15173e-07,2.12068e-06,3.70864e-06,5.80037e-06,8.55571e-06,1.21852e-05,1.69661e-05,2.32637e-05,3.15592e-05,4.24865e-05,5.68805e-05,7.58409e-05,0.000100817,0.000133716,0.000177052,0.000234137,0.000309331,0.000408381,0.000538855,0.000710721,0.000937112,0.00123532,0.00162814,0.00214559,0.00282719,0.00372502,0.00490769,0.00646557,0.00851768,0.0112208,0.0147815,inf	50.3415,50.3415,181.911,557.978,273.467,70.5351,103.776,203.575,320.279,349.273,369.117,421.09,519.181,594.942,575.817,551.235,554.194,575.917,616.041,668.119,720.24,771.926,827.857,881.586,878.612,839.427,819.011,859.431,859.431,942.337,942.337,942.337
0.000322738	-7900987.95	0,9.15173e-07,2.12068e-06,3.70864e-06,5.80037e-06,8.55571e-06,1.21852e-05,1.69661e-05,2.32637e-05,3.15592e-05,4.24865e-05,5.68805e-05,7.58409e-05,0.000100817,0.000133716,0.000177052,0.000234137,0.000309331,0.000408381,0.000538855,0.000710721,0.000937112,0.00123532,0.00162814,0.00214559,0.00282719,0.00372502,0.00490769,0.00646557,0.00851768,0.0112208,0.0147815,inf	28.6808,28.6808,154.754,670.422,264.452,47.0496,79.4646,186.798,326.889,345.25,353.1,403.662,518.583,613.635,583.144,546.716,545.162,565.01,606.14,661.077,715.35,769.415,831.522,896.948,893.724,845.729,823.082,884.439,884.439,1020.17,1020.17,1020.17
0.000322173	-7900930.17	0,9.15173e-07,2.12068e-06,3.70864e-06,5.80037e-06,8.55571e-06,1.21852e-05,1.69661e-05,2.32637e-05,3.15592e-05,4.24865e-05,5.68805e-05,7.58409e-05,0.000100817,0.000133716,0.000177052,0.000234137,0.000309331,0.000408381,0.000538855,0.000710721,0.000937112,0.00123532,0.00162814,0.00214559,0.00282719,0.00372502,0.00490769,0.00646557,0.00851768,0.0112208,0.0147815,inf	15.5698,15.5698,125.179,763.664,248.264,32.2434,63.2443,176.105,339.768,346.374,341.585,389.031,518.001,632.387,591.895,545.545,540.779,559.062,600.693,657.335,712.089,766.453,832.364,907.624,904.013,848.233,824.189,908.285,908.285,1114.63,1114.63,1114.63
0.000321543	-7900898.57	0,9.15173e-07,2.12068e-06,3.70864e-06,5.80037e-06,8.55571e-06,1.21852e-05,1.69661e-05,2.32637e-05,3.15592e-05,4.24865e-05,5.68805e-05,7.58409e-05,0.000100817,0.000133716,0.000177052,0.000234137,0.000309331,0.000408381,0.000538855,0.000710721,0.000937112,0.00123532,0.00162814,0.00214559,0.00282719,0.00372502,0.00490769,0.00646557,0.00851768,0.0112208,0.0147815,inf	8.17209,8.17209,97.9541,840.807,228.988,22.484,51.4195,167.941,355.013,349.513,332.2,375.532,515.894,649.091,599.779,545.207,538.405,555.601,597.676,655.561,709.976,763.494,831.713,915.409,911.234,848.381,823.335,931.359,931.359,1233.31,1233.31,1233.31
0.000320887	-7900880.58	0,9.15173e-07,2.12068e-06,3.70864e-06,5.80037e-06,8.55571e-06,1.21852e-05,1.69661e-05,2.32637e-05,3.15592e-05,4.24865e-05,5.68805e-05,7.58409e-05,0.000100817,0.000133716,0.000177052,0.000234137,0.000309331,0.000408381,0.000538855,0.000710721,0.000937112,0.00123532,0.00162814,0.00214559,0.00282719,0.00372502,0.00490769,0.00646557,0.00851768,0.0112208,0.0147815,inf	4.19968,4.19968,74.9413,905.463,209.013,15.868,42.3588,160.9,371.02,353.569,324.288,362.989,512.405,663.542,606.269,544.825,536.911,553.437,596.035,655,708.686,760.732,830.3,921.381,916.485,847.086,821.166,953.917,953.917,1390.4,1390.4,1390.4
0.00032023	-7900870.16	0,9.15173e-07,2.12068e-06,3.70864e-06,5.80037e-06,8.55571e-06,1.21852e-05,1.69661e-05,2.32637e-05,3.15592e-05,4.24865e-05,5.68805e-05,7.58409e-05,0.000100817,0.000133716,0.000177052,0.000234137,0.000309331,0.000408381,0.000538855,0.000710721,0.000937112,0.00123532,0.00162814,0.00214559,0.00282719,0.00372502,0.00490769,0.00646557,0.00851768,0.0112208,0.0147815,inf	2.11747,2.11747,56.3833,960.322,189.635,11.3137,35.2057,154.365,386.971,358.116,317.607,351.468,508,676.085,611.44,544.153,535.802,551.967,595.18,655.195,707.986,758.226,828.525,926.189,920.455,844.922,818.103,976.131,976.131,1616.98,1616.98,1616.98
0.000319587	-7900864.19	0,9.15173e-07,2.12068e-06,3.70864e-06,5.80037e-06,8.55571e-06,1.21852e-05,1.69661e-05,2.32637e-05,3.15592e-05,4.24865e-05,5.68805e-05,7.58409e-05,0.000100817,0.000133716,0.000177052,0.000234137,0.000309331,0.000408381,0.000538855,0.000710721,0.000937112,0.00123532,0.00162814,0.00214559,0.00282719,0.00372502,0.00490769,0.00646557,0.00851768,0.0112208,0.0147815,inf	1.05218,1.05218,41.8883,1007.23,171.373,8.12426,29.4438,148.044,402.344,362.893,312.005,341.035,503.1,687.162,615.529,543.171,534.864,550.87,594.768,655.855,707.704,755.977,826.598,930.226,923.576,842.256,814.421,998.113,998.113,2002.64,2002.64,2002.64
0.000318966	-7900860.97	0,9.15173e-07,2.12068e-06,3.70864e-06,5.80037e-06,8.55571e-06,1.21852e-05,1.69661e-05,2.32637e-05,3.15592e-05,4.24865e-05,5.68805e-05,7.58409e-05,0.000100817,0.000133716,0.000177052,0.000234137,0.000309331,0.000408381,0.000538855,0.000710721,0.000937112,0.00123532,0.00162814,0.00214559,0.00282719,0.00372502,0.00490769,0.00646557,0.00851768,0.0112208,0.0147815,inf	0.77035,0.77035,30.7953,1047.6,154.544,5.87469,24.7412,141.82,416.853,367.71,307.333,331.661,497.993,697.134,618.771,541.938,534.007,549.976,594.597,656.792,707.714,753.961,824.633,933.731,926.124,839.316,810.299,1019.93,1019.93,3003.12,3003.12,3003.12
0.000318371	-7900859.62	0,9.15173e-07,2.12068e-06,3.70864e-06,5.80037e-06,8.55571e-06,1.21852e-05,1.69661e-05,2.32637e-05,3.15592e-05,4.24865e-05,5.68805e-05,7.58409e-05,0.000100817,0.000133716,0.000177052,0.000234137,0.000309331,0.000408381,0.000538855,0.000710721,0.000937112,0.00123532,0.00162814,0.00214559,0.00282719,0.00372502,0.00490769,0.00646557,0.00851768,0.0112208,0.0147815,inf	0.770346,0.770346,22.452,1082.5,139.202,4.27314,20.8812,135.648,430.305,372.457,303.457,323.275,492.864,706.271,621.363,540.522,533.206,549.193,594.545,657.885,707.925,752.147,822.688,936.855,928.273,836.241,805.838,1041.59,1041.59,11376.6,11376.6,11376.6
0.000318345	-7900859.68	0,9.15173e-07,2.12068e-06,3.70864e-06,5.80037e-06,8.55571e-06,1.21852e-05,1.69661e-05,2.32637e-05,3.15592e-05,4.24865e-05,5.68805e-05,7.58409e-05,0.000100817,0.000133716,0.000177052,0.000234137,0.000309331,0.000408381,0.000538855,0.000710721,0.000937112,0.00123532,0.00162814,0.00214559,0.00282719,0.00372502,0.00490769,0.00646557,0.00851768,0.0112208,0.0147815,inf	0.770345,0.770345,16.228,1113.36,125.385,3.12385,17.6894,129.594,442.818,377.269,300.407,315.875,487.87,715.115,623.77,539.253,532.71,548.7,594.786,659.37,708.609,750.845,821.14,940.068,930.442,833.327,801.263,1063.22,1063.22,114476,114476,114476
