0.000337992	-179120.13	0,4.88712e-05,0.000115742,0.000207243,0.000332446,0.000503761,0.000738175,0.00105893,0.00149782,0.00209836,0.00292009,0.00404447,0.00558298,0.00768814,0.0105687,0.0145101,inf	582.795,582.795,595.605,554.001,624.125,695.023,757.44,818.068,865.56,870.876,826.228,785.949,751.538,728.157,728.157,728.157
0.00034306	-179090.89	0,4.88712e-05,0.000115742,0.000207243,0.000332446,0.000503761,0.000738175,0.00105893,0.00149782,0.00209836,0.00292009,0.00404447,0.00558298,0.00768814,0.0105687,0.0145101,inf	562.959,562.959,571.203,476.527,570.272,665.956,751.511,844.667,935.052,955.815,872.741,804.237,747.281,712.368,712.368,712.368
0.000346614	-179084.36	0,4.88712e-05,0.000115742,0.000207243,0.000332446,0.000503761,0.000738175,0.00105893,0.00149782,0.00209836,0.00292009,0.00404447,0.00558298,0.00768814,0.0105687,0.0145101,inf	572.098,572.098,581.58,437.832,544.62,650.178,742.703,852.163,978.066,1017.73,900.191,813.473,742.568,702.777,702.777,702.777
0.000349097	-179083.39	0,4.88712e-05,0.000115742,0.000207243,0.000332446,0.000503761,0.000738175,0.00105893,0.00149782,0.00209836,0.00292009,0.00404447,0.00558298,0.00768814,0.0105687,0.0145101,inf	581.667,581.667,600.657,414.797,532.34,642.12,734.116,850.512,1005.12,1064.1,914.589,817.199,738.01,696.837,696.837,696.837
0.000350886	-179083.79	0,4.88712e-05,0.000115742,0.000207243,0.000332446,0.000503761,0.000738175,0.00105893,0.00149782,0.00209836,0.00292009,0.00404447,0.00558298,0.00768814,0.0105687,0.0145101,inf	585.947,585.947,620.258,398.957,527.066,638.876,726.711,844.604,1022.54,1100.09,920.319,817.685,733.753,692.876,692.876,692.876
0.000352232	-179084.43	0,4.88712e-05,0.000115742,0.000207243,0.000332446,0.000503761,0.000738175,0.00105893,0.00149782,0.00209836,0.00292009,0.00404447,0.00558298,0.00768814,0.0105687,0.0145101,inf	585.498,585.498,637.945,386.754,525.64,638.718,720.635,836.841,1034.06,1129.15,920.374,816.347,729.8,689.872,689.872,689.872
0.000353296	-179085.01	0,4.88712e-05,0.000115742,0.000207243,0.000332446,0.000503761,0.000738175,0.00105893,0.00149782,0.00209836,0.00292009,0.00404447,0.00558298,0.00768814,0.0105687,0.0145101,inf	582.079,582.079,653.251,376.53,526.331,640.533,715.752,828.404,1041.88,1153.5,916.753,814.063,726.126,687.233,687.233,687.233
0.000354176	-179085.48	0,4.88712e-05,0.000115742,0.000207243,0.000332446,0.000503761,0.000738175,0.00105893,0.00149782,0.00209836,0.00292009,0.00404447,0.00558298,0.00768814,0.0105687,0.0145101,inf	577.208,577.208,666.346,367.472,528.139,643.593,711.858,819.869,1047.32,1174.6,910.777,811.369,722.707,684.642,684.642,684.642
0.000354935	-179085.84	0,4.88712e-05,0.000115742,0.000207243,0.000332446,0.000503761,0.000738175,0.00105893,0.00149782,0.00209836,0.00292009,0.00404447,0.00558298,0.00768814,0.0105687,0.0145101,inf	571.882,571.882,677.559,359.171,530.476,647.412,708.757,811.512,1051.18,1193.4,903.312,808.593,719.527,681.948,681.948,681.948
0.000355612	-179086.14	0,4.88712e-05,0.000115742,0.000207243,0.000332446,0.000503761,0.000738175,0.00105893,0.00149782,0.00209836,0.00292009,0.00404447,0.00558298,0.00768814,0.0105687,0.0145101,inf	566.664,566.664,687.227,351.421,532.993,651.671,706.288,803.457,1053.96,1210.55,894.926,805.928,716.576,679.103,679.103,679.103
0.000356231	-179086.38	0,4.88712e-05,0.000115742,0.000207243,0.000332446,0.000503761,0.000738175,0.00105893,0.00149782,0.00209836,0.00292009,0.00404447,0.00558298,0.00768814,0.0105687,0.0145101,inf	561.842,561.842,695.637,344.114,535.487,656.156,704.324,795.751,1055.96,1226.46,885.994,803.482,713.846,676.111,676.111,676.111
0.000356809	-179086.59	0,4.88712e-05,0.000115742,0.000207243,0.000332446,0.000503761,0.000738175,0.00105893,0.00149782,0.00209836,0.00292009,0.00404447,0.00558298,0.00768814,0.0105687,0.0145101,inf	557.521,557.521,703.033,337.2,537.847,660.729,702.766,788.404,1057.39,1241.43,876.76,801.31,711.329,673.001,673.001,673.001
0.000357355	-179086.77	0,4.88712e-05,0.000115742,0.000207243,0.000332446,0.000503761,0.000738175,0.00105893,0.00149782,0.00209836,0.00292009,0.00404447,0.00558298,0.00768814,0.0105687,0.0145101,inf	553.717,553.717,709.601,330.649,540.012,665.298,701.542,781.408,1058.39,1255.64,867.384,799.435,709.015,669.815,669.815,669.815
0.000357877	-179086.94	0,4.88712e-05,0.000115742,0.000207243,0.000332446,0.000503761,0.000738175,0.00105893,0.00149782,0.00209836,0.00292009,0.00404447,0.00558298,0.00768814,0.0105687,0.0145101,inf	550.397,550.397,715.486,324.449,541.959,669.805,700.594,774.746,1059.03,1269.26,857.973,797.857,706.895,666.597,666.597,666.597
0.00035838	-179087.10	0,4.88712e-05,0.000115742,0.000207243,0.000332446,0.000503761,0.000738175,0.00105893,0.00149782,0.00209836,0.00292009,0.00404447,0.00558298,0.00768814,0.0105687,0.0145101,inf	547.505,547.505,720.799,318.586,543.679,674.212,699.88,768.4,1059.39,1282.36,848.594,796.564,704.955,663.384,663.384,663.384
0.000358865	-179087.26	0,4.88712e-05,0.000115742,0.000207243,0.000332446,0.000503761,0.000738175,0.00105893,0.00149782,0.00209836,0.00292009,0.00404447,0.00558298,0.00768814,0.0105687,0.0145101,inf	544.99,544.99,725.629,313.049,545.177,678.497,699.365,762.349,1059.5,1295.03,839.292,795.539,703.185,660.209,660.209,660.209
0.000359336	-179087.41	0,4.88712e-05,0.000115742,0.000207243,0.000332446,0.000503761,0.000738175,0.00105893,0.00149782,0.00209836,0.00292009,0.00404447,0.00558298,0.00768814,0.0105687,0.0145101,inf	542.789,542.789,730.054,307.829,546.464,682.645,699.024,756.573,1059.39,1307.32,830.096,794.76,701.571,657.098,657.098,657.098
0.000359794	-179087.56	0,4.88712e-05,0.000115742,0.000207243,0.000332446,0.000503761,0.000738175,0.00105893,0.00149782,0.00209836,0.00292009,0.00404447,0.00558298,0.00768814,0.0105687,0.0145101,inf	540.851,540.851,734.115,302.91,547.554,686.648,698.835,751.055,1059.09,1319.28,821.023,794.204,700.098,654.071,654.071,654.071
0.00036024	-179087.70	0,4.88712e-05,0.000115742,0.000207243,0.000332446,0.000503761,0.000738175,0.00105893,0.00149782,0.00209836,0.00292009,0.00404447,0.00558298,0.00768814,0.0105687,0.0145101,inf	539.146,539.146,737.877,298.286,548.461,690.504,698.781,745.778,1058.62,1330.94,812.084,793.847,698.754,651.142,651.142,651.142
0.000360675	-179087.84	0,4.88712e-05,0.000115742,0.000207243,0.000332446,0.000503761,0.000738175,0.00105893,0.00149782,0.00209836,0.00292009,0.00404447,0.00558298,0.00768814,0.0105687,0.0145101,inf	537.63,537.63,741.37,293.939,549.2,694.211,698.849,740.729,1057.99,1342.32,803.285,793.668,697.528,648.32,648.32,648.32
