time_index	left_time_boundary	right_time_boundary	lambda
0	0	2.25239e-05	0.753643
1	2.25239e-05	4.88712e-05	0.753643
2	4.88712e-05	7.9691e-05	15.6548
3	7.9691e-05	0.000115742	1841.39
4	0.000115742	0.000157914	721.466
5	0.000157914	0.000207243	405.339
6	0.000207243	0.000264947	339.078
7	0.000264947	0.000332446	385.645
8	0.000332446	0.000411402	486.071
9	0.000411402	0.000503761	557.943
10	0.000503761	0.000611799	611.133
11	0.000611799	0.000738175	666.481
12	0.000738175	0.000886005	713.115
13	0.000886005	0.00105893	744.931
14	0.00105893	0.0012612	782.145
15	0.0012612	0.00149782	837.49
16	0.00149782	0.0017746	926.311
17	0.0017746	0.00209836	1045.27
18	0.00209836	0.00247708	1113.2
19	0.00247708	0.00292009	1068.75
20	0.00292009	0.00343829	957.611
21	0.00343829	0.00404447	880.912
22	0.00404447	0.00475354	914.899
23	0.00475354	0.00558298	1037.98
24	0.00558298	0.00655321	1151.65
25	0.00655321	0.00768814	1224.74
26	0.00768814	0.00901573	1297.12
27	0.00901573	0.0105687	1471.18
28	0.0105687	0.0123852	1471.18
29	0.0123852	0.0145101	1825.76
30	0.0145101	0.0169958	1825.76
31	0.0169958	inf	1825.76
