AIC = 1350854.3601821125485

y0 0.18238164776274015666
y0_prime 0
y1 0.47878898283415566306
y1_prime 0
y2 1.9385811834771220497
y2_prime 0
y3 19.185752750936220679
y3_prime 0
rho 0.0011307398884223393478
rho.alpha 0.31752461886062605112
r_ii 0.99988060010741952599
theta 0.0018661692668686454422
