0.000691446	-13682148.79	0,1.74704e-06,4.04833e-06,7.07969e-06,1.10728e-05,1.63326e-05,2.32611e-05,3.23878e-05,4.44098e-05,6.02457e-05,8.11057e-05,0.000108583,0.000144778,0.000192456,0.00025526,0.000337987,0.00044696,0.000590505,0.000779589,0.00102866,0.00135675,0.00178892,0.0023582,0.00310808,0.00409587,0.00539702,0.00711096,0.00936866,0.0123426,0.01626,0.0214202,0.0282175,inf	1178.41,1178.41,618.449,329.811,310.485,312.089,310.616,315.898,332.154,348.157,355.095,352.93,345.845,336.187,329.343,328.516,333.636,344.082,358.942,377.316,398.028,418.601,434.379,442.195,444.058,442.209,435.654,421.424,421.424,447.295,447.295,447.295
0.000759239	-13677102.26	0,1.74704e-06,4.04833e-06,7.07969e-06,1.10728e-05,1.63326e-05,2.32611e-05,3.23878e-05,4.44098e-05,6.02457e-05,8.11057e-05,0.000108583,0.000144778,0.000192456,0.00025526,0.000337987,0.00044696,0.000590505,0.000779589,0.00102866,0.00135675,0.00178892,0.0023582,0.00310808,0.00409587,0.00539702,0.00711096,0.00936866,0.0123426,0.01626,0.0214202,0.0282175,inf	1670.35,1670.35,622.407,279.795,281.37,287.157,282.88,290.453,319.137,348.821,361.862,357.411,343.352,324.088,309.727,305.327,310.215,323.08,342.334,366.73,395.094,424.569,448.776,462.673,468.622,468.661,458.31,432.053,432.053,493.257,493.257,493.257
0.000822236	-13673964.52	0,1.74704e-06,4.04833e-06,7.07969e-06,1.10728e-05,1.63326e-05,2.32611e-05,3.23878e-05,4.44098e-05,6.02457e-05,8.11057e-05,0.000108583,0.000144778,0.000192456,0.00025526,0.000337987,0.00044696,0.000590505,0.000779589,0.00102866,0.00135675,0.00178892,0.0023582,0.00310808,0.00409587,0.00539702,0.00711096,0.00936866,0.0123426,0.01626,0.0214202,0.0282175,inf	1861.33,1861.33,563.262,244.167,267.303,275.22,266.036,273.789,312.693,355.405,375.45,370.479,351.422,324.528,304.341,297.085,301.233,314.716,335.343,361.675,392.816,426.058,454.576,472.728,483.153,486.822,474.266,437.797,437.797,543.333,543.333,543.333
0.000880985	-13671643.54	0,1.74704e-06,4.04833e-06,7.07969e-06,1.10728e-05,1.63326e-05,2.32611e-05,3.23878e-05,4.44098e-05,6.02457e-05,8.11057e-05,0.000108583,0.000144778,0.000192456,0.00025526,0.000337987,0.00044696,0.000590505,0.000779589,0.00102866,0.00135675,0.00178892,0.0023582,0.00310808,0.00409587,0.00539702,0.00711096,0.00936866,0.0123426,0.01626,0.0214202,0.0282175,inf	1920.51,1920.51,499.601,219.6,261.406,268.923,252.68,258.569,305.088,359.149,386.223,382.098,359.923,327.436,303.222,294.226,297.994,311.713,332.653,359.283,391.06,425.546,455.989,476.906,491.473,499.443,485.56,440.331,440.331,600.03,600.03,600.03
0.000936082	-13669790.51	0,1.74704e-06,4.04833e-06,7.07969e-06,1.10728e-05,1.63326e-05,2.32611e-05,3.23878e-05,4.44098e-05,6.02457e-05,8.11057e-05,0.000108583,0.000144778,0.000192456,0.00025526,0.000337987,0.00044696,0.000590505,0.000779589,0.00102866,0.00135675,0.00178892,0.0023582,0.00310808,0.00409587,0.00539702,0.00711096,0.00936866,0.0123426,0.01626,0.0214202,0.0282175,inf	1931.21,1931.21,444.485,203.226,261.791,266.915,241.988,244.686,296.542,359.876,393.235,390.608,366.625,330.148,303.343,293.542,297.372,311.312,332.167,358.382,389.792,424.216,455.182,477.758,495.916,508.324,493.582,440.772,440.772,667.002,667.002,667.002
0.000988014	-13668252.09	0,1.74704e-06,4.04833e-06,7.07969e-06,1.10728e-05,1.63326e-05,2.32611e-05,3.23878e-05,4.44098e-05,6.02457e-05,8.11057e-05,0.000108583,0.000144778,0.000192456,0.00025526,0.000337987,0.00044696,0.000590505,0.000779589,0.00102866,0.00135675,0.00178892,0.0023582,0.00310808,0.00409587,0.00539702,0.00711096,0.00936866,0.0123426,0.01626,0.0214202,0.0282175,inf	1922.65,1922.65,398.15,192.351,266.92,268.297,233.713,232.591,288.207,358.917,397.479,396.455,371.421,332.084,303.718,293.787,298.028,312.264,332.887,358.376,388.941,422.619,453.274,476.72,497.907,514.637,499.276,439.855,439.855,750.463,750.463,750.463
0.00103716	-13666945.76	0,1.74704e-06,4.04833e-06,7.07969e-06,1.10728e-05,1.63326e-05,2.32611e-05,3.23878e-05,4.44098e-05,6.02457e-05,8.11057e-05,0.000108583,0.000144778,0.000192456,0.00025526,0.000337987,0.00044696,0.000590505,0.000779589,0.00102866,0.00135675,0.00178892,0.0023582,0.00310808,0.00409587,0.00539702,0.00711096,0.00936866,0.0123426,0.01626,0.0214202,0.0282175,inf	1905,1905,358.393,184.959,275.403,272.159,227.416,222.409,280.824,357.39,400.041,400.422,374.708,333.258,304.035,294.427,299.324,313.928,334.275,358.916,388.426,421.002,450.857,474.617,498.329,519.157,503.286,438.074,438.074,862.915,862.915,862.915
0.00108382	-13665820.57	0,1.74704e-06,4.04833e-06,7.07969e-06,1.10728e-05,1.63326e-05,2.32611e-05,3.23878e-05,4.44098e-05,6.02457e-05,8.11057e-05,0.000108583,0.000144778,0.000192456,0.00025526,0.000337987,0.00044696,0.000590505,0.000779589,0.00102866,0.00135675,0.00178892,0.0023582,0.00310808,0.00409587,0.00539702,0.00711096,0.00936866,0.0123426,0.01626,0.0214202,0.0282175,inf	1882.56,1882.56,323.508,179.512,285.983,277.571,222.606,213.958,274.683,355.977,401.722,403.178,376.914,333.828,304.214,295.22,300.927,315.953,336.022,359.788,388.168,419.475,448.244,471.931,497.739,522.4,506.058,435.769,435.769,1036.4,1036.4,1036.4
0.00112823	-13664842.05	0,1.74704e-06,4.04833e-06,7.07969e-06,1.10728e-05,1.63326e-05,2.32611e-05,3.23878e-05,4.44098e-05,6.02457e-05,8.11057e-05,0.000108583,0.000144778,0.000192456,0.00025526,0.000337987,0.00044696,0.000590505,0.000779589,0.00102866,0.00135675,0.00178892,0.0023582,0.00310808,0.00409587,0.00539702,0.00711096,0.00936866,0.0123426,0.01626,0.0214202,0.0282175,inf	1857.75,1857.75,292.111,175.186,297.752,283.795,218.832,207.009,269.811,355.017,403.018,405.192,378.377,333.957,304.256,296.052,302.657,318.137,337.942,360.853,388.104,418.076,445.603,468.947,496.494,524.721,507.904,433.183,433.183,1399.56,1399.56,1399.56
0.00117058	-13663986.09	0,1.74704e-06,4.04833e-06,7.07969e-06,1.10728e-05,1.63326e-05,2.32611e-05,3.23878e-05,4.44098e-05,6.02457e-05,8.11057e-05,0.000108583,0.000144778,0.000192456,0.00025526,0.000337987,0.00044696,0.000590505,0.000779589,0.00102866,0.00135675,0.00178892,0.0023582,0.00310808,0.00409587,0.00539702,0.00711096,0.00936866,0.0123426,0.01626,0.0214202,0.0282175,inf	1832.38,1832.38,262.917,171.396,309.985,290.349,215.743,201.267,266.104,354.631,404.209,406.776,379.346,333.785,304.19,296.873,304.417,320.363,339.923,362.021,388.182,416.816,443.021,465.837,494.827,526.357,509.041,430.521,430.521,3200.85,3200.85,3200.85
0.00117058	-13663237.05	0,1.74704e-06,4.04833e-06,7.07969e-06,1.10728e-05,1.63326e-05,2.32611e-05,3.23878e-05,4.44098e-05,6.02457e-05,8.11057e-05,0.000108583,0.000144778,0.000192456,0.00025526,0.000337987,0.00044696,0.000590505,0.000779589,0.00102866,0.00135675,0.00178892,0.0023582,0.00310808,0.00409587,0.00539702,0.00711096,0.00936866,0.0123426,0.01626,0.0214202,0.0282175,inf	1789.26,1789.26,234.573,166.169,318.914,293.775,210.903,194.503,260.709,351.17,401.215,403.846,376.008,329.936,300.892,294.585,302.986,319.228,338.382,359.551,384.528,411.778,436.752,459.226,489.679,524.518,507.15,426.383,426.383,60118.4,60118.4,60118.4
0.00117058	-13663185.50	0,1.74704e-06,4.04833e-06,7.07969e-06,1.10728e-05,1.63326e-05,2.32611e-05,3.23878e-05,4.44098e-05,6.02457e-05,8.11057e-05,0.000108583,0.000144778,0.000192456,0.00025526,0.000337987,0.00044696,0.000590505,0.000779589,0.00102866,0.00135675,0.00178892,0.0023582,0.00310808,0.00409587,0.00539702,0.00711096,0.00936866,0.0123426,0.01626,0.0214202,0.0282175,inf	1789.75,1789.75,212.624,162.592,330.618,296.556,208.144,189.831,257.85,350.75,401.421,403.963,375.38,328.351,299.542,294.07,303.341,320.011,338.92,359.328,383.259,409.176,432.665,454.475,486.113,523.87,506.156,423.089,423.089,60121.8,60121.8,60121.8
0.00117058	-13663155.07	0,1.74704e-06,4.04833e-06,7.07969e-06,1.10728e-05,1.63326e-05,2.32611e-05,3.23878e-05,4.44098e-05,6.02457e-05,8.11057e-05,0.000108583,0.000144778,0.000192456,0.00025526,0.000337987,0.00044696,0.000590505,0.000779589,0.00102866,0.00135675,0.00178892,0.0023582,0.00310808,0.00409587,0.00539702,0.00711096,0.00936866,0.0123426,0.01626,0.0214202,0.0282175,inf	1790.14,1790.14,193.322,159.067,342.774,297.805,205.893,185.795,255.637,350.936,402.162,404.541,375.131,327.05,298.402,293.71,303.902,321.099,338.92,359.328,383.03,407.773,429.925,450.984,483.557,524.02,505.769,420.143,420.143,60124.4,60124.4,60124.4
0.00117058	-13663138.49	0,1.74704e-06,4.04833e-06,7.07969e-06,1.10728e-05,1.63326e-05,2.32611e-05,3.23878e-05,4.44098e-05,6.02457e-05,8.11057e-05,0.000108583,0.000144778,0.000192456,0.00025526,0.000337987,0.00044696,0.000590505,0.000779589,0.00102866,0.00135675,0.00178892,0.0023582,0.00310808,0.00409587,0.00539702,0.00711096,0.00936866,0.0123426,0.01626,0.0214202,0.0282175,inf	1790.42,1790.42,176.184,155.569,355.145,297.928,204.004,182.172,253.787,351.403,403.098,405.28,375.02,325.842,297.301,293.398,304.48,321.099,339.527,359.328,383.03,407.131,428.043,448.307,481.64,524.702,505.781,417.415,417.415,60126.4,60126.4,60126.4
0.00117058	-13663128.76	0,1.74704e-06,4.04833e-06,7.07969e-06,1.10728e-05,1.63326e-05,2.32611e-05,3.23878e-05,4.44098e-05,6.02457e-05,8.11057e-05,0.000108583,0.000144778,0.000192456,0.00025526,0.000337987,0.00044696,0.000590505,0.000779589,0.00102866,0.00135675,0.00178892,0.0023582,0.00310808,0.00409587,0.00539702,0.00711096,0.00936866,0.0123426,0.01626,0.0214202,0.0282175,inf	1790.42,1790.42,160.912,152.057,355.248,304.602,202.403,178.883,252.202,352.066,404.183,406.18,375.066,324.764,296.283,293.092,305.082,321.7,339.527,359.328,383.03,406.969,426.724,446.174,480.151,525.737,506.056,414.82,414.82,60128.2,60128.2,60128.2
0.00117058	-13663122.78	0,1.74704e-06,4.04833e-06,7.07969e-06,1.10728e-05,1.63326e-05,2.32611e-05,3.23878e-05,4.44098e-05,6.02457e-05,8.11057e-05,0.000108583,0.000144778,0.000192456,0.00025526,0.000337987,0.00044696,0.000590505,0.000779589,0.00102866,0.00135675,0.00178892,0.0023582,0.00310808,0.00409587,0.00539702,0.00711096,0.00936866,0.0123426,0.01626,0.0214202,0.0282175,inf	1790.84,1790.84,147.648,148.954,365.247,304.603,200.969,175.782,250.744,352.77,405.275,406.974,375.066,323.747,295.267,292.779,305.668,322.218,339.527,359.328,383.03,406.969,425.79,444.417,478.955,527.015,506.501,412.304,412.304,60129.7,60129.7,60129.7
0.00117058	-13663119.02	0,1.74704e-06,4.04833e-06,7.07969e-06,1.10728e-05,1.63326e-05,2.32611e-05,3.23878e-05,4.44098e-05,6.02457e-05,8.11057e-05,0.000108583,0.000144778,0.000192456,0.00025526,0.000337987,0.00044696,0.000590505,0.000779589,0.00102866,0.00135675,0.00178892,0.0023582,0.00310808,0.00409587,0.00539702,0.00711096,0.00936866,0.0123426,0.01626,0.0214202,0.0282175,inf	1791.79,1791.79,135.683,145.842,365.247,311.625,199.736,172.905,249.444,353.551,406.404,406.991,375.263,322.809,294.311,292.47,306.239,322.741,339.527,359.328,383.03,406.969,425.133,442.931,477.966,528.479,506.529,409.841,409.841,60131.2,60131.2,60131.2
0.00117058	-13663115.72	0,1.74704e-06,4.04833e-06,7.07969e-06,1.10728e-05,1.63326e-05,2.32611e-05,3.23878e-05,4.44098e-05,6.02457e-05,8.11057e-05,0.000108583,0.000144778,0.000192456,0.00025526,0.000337987,0.00044696,0.000590505,0.000779589,0.00102866,0.00135675,0.00178892,0.0023582,0.00310808,0.00409587,0.00539702,0.00711096,0.00936866,0.0123426,0.01626,0.0214202,0.0282175,inf	1791.79,1791.79,125.082,142.946,373.94,311.625,198.546,170.163,248.246,354.402,407.592,407.01,375.51,321.956,293.385,292.163,306.789,323.189,339.527,359.328,383.03,406.969,424.688,441.654,477.138,529.994,506.562,407.421,407.421,60132.5,60132.5,60132.5
0.00117058	-13663113.15	0,1.74704e-06,4.04833e-06,7.07969e-06,1.10728e-05,1.63326e-05,2.32611e-05,3.23878e-05,4.44098e-05,6.02457e-05,8.11057e-05,0.000108583,0.000144778,0.000192456,0.00025526,0.000337987,0.00044696,0.000590505,0.000779589,0.00102866,0.00135675,0.00178892,0.0023582,0.00310808,0.00409587,0.00539702,0.00711096,0.00936866,0.0123426,0.01626,0.0214202,0.0282175,inf	1792.78,1792.78,115.471,140.075,381.659,311.625,197.509,167.597,247.176,355.32,408.832,407.121,375.51,321.176,292.502,291.863,307.321,323.603,339.527,359.328,383.03,406.969,424.407,440.536,476.442,531.289,506.562,405.031,405.031,60133.9,60133.9,60133.9
0.00117058	-13663110.42	0,1.74704e-06,4.04833e-06,7.07969e-06,1.10728e-05,1.63326e-05,2.32611e-05,3.23878e-05,4.44098e-05,6.02457e-05,8.11057e-05,0.000108583,0.000144778,0.000192456,0.00025526,0.000337987,0.00044696,0.000590505,0.000779589,0.00102866,0.00135675,0.00178892,0.0023582,0.00310808,0.00409587,0.00539702,0.00711096,0.00936866,0.0123426,0.01626,0.0214202,0.0282175,inf	1792.97,1792.97,106.747,137.27,388.815,311.626,196.618,165.182,246.203,356.275,410.02,407.121,375.51,320.469,291.676,291.569,307.837,323.603,339.527,359.328,383.194,406.969,424.258,439.55,475.859,532.366,506.562,402.676,402.676,60135.3,60135.3,60135.3
