time_index	left_time_boundary	right_time_boundary	lambda
0	0	2.83787e-06	419.15
1	2.83787e-06	6.58563e-06	419.15
2	6.58563e-06	1.1535e-05	419.15
3	1.1535e-05	1.80712e-05	419.15
4	1.80712e-05	2.67031e-05	419.15
5	2.67031e-05	3.81026e-05	419.15
6	3.81026e-05	5.3157e-05	419.15
7	5.3157e-05	7.30382e-05	419.15
8	7.30382e-05	9.92937e-05	419.15
9	9.92937e-05	0.000133967	419.15
10	0.000133967	0.000179758	419.15
11	0.000179758	0.00024023	419.15
12	0.00024023	0.000320091	419.15
13	0.000320091	0.000425557	419.15
14	0.000425557	0.000564838	419.15
15	0.000564838	0.000748775	419.15
16	0.000748775	0.000991686	419.15
17	0.000991686	0.00131248	419.15
18	0.00131248	0.00173613	419.15
19	0.00173613	0.00229561	419.15
20	0.00229561	0.00303446	419.15
21	0.00303446	0.00401022	419.15
22	0.00401022	0.00529882	419.15
23	0.00529882	0.00700057	419.15
24	0.00700057	0.00924794	419.15
25	0.00924794	0.0122159	419.15
26	0.0122159	0.0161354	419.15
27	0.0161354	0.0213116	419.15
28	0.0213116	0.0281474	419.15
29	0.0281474	inf	419.15
