LogLikelihood = -134833.7392935595708

y0 0.11835063267746918914
y0_prime 0
y1 0.46307447209348290285
y1_prime 0
y2 2.0051663942708346511
y2_prime 0
y3 11.168414558861966768
y3_prime 0
rho 0.0013139936772259288265
rho.alpha 1.4191988918040163714
r_ii 0.99930589793406365828
theta 0.0018571149554157402161
