LogLikelihood = -660790.72401623858605

y0 0.12483766070249130431
y0_prime 0
y1 0.3087324947651571283
y1_prime 0
y2 1.8570948360079493344
y2_prime 0
y3 71.682716566842216821
y3_prime 0
rho 0.000277769332495847942
rho.alpha 0.30425037778467617366
r_ii 0.99990248596636344125
theta 0.0018216186251773761225
