AIC = 619151.23393921123352

y0 0.92319618792969837529
y0_prime 0
y1 1.2068449193663017827
y1_prime 0
y2 0.85495086394931762985
y2_prime 0
y3 1.7727910452207029657
y3_prime 0
rho 0.0034713513398881086676
rho.alpha 0.6886636434337805035
r_ii 0.99998191836665251131
theta 0.0050840732106542333574
