0.000529615	-1725661.27	0,9.49366e-06,2.12364e-05,3.5761e-05,5.37265e-05,7.5948e-05,0.000103434,0.000137431,0.000179483,0.000231496,0.000295831,0.000375408,0.000473836,0.000595583,0.000746171,0.000932433,0.00116282,0.00144779,0.00180027,0.00223625,0.00277551,0.00344253,0.00426756,0.00528805,0.00655029,0.00811156,0.0100427,0.0124313,0.0153858,0.0190402,0.0235604,0.0291514,inf	436.851,436.851,239.693,385.579,351.864,364.653,364.123,399.348,403.007,405.093,403.352,409.025,422.365,439.983,450.915,450.688,440.214,429.663,423.75,420.345,415.085,405.763,396.813,394.254,399.519,403.856,396.414,366.374,366.374,198.962,198.962,198.962
0.000467878	-1725059.69	0,9.49366e-06,2.12364e-05,3.5761e-05,5.37265e-05,7.5948e-05,0.000103434,0.000137431,0.000179483,0.000231496,0.000295831,0.000375408,0.000473836,0.000595583,0.000746171,0.000932433,0.00116282,0.00144779,0.00180027,0.00223625,0.00277551,0.00344253,0.00426756,0.00528805,0.00655029,0.00811156,0.0100427,0.0124313,0.0153858,0.0190402,0.0235604,0.0291514,inf	478.374,478.374,156.284,416.687,330.891,353.18,338.263,400.727,403.152,401.177,391.019,395.07,415.41,448.799,472.514,474.971,455.429,436.159,427.631,424.72,417.296,400.034,383.337,379.818,391.705,401.319,386.626,345.038,345.038,7.12207,7.12207,7.12207
0.000414133	-1724704.84	0,9.49366e-06,2.12364e-05,3.5761e-05,5.37265e-05,7.5948e-05,0.000103434,0.000137431,0.000179483,0.000231496,0.000295831,0.000375408,0.000473836,0.000595583,0.000746171,0.000932433,0.00116282,0.00144779,0.00180027,0.00223625,0.00277551,0.00344253,0.00426756,0.00528805,0.00655029,0.00811156,0.0100427,0.0124313,0.0153858,0.0190402,0.0235604,0.0291514,inf	517.075,517.075,102.947,468.269,322.549,358.717,323.502,411.686,413.257,404.847,383.118,380.873,402.815,449.011,485.535,492.243,464.16,437.12,428.263,428.916,421.949,397.625,373.92,370.977,392.145,412.078,397.945,416.852,416.852,0.0621473,0.0621473,0.0621473
0.000368893	-1724266.85	0,9.49366e-06,2.12364e-05,3.5761e-05,5.37265e-05,7.5948e-05,0.000103434,0.000137431,0.000179483,0.000231496,0.000295831,0.000375408,0.000473836,0.000595583,0.000746171,0.000932433,0.00116282,0.00144779,0.00180027,0.00223625,0.00277551,0.00344253,0.00426756,0.00528805,0.00655029,0.00811156,0.0100427,0.0124313,0.0153858,0.0190402,0.0235604,0.0291514,inf	553.433,553.433,65.7127,525.043,316.805,372.927,313.787,427.608,431.077,415.509,380.971,369.489,388.89,444.968,493.538,505.185,468.414,433.762,425.775,431.968,427.268,395.977,365.022,362.531,391.975,419.097,394.041,424.199,424.199,2.28564,2.28564,2.28564
0.000331327	-1723929.03	0,9.49366e-06,2.12364e-05,3.5761e-05,5.37265e-05,7.5948e-05,0.000103434,0.000137431,0.000179483,0.000231496,0.000295831,0.000375408,0.000473836,0.000595583,0.000746171,0.000932433,0.00116282,0.00144779,0.00180027,0.00223625,0.00277551,0.00344253,0.00426756,0.00528805,0.00655029,0.00811156,0.0100427,0.0124313,0.0153858,0.0190402,0.0235604,0.0291514,inf	583.631,583.631,39.8225,576.077,308.052,389.584,304.396,442.82,452.226,430.032,383.157,360.961,374.997,438.579,498.398,515.42,469.783,427.507,421.045,434.154,433.269,395.182,357.038,355.498,393.665,427.743,386.118,404.097,404.097,0.567264,0.567264,0.567264
0.000300581	-1723691.30	0,9.49366e-06,2.12364e-05,3.5761e-05,5.37265e-05,7.5948e-05,0.000103434,0.000137431,0.000179483,0.000231496,0.000295831,0.000375408,0.000473836,0.000595583,0.000746171,0.000932433,0.00116282,0.00144779,0.00180027,0.00223625,0.00277551,0.00344253,0.00426756,0.00528805,0.00655029,0.00811156,0.0100427,0.0124313,0.0153858,0.0190402,0.0235604,0.0291514,inf	612.096,612.096,23.0109,621.195,296.94,408.179,295.168,456.234,475.534,447.425,389.354,355.612,362.288,431.434,501.746,524.353,469.692,419.665,414.874,435.602,439.659,394.959,349.809,349.829,397.661,440.123,378.842,393.961,393.961,156.291,156.291,156.291
0.00027618	-1723420.29	0,9.49366e-06,2.12364e-05,3.5761e-05,5.37265e-05,7.5948e-05,0.000103434,0.000137431,0.000179483,0.000231496,0.000295831,0.000375408,0.000473836,0.000595583,0.000746171,0.000932433,0.00116282,0.00144779,0.00180027,0.00223625,0.00277551,0.00344253,0.00426756,0.00528805,0.00655029,0.00811156,0.0100427,0.0124313,0.0153858,0.0190402,0.0235604,0.0291514,inf	638.894,638.894,12.7416,660.836,284.086,428.091,285.728,466.421,499.008,465.87,398.536,353.016,351.01,424.153,504.267,532.436,468.702,410.842,407.537,435.969,445.539,394.317,342.269,343.885,400.612,448.279,358.333,335.456,335.456,6.1077,6.1077,6.1077
0.000256088	-1723390.22	0,9.49366e-06,2.12364e-05,3.5761e-05,5.37265e-05,7.5948e-05,0.000103434,0.000137431,0.000179483,0.000231496,0.000295831,0.000375408,0.000473836,0.000595583,0.000746171,0.000932433,0.00116282,0.00144779,0.00180027,0.00223625,0.00277551,0.00344253,0.00426756,0.00528805,0.00655029,0.00811156,0.0100427,0.0124313,0.0153858,0.0190402,0.0235604,0.0291514,inf	660.313,660.313,6.77491,692.869,269.095,447.31,275.459,472.18,520.602,483.314,409.05,352.075,340.704,416.674,506.132,540.004,467.639,402.184,400.181,436.229,451.84,394.597,336.29,340.443,408.75,469.56,357.193,368.411,368.411,0.046982,0.046982,0.046982
0.000240172	-1723303.66	0,9.49366e-06,2.12364e-05,3.5761e-05,5.37265e-05,7.5948e-05,0.000103434,0.000137431,0.000179483,0.000231496,0.000295831,0.000375408,0.000473836,0.000595583,0.000746171,0.000932433,0.00116282,0.00144779,0.00180027,0.00223625,0.00277551,0.00344253,0.00426756,0.00528805,0.00655029,0.00811156,0.0100427,0.0124313,0.0153858,0.0190402,0.0235604,0.0291514,inf	678.495,678.495,3.48207,719.247,253.03,465.906,264.872,474.099,539.927,499.013,420.18,352.287,331.181,408.983,507.308,546.841,466.445,393.725,392.649,435.69,457.167,394.121,329.846,336.145,414.735,486.739,345.71,364.12,364.12,1.42723,1.42723,1.42723
0.000227726	-1723239.29	0,9.49366e-06,2.12364e-05,3.5761e-05,5.37265e-05,7.5948e-05,0.000103434,0.000137431,0.000179483,0.000231496,0.000295831,0.000375408,0.000473836,0.000595583,0.000746171,0.000932433,0.00116282,0.00144779,0.00180027,0.00223625,0.00277551,0.00344253,0.00426756,0.00528805,0.00655029,0.00811156,0.0100427,0.0124313,0.0153858,0.0190402,0.0235604,0.0291514,inf	695.015,695.015,1.74372,742.991,237.144,484.897,254.661,473.337,557.224,512.935,431.953,353.841,322.845,401.745,508.492,553.42,465.546,385.941,385.491,434.916,462.042,393.547,323.735,331.975,420.232,503.394,331.748,346.38,346.38,145.323,145.323,145.323
0.000218502	-1723125.29	0,9.49366e-06,2.12364e-05,3.5761e-05,5.37265e-05,7.5948e-05,0.000103434,0.000137431,0.000179483,0.000231496,0.000295831,0.000375408,0.000473836,0.000595583,0.000746171,0.000932433,0.00116282,0.00144779,0.00180027,0.00223625,0.00277551,0.00344253,0.00426756,0.00528805,0.00655029,0.00811156,0.0100427,0.0124313,0.0153858,0.0190402,0.0235604,0.0291514,inf	708.471,708.471,0.854629,763.69,221.431,503.502,244.529,469.583,571.334,523.807,443.298,356.019,315.26,394.697,509.417,559.404,464.751,378.781,378.706,433.822,466.21,392.607,317.651,327.356,423.504,513.09,307.72,301.948,301.948,5.64193,5.64193,5.64193
