9.36279e-06	-318607.92	0,5.4976e-08,1.50367e-07,3.15885e-07,6.03081e-07,1.10141e-06,1.96608e-06,3.46641e-06,6.06969e-06,1.05868e-05,1.84245e-05,3.20242e-05,5.56215e-05,9.65664e-05,0.000167612,0.000290885,inf	414.092,414.092,827.906,1492.23,2643.67,4639.64,8087.88,13764.1,21488.3,30997.4,38003.5,34133.8,42978.5,56828.8,56828.8,56828.8
1.01023e-05	-318406.58	0,5.4976e-08,1.50367e-07,3.15885e-07,6.03081e-07,1.10141e-06,1.96608e-06,3.46641e-06,6.06969e-06,1.05868e-05,1.84245e-05,3.20242e-05,5.56215e-05,9.65664e-05,0.000167612,0.000290885,inf	29.7161,29.7161,33.253,110.19,348.171,1069.1,3183.82,8614.99,18114.8,31122,41329.7,33992.1,56548.9,159377,159377,159377
1.01023e-05	-318363.17	0,5.4976e-08,1.50367e-07,3.15885e-07,6.03081e-07,1.10141e-06,1.96608e-06,3.46641e-06,6.06969e-06,1.05868e-05,1.84245e-05,3.20242e-05,5.56215e-05,9.65664e-05,0.000167612,0.000290885,inf	29.7158,29.7158,29.7158,29.7158,56.1599,299.522,1506.38,6242.96,16399.5,31014.2,41758.3,31879,72833.9,3.69369e+06,3.69369e+06,3.69369e+06
