time_index	left_time_boundary	right_time_boundary	lambda
0	0	3.66193e-06	9937.15
1	3.66193e-06	1.00159e-05	9937.15
2	1.00159e-05	2.1041e-05	2952.79
3	2.1041e-05	4.01711e-05	637.95
4	4.01711e-05	7.33645e-05	258.443
5	7.33645e-05	0.00013096	203.051
6	0.00013096	0.000230896	162.947
7	0.000230896	0.0004043	151.116
8	0.0004043	0.000705181	208.156
9	0.000705181	0.00122725	288.96
10	0.00122725	0.00213312	387.258
11	0.00213312	0.00370493	711.97
12	0.00370493	0.00643226	554.946
13	0.00643226	0.0111646	424.037
14	0.0111646	0.0193758	424.037
15	0.0193758	inf	424.037
