0.000641869	-282127.06	0,8.28185e-05,0.00019614,0.0003512,0.000563371,0.000853687,0.00125093,0.00179449,0.00253824,0.00355593,0.00494845,0.00685386,0.00946106,0.0130285,0.0179099,0.0245893,inf	316.66,316.66,221.903,226.971,265.837,331.811,425.294,530.408,563.288,539.84,517.164,496.843,475.977,463.745,463.745,463.745
0.000726962	-281774.38	0,8.28185e-05,0.00019614,0.0003512,0.000563371,0.000853687,0.00125093,0.00179449,0.00253824,0.00355593,0.00494845,0.00685386,0.00946106,0.0130285,0.0179099,0.0245893,inf	331.324,331.324,165.413,163.201,207.547,290.203,414.555,575.388,637.327,604.821,571.335,536.492,498.326,480.026,480.026,480.026
0.000808674	-281610.32	0,8.28185e-05,0.00019614,0.0003512,0.000563371,0.000853687,0.00125093,0.00179449,0.00253824,0.00355593,0.00494845,0.00685386,0.00946106,0.0130285,0.0179099,0.0245893,inf	365.436,365.436,142.004,134.843,180.625,269.759,406.652,598.061,681.171,646.986,610.135,565.228,513.057,493.713,493.713,493.713
0.000886421	-281507.89	0,8.28185e-05,0.00019614,0.0003512,0.000563371,0.000853687,0.00125093,0.00179449,0.00253824,0.00355593,0.00494845,0.00685386,0.00946106,0.0130285,0.0179099,0.0245893,inf	395.431,395.431,129.259,119.706,166.712,259.111,401.069,609.168,706.438,673.694,637.446,585.369,521.738,504.814,504.814,504.814
0.000960709	-281433.27	0,8.28185e-05,0.00019614,0.0003512,0.000563371,0.000853687,0.00125093,0.00179449,0.00253824,0.00355593,0.00494845,0.00685386,0.00946106,0.0130285,0.0179099,0.0245893,inf	416.573,416.573,121.104,110.898,159.485,253.886,397.327,614.123,720.351,690.158,656.372,598.854,525.673,513.335,513.335,513.335
0.00103212	-281373.57	0,8.28185e-05,0.00019614,0.0003512,0.000563371,0.000853687,0.00125093,0.00179449,0.00253824,0.00355593,0.00494845,0.00685386,0.00946106,0.0130285,0.0179099,0.0245893,inf	429.658,429.658,115.378,105.618,156.151,251.953,394.962,615.681,727.23,699.835,669.197,607.212,525.928,519.352,519.352,519.352
0.00110114	-281322.93	0,8.28185e-05,0.00019614,0.0003512,0.000563371,0.000853687,0.00125093,0.00179449,0.00253824,0.00355593,0.00494845,0.00685386,0.00946106,0.0130285,0.0179099,0.0245893,inf	436.702,436.702,111.122,102.505,155.269,252.121,393.589,615.295,729.688,704.994,677.58,611.636,523.382,523.035,523.035,523.035
0.00116813	-281278.36	0,8.28185e-05,0.00019614,0.0003512,0.000563371,0.000853687,0.00125093,0.00179449,0.00253824,0.00355593,0.00494845,0.00685386,0.00946106,0.0130285,0.0179099,0.0245893,inf	439.578,439.578,107.823,100.805,156.011,253.663,392.91,613.767,729.338,707.133,682.718,613.064,518.749,524.614,524.614,524.614
0.00123338	-281238.22	0,8.28185e-05,0.00019614,0.0003512,0.000563371,0.000853687,0.00125093,0.00179449,0.00253824,0.00355593,0.00494845,0.00685386,0.00946106,0.0130285,0.0179099,0.0245893,inf	439.693,439.693,105.175,100.066,157.86,256.113,392.708,611.558,727.199,707.254,685.483,612.228,512.611,524.367,524.367,524.367
0.0012971	-281201.53	0,8.28185e-05,0.00019614,0.0003512,0.000563371,0.000853687,0.00125093,0.00179449,0.00253824,0.00355593,0.00494845,0.00685386,0.00946106,0.0130285,0.0179099,0.0245893,inf	438.051,438.051,102.978,99.9969,160.48,259.157,392.823,608.942,723.932,706.031,686.515,609.701,505.431,522.584,522.584,522.584
0.00135945	-281167.64	0,8.28185e-05,0.00019614,0.0003512,0.000563371,0.000853687,0.00125093,0.00179449,0.00253824,0.00355593,0.00494845,0.00685386,0.00946106,0.0130285,0.0179099,0.0245893,inf	435.333,435.333,101.098,100.405,163.64,262.582,393.141,606.089,719.97,703.927,686.283,605.934,497.569,519.55,519.55,519.55
0.00142056	-281136.12	0,8.28185e-05,0.00019614,0.0003512,0.000563371,0.000853687,0.00125093,0.00179449,0.00253824,0.00355593,0.00494845,0.00685386,0.00946106,0.0130285,0.0179099,0.0245893,inf	432,432,99.4453,101.158,167.177,266.236,393.581,603.109,715.603,701.261,685.136,601.274,489.307,515.532,515.532,515.532
0.00148052	-281106.68	0,8.28185e-05,0.00019614,0.0003512,0.000563371,0.000853687,0.00125093,0.00179449,0.00253824,0.00355593,0.00494845,0.00685386,0.00946106,0.0130285,0.0179099,0.0245893,inf	428.361,428.361,97.9545,102.161,170.977,270.015,394.086,600.071,711.026,698.252,683.335,595.992,480.858,510.768,510.768,510.768
0.0015394	-281079.06	0,8.28185e-05,0.00019614,0.0003512,0.000563371,0.000853687,0.00125093,0.00179449,0.00253824,0.00355593,0.00494845,0.00685386,0.00946106,0.0130285,0.0179099,0.0245893,inf	424.619,424.619,96.5816,103.347,174.952,273.843,394.617,597.022,706.37,695.055,681.072,590.298,472.379,505.46,505.46,505.46
0.00159727	-281053.08	0,8.28185e-05,0.00019614,0.0003512,0.000563371,0.000853687,0.00125093,0.00179449,0.00253824,0.00355593,0.00494845,0.00685386,0.00946106,0.0130285,0.0179099,0.0245893,inf	420.908,420.908,95.2956,104.666,179.042,277.668,395.146,593.995,701.725,691.777,678.493,584.35,463.988,499.778,499.778,499.778
0.00165418	-281028.60	0,8.28185e-05,0.00019614,0.0003512,0.000563371,0.000853687,0.00125093,0.00179449,0.00253824,0.00355593,0.00494845,0.00685386,0.00946106,0.0130285,0.0179099,0.0245893,inf	417.313,417.313,94.0748,106.082,183.198,281.451,395.654,591.009,697.15,688.49,675.706,578.27,455.765,493.864,493.864,493.864
0.00171017	-281005.48	0,8.28185e-05,0.00019614,0.0003512,0.000563371,0.000853687,0.00125093,0.00179449,0.00253824,0.00355593,0.00494845,0.00685386,0.00946106,0.0130285,0.0179099,0.0245893,inf	413.885,413.885,92.9042,107.568,187.385,285.166,396.13,588.079,692.684,685.246,672.793,572.15,447.77,487.827,487.827,487.827
0.00176527	-280983.61	0,8.28185e-05,0.00019614,0.0003512,0.000563371,0.000853687,0.00125093,0.00179449,0.00253824,0.00355593,0.00494845,0.00685386,0.00946106,0.0130285,0.0179099,0.0245893,inf	410.654,410.654,91.7733,109.104,191.576,288.793,396.566,585.214,688.351,682.077,669.814,566.06,440.039,481.758,481.758,481.758
0.0018195	-280962.90	0,8.28185e-05,0.00019614,0.0003512,0.000563371,0.000853687,0.00125093,0.00179449,0.00253824,0.00355593,0.00494845,0.00685386,0.00946106,0.0130285,0.0179099,0.0245893,inf	407.633,407.633,90.6753,110.675,195.751,292.32,396.957,582.42,684.167,679.008,666.814,560.048,432.595,475.722,475.722,475.722
0.00187291	-280943.26	0,8.28185e-05,0.00019614,0.0003512,0.000563371,0.000853687,0.00125093,0.00179449,0.00253824,0.00355593,0.00494845,0.00685386,0.00946106,0.0130285,0.0179099,0.0245893,inf	404.828,404.828,89.6049,112.269,199.895,295.74,397.301,579.7,680.14,676.05,663.827,554.151,425.45,469.772,469.772,469.772
