0.000596151	-12287137.32	0,1.58182e-06,3.66546e-06,6.41014e-06,1.00256e-05,1.4788e-05,2.10613e-05,2.93247e-05,4.02098e-05,5.45481e-05,7.34352e-05,9.83143e-05,0.000131086,0.000174255,0.000231119,0.000306023,0.00040469,0.000534659,0.000705861,0.000931376,0.00122844,0.00161974,0.00213518,0.00281414,0.00370851,0.00488661,0.00643846,0.00848263,0.0111753,0.0147223,0.0193944,0.0255489,inf	18150.3,18150.3,8684.47,4161.69,2214.11,1249.38,800.077,599.745,499.437,445.115,415.44,392.505,371.187,361.757,363.711,356.638,360.343,372.999,386.053,398.61,412.825,427.74,441.272,448.048,444.321,439.248,440.173,434.455,434.455,420.597,420.597,420.597
0.00063217	-12284803.58	0,1.58182e-06,3.66546e-06,6.41014e-06,1.00256e-05,1.4788e-05,2.10613e-05,2.93247e-05,4.02098e-05,5.45481e-05,7.34352e-05,9.83143e-05,0.000131086,0.000174255,0.000231119,0.000306023,0.00040469,0.000534659,0.000705861,0.000931376,0.00122844,0.00161974,0.00213518,0.00281414,0.00370851,0.00488661,0.00643846,0.00848263,0.0111753,0.0147223,0.0193944,0.0255489,inf	30461.3,30461.3,13153.4,5438.6,2561.04,1311.71,802.028,592.914,491.251,438.703,411.927,384.46,353.071,340.826,346.654,330.126,333.758,352.26,370.06,385.894,404.263,424.372,443.625,452.766,444.504,435.006,436.832,426.193,426.193,398.784,398.784,398.784
0.000666099	-12283640.71	0,1.58182e-06,3.66546e-06,6.41014e-06,1.00256e-05,1.4788e-05,2.10613e-05,2.93247e-05,4.02098e-05,5.45481e-05,7.34352e-05,9.83143e-05,0.000131086,0.000174255,0.000231119,0.000306023,0.00040469,0.000534659,0.000705861,0.000931376,0.00122844,0.00161974,0.00213518,0.00281414,0.00370851,0.00488661,0.00643846,0.00848263,0.0111753,0.0147223,0.0193944,0.0255489,inf	32887.2,32887.2,14104.6,5519.03,2486.97,1235.25,757.528,570.524,480.799,437.223,417.743,388.225,348.851,335.851,346.172,319.826,323.155,345.727,365.849,382.149,401.558,423.812,446.326,456.666,444.34,431.372,434.352,419.509,419.509,379.274,379.274,379.274
0.000697604	-12282765.12	0,1.58182e-06,3.66546e-06,6.41014e-06,1.00256e-05,1.4788e-05,2.10613e-05,2.93247e-05,4.02098e-05,5.45481e-05,7.34352e-05,9.83143e-05,0.000131086,0.000174255,0.000231119,0.000306023,0.00040469,0.000534659,0.000705861,0.000931376,0.00122844,0.00161974,0.00213518,0.00281414,0.00370851,0.00488661,0.00643846,0.00848263,0.0111753,0.0147223,0.0193944,0.0255489,inf	33026.7,33026.7,14290.8,5397.74,2364.31,1152.73,714.235,549.581,471.426,436.678,424.711,393.524,347.307,334.979,350.145,314.47,318.008,344.061,365.573,381.236,400.43,423.58,448.329,459.504,443.734,428.1,432.456,413.964,413.964,361.687,361.687,361.687
0.000726794	-12282062.74	0,1.58182e-06,3.66546e-06,6.41014e-06,1.00256e-05,1.4788e-05,2.10613e-05,2.93247e-05,4.02098e-05,5.45481e-05,7.34352e-05,9.83143e-05,0.000131086,0.000174255,0.000231119,0.000306023,0.00040469,0.000534659,0.000705861,0.000931376,0.00122844,0.00161974,0.00213518,0.00281414,0.00370851,0.00488661,0.00643846,0.00848263,0.0111753,0.0147223,0.0193944,0.0255489,inf	32769.4,32769.4,14333.2,5260.66,2250.53,1080.57,676.925,531.268,462.643,435.532,430.54,397.658,345.54,334.936,355.052,310.775,315.089,344.365,366.825,381.345,399.746,423.193,449.65,461.516,442.841,425.152,431.039,409.329,409.329,345.756,345.756,345.756
0.000753865	-12281489.61	0,1.58182e-06,3.66546e-06,6.41014e-06,1.00256e-05,1.4788e-05,2.10613e-05,2.93247e-05,4.02098e-05,5.45481e-05,7.34352e-05,9.83143e-05,0.000131086,0.000174255,0.000231119,0.000306023,0.00040469,0.000534659,0.000705861,0.000931376,0.00122844,0.00161974,0.00213518,0.00281414,0.00370851,0.00488661,0.00643846,0.00848263,0.0111753,0.0147223,0.0193944,0.0255489,inf	32461.6,32461.6,14343.7,5136.14,2151.95,1019.37,645.555,515.644,454.583,433.883,435.141,400.369,343.081,334.913,359.872,307.712,313.251,345.587,368.744,381.87,399.187,422.616,450.465,462.949,441.797,422.507,430.032,405.444,405.444,331.255,331.255,331.255
0.000779011	-12281017.29	0,1.58182e-06,3.66546e-06,6.41014e-06,1.00256e-05,1.4788e-05,2.10613e-05,2.93247e-05,4.02098e-05,5.45481e-05,7.34352e-05,9.83143e-05,0.000131086,0.000174255,0.000231119,0.000306023,0.00040469,0.000534659,0.000705861,0.000931376,0.00122844,0.00161974,0.00213518,0.00281414,0.00370851,0.00488661,0.00643846,0.00848263,0.0111753,0.0147223,0.0193944,0.0255489,inf	32163.5,32163.5,14340.7,5025.95,2067.18,967.617,619.436,502.632,447.488,432.102,438.889,401.96,340.054,334.778,364.337,304.928,312.017,347.282,370.972,382.571,398.661,421.9,450.935,463.985,440.692,420.139,429.371,402.183,402.183,317.989,317.989,317.989
0.000802406	-12280625.13	0,1.58182e-06,3.66546e-06,6.41014e-06,1.00256e-05,1.4788e-05,2.10613e-05,2.93247e-05,4.02098e-05,5.45481e-05,7.34352e-05,9.83143e-05,0.000131086,0.000174255,0.000231119,0.000306023,0.00040469,0.000534659,0.000705861,0.000931376,0.00122844,0.00161974,0.00213518,0.00281414,0.00370851,0.00488661,0.00643846,0.00848263,0.0111753,0.0147223,0.0193944,0.0255489,inf	31888.7,31888.7,14327.3,4927.77,1993.72,923.643,597.745,491.965,441.402,430.449,442.135,402.759,336.662,334.562,368.404,302.296,311.158,349.231,373.335,383.342,398.141,421.096,451.173,464.746,439.575,418.014,429,399.447,399.447,305.792,305.792,305.792
0.000824205	-12280297.60	0,1.58182e-06,3.66546e-06,6.41014e-06,1.00256e-05,1.4788e-05,2.10613e-05,2.93247e-05,4.02098e-05,5.45481e-05,7.34352e-05,9.83143e-05,0.000131086,0.000174255,0.000231119,0.000306023,0.00040469,0.000534659,0.000705861,0.000931376,0.00122844,0.00161974,0.00213518,0.00281414,0.00370851,0.00488661,0.00643846,0.00848263,0.0111753,0.0147223,0.0193944,0.0255489,inf	31638.4,31638.4,14304.1,4839.17,1929.38,885.911,579.681,483.324,436.3,429.054,445.119,403.02,333.072,334.319,372.095,299.762,310.543,351.31,375.739,384.127,397.619,420.243,451.256,465.316,438.473,416.097,428.87,397.156,397.156,294.519,294.519,294.519
0.000844541	-12280022.72	0,1.58182e-06,3.66546e-06,6.41014e-06,1.00256e-05,1.4788e-05,2.10613e-05,2.93247e-05,4.02098e-05,5.45481e-05,7.34352e-05,9.83143e-05,0.000131086,0.000174255,0.000231119,0.000306023,0.00040469,0.000534659,0.000705861,0.000931376,0.00122844,0.00161974,0.00213518,0.00281414,0.00370851,0.00488661,0.00643846,0.00848263,0.0111753,0.0147223,0.0193944,0.0255489,inf	31412.2,31412.2,14271.7,4757.96,1872.29,853.192,564.554,476.362,432.046,427.959,447.973,402.917,329.404,334.099,375.454,297.304,310.096,353.449,378.131,384.898,397.092,419.368,451.239,465.751,437.399,414.356,428.936,395.245,395.245,284.049,284.049,284.049
0.000863535	-12279791.12	0,1.58182e-06,3.66546e-06,6.41014e-06,1.00256e-05,1.4788e-05,2.10613e-05,2.93247e-05,4.02098e-05,5.45481e-05,7.34352e-05,9.83143e-05,0.000131086,0.000174255,0.000231119,0.000306023,0.00040469,0.000534659,0.000705861,0.000931376,0.00122844,0.00161974,0.00213518,0.00281414,0.00370851,0.00488661,0.00643846,0.00848263,0.0111753,0.0147223,0.0193944,0.0255489,inf	31210.1,31210.1,14230.6,4683.03,1821.14,824.543,551.806,470.783,428.518,427.16,450.773,402.564,325.736,333.933,378.521,294.913,309.767,355.601,380.479,385.637,396.561,418.489,451.156,466.088,436.359,412.763,429.164,393.662,393.662,274.278,274.278,274.278
0.000881293	-12279595.37	0,1.58182e-06,3.66546e-06,6.41014e-06,1.00256e-05,1.4788e-05,2.10613e-05,2.93247e-05,4.02098e-05,5.45481e-05,7.34352e-05,9.83143e-05,0.000131086,0.000174255,0.000231119,0.000306023,0.00040469,0.000534659,0.000705861,0.000931376,0.00122844,0.00161974,0.00213518,0.00281414,0.00370851,0.00488661,0.00643846,0.00848263,0.0111753,0.0147223,0.0193944,0.0255489,inf	31032.4,31032.4,14182.6,4613.48,1774.93,799.237,540.991,466.328,425.582,426.621,453.559,402.035,322.121,333.843,381.334,292.58,309.521,357.738,382.764,386.335,396.027,417.618,451.034,466.354,435.354,411.295,429.525,392.365,392.365,265.115,265.115,265.115
0.00089791	-12279429.52	0,1.58182e-06,3.66546e-06,6.41014e-06,1.00256e-05,1.4788e-05,2.10613e-05,2.93247e-05,4.02098e-05,5.45481e-05,7.34352e-05,9.83143e-05,0.000131086,0.000174255,0.000231119,0.000306023,0.00040469,0.000534659,0.000705861,0.000931376,0.00122844,0.00161974,0.00213518,0.00281414,0.00370851,0.00488661,0.00643846,0.00848263,0.0111753,0.0147223,0.0193944,0.0255489,inf	30877.3,30877.3,14129.3,4548.48,1732.82,776.629,531.763,462.787,423.12,426.298,456.346,401.381,318.586,333.842,383.925,290.305,309.332,359.842,384.976,386.988,395.492,416.762,450.889,466.57,434.383,409.931,429.992,391.32,391.32,256.483,256.483,256.483
0.000913473	-12279288.78	0,1.58182e-06,3.66546e-06,6.41014e-06,1.00256e-05,1.4788e-05,2.10613e-05,2.93247e-05,4.02098e-05,5.45481e-05,7.34352e-05,9.83143e-05,0.000131086,0.000174255,0.000231119,0.000306023,0.00040469,0.000534659,0.000705861,0.000931376,0.00122844,0.00161974,0.00213518,0.00281414,0.00370851,0.00488661,0.00643846,0.00848263,0.0111753,0.0147223,0.0193944,0.0255489,inf	30741.1,30741.1,14071.9,4487.72,1694.2,756.321,523.836,459.984,421.042,426.156,459.142,400.637,315.155,333.935,386.322,288.083,309.185,361.9,387.109,387.594,394.957,415.929,450.735,466.748,433.445,408.654,430.546,390.5,390.5,248.316,248.316,248.316
0.000928059	-12279169.22	0,1.58182e-06,3.66546e-06,6.41014e-06,1.00256e-05,1.4788e-05,2.10613e-05,2.93247e-05,4.02098e-05,5.45481e-05,7.34352e-05,9.83143e-05,0.000131086,0.000174255,0.000231119,0.000306023,0.00040469,0.000534659,0.000705861,0.000931376,0.00122844,0.00161974,0.00213518,0.00281414,0.00370851,0.00488661,0.00643846,0.00848263,0.0111753,0.0147223,0.0193944,0.0255489,inf	30624,30624,14011.8,4431,1658.63,737.967,516.996,457.789,419.264,426.153,461.94,399.824,311.834,334.126,388.547,285.913,309.067,363.907,389.161,388.154,394.424,415.12,450.58,466.9,432.538,407.449,431.171,389.882,389.882,240.553,240.553,240.553
0.000941738	-12279067.65	0,1.58182e-06,3.66546e-06,6.41014e-06,1.00256e-05,1.4788e-05,2.10613e-05,2.93247e-05,4.02098e-05,5.45481e-05,7.34352e-05,9.83143e-05,0.000131086,0.000174255,0.000231119,0.000306023,0.00040469,0.000534659,0.000705861,0.000931376,0.00122844,0.00161974,0.00213518,0.00281414,0.00370851,0.00488661,0.00643846,0.00848263,0.0111753,0.0147223,0.0193944,0.0255489,inf	30521.5,30521.5,13949.9,4377.83,1625.75,721.262,511.073,456.082,417.714,426.256,464.737,398.959,308.628,334.414,390.622,283.792,308.969,365.857,391.132,388.669,393.893,414.339,450.43,467.033,431.66,406.306,431.851,389.449,389.449,233.143,233.143,233.143
0.000954575	-12278981.43	0,1.58182e-06,3.66546e-06,6.41014e-06,1.00256e-05,1.4788e-05,2.10613e-05,2.93247e-05,4.02098e-05,5.45481e-05,7.34352e-05,9.83143e-05,0.000131086,0.000174255,0.000231119,0.000306023,0.00040469,0.000534659,0.000705861,0.000931376,0.00122844,0.00161974,0.00213518,0.00281414,0.00370851,0.00488661,0.00643846,0.00848263,0.0111753,0.0147223,0.0193944,0.0255489,inf	30433.6,30433.6,13887.2,4328.12,1595.31,705.975,505.911,454.775,416.354,426.441,467.525,398.053,305.539,334.795,392.563,281.718,308.884,367.748,393.023,389.14,393.365,413.586,450.291,467.154,430.807,405.213,432.576,389.186,389.186,226.039,226.039,226.039
0.000966629	-12278908.36	0,1.58182e-06,3.66546e-06,6.41014e-06,1.00256e-05,1.4788e-05,2.10613e-05,2.93247e-05,4.02098e-05,5.45481e-05,7.34352e-05,9.83143e-05,0.000131086,0.000174255,0.000231119,0.000306023,0.00040469,0.000534659,0.000705861,0.000931376,0.00122844,0.00161974,0.00213518,0.00281414,0.00370851,0.00488661,0.00643846,0.00848263,0.0111753,0.0147223,0.0193944,0.0255489,inf	30357.5,30357.5,13824.3,4281.78,1567.01,691.923,501.396,453.803,415.129,426.679,470.304,397.111,302.562,335.266,394.386,279.689,308.807,369.581,394.836,389.57,392.842,412.861,450.164,467.266,429.979,404.163,433.336,389.08,389.08,219.197,219.197,219.197
0.000977954	-12278846.65	0,1.58182e-06,3.66546e-06,6.41014e-06,1.00256e-05,1.4788e-05,2.10613e-05,2.93247e-05,4.02098e-05,5.45481e-05,7.34352e-05,9.83143e-05,0.000131086,0.000174255,0.000231119,0.000306023,0.00040469,0.000534659,0.000705861,0.000931376,0.00122844,0.00161974,0.00213518,0.00281414,0.00370851,0.00488661,0.00643846,0.00848263,0.0111753,0.0147223,0.0193944,0.0255489,inf	30291.3,30291.3,13761.6,4238.59,1540.6,678.965,497.443,453.1,414.003,426.956,473.066,396.143,299.694,335.823,396.102,277.703,308.732,371.354,396.574,389.96,392.324,412.166,450.053,467.374,429.172,403.149,434.122,389.124,389.124,212.579,212.579,212.579
0.000988597	-12278794.77	0,1.58182e-06,3.66546e-06,6.41014e-06,1.00256e-05,1.4788e-05,2.10613e-05,2.93247e-05,4.02098e-05,5.45481e-05,7.34352e-05,9.83143e-05,0.000131086,0.000174255,0.000231119,0.000306023,0.00040469,0.000534659,0.000705861,0.000931376,0.00122844,0.00161974,0.00213518,0.00281414,0.00370851,0.00488661,0.00643846,0.00848263,0.0111753,0.0147223,0.0193944,0.0255489,inf	30234.1,30234.1,13699.7,4198.42,1515.99,666.986,493.979,452.629,412.955,427.257,475.808,395.148,296.932,336.459,397.722,275.759,308.659,373.069,398.241,390.314,391.811,411.499,449.959,467.481,428.386,402.164,434.927,389.31,389.31,206.15,206.15,206.15
