0.00072385	-13872603.22	0,1.75949e-06,4.07716e-06,7.13012e-06,1.11516e-05,1.6449e-05,2.34269e-05,3.26185e-05,4.47261e-05,6.06749e-05,8.16834e-05,0.000109357,0.00014581,0.000193827,0.000257078,0.000340395,0.000450144,0.000594712,0.000785142,0.00103599,0.00136641,0.00180166,0.002375,0.00313022,0.00412504,0.00543547,0.00716162,0.00943539,0.0124305,0.0163758,0.0215728,0.0284185,inf	46.1146,46.1146,116.559,171.079,195.861,214.523,234.245,243.336,250.533,260.359,268.82,274.595,278.809,283.093,289.074,297.64,309.415,325.574,347.656,376.563,410.181,440.873,458.116,458.027,447.068,432.979,418.857,400.041,400.041,366.611,366.611,366.611
0.000821056	-13862874.51	0,1.75949e-06,4.07716e-06,7.13012e-06,1.11516e-05,1.6449e-05,2.34269e-05,3.26185e-05,4.47261e-05,6.06749e-05,8.16834e-05,0.000109357,0.00014581,0.000193827,0.000257078,0.000340395,0.000450144,0.000594712,0.000785142,0.00103599,0.00136641,0.00180166,0.002375,0.00313022,0.00412504,0.00543547,0.00716162,0.00943539,0.0124305,0.0163758,0.0215728,0.0284185,inf	9.41077,9.41077,61.9106,129.501,159.498,181.198,207.827,216.99,224.302,236.785,246.745,251.569,253.329,254.957,259.211,267.342,280.164,299.395,327.44,366.088,413.227,459.06,487.793,490.512,474.834,452.406,428.213,393.614,393.614,329.442,329.442,329.442
0.000913727	-13856771.25	0,1.75949e-06,4.07716e-06,7.13012e-06,1.11516e-05,1.6449e-05,2.34269e-05,3.26185e-05,4.47261e-05,6.06749e-05,8.16834e-05,0.000109357,0.00014581,0.000193827,0.000257078,0.000340395,0.000450144,0.000594712,0.000785142,0.00103599,0.00136641,0.00180166,0.002375,0.00313022,0.00412504,0.00543547,0.00716162,0.00943539,0.0124305,0.0163758,0.0215728,0.0284185,inf	2.32683,2.32683,40.0903,116.426,149.14,171.933,204.268,212.851,220.568,235.999,247.673,251.583,250.811,249.551,251.447,257.876,269.697,288.908,318.426,360.565,413.358,466.57,502.352,508.231,490.998,463.792,432.442,384.652,384.652,293.738,293.738,293.738
0.00100222	-13852156.06	0,1.75949e-06,4.07716e-06,7.13012e-06,1.11516e-05,1.6449e-05,2.34269e-05,3.26185e-05,4.47261e-05,6.06749e-05,8.16834e-05,0.000109357,0.00014581,0.000193827,0.000257078,0.000340395,0.000450144,0.000594712,0.000785142,0.00103599,0.00136641,0.00180166,0.002375,0.00313022,0.00412504,0.00543547,0.00716162,0.00943539,0.0124305,0.0163758,0.0215728,0.0284185,inf	0.584165,0.584165,28.2785,111.244,144.597,167.095,204.079,211.756,220.335,239.215,253.272,257.047,254.593,251.26,251.351,256.237,266.77,285.12,314.54,357.633,412.477,468.981,508.839,517.429,500.169,470.364,433.931,375.118,375.118,262.152,262.152,262.152
0.00108707	-13848388.31	0,1.75949e-06,4.07716e-06,7.13012e-06,1.11516e-05,1.6449e-05,2.34269e-05,3.26185e-05,4.47261e-05,6.06749e-05,8.16834e-05,0.000109357,0.00014581,0.000193827,0.000257078,0.000340395,0.000450144,0.000594712,0.000785142,0.00103599,0.00136641,0.00180166,0.002375,0.00313022,0.00412504,0.00543547,0.00716162,0.00943539,0.0124305,0.0163758,0.0215728,0.0284185,inf	0.400688,0.400688,21.1165,109.944,142.061,163.264,203.721,209.962,219.459,241.8,258.559,262.843,259.576,255.081,254.091,257.891,267.302,284.618,313.355,356.258,411.368,468.934,510.963,521.68,505.122,474.089,434.082,366.093,366.093,235.687,235.687,235.687
0.00116872	-13845200.38	0,1.75949e-06,4.07716e-06,7.13012e-06,1.11516e-05,1.6449e-05,2.34269e-05,3.26185e-05,4.47261e-05,6.06749e-05,8.16834e-05,0.000109357,0.00014581,0.000193827,0.000257078,0.000340395,0.000450144,0.000594712,0.000785142,0.00103599,0.00136641,0.00180166,0.002375,0.00313022,0.00412504,0.00543547,0.00716162,0.00943539,0.0124305,0.0163758,0.0215728,0.0284185,inf	0.400688,0.400688,16.5262,111.409,140.835,160.242,203.216,207.415,217.585,243.048,262.442,267.575,264.149,259.251,257.815,260.983,269.53,285.857,313.702,355.874,410.319,467.699,510.689,523.015,507.505,476.14,433.687,358.114,358.114,214.211,214.211,214.211
0.00124749	-13842450.27	0,1.75949e-06,4.07716e-06,7.13012e-06,1.11516e-05,1.6449e-05,2.34269e-05,3.26185e-05,4.47261e-05,6.06749e-05,8.16834e-05,0.000109357,0.00014581,0.000193827,0.000257078,0.000340395,0.000450144,0.000594712,0.000785142,0.00103599,0.00136641,0.00180166,0.002375,0.00313022,0.00412504,0.00543547,0.00716162,0.00943539,0.0124305,0.0163758,0.0215728,0.0284185,inf	0.400688,0.400688,13.4467,115.053,140.652,158.216,203.083,204.705,215.218,243.301,265.025,271.09,267.919,263.167,261.772,264.68,272.607,288.049,314.951,356.132,409.418,465.902,509.085,522.606,508.302,477.208,433.172,351.385,351.385,197.014,197.014,197.014
0.00132363	-13840048.68	0,1.75949e-06,4.07716e-06,7.13012e-06,1.11516e-05,1.6449e-05,2.34269e-05,3.26185e-05,4.47261e-05,6.06749e-05,8.16834e-05,0.000109357,0.00014581,0.000193827,0.000257078,0.000340395,0.000450144,0.000594712,0.000785142,0.00103599,0.00136641,0.00180166,0.002375,0.00313022,0.00412504,0.00543547,0.00716162,0.00943539,0.0124305,0.0163758,0.0215728,0.0284185,inf	0.400688,0.400688,11.2783,120.327,141.201,157.246,203.658,202.284,212.851,243.057,266.694,273.604,270.911,266.67,265.658,268.585,276.092,290.763,316.736,356.806,408.672,463.857,506.742,521.142,508.104,477.698,432.747,345.914,345.914,183.228,183.228,183.228
0.00139732	-13837932.98	0,1.75949e-06,4.07716e-06,7.13012e-06,1.11516e-05,1.6449e-05,2.34269e-05,3.26185e-05,4.47261e-05,6.06749e-05,8.16834e-05,0.000109357,0.00014581,0.000193827,0.000257078,0.000340395,0.000450144,0.000594712,0.000785142,0.00103599,0.00136641,0.00180166,0.002375,0.00313022,0.00412504,0.00543547,0.00716162,0.00943539,0.0124305,0.0163758,0.0215728,0.0284185,inf	0.400688,0.400688,9.68305,126.766,142.169,157.223,205.052,200.405,210.808,242.699,267.818,275.395,273.269,269.76,269.357,272.503,279.744,293.746,318.831,357.746,408.062,461.725,503.999,519.036,507.274,477.848,432.502,341.607,341.607,172.062,172.062,172.062
0.00146873	-13836056.23	0,1.75949e-06,4.07716e-06,7.13012e-06,1.11516e-05,1.6449e-05,2.34269e-05,3.26185e-05,4.47261e-05,6.06749e-05,8.16834e-05,0.000109357,0.00014581,0.000193827,0.000257078,0.000340395,0.000450144,0.000594712,0.000785142,0.00103599,0.00136641,0.00180166,0.002375,0.00313022,0.00412504,0.00543547,0.00716162,0.00943539,0.0124305,0.0163758,0.0215728,0.0284185,inf	0.400688,0.400688,8.46002,133.91,143.242,157.979,207.193,199.122,209.241,242.468,268.673,276.704,275.153,272.496,272.838,276.337,283.425,296.848,321.094,358.848,407.561,459.589,501.051,516.542,506.036,477.791,432.459,338.329,338.329,162.872,162.872,162.872
0.00153796	-13834381.83	0,1.75949e-06,4.07716e-06,7.13012e-06,1.11516e-05,1.6449e-05,2.34269e-05,3.26185e-05,4.47261e-05,6.06749e-05,8.16834e-05,0.000109357,0.00014581,0.000193827,0.000257078,0.000340395,0.000450144,0.000594712,0.000785142,0.00103599,0.00136641,0.00180166,0.002375,0.00313022,0.00412504,0.00543547,0.00716162,0.00943539,0.0124305,0.0163758,0.0215728,0.0284185,inf	0.400688,0.400688,7.48814,141.419,144.237,159.336,209.972,198.415,208.192,242.497,269.443,277.715,276.7,274.943,276.102,280.041,287.057,299.974,323.436,360.045,407.147,457.491,498.016,513.818,504.534,477.607,432.609,335.935,335.935,155.167,155.167,155.167
0.00160513	-13832880.56	0,1.75949e-06,4.07716e-06,7.13012e-06,1.11516e-05,1.6449e-05,2.34269e-05,3.26185e-05,4.47261e-05,6.06749e-05,8.16834e-05,0.000109357,0.00014581,0.000193827,0.000257078,0.000340395,0.000450144,0.000594712,0.000785142,0.00103599,0.00136641,0.00180166,0.002375,0.00313022,0.00412504,0.00543547,0.00716162,0.00943539,0.0124305,0.0163758,0.0215728,0.0284185,inf	0.400688,0.400688,6.67501,148.986,145,161.13,213.244,198.203,207.643,242.842,270.24,278.559,278.014,277.162,279.167,283.592,290.595,303.069,325.796,361.291,406.8,455.452,494.965,510.967,502.859,477.34,432.926,334.292,334.292,148.581,148.581,148.581
0.00167033	-13831528.66	0,1.75949e-06,4.07716e-06,7.13012e-06,1.11516e-05,1.6449e-05,2.34269e-05,3.26185e-05,4.47261e-05,6.06749e-05,8.16834e-05,0.000109357,0.00014581,0.000193827,0.000257078,0.000340395,0.000450144,0.000594712,0.000785142,0.00103599,0.00136641,0.00180166,0.002375,0.00313022,0.00412504,0.00543547,0.00716162,0.00943539,0.0124305,0.0163758,0.0215728,0.0284185,inf	0.400688,0.400688,6.0126,156.433,145.419,163.244,216.875,198.41,207.548,243.514,271.129,279.321,279.178,279.204,282.053,286.986,294.015,306.098,328.14,362.556,406.506,453.484,491.942,508.055,501.073,477.017,433.382,333.281,333.281,142.841,142.841,142.841
0.00173365	-13830306.57	0,1.75949e-06,4.07716e-06,7.13012e-06,1.11516e-05,1.6449e-05,2.34269e-05,3.26185e-05,4.47261e-05,6.06749e-05,8.16834e-05,0.000109357,0.00014581,0.000193827,0.000257078,0.000340395,0.000450144,0.000594712,0.000785142,0.00103599,0.00136641,0.00180166,0.002375,0.00313022,0.00412504,0.00543547,0.00716162,0.00943539,0.0124305,0.0163758,0.0215728,0.0284185,inf	0.400688,0.400688,5.44168,163.64,145.498,165.571,220.732,198.945,207.851,244.496,272.136,280.058,280.246,281.108,284.777,290.223,297.303,309.039,330.442,363.818,406.254,451.591,488.972,505.126,499.218,476.654,433.948,332.803,332.803,137.743,137.743,137.743
0.00179517	-13829198.00	0,1.75949e-06,4.07716e-06,7.13012e-06,1.11516e-05,1.6449e-05,2.34269e-05,3.26185e-05,4.47261e-05,6.06749e-05,8.16834e-05,0.000109357,0.00014581,0.000193827,0.000257078,0.000340395,0.000450144,0.000594712,0.000785142,0.00103599,0.00136641,0.00180166,0.002375,0.00313022,0.00412504,0.00543547,0.00716162,0.00943539,0.0124305,0.0163758,0.0215728,0.0284185,inf	0.400688,0.400688,4.95788,170.592,145.223,168.035,224.734,199.728,208.487,245.756,273.273,280.806,281.258,282.907,287.359,293.307,300.456,311.882,332.688,365.065,406.035,449.773,486.073,502.211,497.322,476.261,434.6,332.776,332.776,133.134,133.134,133.134
0.00185497	-13828189.29	0,1.75949e-06,4.07716e-06,7.13012e-06,1.11516e-05,1.6449e-05,2.34269e-05,3.26185e-05,4.47261e-05,6.06749e-05,8.16834e-05,0.000109357,0.00014581,0.000193827,0.000257078,0.000340395,0.000450144,0.000594712,0.000785142,0.00103599,0.00136641,0.00180166,0.002375,0.00313022,0.00412504,0.00543547,0.00716162,0.00943539,0.0124305,0.0163758,0.0215728,0.0284185,inf	0.400688,0.400688,4.54576,177.201,144.624,170.594,228.79,200.696,209.405,247.265,274.537,281.585,282.243,284.621,289.813,296.245,303.472,314.62,334.868,366.289,405.843,448.03,483.254,499.328,495.406,475.843,435.318,333.132,333.132,128.897,128.897,128.897
0.00191311	-13827268.87	0,1.75949e-06,4.07716e-06,7.13012e-06,1.11516e-05,1.6449e-05,2.34269e-05,3.26185e-05,4.47261e-05,6.06749e-05,8.16834e-05,0.000109357,0.00014581,0.000193827,0.000257078,0.000340395,0.000450144,0.000594712,0.000785142,0.00103599,0.00136641,0.00180166,0.002375,0.00313022,0.00412504,0.00543547,0.00716162,0.00943539,0.0124305,0.0163758,0.0215728,0.0284185,inf	0.400688,0.400688,4.19468,183.513,143.741,173.2,232.848,201.789,210.551,248.984,275.919,282.407,283.22,286.269,292.152,299.045,306.353,317.251,336.979,367.483,405.675,446.36,480.52,496.491,493.484,475.406,436.084,333.818,333.818,124.94,124.94,124.94
0.00196966	-13826426.89	0,1.75949e-06,4.07716e-06,7.13012e-06,1.11516e-05,1.6449e-05,2.34269e-05,3.26185e-05,4.47261e-05,6.06749e-05,8.16834e-05,0.000109357,0.00014581,0.000193827,0.000257078,0.000340395,0.000450144,0.000594712,0.000785142,0.00103599,0.00136641,0.00180166,0.002375,0.00313022,0.00412504,0.00543547,0.00716162,0.00943539,0.0124305,0.0163758,0.0215728,0.0284185,inf	0.400688,0.400688,3.90531,189.531,142.608,175.832,236.848,202.974,211.875,250.879,277.406,283.277,284.2,287.864,294.389,301.713,309.102,319.776,339.019,368.645,405.525,444.76,477.873,493.71,491.568,474.953,436.885,334.793,334.793,121.192,121.192,121.192
0.00202469	-13825654.89	0,1.75949e-06,4.07716e-06,7.13012e-06,1.11516e-05,1.6449e-05,2.34269e-05,3.26185e-05,4.47261e-05,6.06749e-05,8.16834e-05,0.000109357,0.00014581,0.000193827,0.000257078,0.000340395,0.000450144,0.000594712,0.000785142,0.00103599,0.00136641,0.00180166,0.002375,0.00313022,0.00412504,0.00543547,0.00716162,0.00943539,0.0124305,0.0163758,0.0215728,0.0284185,inf	0.400688,0.400688,3.65894,195.26,141.282,178.481,240.758,204.203,213.35,252.921,278.985,284.195,285.191,289.416,296.531,304.258,311.726,322.197,340.986,369.774,405.393,443.228,475.313,490.989,489.665,474.486,437.712,336.023,336.023,117.592,117.592,117.592
0.00207825	-13824945.62	0,1.75949e-06,4.07716e-06,7.13012e-06,1.11516e-05,1.6449e-05,2.34269e-05,3.26185e-05,4.47261e-05,6.06749e-05,8.16834e-05,0.000109357,0.00014581,0.000193827,0.000257078,0.000340395,0.000450144,0.000594712,0.000785142,0.00103599,0.00136641,0.00180166,0.002375,0.00313022,0.00412504,0.00543547,0.00716162,0.00943539,0.0124305,0.0163758,0.0215728,0.0284185,inf	0.400688,0.400688,3.44103,200.756,139.803,181.126,244.55,205.454,214.937,255.083,280.64,285.16,286.199,290.931,298.586,306.685,314.228,324.517,342.883,370.869,405.276,441.76,472.839,488.332,487.781,474.009,438.557,337.486,337.486,114.093,114.093,114.093
