time_index	left_time_boundary	right_time_boundary	lambda
0	0	4.0153e-05	546.52
1	4.0153e-05	8.71219e-05	546.52
2	8.71219e-05	0.000142064	112.644
3	0.000142064	0.000206332	615.656
4	0.000206332	0.00028151	507.527
5	0.00028151	0.000369449	294.177
6	0.000369449	0.000472316	225.48
7	0.000472316	0.000592645	229.088
8	0.000592645	0.0007334	282.635
9	0.0007334	0.000898047	347.301
10	0.000898047	0.00109064	393.806
11	0.00109064	0.00131593	422.701
12	0.00131593	0.00157947	440.052
13	0.00157947	0.00188773	445.712
14	0.00188773	0.00224833	439.032
15	0.00224833	0.00267013	423.921
16	0.00267013	0.00316354	411.543
17	0.00316354	0.00374071	411.998
18	0.00374071	0.00441585	426.953
19	0.00441585	0.00520559	453.125
20	0.00520559	0.00612939	483.916
21	0.00612939	0.00721	504.625
22	0.00721	0.00847406	495.644
23	0.00847406	0.00995268	451.162
24	0.00995268	0.0116823	392.101
25	0.0116823	0.0137055	361.527
26	0.0137055	0.0160722	346.065
27	0.0160722	0.0188406	299.415
28	0.0188406	0.0220789	299.415
29	0.0220789	0.025867	58.9455
30	0.025867	0.0302981	58.9455
31	0.0302981	inf	58.9455
