LogLikelihood = -133468.24789781600703

y0 0.21931697562232627119
y0_prime 0
y1 0.31095023628207096866
y1_prime 0
y2 2.1763446913829556095
y2_prime 0
y3 19.237034074550130924
y3_prime 0
rho 0.00024045657116855868743
theta 0.0018415158313457916355
