0.000565894	-13763145.48	0,1.82028e-06,4.21803e-06,7.37647e-06,1.15369e-05,1.70173e-05,2.42363e-05,3.37454e-05,4.62714e-05,6.27712e-05,8.45056e-05,0.000113135,0.000150847,0.000200524,0.00026596,0.000352156,0.000465697,0.000615259,0.000812269,0.00107178,0.00141362,0.00186391,0.00245706,0.00323837,0.00426756,0.00562326,0.00740905,0.00976139,0.01286,0.0169416,0.0223182,0.0294004,inf	46.9261,46.9261,184.114,447.884,425.786,347.336,323.145,314.639,306.12,329.625,364.965,379.082,368.584,368.716,372.171,375.033,393.054,406.198,408.193,408.144,406.65,403.647,399.483,395.749,394.895,387.406,375.163,388.437,388.437,278.797,278.797,278.797
0.000495931	-13757922.12	0,1.82028e-06,4.21803e-06,7.37647e-06,1.15369e-05,1.70173e-05,2.42363e-05,3.37454e-05,4.62714e-05,6.27712e-05,8.45056e-05,0.000113135,0.000150847,0.000200524,0.00026596,0.000352156,0.000465697,0.000615259,0.000812269,0.00107178,0.00141362,0.00186391,0.00245706,0.00323837,0.00426756,0.00562326,0.00740905,0.00976139,0.01286,0.0169416,0.0223182,0.0294004,inf	5.93958,5.93958,89.6469,527.397,522.827,359.437,322.501,302.801,278.385,306.832,368.244,393.798,367.375,360.477,362.639,360.173,389.972,414.386,417.225,417.623,416.563,413.18,407.383,402.078,402.979,388.44,363.779,395.624,395.624,199.713,199.713,199.713
0.000435937	-13753642.47	0,1.82028e-06,4.21803e-06,7.37647e-06,1.15369e-05,1.70173e-05,2.42363e-05,3.37454e-05,4.62714e-05,6.27712e-05,8.45056e-05,0.000113135,0.000150847,0.000200524,0.00026596,0.000352156,0.000465697,0.000615259,0.000812269,0.00107178,0.00141362,0.00186391,0.00245706,0.00323837,0.00426756,0.00562326,0.00740905,0.00976139,0.01286,0.0169416,0.0223182,0.0294004,inf	0.43327,0.43327,40.419,570.249,633.38,378.06,340.767,310.954,270.106,295.332,380.716,420.158,376.859,359.953,360.065,347.408,384.485,418.611,420.626,420.95,421.025,418.737,412.82,407.209,411.86,390.246,352.64,408.943,408.943,131.552,131.552,131.552
0.000385553	-13750271.94	0,1.82028e-06,4.21803e-06,7.37647e-06,1.15369e-05,1.70173e-05,2.42363e-05,3.37454e-05,4.62714e-05,6.27712e-05,8.45056e-05,0.000113135,0.000150847,0.000200524,0.00026596,0.000352156,0.000465697,0.000615259,0.000812269,0.00107178,0.00141362,0.00186391,0.00245706,0.00323837,0.00426756,0.00562326,0.00740905,0.00976139,0.01286,0.0169416,0.0223182,0.0294004,inf	0.38739,0.38739,16.9287,569.18,746.625,392.729,365.999,326.836,270.486,286.676,394.685,451.502,392.369,364.177,363.362,337.604,378.817,421.766,421.467,420.932,422.24,421.846,416.657,411.391,421.291,392.305,341.136,428.261,428.261,79.5191,79.5191,79.5191
0.000344164	-13747821.20	0,1.82028e-06,4.21803e-06,7.37647e-06,1.15369e-05,1.70173e-05,2.42363e-05,3.37454e-05,4.62714e-05,6.27712e-05,8.45056e-05,0.000113135,0.000150847,0.000200524,0.00026596,0.000352156,0.000465697,0.000615259,0.000812269,0.00107178,0.00141362,0.00186391,0.00245706,0.00323837,0.00426756,0.00562326,0.00740905,0.00976139,0.01286,0.0169416,0.0223182,0.0294004,inf	0.38739,0.38739,6.696,533.75,860.689,401.33,393.936,345.866,275.586,278.005,406.607,483.739,410.814,370.832,371.053,330.484,373.603,424.998,421.265,419.149,421.512,423.41,419.365,414.661,430.82,394.005,328.772,450.552,450.552,74.5388,74.5388,74.5388
0.000310633	-13745786.83	0,1.82028e-06,4.21803e-06,7.37647e-06,1.15369e-05,1.70173e-05,2.42363e-05,3.37454e-05,4.62714e-05,6.27712e-05,8.45056e-05,0.000113135,0.000150847,0.000200524,0.00026596,0.000352156,0.000465697,0.000615259,0.000812269,0.00107178,0.00141362,0.00186391,0.00245706,0.00323837,0.00426756,0.00562326,0.00740905,0.00976139,0.01286,0.0169416,0.0223182,0.0294004,inf	0.38739,0.38739,2.53469,477.132,975.537,404.297,422.872,366.323,284.078,268.938,415.571,514.833,430.491,378.536,381.99,325.645,369.031,428.741,420.776,416.502,419.6,423.918,421.155,416.952,439.957,394.995,315.86,469.08,469.08,75.8707,75.8707,75.8707
0.000283921	-13744285.31	0,1.82028e-06,4.21803e-06,7.37647e-06,1.15369e-05,1.70173e-05,2.42363e-05,3.37454e-05,4.62714e-05,6.27712e-05,8.45056e-05,0.000113135,0.000150847,0.000200524,0.00026596,0.000352156,0.000465697,0.000615259,0.000812269,0.00107178,0.00141362,0.00186391,0.00245706,0.00323837,0.00426756,0.00562326,0.00740905,0.00976139,0.01286,0.0169416,0.0223182,0.0294004,inf	0.38739,0.38739,0.916464,408.585,1085.56,400.647,449.893,385.698,294.171,258.761,420.218,542.006,448.987,385.315,394.265,321.99,364.514,432.592,420.062,413.392,416.973,423.739,422.28,418.394,448.533,395.469,303.393,484.334,484.334,75.1632,75.1632,75.1632
0.000262983	-13743273.41	0,1.82028e-06,4.21803e-06,7.37647e-06,1.15369e-05,1.70173e-05,2.42363e-05,3.37454e-05,4.62714e-05,6.27712e-05,8.45056e-05,0.000113135,0.000150847,0.000200524,0.00026596,0.000352156,0.000465697,0.000615259,0.000812269,0.00107178,0.00141362,0.00186391,0.00245706,0.00323837,0.00426756,0.00562326,0.00740905,0.00976139,0.01286,0.0169416,0.0223182,0.0294004,inf	0.38739,0.38739,0.388018,338.062,1189.45,391.783,474.508,403.69,305.722,248.194,421.501,565.19,465.863,390.771,407.202,319.238,360.108,436.605,419.399,410.277,414.098,423.221,422.986,419.127,456.389,395.541,291.924,496.875,496.875,75.8777,75.8777,75.8777
0.000246781	-13742604.50	0,1.82028e-06,4.21803e-06,7.37647e-06,1.15369e-05,1.70173e-05,2.42363e-05,3.37454e-05,4.62714e-05,6.27712e-05,8.45056e-05,0.000113135,0.000150847,0.000200524,0.00026596,0.000352156,0.000465697,0.000615259,0.000812269,0.00107178,0.00141362,0.00186391,0.00245706,0.00323837,0.00426756,0.00562326,0.00740905,0.00976139,0.01286,0.0169416,0.0223182,0.0294004,inf	0.38739,0.38739,0.387314,271.721,1284.82,378.669,496.139,419.764,318.354,237.649,420.237,584.467,480.772,394.604,420.159,317.064,355.761,440.68,418.853,407.382,411.247,422.57,423.437,419.264,463.41,395.32,281.757,507.472,507.472,75.8305,75.8305,75.8305
0.000234381	-13742191.03	0,1.82028e-06,4.21803e-06,7.37647e-06,1.15369e-05,1.70173e-05,2.42363e-05,3.37454e-05,4.62714e-05,6.27712e-05,8.45056e-05,0.000113135,0.000150847,0.000200524,0.00026596,0.000352156,0.000465697,0.000615259,0.000812269,0.00107178,0.00141362,0.00186391,0.00245706,0.00323837,0.00426756,0.00562326,0.00740905,0.00976139,0.01286,0.0169416,0.0223182,0.0294004,inf	0.38739,0.38739,0.387314,213.244,1370.1,362.244,514.427,433.533,331.696,227.38,417.195,600.202,493.658,396.744,432.698,315.234,351.448,444.72,418.426,404.823,408.589,421.922,423.752,418.913,469.556,394.883,272.937,516.315,516.315,76.3096,76.3096,76.3096
0.000224972	-13741940.89	0,1.82028e-06,4.21803e-06,7.37647e-06,1.15369e-05,1.70173e-05,2.42363e-05,3.37454e-05,4.62714e-05,6.27712e-05,8.45056e-05,0.000113135,0.000150847,0.000200524,0.00026596,0.000352156,0.000465697,0.000615259,0.000812269,0.00107178,0.00141362,0.00186391,0.00245706,0.00323837,0.00426756,0.00562326,0.00740905,0.00976139,0.01286,0.0169416,0.0223182,0.0294004,inf	0.38739,0.38739,0.387314,164.155,1444.82,343.589,529.459,444.862,345.454,217.566,413.025,612.91,504.604,397.281,444.56,313.599,347.172,448.649,418.095,402.639,406.212,421.357,424.024,418.179,474.878,394.334,265.42,523.832,523.832,76.3817,76.3817,76.3817
0.000217884	-13741799.56	0,1.82028e-06,4.21803e-06,7.37647e-06,1.15369e-05,1.70173e-05,2.42363e-05,3.37454e-05,4.62714e-05,6.27712e-05,8.45056e-05,0.000113135,0.000150847,0.000200524,0.00026596,0.000352156,0.000465697,0.000615259,0.000812269,0.00107178,0.00141362,0.00186391,0.00245706,0.00323837,0.00426756,0.00562326,0.00740905,0.00976139,0.01286,0.0169416,0.0223182,0.0294004,inf	0.38739,0.38739,0.387314,124.456,1509.31,323.663,541.553,453.671,359.385,208.294,408.251,623.162,513.851,396.418,455.634,312.075,342.957,452.429,417.825,400.824,404.148,420.913,424.314,417.15,479.467,393.741,259.069,530.09,530.09,76.6924,76.6924,76.6924
0.000212572	-13741721.29	0,1.82028e-06,4.21803e-06,7.37647e-06,1.15369e-05,1.70173e-05,2.42363e-05,3.37454e-05,4.62714e-05,6.27712e-05,8.45056e-05,0.000113135,0.000150847,0.000200524,0.00026596,0.000352156,0.000465697,0.000615259,0.000812269,0.00107178,0.00141362,0.00186391,0.00245706,0.00323837,0.00426756,0.00562326,0.00740905,0.00976139,0.01286,0.0169416,0.0223182,0.0294004,inf	0.38739,0.38739,0.387314,93.2449,1564.56,303.259,551.078,460.122,373.29,199.596,403.253,631.465,521.653,394.388,465.896,310.621,338.832,456.04,417.586,399.348,402.389,420.596,424.657,415.897,483.441,393.165,253.743,535.357,535.357,76.7632,76.7632,76.7632
0.000208609	-13741682.20	0,1.82028e-06,4.21803e-06,7.37647e-06,1.15369e-05,1.70173e-05,2.42363e-05,3.37454e-05,4.62714e-05,6.27712e-05,8.45056e-05,0.000113135,0.000150847,0.000200524,0.00026596,0.000352156,0.000465697,0.000615259,0.000812269,0.00107178,0.00141362,0.00186391,0.00245706,0.00323837,0.00426756,0.00562326,0.00740905,0.00976139,0.01286,0.0169416,0.0223182,0.0294004,inf	0.38739,0.38739,0.387314,69.2647,1611.76,283.034,558.546,464.411,387.042,191.467,398.283,638.257,528.271,391.425,475.381,309.219,334.827,459.478,417.352,398.167,400.907,420.394,425.071,414.474,486.909,392.632,249.283,539.693,539.693,76.957,76.957,76.957
0.000205662	-13741663.52	0,1.82028e-06,4.21803e-06,7.37647e-06,1.15369e-05,1.70173e-05,2.42363e-05,3.37454e-05,4.62714e-05,6.27712e-05,8.45056e-05,0.000113135,0.000150847,0.000200524,0.00026596,0.000352156,0.000465697,0.000615259,0.000812269,0.00107178,0.00141362,0.00186391,0.00245706,0.00323837,0.00426756,0.00562326,0.00740905,0.00976139,0.01286,0.0169416,0.0223182,0.0294004,inf	0.38739,0.38739,0.387314,51.1156,1652.26,263.391,564.411,466.748,400.546,183.886,393.497,643.904,533.942,387.747,484.151,307.866,330.963,462.75,417.101,397.235,399.664,420.284,425.563,412.92,489.978,392.161,245.557,543.296,543.296,77.0053,77.0053,77.0053
0.000203483	-13741657.04	0,1.82028e-06,4.21803e-06,7.37647e-06,1.15369e-05,1.70173e-05,2.42363e-05,3.37454e-05,4.62714e-05,6.27712e-05,8.45056e-05,0.000113135,0.000150847,0.000200524,0.00026596,0.000352156,0.000465697,0.000615259,0.000812269,0.00107178,0.00141362,0.00186391,0.00245706,0.00323837,0.00426756,0.00562326,0.00740905,0.00976139,0.01286,0.0169416,0.0223182,0.0294004,inf	0.38739,0.38739,0.387314,37.5382,1688.26,244.789,569.462,467.655,413.987,176.928,389.257,649.106,539.218,383.791,492.587,306.74,327.437,466.094,416.991,396.636,398.713,420.306,426.172,411.263,492.758,391.781,242.436,546.269,546.269,77.1302,77.1302,77.1302
0.000201866	-13741656.15	0,1.82028e-06,4.21803e-06,7.37647e-06,1.15369e-05,1.70173e-05,2.42363e-05,3.37454e-05,4.62714e-05,6.27712e-05,8.45056e-05,0.000113135,0.000150847,0.000200524,0.00026596,0.000352156,0.000465697,0.000615259,0.000812269,0.00107178,0.00141362,0.00186391,0.00245706,0.00323837,0.00426756,0.00562326,0.00740905,0.00976139,0.01286,0.0169416,0.0223182,0.0294004,inf	0.38739,0.38739,0.387314,27.4396,1718.16,227.011,573.181,466.706,426.725,170.3,385.033,653.125,543.497,379.177,500.122,305.479,323.894,469.061,416.669,396.079,397.833,420.308,426.821,409.508,495.269,391.424,239.816,548.699,548.699,77.1516,77.1516,77.1516
0.00020067	-13741658.18	0,1.82028e-06,4.21803e-06,7.37647e-06,1.15369e-05,1.70173e-05,2.42363e-05,3.37454e-05,4.62714e-05,6.27712e-05,8.45056e-05,0.000113135,0.000150847,0.000200524,0.00026596,0.000352156,0.000465697,0.000615259,0.000812269,0.00107178,0.00141362,0.00186391,0.00245706,0.00323837,0.00426756,0.00562326,0.00740905,0.00976139,0.01286,0.0169416,0.0223182,0.0294004,inf	0.38739,0.38739,0.387314,19.9846,1744.25,210.361,576.304,464.492,439.033,164.09,381.122,656.565,547.281,374.272,507.109,304.245,320.49,471.851,416.273,395.638,397.073,420.325,427.536,407.691,497.586,391.096,237.613,550.656,550.656,77.2279,77.2279,77.2279
0.000199789	-13741660.83	0,1.82028e-06,4.21803e-06,7.37647e-06,1.15369e-05,1.70173e-05,2.42363e-05,3.37454e-05,4.62714e-05,6.27712e-05,8.45056e-05,0.000113135,0.000150847,0.000200524,0.00026596,0.000352156,0.000465697,0.000615259,0.000812269,0.00107178,0.00141362,0.00186391,0.00245706,0.00323837,0.00426756,0.00562326,0.00740905,0.00976139,0.01286,0.0169416,0.0223182,0.0294004,inf	0.38739,0.38739,0.387314,14.5267,1767.28,194.875,579.122,461.231,450.938,158.273,377.548,659.597,550.724,369.215,513.653,303.073,317.254,474.517,415.832,395.313,396.421,420.348,428.322,405.824,499.76,390.788,235.762,552.259,552.259,77.2394,77.2394,77.2394
0.00019914	-13741664.05	0,1.82028e-06,4.21803e-06,7.37647e-06,1.15369e-05,1.70173e-05,2.42363e-05,3.37454e-05,4.62714e-05,6.27712e-05,8.45056e-05,0.000113135,0.000150847,0.000200524,0.00026596,0.000352156,0.000465697,0.000615259,0.000812269,0.00107178,0.00141362,0.00186391,0.00245706,0.00323837,0.00426756,0.00562326,0.00740905,0.00976139,0.01286,0.0169416,0.0223182,0.0294004,inf	0.38739,0.38739,0.387314,10.536,1787.7,180.502,581.75,457.108,462.448,152.806,374.314,662.314,553.918,364.082,519.811,301.965,314.186,477.075,415.354,395.087,395.859,420.367,429.173,403.914,501.826,390.489,234.202,553.552,553.552,77.2858,77.2858,77.2858
