time_index	left_time_boundary	right_time_boundary	lambda
0	0	0.000100347	430.297
1	0.000100347	0.000237654	430.297
2	0.000237654	0.000425533	294.884
3	0.000425533	0.00068261	373.363
4	0.00068261	0.00103437	432.185
5	0.00103437	0.0015157	421.112
6	0.0015157	0.0021743	408.286
7	0.0021743	0.00307547	382.968
8	0.00307547	0.00430856	390.632
9	0.00430856	0.00599581	451.55
10	0.00599581	0.0083045	411.428
11	0.0083045	0.0114635	325.599
12	0.0114635	0.0157861	555.341
13	0.0157861	0.0217006	51566.4
14	0.0217006	0.0297937	51566.4
15	0.0297937	inf	51566.4
