LogLikelihood = -289601.19680448895087

y0 0.99757328369493902809
y0_prime 0
y1 1.0178877619807240595
y1_prime 0
y2 0.86417960101082424984
y2_prime 0
y3 1.5776471338368467379
y3_prime 0
rho 0.0013359417048384139744
rho.alpha 0.70919861406345996446
r_ii 0.99992430353531591702
theta 0.0047888652158499470796
