LogLikelihood = -165746.5795245039626

y0 0.94673603576328768661
y0_prime 0
y1 0.90604460089416527513
y1_prime 0
y2 1.0029367271294502562
y2_prime 0
y3 1.6829892408863487141
y3_prime 0
rho 0.00095437593887601830829
theta 0.0024314361604249839881
