time_index	left_time_boundary	right_time_boundary	lambda
0	0	8.26905e-06	0.477487
1	8.26905e-06	1.84971e-05	0.477487
2	1.84971e-05	3.11481e-05	0.477486
3	3.11481e-05	4.67962e-05	0.477486
4	4.67962e-05	6.61513e-05	0.477486
5	6.61513e-05	9.00917e-05	0.477486
6	9.00917e-05	0.000119704	0.477486
7	0.000119704	0.000156331	7.77776
8	0.000156331	0.000201635	109.396
9	0.000201635	0.000257671	510.362
10	0.000257671	0.000326983	740.231
11	0.000326983	0.000412715	471.516
12	0.000412715	0.000518757	360.16
13	0.000518757	0.00064992	489.132
14	0.00064992	0.000812157	681.401
15	0.000812157	0.00101283	514.021
16	0.00101283	0.00126104	252.56
17	0.00126104	0.00156805	178.763
18	0.00156805	0.00194779	229.832
19	0.00194779	0.00241749	398.885
20	0.00241749	0.00299847	692.706
21	0.00299847	0.00371708	936.173
22	0.00371708	0.00460593	899.988
23	0.00460593	0.00570535	679.076
24	0.00570535	0.00706523	445.833
25	0.00706523	0.00874726	290.324
26	0.00874726	0.0108278	220.004
27	0.0108278	0.0134012	231.766
28	0.0134012	0.0165842	231.766
29	0.0165842	0.0205213	638.791
30	0.0205213	0.0253911	638.791
31	0.0253911	inf	638.791
