time_index	left_time_boundary	right_time_boundary	lambda
0	0	4.26e-05	275.03
1	4.26e-05	9.24313e-05	275.03
2	9.24313e-05	0.000150721	445.23
3	0.000150721	0.000218906	284.632
4	0.000218906	0.000298666	262.788
5	0.000298666	0.000391964	285.271
6	0.000391964	0.0005011	308.623
7	0.0005011	0.000628762	321.45
8	0.000628762	0.000778094	321.546
9	0.000778094	0.000952775	330.275
10	0.000952775	0.00115711	345.179
11	0.00115711	0.00139613	363.623
12	0.00139613	0.00167572	384.427
13	0.00167572	0.00200277	404.883
14	0.00200277	0.00238535	422.407
15	0.00238535	0.00283286	435.61
16	0.00283286	0.00335633	446.677
17	0.00335633	0.00396867	457.768
18	0.00396867	0.00468495	468.325
19	0.00468495	0.00552282	474.323
20	0.00552282	0.00650292	470.787
21	0.00650292	0.00764939	459.148
22	0.00764939	0.00899048	444.744
23	0.00899048	0.0105592	432.283
24	0.0105592	0.0123942	425.566
25	0.0123942	0.0145408	436.678
26	0.0145408	0.0170517	486.24
27	0.0170517	0.0199888	580.813
28	0.0199888	0.0234245	580.813
29	0.0234245	0.0274434	82309.7
30	0.0274434	0.0321445	82309.7
31	0.0321445	inf	82309.7
