LogLikelihood = -822844.52091976359952

y0 0.49792282146423721967
y0_prime 0
y1 0.97973140520499024664
y1_prime 0
y2 0.75374841443110451866
y2_prime 0
y3 1.4561473773352606731
y3_prime 0
rho 0.0012065538131466938248
rho.alpha 0.13090535305661182841
r_ii 0.99988798024241942741
theta 0.0024221771633810553967
