0.000229061	-6227597.22	0,1.56711e-06,4.28628e-06,9.00443e-06,1.71911e-05,3.13961e-05,5.60439e-05,9.88114e-05,0.000173019,0.00030178,0.000525199,0.000912863,0.00158552,0.00275267,0.00477784,0.00829181,inf	7.00028,7.00028,17.8186,36.4251,71.6807,142.387,276.306,391.506,516.465,657.317,1015.71,1605.53,1396.88,1265.13,1265.13,1265.13
0.000220637	-6215811.94	0,1.56711e-06,4.28628e-06,9.00443e-06,1.71911e-05,3.13961e-05,5.60439e-05,9.88114e-05,0.000173019,0.00030178,0.000525199,0.000912863,0.00158552,0.00275267,0.00477784,0.00829181,inf	1.04246,1.04246,1.04246,1.54536,6.10707,26.0422,119.926,229.683,365.149,492.583,907.019,2000.79,1707.77,1383.54,1383.54,1383.54
0.000209323	-6211650.41	0,1.56711e-06,4.28628e-06,9.00443e-06,1.71911e-05,3.13961e-05,5.60439e-05,9.88114e-05,0.000173019,0.00030178,0.000525199,0.000912863,0.00158552,0.00275267,0.00477784,0.00829181,inf	1.04246,1.04246,1.04246,1.04246,1.04246,5.10685,70.2829,168.411,310.038,406.752,812.985,2261.44,1955.11,1335.52,1335.52,1335.52
0.000195113	-6209698.67	0,1.56711e-06,4.28628e-06,9.00443e-06,1.71911e-05,3.13961e-05,5.60439e-05,9.88114e-05,0.000173019,0.00030178,0.000525199,0.000912863,0.00158552,0.00275267,0.00477784,0.00829181,inf	1.04246,1.04246,1.04246,1.04246,1.04246,1.04246,50.5107,139.064,290.195,358.981,743.567,2431.58,2135.6,1164.11,1164.11,1164.11
0.000178744	-6208504.91	0,1.56711e-06,4.28628e-06,9.00443e-06,1.71911e-05,3.13961e-05,5.60439e-05,9.88114e-05,0.000173019,0.00030178,0.000525199,0.000912863,0.00158552,0.00275267,0.00477784,0.00829181,inf	1.04246,1.04246,1.04246,1.04246,1.04246,1.04246,41.6737,122.254,283.331,331.668,692.929,2543.56,2250.76,958.57,958.57,958.57
0.000160898	-6207583.85	0,1.56711e-06,4.28628e-06,9.00443e-06,1.71911e-05,3.13961e-05,5.60439e-05,9.88114e-05,0.000173019,0.00030178,0.000525199,0.000912863,0.00158552,0.00275267,0.00477784,0.00829181,inf	1.04246,1.04246,1.04246,1.04246,1.04246,1.04246,37.3402,111.227,279.159,316.477,655.678,2618.03,2302.39,771.764,771.764,771.764
0.000142102	-6206751.09	0,1.56711e-06,4.28628e-06,9.00443e-06,1.71911e-05,3.13961e-05,5.60439e-05,9.88114e-05,0.000173019,0.00030178,0.000525199,0.000912863,0.00158552,0.00275267,0.00477784,0.00829181,inf	1.04246,1.04246,1.04246,1.04246,1.04246,1.04246,34.5497,103.312,271.999,308.43,627.366,2669.23,2292.54,620.168,620.168,620.168
0.000122633	-6205918.37	0,1.56711e-06,4.28628e-06,9.00443e-06,1.71911e-05,3.13961e-05,5.60439e-05,9.88114e-05,0.000173019,0.00030178,0.000525199,0.000912863,0.00158552,0.00275267,0.00477784,0.00829181,inf	1.04246,1.04246,1.04246,1.04246,1.04246,1.04246,31.5609,97.7066,259.431,304.685,606.283,2703.64,2221.1,501.295,501.295,501.295
0.000102738	-6205031.96	0,1.56711e-06,4.28628e-06,9.00443e-06,1.71911e-05,3.13961e-05,5.60439e-05,9.88114e-05,0.000173019,0.00030178,0.000525199,0.000912863,0.00158552,0.00275267,0.00477784,0.00829181,inf	1.04246,1.04246,1.04246,1.04246,1.04246,1.04246,28.1339,94.1403,240.384,301.857,590.216,2726.05,2088.3,406.825,406.825,406.825
8.25523e-05	-6204040.95	0,1.56711e-06,4.28628e-06,9.00443e-06,1.71911e-05,3.13961e-05,5.60439e-05,9.88114e-05,0.000173019,0.00030178,0.000525199,0.000912863,0.00158552,0.00275267,0.00477784,0.00829181,inf	1.04246,1.04246,1.04246,1.04246,1.04246,1.04246,26.3301,93.1027,216.634,297.506,579.745,2732.08,1891.99,328.39,328.39,328.39
6.23029e-05	-6202889.60	0,1.56711e-06,4.28628e-06,9.00443e-06,1.71911e-05,3.13961e-05,5.60439e-05,9.88114e-05,0.000173019,0.00030178,0.000525199,0.000912863,0.00158552,0.00275267,0.00477784,0.00829181,inf	1.04246,1.04246,1.04246,1.04246,1.04246,1.04246,28.0465,95.0413,191.153,289.273,576.684,2707.32,1630.16,261.037,261.037,261.037
4.25768e-05	-6201502.06	0,1.56711e-06,4.28628e-06,9.00443e-06,1.71911e-05,3.13961e-05,5.60439e-05,9.88114e-05,0.000173019,0.00030178,0.000525199,0.000912863,0.00158552,0.00275267,0.00477784,0.00829181,inf	1.04246,1.04246,1.04246,1.04246,1.04246,1.04246,34.9235,100.497,166.535,274.434,582.54,2623.26,1304.94,204.445,204.445,204.445
2.45919e-05	-6199785.94	0,1.56711e-06,4.28628e-06,9.00443e-06,1.71911e-05,3.13961e-05,5.60439e-05,9.88114e-05,0.000173019,0.00030178,0.000525199,0.000912863,0.00158552,0.00275267,0.00477784,0.00829181,inf	1.04246,1.04246,1.04246,1.04246,1.04246,1.04246,45.6815,113.639,143.768,254.202,604.144,2418.48,934.392,160.001,160.001,160.001
1.05678e-05	-6197709.13	0,1.56711e-06,4.28628e-06,9.00443e-06,1.71911e-05,3.13961e-05,5.60439e-05,9.88114e-05,0.000173019,0.00030178,0.000525199,0.000912863,0.00158552,0.00275267,0.00477784,0.00829181,inf	1.04246,1.04246,1.04246,1.04246,1.04246,1.04246,56.3422,159.309,120.867,244.88,666.25,1992.67,575.331,125.815,125.815,125.815
2.809e-06	-6195528.85	0,1.56711e-06,4.28628e-06,9.00443e-06,1.71911e-05,3.13961e-05,5.60439e-05,9.88114e-05,0.000173019,0.00030178,0.000525199,0.000912863,0.00158552,0.00275267,0.00477784,0.00829181,inf	1.04246,1.04246,1.04246,1.04246,1.04246,1.04246,723.36,162089,300.94,45059.6,1100.08,1192.24,305.316,108.806,108.806,108.806
2.02852e-07	-6195564.58	0,1.56711e-06,4.28628e-06,9.00443e-06,1.71911e-05,3.13961e-05,5.60439e-05,9.88114e-05,0.000173019,0.00030178,0.000525199,0.000912863,0.00158552,0.00275267,0.00477784,0.00829181,inf	1.04246,1.04246,1.04246,1.04246,1.04246,1.04246,277.749,539080,28.3603,429756,5255.73,253.556,108.857,51.4451,51.4451,51.4451
4.19359e-09	-6200442.44	0,1.56711e-06,4.28628e-06,9.00443e-06,1.71911e-05,3.13961e-05,5.60439e-05,9.88114e-05,0.000173019,0.00030178,0.000525199,0.000912863,0.00158552,0.00275267,0.00477784,0.00829181,inf	1.04246,1.04246,1.04246,1.04246,1.04246,1.04246,78.8597,1.8853e+06,2.30084,1.95544e+06,30943.4,3.54764,18.5158,1.04246,1.04246,1.04246
4.17442e-09	-6219893.55	0,1.56711e-06,4.28628e-06,9.00443e-06,1.71911e-05,3.13961e-05,5.60439e-05,9.88114e-05,0.000173019,0.00030178,0.000525199,0.000912863,0.00158552,0.00275267,0.00477784,0.00829181,inf	1.04246,1.04246,1.04246,1.04246,1.04246,1.04246,8.39687,3.56243e+06,1.04262,1.95544e+06,30943.4,3.07036,6.87829,1.04246,1.04246,1.04246
