LogLikelihood = -136584.4467670089507

y0 5.3605644046983382663e-12
y0_prime 0
y1 0.6264752199465613014
y1_prime 0
y2 1.9362200733937209307
y2_prime 0
y3 4.8010292023381220261
y3_prime 0
rho 0.0027731730338486290655
rho.alpha 0.8470812297772429833
r_ii 0.99982332146168539921
theta 0.0018825157363033804322
