time_index	left_time_boundary	right_time_boundary	lambda
0	0	9.25173e-05	329.877
1	9.25173e-05	0.00021911	329.877
2	0.00021911	0.000392329	337.518
3	0.000392329	0.000629347	324.161
4	0.000629347	0.000953662	343.157
5	0.000953662	0.00139743	358.513
6	0.00139743	0.00200464	383.746
7	0.00200464	0.00283549	429.754
8	0.00283549	0.00397236	459.521
9	0.00397236	0.00552796	446.385
10	0.00552796	0.00765651	427.12
11	0.00765651	0.010569	423.388
12	0.010569	0.0145543	462.05
13	0.0145543	0.0200074	555.987
14	0.0200074	0.0274689	555.987
15	0.0274689	inf	555.987
