0.000715726	-85984557.68	0,6.12696e-06,1.64476e-05,3.38321e-05,6.31157e-05,0.000112443,0.000195531,0.000335491,0.000571246,0.000968366,0.0016373,0.00276408,0.0046621,0.00785922,0.0132446,0.0223161,inf	294.909,294.909,357.525,356.724,343.521,333.22,325.974,329.879,345.849,376.45,417.624,436.163,423.798,413.907,413.907,413.907
0.000797402	-85949008.25	0,6.12696e-06,1.64476e-05,3.38321e-05,6.31157e-05,0.000112443,0.000195531,0.000335491,0.000571246,0.000968366,0.0016373,0.00276408,0.0046621,0.00785922,0.0132446,0.0223161,inf	260.355,260.355,364.375,363.408,343.259,325.426,310.241,311.108,328.923,367.638,424.489,454.295,436.178,420.332,420.332,420.332
0.000872107	-85926679.91	0,6.12696e-06,1.64476e-05,3.38321e-05,6.31157e-05,0.000112443,0.000195531,0.000335491,0.000571246,0.000968366,0.0016373,0.00276408,0.0046621,0.00785922,0.0132446,0.0223161,inf	238.123,238.123,369.571,369.717,348.893,328.098,308.103,306.192,323.07,363.428,426.181,462.746,441.73,421.873,421.873,421.873
0.000941123	-85910116.53	0,6.12696e-06,1.64476e-05,3.38321e-05,6.31157e-05,0.000112443,0.000195531,0.000335491,0.000571246,0.000968366,0.0016373,0.00276408,0.0046621,0.00785922,0.0132446,0.0223161,inf	222.682,222.682,370.026,370.327,352.273,331.601,309.542,306.044,321.62,361.388,425.758,466.287,443.622,420.739,420.739,420.739
0.00100544	-85896978.99	0,6.12696e-06,1.64476e-05,3.38321e-05,6.31157e-05,0.000112443,0.000195531,0.000335491,0.000571246,0.000968366,0.0016373,0.00276408,0.0046621,0.00785922,0.0132446,0.0223161,inf	212.862,212.862,368.712,367.248,353.155,334.078,311.747,307.671,322.153,360.543,424.53,467.295,443.557,418.191,418.191,418.191
0.00106578	-85886206.35	0,6.12696e-06,1.64476e-05,3.38321e-05,6.31157e-05,0.000112443,0.000195531,0.000335491,0.000571246,0.000968366,0.0016373,0.00276408,0.0046621,0.00785922,0.0132446,0.0223161,inf	207.243,207.243,367.677,362.65,352.572,335.51,313.911,309.934,323.621,360.394,423.053,466.983,442.457,414.942,414.942,414.942
0.00112264	-85877197.20	0,6.12696e-06,1.64476e-05,3.38321e-05,6.31157e-05,0.000112443,0.000195531,0.000335491,0.000571246,0.000968366,0.0016373,0.00276408,0.0046621,0.00785922,0.0132446,0.0223161,inf	204.461,204.461,367.696,357.811,351.401,336.225,315.841,312.361,325.516,360.657,421.555,465.985,440.827,411.395,411.395,411.395
0.00117641	-85869561.25	0,6.12696e-06,1.64476e-05,3.38321e-05,6.31157e-05,0.000112443,0.000195531,0.000335491,0.000571246,0.000968366,0.0016373,0.00276408,0.0046621,0.00785922,0.0132446,0.0223161,inf	203.383,203.383,368.806,353.302,350.175,336.527,317.531,314.752,327.575,361.159,420.126,464.642,438.95,407.778,407.778,407.778
0.0012274	-85863023.97	0,6.12696e-06,1.64476e-05,3.38321e-05,6.31157e-05,0.000112443,0.000195531,0.000335491,0.000571246,0.000968366,0.0016373,0.00276408,0.0046621,0.00785922,0.0132446,0.0223161,inf	203.299,203.299,370.814,349.314,349.167,336.631,319.028,317.024,329.661,361.795,418.798,463.143,436.985,404.216,404.216,404.216
0.00127586	-85857382.16	0,6.12696e-06,1.64476e-05,3.38321e-05,6.31157e-05,0.000112443,0.000195531,0.000335491,0.000571246,0.000968366,0.0016373,0.00276408,0.0046621,0.00785922,0.0132446,0.0223161,inf	203.697,203.697,373.418,345.854,348.494,336.672,320.38,319.148,331.699,362.498,417.575,461.592,435.021,400.78,400.78,400.78
0.00132199	-85852480.43	0,6.12696e-06,1.64476e-05,3.38321e-05,6.31157e-05,0.000112443,0.000195531,0.000335491,0.000571246,0.000968366,0.0016373,0.00276408,0.0046621,0.00785922,0.0132446,0.0223161,inf	204.325,204.325,376.399,342.859,348.182,336.727,321.631,321.121,333.652,363.227,416.451,460.048,433.109,397.503,397.503,397.503
0.00136596	-85848197.13	0,6.12696e-06,1.64476e-05,3.38321e-05,6.31157e-05,0.000112443,0.000195531,0.000335491,0.000571246,0.000968366,0.0016373,0.00276408,0.0046621,0.00785922,0.0132446,0.0223161,inf	205.018,205.018,379.565,340.246,348.214,336.84,322.812,322.948,335.502,363.958,415.417,458.543,431.274,394.401,394.401,394.401
0.00140794	-85844435.35	0,6.12696e-06,1.64476e-05,3.38321e-05,6.31157e-05,0.000112443,0.000195531,0.000335491,0.000571246,0.000968366,0.0016373,0.00276408,0.0046621,0.00785922,0.0132446,0.0223161,inf	205.734,205.734,382.787,337.94,348.55,337.026,323.944,324.64,337.243,364.673,414.464,457.094,429.529,391.477,391.477,391.477
0.00144805	-85841116.83	0,6.12696e-06,1.64476e-05,3.38321e-05,6.31157e-05,0.000112443,0.000195531,0.000335491,0.000571246,0.000968366,0.0016373,0.00276408,0.0046621,0.00785922,0.0132446,0.0223161,inf	206.42,206.42,385.991,335.873,349.153,337.292,325.043,326.209,338.875,365.364,413.582,455.71,427.879,388.726,388.726,388.726
0.00148642	-85838177.61	0,6.12696e-06,1.64476e-05,3.38321e-05,6.31157e-05,0.000112443,0.000195531,0.000335491,0.000571246,0.000968366,0.0016373,0.00276408,0.0046621,0.00785922,0.0132446,0.0223161,inf	207.104,207.104,389.118,333.989,349.975,337.634,326.12,327.667,340.403,366.027,412.763,454.392,426.324,386.143,386.143,386.143
0.00152316	-85835564.95	0,6.12696e-06,1.64476e-05,3.38321e-05,6.31157e-05,0.000112443,0.000195531,0.000335491,0.000571246,0.000968366,0.0016373,0.00276408,0.0046621,0.00785922,0.0132446,0.0223161,inf	207.772,207.772,392.133,332.245,350.977,338.043,327.18,329.024,341.83,366.658,412,453.14,424.862,383.717,383.717,383.717
0.00155837	-85833234.95	0,6.12696e-06,1.64476e-05,3.38321e-05,6.31157e-05,0.000112443,0.000195531,0.000335491,0.000571246,0.000968366,0.0016373,0.00276408,0.0046621,0.00785922,0.0132446,0.0223161,inf	208.425,208.425,395.023,330.614,352.124,338.512,328.228,330.291,343.163,367.257,411.286,451.953,423.487,381.439,381.439,381.439
0.00159213	-85831150.85	0,6.12696e-06,1.64476e-05,3.38321e-05,6.31157e-05,0.000112443,0.000195531,0.000335491,0.000571246,0.000968366,0.0016373,0.00276408,0.0046621,0.00785922,0.0132446,0.0223161,inf	209.092,209.092,397.771,329.07,353.387,339.03,329.265,331.475,344.41,367.824,410.617,450.828,422.196,379.299,379.299,379.299
0.00162453	-85829281.60	0,6.12696e-06,1.64476e-05,3.38321e-05,6.31157e-05,0.000112443,0.000195531,0.000335491,0.000571246,0.000968366,0.0016373,0.00276408,0.0046621,0.00785922,0.0132446,0.0223161,inf	209.765,209.765,400.403,327.604,354.738,339.587,330.292,332.584,345.576,368.361,409.988,449.762,420.983,377.287,377.287,377.287
0.00165564	-85827600.86	0,6.12696e-06,1.64476e-05,3.38321e-05,6.31157e-05,0.000112443,0.000195531,0.000335491,0.000571246,0.000968366,0.0016373,0.00276408,0.0046621,0.00785922,0.0132446,0.0223161,inf	210.45,210.45,402.922,326.197,356.156,340.176,331.31,333.625,346.667,368.868,409.394,448.75,419.842,375.394,375.394,375.394
