0.000692514	-3079072.19	0,4.26396e-05,9.25173e-05,0.000150862,0.00021911,0.000298944,0.000392329,0.000501566,0.000629347,0.000778818,0.000953662,0.00115819,0.00139743,0.00167728,0.00200464,0.00238756,0.00283549,0.00335946,0.00397236,0.00468931,0.00552796,0.00650897,0.00765651,0.00899884,0.010569,0.0124058,0.0145543,0.0170675,0.0200074,0.0234462,0.0274689,0.0321744,inf	349.991,349.991,340.94,331.332,325.84,326.434,329.385,334.983,343.823,354.504,365.85,377.851,390.342,402.873,414.715,424.503,431.019,433.935,433.791,431.548,428.147,424.387,420.707,417.477,415.362,414.557,414.07,412.954,412.954,414.929,414.929,414.929
0.000754569	-3078000.92	0,4.26396e-05,9.25173e-05,0.000150862,0.00021911,0.000298944,0.000392329,0.000501566,0.000629347,0.000778818,0.000953662,0.00115819,0.00139743,0.00167728,0.00200464,0.00238756,0.00283549,0.00335946,0.00397236,0.00468931,0.00552796,0.00650897,0.00765651,0.00899884,0.010569,0.0124058,0.0145543,0.0170675,0.0200074,0.0234462,0.0274689,0.0321744,inf	350.465,350.465,339.298,320.129,308.204,306.332,307.717,313.283,324.24,338.116,353.015,369.135,386.467,404.59,422.576,438.24,449.322,454.893,455.52,452.582,447.53,441.671,435.76,430.542,427.368,426.611,426.314,424.81,424.81,429.724,429.724,429.724
0.000813107	-3077297.39	0,4.26396e-05,9.25173e-05,0.000150862,0.00021911,0.000298944,0.000392329,0.000501566,0.000629347,0.000778818,0.000953662,0.00115819,0.00139743,0.00167728,0.00200464,0.00238756,0.00283549,0.00335946,0.00397236,0.00468931,0.00552796,0.00650897,0.00765651,0.00899884,0.010569,0.0124058,0.0145543,0.0170675,0.0200074,0.0234462,0.0274689,0.0321744,inf	352.881,352.881,347.328,321.102,304.707,300.891,300.282,304.775,316.161,331.009,346.925,364.374,383.583,404.312,425.649,444.927,459.139,466.821,468.435,465.52,459.784,452.822,445.598,439.211,435.66,435.462,435.761,434.376,434.376,442.896,442.896,442.896
0.000868348	-3076759.79	0,4.26396e-05,9.25173e-05,0.000150862,0.00021911,0.000298944,0.000392329,0.000501566,0.000629347,0.000778818,0.000953662,0.00115819,0.00139743,0.00167728,0.00200464,0.00238756,0.00283549,0.00335946,0.00397236,0.00468931,0.00552796,0.00650897,0.00765651,0.00899884,0.010569,0.0124058,0.0145543,0.0170675,0.0200074,0.0234462,0.0274689,0.0321744,inf	350.935,350.935,355.268,324.207,305.34,300.519,298.239,301.625,312.995,328.026,343.966,361.566,381.304,403.166,426.334,447.838,464.146,473.387,475.904,473.291,467.367,459.875,451.902,444.871,441.363,442.009,443.131,442.21,442.21,454.778,454.778,454.778
0.000920649	-3076321.89	0,4.26396e-05,9.25173e-05,0.000150862,0.00021911,0.000298944,0.000392329,0.000501566,0.000629347,0.000778818,0.000953662,0.00115819,0.00139743,0.00167728,0.00200464,0.00238756,0.00283549,0.00335946,0.00397236,0.00468931,0.00552796,0.00650897,0.00765651,0.00899884,0.010569,0.0124058,0.0145543,0.0170675,0.0200074,0.0234462,0.0274689,0.0321744,inf	345.923,345.923,361.34,326.887,307.071,302.027,298.481,300.959,312.236,327.157,342.704,359.92,379.532,401.756,425.882,448.74,466.421,476.753,479.992,477.749,471.879,464.177,455.802,448.461,445.251,446.881,448.942,448.719,448.719,465.627,465.627,465.627
0.000970335	-3075953.28	0,4.26396e-05,9.25173e-05,0.000150862,0.00021911,0.000298944,0.000392329,0.000501566,0.000629347,0.000778818,0.000953662,0.00115819,0.00139743,0.00167728,0.00200464,0.00238756,0.00283549,0.00335946,0.00397236,0.00468931,0.00552796,0.00650897,0.00765651,0.00899884,0.010569,0.0124058,0.0145543,0.0170675,0.0200074,0.0234462,0.0274689,0.0321744,inf	339.767,339.767,365.708,328.644,308.923,304.202,299.726,301.52,312.741,327.451,342.437,359.025,378.184,400.352,424.924,448.58,467.129,478.186,481.958,480.062,474.35,466.616,458.05,450.611,447.846,450.518,453.567,454.201,454.201,475.617,475.617,475.617
0.00101767	-3075636.94	0,4.26396e-05,9.25173e-05,0.000150862,0.00021911,0.000298944,0.000392329,0.000501566,0.000629347,0.000778818,0.000953662,0.00115819,0.00139743,0.00167728,0.00200464,0.00238756,0.00283549,0.00335946,0.00397236,0.00468931,0.00552796,0.00650897,0.00765651,0.00899884,0.010569,0.0124058,0.0145543,0.0170675,0.0200074,0.0234462,0.0274689,0.0321744,inf	333.692,333.692,368.874,329.541,310.601,306.548,301.39,302.696,313.925,328.402,342.77,358.629,377.18,399.067,423.776,447.869,466.934,478.442,482.578,480.971,475.452,467.778,459.152,451.749,449.51,453.231,457.275,458.869,458.869,484.899,484.899,484.899
0.00106286	-3075361.98	0,4.26396e-05,9.25173e-05,0.000150862,0.00021911,0.000298944,0.000392329,0.000501566,0.000629347,0.000778818,0.000953662,0.00115819,0.00139743,0.00167728,0.00200464,0.00238756,0.00283549,0.00335946,0.00397236,0.00468931,0.00552796,0.00650897,0.00765651,0.00899884,0.010569,0.0124058,0.0145543,0.0170675,0.0200074,0.0234462,0.0274689,0.0321744,inf	328.287,328.287,371.28,329.775,312.046,308.864,303.195,304.166,315.465,329.719,343.465,358.566,376.444,397.934,422.594,446.887,466.226,477.978,482.338,480.953,475.627,468.061,459.452,452.17,450.497,455.243,460.267,462.891,462.891,493.581,493.581,493.581
0.0011061	-3075120.77	0,4.26396e-05,9.25173e-05,0.000150862,0.00021911,0.000298944,0.000392329,0.000501566,0.000629347,0.000778818,0.000953662,0.00115819,0.00139743,0.00167728,0.00200464,0.00238756,0.00283549,0.00335946,0.00397236,0.00468931,0.00552796,0.00650897,0.00765651,0.00899884,0.010569,0.0124058,0.0145543,0.0170675,0.0200074,0.0234462,0.0274689,0.0321744,inf	323.745,323.745,373.236,329.532,313.283,311.071,305.003,305.755,317.175,331.228,344.373,358.725,375.915,396.95,421.453,445.79,465.233,477.078,481.55,480.323,475.174,467.735,459.19,452.081,450.985,456.718,462.692,466.388,466.388,501.743,501.743,501.743
0.00114751	-3074907.67	0,4.26396e-05,9.25173e-05,0.000150862,0.00021911,0.000298944,0.000392329,0.000501566,0.000629347,0.000778818,0.000953662,0.00115819,0.00139743,0.00167728,0.00200464,0.00238756,0.00283549,0.00335946,0.00397236,0.00468931,0.00552796,0.00650897,0.00765651,0.00899884,0.010569,0.0124058,0.0145543,0.0170675,0.0200074,0.0234462,0.0274689,0.0321744,inf	320.056,320.056,374.947,328.973,314.361,313.147,306.747,307.366,318.944,332.822,345.399,359.028,375.541,396.105,420.386,444.664,464.091,475.919,480.415,479.291,474.294,466.986,458.533,451.629,451.105,457.776,464.663,469.457,469.457,509.463,509.463,509.463
0.00118724	-3074718.31	0,4.26396e-05,9.25173e-05,0.000150862,0.00021911,0.000298944,0.000392329,0.000501566,0.000629347,0.000778818,0.000953662,0.00115819,0.00139743,0.00167728,0.00200464,0.00238756,0.00283549,0.00335946,0.00397236,0.00468931,0.00552796,0.00650897,0.00765651,0.00899884,0.010569,0.0124058,0.0145543,0.0170675,0.0200074,0.0234462,0.0274689,0.0321744,inf	317.127,317.127,376.538,328.208,315.327,315.095,308.399,308.946,320.71,334.434,346.479,359.422,375.286,395.381,419.405,443.557,462.885,474.614,479.066,477.997,473.128,465.948,457.6,450.917,450.952,458.509,466.269,472.172,472.172,516.786,516.786,516.786
0.0012254	-3074549.20	0,4.26396e-05,9.25173e-05,0.000150862,0.00021911,0.000298944,0.000392329,0.000501566,0.000629347,0.000778818,0.000953662,0.00115819,0.00139743,0.00167728,0.00200464,0.00238756,0.00283549,0.00335946,0.00397236,0.00468931,0.00552796,0.00650897,0.00765651,0.00899884,0.010569,0.0124058,0.0145543,0.0170675,0.0200074,0.0234462,0.0274689,0.0321744,inf	314.843,314.843,378.082,327.33,316.221,316.928,309.95,310.466,322.432,336.026,347.573,359.87,375.118,394.759,418.513,442.494,461.665,473.236,477.592,476.538,471.772,464.712,456.477,450.022,450.595,458.986,467.58,474.598,474.598,523.773,523.773,523.773
0.00126207	-3074397.55	0,4.26396e-05,9.25173e-05,0.000150862,0.00021911,0.000298944,0.000392329,0.000501566,0.000629347,0.000778818,0.000953662,0.00115819,0.00139743,0.00167728,0.00200464,0.00238756,0.00283549,0.00335946,0.00397236,0.00468931,0.00552796,0.00650897,0.00765651,0.00899884,0.010569,0.0124058,0.0145543,0.0170675,0.0200074,0.0234462,0.0274689,0.0321744,inf	313.08,313.08,379.62,326.394,317.074,318.657,311.397,311.912,324.091,337.57,348.656,360.346,375.016,394.225,417.704,441.489,460.462,471.831,476.052,474.981,470.296,463.346,455.226,448.999,450.088,459.262,468.65,476.779,476.779,530.457,530.457,530.457
0.00129735	-3074261.03	0,4.26396e-05,9.25173e-05,0.000150862,0.00021911,0.000298944,0.000392329,0.000501566,0.000629347,0.000778818,0.000953662,0.00115819,0.00139743,0.00167728,0.00200464,0.00238756,0.00283549,0.00335946,0.00397236,0.00468931,0.00552796,0.00650897,0.00765651,0.00899884,0.010569,0.0124058,0.0145543,0.0170675,0.0200074,0.0234462,0.0274689,0.0321744,inf	311.736,311.736,381.173,325.444,317.912,320.299,312.748,313.279,325.674,339.054,349.709,360.833,374.964,393.764,416.972,440.546,459.294,470.431,474.487,473.372,468.749,461.898,453.893,447.891,449.47,459.378,469.521,478.754,478.754,536.87,536.87,536.87
0.00133132	-3074137.72	0,4.26396e-05,9.25173e-05,0.000150862,0.00021911,0.000298944,0.000392329,0.000501566,0.000629347,0.000778818,0.000953662,0.00115819,0.00139743,0.00167728,0.00200464,0.00238756,0.00283549,0.00335946,0.00397236,0.00468931,0.00552796,0.00650897,0.00765651,0.00899884,0.010569,0.0124058,0.0145543,0.0170675,0.0200074,0.0234462,0.0274689,0.0321744,inf	310.723,310.723,382.748,324.506,318.752,321.864,314.006,314.565,327.177,340.469,350.724,361.319,374.947,393.366,416.312,439.665,458.17,469.054,472.923,471.744,467.167,460.405,452.509,446.728,448.771,459.367,470.228,480.553,480.553,543.04,543.04,543.04
0.00136404	-3074026.00	0,4.26396e-05,9.25173e-05,0.000150862,0.00021911,0.000298944,0.000392329,0.000501566,0.000629347,0.000778818,0.000953662,0.00115819,0.00139743,0.00167728,0.00200464,0.00238756,0.00283549,0.00335946,0.00397236,0.00468931,0.00552796,0.00650897,0.00765651,0.00899884,0.010569,0.0124058,0.0145543,0.0170675,0.0200074,0.0234462,0.0274689,0.0321744,inf	309.97,309.97,384.346,323.597,319.604,323.364,315.181,315.772,328.598,341.812,351.693,361.795,374.956,393.02,415.715,438.845,457.097,467.713,471.378,470.119,465.572,458.89,451.101,445.533,448.014,459.255,470.799,482.206,482.206,548.985,548.985,548.985
0.00139559	-3073924.51	0,4.26396e-05,9.25173e-05,0.000150862,0.00021911,0.000298944,0.000392329,0.000501566,0.000629347,0.000778818,0.000953662,0.00115819,0.00139743,0.00167728,0.00200464,0.00238756,0.00283549,0.00335946,0.00397236,0.00468931,0.00552796,0.00650897,0.00765651,0.00899884,0.010569,0.0124058,0.0145543,0.0170675,0.0200074,0.0234462,0.0274689,0.0321744,inf	309.42,309.42,385.963,322.731,320.476,324.808,316.278,316.904,329.938,343.082,352.615,362.257,374.984,392.719,415.175,438.084,456.075,466.414,469.865,468.513,463.984,457.373,449.686,444.323,447.219,459.063,471.257,483.727,483.727,554.731,554.731,554.731
0.00142602	-3073832.06	0,4.26396e-05,9.25173e-05,0.000150862,0.00021911,0.000298944,0.000392329,0.000501566,0.000629347,0.000778818,0.000953662,0.00115819,0.00139743,0.00167728,0.00200464,0.00238756,0.00283549,0.00335946,0.00397236,0.00468931,0.00552796,0.00650897,0.00765651,0.00899884,0.010569,0.0124058,0.0145543,0.0170675,0.0200074,0.0234462,0.0274689,0.0321744,inf	309.032,309.032,387.593,321.911,321.372,326.201,317.304,317.964,331.2,344.281,353.487,362.7,375.024,392.456,414.686,437.378,455.106,465.162,468.39,466.937,462.415,455.866,448.276,443.111,446.397,458.807,471.622,485.141,485.141,560.312,560.312,560.312
0.00145539	-3073747.66	0,4.26396e-05,9.25173e-05,0.000150862,0.00021911,0.000298944,0.000392329,0.000501566,0.000629347,0.000778818,0.000953662,0.00115819,0.00139743,0.00167728,0.00200464,0.00238756,0.00283549,0.00335946,0.00397236,0.00468931,0.00552796,0.00650897,0.00765651,0.00899884,0.010569,0.0124058,0.0145543,0.0170675,0.0200074,0.0234462,0.0274689,0.0321744,inf	308.769,308.769,389.231,321.142,322.294,327.549,318.266,318.957,332.387,345.41,354.311,363.122,375.074,392.225,414.244,436.722,454.188,463.959,466.96,465.396,460.873,454.381,446.883,441.906,445.559,458.502,471.908,486.46,486.46,565.713,565.713,565.713
0.00148374	-3073670.44	0,4.26396e-05,9.25173e-05,0.000150862,0.00021911,0.000298944,0.000392329,0.000501566,0.000629347,0.000778818,0.000953662,0.00115819,0.00139743,0.00167728,0.00200464,0.00238756,0.00283549,0.00335946,0.00397236,0.00468931,0.00552796,0.00650897,0.00765651,0.00899884,0.010569,0.0124058,0.0145543,0.0170675,0.0200074,0.0234462,0.0274689,0.0321744,inf	308.603,308.603,390.867,320.426,323.242,328.856,319.169,319.887,333.504,346.473,355.087,363.522,375.13,392.022,413.843,436.114,453.319,462.805,465.576,463.897,459.366,452.923,445.513,440.715,444.715,458.157,472.127,487.698,487.698,570.956,570.956,570.956
