6.8179e-06	-248568.17	0,4.14705e-08,1.13428e-07,2.38284e-07,4.54928e-07,8.30836e-07,1.48309e-06,2.61485e-06,4.57861e-06,7.98601e-06,1.38984e-05,2.41571e-05,4.19575e-05,7.28438e-05,0.000126436,0.000219426,inf	248.586,248.586,474.527,866.956,1599.53,2944.57,5330.82,9769.12,15669.5,25559.3,46904.3,98925.1,72608.6,48366.9,48366.9,48366.9
7.17582e-06	-248023.02	0,4.14705e-08,1.13428e-07,2.38284e-07,4.54928e-07,8.30836e-07,1.48309e-06,2.61485e-06,4.57861e-06,7.98601e-06,1.38984e-05,2.41571e-05,4.19575e-05,7.28438e-05,0.000126436,0.000219426,inf	39.3932,39.3932,39.3931,39.3937,87.0582,309.025,1088.64,4229.12,9239.63,18528.3,38299.7,197916,152166,69074.2,69074.2,69074.2
6.93854e-06	-247956.73	0,4.14705e-08,1.13428e-07,2.38284e-07,4.54928e-07,8.30836e-07,1.48309e-06,2.61485e-06,4.57861e-06,7.98601e-06,1.38984e-05,2.41571e-05,4.19575e-05,7.28438e-05,0.000126436,0.000219426,inf	39.3932,39.3932,39.3931,39.3931,39.3933,39.3931,268.788,2602.83,6884.79,14745.3,30862.7,502854,637094,164583,164583,164583
6.49759e-06	-248076.40	0,4.14705e-08,1.13428e-07,2.38284e-07,4.54928e-07,8.30836e-07,1.48309e-06,2.61485e-06,4.57861e-06,7.98601e-06,1.38984e-05,2.41571e-05,4.19575e-05,7.28438e-05,0.000126436,0.000219426,inf	39.3932,39.3932,39.3931,39.3931,39.3931,39.3931,68.8544,1899.39,5687.75,11845.8,24833.7,7.44715e+06,1.84213e+07,160247,160247,160247
