time_index	left_time_boundary	right_time_boundary	lambda
0	0	1.50378e-06	1.1096
1	1.50378e-06	4.11305e-06	1.1096
2	4.11305e-06	8.64052e-06	6.17758
3	8.64052e-06	1.64963e-05	640.722
4	1.64963e-05	3.01273e-05	246.936
5	3.01273e-05	5.37789e-05	180.94
6	5.37789e-05	9.48179e-05	204.192
7	9.48179e-05	0.000166027	189.416
8	0.000166027	0.000289584	205.296
9	0.000289584	0.000503973	317.515
10	0.000503973	0.00087597	1164
11	0.00087597	0.00152144	3141.96
12	0.00152144	0.00264142	3328.98
13	0.00264142	0.00458474	135346
14	0.00458474	0.00795669	135346
15	0.00795669	inf	135346
