0.000228976	-135209.39	0,1.57581e-05,3.41911e-05,5.57532e-05,8.09754e-05,0.000110479,0.000144991,0.000185361,0.000232584,0.000287824,0.00035244,0.000428025,0.00051644,0.000619864,0.000740844,0.00088236,0.0010479,0.00124154,0.00146805,0.00173301,0.00204294,0.00240549,0.00282958,0.00332566,0.00390594,0.00458474,0.00537875,0.00630755,0.00739402,0.00866491,0.0101515,0.0118905,inf	178.523,178.523,259.458,292.252,330.669,375.391,423.631,485.951,565.203,664.187,786.316,938.479,1122.38,1320.76,1493.52,1602.17,1639.61,1622.95,1573.7,1512.64,1456.07,1406.82,1362.79,1325.01,1295.09,1272.54,1254.6,1235.16,1235.16,1213.04,1213.04,1213.04
0.000232144	-134939.50	0,1.57581e-05,3.41911e-05,5.57532e-05,8.09754e-05,0.000110479,0.000144991,0.000185361,0.000232584,0.000287824,0.00035244,0.000428025,0.00051644,0.000619864,0.000740844,0.00088236,0.0010479,0.00124154,0.00146805,0.00173301,0.00204294,0.00240549,0.00282958,0.00332566,0.00390594,0.00458474,0.00537875,0.00630755,0.00739402,0.00866491,0.0101515,0.0118905,inf	84.3219,84.3219,156.728,171.165,190.08,216.71,247.051,299.668,376.304,481.323,621.867,812.929,1068.7,1381.19,1700.55,1948.23,2078.14,2096.37,2027.38,1915.71,1811.07,1721.14,1638.84,1568.54,1515.43,1478.22,1449.25,1414.24,1414.24,1370.4,1370.4,1370.4
0.000235722	-134846.73	0,1.57581e-05,3.41911e-05,5.57532e-05,8.09754e-05,0.000110479,0.000144991,0.000185361,0.000232584,0.000287824,0.00035244,0.000428025,0.00051644,0.000619864,0.000740844,0.00088236,0.0010479,0.00124154,0.00146805,0.00173301,0.00204294,0.00240549,0.00282958,0.00332566,0.00390594,0.00458474,0.00537875,0.00630755,0.00739402,0.00866491,0.0101515,0.0118905,inf	65.7677,65.7677,149.743,151.573,156.897,168.759,181.654,221.593,287.568,384.37,521.469,719.624,1003.37,1377.19,1797.7,2166.7,2401.15,2483.12,2415.22,2259.79,2117.57,1999.99,1889.78,1796.71,1731.37,1691.45,1662.03,1617.93,1617.93,1555.31,1555.31,1555.31
0.000238838	-134807.16	0,1.57581e-05,3.41911e-05,5.57532e-05,8.09754e-05,0.000110479,0.000144991,0.000185361,0.000232584,0.000287824,0.00035244,0.000428025,0.00051644,0.000619864,0.000740844,0.00088236,0.0010479,0.00124154,0.00146805,0.00173301,0.00204294,0.00240549,0.00282958,0.00332566,0.00390594,0.00458474,0.00537875,0.00630755,0.00739402,0.00866491,0.0101515,0.0118905,inf	60.7826,60.7826,168.773,159.296,154.538,154.983,153.883,184.45,241.208,328.553,457.129,651.931,945.548,1353.12,1842.02,2308.09,2641.41,2798.52,2740.19,2539.9,2368.08,2236.04,2109.64,2005.58,1941.17,1913.32,1897.69,1854.22,1854.22,1779.63,1779.63,1779.63
0.000241433	-134787.54	0,1.57581e-05,3.41911e-05,5.57532e-05,8.09754e-05,0.000110479,0.000144991,0.000185361,0.000232584,0.000287824,0.00035244,0.000428025,0.00051644,0.000619864,0.000740844,0.00088236,0.0010479,0.00124154,0.00146805,0.00173301,0.00204294,0.00240549,0.00282958,0.00332566,0.00390594,0.00458474,0.00537875,0.00630755,0.00739402,0.00866491,0.0101515,0.0118905,inf	57.0286,57.0286,194.919,175.32,163.137,154.1,141.389,165.529,215.423,294.615,414.09,602.06,897.514,1324.17,1860.27,2402.85,2824.62,3059.45,3010.76,2758.98,2563.31,2428.68,2297.6,2194.79,2145.49,2147.03,2164.6,2136.87,2136.87,2064.98,2064.98,2064.98
0.00024359	-134776.69	0,1.57581e-05,3.41911e-05,5.57532e-05,8.09754e-05,0.000110479,0.000144991,0.000185361,0.000232584,0.000287824,0.00035244,0.000428025,0.00051644,0.000619864,0.000740844,0.00088236,0.0010479,0.00124154,0.00146805,0.00173301,0.00204294,0.00240549,0.00282958,0.00332566,0.00390594,0.00458474,0.00537875,0.00630755,0.00739402,0.00866491,0.0101515,0.0118905,inf	51.5889,51.5889,219.566,192.34,175.632,158.662,136.004,155.806,200.745,273.329,384.32,564.506,858.079,1295.63,1865.15,2468.42,2968.08,3279.27,3235.57,2923.33,2708.4,2581.2,2455.68,2365.74,2345.95,2397.37,2475.02,2489.59,2489.59,2460.93,2460.93,2460.93
0.000245401	-134770.20	0,1.57581e-05,3.41911e-05,5.57532e-05,8.09754e-05,0.000110479,0.000144991,0.000185361,0.000232584,0.000287824,0.00035244,0.000428025,0.00051644,0.000619864,0.000740844,0.00088236,0.0010479,0.00124154,0.00146805,0.00173301,0.00204294,0.00240549,0.00282958,0.00332566,0.00390594,0.00458474,0.00537875,0.00630755,0.00739402,0.00866491,0.0101515,0.0118905,inf	44.6173,44.6173,238.68,207.114,188.908,165.531,134.241,151.174,192.571,259.849,363.205,535.608,825.576,1269.22,1862.98,2514.94,3083.12,3467.7,3422,3040.41,2810.53,2698.73,2587.13,2520.25,2544.32,2670.5,2850.72,2957.39,2957.39,3108.25,3108.25,3108.25
0.000246942	-134766.07	0,1.57581e-05,3.41911e-05,5.57532e-05,8.09754e-05,0.000110479,0.000144991,0.000185361,0.000232584,0.000287824,0.00035244,0.000428025,0.00051644,0.000619864,0.000740844,0.00088236,0.0010479,0.00124154,0.00146805,0.00173301,0.00204294,0.00240549,0.00282958,0.00332566,0.00390594,0.00458474,0.00537875,0.00630755,0.00739402,0.00866491,0.0101515,0.0118905,inf	37.1302,37.1302,251.201,218.474,201.506,173.215,134.406,149.548,188.449,251.443,347.96,512.933,798.542,1245.37,1857.08,2548.59,3177.3,3631.8,3576.19,3117.87,2877.35,2786.87,2695.44,2660.02,2742.01,2974.05,3328.88,3646.16,3646.16,4411.14,4411.14,4411.14
0.000248271	-134763.31	0,1.57581e-05,3.41911e-05,5.57532e-05,8.09754e-05,0.000110479,0.000144991,0.000185361,0.000232584,0.000287824,0.00035244,0.000428025,0.00051644,0.000619864,0.000740844,0.00088236,0.0010479,0.00124154,0.00146805,0.00173301,0.00204294,0.00240549,0.00282958,0.00332566,0.00390594,0.00458474,0.00537875,0.00630755,0.00739402,0.00866491,0.0101515,0.0118905,inf	30.0236,30.0236,257.752,226.339,212.779,180.946,135.592,149.769,186.967,246.47,336.824,494.828,775.819,1224.03,1849.26,2573.27,3255.76,3776.73,3703.22,3162.96,2916.13,2850.99,2783.92,2786.35,2939.96,3319.74,3988.6,4908.75,4908.75,10648.3,10648.3,10648.3
0.000249432	-134761.40	0,1.57581e-05,3.41911e-05,5.57532e-05,8.09754e-05,0.000110479,0.000144991,0.000185361,0.000232584,0.000287824,0.00035244,0.000428025,0.00051644,0.000619864,0.000740844,0.00088236,0.0010479,0.00124154,0.00146805,0.00173301,0.00204294,0.00240549,0.00282958,0.00332566,0.00390594,0.00458474,0.00537875,0.00630755,0.00739402,0.00866491,0.0101515,0.0118905,inf	23.8024,23.8024,259.631,231.134,222.507,188.304,137.27,151.143,187.256,243.896,328.637,480.146,756.516,1204.97,1840.53,2591.53,3322.14,3906.32,3807.36,3182.22,2933.31,2895.84,2855.44,2900.14,3138.59,3723.27,5042.24,9145.66,9145.66,28945,28945,28945
0.000250459	-134760.03	0,1.57581e-05,3.41911e-05,5.57532e-05,8.09754e-05,0.000110479,0.000144991,0.000185361,0.000232584,0.000287824,0.00035244,0.000428025,0.00051644,0.000619864,0.000740844,0.00088236,0.0010479,0.00124154,0.00146805,0.00173301,0.00204294,0.00240549,0.00282958,0.00332566,0.00390594,0.00458474,0.00537875,0.00630755,0.00739402,0.00866491,0.0101515,0.0118905,inf	18.6401,18.6401,258.229,233.471,230.689,195.079,139.12,153.21,188.759,243.032,322.614,468.073,739.947,1187.92,1831.47,2605.09,3379.05,4023.51,3892.17,3181.37,2934.28,2925.48,2912.54,3002.05,3337.63,4210.86,7415.18,91324.5,91324.5,15601.5,15601.5,15601.5
0.000251377	-134759.01	0,1.57581e-05,3.41911e-05,5.57532e-05,8.09754e-05,0.000110479,0.000144991,0.000185361,0.000232584,0.000287824,0.00035244,0.000428025,0.00051644,0.000619864,0.000740844,0.00088236,0.0010479,0.00124154,0.00146805,0.00173301,0.00204294,0.00240549,0.00282958,0.00332566,0.00390594,0.00458474,0.00537875,0.00630755,0.00739402,0.00866491,0.0101515,0.0118905,inf	14.4974,14.4974,254.743,233.938,237.428,201.148,140.934,155.681,191.094,243.412,318.202,458.019,725.591,1172.62,1822.41,2615.15,3428.42,4130.54,3960.65,3165.2,2923.42,2943.28,2957.36,3092.51,3536.71,4828.88,21635.2,285494,285494,613.421,613.421,613.421
0.000252207	-134758.23	0,1.57581e-05,3.41911e-05,5.57532e-05,8.09754e-05,0.000110479,0.000144991,0.000185361,0.000232584,0.000287824,0.00035244,0.000428025,0.00051644,0.000619864,0.000740844,0.00088236,0.0010479,0.00124154,0.00146805,0.00173301,0.00204294,0.00240549,0.00282958,0.00332566,0.00390594,0.00458474,0.00537875,0.00630755,0.00739402,0.00866491,0.0101515,0.0118905,inf	11.2434,11.2434,250.111,233.076,242.888,206.466,142.585,158.347,194.005,244.707,315.008,449.549,713.037,1158.84,1813.54,2622.57,3471.68,4229.17,4015.36,3137.68,2904.21,2951.96,2991.73,3171.91,3734.64,5675.69,595057,11225.1,11225.1,8409.23,8409.23,8409.23
0.000252963	-134757.63	0,1.57581e-05,3.41911e-05,5.57532e-05,8.09754e-05,0.000110479,0.000144991,0.000185361,0.000232584,0.000287824,0.00035244,0.000428025,0.00051644,0.000619864,0.000740844,0.00088236,0.0010479,0.00124154,0.00146805,0.00173301,0.00204294,0.00240549,0.00282958,0.00332566,0.00390594,0.00458474,0.00537875,0.00630755,0.00739402,0.00866491,0.0101515,0.0118905,inf	8.71885,8.71885,244.99,231.314,247.242,211.038,143.988,161.074,197.294,246.675,312.745,442.335,701.97,1146.38,1804.96,2627.94,3509.93,4320.8,4058.45,3102.01,2879.35,2953.7,3017.29,3240.72,3930.19,7065.07,756683,441.35,441.35,330.636,330.636,330.636
0.000252963	-134757.15	0,1.57581e-05,3.41911e-05,5.57532e-05,8.09754e-05,0.000110479,0.000144991,0.000185361,0.000232584,0.000287824,0.00035244,0.000428025,0.00051644,0.000619864,0.000740844,0.00088236,0.0010479,0.00124154,0.00146805,0.00173301,0.00204294,0.00240549,0.00282958,0.00332566,0.00390594,0.00458474,0.00537875,0.00630755,0.00739402,0.00866491,0.0101515,0.0118905,inf	6.77239,6.77239,239.706,228.848,250.519,214.762,145.011,163.663,200.717,249.005,311.026,435.889,691.736,1134.34,1795.49,2630.04,3542.39,4405.11,4090.66,3059.97,2850.15,2949.52,3034.81,3298.78,4120.35,10642.9,762514,59.7303,59.7303,897.696,897.696,897.696
