time_index	left_time_boundary	right_time_boundary	lambda
0	0	2.67013e-06	555.162
1	2.67013e-06	6.13561e-06	555.162
2	6.13561e-06	1.06333e-05	173.403
3	1.06333e-05	1.64708e-05	259.576
4	1.64708e-05	2.4047e-05	446.88
5	2.4047e-05	3.38799e-05	511.04
6	3.38799e-05	4.66417e-05	401.238
7	4.66417e-05	6.32047e-05	320.13
8	6.32047e-05	8.47014e-05	323.935
9	8.47014e-05	0.000112601	353.853
10	0.000112601	0.000148811	360.62
11	0.000148811	0.000195807	351.013
12	0.000195807	0.000256802	347.632
13	0.000256802	0.000335964	350.588
14	0.000335964	0.000438707	354.497
15	0.000438707	0.000572053	360.054
16	0.000572053	0.000745118	368.086
17	0.000745118	0.000969733	377.993
18	0.000969733	0.00126125	389.358
19	0.00126125	0.00163961	401.503
20	0.00163961	0.00213066	412.933
21	0.00213066	0.00276798	423.471
22	0.00276798	0.00359514	432.491
23	0.00359514	0.00466868	435.462
24	0.00466868	0.00606198	427.878
25	0.00606198	0.00787031	409.396
26	0.00787031	0.0102173	382.674
27	0.0102173	0.0132633	336.97
28	0.0132633	0.0172167	336.97
29	0.0172167	0.0223476	294.964
30	0.0223476	0.0290069	294.964
31	0.0290069	inf	294.964
