time_index	left_time_boundary	right_time_boundary	lambda
0	0	2.21794e-05	354.736
1	2.21794e-05	5.61123e-05	354.736
2	5.61123e-05	0.000108027	401.013
3	0.000108027	0.000187453	357.89
4	0.000187453	0.000308968	336.317
5	0.000308968	0.000494878	361.796
6	0.000494878	0.000779306	381.842
7	0.000779306	0.00121446	392.321
8	0.00121446	0.00188021	405.377
9	0.00188021	0.00289876	422.222
10	0.00289876	0.00445707	433.529
11	0.00445707	0.00684117	388.305
12	0.00684117	0.0104887	344.736
13	0.0104887	0.016069	382.127
14	0.016069	0.0246066	382.127
15	0.0246066	inf	382.127
