0.000713064	-1831161.40	0,1.05592e-05,2.38064e-05,4.04257e-05,6.12756e-05,8.7433e-05,0.000120249,0.000161419,0.000213068,0.000277866,0.000359158,0.000461144,0.000589091,0.000749608,0.000950987,0.00120363,0.00152058,0.00191822,0.00241707,0.00304292,0.00382808,0.0048131,0.00604888,0.00759923,0.00954423,0.0119844,0.0150456,0.0188862,0.0237044,0.0297491,inf	410.967,410.967,410.967,410.967,410.967,410.967,410.967,410.967,410.967,410.967,410.967,410.967,410.967,410.967,410.967,410.967,410.967,410.967,410.967,410.967,410.967,410.967,410.967,410.967,410.967,410.967,410.967,410.967,410.967,410.967
0.000798423	-1830388.55	0,1.05592e-05,2.38064e-05,4.04257e-05,6.12756e-05,8.7433e-05,0.000120249,0.000161419,0.000213068,0.000277866,0.000359158,0.000461144,0.000589091,0.000749608,0.000950987,0.00120363,0.00152058,0.00191822,0.00241707,0.00304292,0.00382808,0.0048131,0.00604888,0.00759923,0.00954423,0.0119844,0.0150456,0.0188862,0.0237044,0.0297491,inf	414.668,414.668,414.668,414.668,414.668,414.668,414.668,414.668,414.668,414.668,414.668,414.668,414.668,414.668,414.668,414.668,414.668,414.668,414.668,414.668,414.668,414.668,414.668,414.668,414.668,414.668,414.668,414.668,414.668,414.668
0.000878983	-1829783.72	0,1.05592e-05,2.38064e-05,4.04257e-05,6.12756e-05,8.7433e-05,0.000120249,0.000161419,0.000213068,0.000277866,0.000359158,0.000461144,0.000589091,0.000749608,0.000950987,0.00120363,0.00152058,0.00191822,0.00241707,0.00304292,0.00382808,0.0048131,0.00604888,0.00759923,0.00954423,0.0119844,0.0150456,0.0188862,0.0237044,0.0297491,inf	415.967,415.967,415.967,415.967,415.967,415.967,415.967,415.967,415.967,415.967,415.967,415.967,415.967,415.967,415.967,415.967,415.967,415.967,415.967,415.967,415.967,415.967,415.967,415.967,415.967,415.967,415.967,415.967,415.967,415.967
0.000955266	-1829295.81	0,1.05592e-05,2.38064e-05,4.04257e-05,6.12756e-05,8.7433e-05,0.000120249,0.000161419,0.000213068,0.000277866,0.000359158,0.000461144,0.000589091,0.000749608,0.000950987,0.00120363,0.00152058,0.00191822,0.00241707,0.00304292,0.00382808,0.0048131,0.00604888,0.00759923,0.00954423,0.0119844,0.0150456,0.0188862,0.0237044,0.0297491,inf	416.187,416.187,416.187,416.187,416.187,416.187,416.187,416.187,416.187,416.187,416.187,416.187,416.187,416.187,416.187,416.187,416.187,416.187,416.187,416.187,416.187,416.187,416.187,416.187,416.187,416.187,416.187,416.187,416.187,416.187
0.00102766	-1828894.91	0,1.05592e-05,2.38064e-05,4.04257e-05,6.12756e-05,8.7433e-05,0.000120249,0.000161419,0.000213068,0.000277866,0.000359158,0.000461144,0.000589091,0.000749608,0.000950987,0.00120363,0.00152058,0.00191822,0.00241707,0.00304292,0.00382808,0.0048131,0.00604888,0.00759923,0.00954423,0.0119844,0.0150456,0.0188862,0.0237044,0.0297491,inf	415.916,415.916,415.916,415.916,415.916,415.916,415.916,415.916,415.916,415.916,415.916,415.916,415.916,415.916,415.916,415.916,415.916,415.916,415.916,415.916,415.916,415.916,415.916,415.916,415.916,415.916,415.916,415.916,415.916,415.916
0.00109648	-1828561.04	0,1.05592e-05,2.38064e-05,4.04257e-05,6.12756e-05,8.7433e-05,0.000120249,0.000161419,0.000213068,0.000277866,0.000359158,0.000461144,0.000589091,0.000749608,0.000950987,0.00120363,0.00152058,0.00191822,0.00241707,0.00304292,0.00382808,0.0048131,0.00604888,0.00759923,0.00954423,0.0119844,0.0150456,0.0188862,0.0237044,0.0297491,inf	415.421,415.421,415.421,415.421,415.421,415.421,415.421,415.421,415.421,415.421,415.421,415.421,415.421,415.421,415.421,415.421,415.421,415.421,415.421,415.421,415.421,415.421,415.421,415.421,415.421,415.421,415.421,415.421,415.421,415.421
0.00116197	-1828279.99	0,1.05592e-05,2.38064e-05,4.04257e-05,6.12756e-05,8.7433e-05,0.000120249,0.000161419,0.000213068,0.000277866,0.000359158,0.000461144,0.000589091,0.000749608,0.000950987,0.00120363,0.00152058,0.00191822,0.00241707,0.00304292,0.00382808,0.0048131,0.00604888,0.00759923,0.00954423,0.0119844,0.0150456,0.0188862,0.0237044,0.0297491,inf	414.829,414.829,414.829,414.829,414.829,414.829,414.829,414.829,414.829,414.829,414.829,414.829,414.829,414.829,414.829,414.829,414.829,414.829,414.829,414.829,414.829,414.829,414.829,414.829,414.829,414.829,414.829,414.829,414.829,414.829
0.00122437	-1828041.26	0,1.05592e-05,2.38064e-05,4.04257e-05,6.12756e-05,8.7433e-05,0.000120249,0.000161419,0.000213068,0.000277866,0.000359158,0.000461144,0.000589091,0.000749608,0.000950987,0.00120363,0.00152058,0.00191822,0.00241707,0.00304292,0.00382808,0.0048131,0.00604888,0.00759923,0.00954423,0.0119844,0.0150456,0.0188862,0.0237044,0.0297491,inf	414.201,414.201,414.201,414.201,414.201,414.201,414.201,414.201,414.201,414.201,414.201,414.201,414.201,414.201,414.201,414.201,414.201,414.201,414.201,414.201,414.201,414.201,414.201,414.201,414.201,414.201,414.201,414.201,414.201,414.201
0.00128388	-1827836.90	0,1.05592e-05,2.38064e-05,4.04257e-05,6.12756e-05,8.7433e-05,0.000120249,0.000161419,0.000213068,0.000277866,0.000359158,0.000461144,0.000589091,0.000749608,0.000950987,0.00120363,0.00152058,0.00191822,0.00241707,0.00304292,0.00382808,0.0048131,0.00604888,0.00759923,0.00954423,0.0119844,0.0150456,0.0188862,0.0237044,0.0297491,inf	413.568,413.568,413.568,413.568,413.568,413.568,413.568,413.568,413.568,413.568,413.568,413.568,413.568,413.568,413.568,413.568,413.568,413.568,413.568,413.568,413.568,413.568,413.568,413.568,413.568,413.568,413.568,413.568,413.568,413.568
0.00134068	-1827660.78	0,1.05592e-05,2.38064e-05,4.04257e-05,6.12756e-05,8.7433e-05,0.000120249,0.000161419,0.000213068,0.000277866,0.000359158,0.000461144,0.000589091,0.000749608,0.000950987,0.00120363,0.00152058,0.00191822,0.00241707,0.00304292,0.00382808,0.0048131,0.00604888,0.00759923,0.00954423,0.0119844,0.0150456,0.0188862,0.0237044,0.0297491,inf	412.947,412.947,412.947,412.947,412.947,412.947,412.947,412.947,412.947,412.947,412.947,412.947,412.947,412.947,412.947,412.947,412.947,412.947,412.947,412.947,412.947,412.947,412.947,412.947,412.947,412.947,412.947,412.947,412.947,412.947
0.00139494	-1827508.09	0,1.05592e-05,2.38064e-05,4.04257e-05,6.12756e-05,8.7433e-05,0.000120249,0.000161419,0.000213068,0.000277866,0.000359158,0.000461144,0.000589091,0.000749608,0.000950987,0.00120363,0.00152058,0.00191822,0.00241707,0.00304292,0.00382808,0.0048131,0.00604888,0.00759923,0.00954423,0.0119844,0.0150456,0.0188862,0.0237044,0.0297491,inf	412.344,412.344,412.344,412.344,412.344,412.344,412.344,412.344,412.344,412.344,412.344,412.344,412.344,412.344,412.344,412.344,412.344,412.344,412.344,412.344,412.344,412.344,412.344,412.344,412.344,412.344,412.344,412.344,412.344,412.344
0.0014468	-1827375.02	0,1.05592e-05,2.38064e-05,4.04257e-05,6.12756e-05,8.7433e-05,0.000120249,0.000161419,0.000213068,0.000277866,0.000359158,0.000461144,0.000589091,0.000749608,0.000950987,0.00120363,0.00152058,0.00191822,0.00241707,0.00304292,0.00382808,0.0048131,0.00604888,0.00759923,0.00954423,0.0119844,0.0150456,0.0188862,0.0237044,0.0297491,inf	411.763,411.763,411.763,411.763,411.763,411.763,411.763,411.763,411.763,411.763,411.763,411.763,411.763,411.763,411.763,411.763,411.763,411.763,411.763,411.763,411.763,411.763,411.763,411.763,411.763,411.763,411.763,411.763,411.763,411.763
0.00149642	-1827258.49	0,1.05592e-05,2.38064e-05,4.04257e-05,6.12756e-05,8.7433e-05,0.000120249,0.000161419,0.000213068,0.000277866,0.000359158,0.000461144,0.000589091,0.000749608,0.000950987,0.00120363,0.00152058,0.00191822,0.00241707,0.00304292,0.00382808,0.0048131,0.00604888,0.00759923,0.00954423,0.0119844,0.0150456,0.0188862,0.0237044,0.0297491,inf	411.206,411.206,411.206,411.206,411.206,411.206,411.206,411.206,411.206,411.206,411.206,411.206,411.206,411.206,411.206,411.206,411.206,411.206,411.206,411.206,411.206,411.206,411.206,411.206,411.206,411.206,411.206,411.206,411.206,411.206
0.00154391	-1827156.02	0,1.05592e-05,2.38064e-05,4.04257e-05,6.12756e-05,8.7433e-05,0.000120249,0.000161419,0.000213068,0.000277866,0.000359158,0.000461144,0.000589091,0.000749608,0.000950987,0.00120363,0.00152058,0.00191822,0.00241707,0.00304292,0.00382808,0.0048131,0.00604888,0.00759923,0.00954423,0.0119844,0.0150456,0.0188862,0.0237044,0.0297491,inf	410.674,410.674,410.674,410.674,410.674,410.674,410.674,410.674,410.674,410.674,410.674,410.674,410.674,410.674,410.674,410.674,410.674,410.674,410.674,410.674,410.674,410.674,410.674,410.674,410.674,410.674,410.674,410.674,410.674,410.674
0.00158941	-1827065.57	0,1.05592e-05,2.38064e-05,4.04257e-05,6.12756e-05,8.7433e-05,0.000120249,0.000161419,0.000213068,0.000277866,0.000359158,0.000461144,0.000589091,0.000749608,0.000950987,0.00120363,0.00152058,0.00191822,0.00241707,0.00304292,0.00382808,0.0048131,0.00604888,0.00759923,0.00954423,0.0119844,0.0150456,0.0188862,0.0237044,0.0297491,inf	410.165,410.165,410.165,410.165,410.165,410.165,410.165,410.165,410.165,410.165,410.165,410.165,410.165,410.165,410.165,410.165,410.165,410.165,410.165,410.165,410.165,410.165,410.165,410.165,410.165,410.165,410.165,410.165,410.165,410.165
0.00163302	-1826985.45	0,1.05592e-05,2.38064e-05,4.04257e-05,6.12756e-05,8.7433e-05,0.000120249,0.000161419,0.000213068,0.000277866,0.000359158,0.000461144,0.000589091,0.000749608,0.000950987,0.00120363,0.00152058,0.00191822,0.00241707,0.00304292,0.00382808,0.0048131,0.00604888,0.00759923,0.00954423,0.0119844,0.0150456,0.0188862,0.0237044,0.0297491,inf	409.68,409.68,409.68,409.68,409.68,409.68,409.68,409.68,409.68,409.68,409.68,409.68,409.68,409.68,409.68,409.68,409.68,409.68,409.68,409.68,409.68,409.68,409.68,409.68,409.68,409.68,409.68,409.68,409.68,409.68
0.00167485	-1826914.25	0,1.05592e-05,2.38064e-05,4.04257e-05,6.12756e-05,8.7433e-05,0.000120249,0.000161419,0.000213068,0.000277866,0.000359158,0.000461144,0.000589091,0.000749608,0.000950987,0.00120363,0.00152058,0.00191822,0.00241707,0.00304292,0.00382808,0.0048131,0.00604888,0.00759923,0.00954423,0.0119844,0.0150456,0.0188862,0.0237044,0.0297491,inf	409.218,409.218,409.218,409.218,409.218,409.218,409.218,409.218,409.218,409.218,409.218,409.218,409.218,409.218,409.218,409.218,409.218,409.218,409.218,409.218,409.218,409.218,409.218,409.218,409.218,409.218,409.218,409.218,409.218,409.218
0.00171498	-1826850.80	0,1.05592e-05,2.38064e-05,4.04257e-05,6.12756e-05,8.7433e-05,0.000120249,0.000161419,0.000213068,0.000277866,0.000359158,0.000461144,0.000589091,0.000749608,0.000950987,0.00120363,0.00152058,0.00191822,0.00241707,0.00304292,0.00382808,0.0048131,0.00604888,0.00759923,0.00954423,0.0119844,0.0150456,0.0188862,0.0237044,0.0297491,inf	408.777,408.777,408.777,408.777,408.777,408.777,408.777,408.777,408.777,408.777,408.777,408.777,408.777,408.777,408.777,408.777,408.777,408.777,408.777,408.777,408.777,408.777,408.777,408.777,408.777,408.777,408.777,408.777,408.777,408.777
0.00175352	-1826794.10	0,1.05592e-05,2.38064e-05,4.04257e-05,6.12756e-05,8.7433e-05,0.000120249,0.000161419,0.000213068,0.000277866,0.000359158,0.000461144,0.000589091,0.000749608,0.000950987,0.00120363,0.00152058,0.00191822,0.00241707,0.00304292,0.00382808,0.0048131,0.00604888,0.00759923,0.00954423,0.0119844,0.0150456,0.0188862,0.0237044,0.0297491,inf	408.356,408.356,408.356,408.356,408.356,408.356,408.356,408.356,408.356,408.356,408.356,408.356,408.356,408.356,408.356,408.356,408.356,408.356,408.356,408.356,408.356,408.356,408.356,408.356,408.356,408.356,408.356,408.356,408.356,408.356
0.00179053	-1826743.32	0,1.05592e-05,2.38064e-05,4.04257e-05,6.12756e-05,8.7433e-05,0.000120249,0.000161419,0.000213068,0.000277866,0.000359158,0.000461144,0.000589091,0.000749608,0.000950987,0.00120363,0.00152058,0.00191822,0.00241707,0.00304292,0.00382808,0.0048131,0.00604888,0.00759923,0.00954423,0.0119844,0.0150456,0.0188862,0.0237044,0.0297491,inf	407.954,407.954,407.954,407.954,407.954,407.954,407.954,407.954,407.954,407.954,407.954,407.954,407.954,407.954,407.954,407.954,407.954,407.954,407.954,407.954,407.954,407.954,407.954,407.954,407.954,407.954,407.954,407.954,407.954,407.954
