time_index	left_time_boundary	right_time_boundary	lambda
0	0	1.76741e-06	0.398904
1	1.76741e-06	4.09552e-06	0.398904
2	4.09552e-06	7.16222e-06	291.482
3	7.16222e-06	1.12018e-05	292.201
4	1.12018e-05	1.6523e-05	107.668
5	1.6523e-05	2.35323e-05	218.477
6	2.35323e-05	3.27653e-05	335.584
7	3.27653e-05	4.49275e-05	369.71
8	4.49275e-05	6.09481e-05	346.195
9	6.09481e-05	8.20511e-05	311.174
10	8.20511e-05	0.000109849	305.313
11	0.000109849	0.000146466	330.339
12	0.000146466	0.0001947	355.316
13	0.0001947	0.000258235	362.986
14	0.000258235	0.000341927	363.349
15	0.000341927	0.000452171	364.446
16	0.000452171	0.000597389	365.081
17	0.000597389	0.000788677	365.422
18	0.000788677	0.00104065	369.876
19	0.00104065	0.00137256	379.357
20	0.00137256	0.00180977	394.152
21	0.00180977	0.00238569	414.418
22	0.00238569	0.00314432	435.13
23	0.00314432	0.00414361	451.523
24	0.00414361	0.00545994	456.988
25	0.00545994	0.00719386	447.278
26	0.00719386	0.00947787	421.936
27	0.00947787	0.0124865	307.215
28	0.0124865	0.0164496	307.215
29	0.0164496	0.0216699	198.26
30	0.0216699	0.0285465	198.26
31	0.0285465	inf	198.26
