0.000741266	-14321475.74	0,1.81872e-06,4.21444e-06,7.37019e-06,1.15271e-05,1.70028e-05,2.42156e-05,3.37167e-05,4.6232e-05,6.27177e-05,8.44336e-05,0.000113039,0.000150719,0.000200353,0.000265733,0.000351856,0.0004653,0.000614735,0.000811577,0.00107087,0.00141242,0.00186232,0.00245496,0.00323561,0.00426393,0.00561847,0.00740274,0.00975307,0.012849,0.0169272,0.0222991,0.0293753,inf	398.689,398.689,790.022,859.179,670.379,408.094,221.694,142.358,115.532,115.841,131.719,152.642,173.513,193.508,213.672,236.166,262.974,295.149,333.006,375.019,415.957,445.746,455.17,447.555,433.378,420.034,412.115,414.61,414.61,458.664,458.664,458.664
0.000837317	-14309309.17	0,1.81872e-06,4.21444e-06,7.37019e-06,1.15271e-05,1.70028e-05,2.42156e-05,3.37167e-05,4.6232e-05,6.27177e-05,8.44336e-05,0.000113039,0.000150719,0.000200353,0.000265733,0.000351856,0.0004653,0.000614735,0.000811577,0.00107087,0.00141242,0.00186232,0.00245496,0.00323561,0.00426393,0.00561847,0.00740274,0.00975307,0.012849,0.0169272,0.0222991,0.0293753,inf	289.174,289.174,1128.09,1409.39,965.689,427.632,162.407,82.2298,58.251,58.8211,74.6708,96.888,119.537,141.064,162.874,188.584,221.532,263.262,314.072,371.917,430.088,474.771,490.962,481.113,459.961,438.987,426.981,434.963,434.963,543.387,543.387,543.387
0.000929067	-14302681.20	0,1.81872e-06,4.21444e-06,7.37019e-06,1.15271e-05,1.70028e-05,2.42156e-05,3.37167e-05,4.6232e-05,6.27177e-05,8.44336e-05,0.000113039,0.000150719,0.000200353,0.000265733,0.000351856,0.0004653,0.000614735,0.000811577,0.00107087,0.00141242,0.00186232,0.00245496,0.00323561,0.00426393,0.00561847,0.00740274,0.00975307,0.012849,0.0169272,0.0222991,0.0293753,inf	162.458,162.458,1230.64,1795.33,1137.4,403.625,124.002,55.6627,36.8016,38.6312,54.6592,77.7856,101.22,122.538,143.565,169.372,204.392,250.282,306.926,371.664,437.199,488.696,508.798,498.807,474.546,449.394,435.719,450.806,450.806,652.906,652.906,652.906
0.00101662	-14297978.00	0,1.81872e-06,4.21444e-06,7.37019e-06,1.15271e-05,1.70028e-05,2.42156e-05,3.37167e-05,4.6232e-05,6.27177e-05,8.44336e-05,0.000113039,0.000150719,0.000200353,0.000265733,0.000351856,0.0004653,0.000614735,0.000811577,0.00107087,0.00141242,0.00186232,0.00245496,0.00323561,0.00426393,0.00561847,0.00740274,0.00975307,0.012849,0.0169272,0.0222991,0.0293753,inf	82.2097,82.2097,1192.97,2031.14,1213.57,362.647,97.1027,40.8297,26.1524,29.1546,45.896,70.657,95.3061,116.335,136.178,161.442,197.436,245.627,305.232,372.9,441.062,495.004,516.949,507.458,482.004,454.647,440.733,463.686,463.686,814.093,814.093,814.093
0.00110052	-14294220.98	0,1.81872e-06,4.21444e-06,7.37019e-06,1.15271e-05,1.70028e-05,2.42156e-05,3.37167e-05,4.6232e-05,6.27177e-05,8.44336e-05,0.000113039,0.000150719,0.000200353,0.000265733,0.000351856,0.0004653,0.000614735,0.000811577,0.00107087,0.00141242,0.00186232,0.00245496,0.00323561,0.00426393,0.00561847,0.00740274,0.00975307,0.012849,0.0169272,0.0222991,0.0293753,inf	40.2437,40.2437,1103.64,2176.68,1233.11,318.572,77.4183,31.3126,19.8439,23.7873,41.5361,68.4896,94.7317,115.513,134.117,158.761,195.426,245.152,306.347,374.965,443.341,497.383,519.862,510.972,485.249,456.804,443.469,474.574,474.574,1122.82,1122.82,1122.82
0.00118124	-14291050.75	0,1.81872e-06,4.21444e-06,7.37019e-06,1.15271e-05,1.70028e-05,2.42156e-05,3.37167e-05,4.6232e-05,6.27177e-05,8.44336e-05,0.000113039,0.000150719,0.000200353,0.000265733,0.000351856,0.0004653,0.000614735,0.000811577,0.00107087,0.00141242,0.00186232,0.00245496,0.00323561,0.00426393,0.00561847,0.00740274,0.00975307,0.012849,0.0169272,0.0222991,0.0293753,inf	19.6427,19.6427,1005.38,2273.56,1219.86,276.6,62.4871,24.6357,15.6424,20.3058,39.1799,68.6603,96.6998,117.217,134.606,158.709,195.994,246.9,308.955,377.466,444.79,497.685,519.914,511.551,485.985,457.085,444.785,484.071,484.071,2332.66,2332.66,2332.66
0.00118124	-14288303.42	0,1.81872e-06,4.21444e-06,7.37019e-06,1.15271e-05,1.70028e-05,2.42156e-05,3.37167e-05,4.6232e-05,6.27177e-05,8.44336e-05,0.000113039,0.000150719,0.000200353,0.000265733,0.000351856,0.0004653,0.000614735,0.000811577,0.00107087,0.00141242,0.00186232,0.00245496,0.00323561,0.00426393,0.00561847,0.00740274,0.00975307,0.012849,0.0169272,0.0222991,0.0293753,inf	9.54668,9.54668,900.355,2306.95,1168.1,234.835,50.0898,19.3771,12.4289,17.5435,37.2501,68.9298,98.3578,118.225,134.178,157.473,194.742,245.668,306.893,373.252,437.509,487.948,510.012,503.262,479.488,451.698,441.518,489.376,489.376,57709.3,57709.3,57709.3
