LogLikelihood = -175383.80393850954715

y0 0.88184057780294866635
y0_prime 0
y1 1.0941739874107299091
y1_prime 0
y2 0.88440751153872121382
y2_prime 0
y3 1.8473487337191674129
y3_prime 0
rho 0.0014413419903901378023
rho.alpha 0.62527269889766168287
r_ii 0.99989007241669813908
theta 0.0025902577466967737461
