time_index	left_time_boundary	right_time_boundary	lambda
0	0	6.15584e-06	191.774
1	6.15584e-06	1.65251e-05	191.774
2	1.65251e-05	3.39916e-05	633.261
3	3.39916e-05	6.34132e-05	237.417
4	6.34132e-05	0.000112973	314.532
5	0.000112973	0.000196453	299.708
6	0.000196453	0.000337072	317.082
7	0.000337072	0.000573939	325.663
8	0.000573939	0.00097293	343.429
9	0.00097293	0.00164501	368.611
10	0.00164501	0.00277711	389.981
11	0.00277711	0.00468407	439.512
12	0.00468407	0.00789627	568.741
13	0.00789627	0.0133071	151.81
14	0.0133071	0.0224213	151.81
15	0.0224213	inf	151.81
