LogLikelihood = -37058.384906035287713

y0 0.027321038727410540403
y0_prime 0
y1 1.3306418925326783942
y1_prime 0
y2 1.0536092169368467264
y2_prime 0
y3 2.8828743969712311568
y3_prime 0
rho 4.5188370599185652486e-05
rho.alpha 0.10615247733653526696
r_ii 0.9995984496082075399
theta 7.0762990895742016589e-05
