0.000460339	-229046.08	0,7.0026e-05,0.000165844,0.000296952,0.00047635,0.000721823,0.00105771,0.0015173,0.00214617,0.00300667,0.00418409,0.00579518,0.00799966,0.0110161,0.0151435,0.0207911,inf	481.084,481.084,377.953,362.761,389.819,407.087,425.498,448.577,470.731,479.617,482.384,449.98,440.639,481.299,481.299,481.299
0.000460634	-228974.09	0,7.0026e-05,0.000165844,0.000296952,0.00047635,0.000721823,0.00105771,0.0015173,0.00214617,0.00300667,0.00418409,0.00579518,0.00799966,0.0110161,0.0151435,0.0207911,inf	534.946,534.946,349.713,316.509,358.515,378.767,400.156,429.184,457.394,465.24,467.102,410.661,394.246,467.298,467.298,467.298
0.000464309	-228964.90	0,7.0026e-05,0.000165844,0.000296952,0.00047635,0.000721823,0.00105771,0.0015173,0.00214617,0.00300667,0.00418409,0.00579518,0.00799966,0.0110161,0.0151435,0.0207911,inf	589.075,589.075,341.363,295.197,351.404,371.643,392.713,424.264,455.544,461.003,462.763,386.519,364.285,465.858,465.858,465.858
0.000468706	-228963.22	0,7.0026e-05,0.000165844,0.000296952,0.00047635,0.000721823,0.00105771,0.0015173,0.00214617,0.00300667,0.00418409,0.00579518,0.00799966,0.0110161,0.0151435,0.0207911,inf	627.2,627.2,336.16,281.19,351.485,370.474,390.076,423.109,456.869,460.265,463.491,370.118,342.85,470.924,470.924,470.924
0.00047304	-228962.93	0,7.0026e-05,0.000165844,0.000296952,0.00047635,0.000721823,0.00105771,0.0015173,0.00214617,0.00300667,0.00418409,0.00579518,0.00799966,0.0110161,0.0151435,0.0207911,inf	651.968,651.968,331.725,270.267,354.183,371.093,388.657,422.673,458.755,460.607,466.79,358.164,326.417,479.91,479.91,479.91
0.000477064	-228962.94	0,7.0026e-05,0.000165844,0.000296952,0.00047635,0.000721823,0.00105771,0.0015173,0.00214617,0.00300667,0.00418409,0.00579518,0.00799966,0.0110161,0.0151435,0.0207911,inf	668.105,668.105,327.983,261.118,358.026,372.249,387.473,422.145,460.406,461.094,471.456,348.972,313.169,491.557,491.557,491.557
0.000480713	-228962.99	0,7.0026e-05,0.000165844,0.000296952,0.00047635,0.000721823,0.00105771,0.0015173,0.00214617,0.00300667,0.00418409,0.00579518,0.00799966,0.0110161,0.0151435,0.0207911,inf	678.939,678.939,324.995,253.154,362.425,373.534,386.297,421.397,461.649,461.365,476.857,341.594,302.07,505.213,505.213,505.213
0.000483987	-228963.01	0,7.0026e-05,0.000165844,0.000296952,0.00047635,0.000721823,0.00105771,0.0015173,0.00214617,0.00300667,0.00418409,0.00579518,0.00799966,0.0110161,0.0151435,0.0207911,inf	686.458,686.458,322.722,246.03,367.085,374.806,385.113,420.483,462.511,461.297,482.642,335.455,292.49,520.544,520.544,520.544
0.000486902	-228963.00	0,7.0026e-05,0.000165844,0.000296952,0.00047635,0.000721823,0.00105771,0.0015173,0.00214617,0.00300667,0.00418409,0.00579518,0.00799966,0.0110161,0.0151435,0.0207911,inf	691.517,691.517,320.96,239.441,371.734,375.929,383.901,419.467,463.058,460.88,488.587,330.17,284.009,537.382,537.382,537.382
0.000489499	-228962.96	0,7.0026e-05,0.000165844,0.000296952,0.00047635,0.000721823,0.00105771,0.0015173,0.00214617,0.00300667,0.00418409,0.00579518,0.00799966,0.0110161,0.0151435,0.0207911,inf	695.419,695.419,319.848,233.372,376.436,377.007,382.775,418.473,463.402,460.12,494.6,325.529,276.371,555.721,555.721,555.721
0.000491806	-228962.90	0,7.0026e-05,0.000165844,0.000296952,0.00047635,0.000721823,0.00105771,0.0015173,0.00214617,0.00300667,0.00418409,0.00579518,0.00799966,0.0110161,0.0151435,0.0207911,inf	698.355,698.355,319.213,227.67,381.07,377.986,381.727,417.535,463.604,459.041,500.603,321.36,269.381,575.618,575.618,575.618
0.000493852	-228962.84	0,7.0026e-05,0.000165844,0.000296952,0.00047635,0.000721823,0.00105771,0.0015173,0.00214617,0.00300667,0.00418409,0.00579518,0.00799966,0.0110161,0.0151435,0.0207911,inf	700.565,700.565,318.969,222.252,385.579,378.85,380.757,416.681,463.718,457.672,506.551,317.548,262.902,597.205,597.205,597.205
0.000495662	-228962.77	0,7.0026e-05,0.000165844,0.000296952,0.00047635,0.000721823,0.00105771,0.0015173,0.00214617,0.00300667,0.00418409,0.00579518,0.00799966,0.0110161,0.0151435,0.0207911,inf	702.214,702.214,319.055,217.065,389.934,379.589,379.865,415.93,463.786,456.047,512.418,314.008,256.832,620.686,620.686,620.686
0.000497261	-228962.71	0,7.0026e-05,0.000165844,0.000296952,0.00047635,0.000721823,0.00105771,0.0015173,0.00214617,0.00300667,0.00418409,0.00579518,0.00799966,0.0110161,0.0151435,0.0207911,inf	703.442,703.442,319.428,212.078,394.124,380.204,379.046,415.291,463.842,454.194,518.19,310.677,251.094,646.345,646.345,646.345
0.000498671	-228962.65	0,7.0026e-05,0.000165844,0.000296952,0.00047635,0.000721823,0.00105771,0.0015173,0.00214617,0.00300667,0.00418409,0.00579518,0.00799966,0.0110161,0.0151435,0.0207911,inf	704.34,704.34,320.052,207.266,398.146,380.697,378.295,414.764,463.908,452.138,523.859,307.508,245.628,674.56,674.56,674.56
0.000499912	-228962.60	0,7.0026e-05,0.000165844,0.000296952,0.00047635,0.000721823,0.00105771,0.0015173,0.00214617,0.00300667,0.00418409,0.00579518,0.00799966,0.0110161,0.0151435,0.0207911,inf	704.983,704.983,320.895,202.613,402.003,381.072,377.604,414.35,464.003,449.903,529.422,304.464,240.389,705.836,705.836,705.836
0.000501002	-228962.57	0,7.0026e-05,0.000165844,0.000296952,0.00047635,0.000721823,0.00105771,0.0015173,0.00214617,0.00300667,0.00418409,0.00579518,0.00799966,0.0110161,0.0151435,0.0207911,inf	705.405,705.405,321.931,198.107,405.702,381.333,376.965,414.041,464.138,447.506,534.877,301.514,235.337,740.849,740.849,740.849
0.000501955	-228962.55	0,7.0026e-05,0.000165844,0.000296952,0.00047635,0.000721823,0.00105771,0.0015173,0.00214617,0.00300667,0.00418409,0.00579518,0.00799966,0.0110161,0.0151435,0.0207911,inf	705.624,705.624,323.137,193.738,409.252,381.486,376.373,413.832,464.324,444.966,540.225,298.634,230.442,780.523,780.523,780.523
0.000502785	-228962.55	0,7.0026e-05,0.000165844,0.000296952,0.00047635,0.000721823,0.00105771,0.0015173,0.00214617,0.00300667,0.00418409,0.00579518,0.00799966,0.0110161,0.0151435,0.0207911,inf	705.705,705.705,324.491,189.499,412.664,381.539,375.819,413.716,464.566,442.296,545.464,295.801,225.676,826.159,826.159,826.159
0.000503505	-228962.56	0,7.0026e-05,0.000165844,0.000296952,0.00047635,0.000721823,0.00105771,0.0015173,0.00214617,0.00300667,0.00418409,0.00579518,0.00799966,0.0110161,0.0151435,0.0207911,inf	705.654,705.654,325.978,185.383,415.948,381.497,375.297,413.683,464.871,439.509,550.594,292.993,221.015,879.658,879.658,879.658
