0.000680762	-4702869.33	0,1.06006e-05,2.7774e-05,5.55953e-05,0.000100667,0.000173684,0.000291974,0.000483608,0.000794061,0.001297,0.00211179,0.00343176,0.00557017,0.00903445,0.0146467,0.0237387,inf	78.9526,78.9526,169.098,239.298,253.628,268.096,285.497,307.405,334.663,374.604,408.99,399.602,382.695,387.601,387.601,387.601
0.000722681	-4702009.31	0,1.06006e-05,2.7774e-05,5.55953e-05,0.000100667,0.000173684,0.000291974,0.000483608,0.000794061,0.001297,0.00211179,0.00343176,0.00557017,0.00903445,0.0146467,0.0237387,inf	26.1194,26.1194,117.861,219.104,226.541,239.922,258.694,283.843,316.884,372.368,423.42,405.346,376.397,385.323,385.323,385.323
0.000763277	-4701582.57	0,1.06006e-05,2.7774e-05,5.55953e-05,0.000100667,0.000173684,0.000291974,0.000483608,0.000794061,0.001297,0.00211179,0.00343176,0.00557017,0.00903445,0.0146467,0.0237387,inf	10.5627,10.5627,97.2508,222.707,221.652,233.286,251.586,276.061,309.291,372.353,433.091,408.405,370.786,382.941,382.941,382.941
0.000802306	-4701273.70	0,1.06006e-05,2.7774e-05,5.55953e-05,0.000100667,0.000173684,0.000291974,0.000483608,0.000794061,0.001297,0.00211179,0.00343176,0.00557017,0.00903445,0.0146467,0.0237387,inf	4.7417,4.7417,85.8481,230.448,221.734,232.719,250.942,273.881,305.547,372.729,439.563,410.016,365.967,380.57,380.57,380.57
0.000839901	-4701024.54	0,1.06006e-05,2.7774e-05,5.55953e-05,0.000100667,0.000173684,0.000291974,0.000483608,0.000794061,0.001297,0.00211179,0.00343176,0.00557017,0.00903445,0.0146467,0.0237387,inf	2.28739,2.28739,78.4832,237.684,222.457,233.792,252.61,273.973,303.594,373.178,443.997,410.882,361.919,378.268,378.268,378.268
0.000876201	-4700813.77	0,1.06006e-05,2.7774e-05,5.55953e-05,0.000100667,0.000173684,0.000291974,0.000483608,0.000794061,0.001297,0.00211179,0.00343176,0.00557017,0.00903445,0.0146467,0.0237387,inf	1.1716,1.1716,73.4582,243.628,222.861,235.154,255.09,275.044,302.604,373.66,447.11,411.36,358.556,376.05,376.05,376.05
0.000911312	-4700630.81	0,1.06006e-05,2.7774e-05,5.55953e-05,0.000100667,0.000173684,0.000291974,0.000483608,0.000794061,0.001297,0.00211179,0.00343176,0.00557017,0.00903445,0.0146467,0.0237387,inf	0.627977,0.627977,69.995,248.46,222.91,236.422,257.801,276.529,302.185,374.174,449.334,411.627,355.768,373.915,373.915,373.915
0.000945314	-4700469.56	0,1.06006e-05,2.7774e-05,5.55953e-05,0.000100667,0.000173684,0.000291974,0.000483608,0.000794061,0.001297,0.00211179,0.00343176,0.00557017,0.00903445,0.0146467,0.0237387,inf	0.389939,0.389939,67.6282,252.489,222.755,237.522,260.511,278.162,302.124,374.722,450.937,411.771,353.456,371.854,371.854,371.854
0.000978266	-4700326.09	0,1.06006e-05,2.7774e-05,5.55953e-05,0.000100667,0.000173684,0.000291974,0.000483608,0.000794061,0.001297,0.00211179,0.00343176,0.00557017,0.00903445,0.0146467,0.0237387,inf	0.389939,0.389939,66.0568,255.962,222.549,238.476,263.131,279.814,302.297,375.299,452.087,411.834,351.533,369.86,369.86,369.86
0.00101022	-4700197.65	0,1.06006e-05,2.7774e-05,5.55953e-05,0.000100667,0.000173684,0.000291974,0.000483608,0.000794061,0.001297,0.00211179,0.00343176,0.00557017,0.00903445,0.0146467,0.0237387,inf	0.389939,0.389939,65.0529,259.033,222.399,239.322,265.63,281.415,302.626,375.9,452.901,411.839,349.93,367.926,367.926,367.926
0.00104122	-4700082.18	0,1.06006e-05,2.7774e-05,5.55953e-05,0.000100667,0.000173684,0.000291974,0.000483608,0.000794061,0.001297,0.00211179,0.00343176,0.00557017,0.00903445,0.0146467,0.0237387,inf	0.389939,0.389939,64.4763,261.795,222.369,240.096,268.004,282.935,303.061,376.521,453.457,411.799,348.588,366.048,366.048,366.048
0.0010713	-4699978.05	0,1.06006e-05,2.7774e-05,5.55953e-05,0.000100667,0.000173684,0.000291974,0.000483608,0.000794061,0.001297,0.00211179,0.00343176,0.00557017,0.00903445,0.0146467,0.0237387,inf	0.389939,0.389939,64.2215,264.299,222.498,240.823,270.258,284.357,303.565,377.156,453.813,411.722,347.462,364.223,364.223,364.223
0.00110051	-4699883.91	0,1.06006e-05,2.7774e-05,5.55953e-05,0.000100667,0.000173684,0.000291974,0.000483608,0.000794061,0.001297,0.00211179,0.00343176,0.00557017,0.00903445,0.0146467,0.0237387,inf	0.389939,0.389939,64.2213,266.571,222.792,241.521,272.401,285.676,304.117,377.8,454.011,411.613,346.517,362.449,362.449,362.449
0.00112886	-4699798.64	0,1.06006e-05,2.7774e-05,5.55953e-05,0.000100667,0.000173684,0.000291974,0.000483608,0.000794061,0.001297,0.00211179,0.00343176,0.00557017,0.00903445,0.0146467,0.0237387,inf	0.389939,0.389939,64.4247,268.627,223.255,242.202,274.443,286.892,304.698,378.451,454.085,411.475,345.722,360.725,360.725,360.725
0.00115641	-4699721.27	0,1.06006e-05,2.7774e-05,5.55953e-05,0.000100667,0.000173684,0.000291974,0.000483608,0.000794061,0.001297,0.00211179,0.00343176,0.00557017,0.00903445,0.0146467,0.0237387,inf	0.389939,0.389939,64.803,270.479,223.879,242.874,276.393,288.008,305.296,379.104,454.06,411.312,345.053,359.051,359.051,359.051
0.00118317	-4699650.98	0,1.06006e-05,2.7774e-05,5.55953e-05,0.000100667,0.000173684,0.000291974,0.000483608,0.000794061,0.001297,0.00211179,0.00343176,0.00557017,0.00903445,0.0146467,0.0237387,inf	0.389939,0.389939,65.3259,272.133,224.654,243.54,278.261,289.029,305.903,379.758,453.954,411.126,344.492,357.425,357.425,357.425
0.00120917	-4699587.02	0,1.06006e-05,2.7774e-05,5.55953e-05,0.000100667,0.000173684,0.000291974,0.000483608,0.000794061,0.001297,0.00211179,0.00343176,0.00557017,0.00903445,0.0146467,0.0237387,inf	0.389939,0.389939,65.9848,273.597,225.563,244.202,280.053,289.96,306.512,380.41,453.784,410.921,344.023,355.848,355.848,355.848
0.00123445	-4699528.78	0,1.06006e-05,2.7774e-05,5.55953e-05,0.000100667,0.000173684,0.000291974,0.000483608,0.000794061,0.001297,0.00211179,0.00343176,0.00557017,0.00903445,0.0146467,0.0237387,inf	0.389939,0.389939,66.7594,274.878,226.594,244.86,281.777,290.807,307.12,381.059,453.562,410.698,343.632,354.317,354.317,354.317
0.00125903	-4699475.67	0,1.06006e-05,2.7774e-05,5.55953e-05,0.000100667,0.000173684,0.000291974,0.000483608,0.000794061,0.001297,0.00211179,0.00343176,0.00557017,0.00903445,0.0146467,0.0237387,inf	0.389939,0.389939,67.6505,275.984,227.732,245.514,283.438,291.576,307.721,381.704,453.298,410.46,343.309,352.834,352.834,352.834
0.00128293	-4699427.22	0,1.06006e-05,2.7774e-05,5.55953e-05,0.000100667,0.000173684,0.000291974,0.000483608,0.000794061,0.001297,0.00211179,0.00343176,0.00557017,0.00903445,0.0146467,0.0237387,inf	0.389939,0.389939,68.6538,276.922,228.962,246.166,285.042,292.272,308.315,382.343,453,410.208,343.044,351.396,351.396,351.396
