0.000667912	-3108554.67	0,4.3107e-05,9.35314e-05,0.000152515,0.000221512,0.00030222,0.000396629,0.000507064,0.000636245,0.000787355,0.000964115,0.00117088,0.00141274,0.00169567,0.00202661,0.00241374,0.00286657,0.00339628,0.00401591,0.00474071,0.00558856,0.00658032,0.00774044,0.00909748,0.0106849,0.0125418,0.0147138,0.0172546,0.0202267,0.0237033,0.02777,0.0325271,inf	230.444,230.444,252.558,268.629,278.052,283.807,291.745,303.07,316.355,330.906,346.829,364.089,382.098,399.353,414.254,426.102,434.43,438.495,438.238,434.754,429.183,422.421,415.405,408.525,401.8,395.705,391.215,389.521,389.521,392.493,392.493,392.493
0.000701504	-3107755.82	0,4.3107e-05,9.35314e-05,0.000152515,0.000221512,0.00030222,0.000396629,0.000507064,0.000636245,0.000787355,0.000964115,0.00117088,0.00141274,0.00169567,0.00202661,0.00241374,0.00286657,0.00339628,0.00401591,0.00474071,0.00558856,0.00658032,0.00774044,0.00909748,0.0106849,0.0125418,0.0147138,0.0172546,0.0202267,0.0237033,0.02777,0.0325271,inf	201.382,201.382,222.384,242.204,250.834,253.166,259.514,271.897,287.717,305.872,326.714,350.39,376.191,401.84,424.809,444.036,458.65,466.901,467.949,463.148,454.16,442.47,429.908,417.277,404.733,393.4,385.296,382.823,382.823,389.308,389.308,389.308
0.00073331	-3107408.32	0,4.3107e-05,9.35314e-05,0.000152515,0.000221512,0.00030222,0.000396629,0.000507064,0.000636245,0.000787355,0.000964115,0.00117088,0.00141274,0.00169567,0.00202661,0.00241374,0.00286657,0.00339628,0.00401591,0.00474071,0.00558856,0.00658032,0.00774044,0.00909748,0.0106849,0.0125418,0.0147138,0.0172546,0.0202267,0.0237033,0.02777,0.0325271,inf	196.642,196.642,215.757,239.485,246.643,244.567,247.942,259.349,275.071,293.754,316.051,342.337,371.912,401.996,429.514,453.364,472.554,484.505,487.445,482.545,471.546,456.255,439.279,421.821,404.277,388.518,377.582,374.972,374.972,385.048,385.048,385.048
0.000763334	-3107195.76	0,4.3107e-05,9.35314e-05,0.000152515,0.000221512,0.00030222,0.000396629,0.000507064,0.000636245,0.000787355,0.000964115,0.00117088,0.00141274,0.00169567,0.00202661,0.00241374,0.00286657,0.00339628,0.00401591,0.00474071,0.00558856,0.00658032,0.00774044,0.00909748,0.0106849,0.0125418,0.0147138,0.0172546,0.0202267,0.0237033,0.02777,0.0325271,inf	196.308,196.308,214.346,243.121,249.49,243.502,244.124,254.314,269.258,287.456,309.889,337.17,368.632,401.11,431.178,457.88,480.314,495.304,500.212,495.821,483.677,465.701,445.151,423.597,401.751,382.28,369.158,366.829,366.829,380.317,380.317,380.317
0.000791854	-3107038.82	0,4.3107e-05,9.35314e-05,0.000152515,0.000221512,0.00030222,0.000396629,0.000507064,0.000636245,0.000787355,0.000964115,0.00117088,0.00141274,0.00169567,0.00202661,0.00241374,0.00286657,0.00339628,0.00401591,0.00474071,0.00558856,0.00658032,0.00774044,0.00909748,0.0106849,0.0125418,0.0147138,0.0172546,0.0202267,0.0237033,0.02777,0.0325271,inf	196.103,196.103,213.386,247.858,254.18,245.046,243.495,252.692,266.776,284.184,306.232,333.769,366.162,399.909,431.34,459.742,484.434,501.837,508.569,504.957,492.194,472.17,448.673,423.604,398.046,375.472,360.683,358.898,358.898,375.504,375.504,375.504
0.00081912	-3106910.59	0,4.3107e-05,9.35314e-05,0.000152515,0.000221512,0.00030222,0.000396629,0.000507064,0.000636245,0.000787355,0.000964115,0.00117088,0.00141274,0.00169567,0.00202661,0.00241374,0.00286657,0.00339628,0.00401591,0.00474071,0.00558856,0.00658032,0.00774044,0.00909748,0.0106849,0.0125418,0.0147138,0.0172546,0.0202267,0.0237033,0.02777,0.0325271,inf	195.49,195.49,211.841,252.107,258.898,247.324,244.19,252.711,266.045,282.622,304.093,331.543,364.362,398.732,430.8,460.149,486.383,505.668,514.009,511.27,498.211,476.592,450.627,422.511,393.74,368.573,352.528,351.444,351.444,370.829,370.829,370.829
0.000845322	-3106800.08	0,4.3107e-05,9.35314e-05,0.000152515,0.000221512,0.00030222,0.000396629,0.000507064,0.000636245,0.000787355,0.000964115,0.00117088,0.00141274,0.00169567,0.00202661,0.00241374,0.00286657,0.00339628,0.00401591,0.00474071,0.00558856,0.00658032,0.00774044,0.00909748,0.0106849,0.0125418,0.0147138,0.0172546,0.0202267,0.0237033,0.02777,0.0325271,inf	194.729,194.729,209.733,255.535,263.067,249.613,245.395,253.533,266.27,282.071,302.92,330.131,363.105,397.716,429.97,459.765,487.025,507.765,517.494,515.636,502.481,479.599,451.54,420.763,389.199,361.865,344.887,344.589,344.589,366.416,366.416,366.416
0.000870597	-3106702.08	0,4.3107e-05,9.35314e-05,0.000152515,0.000221512,0.00030222,0.000396629,0.000507064,0.000636245,0.000787355,0.000964115,0.00117088,0.00141274,0.00169567,0.00202661,0.00241374,0.00286657,0.00339628,0.00401591,0.00474071,0.00558856,0.00658032,0.00774044,0.00909748,0.0106849,0.0125418,0.0147138,0.0172546,0.0202267,0.0237033,0.02777,0.0325271,inf	194.057,194.057,207.304,258.222,266.576,251.653,246.74,254.733,267.02,282.134,302.377,329.293,362.275,396.9,429.054,458.959,486.874,508.734,519.647,518.639,505.518,481.623,451.768,418.651,384.651,355.504,337.844,338.375,338.375,362.323,362.323,362.323
0.000895045	-3106613.75	0,4.3107e-05,9.35314e-05,0.000152515,0.000221512,0.00030222,0.000396629,0.000507064,0.000636245,0.000787355,0.000964115,0.00117088,0.00141274,0.00169567,0.00202661,0.00241374,0.00286657,0.00339628,0.00401591,0.00474071,0.00558856,0.00658032,0.00774044,0.00909748,0.0106849,0.0125418,0.0147138,0.0172546,0.0202267,0.0237033,0.02777,0.0325271,inf	193.602,193.602,204.781,260.353,269.488,253.378,248.061,256.088,268.053,282.568,302.251,328.861,361.777,396.279,428.152,457.941,486.242,508.958,520.882,520.674,507.672,482.958,451.551,416.365,380.234,349.566,331.422,332.793,332.793,358.572,358.572,358.572
0.00091874	-3106533.38	0,4.3107e-05,9.35314e-05,0.000152515,0.000221512,0.00030222,0.000396629,0.000507064,0.000636245,0.000787355,0.000964115,0.00117088,0.00141274,0.00169567,0.00202661,0.00241374,0.00286657,0.00339628,0.00401591,0.00474071,0.00558856,0.00658032,0.00774044,0.00909748,0.0106849,0.0125418,0.0147138,0.0172546,0.0202267,0.0237033,0.02777,0.0325271,inf	193.369,193.369,202.319,262.105,271.905,254.798,249.291,257.482,269.224,283.225,302.398,328.72,361.534,395.831,427.308,456.829,485.319,508.688,521.474,522.013,509.187,483.81,451.054,414.028,376.024,344.079,325.607,327.812,327.812,355.166,355.166,355.166
0.000941739	-3106459.79	0,4.3107e-05,9.35314e-05,0.000152515,0.000221512,0.00030222,0.000396629,0.000507064,0.000636245,0.000787355,0.000964115,0.00117088,0.00141274,0.00169567,0.00202661,0.00241374,0.00286657,0.00339628,0.00401591,0.00474071,0.00558856,0.00658032,0.00774044,0.00909748,0.0106849,0.0125418,0.0147138,0.0172546,0.0202267,0.0237033,0.02777,0.0325271,inf	193.339,193.339,200.019,263.625,273.938,255.954,250.408,258.853,270.453,284.009,302.726,328.783,361.484,395.529,426.539,455.689,484.225,508.088,521.61,522.845,510.237,484.321,450.386,411.719,372.064,339.045,320.365,323.388,323.388,352.09,352.09,352.09
0.000964087	-3106392.14	0,4.3107e-05,9.35314e-05,0.000152515,0.000221512,0.00030222,0.000396629,0.000507064,0.000636245,0.000787355,0.000964115,0.00117088,0.00141274,0.00169567,0.00202661,0.00241374,0.00286657,0.00339628,0.00401591,0.00474071,0.00558856,0.00658032,0.00774044,0.00909748,0.0106849,0.0125418,0.0147138,0.0172546,0.0202267,0.0237033,0.02777,0.0325271,inf	193.455,193.455,197.928,265.011,275.676,256.891,251.411,260.17,271.686,284.859,303.168,328.992,361.581,395.348,425.848,454.558,483.036,507.265,521.422,523.304,510.941,484.591,449.622,409.486,368.369,334.446,315.654,319.472,319.472,349.32,349.32,349.32
0.000985822	-3106329.74	0,4.3107e-05,9.35314e-05,0.000152515,0.000221512,0.00030222,0.000396629,0.000507064,0.000636245,0.000787355,0.000964115,0.00117088,0.00141274,0.00169567,0.00202661,0.00241374,0.00286657,0.00339628,0.00401591,0.00474071,0.00558856,0.00658032,0.00774044,0.00909748,0.0106849,0.0125418,0.0147138,0.0172546,0.0202267,0.0237033,0.02777,0.0325271,inf	193.664,193.664,196.065,266.34,277.192,257.651,252.31,261.419,272.895,285.735,303.681,329.304,361.787,395.265,425.231,453.458,481.798,506.295,521,523.484,511.389,484.691,448.813,407.357,364.944,330.257,311.43,316.015,316.015,346.838,346.838,346.838
0.00100697	-3106272.05	0,4.3107e-05,9.35314e-05,0.000152515,0.000221512,0.00030222,0.000396629,0.000507064,0.000636245,0.000787355,0.000964115,0.00117088,0.00141274,0.00169567,0.00202661,0.00241374,0.00286657,0.00339628,0.00401591,0.00474071,0.00558856,0.00658032,0.00774044,0.00909748,0.0106849,0.0125418,0.0147138,0.0172546,0.0202267,0.0237033,0.02777,0.0325271,inf	193.94,193.94,194.433,267.654,278.541,258.269,253.116,262.597,274.063,286.61,304.234,329.686,362.076,395.262,424.683,452.397,480.543,505.229,520.409,523.457,511.643,484.672,447.992,405.346,361.779,326.45,307.646,312.971,312.971,344.617,344.617,344.617
0.00102757	-3106218.60	0,4.3107e-05,9.35314e-05,0.000152515,0.000221512,0.00030222,0.000396629,0.000507064,0.000636245,0.000787355,0.000964115,0.00117088,0.00141274,0.00169567,0.00202661,0.00241374,0.00286657,0.00339628,0.00401591,0.00474071,0.00558856,0.00658032,0.00774044,0.00909748,0.0106849,0.0125418,0.0147138,0.0172546,0.0202267,0.0237033,0.02777,0.0325271,inf	194.237,194.237,193.022,268.982,279.765,258.775,253.843,263.703,275.182,287.47,304.806,330.116,362.425,395.322,424.195,451.381,479.29,504.101,519.696,523.271,511.75,484.568,447.18,403.459,358.863,322.992,304.26,310.296,310.296,342.633,342.633,342.633
0.00104763	-3106168.99	0,4.3107e-05,9.35314e-05,0.000152515,0.000221512,0.00030222,0.000396629,0.000507064,0.000636245,0.000787355,0.000964115,0.00117088,0.00141274,0.00169567,0.00202661,0.00241374,0.00286657,0.00339628,0.00401591,0.00474071,0.00558856,0.00658032,0.00774044,0.00909748,0.0106849,0.0125418,0.0147138,0.0172546,0.0202267,0.0237033,0.02777,0.0325271,inf	194.54,194.54,191.822,270.34,280.892,259.192,254.503,264.741,276.249,288.305,305.384,330.577,362.82,395.433,423.762,450.411,478.052,502.938,518.895,522.965,511.744,484.405,446.391,401.696,356.179,319.852,301.231,307.952,307.952,340.864,340.864,340.864
0.00106718	-3106122.88	0,4.3107e-05,9.35314e-05,0.000152515,0.000221512,0.00030222,0.000396629,0.000507064,0.000636245,0.000787355,0.000964115,0.00117088,0.00141274,0.00169567,0.00202661,0.00241374,0.00286657,0.00339628,0.00401591,0.00474071,0.00558856,0.00658032,0.00774044,0.00909748,0.0106849,0.0125418,0.0147138,0.0172546,0.0202267,0.0237033,0.02777,0.0325271,inf	194.822,194.822,190.813,271.731,281.943,259.541,255.107,265.718,277.262,289.108,305.957,331.057,363.247,395.584,423.375,449.486,476.836,501.756,518.031,522.567,511.652,484.202,445.633,400.054,353.71,317.002,298.522,305.902,305.902,339.284,339.284,339.284
0.00108624	-3106079.94	0,4.3107e-05,9.35314e-05,0.000152515,0.000221512,0.00030222,0.000396629,0.000507064,0.000636245,0.000787355,0.000964115,0.00117088,0.00141274,0.00169567,0.00202661,0.00241374,0.00286657,0.00339628,0.00401591,0.00474071,0.00558856,0.00658032,0.00774044,0.00909748,0.0106849,0.0125418,0.0147138,0.0172546,0.0202267,0.0237033,0.02777,0.0325271,inf	195.081,195.081,189.979,273.159,282.934,259.834,255.662,266.636,278.222,289.876,306.519,331.547,363.698,395.768,423.031,448.605,475.649,500.568,517.123,522.098,511.492,483.97,444.91,398.526,351.441,314.415,296.101,304.114,304.114,337.878,337.878,337.878
0.00110482	-3106039.93	0,4.3107e-05,9.35314e-05,0.000152515,0.000221512,0.00030222,0.000396629,0.000507064,0.000636245,0.000787355,0.000964115,0.00117088,0.00141274,0.00169567,0.00202661,0.00241374,0.00286657,0.00339628,0.00401591,0.00474071,0.00558856,0.00658032,0.00774044,0.00909748,0.0106849,0.0125418,0.0147138,0.0172546,0.0202267,0.0237033,0.02777,0.0325271,inf	195.313,195.313,189.304,274.621,283.877,260.084,256.178,267.501,279.131,290.608,307.065,332.041,364.165,395.978,422.724,447.766,474.492,499.382,516.184,521.575,511.28,483.72,444.224,397.105,349.353,312.064,293.936,302.559,302.559,336.628,336.628,336.628
0.00112294	-3106002.58	0,4.3107e-05,9.35314e-05,0.000152515,0.000221512,0.00030222,0.000396629,0.000507064,0.000636245,0.000787355,0.000964115,0.00117088,0.00141274,0.00169567,0.00202661,0.00241374,0.00286657,0.00339628,0.00401591,0.00474071,0.00558856,0.00658032,0.00774044,0.00909748,0.0106849,0.0125418,0.0147138,0.0172546,0.0202267,0.0237033,0.02777,0.0325271,inf	195.514,195.514,188.77,276.112,284.777,260.301,256.66,268.318,279.993,291.304,307.593,332.535,364.642,396.208,422.448,446.966,473.366,498.206,515.227,521.011,511.026,483.457,443.575,395.785,347.431,309.926,292.001,301.213,301.213,335.515,335.515,335.515
