time_index	left_time_boundary	right_time_boundary	lambda
0	0	1.56463e-06	27192.3
1	1.56463e-06	3.62565e-06	27192.3
2	3.62565e-06	6.34051e-06	17943.4
3	6.34051e-06	9.91667e-06	1054.73
4	9.91667e-06	1.46273e-05	219.413
5	1.46273e-05	2.08325e-05	235.685
6	2.08325e-05	2.90062e-05	499.173
7	2.90062e-05	3.9773e-05	713.942
8	3.9773e-05	5.39556e-05	586.68
9	5.39556e-05	7.26375e-05	373.964
10	7.26375e-05	9.72463e-05	261.725
11	9.72463e-05	0.000129662	250.118
12	0.000129662	0.000172362	290.306
13	0.000172362	0.000228608	347.102
14	0.000228608	0.000302699	368.505
15	0.000302699	0.000400294	349.361
16	0.000400294	0.000528851	326.558
17	0.000528851	0.000698193	334.589
18	0.000698193	0.000921259	350.821
19	0.000921259	0.00121509	369.139
20	0.00121509	0.00160214	397.912
21	0.00160214	0.00211198	437.046
22	0.00211198	0.00278357	450.598
23	0.00278357	0.00366822	422.214
24	0.00366822	0.00483353	406.979
25	0.00483353	0.00636852	448.77
26	0.00636852	0.00839049	519.773
27	0.00839049	0.0110539	360.114
28	0.0110539	0.0145623	360.114
29	0.0145623	0.0191838	248.994
30	0.0191838	0.0252714	248.994
31	0.0252714	inf	248.994
