0.000710074	-13683802.86	0,1.74769e-06,4.04982e-06,7.08231e-06,1.10769e-05,1.63387e-05,2.32698e-05,3.23997e-05,4.44262e-05,6.0268e-05,8.11357e-05,0.000108624,0.000144832,0.000192527,0.000255354,0.000338112,0.000447126,0.000590724,0.000779877,0.00102904,0.00135725,0.00178958,0.00235907,0.00310923,0.00409738,0.00539902,0.0071136,0.00937212,0.0123472,0.016266,0.0214282,0.028228,inf	588.677,588.677,648.769,502.14,395.154,355.226,347.785,350.655,357.537,360.229,356.413,350.927,347.853,347.332,348.127,350.261,355.025,363.186,374.945,390.311,407.091,421.311,429.742,430.498,426.118,419.37,412.627,406.953,406.953,411.364,411.364,411.364
0.000794962	-13677269.22	0,1.74769e-06,4.04982e-06,7.08231e-06,1.10769e-05,1.63387e-05,2.32698e-05,3.23997e-05,4.44262e-05,6.0268e-05,8.11357e-05,0.000108624,0.000144832,0.000192527,0.000255354,0.000338112,0.000447126,0.000590724,0.000779877,0.00102904,0.00135725,0.00178958,0.00235907,0.00310923,0.00409738,0.00539902,0.0071136,0.00937212,0.0123472,0.016266,0.0214282,0.028228,inf	664.207,664.207,860.052,568.328,389.04,334.979,329.867,339.89,355.535,361.396,353.895,343.116,336.642,334.243,333.432,334.268,339.058,349,364.437,385.619,409.345,429.937,442.813,444.435,438.103,427.521,416.508,407.351,407.351,415.865,415.865,415.865
0.000874288	-13672565.88	0,1.74769e-06,4.04982e-06,7.08231e-06,1.10769e-05,1.63387e-05,2.32698e-05,3.23997e-05,4.44262e-05,6.0268e-05,8.11357e-05,0.000108624,0.000144832,0.000192527,0.000255354,0.000338112,0.000447126,0.000590724,0.000779877,0.00102904,0.00135725,0.00178958,0.00235907,0.00310923,0.00409738,0.00539902,0.0071136,0.00937212,0.0123472,0.016266,0.0214282,0.028228,inf	649.387,649.387,1004.38,591.562,369.559,313.861,314.709,333.617,359.227,369.2,359.125,344.544,336.045,332.612,330.465,329.745,333.657,343.658,360.194,383.73,410.426,433.834,448.977,451.227,444.018,431.175,417.391,406.109,406.109,417.903,417.903,417.903
0.00094859	-13668899.56	0,1.74769e-06,4.04982e-06,7.08231e-06,1.10769e-05,1.63387e-05,2.32698e-05,3.23997e-05,4.44262e-05,6.0268e-05,8.11357e-05,0.000108624,0.000144832,0.000192527,0.000255354,0.000338112,0.000447126,0.000590724,0.000779877,0.00102904,0.00135725,0.00178958,0.00235907,0.00310923,0.00409738,0.00539902,0.0071136,0.00937212,0.0123472,0.016266,0.0214282,0.028228,inf	598.95,598.95,1102.63,589.703,344.266,292.064,299.162,326.562,361.821,375.961,364.057,346.974,337.732,334.231,331.389,329.467,332.484,342.057,358.726,383.128,410.94,435.389,451.561,454.148,446.519,432.275,416.645,404.077,404.077,418.218,418.218,418.218
0.00101842	-13665936.98	0,1.74769e-06,4.04982e-06,7.08231e-06,1.10769e-05,1.63387e-05,2.32698e-05,3.23997e-05,4.44262e-05,6.0268e-05,8.11357e-05,0.000108624,0.000144832,0.000192527,0.000255354,0.000338112,0.000447126,0.000590724,0.000779877,0.00102904,0.00135725,0.00178958,0.00235907,0.00310923,0.00409738,0.00539902,0.0071136,0.00937212,0.0123472,0.016266,0.0214282,0.028228,inf	542.851,542.851,1177.55,577.177,319.262,272.106,284.528,319.227,363.066,380.79,367.328,348.608,339.515,336.651,333.654,330.926,333.217,342.252,358.667,383.23,411.224,435.784,452.267,454.954,447.088,431.931,415.04,401.709,401.709,417.325,417.325,417.325
0.00108424	-13663491.83	0,1.74769e-06,4.04982e-06,7.08231e-06,1.10769e-05,1.63387e-05,2.32698e-05,3.23997e-05,4.44262e-05,6.0268e-05,8.11357e-05,0.000108624,0.000144832,0.000192527,0.000255354,0.000338112,0.000447126,0.000590724,0.000779877,0.00102904,0.00135725,0.00178958,0.00235907,0.00310923,0.00409738,0.00539902,0.0071136,0.00937212,0.0123472,0.016266,0.0214282,0.028228,inf	491.437,491.437,1241.21,561.06,297.059,255.132,271.776,312.548,363.758,384.232,369.165,349.303,340.903,339.116,336.333,333.111,334.856,343.362,359.366,383.737,411.426,435.603,451.98,454.595,446.559,430.776,413.008,399.242,399.242,415.577,415.577,415.577
0.00114645	-13661443.90	0,1.74769e-06,4.04982e-06,7.08231e-06,1.10769e-05,1.63387e-05,2.32698e-05,3.23997e-05,4.44262e-05,6.0268e-05,8.11357e-05,0.000108624,0.000144832,0.000192527,0.000255354,0.000338112,0.000447126,0.000590724,0.000779877,0.00102904,0.00135725,0.00178958,0.00235907,0.00310923,0.00409738,0.00539902,0.0071136,0.00937212,0.0123472,0.016266,0.0214282,0.028228,inf	446.649,446.649,1297.84,544.008,278.076,241.19,261.179,307.044,364.54,386.887,370.022,349.293,341.886,341.415,339.073,335.576,336.916,344.935,360.475,384.475,411.603,435.139,451.172,453.599,445.413,429.18,410.793,396.802,396.802,413.217,413.217,413.217
0.00120536	-13659709.22	0,1.74769e-06,4.04982e-06,7.08231e-06,1.10769e-05,1.63387e-05,2.32698e-05,3.23997e-05,4.44262e-05,6.0268e-05,8.11357e-05,0.000108624,0.000144832,0.000192527,0.000255354,0.000338112,0.000447126,0.000590724,0.000779877,0.00102904,0.00135725,0.00178958,0.00235907,0.00310923,0.00409738,0.00539902,0.0071136,0.00937212,0.0123472,0.016266,0.0214282,0.028228,inf	408.164,408.164,1348.86,526.968,262.035,229.911,252.614,302.859,365.766,389.186,370.286,348.828,342.569,343.521,341.742,338.11,339.148,346.727,361.792,385.335,411.774,434.54,450.098,452.264,443.93,427.362,408.531,394.448,394.448,410.416,410.416,410.416
0.00126126	-13658226.38	0,1.74769e-06,4.04982e-06,7.08231e-06,1.10769e-05,1.63387e-05,2.32698e-05,3.23997e-05,4.44262e-05,6.0268e-05,8.11357e-05,0.000108624,0.000144832,0.000192527,0.000255354,0.000338112,0.000447126,0.000590724,0.000779877,0.00102904,0.00135725,0.00178958,0.00235907,0.00310923,0.00409738,0.00539902,0.0071136,0.00937212,0.0123472,0.016266,0.0214282,0.028228,inf	375.098,375.098,1394.38,510.096,248.456,220.831,245.812,299.946,367.569,391.374,370.217,348.107,343.061,345.46,344.295,340.613,341.418,348.597,363.201,386.247,411.94,433.886,448.902,450.763,442.275,425.45,406.302,392.21,392.21,407.292,407.292,407.292
0.00131438	-13656948.97	0,1.74769e-06,4.04982e-06,7.08231e-06,1.10769e-05,1.63387e-05,2.32698e-05,3.23997e-05,4.44262e-05,6.0268e-05,8.11357e-05,0.000108624,0.000144832,0.000192527,0.000255354,0.000338112,0.000447126,0.000590724,0.000779877,0.00102904,0.00135725,0.00178958,0.00235907,0.00310923,0.00409738,0.00539902,0.0071136,0.00937212,0.0123472,0.016266,0.0214282,0.028228,inf	346.792,346.792,1434.41,493.485,236.865,213.51,240.463,298.154,369.958,393.571,369.974,347.267,343.443,347.27,346.722,343.036,343.652,350.467,364.629,387.169,412.101,433.217,447.664,449.197,440.552,423.524,404.146,390.097,390.097,403.932,403.932,403.932
0.00136493	-13655841.14	0,1.74769e-06,4.04982e-06,7.08231e-06,1.10769e-05,1.63387e-05,2.32698e-05,3.23997e-05,4.44262e-05,6.0268e-05,8.11357e-05,0.000108624,0.000144832,0.000192527,0.000255354,0.000338112,0.000447126,0.000590724,0.000779877,0.00102904,0.00135725,0.00178958,0.00235907,0.00310923,0.00409738,0.00539902,0.0071136,0.00937212,0.0123472,0.016266,0.0214282,0.028228,inf	322.66,322.66,1469.18,477.141,226.864,207.592,236.301,297.32,372.878,395.82,369.65,346.39,343.783,348.985,349.032,345.358,345.813,352.29,366.034,388.075,412.253,432.556,446.43,447.624,438.819,421.627,402.086,388.111,388.111,400.397,400.397,400.397
0.0014131	-13654874.72	0,1.74769e-06,4.04982e-06,7.08231e-06,1.10769e-05,1.63387e-05,2.32698e-05,3.23997e-05,4.44262e-05,6.0268e-05,8.11357e-05,0.000108624,0.000144832,0.000192527,0.000255354,0.000338112,0.000447126,0.000590724,0.000779877,0.00102904,0.00135725,0.00178958,0.00235907,0.00310923,0.00409738,0.00539902,0.0071136,0.00937212,0.0123472,0.016266,0.0214282,0.028228,inf	302.113,302.113,1499.06,461.064,218.168,202.764,233.078,297.265,376.234,398.117,369.292,345.527,344.117,350.631,351.232,347.573,347.879,354.042,367.393,388.947,412.394,431.913,445.225,446.08,437.113,419.789,400.132,386.246,386.246,396.731,396.731,396.731
0.00145905	-13654027.25	0,1.74769e-06,4.04982e-06,7.08231e-06,1.10769e-05,1.63387e-05,2.32698e-05,3.23997e-05,4.44262e-05,6.0268e-05,8.11357e-05,0.000108624,0.000144832,0.000192527,0.000255354,0.000338112,0.000447126,0.000590724,0.000779877,0.00102904,0.00135725,0.00178958,0.00235907,0.00310923,0.00409738,0.00539902,0.0071136,0.00937212,0.0123472,0.016266,0.0214282,0.028228,inf	284.912,284.912,1524.43,445.348,210.52,198.812,230.603,297.851,379.945,400.448,368.931,344.711,344.473,352.231,353.337,349.68,349.842,355.709,368.691,389.778,412.522,431.294,444.062,444.583,435.456,418.024,398.286,384.496,384.496,392.967,392.967,392.967
0.00150292	-13653280.58	0,1.74769e-06,4.04982e-06,7.08231e-06,1.10769e-05,1.63387e-05,2.32698e-05,3.23997e-05,4.44262e-05,6.0268e-05,8.11357e-05,0.000108624,0.000144832,0.000192527,0.000255354,0.000338112,0.000447126,0.000590724,0.000779877,0.00102904,0.00135725,0.00178958,0.00235907,0.00310923,0.00409738,0.00539902,0.0071136,0.00937212,0.0123472,0.016266,0.0214282,0.028228,inf	270.524,270.524,1545.82,429.986,203.721,195.558,228.709,298.938,383.931,402.784,368.568,343.955,344.865,353.796,355.353,351.682,351.701,357.286,369.922,390.563,412.636,430.701,442.95,443.144,433.86,416.339,396.547,382.853,382.853,389.129,389.129,389.129
0.00154485	-13652619.93	0,1.74769e-06,4.04982e-06,7.08231e-06,1.10769e-05,1.63387e-05,2.32698e-05,3.23997e-05,4.44262e-05,6.0268e-05,8.11357e-05,0.000108624,0.000144832,0.000192527,0.000255354,0.000338112,0.000447126,0.000590724,0.000779877,0.00102904,0.00135725,0.00178958,0.00235907,0.00310923,0.00409738,0.00539902,0.0071136,0.00937212,0.0123472,0.016266,0.0214282,0.028228,inf	258.67,258.67,1563.94,415.068,197.671,192.871,227.291,300.428,388.101,405.099,368.211,343.268,345.302,355.34,357.292,353.585,353.456,358.773,371.084,391.301,412.737,430.136,441.889,441.769,432.331,414.737,394.911,381.309,381.309,385.235,385.235,385.235
0.00158496	-13652033.14	0,1.74769e-06,4.04982e-06,7.08231e-06,1.10769e-05,1.63387e-05,2.32698e-05,3.23997e-05,4.44262e-05,6.0268e-05,8.11357e-05,0.000108624,0.000144832,0.000192527,0.000255354,0.000338112,0.000447126,0.000590724,0.000779877,0.00102904,0.00135725,0.00178958,0.00235907,0.00310923,0.00409738,0.00539902,0.0071136,0.00937212,0.0123472,0.016266,0.0214282,0.028228,inf	248.972,248.972,1579.05,400.62,192.24,190.632,226.233,302.228,392.402,407.363,367.853,342.649,345.787,356.866,359.16,355.393,355.111,360.17,372.177,391.99,412.825,429.596,440.881,440.458,430.871,413.219,393.374,379.857,379.857,381.299,381.299,381.299
0.00162336	-13651510.12	0,1.74769e-06,4.04982e-06,7.08231e-06,1.10769e-05,1.63387e-05,2.32698e-05,3.23997e-05,4.44262e-05,6.0268e-05,8.11357e-05,0.000108624,0.000144832,0.000192527,0.000255354,0.000338112,0.000447126,0.000590724,0.000779877,0.00102904,0.00135725,0.00178958,0.00235907,0.00310923,0.00409738,0.00539902,0.0071136,0.00937212,0.0123472,0.016266,0.0214282,0.028228,inf	241.326,241.326,1591.74,386.684,187.345,188.776,225.472,304.273,396.769,409.557,367.495,342.099,346.323,358.38,360.964,357.112,356.671,361.482,373.203,392.635,412.9,429.083,439.924,439.211,429.481,411.782,391.93,378.489,378.489,377.33,377.33,377.33
0.00166016	-13651042.44	0,1.74769e-06,4.04982e-06,7.08231e-06,1.10769e-05,1.63387e-05,2.32698e-05,3.23997e-05,4.44262e-05,6.0268e-05,8.11357e-05,0.000108624,0.000144832,0.000192527,0.000255354,0.000338112,0.000447126,0.000590724,0.000779877,0.00102904,0.00135725,0.00178958,0.00235907,0.00310923,0.00409738,0.00539902,0.0071136,0.00937212,0.0123472,0.016266,0.0214282,0.028228,inf	235.438,235.438,1602.21,373.284,182.906,187.225,224.945,306.504,401.163,411.67,367.132,341.613,346.906,359.884,362.707,358.749,358.14,362.712,374.165,393.236,412.962,428.594,439.016,438.027,428.159,410.423,390.573,377.199,377.199,373.336,373.336,373.336
0.00169544	-13650623.00	0,1.74769e-06,4.04982e-06,7.08231e-06,1.10769e-05,1.63387e-05,2.32698e-05,3.23997e-05,4.44262e-05,6.0268e-05,8.11357e-05,0.000108624,0.000144832,0.000192527,0.000255354,0.000338112,0.000447126,0.000590724,0.000779877,0.00102904,0.00135725,0.00178958,0.00235907,0.00310923,0.00409738,0.00539902,0.0071136,0.00937212,0.0123472,0.016266,0.0214282,0.028228,inf	231.094,231.094,1610.81,360.409,178.881,185.934,224.604,308.87,405.548,413.681,366.763,341.188,347.535,361.38,364.395,360.306,359.525,363.865,375.066,393.795,413.014,428.127,438.155,436.901,426.902,409.14,389.298,375.981,375.981,369.323,369.323,369.323
0.00172929	-13650245.79	0,1.74769e-06,4.04982e-06,7.08231e-06,1.10769e-05,1.63387e-05,2.32698e-05,3.23997e-05,4.44262e-05,6.0268e-05,8.11357e-05,0.000108624,0.000144832,0.000192527,0.000255354,0.000338112,0.000447126,0.000590724,0.000779877,0.00102904,0.00135725,0.00178958,0.00235907,0.00310923,0.00409738,0.00539902,0.0071136,0.00937212,0.0123472,0.016266,0.0214282,0.028228,inf	228.104,228.104,1617.81,348.101,175.217,184.868,224.418,311.338,409.895,415.589,366.388,340.819,348.206,362.867,366.031,361.79,360.83,364.947,375.91,394.316,413.056,427.683,437.339,435.833,425.709,407.929,388.101,374.83,374.83,365.293,365.293,365.293
0.00176179	-13649905.70	0,1.74769e-06,4.04982e-06,7.08231e-06,1.10769e-05,1.63387e-05,2.32698e-05,3.23997e-05,4.44262e-05,6.0268e-05,8.11357e-05,0.000108624,0.000144832,0.000192527,0.000255354,0.000338112,0.000447126,0.000590724,0.000779877,0.00102904,0.00135725,0.00178958,0.00235907,0.00310923,0.00409738,0.00539902,0.0071136,0.00937212,0.0123472,0.016266,0.0214282,0.028228,inf	226.352,226.352,1623.47,336.319,171.889,183.998,224.349,313.887,414.186,417.389,365.999,340.503,348.916,364.345,367.618,363.206,362.06,365.962,376.701,394.801,413.088,427.259,436.563,434.818,424.576,406.785,386.974,373.741,373.741,361.251,361.251,361.251
0.00179301	-13649598.37	0,1.74769e-06,4.04982e-06,7.08231e-06,1.10769e-05,1.63387e-05,2.32698e-05,3.23997e-05,4.44262e-05,6.0268e-05,8.11357e-05,0.000108624,0.000144832,0.000192527,0.000255354,0.000338112,0.000447126,0.000590724,0.000779877,0.00102904,0.00135725,0.00178958,0.00235907,0.00310923,0.00409738,0.00539902,0.0071136,0.00937212,0.0123472,0.016266,0.0214282,0.028228,inf	225.728,225.728,1627.88,325.061,168.849,183.281,224.38,316.477,418.401,419.073,365.597,340.233,349.658,365.813,369.157,364.555,363.22,366.913,377.442,395.253,413.111,426.855,435.827,433.854,423.499,405.706,385.916,372.708,372.708,357.198,357.198,357.198
0.00182301	-13649320.03	0,1.74769e-06,4.04982e-06,7.08231e-06,1.10769e-05,1.63387e-05,2.32698e-05,3.23997e-05,4.44262e-05,6.0268e-05,8.11357e-05,0.000108624,0.000144832,0.000192527,0.000255354,0.000338112,0.000447126,0.000590724,0.000779877,0.00102904,0.00135725,0.00178958,0.00235907,0.00310923,0.00409738,0.00539902,0.0071136,0.00937212,0.0123472,0.016266,0.0214282,0.028228,inf	226.104,226.104,1631.14,314.311,166.075,182.706,224.489,319.099,422.53,420.639,365.182,340.007,350.433,367.271,370.651,365.843,364.314,367.806,378.137,395.674,413.128,426.468,435.127,432.936,422.477,404.686,384.92,371.73,371.73,353.136,353.136,353.136
0.00185187	-13649067.43	0,1.74769e-06,4.04982e-06,7.08231e-06,1.10769e-05,1.63387e-05,2.32698e-05,3.23997e-05,4.44262e-05,6.0268e-05,8.11357e-05,0.000108624,0.000144832,0.000192527,0.000255354,0.000338112,0.000447126,0.000590724,0.000779877,0.00102904,0.00135725,0.00178958,0.00235907,0.00310923,0.00409738,0.00539902,0.0071136,0.00937212,0.0123472,0.016266,0.0214282,0.028228,inf	227.374,227.374,1633.41,304.083,163.543,182.258,224.666,321.742,426.562,422.098,364.754,339.821,351.234,368.718,372.101,367.072,365.347,368.644,378.789,396.066,413.137,426.098,434.46,432.064,421.505,403.724,383.982,370.801,370.801,349.066,349.066,349.066
0.00187963	-13648837.75	0,1.74769e-06,4.04982e-06,7.08231e-06,1.10769e-05,1.63387e-05,2.32698e-05,3.23997e-05,4.44262e-05,6.0268e-05,8.11357e-05,0.000108624,0.000144832,0.000192527,0.000255354,0.000338112,0.000447126,0.000590724,0.000779877,0.00102904,0.00135725,0.00178958,0.00235907,0.00310923,0.00409738,0.00539902,0.0071136,0.00937212,0.0123472,0.016266,0.0214282,0.028228,inf	229.425,229.425,1634.86,294.319,161.24,181.924,224.896,324.39,430.495,423.444,364.313,339.67,352.06,370.153,373.509,368.247,366.323,369.432,379.401,396.432,413.14,425.744,433.826,431.233,420.582,402.816,383.101,369.919,369.919,344.988,344.988,344.988
0.00190636	-13648628.56	0,1.74769e-06,4.04982e-06,7.08231e-06,1.10769e-05,1.63387e-05,2.32698e-05,3.23997e-05,4.44262e-05,6.0268e-05,8.11357e-05,0.000108624,0.000144832,0.000192527,0.000255354,0.000338112,0.000447126,0.000590724,0.000779877,0.00102904,0.00135725,0.00178958,0.00235907,0.00310923,0.00409738,0.00539902,0.0071136,0.00937212,0.0123472,0.016266,0.0214282,0.028228,inf	232.194,232.194,1635.44,284.993,159.142,181.681,225.168,327.035,434.327,424.682,363.86,339.552,352.906,371.574,374.875,369.37,367.244,370.173,379.976,396.774,413.139,425.405,433.222,430.441,419.703,401.958,382.271,369.081,369.081,340.902,340.902,340.902
0.0019321	-13648437.70	0,1.74769e-06,4.04982e-06,7.08231e-06,1.10769e-05,1.63387e-05,2.32698e-05,3.23997e-05,4.44262e-05,6.0268e-05,8.11357e-05,0.000108624,0.000144832,0.000192527,0.000255354,0.000338112,0.000447126,0.000590724,0.000779877,0.00102904,0.00135725,0.00178958,0.00235907,0.00310923,0.00409738,0.00539902,0.0071136,0.00937212,0.0123472,0.016266,0.0214282,0.028228,inf	235.617,235.617,1635.37,276.128,157.228,181.528,225.477,329.675,438.053,425.816,363.399,339.462,353.769,372.982,376.202,370.442,368.116,370.869,380.517,397.093,413.132,425.08,432.645,429.686,418.867,401.147,381.49,368.284,368.284,336.809,336.809,336.809
0.0019569	-13648263.29	0,1.74769e-06,4.04982e-06,7.08231e-06,1.10769e-05,1.63387e-05,2.32698e-05,3.23997e-05,4.44262e-05,6.0268e-05,8.11357e-05,0.000108624,0.000144832,0.000192527,0.000255354,0.000338112,0.000447126,0.000590724,0.000779877,0.00102904,0.00135725,0.00178958,0.00235907,0.00310923,0.00409738,0.00539902,0.0071136,0.00937212,0.0123472,0.016266,0.0214282,0.028228,inf	239.561,239.561,1634.61,267.697,155.491,181.457,225.811,332.304,441.67,426.847,362.925,339.399,354.646,374.373,377.492,371.468,368.939,371.525,381.026,397.392,413.121,424.768,432.094,428.965,418.071,400.382,380.755,367.527,367.527,332.707,332.707,332.707
0.0019808	-13648103.69	0,1.74769e-06,4.04982e-06,7.08231e-06,1.10769e-05,1.63387e-05,2.32698e-05,3.23997e-05,4.44262e-05,6.0268e-05,8.11357e-05,0.000108624,0.000144832,0.000192527,0.000255354,0.000338112,0.000447126,0.000590724,0.000779877,0.00102904,0.00135725,0.00178958,0.00235907,0.00310923,0.00409738,0.00539902,0.0071136,0.00937212,0.0123472,0.016266,0.0214282,0.028228,inf	244.021,244.021,1633.22,259.675,153.915,181.458,226.172,334.91,445.182,427.782,362.438,339.359,355.535,375.747,378.744,372.448,369.719,372.143,381.506,397.672,413.107,424.469,431.567,428.276,417.312,399.658,380.063,366.807,366.807,328.598,328.598,328.598
0.00200385	-13647957.44	0,1.74769e-06,4.04982e-06,7.08231e-06,1.10769e-05,1.63387e-05,2.32698e-05,3.23997e-05,4.44262e-05,6.0268e-05,8.11357e-05,0.000108624,0.000144832,0.000192527,0.000255354,0.000338112,0.000447126,0.000590724,0.000779877,0.00102904,0.00135725,0.00178958,0.00235907,0.00310923,0.00409738,0.00539902,0.0071136,0.00937212,0.0123472,0.016266,0.0214282,0.028228,inf	248.864,248.864,1631.28,252.027,152.492,181.516,226.559,337.501,448.589,428.626,361.942,339.34,356.433,377.105,379.959,373.386,370.456,372.725,381.959,397.935,413.089,424.181,431.063,427.618,416.59,398.975,379.413,366.122,366.122,324.479,324.479,324.479
0.00202609	-13647823.25	0,1.74769e-06,4.04982e-06,7.08231e-06,1.10769e-05,1.63387e-05,2.32698e-05,3.23997e-05,4.44262e-05,6.0268e-05,8.11357e-05,0.000108624,0.000144832,0.000192527,0.000255354,0.000338112,0.000447126,0.000590724,0.000779877,0.00102904,0.00135725,0.00178958,0.00235907,0.00310923,0.00409738,0.00539902,0.0071136,0.00937212,0.0123472,0.016266,0.0214282,0.028228,inf	254.126,254.126,1628.83,244.746,151.203,181.638,226.957,340.056,451.89,429.386,361.438,339.341,357.339,378.446,381.138,374.283,371.155,373.275,382.386,398.181,413.069,423.904,430.581,426.987,415.9,398.33,378.801,365.472,365.472,320.351,320.351,320.351
0.00204754	-13647699.98	0,1.74769e-06,4.04982e-06,7.08231e-06,1.10769e-05,1.63387e-05,2.32698e-05,3.23997e-05,4.44262e-05,6.0268e-05,8.11357e-05,0.000108624,0.000144832,0.000192527,0.000255354,0.000338112,0.000447126,0.000590724,0.000779877,0.00102904,0.00135725,0.00178958,0.00235907,0.00310923,0.00409738,0.00539902,0.0071136,0.00937212,0.0123472,0.016266,0.0214282,0.028228,inf	259.677,259.677,1626,237.802,150.038,181.809,227.366,342.595,455.094,430.06,360.929,339.359,358.251,379.768,382.284,375.143,371.817,373.794,382.79,398.413,413.046,423.639,430.118,426.384,415.243,397.72,378.226,364.853,364.853,316.213,316.213,316.213
0.00206825	-13647586.61	0,1.74769e-06,4.04982e-06,7.08231e-06,1.10769e-05,1.63387e-05,2.32698e-05,3.23997e-05,4.44262e-05,6.0268e-05,8.11357e-05,0.000108624,0.000144832,0.000192527,0.000255354,0.000338112,0.000447126,0.000590724,0.000779877,0.00102904,0.00135725,0.00178958,0.00235907,0.00310923,0.00409738,0.00539902,0.0071136,0.00937212,0.0123472,0.016266,0.0214282,0.028228,inf	265.523,265.523,1622.76,231.191,148.993,182.025,227.789,345.102,458.198,430.656,360.408,339.394,359.167,381.07,383.396,375.964,372.445,374.284,383.173,398.631,413.021,423.382,429.674,425.805,414.615,397.143,377.686,364.266,364.266,312.064,312.064,312.064
0.00208825	-13647482.23	0,1.74769e-06,4.04982e-06,7.08231e-06,1.10769e-05,1.63387e-05,2.32698e-05,3.23997e-05,4.44262e-05,6.0268e-05,8.11357e-05,0.000108624,0.000144832,0.000192527,0.000255354,0.000338112,0.000447126,0.000590724,0.000779877,0.00102904,0.00135725,0.00178958,0.00235907,0.00310923,0.00409738,0.00539902,0.0071136,0.00937212,0.0123472,0.016266,0.0214282,0.028228,inf	271.541,271.541,1619.19,224.9,148.059,182.281,228.213,347.58,461.201,431.176,359.88,339.443,360.084,382.353,384.475,376.751,373.04,374.747,383.535,398.836,412.995,423.136,429.248,425.25,414.015,396.599,377.179,363.709,363.709,307.904,307.904,307.904
0.00210757	-13647386.05	0,1.74769e-06,4.04982e-06,7.08231e-06,1.10769e-05,1.63387e-05,2.32698e-05,3.23997e-05,4.44262e-05,6.0268e-05,8.11357e-05,0.000108624,0.000144832,0.000192527,0.000255354,0.000338112,0.000447126,0.000590724,0.000779877,0.00102904,0.00135725,0.00178958,0.00235907,0.00310923,0.00409738,0.00539902,0.0071136,0.00937212,0.0123472,0.016266,0.0214282,0.028228,inf	277.701,277.701,1615.27,218.896,147.226,182.58,228.642,350.028,464.113,431.628,359.35,339.502,361.002,383.617,385.523,377.503,373.603,375.186,383.878,399.031,412.967,422.897,428.837,424.716,413.441,396.085,376.704,363.18,363.18,303.731,303.731,303.731
0.00212623	-13647297.32	0,1.74769e-06,4.04982e-06,7.08231e-06,1.10769e-05,1.63387e-05,2.32698e-05,3.23997e-05,4.44262e-05,6.0268e-05,8.11357e-05,0.000108624,0.000144832,0.000192527,0.000255354,0.000338112,0.000447126,0.000590724,0.000779877,0.00102904,0.00135725,0.00178958,0.00235907,0.00310923,0.00409738,0.00539902,0.0071136,0.00937212,0.0123472,0.016266,0.0214282,0.028228,inf	283.998,283.998,1611.16,213.182,146.489,182.916,229.069,352.449,466.934,432.013,358.812,339.572,361.919,384.861,386.539,378.224,374.138,375.601,384.204,399.214,412.937,422.668,428.443,424.204,412.893,395.6,376.259,362.68,362.68,299.544,299.544,299.544
0.00214427	-13647215.41	0,1.74769e-06,4.04982e-06,7.08231e-06,1.10769e-05,1.63387e-05,2.32698e-05,3.23997e-05,4.44262e-05,6.0268e-05,8.11357e-05,0.000108624,0.000144832,0.000192527,0.000255354,0.000338112,0.000447126,0.000590724,0.000779877,0.00102904,0.00135725,0.00178958,0.00235907,0.00310923,0.00409738,0.00539902,0.0071136,0.00937212,0.0123472,0.016266,0.0214282,0.028228,inf	290.382,290.382,1606.76,207.702,145.842,183.281,229.498,354.835,469.661,432.337,358.272,339.653,362.834,386.084,387.525,378.915,374.646,375.994,384.514,399.387,412.907,422.446,428.063,423.71,412.368,395.141,375.843,362.207,362.207,295.343,295.343,295.343
0.00216171	-13647139.73	0,1.74769e-06,4.04982e-06,7.08231e-06,1.10769e-05,1.63387e-05,2.32698e-05,3.23997e-05,4.44262e-05,6.0268e-05,8.11357e-05,0.000108624,0.000144832,0.000192527,0.000255354,0.000338112,0.000447126,0.000590724,0.000779877,0.00102904,0.00135725,0.00178958,0.00235907,0.00310923,0.00409738,0.00539902,0.0071136,0.00937212,0.0123472,0.016266,0.0214282,0.028228,inf	296.792,296.792,1602.27,202.501,145.283,183.666,229.927,357.192,472.305,432.604,357.728,339.743,363.746,387.288,388.481,379.576,375.129,376.367,384.809,399.551,412.876,422.232,427.697,423.236,411.866,394.709,375.455,361.761,361.761,291.127,291.127,291.127
0.00217857	-13647069.76	0,1.74769e-06,4.04982e-06,7.08231e-06,1.10769e-05,1.63387e-05,2.32698e-05,3.23997e-05,4.44262e-05,6.0268e-05,8.11357e-05,0.000108624,0.000144832,0.000192527,0.000255354,0.000338112,0.000447126,0.000590724,0.000779877,0.00102904,0.00135725,0.00178958,0.00235907,0.00310923,0.00409738,0.00539902,0.0071136,0.00937212,0.0123472,0.016266,0.0214282,0.028228,inf	303.178,303.178,1597.57,197.515,144.794,184.077,230.353,359.518,474.872,432.816,357.179,339.841,364.654,388.471,389.409,380.208,375.587,376.721,385.09,399.707,412.844,422.024,427.343,422.778,411.385,394.301,375.093,361.341,361.341,286.895,286.895,286.895
0.00219489	-13647005.02	0,1.74769e-06,4.04982e-06,7.08231e-06,1.10769e-05,1.63387e-05,2.32698e-05,3.23997e-05,4.44262e-05,6.0268e-05,8.11357e-05,0.000108624,0.000144832,0.000192527,0.000255354,0.000338112,0.000447126,0.000590724,0.000779877,0.00102904,0.00135725,0.00178958,0.00235907,0.00310923,0.00409738,0.00539902,0.0071136,0.00937212,0.0123472,0.016266,0.0214282,0.028228,inf	309.565,309.565,1592.83,192.75,144.385,184.511,230.774,361.813,477.36,432.977,356.628,339.947,365.557,389.634,390.309,380.815,376.022,377.058,385.358,399.855,412.812,421.824,427.002,422.337,410.924,393.916,374.757,360.947,360.947,282.646,282.646,282.646
