0.00976984	-13681685.07	0,1.74769e-06,4.04982e-06,7.08231e-06,1.10769e-05,1.63387e-05,2.32698e-05,3.23997e-05,4.44262e-05,6.0268e-05,8.11357e-05,0.000108624,0.000144832,0.000192527,0.000255354,0.000338112,0.000447126,0.000590724,0.000779877,0.00102904,0.00135725,0.00178958,0.00235907,0.00310923,0.00409738,0.00539902,0.0071136,0.00937212,0.0123472,0.016266,0.0214282,0.028228,inf	762.205,762.205,679.358,721.066,751.757,752.608,729.223,693.179,649.684,601.284,552.603,508.774,473.035,446.068,426.821,413.632,404.901,399.337,395.992,394.193,393.475,393.52,394.071,394.881,395.7,396.341,396.742,396.879,396.879,396.237,396.237,396.237
0.00963791	-13677749.31	0,1.74769e-06,4.04982e-06,7.08231e-06,1.10769e-05,1.63387e-05,2.32698e-05,3.23997e-05,4.44262e-05,6.0268e-05,8.11357e-05,0.000108624,0.000144832,0.000192527,0.000255354,0.000338112,0.000447126,0.000590724,0.000779877,0.00102904,0.00135725,0.00178958,0.00235907,0.00310923,0.00409738,0.00539902,0.0071136,0.00937212,0.0123472,0.016266,0.0214282,0.028228,inf	792.737,792.737,664.058,771.18,869.611,914.089,908.394,872.706,815.583,741.411,660.639,585.34,523.194,476.165,442.585,419.58,404.361,394.693,388.921,385.867,384.719,384.91,385.987,387.505,389.012,390.166,390.859,391.028,391.028,389.703,389.703,389.703
0.00951773	-13675483.69	0,1.74769e-06,4.04982e-06,7.08231e-06,1.10769e-05,1.63387e-05,2.32698e-05,3.23997e-05,4.44262e-05,6.0268e-05,8.11357e-05,0.000108624,0.000144832,0.000192527,0.000255354,0.000338112,0.000447126,0.000590724,0.000779877,0.00102904,0.00135725,0.00178958,0.00235907,0.00310923,0.00409738,0.00539902,0.0071136,0.00937212,0.0123472,0.016266,0.0214282,0.028228,inf	750.312,750.312,561.735,698.043,844.822,935.889,965.682,955.026,910.141,832.856,737.142,642.218,561.513,499.535,454.921,424.192,403.783,390.784,383.016,378.913,377.386,377.674,379.16,381.235,383.274,384.803,385.675,385.771,385.771,383.714,383.714,383.714
0.00940749	-13673961.34	0,1.74769e-06,4.04982e-06,7.08231e-06,1.10769e-05,1.63387e-05,2.32698e-05,3.23997e-05,4.44262e-05,6.0268e-05,8.11357e-05,0.000108624,0.000144832,0.000192527,0.000255354,0.000338112,0.000447126,0.000590724,0.000779877,0.00102904,0.00135725,0.00178958,0.00235907,0.00310923,0.00409738,0.00539902,0.0071136,0.00937212,0.0123472,0.016266,0.0214282,0.028228,inf	734.768,734.768,471.205,607.703,774.187,894.698,955.679,975.771,955.424,889.509,791.451,685.984,592.611,519.33,465.894,428.762,403.929,388.017,378.451,373.355,371.416,371.705,373.467,375.949,378.375,380.153,381.104,381.03,381.03,378.196,378.196,378.196
0.00930553	-13672847.67	0,1.74769e-06,4.04982e-06,7.08231e-06,1.10769e-05,1.63387e-05,2.32698e-05,3.23997e-05,4.44262e-05,6.0268e-05,8.11357e-05,0.000108624,0.000144832,0.000192527,0.000255354,0.000338112,0.000447126,0.000590724,0.000779877,0.00102904,0.00135725,0.00178958,0.00235907,0.00310923,0.00409738,0.00539902,0.0071136,0.00937212,0.0123472,0.016266,0.0214282,0.028228,inf	752.277,752.277,408.975,534.491,702.584,835.377,915.963,962.347,969.162,921.956,829.794,720.398,618.798,536.944,476.293,433.679,404.932,386.366,375.108,369.028,366.621,366.818,368.739,371.501,374.19,376.111,377.054,376.731,376.731,373.077,373.077,373.077
0.00921035	-13671989.80	0,1.74769e-06,4.04982e-06,7.08231e-06,1.10769e-05,1.63387e-05,2.32698e-05,3.23997e-05,4.44262e-05,6.0268e-05,8.11357e-05,0.000108624,0.000144832,0.000192527,0.000255354,0.000338112,0.000447126,0.000590724,0.000779877,0.00102904,0.00135725,0.00178958,0.00235907,0.00310923,0.00409738,0.00539902,0.0071136,0.00937212,0.0123472,0.016266,0.0214282,0.028228,inf	790.705,790.705,369.657,482.742,644.387,777.804,866.833,931.76,963.269,937.372,856.09,747.528,641.154,552.903,486.318,438.949,406.681,385.658,372.782,365.719,362.8,362.829,364.814,367.753,370.606,372.582,373.448,372.808,372.808,368.298,368.298,368.298
0.00912071	-13671302.43	0,1.74769e-06,4.04982e-06,7.08231e-06,1.10769e-05,1.63387e-05,2.32698e-05,3.23997e-05,4.44262e-05,6.0268e-05,8.11357e-05,0.000108624,0.000144832,0.000192527,0.000255354,0.000338112,0.000447126,0.000590724,0.000779877,0.00102904,0.00135725,0.00178958,0.00235907,0.00310923,0.00409738,0.00539902,0.0071136,0.00937212,0.0123472,0.016266,0.0214282,0.028228,inf	838.238,838.238,345.855,448.838,601.734,729.126,818.125,893.857,945.525,940.699,872.987,768.624,660.203,567.37,495.946,444.447,409,385.69,371.268,363.231,359.769,359.574,361.553,364.589,367.526,369.487,370.217,369.203,369.203,363.809,363.809,363.809
0.00903561	-13670732.75	0,1.74769e-06,4.04982e-06,7.08231e-06,1.10769e-05,1.63387e-05,2.32698e-05,3.23997e-05,4.44262e-05,6.0268e-05,8.11357e-05,0.000108624,0.000144832,0.000192527,0.000255354,0.000338112,0.000447126,0.000590724,0.000779877,0.00102904,0.00135725,0.00178958,0.00235907,0.00310923,0.00409738,0.00539902,0.0071136,0.00937212,0.0123472,0.016266,0.0214282,0.028228,inf	886.283,886.283,332.023,428.25,572.868,690.949,774.125,854.221,921.044,935.488,882.446,784.579,676.263,580.388,505.092,450.028,411.716,386.286,370.392,361.399,357.378,356.921,358.839,361.911,364.871,366.76,367.306,365.872,365.872,359.57,359.57,359.57
0.00895424	-13670246.35	0,1.74769e-06,4.04982e-06,7.08231e-06,1.10769e-05,1.63387e-05,2.32698e-05,3.23997e-05,4.44262e-05,6.0268e-05,8.11357e-05,0.000108624,0.000144832,0.000192527,0.000255354,0.000338112,0.000447126,0.000590724,0.000779877,0.00102904,0.00135725,0.00178958,0.00235907,0.00310923,0.00409738,0.00539902,0.0071136,0.00937212,0.0123472,0.016266,0.0214282,0.028228,inf	929.409,929.409,324.412,417.244,555.207,662.696,736.364,815.873,893.191,924.384,886.036,796.125,689.586,591.979,513.674,455.566,414.687,387.297,370.01,360.09,355.506,354.762,356.581,359.643,362.577,364.347,364.671,362.778,362.778,355.547,355.547,355.547
0.00887599	-13669820.08	0,1.74769e-06,4.04982e-06,7.08231e-06,1.10769e-05,1.63387e-05,2.32698e-05,3.23997e-05,4.44262e-05,6.0268e-05,8.11357e-05,0.000108624,0.000144832,0.000192527,0.000255354,0.000338112,0.000447126,0.000590724,0.000779877,0.00102904,0.00135725,0.00178958,0.00235907,0.00310923,0.00409738,0.00539902,0.0071136,0.00937212,0.0123472,0.016266,0.0214282,0.028228,inf	964.763,964.763,320.514,412.974,546.326,643.036,705.008,780.352,864.169,909.366,885.047,803.908,700.413,602.176,521.633,460.962,417.799,388.607,370.01,359.197,354.055,353.01,354.703,357.721,360.59,362.205,362.274,359.889,359.889,351.713,351.713,351.713
0.00880033	-13669437.99	0,1.74769e-06,4.04982e-06,7.08231e-06,1.10769e-05,1.63387e-05,2.32698e-05,3.23997e-05,4.44262e-05,6.0268e-05,8.11357e-05,0.000108624,0.000144832,0.000192527,0.000255354,0.000338112,0.000447126,0.000590724,0.000779877,0.00102904,0.00135725,0.00178958,0.00235907,0.00310923,0.00409738,0.00539902,0.0071136,0.00937212,0.0123472,0.016266,0.0214282,0.028228,inf	991.317,991.317,318.561,413.284,544.16,630.555,679.607,748.331,835.404,891.919,880.556,808.518,708.989,611.035,528.935,466.145,420.966,390.127,370.303,358.638,352.95,351.597,353.147,356.094,358.868,360.297,360.086,357.181,357.181,348.044,348.044,348.044
0.00872688	-13669088.85	0,1.74769e-06,4.04982e-06,7.08231e-06,1.10769e-05,1.63387e-05,2.32698e-05,3.23997e-05,4.44262e-05,6.0268e-05,8.11357e-05,0.000108624,0.000144832,0.000192527,0.000255354,0.000338112,0.000447126,0.000590724,0.000779877,0.00102904,0.00135725,0.00178958,0.00235907,0.00310923,0.00409738,0.00539902,0.0071136,0.00937212,0.0123472,0.016266,0.0214282,0.028228,inf	1009.31,1009.31,317.324,416.548,547.016,623.909,659.47,719.961,807.758,873.142,873.443,810.481,715.552,618.626,535.568,471.064,424.124,391.787,370.819,358.346,352.129,350.468,351.863,354.72,357.376,358.595,358.08,354.631,354.631,344.523,344.523,344.523
0.00865531	-13668764.63	0,1.74769e-06,4.04982e-06,7.08231e-06,1.10769e-05,1.63387e-05,2.32698e-05,3.23997e-05,4.44262e-05,6.0268e-05,8.11357e-05,0.000108624,0.000144832,0.000192527,0.000255354,0.000338112,0.000447126,0.000590724,0.000779877,0.00102904,0.00135725,0.00178958,0.00235907,0.00310923,0.00409738,0.00539902,0.0071136,0.00937212,0.0123472,0.016266,0.0214282,0.028228,inf	1019.82,1019.82,315.962,421.46,553.506,621.938,643.878,695.139,781.738,853.83,864.438,810.267,720.339,625.035,541.536,475.689,427.224,393.533,371.506,358.268,351.542,349.579,350.811,353.566,356.085,357.074,356.237,352.224,352.224,341.132,341.132,341.132
0.00858536	-13668459.49	0,1.74769e-06,4.04982e-06,7.08231e-06,1.10769e-05,1.63387e-05,2.32698e-05,3.23997e-05,4.44262e-05,6.0268e-05,8.11357e-05,0.000108624,0.000144832,0.000192527,0.000255354,0.000338112,0.000447126,0.000590724,0.000779877,0.00102904,0.00135725,0.00178958,0.00235907,0.00310923,0.00409738,0.00539902,0.0071136,0.00937212,0.0123472,0.016266,0.0214282,0.028228,inf	1024.3,1024.3,313.914,427.006,562.467,623.65,632.136,673.605,757.595,834.555,854.113,808.287,723.572,630.352,546.859,480.003,430.232,395.325,372.32,358.363,351.15,348.891,349.96,352.602,354.971,355.713,354.538,349.943,349.943,337.859,337.859,337.859
0.00851681	-13668169.10	0,1.74769e-06,4.04982e-06,7.08231e-06,1.10769e-05,1.63387e-05,2.32698e-05,3.23997e-05,4.44262e-05,6.0268e-05,8.11357e-05,0.000108624,0.000144832,0.000192527,0.000255354,0.000338112,0.000447126,0.000590724,0.000779877,0.00102904,0.00135725,0.00178958,0.00235907,0.00310923,0.00409738,0.00539902,0.0071136,0.00937212,0.0123472,0.016266,0.0214282,0.028228,inf	1024.24,1024.24,310.844,432.392,572.953,628.221,623.606,655.052,735.42,815.71,842.932,804.894,725.459,634.673,551.563,483.996,433.126,397.132,373.227,358.597,350.921,348.376,349.281,351.804,354.013,354.495,352.968,347.777,347.777,334.691,334.691,334.691
0.00844949	-13667890.22	0,1.74769e-06,4.04982e-06,7.08231e-06,1.10769e-05,1.63387e-05,2.32698e-05,3.23997e-05,4.44262e-05,6.0268e-05,8.11357e-05,0.000108624,0.000144832,0.000192527,0.000255354,0.000338112,0.000447126,0.000590724,0.000779877,0.00102904,0.00135725,0.00178958,0.00235907,0.00310923,0.00409738,0.00539902,0.0071136,0.00937212,0.0123472,0.016266,0.0214282,0.028228,inf	1021.01,1021.01,306.59,437.044,584.192,634.94,617.749,639.162,715.203,797.559,831.254,800.39,726.189,638.09,555.68,487.669,435.888,398.929,374.2,358.942,350.828,348.008,348.752,351.153,353.193,353.405,351.516,345.714,345.714,331.62,331.62,331.62
0.00838325	-13667620.41	0,1.74769e-06,4.04982e-06,7.08231e-06,1.10769e-05,1.63387e-05,2.32698e-05,3.23997e-05,4.44262e-05,6.0268e-05,8.11357e-05,0.000108624,0.000144832,0.000192527,0.000255354,0.000338112,0.000447126,0.000590724,0.000779877,0.00102904,0.00135725,0.00178958,0.00235907,0.00310923,0.00409738,0.00539902,0.0071136,0.00937212,0.0123472,0.016266,0.0214282,0.028228,inf	1016.03,1016.03,301.141,440.528,595.531,643.237,614.084,625.601,696.873,780.265,819.358,795.03,725.931,640.691,559.245,491.025,438.507,400.7,375.219,359.376,350.849,347.766,348.354,350.632,352.497,352.431,350.169,343.745,343.745,328.636,328.636,328.636
0.00831798	-13667357.79	0,1.74769e-06,4.04982e-06,7.08231e-06,1.10769e-05,1.63387e-05,2.32698e-05,3.23997e-05,4.44262e-05,6.0268e-05,8.11357e-05,0.000108624,0.000144832,0.000192527,0.000255354,0.000338112,0.000447126,0.000590724,0.000779877,0.00102904,0.00135725,0.00178958,0.00235907,0.00310923,0.00409738,0.00539902,0.0071136,0.00937212,0.0123472,0.016266,0.0214282,0.028228,inf	1010.24,1010.24,294.572,442.565,606.45,652.623,612.227,614.088,680.319,763.929,807.459,789.027,724.838,642.562,562.295,494.075,440.978,402.429,376.266,359.881,350.966,347.634,348.071,350.226,351.913,351.561,348.919,341.862,341.862,325.732,325.732,325.732
0.00825358	-13667100.90	0,1.74769e-06,4.04982e-06,7.08231e-06,1.10769e-05,1.63387e-05,2.32698e-05,3.23997e-05,4.44262e-05,6.0268e-05,8.11357e-05,0.000108624,0.000144832,0.000192527,0.000255354,0.000338112,0.000447126,0.000590724,0.000779877,0.00102904,0.00135725,0.00178958,0.00235907,0.00310923,0.00409738,0.00539902,0.0071136,0.00937212,0.0123472,0.016266,0.0214282,0.028228,inf	1004.46,1004.46,287.023,443.034,616.554,662.709,611.844,604.358,665.413,748.591,795.705,782.556,723.043,643.782,564.868,496.83,443.297,404.108,377.328,360.442,351.163,347.595,347.889,349.923,351.429,350.786,347.757,340.058,340.058,322.9,322.9,322.9
0.00818995	-13666848.62	0,1.74769e-06,4.04982e-06,7.08231e-06,1.10769e-05,1.63387e-05,2.32698e-05,3.23997e-05,4.44262e-05,6.0268e-05,8.11357e-05,0.000108624,0.000144832,0.000192527,0.000255354,0.000338112,0.000447126,0.000590724,0.000779877,0.00102904,0.00135725,0.00178958,0.00235907,0.00310923,0.00409738,0.00539902,0.0071136,0.00937212,0.0123472,0.016266,0.0214282,0.028228,inf	999.161,999.161,278.695,441.865,625.539,673.145,612.65,596.178,652.025,734.26,784.221,775.763,720.664,644.425,566.998,499.301,445.465,405.728,378.395,361.047,351.428,347.639,347.795,349.711,351.036,350.098,346.676,338.327,338.327,320.137,320.137,320.137
