0.000730635	-13683273.54	0,4.04982e-06,1.10769e-05,2.32698e-05,4.44262e-05,8.11357e-05,0.000144832,0.000255354,0.000447126,0.000779877,0.00135725,0.00235907,0.00409738,0.0071136,0.0123472,0.0214282,inf	571.675,571.675,369.746,353.064,364.368,356.792,350.574,351.235,358.915,380.353,413.529,431.62,424.542,413.025,413.025,413.025
0.000831439	-13675725.20	0,4.04982e-06,1.10769e-05,2.32698e-05,4.44262e-05,8.11357e-05,0.000144832,0.000255354,0.000447126,0.000779877,0.00135725,0.00235907,0.00409738,0.0071136,0.0123472,0.0214282,inf	683.76,683.76,350.505,339.462,366.654,352.946,341.118,339.098,346.352,373.574,417.534,442.671,433.316,415.766,415.766,415.766
0.000923382	-13670576.17	0,4.04982e-06,1.10769e-05,2.32698e-05,4.44262e-05,8.11357e-05,0.000144832,0.000255354,0.000447126,0.000779877,0.00135725,0.00235907,0.00409738,0.0071136,0.0123472,0.0214282,inf	732.424,732.424,325.856,328.128,373.018,355.553,341.088,337.448,343.208,371.944,418.974,446.099,435.804,415.194,415.194,415.194
0.00100795	-13666708.48	0,4.04982e-06,1.10769e-05,2.32698e-05,4.44262e-05,8.11357e-05,0.000144832,0.000255354,0.000447126,0.000779877,0.00135725,0.00235907,0.00409738,0.0071136,0.0123472,0.0214282,inf	747.884,747.884,300.815,316.744,378.1,358.007,343.123,339.094,343.54,372.415,419.397,446.143,435.155,413.162,413.162,413.162
0.00108628	-13663673.81	0,4.04982e-06,1.10769e-05,2.32698e-05,4.44262e-05,8.11357e-05,0.000144832,0.000255354,0.000447126,0.000779877,0.00135725,0.00235907,0.00409738,0.0071136,0.0123472,0.0214282,inf	750.212,750.212,278.68,306.337,381.803,359.273,345.313,341.761,345.26,373.826,419.453,444.716,432.948,410.559,410.559,410.559
0.00115922	-13661231.08	0,4.04982e-06,1.10769e-05,2.32698e-05,4.44262e-05,8.11357e-05,0.000144832,0.000255354,0.000447126,0.000779877,0.00135725,0.00235907,0.00409738,0.0071136,0.0123472,0.0214282,inf	748.415,748.415,260.354,297.642,384.853,359.589,347.256,344.668,347.518,375.649,419.389,442.698,429.995,407.814,407.814,407.814
0.00122744	-13659229.79	0,4.04982e-06,1.10769e-05,2.32698e-05,4.44262e-05,8.11357e-05,0.000144832,0.000255354,0.000447126,0.000779877,0.00135725,0.00235907,0.00409738,0.0071136,0.0123472,0.0214282,inf	745.592,745.592,245.528,290.828,387.782,359.334,348.945,347.538,349.932,377.616,419.297,440.503,426.724,405.125,405.125,405.125
0.00129143	-13657567.98	0,4.04982e-06,1.10769e-05,2.32698e-05,4.44262e-05,8.11357e-05,0.000144832,0.000255354,0.000447126,0.000779877,0.00135725,0.00235907,0.00409738,0.0071136,0.0123472,0.0214282,inf	742.445,742.445,233.579,285.744,390.859,358.792,350.459,350.278,352.325,379.589,419.206,438.326,423.363,402.583,402.583,402.583
0.00135163	-13656172.94	0,4.04982e-06,1.10769e-05,2.32698e-05,4.44262e-05,8.11357e-05,0.000144832,0.000255354,0.000447126,0.000779877,0.00135725,0.00235907,0.00409738,0.0071136,0.0123472,0.0214282,inf	739.066,739.066,223.878,282.122,394.171,358.134,351.872,352.867,354.614,381.493,419.124,436.255,420.035,400.218,400.218,400.218
0.00140837	-13654991.11	0,4.04982e-06,1.10769e-05,2.32698e-05,4.44262e-05,8.11357e-05,0.000144832,0.000255354,0.000447126,0.000779877,0.00135725,0.00235907,0.00409738,0.0071136,0.0123472,0.0214282,inf	735.471,735.471,215.904,279.688,397.706,357.457,353.238,355.306,356.763,383.292,419.05,434.328,416.804,398.04,398.04,398.04
0.00146196	-13653982.02	0,4.04982e-06,1.10769e-05,2.32698e-05,4.44262e-05,8.11357e-05,0.000144832,0.000255354,0.000447126,0.000779877,0.00135725,0.00235907,0.00409738,0.0071136,0.0123472,0.0214282,inf	731.552,731.552,209.245,278.2,401.415,356.811,354.594,357.608,358.761,384.972,418.982,432.557,413.701,396.04,396.04,396.04
0.00151267	-13653114.52	0,4.04982e-06,1.10769e-05,2.32698e-05,4.44262e-05,8.11357e-05,0.000144832,0.000255354,0.000447126,0.000779877,0.00135725,0.00235907,0.00409738,0.0071136,0.0123472,0.0214282,inf	727.45,727.45,203.61,277.458,405.227,356.216,355.96,359.784,360.609,386.527,418.917,430.938,410.741,394.207,394.207,394.207
0.0015607	-13652364.21	0,4.04982e-06,1.10769e-05,2.32698e-05,4.44262e-05,8.11357e-05,0.000144832,0.000255354,0.000447126,0.000779877,0.00135725,0.00235907,0.00409738,0.0071136,0.0123472,0.0214282,inf	723.17,723.17,198.776,277.29,409.08,355.676,357.348,361.847,362.312,387.961,418.853,429.464,407.928,392.526,392.526,392.526
0.00160628	-13651711.77	0,4.04982e-06,1.10769e-05,2.32698e-05,4.44262e-05,8.11357e-05,0.000144832,0.000255354,0.000447126,0.000779877,0.00135725,0.00235907,0.00409738,0.0071136,0.0123472,0.0214282,inf	718.816,718.816,194.578,277.57,412.916,355.188,358.762,363.809,363.881,389.278,418.789,428.124,405.258,390.983,390.983,390.983
0.00164957	-13651141.69	0,4.04982e-06,1.10769e-05,2.32698e-05,4.44262e-05,8.11357e-05,0.000144832,0.000255354,0.000447126,0.000779877,0.00135725,0.00235907,0.00409738,0.0071136,0.0123472,0.0214282,inf	714.524,714.524,190.894,278.201,416.691,354.749,360.201,365.678,365.325,390.487,418.724,426.908,402.727,389.565,389.565,389.565
0.00169073	-13650641.40	0,4.04982e-06,1.10769e-05,2.32698e-05,4.44262e-05,8.11357e-05,0.000144832,0.000255354,0.000447126,0.000779877,0.00135725,0.00235907,0.00409738,0.0071136,0.0123472,0.0214282,inf	710.346,710.346,187.619,279.109,420.369,354.349,361.665,367.463,366.655,391.596,418.656,425.805,400.327,388.259,388.259,388.259
0.00172991	-13650200.63	0,4.04982e-06,1.10769e-05,2.32698e-05,4.44262e-05,8.11357e-05,0.000144832,0.000255354,0.000447126,0.000779877,0.00135725,0.00235907,0.00409738,0.0071136,0.0123472,0.0214282,inf	706.24,706.24,184.682,280.231,423.926,353.982,363.15,369.169,367.881,392.612,418.586,424.803,398.052,387.055,387.055,387.055
0.00176724	-13649810.91	0,4.04982e-06,1.10769e-05,2.32698e-05,4.44262e-05,8.11357e-05,0.000144832,0.000255354,0.000447126,0.000779877,0.00135725,0.00235907,0.00409738,0.0071136,0.0123472,0.0214282,inf	702.298,702.298,182.03,281.524,427.343,353.644,364.651,370.803,369.012,393.544,418.514,423.894,395.893,385.941,385.941,385.941
0.00180284	-13649465.18	0,4.04982e-06,1.10769e-05,2.32698e-05,4.44262e-05,8.11357e-05,0.000144832,0.000255354,0.000447126,0.000779877,0.00135725,0.00235907,0.00409738,0.0071136,0.0123472,0.0214282,inf	698.545,698.545,179.617,282.949,430.61,353.327,366.165,372.368,370.055,394.399,418.439,423.069,393.843,384.909,384.909,384.909
0.00183681	-13649157.57	0,4.04982e-06,1.10769e-05,2.32698e-05,4.44262e-05,8.11357e-05,0.000144832,0.000255354,0.000447126,0.000779877,0.00135725,0.00235907,0.00409738,0.0071136,0.0123472,0.0214282,inf	695.018,695.018,177.409,284.482,433.722,353.027,367.686,373.87,371.02,395.184,418.362,422.32,391.894,383.951,383.951,383.951
