0.000707434	-4546687.10	0,4.83557e-06,1.10901e-05,1.91799e-05,2.96436e-05,4.31778e-05,6.06834e-05,8.33258e-05,0.000112612,0.000150493,0.000199489,0.000262862,0.000344831,0.000450854,0.000587987,0.000765361,0.000994783,0.00129153,0.00167535,0.00217179,0.00281392,0.00364446,0.00471873,0.00610822,0.00790544,0.01023,0.0132368,0.0171258,0.022156,0.0286622,inf	416.656,416.656,416.656,416.656,416.656,416.656,416.656,416.656,416.656,416.656,416.656,416.656,416.656,416.656,416.656,416.656,416.656,416.656,416.656,416.656,416.656,416.656,416.656,416.656,416.656,416.656,416.656,416.656,416.656,416.656
0.000790568	-4544752.14	0,4.83557e-06,1.10901e-05,1.91799e-05,2.96436e-05,4.31778e-05,6.06834e-05,8.33258e-05,0.000112612,0.000150493,0.000199489,0.000262862,0.000344831,0.000450854,0.000587987,0.000765361,0.000994783,0.00129153,0.00167535,0.00217179,0.00281392,0.00364446,0.00471873,0.00610822,0.00790544,0.01023,0.0132368,0.0171258,0.022156,0.0286622,inf	421.264,421.264,421.264,421.264,421.264,421.264,421.264,421.264,421.264,421.264,421.264,421.264,421.264,421.264,421.264,421.264,421.264,421.264,421.264,421.264,421.264,421.264,421.264,421.264,421.264,421.264,421.264,421.264,421.264,421.264
0.000868378	-4543243.10	0,4.83557e-06,1.10901e-05,1.91799e-05,2.96436e-05,4.31778e-05,6.06834e-05,8.33258e-05,0.000112612,0.000150493,0.000199489,0.000262862,0.000344831,0.000450854,0.000587987,0.000765361,0.000994783,0.00129153,0.00167535,0.00217179,0.00281392,0.00364446,0.00471873,0.00610822,0.00790544,0.01023,0.0132368,0.0171258,0.022156,0.0286622,inf	422.635,422.635,422.635,422.635,422.635,422.635,422.635,422.635,422.635,422.635,422.635,422.635,422.635,422.635,422.635,422.635,422.635,422.635,422.635,422.635,422.635,422.635,422.635,422.635,422.635,422.635,422.635,422.635,422.635,422.635
0.000941594	-4542022.43	0,4.83557e-06,1.10901e-05,1.91799e-05,2.96436e-05,4.31778e-05,6.06834e-05,8.33258e-05,0.000112612,0.000150493,0.000199489,0.000262862,0.000344831,0.000450854,0.000587987,0.000765361,0.000994783,0.00129153,0.00167535,0.00217179,0.00281392,0.00364446,0.00471873,0.00610822,0.00790544,0.01023,0.0132368,0.0171258,0.022156,0.0286622,inf	422.607,422.607,422.607,422.607,422.607,422.607,422.607,422.607,422.607,422.607,422.607,422.607,422.607,422.607,422.607,422.607,422.607,422.607,422.607,422.607,422.607,422.607,422.607,422.607,422.607,422.607,422.607,422.607,422.607,422.607
0.00101073	-4541016.28	0,4.83557e-06,1.10901e-05,1.91799e-05,2.96436e-05,4.31778e-05,6.06834e-05,8.33258e-05,0.000112612,0.000150493,0.000199489,0.000262862,0.000344831,0.000450854,0.000587987,0.000765361,0.000994783,0.00129153,0.00167535,0.00217179,0.00281392,0.00364446,0.00471873,0.00610822,0.00790544,0.01023,0.0132368,0.0171258,0.022156,0.0286622,inf	421.984,421.984,421.984,421.984,421.984,421.984,421.984,421.984,421.984,421.984,421.984,421.984,421.984,421.984,421.984,421.984,421.984,421.984,421.984,421.984,421.984,421.984,421.984,421.984,421.984,421.984,421.984,421.984,421.984,421.984
0.00107616	-4540176.16	0,4.83557e-06,1.10901e-05,1.91799e-05,2.96436e-05,4.31778e-05,6.06834e-05,8.33258e-05,0.000112612,0.000150493,0.000199489,0.000262862,0.000344831,0.000450854,0.000587987,0.000765361,0.000994783,0.00129153,0.00167535,0.00217179,0.00281392,0.00364446,0.00471873,0.00610822,0.00790544,0.01023,0.0132368,0.0171258,0.022156,0.0286622,inf	421.12,421.12,421.12,421.12,421.12,421.12,421.12,421.12,421.12,421.12,421.12,421.12,421.12,421.12,421.12,421.12,421.12,421.12,421.12,421.12,421.12,421.12,421.12,421.12,421.12,421.12,421.12,421.12,421.12,421.12
0.0011382	-4539467.41	0,4.83557e-06,1.10901e-05,1.91799e-05,2.96436e-05,4.31778e-05,6.06834e-05,8.33258e-05,0.000112612,0.000150493,0.000199489,0.000262862,0.000344831,0.000450854,0.000587987,0.000765361,0.000994783,0.00129153,0.00167535,0.00217179,0.00281392,0.00364446,0.00471873,0.00610822,0.00790544,0.01023,0.0132368,0.0171258,0.022156,0.0286622,inf	420.176,420.176,420.176,420.176,420.176,420.176,420.176,420.176,420.176,420.176,420.176,420.176,420.176,420.176,420.176,420.176,420.176,420.176,420.176,420.176,420.176,420.176,420.176,420.176,420.176,420.176,420.176,420.176,420.176,420.176
0.0011971	-4538864.20	0,4.83557e-06,1.10901e-05,1.91799e-05,2.96436e-05,4.31778e-05,6.06834e-05,8.33258e-05,0.000112612,0.000150493,0.000199489,0.000262862,0.000344831,0.000450854,0.000587987,0.000765361,0.000994783,0.00129153,0.00167535,0.00217179,0.00281392,0.00364446,0.00471873,0.00610822,0.00790544,0.01023,0.0132368,0.0171258,0.022156,0.0286622,inf	419.225,419.225,419.225,419.225,419.225,419.225,419.225,419.225,419.225,419.225,419.225,419.225,419.225,419.225,419.225,419.225,419.225,419.225,419.225,419.225,419.225,419.225,419.225,419.225,419.225,419.225,419.225,419.225,419.225,419.225
0.00125308	-4538346.85	0,4.83557e-06,1.10901e-05,1.91799e-05,2.96436e-05,4.31778e-05,6.06834e-05,8.33258e-05,0.000112612,0.000150493,0.000199489,0.000262862,0.000344831,0.000450854,0.000587987,0.000765361,0.000994783,0.00129153,0.00167535,0.00217179,0.00281392,0.00364446,0.00471873,0.00610822,0.00790544,0.01023,0.0132368,0.0171258,0.022156,0.0286622,inf	418.299,418.299,418.299,418.299,418.299,418.299,418.299,418.299,418.299,418.299,418.299,418.299,418.299,418.299,418.299,418.299,418.299,418.299,418.299,418.299,418.299,418.299,418.299,418.299,418.299,418.299,418.299,418.299,418.299,418.299
0.00130634	-4537900.12	0,4.83557e-06,1.10901e-05,1.91799e-05,2.96436e-05,4.31778e-05,6.06834e-05,8.33258e-05,0.000112612,0.000150493,0.000199489,0.000262862,0.000344831,0.000450854,0.000587987,0.000765361,0.000994783,0.00129153,0.00167535,0.00217179,0.00281392,0.00364446,0.00471873,0.00610822,0.00790544,0.01023,0.0132368,0.0171258,0.022156,0.0286622,inf	417.413,417.413,417.413,417.413,417.413,417.413,417.413,417.413,417.413,417.413,417.413,417.413,417.413,417.413,417.413,417.413,417.413,417.413,417.413,417.413,417.413,417.413,417.413,417.413,417.413,417.413,417.413,417.413,417.413,417.413
0.00135706	-4537512.04	0,4.83557e-06,1.10901e-05,1.91799e-05,2.96436e-05,4.31778e-05,6.06834e-05,8.33258e-05,0.000112612,0.000150493,0.000199489,0.000262862,0.000344831,0.000450854,0.000587987,0.000765361,0.000994783,0.00129153,0.00167535,0.00217179,0.00281392,0.00364446,0.00471873,0.00610822,0.00790544,0.01023,0.0132368,0.0171258,0.022156,0.0286622,inf	416.572,416.572,416.572,416.572,416.572,416.572,416.572,416.572,416.572,416.572,416.572,416.572,416.572,416.572,416.572,416.572,416.572,416.572,416.572,416.572,416.572,416.572,416.572,416.572,416.572,416.572,416.572,416.572,416.572,416.572
0.0014054	-4537173.08	0,4.83557e-06,1.10901e-05,1.91799e-05,2.96436e-05,4.31778e-05,6.06834e-05,8.33258e-05,0.000112612,0.000150493,0.000199489,0.000262862,0.000344831,0.000450854,0.000587987,0.000765361,0.000994783,0.00129153,0.00167535,0.00217179,0.00281392,0.00364446,0.00471873,0.00610822,0.00790544,0.01023,0.0132368,0.0171258,0.022156,0.0286622,inf	415.777,415.777,415.777,415.777,415.777,415.777,415.777,415.777,415.777,415.777,415.777,415.777,415.777,415.777,415.777,415.777,415.777,415.777,415.777,415.777,415.777,415.777,415.777,415.777,415.777,415.777,415.777,415.777,415.777,415.777
0.00145151	-4536875.57	0,4.83557e-06,1.10901e-05,1.91799e-05,2.96436e-05,4.31778e-05,6.06834e-05,8.33258e-05,0.000112612,0.000150493,0.000199489,0.000262862,0.000344831,0.000450854,0.000587987,0.000765361,0.000994783,0.00129153,0.00167535,0.00217179,0.00281392,0.00364446,0.00471873,0.00610822,0.00790544,0.01023,0.0132368,0.0171258,0.022156,0.0286622,inf	415.026,415.026,415.026,415.026,415.026,415.026,415.026,415.026,415.026,415.026,415.026,415.026,415.026,415.026,415.026,415.026,415.026,415.026,415.026,415.026,415.026,415.026,415.026,415.026,415.026,415.026,415.026,415.026,415.026,415.026
0.00149553	-4536613.28	0,4.83557e-06,1.10901e-05,1.91799e-05,2.96436e-05,4.31778e-05,6.06834e-05,8.33258e-05,0.000112612,0.000150493,0.000199489,0.000262862,0.000344831,0.000450854,0.000587987,0.000765361,0.000994783,0.00129153,0.00167535,0.00217179,0.00281392,0.00364446,0.00471873,0.00610822,0.00790544,0.01023,0.0132368,0.0171258,0.022156,0.0286622,inf	414.317,414.317,414.317,414.317,414.317,414.317,414.317,414.317,414.317,414.317,414.317,414.317,414.317,414.317,414.317,414.317,414.317,414.317,414.317,414.317,414.317,414.317,414.317,414.317,414.317,414.317,414.317,414.317,414.317,414.317
0.00153758	-4536381.12	0,4.83557e-06,1.10901e-05,1.91799e-05,2.96436e-05,4.31778e-05,6.06834e-05,8.33258e-05,0.000112612,0.000150493,0.000199489,0.000262862,0.000344831,0.000450854,0.000587987,0.000765361,0.000994783,0.00129153,0.00167535,0.00217179,0.00281392,0.00364446,0.00471873,0.00610822,0.00790544,0.01023,0.0132368,0.0171258,0.022156,0.0286622,inf	413.649,413.649,413.649,413.649,413.649,413.649,413.649,413.649,413.649,413.649,413.649,413.649,413.649,413.649,413.649,413.649,413.649,413.649,413.649,413.649,413.649,413.649,413.649,413.649,413.649,413.649,413.649,413.649,413.649,413.649
0.00157777	-4536174.87	0,4.83557e-06,1.10901e-05,1.91799e-05,2.96436e-05,4.31778e-05,6.06834e-05,8.33258e-05,0.000112612,0.000150493,0.000199489,0.000262862,0.000344831,0.000450854,0.000587987,0.000765361,0.000994783,0.00129153,0.00167535,0.00217179,0.00281392,0.00364446,0.00471873,0.00610822,0.00790544,0.01023,0.0132368,0.0171258,0.022156,0.0286622,inf	413.018,413.018,413.018,413.018,413.018,413.018,413.018,413.018,413.018,413.018,413.018,413.018,413.018,413.018,413.018,413.018,413.018,413.018,413.018,413.018,413.018,413.018,413.018,413.018,413.018,413.018,413.018,413.018,413.018,413.018
0.00161623	-4535991.02	0,4.83557e-06,1.10901e-05,1.91799e-05,2.96436e-05,4.31778e-05,6.06834e-05,8.33258e-05,0.000112612,0.000150493,0.000199489,0.000262862,0.000344831,0.000450854,0.000587987,0.000765361,0.000994783,0.00129153,0.00167535,0.00217179,0.00281392,0.00364446,0.00471873,0.00610822,0.00790544,0.01023,0.0132368,0.0171258,0.022156,0.0286622,inf	412.422,412.422,412.422,412.422,412.422,412.422,412.422,412.422,412.422,412.422,412.422,412.422,412.422,412.422,412.422,412.422,412.422,412.422,412.422,412.422,412.422,412.422,412.422,412.422,412.422,412.422,412.422,412.422,412.422,412.422
0.00165303	-4535826.62	0,4.83557e-06,1.10901e-05,1.91799e-05,2.96436e-05,4.31778e-05,6.06834e-05,8.33258e-05,0.000112612,0.000150493,0.000199489,0.000262862,0.000344831,0.000450854,0.000587987,0.000765361,0.000994783,0.00129153,0.00167535,0.00217179,0.00281392,0.00364446,0.00471873,0.00610822,0.00790544,0.01023,0.0132368,0.0171258,0.022156,0.0286622,inf	411.859,411.859,411.859,411.859,411.859,411.859,411.859,411.859,411.859,411.859,411.859,411.859,411.859,411.859,411.859,411.859,411.859,411.859,411.859,411.859,411.859,411.859,411.859,411.859,411.859,411.859,411.859,411.859,411.859,411.859
0.00168827	-4535679.21	0,4.83557e-06,1.10901e-05,1.91799e-05,2.96436e-05,4.31778e-05,6.06834e-05,8.33258e-05,0.000112612,0.000150493,0.000199489,0.000262862,0.000344831,0.000450854,0.000587987,0.000765361,0.000994783,0.00129153,0.00167535,0.00217179,0.00281392,0.00364446,0.00471873,0.00610822,0.00790544,0.01023,0.0132368,0.0171258,0.022156,0.0286622,inf	411.327,411.327,411.327,411.327,411.327,411.327,411.327,411.327,411.327,411.327,411.327,411.327,411.327,411.327,411.327,411.327,411.327,411.327,411.327,411.327,411.327,411.327,411.327,411.327,411.327,411.327,411.327,411.327,411.327,411.327
0.00172205	-4535546.67	0,4.83557e-06,1.10901e-05,1.91799e-05,2.96436e-05,4.31778e-05,6.06834e-05,8.33258e-05,0.000112612,0.000150493,0.000199489,0.000262862,0.000344831,0.000450854,0.000587987,0.000765361,0.000994783,0.00129153,0.00167535,0.00217179,0.00281392,0.00364446,0.00471873,0.00610822,0.00790544,0.01023,0.0132368,0.0171258,0.022156,0.0286622,inf	410.822,410.822,410.822,410.822,410.822,410.822,410.822,410.822,410.822,410.822,410.822,410.822,410.822,410.822,410.822,410.822,410.822,410.822,410.822,410.822,410.822,410.822,410.822,410.822,410.822,410.822,410.822,410.822,410.822,410.822
