0.000708341	-8511726.88	0,2.63722e-06,6.05998e-06,1.05023e-05,1.62678e-05,2.37506e-05,3.34623e-05,4.60668e-05,6.24257e-05,8.36574e-05,0.000111213,0.000146977,0.000193394,0.000253636,0.000331823,0.000433299,0.000565002,0.000735933,0.00095778,0.00124571,0.0016194,0.0021044,0.00273386,0.00355083,0.00461113,0.00598727,0.00777331,0.0100913,0.0130998,0.0170045,0.0220722,0.0286494,inf	705.231,705.231,594.177,449.769,385.442,365.975,356.925,354.18,353.004,350.621,347.446,345.354,345.32,346.478,348.098,351.611,358.395,368.971,383.373,399.81,415.026,426.224,430.969,429.577,424.965,418.724,413.154,409.036,409.036,409.149,409.149,409.149
0.000791744	-8507702.70	0,2.63722e-06,6.05998e-06,1.05023e-05,1.62678e-05,2.37506e-05,3.34623e-05,4.60668e-05,6.24257e-05,8.36574e-05,0.000111213,0.000146977,0.000193394,0.000253636,0.000331823,0.000433299,0.000565002,0.000735933,0.00095778,0.00124571,0.0016194,0.0021044,0.00273386,0.00355083,0.00461113,0.00598727,0.00777331,0.0100913,0.0130998,0.0170045,0.0220722,0.0286494,inf	903.362,903.362,738.511,475.478,381.511,358.59,349.359,348.905,348.957,345.142,338.888,334.112,332.576,332.428,332.339,335.027,342.805,356.489,376.225,399.284,420.937,437.459,444.97,443.387,436.649,426.766,417.74,411.357,411.357,411.457,411.457,411.457
0.00086969	-8504813.74	0,2.63722e-06,6.05998e-06,1.05023e-05,1.62678e-05,2.37506e-05,3.34623e-05,4.60668e-05,6.24257e-05,8.36574e-05,0.000111213,0.000146977,0.000193394,0.000253636,0.000331823,0.000433299,0.000565002,0.000735933,0.00095778,0.00124571,0.0016194,0.0021044,0.00273386,0.00355083,0.00461113,0.00598727,0.00777331,0.0100913,0.0130998,0.0170045,0.0220722,0.0286494,inf	981.674,981.674,817.408,471.917,368.889,349.721,344.584,349.176,352.311,348.496,340.405,334.034,331.704,330.425,328.383,329.537,336.9,351.455,373.388,399.288,423.646,442.627,451.647,450.237,442.555,430.506,419.315,411.796,411.796,411.309,411.309,411.309
0.000942674	-8502559.07	0,2.63722e-06,6.05998e-06,1.05023e-05,1.62678e-05,2.37506e-05,3.34623e-05,4.60668e-05,6.24257e-05,8.36574e-05,0.000111213,0.000146977,0.000193394,0.000253636,0.000331823,0.000433299,0.000565002,0.000735933,0.00095778,0.00124571,0.0016194,0.0021044,0.00273386,0.00355083,0.00461113,0.00598727,0.00777331,0.0100913,0.0130998,0.0170045,0.0220722,0.0286494,inf	994.879,994.879,855.177,453.319,351.224,338.012,338.158,348.503,355.343,352.301,343.321,336.379,334.108,332.252,328.608,328.336,334.988,349.641,372.47,399.493,424.758,444.683,454.405,453.199,445.116,431.745,419.185,411.205,411.205,409.462,409.462,409.462
0.00101123	-8500733.53	0,2.63722e-06,6.05998e-06,1.05023e-05,1.62678e-05,2.37506e-05,3.34623e-05,4.60668e-05,6.24257e-05,8.36574e-05,0.000111213,0.000146977,0.000193394,0.000253636,0.000331823,0.000433299,0.000565002,0.000735933,0.00095778,0.00124571,0.0016194,0.0021044,0.00273386,0.00355083,0.00461113,0.00598727,0.00777331,0.0100913,0.0130998,0.0170045,0.0220722,0.0286494,inf	984.312,984.312,874.104,430.502,333.265,325.882,331.016,346.724,357.091,354.99,345.637,338.816,337.231,335.272,330.431,329,334.957,349.436,372.56,399.852,425.103,445.141,455.052,453.977,445.73,431.535,418.101,410.067,410.067,406.446,406.446,406.446
0.00107584	-8499223.53	0,2.63722e-06,6.05998e-06,1.05023e-05,1.62678e-05,2.37506e-05,3.34623e-05,4.60668e-05,6.24257e-05,8.36574e-05,0.000111213,0.000146977,0.000193394,0.000253636,0.000331823,0.000433299,0.000565002,0.000735933,0.00095778,0.00124571,0.0016194,0.0021044,0.00273386,0.00355083,0.00461113,0.00598727,0.00777331,0.0100913,0.0130998,0.0170045,0.0220722,0.0286494,inf	968.221,968.221,885.644,408.371,317.255,314.907,324.292,344.611,357.958,356.628,347.104,340.805,340.295,338.557,332.847,330.512,335.871,350.091,373.217,400.332,425.089,444.776,454.558,453.522,445.211,430.49,416.5,408.656,408.656,402.624,402.624,402.624
0.00113686	-8497956.05	0,2.63722e-06,6.05998e-06,1.05023e-05,1.62678e-05,2.37506e-05,3.34623e-05,4.60668e-05,6.24257e-05,8.36574e-05,0.000111213,0.000146977,0.000193394,0.000253636,0.000331823,0.000433299,0.000565002,0.000735933,0.00095778,0.00124571,0.0016194,0.0021044,0.00273386,0.00355083,0.00461113,0.00598727,0.00777331,0.0100913,0.0130998,0.0170045,0.0220722,0.0286494,inf	952.694,952.694,894.318,388.498,303.812,305.68,318.592,342.74,358.442,357.566,347.894,342.322,343.097,341.773,335.431,332.399,337.264,351.213,374.196,400.899,424.91,443.996,453.454,452.375,444.035,428.977,414.634,407.125,407.125,398.242,398.242,398.242
0.00119464	-8496880.13	0,2.63722e-06,6.05998e-06,1.05023e-05,1.62678e-05,2.37506e-05,3.34623e-05,4.60668e-05,6.24257e-05,8.36574e-05,0.000111213,0.000146977,0.000193394,0.000253636,0.000331823,0.000433299,0.000565002,0.000735933,0.00095778,0.00124571,0.0016194,0.0021044,0.00273386,0.00355083,0.00461113,0.00598727,0.00777331,0.0100913,0.0130998,0.0170045,0.0220722,0.0286494,inf	938.974,938.974,901.503,371.057,292.819,298.248,314.093,341.412,358.881,358.114,348.23,343.472,345.622,344.811,337.998,334.423,338.885,352.58,375.348,401.516,424.662,443.015,452.036,450.851,442.488,427.214,412.654,405.562,405.562,393.471,393.471,393.471
0.00124944	-8495958.48	0,2.63722e-06,6.05998e-06,1.05023e-05,1.62678e-05,2.37506e-05,3.34623e-05,4.60668e-05,6.24257e-05,8.36574e-05,0.000111213,0.000146977,0.000193394,0.000253636,0.000331823,0.000433299,0.000565002,0.000735933,0.00095778,0.00124571,0.0016194,0.0021044,0.00273386,0.00355083,0.00461113,0.00598727,0.00777331,0.0100913,0.0130998,0.0170045,0.0220722,0.0286494,inf	926.893,926.893,907.412,355.745,283.908,292.421,310.768,340.731,359.468,358.479,348.288,344.367,347.91,347.645,340.467,336.461,340.593,354.059,376.581,402.157,424.39,441.951,450.473,449.136,440.745,425.334,410.647,404.016,404.016,388.427,388.427,388.427
0.0013015	-8495162.91	0,2.63722e-06,6.05998e-06,1.05023e-05,1.62678e-05,2.37506e-05,3.34623e-05,4.60668e-05,6.24257e-05,8.36574e-05,0.000111213,0.000146977,0.000193394,0.000253636,0.000331823,0.000433299,0.000565002,0.000735933,0.00095778,0.00124571,0.0016194,0.0021044,0.00273386,0.00355083,0.00461113,0.00598727,0.00777331,0.0100913,0.0130998,0.0170045,0.0220722,0.0286494,inf	916.123,916.123,911.955,342.195,276.685,287.945,308.486,340.68,360.282,358.787,348.199,345.103,350.012,350.286,342.807,338.448,342.308,355.573,377.838,402.802,424.115,440.867,448.861,447.34,438.914,423.42,408.664,402.515,402.515,383.193,383.193,383.193
0.00135103	-8494471.57	0,2.63722e-06,6.05998e-06,1.05023e-05,1.62678e-05,2.37506e-05,3.34623e-05,4.60668e-05,6.24257e-05,8.36574e-05,0.000111213,0.000146977,0.000193394,0.000253636,0.000331823,0.000433299,0.000565002,0.000735933,0.00095778,0.00124571,0.0016194,0.0021044,0.00273386,0.00355083,0.00461113,0.00598727,0.00777331,0.0100913,0.0130998,0.0170045,0.0220722,0.0286494,inf	906.48,906.48,914.999,330.059,270.809,284.558,307.093,341.209,361.338,359.105,348.042,345.748,351.972,352.752,345.009,340.353,343.985,357.073,379.083,403.436,423.849,439.799,447.256,445.531,437.06,421.521,406.736,401.073,401.073,377.824,377.824,377.824
0.00139821	-8493867.31	0,2.63722e-06,6.05998e-06,1.05023e-05,1.62678e-05,2.37506e-05,3.34623e-05,4.60668e-05,6.24257e-05,8.36574e-05,0.000111213,0.000146977,0.000193394,0.000253636,0.000331823,0.000433299,0.000565002,0.000735933,0.00095778,0.00124571,0.0016194,0.0021044,0.00273386,0.00355083,0.00461113,0.00598727,0.00777331,0.0100913,0.0130998,0.0170045,0.0220722,0.0286494,inf	897.847,897.847,916.561,319.084,265.992,282.046,306.418,342.214,362.613,359.462,347.869,346.349,353.829,355.067,347.075,342.159,345.597,358.533,380.295,404.049,423.593,438.766,445.69,443.748,435.225,419.668,404.879,399.697,399.697,372.36,372.36,372.36
0.0014432	-8493336.41	0,2.63722e-06,6.05998e-06,1.05023e-05,1.62678e-05,2.37506e-05,3.34623e-05,4.60668e-05,6.24257e-05,8.36574e-05,0.000111213,0.000146977,0.000193394,0.000253636,0.000331823,0.000433299,0.000565002,0.000735933,0.00095778,0.00124571,0.0016194,0.0021044,0.00273386,0.00355083,0.00461113,0.00598727,0.00777331,0.0100913,0.0130998,0.0170045,0.0220722,0.0286494,inf	890.278,890.278,916.726,309.061,262.004,280.227,306.326,343.613,364.08,359.868,347.709,346.937,355.607,357.249,349.013,343.863,347.131,359.935,381.46,404.637,423.351,437.776,444.18,442.015,433.434,417.877,403.101,398.391,398.391,366.828,366.828,366.828
0.00148615	-8492867.77	0,2.63722e-06,6.05998e-06,1.05023e-05,1.62678e-05,2.37506e-05,3.34623e-05,4.60668e-05,6.24257e-05,8.36574e-05,0.000111213,0.000146977,0.000193394,0.000253636,0.000331823,0.000433299,0.000565002,0.000735933,0.00095778,0.00124571,0.0016194,0.0021044,0.00273386,0.00355083,0.00461113,0.00598727,0.00777331,0.0100913,0.0130998,0.0170045,0.0220722,0.0286494,inf	883.643,883.643,915.534,299.801,258.672,278.951,306.695,345.326,365.697,360.323,347.58,347.534,357.328,359.316,350.833,345.464,348.583,361.271,382.573,405.196,423.121,436.833,442.735,440.345,431.703,416.16,401.406,397.153,397.153,361.246,361.246,361.246
0.00152718	-8492452.34	0,2.63722e-06,6.05998e-06,1.05023e-05,1.62678e-05,2.37506e-05,3.34623e-05,4.60668e-05,6.24257e-05,8.36574e-05,0.000111213,0.000146977,0.000193394,0.000253636,0.000331823,0.000433299,0.000565002,0.000735933,0.00095778,0.00124571,0.0016194,0.0021044,0.00273386,0.00355083,0.00461113,0.00598727,0.00777331,0.0100913,0.0130998,0.0170045,0.0220722,0.0286494,inf	878.083,878.083,913.177,291.234,255.881,278.104,307.428,347.276,367.426,360.814,347.486,348.148,359.005,361.283,352.543,346.966,349.95,362.538,383.63,405.725,422.903,435.939,441.358,438.744,430.039,414.521,399.794,395.982,395.982,355.626,355.626,355.626
0.00156643	-8492082.67	0,2.63722e-06,6.05998e-06,1.05023e-05,1.62678e-05,2.37506e-05,3.34623e-05,4.60668e-05,6.24257e-05,8.36574e-05,0.000111213,0.000146977,0.000193394,0.000253636,0.000331823,0.000433299,0.000565002,0.000735933,0.00095778,0.00124571,0.0016194,0.0021044,0.00273386,0.00355083,0.00461113,0.00598727,0.00777331,0.0100913,0.0130998,0.0170045,0.0220722,0.0286494,inf	873.505,873.505,909.805,283.255,253.511,277.586,308.443,349.402,369.235,361.333,347.429,348.79,360.648,363.16,354.152,348.372,351.235,363.735,384.629,406.224,422.696,435.092,440.049,437.216,428.445,412.96,398.264,394.877,394.877,349.976,349.976,349.976
0.001604	-8491752.54	0,2.63722e-06,6.05998e-06,1.05023e-05,1.62678e-05,2.37506e-05,3.34623e-05,4.60668e-05,6.24257e-05,8.36574e-05,0.000111213,0.000146977,0.000193394,0.000253636,0.000331823,0.000433299,0.000565002,0.000735933,0.00095778,0.00124571,0.0016194,0.0021044,0.00273386,0.00355083,0.00461113,0.00598727,0.00777331,0.0100913,0.0130998,0.0170045,0.0220722,0.0286494,inf	869.963,869.963,905.583,275.791,251.502,277.32,309.66,351.651,371.088,361.868,347.409,349.462,362.265,364.959,355.669,349.69,352.439,364.864,385.574,406.693,422.5,434.291,438.807,435.759,426.925,411.478,396.812,393.833,393.833,344.3,344.3,344.3
0.00163998	-8491456.79	0,2.63722e-06,6.05998e-06,1.05023e-05,1.62678e-05,2.37506e-05,3.34623e-05,4.60668e-05,6.24257e-05,8.36574e-05,0.000111213,0.000146977,0.000193394,0.000253636,0.000331823,0.000433299,0.000565002,0.000735933,0.00095778,0.00124571,0.0016194,0.0021044,0.00273386,0.00355083,0.00461113,0.00598727,0.00777331,0.0100913,0.0130998,0.0170045,0.0220722,0.0286494,inf	867.31,867.31,900.642,268.803,249.779,277.265,311.032,353.991,372.961,362.41,347.424,350.162,363.859,366.686,357.101,350.923,353.568,365.927,386.464,407.133,422.312,433.533,437.63,434.373,425.476,410.073,395.436,392.848,392.848,338.6,338.6,338.6
0.00167448	-8491191.05	0,2.63722e-06,6.05998e-06,1.05023e-05,1.62678e-05,2.37506e-05,3.34623e-05,4.60668e-05,6.24257e-05,8.36574e-05,0.000111213,0.000146977,0.000193394,0.000253636,0.000331823,0.000433299,0.000565002,0.000735933,0.00095778,0.00124571,0.0016194,0.0021044,0.00273386,0.00355083,0.00461113,0.00598727,0.00777331,0.0100913,0.0130998,0.0170045,0.0220722,0.0286494,inf	865.498,865.498,895.141,262.247,248.3,277.36,312.522,356.378,374.835,362.95,347.469,350.89,365.435,368.347,358.455,352.079,354.624,366.926,387.303,407.545,422.134,432.816,436.515,433.056,424.097,408.742,394.132,391.92,391.92,332.877,332.877,332.877
0.00170756	-8490951.60	0,2.63722e-06,6.05998e-06,1.05023e-05,1.62678e-05,2.37506e-05,3.34623e-05,4.60668e-05,6.24257e-05,8.36574e-05,0.000111213,0.000146977,0.000193394,0.000253636,0.000331823,0.000433299,0.000565002,0.000735933,0.00095778,0.00124571,0.0016194,0.0021044,0.00273386,0.00355083,0.00461113,0.00598727,0.00777331,0.0100913,0.0130998,0.0170045,0.0220722,0.0286494,inf	864.475,864.475,889.168,256.097,247.046,277.584,314.099,358.79,376.694,363.478,347.541,351.646,366.994,369.949,359.737,353.162,355.613,367.866,388.093,407.931,421.963,432.137,435.458,431.803,422.786,407.482,392.897,391.046,391.046,327.127,327.127,327.127
