time_index	left_time_boundary	right_time_boundary	lambda
0	0	8.34368e-05	531.673
1	8.34368e-05	0.000197605	531.673
2	0.000197605	0.000353822	218.313
3	0.000353822	0.000567577	329.819
4	0.000567577	0.000860061	365.653
5	0.000860061	0.00126027	386.054
6	0.00126027	0.00180788	402.294
7	0.00180788	0.00255719	414.139
8	0.00255719	0.00358248	421.397
9	0.00358248	0.0049854	382.403
10	0.0049854	0.00690503	348.919
11	0.00690503	0.0095317	333.674
12	0.0095317	0.0131258	400.27
13	0.0131258	0.0180437	62281.8
14	0.0180437	0.0247729	62281.8
15	0.0247729	inf	62281.8
