LogLikelihood = -658735.8667574794963

y0 0.23907280826672250296
y0_prime 0
y1 0.29728536606415095767
y1_prime 0
y2 2.1009486426350330035
y2_prime 0
y3 27.460531980098508598
y3_prime 0
rho 0.00051564411813585320308
theta 0.0018098642521809792279
