time_index	left_time_boundary	right_time_boundary	lambda
0	0	2.6848e-06	0.396233
1	2.6848e-06	6.16931e-06	0.396233
2	6.16931e-06	1.06917e-05	0.396235
3	1.06917e-05	1.65612e-05	101.741
4	1.65612e-05	2.41791e-05	237.584
5	2.41791e-05	3.4066e-05	203.403
6	3.4066e-05	4.68979e-05	89.8736
7	4.68979e-05	6.3552e-05	63.783
8	6.3552e-05	8.51667e-05	206.044
9	8.51667e-05	0.00011322	321.835
10	0.00011322	0.000149629	292.864
11	0.000149629	0.000196883	280.5
12	0.000196883	0.000258212	274.41
13	0.000258212	0.00033781	289.026
14	0.00033781	0.000441117	282.362
15	0.000441117	0.000575195	280.179
16	0.000575195	0.000749211	288.689
17	0.000749211	0.00097506	297.05
18	0.00097506	0.00126818	315.157
19	0.00126818	0.00164861	348.427
20	0.00164861	0.00214236	391.837
21	0.00214236	0.00278319	439.051
22	0.00278319	0.00361489	496.283
23	0.00361489	0.00469432	537.138
24	0.00469432	0.00609529	528.853
25	0.00609529	0.00791355	488.465
26	0.00791355	0.0102734	406.809
27	0.0102734	0.0133362	311.218
28	0.0133362	0.0173113	311.218
29	0.0173113	0.0224704	249.107
30	0.0224704	0.0291662	249.107
31	0.0291662	inf	249.107
