time_index	left_time_boundary	right_time_boundary	lambda
0	0	4.14239e-06	0.394375
1	4.14239e-06	1.133e-05	0.394375
2	1.133e-05	2.38016e-05	248.296
3	2.38016e-05	4.54416e-05	125.152
4	4.54416e-05	8.29901e-05	198.454
5	8.29901e-05	0.000148142	256.759
6	0.000148142	0.00026119	281.255
7	0.00026119	0.000457345	279.819
8	0.000457345	0.000797702	298.95
9	0.000797702	0.00138827	330.304
10	0.00138827	0.00241299	354.606
11	0.00241299	0.00419103	532.981
12	0.00419103	0.00727618	579.45
13	0.00727618	0.0126294	213.97
14	0.0126294	0.0219179	213.97
15	0.0219179	inf	213.97
