time_index	left_time_boundary	right_time_boundary	lambda
0	0	9.73832e-07	12893.9
1	9.73832e-07	2.25661e-06	12893.9
2	2.25661e-06	3.94635e-06	6076.04
3	3.94635e-06	6.17215e-06	789.187
4	6.17215e-06	9.10409e-06	3.38603
5	9.10409e-06	1.29662e-05	110.704
6	1.29662e-05	1.80535e-05	0.723941
7	1.80535e-05	2.47548e-05	0.723941
8	2.47548e-05	3.35821e-05	0.723941
9	3.35821e-05	4.52098e-05	0.723941
10	4.52098e-05	6.05263e-05	7.28177
11	6.05263e-05	8.07021e-05	303.419
12	8.07021e-05	0.000107279	888.134
13	0.000107279	0.000142286	1145.58
14	0.000142286	0.0001884	668.758
15	0.0001884	0.000249144	175.771
16	0.000249144	0.000329158	306.569
17	0.000329158	0.000434557	840.604
18	0.000434557	0.000573393	544.684
19	0.000573393	0.000756276	184.047
20	0.000756276	0.000997177	183.587
21	0.000997177	0.0013145	365.257
22	0.0013145	0.0017325	750.844
23	0.0017325	0.00228311	1155.48
24	0.00228311	0.0030084	1238.04
25	0.0030084	0.00396378	913.132
26	0.00396378	0.00522226	548.637
27	0.00522226	0.00687999	808.887
28	0.00687999	0.00906363	808.887
29	0.00906363	0.01194	21.4382
30	0.01194	0.015729	21.4382
31	0.015729	inf	21.4382
