LogLikelihood = -42763.018721297201409

y0 0.99050181471739218164
y0_prime 0
y1 1.0632563000793648911
y1_prime 0
y2 0.81091370331570922225
y2_prime 0
y3 2.220882047237109358
y3_prime 0
rho 0.00016583616679703190458
rho.alpha 0.26387744617139669012
r_ii 0.99972254330227361407
theta 0.00051350733623402712667
