time_index	left_time_boundary	right_time_boundary	lambda
0	0	4.08559e-06	1235.82
1	4.08559e-06	1.11747e-05	1235.82
2	1.11747e-05	2.34753e-05	179.64
3	2.34753e-05	4.48186e-05	962.597
4	4.48186e-05	8.18522e-05	782.157
5	8.18522e-05	0.000146111	524.442
6	0.000146111	0.000257609	310.884
7	0.000257609	0.000451075	429.969
8	0.000451075	0.000786765	377.683
9	0.000786765	0.00136924	446.697
10	0.00136924	0.00237991	486.718
11	0.00237991	0.00413357	370.54
12	0.00413357	0.00717642	427.457
13	0.00717642	0.0124562	275.597
14	0.0124562	0.0216174	275.597
15	0.0216174	inf	275.597
