0.000575238	-1807055.19	0,2.22197e-05,5.62142e-05,0.000108223,0.000187793,0.00030953,0.000495777,0.000780721,0.00121667,0.00188363,0.00290403,0.00446517,0.00685359,0.0105077,0.0160982,0.0246513,inf	593.571,593.571,452.82,354.703,369.929,395.677,404.63,413.474,416.245,413.322,419.08,396.251,377.046,426.65,426.65,426.65
0.000526933	-1806724.27	0,2.22197e-05,5.62142e-05,0.000108223,0.000187793,0.00030953,0.000495777,0.000780721,0.00121667,0.00188363,0.00290403,0.00446517,0.00685359,0.0105077,0.0160982,0.0246513,inf	717.342,717.342,488.048,325.786,350.46,392.596,403.827,418.379,424.448,419.912,438.118,393.979,359.332,458.695,458.695,458.695
0.000485002	-1806461.84	0,2.22197e-05,5.62142e-05,0.000108223,0.000187793,0.00030953,0.000495777,0.000780721,0.00121667,0.00188363,0.00290403,0.00446517,0.00685359,0.0105077,0.0160982,0.0246513,inf	795.943,795.943,519.647,308.87,338.603,391.906,401.576,419.446,428.334,421.219,456.213,391.57,344.578,493.719,493.719,493.719
0.000449311	-1806254.99	0,2.22197e-05,5.62142e-05,0.000108223,0.000187793,0.00030953,0.000495777,0.000780721,0.00121667,0.00188363,0.00290403,0.00446517,0.00685359,0.0105077,0.0160982,0.0246513,inf	847.277,847.277,550.643,299.721,331.531,393.169,399.455,419.294,430.706,419.181,473.755,389.167,332.499,531.533,531.533,531.533
0.000419339	-1806096.49	0,2.22197e-05,5.62142e-05,0.000108223,0.000187793,0.00030953,0.000495777,0.000780721,0.00121667,0.00188363,0.00290403,0.00446517,0.00685359,0.0105077,0.0160982,0.0246513,inf	881.429,881.429,580.708,295.338,327.147,395.469,397.691,418.806,432.844,414.895,490.66,386.717,322.702,571.781,571.781,571.781
0.000394441	-1805979.08	0,2.22197e-05,5.62142e-05,0.000108223,0.000187793,0.00030953,0.000495777,0.000780721,0.00121667,0.00188363,0.00290403,0.00446517,0.00685359,0.0105077,0.0160982,0.0246513,inf	904.413,904.413,609.003,293.889,324.2,398.151,396.213,418.216,435.323,409.086,506.709,384.164,314.796,614.019,614.019,614.019
0.000373949	-1805895.27	0,2.22197e-05,5.62142e-05,0.000108223,0.000187793,0.00030953,0.000495777,0.000780721,0.00121667,0.00188363,0.00290403,0.00446517,0.00685359,0.0105077,0.0160982,0.0246513,inf	919.988,919.988,634.871,294.249,322.003,400.842,394.93,417.526,438.361,402.29,521.694,381.503,308.428,657.776,657.776,657.776
0.000357218	-1805837.88	0,2.22197e-05,5.62142e-05,0.000108223,0.000187793,0.00030953,0.000495777,0.000780721,0.00121667,0.00188363,0.00290403,0.00446517,0.00685359,0.0105077,0.0160982,0.0246513,inf	930.6,930.6,657.897,295.719,320.191,403.37,393.792,416.671,441.987,394.918,535.476,378.772,303.278,702.604,702.604,702.604
0.000343651	-1805800.49	0,2.22197e-05,5.62142e-05,0.000108223,0.000187793,0.00030953,0.000495777,0.000780721,0.00121667,0.00188363,0.00290403,0.00446517,0.00685359,0.0105077,0.0160982,0.0246513,inf	937.88,937.88,677.929,297.839,318.571,405.673,392.782,415.587,446.137,387.281,548.001,376.03,299.07,748.12,748.12,748.12
0.000332716	-1805777.73	0,2.22197e-05,5.62142e-05,0.000108223,0.000187793,0.00030953,0.000495777,0.000780721,0.00121667,0.00188363,0.00290403,0.00446517,0.00685359,0.0105077,0.0160982,0.0246513,inf	942.9,942.9,695.005,300.302,317.048,407.745,391.904,414.237,450.698,379.608,559.29,373.339,295.569,794.009,794.009,794.009
0.000323946	-1805765.34	0,2.22197e-05,5.62142e-05,0.000108223,0.000187793,0.00030953,0.000495777,0.000780721,0.00121667,0.00188363,0.00290403,0.00446517,0.00685359,0.0105077,0.0160982,0.0246513,inf	946.423,946.423,709.289,302.903,315.571,409.605,391.172,412.617,455.55,372.06,569.414,370.751,292.586,840.032,840.032,840.032
0.000316941	-1805760.12	0,2.22197e-05,5.62142e-05,0.000108223,0.000187793,0.00030953,0.000495777,0.000780721,0.00121667,0.00188363,0.00290403,0.00446517,0.00685359,0.0105077,0.0160982,0.0246513,inf	948.94,948.94,721.036,305.515,314.119,411.276,390.598,410.743,460.577,364.744,578.474,368.301,289.971,886.012,886.012,886.012
0.000311368	-1805759.69	0,2.22197e-05,5.62142e-05,0.000108223,0.000187793,0.00030953,0.000495777,0.000780721,0.00121667,0.00188363,0.00290403,0.00446517,0.00685359,0.0105077,0.0160982,0.0246513,inf	950.8,950.8,730.556,308.049,312.685,412.78,390.19,408.651,465.679,357.729,586.588,366.013,287.615,931.84,931.84,931.84
0.000306948	-1805762.40	0,2.22197e-05,5.62142e-05,0.000108223,0.000187793,0.00030953,0.000495777,0.000780721,0.00121667,0.00188363,0.00290403,0.00446517,0.00685359,0.0105077,0.0160982,0.0246513,inf	952.237,952.237,738.142,310.455,311.267,414.133,389.952,406.384,470.776,351.052,593.871,363.896,285.438,977.47,977.47,977.47
0.000303454	-1805767.10	0,2.22197e-05,5.62142e-05,0.000108223,0.000187793,0.00030953,0.000495777,0.000780721,0.00121667,0.00188363,0.00290403,0.00446517,0.00685359,0.0105077,0.0160982,0.0246513,inf	953.403,953.403,744.111,312.708,309.869,415.348,389.878,403.987,475.804,344.728,600.43,361.95,283.382,1022.94,1022.94,1022.94
0.000300699	-1805773.01	0,2.22197e-05,5.62142e-05,0.000108223,0.000187793,0.00030953,0.000495777,0.000780721,0.00121667,0.00188363,0.00290403,0.00446517,0.00685359,0.0105077,0.0160982,0.0246513,inf	954.394,954.394,748.723,314.8,308.496,416.433,389.96,401.502,480.718,338.759,606.363,360.17,281.412,1068.39,1068.39,1068.39
0.000298543	-1805779.63	0,2.22197e-05,5.62142e-05,0.000108223,0.000187793,0.00030953,0.000495777,0.000780721,0.00121667,0.00188363,0.00290403,0.00446517,0.00685359,0.0105077,0.0160982,0.0246513,inf	955.715,955.715,752.582,316.874,307.289,417.562,390.305,399.056,485.56,333.092,611.823,358.571,279.524,1114.11,1114.11,1114.11
0.000296851	-1805786.69	0,2.22197e-05,5.62142e-05,0.000108223,0.000187793,0.00030953,0.000495777,0.000780721,0.00121667,0.00188363,0.00290403,0.00446517,0.00685359,0.0105077,0.0160982,0.0246513,inf	956.461,956.461,755.154,318.647,305.993,418.424,390.667,396.511,490.182,327.762,616.774,357.09,277.662,1160.53,1160.53,1160.53
0.000295531	-1805793.93	0,2.22197e-05,5.62142e-05,0.000108223,0.000187793,0.00030953,0.000495777,0.000780721,0.00121667,0.00188363,0.00290403,0.00446517,0.00685359,0.0105077,0.0160982,0.0246513,inf	957.149,957.149,756.96,320.256,304.718,419.144,391.117,393.956,494.61,322.762,621.301,355.732,275.817,1208.26,1208.26,1208.26
0.000294507	-1805801.29	0,2.22197e-05,5.62142e-05,0.000108223,0.000187793,0.00030953,0.000495777,0.000780721,0.00121667,0.00188363,0.00290403,0.00446517,0.00685359,0.0105077,0.0160982,0.0246513,inf	957.833,957.833,758.225,321.74,303.494,419.755,391.662,391.427,498.845,318.073,625.46,354.488,273.978,1258.15,1258.15,1258.15
