LogLikelihood = -674704.91112416482065

y0 0.24743124192268478589
y0_prime 0
y1 0.33768885907236728672
y1_prime 0
y2 2.1709822836888257314
y2_prime 0
y3 7.4181482171100343592
y3_prime 0
rho 0.0016816454408959920826
rho.alpha 0.89240142542102440792
r_ii 0.99942497547184927509
theta 0.0018590366230214732789
