LogLikelihood = -287789.08631144923856

y0 0.9012889867517850373
y0_prime 0
y1 0.84197497278361377315
y1_prime 0
y2 0.91295079566200176835
y2_prime 0
y3 1.7513421255565608803
y3_prime 0
rho 0.0016525869002705303751
theta 0.0047208420154939379973
