time_index	left_time_boundary	right_time_boundary	lambda
0	0	3.30977e-05	202.211
1	3.30977e-05	7.83857e-05	202.211
2	7.83857e-05	0.000140354	1.11281
3	0.000140354	0.000225146	436.758
4	0.000225146	0.000341169	562.242
5	0.000341169	0.000499924	238.031
6	0.000499924	0.000717151	1148.22
7	0.000717151	0.00101439	1713.06
8	0.00101439	0.0014211	2125.66
9	0.0014211	0.00197761	3787.83
10	0.00197761	0.00273909	312.414
11	0.00273909	0.00378103	460.244
12	0.00378103	0.00520674	6757.37
13	0.00520674	0.00715755	154377
14	0.00715755	0.00982688	154377
15	0.00982688	inf	154377
