0.000359397	-7908870.54	0,8.92273e-07,2.06762e-06,3.61584e-06,5.65523e-06,8.34162e-06,1.18803e-05,1.65415e-05,2.26816e-05,3.07695e-05,4.14234e-05,5.54572e-05,7.39432e-05,9.82939e-05,0.00013037,0.000172622,0.000228278,0.000301591,0.000398163,0.000525371,0.000692937,0.000913662,0.00120441,0.0015874,0.0020919,0.00275644,0.00363181,0.00478489,0.00630378,0.00830454,0.01094,0.0144116,inf	54.1556,54.1556,106.9,153.289,197.902,237.446,268.656,289.634,301.891,310.292,319.351,330.699,344.982,363.505,388.016,420.984,465.969,527.712,612.549,726.654,867.436,998.155,1048.61,1018.82,965.829,917.996,883.468,861.388,861.388,896.538,896.538,896.538
0.000403998	-7899292.14	0,8.92273e-07,2.06762e-06,3.61584e-06,5.65523e-06,8.34162e-06,1.18803e-05,1.65415e-05,2.26816e-05,3.07695e-05,4.14234e-05,5.54572e-05,7.39432e-05,9.82939e-05,0.00013037,0.000172622,0.000228278,0.000301591,0.000398163,0.000525371,0.000692937,0.000913662,0.00120441,0.0015874,0.0020919,0.00275644,0.00363181,0.00478489,0.00630378,0.00830454,0.01094,0.0144116,inf	9.53728,9.53728,36.6676,74.0522,120.669,168.767,208.377,231.656,238.896,238.533,238.46,241.037,246.978,258.206,277.312,308.016,355.727,427.499,532.951,683.551,884.679,1097.64,1203.36,1171.18,1090.11,1011.04,952.108,915.514,915.514,1010.77,1010.77,1010.77
0.000446811	-7895035.72	0,8.92273e-07,2.06762e-06,3.61584e-06,5.65523e-06,8.34162e-06,1.18803e-05,1.65415e-05,2.26816e-05,3.07695e-05,4.14234e-05,5.54572e-05,7.39432e-05,9.82939e-05,0.00013037,0.000172622,0.000228278,0.000301591,0.000398163,0.000525371,0.000692937,0.000913662,0.00120441,0.0015874,0.0020919,0.00275644,0.00363181,0.00478489,0.00630378,0.00830454,0.01094,0.0144116,inf	2.23592,2.23592,16.7153,47.3455,96.9782,157.415,211.149,241.122,245.319,237.254,229.013,223.464,221.256,224.772,237.049,262.477,307.462,380.152,491.584,655.776,883.895,1143.64,1291.93,1268.14,1174.72,1076.85,1001.63,956.743,956.743,1140.62,1140.62,1140.62
0.000487735	-7892481.36	0,8.92273e-07,2.06762e-06,3.61584e-06,5.65523e-06,8.34162e-06,1.18803e-05,1.65415e-05,2.26816e-05,3.07695e-05,4.14234e-05,5.54572e-05,7.39432e-05,9.82939e-05,0.00013037,0.000172622,0.000228278,0.000301591,0.000398163,0.000525371,0.000692937,0.000913662,0.00120441,0.0015874,0.0020919,0.00275644,0.00363181,0.00478489,0.00630378,0.00830454,0.01094,0.0144116,inf	0.790225,0.790225,7.91347,31.4536,81.0104,152.827,223.554,264.101,268.04,254.384,239.805,227.595,218.484,215.451,221.916,242.714,284.759,356.557,469.509,638.594,878.474,1163.81,1341.53,1328.62,1231.36,1122.93,1037.28,988.916,988.916,1299.03,1299.03,1299.03
0.000527101	-7890631.86	0,8.92273e-07,2.06762e-06,3.61584e-06,5.65523e-06,8.34162e-06,1.18803e-05,1.65415e-05,2.26816e-05,3.07695e-05,4.14234e-05,5.54572e-05,7.39432e-05,9.82939e-05,0.00013037,0.000172622,0.000228278,0.000301591,0.000398163,0.000525371,0.000692937,0.000913662,0.00120441,0.0015874,0.0020919,0.00275644,0.00363181,0.00478489,0.00630378,0.00830454,0.01094,0.0144116,inf	0.790121,0.790121,3.63781,20.286,65.6807,144.139,230.616,283.712,290.313,273.983,255.541,238.549,223.997,215.676,217.502,234.722,274.516,345.313,458.263,628.436,872.516,1171.03,1368.08,1365.44,1268.63,1154.86,1062.92,1014.79,1014.79,1509.87,1509.87,1509.87
0.00056523	-7889137.36	0,8.92273e-07,2.06762e-06,3.61584e-06,5.65523e-06,8.34162e-06,1.18803e-05,1.65415e-05,2.26816e-05,3.07695e-05,4.14234e-05,5.54572e-05,7.39432e-05,9.82939e-05,0.00013037,0.000172622,0.000228278,0.000301591,0.000398163,0.000525371,0.000692937,0.000913662,0.00120441,0.0015874,0.0020919,0.00275644,0.00363181,0.00478489,0.00630378,0.00830454,0.01094,0.0144116,inf	0.790121,0.790121,1.62047,12.6688,51.4007,131.057,229.347,294.658,306.024,289.929,270.274,250.575,232.167,219.82,218.099,232.722,271.024,341.109,453.517,622.941,867.214,1171.52,1380.7,1386.76,1292.44,1176.6,1081.28,1036.27,1036.27,1830.74,1830.74,1830.74
0.000602367	-7887852.58	0,8.92273e-07,2.06762e-06,3.61584e-06,5.65523e-06,8.34162e-06,1.18803e-05,1.65415e-05,2.26816e-05,3.07695e-05,4.14234e-05,5.54572e-05,7.39432e-05,9.82939e-05,0.00013037,0.000172622,0.000228278,0.000301591,0.000398163,0.000525371,0.000692937,0.000913662,0.00120441,0.0015874,0.0020919,0.00275644,0.00363181,0.00478489,0.00630378,0.00830454,0.01094,0.0144116,inf	0.790121,0.790121,0.790353,7.76928,39.3749,116.154,221.677,297.236,314.146,300.421,281.812,261.333,240.596,225.418,221.129,233.994,271.466,341.178,452.859,620.582,862.824,1168.43,1384.75,1397.81,1306.83,1190.95,1094.3,1054.69,1054.69,2475.9,2475.9,2475.9
0.000638691	-7886708.36	0,8.92273e-07,2.06762e-06,3.61584e-06,5.65523e-06,8.34162e-06,1.18803e-05,1.65415e-05,2.26816e-05,3.07695e-05,4.14234e-05,5.54572e-05,7.39432e-05,9.82939e-05,0.00013037,0.000172622,0.000228278,0.000301591,0.000398163,0.000525371,0.000692937,0.000913662,0.00120441,0.0015874,0.0020919,0.00275644,0.00363181,0.00478489,0.00630378,0.00830454,0.01094,0.0144116,inf	0.790121,0.790121,0.790127,4.7542,29.9903,101.778,210.73,293.877,315.966,305.731,289.744,270.025,248.282,231.332,225.325,237.135,274.319,343.955,454.85,620.353,859.298,1163.44,1383.43,1401.95,1314.55,1199.88,1103.36,1071.03,1071.03,5289.79,5289.79,5289.79
0.000638691	-7885667.84	0,8.92273e-07,2.06762e-06,3.61584e-06,5.65523e-06,8.34162e-06,1.18803e-05,1.65415e-05,2.26816e-05,3.07695e-05,4.14234e-05,5.54572e-05,7.39432e-05,9.82939e-05,0.00013037,0.000172622,0.000228278,0.000301591,0.000398163,0.000525371,0.000692937,0.000913662,0.00120441,0.0015874,0.0020919,0.00275644,0.00363181,0.00478489,0.00630378,0.00830454,0.01094,0.0144116,inf	0.790121,0.790121,0.790127,2.92607,22.7585,88.2182,196.799,284,309.846,303.443,291.026,273.348,251.928,234.306,227.375,238.57,275.443,344.355,452.983,613.641,844.154,1139.19,1359.16,1386.46,1306.17,1195.96,1102.51,1080.77,1080.77,117326,117326,117326
