LogLikelihood = -308266.70650669536553

y0 2.930950717870345446e-10
y0_prime 0
y1 0.67521809084904271803
y1_prime 0
y2 1.5792484488943165921
y2_prime 0
y3 1.6817697084231686411
y3_prime 0
rho 9.9999999999999997989e-13
theta 0.00077457693140445824445
