time_index	left_time_boundary	right_time_boundary	lambda
0	0	9.89529e-06	377.091
1	9.89529e-06	2.21348e-05	377.091
2	2.21348e-05	3.72738e-05	490.36
3	3.72738e-05	5.59994e-05	404.318
4	5.59994e-05	7.9161e-05	348.961
5	7.9161e-05	0.00010781	325.19
6	0.00010781	0.000143245	341.591
7	0.000143245	0.000187076	354.718
8	0.000187076	0.000241289	351.592
9	0.000241289	0.000308346	346.617
10	0.000308346	0.000391289	347.248
11	0.000391289	0.000493882	354.254
12	0.000493882	0.000620778	366.573
13	0.000620778	0.000777737	381.068
14	0.000777737	0.00097188	392.192
15	0.00097188	0.00121201	398.305
16	0.00121201	0.00150904	403.827
17	0.00150904	0.00187643	411.927
18	0.00187643	0.00233085	420.28
19	0.00233085	0.00289293	425.561
20	0.00289293	0.00358816	427.409
21	0.00358816	0.0044481	426.032
22	0.0044481	0.00551176	420.975
23	0.00551176	0.0068274	413.132
24	0.0068274	0.00845471	402.945
25	0.00845471	0.0104675	388.075
26	0.0104675	0.0129572	371.73
27	0.0129572	0.0160367	374.205
28	0.0160367	0.0198457	374.205
29	0.0198457	0.0245571	473.09
30	0.0245571	0.0303846	473.09
31	0.0303846	inf	473.09
