0.000714545	-3073364.48	0,4.2579e-05,9.23857e-05,0.000150647,0.000218799,0.000298519,0.000391771,0.000500853,0.000628452,0.000777711,0.000952306,0.00115654,0.00139544,0.00167489,0.00200179,0.00238417,0.00283146,0.00335468,0.00396672,0.00468264,0.0055201,0.00649972,0.00764562,0.00898605,0.010554,0.0123881,0.0145336,0.0170432,0.0199789,0.0234129,0.0274298,0.0321286,inf	361.129,361.129,352.85,346.467,347.673,349.736,352.434,356.786,363.787,373.341,384.149,394.788,404.554,413.075,419.651,423.667,425.079,424.078,421.293,417.645,413.746,410.069,407.044,404.879,403.627,403.52,405.328,410.461,410.461,419.305,419.305,419.305
0.000797362	-3071909.35	0,4.2579e-05,9.23857e-05,0.000150647,0.000218799,0.000298519,0.000391771,0.000500853,0.000628452,0.000777711,0.000952306,0.00115654,0.00139544,0.00167489,0.00200179,0.00238417,0.00283146,0.00335468,0.00396672,0.00468264,0.0055201,0.00649972,0.00764562,0.00898605,0.010554,0.0123881,0.0145336,0.0170432,0.0199789,0.0234129,0.0274298,0.0321286,inf	361.31,361.31,345.761,333.495,334,335.156,336.988,341.562,350.634,363.894,379.101,394.042,407.854,420.173,429.984,436.29,438.832,437.621,433.488,427.857,421.686,415.786,410.936,407.518,405.656,405.879,409.746,419.99,419.99,437.575,437.575,437.575
0.000875303	-3070835.43	0,4.2579e-05,9.23857e-05,0.000150647,0.000218799,0.000298519,0.000391771,0.000500853,0.000628452,0.000777711,0.000952306,0.00115654,0.00139544,0.00167489,0.00200179,0.00238417,0.00283146,0.00335468,0.00396672,0.00468264,0.0055201,0.00649972,0.00764562,0.00898605,0.010554,0.0123881,0.0145336,0.0170432,0.0199789,0.0234129,0.0274298,0.0321286,inf	364.909,364.909,346.232,330.624,331.16,331.274,331.675,335.569,345.309,360.262,377.412,394.076,409.469,423.394,434.739,442.315,445.66,444.523,439.747,433.029,425.513,418.248,412.291,408.16,406.053,406.835,412.823,427.964,427.964,454.104,454.104,454.104
0.000948747	-3069986.28	0,4.2579e-05,9.23857e-05,0.000150647,0.000218799,0.000298519,0.000391771,0.000500853,0.000628452,0.000777711,0.000952306,0.00115654,0.00139544,0.00167489,0.00200179,0.00238417,0.00283146,0.00335468,0.00396672,0.00468264,0.0055201,0.00649972,0.00764562,0.00898605,0.010554,0.0123881,0.0145336,0.0170432,0.0199789,0.0234129,0.0274298,0.0321286,inf	365.933,365.933,347.319,330.561,332.015,331.427,330.486,333.591,343.556,359.356,377.317,394.476,410.247,424.659,436.611,444.839,448.715,447.72,442.644,435.317,426.984,418.864,412.23,407.703,405.559,407.011,415.087,434.845,434.845,469.382,469.382,469.382
0.00101809	-3069292.98	0,4.2579e-05,9.23857e-05,0.000150647,0.000218799,0.000298519,0.000391771,0.000500853,0.000628452,0.000777711,0.000952306,0.00115654,0.00139544,0.00167489,0.00200179,0.00238417,0.00283146,0.00335468,0.00396672,0.00468264,0.0055201,0.00649972,0.00764562,0.00898605,0.010554,0.0123881,0.0145336,0.0170432,0.0199789,0.0234129,0.0274298,0.0321286,inf	364.223,364.223,347.365,330.976,333.995,333.054,331.009,333.451,343.531,359.792,377.999,395.039,410.578,424.89,436.942,445.453,449.662,448.807,443.599,435.93,427.089,418.423,411.375,406.642,404.575,406.745,416.832,440.923,440.923,483.74,483.74,483.74
0.00108375	-3068715.95	0,4.2579e-05,9.23857e-05,0.000150647,0.000218799,0.000298519,0.000391771,0.000500853,0.000628452,0.000777711,0.000952306,0.00115654,0.00139544,0.00167489,0.00200179,0.00238417,0.00283146,0.00335468,0.00396672,0.00468264,0.0055201,0.00649972,0.00764562,0.00898605,0.010554,0.0123881,0.0145336,0.0170432,0.0199789,0.0234129,0.0274298,0.0321286,inf	361.497,361.497,346.853,331.676,336.591,335.501,332.534,334.44,344.599,361.099,379.222,395.793,410.761,424.645,436.501,445.065,449.463,448.718,443.456,435.589,426.423,417.402,410.098,405.269,403.344,406.24,418.247,446.403,446.403,497.434,497.434,497.434
0.00114603	-3068229.19	0,4.2579e-05,9.23857e-05,0.000150647,0.000218799,0.000298519,0.000391771,0.000500853,0.000628452,0.000777711,0.000952306,0.00115654,0.00139544,0.00167489,0.00200179,0.00238417,0.00283146,0.00335468,0.00396672,0.00468264,0.0055201,0.00649972,0.00764562,0.00898605,0.010554,0.0123881,0.0145336,0.0170432,0.0199789,0.0234129,0.0274298,0.0321286,inf	358.439,358.439,345.862,332.375,339.336,338.224,334.497,335.998,346.247,362.864,380.716,396.632,410.857,424.14,435.641,444.125,448.617,447.955,442.678,434.697,425.318,416.061,408.604,403.744,401.992,405.605,419.435,451.416,451.416,510.657,510.657,510.657
0.0012052	-3067814.31	0,4.2579e-05,9.23857e-05,0.000150647,0.000218799,0.000298519,0.000391771,0.000500853,0.000628452,0.000777711,0.000952306,0.00115654,0.00139544,0.00167489,0.00200179,0.00238417,0.00283146,0.00335468,0.00396672,0.00468264,0.0055201,0.00649972,0.00764562,0.00898605,0.010554,0.0123881,0.0145336,0.0170432,0.0199789,0.0234129,0.0274298,0.0321286,inf	355.529,355.529,344.587,333.023,342.056,340.986,336.625,337.839,348.199,364.862,382.335,397.5,410.896,423.495,434.561,442.889,447.414,446.811,441.54,433.494,423.973,414.557,407.008,402.154,400.591,404.903,420.463,456.054,456.054,523.559,523.559,523.559
0.00126151	-3067457.66	0,4.2579e-05,9.23857e-05,0.000150647,0.000218799,0.000298519,0.000391771,0.000500853,0.000628452,0.000777711,0.000952306,0.00115654,0.00139544,0.00167489,0.00200179,0.00238417,0.00283146,0.00335468,0.00396672,0.00468264,0.0055201,0.00649972,0.00764562,0.00898605,0.010554,0.0123881,0.0145336,0.0170432,0.0199789,0.0234129,0.0274298,0.0321286,inf	353.019,353.019,343.185,333.635,344.69,343.679,338.777,339.801,350.297,366.962,383.992,398.361,410.896,422.779,433.373,441.504,446.024,445.463,440.207,432.126,422.509,412.983,405.38,400.553,399.184,404.17,421.371,460.389,460.389,536.251,536.251,536.251
0.00131515	-3067148.86	0,4.2579e-05,9.23857e-05,0.000150647,0.000218799,0.000298519,0.000391771,0.000500853,0.000628452,0.000777711,0.000952306,0.00115654,0.00139544,0.00167489,0.00200179,0.00238417,0.00283146,0.00335468,0.00396672,0.00468264,0.0055201,0.00649972,0.00764562,0.00898605,0.010554,0.0123881,0.0145336,0.0170432,0.0199789,0.0234129,0.0274298,0.0321286,inf	350.995,350.995,341.765,334.239,347.221,346.253,340.883,341.793,352.446,369.083,385.637,399.193,410.865,422.028,432.142,440.058,444.549,444.018,438.782,430.683,420.997,411.395,403.762,398.972,397.793,403.428,422.188,464.47,464.47,548.835,548.835,548.835
0.00136631	-3066879.80	0,4.2579e-05,9.23857e-05,0.000150647,0.000218799,0.000298519,0.000391771,0.000500853,0.000628452,0.000777711,0.000952306,0.00115654,0.00139544,0.00167489,0.00200179,0.00238417,0.00283146,0.00335468,0.00396672,0.00468264,0.0055201,0.00649972,0.00764562,0.00898605,0.010554,0.0123881,0.0145336,0.0170432,0.0199789,0.0234129,0.0274298,0.0321286,inf	349.449,349.449,340.389,334.857,349.647,348.692,342.906,343.765,354.591,371.18,387.237,399.984,410.807,421.265,430.906,438.602,443.051,442.541,437.325,429.219,419.484,409.825,402.175,397.426,396.432,402.688,422.933,468.339,468.339,561.399,561.399,561.399
0.00141516	-3066644.07	0,4.2579e-05,9.23857e-05,0.000150647,0.000218799,0.000298519,0.000391771,0.000500853,0.000628452,0.000777711,0.000952306,0.00115654,0.00139544,0.00167489,0.00200179,0.00238417,0.00283146,0.00335468,0.00396672,0.00468264,0.0055201,0.00649972,0.00764562,0.00898605,0.010554,0.0123881,0.0145336,0.0170432,0.0199789,0.0234129,0.0274298,0.0321286,inf	348.336,348.336,339.098,335.508,351.977,350.99,344.829,345.687,356.697,373.224,388.778,400.729,410.727,420.503,429.686,437.165,441.565,441.071,435.876,427.769,417.995,408.295,400.635,395.925,395.108,401.959,423.62,472.028,472.028,574.004,574.004,574.004
0.00146185	-3066436.51	0,4.2579e-05,9.23857e-05,0.000150647,0.000218799,0.000298519,0.000391771,0.000500853,0.000628452,0.000777711,0.000952306,0.00115654,0.00139544,0.00167489,0.00200179,0.00238417,0.00283146,0.00335468,0.00396672,0.00468264,0.0055201,0.00649972,0.00764562,0.00898605,0.010554,0.0123881,0.0145336,0.0170432,0.0199789,0.0234129,0.0274298,0.0321286,inf	347.594,347.594,337.909,336.206,354.22,353.151,346.645,347.541,358.745,375.199,390.249,401.423,410.627,419.749,428.496,435.766,440.114,439.632,434.458,426.354,416.549,406.814,399.147,394.473,393.823,401.244,424.26,475.562,475.562,586.725,586.725,586.725
0.00150652	-3066252.96	0,4.2579e-05,9.23857e-05,0.000150647,0.000218799,0.000298519,0.000391771,0.000500853,0.000628452,0.000777711,0.000952306,0.00115654,0.00139544,0.00167489,0.00200179,0.00238417,0.00283146,0.00335468,0.00396672,0.00468264,0.0055201,0.00649972,0.00764562,0.00898605,0.010554,0.0123881,0.0145336,0.0170432,0.0199789,0.0234129,0.0274298,0.0321286,inf	347.154,347.154,336.829,336.955,356.385,355.182,348.354,349.321,360.723,377.097,391.647,402.067,410.508,419.008,427.342,434.414,438.711,438.238,433.085,424.985,415.154,405.388,397.713,393.071,392.579,400.545,424.86,478.962,478.962,599.624,599.624,599.624
0.00154929	-3066089.96	0,4.2579e-05,9.23857e-05,0.000150647,0.000218799,0.000298519,0.000391771,0.000500853,0.000628452,0.000777711,0.000952306,0.00115654,0.00139544,0.00167489,0.00200179,0.00238417,0.00283146,0.00335468,0.00396672,0.00468264,0.0055201,0.00649972,0.00764562,0.00898605,0.010554,0.0123881,0.0145336,0.0170432,0.0199789,0.0234129,0.0274298,0.0321286,inf	346.96,346.96,335.862,337.759,358.479,357.092,349.96,351.022,362.625,378.915,392.971,402.662,410.373,418.282,426.227,433.114,437.362,436.898,431.766,423.669,413.815,404.02,396.336,391.719,391.375,399.865,425.426,482.247,482.247,612.761,612.761,612.761
0.00159026	-3065944.69	0,4.2579e-05,9.23857e-05,0.000150647,0.000218799,0.000298519,0.000391771,0.000500853,0.000628452,0.000777711,0.000952306,0.00115654,0.00139544,0.00167489,0.00200179,0.00238417,0.00283146,0.00335468,0.00396672,0.00468264,0.0055201,0.00649972,0.00764562,0.00898605,0.010554,0.0123881,0.0145336,0.0170432,0.0199789,0.0234129,0.0274298,0.0321286,inf	346.957,346.957,335.002,338.619,360.511,358.887,351.467,352.644,364.45,380.651,394.223,403.21,410.224,417.574,425.154,431.867,436.071,435.616,430.503,422.41,412.533,402.71,395.014,390.415,390.21,399.201,425.961,485.431,485.431,626.198,626.198,626.198
0.00162956	-3065814.79	0,4.2579e-05,9.23857e-05,0.000150647,0.000218799,0.000298519,0.000391771,0.000500853,0.000628452,0.000777711,0.000952306,0.00115654,0.00139544,0.00167489,0.00200179,0.00238417,0.00283146,0.00335468,0.00396672,0.00468264,0.0055201,0.00649972,0.00764562,0.00898605,0.010554,0.0123881,0.0145336,0.0170432,0.0199789,0.0234129,0.0274298,0.0321286,inf	347.1,347.1,334.246,339.532,362.483,360.578,352.879,354.188,366.198,382.307,395.406,403.714,410.062,416.883,424.122,430.675,434.838,434.392,429.299,421.209,411.309,401.457,393.745,389.158,389.083,398.555,426.473,488.529,488.529,639.997,639.997,639.997
0.00166726	-3065698.27	0,4.2579e-05,9.23857e-05,0.000150647,0.000218799,0.000298519,0.000391771,0.000500853,0.000628452,0.000777711,0.000952306,0.00115654,0.00139544,0.00167489,0.00200179,0.00238417,0.00283146,0.00335468,0.00396672,0.00468264,0.0055201,0.00649972,0.00764562,0.00898605,0.010554,0.0123881,0.0145336,0.0170432,0.0199789,0.0234129,0.0274298,0.0321286,inf	347.354,347.354,333.587,340.497,364.402,362.169,354.202,355.657,367.872,383.886,396.522,404.176,409.889,416.211,423.131,429.536,433.663,433.227,428.153,420.065,410.143,400.26,392.527,387.946,387.991,397.927,426.962,491.552,491.552,654.222,654.222,654.222
0.00170346	-3065593.45	0,4.2579e-05,9.23857e-05,0.000150647,0.000218799,0.000298519,0.000391771,0.000500853,0.000628452,0.000777711,0.000952306,0.00115654,0.00139544,0.00167489,0.00200179,0.00238417,0.00283146,0.00335468,0.00396672,0.00468264,0.0055201,0.00649972,0.00764562,0.00898605,0.010554,0.0123881,0.0145336,0.0170432,0.0199789,0.0234129,0.0274298,0.0321286,inf	347.692,347.692,333.016,341.51,366.27,363.667,355.443,357.055,369.472,385.392,397.575,404.599,409.707,415.556,422.179,428.448,432.543,432.12,427.064,418.978,409.031,399.116,391.357,386.776,386.934,397.314,427.432,494.51,494.51,668.937,668.937,668.937
0.00173824	-3065498.91	0,4.2579e-05,9.23857e-05,0.000150647,0.000218799,0.000298519,0.000391771,0.000500853,0.000628452,0.000777711,0.000952306,0.00115654,0.00139544,0.00167489,0.00200179,0.00238417,0.00283146,0.00335468,0.00396672,0.00468264,0.0055201,0.00649972,0.00764562,0.00898605,0.010554,0.0123881,0.0145336,0.0170432,0.0199789,0.0234129,0.0274298,0.0321286,inf	348.085,348.085,332.527,342.566,368.088,365.079,356.605,358.385,371.004,386.827,398.569,404.986,409.517,414.92,421.265,427.41,431.479,431.069,426.031,417.945,407.974,398.023,390.234,385.646,385.908,396.718,427.886,497.411,497.411,684.204,684.204,684.204
