LogLikelihood = -135210.83672120037954

y0 0.18532946052867402265
y0_prime 0
y1 0.45929829627028090355
y1_prime 0
y2 1.9331878385415697252
y2_prime 0
y3 11.726596701504147902
y3_prime 0
rho 0.0016706637290351243359
rho.alpha 1.3014901505861329323
r_ii 0.99984803194570881502
theta 0.0018632367985216540668
