AIC = 616231.99715254490729

y0 0.6854517898586381941
y0_prime 0
y1 1.0171087598586070477
y1_prime 0
y2 1.0194229174149191941
y2_prime 0
y3 1.8558173147411105575
y3_prime 0
rho 0.0019140374979241131254
theta 0.0050363036891124535188
