0.000649289	-13617015.14	0,1.7583e-06,4.07443e-06,7.12533e-06,1.11441e-05,1.64379e-05,2.34111e-05,3.25966e-05,4.46961e-05,6.06341e-05,8.16285e-05,0.000109283,0.000145712,0.000193697,0.000256905,0.000340166,0.000449842,0.000594312,0.000784615,0.00103529,0.00136549,0.00180045,0.0023734,0.00312812,0.00412227,0.00543181,0.00715681,0.00942905,0.0124222,0.0163648,0.0215583,0.0283994,inf	509.768,509.768,503.5,484.308,485.713,487.897,471.88,437.026,400.625,383.021,377.611,365.45,363.149,365.48,369.73,372.019,375.651,383.63,392.602,401.317,410.833,420.307,425.57,422.339,416.725,414.92,414.166,411.508,411.508,463.291,463.291,463.291
0.000671027	-13616264.96	0,1.7583e-06,4.07443e-06,7.12533e-06,1.11441e-05,1.64379e-05,2.34111e-05,3.25966e-05,4.46961e-05,6.06341e-05,8.16285e-05,0.000109283,0.000145712,0.000193697,0.000256905,0.000340166,0.000449842,0.000594312,0.000784615,0.00103529,0.00136549,0.00180045,0.0023734,0.00312812,0.00412227,0.00543181,0.00715681,0.00942905,0.0124222,0.0163648,0.0215583,0.0283994,inf	530.092,530.092,533.061,507.942,525.905,545.779,526.463,467.83,407.213,381.856,375.578,353.735,349.75,353.173,359.23,360.457,363.711,374.622,386.94,398.92,413.305,429.207,438.929,433.472,424.097,422.272,422.056,418.172,418.172,544.863,544.863,544.863
0.000689841	-13615867.51	0,1.7583e-06,4.07443e-06,7.12533e-06,1.11441e-05,1.64379e-05,2.34111e-05,3.25966e-05,4.46961e-05,6.06341e-05,8.16285e-05,0.000109283,0.000145712,0.000193697,0.000256905,0.000340166,0.000449842,0.000594312,0.000784615,0.00103529,0.00136549,0.00180045,0.0023734,0.00312812,0.00412227,0.00543181,0.00715681,0.00942905,0.0124222,0.0163648,0.0215583,0.0283994,inf	518.582,518.582,527.7,497.955,534.178,577.064,561.975,487.423,410.364,382.934,378.6,348.994,344.471,349.273,356.877,356.256,358.023,370.118,383.504,396.277,413.089,433.415,446.64,439.229,427.007,425.974,426.814,422.547,422.547,662.923,662.923,662.923
0.000706445	-13615591.26	0,1.7583e-06,4.07443e-06,7.12533e-06,1.11441e-05,1.64379e-05,2.34111e-05,3.25966e-05,4.46961e-05,6.06341e-05,8.16285e-05,0.000109283,0.000145712,0.000193697,0.000256905,0.000340166,0.000449842,0.000594312,0.000784615,0.00103529,0.00136549,0.00180045,0.0023734,0.00312812,0.00412227,0.00543181,0.00715681,0.00942905,0.0124222,0.0163648,0.0215583,0.0283994,inf	505.619,505.619,513.916,476.002,526.533,591.705,583.914,498.096,409.345,382.988,382.103,346.016,341.816,348.425,357.783,355.266,355.378,368.087,381.595,394.016,411.971,435.485,451.462,442.144,427.555,427.657,429.681,425.564,425.564,866.103,866.103,866.103
0.000721289	-13615375.65	0,1.7583e-06,4.07443e-06,7.12533e-06,1.11441e-05,1.64379e-05,2.34111e-05,3.25966e-05,4.46961e-05,6.06341e-05,8.16285e-05,0.000109283,0.000145712,0.000193697,0.000256905,0.000340166,0.000449842,0.000594312,0.000784615,0.00103529,0.00136549,0.00180045,0.0023734,0.00312812,0.00412227,0.00543181,0.00715681,0.00942905,0.0124222,0.0163648,0.0215583,0.0283994,inf	499.948,499.948,502.309,452.674,513.045,597.816,597.9,503.218,405.515,381.839,385.036,343.245,339.869,348.566,359.903,355.64,354.224,367.422,380.674,392.206,410.618,436.564,454.764,443.532,426.856,428.21,431.356,427.793,427.793,1383.43,1383.43,1383.43
0.000734672	-13615201.12	0,1.7583e-06,4.07443e-06,7.12533e-06,1.11441e-05,1.64379e-05,2.34111e-05,3.25966e-05,4.46961e-05,6.06341e-05,8.16285e-05,0.000109283,0.000145712,0.000193697,0.000256905,0.000340166,0.000449842,0.000594312,0.000784615,0.00103529,0.00136549,0.00180045,0.0023734,0.00312812,0.00412227,0.00543181,0.00715681,0.00942905,0.0124222,0.0163648,0.0215583,0.0283994,inf	501.061,501.061,495.305,431.557,498.509,600.137,607.693,505.297,400.187,379.976,387.399,340.327,338.011,348.915,362.371,356.527,353.791,367.513,380.375,390.778,409.274,437.178,457.239,444.091,425.505,428.12,432.224,429.627,429.627,5190.05,5190.05,5190.05
0.000734672	-13615058.88	0,1.7583e-06,4.07443e-06,7.12533e-06,1.11441e-05,1.64379e-05,2.34111e-05,3.25966e-05,4.46961e-05,6.06341e-05,8.16285e-05,0.000109283,0.000145712,0.000193697,0.000256905,0.000340166,0.000449842,0.000594312,0.000784615,0.00103529,0.00136549,0.00180045,0.0023734,0.00312812,0.00412227,0.00543181,0.00715681,0.00942905,0.0124222,0.0163648,0.0215583,0.0283994,inf	504.296,504.296,490.174,411.384,482.423,598.133,612.441,503.363,392.334,376.006,387.492,335.62,334.432,347.46,362.991,355.739,351.913,366.157,378.543,387.72,406.071,435.556,457.249,442.527,422.424,426.444,431.411,430.54,430.54,59717.8,59717.8,59717.8
0.000734672	-13615044.60	0,1.7583e-06,4.07443e-06,7.12533e-06,1.11441e-05,1.64379e-05,2.34111e-05,3.25966e-05,4.46961e-05,6.06341e-05,8.16285e-05,0.000109283,0.000145712,0.000193697,0.000256905,0.000340166,0.000449842,0.000594312,0.000784615,0.00103529,0.00136549,0.00180045,0.0023734,0.00312812,0.00412227,0.00543181,0.00715681,0.00942905,0.0124222,0.0163648,0.0215583,0.0283994,inf	504.36,504.36,490.173,396.655,470.964,600.321,621.198,504.666,387.097,374.309,387.892,332.59,332.282,347.267,364.842,356.192,351.354,366.247,378.223,386.127,404.2,435.081,458.23,441.756,420.059,425.295,430.957,430.54,430.54,59718.4,59718.4,59718.4
0.000734672	-13615033.82	0,1.7583e-06,4.07443e-06,7.12533e-06,1.11441e-05,1.64379e-05,2.34111e-05,3.25966e-05,4.46961e-05,6.06341e-05,8.16285e-05,0.000109283,0.000145712,0.000193697,0.000256905,0.000340166,0.000449842,0.000594312,0.000784615,0.00103529,0.00136549,0.00180045,0.0023734,0.00312812,0.00412227,0.00543181,0.00715681,0.00942905,0.0124222,0.0163648,0.0215583,0.0283994,inf	504.419,504.419,490.175,384.398,460.96,603.217,630.128,504.666,382.741,373.463,390.885,330.083,330.452,347.217,366.772,356.229,351.031,366.607,378.223,385.066,402.833,435.045,459.497,441.357,418.116,424.523,430.773,431.217,431.217,59718.4,59718.4,59718.4
0.000734672	-13615028.24	0,1.7583e-06,4.07443e-06,7.12533e-06,1.11441e-05,1.64379e-05,2.34111e-05,3.25966e-05,4.46961e-05,6.06341e-05,8.16285e-05,0.000109283,0.000145712,0.000193697,0.000256905,0.000340166,0.000449842,0.000594312,0.000784615,0.00103529,0.00136549,0.00180045,0.0023734,0.00312812,0.00412227,0.00543181,0.00715681,0.00942905,0.0124222,0.0163648,0.0215583,0.0283994,inf	504.419,504.419,490.175,373.846,451.779,606.132,637.823,504.666,378.652,372.819,390.94,327.738,328.669,347.106,368.671,356.809,350.786,366.969,378.223,384.264,401.706,435.193,460.385,441.174,416.434,423.989,430.759,431.698,431.698,59718.4,59718.4,59718.4
0.000734672	-13615024.28	0,1.7583e-06,4.07443e-06,7.12533e-06,1.11441e-05,1.64379e-05,2.34111e-05,3.25966e-05,4.46961e-05,6.06341e-05,8.16285e-05,0.000109283,0.000145712,0.000193697,0.000256905,0.000340166,0.000449842,0.000594312,0.000784615,0.00103529,0.00136549,0.00180045,0.0023734,0.00312812,0.00412227,0.00543181,0.00715681,0.00942905,0.0124222,0.0163648,0.0215583,0.0283994,inf	504.419,504.419,490.176,364.839,443.501,609.418,644.04,504.666,375.172,372.76,392.976,325.713,327.054,346.975,370.44,356.925,350.513,366.969,378.381,383.637,400.743,435.471,461.003,441.164,414.951,423.633,430.872,432.031,432.031,59718.4,59718.4,59718.4
0.000734672	-13615021.31	0,1.7583e-06,4.07443e-06,7.12533e-06,1.11441e-05,1.64379e-05,2.34111e-05,3.25966e-05,4.46961e-05,6.06341e-05,8.16285e-05,0.000109283,0.000145712,0.000193697,0.000256905,0.000340166,0.000449842,0.000594312,0.000784615,0.00103529,0.00136549,0.00180045,0.0023734,0.00312812,0.00412227,0.00543181,0.00715681,0.00942905,0.0124222,0.0163648,0.0215583,0.0283994,inf	504.436,504.436,490.176,357.067,435.87,612.777,649.288,504.666,371.912,372.894,394.753,323.844,325.505,346.825,372.156,357.008,350.272,367.151,378.381,383.145,399.897,435.487,461.694,441.164,413.621,423.414,431.079,432.269,432.269,59718.4,59718.4,59718.4
0.000734672	-13615018.89	0,1.7583e-06,4.07443e-06,7.12533e-06,1.11441e-05,1.64379e-05,2.34111e-05,3.25966e-05,4.46961e-05,6.06341e-05,8.16285e-05,0.000109283,0.000145712,0.000193697,0.000256905,0.000340166,0.000449842,0.000594312,0.000784615,0.00103529,0.00136549,0.00180045,0.0023734,0.00312812,0.00412227,0.00543181,0.00715681,0.00942905,0.0124222,0.0163648,0.0215583,0.0283994,inf	504.47,504.47,490.176,350.36,428.805,616.224,653.678,504.666,368.871,373.217,396.26,322.116,324.023,346.652,373.826,357.062,350.063,367.31,378.381,382.81,399.168,435.945,461.913,441.164,412.417,423.312,431.358,432.43,432.43,59718.4,59718.4,59718.4
0.000734672	-13615017.12	0,1.7583e-06,4.07443e-06,7.12533e-06,1.11441e-05,1.64379e-05,2.34111e-05,3.25966e-05,4.46961e-05,6.06341e-05,8.16285e-05,0.000109283,0.000145712,0.000193697,0.000256905,0.000340166,0.000449842,0.000594312,0.000784615,0.00103529,0.00136549,0.00180045,0.0023734,0.00312812,0.00412227,0.00543181,0.00715681,0.00942905,0.0124222,0.0163648,0.0215583,0.0283994,inf	504.47,504.47,490.176,344.513,422.276,619.78,653.678,507.415,366.039,373.719,397.511,320.526,322.612,346.457,373.826,357.422,349.832,368.002,378.381,382.557,398.514,435.945,462.401,441.164,411.323,423.302,431.689,432.531,432.531,59718.4,59718.4,59718.4
0.000734672	-13615015.73	0,1.7583e-06,4.07443e-06,7.12533e-06,1.11441e-05,1.64379e-05,2.34111e-05,3.25966e-05,4.46961e-05,6.06341e-05,8.16285e-05,0.000109283,0.000145712,0.000193697,0.000256905,0.000340166,0.000449842,0.000594312,0.000784615,0.00103529,0.00136549,0.00180045,0.0023734,0.00312812,0.00412227,0.00543181,0.00715681,0.00942905,0.0124222,0.0163648,0.0215583,0.0283994,inf	504.48,504.48,490.176,339.562,416.322,623.623,656.359,507.415,363.397,374.435,398.49,319.16,321.387,346.371,375.194,357.422,349.591,368.186,378.381,382.36,397.927,436.505,462.401,441.164,410.317,423.363,431.689,432.531,432.531,59718.5,59718.5,59718.5
0.000734672	-13615014.19	0,1.7583e-06,4.07443e-06,7.12533e-06,1.11441e-05,1.64379e-05,2.34111e-05,3.25966e-05,4.46961e-05,6.06341e-05,8.16285e-05,0.000109283,0.000145712,0.000193697,0.000256905,0.000340166,0.000449842,0.000594312,0.000784615,0.00103529,0.00136549,0.00180045,0.0023734,0.00312812,0.00412227,0.00543181,0.00715681,0.00942905,0.0124222,0.0163648,0.0215583,0.0283994,inf	504.522,504.522,490.177,335.256,410.74,627.594,658.445,507.415,360.923,375.303,399.257,317.906,320.218,346.268,375.194,357.729,349.328,368.778,378.381,382.21,397.383,436.505,462.78,441.164,409.405,423.508,431.689,432.667,432.667,59718.5,59718.5,59718.5
0.000734672	-13615013.06	0,1.7583e-06,4.07443e-06,7.12533e-06,1.11441e-05,1.64379e-05,2.34111e-05,3.25966e-05,4.46961e-05,6.06341e-05,8.16285e-05,0.000109283,0.000145712,0.000193697,0.000256905,0.000340166,0.000449842,0.000594312,0.000784615,0.00103529,0.00136549,0.00180045,0.0023734,0.00312812,0.00412227,0.00543181,0.00715681,0.00942905,0.0124222,0.0163648,0.0215583,0.0283994,inf	504.539,504.539,490.177,331.483,405.495,631.682,660.014,507.415,358.652,376.378,399.257,316.836,319.201,346.251,376.426,357.729,349.055,368.984,378.381,382.102,396.89,436.941,462.78,441.164,408.564,423.715,432.016,432.667,432.667,59718.5,59718.5,59718.5
0.000734672	-13615012.41	0,1.7583e-06,4.07443e-06,7.12533e-06,1.11441e-05,1.64379e-05,2.34111e-05,3.25966e-05,4.46961e-05,6.06341e-05,8.16285e-05,0.000109283,0.000145712,0.000193697,0.000256905,0.000340166,0.000449842,0.000594312,0.000784615,0.00103529,0.00136549,0.00180045,0.0023734,0.00312812,0.00412227,0.00543181,0.00715681,0.00942905,0.0124222,0.0163648,0.0215583,0.0283994,inf	504.571,504.571,490.177,328.215,400.56,635.907,661.081,507.415,356.558,377.623,399.518,315.88,318.236,346.217,377.426,357.729,348.765,369.204,378.381,382.024,396.429,437.336,462.78,441.164,407.778,423.96,432.284,432.667,432.667,59718.5,59718.5,59718.5
0.000734672	-13615011.85	0,1.7583e-06,4.07443e-06,7.12533e-06,1.11441e-05,1.64379e-05,2.34111e-05,3.25966e-05,4.46961e-05,6.06341e-05,8.16285e-05,0.000109283,0.000145712,0.000193697,0.000256905,0.000340166,0.000449842,0.000594312,0.000784615,0.00103529,0.00136549,0.00180045,0.0023734,0.00312812,0.00412227,0.00543181,0.00715681,0.00942905,0.0124222,0.0163648,0.0215583,0.0283994,inf	504.573,504.573,490.177,325.377,395.859,640.212,661.764,507.415,354.589,378.988,399.617,315.014,317.323,346.18,378.359,357.729,348.467,369.431,378.381,381.974,395.995,437.694,462.78,441.164,407.041,424.238,432.497,432.667,432.667,59718.5,59718.5,59718.5
0.000734672	-13615011.35	0,1.7583e-06,4.07443e-06,7.12533e-06,1.11441e-05,1.64379e-05,2.34111e-05,3.25966e-05,4.46961e-05,6.06341e-05,8.16285e-05,0.000109283,0.000145712,0.000193697,0.000256905,0.000340166,0.000449842,0.000594312,0.000784615,0.00103529,0.00136549,0.00180045,0.0023734,0.00312812,0.00412227,0.00543181,0.00715681,0.00942905,0.0124222,0.0163648,0.0215583,0.0283994,inf	504.586,504.586,490.177,322.852,391.361,644.604,662.126,507.415,352.717,380.409,399.617,314.235,316.46,346.142,379.226,357.729,348.16,369.664,378.381,381.947,395.586,438.02,462.78,441.164,406.347,424.546,432.497,432.667,432.667,59718.6,59718.6,59718.6
