0.000592679	-265021.05	0,8.10927e-05,0.000192053,0.000343882,0.000551631,0.000835898,0.00122486,0.00175709,0.00248535,0.00348183,0.00484534,0.00671104,0.00926391,0.012757,0.0175367,0.0240769,inf	440.733,440.733,432.997,404.056,399.059,402.853,409.496,417.626,423.95,428.593,442.179,449.393,475.389,416.407,416.407,416.407
0.000635686	-264951.13	0,8.10927e-05,0.000192053,0.000343882,0.000551631,0.000835898,0.00122486,0.00175709,0.00248535,0.00348183,0.00484534,0.00671104,0.00926391,0.012757,0.0175367,0.0240769,inf	449.908,449.908,444.058,394.074,386.433,391.057,398.208,407.054,412.277,415.095,435.88,448.563,498.238,386.268,386.268,386.268
0.000675621	-264911.48	0,8.10927e-05,0.000192053,0.000343882,0.000551631,0.000835898,0.00122486,0.00175709,0.00248535,0.00348183,0.00484534,0.00671104,0.00926391,0.012757,0.0175367,0.0240769,inf	454.486,454.486,455.758,390.9,383.259,388.777,395.543,403.895,406.503,405.883,431.175,448.632,520.977,360.384,360.384,360.384
0.000711959	-264883.00	0,8.10927e-05,0.000192053,0.000343882,0.000551631,0.000835898,0.00122486,0.00175709,0.00248535,0.00348183,0.00484534,0.00671104,0.00926391,0.012757,0.0175367,0.0240769,inf	454.986,454.986,464.377,388.663,382.569,389.104,395.423,403.253,403.042,398.629,426.973,448.817,543.298,337.718,337.718,337.718
0.000744865	-264861.43	0,8.10927e-05,0.000192053,0.000343882,0.000551631,0.000835898,0.00122486,0.00175709,0.00248535,0.00348183,0.00484534,0.00671104,0.00926391,0.012757,0.0175367,0.0240769,inf	453.958,453.958,470.52,386.463,382.659,390.135,396.053,403.566,400.669,392.486,422.958,448.904,565.222,317.835,317.835,317.835
0.000774653	-264844.76	0,8.10927e-05,0.000192053,0.000343882,0.000551631,0.000835898,0.00122486,0.00175709,0.00248535,0.00348183,0.00484534,0.00671104,0.00926391,0.012757,0.0175367,0.0240769,inf	452.759,452.759,475.012,384.27,383.059,391.285,396.845,404.274,398.906,387.093,419.043,448.84,586.83,300.452,300.452,300.452
0.00080165	-264831.70	0,8.10927e-05,0.000192053,0.000343882,0.000551631,0.000835898,0.00122486,0.00175709,0.00248535,0.00348183,0.00484534,0.00671104,0.00926391,0.012757,0.0175367,0.0240769,inf	451.867,451.867,478.395,382.15,383.617,392.363,397.598,405.156,397.54,382.267,415.207,448.617,608.193,285.326,285.326,285.326
0.000826157	-264821.39	0,8.10927e-05,0.000192053,0.000343882,0.000551631,0.000835898,0.00122486,0.00175709,0.00248535,0.00348183,0.00484534,0.00671104,0.00926391,0.012757,0.0175367,0.0240769,inf	451.383,451.383,480.995,380.153,384.276,393.31,398.248,406.118,396.465,377.902,411.45,448.243,629.352,272.217,272.217,272.217
0.000848443	-264813.19	0,8.10927e-05,0.000192053,0.000343882,0.000551631,0.000835898,0.00122486,0.00175709,0.00248535,0.00348183,0.00484534,0.00671104,0.00926391,0.012757,0.0175367,0.0240769,inf	451.256,451.256,483.017,378.303,385.005,394.112,398.776,407.12,395.62,373.926,407.775,447.723,650.32,260.892,260.892,260.892
0.000868741	-264806.64	0,8.10927e-05,0.000192053,0.000343882,0.000551631,0.000835898,0.00122486,0.00175709,0.00248535,0.00348183,0.00484534,0.00671104,0.00926391,0.012757,0.0175367,0.0240769,inf	451.42,451.42,484.595,376.605,385.786,394.774,399.184,408.14,394.967,370.286,404.186,447.067,671.09,251.125,251.125,251.125
0.00088726	-264801.39	0,8.10927e-05,0.000192053,0.000343882,0.000551631,0.000835898,0.00122486,0.00175709,0.00248535,0.00348183,0.00484534,0.00671104,0.00926391,0.012757,0.0175367,0.0240769,inf	451.796,451.796,485.823,375.056,386.606,395.304,399.481,409.171,394.481,366.944,400.686,446.284,691.638,242.706,242.706,242.706
0.000904181	-264797.18	0,8.10927e-05,0.000192053,0.000343882,0.000551631,0.000835898,0.00122486,0.00175709,0.00248535,0.00348183,0.00484534,0.00671104,0.00926391,0.012757,0.0175367,0.0240769,inf	452.317,452.317,486.772,373.65,387.456,395.714,399.674,410.204,394.141,363.866,397.277,445.382,711.933,235.447,235.447,235.447
0.000919663	-264793.79	0,8.10927e-05,0.000192053,0.000343882,0.000551631,0.000835898,0.00122486,0.00175709,0.00248535,0.00348183,0.00484534,0.00671104,0.00926391,0.012757,0.0175367,0.0240769,inf	452.948,452.948,487.496,372.376,388.328,396.014,399.775,411.237,393.931,361.028,393.96,444.373,731.938,229.176,229.176,229.176
0.000933847	-264791.06	0,8.10927e-05,0.000192053,0.000343882,0.000551631,0.000835898,0.00122486,0.00175709,0.00248535,0.00348183,0.00484534,0.00671104,0.00926391,0.012757,0.0175367,0.0240769,inf	453.635,453.635,488.035,371.224,389.216,396.215,399.79,412.267,393.838,358.405,390.735,443.267,751.617,223.746,223.746,223.746
0.000946858	-264788.87	0,8.10927e-05,0.000192053,0.000343882,0.000551631,0.000835898,0.00122486,0.00175709,0.00248535,0.00348183,0.00484534,0.00671104,0.00926391,0.012757,0.0175367,0.0240769,inf	454.367,454.367,488.425,370.183,390.115,396.327,399.729,413.292,393.851,355.981,387.605,442.075,770.938,219.028,219.028,219.028
0.000958808	-264787.12	0,8.10927e-05,0.000192053,0.000343882,0.000551631,0.000835898,0.00122486,0.00175709,0.00248535,0.00348183,0.00484534,0.00671104,0.00926391,0.012757,0.0175367,0.0240769,inf	455.112,455.112,488.69,369.243,391.024,396.358,399.598,414.31,393.96,353.737,384.568,440.809,789.872,214.912,214.912,214.912
0.000969794	-264785.73	0,8.10927e-05,0.000192053,0.000343882,0.000551631,0.000835898,0.00122486,0.00175709,0.00248535,0.00348183,0.00484534,0.00671104,0.00926391,0.012757,0.0175367,0.0240769,inf	455.857,455.857,488.855,368.395,391.938,396.318,399.402,415.318,394.155,351.66,381.623,439.478,808.394,211.306,211.306,211.306
0.000979906	-264784.62	0,8.10927e-05,0.000192053,0.000343882,0.000551631,0.000835898,0.00122486,0.00175709,0.00248535,0.00348183,0.00484534,0.00671104,0.00926391,0.012757,0.0175367,0.0240769,inf	456.599,456.599,488.937,367.631,392.856,396.213,399.146,416.315,394.43,349.737,378.772,438.094,826.486,208.131,208.131,208.131
0.000989221	-264783.75	0,8.10927e-05,0.000192053,0.000343882,0.000551631,0.000835898,0.00122486,0.00175709,0.00248535,0.00348183,0.00484534,0.00671104,0.00926391,0.012757,0.0175367,0.0240769,inf	457.325,457.325,488.949,366.941,393.777,396.052,398.837,417.299,394.776,347.956,376.012,436.667,844.134,205.322,205.322,205.322
0.000997812	-264783.07	0,8.10927e-05,0.000192053,0.000343882,0.000551631,0.000835898,0.00122486,0.00175709,0.00248535,0.00348183,0.00484534,0.00671104,0.00926391,0.012757,0.0175367,0.0240769,inf	458.032,458.032,488.903,366.319,394.7,395.839,398.477,418.268,395.185,346.306,373.342,435.205,861.328,202.826,202.826,202.826
