LogLikelihood = -1375745.5357679794542

y0 1.0039406973468485429
y0_prime 0
y1 1.0144106634322314076
y1_prime 0
y2 0.91133293215308208701
y2_prime 0
y3 1.5608569928053563913
y3_prime 0
rho 9.2720844778107147578e-05
theta 0.0045266292574276381297
