LogLikelihood = -671257.69042946503032

y0 0.15838355016364477623
y0_prime 0
y1 0.36132213943907820486
y1_prime 0
y2 2.1362515985547831932
y2_prime 0
y3 8.9983620653042795112
y3_prime 0
rho 0.00055046975391848725501
rho.alpha 3.1980917957869352541
r_ii 0.99661236921155771373
theta 0.001853475656880989534
