AIC = 593164.87566017638892

y0 1.0654136416749564464
y0_prime 0
y1 0.83731957173101678737
y1_prime 0
y2 0.74599967289153645833
y2_prime 0
y3 1.4370648644195846977
y3_prime 0
rho 0.010158755548200035929
rho.alpha 0.19418823563534931553
r_ii 0.9999150387781801097
theta 0.0048473609840295811199
