LogLikelihood = -227433.87617391653475

y0 1.2121528825220639902
y0_prime 0
y1 0.84095384189274546838
y1_prime 0
y2 1.0894944301727258473
y2_prime 0
y3 1.6891601534220286318
y3_prime 0
rho 2.2865177331804617864e-05
theta 0.00055441699406699013978
