0.00018656	-5177208.90	0,1.26138e-06,3.45006e-06,7.24773e-06,1.38372e-05,2.5271e-05,4.51102e-05,7.9534e-05,0.000139264,0.000242905,0.000422737,0.00073477,0.00127619,0.00221564,0.00384572,0.00667414,inf	7.8636,7.8636,19.4002,38.4675,85.5907,224.824,251.049,298.987,483.511,839.416,1583.21,2122.72,1802.29,1595.68,1595.68,1595.68
0.00018213	-5165628.04	0,1.26138e-06,3.45006e-06,7.24773e-06,1.38372e-05,2.5271e-05,4.51102e-05,7.9534e-05,0.000139264,0.000242905,0.000422737,0.00073477,0.00127619,0.00221564,0.00384572,0.00667414,inf	1.29513,1.29513,1.29513,1.29516,5.77094,85.9785,93.5144,102.232,256.364,624.496,1574.04,2776.85,2268.93,1786.33,1786.33,1786.33
0.000174914	-5162096.67	0,1.26138e-06,3.45006e-06,7.24773e-06,1.38372e-05,2.5271e-05,4.51102e-05,7.9534e-05,0.000139264,0.000242905,0.000422737,0.00073477,0.00127619,0.00221564,0.00384572,0.00667414,inf	1.29513,1.29513,1.29513,1.29513,1.29513,54.0303,56.9042,43.8535,165.678,505.875,1490.14,3282.89,2650.44,1784.65,1784.65,1784.65
0.000165457	-5160654.06	0,1.26138e-06,3.45006e-06,7.24773e-06,1.38372e-05,2.5271e-05,4.51102e-05,7.9534e-05,0.000139264,0.000242905,0.000422737,0.00073477,0.00127619,0.00221564,0.00384572,0.00667414,inf	1.29513,1.29513,1.29513,1.29513,1.29513,43.3573,45.5229,22.2003,122.515,434.776,1403.03,3693.04,2925.64,1609.47,1609.47,1609.47
0.000154343	-5159904.39	0,1.26138e-06,3.45006e-06,7.24773e-06,1.38372e-05,2.5271e-05,4.51102e-05,7.9534e-05,0.000139264,0.000242905,0.000422737,0.00073477,0.00127619,0.00221564,0.00384572,0.00667414,inf	1.29513,1.29513,1.29513,1.29513,1.29513,39.4142,41.5807,12.6699,98.9623,389.943,1329.71,4041.57,3084.64,1361.25,1361.25,1361.25
0.000141993	-5159411.84	0,1.26138e-06,3.45006e-06,7.24773e-06,1.38372e-05,2.5271e-05,4.51102e-05,7.9534e-05,0.000139264,0.000242905,0.000422737,0.00073477,0.00127619,0.00221564,0.00384572,0.00667414,inf	1.29513,1.29513,1.29513,1.29513,1.29513,38.6098,40.626,7.87422,84.1431,360.523,1272.37,4348.98,3135.19,1119.47,1119.47,1119.47
0.000128723	-5159009.41	0,1.26138e-06,3.45006e-06,7.24773e-06,1.38372e-05,2.5271e-05,4.51102e-05,7.9534e-05,0.000139264,0.000242905,0.000422737,0.00073477,0.00127619,0.00221564,0.00384572,0.00667414,inf	1.29513,1.29513,1.29513,1.29513,1.29513,40.2101,41.3545,5.19943,73.1545,340.23,1229.94,4626.55,3102.26,916.849,916.849,916.849
0.000114788	-5158621.95	0,1.26138e-06,3.45006e-06,7.24773e-06,1.38372e-05,2.5271e-05,4.51102e-05,7.9534e-05,0.000139264,0.000242905,0.000422737,0.00073477,0.00127619,0.00221564,0.00384572,0.00667414,inf	1.29513,1.29513,1.29513,1.29513,1.29513,43.7913,44.0559,3.79416,63.5773,324.943,1201.46,4877.98,3017.62,757.46,757.46,757.46
0.000100396	-5158207.26	0,1.26138e-06,3.45006e-06,7.24773e-06,1.38372e-05,2.5271e-05,4.51102e-05,7.9534e-05,0.000139264,0.000242905,0.000422737,0.00073477,0.00127619,0.00221564,0.00384572,0.00667414,inf	1.29513,1.29513,1.29513,1.29513,1.29513,47.927,48.0865,3.10409,54.164,311.538,1187.14,5099.47,2909.34,632.907,632.907,632.907
8.57631e-05	-5157732.71	0,1.26138e-06,3.45006e-06,7.24773e-06,1.38372e-05,2.5271e-05,4.51102e-05,7.9534e-05,0.000139264,0.000242905,0.000422737,0.00073477,0.00127619,0.00221564,0.00384572,0.00667414,inf	1.29513,1.29513,1.29513,1.29513,1.29513,49.9371,52.7052,2.77577,44.3317,297.223,1188.67,5279.58,2798.5,532.12,532.12,532.12
7.11769e-05	-5157166.97	0,1.26138e-06,3.45006e-06,7.24773e-06,1.38372e-05,2.5271e-05,4.51102e-05,7.9534e-05,0.000139264,0.000242905,0.000422737,0.00073477,0.00127619,0.00221564,0.00384572,0.00667414,inf	1.29513,1.29513,1.29513,1.29513,1.29513,48.3617,58.2113,2.60622,34.2291,279.171,1209.29,5399.84,2700.49,446.352,446.352,446.352
5.70277e-05	-5156480.50	0,1.26138e-06,3.45006e-06,7.24773e-06,1.38372e-05,2.5271e-05,4.51102e-05,7.9534e-05,0.000139264,0.000242905,0.000422737,0.00073477,0.00127619,0.00221564,0.00384572,0.00667414,inf	1.29513,1.29513,1.29513,1.29513,1.29513,40.3377,64.9577,2.4698,25.1356,254.803,1253.65,5438.01,2625.77,371.231,371.231,371.231
4.37932e-05	-5155652.98	0,1.26138e-06,3.45006e-06,7.24773e-06,1.38372e-05,2.5271e-05,4.51102e-05,7.9534e-05,0.000139264,0.000242905,0.000422737,0.00073477,0.00127619,0.00221564,0.00384572,0.00667414,inf	1.29513,1.29513,1.29513,1.29513,1.29513,19.1419,71.1268,2.19209,18.3812,222.971,1327.52,5376.34,2575.5,306.879,306.879,306.879
3.20088e-05	-5154688.40	0,1.26138e-06,3.45006e-06,7.24773e-06,1.38372e-05,2.5271e-05,4.51102e-05,7.9534e-05,0.000139264,0.000242905,0.000422737,0.00073477,0.00127619,0.00221564,0.00384572,0.00667414,inf	1.29513,1.29513,1.29513,1.29513,1.29513,3.56539,82.1166,1.78687,13.6864,185.113,1438.01,5216.73,2525.89,255.889,255.889,255.889
2.21497e-05	-5153640.67	0,1.26138e-06,3.45006e-06,7.24773e-06,1.38372e-05,2.5271e-05,4.51102e-05,7.9534e-05,0.000139264,0.000242905,0.000422737,0.00073477,0.00127619,0.00221564,0.00384572,0.00667414,inf	1.29513,1.29513,1.29513,1.29513,1.29513,1.29513,103.361,1.29525,9.75411,145.563,1597.6,4997.04,2386,220.066,220.066,220.066
1.4468e-05	-5152623.14	0,1.26138e-06,3.45006e-06,7.24773e-06,1.38372e-05,2.5271e-05,4.51102e-05,7.9534e-05,0.000139264,0.000242905,0.000422737,0.00073477,0.00127619,0.00221564,0.00384572,0.00667414,inf	1.29513,1.29513,1.29513,1.29513,1.29513,1.29513,136.639,1.29516,4.76472,110.058,1832.09,4797.45,1940.26,198.884,198.884,198.884
8.89679e-06	-5151786.05	0,1.26138e-06,3.45006e-06,7.24773e-06,1.38372e-05,2.5271e-05,4.51102e-05,7.9534e-05,0.000139264,0.000242905,0.000422737,0.00073477,0.00127619,0.00221564,0.00384572,0.00667414,inf	1.29513,1.29513,1.29513,1.29513,1.29513,1.29513,183.734,1.29516,1.29513,84.9826,2180.81,4709.67,1096.9,189.26,189.26,189.26
5.15829e-06	-5151241.86	0,1.26138e-06,3.45006e-06,7.24773e-06,1.38372e-05,2.5271e-05,4.51102e-05,7.9534e-05,0.000139264,0.000242905,0.000422737,0.00073477,0.00127619,0.00221564,0.00384572,0.00667414,inf	1.29513,1.29513,1.29513,1.29513,1.29513,1.29513,242.548,1.29516,1.29513,73.039,2587.76,4687.14,453.825,186.632,186.632,186.632
2.95768e-06	-5150923.97	0,1.26138e-06,3.45006e-06,7.24773e-06,1.38372e-05,2.5271e-05,4.51102e-05,7.9534e-05,0.000139264,0.000242905,0.000422737,0.00073477,0.00127619,0.00221564,0.00384572,0.00667414,inf	1.29513,1.29513,1.29513,1.29513,1.29513,1.29513,290.11,1.29516,1.29513,67.1113,2767.25,4521.15,265.294,191.207,191.207,191.207
1.86402e-06	-5150616.27	0,1.26138e-06,3.45006e-06,7.24773e-06,1.38372e-05,2.5271e-05,4.51102e-05,7.9534e-05,0.000139264,0.000242905,0.000422737,0.00073477,0.00127619,0.00221564,0.00384572,0.00667414,inf	1.29513,1.29513,1.29513,1.29513,1.29513,1.29513,293.479,1.29516,1.29513,60.3381,2616.78,4388.48,336.147,214.737,214.737,214.737
