0.000161467	-99517.31	0,2.38061e-05,5.63804e-05,0.000100952,0.000161941,0.000245392,0.000359579,0.000515824,0.000729616,0.00102215,0.00142243,0.00197014,0.00271957,0.00374504,0.0051482,0.00706816,inf	79.7789,79.7789,183.856,324.759,558.666,986.287,1915.88,3039.83,2765.84,2373.96,2092.18,1970.69,1951.72,1989.32,1989.32,1989.32
0.00017216	-99141.98	0,2.38061e-05,5.63804e-05,0.000100952,0.000161941,0.000245392,0.000359579,0.000515824,0.000729616,0.00102215,0.00142243,0.00197014,0.00271957,0.00374504,0.0051482,0.00706816,inf	5.16821,5.16821,28.0302,87.2338,243.574,641.778,1742.48,4256.9,4040.93,3292.57,2653.16,2429.98,2489.94,2764.06,2764.06,2764.06
0.000184643	-99013.61	0,2.38061e-05,5.63804e-05,0.000100952,0.000161941,0.000245392,0.000359579,0.000515824,0.000729616,0.00102215,0.00142243,0.00197014,0.00271957,0.00374504,0.0051482,0.00706816,inf	1.54714,1.54714,4.72821,25.8257,115.378,434.902,1485.18,5193.29,5290.95,4265.33,3205.3,2934.33,3303,4821.22,4821.22,4821.22
0.000197345	-98957.71	0,2.38061e-05,5.63804e-05,0.000100952,0.000161941,0.000245392,0.000359579,0.000515824,0.000729616,0.00102215,0.00142243,0.00197014,0.00271957,0.00374504,0.0051482,0.00706816,inf	1.54714,1.54714,1.54714,8.24747,58.0885,305.343,1255.59,5942.79,6543.21,5312.44,3756.12,3528.04,4927.11,21510.7,21510.7,21510.7
0.000197345	-98930.45	0,2.38061e-05,5.63804e-05,0.000100952,0.000161941,0.000245392,0.000359579,0.000515824,0.000729616,0.00102215,0.00142243,0.00197014,0.00271957,0.00374504,0.0051482,0.00706816,inf	1.54714,1.54714,1.54714,2.86062,31.2819,224.763,1092.23,6404.62,7820.12,6471.87,4312.86,4297.86,11370.6,212056,212056,212056
