time_index	left_time_boundary	right_time_boundary	lambda
0	0	3.87618e-06	4052.71
1	3.87618e-06	1.06019e-05	4052.71
2	1.06019e-05	2.2272e-05	2.64692
3	2.2272e-05	4.25214e-05	802.911
4	4.25214e-05	7.76569e-05	237.822
5	7.76569e-05	0.000138622	481.801
6	0.000138622	0.000244405	459.024
7	0.000244405	0.000427955	466.372
8	0.000427955	0.000746439	353.097
9	0.000746439	0.00129906	403.453
10	0.00129906	0.00225792	478.981
11	0.00225792	0.0039217	373.972
12	0.0039217	0.00680859	377.437
13	0.00680859	0.0118178	210.26
14	0.0118178	0.0205094	210.26
15	0.0205094	inf	210.26
