0.000568682	-302831.42	0,4.28143e-05,9.28963e-05,0.00015148,0.000220008,0.000300168,0.000393936,0.000503621,0.000631925,0.000782008,0.000957568,0.00116293,0.00140315,0.00168415,0.00201285,0.00239734,0.00284711,0.00337322,0.00398864,0.00470852,0.00555061,0.00653564,0.00768787,0.0090357,0.0106123,0.0124566,0.0146139,0.0171374,0.0200893,0.0235423,0.0275814,0.0323062,inf	203.509,203.509,335.119,357.109,354.681,360.89,353.288,364.223,385.35,402.348,411.96,414.058,411.71,409.122,407.61,406.507,404.634,403.526,404.865,407.038,407.872,405.861,401.195,397.513,401.484,416.837,439.938,470.508,470.508,519.78,519.78,519.78
0.000512667	-302747.99	0,4.28143e-05,9.28963e-05,0.00015148,0.000220008,0.000300168,0.000393936,0.000503621,0.000631925,0.000782008,0.000957568,0.00116293,0.00140315,0.00168415,0.00201285,0.00239734,0.00284711,0.00337322,0.00398864,0.00470852,0.00555061,0.00653564,0.00768787,0.0090357,0.0106123,0.0124566,0.0146139,0.0171374,0.0200893,0.0235423,0.0275814,0.0323062,inf	146.069,146.069,325.662,356.57,342.998,350.3,326.496,339.045,374.715,405.314,423.269,426.855,421.488,416.09,413.331,411.799,408.461,406.489,409.928,415.164,417.234,412.947,402.986,394.979,403.541,437.932,492.895,576.065,576.065,761.652,761.652,761.652
0.000462645	-302677.22	0,4.28143e-05,9.28963e-05,0.00015148,0.000220008,0.000300168,0.000393936,0.000503621,0.000631925,0.000782008,0.000957568,0.00116293,0.00140315,0.00168415,0.00201285,0.00239734,0.00284711,0.00337322,0.00398864,0.00470852,0.00555061,0.00653564,0.00768787,0.0090357,0.0106123,0.0124566,0.0146139,0.0171374,0.0200893,0.0235423,0.0275814,0.0323062,inf	128.134,128.134,327.187,368.253,343.987,352.768,308.859,317.754,364.083,406.131,431.826,436.76,427.933,419.626,415.825,414.458,409.918,407.028,413.074,422.032,425.476,418.456,402.621,389.643,403.319,461.265,561.689,747.317,747.317,1523.07,1523.07,1523.07
0.00041863	-302616.59	0,4.28143e-05,9.28963e-05,0.00015148,0.000220008,0.000300168,0.000393936,0.000503621,0.000631925,0.000782008,0.000957568,0.00116293,0.00140315,0.00168415,0.00201285,0.00239734,0.00284711,0.00337322,0.00398864,0.00470852,0.00555061,0.00653564,0.00768787,0.0090357,0.0106123,0.0124566,0.0146139,0.0171374,0.0200893,0.0235423,0.0275814,0.0323062,inf	125.032,125.032,328.424,383.03,351.252,363.593,297.595,299.281,353.636,405.478,438.557,444.974,432.346,421.108,416.386,415.707,410.155,406.077,415.078,428.297,433.065,422.744,400.605,382.059,401.275,488.632,658.328,1095.89,1095.89,8592.91,8592.91,8592.91
0.000382253	-302565.55	0,4.28143e-05,9.28963e-05,0.00015148,0.000220008,0.000300168,0.000393936,0.000503621,0.000631925,0.000782008,0.000957568,0.00116293,0.00140315,0.00168415,0.00201285,0.00239734,0.00284711,0.00337322,0.00398864,0.00470852,0.00555061,0.00653564,0.00768787,0.0090357,0.0106123,0.0124566,0.0146139,0.0171374,0.0200893,0.0235423,0.0275814,0.0323062,inf	128.482,128.482,327.767,398.694,362.868,381.358,292.028,283.761,344.343,404.631,444.805,452.977,436.148,421.943,416.279,416.709,410.265,404.523,416.715,434.655,440.527,426.244,397.543,372.88,397.925,522.67,809.867,2180.15,2180.15,80524.2,80524.2,80524.2
0.000349136	-302525.48	0,4.28143e-05,9.28963e-05,0.00015148,0.000220008,0.000300168,0.000393936,0.000503621,0.000631925,0.000782008,0.000957568,0.00116293,0.00140315,0.00168415,0.00201285,0.00239734,0.00284711,0.00337322,0.00398864,0.00470852,0.00555061,0.00653564,0.00768787,0.0090357,0.0106123,0.0124566,0.0146139,0.0171374,0.0200893,0.0235423,0.0275814,0.0323062,inf	133.284,133.284,321.944,409.899,373.564,400.933,288.966,269.002,334.293,401.612,448.441,458.878,437.788,420.898,414.387,416.391,409.342,401.521,417.128,440.229,446.957,428.219,393.098,362.03,393.13,567.135,870.212,2180.15,2180.15,80487.9,80487.9,80487.9
0.000321145	-302491.19	0,4.28143e-05,9.28963e-05,0.00015148,0.000220008,0.000300168,0.000393936,0.000503621,0.000631925,0.000782008,0.000957568,0.00116293,0.00140315,0.00168415,0.00201285,0.00239734,0.00284711,0.00337322,0.00398864,0.00470852,0.00555061,0.00653564,0.00768787,0.0090357,0.0106123,0.0124566,0.0146139,0.0171374,0.0200893,0.0235423,0.0275814,0.0323062,inf	139.639,139.639,315.018,420.135,385.237,423.914,289.723,256.259,325.283,398.458,451.444,464.673,439.04,419.62,412.137,416.006,408.571,398.055,417.21,445.857,453.026,429.33,388.13,350.437,387.784,627.466,1252.73,2191.68,2191.68,80339.3,80339.3,80339.3
0.000321144	-302464.87	0,4.28143e-05,9.28963e-05,0.00015148,0.000220008,0.000300168,0.000393936,0.000503621,0.000631925,0.000782008,0.000957568,0.00116293,0.00140315,0.00168415,0.00201285,0.00239734,0.00284711,0.00337322,0.00398864,0.00470852,0.00555061,0.00653564,0.00768787,0.0090357,0.0106123,0.0124566,0.0146139,0.0171374,0.0200893,0.0235423,0.0275814,0.0323062,inf	150.104,150.104,315.194,440.927,407.687,462.516,302.058,251.582,325.602,405.565,465.55,482.507,450.521,427.665,418.283,423.971,415.666,400.663,423.34,457.959,464.503,434.405,386.634,341.157,385.226,641.788,1252.73,2191.68,2191.68,80339.3,80339.3,80339.3
0.000321144	-302464.07	0,4.28143e-05,9.28963e-05,0.00015148,0.000220008,0.000300168,0.000393936,0.000503621,0.000631925,0.000782008,0.000957568,0.00116293,0.00140315,0.00168415,0.00201285,0.00239734,0.00284711,0.00337322,0.00398864,0.00470852,0.00555061,0.00653564,0.00768787,0.0090357,0.0106123,0.0124566,0.0146139,0.0171374,0.0200893,0.0235423,0.0275814,0.0323062,inf	150.104,150.104,307.801,440.962,413.06,462.516,302.058,242.821,321.294,406.753,472.509,483.06,450.521,427.665,418.283,423.971,415.666,399.427,424.397,457.959,464.503,434.405,383.754,331.617,382.692,652.725,1252.73,2191.68,2191.68,80339.3,80339.3,80339.3
0.000297072	-302464.04	0,4.28143e-05,9.28963e-05,0.00015148,0.000220008,0.000300168,0.000393936,0.000503621,0.000631925,0.000782008,0.000957568,0.00116293,0.00140315,0.00168415,0.00201285,0.00239734,0.00284711,0.00337322,0.00398864,0.00470852,0.00555061,0.00653564,0.00768787,0.0090357,0.0106123,0.0124566,0.0146139,0.0171374,0.0200893,0.0235423,0.0275814,0.0323062,inf	148.531,148.531,292.688,433.241,407.443,471.385,298.55,228.801,308.915,396.714,465.91,479.608,443.487,419.618,410.108,418.478,410.701,391.674,420.25,459.862,466.752,432.42,377.728,320.18,377.099,737.326,1259.92,2191.68,2191.68,80314.9,80314.9,80314.9
0.00027749	-302443.74	0,4.28143e-05,9.28963e-05,0.00015148,0.000220008,0.000300168,0.000393936,0.000503621,0.000631925,0.000782008,0.000957568,0.00116293,0.00140315,0.00168415,0.00201285,0.00239734,0.00284711,0.00337322,0.00398864,0.00470852,0.00555061,0.00653564,0.00768787,0.0090357,0.0106123,0.0124566,0.0146139,0.0171374,0.0200893,0.0235423,0.0275814,0.0323062,inf	153.586,153.586,285.646,436.584,410.947,490.674,302.898,219.315,301.416,391.53,464.011,481.285,440.783,415.64,405.364,416.166,408.792,385.906,417.799,463.473,469.899,430.877,372.505,309.018,371.499,858.936,1347.94,2191.68,2191.68,80256.8,80256.8,80256.8
0.000261217	-302429.13	0,4.28143e-05,9.28963e-05,0.00015148,0.000220008,0.000300168,0.000393936,0.000503621,0.000631925,0.000782008,0.000957568,0.00116293,0.00140315,0.00168415,0.00201285,0.00239734,0.00284711,0.00337322,0.00398864,0.00470852,0.00555061,0.00653564,0.00768787,0.0090357,0.0106123,0.0124566,0.0146139,0.0171374,0.0200893,0.0235423,0.0275814,0.0323062,inf	159.318,159.318,279.644,441.522,415.397,511.589,310.483,211.62,295.933,387.987,463.204,484.727,439.522,413.244,400.127,414.411,408.078,378.273,414.956,467.823,472.96,429.033,367.543,296.993,365.213,971.867,1361.66,2191.68,2191.68,80223,80223,80223
0.000261216	-302418.37	0,4.28143e-05,9.28963e-05,0.00015148,0.000220008,0.000300168,0.000393936,0.000503621,0.000631925,0.000782008,0.000957568,0.00116293,0.00140315,0.00168415,0.00201285,0.00239734,0.00284711,0.00337322,0.00398864,0.00470852,0.00555061,0.00653564,0.00768787,0.0090357,0.0106123,0.0124566,0.0146139,0.0171374,0.0200893,0.0235423,0.0275814,0.0323062,inf	159.318,159.318,277.994,442.932,415.397,511.589,310.483,207.672,296.002,390.813,463.204,484.727,439.522,413.244,400.127,414.411,408.078,377.937,414.957,468.068,472.96,429.033,365.748,287.809,362.348,982.149,1361.66,2191.68,2191.68,80223,80223,80223
0.000261216	-302418.34	0,4.28143e-05,9.28963e-05,0.00015148,0.000220008,0.000300168,0.000393936,0.000503621,0.000631925,0.000782008,0.000957568,0.00116293,0.00140315,0.00168415,0.00201285,0.00239734,0.00284711,0.00337322,0.00398864,0.00470852,0.00555061,0.00653564,0.00768787,0.0090357,0.0106123,0.0124566,0.0146139,0.0171374,0.0200893,0.0235423,0.0275814,0.0323062,inf	159.318,159.318,276.519,442.943,416.466,511.589,310.483,204.021,296.143,393.36,463.204,484.727,439.522,413.244,400.127,414.411,408.078,377.663,415.191,468.068,472.96,429.033,364.924,279.66,360.13,990.516,1361.66,2191.68,2191.68,80223,80223,80223
0.000261216	-302418.33	0,4.28143e-05,9.28963e-05,0.00015148,0.000220008,0.000300168,0.000393936,0.000503621,0.000631925,0.000782008,0.000957568,0.00116293,0.00140315,0.00168415,0.00201285,0.00239734,0.00284711,0.00337322,0.00398864,0.00470852,0.00555061,0.00653564,0.00768787,0.0090357,0.0106123,0.0124566,0.0146139,0.0171374,0.0200893,0.0235423,0.0275814,0.0323062,inf	159.318,159.318,275.369,443.926,416.466,511.589,310.483,200.623,296.341,393.36,465.183,484.727,439.522,413.244,400.127,414.411,408.078,377.427,415.191,468.241,472.96,429.033,364.883,272.333,358.441,997.34,1361.66,2191.68,2191.68,80223,80223,80223
0.000248466	-302418.33	0,4.28143e-05,9.28963e-05,0.00015148,0.000220008,0.000300168,0.000393936,0.000503621,0.000631925,0.000782008,0.000957568,0.00116293,0.00140315,0.00168415,0.00201285,0.00239734,0.00284711,0.00337322,0.00398864,0.00470852,0.00555061,0.00653564,0.00768787,0.0090357,0.0106123,0.0124566,0.0146139,0.0171374,0.0200893,0.0235423,0.0275814,0.0323062,inf	165.405,165.405,271.365,450.346,421.789,533.55,321.073,194.823,292.022,389.836,464.053,488.571,438.786,411.9,397.634,414.463,409.272,373.506,413.902,473.718,476.802,428.706,362.636,262.888,345.002,1349.55,1622.41,2191.68,2191.68,79906.3,79906.3,79906.3
0.000237548	-302412.00	0,4.28143e-05,9.28963e-05,0.00015148,0.000220008,0.000300168,0.000393936,0.000503621,0.000631925,0.000782008,0.000957568,0.00116293,0.00140315,0.00168415,0.00201285,0.00239734,0.00284711,0.00337322,0.00398864,0.00470852,0.00555061,0.00653564,0.00768787,0.0090357,0.0106123,0.0124566,0.0146139,0.0171374,0.0200893,0.0235423,0.0275814,0.0323062,inf	162.018,162.018,253.641,434.516,406.179,531.327,321.207,183.501,280.328,377.354,452.19,483.048,431.012,405.354,390.839,410.754,407.928,367.619,411.525,477.707,478.093,426,358.764,253.373,338.323,2216.43,2908.21,2385.25,2385.25,79194.2,79194.2,79194.2
0.000229514	-302408.95	0,4.28143e-05,9.28963e-05,0.00015148,0.000220008,0.000300168,0.000393936,0.000503621,0.000631925,0.000782008,0.000957568,0.00116293,0.00140315,0.00168415,0.00201285,0.00239734,0.00284711,0.00337322,0.00398864,0.00470852,0.00555061,0.00653564,0.00768787,0.0090357,0.0106123,0.0124566,0.0146139,0.0171374,0.0200893,0.0235423,0.0275814,0.0323062,inf	173.093,173.093,257.613,453.733,419.449,562.443,341.437,182.195,282.698,381.521,457.278,493.794,435.32,408.386,391.283,412.964,411.434,364.352,410.952,483.537,480.288,423.897,355.496,243.829,335.488,4444.64,33055.2,59909.9,59909.9,25493.9,25493.9,25493.9
0.000220783	-302406.82	0,4.28143e-05,9.28963e-05,0.00015148,0.000220008,0.000300168,0.000393936,0.000503621,0.000631925,0.000782008,0.000957568,0.00116293,0.00140315,0.00168415,0.00201285,0.00239734,0.00284711,0.00337322,0.00398864,0.00470852,0.00555061,0.00653564,0.00768787,0.0090357,0.0106123,0.0124566,0.0146139,0.0171374,0.0200893,0.0235423,0.0275814,0.0323062,inf	176.615,176.615,253.256,458.775,419.722,575.902,353.919,177.327,280.536,380.181,455.722,498.264,434.596,407.585,388.51,412.244,412.909,359.425,408.803,487.821,480.324,420.016,350.81,233.365,333.721,54339.9,241102,33.3336,33.3336,194.455,194.455,194.455
