LogLikelihood = -726123.5165649196133

y0 3.2532409967444464813e-10
y0_prime 0
y1 1.3075645600281156078
y1_prime 0
y2 1.7157675742701403721
y2_prime 0
y3 2.8533555561602819139
y3_prime 0
rho 0.41746534020989789493
theta 0.0020154956276793238416
