LogLikelihood = -659402.84641370293684

y0 0.14303222388326533587
y0_prime 0
y1 0.23827304474869651085
y1_prime 0
y2 1.9167262956429496068
y2_prime 0
y3 78.758274437866475637
y3_prime 0
rho 0.00011382709068757670371
theta 0.0018205359681411706092
