0.000217417	-132612.00	0,3.35698e-05,7.95038e-05,0.000142356,0.000228358,0.000346035,0.000507054,0.00072738,0.00102885,0.00144137,0.00200581,0.00277815,0.00383496,0.005281,0.00725964,0.00996705,inf	145.472,145.472,368.123,515.225,673.836,896.409,1191.55,1479.67,1532.9,1472.56,1380.04,1294.17,1167.82,1025.31,1025.31,1025.31
0.000210878	-132416.07	0,3.35698e-05,7.95038e-05,0.000142356,0.000228358,0.000346035,0.000507054,0.00072738,0.00102885,0.00144137,0.00200581,0.00277815,0.00383496,0.005281,0.00725964,0.00996705,inf	30.6986,30.6986,213.655,357.804,509.171,770.069,1176.12,1690.96,1838.14,1789.67,1640.48,1487.71,1219.04,952.104,952.104,952.104
0.000203895	-132350.13	0,3.35698e-05,7.95038e-05,0.000142356,0.000228358,0.000346035,0.000507054,0.00072738,0.00102885,0.00144137,0.00200581,0.00277815,0.00383496,0.005281,0.00725964,0.00996705,inf	8.1793,8.1793,164.842,306.119,428.981,687.335,1134.16,1800.63,2029.38,2038.59,1871.66,1684.14,1263.25,893.577,893.577,893.577
0.000196404	-132321.17	0,3.35698e-05,7.95038e-05,0.000142356,0.000228358,0.000346035,0.000507054,0.00072738,0.00102885,0.00144137,0.00200581,0.00277815,0.00383496,0.005281,0.00725964,0.00996705,inf	2.4291,2.4291,146.082,293.338,386.949,632.456,1092.03,1858.28,2141.47,2230.08,2077.51,1894.79,1309.09,851.447,851.447,851.447
0.000188716	-132305.41	0,3.35698e-05,7.95038e-05,0.000142356,0.000228358,0.000346035,0.000507054,0.00072738,0.00102885,0.00144137,0.00200581,0.00277815,0.00383496,0.005281,0.00725964,0.00996705,inf	1.09716,1.09716,136.81,296.792,364.133,595.368,1056.04,1890.41,2201.59,2378.16,2263.73,2132.78,1360.93,823.223,823.223,823.223
0.000181073	-132295.27	0,3.35698e-05,7.95038e-05,0.000142356,0.000228358,0.000346035,0.000507054,0.00072738,0.00102885,0.00144137,0.00200581,0.00277815,0.00383496,0.005281,0.00725964,0.00996705,inf	1.09716,1.09716,130.007,306.925,351.532,569.86,1026.7,1910.64,2227.78,2495.11,2435.63,2415.53,1420.78,805.938,805.938,805.938
0.000173625	-132287.90	0,3.35698e-05,7.95038e-05,0.000142356,0.000228358,0.000346035,0.000507054,0.00072738,0.00102885,0.00144137,0.00200581,0.00277815,0.00383496,0.005281,0.00725964,0.00996705,inf	1.09716,1.09716,123.27,319.232,344.486,552.069,1002.94,1925.9,2231.59,2590.59,2597.72,2771.42,1489.74,797.089,797.089,797.089
0.000166459	-132282.09	0,3.35698e-05,7.95038e-05,0.000142356,0.000228358,0.000346035,0.000507054,0.00072738,0.00102885,0.00144137,0.00200581,0.00277815,0.00383496,0.005281,0.00725964,0.00996705,inf	1.09716,1.09716,116.024,331.607,340.453,539.545,983.46,1939.71,2220.36,2671.82,2753.85,3256.47,1568.7,794.735,794.735,794.735
0.000159621	-132277.26	0,3.35698e-05,7.95038e-05,0.000142356,0.000228358,0.000346035,0.000507054,0.00072738,0.00102885,0.00144137,0.00200581,0.00277815,0.00383496,0.005281,0.00725964,0.00996705,inf	1.09716,1.09716,108.364,343.13,337.993,530.699,967.077,1953.77,2198.78,2744.12,2907.27,4010.72,1658.81,797.466,797.466,797.466
0.000153135	-132273.09	0,3.35698e-05,7.95038e-05,0.000142356,0.000228358,0.000346035,0.000507054,0.00072738,0.00102885,0.00144137,0.00200581,0.00277815,0.00383496,0.005281,0.00725964,0.00996705,inf	1.09716,1.09716,100.566,353.546,336.29,524.49,952.802,1968.84,2169.9,2811.31,3060.52,5560.36,1761.46,804.031,804.031,804.031
0.000147011	-132269.41	0,3.35698e-05,7.95038e-05,0.000142356,0.000228358,0.000346035,0.000507054,0.00072738,0.00102885,0.00144137,0.00200581,0.00277815,0.00383496,0.005281,0.00725964,0.00996705,inf	1.09716,1.09716,92.8879,362.895,334.88,520.231,939.863,1985.17,2135.76,2876.04,3214.38,12483.2,1877.76,813.505,813.505,813.505
0.000141252	-132266.10	0,3.35698e-05,7.95038e-05,0.000142356,0.000228358,0.000346035,0.000507054,0.00072738,0.00102885,0.00144137,0.00200581,0.00277815,0.00383496,0.005281,0.00725964,0.00996705,inf	1.09716,1.09716,85.5109,371.372,333.515,517.471,927.673,2002.76,2097.73,2939.88,3364.74,552018,2010.38,831.669,831.669,831.669
0.000135855	-132263.20	0,3.35698e-05,7.95038e-05,0.000142356,0.000228358,0.000346035,0.000507054,0.00072738,0.00102885,0.00144137,0.00200581,0.00277815,0.00383496,0.005281,0.00725964,0.00996705,inf	1.09716,1.09716,78.5353,379.179,332.059,515.919,915.808,2021.55,2057.11,3005.7,3523.55,685807,146.65,137.698,137.698,137.698
