0.00978187	-13724687.32	0,1.76362e-06,4.08676e-06,7.1469e-06,1.11779e-05,1.64877e-05,2.3482e-05,3.26952e-05,4.48314e-05,6.08177e-05,8.18756e-05,0.000109614,0.000146153,0.000194283,0.000257683,0.000341196,0.000451203,0.000596111,0.00078699,0.00103842,0.00136963,0.0018059,0.00238059,0.00313759,0.00413475,0.00544825,0.00717847,0.00945759,0.0124598,0.0164144,0.0216236,0.0284854,inf	720.373,720.373,808.22,836.363,826.647,821.53,808.694,773.389,718.098,651.502,585.457,528.702,484.006,450.747,427.136,411.099,400.658,394.177,390.411,388.465,387.73,387.801,388.412,389.369,390.512,391.717,392.924,394.548,394.548,397.078,397.078,397.078
0.00957585	-13718133.33	0,1.76362e-06,4.08676e-06,7.1469e-06,1.11779e-05,1.64877e-05,2.3482e-05,3.26952e-05,4.48314e-05,6.08177e-05,8.18756e-05,0.000109614,0.000146153,0.000194283,0.000257683,0.000341196,0.000451203,0.000596111,0.00078699,0.00103842,0.00136963,0.0018059,0.00238059,0.00313759,0.00413475,0.00544825,0.00717847,0.00945759,0.0124598,0.0164144,0.0216236,0.0284854,inf	671.002,671.002,843.666,936.35,961.627,1003.07,1032.99,1013.58,942.94,837.876,725.275,625.784,546.69,487.705,445.897,417.595,399.266,387.978,381.506,378.251,377.117,377.383,378.577,380.366,382.48,384.713,386.966,390.035,390.035,394.92,394.92,394.92
0.00938472	-13714110.75	0,1.76362e-06,4.08676e-06,7.1469e-06,1.11779e-05,1.64877e-05,2.3482e-05,3.26952e-05,4.48314e-05,6.08177e-05,8.18756e-05,0.000109614,0.000146153,0.000194283,0.000257683,0.000341196,0.000451203,0.000596111,0.00078699,0.00103842,0.00136963,0.0018059,0.00238059,0.00313759,0.00413475,0.00544825,0.00717847,0.00945759,0.0124598,0.0164144,0.0216236,0.0284854,inf	576.516,576.516,752.477,873.257,918.145,1002.75,1090.27,1119.12,1071.24,961.148,826.155,699.589,595.809,517.102,460.857,422.665,397.921,382.711,374.028,369.698,368.226,368.626,370.263,372.696,375.582,378.657,381.794,386.136,386.136,393.217,393.217,393.217
0.00920612	-13711232.19	0,1.76362e-06,4.08676e-06,7.1469e-06,1.11779e-05,1.64877e-05,2.3482e-05,3.26952e-05,4.48314e-05,6.08177e-05,8.18756e-05,0.000109614,0.000146153,0.000194283,0.000257683,0.000341196,0.000451203,0.000596111,0.00078699,0.00103842,0.00136963,0.0018059,0.00238059,0.00313759,0.00413475,0.00544825,0.00717847,0.00945759,0.0124598,0.0164144,0.0216236,0.0284854,inf	526.234,526.234,671.02,789.256,825.688,927.206,1056.74,1136.91,1129.38,1036.59,898.072,757.272,636.585,542.625,474.496,427.885,397.57,378.892,368.208,362.856,360.994,361.41,363.325,366.216,369.683,373.428,377.304,382.769,382.769,391.913,391.913,391.913
0.00903791	-13708995.19	0,1.76362e-06,4.08676e-06,7.1469e-06,1.11779e-05,1.64877e-05,2.3482e-05,3.26952e-05,4.48314e-05,6.08177e-05,8.18756e-05,0.000109614,0.000146153,0.000194283,0.000257683,0.000341196,0.000451203,0.000596111,0.00078699,0.00103842,0.00136963,0.0018059,0.00238059,0.00313759,0.00413475,0.00544825,0.00717847,0.00945759,0.0124598,0.0164144,0.0216236,0.0284854,inf	513.005,513.005,623.968,728.791,739.349,835.928,986.162,1106.62,1141.84,1077.68,948.317,803.042,671.621,565.894,487.763,433.746,398.394,376.508,363.916,357.533,355.207,355.518,357.563,360.747,364.633,368.901,373.393,379.854,379.854,390.953,390.953,390.953
0.00887815	-13707166.53	0,1.76362e-06,4.08676e-06,7.1469e-06,1.11779e-05,1.64877e-05,2.3482e-05,3.26952e-05,4.48314e-05,6.08177e-05,8.18756e-05,0.000109614,0.000146153,0.000194283,0.000257683,0.000341196,0.000451203,0.000596111,0.00078699,0.00103842,0.00136963,0.0018059,0.00238059,0.00313759,0.00413475,0.00544825,0.00717847,0.00945759,0.0124598,0.0164144,0.0216236,0.0284854,inf	519.471,519.471,604.973,696.59,673.477,752.671,906.755,1053.3,1125.97,1094.14,981.674,839.158,702.021,587.454,500.874,440.247,400.261,375.353,360.913,353.48,350.621,350.728,352.78,356.123,360.294,364.961,369.965,377.318,377.318,390.289,390.289,390.289
0.00872526	-13705612.70	0,1.76362e-06,4.08676e-06,7.1469e-06,1.11779e-05,1.64877e-05,2.3482e-05,3.26952e-05,4.48314e-05,6.08177e-05,8.18756e-05,0.000109614,0.000146153,0.000194283,0.000257683,0.000341196,0.000451203,0.000596111,0.00078699,0.00103842,0.00136963,0.0018059,0.00238059,0.00313759,0.00413475,0.00544825,0.00717847,0.00945759,0.0124598,0.0164144,0.0216236,0.0284854,inf	532.76,532.76,603.969,687.401,627.997,684.184,831.352,991.451,1093.35,1092.99,1001.5,866.952,728.229,607.388,513.746,447.22,402.952,375.186,358.952,350.46,347.019,346.843,348.807,352.201,356.546,361.512,366.942,375.102,375.102,389.88,389.88,389.88
0.00857795	-13704249.13	0,1.76362e-06,4.08676e-06,7.1469e-06,1.11779e-05,1.64877e-05,2.3482e-05,3.26952e-05,4.48314e-05,6.08177e-05,8.18756e-05,0.000109614,0.000146153,0.000194283,0.000257683,0.000341196,0.000451203,0.000596111,0.00078699,0.00103842,0.00136963,0.0018059,0.00238059,0.00313759,0.00413475,0.00544825,0.00717847,0.00945759,0.0124598,0.0164144,0.0216236,0.0284854,inf	544.856,544.856,612.632,695.081,599.173,630.632,764.92,929.044,1051.7,1079.43,1010.41,887.389,750.451,625.63,526.218,454.464,406.251,375.785,357.822,348.275,344.219,343.704,345.505,348.864,353.293,358.473,364.259,373.155,373.155,389.693,389.693,389.693
0.0084352	-13703019.61	0,1.76362e-06,4.08676e-06,7.1469e-06,1.11779e-05,1.64877e-05,2.3482e-05,3.26952e-05,4.48314e-05,6.08177e-05,8.18756e-05,0.000109614,0.000146153,0.000194283,0.000257683,0.000341196,0.000451203,0.000596111,0.00078699,0.00103842,0.00136963,0.0018059,0.00238059,0.00313759,0.00413475,0.00544825,0.00717847,0.00945759,0.0124598,0.0164144,0.0216236,0.0284854,inf	551.863,551.863,624.826,714.494,583.13,590.048,708.684,870.25,1006.1,1057.45,1010.6,901.323,768.861,642.094,538.13,461.797,409.972,376.971,357.347,346.763,342.076,341.181,342.761,346.016,350.457,355.781,361.862,371.436,371.436,389.703,389.703,389.703
0.00829621	-13701885.72	0,1.76362e-06,4.08676e-06,7.1469e-06,1.11779e-05,1.64877e-05,2.3482e-05,3.26952e-05,4.48314e-05,6.08177e-05,8.18756e-05,0.000109614,0.000146153,0.000194283,0.000257683,0.000341196,0.000451203,0.000596111,0.00078699,0.00103842,0.00136963,0.0018059,0.00238059,0.00313759,0.00413475,0.00544825,0.00717847,0.00945759,0.0124598,0.0164144,0.0216236,0.0284854,inf	552.519,552.519,636.134,741.539,576.599,560.043,662.216,816.994,959.838,1030.06,1003.97,909.574,783.655,656.729,549.352,469.071,413.965,378.596,357.392,345.798,340.473,339.171,340.486,343.583,347.974,353.383,359.708,369.911,369.911,389.887,389.887,389.887
0.00816036	-13700820.63	0,1.76362e-06,4.08676e-06,7.1469e-06,1.11779e-05,1.64877e-05,2.3482e-05,3.26952e-05,4.48314e-05,6.08177e-05,8.18756e-05,0.000109614,0.000146153,0.000194283,0.000257683,0.000341196,0.000451203,0.000596111,0.00078699,0.00103842,0.00136963,0.0018059,0.00238059,0.00313759,0.00413475,0.00544825,0.00717847,0.00945759,0.0124598,0.0164144,0.0216236,0.0284854,inf	547.345,547.345,643.598,772.999,577.047,538.482,624.457,769.965,914.976,999.555,992.121,912.935,795.077,669.526,559.792,476.172,418.111,380.546,357.846,345.276,339.319,337.591,338.608,341.501,345.792,351.235,357.762,368.554,368.554,390.229,390.229,390.229
0.00802715	-13699805.21	0,1.76362e-06,4.08676e-06,7.1469e-06,1.11779e-05,1.64877e-05,2.3482e-05,3.26952e-05,4.48314e-05,6.08177e-05,8.18756e-05,0.000109614,0.000146153,0.000194283,0.000257683,0.000341196,0.000451203,0.000596111,0.00078699,0.00103842,0.00136963,0.0018059,0.00238059,0.00313759,0.00413475,0.00544825,0.00717847,0.00945759,0.0124598,0.0164144,0.0216236,0.0284854,inf	537.893,537.893,645.517,806.172,582.532,523.561,594.142,729.111,872.702,967.594,976.416,912.155,803.398,680.515,569.392,483.015,422.322,382.732,358.624,345.12,338.539,336.376,337.069,339.722,343.868,349.303,355.994,367.342,367.342,390.712,390.712,390.712
0.0078962	-13698825.58	0,1.76362e-06,4.08676e-06,7.1469e-06,1.11779e-05,1.64877e-05,2.3482e-05,3.26952e-05,4.48314e-05,6.08177e-05,8.18756e-05,0.000109614,0.000146153,0.000194283,0.000257683,0.000341196,0.000451203,0.000596111,0.00078699,0.00103842,0.00136963,0.0018059,0.00238059,0.00313759,0.00413475,0.00544825,0.00717847,0.00945759,0.0124598,0.0164144,0.0216236,0.0284854,inf	525.869,525.869,641.147,838.939,591.545,513.808,570.093,694.054,833.657,935.385,957.978,907.929,808.908,689.757,578.118,489.538,426.527,385.084,359.659,345.265,338.077,335.473,335.822,338.204,342.169,347.558,354.379,366.254,366.254,391.327,391.327,391.327
0.00776719	-13697871.51	0,1.76362e-06,4.08676e-06,7.1469e-06,1.11779e-05,1.64877e-05,2.3482e-05,3.26952e-05,4.48314e-05,6.08177e-05,8.18756e-05,0.000109614,0.000146153,0.000194283,0.000257683,0.000341196,0.000451203,0.000596111,0.00078699,0.00103842,0.00136963,0.0018059,0.00238059,0.00313759,0.00413475,0.00544825,0.00717847,0.00945759,0.0124598,0.0164144,0.0216236,0.0284854,inf	512.81,512.81,630.584,869.632,602.873,508.056,551.229,664.246,798.084,903.759,937.71,900.878,811.898,697.334,585.962,495.698,430.673,387.546,360.897,345.66,337.883,334.839,334.829,336.914,340.666,345.974,352.898,365.277,365.277,392.064,392.064,392.064
0.00763988	-13696935.36	0,1.76362e-06,4.08676e-06,7.1469e-06,1.11779e-05,1.64877e-05,2.3482e-05,3.26952e-05,4.48314e-05,6.08177e-05,8.18756e-05,0.000109614,0.000146153,0.000194283,0.000257683,0.000341196,0.000451203,0.000596111,0.00078699,0.00103842,0.00136963,0.0018059,0.00238059,0.00313759,0.00413475,0.00544825,0.00717847,0.00945759,0.0124598,0.0164144,0.0216236,0.0284854,inf	499.927,499.927,614.352,896.951,615.555,505.398,536.643,639.078,766.003,873.276,916.339,891.56,812.658,703.347,592.93,501.468,434.721,390.076,362.295,346.263,337.92,334.438,334.058,335.823,339.334,344.533,351.533,364.395,364.395,392.915,392.915,392.915
0.00751408	-13696011.37	0,1.76362e-06,4.08676e-06,7.1469e-06,1.11779e-05,1.64877e-05,2.3482e-05,3.26952e-05,4.48314e-05,6.08177e-05,8.18756e-05,0.000109614,0.000146153,0.000194283,0.000257683,0.000341196,0.000451203,0.000596111,0.00078699,0.00103842,0.00136963,0.0018059,0.00238059,0.00313759,0.00413475,0.00544825,0.00717847,0.00945759,0.0124598,0.0164144,0.0216236,0.0284854,inf	488.142,488.142,593.434,920.062,628.819,505.023,525.541,617.953,737.28,844.282,894.425,880.449,811.463,707.899,599.042,506.829,438.64,392.64,363.817,347.042,338.156,334.241,333.483,334.91,338.153,343.215,350.268,363.597,363.597,393.874,393.874,393.874
0.00738963	-13695095.11	0,1.76362e-06,4.08676e-06,7.1469e-06,1.11779e-05,1.64877e-05,2.3482e-05,3.26952e-05,4.48314e-05,6.08177e-05,8.18756e-05,0.000109614,0.000146153,0.000194283,0.000257683,0.000341196,0.000451203,0.000596111,0.00078699,0.00103842,0.00136963,0.0018059,0.00238059,0.00313759,0.00413475,0.00544825,0.00717847,0.00945759,0.0124598,0.0164144,0.0216236,0.0284854,inf	477.917,477.917,568.928,938.387,642.057,506.357,517.261,600.319,711.701,816.979,872.393,867.96,808.566,711.103,604.322,511.773,442.408,395.21,365.437,347.968,338.565,334.225,333.081,334.154,337.106,342.007,349.093,362.873,362.873,394.938,394.938,394.938
0.0072664	-13694183.21	0,1.76362e-06,4.08676e-06,7.1469e-06,1.11779e-05,1.64877e-05,2.3482e-05,3.26952e-05,4.48314e-05,6.08177e-05,8.18756e-05,0.000109614,0.000146153,0.000194283,0.000257683,0.000341196,0.000451203,0.000596111,0.00078699,0.00103842,0.00136963,0.0018059,0.00238059,0.00313759,0.00413475,0.00544825,0.00717847,0.00945759,0.0124598,0.0164144,0.0216236,0.0284854,inf	469.505,469.505,541.959,951.646,654.794,508.878,511.24,585.672,689.006,791.453,850.578,854.447,804.206,713.066,608.806,516.298,446.008,397.765,367.131,349.019,339.125,334.369,332.835,333.538,336.18,340.897,347.995,362.215,362.215,396.101,396.101,396.101
0.0071443	-13693273.05	0,1.76362e-06,4.08676e-06,7.1469e-06,1.11779e-05,1.64877e-05,2.3482e-05,3.26952e-05,4.48314e-05,6.08177e-05,8.18756e-05,0.000109614,0.000146153,0.000194283,0.000257683,0.000341196,0.000451203,0.000596111,0.00078699,0.00103842,0.00136963,0.0018059,0.00238059,0.00313759,0.00413475,0.00544825,0.00717847,0.00945759,0.0124598,0.0164144,0.0216236,0.0284854,inf	462.958,462.958,513.574,959.863,666.674,512.155,507.018,573.565,668.93,767.724,829.212,840.2,798.595,713.897,612.529,520.405,449.43,400.288,368.88,350.175,339.819,334.656,332.729,333.049,335.36,339.872,346.966,361.616,361.616,397.362,397.362,397.362
0.00702324	-13692362.61	0,1.76362e-06,4.08676e-06,7.1469e-06,1.11779e-05,1.64877e-05,2.3482e-05,3.26952e-05,4.48314e-05,6.08177e-05,8.18756e-05,0.000109614,0.000146153,0.000194283,0.000257683,0.000341196,0.000451203,0.000596111,0.00078699,0.00103842,0.00136963,0.0018059,0.00238059,0.00313759,0.00413475,0.00544825,0.00717847,0.00945759,0.0124598,0.0164144,0.0216236,0.0284854,inf	458.274,458.274,484.662,963.235,677.412,515.858,504.175,563.599,651.205,745.755,808.468,825.461,791.925,713.698,615.53,524.1,452.663,402.765,370.669,351.422,340.63,335.072,332.75,332.675,334.637,338.925,345.998,361.068,361.068,398.718,398.718,398.718
