0.000686159	-13653738.21	0,4.08676e-06,1.11779e-05,2.3482e-05,4.48314e-05,8.18756e-05,0.000146153,0.000257683,0.000451203,0.00078699,0.00136963,0.00238059,0.00413475,0.00717847,0.0124598,0.0216236,inf	427.775,427.775,402.516,405.561,378.13,380.433,386.97,387.116,388.424,391.402,392.228,387.455,369.316,402.533,402.533,402.533
0.000743823	-13651018.78	0,4.08676e-06,1.11779e-05,2.3482e-05,4.48314e-05,8.18756e-05,0.000146153,0.000257683,0.000451203,0.00078699,0.00136963,0.00238059,0.00413475,0.00717847,0.0124598,0.0216236,inf	438.577,438.577,402.954,415.89,367.743,373.463,385.674,385.289,387.577,392.777,394.13,385.259,351.526,405.47,405.47,405.47
0.000796681	-13649019.05	0,4.08676e-06,1.11779e-05,2.3482e-05,4.48314e-05,8.18756e-05,0.000146153,0.000257683,0.000451203,0.00078699,0.00136963,0.00238059,0.00413475,0.00717847,0.0124598,0.0216236,inf	438.355,438.355,398.86,424.418,359.704,369.182,386.371,385.055,388.146,395.115,397.349,386.098,339.492,407.794,407.794,407.794
0.00084469	-13647494.33	0,4.08676e-06,1.11779e-05,2.3482e-05,4.48314e-05,8.18756e-05,0.000146153,0.000257683,0.000451203,0.00078699,0.00136963,0.00238059,0.00413475,0.00717847,0.0124598,0.0216236,inf	434.125,434.125,392.841,431.629,353.012,366.207,387.747,385.174,388.823,397.004,400.192,387.839,330.608,409.428,409.428,409.428
0.000888208	-13646319.34	0,4.08676e-06,1.11779e-05,2.3482e-05,4.48314e-05,8.18756e-05,0.000146153,0.000257683,0.000451203,0.00078699,0.00136963,0.00238059,0.00413475,0.00717847,0.0124598,0.0216236,inf	429.062,429.062,386.298,438.026,347.349,364.133,389.535,385.507,389.511,398.385,402.408,389.766,323.682,410.469,410.469,410.469
0.000927673	-13645404.38	0,4.08676e-06,1.11779e-05,2.3482e-05,4.48314e-05,8.18756e-05,0.000146153,0.000257683,0.000451203,0.00078699,0.00136963,0.00238059,0.00413475,0.00717847,0.0124598,0.0216236,inf	424.343,424.343,379.831,443.83,342.464,362.677,391.569,386.002,390.24,399.387,404.069,391.635,318.085,411.044,411.044,411.044
0.000963507	-13644684.45	0,4.08676e-06,1.11779e-05,2.3482e-05,4.48314e-05,8.18756e-05,0.000146153,0.000257683,0.000451203,0.00078699,0.00136963,0.00238059,0.00413475,0.00717847,0.0124598,0.0216236,inf	420.385,420.385,373.684,449.149,338.169,361.636,393.716,386.604,391.019,400.131,405.295,393.365,313.452,411.267,411.267,411.267
0.000996096	-13644112.42	0,4.08676e-06,1.11779e-05,2.3482e-05,4.48314e-05,8.18756e-05,0.000146153,0.000257683,0.000451203,0.00078699,0.00136963,0.00238059,0.00413475,0.00717847,0.0124598,0.0216236,inf	417.174,417.174,367.973,454.063,334.337,360.87,395.879,387.258,391.844,400.697,406.192,394.939,309.547,411.231,411.231,411.231
0.00102578	-13643653.87	0,4.08676e-06,1.11779e-05,2.3482e-05,4.48314e-05,8.18756e-05,0.000146153,0.000257683,0.000451203,0.00078699,0.00136963,0.00238059,0.00413475,0.00717847,0.0124598,0.0216236,inf	414.627,414.627,362.702,458.628,330.88,360.288,397.995,387.923,392.697,401.137,406.842,396.363,306.215,411.007,411.007,411.007
0.00105286	-13643283.36	0,4.08676e-06,1.11779e-05,2.3482e-05,4.48314e-05,8.18756e-05,0.000146153,0.000257683,0.000451203,0.00078699,0.00136963,0.00238059,0.00413475,0.00717847,0.0124598,0.0216236,inf	412.64,412.64,357.878,462.9,327.746,359.841,400.026,388.569,393.565,401.487,407.306,397.649,303.341,410.651,410.651,410.651
0.0010776	-13642981.84	0,4.08676e-06,1.11779e-05,2.3482e-05,4.48314e-05,8.18756e-05,0.000146153,0.000257683,0.000451203,0.00078699,0.00136963,0.00238059,0.00413475,0.00717847,0.0124598,0.0216236,inf	411.06,411.06,353.473,466.917,324.893,359.493,401.956,389.176,394.435,401.77,407.629,398.813,300.843,410.205,410.205,410.205
0.00110023	-13642734.90	0,4.08676e-06,1.11779e-05,2.3482e-05,4.48314e-05,8.18756e-05,0.000146153,0.000257683,0.000451203,0.00078699,0.00136963,0.00238059,0.00413475,0.00717847,0.0124598,0.0216236,inf	409.801,409.801,349.455,470.699,322.288,359.222,403.773,389.733,395.297,402.001,407.844,399.867,298.658,409.698,409.698,409.698
0.00112096	-13642531.50	0,4.08676e-06,1.11779e-05,2.3482e-05,4.48314e-05,8.18756e-05,0.000146153,0.000257683,0.000451203,0.00078699,0.00136963,0.00238059,0.00413475,0.00717847,0.0124598,0.0216236,inf	408.809,408.809,345.772,474.267,319.906,359.017,405.478,390.234,396.144,402.191,407.978,400.825,296.737,409.155,409.155,409.155
0.00113996	-13642363.10	0,4.08676e-06,1.11779e-05,2.3482e-05,4.48314e-05,8.18756e-05,0.000146153,0.000257683,0.000451203,0.00078699,0.00136963,0.00238059,0.00413475,0.00717847,0.0124598,0.0216236,inf	408.027,408.027,342.407,477.639,317.723,358.864,407.073,390.677,396.971,402.349,408.048,401.698,295.039,408.593,408.593,408.593
0.0011574	-13642223.01	0,4.08676e-06,1.11779e-05,2.3482e-05,4.48314e-05,8.18756e-05,0.000146153,0.000257683,0.000451203,0.00078699,0.00136963,0.00238059,0.00413475,0.00717847,0.0124598,0.0216236,inf	407.381,407.381,339.306,480.822,315.714,358.759,408.566,391.062,397.775,402.481,408.069,402.493,293.534,408.023,408.023,408.023
0.00117342	-13642105.97	0,4.08676e-06,1.11779e-05,2.3482e-05,4.48314e-05,8.18756e-05,0.000146153,0.000257683,0.000451203,0.00078699,0.00136963,0.00238059,0.00413475,0.00717847,0.0124598,0.0216236,inf	406.84,406.84,336.455,483.823,313.865,358.693,409.96,391.39,398.554,402.591,408.053,403.221,292.195,407.457,407.457,407.457
0.00118815	-13642007.80	0,4.08676e-06,1.11779e-05,2.3482e-05,4.48314e-05,8.18756e-05,0.000146153,0.000257683,0.000451203,0.00078699,0.00136963,0.00238059,0.00413475,0.00717847,0.0124598,0.0216236,inf	406.407,406.407,333.821,486.654,312.159,358.663,411.263,391.665,399.306,402.683,408.008,403.888,291,406.9,406.9,406.9
0.0012017	-13641925.16	0,4.08676e-06,1.11779e-05,2.3482e-05,4.48314e-05,8.18756e-05,0.000146153,0.000257683,0.000451203,0.00078699,0.00136963,0.00238059,0.00413475,0.00717847,0.0124598,0.0216236,inf	406.045,406.045,331.385,489.314,310.58,358.663,412.482,391.887,400.032,402.761,407.94,404.499,289.931,406.357,406.357,406.357
0.00121417	-13641855.35	0,4.08676e-06,1.11779e-05,2.3482e-05,4.48314e-05,8.18756e-05,0.000146153,0.000257683,0.000451203,0.00078699,0.00136963,0.00238059,0.00413475,0.00717847,0.0124598,0.0216236,inf	405.722,405.722,329.131,491.823,309.112,358.689,413.623,392.062,400.731,402.826,407.857,405.06,288.972,405.832,405.832,405.832
0.00122566	-13641796.19	0,4.08676e-06,1.11779e-05,2.3482e-05,4.48314e-05,8.18756e-05,0.000146153,0.000257683,0.000451203,0.00078699,0.00136963,0.00238059,0.00413475,0.00717847,0.0124598,0.0216236,inf	405.48,405.48,327.04,494.18,307.747,358.738,414.692,392.194,401.404,402.88,407.761,405.576,288.112,405.326,405.326,405.326
