time_index	left_time_boundary	right_time_boundary	lambda
0	0	2.86378e-06	394.045
1	2.86378e-06	6.64574e-06	394.045
2	6.64574e-06	1.16403e-05	394.045
3	1.16403e-05	1.82362e-05	394.045
4	1.82362e-05	2.69469e-05	394.045
5	2.69469e-05	3.84504e-05	394.045
6	3.84504e-05	5.36422e-05	394.045
7	5.36422e-05	7.37049e-05	394.045
8	7.37049e-05	0.0001002	394.045
9	0.0001002	0.00013519	394.045
10	0.00013519	0.000181399	394.045
11	0.000181399	0.000242423	394.045
12	0.000242423	0.000323013	394.045
13	0.000323013	0.000429441	394.045
14	0.000429441	0.000569993	394.045
15	0.000569993	0.000755609	394.045
16	0.000755609	0.00100074	394.045
17	0.00100074	0.00132446	394.045
18	0.00132446	0.00175197	394.045
19	0.00175197	0.00231656	394.045
20	0.00231656	0.00306216	394.045
21	0.00306216	0.00404682	394.045
22	0.00404682	0.00534718	394.045
23	0.00534718	0.00706447	394.045
24	0.00706447	0.00933236	394.045
25	0.00933236	0.0123274	394.045
26	0.0123274	0.0162827	394.045
27	0.0162827	0.0215061	394.045
28	0.0215061	0.0284043	394.045
29	0.0284043	inf	394.045
