LogLikelihood = -172600.73367228734423

y0 0.9088660231339943385
y0_prime 0
y1 1.1399542368508905898
y1_prime 0
y2 0.85447698005832739554
y2_prime 0
y3 1.7990634546404633554
y3_prime 0
rho 0.0014501977938216625581
theta 0.0025391495984055231436
