0.000747204	-87626640.09	0,6.11264e-06,1.64091e-05,3.3753e-05,6.29681e-05,0.00011218,0.000195074,0.000334707,0.000569911,0.000966102,0.00163347,0.00275762,0.0046512,0.00784085,0.0132137,0.022264,inf	203.229,203.229,181.666,173.158,170.264,174.584,187.925,216.024,269.561,370.948,540.203,528.545,472.712,445.261,445.261,445.261
0.000865581	-87492321.56	0,6.11264e-06,1.64091e-05,3.3753e-05,6.29681e-05,0.00011218,0.000195074,0.000334707,0.000569911,0.000966102,0.00163347,0.00275762,0.0046512,0.00784085,0.0132137,0.022264,inf	213.222,213.222,171.663,150.596,135.799,130.131,135.905,161.515,221.512,345.071,602.939,604.196,519.428,474.344,474.344,474.344
0.000973949	-87438177.45	0,6.11264e-06,1.64091e-05,3.3753e-05,6.29681e-05,0.00011218,0.000195074,0.000334707,0.000569911,0.000966102,0.00163347,0.00275762,0.0046512,0.00784085,0.0132137,0.022264,inf	237.781,237.781,188.35,159.726,135.376,120.957,119.425,140.693,200.407,328.391,629.56,646.233,547.498,491.472,491.472,491.472
0.00107432	-87406860.71	0,6.11264e-06,1.64091e-05,3.3753e-05,6.29681e-05,0.00011218,0.000195074,0.000334707,0.000569911,0.000966102,0.00163347,0.00275762,0.0046512,0.00784085,0.0132137,0.022264,inf	246.518,246.518,202.735,173.489,143.323,122.156,114.753,132.595,191.075,318.228,639.973,668.802,563.572,500.571,500.571,500.571
0.00116894	-87384128.26	0,6.11264e-06,1.64091e-05,3.3753e-05,6.29681e-05,0.00011218,0.000195074,0.000334707,0.000569911,0.000966102,0.00163347,0.00275762,0.0046512,0.00784085,0.0132137,0.022264,inf	239.634,239.634,207.939,183.9,152.097,126.519,114.748,130.276,187.691,312.209,642.882,680.082,572.062,504.393,504.393,504.393
0.00125943	-87365511.19	0,6.11264e-06,1.64091e-05,3.3753e-05,6.29681e-05,0.00011218,0.000195074,0.000334707,0.000569911,0.000966102,0.00163347,0.00275762,0.0046512,0.00784085,0.0132137,0.022264,inf	225.65,225.65,205.111,189.14,159.106,131.396,116.686,130.886,187.599,308.821,642.211,684.679,575.744,504.772,504.772,504.772
0.00134684	-87349311.73	0,6.11264e-06,1.64091e-05,3.3753e-05,6.29681e-05,0.00011218,0.000195074,0.000334707,0.000569911,0.000966102,0.00163347,0.00275762,0.0046512,0.00784085,0.0132137,0.022264,inf	211.331,211.331,197.605,189.907,163.735,135.768,119.387,133.083,189.436,307.133,639.815,685.237,576.355,502.921,502.921,502.921
0.00143188	-87334766.36	0,6.11264e-06,1.64091e-05,3.3753e-05,6.29681e-05,0.00011218,0.000195074,0.000334707,0.000569911,0.000966102,0.00163347,0.00275762,0.0046512,0.00784085,0.0132137,0.022264,inf	199.863,199.863,188.345,187.624,166.19,139.305,122.3,136.169,192.443,306.557,636.608,683.323,574.999,499.641,499.641,499.641
0.00151499	-87321477.26	0,6.11264e-06,1.64091e-05,3.3753e-05,6.29681e-05,0.00011218,0.000195074,0.000334707,0.000569911,0.000966102,0.00163347,0.00275762,0.0046512,0.00784085,0.0132137,0.022264,inf	192.033,192.033,179.174,183.635,166.958,141.982,125.169,139.754,196.169,306.716,633.055,679.889,572.39,495.468,495.468,495.468
0.0015965	-87309209.09	0,6.11264e-06,1.64091e-05,3.3753e-05,6.29681e-05,0.00011218,0.000195074,0.000334707,0.000569911,0.000966102,0.00163347,0.00275762,0.0046512,0.00784085,0.0132137,0.022264,inf	187.516,187.516,171.023,178.936,166.548,143.897,127.879,143.608,200.331,307.363,629.4,675.534,568.993,490.759,490.759,490.759
0.0016766	-87297807.42	0,6.11264e-06,1.64091e-05,3.3753e-05,6.29681e-05,0.00011218,0.000195074,0.000334707,0.000569911,0.000966102,0.00163347,0.00275762,0.0046512,0.00784085,0.0132137,0.022264,inf	185.644,185.644,164.26,174.204,165.426,145.222,130.419,147.63,204.801,308.37,625.77,670.609,565.102,485.747,485.747,485.747
0.00175547	-87287159.51	0,6.11264e-06,1.64091e-05,3.3753e-05,6.29681e-05,0.00011218,0.000195074,0.000334707,0.000569911,0.000966102,0.00163347,0.00275762,0.0046512,0.00784085,0.0132137,0.022264,inf	185.622,185.622,158.847,169.739,163.85,146.03,132.726,151.674,209.384,309.568,622.225,665.399,560.947,480.608,480.608,480.608
0.0018332	-87277183.36	0,6.11264e-06,1.64091e-05,3.3753e-05,6.29681e-05,0.00011218,0.000195074,0.000334707,0.000569911,0.000966102,0.00163347,0.00275762,0.0046512,0.00784085,0.0132137,0.022264,inf	186.856,186.856,154.711,165.772,162.09,146.467,134.828,155.697,214.008,310.886,618.802,660.065,556.669,475.451,475.451,475.451
0.00190988	-87267811.97	0,6.11264e-06,1.64091e-05,3.3753e-05,6.29681e-05,0.00011218,0.000195074,0.000334707,0.000569911,0.000966102,0.00163347,0.00275762,0.0046512,0.00784085,0.0132137,0.022264,inf	188.854,188.854,151.695,162.388,160.317,146.644,136.751,159.67,218.622,312.272,615.518,654.716,552.362,470.349,470.349,470.349
0.00198557	-87258989.56	0,6.11264e-06,1.64091e-05,3.3753e-05,6.29681e-05,0.00011218,0.000195074,0.000334707,0.000569911,0.000966102,0.00163347,0.00275762,0.0046512,0.00784085,0.0132137,0.022264,inf	191.216,191.216,149.62,159.598,158.639,146.648,138.521,163.574,223.19,313.691,612.378,649.42,548.088,465.347,465.347,465.347
0.00206031	-87250668.67	0,6.11264e-06,1.64091e-05,3.3753e-05,6.29681e-05,0.00011218,0.000195074,0.000334707,0.000569911,0.000966102,0.00163347,0.00275762,0.0046512,0.00784085,0.0132137,0.022264,inf	193.684,193.684,148.321,157.37,157.12,146.542,140.162,167.398,227.688,315.117,609.379,644.225,543.89,460.476,460.476,460.476
0.00213414	-87242808.10	0,6.11264e-06,1.64091e-05,3.3753e-05,6.29681e-05,0.00011218,0.000195074,0.000334707,0.000569911,0.000966102,0.00163347,0.00275762,0.0046512,0.00784085,0.0132137,0.022264,inf	196.053,196.053,147.656,155.656,155.794,146.376,141.694,171.136,232.098,316.532,606.516,639.157,539.795,455.753,455.753,455.753
0.00220709	-87235371.59	0,6.11264e-06,1.64091e-05,3.3753e-05,6.29681e-05,0.00011218,0.000195074,0.000334707,0.000569911,0.000966102,0.00163347,0.00275762,0.0046512,0.00784085,0.0132137,0.022264,inf	198.208,198.208,147.499,154.403,154.675,146.184,143.136,174.785,236.41,317.923,603.783,634.236,535.82,451.189,451.189,451.189
0.00227917	-87228326.96	0,6.11264e-06,1.64091e-05,3.3753e-05,6.29681e-05,0.00011218,0.000195074,0.000334707,0.000569911,0.000966102,0.00163347,0.00275762,0.0046512,0.00784085,0.0132137,0.022264,inf	200.068,200.068,147.745,153.554,153.766,145.993,144.503,178.344,240.616,319.281,601.172,629.47,531.975,446.788,446.788,446.788
0.00235042	-87221645.37	0,6.11264e-06,1.64091e-05,3.3753e-05,6.29681e-05,0.00011218,0.000195074,0.000334707,0.000569911,0.000966102,0.00163347,0.00275762,0.0046512,0.00784085,0.0132137,0.022264,inf	201.621,201.621,148.312,153.057,153.062,145.821,145.81,181.813,244.712,320.602,598.677,624.865,528.265,442.549,442.549,442.549
