0.000700382	-3133614.32	0,4.2498e-05,9.22099e-05,0.000150361,0.000218382,0.00029795,0.000391025,0.0004999,0.000627256,0.000776231,0.000950494,0.00115434,0.00139278,0.00167171,0.00199798,0.00237963,0.00282607,0.0033483,0.00395917,0.00467373,0.0055096,0.00648735,0.00763107,0.00896895,0.0105339,0.0123646,0.0145059,0.0170108,0.0199409,0.0233684,0.0273776,0.0320675,inf	168.875,168.875,176.288,178.527,186.244,199.391,216.863,238.362,264.546,296.378,334.481,378.391,425.391,469.558,502.851,519.573,520.199,510.155,495.506,480.08,465.516,452.303,440.545,430.293,421.532,414.073,407.593,401.042,401.042,394.945,394.945,394.945
0.000780092	-3129582.20	0,4.2498e-05,9.22099e-05,0.000150361,0.000218382,0.00029795,0.000391025,0.0004999,0.000627256,0.000776231,0.000950494,0.00115434,0.00139278,0.00167171,0.00199798,0.00237963,0.00282607,0.0033483,0.00395917,0.00467373,0.0055096,0.00648735,0.00763107,0.00896895,0.0105339,0.0123646,0.0145059,0.0170108,0.0199409,0.0233684,0.0273776,0.0320675,inf	141.935,141.935,137.558,129.099,130.527,141,158.375,181.955,212.719,252.323,302.172,362.508,430.85,499.939,557.509,591.78,599.507,587.291,565.015,539.671,514.602,491.061,469.604,450.647,434.404,420.617,408.73,397.156,397.156,387.757,387.757,387.757
0.00085788	-3127745.50	0,4.2498e-05,9.22099e-05,0.000150361,0.000218382,0.00029795,0.000391025,0.0004999,0.000627256,0.000776231,0.000950494,0.00115434,0.00139278,0.00167171,0.00199798,0.00237963,0.00282607,0.0033483,0.00395917,0.00467373,0.0055096,0.00648735,0.00763107,0.00896895,0.0105339,0.0123646,0.0145059,0.0170108,0.0199409,0.0233684,0.0273776,0.0320675,inf	148.785,148.785,134.178,115.12,110.51,117.705,133.292,156.167,187.507,229.412,283.74,351.214,429.87,512.549,585.518,633.371,649.17,638.654,613.371,582.271,550.001,518.603,489.27,463.003,440.422,421.307,404.986,389.761,389.761,379.155,379.155,379.155
0.00093308	-3126629.57	0,4.2498e-05,9.22099e-05,0.000150361,0.000218382,0.00029795,0.000391025,0.0004999,0.000627256,0.000776231,0.000950494,0.00115434,0.00139278,0.00167171,0.00199798,0.00237963,0.00282607,0.0033483,0.00395917,0.00467373,0.0055096,0.00648735,0.00763107,0.00896895,0.0105339,0.0123646,0.0145059,0.0170108,0.0199409,0.0233684,0.0273776,0.0320675,inf	162.001,162.001,140.997,112.238,102.672,107.341,121.395,143.298,174.344,216.902,273.046,343.736,427.397,517.309,599.508,656.817,679.625,672.222,646.498,612.345,575.231,537.857,502.099,469.659,441.673,418.046,398.086,380.297,380.297,369.823,369.823,369.823
0.00100602	-3125819.31	0,4.2498e-05,9.22099e-05,0.000150361,0.000218382,0.00029795,0.000391025,0.0004999,0.000627256,0.000776231,0.000950494,0.00115434,0.00139278,0.00167171,0.00199798,0.00237963,0.00282607,0.0033483,0.00395917,0.00467373,0.0055096,0.00648735,0.00763107,0.00896895,0.0105339,0.0123646,0.0145059,0.0170108,0.0199409,0.0233684,0.0273776,0.0320675,inf	172.913,172.913,150.528,113.393,99.8964,102.779,115.767,136.9,167.543,210.213,267.049,339.077,424.973,518.479,605.922,669.462,697.789,693.754,668.897,633.366,593.032,551.077,510.025,472.324,439.683,412.196,389.241,369.712,369.712,360.13,360.13,360.13
0.00107712	-3125164.54	0,4.2498e-05,9.22099e-05,0.000150361,0.000218382,0.00029795,0.000391025,0.0004999,0.000627256,0.000776231,0.000950494,0.00115434,0.00139278,0.00167171,0.00199798,0.00237963,0.00282607,0.0033483,0.00395917,0.00467373,0.0055096,0.00648735,0.00763107,0.00896895,0.0105339,0.0123646,0.0145059,0.0170108,0.0199409,0.0233684,0.0273776,0.0320675,inf	178.98,178.98,159.966,115.989,99.47,101.167,113.497,134.117,164.437,207.049,264.049,336.431,423.019,517.97,608.101,675.541,708.008,707.121,683.745,647.852,605.407,559.907,514.447,472.217,435.529,404.713,379.282,358.627,358.627,350.292,350.292,350.292
0.00114674	-3124601.22	0,4.2498e-05,9.22099e-05,0.000150361,0.000218382,0.00029795,0.000391025,0.0004999,0.000627256,0.000776231,0.000950494,0.00115434,0.00139278,0.00167171,0.00199798,0.00237963,0.00282607,0.0033483,0.00395917,0.00467373,0.0055096,0.00648735,0.00763107,0.00896895,0.0105339,0.0123646,0.0145059,0.0170108,0.0199409,0.0233684,0.0273776,0.0320675,inf	180.402,180.402,168.262,118.949,100.195,101.183,113.18,133.51,163.622,206.131,263.027,335.21,421.589,516.676,607.848,677.547,713.02,714.898,693.24,657.597,613.809,565.536,516.37,470.208,429.973,396.266,368.781,347.46,347.46,340.45,340.45,340.45
0.00121516	-3124098.37	0,4.2498e-05,9.22099e-05,0.000150361,0.000218382,0.00029795,0.000391025,0.0004999,0.000627256,0.000776231,0.000950494,0.00115434,0.00139278,0.00167171,0.00199798,0.00237963,0.00282607,0.0033483,0.00395917,0.00467373,0.0055096,0.00648735,0.00763107,0.00896895,0.0105339,0.0123646,0.0145059,0.0170108,0.0199409,0.0233684,0.0273776,0.0320675,inf	178.364,178.364,175.118,121.803,101.486,102.146,114.065,134.283,164.292,206.695,263.338,334.996,420.62,515.033,606.174,676.985,714.578,718.809,698.915,663.882,619.285,568.83,516.517,466.919,423.556,387.324,358.134,336.481,336.481,330.7,330.7,330.7
0.00128259	-3123639.39	0,4.2498e-05,9.22099e-05,0.000150361,0.000218382,0.00029795,0.000391025,0.0004999,0.000627256,0.000776231,0.000950494,0.00115434,0.00139278,0.00167171,0.00199798,0.00237963,0.00282607,0.0033483,0.00395917,0.00467373,0.0055096,0.00648735,0.00763107,0.00896895,0.0105339,0.0123646,0.0145059,0.0170108,0.0199409,0.0233684,0.0273776,0.0320675,inf	174.166,174.166,180.566,124.35,103.032,103.674,115.713,135.961,165.953,208.258,264.56,335.492,420.026,513.257,603.669,674.793,713.825,720.031,701.846,667.63,622.601,570.418,515.416,462.795,416.662,378.219,347.613,325.873,325.873,321.124,321.124,321.124
0.00134917	-3123214.61	0,4.2498e-05,9.22099e-05,0.000150361,0.000218382,0.00029795,0.000391025,0.0004999,0.000627256,0.000776231,0.000950494,0.00115434,0.00139278,0.00167171,0.00199798,0.00237963,0.00282607,0.0033483,0.00395917,0.00467373,0.0055096,0.00648735,0.00763107,0.00896895,0.0105339,0.0123646,0.0145059,0.0170108,0.0199409,0.0233684,0.0273776,0.0320675,inf	168.864,168.864,184.764,126.515,104.665,105.539,117.858,138.244,168.285,210.504,266.407,336.484,419.722,511.457,600.686,671.569,711.524,719.371,702.798,669.511,624.319,570.766,513.451,458.161,409.564,369.179,337.4,315.746,315.746,311.773,311.773,311.773
0.00141501	-3122817.97	0,4.2498e-05,9.22099e-05,0.000150361,0.000218382,0.00029795,0.000391025,0.0004999,0.000627256,0.000776231,0.000950494,0.00115434,0.00139278,0.00167171,0.00199798,0.00237963,0.00282607,0.0033483,0.00395917,0.00467373,0.0055096,0.00648735,0.00763107,0.00896895,0.0105339,0.0123646,0.0145059,0.0170108,0.0199409,0.0233684,0.0273776,0.0320675,inf	163.21,163.21,187.911,128.291,106.291,107.601,120.326,140.936,171.076,213.215,268.68,337.822,419.639,509.685,597.443,667.702,708.191,717.398,702.319,670.016,624.857,570.217,510.907,453.25,402.456,360.363,327.613,306.171,306.171,302.691,302.691,302.691
0.0014802	-3122445.37	0,4.2498e-05,9.22099e-05,0.000150361,0.000218382,0.00029795,0.000391025,0.0004999,0.000627256,0.000776231,0.000950494,0.00115434,0.00139278,0.00167171,0.00199798,0.00237963,0.00282607,0.0033483,0.00395917,0.00467373,0.0055096,0.00648735,0.00763107,0.00896895,0.0105339,0.0123646,0.0145059,0.0170108,0.0199409,0.0233684,0.0273776,0.0320675,inf	157.684,157.684,190.196,129.701,107.861,109.772,123.003,143.902,174.179,216.242,271.239,339.395,419.718,507.967,594.075,663.451,704.182,714.512,700.809,669.509,624.525,569.028,507.989,448.23,395.472,351.877,318.328,297.181,297.181,293.902,293.902,293.902
0.0015448	-3122093.90	0,4.2498e-05,9.22099e-05,0.000150361,0.000218382,0.00029795,0.000391025,0.0004999,0.000627256,0.000776231,0.000950494,0.00115434,0.00139278,0.00167171,0.00199798,0.00237963,0.00282607,0.0033483,0.00395917,0.00467373,0.0055096,0.00648735,0.00763107,0.00896895,0.0105339,0.0123646,0.0145059,0.0170108,0.0199409,0.0233684,0.0273776,0.0320675,inf	152.566,152.566,191.794,130.781,109.35,111.995,125.811,147.051,177.492,219.477,273.984,341.122,419.916,506.313,590.669,658.988,699.741,710.999,698.56,668.259,623.557,567.391,504.852,443.221,388.707,343.787,309.58,288.786,288.786,285.423,285.423,285.423
0.00160885	-3121761.33	0,4.2498e-05,9.22099e-05,0.000150361,0.000218382,0.00029795,0.000391025,0.0004999,0.000627256,0.000776231,0.000950494,0.00115434,0.00139278,0.00167171,0.00199798,0.00237963,0.00282607,0.0033483,0.00395917,0.00467373,0.0055096,0.00648735,0.00763107,0.00896895,0.0105339,0.0123646,0.0145059,0.0170108,0.0199409,0.0233684,0.0273776,0.0320675,inf	148,148,192.85,131.577,110.752,114.234,128.698,150.317,180.939,222.843,276.843,342.945,420.198,504.726,587.279,654.429,695.043,707.068,695.786,666.47,622.129,565.45,501.609,438.308,382.22,336.133,301.387,280.978,280.978,277.267,277.267,277.267
0.00167237	-3121445.93	0,4.2498e-05,9.22099e-05,0.000150361,0.000218382,0.00029795,0.000391025,0.0004999,0.000627256,0.000776231,0.000950494,0.00115434,0.00139278,0.00167171,0.00199798,0.00237963,0.00282607,0.0033483,0.00395917,0.00467373,0.0055096,0.00648735,0.00763107,0.00896895,0.0105339,0.0123646,0.0145059,0.0170108,0.0199409,0.0233684,0.0273776,0.0320675,inf	144.038,144.038,193.487,132.132,112.067,116.468,131.626,153.653,184.469,226.285,279.764,344.822,420.537,503.203,583.939,649.854,690.207,702.866,692.649,664.294,620.375,563.313,498.342,433.551,376.052,328.934,293.748,273.743,273.743,269.435,269.435,269.435
0.0017354	-3121146.27	0,4.2498e-05,9.22099e-05,0.000150361,0.000218382,0.00029795,0.000391025,0.0004999,0.000627256,0.000776231,0.000950494,0.00115434,0.00139278,0.00167171,0.00199798,0.00237963,0.00282607,0.0033483,0.00395917,0.00467373,0.0055096,0.00648735,0.00763107,0.00896895,0.0105339,0.0123646,0.0145059,0.0170108,0.0199409,0.0233684,0.0273776,0.0320675,inf	140.679,140.679,193.805,132.489,113.302,118.683,134.571,157.026,188.041,229.761,282.707,346.72,420.913,501.742,580.671,645.315,685.32,698.504,689.267,661.846,618.394,561.06,495.11,428.989,370.222,322.195,286.651,267.055,267.055,261.925,261.925,261.925
0.00179794	-3120861.13	0,4.2498e-05,9.22099e-05,0.000150361,0.000218382,0.00029795,0.000391025,0.0004999,0.000627256,0.000776231,0.000950494,0.00115434,0.00139278,0.00167171,0.00199798,0.00237963,0.00282607,0.0033483,0.00395917,0.00467373,0.0055096,0.00648735,0.00763107,0.00896895,0.0105339,0.0123646,0.0145059,0.0170108,0.0199409,0.0233684,0.0273776,0.0320675,inf	137.894,137.894,193.883,132.688,114.466,120.872,137.514,160.411,191.626,233.241,285.645,348.616,421.309,500.337,577.487,640.847,680.44,694.06,685.727,659.213,616.262,558.75,491.955,424.646,364.741,315.907,280.075,260.886,260.886,254.735,254.735,254.735
0.00186002	-3120589.46	0,4.2498e-05,9.22099e-05,0.000150361,0.000218382,0.00029795,0.000391025,0.0004999,0.000627256,0.000776231,0.000950494,0.00115434,0.00139278,0.00167171,0.00199798,0.00237963,0.00282607,0.0033483,0.00395917,0.00467373,0.0055096,0.00648735,0.00763107,0.00896895,0.0105339,0.0123646,0.0145059,0.0170108,0.0199409,0.0233684,0.0273776,0.0320675,inf	135.634,135.634,193.783,132.763,115.571,123.031,140.442,163.79,195.204,236.703,288.556,350.493,421.715,498.985,574.393,636.474,675.612,689.593,682.097,656.461,614.038,556.429,488.905,420.536,359.606,310.06,273.995,255.205,255.205,247.854,247.854,247.854
0.00192163	-3120330.35	0,4.2498e-05,9.22099e-05,0.000150361,0.000218382,0.00029795,0.000391025,0.0004999,0.000627256,0.000776231,0.000950494,0.00115434,0.00139278,0.00167171,0.00199798,0.00237963,0.00282607,0.0033483,0.00395917,0.00467373,0.0055096,0.00648735,0.00763107,0.00896895,0.0105339,0.0123646,0.0145059,0.0170108,0.0199409,0.0233684,0.0273776,0.0320675,inf	133.848,133.848,193.554,132.742,116.626,125.159,143.349,167.15,198.757,240.129,291.426,352.339,422.122,497.681,571.392,632.21,670.862,685.143,678.425,653.639,611.764,554.126,485.981,416.665,354.813,304.633,268.383,249.979,249.979,241.274,241.274,241.274
0.00198278	-3120082.96	0,4.2498e-05,9.22099e-05,0.000150361,0.000218382,0.00029795,0.000391025,0.0004999,0.000627256,0.000776231,0.000950494,0.00115434,0.00139278,0.00167171,0.00199798,0.00237963,0.00282607,0.0033483,0.00395917,0.00467373,0.0055096,0.00648735,0.00763107,0.00896895,0.0105339,0.0123646,0.0145059,0.0170108,0.0199409,0.0233684,0.0273776,0.0320675,inf	132.48,132.48,193.236,132.652,117.64,127.257,146.226,170.481,202.275,243.508,294.244,354.145,422.521,496.421,568.485,628.062,666.21,680.741,674.748,650.785,609.472,551.867,483.192,413.033,350.348,299.606,263.209,245.177,245.177,234.984,234.984,234.984
