0.000720645	-3133499.28	0,9.22099e-05,0.000218382,0.000391025,0.000627256,0.000950494,0.00139278,0.00199798,0.00282607,0.00395917,0.0055096,0.00763107,0.0105339,0.0145059,0.0199409,0.0273776,inf	172.357,172.357,190.342,224.393,275.709,351.941,453.374,531.501,527.331,492.443,464.136,442.971,427.659,413.484,413.484,413.484
0.000817728	-3129076.84	0,9.22099e-05,0.000218382,0.000391025,0.000627256,0.000950494,0.00139278,0.00199798,0.00282607,0.00395917,0.0055096,0.00763107,0.0105339,0.0145059,0.0199409,0.0273776,inf	131.288,131.288,134.565,168.381,227.935,324.904,468.251,602.574,608.82,556.937,510.732,473.447,445.863,420.148,420.148,420.148
0.000909924	-3127163.37	0,9.22099e-05,0.000218382,0.000391025,0.000627256,0.000950494,0.00139278,0.00199798,0.00282607,0.00395917,0.0055096,0.00763107,0.0105339,0.0145059,0.0199409,0.0273776,inf	125.66,125.66,114.154,144.738,205.23,309.045,470.403,639.309,658.064,599.718,543.095,493.861,456.528,421.744,421.744,421.744
0.00099739	-3126029.12	0,9.22099e-05,0.000218382,0.000391025,0.000627256,0.000950494,0.00139278,0.00199798,0.00282607,0.00395917,0.0055096,0.00763107,0.0105339,0.0145059,0.0199409,0.0273776,inf	130.108,130.108,106.023,133.961,193.945,299.917,468.703,657.739,687.034,627.511,565.229,507.104,461.862,419.894,419.894,419.894
0.00108111	-3125210.04	0,9.22099e-05,0.000218382,0.000391025,0.000627256,0.000950494,0.00139278,0.00199798,0.00282607,0.00395917,0.0055096,0.00763107,0.0105339,0.0145059,0.0199409,0.0273776,inf	137.025,137.025,103.063,129.316,188.671,294.953,466.056,666.198,703.377,645.143,580.125,515.291,463.439,415.647,415.647,415.647
0.00116193	-3124547.10	0,9.22099e-05,0.000218382,0.000391025,0.000627256,0.000950494,0.00139278,0.00199798,0.00282607,0.00395917,0.0055096,0.00763107,0.0105339,0.0145059,0.0199409,0.0273776,inf	143.55,143.55,102.54,127.955,186.863,292.644,463.419,669.059,711.76,655.87,589.891,519.899,462.359,409.716,409.716,409.716
0.00124051	-3123975.51	0,9.22099e-05,0.000218382,0.000391025,0.000627256,0.000950494,0.00139278,0.00199798,0.00282607,0.00395917,0.0055096,0.00763107,0.0105339,0.0145059,0.0199409,0.0273776,inf	148.676,148.676,103.255,128.505,187.183,292.07,461.081,668.697,715.052,661.865,595.996,521.959,459.399,402.614,402.614,402.614
0.00131729	-3123464.81	0,9.22099e-05,0.000218382,0.000391025,0.000627256,0.000950494,0.00139278,0.00199798,0.00282607,0.00395917,0.0055096,0.00763107,0.0105339,0.0145059,0.0199409,0.0273776,inf	152.226,152.226,104.632,130.236,188.865,292.652,459.096,666.454,715.051,664.594,599.473,522.196,455.119,394.729,394.729,394.729
0.0013926	-3122998.89	0,9.22099e-05,0.000218382,0.000391025,0.000627256,0.000950494,0.00139278,0.00199798,0.00282607,0.00395917,0.0055096,0.00763107,0.0105339,0.0145059,0.0199409,0.0273776,inf	154.372,154.372,106.374,132.724,191.441,294.007,457.434,663.116,712.908,665.054,601.052,521.128,449.928,386.352,386.352,386.352
0.00146667	-3122568.30	0,9.22099e-05,0.000218382,0.000391025,0.000627256,0.000950494,0.00139278,0.00199798,0.00282607,0.00395917,0.0055096,0.00763107,0.0105339,0.0145059,0.0199409,0.0273776,inf	155.403,155.403,108.322,135.709,194.608,295.876,456.042,659.152,709.375,663.938,601.258,519.13,444.13,377.713,377.713,377.713
0.00153966	-3122167.04	0,9.22099e-05,0.000218382,0.000391025,0.000627256,0.000950494,0.00139278,0.00199798,0.00282607,0.00395917,0.0055096,0.00763107,0.0105339,0.0145059,0.0199409,0.0273776,inf	155.61,155.61,110.383,139.02,198.164,298.082,454.87,654.854,704.954,661.73,600.472,516.474,437.95,368.985,368.985,368.985
0.0016117	-3121791.02	0,9.22099e-05,0.000218382,0.000391025,0.000627256,0.000950494,0.00139278,0.00199798,0.00282607,0.00395917,0.0055096,0.00763107,0.0105339,0.0145059,0.0199409,0.0273776,inf	155.246,155.246,112.501,142.54,201.965,300.498,453.87,650.403,699.984,658.772,598.972,513.363,431.559,360.299,360.299,360.299
0.00168288	-3121437.26	0,9.22099e-05,0.000218382,0.000391025,0.000627256,0.000950494,0.00139278,0.00199798,0.00282607,0.00395917,0.0055096,0.00763107,0.0105339,0.0145059,0.0199409,0.0273776,inf	154.51,154.51,114.641,146.189,205.914,303.038,453.003,645.913,694.695,655.312,596.963,509.948,425.081,351.754,351.754,351.754
0.00175326	-3121103.45	0,9.22099e-05,0.000218382,0.000391025,0.000627256,0.000950494,0.00139278,0.00199798,0.00282607,0.00395917,0.0055096,0.00763107,0.0105339,0.0145059,0.0199409,0.0273776,inf	153.555,153.555,116.783,149.908,209.937,305.636,452.241,641.458,689.246,651.525,594.598,506.34,418.612,343.42,343.42,343.42
0.00182289	-3120787.78	0,9.22099e-05,0.000218382,0.000391025,0.000627256,0.000950494,0.00139278,0.00199798,0.00282607,0.00395917,0.0055096,0.00763107,0.0105339,0.0145059,0.0199409,0.0273776,inf	152.49,152.49,118.91,153.653,213.985,308.25,451.56,637.083,683.748,647.541,591.991,502.623,412.222,335.348,335.348,335.348
0.00189182	-3120488.70	0,9.22099e-05,0.000218382,0.000391025,0.000627256,0.000950494,0.00139278,0.00199798,0.00282607,0.00395917,0.0055096,0.00763107,0.0105339,0.0145059,0.0199409,0.0273776,inf	151.396,151.396,121.015,157.396,218.02,310.847,450.941,632.818,678.275,643.453,589.228,498.86,405.962,327.572,327.572,327.572
0.00196007	-3120204.94	0,9.22099e-05,0.000218382,0.000391025,0.000627256,0.000950494,0.00139278,0.00199798,0.00282607,0.00395917,0.0055096,0.00763107,0.0105339,0.0145059,0.0199409,0.0273776,inf	150.326,150.326,123.092,161.112,222.014,313.406,450.37,628.678,672.88,639.327,586.373,495.1,399.868,320.113,320.113,320.113
0.00202766	-3119935.35	0,9.22099e-05,0.000218382,0.000391025,0.000627256,0.000950494,0.00139278,0.00199798,0.00282607,0.00395917,0.0055096,0.00763107,0.0105339,0.0145059,0.0199409,0.0273776,inf	149.318,149.318,125.139,164.786,225.949,315.91,449.837,624.673,667.596,635.213,583.475,491.377,393.966,312.982,312.982,312.982
0.00209462	-3119678.93	0,9.22099e-05,0.000218382,0.000391025,0.000627256,0.000950494,0.00139278,0.00199798,0.00282607,0.00395917,0.0055096,0.00763107,0.0105339,0.0145059,0.0199409,0.0273776,inf	148.395,148.395,127.152,168.407,229.811,318.35,449.334,620.806,662.447,631.147,580.57,487.718,388.273,306.184,306.184,306.184
0.00216095	-3119434.79	0,9.22099e-05,0.000218382,0.000391025,0.000627256,0.000950494,0.00139278,0.00199798,0.00282607,0.00395917,0.0055096,0.00763107,0.0105339,0.0145059,0.0199409,0.0273776,inf	147.571,147.571,129.133,171.965,233.592,320.72,448.854,617.078,657.446,627.152,577.684,484.142,382.8,299.716,299.716,299.716
