0.00030282	-175934.55	0,2.24729e-05,4.87606e-05,7.95107e-05,0.000115481,0.000157556,0.000206774,0.000264347,0.000331693,0.000410471,0.000502621,0.000610414,0.000736505,0.000883999,0.00105653,0.00125835,0.00149443,0.00177058,0.00209361,0.00247147,0.00291348,0.00343051,0.00403531,0.00474278,0.00557034,0.00653838,0.00767074,0.00899532,0.0105448,0.0123572,0.0144773,0.0169573,inf	874.218,874.218,593.778,810.635,788.861,759.439,757.382,759.467,765.738,772.062,776.379,777.427,775.456,770.811,766.303,765.087,766.992,768.493,765.487,758.893,757.95,767.052,775.534,779.034,789.588,807.928,825.392,833.82,833.82,896.765,896.765,896.765
0.00027764	-175904.59	0,2.24729e-05,4.87606e-05,7.95107e-05,0.000115481,0.000157556,0.000206774,0.000264347,0.000331693,0.000410471,0.000502621,0.000610414,0.000736505,0.000883999,0.00105653,0.00125835,0.00149443,0.00177058,0.00209361,0.00247147,0.00291348,0.00343051,0.00403531,0.00474278,0.00557034,0.00653838,0.00767074,0.00899532,0.0105448,0.0123572,0.0144773,0.0169573,inf	970.923,970.923,459.566,855.238,816.946,752.264,748.24,750.833,762.594,775.594,785.069,788.167,785.574,777.304,769.105,767.971,773.467,777.738,771.832,757.209,754.104,772.871,790.637,796.524,818.303,859.877,902.294,927.548,927.548,1133.75,1133.75,1133.75
0.000255659	-175880.41	0,2.24729e-05,4.87606e-05,7.95107e-05,0.000115481,0.000157556,0.000206774,0.000264347,0.000331693,0.000410471,0.000502621,0.000610414,0.000736505,0.000883999,0.00105653,0.00125835,0.00149443,0.00177058,0.00209361,0.00247147,0.00291348,0.00343051,0.00403531,0.00474278,0.00557034,0.00653838,0.00767074,0.00899532,0.0105448,0.0123572,0.0144773,0.0169573,inf	1060.82,1060.82,352.661,893.486,847.723,742.726,737.536,738.981,754.852,774.083,788.695,793.836,791.196,779.708,768.024,767.695,777.984,785.868,777.007,752.871,746.309,775.037,802.681,809.395,842.39,912.38,989.48,1047.31,1047.31,1660.82,1660.82,1660.82
0.000236777	-175861.20	0,2.24729e-05,4.87606e-05,7.95107e-05,0.000115481,0.000157556,0.000206774,0.000264347,0.000331693,0.000410471,0.000502621,0.000610414,0.000736505,0.000883999,0.00105653,0.00125835,0.00149443,0.00177058,0.00209361,0.00247147,0.00291348,0.00343051,0.00403531,0.00474278,0.00557034,0.00653838,0.00767074,0.00899532,0.0105448,0.0123572,0.0144773,0.0169573,inf	1147.27,1147.27,268.649,925.099,883.853,733.729,728.792,727.736,746.303,771.094,790.572,797.279,794.8,780.233,764.958,765.848,781.894,794,782.149,747.148,735.975,774.895,812.948,818.671,862.286,966.323,1091.35,1213.52,1213.52,3593.97,3593.97,3593.97
0.000220726	-175846.33	0,2.24729e-05,4.87606e-05,7.95107e-05,0.000115481,0.000157556,0.000206774,0.000264347,0.000331693,0.000410471,0.000502621,0.000610414,0.000736505,0.000883999,0.00105653,0.00125835,0.00149443,0.00177058,0.00209361,0.00247147,0.00291348,0.00343051,0.00403531,0.00474278,0.00557034,0.00653838,0.00767074,0.00899532,0.0105448,0.0123572,0.0144773,0.0169573,inf	1225.82,1225.82,202.539,946.04,923.497,724.199,721.586,717.228,737.375,767.142,791.351,799.088,796.95,779.474,760.449,762.838,785.495,802.281,787.519,740.559,723.872,773.225,822.204,824.984,878.118,1022.38,1214.37,1471.29,1471.29,33147.7,33147.7,33147.7
0.000220711	-175835.14	0,2.24729e-05,4.87606e-05,7.95107e-05,0.000115481,0.000157556,0.000206774,0.000264347,0.000331693,0.000410471,0.000502621,0.000610414,0.000736505,0.000883999,0.00105653,0.00125835,0.00149443,0.00177058,0.00209361,0.00247147,0.00291348,0.00343051,0.00403531,0.00474278,0.00557034,0.00653838,0.00767074,0.00899532,0.0105448,0.0123572,0.0144773,0.0169573,inf	1327.77,1327.77,154.499,979.237,992.912,731.61,733.221,723.94,744.465,779.096,808.479,816.396,814.079,792.545,768.028,771.302,801.266,822.654,803.804,741.914,717.783,778.091,838.524,835.19,895.816,1086.92,1374.22,1945.01,1945.01,154874,154874,154874
0.000220669	-175834.55	0,2.24729e-05,4.87606e-05,7.95107e-05,0.000115481,0.000157556,0.000206774,0.000264347,0.000331693,0.000410471,0.000502621,0.000610414,0.000736505,0.000883999,0.00105653,0.00125835,0.00149443,0.00177058,0.00209361,0.00247147,0.00291348,0.00343051,0.00403531,0.00474278,0.00557034,0.00653838,0.00767074,0.00899532,0.0105448,0.0123572,0.0144773,0.0169573,inf	1327.77,1327.77,114.85,987.372,1015.01,726.379,735.203,722.659,743.539,782.284,808.561,816.396,814.079,792.545,767.302,771.919,801.269,822.654,803.804,738.617,708.145,779.384,846.522,835.19,895.816,1086.92,1374.22,1945.01,1945.01,154874,154874,154874
0.000220663	-175834.45	0,2.24729e-05,4.87606e-05,7.95107e-05,0.000115481,0.000157556,0.000206774,0.000264347,0.000331693,0.000410471,0.000502621,0.000610414,0.000736505,0.000883999,0.00105653,0.00125835,0.00149443,0.00177058,0.00209361,0.00247147,0.00291348,0.00343051,0.00403531,0.00474278,0.00557034,0.00653838,0.00767074,0.00899532,0.0105448,0.0123572,0.0144773,0.0169573,inf	1327.77,1327.77,85.5715,993.192,1015.22,719.433,736.224,720.818,742.157,785.096,816.184,817.409,814.079,792.545,766.722,772.415,801.269,822.654,803.804,736.125,699.361,780.985,852.937,835.19,895.957,1086.92,1374.22,1945.01,1945.01,154874,154874,154874
0.000220655	-175834.38	0,2.24729e-05,4.87606e-05,7.95107e-05,0.000115481,0.000157556,0.000206774,0.000264347,0.000331693,0.000410471,0.000502621,0.000610414,0.000736505,0.000883999,0.00105653,0.00125835,0.00149443,0.00177058,0.00209361,0.00247147,0.00291348,0.00343051,0.00403531,0.00474278,0.00557034,0.00653838,0.00767074,0.00899532,0.0105448,0.0123572,0.0144773,0.0169573,inf	1327.77,1327.77,64.058,1001.92,1023.71,713.745,737.829,719.009,740.248,786.962,816.184,819.692,814.079,792.545,766.016,773.018,801.269,822.654,803.804,734.301,691.294,782.837,858.216,835.337,895.957,1086.92,1374.22,1945.01,1945.01,154874,154874,154874
0.000220628	-175834.33	0,2.24729e-05,4.87606e-05,7.95107e-05,0.000115481,0.000157556,0.000206774,0.000264347,0.000331693,0.000410471,0.000502621,0.000610414,0.000736505,0.000883999,0.00105653,0.00125835,0.00149443,0.00177058,0.00209361,0.00247147,0.00291348,0.00343051,0.00403531,0.00474278,0.00557034,0.00653838,0.00767074,0.00899532,0.0105448,0.0123572,0.0144773,0.0169573,inf	1327.77,1327.77,47.9849,1009.56,1029.09,708,739.54,717.341,738.419,788.644,816.184,821.957,814.079,792.545,765.29,773.634,801.272,822.654,803.804,733.027,683.832,784.894,862.708,835.337,895.957,1086.92,1374.22,1945.01,1945.01,154874,154874,154874
0.000220572	-175834.28	0,2.24729e-05,4.87606e-05,7.95107e-05,0.000115481,0.000157556,0.000206774,0.000264347,0.000331693,0.000410471,0.000502621,0.000610414,0.000736505,0.000883999,0.00105653,0.00125835,0.00149443,0.00177058,0.00209361,0.00247147,0.00291348,0.00343051,0.00403531,0.00474278,0.00557034,0.00653838,0.00767074,0.00899532,0.0105448,0.0123572,0.0144773,0.0169573,inf	1327.77,1327.77,35.9794,1016.41,1032.14,702.441,741.485,715.847,736.641,790.175,818.587,821.989,814.079,792.545,764.505,774.294,801.282,822.654,803.804,732.204,676.871,787.099,866.424,835.337,895.957,1086.92,1374.22,1945.01,1945.01,154874,154874,154874
0.000220546	-175834.22	0,2.24729e-05,4.87606e-05,7.95107e-05,0.000115481,0.000157556,0.000206774,0.000264347,0.000331693,0.000410471,0.000502621,0.000610414,0.000736505,0.000883999,0.00105653,0.00125835,0.00149443,0.00177058,0.00209361,0.00247147,0.00291348,0.00343051,0.00403531,0.00474278,0.00557034,0.00653838,0.00767074,0.00899532,0.0105448,0.0123572,0.0144773,0.0169573,inf	1327.77,1327.77,26.9881,1022.75,1033.44,697.163,743.676,714.477,734.766,791.476,818.629,823.966,814.079,792.545,763.747,774.937,801.286,822.654,803.804,731.797,670.367,789.468,869.406,835.337,895.957,1086.92,1374.22,1945.01,1945.01,154874,154874,154874
0.000220538	-175834.18	0,2.24729e-05,4.87606e-05,7.95107e-05,0.000115481,0.000157556,0.000206774,0.000264347,0.000331693,0.000410471,0.000502621,0.000610414,0.000736505,0.000883999,0.00105653,0.00125835,0.00149443,0.00177058,0.00209361,0.00247147,0.00291348,0.00343051,0.00403531,0.00474278,0.00557034,0.00653838,0.00767074,0.00899532,0.0105448,0.0123572,0.0144773,0.0169573,inf	1327.77,1327.77,20.2498,1022.88,1038.48,692.293,746.227,713.347,733.011,792.687,820.443,823.966,814.079,792.545,762.954,774.939,801.864,822.654,803.804,731.732,664.253,791.964,871.781,835.337,895.957,1086.92,1374.22,1945.01,1945.01,154874,154874,154874
0.000220512	-175834.16	0,2.24729e-05,4.87606e-05,7.95107e-05,0.000115481,0.000157556,0.000206774,0.000264347,0.000331693,0.000410471,0.000502621,0.000610414,0.000736505,0.000883999,0.00105653,0.00125835,0.00149443,0.00177058,0.00209361,0.00247147,0.00291348,0.00343051,0.00403531,0.00474278,0.00557034,0.00653838,0.00767074,0.00899532,0.0105448,0.0123572,0.0144773,0.0169573,inf	1327.77,1327.77,15.2054,1022.88,1042.33,687.528,748.81,712.235,731.238,793.757,820.457,825.554,814.079,792.545,762.187,775.595,801.864,822.654,803.804,731.732,658.459,794.548,873.807,835.337,895.957,1086.92,1374.22,1945.01,1945.01,154874,154874,154874
0.000220471	-175834.12	0,2.24729e-05,4.87606e-05,7.95107e-05,0.000115481,0.000157556,0.000206774,0.000264347,0.000331693,0.000410471,0.000502621,0.000610414,0.000736505,0.000883999,0.00105653,0.00125835,0.00149443,0.00177058,0.00209361,0.00247147,0.00291348,0.00343051,0.00403531,0.00474278,0.00557034,0.00653838,0.00767074,0.00899532,0.0105448,0.0123572,0.0144773,0.0169573,inf	1327.77,1327.77,11.4235,1026.31,1042.33,682.933,751.511,711.209,729.489,794.716,820.475,827.039,814.079,792.545,761.374,776.275,801.877,822.654,803.804,731.732,652.952,797.205,875.56,835.337,895.957,1086.92,1374.22,1945.01,1945.01,154874,154874,154874
0.000220439	-175834.09	0,2.24729e-05,4.87606e-05,7.95107e-05,0.000115481,0.000157556,0.000206774,0.000264347,0.000331693,0.000410471,0.000502621,0.000610414,0.000736505,0.000883999,0.00105653,0.00125835,0.00149443,0.00177058,0.00209361,0.00247147,0.00291348,0.00343051,0.00403531,0.00474278,0.00557034,0.00653838,0.00767074,0.00899532,0.0105448,0.0123572,0.0144773,0.0169573,inf	1327.77,1327.77,8.58365,1029.09,1042.33,678.686,754.462,710.349,727.829,795.639,821.8,827.039,814.079,792.545,760.544,776.984,801.877,822.654,803.804,731.732,647.722,799.945,876.952,835.412,895.957,1086.92,1374.22,1945.01,1945.01,154874,154874,154874
0.000220413	-175834.06	0,2.24729e-05,4.87606e-05,7.95107e-05,0.000115481,0.000157556,0.000206774,0.000264347,0.000331693,0.000410471,0.000502621,0.000610414,0.000736505,0.000883999,0.00105653,0.00125835,0.00149443,0.00177058,0.00209361,0.00247147,0.00291348,0.00343051,0.00403531,0.00474278,0.00557034,0.00653838,0.00767074,0.00899532,0.0105448,0.0123572,0.0144773,0.0169573,inf	1327.77,1327.77,6.45003,1031.08,1042.33,674.68,757.525,709.535,726.158,796.452,821.85,828.045,814.079,792.545,759.726,777.684,801.877,822.654,803.804,731.732,642.743,802.757,878.187,835.412,895.957,1086.92,1374.22,1945.01,1945.01,154874,154874,154874
0.000220413	-175834.03	0,2.24729e-05,4.87606e-05,7.95107e-05,0.000115481,0.000157556,0.000206774,0.000264347,0.000331693,0.000410471,0.000502621,0.000610414,0.000736505,0.000883999,0.00105653,0.00125835,0.00149443,0.00177058,0.00209361,0.00247147,0.00291348,0.00343051,0.00403531,0.00474278,0.00557034,0.00653838,0.00767074,0.00899532,0.0105448,0.0123572,0.0144773,0.0169573,inf	1327.77,1327.77,4.84796,1032.6,1042.33,670.9,760.738,708.84,724.547,797.23,822.807,828.045,814.079,792.545,758.901,778.389,801.877,822.654,803.804,731.732,638,805.636,879.137,835.458,895.957,1086.92,1374.22,1945.01,1945.01,154874,154874,154874
0.000220336	-175834.03	0,2.24729e-05,4.87606e-05,7.95107e-05,0.000115481,0.000157556,0.000206774,0.000264347,0.000331693,0.000410471,0.000502621,0.000610414,0.000736505,0.000883999,0.00105653,0.00125835,0.00149443,0.00177058,0.00209361,0.00247147,0.00291348,0.00343051,0.00403531,0.00474278,0.00557034,0.00653838,0.00767074,0.00899532,0.0105448,0.0123572,0.0144773,0.0169573,inf	1327.77,1327.77,3.64413,1033.82,1042.36,667.284,763.829,708.093,722.891,797.893,823.838,828.112,814.079,792.545,758.04,779.125,801.877,822.654,803.804,731.732,633.439,808.519,880.006,835.458,895.957,1086.92,1374.22,1945.01,1945.01,154874,154874,154874
0.000220333	-175833.97	0,2.24729e-05,4.87606e-05,7.95107e-05,0.000115481,0.000157556,0.000206774,0.000264347,0.000331693,0.000410471,0.000502621,0.000610414,0.000736505,0.000883999,0.00105653,0.00125835,0.00149443,0.00177058,0.00209361,0.00247147,0.00291348,0.00343051,0.00403531,0.00474278,0.00557034,0.00653838,0.00767074,0.00899532,0.0105448,0.0123572,0.0144773,0.0169573,inf	1327.77,1327.77,2.73957,1034.89,1042.36,663.819,763.829,707.392,721.244,798.505,823.838,830.421,814.079,792.545,757.238,779.811,801.877,822.654,803.804,731.732,629.094,811.485,880.647,835.458,895.957,1086.92,1374.22,1945.01,1945.01,154874,154874,154874
