0.000548371	-289273.58	0,4.09358e-05,8.88204e-05,0.000144833,0.000210355,0.000286998,0.000376652,0.000481524,0.000604199,0.000747697,0.000915554,0.00111191,0.00134159,0.00161026,0.00192453,0.00229216,0.00272219,0.00322522,0.00381363,0.00450193,0.00530707,0.00624888,0.00735056,0.00863926,0.0101467,0.01191,0.0139727,0.0163855,0.0192079,0.0225094,0.0263713,0.0308887,inf	1151.07,1151.07,405.844,441.913,452.922,450.262,450.45,451.246,452.395,455.722,454.951,449.397,439.803,427.72,416.603,408.851,404.747,402.814,401.051,399.711,399.227,399.445,401.479,401.891,394.728,388.201,389.198,353.786,353.786,333.131,333.131,333.131
0.000500476	-289211.24	0,4.09358e-05,8.88204e-05,0.000144833,0.000210355,0.000286998,0.000376652,0.000481524,0.000604199,0.000747697,0.000915554,0.00111191,0.00134159,0.00161026,0.00192453,0.00229216,0.00272219,0.00322522,0.00381363,0.00450193,0.00530707,0.00624888,0.00735056,0.00863926,0.0101467,0.01191,0.0139727,0.0163855,0.0192079,0.0225094,0.0263713,0.0308887,inf	1525.84,1525.84,320.363,422.214,456.677,454.468,456.437,459.897,464.071,474.419,477.205,470.642,455.908,435.052,415.455,402.545,396.904,395.294,393.149,391.152,390.41,390.583,394.479,395.486,381.175,368.757,372.241,311.708,311.708,276.926,276.926,276.926
0.00045941	-289165.81	0,4.09358e-05,8.88204e-05,0.000144833,0.000210355,0.000286998,0.000376652,0.000481524,0.000604199,0.000747697,0.000915554,0.00111191,0.00134159,0.00161026,0.00192453,0.00229216,0.00272219,0.00322522,0.00381363,0.00450193,0.00530707,0.00624888,0.00735056,0.00863926,0.0101467,0.01191,0.0139727,0.0163855,0.0192079,0.0225094,0.0263713,0.0308887,inf	1740.68,1740.68,245.451,401.817,459.934,454.138,454.802,459.034,464.457,481.904,489.43,484.064,467.233,439.839,413.301,396.741,391.112,391.288,389.53,387.141,386.143,385.895,391.551,393.443,371.741,353.991,362.252,281.48,281.48,236.409,236.409,236.409
0.0004246	-289130.35	0,4.09358e-05,8.88204e-05,0.000144833,0.000210355,0.000286998,0.000376652,0.000481524,0.000604199,0.000747697,0.000915554,0.00111191,0.00134159,0.00161026,0.00192453,0.00229216,0.00272219,0.00322522,0.00381363,0.00450193,0.00530707,0.00624888,0.00735056,0.00863926,0.0101467,0.01191,0.0139727,0.0163855,0.0192079,0.0225094,0.0263713,0.0308887,inf	1903.35,1903.35,188.201,386.471,468.479,455.26,452.035,455.356,459.817,483.447,495.548,492.274,475.564,443.253,410.648,391.309,386.636,389.628,388.726,386.03,384.722,383.65,391.031,394.191,364.733,342.203,358.166,259.275,259.275,207.827,207.827,207.827
0.000395334	-289102.91	0,4.09358e-05,8.88204e-05,0.000144833,0.000210355,0.000286998,0.000376652,0.000481524,0.000604199,0.000747697,0.000915554,0.00111191,0.00134159,0.00161026,0.00192453,0.00229216,0.00272219,0.00322522,0.00381363,0.00450193,0.00530707,0.00624888,0.00735056,0.00863926,0.0101467,0.01191,0.0139727,0.0163855,0.0192079,0.0225094,0.0263713,0.0308887,inf	2043.96,2043.96,144.717,374.647,481.965,458.635,450.068,451.67,453.291,482.093,498.031,496.946,481.997,445.985,407.74,386.074,382.889,389.436,389.667,386.651,384.969,382.658,391.758,396.61,358.972,332.198,359.314,242.773,242.773,189.376,189.376,189.376
0.000370874	-289082.03	0,4.09358e-05,8.88204e-05,0.000144833,0.000210355,0.000286998,0.000376652,0.000481524,0.000604199,0.000747697,0.000915554,0.00111191,0.00134159,0.00161026,0.00192453,0.00229216,0.00272219,0.00322522,0.00381363,0.00450193,0.00530707,0.00624888,0.00735056,0.00863926,0.0101467,0.01191,0.0139727,0.0163855,0.0192079,0.0225094,0.0263713,0.0308887,inf	2163.79,2163.79,111.027,363.454,497.856,462.842,448.482,448.414,445.862,479.072,497.997,498.809,486.929,448.256,404.579,380.822,379.399,390.041,391.564,388.168,386.058,382.099,392.924,399.882,353.626,323.095,365.236,230.385,230.385,179.745,179.745,179.745
0.000350575	-289066.46	0,4.09358e-05,8.88204e-05,0.000144833,0.000210355,0.000286998,0.000376652,0.000481524,0.000604199,0.000747697,0.000915554,0.00111191,0.00134159,0.00161026,0.00192453,0.00229216,0.00272219,0.00322522,0.00381363,0.00450193,0.00530707,0.00624888,0.00735056,0.00863926,0.0101467,0.01191,0.0139727,0.0163855,0.0192079,0.0225094,0.0263713,0.0308887,inf	2267.96,2267.96,84.9017,351.967,515.108,467.431,447.344,446.143,438.438,475.527,496.575,498.722,490.898,450.435,401.354,375.585,375.999,391.103,393.972,390.1,387.519,381.52,394.07,403.505,348.201,314.298,375.649,220.957,220.957,177.623,177.623,177.623
0.000333831	-289055.08	0,4.09358e-05,8.88204e-05,0.000144833,0.000210355,0.000286998,0.000376652,0.000481524,0.000604199,0.000747697,0.000915554,0.00111191,0.00134159,0.00161026,0.00192453,0.00229216,0.00272219,0.00322522,0.00381363,0.00450193,0.00530707,0.00624888,0.00735056,0.00863926,0.0101467,0.01191,0.0139727,0.0163855,0.0192079,0.0225094,0.0263713,0.0308887,inf	2358.2,2358.2,64.6693,339.712,532.842,471.935,446.485,444.977,431.415,472.07,494.457,497.261,494.235,452.748,398.201,370.42,372.62,392.421,396.619,392.156,389.083,380.681,394.957,407.183,342.434,305.413,390.375,213.568,213.568,181.529,181.529,181.529
0.000320095	-289046.95	0,4.09358e-05,8.88204e-05,0.000144833,0.000210355,0.000286998,0.000376652,0.000481524,0.000604199,0.000747697,0.000915554,0.00111191,0.00134159,0.00161026,0.00192453,0.00229216,0.00272219,0.00322522,0.00381363,0.00450193,0.00530707,0.00624888,0.00735056,0.00863926,0.0101467,0.01191,0.0139727,0.0163855,0.0192079,0.0225094,0.0263713,0.0308887,inf	2435.79,2435.79,49.0635,326.615,550.47,476.013,445.71,444.863,424.94,469.018,492.068,494.829,497.145,455.325,395.21,365.386,369.249,393.882,399.342,394.172,390.61,379.486,395.5,410.779,336.234,296.215,409.358,207.434,207.434,189.791,189.791,189.791
0.00030888	-289041.26	0,4.09358e-05,8.88204e-05,0.000144833,0.000210355,0.000286998,0.000376652,0.000481524,0.000604199,0.000747697,0.000915554,0.00111191,0.00134159,0.00161026,0.00192453,0.00229216,0.00272219,0.00322522,0.00381363,0.00450193,0.00530707,0.00624888,0.00735056,0.00863926,0.0101467,0.01191,0.0139727,0.0163855,0.0192079,0.0225094,0.0263713,0.0308887,inf	2501.99,2501.99,37.0917,312.827,567.647,479.482,444.871,445.677,419.033,466.517,489.668,491.711,499.751,458.226,392.438,360.536,365.9,395.428,402.048,396.061,392.041,377.929,395.711,414.264,329.628,286.616,432.708,201.879,201.879,200.634,200.634,200.634
0.000299761	-289037.37	0,4.09358e-05,8.88204e-05,0.000144833,0.000210355,0.000286998,0.000376652,0.000481524,0.000604199,0.000747697,0.000915554,0.00111191,0.00134159,0.00161026,0.00192453,0.00229216,0.00272219,0.00322522,0.00381363,0.00450193,0.00530707,0.00624888,0.00735056,0.00863926,0.0101467,0.01191,0.0139727,0.0163855,0.0192079,0.0225094,0.0263713,0.0308887,inf	2558.09,2558.09,27.9576,298.604,584.199,482.254,443.863,447.279,413.656,464.61,487.406,488.113,502.124,461.462,389.91,355.91,362.597,397.03,404.688,397.784,393.363,376.049,395.652,417.675,322.702,276.623,460.744,196.329,196.329,212.354,212.354,212.354
0.000292372	-289034.79	0,4.09358e-05,8.88204e-05,0.000144833,0.000210355,0.000286998,0.000376652,0.000481524,0.000604199,0.000747697,0.000915554,0.00111191,0.00134159,0.00161026,0.00192453,0.00229216,0.00272219,0.00322522,0.00381363,0.00450193,0.00530707,0.00624888,0.00735056,0.00863926,0.0101467,0.01191,0.0139727,0.0163855,0.0192079,0.0225094,0.0263713,0.0308887,inf	2605.34,2605.34,21.023,284.216,600.063,484.317,442.625,449.528,408.745,463.285,485.359,484.187,504.302,465.014,387.632,351.53,359.364,398.669,407.232,399.325,394.583,373.9,395.398,421.066,315.552,266.289,494.055,190.308,190.308,223.482,223.482,223.482
0.000286406	-289033.14	0,4.09358e-05,8.88204e-05,0.000144833,0.000210355,0.000286998,0.000376652,0.000481524,0.000604199,0.000747697,0.000915554,0.00111191,0.00134159,0.00161026,0.00192453,0.00229216,0.00272219,0.00322522,0.00381363,0.00450193,0.00530707,0.00624888,0.00735056,0.00863926,0.0101467,0.01191,0.0139727,0.0163855,0.0192079,0.0225094,0.0263713,0.0308887,inf	2644.93,2644.93,15.7796,269.896,615.241,485.703,441.13,452.3,404.23,462.504,483.564,480.043,506.305,468.846,385.592,347.405,356.219,400.338,409.664,400.681,395.718,371.539,395.02,424.489,308.261,255.682,533.541,183.425,183.425,232.861,232.861,232.861
0.000281601	-289032.14	0,4.09358e-05,8.88204e-05,0.000144833,0.000210355,0.000286998,0.000376652,0.000481524,0.000604199,0.000747697,0.000915554,0.00111191,0.00134159,0.00161026,0.00192453,0.00229216,0.00272219,0.00322522,0.00381363,0.00450193,0.00530707,0.00624888,0.00735056,0.00863926,0.0101467,0.01191,0.0139727,0.0163855,0.0192079,0.0225094,0.0263713,0.0308887,inf	2677.92,2677.92,11.8282,255.833,629.761,486.468,439.374,455.484,400.044,462.212,482.031,475.764,508.145,472.911,383.773,343.533,353.173,402.03,411.978,401.855,396.782,369.011,394.57,427.975,300.877,244.865,580.503,175.359,175.359,239.627,239.627,239.627
0.000277742	-289031.61	0,4.09358e-05,8.88204e-05,0.000144833,0.000210355,0.000286998,0.000376652,0.000481524,0.000604199,0.000747697,0.000915554,0.00111191,0.00134159,0.00161026,0.00192453,0.00229216,0.00272219,0.00322522,0.00381363,0.00450193,0.00530707,0.00624888,0.00735056,0.00863926,0.0101467,0.01191,0.0139727,0.0163855,0.0192079,0.0225094,0.0263713,0.0308887,inf	2705.34,2705.34,8.85808,242.166,643.671,486.678,437.367,458.992,396.129,462.351,480.753,471.41,509.825,477.162,382.15,339.907,350.234,403.74,414.169,402.853,397.795,366.355,394.087,431.532,293.418,233.887,636.778,165.847,165.847,243.158,243.158,243.158
0.00027465	-289031.42	0,4.09358e-05,8.88204e-05,0.000144833,0.000210355,0.000286998,0.000376652,0.000481524,0.000604199,0.000747697,0.000915554,0.00111191,0.00134159,0.00161026,0.00192453,0.00229216,0.00272219,0.00322522,0.00381363,0.00450193,0.00530707,0.00624888,0.00735056,0.00863926,0.0101467,0.01191,0.0139727,0.0163855,0.0192079,0.0225094,0.0263713,0.0308887,inf	2728.08,2728.08,6.6298,228.994,657.021,486.402,435.125,462.749,392.429,462.866,479.717,467.028,511.351,481.551,380.698,336.515,347.403,405.465,416.238,403.684,398.768,363.599,393.591,435.141,285.872,222.785,705.003,154.675,154.675,242.995,242.995,242.995
0.000272191	-289031.50	0,4.09358e-05,8.88204e-05,0.000144833,0.000210355,0.000286998,0.000376652,0.000481524,0.000604199,0.000747697,0.000915554,0.00111191,0.00134159,0.00161026,0.00192453,0.00229216,0.00272219,0.00322522,0.00381363,0.00450193,0.00530707,0.00624888,0.00735056,0.00863926,0.0101467,0.01191,0.0139727,0.0163855,0.0192079,0.0225094,0.0263713,0.0308887,inf	2748.75,2748.75,4.96396,216.52,670.283,486.003,432.927,466.94,389.088,463.905,479.086,462.81,512.886,486.168,379.474,333.393,344.723,407.242,418.22,404.381,399.736,360.773,393.102,438.785,278.216,211.593,789.111,141.697,141.697,238.763,238.763,238.763
0.000270223	-289031.83	0,4.09358e-05,8.88204e-05,0.000144833,0.000210355,0.000286998,0.000376652,0.000481524,0.000604199,0.000747697,0.000915554,0.00111191,0.00134159,0.00161026,0.00192453,0.00229216,0.00272219,0.00322522,0.00381363,0.00450193,0.00530707,0.00624888,0.00735056,0.00863926,0.0101467,0.01191,0.0139727,0.0163855,0.0192079,0.0225094,0.0263713,0.0308887,inf	2763.85,2763.85,3.71324,204.478,682.638,484.953,430.308,471.033,385.707,465.032,478.485,458.474,514.131,490.728,378.299,330.422,342.108,408.994,420.057,404.907,400.672,357.87,392.596,442.368,270.385,200.347,895.128,126.829,126.829,230.018,230.018,230.018
0.000268656	-289032.41	0,4.09358e-05,8.88204e-05,0.000144833,0.000210355,0.000286998,0.000376652,0.000481524,0.000604199,0.000747697,0.000915554,0.00111191,0.00134159,0.00161026,0.00192453,0.00229216,0.00272219,0.00322522,0.00381363,0.00450193,0.00530707,0.00624888,0.00735056,0.00863926,0.0101467,0.01191,0.0139727,0.0163855,0.0192079,0.0225094,0.0263713,0.0308887,inf	2776.35,2776.35,2.77764,193.019,694.474,483.551,427.487,475.179,382.396,466.352,478.028,454.155,515.202,495.286,377.21,327.623,339.584,410.746,421.777,405.291,401.601,354.914,392.078,445.831,262.338,189.109,1033.19,110.127,110.127,216.114,216.114,216.114
0.000267407	-289033.32	0,4.09358e-05,8.88204e-05,0.000144833,0.000210355,0.000286998,0.000376652,0.000481524,0.000604199,0.000747697,0.000915554,0.00111191,0.00134159,0.00161026,0.00192453,0.00229216,0.00272219,0.00322522,0.00381363,0.00450193,0.00530707,0.00624888,0.00735056,0.00863926,0.0101467,0.01191,0.0139727,0.0163855,0.0192079,0.0225094,0.0263713,0.0308887,inf	2786.8,2786.8,2.07798,182.154,705.88,481.896,424.529,479.386,379.162,467.863,477.727,449.89,516.127,499.836,376.203,324.989,337.153,412.503,423.391,405.547,402.538,351.916,391.544,449.105,254.038,177.969,1221.72,91.8368,91.8368,195.76,195.76,195.76
