AIC = 616559.6417417115299

y0 1.1015319146571971309
y0_prime 0
y1 0.94714809575806924169
y1_prime 0
y2 1.0514061706351613967
y2_prime 0
y3 1.2475136203331171902
y3_prime 0
rho 0.01542758367794303323
theta 0.0049600726105268463581
