AIC = 1878218.7512027043849

y0 1.0068910575694198783
y0_prime 0
y1 1.1073546247031338385
y1_prime 0
y2 0.90284382828770326501
y2_prime 0
y3 1.5359117839368872094
y3_prime 0
rho 0.014978704302108949639
theta 0.0050446842462269119237
