time_index	left_time_boundary	right_time_boundary	lambda
0	0	1.25982e-06	29.2354
1	1.25982e-06	2.98366e-06	29.2354
2	2.98366e-06	5.34241e-06	29.2357
3	5.34241e-06	8.56992e-06	10059
4	8.56992e-06	1.29862e-05	10820.7
5	1.29862e-05	1.9029e-05	8348.65
6	1.9029e-05	2.72975e-05	21014.9
7	2.72975e-05	3.86114e-05	43495.9
8	3.86114e-05	5.40924e-05	29613.3
9	5.40924e-05	7.52752e-05	49359.4
10	7.52752e-05	0.00010426	13939.9
11	0.00010426	0.00014392	4855.2
12	0.00014392	0.000198188	1753.19
13	0.000198188	0.000272444	29.2354
14	0.000272444	0.000374049	29.2354
15	0.000374049	inf	29.2354
