LogLikelihood = -133151.19975007264293

y0 1.0726749027110726979e-11
y0_prime 0
y1 0.98369385208909299045
y1_prime 0
y2 0.0061023240342301726322
y2_prime 0
y3 307.35135062109145565
y3_prime 0
rho 0.0050981726135358200122
theta 0.0018241786220986125084
