0.000730348	-15179902.84	0,4.53467e-06,1.2403e-05,2.60556e-05,4.9745e-05,9.08493e-05,0.000162171,0.000285925,0.000500656,0.000873245,0.00151974,0.0026415,0.00458792,0.00796524,0.0138254,0.0239936,inf	2196.56,2196.56,256.881,67.9237,84.256,138.627,197.746,190.583,179.629,222.715,346.077,490.911,445.168,398.455,398.455,398.455
0.000771392	-15159707.78	0,4.53467e-06,1.2403e-05,2.60556e-05,4.9745e-05,9.08493e-05,0.000162171,0.000285925,0.000500656,0.000873245,0.00151974,0.0026415,0.00458792,0.00796524,0.0138254,0.0239936,inf	3059.39,3059.39,137.996,19.6195,32.9722,87.4192,179.613,158.197,126.503,171.22,326.62,572.994,508.642,417.897,417.897,417.897
0.000805316	-15153276.26	0,4.53467e-06,1.2403e-05,2.60556e-05,4.9745e-05,9.08493e-05,0.000162171,0.000285925,0.000500656,0.000873245,0.00151974,0.0026415,0.00458792,0.00796524,0.0138254,0.0239936,inf	3273.59,3273.59,78.0809,6.96997,15.7451,65.4935,190.733,155.721,104.502,145.264,310.911,622.563,553.393,422.674,422.674,422.674
0.000832852	-15150704.37	0,4.53467e-06,1.2403e-05,2.60556e-05,4.9745e-05,9.08493e-05,0.000162171,0.000285925,0.000500656,0.000873245,0.00151974,0.0026415,0.00458792,0.00796524,0.0138254,0.0239936,inf	3298.84,3298.84,46.4136,2.69626,8.05822,51.509,208.263,162.266,93.7921,130.321,299.549,652.731,584.555,418.623,418.623,418.623
0.000855742	-15149499.46	0,4.53467e-06,1.2403e-05,2.60556e-05,4.9745e-05,9.08493e-05,0.000162171,0.000285925,0.000500656,0.000873245,0.00151974,0.0026415,0.00458792,0.00796524,0.0138254,0.0239936,inf	3268.71,3268.71,28.3512,1.08142,4.22394,40.8578,224.752,171.301,88.0441,121.005,291.597,671.354,606.316,410.211,410.211,410.211
0.000875395	-15148860.17	0,4.53467e-06,1.2403e-05,2.60556e-05,4.9745e-05,9.08493e-05,0.000162171,0.000285925,0.000500656,0.000873245,0.00151974,0.0026415,0.00458792,0.00796524,0.0138254,0.0239936,inf	3223.39,3223.39,17.5677,0.44148,2.23793,32.3743,237.8,180.329,84.7357,114.864,286.048,683.04,621.689,400.224,400.224,400.224
0.000892724	-15148483.08	0,4.53467e-06,1.2403e-05,2.60556e-05,4.9745e-05,9.08493e-05,0.000162171,0.000285925,0.000500656,0.000873245,0.00151974,0.0026415,0.00458792,0.00796524,0.0138254,0.0239936,inf	3177.1,3177.1,10.9666,0.360258,1.19593,25.6416,247.293,188.492,82.7577,110.691,282.331,690.306,632.657,390.146,390.146,390.146
0.000908405	-15148241.16	0,4.53467e-06,1.2403e-05,2.60556e-05,4.9745e-05,9.08493e-05,0.000162171,0.000285925,0.000500656,0.000873245,0.00151974,0.0026415,0.00458792,0.00796524,0.0138254,0.0239936,inf	3132.63,3132.63,6.86637,0.360258,0.644059,20.3501,253.781,195.472,81.5163,107.761,279.865,694.808,640.63,380.734,380.734,380.734
0.000922875	-15148072.48	0,4.53467e-06,1.2403e-05,2.60556e-05,4.9745e-05,9.08493e-05,0.000162171,0.000285925,0.000500656,0.000873245,0.00151974,0.0026415,0.00458792,0.00796524,0.0138254,0.0239936,inf	3091.42,3091.42,4.30189,0.360258,0.36026,16.2251,258.078,201.295,80.7082,105.666,278.3,697.509,646.521,372.288,372.288,372.288
0.000936427	-15147946.57	0,4.53467e-06,1.2403e-05,2.60556e-05,4.9745e-05,9.08493e-05,0.000162171,0.000285925,0.000500656,0.000873245,0.00151974,0.0026415,0.00458792,0.00796524,0.0138254,0.0239936,inf	3053.28,3053.28,2.69149,0.360258,0.360258,13.0201,260.898,206.083,80.1601,104.145,277.389,699.01,650.94,364.881,364.881,364.881
0.000949266	-15147847.12	0,4.53467e-06,1.2403e-05,2.60556e-05,4.9745e-05,9.08493e-05,0.000162171,0.000285925,0.000500656,0.000873245,0.00151974,0.0026415,0.00458792,0.00796524,0.0138254,0.0239936,inf	3017.74,3017.74,1.67927,0.360258,0.360258,10.5268,262.782,209.984,79.769,103.031,276.955,699.696,654.3,358.473,358.473,358.473
0.000961535	-15147764.79	0,4.53467e-06,1.2403e-05,2.60556e-05,4.9745e-05,9.08493e-05,0.000162171,0.000285925,0.000500656,0.000873245,0.00151974,0.0026415,0.00458792,0.00796524,0.0138254,0.0239936,inf	2984.33,2984.33,1.04433,0.360258,0.360258,8.57925,264.122,213.143,79.472,102.209,276.871,699.819,656.88,352.975,352.975,352.975
0.000973337	-15147694.13	0,4.53467e-06,1.2403e-05,2.60556e-05,4.9745e-05,9.08493e-05,0.000162171,0.000285925,0.000500656,0.000873245,0.00151974,0.0026415,0.00458792,0.00796524,0.0138254,0.0239936,inf	2952.76,2952.76,0.646297,0.360258,0.360258,7.04856,265.176,215.685,79.2298,101.601,277.044,699.547,658.873,348.284,348.284,348.284
0.000984745	-15147631.79	0,4.53467e-06,1.2403e-05,2.60556e-05,4.9745e-05,9.08493e-05,0.000162171,0.000285925,0.000500656,0.000873245,0.00151974,0.0026415,0.00458792,0.00796524,0.0138254,0.0239936,inf	2922.8,2922.8,0.398123,0.360258,0.360258,5.83684,266.115,217.72,79.0182,101.152,277.406,698.997,660.415,344.296,344.296,344.296
0.000995818	-15147575.65	0,4.53467e-06,1.2403e-05,2.60556e-05,4.9745e-05,9.08493e-05,0.000162171,0.000285925,0.000500656,0.000873245,0.00151974,0.0026415,0.00458792,0.00796524,0.0138254,0.0239936,inf	2894.22,2894.22,0.360259,0.360258,0.360258,4.87009,267.04,219.336,78.8218,100.823,277.907,698.251,661.601,340.912,340.912,340.912
0.0010066	-15147524.29	0,4.53467e-06,1.2403e-05,2.60556e-05,4.9745e-05,9.08493e-05,0.000162171,0.000285925,0.000500656,0.000873245,0.00151974,0.0026415,0.00458792,0.00796524,0.0138254,0.0239936,inf	2866.75,2866.75,0.360259,0.360258,0.360258,4.0922,268.007,220.608,78.6316,100.586,278.511,697.365,662.502,338.046,338.046,338.046
0.00101711	-15147476.76	0,4.53467e-06,1.2403e-05,2.60556e-05,4.9745e-05,9.08493e-05,0.000162171,0.000285925,0.000500656,0.000873245,0.00151974,0.0026415,0.00458792,0.00796524,0.0138254,0.0239936,inf	2840.3,2840.3,0.360259,0.360258,0.360258,3.46156,269.049,221.597,78.442,100.418,279.189,696.384,663.171,335.622,335.622,335.622
0.00102739	-15147432.37	0,4.53467e-06,1.2403e-05,2.60556e-05,4.9745e-05,9.08493e-05,0.000162171,0.000285925,0.000500656,0.000873245,0.00151974,0.0026415,0.00458792,0.00796524,0.0138254,0.0239936,inf	2814.85,2814.85,0.360259,0.360258,0.360258,2.94635,270.178,222.353,78.2496,100.306,279.92,695.336,663.646,333.576,333.576,333.576
0.00103746	-15147390.66	0,4.53467e-06,1.2403e-05,2.60556e-05,4.9745e-05,9.08493e-05,0.000162171,0.000285925,0.000500656,0.000873245,0.00151974,0.0026415,0.00458792,0.00796524,0.0138254,0.0239936,inf	2790.19,2790.19,0.360259,0.360258,0.360258,2.52212,271.397,222.917,78.0533,100.237,280.689,694.246,663.958,331.85,331.85,331.85
0.00104733	-15147351.27	0,4.53467e-06,1.2403e-05,2.60556e-05,4.9745e-05,9.08493e-05,0.000162171,0.000285925,0.000500656,0.000873245,0.00151974,0.0026415,0.00458792,0.00796524,0.0138254,0.0239936,inf	2766.68,2766.68,0.360259,0.360258,0.360258,2.17065,272.699,223.323,77.8522,100.201,281.484,693.13,664.133,330.397,330.397,330.397
