0.00070684	-15181620.79	0,1.95692e-06,4.53467e-06,7.93021e-06,1.2403e-05,1.82947e-05,2.60556e-05,3.62787e-05,4.9745e-05,6.74834e-05,9.08493e-05,0.000121628,0.000162171,0.000215577,0.000285925,0.000378592,0.000500656,0.000661446,0.000873245,0.00115224,0.00151974,0.00200383,0.0026415,0.00348147,0.00458792,0.00604539,0.00796524,0.0104942,0.0138254,0.0182134,0.0239936,0.0316074,inf	3336.26,3336.26,2413.06,1629.89,518.857,164.73,79.0331,66.2568,74.2085,93.6294,121.454,153.806,186.252,206.513,204.588,190.576,183.886,190.574,212.452,253.409,314.807,390.224,458.108,480.52,463.155,437.631,415.841,399.04,399.04,412.164,412.164,412.164
0.000730393	-15162255.31	0,1.95692e-06,4.53467e-06,7.93021e-06,1.2403e-05,1.82947e-05,2.60556e-05,3.62787e-05,4.9745e-05,6.74834e-05,9.08493e-05,0.000121628,0.000162171,0.000215577,0.000285925,0.000378592,0.000500656,0.000661446,0.000873245,0.00115224,0.00151974,0.00200383,0.0026415,0.00348147,0.00458792,0.00604539,0.00796524,0.0104942,0.0138254,0.0182134,0.0239936,0.0316074,inf	4737.07,4737.07,3653.45,2243.03,393.777,68.8678,22.9055,18.751,24.5282,39.1165,65.2467,103.662,153.034,187.478,179.209,148.08,130.508,132.434,154.84,204.39,285.977,397.65,517.63,571.374,548.209,502.969,461.138,429.69,429.69,483.636,483.636,483.636
0.00075266	-15155165.87	0,1.95692e-06,4.53467e-06,7.93021e-06,1.2403e-05,1.82947e-05,2.60556e-05,3.62787e-05,4.9745e-05,6.74834e-05,9.08493e-05,0.000121628,0.000162171,0.000215577,0.000285925,0.000378592,0.000500656,0.000661446,0.000873245,0.00115224,0.00151974,0.00200383,0.0026415,0.00348147,0.00458792,0.00604539,0.00796524,0.0104942,0.0138254,0.0182134,0.0239936,0.0316074,inf	4930.28,4930.28,4116.98,2469.22,286.716,31.836,7.96358,6.50183,9.89112,19.74,41.8461,82.3972,147.271,198.959,184.84,136.335,108.939,105.491,125,175.969,265.71,396.245,552.782,637.23,615.656,555.828,495.916,452.369,452.369,593.594,593.594,593.594
0.000772314	-15151977.25	0,1.95692e-06,4.53467e-06,7.93021e-06,1.2403e-05,1.82947e-05,2.60556e-05,3.62787e-05,4.9745e-05,6.74834e-05,9.08493e-05,0.000121628,0.000162171,0.000215577,0.000285925,0.000378592,0.000500656,0.000661446,0.000873245,0.00115224,0.00151974,0.00200383,0.0026415,0.00348147,0.00458792,0.00604539,0.00796524,0.0104942,0.0138254,0.0182134,0.0239936,0.0316074,inf	4829.25,4829.25,4279.59,2562.32,212.616,15.7464,3.02444,2.45608,4.3081,10.6742,28.5039,68.8201,147.345,218.839,200.345,135.022,99.1662,91.077,107.401,157.825,251.174,392.014,573.658,684.961,668.717,597.944,521.584,468.364,468.364,798.901,798.901,798.901
0.000789618	-15150346.08	0,1.95692e-06,4.53467e-06,7.93021e-06,1.2403e-05,1.82947e-05,2.60556e-05,3.62787e-05,4.9745e-05,6.74834e-05,9.08493e-05,0.000121628,0.000162171,0.000215577,0.000285925,0.000378592,0.000500656,0.000661446,0.000873245,0.00115224,0.00151974,0.00200383,0.0026415,0.00348147,0.00458792,0.00604539,0.00796524,0.0104942,0.0138254,0.0182134,0.0239936,0.0316074,inf	4692.71,4692.71,4320.69,2598.22,160.149,8.07171,1.19837,0.962845,1.93427,5.91727,19.7777,58.0229,147.193,239.241,218.312,137.604,94.6127,82.6552,96.1425,145.562,240.606,387.244,586.107,719.929,710.559,631.256,539.777,479.021,479.021,1403.19,1403.19,1403.19
0.000805035	-15149429.86	0,1.95692e-06,4.53467e-06,7.93021e-06,1.2403e-05,1.82947e-05,2.60556e-05,3.62787e-05,4.9745e-05,6.74834e-05,9.08493e-05,0.000121628,0.000162171,0.000215577,0.000285925,0.000378592,0.000500656,0.000661446,0.000873245,0.00115224,0.00151974,0.00200383,0.0026415,0.00348147,0.00458792,0.00604539,0.00796524,0.0104942,0.0138254,0.0182134,0.0239936,0.0316074,inf	4578.83,4578.83,4310.72,2606.21,121.978,4.22156,0.484761,0.384438,0.881614,3.31792,13.8136,48.8596,145.361,257.098,235.618,141.512,92.6355,77.4453,88.5214,136.955,232.85,382.769,593.453,745.873,743.746,657.485,552.005,485.486,485.486,8056.93,8056.93,8056.93
0.000805035	-15148875.98	0,1.95692e-06,4.53467e-06,7.93021e-06,1.2403e-05,1.82947e-05,2.60556e-05,3.62787e-05,4.9745e-05,6.74834e-05,9.08493e-05,0.000121628,0.000162171,0.000215577,0.000285925,0.000378592,0.000500656,0.000661446,0.000873245,0.00115224,0.00151974,0.00200383,0.0026415,0.00348147,0.00458792,0.00604539,0.00796524,0.0104942,0.0138254,0.0182134,0.0239936,0.0316074,inf	4470.05,4470.05,4260.73,2588.76,93.2915,2.22732,0.360258,0.360258,0.40462,1.86946,9.65941,40.9095,141.388,270.358,249.934,145.114,91.7258,73.8844,82.9088,130.378,226.4,377.356,594.744,762.581,768.349,676.717,558.619,488.032,488.032,53474.9,53474.9,53474.9
