LogLikelihood = -37815.038217238834477

y0 0.96140285786771206844
y0_prime 0
y1 1.3931419626379222265
y1_prime 0
y2 0.81631006938344652379
y2_prime 0
y3 1.4050377832167351144
y3_prime 0
rho 2.1498170766717891229e-05
theta 0.00045516936852202702747
