LogLikelihood = -1017750.6238947066013

y0 0.44919975583025439914
y0_prime 0
y1 0.50662946279556830831
y1_prime 0
y2 0.57254754739433955102
y2_prime 0
y3 1.5402154932669056553
y3_prime 0
rho 0.00084382823589532196529
theta 0.003327764259264648361
