LogLikelihood = -1243042.5486943838187

y0 0.55752597496047495707
y0_prime 0
y1 0.69794271100514226891
y1_prime 0
y2 0.80689982555603911862
y2_prime 0
y3 1.7085921140941788821
y3_prime 0
rho 0.0013272873646593041832
theta 0.00404611138561459735
