time_index	left_time_boundary	right_time_boundary	lambda
0	0	1.60318e-07	17.8175
1	1.60318e-07	3.71497e-07	17.8175
2	3.71497e-07	6.49672e-07	180.558
3	6.49672e-07	1.0161e-06	4.43493
4	1.0161e-06	1.49877e-06	4.40339
5	1.49877e-06	2.13457e-06	4.39885
6	2.13457e-06	2.97208e-06	4.39791
7	2.97208e-06	4.07529e-06	1519.35
8	4.07529e-06	5.52848e-06	5641.55
9	5.52848e-06	7.4427e-06	2423.84
10	7.4427e-06	9.96421e-06	1680.63
11	9.96421e-06	1.32857e-05	4105.76
12	1.32857e-05	1.76608e-05	4474.77
13	1.76608e-05	2.3424e-05	5951.39
14	2.3424e-05	3.10156e-05	4854.01
15	3.10156e-05	4.10156e-05	4049.5
16	4.10156e-05	5.4188e-05	4048.53
17	5.4188e-05	7.15394e-05	3733.58
18	7.15394e-05	9.43955e-05	3586.79
19	9.43955e-05	0.000124503	3816.67
20	0.000124503	0.000164161	4514.95
21	0.000164161	0.000216401	5544.7
22	0.000216401	0.000285215	5845.1
23	0.000285215	0.000375859	4607.75
24	0.000375859	0.00049526	3107.67
25	0.00049526	0.000652541	4180.62
26	0.000652541	0.000859719	3243.55
27	0.000859719	0.00113262	5468.53
28	0.00113262	0.00149211	5468.53
29	0.00149211	0.00196564	652380
30	0.00196564	0.00258939	652380
31	0.00258939	inf	652380
