6.03952e-05	-45470.06	0,1.02949e-05,2.43817e-05,4.36568e-05,7.00311e-05,0.00010612,0.0001555,0.000223068,0.000315522,0.000442028,0.000615129,0.000851985,0.00117608,0.00161954,0.00222634,0.00305663,inf	3882.09,3882.09,3967.94,3471.71,3439.58,3824.16,3754.26,3586.58,3585.78,3762.12,3974.74,3839.33,3457.6,4801.28,4801.28,4801.28
5.21427e-05	-45456.45	0,1.02949e-05,2.43817e-05,4.36568e-05,7.00311e-05,0.00010612,0.0001555,0.000223068,0.000315522,0.000442028,0.000615129,0.000851985,0.00117608,0.00161954,0.00222634,0.00305663,inf	3947.05,3947.05,4158.08,3296.59,3174.28,3947.74,3864.08,3534.43,3549.49,3973.03,4542.72,4086.64,3249.81,7433.82,7433.82,7433.82
4.52066e-05	-45446.41	0,1.02949e-05,2.43817e-05,4.36568e-05,7.00311e-05,0.00010612,0.0001555,0.000223068,0.000315522,0.000442028,0.000615129,0.000851985,0.00117608,0.00161954,0.00222634,0.00305663,inf	3962.89,3962.89,4264.95,3158.02,2882.74,3997.74,3947.74,3447.28,3482.21,4218.29,5421.81,4236.78,3010.8,17674.3,17674.3,17674.3
3.94964e-05	-45439.98	0,1.02949e-05,2.43817e-05,4.36568e-05,7.00311e-05,0.00010612,0.0001555,0.000223068,0.000315522,0.000442028,0.000615129,0.000851985,0.00117608,0.00161954,0.00222634,0.00305663,inf	3957.38,3957.38,4306.09,3079.24,2602.47,3991.4,4021.13,3335.43,3389.47,4491.77,6931.7,4128.25,2805.14,437000,437000,437000
3.94963e-05	-45437.43	0,1.02949e-05,2.43817e-05,4.36568e-05,7.00311e-05,0.00010612,0.0001555,0.000223068,0.000315522,0.000442028,0.000615129,0.000851985,0.00117608,0.00161954,0.00222634,0.00305663,inf	4133.38,4133.38,4510.35,3207.89,2427.52,4111.88,4271.7,3311.42,3349.71,4870.98,10009.6,3665.51,2741.34,500712,500712,500712
3.94963e-05	-45446.35	0,1.02949e-05,2.43817e-05,4.36568e-05,7.00311e-05,0.00010612,0.0001555,0.000223068,0.000315522,0.000442028,0.000615129,0.000851985,0.00117608,0.00161954,0.00222634,0.00305663,inf	4133.38,4133.38,4510.36,3207.89,2283.34,4133.99,4332.55,3249.41,3244.58,4980.93,10009.6,2792.64,2698.91,500922,500922,500922
3.94963e-05	-45444.61	0,1.02949e-05,2.43817e-05,4.36568e-05,7.00311e-05,0.00010612,0.0001555,0.000223068,0.000315522,0.000442028,0.000615129,0.000851985,0.00117608,0.00161954,0.00222634,0.00305663,inf	4133.38,4133.38,4510.39,3207.89,2187.36,4152.85,4332.55,3206.71,3150.22,5087.34,10009.6,2373.28,2588.99,501050,501050,501050
3.94963e-05	-45444.02	0,1.02949e-05,2.43817e-05,4.36568e-05,7.00311e-05,0.00010612,0.0001555,0.000223068,0.000315522,0.000442028,0.000615129,0.000851985,0.00117608,0.00161954,0.00222634,0.00305663,inf	4133.38,4133.38,4510.41,3207.89,2122.59,4176.99,4349.5,3183.58,3066.59,5160.8,10009.6,2137.98,2480.7,501137,501137,501137
3.94962e-05	-45443.72	0,1.02949e-05,2.43817e-05,4.36568e-05,7.00311e-05,0.00010612,0.0001555,0.000223068,0.000315522,0.000442028,0.000615129,0.000851985,0.00117608,0.00161954,0.00222634,0.00305663,inf	4130.76,4130.76,4513.25,3207.89,2076.32,4195.59,4360.62,3172.07,2991.32,5221.97,10009.6,1996.9,2386.56,501197,501197,501197
3.94961e-05	-45443.57	0,1.02949e-05,2.43817e-05,4.36568e-05,7.00311e-05,0.00010612,0.0001555,0.000223068,0.000315522,0.000442028,0.000615129,0.000851985,0.00117608,0.00161954,0.00222634,0.00305663,inf	4127.13,4127.13,4517.1,3207.89,2042.73,4209.73,4368.23,3169.29,2923.04,5273.35,10009.6,1910.34,2307.29,501241,501241,501241
3.94959e-05	-45443.51	0,1.02949e-05,2.43817e-05,4.36568e-05,7.00311e-05,0.00010612,0.0001555,0.000223068,0.000315522,0.000442028,0.000615129,0.000851985,0.00117608,0.00161954,0.00222634,0.00305663,inf	4123.21,4123.21,4521.19,3207.89,2017.99,4220.14,4373.84,3169.29,2860.47,5319.08,10009.6,1857.74,2240.9,501274,501274,501274
3.94958e-05	-45443.50	0,1.02949e-05,2.43817e-05,4.36568e-05,7.00311e-05,0.00010612,0.0001555,0.000223068,0.000315522,0.000442028,0.000615129,0.000851985,0.00117608,0.00161954,0.00222634,0.00305663,inf	4119.46,4119.46,4525.18,3207.89,1999.84,4227.8,4377.93,3169.29,2802.82,5361.21,10009.6,1827.25,2185.11,501298,501298,501298
3.94957e-05	-45443.51	0,1.02949e-05,2.43817e-05,4.36568e-05,7.00311e-05,0.00010612,0.0001555,0.000223068,0.000315522,0.000442028,0.000615129,0.000851985,0.00117608,0.00161954,0.00222634,0.00305663,inf	4116,4116,4528.85,3207.89,1986.33,4233.57,4380.93,3169.29,2749.7,5400.03,10009.6,1811.52,2137.88,501316,501316,501316
3.94955e-05	-45443.55	0,1.02949e-05,2.43817e-05,4.36568e-05,7.00311e-05,0.00010612,0.0001555,0.000223068,0.000315522,0.000442028,0.000615129,0.000851985,0.00117608,0.00161954,0.00222634,0.00305663,inf	4113.03,4113.03,4532.04,3207.89,1976.05,4238.03,4383.16,3169.29,2700.72,5435.82,10009.6,1805.73,2097.57,501330,501330,501330
3.94908e-05	-45443.59	0,1.02949e-05,2.43817e-05,4.36568e-05,7.00311e-05,0.00010612,0.0001555,0.000223068,0.000315522,0.000442028,0.000615129,0.000851985,0.00117608,0.00161954,0.00222634,0.00305663,inf	4110.36,4110.36,4535.04,3207.9,1968.23,4241.39,4384.88,3169.29,2655.46,5468.9,10009.6,1805.73,2062.9,501340,501340,501340
3.46302e-05	-45443.64	0,1.02949e-05,2.43817e-05,4.36568e-05,7.00311e-05,0.00010612,0.0001555,0.000223068,0.000315522,0.000442028,0.000615129,0.000851985,0.00117608,0.00161954,0.00222634,0.00305663,inf	3902.95,3902.95,4330.8,3172.73,1901.77,4056.75,4341.48,3090.57,2566.17,5779.3,15762,1782.3,1972.97,204953,204953,204953
3.46301e-05	-45456.27	0,1.02949e-05,2.43817e-05,4.36568e-05,7.00311e-05,0.00010612,0.0001555,0.000223068,0.000315522,0.000442028,0.000615129,0.000851985,0.00117608,0.00161954,0.00222634,0.00305663,inf	4028.68,4028.68,4385.36,3343.84,1876.17,4053.48,4525.91,3093.29,2496,6267.4,23393.8,1614.02,1995.25,499036,499036,499036
2.9953e-05	-45477.48	0,1.02949e-05,2.43817e-05,4.36568e-05,7.00311e-05,0.00010612,0.0001555,0.000223068,0.000315522,0.000442028,0.000615129,0.000851985,0.00117608,0.00161954,0.00222634,0.00305663,inf	3862.68,3862.68,4148.6,3252.86,1784.25,3830.16,4404.77,2961.73,2362.17,6630.36,28194.3,1362.31,1930.29,17197.4,17197.4,17197.4
2.66041e-05	-45484.66	0,1.02949e-05,2.43817e-05,4.36568e-05,7.00311e-05,0.00010612,0.0001555,0.000223068,0.000315522,0.000442028,0.000615129,0.000851985,0.00117608,0.00161954,0.00222634,0.00305663,inf	3845.63,3845.63,4021.77,3297.1,1702.1,3681.69,4387.36,2853.44,2252.53,7294.96,30827,1204.29,2039.51,7651.3,7651.3,7651.3
2.42222e-05	-45489.58	0,1.02949e-05,2.43817e-05,4.36568e-05,7.00311e-05,0.00010612,0.0001555,0.000223068,0.000315522,0.000442028,0.000615129,0.000851985,0.00117608,0.00161954,0.00222634,0.00305663,inf	3855.93,3855.93,3909.86,3394.5,1621.63,3559.77,4404.85,2743.79,2150.92,8452.03,31900.9,1092.89,2378.54,5465.19,5465.19,5465.19
