5.83955e-05	-1951918.29	0,1.86963e-07,4.3324e-07,7.57649e-07,1.18497e-06,1.74787e-06,2.48934e-06,3.46605e-06,4.75261e-06,6.44733e-06,8.6797e-06,1.16203e-05,1.54938e-05,2.05961e-05,2.73172e-05,3.61705e-05,4.78324e-05,6.31942e-05,8.34294e-05,0.000110084,0.000145195,0.000191445,0.000252368,0.000332618,0.000438328,0.000577574,0.000760995,0.00100261,0.00132087,0.0017401,0.00229233,0.00301976,inf	7796.82,7796.82,6788.31,10003.7,10528.9,6756.93,3826.84,3017.78,2741.96,2798.15,3018.68,3489.32,3930.32,4178.1,4248.37,4074.48,4046.59,4149.77,4213.24,4177.27,4076.65,3949.08,3819.48,3695.18,3622.79,3406.69,3395.08,3936.26,3936.26,6428.95,6428.95,6428.95
5.17032e-05	-1951387.79	0,1.86963e-07,4.3324e-07,7.57649e-07,1.18497e-06,1.74787e-06,2.48934e-06,3.46605e-06,4.75261e-06,6.44733e-06,8.6797e-06,1.16203e-05,1.54938e-05,2.05961e-05,2.73172e-05,3.61705e-05,4.78324e-05,6.31942e-05,8.34294e-05,0.000110084,0.000145195,0.000191445,0.000252368,0.000332618,0.000438328,0.000577574,0.000760995,0.00100261,0.00132087,0.0017401,0.00229233,0.00301976,inf	8229.9,8229.9,6199.72,12772.5,15717.3,8302.96,3778.37,2729.36,2272.41,2290.66,2536.69,3203.46,3953.78,4363.31,4502.56,4129.65,4043.4,4251.73,4418.83,4405.78,4271.09,4077.69,3879.21,3663.81,3558.21,3136.66,3115.76,4149.74,4149.74,16503.2,16503.2,16503.2
4.61282e-05	-1951009.98	0,1.86963e-07,4.3324e-07,7.57649e-07,1.18497e-06,1.74787e-06,2.48934e-06,3.46605e-06,4.75261e-06,6.44733e-06,8.6797e-06,1.16203e-05,1.54938e-05,2.05961e-05,2.73172e-05,3.61705e-05,4.78324e-05,6.31942e-05,8.34294e-05,0.000110084,0.000145195,0.000191445,0.000252368,0.000332618,0.000438328,0.000577574,0.000760995,0.00100261,0.00132087,0.0017401,0.00229233,0.00301976,inf	7452.06,7452.06,4805.57,13294.1,19851.9,9522.66,3908.35,2730.29,2091.99,2045.1,2255.78,2983.6,3971.53,4484.93,4711.52,4126.08,3946.63,4232.08,4497.35,4524.18,4391.53,4171.6,3953.42,3666.59,3559.76,2925.73,2896.05,4426.82,4426.82,294815,294815,294815
4.61276e-05	-1950731.37	0,1.86963e-07,4.3324e-07,7.57649e-07,1.18497e-06,1.74787e-06,2.48934e-06,3.46605e-06,4.75261e-06,6.44733e-06,8.6797e-06,1.16203e-05,1.54938e-05,2.05961e-05,2.73172e-05,3.61705e-05,4.78324e-05,6.31942e-05,8.34294e-05,0.000110084,0.000145195,0.000191445,0.000252368,0.000332618,0.000438328,0.000577574,0.000760995,0.00100261,0.00132087,0.0017401,0.00229233,0.00301976,inf	6657.51,6657.51,3625.67,13012.4,24026,10956.9,4260.4,2975.21,2116.54,1993.34,2157.38,2899.78,4130.77,4737.04,5112.43,4278.75,3961.66,4309.6,4670.13,4734.71,4609.68,4366.84,4155.48,3780.67,3699.88,2804.13,2755.08,4859.04,4859.04,559329,559329,559329
4.61276e-05	-1950740.62	0,1.86963e-07,4.3324e-07,7.57649e-07,1.18497e-06,1.74787e-06,2.48934e-06,3.46605e-06,4.75261e-06,6.44733e-06,8.6797e-06,1.16203e-05,1.54938e-05,2.05961e-05,2.73172e-05,3.61705e-05,4.78324e-05,6.31942e-05,8.34294e-05,0.000110084,0.000145195,0.000191445,0.000252368,0.000332618,0.000438328,0.000577574,0.000760995,0.00100261,0.00132087,0.0017401,0.00229233,0.00301976,inf	5558.79,5558.79,2553.02,11619.7,26133.9,11178.2,4260.4,2975.22,2097.26,1925.5,2049.65,2774.37,4190.33,4838.63,5112.43,4278.75,3891.88,4293.12,4722.86,4734.71,4609.68,4366.84,4155.48,3780.67,3699.88,2684.3,2626.88,4930.84,4930.84,559329,559329,559329
4.61276e-05	-1950748.09	0,1.86963e-07,4.3324e-07,7.57649e-07,1.18497e-06,1.74787e-06,2.48934e-06,3.46605e-06,4.75261e-06,6.44733e-06,8.6797e-06,1.16203e-05,1.54938e-05,2.05961e-05,2.73172e-05,3.61705e-05,4.78324e-05,6.31942e-05,8.34294e-05,0.000110084,0.000145195,0.000191445,0.000252368,0.000332618,0.000438328,0.000577574,0.000760995,0.00100261,0.00132087,0.0017401,0.00229233,0.00301976,inf	4673.9,4673.9,1801.02,10230,27800.2,11183.1,4356.72,3076.6,2097.26,1886.91,1970.89,2666.77,4246.7,4905.13,5112.43,4278.75,3828.31,4277.99,4770.98,4734.71,4609.68,4366.84,4155.48,3780.67,3699.88,2601.24,2529.07,4983.55,4983.55,559329,559329,559329
4.61276e-05	-1950754.46	0,1.86963e-07,4.3324e-07,7.57649e-07,1.18497e-06,1.74787e-06,2.48934e-06,3.46605e-06,4.75261e-06,6.44733e-06,8.6797e-06,1.16203e-05,1.54938e-05,2.05961e-05,2.73172e-05,3.61705e-05,4.78324e-05,6.31942e-05,8.34294e-05,0.000110084,0.000145195,0.000191445,0.000252368,0.000332618,0.000438328,0.000577574,0.000760995,0.00100261,0.00132087,0.0017401,0.00229233,0.00301976,inf	3970.96,3970.96,1277.89,8947.3,29167.7,11342.1,4416.14,3099.06,2099.59,1862.98,1910.7,2571.43,4301.84,4952.49,5112.44,4278.75,3770.58,4264.23,4814.7,4734.71,4609.68,4366.84,4155.48,3780.67,3699.88,2543.47,2452.82,5022.9,5022.9,559329,559329,559329
4.61276e-05	-1950759.66	0,1.86963e-07,4.3324e-07,7.57649e-07,1.18497e-06,1.74787e-06,2.48934e-06,3.46605e-06,4.75261e-06,6.44733e-06,8.6797e-06,1.16203e-05,1.54938e-05,2.05961e-05,2.73172e-05,3.61705e-05,4.78324e-05,6.31942e-05,8.34294e-05,0.000110084,0.000145195,0.000191445,0.000252368,0.000332618,0.000438328,0.000577574,0.000760995,0.00100261,0.00132087,0.0017401,0.00229233,0.00301976,inf	3400.17,3400.17,910.188,7781.68,30224.1,11368.3,4452.21,3238.78,2099.59,1852.09,1865,2486.17,4356.29,4983.91,5112.44,4278.75,3718.13,4251.71,4854.43,4734.71,4609.68,4366.84,4155.48,3780.67,3699.88,2503.47,2392.28,5052.68,5052.68,559329,559329,559329
4.61276e-05	-1950763.77	0,1.86963e-07,4.3324e-07,7.57649e-07,1.18497e-06,1.74787e-06,2.48934e-06,3.46605e-06,4.75261e-06,6.44733e-06,8.6797e-06,1.16203e-05,1.54938e-05,2.05961e-05,2.73172e-05,3.61705e-05,4.78324e-05,6.31942e-05,8.34294e-05,0.000110084,0.000145195,0.000191445,0.000252368,0.000332618,0.000438328,0.000577574,0.000760995,0.00100261,0.00132087,0.0017401,0.00229233,0.00301976,inf	2940.22,2940.22,652.721,6758.66,31096.7,11288.4,4448.38,3382.19,2115.6,1846.84,1828.88,2407.53,4410.1,5013.59,5112.44,4278.75,3670.57,4240.44,4890.4,4734.71,4609.68,4366.84,4155.48,3780.67,3699.88,2476.16,2343.46,5075.46,5075.46,559329,559329,559329
4.61276e-05	-1950766.98	0,1.86963e-07,4.3324e-07,7.57649e-07,1.18497e-06,1.74787e-06,2.48934e-06,3.46605e-06,4.75261e-06,6.44733e-06,8.6797e-06,1.16203e-05,1.54938e-05,2.05961e-05,2.73172e-05,3.61705e-05,4.78324e-05,6.31942e-05,8.34294e-05,0.000110084,0.000145195,0.000191445,0.000252368,0.000332618,0.000438328,0.000577574,0.000760995,0.00100261,0.00132087,0.0017401,0.00229233,0.00301976,inf	2568.38,2568.38,471.712,5876.26,31869.3,11142.3,4412.62,3382.19,2127.15,1844.76,1799.41,2334.77,4461.97,5068.8,5112.44,4278.75,3627.47,4230.39,4922.87,4734.71,4609.68,4366.84,4155.48,3780.67,3699.88,2458,2303.52,5093.06,5093.06,559329,559329,559329
4.61276e-05	-1950769.44	0,1.86963e-07,4.3324e-07,7.57649e-07,1.18497e-06,1.74787e-06,2.48934e-06,3.46605e-06,4.75261e-06,6.44733e-06,8.6797e-06,1.16203e-05,1.54938e-05,2.05961e-05,2.73172e-05,3.61705e-05,4.78324e-05,6.31942e-05,8.34294e-05,0.000110084,0.000145195,0.000191445,0.000252368,0.000332618,0.000438328,0.000577574,0.000760995,0.00100261,0.00132087,0.0017401,0.00229233,0.00301976,inf	2263.74,2263.74,343.211,5118.85,32634.4,10997.4,4385.99,3388.49,2144.82,1849.51,1776.34,2264.45,4507.43,5104.6,5112.44,4278.75,3587.76,4221.1,4952.81,4734.71,4609.68,4366.84,4155.48,3780.67,3699.88,2446.48,2270.43,5106.77,5106.77,559329,559329,559329
4.61276e-05	-1950771.31	0,1.86963e-07,4.3324e-07,7.57649e-07,1.18497e-06,1.74787e-06,2.48934e-06,3.46605e-06,4.75261e-06,6.44733e-06,8.6797e-06,1.16203e-05,1.54938e-05,2.05961e-05,2.73172e-05,3.61705e-05,4.78324e-05,6.31942e-05,8.34294e-05,0.000110084,0.000145195,0.000191445,0.000252368,0.000332618,0.000438328,0.000577574,0.000760995,0.00100261,0.00132087,0.0017401,0.00229233,0.00301976,inf	2008.14,2008.14,251.059,4458.48,33355,10842.4,4362.59,3496.63,2144.82,1849.51,1758.49,2197.87,4549.09,5119.15,5112.44,4278.75,3551.23,4212.56,4980.33,4734.71,4609.68,4366.84,4155.48,3780.67,3699.88,2439.76,2242.69,5117.53,5117.53,559329,559329,559329
4.61276e-05	-1950772.73	0,1.86963e-07,4.3324e-07,7.57649e-07,1.18497e-06,1.74787e-06,2.48934e-06,3.46605e-06,4.75261e-06,6.44733e-06,8.6797e-06,1.16203e-05,1.54938e-05,2.05961e-05,2.73172e-05,3.61705e-05,4.78324e-05,6.31942e-05,8.34294e-05,0.000110084,0.000145195,0.000191445,0.000252368,0.000332618,0.000438328,0.000577574,0.000760995,0.00100261,0.00132087,0.0017401,0.00229233,0.00301976,inf	1787.77,1787.77,183.814,3879.22,33978.2,10654.6,4323.35,3632.63,2146.52,1849.51,1745.38,2135.85,4590.8,5128.97,5112.44,4278.75,3517.89,4204.87,5005.39,4734.71,4609.68,4366.84,4155.48,3780.67,3699.88,2436.52,2219.18,5126.04,5126.04,559329,559329,559329
4.61276e-05	-1950773.79	0,1.86963e-07,4.3324e-07,7.57649e-07,1.18497e-06,1.74787e-06,2.48934e-06,3.46605e-06,4.75261e-06,6.44733e-06,8.6797e-06,1.16203e-05,1.54938e-05,2.05961e-05,2.73172e-05,3.61705e-05,4.78324e-05,6.31942e-05,8.34294e-05,0.000110084,0.000145195,0.000191445,0.000252368,0.000332618,0.000438328,0.000577574,0.000760995,0.00100261,0.00132087,0.0017401,0.00229233,0.00301976,inf	1599.77,1599.77,135.116,3374.58,33978.2,10441.4,4266.1,3759.46,2161.41,1863.52,1735.97,2077.25,4632.93,5178.84,5112.44,4278.75,3487.75,4198.13,5027.88,4734.71,4609.68,4366.84,4155.48,3780.67,3699.88,2435.76,2199.07,5132.82,5132.82,559329,559329,559329
4.61276e-05	-1950774.54	0,1.86963e-07,4.3324e-07,7.57649e-07,1.18497e-06,1.74787e-06,2.48934e-06,3.46605e-06,4.75261e-06,6.44733e-06,8.6797e-06,1.16203e-05,1.54938e-05,2.05961e-05,2.73172e-05,3.61705e-05,4.78324e-05,6.31942e-05,8.34294e-05,0.000110084,0.000145195,0.000191445,0.000252368,0.000332618,0.000438328,0.000577574,0.000760995,0.00100261,0.00132087,0.0017401,0.00229233,0.00301976,inf	1452.52,1452.52,100.603,2963.83,34406.9,10273.6,4201.84,3875.18,2169.37,1874.67,1726.24,2018.73,4633.29,5216.56,5112.44,4278.75,3459.52,4191.79,5027.88,4750.71,4609.68,4366.84,4155.48,3780.67,3699.88,2435.76,2181.7,5138.51,5138.51,559329,559329,559329
4.61276e-05	-1950775.15	0,1.86963e-07,4.3324e-07,7.57649e-07,1.18497e-06,1.74787e-06,2.48934e-06,3.46605e-06,4.75261e-06,6.44733e-06,8.6797e-06,1.16203e-05,1.54938e-05,2.05961e-05,2.73172e-05,3.61705e-05,4.78324e-05,6.31942e-05,8.34294e-05,0.000110084,0.000145195,0.000191445,0.000252368,0.000332618,0.000438328,0.000577574,0.000760995,0.00100261,0.00132087,0.0017401,0.00229233,0.00301976,inf	1323.22,1323.22,75.04,2603.56,34780.3,10100.6,4127.93,3983.75,2174.05,1887.75,1720.69,1965.33,4669.04,5226.14,5112.44,4278.75,3434.52,4187.61,5045.46,4750.71,4609.68,4366.84,4155.48,3780.67,3699.88,2435.76,2166.64,5143.44,5143.44,559329,559329,559329
