AIC = 579874.90109321649652

y0 0.92684642719491416862
y0_prime 0
y1 1.017435548510412513
y1_prime 0
y2 0.90212539930100399399
y2_prime 0
y3 1.6877061989405026665
y3_prime 0
rho 0.0015044011298323695103
rho.alpha 0.80750083675960948604
r_ii 0.99998041686386995863
theta 0.0047631166963590610905
