0.000296131	-8290140.76	0,9.56421e-07,2.21626e-06,3.87579e-06,6.0618e-06,8.94132e-06,1.27344e-05,1.77307e-05,2.43122e-05,3.29817e-05,4.44015e-05,5.94442e-05,7.92592e-05,0.000105361,0.000139742,0.000185032,0.000244689,0.000323273,0.000426788,0.000563142,0.000742754,0.000979348,0.001291,0.00170153,0.00224229,0.00295461,0.00389291,0.00512889,0.00675698,0.00890158,0.0117265,0.0154477,inf	2.24317,2.24317,4.24906,6.62861,9.86286,14.3741,20.8204,30.1544,43.897,67.872,122.849,165.81,230.19,241.324,280.044,301.799,340.559,374.96,435.112,514.244,617.55,728.602,874.481,1041.18,1070.69,1025.39,974.64,938.744,938.744,927.443,927.443,927.443
0.000261467	-8275814.79	0,9.56421e-07,2.21626e-06,3.87579e-06,6.0618e-06,8.94132e-06,1.27344e-05,1.77307e-05,2.43122e-05,3.29817e-05,4.44015e-05,5.94442e-05,7.92592e-05,0.000105361,0.000139742,0.000185032,0.000244689,0.000323273,0.000426788,0.000563142,0.000742754,0.000979348,0.001291,0.00170153,0.00224229,0.00295461,0.00389291,0.00512889,0.00675698,0.00890158,0.0117265,0.0154477,inf	0.737126,0.737126,0.737121,0.737122,0.73712,0.73712,0.737124,1.03708,2.14704,5.27859,20.6736,32.0074,72.064,76.8481,127.448,145.447,202.081,234.081,308.37,403.243,537.615,688.855,917.003,1287.32,1425.78,1370.26,1272.08,1211.76,1211.76,1250.7,1250.7,1250.7
0.000228545	-8268891.42	0,9.56421e-07,2.21626e-06,3.87579e-06,6.0618e-06,8.94132e-06,1.27344e-05,1.77307e-05,2.43122e-05,3.29817e-05,4.44015e-05,5.94442e-05,7.92592e-05,0.000105361,0.000139742,0.000185032,0.000244689,0.000323273,0.000426788,0.000563142,0.000742754,0.000979348,0.001291,0.00170153,0.00224229,0.00295461,0.00389291,0.00512889,0.00675698,0.00890158,0.0117265,0.0154477,inf	0.737122,0.737122,0.73712,0.737122,0.73712,0.73712,0.73712,0.73712,0.73712,0.73712,1.91498,4.71908,21.5301,22.0713,60.0397,68.9627,133.669,160.163,242.619,338.133,483.848,646.435,908.752,1480.41,1809.02,1807.2,1678.96,1633.81,1633.81,2040.46,2040.46,2040.46
0.000196444	-8264415.91	0,9.56421e-07,2.21626e-06,3.87579e-06,6.0618e-06,8.94132e-06,1.27344e-05,1.77307e-05,2.43122e-05,3.29817e-05,4.44015e-05,5.94442e-05,7.92592e-05,0.000105361,0.000139742,0.000185032,0.000244689,0.000323273,0.000426788,0.000563142,0.000742754,0.000979348,0.001291,0.00170153,0.00224229,0.00295461,0.00389291,0.00512889,0.00675698,0.00890158,0.0117265,0.0154477,inf	0.73712,0.73712,0.73712,0.737122,0.73712,0.73712,0.73712,0.73712,0.73712,0.73712,0.73712,0.740715,6.35672,7.29645,28.351,30.5672,90.2567,113.516,203.724,296.292,448.65,610.551,874.759,1634.66,2251.29,2437.7,2347.21,2488.44,2488.44,6819.47,6819.47,6819.47
0.000165186	-8260822.39	0,9.56421e-07,2.21626e-06,3.87579e-06,6.0618e-06,8.94132e-06,1.27344e-05,1.77307e-05,2.43122e-05,3.29817e-05,4.44015e-05,5.94442e-05,7.92592e-05,0.000105361,0.000139742,0.000185032,0.000244689,0.000323273,0.000426788,0.000563142,0.000742754,0.000979348,0.001291,0.00170153,0.00224229,0.00295461,0.00389291,0.00512889,0.00675698,0.00890158,0.0117265,0.0154477,inf	0.73712,0.73712,0.73712,0.737122,0.73712,0.73712,0.73712,0.73712,0.73712,0.73712,0.73712,0.737428,3.66888,5.42666,14.624,12.9986,58.6693,79.6846,175.907,266.339,426.442,584.092,826.787,1761.96,2817.06,3590.88,3922.15,5567.31,5567.31,105601,105601,105601
