LogLikelihood = -832044.11206621630117

y0 0.96472606176211550544
y0_prime 0
y1 1.1150452454230730392
y1_prime 0
y2 0.87069157394836338426
y2_prime 0
y3 1.8247453585073545312
y3_prime 0
rho 0.00010473977468860653248
theta 0.0024966087110001762561
