LogLikelihood = -180317.42635917366715

y0 0.89220872767855108343
y0_prime 0
y1 1.0351794488872119171
y1_prime 0
y2 0.98220077052780474514
y2_prime 0
y3 1.9450123355931956404
y3_prime 0
rho 0.00010380232197443656672
theta 0.002734259303808667628
