0.000734808	-345722.97	0,0.000102577,0.000242934,0.000434987,0.000697776,0.00105735,0.00154937,0.0022226,0.0031438,0.00440428,0.00612902,0.00848901,0.0117182,0.0161368,0.0221828,0.0304556,inf	36.3562,36.3562,77.0238,123.751,190.131,290.559,444.215,559.613,540.801,503.265,469.99,444.26,434.445,448.587,448.587,448.587
0.0007911	-344767.62	0,0.000102577,0.000242934,0.000434987,0.000697776,0.00105735,0.00154937,0.0022226,0.0031438,0.00440428,0.00612902,0.00848901,0.0117182,0.0161368,0.0221828,0.0304556,inf	5.33991,5.33991,23.5126,57.7448,123.094,241.698,457.478,685.217,680.688,632.882,577.746,531.517,523.189,590.266,590.266,590.266
0.000843701	-344438.84	0,0.000102577,0.000242934,0.000434987,0.000697776,0.00105735,0.00154937,0.0022226,0.0031438,0.00440428,0.00612902,0.00848901,0.0117182,0.0161368,0.0221828,0.0304556,inf	0.972573,0.972573,8.64786,31.4159,88.6663,209.429,450.537,760.161,780.596,743.594,681.103,624.136,637.858,889.343,889.343,889.343
0.000890601	-344293.71	0,0.000102577,0.000242934,0.000434987,0.000697776,0.00105735,0.00154937,0.0022226,0.0031438,0.00440428,0.00612902,0.00848901,0.0117182,0.0161368,0.0221828,0.0304556,inf	0.359063,0.359063,3.65907,19.0745,68.8098,187.918,439.759,805.947,851.395,837.982,782.89,729.321,808.948,2228.94,2228.94,2228.94
0.00093012	-344218.64	0,0.000102577,0.000242934,0.000434987,0.000697776,0.00105735,0.00154937,0.0022226,0.0031438,0.00440428,0.00612902,0.00848901,0.0117182,0.0161368,0.0221828,0.0304556,inf	0.359063,0.359063,1.73148,12.5997,56.4258,173.206,429.367,833.937,901.552,919.123,886.552,858.383,1137.72,50013.6,50013.6,50013.6
