time_index	left_time_boundary	right_time_boundary	lambda
0	0	9.20787e-05	327.29
1	9.20787e-05	0.000218071	327.29
2	0.000218071	0.000390469	338.047
3	0.000390469	0.000626363	370.273
4	0.000626363	0.000949141	377.842
5	0.000949141	0.0013908	398.7
6	0.0013908	0.00199513	408.208
7	0.00199513	0.00282205	420.235
8	0.00282205	0.00395353	425.208
9	0.00395353	0.00550176	427.701
10	0.00550176	0.00762021	430.53
11	0.00762021	0.0105189	424.823
12	0.0105189	0.0144853	375.524
13	0.0144853	0.0199125	271.334
14	0.0199125	0.0273387	271.334
15	0.0273387	inf	271.334
