time_index	left_time_boundary	right_time_boundary	lambda
0	0	4.24375e-05	412.059
1	4.24375e-05	9.20787e-05	412.059
2	9.20787e-05	0.000150147	281.66
3	0.000150147	0.000218071	279.966
4	0.000218071	0.000297526	330.078
5	0.000297526	0.000390469	359.46
6	0.000390469	0.000499188	366.695
7	0.000499188	0.000626363	364.375
8	0.000626363	0.000775126	366.748
9	0.000775126	0.000949141	377.081
10	0.000949141	0.00115269	389.778
11	0.00115269	0.0013908	399.337
12	0.0013908	0.00166933	405.959
13	0.00166933	0.00199513	412.384
14	0.00199513	0.00237625	419.144
15	0.00237625	0.00282205	425.047
16	0.00282205	0.00334353	429.032
17	0.00334353	0.00395353	431.328
18	0.00395353	0.00466708	432.23
19	0.00466708	0.00550176	431.834
20	0.00550176	0.00647812	430.707
21	0.00647812	0.00762021	429.033
22	0.00762021	0.00895618	425.163
23	0.00895618	0.0105189	414.67
24	0.0105189	0.012347	395.106
25	0.012347	0.0144853	372.335
26	0.0144853	0.0169866	357.527
27	0.0169866	0.0199125	353.509
28	0.0199125	0.0233351	353.509
29	0.0233351	0.0273387	379.883
30	0.0273387	0.0320218	379.883
31	0.0320218	inf	379.883
