time_index	left_time_boundary	right_time_boundary	lambda
0	0	2.66832e-06	55.0116
1	2.66832e-06	6.13145e-06	55.0116
2	6.13145e-06	1.06261e-05	563.708
3	1.06261e-05	1.64596e-05	476.462
4	1.64596e-05	2.40307e-05	422.806
5	2.40307e-05	3.38569e-05	363.146
6	3.38569e-05	4.66101e-05	341.796
7	4.66101e-05	6.31619e-05	343.711
8	6.31619e-05	8.46441e-05	351.739
9	8.46441e-05	0.000112525	351.752
10	0.000112525	0.000148711	349.361
11	0.000148711	0.000195675	350.52
12	0.000195675	0.000256628	351.486
13	0.000256628	0.000335737	350.997
14	0.000335737	0.00043841	351.379
15	0.00043841	0.000571665	355.861
16	0.000571665	0.000744613	365.003
17	0.000744613	0.000969076	376.191
18	0.000969076	0.0012604	387.157
19	0.0012604	0.0016385	398.938
20	0.0016385	0.00212922	411.611
21	0.00212922	0.00276611	420.693
22	0.00276611	0.0035927	425.252
23	0.0035927	0.00466551	429.741
24	0.00466551	0.00605788	437.097
25	0.00605788	0.00786498	437.508
26	0.00786498	0.0102104	415.862
27	0.0102104	0.0132543	331.525
28	0.0132543	0.017205	331.525
29	0.017205	0.0223325	192.351
30	0.0223325	0.0289872	192.351
31	0.0289872	inf	192.351
