time_index	left_time_boundary	right_time_boundary	lambda
0	0	9.90197e-06	247.281
1	9.90197e-06	2.21497e-05	247.281
2	2.21497e-05	3.7299e-05	497.136
3	3.7299e-05	5.60372e-05	360.989
4	5.60372e-05	7.92144e-05	361.845
5	7.92144e-05	0.000107882	356.653
6	0.000107882	0.000143342	341.026
7	0.000143342	0.000187202	340.693
8	0.000187202	0.000241452	347.927
9	0.000241452	0.000308555	349.065
10	0.000308555	0.000391554	346.619
11	0.000391554	0.000494215	348.407
12	0.000494215	0.000621198	355.537
13	0.000621198	0.000778262	365.057
14	0.000778262	0.000972536	375.088
15	0.000972536	0.00121283	385.115
16	0.00121283	0.00151006	395.755
17	0.00151006	0.00187769	407.842
18	0.00187769	0.00233243	419.197
19	0.00233243	0.00289488	425.928
20	0.00289488	0.00359059	427.362
21	0.00359059	0.0044511	426.685
22	0.0044511	0.00551548	427.59
23	0.00551548	0.00683201	429.315
24	0.00683201	0.00846042	426.158
25	0.00846042	0.0104746	409.038
26	0.0104746	0.012966	367.846
27	0.012966	0.0160475	285.94
28	0.0160475	0.0198591	285.94
29	0.0198591	0.0245737	171.325
30	0.0245737	0.0304051	171.325
31	0.0304051	inf	171.325
