time_index	left_time_boundary	right_time_boundary	lambda
0	0	5.10308e-05	0.332642
1	5.10308e-05	0.000110724	0.332642
2	0.000110724	0.00018055	0.332642
3	0.00018055	0.00026223	0.332642
4	0.00026223	0.000357774	0.332642
5	0.000357774	0.000469537	0.332642
6	0.000469537	0.000600272	0.332642
7	0.000600272	0.000753198	0.332642
8	0.000753198	0.000932085	0.332642
9	0.000932085	0.00114134	0.332642
10	0.00114134	0.00138611	1.00277
11	0.00138611	0.00167243	10.6727
12	0.00167243	0.00200736	66.2765
13	0.00200736	0.00239914	261.092
14	0.00239914	0.00285742	783.923
15	0.00285742	0.0033935	1761.96
16	0.0033935	0.00402058	2361.31
17	0.00402058	0.0047541	2703.32
18	0.0047541	0.00561214	2882.65
19	0.00561214	0.00661583	3083.59
20	0.00661583	0.0077899	3351.96
21	0.0077899	0.00916327	3550.76
22	0.00916327	0.0107698	3204.91
23	0.0107698	0.012649	2449.95
24	0.012649	0.0148471	1763.62
25	0.0148471	0.0174185	1931.9
26	0.0174185	0.0204263	152430
27	0.0204263	0.0239447	1977.29
28	0.0239447	0.0280603	1977.29
29	0.0280603	0.0328746	1655.75
30	0.0328746	0.0385061	1655.75
31	0.0385061	inf	1655.75
