0.000740026	-3703451.49	0,0.000110724,0.00026223,0.000469537,0.000753198,0.00114134,0.00167243,0.00239914,0.0033935,0.0047541,0.00661583,0.00916327,0.012649,0.0174185,0.0239447,0.0328746,inf	18.1728,18.1728,41.7419,72.6937,122.446,212.057,394.151,616.254,566.691,497.663,451.975,418.76,394.04,376.891,376.891,376.891
0.000775511	-3686858.39	0,0.000110724,0.00026223,0.000469537,0.000753198,0.00114134,0.00167243,0.00239914,0.0033935,0.0047541,0.00661583,0.00916327,0.012649,0.0174185,0.0239447,0.0328746,inf	1.29465,1.29465,6.95498,20.9009,55.7067,141.603,361.989,823.903,783.86,668.195,580.441,510.672,456.142,418.207,418.207,418.207
0.000816344	-3681155.01	0,0.000110724,0.00026223,0.000469537,0.000753198,0.00114134,0.00167243,0.00239914,0.0033935,0.0047541,0.00661583,0.00916327,0.012649,0.0174185,0.0239447,0.0328746,inf	0.332642,0.332642,1.32267,6.77344,27.9473,99.5655,318.071,962.284,964.532,830.622,712.886,606.515,517.997,457.425,457.425,457.425
0.000855136	-3678622.25	0,0.000110724,0.00026223,0.000469537,0.000753198,0.00114134,0.00167243,0.00239914,0.0033935,0.0047541,0.00661583,0.00916327,0.012649,0.0174185,0.0239447,0.0328746,inf	0.332642,0.332642,0.332642,2.41314,15.0847,73.1815,280.2,1055.54,1111.7,982.01,849.643,707.487,580.222,496.286,496.286,496.286
0.000890199	-3677306.28	0,0.000110724,0.00026223,0.000469537,0.000753198,0.00114134,0.00167243,0.00239914,0.0033935,0.0047541,0.00661583,0.00916327,0.012649,0.0174185,0.0239447,0.0328746,inf	0.332642,0.332642,0.332642,0.931713,8.63623,55.7499,249.83,1120.02,1232.23,1123,993.292,816.044,643.585,536.23,536.23,536.23
0.000921423	-3676542.18	0,0.000110724,0.00026223,0.000469537,0.000753198,0.00114134,0.00167243,0.00239914,0.0033935,0.0047541,0.00661583,0.00916327,0.012649,0.0174185,0.0239447,0.0328746,inf	0.332642,0.332642,0.332642,0.385305,5.18967,43.7088,225.589,1165.72,1332.25,1255.31,1148.36,936.121,708.825,578.421,578.421,578.421
0.000949163	-3676058.78	0,0.000110724,0.00026223,0.000469537,0.000753198,0.00114134,0.00167243,0.00239914,0.0033935,0.0047541,0.00661583,0.00916327,0.012649,0.0174185,0.0239447,0.0328746,inf	0.332642,0.332642,0.332642,0.332642,3.24725,35.0778,206.008,1198.76,1416.49,1380.81,1322.16,1074.32,776.666,623.995,623.995,623.995
0.00097397	-3675733.33	0,0.000110724,0.00026223,0.000469537,0.000753198,0.00114134,0.00167243,0.00239914,0.0033935,0.0047541,0.00661583,0.00916327,0.012649,0.0174185,0.0239447,0.0328746,inf	0.332642,0.332642,0.332642,0.332642,2.10258,28.7012,189.911,1223.29,1488.38,1501.18,1527.33,1242.96,847.911,673.857,673.857,673.857
0.00099623	-3675501.66	0,0.000110724,0.00026223,0.000469537,0.000753198,0.00114134,0.00167243,0.00239914,0.0033935,0.0047541,0.00661583,0.00916327,0.012649,0.0174185,0.0239447,0.0328746,inf	0.332642,0.332642,0.332642,0.332642,1.4012,23.8587,176.467,1241.61,1550.55,1617.88,1789.33,1469.56,922.967,730.263,730.263,730.263
0.00101635	-3675329.69	0,0.000110724,0.00026223,0.000469537,0.000753198,0.00114134,0.00167243,0.00239914,0.0033935,0.0047541,0.00661583,0.00916327,0.012649,0.0174185,0.0239447,0.0328746,inf	0.332642,0.332642,0.332642,0.332642,0.957284,20.1005,165.077,1255.48,1604.91,1732.07,2173.05,1839.29,1001.55,795.193,795.193,795.193
0.00103467	-3675197.70	0,0.000110724,0.00026223,0.000469537,0.000753198,0.00114134,0.00167243,0.00239914,0.0033935,0.0047541,0.00661583,0.00916327,0.012649,0.0174185,0.0239447,0.0328746,inf	0.332642,0.332642,0.332642,0.332642,0.668329,17.1291,155.301,1266.1,1652.91,1844.62,2942.24,2877.52,1083.83,938.799,938.799,938.799
0.00105147	-3675093.50	0,0.000110724,0.00026223,0.000469537,0.000753198,0.00114134,0.00167243,0.00239914,0.0033935,0.0047541,0.00661583,0.00916327,0.012649,0.0174185,0.0239447,0.0328746,inf	0.332642,0.332642,0.332642,0.332642,0.475555,14.7421,146.814,1274.32,1695.6,1955.64,6763.66,16259.5,1248.41,907.687,907.687,907.687
0.00106603	-3675009.17	0,0.000110724,0.00026223,0.000469537,0.000753198,0.00114134,0.00167243,0.00239914,0.0033935,0.0047541,0.00661583,0.00916327,0.012649,0.0174185,0.0239447,0.0328746,inf	0.332642,0.332642,0.332642,0.332642,0.344363,12.806,139.483,1280.16,1733.67,2063.44,262602,16259.5,44.8528,35.6886,35.6886,35.6886
