time_index	left_time_boundary	right_time_boundary	lambda
0	0	5.73811e-08	28.4702
1	5.73811e-08	1.56946e-07	28.4702
2	1.56946e-07	3.29704e-07	28.4702
3	3.29704e-07	6.29466e-07	28.4702
4	6.29466e-07	1.1496e-06	28.4702
5	1.1496e-06	2.05209e-06	28.4702
6	2.05209e-06	3.61806e-06	7159.35
7	3.61806e-06	6.33524e-06	1197.71
8	6.33524e-06	1.10499e-05	26417.2
9	1.10499e-05	1.92306e-05	26438.2
10	1.92306e-05	3.34252e-05	388360
11	3.34252e-05	5.8055e-05	163430
12	5.8055e-05	0.000100791	1693.43
13	0.000100791	0.000174944	28.4702
14	0.000174944	0.000303611	28.4702
15	0.000303611	inf	28.4702
