0.000668409	-289699.51	0,4.02392e-05,8.7309e-05,0.000142369,0.000206775,0.000282115,0.000370243,0.00047333,0.000593918,0.000734974,0.000899975,0.00109299,0.00131876,0.00158286,0.00189179,0.00225316,0.00267587,0.00317034,0.00374874,0.00442533,0.00521676,0.00614255,0.00722549,0.00849225,0.00997405,0.0117074,0.0137349,0.0161067,0.018881,0.0221263,0.0259225,0.0303631,inf	309.379,309.379,305.392,338.228,345.42,345.526,345.792,349.325,357.519,369.061,380.866,391.109,400.112,408.637,417.19,426.38,435.594,442.537,445.45,444.894,442.896,440.038,435.005,426.775,415.526,402.645,391.749,392.166,392.166,438.836,438.836,438.836
0.000742031	-289564.59	0,4.02392e-05,8.7309e-05,0.000142369,0.000206775,0.000282115,0.000370243,0.00047333,0.000593918,0.000734974,0.000899975,0.00109299,0.00131876,0.00158286,0.00189179,0.00225316,0.00267587,0.00317034,0.00374874,0.00442533,0.00521676,0.00614255,0.00722549,0.00849225,0.00997405,0.0117074,0.0137349,0.0161067,0.018881,0.0221263,0.0259225,0.0303631,inf	289.721,289.721,272.497,326.586,334.437,329.871,326.101,328.387,338.895,354.964,371.003,383.928,394.605,404.739,415.683,428.864,443.331,454.939,460.202,459.73,456.854,452.302,443.403,428.258,407.475,384.022,364.535,364.73,364.73,447.428,447.428,447.428
0.000811408	-289469.60	0,4.02392e-05,8.7309e-05,0.000142369,0.000206775,0.000282115,0.000370243,0.00047333,0.000593918,0.000734974,0.000899975,0.00109299,0.00131876,0.00158286,0.00189179,0.00225316,0.00267587,0.00317034,0.00374874,0.00442533,0.00521676,0.00614255,0.00722549,0.00849225,0.00997405,0.0117074,0.0137349,0.0161067,0.018881,0.0221263,0.0259225,0.0303631,inf	284.541,284.541,256.819,329.658,337.198,327.704,319.829,320.502,332.281,351.09,369.149,382.474,392.604,402.199,413.512,428.728,446.668,461.741,469.02,469.02,465.968,460.492,448.596,427.634,398.8,366.7,340.438,339.92,339.92,449.061,449.061,449.061
0.000876548	-289394.56	0,4.02392e-05,8.7309e-05,0.000142369,0.000206775,0.000282115,0.000370243,0.00047333,0.000593918,0.000734974,0.000899975,0.00109299,0.00131876,0.00158286,0.00189179,0.00225316,0.00267587,0.00317034,0.00374874,0.00442533,0.00521676,0.00614255,0.00722549,0.00849225,0.00997405,0.0117074,0.0137349,0.0161067,0.018881,0.0221263,0.0259225,0.0303631,inf	281.454,281.454,246.207,336.139,343.207,329.289,317.918,317.334,330.236,351.114,370.246,383.022,391.717,399.934,410.782,427.085,447.467,465.199,474.192,474.843,472.019,466.103,451.845,425.958,390.309,351.114,319.458,317.883,317.883,445.418,445.418,445.418
0.000937735	-289333.30	0,4.02392e-05,8.7309e-05,0.000142369,0.000206775,0.000282115,0.000370243,0.00047333,0.000593918,0.000734974,0.000899975,0.00109299,0.00131876,0.00158286,0.00189179,0.00225316,0.00267587,0.00317034,0.00374874,0.00442533,0.00521676,0.00614255,0.00722549,0.00849225,0.00997405,0.0117074,0.0137349,0.0161067,0.018881,0.0221263,0.0259225,0.0303631,inf	278.311,278.311,237.539,342.897,349.428,331.695,317.514,316.135,330.223,352.855,372.581,384.365,391.256,397.767,407.796,424.679,446.851,466.672,477.121,478.494,476.127,470.085,453.944,423.863,382.422,337.358,301.35,298.494,298.494,438.03,438.03,438.03
0.000995295	-289282.38	0,4.02392e-05,8.7309e-05,0.000142369,0.000206775,0.000282115,0.000370243,0.00047333,0.000593918,0.000734974,0.000899975,0.00109299,0.00131876,0.00158286,0.00189179,0.00225316,0.00267587,0.00317034,0.00374874,0.00442533,0.00521676,0.00614255,0.00722549,0.00849225,0.00997405,0.0117074,0.0137349,0.0161067,0.018881,0.0221263,0.0259225,0.0303631,inf	275.152,275.152,230.056,349.198,355.063,334.047,317.651,315.881,331.243,355.442,375.483,386.054,390.996,395.697,404.767,421.945,445.472,466.967,478.66,480.772,478.991,473.033,455.384,421.714,375.322,325.353,285.769,281.497,281.497,428.15,428.15,428.15
0.00104953	-289239.53	0,4.02392e-05,8.7309e-05,0.000142369,0.000206775,0.000282115,0.000370243,0.00047333,0.000593918,0.000734974,0.000899975,0.00109299,0.00131876,0.00158286,0.00189179,0.00225316,0.00267587,0.00317034,0.00374874,0.00442533,0.00521676,0.00614255,0.00722549,0.00849225,0.00997405,0.0117074,0.0137349,0.0161067,0.018881,0.0221263,0.0259225,0.0303631,inf	272.293,272.293,223.556,354.971,359.971,336.096,317.964,316.121,332.826,358.46,378.636,387.882,390.841,393.733,401.807,419.115,443.698,466.56,479.327,482.168,481.048,475.318,456.459,419.707,369.059,314.94,272.359,266.595,266.595,416.732,416.732,416.732
0.0011007	-289203.12	0,4.02392e-05,8.7309e-05,0.000142369,0.000206775,0.000282115,0.000370243,0.00047333,0.000593918,0.000734974,0.000899975,0.00109299,0.00131876,0.00158286,0.00189179,0.00225316,0.00267587,0.00317034,0.00374874,0.00442533,0.00521676,0.00614255,0.00722549,0.00849225,0.00997405,0.0117074,0.0137349,0.0161067,0.018881,0.0221263,0.0259225,0.0303631,inf	269.913,269.913,217.956,360.298,364.196,337.793,318.303,316.634,334.725,361.686,381.874,389.744,390.738,391.874,398.968,416.31,441.738,465.736,479.442,482.991,482.572,477.171,457.347,417.941,363.612,305.934,260.787,253.496,253.496,404.46,404.46,404.46
0.00114904	-289171.93	0,4.02392e-05,8.7309e-05,0.000142369,0.000206775,0.000282115,0.000370243,0.00047333,0.000593918,0.000734974,0.000899975,0.00109299,0.00131876,0.00158286,0.00189179,0.00225316,0.00267587,0.00317034,0.00374874,0.00442533,0.00521676,0.00614255,0.00722549,0.00849225,0.00997405,0.0117074,0.0137349,0.0161067,0.018881,0.0221263,0.0259225,0.0303631,inf	268.056,268.056,213.179,365.276,367.826,339.153,318.607,317.298,336.795,364.992,385.101,391.578,390.657,390.113,396.27,413.59,439.708,464.668,479.203,483.436,483.734,478.739,458.152,416.455,358.923,298.155,250.764,241.937,241.937,391.801,391.801,391.801
0.00119477	-289145.02	0,4.02392e-05,8.7309e-05,0.000142369,0.000206775,0.000282115,0.000370243,0.00047333,0.000593918,0.000734974,0.000899975,0.00109299,0.00131876,0.00158286,0.00189179,0.00225316,0.00267587,0.00317034,0.00374874,0.00442533,0.00521676,0.00614255,0.00722549,0.00849225,0.00997405,0.0117074,0.0137349,0.0161067,0.018881,0.0221263,0.0259225,0.0303631,inf	266.686,266.686,209.145,369.991,370.95,340.216,318.852,318.043,338.95,368.303,388.265,393.35,390.579,388.441,393.714,410.981,437.678,463.463,478.739,483.627,484.648,480.112,458.933,415.258,354.922,291.435,242.043,231.688,231.688,379.058,379.058,379.058
0.00123807	-289121.67	0,4.02392e-05,8.7309e-05,0.000142369,0.000206775,0.000282115,0.000370243,0.00047333,0.000593918,0.000734974,0.000899975,0.00109299,0.00131876,0.00158286,0.00189179,0.00225316,0.00267587,0.00317034,0.00374874,0.00442533,0.00521676,0.00614255,0.00722549,0.00849225,0.00997405,0.0117074,0.0137349,0.0161067,0.018881,0.0221263,0.0259225,0.0303631,inf	265.759,265.759,205.776,374.502,373.645,341.02,319.03,318.828,341.137,371.571,391.335,395.044,390.49,386.848,391.296,408.496,435.684,462.188,478.13,483.647,485.386,481.348,459.72,414.337,351.537,285.627,234.418,222.554,222.554,366.415,366.415,366.415
0.00127911	-289101.28	0,4.02392e-05,8.7309e-05,0.000142369,0.000206775,0.000282115,0.000370243,0.00047333,0.000593918,0.000734974,0.000899975,0.00109299,0.00131876,0.00158286,0.00189179,0.00225316,0.00267587,0.00317034,0.00374874,0.00442533,0.00521676,0.00614255,0.00722549,0.00849225,0.00997405,0.0117074,0.0137349,0.0161067,0.018881,0.0221263,0.0259225,0.0303631,inf	265.185,265.185,202.989,378.847,375.977,341.602,319.144,319.627,343.32,374.771,394.295,396.65,390.387,385.328,389.008,406.134,433.749,460.885,477.432,483.548,485.995,482.484,460.531,413.674,348.698,280.606,227.722,214.372,214.372,353.98,353.98,353.98
0.00131803	-289083.41	0,4.02392e-05,8.7309e-05,0.000142369,0.000206775,0.000282115,0.000370243,0.00047333,0.000593918,0.000734974,0.000899975,0.00109299,0.00131876,0.00158286,0.00189179,0.00225316,0.00267587,0.00317034,0.00374874,0.00442533,0.00521676,0.00614255,0.00722549,0.00849225,0.00997405,0.0117074,0.0137349,0.0161067,0.018881,0.0221263,0.0259225,0.0303631,inf	264.904,264.904,200.713,383.058,377.995,341.996,319.197,320.425,345.479,377.886,397.139,398.165,390.265,383.872,386.841,403.893,431.883,459.58,476.679,483.367,486.507,483.543,461.371,413.246,346.342,276.265,221.813,207.006,207.006,341.803,341.803,341.803
0.00135498	-289067.65	0,4.02392e-05,8.7309e-05,0.000142369,0.000206775,0.000282115,0.000370243,0.00047333,0.000593918,0.000734974,0.000899975,0.00109299,0.00131876,0.00158286,0.00189179,0.00225316,0.00267587,0.00317034,0.00374874,0.00442533,0.00521676,0.00614255,0.00722549,0.00849225,0.00997405,0.0117074,0.0137349,0.0161067,0.018881,0.0221263,0.0259225,0.0303631,inf	264.853,264.853,198.879,387.148,379.744,342.23,319.195,321.213,347.601,380.909,399.863,399.591,390.123,382.475,384.785,401.767,430.09,458.291,475.896,483.128,486.944,484.541,462.241,413.027,344.411,272.511,216.579,200.344,200.344,329.9,329.9,329.9
0.00139009	-289053.72	0,4.02392e-05,8.7309e-05,0.000142369,0.000206775,0.000282115,0.000370243,0.00047333,0.000593918,0.000734974,0.000899975,0.00109299,0.00131876,0.00158286,0.00189179,0.00225316,0.00267587,0.00317034,0.00374874,0.00442533,0.00521676,0.00614255,0.00722549,0.00849225,0.00997405,0.0117074,0.0137349,0.0161067,0.018881,0.0221263,0.0259225,0.0303631,inf	264.974,264.974,197.431,391.132,381.258,342.327,319.146,321.985,349.679,383.836,402.471,400.931,389.961,381.133,382.833,399.75,428.374,457.029,475.099,482.849,487.321,485.487,463.138,412.997,342.856,269.271,211.923,194.292,194.292,318.263,318.263,318.263
0.00142346	-289041.35	0,4.02392e-05,8.7309e-05,0.000142369,0.000206775,0.000282115,0.000370243,0.00047333,0.000593918,0.000734974,0.000899975,0.00109299,0.00131876,0.00158286,0.00189179,0.00225316,0.00267587,0.00317034,0.00374874,0.00442533,0.00521676,0.00614255,0.00722549,0.00849225,0.00997405,0.0117074,0.0137349,0.0161067,0.018881,0.0221263,0.0259225,0.0303631,inf	265.219,265.219,196.316,395.016,382.567,342.306,319.055,322.737,351.706,386.667,404.965,402.189,389.782,379.842,380.977,397.836,426.732,455.799,474.3,482.542,487.649,486.388,464.058,413.133,341.635,266.481,207.771,188.772,188.772,306.868,306.868,306.868
0.00145521	-289030.32	0,4.02392e-05,8.7309e-05,0.000142369,0.000206775,0.000282115,0.000370243,0.00047333,0.000593918,0.000734974,0.000899975,0.00109299,0.00131876,0.00158286,0.00189179,0.00225316,0.00267587,0.00317034,0.00374874,0.00442533,0.00521676,0.00614255,0.00722549,0.00849225,0.00997405,0.0117074,0.0137349,0.0161067,0.018881,0.0221263,0.0259225,0.0303631,inf	265.561,265.561,195.489,398.802,383.695,342.185,318.926,323.466,353.681,389.402,407.352,403.37,389.586,378.598,379.21,396.017,425.164,454.607,473.505,482.214,487.935,487.247,464.997,413.418,340.711,264.086,204.057,183.72,183.72,295.679,295.679,295.679
0.00148542	-289020.47	0,4.02392e-05,8.7309e-05,0.000142369,0.000206775,0.000282115,0.000370243,0.00047333,0.000593918,0.000734974,0.000899975,0.00109299,0.00131876,0.00158286,0.00189179,0.00225316,0.00267587,0.00317034,0.00374874,0.00442533,0.00521676,0.00614255,0.00722549,0.00849225,0.00997405,0.0117074,0.0137349,0.0161067,0.018881,0.0221263,0.0259225,0.0303631,inf	265.973,265.973,194.913,402.496,384.662,341.979,318.765,324.173,355.602,392.045,409.636,404.479,389.375,377.398,377.525,394.289,423.666,453.455,472.721,481.872,488.184,488.067,465.952,413.834,340.053,262.045,200.731,179.084,179.084,284.656,284.656,284.656
0.00151419	-289011.63	0,4.02392e-05,8.7309e-05,0.000142369,0.000206775,0.000282115,0.000370243,0.00047333,0.000593918,0.000734974,0.000899975,0.00109299,0.00131876,0.00158286,0.00189179,0.00225316,0.00267587,0.00317034,0.00374874,0.00442533,0.00521676,0.00614255,0.00722549,0.00849225,0.00997405,0.0117074,0.0137349,0.0161067,0.018881,0.0221263,0.0259225,0.0303631,inf	266.422,266.422,194.554,406.1,385.486,341.698,318.575,324.855,357.47,394.599,411.822,405.521,389.152,376.24,375.918,392.645,422.236,452.343,471.95,481.52,488.401,488.852,466.918,414.369,339.636,260.321,197.749,174.817,174.817,273.75,273.75,273.75
0.00154161	-289003.70	0,4.02392e-05,8.7309e-05,0.000142369,0.000206775,0.000282115,0.000370243,0.00047333,0.000593918,0.000734974,0.000899975,0.00109299,0.00131876,0.00158286,0.00189179,0.00225316,0.00267587,0.00317034,0.00374874,0.00442533,0.00521676,0.00614255,0.00722549,0.00849225,0.00997405,0.0117074,0.0137349,0.0161067,0.018881,0.0221263,0.0259225,0.0303631,inf	266.905,266.905,194.381,409.614,386.181,341.353,318.359,325.514,359.284,397.067,413.916,406.501,388.917,375.121,374.383,391.08,420.872,451.271,471.195,481.161,488.59,489.604,467.893,415.009,339.437,258.885,195.077,170.885,170.885,262.91,262.91,262.91
