AIC = 2430415.4941231869161

y0 0.98265066636417619517
y0_prime 0
y1 1.0764536770544754773
y1_prime 0
y2 0.88183811114627996819
y2_prime 0
y3 1.6746184940330353097
y3_prime 0
rho 0.00029168977735619615582
theta 0.0051172470786731236864
