LogLikelihood = -852746.58865956484806

y0 0.97718310896864246651
y0_prime 0
y1 1.0518617250469946001
y1_prime 0
y2 0.86837575854276460863
y2_prime 0
y3 1.918207593548212575
y3_prime 0
rho 0.00073122070864467222148
rho.alpha 90.769707951935558299
r_ii 0.99999914590370564405
theta 0.0025260752330362856027
