time_index	left_time_boundary	right_time_boundary	lambda
0	0	3.75021e-06	4711.9
1	3.75021e-06	1.02574e-05	4711.9
2	1.02574e-05	2.15482e-05	877.506
3	2.15482e-05	4.11394e-05	370.524
4	4.11394e-05	7.5133e-05	201.885
5	7.5133e-05	0.000134117	432.747
6	0.000134117	0.000236462	331.35
7	0.000236462	0.000414046	303.886
8	0.000414046	0.00072218	304.044
9	0.00072218	0.00125684	323.262
10	0.00125684	0.00218454	370.106
11	0.00218454	0.00379424	365.834
12	0.00379424	0.00658731	313.615
13	0.00658731	0.0114337	54659
14	0.0114337	0.0198428	54659
15	0.0198428	inf	54659
