0.000624728	-12604531.52	0,3.75021e-06,1.02574e-05,2.15482e-05,4.11394e-05,7.5133e-05,0.000134117,0.000236462,0.000414046,0.00072218,0.00125684,0.00218454,0.00379424,0.00658731,0.0114337,0.0198428,inf	2875.5,2875.5,932.396,486.776,372.622,368.158,347.103,332.131,331.877,349.098,387.846,433.563,454.325,547.388,547.388,547.388
0.000675309	-12601243.24	0,3.75021e-06,1.02574e-05,2.15482e-05,4.11394e-05,7.5133e-05,0.000134117,0.000236462,0.000414046,0.00072218,0.00125684,0.00218454,0.00379424,0.00658731,0.0114337,0.0198428,inf	4341.43,4341.43,1057.41,480.46,351.137,370.137,338.366,313.095,307.797,326.73,375.162,431.221,460.835,676.705,676.705,676.705
0.000720865	-12600187.19	0,3.75021e-06,1.02574e-05,2.15482e-05,4.11394e-05,7.5133e-05,0.000134117,0.000236462,0.000414046,0.00072218,0.00125684,0.00218454,0.00379424,0.00658731,0.0114337,0.0198428,inf	4778.52,4778.52,1041.66,455.281,332.685,379.646,341.748,310.785,301.859,319.89,371.356,426.64,459.541,845.603,845.603,845.603
0.000761311	-12599817.83	0,3.75021e-06,1.02574e-05,2.15482e-05,4.11394e-05,7.5133e-05,0.000134117,0.000236462,0.000414046,0.00072218,0.00125684,0.00218454,0.00379424,0.00658731,0.0114337,0.0198428,inf	4853.48,4853.48,996.598,429.448,314.938,387.29,345.247,311.901,301.204,318.124,370.707,420.586,453.525,1118.14,1118.14,1118.14
0.000796968	-12599945.80	0,3.75021e-06,1.02574e-05,2.15482e-05,4.11394e-05,7.5133e-05,0.000134117,0.000236462,0.000414046,0.00072218,0.00125684,0.00218454,0.00379424,0.00658731,0.0114337,0.0198428,inf	4833.73,4833.73,954.437,408.4,298.989,392.692,347.069,313.341,302.236,318.304,371.446,413.487,444.389,1761.76,1761.76,1761.76
0.000828265	-12600597.20	0,3.75021e-06,1.02574e-05,2.15482e-05,4.11394e-05,7.5133e-05,0.000134117,0.000236462,0.000414046,0.00072218,0.00125684,0.00218454,0.00379424,0.00658731,0.0114337,0.0198428,inf	4795.1,4795.1,921.132,392.718,285.384,396.826,347.553,314.527,303.858,319.348,372.829,405.174,432.803,4528.94,4528.94,4528.94
0.000828265	-12601572.97	0,3.75021e-06,1.02574e-05,2.15482e-05,4.11394e-05,7.5133e-05,0.000134117,0.000236462,0.000414046,0.00072218,0.00125684,0.00218454,0.00379424,0.00658731,0.0114337,0.0198428,inf	4711.9,4711.9,888.74,378.617,271.974,397.298,344.526,312.992,303.356,318.12,369.845,390.651,417.06,54634.2,54634.2,54634.2
0.000828265	-12602419.67	0,3.75021e-06,1.02574e-05,2.15482e-05,4.11394e-05,7.5133e-05,0.000134117,0.000236462,0.000414046,0.00072218,0.00125684,0.00218454,0.00379424,0.00658731,0.0114337,0.0198428,inf	4711.9,4711.9,879.871,373.17,262.368,400.14,342.781,312.359,303.995,318.981,369.845,379.618,402.908,54638.5,54638.5,54638.5
0.000828265	-12602228.57	0,3.75021e-06,1.02574e-05,2.15482e-05,4.11394e-05,7.5133e-05,0.000134117,0.000236462,0.000414046,0.00072218,0.00125684,0.00218454,0.00379424,0.00658731,0.0114337,0.0198428,inf	4711.9,4711.9,877.495,370.889,254.285,403.306,340.966,311.385,304.374,319.732,369.845,372.716,390.78,54641.9,54641.9,54641.9
0.000828265	-12602095.74	0,3.75021e-06,1.02574e-05,2.15482e-05,4.11394e-05,7.5133e-05,0.000134117,0.000236462,0.000414046,0.00072218,0.00125684,0.00218454,0.00379424,0.00658731,0.0114337,0.0198428,inf	4711.9,4711.9,877.498,370.524,247.192,406.733,339.318,310.314,304.585,319.732,369.845,368.651,380.15,54644.6,54644.6,54644.6
0.000828265	-12601993.81	0,3.75021e-06,1.02574e-05,2.15482e-05,4.11394e-05,7.5133e-05,0.000134117,0.000236462,0.000414046,0.00072218,0.00125684,0.00218454,0.00379424,0.00658731,0.0114337,0.0198428,inf	4711.9,4711.9,877.498,370.524,240.749,410.349,337.906,309.358,304.839,319.732,370.106,366.561,370.655,54646.9,54646.9,54646.9
0.000828265	-12601905.83	0,3.75021e-06,1.02574e-05,2.15482e-05,4.11394e-05,7.5133e-05,0.000134117,0.000236462,0.000414046,0.00072218,0.00125684,0.00218454,0.00379424,0.00658731,0.0114337,0.0198428,inf	4711.9,4711.9,877.5,370.524,234.852,413.748,336.645,308.484,305.062,320.135,370.106,365.834,362.042,54648.8,54648.8,54648.8
0.000828265	-12601827.24	0,3.75021e-06,1.02574e-05,2.15482e-05,4.11394e-05,7.5133e-05,0.000134117,0.000236462,0.000414046,0.00072218,0.00125684,0.00218454,0.00379424,0.00658731,0.0114337,0.0198428,inf	4711.9,4711.9,877.501,370.524,229.453,416.859,335.543,307.657,305.175,320.556,370.106,365.834,354.153,54650.4,54650.4,54650.4
0.000828265	-12601755.69	0,3.75021e-06,1.02574e-05,2.15482e-05,4.11394e-05,7.5133e-05,0.000134117,0.000236462,0.000414046,0.00072218,0.00125684,0.00218454,0.00379424,0.00658731,0.0114337,0.0198428,inf	4711.9,4711.9,877.502,370.524,224.51,419.708,334.607,306.903,305.189,320.977,370.106,365.834,346.898,54652,54652,54652
0.000828265	-12601693.19	0,3.75021e-06,1.02574e-05,2.15482e-05,4.11394e-05,7.5133e-05,0.000134117,0.000236462,0.000414046,0.00072218,0.00125684,0.00218454,0.00379424,0.00658731,0.0114337,0.0198428,inf	4711.9,4711.9,877.503,370.524,219.973,422.323,333.818,306.224,305.122,321.392,370.106,365.834,340.213,54653.4,54653.4,54653.4
0.000828265	-12601638.46	0,3.75021e-06,1.02574e-05,2.15482e-05,4.11394e-05,7.5133e-05,0.000134117,0.000236462,0.000414046,0.00072218,0.00125684,0.00218454,0.00379424,0.00658731,0.0114337,0.0198428,inf	4711.9,4711.9,877.504,370.524,215.79,424.733,333.154,305.62,304.991,321.795,370.106,365.834,334.044,54654.7,54654.7,54654.7
0.000828265	-12601590.44	0,3.75021e-06,1.02574e-05,2.15482e-05,4.11394e-05,7.5133e-05,0.000134117,0.000236462,0.000414046,0.00072218,0.00125684,0.00218454,0.00379424,0.00658731,0.0114337,0.0198428,inf	4711.9,4711.9,877.506,370.524,211.922,426.963,332.592,305.087,304.807,322.185,370.106,365.834,328.34,54655.9,54655.9,54655.9
0.000828265	-12601548.21	0,3.75021e-06,1.02574e-05,2.15482e-05,4.11394e-05,7.5133e-05,0.000134117,0.000236462,0.000414046,0.00072218,0.00125684,0.00218454,0.00379424,0.00658731,0.0114337,0.0198428,inf	4711.9,4711.9,877.506,370.524,208.334,429.031,332.116,304.624,304.583,322.56,370.106,365.834,323.059,54657,54657,54657
0.000828265	-12601511.00	0,3.75021e-06,1.02574e-05,2.15482e-05,4.11394e-05,7.5133e-05,0.000134117,0.000236462,0.000414046,0.00072218,0.00125684,0.00218454,0.00379424,0.00658731,0.0114337,0.0198428,inf	4711.9,4711.9,877.506,370.524,204.996,430.954,331.706,304.225,304.327,322.919,370.106,365.834,318.162,54658,54658,54658
0.000828265	-12601478.15	0,3.75021e-06,1.02574e-05,2.15482e-05,4.11394e-05,7.5133e-05,0.000134117,0.000236462,0.000414046,0.00072218,0.00125684,0.00218454,0.00379424,0.00658731,0.0114337,0.0198428,inf	4711.9,4711.9,877.506,370.524,201.885,432.747,331.35,303.886,304.044,323.262,370.106,365.834,313.615,54659,54659,54659
