time_index	left_time_boundary	right_time_boundary	lambda
0	0	9.16331e-05	281.699
1	9.16331e-05	0.000217016	281.699
2	0.000217016	0.00038858	371.353
3	0.00038858	0.000623332	403.625
4	0.000623332	0.000944548	440.723
5	0.000944548	0.00138407	403.317
6	0.00138407	0.00198548	381.198
7	0.00198548	0.00280839	374.548
8	0.00280839	0.0039344	430.778
9	0.0039344	0.00547513	491.099
10	0.00547513	0.00758334	465.605
11	0.00758334	0.010468	401.85
12	0.010468	0.0144152	293.033
13	0.0144152	0.0198162	265.857
14	0.0198162	0.0272064	265.857
15	0.0272064	inf	265.857
