0.000717621	-8597635.63	0,2.66471e-06,6.12314e-06,1.06117e-05,1.64373e-05,2.39981e-05,3.3811e-05,4.65469e-05,6.30763e-05,8.45292e-05,0.000112372,0.000148509,0.000195409,0.00025628,0.000335281,0.000437815,0.00057089,0.000743603,0.000967762,0.00125869,0.00163627,0.00212633,0.00276235,0.00358783,0.00465919,0.00604966,0.00785432,0.0101965,0.0132364,0.0171817,0.0223022,0.0289479,inf	130.307,130.307,217.49,265.571,312.209,347.518,361.23,361.442,358.082,354.948,352.615,349.093,344.865,343.405,346.721,353.514,362.546,373.944,387.372,401.406,414.679,425.476,431.86,432.696,429.606,424.816,415.547,395.293,395.293,405.155,405.155,405.155
0.000802927	-8593555.13	0,2.66471e-06,6.12314e-06,1.06117e-05,1.64373e-05,2.39981e-05,3.3811e-05,4.65469e-05,6.30763e-05,8.45292e-05,0.000112372,0.000148509,0.000195409,0.00025628,0.000335281,0.000437815,0.00057089,0.000743603,0.000967762,0.00125869,0.00163627,0.00212633,0.00276235,0.00358783,0.00465919,0.00604966,0.00785432,0.0101965,0.0132364,0.0171817,0.0223022,0.0289479,inf	55.2487,55.2487,147.948,210.45,282.803,343.694,366.741,365.309,358.252,352.234,347.461,339.752,330.315,325.698,329.06,337.677,349.354,364.403,382.375,401.411,420.122,436.521,447.606,450.79,447.71,441.25,425.13,387.997,387.997,407.555,407.555,407.555
0.000882376	-8590688.66	0,2.66471e-06,6.12314e-06,1.06117e-05,1.64373e-05,2.39981e-05,3.3811e-05,4.65469e-05,6.30763e-05,8.45292e-05,0.000112372,0.000148509,0.000195409,0.00025628,0.000335281,0.000437815,0.00057089,0.000743603,0.000967762,0.00125869,0.00163627,0.00212633,0.00276235,0.00358783,0.00465919,0.00604966,0.00785432,0.0101965,0.0132364,0.0171817,0.0223022,0.0289479,inf	26.6052,26.6052,110.297,175.359,263.747,345.548,376.207,373.285,363.924,356.854,351.196,340.46,326.839,319.771,323.027,332.386,344.879,361.015,380.269,400.713,421.36,440.489,454.684,460.325,458.594,452.126,430.789,379.708,379.708,407.838,407.838,407.838
0.000956636	-8588476.19	0,2.66471e-06,6.12314e-06,1.06117e-05,1.64373e-05,2.39981e-05,3.3811e-05,4.65469e-05,6.30763e-05,8.45292e-05,0.000112372,0.000148509,0.000195409,0.00025628,0.000335281,0.000437815,0.00057089,0.000743603,0.000967762,0.00125869,0.00163627,0.00212633,0.00276235,0.00358783,0.00465919,0.00604966,0.00785432,0.0101965,0.0132364,0.0171817,0.0223022,0.0289479,inf	14.1541,14.1541,87.7604,149.989,247.908,346.253,382.511,378.097,367.569,360.963,355.794,343.227,326.605,318.059,321.604,331.53,344.256,360.487,379.646,399.918,420.842,441.116,457.253,465.041,465.181,459.579,434.162,371.526,371.526,406.934,406.934,406.934
0.00102632	-8586694.01	0,2.66471e-06,6.12314e-06,1.06117e-05,1.64373e-05,2.39981e-05,3.3811e-05,4.65469e-05,6.30763e-05,8.45292e-05,0.000112372,0.000148509,0.000195409,0.00025628,0.000335281,0.000437815,0.00057089,0.000743603,0.000967762,0.00125869,0.00163627,0.00212633,0.00276235,0.00358783,0.00465919,0.00604966,0.00785432,0.0101965,0.0132364,0.0171817,0.0223022,0.0289479,inf	8.27567,8.27567,74.1487,131.382,234.876,346.213,385.916,379.628,368.523,363.286,359.472,345.922,327.232,318.003,322.219,332.744,345.508,361.413,379.854,399.232,419.624,440.157,457.433,466.988,469.149,464.869,436.187,363.904,363.904,405.424,405.424,405.424
0.00109192	-8585223.77	0,2.66471e-06,6.12314e-06,1.06117e-05,1.64373e-05,2.39981e-05,3.3811e-05,4.65469e-05,6.30763e-05,8.45292e-05,0.000112372,0.000148509,0.000195409,0.00025628,0.000335281,0.000437815,0.00057089,0.000743603,0.000967762,0.00125869,0.00163627,0.00212633,0.00276235,0.00358783,0.00465919,0.00604966,0.00785432,0.0101965,0.0132364,0.0171817,0.0223022,0.0289479,inf	5.27243,5.27243,66.132,117.821,224.78,346.57,387.776,379.063,367.575,364.135,362.105,348.082,327.972,318.626,323.786,334.962,347.702,363.092,380.53,398.693,418.166,438.46,456.335,467.309,471.478,468.748,437.409,356.993,356.993,403.655,403.655,403.655
0.00115384	-8583991.62	0,2.66471e-06,6.12314e-06,1.06117e-05,1.64373e-05,2.39981e-05,3.3811e-05,4.65469e-05,6.30763e-05,8.45292e-05,0.000112372,0.000148509,0.000195409,0.00025628,0.000335281,0.000437815,0.00057089,0.000743603,0.000967762,0.00125869,0.00163627,0.00212633,0.00276235,0.00358783,0.00465919,0.00604966,0.00785432,0.0101965,0.0132364,0.0171817,0.0223022,0.0289479,inf	3.61159,3.61159,61.7601,107.928,217.456,348.035,389.119,377.435,365.556,364.062,363.959,349.717,328.616,319.529,325.798,337.657,350.349,365.143,381.458,398.285,416.67,436.446,454.558,466.664,472.755,471.678,438.144,350.803,350.803,401.83,401.83,401.83
0.00121242	-8582946.90	0,2.66471e-06,6.12314e-06,1.06117e-05,1.64373e-05,2.39981e-05,3.3811e-05,4.65469e-05,6.30763e-05,8.45292e-05,0.000112372,0.000148509,0.000195409,0.00025628,0.000335281,0.000437815,0.00057089,0.000743603,0.000967762,0.00125869,0.00163627,0.00212633,0.00276235,0.00358783,0.00465919,0.00604966,0.00785432,0.0101965,0.0132364,0.0171817,0.0223022,0.0289479,inf	2.63274,2.63274,59.8704,100.644,212.488,350.812,390.486,375.384,363.047,363.497,365.313,350.947,329.127,320.541,328,340.548,353.185,367.35,382.508,397.98,415.221,434.33,452.435,465.442,473.344,473.952,438.582,345.286,345.286,400.063,400.063,400.063
0.00126794	-8582052.86	0,2.66471e-06,6.12314e-06,1.06117e-05,1.64373e-05,2.39981e-05,3.3811e-05,4.65469e-05,6.30763e-05,8.45292e-05,0.000112372,0.000148509,0.000195409,0.00025628,0.000335281,0.000437815,0.00057089,0.000743603,0.000967762,0.00125869,0.00163627,0.00212633,0.00276235,0.00358783,0.00465919,0.00604966,0.00785432,0.0101965,0.0132364,0.0171817,0.0223022,0.0289479,inf	2.02154,2.02154,59.6288,95.1684,209.393,354.818,392.098,373.252,360.403,362.743,366.382,351.896,329.525,321.585,330.264,343.482,356.057,369.587,383.599,397.75,413.857,432.222,450.155,463.879,473.474,475.76,438.838,340.373,340.373,398.413,398.413,398.413
0.00132064	-8581281.83	0,2.66471e-06,6.12314e-06,1.06117e-05,1.64373e-05,2.39981e-05,3.3811e-05,4.65469e-05,6.30763e-05,8.45292e-05,0.000112372,0.000148509,0.000195409,0.00025628,0.000335281,0.000437815,0.00057089,0.000743603,0.000967762,0.00125869,0.00163627,0.00212633,0.00276235,0.00358783,0.00465919,0.00604966,0.00785432,0.0101965,0.0132364,0.0171817,0.0223022,0.0289479,inf	1.61448,1.61448,60.5297,90.9384,207.754,359.859,393.969,371.208,357.816,361.983,367.315,352.661,329.841,322.632,332.521,346.376,358.881,371.782,384.681,397.574,412.587,430.179,447.828,462.123,473.296,477.23,438.983,335.993,335.993,396.909,396.909,396.909
0.00137073	-8580612.46	0,2.66471e-06,6.12314e-06,1.06117e-05,1.64373e-05,2.39981e-05,3.3811e-05,4.65469e-05,6.30763e-05,8.45292e-05,0.000112372,0.000148509,0.000195409,0.00025628,0.000335281,0.000437815,0.00057089,0.000743603,0.000967762,0.00125869,0.00163627,0.00212633,0.00276235,0.00358783,0.00465919,0.00604966,0.00785432,0.0101965,0.0132364,0.0171817,0.0223022,0.0289479,inf	1.31983,1.31983,62.2266,87.5555,207.202,365.687,396.058,369.299,355.383,361.317,368.203,353.31,330.101,323.666,334.732,349.186,361.611,373.894,385.729,397.438,411.412,428.228,445.516,460.265,472.909,478.447,439.062,332.079,332.079,395.56,395.56,395.56
0.00141841	-8580027.96	0,2.66471e-06,6.12314e-06,1.06117e-05,1.64373e-05,2.39981e-05,3.3811e-05,4.65469e-05,6.30763e-05,8.45292e-05,0.000112372,0.000148509,0.000195409,0.00025628,0.000335281,0.000437815,0.00057089,0.000743603,0.000967762,0.00125869,0.00163627,0.00212633,0.00276235,0.00358783,0.00465919,0.00604966,0.00785432,0.0101965,0.0132364,0.0171817,0.0223022,0.0289479,inf	1.10476,1.10476,64.4601,84.7474,207.448,372.083,398.281,367.537,353.153,360.8,369.105,353.891,330.331,324.686,336.882,351.888,364.22,375.901,386.725,397.329,410.328,426.378,443.257,458.366,472.381,479.474,439.101,328.57,328.57,394.363,394.363,394.363
0.00146383	-8579514.92	0,2.66471e-06,6.12314e-06,1.06117e-05,1.64373e-05,2.39981e-05,3.3811e-05,4.65469e-05,6.30763e-05,8.45292e-05,0.000112372,0.000148509,0.000195409,0.00025628,0.000335281,0.000437815,0.00057089,0.000743603,0.000967762,0.00125869,0.00163627,0.00212633,0.00276235,0.00358783,0.00465919,0.00604966,0.00785432,0.0101965,0.0132364,0.0171817,0.0223022,0.0289479,inf	0.941228,0.941228,67.0193,82.3204,208.282,378.876,400.555,365.913,351.128,360.454,370.052,354.437,330.546,325.69,338.96,354.471,366.699,377.795,387.662,397.24,409.329,424.635,441.071,456.464,471.758,480.354,439.12,325.413,325.413,393.311,393.311,393.311
0.00150714	-8579062.51	0,2.66471e-06,6.12314e-06,1.06117e-05,1.64373e-05,2.39981e-05,3.3811e-05,4.65469e-05,6.30763e-05,8.45292e-05,0.000112372,0.000148509,0.000195409,0.00025628,0.000335281,0.000437815,0.00057089,0.000743603,0.000967762,0.00125869,0.00163627,0.00212633,0.00276235,0.00358783,0.00465919,0.00604966,0.00785432,0.0101965,0.0132364,0.0171817,0.0223022,0.0289479,inf	0.808177,0.808177,69.785,80.1405,209.532,385.899,402.815,364.396,349.304,360.285,371.062,354.965,330.757,326.679,340.964,356.931,369.044,379.572,388.537,397.166,408.408,422.995,438.967,454.581,471.073,481.119,439.127,322.562,322.562,392.396,392.396,392.396
0.0015485	-8578661.89	0,2.66471e-06,6.12314e-06,1.06117e-05,1.64373e-05,2.39981e-05,3.3811e-05,4.65469e-05,6.30763e-05,8.45292e-05,0.000112372,0.000148509,0.000195409,0.00025628,0.000335281,0.000437815,0.00057089,0.000743603,0.000967762,0.00125869,0.00163627,0.00212633,0.00276235,0.00358783,0.00465919,0.00604966,0.00785432,0.0101965,0.0132364,0.0171817,0.0223022,0.0289479,inf	0.698954,0.698954,72.6428,78.1363,211.082,393.037,405.007,362.963,347.664,360.287,372.136,355.49,330.973,327.653,342.893,359.27,371.255,381.234,389.35,397.101,407.559,421.455,436.951,452.736,470.348,481.791,439.131,319.978,319.978,391.606,391.606,391.606
0.001588	-8578305.77	0,2.66471e-06,6.12314e-06,1.06117e-05,1.64373e-05,2.39981e-05,3.3811e-05,4.65469e-05,6.30763e-05,8.45292e-05,0.000112372,0.000148509,0.000195409,0.00025628,0.000335281,0.000437815,0.00057089,0.000743603,0.000967762,0.00125869,0.00163627,0.00212633,0.00276235,0.00358783,0.00465919,0.00604966,0.00785432,0.0101965,0.0132364,0.0171817,0.0223022,0.0289479,inf	0.609912,0.609912,75.5106,76.2573,212.831,400.192,407.078,361.596,346.196,360.45,373.277,356.017,331.195,328.614,344.749,361.491,373.337,382.784,390.104,397.045,406.775,420.01,435.023,450.935,469.601,482.391,439.136,317.628,317.628,390.93,390.93,390.93
0.00162578	-8577988.10	0,2.66471e-06,6.12314e-06,1.06117e-05,1.64373e-05,2.39981e-05,3.3811e-05,4.65469e-05,6.30763e-05,8.45292e-05,0.000112372,0.000148509,0.000195409,0.00025628,0.000335281,0.000437815,0.00057089,0.000743603,0.000967762,0.00125869,0.00163627,0.00212633,0.00276235,0.00358783,0.00465919,0.00604966,0.00785432,0.0101965,0.0132364,0.0171817,0.0223022,0.0289479,inf	0.533104,0.533104,78.3465,74.4641,214.712,407.305,409.012,360.27,344.881,360.76,374.477,356.548,331.427,329.56,346.535,363.6,375.296,384.229,390.8,396.996,406.052,418.653,433.182,449.186,468.842,482.93,439.143,315.483,315.483,390.356,390.356,390.356
0.00166192	-8577703.82	0,2.66471e-06,6.12314e-06,1.06117e-05,1.64373e-05,2.39981e-05,3.3811e-05,4.65469e-05,6.30763e-05,8.45292e-05,0.000112372,0.000148509,0.000195409,0.00025628,0.000335281,0.000437815,0.00057089,0.000743603,0.000967762,0.00125869,0.00163627,0.00212633,0.00276235,0.00358783,0.00465919,0.00604966,0.00785432,0.0101965,0.0132364,0.0171817,0.0223022,0.0289479,inf	0.466778,0.466778,81.1147,72.7397,216.699,414.322,410.796,358.983,343.7,361.202,375.733,357.084,331.669,330.492,348.253,365.601,377.138,385.574,391.441,396.951,405.385,417.38,431.425,447.491,468.082,483.42,439.156,313.519,313.519,389.876,389.876,389.876
0.00169653	-8577448.66	0,2.66471e-06,6.12314e-06,1.06117e-05,1.64373e-05,2.39981e-05,3.3811e-05,4.65469e-05,6.30763e-05,8.45292e-05,0.000112372,0.000148509,0.000195409,0.00025628,0.000335281,0.000437815,0.00057089,0.000743603,0.000967762,0.00125869,0.00163627,0.00212633,0.00276235,0.00358783,0.00465919,0.00604966,0.00785432,0.0101965,0.0132364,0.0171817,0.0223022,0.0289479,inf	0.410103,0.410103,83.7809,71.0683,218.749,421.212,412.417,357.718,342.637,361.759,377.032,357.625,331.922,331.411,349.906,367.501,378.87,386.825,392.033,396.912,404.768,416.183,429.749,445.851,467.324,483.869,439.174,311.714,311.714,389.48,389.48,389.48
0.00172969	-8577219.01	0,2.66471e-06,6.12314e-06,1.06117e-05,1.64373e-05,2.39981e-05,3.3811e-05,4.65469e-05,6.30763e-05,8.45292e-05,0.000112372,0.000148509,0.000195409,0.00025628,0.000335281,0.000437815,0.00057089,0.000743603,0.000967762,0.00125869,0.00163627,0.00212633,0.00276235,0.00358783,0.00465919,0.00604966,0.00785432,0.0101965,0.0132364,0.0171817,0.0223022,0.0289479,inf	0.399546,0.399546,86.3405,69.4537,220.859,427.957,413.867,356.469,341.682,362.425,378.374,358.169,332.184,332.315,351.498,369.306,380.499,387.988,392.578,396.876,404.198,415.059,428.15,444.267,466.575,484.284,439.197,310.051,310.051,389.158,389.158,389.158
