0.00985941	-13781901.27	0,1.76098e-06,4.08064e-06,7.1362e-06,1.11611e-05,1.6463e-05,2.34468e-05,3.26463e-05,4.47642e-05,6.07266e-05,8.1753e-05,0.00010945,0.000145934,0.000193992,0.000257297,0.000340685,0.000450528,0.000595218,0.000785811,0.00103687,0.00136758,0.0018032,0.00237702,0.00313289,0.00412856,0.0054401,0.00716772,0.00944343,0.0124411,0.0163898,0.0215912,0.0284427,inf	433.144,433.144,622.854,692.782,712.443,712.469,699.217,673.787,636.606,592.923,548.366,507.328,472.88,446.117,426.547,412.974,404.038,398.472,395.242,393.58,392.964,393.052,393.611,394.441,395.336,396.118,396.725,397.37,397.37,398.056,398.056,398.056
0.00973632	-13778492.89	0,1.76098e-06,4.08064e-06,7.1362e-06,1.11611e-05,1.6463e-05,2.34468e-05,3.26463e-05,4.47642e-05,6.07266e-05,8.1753e-05,0.00010945,0.000145934,0.000193992,0.000257297,0.000340685,0.000450528,0.000595218,0.000785811,0.00103687,0.00136758,0.0018032,0.00237702,0.00313289,0.00412856,0.0054401,0.00716772,0.00944343,0.0124411,0.0163898,0.0215912,0.0284427,inf	302.443,302.443,595.985,744.933,810.788,845.036,854.491,837.149,790.933,725.541,653.012,583.381,523.839,477.256,443.15,419.562,404.144,394.669,389.302,386.682,385.878,386.286,387.494,389.153,390.892,392.39,393.537,394.753,394.753,396.065,396.065,396.065
0.00962128	-13776553.32	0,1.76098e-06,4.08064e-06,7.1362e-06,1.11611e-05,1.6463e-05,2.34468e-05,3.26463e-05,4.47642e-05,6.07266e-05,8.1753e-05,0.00010945,0.000145934,0.000193992,0.000257297,0.000340685,0.000450528,0.000595218,0.000785811,0.00103687,0.00136758,0.0018032,0.00237702,0.00313289,0.00412856,0.0054401,0.00716772,0.00944343,0.0124411,0.0163898,0.0215912,0.0284427,inf	203.678,203.678,503.178,689.41,785.224,853.495,897.604,908.358,875.952,809.614,725.378,638.684,561.786,500.474,455.173,423.751,403.256,390.751,383.774,380.487,379.629,380.38,382.191,384.588,387.067,389.182,390.787,392.487,392.487,394.356,394.356,394.356
0.00951352	-13775212.40	0,1.76098e-06,4.08064e-06,7.1362e-06,1.11611e-05,1.6463e-05,2.34468e-05,3.26463e-05,4.47642e-05,6.07266e-05,8.1753e-05,0.00010945,0.000145934,0.000193992,0.000257297,0.000340685,0.000450528,0.000595218,0.000785811,0.00103687,0.00136758,0.0018032,0.00237702,0.00313289,0.00412856,0.0054401,0.00716772,0.00944343,0.0124411,0.0163898,0.0215912,0.0284427,inf	150.548,150.548,425.949,619.87,722.705,809.276,881.518,923.417,915.014,860.396,775.906,680.686,592.069,519.546,465.211,427.282,402.51,387.438,379.094,375.24,374.334,375.375,377.693,380.716,383.821,386.455,388.437,390.54,390.54,392.899,392.899,392.899
0.00941208	-13774189.86	0,1.76098e-06,4.08064e-06,7.1362e-06,1.11611e-05,1.6463e-05,2.34468e-05,3.26463e-05,4.47642e-05,6.07266e-05,8.1753e-05,0.00010945,0.000145934,0.000193992,0.000257297,0.000340685,0.000450528,0.000595218,0.000785811,0.00103687,0.00136758,0.0018032,0.00237702,0.00313289,0.00412856,0.0054401,0.00716772,0.00944343,0.0124411,0.0163898,0.0215912,0.0284427,inf	124.498,124.498,376.506,566.667,661.582,751.604,840.482,908.312,925.635,888.865,811.368,713.671,617.466,536.267,474.393,430.826,402.274,384.899,375.308,370.914,369.926,371.183,373.914,377.456,381.085,384.149,386.435,388.869,388.869,391.661,391.661,391.661
0.00931594	-13773368.96	0,1.76098e-06,4.08064e-06,7.1362e-06,1.11611e-05,1.6463e-05,2.34468e-05,3.26463e-05,4.47642e-05,6.07266e-05,8.1753e-05,0.00010945,0.000145934,0.000193992,0.000257297,0.000340685,0.000450528,0.000595218,0.000785811,0.00103687,0.00136758,0.0018032,0.00237702,0.00313289,0.00412856,0.0054401,0.00716772,0.00944343,0.0124411,0.0163898,0.0215912,0.0284427,inf	112.581,112.581,349.183,533.811,613.307,696.839,792.121,878.4,918.964,902.049,835.832,739.955,639.315,551.406,483.127,434.563,402.583,383.086,372.319,367.388,366.279,367.686,370.746,374.716,378.782,382.2,384.73,387.433,387.433,390.609,390.609,390.609
0.0092242	-13772686.11	0,1.76098e-06,4.08064e-06,7.1362e-06,1.11611e-05,1.6463e-05,2.34468e-05,3.26463e-05,4.47642e-05,6.07266e-05,8.1753e-05,0.00010945,0.000145934,0.000193992,0.000257297,0.000340685,0.000450528,0.000595218,0.000785811,0.00103687,0.00136758,0.0018032,0.00237702,0.00313289,0.00412856,0.0054401,0.00716772,0.00944343,0.0124411,0.0163898,0.0215912,0.0284427,inf	107.781,107.781,336.726,518.065,579.017,650.379,744.647,842.289,901.956,904.517,851.867,760.859,658.272,565.27,491.526,438.484,403.359,381.881,369.994,364.528,363.265,364.768,368.088,372.413,376.844,380.553,383.275,386.195,386.195,389.716,389.716,389.716
0.0091361	-13772101.37	0,1.76098e-06,4.08064e-06,7.1362e-06,1.11611e-05,1.6463e-05,2.34468e-05,3.26463e-05,4.47642e-05,6.07266e-05,8.1753e-05,0.00010945,0.000145934,0.000193992,0.000257297,0.000340685,0.000450528,0.000595218,0.000785811,0.00103687,0.00136758,0.0018032,0.00237702,0.00313289,0.00412856,0.0054401,0.00716772,0.00944343,0.0124411,0.0163898,0.0215912,0.0284427,inf	106.335,106.335,333.532,515.193,556.726,613.089,701.496,804.711,879.03,899.408,861.26,777.235,674.699,577.98,499.586,442.522,404.496,381.162,368.206,362.212,360.773,362.328,365.854,370.474,375.212,379.162,382.032,385.126,385.126,388.957,388.957,388.957
0.00905101	-13771588.05	0,1.76098e-06,4.08064e-06,7.1362e-06,1.11611e-05,1.6463e-05,2.34468e-05,3.26463e-05,4.47642e-05,6.07266e-05,8.1753e-05,0.00010945,0.000145934,0.000193992,0.000257297,0.000340685,0.000450528,0.000595218,0.000785811,0.00103687,0.00136758,0.0018032,0.00237702,0.00313289,0.00412856,0.0054401,0.00716772,0.00944343,0.0124411,0.0163898,0.0215912,0.0284427,inf	106.086,106.086,335.531,521.541,543.968,584.198,663.809,768.24,853.055,888.981,865.36,789.73,688.839,589.591,507.275,446.599,405.897,380.822,366.85,360.338,358.707,360.285,363.974,368.841,373.838,377.985,380.969,384.2,384.2,388.313,388.313,388.313
0.00896843	-13771127.73	0,1.76098e-06,4.08064e-06,7.1362e-06,1.11611e-05,1.6463e-05,2.34468e-05,3.26463e-05,4.47642e-05,6.07266e-05,8.1753e-05,0.00010945,0.000145934,0.000193992,0.000257297,0.000340685,0.000450528,0.000595218,0.000785811,0.00103687,0.00136758,0.0018032,0.00237702,0.00313289,0.00412856,0.0054401,0.00716772,0.00944343,0.0124411,0.0163898,0.0215912,0.0284427,inf	105.809,105.809,339.831,534.158,538.498,562.443,631.673,734.183,825.917,874.92,865.253,798.876,700.894,600.144,514.563,450.65,407.478,380.774,365.837,358.823,356.993,358.57,362.39,367.465,372.682,376.992,380.06,383.395,383.395,387.767,387.767,387.767
0.00888798	-13770707.42	0,1.76098e-06,4.08064e-06,7.1362e-06,1.11611e-05,1.6463e-05,2.34468e-05,3.26463e-05,4.47642e-05,6.07266e-05,8.1753e-05,0.00010945,0.000145934,0.000193992,0.000257297,0.000340685,0.000450528,0.000595218,0.000785811,0.00103687,0.00136758,0.0018032,0.00237702,0.00313289,0.00412856,0.0054401,0.00716772,0.00944343,0.0124411,0.0163898,0.0215912,0.0284427,inf	104.939,104.939,344.353,550.793,538.54,546.567,604.698,703.144,798.84,858.482,861.828,805.14,711.048,609.682,521.428,454.625,409.178,380.948,365.098,357.601,355.571,357.129,361.054,366.308,371.713,376.156,379.281,382.695,382.695,387.307,387.307,387.307
0.00880933	-13770317.79	0,1.76098e-06,4.08064e-06,7.1362e-06,1.11611e-05,1.6463e-05,2.34468e-05,3.26463e-05,4.47642e-05,6.07266e-05,8.1753e-05,0.00010945,0.000145934,0.000193992,0.000257297,0.000340685,0.000450528,0.000595218,0.000785811,0.00103687,0.00136758,0.0018032,0.00237702,0.00313289,0.00412856,0.0054401,0.00716772,0.00944343,0.0124411,0.0163898,0.0215912,0.0284427,inf	103.292,103.292,347.642,569.619,542.657,535.468,582.33,675.305,772.597,840.613,855.822,808.935,719.477,618.253,527.86,458.488,410.945,381.291,364.579,356.619,354.389,355.92,359.93,365.336,370.903,375.455,378.616,382.085,382.085,386.921,386.921,386.921
0.00873223	-13769951.98	0,1.76098e-06,4.08064e-06,7.1362e-06,1.11611e-05,1.6463e-05,2.34468e-05,3.26463e-05,4.47642e-05,6.07266e-05,8.1753e-05,0.00010945,0.000145934,0.000193992,0.000257297,0.000340685,0.000450528,0.000595218,0.000785811,0.00103687,0.00136758,0.0018032,0.00237702,0.00313289,0.00412856,0.0054401,0.00716772,0.00944343,0.0124411,0.0163898,0.0215912,0.0284427,inf	100.885,100.885,348.805,589.21,549.734,528.244,563.985,650.615,747.655,822.014,847.841,810.63,726.348,625.91,533.858,462.212,412.745,381.759,364.235,355.835,353.411,354.905,358.985,364.524,370.231,374.871,378.049,381.552,381.552,386.599,386.599,386.599
0.00865646	-13769604.90	0,1.76098e-06,4.08064e-06,7.1362e-06,1.11611e-05,1.6463e-05,2.34468e-05,3.26463e-05,4.47642e-05,6.07266e-05,8.1753e-05,0.00010945,0.000145934,0.000193992,0.000257297,0.000340685,0.000450528,0.000595218,0.000785811,0.00103687,0.00136758,0.0018032,0.00237702,0.00313289,0.00412856,0.0054401,0.00716772,0.00944343,0.0124411,0.0163898,0.0215912,0.0284427,inf	97.9162,97.9162,347.378,608.439,558.9,524.139,549.103,628.904,724.277,803.196,838.38,810.549,731.82,632.71,539.433,465.783,414.548,382.321,364.032,355.216,352.603,354.056,358.194,363.849,369.678,374.388,377.568,381.088,381.088,386.333,386.333,386.333
0.00858187	-13769272.71	0,1.76098e-06,4.08064e-06,7.1362e-06,1.11611e-05,1.6463e-05,2.34468e-05,3.26463e-05,4.47642e-05,6.07266e-05,8.1753e-05,0.00010945,0.000145934,0.000193992,0.000257297,0.000340685,0.000450528,0.000595218,0.000785811,0.00103687,0.00136758,0.0018032,0.00237702,0.00313289,0.00412856,0.0054401,0.00716772,0.00944343,0.0124411,0.0163898,0.0215912,0.0284427,inf	94.6397,94.6397,343.222,626.423,569.463,522.524,537.185,609.93,702.572,784.527,827.84,808.976,736.042,638.713,544.592,469.192,416.336,382.95,363.944,354.733,351.939,353.349,357.535,363.292,369.229,373.994,377.161,380.682,380.682,386.118,386.118,386.118
0.0085083	-13768952.45	0,1.76098e-06,4.08064e-06,7.1362e-06,1.11611e-05,1.6463e-05,2.34468e-05,3.26463e-05,4.47642e-05,6.07266e-05,8.1753e-05,0.00010945,0.000145934,0.000193992,0.000257297,0.000340685,0.000450528,0.000595218,0.000785811,0.00103687,0.00136758,0.0018032,0.00237702,0.00313289,0.00412856,0.0054401,0.00716772,0.00944343,0.0124411,0.0163898,0.0215912,0.0284427,inf	91.2872,91.2872,336.458,642.561,580.857,522.916,527.784,593.437,682.566,766.256,816.541,806.158,739.147,643.976,549.355,472.433,418.094,383.628,363.949,354.365,351.399,352.764,356.991,362.84,368.87,373.678,376.82,380.329,380.329,385.945,385.945,385.945
0.00843565	-13768641.87	0,1.76098e-06,4.08064e-06,7.1362e-06,1.11611e-05,1.6463e-05,2.34468e-05,3.26463e-05,4.47642e-05,6.07266e-05,8.1753e-05,0.00010945,0.000145934,0.000193992,0.000257297,0.000340685,0.000450528,0.000595218,0.000785811,0.00103687,0.00136758,0.0018032,0.00237702,0.00313289,0.00412856,0.0054401,0.00716772,0.00944343,0.0124411,0.0163898,0.0215912,0.0284427,inf	88.0604,88.0604,327.386,656.384,592.63,524.893,520.528,579.177,664.218,748.562,804.742,802.306,741.261,648.556,553.739,475.507,419.811,384.34,364.028,354.094,350.964,352.284,356.547,362.478,368.591,373.431,376.538,380.021,380.021,385.812,385.812,385.812
0.00836383	-13768339.17	0,1.76098e-06,4.08064e-06,7.1362e-06,1.11611e-05,1.6463e-05,2.34468e-05,3.26463e-05,4.47642e-05,6.07266e-05,8.1753e-05,0.00010945,0.000145934,0.000193992,0.000257297,0.000340685,0.000450528,0.000595218,0.000785811,0.00103687,0.00136758,0.0018032,0.00237702,0.00313289,0.00412856,0.0054401,0.00716772,0.00944343,0.0124411,0.0163898,0.0215912,0.0284427,inf	85.0918,85.0918,316.384,667.584,604.425,528.104,515.092,566.897,647.456,731.553,792.644,797.601,742.499,652.506,557.766,478.415,421.481,385.074,364.169,353.905,350.62,351.897,356.19,362.195,368.382,373.245,376.306,379.752,379.752,385.714,385.714,385.714
0.00829276	-13768042.96	0,1.76098e-06,4.08064e-06,7.1362e-06,1.11611e-05,1.6463e-05,2.34468e-05,3.26463e-05,4.47642e-05,6.07266e-05,8.1753e-05,0.00010945,0.000145934,0.000193992,0.000257297,0.000340685,0.000450528,0.000595218,0.000785811,0.00103687,0.00136758,0.0018032,0.00237702,0.00313289,0.00412856,0.0054401,0.00716772,0.00944343,0.0124411,0.0163898,0.0215912,0.0284427,inf	82.4834,82.4834,303.882,676.012,615.939,532.274,511.194,556.366,632.19,715.297,780.404,792.199,742.959,655.878,561.454,481.162,423.099,385.82,364.359,353.786,350.355,351.589,355.91,361.982,368.235,373.113,376.121,379.52,379.52,385.645,385.645,385.645
0.00822237	-13767752.12	0,1.76098e-06,4.08064e-06,7.1362e-06,1.11611e-05,1.6463e-05,2.34468e-05,3.26463e-05,4.47642e-05,6.07266e-05,8.1753e-05,0.00010945,0.000145934,0.000193992,0.000257297,0.000340685,0.000450528,0.000595218,0.000785811,0.00103687,0.00136758,0.0018032,0.00237702,0.00313289,0.00412856,0.0054401,0.00716772,0.00944343,0.0124411,0.0163898,0.0215912,0.0284427,inf	80.2758,80.2758,290.324,681.673,626.944,537.153,508.594,547.378,618.316,699.819,768.149,786.231,742.731,658.718,564.822,483.752,424.663,386.572,364.59,353.727,350.158,351.352,355.697,361.831,368.144,373.029,375.977,379.319,379.319,385.604,385.604,385.604
