AIC = 611860.26754207711201

y0 0.97386241552248486997
y0_prime 0
y1 1.0648805367789790921
y1_prime 0
y2 0.96274979069927568709
y2_prime 0
y3 1.7361910997656506694
y3_prime 0
rho 0.0018992713080102573923
rho.alpha 0.58768216961827857148
r_ii 0.99998553400582856909
theta 0.0050962263864143828376
