AIC = 3104522.4443243844435

y0 0.97603178674141821691
y0_prime 0
y1 1.0814175169845277047
y1_prime 0
y2 0.95839049454719971166
y2_prime 0
y3 1.7717357321683899762
y3_prime 0
rho 0.0019492047971954870947
rho.alpha 0.5994049702403536628
r_ii 0.99998383000646917651
theta 0.0051607823184150105472
