time_index	left_time_boundary	right_time_boundary	lambda
0	0	2.25189e-05	369.239
1	2.25189e-05	5.6971e-05	369.239
2	5.6971e-05	0.00010968	130.819
3	0.00010968	0.000190322	283.979
4	0.000190322	0.000313697	466.789
5	0.000313697	0.000502451	302.996
6	0.000502451	0.000791232	297.091
7	0.000791232	0.00123305	349.23
8	0.00123305	0.00190899	429.6
9	0.00190899	0.00294313	450.884
10	0.00294313	0.00452528	454.908
11	0.00452528	0.00694586	402.634
12	0.00694586	0.0106492	447.084
13	0.0106492	0.016315	203.338
14	0.016315	0.0249832	203.338
15	0.0249832	inf	203.338
