0.000695562	-8666169.32	0,2.70152e-06,6.20773e-06,1.07583e-05,1.66644e-05,2.43296e-05,3.42781e-05,4.71899e-05,6.39477e-05,8.5697e-05,0.000113925,0.000150561,0.000198109,0.00025982,0.000339913,0.000443863,0.000578777,0.000753876,0.000981131,0.00127608,0.00165888,0.0021557,0.00280052,0.0036374,0.00472355,0.00613324,0.00796282,0.0103374,0.0134192,0.0174191,0.0226103,0.0293478,inf	1079.13,1079.13,545.638,342.713,373.841,407.069,407.638,389.376,367.794,349.864,339.946,337.194,338.138,337.592,336.488,338.722,346.459,360.438,380.238,401.47,419.277,430.312,432.044,426.501,417.351,408.882,404.055,399.56,399.56,379.246,379.246,379.246
0.000751018	-8663972.07	0,2.70152e-06,6.20773e-06,1.07583e-05,1.66644e-05,2.43296e-05,3.42781e-05,4.71899e-05,6.39477e-05,8.5697e-05,0.000113925,0.000150561,0.000198109,0.00025982,0.000339913,0.000443863,0.000578777,0.000753876,0.000981131,0.00127608,0.00165888,0.0021557,0.00280052,0.0036374,0.00472355,0.00613324,0.00796282,0.0103374,0.0134192,0.0174191,0.0226103,0.0293478,inf	1528.99,1528.99,502.927,282.56,363.423,436.944,444.113,412.147,374.062,343.383,327.577,323.649,324.924,321.831,316.451,316.235,324.81,343.578,372.144,403.766,431.165,449.201,452.994,444.746,429.873,416,408.507,401.506,401.506,359.498,359.498,359.498
0.000801721	-8662648.35	0,2.70152e-06,6.20773e-06,1.07583e-05,1.66644e-05,2.43296e-05,3.42781e-05,4.71899e-05,6.39477e-05,8.5697e-05,0.000113925,0.000150561,0.000198109,0.00025982,0.000339913,0.000443863,0.000578777,0.000753876,0.000981131,0.00127608,0.00165888,0.0021557,0.00280052,0.0036374,0.00472355,0.00613324,0.00796282,0.0103374,0.0134192,0.0174191,0.0226103,0.0293478,inf	1718.39,1718.39,404.433,223.867,344.104,457.497,474.603,432.379,381.883,342.64,324.39,321.59,324.391,319.202,309.412,305.996,313.592,334.112,367.12,404.207,436.792,459.011,464.395,454.728,436.091,418.676,409.731,401.534,401.534,335.911,335.911,335.911
0.000848473	-8661690.27	0,2.70152e-06,6.20773e-06,1.07583e-05,1.66644e-05,2.43296e-05,3.42781e-05,4.71899e-05,6.39477e-05,8.5697e-05,0.000113925,0.000150561,0.000198109,0.00025982,0.000339913,0.000443863,0.000578777,0.000753876,0.000981131,0.00127608,0.00165888,0.0021557,0.00280052,0.0036374,0.00472355,0.00613324,0.00796282,0.0103374,0.0134192,0.0174191,0.0226103,0.0293478,inf	1788.33,1788.33,309.629,174.062,319.454,467.885,495.494,445.167,385.345,340.627,322.323,322.386,327.849,321.357,307.662,301.237,307.439,328.587,364.088,404.17,439.513,464.116,470.544,460.038,438.779,418.964,409.25,400.81,400.81,309.292,309.292,309.292
0.000891913	-8660935.63	0,2.70152e-06,6.20773e-06,1.07583e-05,1.66644e-05,2.43296e-05,3.42781e-05,4.71899e-05,6.39477e-05,8.5697e-05,0.000113925,0.000150561,0.000198109,0.00025982,0.000339913,0.000443863,0.000578777,0.000753876,0.000981131,0.00127608,0.00165888,0.0021557,0.00280052,0.0036374,0.00472355,0.00613324,0.00796282,0.0103374,0.0134192,0.0174191,0.0226103,0.0293478,inf	1814,1814,233.138,134.96,294.37,472.26,509.329,451.819,384.635,336.438,319.476,323.44,332.323,325.206,308.194,299.165,303.995,325.348,362.38,404.132,440.851,466.718,473.753,462.684,439.501,418.006,407.917,400.042,400.042,279.635,279.635,279.635
0.000932513	-8660317.11	0,2.70152e-06,6.20773e-06,1.07583e-05,1.66644e-05,2.43296e-05,3.42781e-05,4.71899e-05,6.39477e-05,8.5697e-05,0.000113925,0.000150561,0.000198109,0.00025982,0.000339913,0.000443863,0.000578777,0.000753876,0.000981131,0.00127608,0.00165888,0.0021557,0.00280052,0.0036374,0.00472355,0.00613324,0.00796282,0.0103374,0.0134192,0.0174191,0.0226103,0.0293478,inf	1821.7,1821.7,174.849,105.265,271.488,474.244,519.169,454.588,381.149,330.642,315.704,324.069,336.767,329.51,309.694,298.471,302.085,323.5,361.557,404.227,441.513,467.947,475.28,463.789,439.137,416.438,406.216,399.723,399.723,245.852,245.852,245.852
0.000970611	-8659799.92	0,2.70152e-06,6.20773e-06,1.07583e-05,1.66644e-05,2.43296e-05,3.42781e-05,4.71899e-05,6.39477e-05,8.5697e-05,0.000113925,0.000150561,0.000198109,0.00025982,0.000339913,0.000443863,0.000578777,0.000753876,0.000981131,0.00127608,0.00165888,0.0021557,0.00280052,0.0036374,0.00472355,0.00613324,0.00796282,0.0103374,0.0134192,0.0174191,0.0226103,0.0293478,inf	1819.74,1819.74,131.263,82.9115,251.654,475.966,527.163,455.233,376.134,323.954,311.294,324.207,340.852,333.759,311.552,298.494,301.073,322.522,361.32,404.465,441.834,468.402,475.824,463.996,438.188,414.612,404.431,400.331,400.331,204.882,204.882,204.882
0.00100643	-8659364.44	0,2.70152e-06,6.20773e-06,1.07583e-05,1.66644e-05,2.43296e-05,3.42781e-05,4.71899e-05,6.39477e-05,8.5697e-05,0.000113925,0.000150561,0.000198109,0.00025982,0.000339913,0.000443863,0.000578777,0.000753876,0.000981131,0.00127608,0.00165888,0.0021557,0.00280052,0.0036374,0.00472355,0.00613324,0.00796282,0.0103374,0.0134192,0.0174191,0.0226103,0.0293478,inf	1811.13,1811.13,98.8072,66.0104,234.785,478.431,534.526,454.855,370.426,316.93,306.561,323.964,344.518,337.755,313.477,298.878,300.593,322.094,361.467,404.815,441.974,468.407,475.781,463.678,436.947,412.742,402.768,402.666,402.666,147.438,147.438,147.438
0.00103967	-8659010.18	0,2.70152e-06,6.20773e-06,1.07583e-05,1.66644e-05,2.43296e-05,3.42781e-05,4.71899e-05,6.39477e-05,8.5697e-05,0.000113925,0.000150561,0.000198109,0.00025982,0.000339913,0.000443863,0.000578777,0.000753876,0.000981131,0.00127608,0.00165888,0.0021557,0.00280052,0.0036374,0.00472355,0.00613324,0.00796282,0.0103374,0.0134192,0.0174191,0.0226103,0.0293478,inf	1797.89,1797.89,74.5944,53.0854,220.428,481.861,541.75,454.005,364.484,309.888,301.713,323.441,347.759,341.396,315.295,299.395,300.394,321.977,361.816,405.193,441.963,468.095,475.351,463.04,435.597,411.017,401.534,409.64,409.64,34.9875,34.9875,34.9875
0.00107307	-8659166.34	0,2.70152e-06,6.20773e-06,1.07583e-05,1.66644e-05,2.43296e-05,3.42781e-05,4.71899e-05,6.39477e-05,8.5697e-05,0.000113925,0.000150561,0.000198109,0.00025982,0.000339913,0.000443863,0.000578777,0.000753876,0.000981131,0.00127608,0.00165888,0.0021557,0.00280052,0.0036374,0.00472355,0.00613324,0.00796282,0.0103374,0.0134192,0.0174191,0.0226103,0.0293478,inf	1783.41,1783.41,56.5281,43.1065,208.252,486.651,549.605,453.479,358.989,303.373,297.238,323.099,351.013,345.04,317.265,300.229,300.632,322.349,362.625,405.965,442.283,468.074,475.26,462.982,435.363,411.471,404.966,449.629,449.629,10.6295,10.6295,10.6295
0.00110269	-8659401.57	0,2.70152e-06,6.20773e-06,1.07583e-05,1.66644e-05,2.43296e-05,3.42781e-05,4.71899e-05,6.39477e-05,8.5697e-05,0.000113925,0.000150561,0.000198109,0.00025982,0.000339913,0.000443863,0.000578777,0.000753876,0.000981131,0.00127608,0.00165888,0.0021557,0.00280052,0.0036374,0.00472355,0.00613324,0.00796282,0.0103374,0.0134192,0.0174191,0.0226103,0.0293478,inf	1763.26,1763.26,42.8612,35.2242,197.398,491.557,556.847,452.38,353.284,296.853,292.633,322.39,353.65,348.043,318.777,300.779,300.69,322.55,363.163,406.33,442.065,467.391,474.432,462.19,434.521,411.6,408.928,520.028,520.028,2.43525,2.43525,2.43525
0.00112931	-8659211.24	0,2.70152e-06,6.20773e-06,1.07583e-05,1.66644e-05,2.43296e-05,3.42781e-05,4.71899e-05,6.39477e-05,8.5697e-05,0.000113925,0.000150561,0.000198109,0.00025982,0.000339913,0.000443863,0.000578777,0.000753876,0.000981131,0.00127608,0.00165888,0.0021557,0.00280052,0.0036374,0.00472355,0.00613324,0.00796282,0.0103374,0.0134192,0.0174191,0.0226103,0.0293478,inf	1743.22,1743.22,32.5775,28.9673,187.803,497.03,564.163,451.333,347.844,290.693,288.236,321.655,356.024,350.72,320.089,301.258,300.763,322.786,363.681,406.581,441.613,466.293,472.93,460.37,432.171,409.378,408.857,588.476,588.476,5.94832,5.94832,5.94832
0.00115487	-8658830.85	0,2.70152e-06,6.20773e-06,1.07583e-05,1.66644e-05,2.43296e-05,3.42781e-05,4.71899e-05,6.39477e-05,8.5697e-05,0.000113925,0.000150561,0.000198109,0.00025982,0.000339913,0.000443863,0.000578777,0.000753876,0.000981131,0.00127608,0.00165888,0.0021557,0.00280052,0.0036374,0.00472355,0.00613324,0.00796282,0.0103374,0.0134192,0.0174191,0.0226103,0.0293478,inf	1724.74,1724.74,24.8188,23.9595,179.291,503.16,571.809,450.584,342.875,285.056,284.217,321.088,358.352,353.277,321.362,301.8,300.982,323.215,364.398,407.023,441.327,465.275,471.327,458.147,428.94,405.376,405.132,632.208,632.208,1.26556,1.26556,1.26556
0.00117901	-8658685.64	0,2.70152e-06,6.20773e-06,1.07583e-05,1.66644e-05,2.43296e-05,3.42781e-05,4.71899e-05,6.39477e-05,8.5697e-05,0.000113925,0.000150561,0.000198109,0.00025982,0.000339913,0.000443863,0.000578777,0.000753876,0.000981131,0.00127608,0.00165888,0.0021557,0.00280052,0.0036374,0.00472355,0.00613324,0.00796282,0.0103374,0.0134192,0.0174191,0.0226103,0.0293478,inf	1706.14,1706.14,18.9326,19.9048,171.564,509.57,579.421,449.917,338.213,279.812,280.471,320.6,360.549,355.622,322.503,302.305,301.246,323.741,365.238,407.625,441.254,464.512,469.986,456.136,425.806,401.22,400.832,670.969,670.969,2.95318,2.95318,2.95318
0.00120214	-8658483.09	0,2.70152e-06,6.20773e-06,1.07583e-05,1.66644e-05,2.43296e-05,3.42781e-05,4.71899e-05,6.39477e-05,8.5697e-05,0.000113925,0.000150561,0.000198109,0.00025982,0.000339913,0.000443863,0.000578777,0.000753876,0.000981131,0.00127608,0.00165888,0.0021557,0.00280052,0.0036374,0.00472355,0.00613324,0.00796282,0.0103374,0.0134192,0.0174191,0.0226103,0.0293478,inf	1688.11,1688.11,14.4618,16.5967,164.467,516.111,586.945,449.327,333.864,274.962,277.013,320.219,362.648,357.776,323.506,302.744,301.504,324.296,366.127,408.312,441.326,463.954,468.876,454.332,422.782,396.929,395.9,699.309,699.309,4.6847,4.6847,4.6847
0.00122435	-8658323.56	0,2.70152e-06,6.20773e-06,1.07583e-05,1.66644e-05,2.43296e-05,3.42781e-05,4.71899e-05,6.39477e-05,8.5697e-05,0.000113925,0.000150561,0.000198109,0.00025982,0.000339913,0.000443863,0.000578777,0.000753876,0.000981131,0.00127608,0.00165888,0.0021557,0.00280052,0.0036374,0.00472355,0.00613324,0.00796282,0.0103374,0.0134192,0.0174191,0.0226103,0.0293478,inf	1670.37,1670.37,11.0539,13.8821,157.882,522.651,594.283,448.767,329.795,270.479,273.833,319.956,364.671,359.759,324.377,303.103,301.727,324.839,367.012,409.026,441.488,463.556,467.987,452.774,419.978,392.735,390.799,720.64,720.64,1.83951,1.83951,1.83951
0.00124547	-8658218.61	0,2.70152e-06,6.20773e-06,1.07583e-05,1.66644e-05,2.43296e-05,3.42781e-05,4.71899e-05,6.39477e-05,8.5697e-05,0.000113925,0.000150561,0.000198109,0.00025982,0.000339913,0.000443863,0.000578777,0.000753876,0.000981131,0.00127608,0.00165888,0.0021557,0.00280052,0.0036374,0.00472355,0.00613324,0.00796282,0.0103374,0.0134192,0.0174191,0.0226103,0.0293478,inf	1653.29,1653.29,8.45163,11.6405,151.709,529.055,601.345,448.198,325.971,266.326,270.909,319.808,366.631,361.585,325.119,303.374,301.894,325.336,367.848,409.713,441.679,463.265,467.286,451.47,417.464,388.807,385.909,740.569,740.569,3.73442,3.73442,3.73442
0.00126576	-8658093.75	0,2.70152e-06,6.20773e-06,1.07583e-05,1.66644e-05,2.43296e-05,3.42781e-05,4.71899e-05,6.39477e-05,8.5697e-05,0.000113925,0.000150561,0.000198109,0.00025982,0.000339913,0.000443863,0.000578777,0.000753876,0.000981131,0.00127608,0.00165888,0.0021557,0.00280052,0.0036374,0.00472355,0.00613324,0.00796282,0.0103374,0.0134192,0.0174191,0.0226103,0.0293478,inf	1636.77,1636.77,6.46661,9.78545,145.9,535.32,608.133,447.634,322.39,262.495,268.25,319.801,368.575,363.308,325.776,303.587,302.023,325.797,368.638,410.366,441.881,463.046,466.722,450.356,415.159,385.042,381.056,755.896,755.896,3.0999,3.0999,3.0999
0.00128514	-8657998.91	0,2.70152e-06,6.20773e-06,1.07583e-05,1.66644e-05,2.43296e-05,3.42781e-05,4.71899e-05,6.39477e-05,8.5697e-05,0.000113925,0.000150561,0.000198109,0.00025982,0.000339913,0.000443863,0.000578777,0.000753876,0.000981131,0.00127608,0.00165888,0.0021557,0.00280052,0.0036374,0.00472355,0.00613324,0.00796282,0.0103374,0.0134192,0.0174191,0.0226103,0.0293478,inf	1620.94,1620.94,4.94901,8.2439,140.396,541.354,614.588,447.029,319.009,258.95,265.823,319.918,370.502,364.934,326.356,303.746,302.114,326.214,369.37,410.967,442.07,462.872,466.274,449.424,413.081,381.503,376.389,769.487,769.487,3.46971,3.46971,3.46971
0.00130372	-8657909.78	0,2.70152e-06,6.20773e-06,1.07583e-05,1.66644e-05,2.43296e-05,3.42781e-05,4.71899e-05,6.39477e-05,8.5697e-05,0.000113925,0.000150561,0.000198109,0.00025982,0.000339913,0.000443863,0.000578777,0.000753876,0.000981131,0.00127608,0.00165888,0.0021557,0.00280052,0.0036374,0.00472355,0.00613324,0.00796282,0.0103374,0.0134192,0.0174191,0.0226103,0.0293478,inf	1606.04,1606.04,3.79063,6.95693,135.174,547.127,620.696,446.379,315.817,255.665,263.611,320.155,372.424,366.485,326.88,303.868,302.177,326.596,370.049,411.518,442.237,462.727,465.915,448.642,411.194,378.158,371.881,781.011,781.011,3.04783,3.04783,3.04783
