0.000704805	-13895246.16	0,4.13726e-06,1.1316e-05,2.37722e-05,4.53854e-05,8.28874e-05,0.000147959,0.000260867,0.000456779,0.000796715,0.00138655,0.00241001,0.00418584,0.00726718,0.0126137,0.0218908,inf	603.654,603.654,427.97,453.206,405.962,360.203,340.39,339.417,343.79,370.693,416.488,431.637,418.241,341.285,341.285,341.285
0.000768922	-13891380.24	0,4.13726e-06,1.1316e-05,2.37722e-05,4.53854e-05,8.28874e-05,0.000147959,0.000260867,0.000456779,0.000796715,0.00138655,0.00241001,0.00418584,0.00726718,0.0126137,0.0218908,inf	691.808,691.808,431.938,507.843,432.664,358.085,327.715,324.458,324.645,359.381,425.723,450.094,435.593,303.199,303.199,303.199
0.000826709	-13889130.68	0,4.13726e-06,1.1316e-05,2.37722e-05,4.53854e-05,8.28874e-05,0.000147959,0.000260867,0.000456779,0.000796715,0.00138655,0.00241001,0.00418584,0.00726718,0.0126137,0.0218908,inf	700.289,700.289,407.89,540.546,451.277,359.321,325.408,321.814,316.691,353.473,429.503,458.701,449.928,275.805,275.805,275.805
0.000879396	-13887615.28	0,4.13726e-06,1.1316e-05,2.37722e-05,4.53854e-05,8.28874e-05,0.000147959,0.000260867,0.000456779,0.000796715,0.00138655,0.00241001,0.00418584,0.00726718,0.0126137,0.0218908,inf	680.838,680.838,372.775,556.763,460.761,358.561,325.638,323.502,313.556,350.419,430.918,461.851,462.67,255.588,255.588,255.588
0.000927831	-13886516.79	0,4.13726e-06,1.1316e-05,2.37722e-05,4.53854e-05,8.28874e-05,0.000147959,0.000260867,0.000456779,0.000796715,0.00138655,0.00241001,0.00418584,0.00726718,0.0126137,0.0218908,inf	658.29,658.29,337.231,564.229,464.177,355.591,326.2,326.684,312.711,349.024,431.307,461.821,474.434,240.215,240.215,240.215
0.000972606	-13885686.32	0,4.13726e-06,1.1316e-05,2.37722e-05,4.53854e-05,8.28874e-05,0.000147959,0.000260867,0.000456779,0.000796715,0.00138655,0.00241001,0.00418584,0.00726718,0.0126137,0.0218908,inf	639.968,639.968,305.416,568.091,464.287,351.174,326.535,330.243,312.995,348.645,431.269,459.848,485.48,228.179,228.179,228.179
0.00101416	-13885041.78	0,4.13726e-06,1.1316e-05,2.37722e-05,4.53854e-05,8.28874e-05,0.000147959,0.000260867,0.000456779,0.000796715,0.00138655,0.00241001,0.00418584,0.00726718,0.0126137,0.0218908,inf	626.379,626.379,278.176,571.032,462.862,346.022,326.581,333.718,313.83,348.908,431.082,456.649,495.921,218.499,218.499,218.499
0.00105285	-13884532.97	0,4.13726e-06,1.1316e-05,2.37722e-05,4.53854e-05,8.28874e-05,0.000147959,0.000260867,0.000456779,0.000796715,0.00138655,0.00241001,0.00418584,0.00726718,0.0126137,0.0218908,inf	616.337,616.337,255.113,574.211,460.888,340.632,326.414,336.933,314.908,349.583,430.88,452.663,505.817,210.525,210.525,210.525
0.00108895	-13884126.88	0,4.13726e-06,1.1316e-05,2.37722e-05,4.53854e-05,8.28874e-05,0.000147959,0.000260867,0.000456779,0.000796715,0.00138655,0.00241001,0.00418584,0.00726718,0.0126137,0.0218908,inf	608.528,608.528,235.514,578.007,458.856,335.306,326.13,339.833,316.065,350.526,430.728,448.176,515.208,203.816,203.816,203.816
0.00112272	-13883800.63	0,4.13726e-06,1.1316e-05,2.37722e-05,4.53854e-05,8.28874e-05,0.000147959,0.000260867,0.000456779,0.000796715,0.00138655,0.00241001,0.00418584,0.00726718,0.0126137,0.0218908,inf	602.084,602.084,218.683,582.428,456.986,330.214,325.81,342.415,317.209,351.642,430.656,443.376,524.128,198.067,198.067,198.067
0.00115436	-13883537.70	0,4.13726e-06,1.1316e-05,2.37722e-05,4.53854e-05,8.28874e-05,0.000147959,0.000260867,0.000456779,0.000796715,0.00138655,0.00241001,0.00418584,0.00726718,0.0126137,0.0218908,inf	596.421,596.421,204.037,587.338,455.348,325.445,325.515,344.701,318.289,352.866,430.676,438.392,532.61,193.061,193.061,193.061
0.00118407	-13883325.77	0,4.13726e-06,1.1316e-05,2.37722e-05,4.53854e-05,8.28874e-05,0.000147959,0.000260867,0.000456779,0.000796715,0.00138655,0.00241001,0.00418584,0.00726718,0.0126137,0.0218908,inf	591.253,591.253,191.136,592.569,453.945,321.031,325.285,346.721,319.278,354.154,430.789,433.315,540.686,188.64,188.64,188.64
0.00121199	-13883155.48	0,4.13726e-06,1.1316e-05,2.37722e-05,4.53854e-05,8.28874e-05,0.000147959,0.000260867,0.000456779,0.000796715,0.00138655,0.00241001,0.00418584,0.00726718,0.0126137,0.0218908,inf	586.38,586.38,179.651,597.949,452.751,316.973,325.146,348.506,320.165,355.476,430.993,428.207,548.389,184.688,184.688,184.688
0.00123829	-13883019.52	0,4.13726e-06,1.1316e-05,2.37722e-05,4.53854e-05,8.28874e-05,0.000147959,0.000260867,0.000456779,0.000796715,0.00138655,0.00241001,0.00418584,0.00726718,0.0126137,0.0218908,inf	581.828,581.828,169.328,603.354,451.725,313.257,325.112,350.085,320.945,356.81,431.282,423.113,555.747,181.117,181.117,181.117
0.00126307	-13882912.13	0,4.13726e-06,1.1316e-05,2.37722e-05,4.53854e-05,8.28874e-05,0.000147959,0.000260867,0.000456779,0.000796715,0.00138655,0.00241001,0.00418584,0.00726718,0.0126137,0.0218908,inf	577.522,577.522,159.975,608.683,450.834,309.865,325.189,351.484,321.619,358.139,431.649,418.064,562.789,177.86,177.86,177.86
0.00128647	-13882828.70	0,4.13726e-06,1.1316e-05,2.37722e-05,4.53854e-05,8.28874e-05,0.000147959,0.000260867,0.000456779,0.000796715,0.00138655,0.00241001,0.00418584,0.00726718,0.0126137,0.0218908,inf	573.47,573.47,151.451,613.864,450.039,306.769,325.379,352.726,322.191,359.453,432.087,413.082,569.542,174.863,174.863,174.863
0.00130858	-13882765.53	0,4.13726e-06,1.1316e-05,2.37722e-05,4.53854e-05,8.28874e-05,0.000147959,0.000260867,0.000456779,0.000796715,0.00138655,0.00241001,0.00418584,0.00726718,0.0126137,0.0218908,inf	569.651,569.651,143.648,618.854,449.315,303.941,325.678,353.835,322.667,360.745,432.589,408.181,576.03,172.087,172.087,172.087
0.0013295	-13882719.57	0,4.13726e-06,1.1316e-05,2.37722e-05,4.53854e-05,8.28874e-05,0.000147959,0.000260867,0.000456779,0.000796715,0.00138655,0.00241001,0.00418584,0.00726718,0.0126137,0.0218908,inf	566.121,566.121,136.478,623.616,448.64,301.356,326.081,354.825,323.051,362.007,433.148,403.37,582.275,169.497,169.497,169.497
0.00134931	-13882688.33	0,4.13726e-06,1.1316e-05,2.37722e-05,4.53854e-05,8.28874e-05,0.000147959,0.000260867,0.000456779,0.000796715,0.00138655,0.00241001,0.00418584,0.00726718,0.0126137,0.0218908,inf	562.844,562.844,129.867,628.14,447.996,298.988,326.58,355.713,323.352,363.237,433.757,398.656,588.298,167.066,167.066,167.066
0.00136809	-13882669.77	0,4.13726e-06,1.1316e-05,2.37722e-05,4.53854e-05,8.28874e-05,0.000147959,0.000260867,0.000456779,0.000796715,0.00138655,0.00241001,0.00418584,0.00726718,0.0126137,0.0218908,inf	559.84,559.84,123.756,632.426,447.37,296.809,327.167,356.512,323.575,364.432,434.411,394.042,594.118,164.773,164.773,164.773
