time_index	left_time_boundary	right_time_boundary	lambda
0	0	8.89429e-07	0.792676
1	8.89429e-07	2.06103e-06	0.792676
2	2.06103e-06	3.60432e-06	163.188
3	3.60432e-06	5.63721e-06	306.772
4	5.63721e-06	8.31504e-06	68.614
5	8.31504e-06	1.18424e-05	15.5331
6	1.18424e-05	1.64888e-05	14.6423
7	1.64888e-05	2.26093e-05	42.7373
8	2.26093e-05	3.06715e-05	135.146
9	3.06715e-05	4.12914e-05	275.866
10	4.12914e-05	5.52805e-05	366.079
11	5.52805e-05	7.37076e-05	367.948
12	7.37076e-05	9.79806e-05	326.295
13	9.79806e-05	0.000129954	289.181
14	0.000129954	0.000172072	276.394
15	0.000172072	0.00022755	292.32
16	0.00022755	0.00030063	337.423
17	0.00030063	0.000396894	410.953
18	0.000396894	0.000523697	515.732
19	0.000523697	0.000690729	662.76
20	0.000690729	0.000910751	867.109
21	0.000910751	0.00120058	1109.66
22	0.00120058	0.00158235	1270.14
23	0.00158235	0.00208523	1291.84
24	0.00208523	0.00274766	1232.89
25	0.00274766	0.00362024	1115.24
26	0.00362024	0.00476964	979.902
27	0.00476964	0.00628369	896.159
28	0.00628369	0.00827808	896.159
29	0.00827808	0.0109052	964.45
30	0.0109052	0.0143657	964.45
31	0.0143657	inf	964.45
