time_index	left_time_boundary	right_time_boundary	lambda
0	0	4.7236e-05	54.159
1	4.7236e-05	0.00011187	54.159
2	0.00011187	0.000200309	233.686
3	0.000200309	0.000321322	284.431
4	0.000321322	0.000486905	433.895
5	0.000486905	0.000713476	642.952
6	0.000713476	0.0010235	851.718
7	0.0010235	0.0014477	1180.2
8	0.0014477	0.00202815	1450.06
9	0.00202815	0.00282238	1407.82
10	0.00282238	0.00390914	1091.56
11	0.00390914	0.00539617	692.612
12	0.00539617	0.00743089	1116.37
13	0.00743089	0.010215	109495
14	0.010215	0.0140246	109495
15	0.0140246	inf	109495
