0.000372173	-177794.49	0,4.7236e-05,0.00011187,0.000200309,0.000321322,0.000486905,0.000713476,0.0010235,0.0014477,0.00202815,0.00282238,0.00390914,0.00539617,0.00743089,0.010215,0.0140246,inf	257.074,257.074,381.234,464.759,580.44,736.148,916.607,1060.36,1039.49,971.777,905.135,848.538,843.202,943.218,943.218,943.218
0.000423415	-177567.04	0,4.7236e-05,0.00011187,0.000200309,0.000321322,0.000486905,0.000713476,0.0010235,0.0014477,0.00202815,0.00282238,0.00390914,0.00539617,0.00743089,0.010215,0.0140246,inf	140.116,140.116,267.78,356.061,496.405,698.328,952.318,1207.54,1205.53,1109.27,991.141,885.522,887.185,1147.83,1147.83,1147.83
0.000471508	-177471.77	0,4.7236e-05,0.00011187,0.000200309,0.000321322,0.000486905,0.000713476,0.0010235,0.0014477,0.00202815,0.00282238,0.00390914,0.00539617,0.00743089,0.010215,0.0140246,inf	100.702,100.702,226.574,309.52,456.971,674.591,955.554,1280.21,1307.4,1205.34,1047.43,901.162,918.378,1434.84,1434.84,1434.84
0.000516844	-177416.64	0,4.7236e-05,0.00011187,0.000200309,0.000321322,0.000486905,0.000713476,0.0010235,0.0014477,0.00202815,0.00282238,0.00390914,0.00539617,0.00743089,0.010215,0.0140246,inf	84.5661,84.5661,212.452,289.123,439.294,661.432,948.688,1313.5,1369.15,1272.61,1083.08,903.687,941.775,1936.78,1936.78,1936.78
0.000560084	-177377.21	0,4.7236e-05,0.00011187,0.000200309,0.000321322,0.000486905,0.000713476,0.0010235,0.0014477,0.00202815,0.00282238,0.00390914,0.00539617,0.00743089,0.010215,0.0140246,inf	77.2685,77.2685,210.581,281.602,433.418,655.196,938.987,1325.54,1405.89,1320.08,1104.62,898.477,960.667,3480.48,3480.48,3480.48
0.000601764	-177345.30	0,4.7236e-05,0.00011187,0.000200309,0.000321322,0.000486905,0.000713476,0.0010235,0.0014477,0.00202815,0.00282238,0.00390914,0.00539617,0.00743089,0.010215,0.0140246,inf	73.7459,73.7459,214.785,281.034,434.356,653.355,928.899,1325.83,1426.76,1353.76,1116.48,888.899,977.229,28344.5,28344.5,28344.5
0.000601764	-177317.66	0,4.7236e-05,0.00011187,0.000200309,0.000321322,0.000486905,0.000713476,0.0010235,0.0014477,0.00202815,0.00282238,0.00390914,0.00539617,0.00743089,0.010215,0.0140246,inf	71.1273,71.1273,219.598,281.175,433.895,645.058,903.202,1293.62,1417.05,1362.49,1110.97,870.139,987.067,109490,109490,109490
0.000601764	-177315.04	0,4.7236e-05,0.00011187,0.000200309,0.000321322,0.000486905,0.000713476,0.0010235,0.0014477,0.00202815,0.00282238,0.00390914,0.00539617,0.00743089,0.010215,0.0140246,inf	68.7393,68.7393,222.487,281.175,433.895,642.952,886.628,1271.16,1412.95,1374.64,1107.47,853.032,997.53,109493,109493,109493
0.000601764	-177313.72	0,4.7236e-05,0.00011187,0.000200309,0.000321322,0.000486905,0.000713476,0.0010235,0.0014477,0.00202815,0.00282238,0.00390914,0.00539617,0.00743089,0.010215,0.0140246,inf	66.613,66.613,224.616,281.175,433.895,642.952,875.349,1254.37,1412.02,1388.67,1104.62,836.842,1008.24,109494,109494,109494
0.000601764	-177312.97	0,4.7236e-05,0.00011187,0.000200309,0.000321322,0.000486905,0.000713476,0.0010235,0.0014477,0.00202815,0.00282238,0.00390914,0.00539617,0.00743089,0.010215,0.0140246,inf	64.7273,64.7273,224.618,282.921,433.895,642.952,867.377,1241.09,1413.12,1397.74,1102.35,821.173,1019,109494,109494,109494
0.000601764	-177312.49	0,4.7236e-05,0.00011187,0.000200309,0.000321322,0.000486905,0.000713476,0.0010235,0.0014477,0.00202815,0.00282238,0.00390914,0.00539617,0.00743089,0.010215,0.0140246,inf	63.1269,63.1269,226.231,282.921,433.895,642.952,861.742,1230.34,1415.73,1403.77,1100.17,806.054,1029.84,109495,109495,109495
0.000601764	-177312.17	0,4.7236e-05,0.00011187,0.000200309,0.000321322,0.000486905,0.000713476,0.0010235,0.0014477,0.00202815,0.00282238,0.00390914,0.00539617,0.00743089,0.010215,0.0140246,inf	61.6827,61.6827,227.682,282.921,433.895,642.952,857.834,1221.43,1419.45,1407.34,1098.26,791.473,1040.76,109495,109495,109495
0.000601764	-177311.95	0,4.7236e-05,0.00011187,0.000200309,0.000321322,0.000486905,0.000713476,0.0010235,0.0014477,0.00202815,0.00282238,0.00390914,0.00539617,0.00743089,0.010215,0.0140246,inf	60.3763,60.3763,227.688,283.879,433.895,642.952,855.185,1213.87,1424.06,1407.48,1096.67,777.418,1051.76,109495,109495,109495
0.000601764	-177311.80	0,4.7236e-05,0.00011187,0.000200309,0.000321322,0.000486905,0.000713476,0.0010235,0.0014477,0.00202815,0.00282238,0.00390914,0.00539617,0.00743089,0.010215,0.0140246,inf	59.2592,59.2592,228.81,283.879,433.895,642.952,853.458,1207.32,1429.31,1407.82,1095.37,763.936,1062.31,109495,109495,109495
0.000601764	-177311.70	0,4.7236e-05,0.00011187,0.000200309,0.000321322,0.000486905,0.000713476,0.0010235,0.0014477,0.00202815,0.00282238,0.00390914,0.00539617,0.00743089,0.010215,0.0140246,inf	58.2397,58.2397,230.335,283.879,433.895,642.952,852.399,1201.53,1434.11,1407.82,1094.26,750.94,1072.35,109495,109495,109495
0.000601764	-177311.62	0,4.7236e-05,0.00011187,0.000200309,0.000321322,0.000486905,0.000713476,0.0010235,0.0014477,0.00202815,0.00282238,0.00390914,0.00539617,0.00743089,0.010215,0.0140246,inf	57.2741,57.2741,231.309,283.879,433.895,642.952,851.851,1196.37,1438.17,1407.82,1093.35,738.414,1081.94,109495,109495,109495
0.000601764	-177311.56	0,4.7236e-05,0.00011187,0.000200309,0.000321322,0.000486905,0.000713476,0.0010235,0.0014477,0.00202815,0.00282238,0.00390914,0.00539617,0.00743089,0.010215,0.0140246,inf	56.3841,56.3841,232.208,283.879,433.895,642.952,851.718,1191.72,1441.64,1407.82,1092.62,726.338,1091.15,109495,109495,109495
0.000601764	-177311.51	0,4.7236e-05,0.00011187,0.000200309,0.000321322,0.000486905,0.000713476,0.0010235,0.0014477,0.00202815,0.00282238,0.00390914,0.00539617,0.00743089,0.010215,0.0140246,inf	55.5673,55.5673,233.025,283.879,433.895,642.952,851.718,1187.51,1444.72,1407.82,1092.09,714.693,1099.95,109495,109495,109495
0.000601764	-177311.46	0,4.7236e-05,0.00011187,0.000200309,0.000321322,0.000486905,0.000713476,0.0010235,0.0014477,0.00202815,0.00282238,0.00390914,0.00539617,0.00743089,0.010215,0.0140246,inf	54.8186,54.8186,233.025,284.431,433.895,642.952,851.718,1183.69,1447.51,1407.82,1091.74,703.459,1108.35,109495,109495,109495
0.000601764	-177311.43	0,4.7236e-05,0.00011187,0.000200309,0.000321322,0.000486905,0.000713476,0.0010235,0.0014477,0.00202815,0.00282238,0.00390914,0.00539617,0.00743089,0.010215,0.0140246,inf	54.159,54.159,233.686,284.431,433.895,642.952,851.718,1180.2,1450.06,1407.82,1091.56,692.612,1116.37,109495,109495,109495
