LogLikelihood = -133670.05172500436311

y0 0.14717822922360662696
y0_prime 0
y1 0.40906745853791470768
y1_prime 0
y2 1.9394414107477349063
y2_prime 0
y3 19.655341655359368502
y3_prime 0
rho 0.0001025810236059311603
theta 0.0018521555810688096824
