0.000637704	-13534074.12	0,1.75298e-06,4.0621e-06,7.10378e-06,1.11104e-05,1.63882e-05,2.33403e-05,3.24979e-05,4.45608e-05,6.04507e-05,8.13816e-05,0.000108953,0.000145271,0.000193111,0.000256128,0.000339137,0.000448481,0.000592514,0.000782241,0.00103216,0.00136136,0.00179501,0.00236622,0.00311866,0.0041098,0.00541538,0.00713516,0.00940053,0.0123846,0.0163153,0.0214931,0.0283135,inf	128.663,128.663,283.634,340.833,331.701,346.341,383.932,415.008,420.813,410.302,393.743,376.353,368.269,368.019,369.203,370.31,374.762,382.031,390.469,398.815,405.863,409.541,408.729,404.826,402.881,406.641,412.93,408.241,408.241,521.073,521.073,521.073
0.000652223	-13533855.23	0,1.75298e-06,4.0621e-06,7.10378e-06,1.11104e-05,1.63882e-05,2.33403e-05,3.24979e-05,4.45608e-05,6.04507e-05,8.13816e-05,0.000108953,0.000145271,0.000193111,0.000256128,0.000339137,0.000448481,0.000592514,0.000782241,0.00103216,0.00136136,0.00179501,0.00236622,0.00311866,0.0041098,0.00541538,0.00713516,0.00940053,0.0123846,0.0163153,0.0214931,0.0283135,inf	49.7837,49.7837,237.139,329.869,296.555,311.491,376.179,436.595,450.036,431.848,402.173,371.154,357.485,357.278,358.188,357.815,363.156,373.42,385.789,398.362,409.314,414.83,412.589,404.99,401.381,408.841,421.427,411.099,411.099,710.481,710.481,710.481
0.000665188	-13533748.48	0,1.75298e-06,4.0621e-06,7.10378e-06,1.11104e-05,1.63882e-05,2.33403e-05,3.24979e-05,4.45608e-05,6.04507e-05,8.13816e-05,0.000108953,0.000145271,0.000193111,0.000256128,0.000339137,0.000448481,0.000592514,0.000782241,0.00103216,0.00136136,0.00179501,0.00236622,0.00311866,0.0041098,0.00541538,0.00713516,0.00940053,0.0123846,0.0163153,0.0214931,0.0283135,inf	20.9057,20.9057,212.662,335.855,271.512,280.584,364.411,451.353,473.561,450.439,410.938,369.643,352.827,353.815,354.61,352.262,357.419,369.085,383.501,398.492,411.96,418.595,414.86,403.898,398.802,409.732,428.439,411.78,411.78,1127.06,1127.06,1127.06
0.000676828	-13533693.22	0,1.75298e-06,4.0621e-06,7.10378e-06,1.11104e-05,1.63882e-05,2.33403e-05,3.24979e-05,4.45608e-05,6.04507e-05,8.13816e-05,0.000108953,0.000145271,0.000193111,0.000256128,0.000339137,0.000448481,0.000592514,0.000782241,0.00103216,0.00136136,0.00179501,0.00236622,0.00311866,0.0041098,0.00541538,0.00713516,0.00940053,0.0123846,0.0163153,0.0214931,0.0283135,inf	9.16909,9.16909,197.807,351.251,252.263,253.075,349.794,459.401,490.223,464.001,417.17,368.09,349.852,352.934,353.967,349.655,354.3,366.674,382.212,398.691,413.968,421.417,416.291,402.274,395.78,409.875,434.427,410.963,410.963,3209.77,3209.77,3209.77
0.000676828	-13533664.45	0,1.75298e-06,4.0621e-06,7.10378e-06,1.11104e-05,1.63882e-05,2.33403e-05,3.24979e-05,4.45608e-05,6.04507e-05,8.13816e-05,0.000108953,0.000145271,0.000193111,0.000256128,0.000339137,0.000448481,0.000592514,0.000782241,0.00103216,0.00136136,0.00179501,0.00236622,0.00311866,0.0041098,0.00541538,0.00713516,0.00940053,0.0123846,0.0163153,0.0214931,0.0283135,inf	4.10697,4.10697,186.485,370.992,236.073,228.314,333.133,461.059,499.397,471.227,418.987,364.1,345.603,351.278,352.81,346.697,350.748,363.446,379.531,396.908,413.566,421.769,415.598,399.067,391.437,408.477,438.536,408.391,408.391,59918.1,59918.1,59918.1
