AIC = 625892.32903701020405

y0 0.66712259353376290871
y0_prime 0
y1 0.94172477662541720367
y1_prime 0
y2 1.057732737577008697
y2_prime 0
y3 1.931339277714031688
y3_prime 0
rho 0.0017015717612789236102
theta 0.00512606335436264441
