LogLikelihood = -1475202.0335518000647

y0 0.70797085944692494941
y0_prime 0
y1 0.92651428506636301918
y1_prime 0
y2 0.98901526773305226126
y2_prime 0
y3 1.6663329082731199726
y3_prime 0
rho 0.0014662825083392937945
theta 0.0048442811763899995894
