LogLikelihood = -288490.94830003468087

y0 0.80888768617828354923
y0_prime 0
y1 0.9146442841713989802
y1_prime 0
y2 0.97646834974600471568
y2_prime 0
y3 1.5630214715271568693
y3_prime 0
rho 0.0014890158364654331596
theta 0.0047307402112917963308
