LogLikelihood = -1479005.0301618045196

y0 0.82031845210006981706
y0_prime 0
y1 0.93479757221531722955
y1_prime 0
y2 0.90372577100328488342
y2_prime 0
y3 1.7750790048798927856
y3_prime 0
rho 0.0022500442394665417373
theta 0.0048449411820000471557
