LogLikelihood = -308652.80071266239975

y0 0.85221517967153992412
y0_prime 0
y1 0.95072930315877468566
y1_prime 0
y2 0.95436243624494077054
y2_prime 0
y3 1.8205844068293075555
y3_prime 0
rho 0.0025489766104407184794
theta 0.0050594430052655443505
