0.000286101	-7739025.95	0,2.11346e-06,5.78061e-06,1.21436e-05,2.31844e-05,4.23418e-05,7.55825e-05,0.00013326,0.000233339,0.00040699,0.000708299,0.00123111,0.00213827,0.00371233,0.00644354,0.0111826,inf	312.805,312.805,531.379,492.369,646.166,772.134,761.497,763.572,767.957,772.446,790.125,757.357,775.916,700.359,700.359,700.359
0.000256023	-7737220.73	0,2.11346e-06,5.78061e-06,1.21436e-05,2.31844e-05,4.23418e-05,7.55825e-05,0.00013326,0.000233339,0.00040699,0.000708299,0.00123111,0.00213827,0.00371233,0.00644354,0.0111826,inf	206.338,206.338,537.624,396.693,595.8,808.334,766.811,762.305,764.13,765.629,805.801,747.083,796.663,645.924,645.924,645.924
0.000231757	-7735925.48	0,2.11346e-06,5.78061e-06,1.21436e-05,2.31844e-05,4.23418e-05,7.55825e-05,0.00013326,0.000233339,0.00040699,0.000708299,0.00123111,0.00213827,0.00371233,0.00644354,0.0111826,inf	154.918,154.918,598.393,353.328,566.162,852.721,776.777,764.896,762.183,754.406,817.728,737.14,829.352,600.477,600.477,600.477
0.000212345	-7735028.15	0,2.11346e-06,5.78061e-06,1.21436e-05,2.31844e-05,4.23418e-05,7.55825e-05,0.00013326,0.000233339,0.00040699,0.000708299,0.00123111,0.00213827,0.00371233,0.00644354,0.0111826,inf	118.032,118.032,668.345,330.128,543.099,895.496,787.269,769.344,762.741,741.375,826.228,725.756,869.712,559.864,559.864,559.864
0.000196992	-7734456.96	0,2.11346e-06,5.78061e-06,1.21436e-05,2.31844e-05,4.23418e-05,7.55825e-05,0.00013326,0.000233339,0.00040699,0.000708299,0.00123111,0.00213827,0.00371233,0.00644354,0.0111826,inf	88.5066,88.5066,732.716,317.097,523.077,933.302,796.694,774.155,765.531,728.278,832.366,712.761,914.244,522.445,522.445,522.445
0.000184974	-7734146.68	0,2.11346e-06,5.78061e-06,1.21436e-05,2.31844e-05,4.23418e-05,7.55825e-05,0.00013326,0.000233339,0.00040699,0.000708299,0.00123111,0.00213827,0.00371233,0.00644354,0.0111826,inf	64.9698,64.9698,787.075,310.233,505.299,965.31,804.557,778.314,769.857,716.008,837.16,698.668,960.006,487.769,487.769,487.769
0.000175642	-7734034.80	0,2.11346e-06,5.78061e-06,1.21436e-05,2.31844e-05,4.23418e-05,7.55825e-05,0.00013326,0.000233339,0.00040699,0.000708299,0.00123111,0.00213827,0.00371233,0.00644354,0.0111826,inf	46.7745,46.7745,830.758,307.428,489.606,991.742,810.879,781.311,774.996,704.917,841.326,684.164,1004.66,455.807,455.807,455.807
0.000168426	-7734065.03	0,2.11346e-06,5.78061e-06,1.21436e-05,2.31844e-05,4.23418e-05,7.55825e-05,0.00013326,0.000233339,0.00040699,0.000708299,0.00123111,0.00213827,0.00371233,0.00644354,0.0111826,inf	33.1407,33.1407,864.591,307.385,475.868,1013.22,815.908,783.035,780.384,695.061,845.259,669.865,1046.57,426.538,426.538,426.538
0.000162845	-7734191.19	0,2.11346e-06,5.78061e-06,1.21436e-05,2.31844e-05,4.23418e-05,7.55825e-05,0.00013326,0.000233339,0.00040699,0.000708299,0.00123111,0.00213827,0.00371233,0.00644354,0.0111826,inf	23.1706,23.1706,890.11,309.192,463.92,1030.45,819.941,783.603,785.649,686.371,849.119,656.227,1084.8,399.794,399.794,399.794
0.000158507	-7734379.04	0,2.11346e-06,5.78061e-06,1.21436e-05,2.31844e-05,4.23418e-05,7.55825e-05,0.00013326,0.000233339,0.00040699,0.000708299,0.00123111,0.00213827,0.00371233,0.00644354,0.0111826,inf	16.0495,16.0495,908.795,312.207,453.576,1044.15,823.245,783.245,790.583,678.728,852.915,643.533,1119.06,375.236,375.236,375.236
0.000155095	-7734606.04	0,2.11346e-06,5.78061e-06,1.21436e-05,2.31844e-05,4.23418e-05,7.55825e-05,0.00013326,0.000233339,0.00040699,0.000708299,0.00123111,0.00213827,0.00371233,0.00644354,0.0111826,inf	11.045,11.045,922.185,315.925,444.632,1054.94,826.038,782.204,795.081,671.996,856.581,631.911,1149.52,352.37,352.37,352.37
0.000152356	-7734860.13	0,2.11346e-06,5.78061e-06,1.21436e-05,2.31844e-05,4.23418e-05,7.55825e-05,0.00013326,0.000233339,0.00040699,0.000708299,0.00123111,0.00213827,0.00371233,0.00644354,0.0111826,inf	7.54639,7.54639,931.481,320.063,436.913,1063.36,828.458,780.687,799.105,666.053,860.018,621.374,1176.69,330.565,330.565,330.565
0.000150083	-7735138.46	0,2.11346e-06,5.78061e-06,1.21436e-05,2.31844e-05,4.23418e-05,7.55825e-05,0.00013326,0.000233339,0.00040699,0.000708299,0.00123111,0.00213827,0.00371233,0.00644354,0.0111826,inf	5.14227,5.14227,937.762,324.33,430.246,1069.86,830.614,778.861,802.641,660.776,863.117,611.846,1201.33,308.998,308.998,308.998
0.000148094	-7735447.64	0,2.11346e-06,5.78061e-06,1.21436e-05,2.31844e-05,4.23418e-05,7.55825e-05,0.00013326,0.000233339,0.00040699,0.000708299,0.00123111,0.00213827,0.00371233,0.00644354,0.0111826,inf	3.49937,3.49937,941.828,328.583,424.454,1074.8,832.56,776.829,805.681,656.05,865.755,603.187,1224.33,286.492,286.492,286.492
0.000146196	-7735807.57	0,2.11346e-06,5.78061e-06,1.21436e-05,2.31844e-05,4.23418e-05,7.55825e-05,0.00013326,0.000233339,0.00040699,0.000708299,0.00123111,0.00213827,0.00371233,0.00644354,0.0111826,inf	2.37212,2.37212,944.353,332.693,419.386,1078.43,834.3,774.624,808.175,651.732,867.743,595.197,1246.94,261.032,261.032,261.032
0.000144094	-7736265.88	0,2.11346e-06,5.78061e-06,1.21436e-05,2.31844e-05,4.23418e-05,7.55825e-05,0.00013326,0.000233339,0.00040699,0.000708299,0.00123111,0.00213827,0.00371233,0.00644354,0.0111826,inf	1.60953,1.60953,945.733,336.531,414.824,1080.78,835.721,772.134,809.94,647.592,868.665,587.576,1271.12,228.056,228.056,228.056
0.000140843	-7736957.41	0,2.11346e-06,5.78061e-06,1.21436e-05,2.31844e-05,4.23418e-05,7.55825e-05,0.00013326,0.000233339,0.00040699,0.000708299,0.00123111,0.00213827,0.00371233,0.00644354,0.0111826,inf	1.09147,1.09147,945.506,339.758,410.21,1080.85,835.989,768.502,809.962,642.802,866.728,579.665,1301.54,169.98,169.98,169.98
0.000132948	-7738558.63	0,2.11346e-06,5.78061e-06,1.21436e-05,2.31844e-05,4.23418e-05,7.55825e-05,0.00013326,0.000233339,0.00040699,0.000708299,0.00123111,0.00213827,0.00371233,0.00644354,0.0111826,inf	0.773126,0.773126,940.828,341.016,403.606,1074.05,831.678,760.224,804.187,634.368,854.943,569.725,1358.25,52.6791,52.6791,52.6791
0.000122906	-7745106.90	0,2.11346e-06,5.78061e-06,1.21436e-05,2.31844e-05,4.23418e-05,7.55825e-05,0.00013326,0.000233339,0.00040699,0.000708299,0.00123111,0.00213827,0.00371233,0.00644354,0.0111826,inf	0.772981,0.772981,948.273,345.973,400.582,1078.69,836.788,758.388,804.398,630.461,848.143,562.468,1526.51,13.5748,13.5748,13.5748
0.000120256	-7749965.06	0,2.11346e-06,5.78061e-06,1.21436e-05,2.31844e-05,4.23418e-05,7.55825e-05,0.00013326,0.000233339,0.00040699,0.000708299,0.00123111,0.00213827,0.00371233,0.00644354,0.0111826,inf	0.772981,0.772981,968.906,356.742,403.417,1101.54,856.868,768.65,817.5,635.536,860.867,554.282,1634.26,256.027,256.027,256.027
