time_index	left_time_boundary	right_time_boundary	lambda
0	0	2.19014e-05	369.139
1	2.19014e-05	5.54089e-05	369.139
2	5.54089e-05	0.000106673	344.336
3	0.000106673	0.000185103	234.551
4	0.000185103	0.000305095	240.979
5	0.000305095	0.000488674	226.989
6	0.000488674	0.000769537	219.709
7	0.000769537	0.00119924	279.308
8	0.00119924	0.00185664	417.759
9	0.00185664	0.00286243	591.407
10	0.00286243	0.0044012	607.853
11	0.0044012	0.00675541	465.683
12	0.00675541	0.0103572	272.781
13	0.0103572	0.0158676	376.54
14	0.0158676	0.0242982	376.54
15	0.0242982	inf	376.54
