time_index	left_time_boundary	right_time_boundary	lambda
0	0	9.1225e-05	147.437
1	9.1225e-05	0.000216049	147.437
2	0.000216049	0.000386849	272.436
3	0.000386849	0.000620556	224.322
4	0.000620556	0.000940341	240.787
5	0.000940341	0.00137791	296.345
6	0.00137791	0.00197664	426.696
7	0.00197664	0.00279589	632.55
8	0.00279589	0.00391688	659.806
9	0.00391688	0.00545075	485.121
10	0.00545075	0.00754956	376.681
11	0.00754956	0.0104214	323.014
12	0.0104214	0.014351	307.191
13	0.014351	0.0197279	640.97
14	0.0197279	0.0270852	640.97
15	0.0270852	inf	640.97
