time_index	left_time_boundary	right_time_boundary	lambda
0	0	2.66932e-06	1.95397
1	2.66932e-06	6.13373e-06	1.95397
2	6.13373e-06	1.06301e-05	155.232
3	1.06301e-05	1.64657e-05	227.1
4	1.64657e-05	2.40396e-05	231.412
5	2.40396e-05	3.38695e-05	207.052
6	3.38695e-05	4.66274e-05	256.228
7	4.66274e-05	6.31854e-05	324.965
8	6.31854e-05	8.46755e-05	347.797
9	8.46755e-05	0.000112567	304.209
10	0.000112567	0.000148766	244.456
11	0.000148766	0.000195747	219.607
12	0.000195747	0.000256723	222.298
13	0.000256723	0.000335862	199.05
14	0.000335862	0.000438573	191.982
15	0.000438573	0.000571878	189.316
16	0.000571878	0.00074489	199.015
17	0.00074489	0.000969436	228.575
18	0.000969436	0.00126087	288.971
19	0.00126087	0.00163911	381.492
20	0.00163911	0.00213001	495.708
21	0.00213001	0.00276713	601.643
22	0.00276713	0.00359404	633.537
23	0.00359404	0.00466725	585.6
24	0.00466725	0.00606013	500.772
25	0.00606013	0.00786791	400.224
26	0.00786791	0.0102142	327.555
27	0.0102142	0.0132593	343.973
28	0.0132593	0.0172114	343.973
29	0.0172114	0.0223408	61051.1
30	0.0223408	0.028998	61051.1
31	0.028998	inf	61051.1
