time_index	left_time_boundary	right_time_boundary	lambda
0	0	1.03737e-05	326.567
1	1.03737e-05	2.71795e-05	326.567
2	2.71795e-05	5.44054e-05	191.261
3	5.44054e-05	9.85121e-05	308.368
4	9.85121e-05	0.000169967	241.029
5	0.000169967	0.000285725	222.712
6	0.000285725	0.000473257	220.247
7	0.000473257	0.000777065	221.65
8	0.000777065	0.00126924	287.793
9	0.00126924	0.00206659	442.043
10	0.00206659	0.00335831	612.391
11	0.00335831	0.00545094	566.021
12	0.00545094	0.00884108	334.029
13	0.00884108	0.0143332	371.827
14	0.0143332	0.0232306	371.827
15	0.0232306	inf	371.827
