0.000706662	-1843685.91	0,2.19014e-05,5.54089e-05,0.000106673,0.000185103,0.000305095,0.000488674,0.000769537,0.00119924,0.00185664,0.00286243,0.0044012,0.00675541,0.0103572,0.0158676,0.0242982,inf	365.829,365.829,304.278,270.609,257.398,262.675,285.938,337.305,426.191,504.963,490.612,446.488,403.108,408.281,408.281,408.281
0.000787985	-1842249.86	0,2.19014e-05,5.54089e-05,0.000106673,0.000185103,0.000305095,0.000488674,0.000769537,0.00119924,0.00185664,0.00286243,0.0044012,0.00675541,0.0103572,0.0158676,0.0242982,inf	409.945,409.945,310.67,248.121,220.248,218.101,240.99,304.267,428.068,558.55,542.895,469.093,392.28,407.388,407.388,407.388
0.000862269	-1841598.57	0,2.19014e-05,5.54089e-05,0.000106673,0.000185103,0.000305095,0.000488674,0.000769537,0.00119924,0.00185664,0.00286243,0.0044012,0.00675541,0.0103572,0.0158676,0.0242982,inf	444.338,444.338,332.488,248.427,210.408,201.037,219.955,285.79,424.962,586.679,573.766,479.679,377.987,403.646,403.646,403.646
0.00093094	-1841193.59	0,2.19014e-05,5.54089e-05,0.000106673,0.000185103,0.000305095,0.000488674,0.000769537,0.00119924,0.00185664,0.00286243,0.0044012,0.00675541,0.0103572,0.0158676,0.0242982,inf	455.731,455.731,350.959,253.335,209.678,194.697,209.389,275.044,421.392,601.625,592.2,483.869,363.651,398.899,398.899,398.899
0.000995308	-1840892.88	0,2.19014e-05,5.54089e-05,0.000106673,0.000185103,0.000305095,0.000488674,0.000769537,0.00119924,0.00185664,0.00286243,0.0044012,0.00675541,0.0103572,0.0158676,0.0242982,inf	450.902,450.902,362.639,257.873,212.222,193.214,204.106,268.776,418.471,609.508,603.351,484.8,350.572,394.121,394.121,394.121
0.00105629	-1840648.64	0,2.19014e-05,5.54089e-05,0.000106673,0.000185103,0.000305095,0.000488674,0.000769537,0.00119924,0.00185664,0.00286243,0.0044012,0.00675541,0.0103572,0.0158676,0.0242982,inf	438.568,438.568,368.433,260.785,215.802,194.098,201.723,265.251,416.344,613.43,610.125,484.142,339.095,389.769,389.769,389.769
0.00111449	-1840440.99	0,2.19014e-05,5.54089e-05,0.000106673,0.000185103,0.000305095,0.000488674,0.000769537,0.00119924,0.00185664,0.00286243,0.0044012,0.00675541,0.0103572,0.0158676,0.0242982,inf	424.451,424.451,370.108,262.004,219.488,196.152,201.017,263.473,414.905,615.029,614.183,482.761,329.18,386.022,386.022,386.022
0.00117034	-1840259.97	0,2.19014e-05,5.54089e-05,0.000106673,0.000185103,0.000305095,0.000488674,0.000769537,0.00119924,0.00185664,0.00286243,0.0044012,0.00675541,0.0103572,0.0158676,0.0242982,inf	411.401,411.401,369.221,261.827,222.905,198.763,201.311,262.843,414.006,615.207,616.502,481.101,320.653,382.914,382.914,382.914
0.00122411	-1840099.73	0,2.19014e-05,5.54089e-05,0.000106673,0.000185103,0.000305095,0.000488674,0.000769537,0.00119924,0.00185664,0.00286243,0.0044012,0.00675541,0.0103572,0.0158676,0.0242982,inf	400.477,400.477,366.914,260.617,225.922,201.601,202.212,262.982,413.515,614.486,617.675,479.381,313.312,380.41,380.41,380.41
0.00127602	-1839956.38	0,2.19014e-05,5.54089e-05,0.000106673,0.000185103,0.000305095,0.000488674,0.000769537,0.00119924,0.00185664,0.00286243,0.0044012,0.00675541,0.0103572,0.0158676,0.0242982,inf	391.835,391.835,363.944,258.699,228.522,204.484,203.481,263.646,413.327,613.183,618.072,477.706,306.968,378.452,378.452,378.452
0.00132623	-1839827.16	0,2.19014e-05,5.54089e-05,0.000106673,0.000185103,0.000305095,0.000488674,0.000769537,0.00119924,0.00185664,0.00286243,0.0044012,0.00675541,0.0103572,0.0158676,0.0242982,inf	385.248,385.248,360.784,256.337,230.739,207.316,204.971,264.672,413.364,611.495,617.931,476.121,301.453,376.97,376.97,376.97
0.00137486	-1839709.97	0,2.19014e-05,5.54089e-05,0.000106673,0.000185103,0.000305095,0.000488674,0.000769537,0.00119924,0.00185664,0.00286243,0.0044012,0.00675541,0.0103572,0.0158676,0.0242982,inf	380.35,380.35,357.713,253.728,232.622,210.045,206.586,265.949,413.568,609.552,617.41,474.638,296.631,375.901,375.901,375.901
0.00142203	-1839603.16	0,2.19014e-05,5.54089e-05,0.000106673,0.000185103,0.000305095,0.000488674,0.000769537,0.00119924,0.00185664,0.00286243,0.0044012,0.00675541,0.0103572,0.0158676,0.0242982,inf	376.784,376.784,354.889,251.018,234.225,212.643,208.266,267.4,413.895,607.441,616.619,473.257,292.386,375.185,375.185,375.185
0.00146781	-1839505.41	0,2.19014e-05,5.54089e-05,0.000106673,0.000185103,0.000305095,0.000488674,0.000769537,0.00119924,0.00185664,0.00286243,0.0044012,0.00675541,0.0103572,0.0158676,0.0242982,inf	374.233,374.233,352.388,248.307,235.598,215.101,209.971,268.971,414.313,605.224,615.632,471.97,288.625,374.771,374.771,374.771
0.00151228	-1839415.63	0,2.19014e-05,5.54089e-05,0.000106673,0.000185103,0.000305095,0.000488674,0.000769537,0.00119924,0.00185664,0.00286243,0.0044012,0.00675541,0.0103572,0.0158676,0.0242982,inf	372.437,372.437,350.242,245.665,236.785,217.415,211.673,270.622,414.8,602.942,614.505,470.767,285.272,374.613,374.613,374.613
0.00155552	-1839332.89	0,2.19014e-05,5.54089e-05,0.000106673,0.000185103,0.000305095,0.000488674,0.000769537,0.00119924,0.00185664,0.00286243,0.0044012,0.00675541,0.0103572,0.0158676,0.0242982,inf	371.195,371.195,348.446,243.136,237.821,219.589,213.356,272.324,415.336,600.628,613.278,469.638,282.264,374.674,374.674,374.674
0.00159757	-1839256.45	0,2.19014e-05,5.54089e-05,0.000106673,0.000185103,0.000305095,0.000488674,0.000769537,0.00119924,0.00185664,0.00286243,0.0044012,0.00675541,0.0103572,0.0158676,0.0242982,inf	370.342,370.342,346.984,240.748,238.736,221.626,215.007,274.058,415.909,598.303,611.978,468.573,279.55,374.922,374.922,374.922
0.0016385	-1839185.62	0,2.19014e-05,5.54089e-05,0.000106673,0.000185103,0.000305095,0.000488674,0.000769537,0.00119924,0.00185664,0.00286243,0.0044012,0.00675541,0.0103572,0.0158676,0.0242982,inf	369.772,369.772,345.833,238.517,239.554,223.534,216.619,275.806,416.509,595.983,610.631,467.563,277.087,375.33,375.33,375.33
0.00167836	-1839119.86	0,2.19014e-05,5.54089e-05,0.000106673,0.000185103,0.000305095,0.000488674,0.000769537,0.00119924,0.00185664,0.00286243,0.0044012,0.00675541,0.0103572,0.0158676,0.0242982,inf	369.391,369.391,344.96,236.451,240.297,225.32,218.187,277.56,417.128,593.682,609.251,466.602,274.84,375.876,375.876,375.876
0.00171719	-1839058.67	0,2.19014e-05,5.54089e-05,0.000106673,0.000185103,0.000305095,0.000488674,0.000769537,0.00119924,0.00185664,0.00286243,0.0044012,0.00675541,0.0103572,0.0158676,0.0242982,inf	369.139,369.139,344.336,234.551,240.979,226.989,219.709,279.308,417.759,591.407,607.853,465.683,272.781,376.54,376.54,376.54
