0.000684492	-307052.37	0,4.2044e-05,9.1225e-05,0.000148754,0.000216049,0.000294768,0.000386849,0.00049456,0.000620556,0.000767939,0.000940341,0.00114201,0.00137791,0.00165385,0.00197664,0.00235421,0.00279589,0.00331253,0.00391688,0.00462381,0.00545075,0.00641805,0.00754956,0.00887314,0.0104214,0.0122325,0.014351,0.0168291,0.0197279,0.0231187,0.0270852,0.031725,inf	209.634,209.634,174.187,211.556,232.271,243.599,255.709,272.687,294.311,319.654,349.04,382.712,418.71,452.259,477.123,488.915,487.827,477.569,462.66,447.122,433.566,422.75,414.543,409.013,405.254,402.031,400.713,409.839,409.839,463.625,463.625,463.625
0.000751209	-306832.01	0,4.2044e-05,9.1225e-05,0.000148754,0.000216049,0.000294768,0.000386849,0.00049456,0.000620556,0.000767939,0.000940341,0.00114201,0.00137791,0.00165385,0.00197664,0.00235421,0.00279589,0.00331253,0.00391688,0.00462381,0.00545075,0.00641805,0.00754956,0.00887314,0.0104214,0.0122325,0.014351,0.0168291,0.0197279,0.0231187,0.0270852,0.031725,inf	192.577,192.577,117.829,167.966,192.671,200.548,210.137,228.135,253.56,284.939,323.387,370.175,423.383,476.412,519.021,542.011,542.919,526.445,500.447,472.871,449.004,430.383,416.762,408.071,402.213,396.846,394.833,413.128,413.128,531.717,531.717,531.717
0.000815077	-306727.12	0,4.2044e-05,9.1225e-05,0.000148754,0.000216049,0.000294768,0.000386849,0.00049456,0.000620556,0.000767939,0.000940341,0.00114201,0.00137791,0.00165385,0.00197664,0.00235421,0.00279589,0.00331253,0.00391688,0.00462381,0.00545075,0.00641805,0.00754956,0.00887314,0.0104214,0.0122325,0.014351,0.0168291,0.0197279,0.0231187,0.0270852,0.031725,inf	199.079,199.079,95.6907,157.802,185.174,187.354,192.42,208.757,234.154,266.67,308.16,360.812,423.125,487.872,542.619,574.608,578.303,557.961,523.703,486.94,455.418,431.371,414.434,404.21,397.293,390.442,388.011,414.808,414.808,610.993,610.993,610.993
0.000876007	-306659.89	0,4.2044e-05,9.1225e-05,0.000148754,0.000216049,0.000294768,0.000386849,0.00049456,0.000620556,0.000767939,0.000940341,0.00114201,0.00137791,0.00165385,0.00197664,0.00235421,0.00279589,0.00331253,0.00391688,0.00462381,0.00545075,0.00641805,0.00754956,0.00887314,0.0104214,0.0122325,0.014351,0.0168291,0.0197279,0.0231187,0.0270852,0.031725,inf	206.359,206.359,83.7484,158.714,189.012,184.98,185.486,199.78,224.119,256.157,298.403,353.756,421.136,493.13,556.125,594.93,601.258,578.31,537.732,493.905,456.712,428.968,410.164,399.427,392.046,384.083,381.32,415.765,415.765,707.264,707.264,707.264
0.000934417	-306609.34	0,4.2044e-05,9.1225e-05,0.000148754,0.000216049,0.000294768,0.000386849,0.00049456,0.000620556,0.000767939,0.000940341,0.00114201,0.00137791,0.00165385,0.00197664,0.00235421,0.00279589,0.00331253,0.00391688,0.00462381,0.00545075,0.00641805,0.00754956,0.00887314,0.0104214,0.0122325,0.014351,0.0168291,0.0197279,0.0231187,0.0270852,0.031725,inf	209.859,209.859,75.4553,163.662,197.27,187.022,183.404,195.818,218.869,249.881,291.934,348.472,418.755,495.343,563.989,607.869,616.41,591.556,546.006,496.675,455.267,425.058,405.359,394.73,387.213,378.342,375.239,416.515,416.515,831.482,831.482,831.482
0.000990696	-306567.99	0,4.2044e-05,9.1225e-05,0.000148754,0.000216049,0.000294768,0.000386849,0.00049456,0.000620556,0.000767939,0.000940341,0.00114201,0.00137791,0.00165385,0.00197664,0.00235421,0.00279589,0.00331253,0.00391688,0.00462381,0.00545075,0.00641805,0.00754956,0.00887314,0.0104214,0.0122325,0.014351,0.0168291,0.0197279,0.0231187,0.0270852,0.031725,inf	209.638,209.638,68.6748,169.886,207.072,190.848,183.661,194.49,216.283,246.12,287.581,344.534,416.493,496.043,568.605,616.262,626.579,600.234,550.678,497.004,452.453,420.656,400.716,390.566,383.085,373.416,369.926,417.335,417.335,1007.89,1007.89,1007.89
0.00104513	-306532.63	0,4.2044e-05,9.1225e-05,0.000148754,0.000216049,0.000294768,0.000386849,0.00049456,0.000620556,0.000767939,0.000940341,0.00114201,0.00137791,0.00165385,0.00197664,0.00235421,0.00279589,0.00331253,0.00391688,0.00462381,0.00545075,0.00641805,0.00754956,0.00887314,0.0104214,0.0122325,0.014351,0.0168291,0.0197279,0.0231187,0.0270852,0.031725,inf	206.893,206.893,62.6816,176.218,217.099,195.263,185.07,194.614,215.266,243.938,284.653,341.614,414.522,495.993,571.291,621.769,633.486,605.916,553.074,495.93,449.032,416.277,396.538,387.086,379.728,369.321,365.383,418.367,418.367,1308.43,1308.43,1308.43
0.00109794	-306501.61	0,4.2044e-05,9.1225e-05,0.000148754,0.000216049,0.000294768,0.000386849,0.00049456,0.000620556,0.000767939,0.000940341,0.00114201,0.00137791,0.00165385,0.00197664,0.00235421,0.00279589,0.00331253,0.00391688,0.00462381,0.00545075,0.00641805,0.00754956,0.00887314,0.0104214,0.0122325,0.014351,0.0168291,0.0197279,0.0231187,0.0270852,0.031725,inf	202.791,202.791,57.2412,182.187,226.737,199.707,187.029,195.561,215.21,242.788,282.714,339.464,412.87,495.575,572.789,625.385,638.198,609.586,554.006,494.064,445.417,412.164,392.925,384.297,377.103,365.988,361.547,419.688,419.688,2122.75,2122.75,2122.75
0.00114926	-306474.01	0,4.2044e-05,9.1225e-05,0.000148754,0.000216049,0.000294768,0.000386849,0.00049456,0.000620556,0.000767939,0.000940341,0.00114201,0.00137791,0.00165385,0.00197664,0.00235421,0.00279589,0.00331253,0.00391688,0.00462381,0.00545075,0.00641805,0.00754956,0.00887314,0.0104214,0.0122325,0.014351,0.0168291,0.0197279,0.0231187,0.0270852,0.031725,inf	198.182,198.182,52.2848,187.649,235.726,203.92,189.22,196.976,215.758,242.331,281.476,337.897,411.514,494.987,573.536,627.726,641.39,611.871,553.98,491.763,441.824,408.413,389.878,382.143,375.124,363.316,358.321,421.359,421.359,10215,10215,10215
0.00114926	-306449.18	0,4.2044e-05,9.1225e-05,0.000148754,0.000216049,0.000294768,0.000386849,0.00049456,0.000620556,0.000767939,0.000940341,0.00114201,0.00137791,0.00165385,0.00197664,0.00235421,0.00279589,0.00331253,0.00391688,0.00462381,0.00545075,0.00641805,0.00754956,0.00887314,0.0104214,0.0122325,0.014351,0.0168291,0.0197279,0.0231187,0.0270852,0.031725,inf	191.196,191.196,47.2167,190.216,240.899,205.202,189.102,196.193,214.01,239.363,277.302,332.657,405.416,488.405,567.235,622.643,637.66,608.355,549.468,486.134,435.764,402.725,385.255,378.623,371.956,359.679,354.342,422.041,422.041,83596.4,83596.4,83596.4
0.00114926	-306449.36	0,4.2044e-05,9.1225e-05,0.000148754,0.000216049,0.000294768,0.000386849,0.00049456,0.000620556,0.000767939,0.000940341,0.00114201,0.00137791,0.00165385,0.00197664,0.00235421,0.00279589,0.00331253,0.00391688,0.00462381,0.00545075,0.00641805,0.00754956,0.00887314,0.0104214,0.0122325,0.014351,0.0168291,0.0197279,0.0231187,0.0270852,0.031725,inf	187.271,187.271,42.6488,192.877,246.059,205.202,189.102,196.193,213.773,238.132,275.093,329.638,401.807,484.547,563.78,620.375,636.58,607.233,547.053,482.269,431.241,398.441,381.896,376.175,369.73,356.87,351.061,423.212,423.212,83601,83601,83601
0.00114926	-306449.75	0,4.2044e-05,9.1225e-05,0.000148754,0.000216049,0.000294768,0.000386849,0.00049456,0.000620556,0.000767939,0.000940341,0.00114201,0.00137791,0.00165385,0.00197664,0.00235421,0.00279589,0.00331253,0.00391688,0.00462381,0.00545075,0.00641805,0.00754956,0.00887314,0.0104214,0.0122325,0.014351,0.0168291,0.0197279,0.0231187,0.0270852,0.031725,inf	184.874,184.874,38.4598,195.254,249.329,205.202,189.102,196.193,213.773,237.734,273.859,327.746,399.482,482.105,561.815,619.595,636.925,607.429,545.788,479.494,427.759,395.057,379.312,374.435,368.135,354.623,348.257,424.688,424.688,83603.9,83603.9,83603.9
0.00114926	-306450.07	0,4.2044e-05,9.1225e-05,0.000148754,0.000216049,0.000294768,0.000386849,0.00049456,0.000620556,0.000767939,0.000940341,0.00114201,0.00137791,0.00165385,0.00197664,0.00235421,0.00279589,0.00331253,0.00391688,0.00462381,0.00545075,0.00641805,0.00754956,0.00887314,0.0104214,0.0122325,0.014351,0.0168291,0.0197279,0.0231187,0.0270852,0.031725,inf	183.462,183.462,34.6524,197.458,252.082,205.202,189.102,196.193,213.773,237.734,273.155,326.468,397.853,480.424,560.642,619.603,638.037,608.354,545.215,477.412,424.856,392.268,377.27,373.181,366.979,352.773,345.792,426.393,426.393,83605.6,83605.6,83605.6
0.00114926	-306450.30	0,4.2044e-05,9.1225e-05,0.000148754,0.000216049,0.000294768,0.000386849,0.00049456,0.000620556,0.000767939,0.000940341,0.00114201,0.00137791,0.00165385,0.00197664,0.00235421,0.00279589,0.00331253,0.00391688,0.00462381,0.00545075,0.00641805,0.00754956,0.00887314,0.0104214,0.0122325,0.014351,0.0168291,0.0197279,0.0231187,0.0270852,0.031725,inf	182.577,182.577,31.1894,199.451,253.771,205.202,189.102,196.193,213.773,237.734,272.74,325.527,396.605,479.152,559.884,620.018,639.555,608.98,545.047,475.7,422.37,389.887,375.611,372.277,366.144,351.215,343.577,428.276,428.276,83606.6,83606.6,83606.6
0.00114926	-306450.48	0,4.2044e-05,9.1225e-05,0.000148754,0.000216049,0.000294768,0.000386849,0.00049456,0.000620556,0.000767939,0.000940341,0.00114201,0.00137791,0.00165385,0.00197664,0.00235421,0.00279589,0.00331253,0.00391688,0.00462381,0.00545075,0.00641805,0.00754956,0.00887314,0.0104214,0.0122325,0.014351,0.0168291,0.0197279,0.0231187,0.0270852,0.031725,inf	182.078,182.078,28.061,201.34,254.947,205.202,189.102,196.193,213.773,237.734,272.515,324.805,395.597,478.131,559.374,620.676,640.96,608.98,545.047,474.279,420.194,387.819,374.249,371.644,365.558,349.886,341.559,430.309,430.309,83607.2,83607.2,83607.2
0.00114926	-306450.64	0,4.2044e-05,9.1225e-05,0.000148754,0.000216049,0.000294768,0.000386849,0.00049456,0.000620556,0.000767939,0.000940341,0.00114201,0.00137791,0.00165385,0.00197664,0.00235421,0.00279589,0.00331253,0.00391688,0.00462381,0.00545075,0.00641805,0.00754956,0.00887314,0.0104214,0.0122325,0.014351,0.0168291,0.0197279,0.0231187,0.0270852,0.031725,inf	181.778,181.778,25.2391,203.152,255.904,205.202,189.102,196.193,213.773,237.734,272.425,324.238,394.761,477.289,559.041,621.513,641.753,608.98,545.047,473.104,418.279,386.014,373.134,371.236,365.178,348.744,339.703,432.472,432.472,83607.3,83607.3,83607.3
0.00114926	-306450.77	0,4.2044e-05,9.1225e-05,0.000148754,0.000216049,0.000294768,0.000386849,0.00049456,0.000620556,0.000767939,0.000940341,0.00114201,0.00137791,0.00165385,0.00197664,0.00235421,0.00279589,0.00331253,0.00391688,0.00462381,0.00545075,0.00641805,0.00754956,0.00887314,0.0104214,0.0122325,0.014351,0.0168291,0.0197279,0.0231187,0.0270852,0.031725,inf	181.596,181.596,22.6934,204.881,256.523,205.202,189.102,196.193,213.773,237.734,272.425,323.786,394.054,476.584,558.845,622.497,642.08,608.98,545.047,472.14,416.586,384.431,372.225,371.014,364.967,347.757,337.981,434.462,434.462,83607.3,83607.3,83607.3
0.00114926	-306450.89	0,4.2044e-05,9.1225e-05,0.000148754,0.000216049,0.000294768,0.000386849,0.00049456,0.000620556,0.000767939,0.000940341,0.00114201,0.00137791,0.00165385,0.00197664,0.00235421,0.00279589,0.00331253,0.00391688,0.00462381,0.00545075,0.00641805,0.00754956,0.00887314,0.0104214,0.0122325,0.014351,0.0168291,0.0197279,0.0231187,0.0270852,0.031725,inf	181.488,181.488,20.3996,206.55,256.895,205.202,189.102,196.193,213.773,237.734,272.425,323.419,393.442,475.981,558.756,623.593,642.08,608.98,545.047,471.357,415.084,383.037,371.49,370.945,364.896,346.896,336.373,436.162,436.162,83607.3,83607.3,83607.3
0.00114926	-306450.99	0,4.2044e-05,9.1225e-05,0.000148754,0.000216049,0.000294768,0.000386849,0.00049456,0.000620556,0.000767939,0.000940341,0.00114201,0.00137791,0.00165385,0.00197664,0.00235421,0.00279589,0.00331253,0.00391688,0.00462381,0.00545075,0.00641805,0.00754956,0.00887314,0.0104214,0.0122325,0.014351,0.0168291,0.0197279,0.0231187,0.0270852,0.031725,inf	181.418,181.418,18.3343,206.55,258.525,205.202,189.102,196.193,213.773,237.734,272.425,323.12,392.906,475.458,558.749,624.458,642.095,608.98,545.047,470.727,413.742,381.8,370.9,371.004,364.94,346.141,334.86,437.621,437.621,83607.3,83607.3,83607.3
0.00114926	-306451.08	0,4.2044e-05,9.1225e-05,0.000148754,0.000216049,0.000294768,0.000386849,0.00049456,0.000620556,0.000767939,0.000940341,0.00114201,0.00137791,0.00165385,0.00197664,0.00235421,0.00279589,0.00331253,0.00391688,0.00462381,0.00545075,0.00641805,0.00754956,0.00887314,0.0104214,0.0122325,0.014351,0.0168291,0.0197279,0.0231187,0.0270852,0.031725,inf	181.418,181.418,16.4789,208.138,258.525,205.209,189.102,196.193,213.773,237.734,272.425,322.872,392.431,475,558.81,625.169,642.095,608.98,545.047,470.229,412.537,380.698,370.428,371.168,365.08,345.474,333.425,438.879,438.879,83607.3,83607.3,83607.3
