LogLikelihood = -665988.47167787561193

y0 0.14525026415404396207
y0_prime 0
y1 0.22429475444116189764
y1_prime 0
y2 2.4163639307406112877
y2_prime 0
y3 25.24625797111906067
y3_prime 0
rho 0.0012021762662806077023
theta 0.0018276811228252636855
