AIC = 261980.81159073326853

y0 0.34485693355812524485
y0_prime 0
y1 0.35969127826932711933
y1_prime 0
y2 2.1034198363403131538
y2_prime 0
y3 9.8326069170266290342
y3_prime 0
rho 0.012532106379486263048
rho.alpha 0.57501566703457074325
r_ii 0.99996915587336276943
theta 0.0017949390639891875995
