LogLikelihood = -130985.55872189128422

y0 0.14423002358417330582
y0_prime 0
y1 0.23269906512687643652
y1_prime 0
y2 2.2472387931183757104
y2_prime 0
y3 36.668494238271229335
y3_prime 0
rho 0.0012526480793171742255
theta 0.0017949390639891875995
