time_index	left_time_boundary	right_time_boundary	lambda
0	0	6.10617e-06	202.379
1	6.10617e-06	1.63918e-05	202.379
2	1.63918e-05	3.37174e-05	141.005
3	3.37174e-05	6.29016e-05	162.24
4	6.29016e-05	0.000112061	176.176
5	0.000112061	0.000194868	151.266
6	0.000194868	0.000334353	142.154
7	0.000334353	0.000569308	176.205
8	0.000569308	0.000965081	246.853
9	0.000965081	0.00163174	340.971
10	0.00163174	0.0027547	583.517
11	0.0027547	0.00464628	591.468
12	0.00464628	0.00783256	537.21
13	0.00783256	0.0131997	471.741
14	0.0131997	0.0222404	471.741
15	0.0222404	inf	471.741
