time_index	left_time_boundary	right_time_boundary	lambda
0	0	1.63885e-06	3654.49
1	1.63885e-06	3.79763e-06	3654.49
2	3.79763e-06	6.64128e-06	2263.88
3	6.64128e-06	1.03871e-05	551.927
4	1.03871e-05	1.53212e-05	1073.62
5	1.53212e-05	2.18207e-05	971.567
6	2.18207e-05	3.03821e-05	672.329
7	3.03821e-05	4.16597e-05	203.28
8	4.16597e-05	5.6515e-05	70.1796
9	5.6515e-05	7.60831e-05	65.1154
10	7.60831e-05	0.000101859	144.304
11	0.000101859	0.000135813	235.769
12	0.000135813	0.000180538	228.38
13	0.000180538	0.000239452	222.513
14	0.000239452	0.000317057	223.778
15	0.000317057	0.000419282	219.095
16	0.000419282	0.000553937	268.062
17	0.000553937	0.000731312	298.043
18	0.000731312	0.000964959	294.393
19	0.000964959	0.00127273	293.26
20	0.00127273	0.00167814	322.777
21	0.00167814	0.00221217	386.247
22	0.00221217	0.00291561	463.038
23	0.00291561	0.00384223	520.208
24	0.00384223	0.0050628	534.459
25	0.0050628	0.00667061	498.481
26	0.00667061	0.00878849	389.42
27	0.00878849	0.0115783	262.529
28	0.0115783	0.0152531	262.529
29	0.0152531	0.0200938	325.989
30	0.0200938	0.0264701	325.989
31	0.0264701	inf	325.989
