time_index	left_time_boundary	right_time_boundary	lambda
0	0	6.07616e-06	30.7861
1	6.07616e-06	1.63112e-05	30.7861
2	1.63112e-05	3.35516e-05	845.765
3	3.35516e-05	6.25924e-05	425.081
4	6.25924e-05	0.00011151	428.444
5	0.00011151	0.00019391	534.854
6	0.00019391	0.000332709	409.959
7	0.000332709	0.00056651	549.306
8	0.00056651	0.000960337	309.273
9	0.000960337	0.00162372	443.161
10	0.00162372	0.00274116	413.604
11	0.00274116	0.00462344	527.431
12	0.00462344	0.00779406	824.225
13	0.00779406	0.0131348	325.838
14	0.0131348	0.0221311	325.838
15	0.0221311	inf	325.838
