LogLikelihood = -841156.14740220620297

y0 0.44350005444232698526
y0_prime 0
y1 1.1296237769518138183
y1_prime 0
y2 0.7172058915429935233
y2_prime 0
y3 1.6383606705650028967
y3_prime 0
rho 0.0019585693105463510694
rho.alpha 0.15697297107356633639
r_ii 0.99986874863892705179
theta 0.0024768083599107336423
