0.00056559	-8373781.63	0,2.87129e-06,6.66318e-06,1.16708e-05,1.8284e-05,2.70176e-05,3.85513e-05,5.3783e-05,7.38982e-05,0.000100463,0.000135545,0.000181875,0.000243059,0.00032386,0.000430568,0.000571489,0.000757592,0.00100336,0.00132793,0.00175657,0.00232264,0.0030702,0.00405744,0.00536121,0.007083,0.00935684,0.0123597,0.0163254,0.0215625,0.0284788,inf	392.343,392.343,392.343,392.343,392.343,392.343,392.343,392.343,392.343,392.343,392.343,392.343,392.343,392.343,392.343,392.343,392.343,392.343,392.343,392.343,392.343,392.343,392.343,392.343,392.343,392.343,392.343,392.343,392.343,392.343
0.000514227	-8372197.08	0,2.87129e-06,6.66318e-06,1.16708e-05,1.8284e-05,2.70176e-05,3.85513e-05,5.3783e-05,7.38982e-05,0.000100463,0.000135545,0.000181875,0.000243059,0.00032386,0.000430568,0.000571489,0.000757592,0.00100336,0.00132793,0.00175657,0.00232264,0.0030702,0.00405744,0.00536121,0.007083,0.00935684,0.0123597,0.0163254,0.0215625,0.0284788,inf	389.704,389.704,389.704,389.704,389.704,389.704,389.704,389.704,389.704,389.704,389.704,389.704,389.704,389.704,389.704,389.704,389.704,389.704,389.704,389.704,389.704,389.704,389.704,389.704,389.704,389.704,389.704,389.704,389.704,389.704
0.000470998	-8370943.47	0,2.87129e-06,6.66318e-06,1.16708e-05,1.8284e-05,2.70176e-05,3.85513e-05,5.3783e-05,7.38982e-05,0.000100463,0.000135545,0.000181875,0.000243059,0.00032386,0.000430568,0.000571489,0.000757592,0.00100336,0.00132793,0.00175657,0.00232264,0.0030702,0.00405744,0.00536121,0.007083,0.00935684,0.0123597,0.0163254,0.0215625,0.0284788,inf	388.652,388.652,388.652,388.652,388.652,388.652,388.652,388.652,388.652,388.652,388.652,388.652,388.652,388.652,388.652,388.652,388.652,388.652,388.652,388.652,388.652,388.652,388.652,388.652,388.652,388.652,388.652,388.652,388.652,388.652
0.000434757	-8369966.87	0,2.87129e-06,6.66318e-06,1.16708e-05,1.8284e-05,2.70176e-05,3.85513e-05,5.3783e-05,7.38982e-05,0.000100463,0.000135545,0.000181875,0.000243059,0.00032386,0.000430568,0.000571489,0.000757592,0.00100336,0.00132793,0.00175657,0.00232264,0.0030702,0.00405744,0.00536121,0.007083,0.00935684,0.0123597,0.0163254,0.0215625,0.0284788,inf	388.175,388.175,388.175,388.175,388.175,388.175,388.175,388.175,388.175,388.175,388.175,388.175,388.175,388.175,388.175,388.175,388.175,388.175,388.175,388.175,388.175,388.175,388.175,388.175,388.175,388.175,388.175,388.175,388.175,388.175
0.000404596	-8369228.11	0,2.87129e-06,6.66318e-06,1.16708e-05,1.8284e-05,2.70176e-05,3.85513e-05,5.3783e-05,7.38982e-05,0.000100463,0.000135545,0.000181875,0.000243059,0.00032386,0.000430568,0.000571489,0.000757592,0.00100336,0.00132793,0.00175657,0.00232264,0.0030702,0.00405744,0.00536121,0.007083,0.00935684,0.0123597,0.0163254,0.0215625,0.0284788,inf	387.839,387.839,387.839,387.839,387.839,387.839,387.839,387.839,387.839,387.839,387.839,387.839,387.839,387.839,387.839,387.839,387.839,387.839,387.839,387.839,387.839,387.839,387.839,387.839,387.839,387.839,387.839,387.839,387.839,387.839
0.000379701	-8368687.25	0,2.87129e-06,6.66318e-06,1.16708e-05,1.8284e-05,2.70176e-05,3.85513e-05,5.3783e-05,7.38982e-05,0.000100463,0.000135545,0.000181875,0.000243059,0.00032386,0.000430568,0.000571489,0.000757592,0.00100336,0.00132793,0.00175657,0.00232264,0.0030702,0.00405744,0.00536121,0.007083,0.00935684,0.0123597,0.0163254,0.0215625,0.0284788,inf	387.489,387.489,387.489,387.489,387.489,387.489,387.489,387.489,387.489,387.489,387.489,387.489,387.489,387.489,387.489,387.489,387.489,387.489,387.489,387.489,387.489,387.489,387.489,387.489,387.489,387.489,387.489,387.489,387.489,387.489
0.000359316	-8368304.26	0,2.87129e-06,6.66318e-06,1.16708e-05,1.8284e-05,2.70176e-05,3.85513e-05,5.3783e-05,7.38982e-05,0.000100463,0.000135545,0.000181875,0.000243059,0.00032386,0.000430568,0.000571489,0.000757592,0.00100336,0.00132793,0.00175657,0.00232264,0.0030702,0.00405744,0.00536121,0.007083,0.00935684,0.0123597,0.0163254,0.0215625,0.0284788,inf	387.091,387.091,387.091,387.091,387.091,387.091,387.091,387.091,387.091,387.091,387.091,387.091,387.091,387.091,387.091,387.091,387.091,387.091,387.091,387.091,387.091,387.091,387.091,387.091,387.091,387.091,387.091,387.091,387.091,387.091
0.000342747	-8368042.00	0,2.87129e-06,6.66318e-06,1.16708e-05,1.8284e-05,2.70176e-05,3.85513e-05,5.3783e-05,7.38982e-05,0.000100463,0.000135545,0.000181875,0.000243059,0.00032386,0.000430568,0.000571489,0.000757592,0.00100336,0.00132793,0.00175657,0.00232264,0.0030702,0.00405744,0.00536121,0.007083,0.00935684,0.0123597,0.0163254,0.0215625,0.0284788,inf	386.657,386.657,386.657,386.657,386.657,386.657,386.657,386.657,386.657,386.657,386.657,386.657,386.657,386.657,386.657,386.657,386.657,386.657,386.657,386.657,386.657,386.657,386.657,386.657,386.657,386.657,386.657,386.657,386.657,386.657
0.000329364	-8367868.43	0,2.87129e-06,6.66318e-06,1.16708e-05,1.8284e-05,2.70176e-05,3.85513e-05,5.3783e-05,7.38982e-05,0.000100463,0.000135545,0.000181875,0.000243059,0.00032386,0.000430568,0.000571489,0.000757592,0.00100336,0.00132793,0.00175657,0.00232264,0.0030702,0.00405744,0.00536121,0.007083,0.00935684,0.0123597,0.0163254,0.0215625,0.0284788,inf	386.216,386.216,386.216,386.216,386.216,386.216,386.216,386.216,386.216,386.216,386.216,386.216,386.216,386.216,386.216,386.216,386.216,386.216,386.216,386.216,386.216,386.216,386.216,386.216,386.216,386.216,386.216,386.216,386.216,386.216
0.000318614	-8367757.62	0,2.87129e-06,6.66318e-06,1.16708e-05,1.8284e-05,2.70176e-05,3.85513e-05,5.3783e-05,7.38982e-05,0.000100463,0.000135545,0.000181875,0.000243059,0.00032386,0.000430568,0.000571489,0.000757592,0.00100336,0.00132793,0.00175657,0.00232264,0.0030702,0.00405744,0.00536121,0.007083,0.00935684,0.0123597,0.0163254,0.0215625,0.0284788,inf	385.792,385.792,385.792,385.792,385.792,385.792,385.792,385.792,385.792,385.792,385.792,385.792,385.792,385.792,385.792,385.792,385.792,385.792,385.792,385.792,385.792,385.792,385.792,385.792,385.792,385.792,385.792,385.792,385.792,385.792
0.000310016	-8367689.67	0,2.87129e-06,6.66318e-06,1.16708e-05,1.8284e-05,2.70176e-05,3.85513e-05,5.3783e-05,7.38982e-05,0.000100463,0.000135545,0.000181875,0.000243059,0.00032386,0.000430568,0.000571489,0.000757592,0.00100336,0.00132793,0.00175657,0.00232264,0.0030702,0.00405744,0.00536121,0.007083,0.00935684,0.0123597,0.0163254,0.0215625,0.0284788,inf	385.402,385.402,385.402,385.402,385.402,385.402,385.402,385.402,385.402,385.402,385.402,385.402,385.402,385.402,385.402,385.402,385.402,385.402,385.402,385.402,385.402,385.402,385.402,385.402,385.402,385.402,385.402,385.402,385.402,385.402
0.000303167	-8367650.03	0,2.87129e-06,6.66318e-06,1.16708e-05,1.8284e-05,2.70176e-05,3.85513e-05,5.3783e-05,7.38982e-05,0.000100463,0.000135545,0.000181875,0.000243059,0.00032386,0.000430568,0.000571489,0.000757592,0.00100336,0.00132793,0.00175657,0.00232264,0.0030702,0.00405744,0.00536121,0.007083,0.00935684,0.0123597,0.0163254,0.0215625,0.0284788,inf	385.055,385.055,385.055,385.055,385.055,385.055,385.055,385.055,385.055,385.055,385.055,385.055,385.055,385.055,385.055,385.055,385.055,385.055,385.055,385.055,385.055,385.055,385.055,385.055,385.055,385.055,385.055,385.055,385.055,385.055
0.000297725	-8367628.46	0,2.87129e-06,6.66318e-06,1.16708e-05,1.8284e-05,2.70176e-05,3.85513e-05,5.3783e-05,7.38982e-05,0.000100463,0.000135545,0.000181875,0.000243059,0.00032386,0.000430568,0.000571489,0.000757592,0.00100336,0.00132793,0.00175657,0.00232264,0.0030702,0.00405744,0.00536121,0.007083,0.00935684,0.0123597,0.0163254,0.0215625,0.0284788,inf	384.755,384.755,384.755,384.755,384.755,384.755,384.755,384.755,384.755,384.755,384.755,384.755,384.755,384.755,384.755,384.755,384.755,384.755,384.755,384.755,384.755,384.755,384.755,384.755,384.755,384.755,384.755,384.755,384.755,384.755
0.000293413	-8367618.01	0,2.87129e-06,6.66318e-06,1.16708e-05,1.8284e-05,2.70176e-05,3.85513e-05,5.3783e-05,7.38982e-05,0.000100463,0.000135545,0.000181875,0.000243059,0.00032386,0.000430568,0.000571489,0.000757592,0.00100336,0.00132793,0.00175657,0.00232264,0.0030702,0.00405744,0.00536121,0.007083,0.00935684,0.0123597,0.0163254,0.0215625,0.0284788,inf	384.5,384.5,384.5,384.5,384.5,384.5,384.5,384.5,384.5,384.5,384.5,384.5,384.5,384.5,384.5,384.5,384.5,384.5,384.5,384.5,384.5,384.5,384.5,384.5,384.5,384.5,384.5,384.5,384.5,384.5
0.000290003	-8367614.13	0,2.87129e-06,6.66318e-06,1.16708e-05,1.8284e-05,2.70176e-05,3.85513e-05,5.3783e-05,7.38982e-05,0.000100463,0.000135545,0.000181875,0.000243059,0.00032386,0.000430568,0.000571489,0.000757592,0.00100336,0.00132793,0.00175657,0.00232264,0.0030702,0.00405744,0.00536121,0.007083,0.00935684,0.0123597,0.0163254,0.0215625,0.0284788,inf	384.289,384.289,384.289,384.289,384.289,384.289,384.289,384.289,384.289,384.289,384.289,384.289,384.289,384.289,384.289,384.289,384.289,384.289,384.289,384.289,384.289,384.289,384.289,384.289,384.289,384.289,384.289,384.289,384.289,384.289
0.000287317	-8367613.92	0,2.87129e-06,6.66318e-06,1.16708e-05,1.8284e-05,2.70176e-05,3.85513e-05,5.3783e-05,7.38982e-05,0.000100463,0.000135545,0.000181875,0.000243059,0.00032386,0.000430568,0.000571489,0.000757592,0.00100336,0.00132793,0.00175657,0.00232264,0.0030702,0.00405744,0.00536121,0.007083,0.00935684,0.0123597,0.0163254,0.0215625,0.0284788,inf	384.158,384.158,384.158,384.158,384.158,384.158,384.158,384.158,384.158,384.158,384.158,384.158,384.158,384.158,384.158,384.158,384.158,384.158,384.158,384.158,384.158,384.158,384.158,384.158,384.158,384.158,384.158,384.158,384.158,384.158
0.000285195	-8367615.50	0,2.87129e-06,6.66318e-06,1.16708e-05,1.8284e-05,2.70176e-05,3.85513e-05,5.3783e-05,7.38982e-05,0.000100463,0.000135545,0.000181875,0.000243059,0.00032386,0.000430568,0.000571489,0.000757592,0.00100336,0.00132793,0.00175657,0.00232264,0.0030702,0.00405744,0.00536121,0.007083,0.00935684,0.0123597,0.0163254,0.0215625,0.0284788,inf	384.022,384.022,384.022,384.022,384.022,384.022,384.022,384.022,384.022,384.022,384.022,384.022,384.022,384.022,384.022,384.022,384.022,384.022,384.022,384.022,384.022,384.022,384.022,384.022,384.022,384.022,384.022,384.022,384.022,384.022
0.000283521	-8367617.97	0,2.87129e-06,6.66318e-06,1.16708e-05,1.8284e-05,2.70176e-05,3.85513e-05,5.3783e-05,7.38982e-05,0.000100463,0.000135545,0.000181875,0.000243059,0.00032386,0.000430568,0.000571489,0.000757592,0.00100336,0.00132793,0.00175657,0.00232264,0.0030702,0.00405744,0.00536121,0.007083,0.00935684,0.0123597,0.0163254,0.0215625,0.0284788,inf	383.903,383.903,383.903,383.903,383.903,383.903,383.903,383.903,383.903,383.903,383.903,383.903,383.903,383.903,383.903,383.903,383.903,383.903,383.903,383.903,383.903,383.903,383.903,383.903,383.903,383.903,383.903,383.903,383.903,383.903
0.000282202	-8367620.67	0,2.87129e-06,6.66318e-06,1.16708e-05,1.8284e-05,2.70176e-05,3.85513e-05,5.3783e-05,7.38982e-05,0.000100463,0.000135545,0.000181875,0.000243059,0.00032386,0.000430568,0.000571489,0.000757592,0.00100336,0.00132793,0.00175657,0.00232264,0.0030702,0.00405744,0.00536121,0.007083,0.00935684,0.0123597,0.0163254,0.0215625,0.0284788,inf	383.803,383.803,383.803,383.803,383.803,383.803,383.803,383.803,383.803,383.803,383.803,383.803,383.803,383.803,383.803,383.803,383.803,383.803,383.803,383.803,383.803,383.803,383.803,383.803,383.803,383.803,383.803,383.803,383.803,383.803
0.000281164	-8367623.26	0,2.87129e-06,6.66318e-06,1.16708e-05,1.8284e-05,2.70176e-05,3.85513e-05,5.3783e-05,7.38982e-05,0.000100463,0.000135545,0.000181875,0.000243059,0.00032386,0.000430568,0.000571489,0.000757592,0.00100336,0.00132793,0.00175657,0.00232264,0.0030702,0.00405744,0.00536121,0.007083,0.00935684,0.0123597,0.0163254,0.0215625,0.0284788,inf	383.722,383.722,383.722,383.722,383.722,383.722,383.722,383.722,383.722,383.722,383.722,383.722,383.722,383.722,383.722,383.722,383.722,383.722,383.722,383.722,383.722,383.722,383.722,383.722,383.722,383.722,383.722,383.722,383.722,383.722
