time_index	left_time_boundary	right_time_boundary	lambda
0	0	9.75154e-06	762.97
1	9.75154e-06	2.18132e-05	762.97
2	2.18132e-05	3.67324e-05	596.544
3	3.67324e-05	5.51859e-05	479.484
4	5.51859e-05	7.8011e-05	239.565
5	7.8011e-05	0.000106244	508.754
6	0.000106244	0.000141164	490.529
7	0.000141164	0.000184358	368.4
8	0.000184358	0.000237784	291.575
9	0.000237784	0.000303867	334.599
10	0.000303867	0.000385605	420.82
11	0.000385605	0.000486707	400.83
12	0.000486707	0.00061176	323.765
13	0.00061176	0.000766439	306.284
14	0.000766439	0.000957761	396.977
15	0.000957761	0.00119441	432.511
16	0.00119441	0.00148712	394.28
17	0.00148712	0.00184917	368.795
18	0.00184917	0.00229699	382.091
19	0.00229699	0.0028509	386.328
20	0.0028509	0.00353604	391.543
21	0.00353604	0.00438348	386.979
22	0.00438348	0.00543169	385.57
23	0.00543169	0.00672822	387.311
24	0.00672822	0.00833189	398.574
25	0.00833189	0.0103155	446.909
26	0.0103155	0.012769	356.647
27	0.012769	0.0158037	238.791
28	0.0158037	0.0195574	238.791
29	0.0195574	0.0242004	52389.1
30	0.0242004	0.0299432	52389.1
31	0.0299432	inf	52389.1
