LogLikelihood = -165412.80195768308477

y0 0.9994487370062092868
y0_prime 0
y1 1.1503670309226630142
y1_prime 0
y2 0.8485081852452308615
y2_prime 0
y3 1.8310686365441615209
y3_prime 0
rho 0.00016094442082582183099
rho.alpha 0.50411575285476584174
r_ii 0.9999276938036991691
theta 0.0024768216822422428787
