0.000163002	-74716.67	0,8.23945e-06,1.78776e-05,2.91517e-05,4.23397e-05,5.77663e-05,7.58116e-05,9.692e-05,0.000121612,0.000150495,0.000184281,0.000223802,0.000270031,0.000324109,0.000387366,0.00046136,0.000547916,0.000649164,0.000767599,0.000906138,0.00106819,0.00125776,0.0014795,0.00173889,0.0020423,0.00239723,0.00281239,0.00329804,0.00386612,0.00453063,0.00530794,0.00621721,inf	222.046,222.046,442.821,644.616,869.796,1123.64,1411.16,1734.3,2080.43,2406.8,2647.65,2745.5,2683.12,2495.6,2248.35,2001.5,1785.34,1602.92,1447.72,1317.02,1212.46,1134.03,1078.23,1040.15,1015.47,1003.13,1010.78,1097.34,1097.34,1331.47,1331.47,1331.47
0.000210564	-74066.97	0,8.23945e-06,1.78776e-05,2.91517e-05,4.23397e-05,5.77663e-05,7.58116e-05,9.692e-05,0.000121612,0.000150495,0.000184281,0.000223802,0.000270031,0.000324109,0.000387366,0.00046136,0.000547916,0.000649164,0.000767599,0.000906138,0.00106819,0.00125776,0.0014795,0.00173889,0.0020423,0.00239723,0.00281239,0.00329804,0.00386612,0.00453063,0.00530794,0.00621721,inf	32.1013,32.1013,126.504,263.635,467.587,752.055,1130.54,1611.31,2176.24,2746.17,3181.73,3347.59,3202.31,2832.65,2384.54,1970.94,1633.63,1365.99,1151.28,981.308,853.39,762.949,703.033,666.757,648.82,647.328,667.443,764.731,764.731,746.421,746.421,746.421
0.000260688	-73625.14	0,8.23945e-06,1.78776e-05,2.91517e-05,4.23397e-05,5.77663e-05,7.58116e-05,9.692e-05,0.000121612,0.000150495,0.000184281,0.000223802,0.000270031,0.000324109,0.000387366,0.00046136,0.000547916,0.000649164,0.000767599,0.000906138,0.00106819,0.00125776,0.0014795,0.00173889,0.0020423,0.00239723,0.00281239,0.00329804,0.00386612,0.00453063,0.00530794,0.00621721,inf	5.54191,5.54191,42.5772,125.164,286.277,559.421,976.972,1560.38,2290.59,3057.69,3652.93,3864.38,3634.72,3111.31,2512.96,1987.76,1576.78,1261.27,1016.14,829.018,693.393,600.876,541.858,508.047,493.526,495.882,518.761,611.395,611.395,234.068,234.068,234.068
0.000316761	-73284.91	0,8.23945e-06,1.78776e-05,2.91517e-05,4.23397e-05,5.77663e-05,7.58116e-05,9.692e-05,0.000121612,0.000150495,0.000184281,0.000223802,0.000270031,0.000324109,0.000387366,0.00046136,0.000547916,0.000649164,0.000767599,0.000906138,0.00106819,0.00125776,0.0014795,0.00173889,0.0020423,0.00239723,0.00281239,0.00329804,0.00386612,0.00453063,0.00530794,0.00621721,inf	2.06021,2.06021,16.371,66.8131,193.434,449.534,890.766,1556.05,2427.86,3368.34,4101.82,4343.9,4033.82,3383.99,2672.04,2066.13,1601.56,1249.27,978.915,776.172,632.274,536.279,476.648,443.934,431.586,436.657,461.747,549.577,549.577,138.559,138.559,138.559
0.000374262	-73128.23	0,8.23945e-06,1.78776e-05,2.91517e-05,4.23397e-05,5.77663e-05,7.58116e-05,9.692e-05,0.000121612,0.000150495,0.000184281,0.000223802,0.000270031,0.000324109,0.000387366,0.00046136,0.000547916,0.000649164,0.000767599,0.000906138,0.00106819,0.00125776,0.0014795,0.00173889,0.0020423,0.00239723,0.00281239,0.00329804,0.00386612,0.00453063,0.00530794,0.00621721,inf	2.06021,2.06021,7.01519,39.0767,140.467,380.173,836.618,1566.43,2553.5,3634.45,4473.19,4725.28,4342.5,3599.63,2813.37,2157.16,1657.61,1278.18,986.532,768.73,615.665,515.126,454.29,422.861,413.939,424.703,458.584,575.014,575.014,126.276,126.276,126.276
0.000431531	-73009.12	0,8.23945e-06,1.78776e-05,2.91517e-05,4.23397e-05,5.77663e-05,7.58116e-05,9.692e-05,0.000121612,0.000150495,0.000184281,0.000223802,0.000270031,0.000324109,0.000387366,0.00046136,0.000547916,0.000649164,0.000767599,0.000906138,0.00106819,0.00125776,0.0014795,0.00173889,0.0020423,0.00239723,0.00281239,0.00329804,0.00386612,0.00453063,0.00530794,0.00621721,inf	2.06021,2.06021,3.18728,24.6152,107.865,333.636,800.868,1582.23,2661.47,3850.57,4758.64,4995.45,4541.49,3730.15,2900.24,2218.71,1700.98,1304.82,997.859,768.104,607.303,502.771,440.794,410.389,404.405,420.277,462.571,611.542,611.542,124.34,124.34,124.34
0.000488048	-72902.36	0,8.23945e-06,1.78776e-05,2.91517e-05,4.23397e-05,5.77663e-05,7.58116e-05,9.692e-05,0.000121612,0.000150495,0.000184281,0.000223802,0.000270031,0.000324109,0.000387366,0.00046136,0.000547916,0.000649164,0.000767599,0.000906138,0.00106819,0.00125776,0.0014795,0.00173889,0.0020423,0.00239723,0.00281239,0.00329804,0.00386612,0.00453063,0.00530794,0.00621721,inf	2.06021,2.06021,2.06021,16.5708,87.0041,302.448,780.259,1607.34,2765.67,4042.69,4995.95,5200.15,4675.95,3810.8,2954.31,2260.9,1734.05,1326.96,1008.23,768.509,601.004,492.933,429.846,400.125,396.37,416.24,465.329,643.849,643.849,123.964,123.964,123.964
0.000543513	-72810.18	0,8.23945e-06,1.78776e-05,2.91517e-05,4.23397e-05,5.77663e-05,7.58116e-05,9.692e-05,0.000121612,0.000150495,0.000184281,0.000223802,0.000270031,0.000324109,0.000387366,0.00046136,0.000547916,0.000649164,0.000767599,0.000906138,0.00106819,0.00125776,0.0014795,0.00173889,0.0020423,0.00239723,0.00281239,0.00329804,0.00386612,0.00453063,0.00530794,0.00621721,inf	2.06021,2.06021,2.06021,11.8072,73.1071,281.457,770.913,1640.91,2870.37,4222.14,5204.5,5365.57,4773.57,3864.56,2991.39,2293.12,1761.74,1346.7,1018.04,769.409,595.79,484.459,420.27,390.969,388.888,411.843,466.286,670.427,670.427,123.602,123.602,123.602
0.000597755	-72731.17	0,8.23945e-06,1.78776e-05,2.91517e-05,4.23397e-05,5.77663e-05,7.58116e-05,9.692e-05,0.000121612,0.000150495,0.000184281,0.000223802,0.000270031,0.000324109,0.000387366,0.00046136,0.000547916,0.000649164,0.000767599,0.000906138,0.00106819,0.00125776,0.0014795,0.00173889,0.0020423,0.00239723,0.00281239,0.00329804,0.00386612,0.00453063,0.00530794,0.00621721,inf	2.06021,2.06021,2.06021,8.82123,63.4816,267.257,769.486,1680.61,2975.45,4392.36,5392.25,5503.89,4847.69,3902.5,3018.99,2319.91,1786.49,1365.11,1027.54,770.63,591.293,476.919,411.662,382.617,381.821,407.198,465.899,692.13,692.13,123.002,123.002,123.002
0.00065068	-72663.19	0,8.23945e-06,1.78776e-05,2.91517e-05,4.23397e-05,5.77663e-05,7.58116e-05,9.692e-05,0.000121612,0.000150495,0.000184281,0.000223802,0.000270031,0.000324109,0.000387366,0.00046136,0.000547916,0.000649164,0.000767599,0.000906138,0.00106819,0.00125776,0.0014795,0.00173889,0.0020423,0.00239723,0.00281239,0.00329804,0.00386612,0.00453063,0.00530794,0.00621721,inf	2.06021,2.06021,2.06021,6.85456,56.5875,257.673,773.557,1724.33,3079.89,4554.28,5562.86,5621.44,4905.23,3930.14,3040.73,2343.32,1809.32,1382.56,1036.72,771.984,587.253,470.042,403.784,374.906,375.135,402.461,464.612,710.02,710.02,122.161,122.161,122.161
0.000702229	-72604.31	0,8.23945e-06,1.78776e-05,2.91517e-05,4.23397e-05,5.77663e-05,7.58116e-05,9.692e-05,0.000121612,0.000150495,0.000184281,0.000223802,0.000270031,0.000324109,0.000387366,0.00046136,0.000547916,0.000649164,0.000767599,0.000906138,0.00106819,0.00125776,0.0014795,0.00173889,0.0020423,0.00239723,0.00281239,0.00329804,0.00386612,0.00453063,0.00530794,0.00621721,inf	2.06021,2.06021,2.06021,5.50351,51.5011,251.269,781.342,1770.27,3182.46,4707.85,5718.05,5721.65,4949.93,3950.25,3058.23,2364.15,1830.48,1398.99,1045.38,773.208,583.407,463.591,396.44,367.702,368.789,397.731,462.741,724.979,724.979,121.125,121.125,121.125
0.000752405	-72552.94	0,8.23945e-06,1.78776e-05,2.91517e-05,4.23397e-05,5.77663e-05,7.58116e-05,9.692e-05,0.000121612,0.000150495,0.000184281,0.000223802,0.000270031,0.000324109,0.000387366,0.00046136,0.000547916,0.000649164,0.000767599,0.000906138,0.00106819,0.00125776,0.0014795,0.00173889,0.0020423,0.00239723,0.00281239,0.00329804,0.00386612,0.00453063,0.00530794,0.00621721,inf	2.06021,2.06021,2.06021,4.54201,47.6743,247.201,791.889,1817.7,3283.06,4854.08,5860.33,5808.29,4985.4,3965.47,3073.19,2383.4,1850.58,1414.72,1053.64,774.327,579.724,457.507,389.565,360.96,362.788,393.103,460.531,737.768,737.768,119.938,119.938,119.938
0.000801216	-72507.88	0,8.23945e-06,1.78776e-05,2.91517e-05,4.23397e-05,5.77663e-05,7.58116e-05,9.692e-05,0.000121612,0.000150495,0.000184281,0.000223802,0.000270031,0.000324109,0.000387366,0.00046136,0.000547916,0.000649164,0.000767599,0.000906138,0.00106819,0.00125776,0.0014795,0.00173889,0.0020423,0.00239723,0.00281239,0.00329804,0.00386612,0.00453063,0.00530794,0.00621721,inf	2.06021,2.06021,2.06021,3.77775,44.7398,244.836,804.373,1865.8,3381.19,4993.11,5990.84,5883.27,5013.4,3976.9,3086.16,2401.34,1869.67,1429.69,1061.41,775.228,576.095,451.685,383.066,354.609,357.102,388.612,458.13,748.935,748.935,118.64,118.64,118.64
0.000848683	-72468.11	0,8.23945e-06,1.78776e-05,2.91517e-05,4.23397e-05,5.77663e-05,7.58116e-05,9.692e-05,0.000121612,0.000150495,0.000184281,0.000223802,0.000270031,0.000324109,0.000387366,0.00046136,0.000547916,0.000649164,0.000767599,0.000906138,0.00106819,0.00125776,0.0014795,0.00173889,0.0020423,0.00239723,0.00281239,0.00329804,0.00386612,0.00453063,0.00530794,0.00621721,inf	2.06021,2.06021,2.06021,3.20836,42.4577,243.743,818.227,1914.04,3476.61,5125.28,6110.7,5948.28,5035.39,3985.46,3097.61,2418.18,1887.83,1443.91,1068.64,775.85,572.453,446.059,376.879,348.597,351.706,384.281,455.64,758.908,758.908,117.267,117.267,117.267
0.000894839	-72432.83	0,8.23945e-06,1.78776e-05,2.91517e-05,4.23397e-05,5.77663e-05,7.58116e-05,9.692e-05,0.000121612,0.000150495,0.000184281,0.000223802,0.000270031,0.000324109,0.000387366,0.00046136,0.000547916,0.000649164,0.000767599,0.000906138,0.00106819,0.00125776,0.0014795,0.00173889,0.0020423,0.00239723,0.00281239,0.00329804,0.00386612,0.00453063,0.00530794,0.00621721,inf	2.06021,2.06021,2.06021,2.77416,40.6621,243.618,833.049,1962.06,3569.26,5250.96,6220.97,6004.76,5052.54,3991.83,3107.92,2434.11,1905.15,1457.39,1075.31,776.158,568.759,440.583,370.955,342.884,346.576,380.12,453.132,768.015,768.015,115.845,115.845,115.845
0.000939719	-72401.38	0,8.23945e-06,1.78776e-05,2.91517e-05,4.23397e-05,5.77663e-05,7.58116e-05,9.692e-05,0.000121612,0.000150495,0.000184281,0.000223802,0.000270031,0.000324109,0.000387366,0.00046136,0.000547916,0.000649164,0.000767599,0.000906138,0.00106819,0.00125776,0.0014795,0.00173889,0.0020423,0.00239723,0.00281239,0.00329804,0.00386612,0.00453063,0.00530794,0.00621721,inf	2.06021,2.06021,2.06021,2.43626,39.2394,244.239,848.553,2009.64,3659.1,5370.55,6322.57,6053.92,5065.77,3996.54,3117.33,2449.26,1921.68,1470.14,1081.41,776.135,564.985,435.223,365.26,337.435,341.69,376.129,450.65,776.504,776.504,114.399,114.399,114.399
0.000983364	-72373.24	0,8.23945e-06,1.78776e-05,2.91517e-05,4.23397e-05,5.77663e-05,7.58116e-05,9.692e-05,0.000121612,0.000150495,0.000184281,0.000223802,0.000270031,0.000324109,0.000387366,0.00046136,0.000547916,0.000649164,0.000767599,0.000906138,0.00106819,0.00125776,0.0014795,0.00173889,0.0020423,0.00239723,0.00281239,0.00329804,0.00386612,0.00453063,0.00530794,0.00621721,inf	2.06021,2.06021,2.06021,2.16787,38.1053,245.442,864.518,2056.61,3746.19,5484.43,6416.34,6096.77,5075.81,3999.98,3126.07,2463.75,1937.48,1482.19,1086.94,775.774,561.117,429.955,359.761,332.221,337.027,372.305,448.224,784.565,784.565,112.946,112.946,112.946
0.00102581	-72347.94	0,8.23945e-06,1.78776e-05,2.91517e-05,4.23397e-05,5.77663e-05,7.58116e-05,9.692e-05,0.000121612,0.000150495,0.000184281,0.000223802,0.000270031,0.000324109,0.000387366,0.00046136,0.000547916,0.000649164,0.000767599,0.000906138,0.00106819,0.00125776,0.0014795,0.00173889,0.0020423,0.00239723,0.00281239,0.00329804,0.00386612,0.00453063,0.00530794,0.00621721,inf	2.06021,2.06021,2.06021,2.06021,37.1989,247.102,880.789,2102.87,3830.6,5592.97,6503.02,6134.16,5083.27,4002.47,3134.27,2477.65,1952.61,1493.55,1091.91,775.07,557.146,424.762,354.436,327.217,332.565,368.641,445.87,792.341,792.341,111.501,111.501,111.501
0.00106711	-72325.13	0,8.23945e-06,1.78776e-05,2.91517e-05,4.23397e-05,5.77663e-05,7.58116e-05,9.692e-05,0.000121612,0.000150495,0.000184281,0.000223802,0.000270031,0.000324109,0.000387366,0.00046136,0.000547916,0.000649164,0.000767599,0.000906138,0.00106819,0.00125776,0.0014795,0.00173889,0.0020423,0.00239723,0.00281239,0.00329804,0.00386612,0.00453063,0.00530794,0.00621721,inf	2.06021,2.06021,2.06021,2.06021,36.4744,249.122,897.24,2148.35,3912.41,5696.5,6583.26,6166.8,5088.6,4004.24,3142.07,2491.03,1967.1,1504.27,1096.34,774.031,553.065,419.629,349.265,322.4,328.288,365.126,443.596,799.938,799.938,110.076,110.076,110.076
0.00110729	-72304.48	0,8.23945e-06,1.78776e-05,2.91517e-05,4.23397e-05,5.77663e-05,7.58116e-05,9.692e-05,0.000121612,0.000150495,0.000184281,0.000223802,0.000270031,0.000324109,0.000387366,0.00046136,0.000547916,0.000649164,0.000767599,0.000906138,0.00106819,0.00125776,0.0014795,0.00173889,0.0020423,0.00239723,0.00281239,0.00329804,0.00386612,0.00453063,0.00530794,0.00621721,inf	2.06021,2.06021,2.06021,2.06021,35.8967,251.428,913.78,2193.01,3991.72,5795.34,6657.65,6195.31,5092.2,4005.47,3149.54,2503.96,1980.99,1514.35,1100.23,772.659,548.873,414.545,344.228,317.751,324.176,361.75,441.405,807.433,807.433,108.68,108.68,108.68
