AIC = 611043.19296058744658

y0 1.0010118597570996091
y0_prime 0
y1 1.0717659726001023124
y1_prime 0
y2 0.97216462077229504057
y2_prime 0
y3 1.3166179530693891131
y3_prime 0
rho 0.0056200031708593780125
rho.alpha 1.1187216095279071126
r_ii 1
theta 0.0049078253888232793375
