0.000861182	-10686920.55	0,7.77278e-06,2.08657e-05,4.29201e-05,8.00698e-05,0.000142647,0.000248055,0.00042561,0.000724694,0.00122849,0.00207711,0.00350657,0.00591443,0.00997036,0.0168024,0.0283107,inf	7.76276,7.76276,19.5224,37.6676,67.8726,113.439,145.194,158.976,191.895,253.917,406.069,440.366,398.2,375.978,375.978,375.978
0.000924146	-10670605.03	0,7.77278e-06,2.08657e-05,4.29201e-05,8.00698e-05,0.000142647,0.000248055,0.00042561,0.000724694,0.00122849,0.00207711,0.00350657,0.00591443,0.00997036,0.0168024,0.0283107,inf	0.322652,0.322652,2.08674,7.89253,26.0907,73.8852,112.476,117.059,148.57,217.136,438.698,525.462,466.806,425.4,425.4,425.4
0.000974623	-10665624.92	0,7.77278e-06,2.08657e-05,4.29201e-05,8.00698e-05,0.000142647,0.000248055,0.00042561,0.000724694,0.00122849,0.00207711,0.00350657,0.00591443,0.00997036,0.0168024,0.0283107,inf	0.314493,0.314493,0.314494,2.16748,13.1906,62.8265,108.923,103.266,129.434,194.444,446.998,581.573,522.01,460.046,460.046,460.046
0.00101583	-10663636.93	0,7.77278e-06,2.08657e-05,4.29201e-05,8.00698e-05,0.000142647,0.000248055,0.00042561,0.000724694,0.00122849,0.00207711,0.00350657,0.00591443,0.00997036,0.0168024,0.0283107,inf	0.314493,0.314493,0.314493,0.67392,7.53258,59.4237,114.529,99.5049,120.397,179.686,446.109,619.494,567.067,479.394,479.394,479.394
0.00105089	-10662656.90	0,7.77278e-06,2.08657e-05,4.29201e-05,8.00698e-05,0.000142647,0.000248055,0.00042561,0.000724694,0.00122849,0.00207711,0.00350657,0.00591443,0.00997036,0.0168024,0.0283107,inf	0.314493,0.314493,0.314493,0.314493,4.53309,58.2404,122.884,99.8648,116.24,169.597,442.006,645.908,604.468,484.678,484.678,484.678
0.00108181	-10662092.05	0,7.77278e-06,2.08657e-05,4.29201e-05,8.00698e-05,0.000142647,0.000248055,0.00042561,0.000724694,0.00122849,0.00207711,0.00350657,0.00591443,0.00997036,0.0168024,0.0283107,inf	0.314493,0.314493,0.314493,0.314493,2.79556,57.5675,131.35,101.946,114.659,162.412,437.043,664.767,635.917,478.691,478.691,478.691
0.00110984	-10661727.95	0,7.77278e-06,2.08657e-05,4.29201e-05,8.00698e-05,0.000142647,0.000248055,0.00042561,0.000724694,0.00122849,0.00207711,0.00350657,0.00591443,0.00997036,0.0168024,0.0283107,inf	0.314493,0.314493,0.314493,0.314493,1.74998,56.9148,138.832,104.655,114.516,157.127,432.143,678.465,662.576,464.919,464.919,464.919
0.00113575	-10661473.02	0,7.77278e-06,2.08657e-05,4.29201e-05,8.00698e-05,0.000142647,0.000248055,0.00042561,0.000724694,0.00122849,0.00207711,0.00350657,0.00591443,0.00997036,0.0168024,0.0283107,inf	0.314493,0.314493,0.314493,0.314493,1.10907,56.2258,144.98,107.468,115.202,153.138,427.645,688.509,685.262,446.605,446.605,446.605
0.00116004	-10661282.70	0,7.77278e-06,2.08657e-05,4.29201e-05,8.00698e-05,0.000142647,0.000248055,0.00042561,0.000724694,0.00122849,0.00207711,0.00350657,0.00591443,0.00997036,0.0168024,0.0283107,inf	0.314493,0.314493,0.314493,0.314493,0.711732,55.5704,149.808,110.141,116.374,150.065,423.648,695.893,704.578,426.241,426.241,426.241
0.00118304	-10661133.06	0,7.77278e-06,2.08657e-05,4.29201e-05,8.00698e-05,0.000142647,0.000248055,0.00042561,0.000724694,0.00122849,0.00207711,0.00350657,0.00591443,0.00997036,0.0168024,0.0283107,inf	0.314493,0.314493,0.314493,0.314493,0.461226,55.0364,153.483,112.565,117.825,147.658,420.152,701.293,720.994,405.508,405.508,405.508
0.001205	-10661010.30	0,7.77278e-06,2.08657e-05,4.29201e-05,8.00698e-05,0.000142647,0.000248055,0.00042561,0.000724694,0.00122849,0.00207711,0.00350657,0.00591443,0.00997036,0.0168024,0.0283107,inf	0.314493,0.314493,0.314493,0.314493,0.314493,54.6887,156.216,114.703,119.431,145.748,417.12,705.191,734.888,385.426,385.426,385.426
0.0012261	-10660906.07	0,7.77278e-06,2.08657e-05,4.29201e-05,8.00698e-05,0.000142647,0.000248055,0.00042561,0.000724694,0.00122849,0.00207711,0.00350657,0.00591443,0.00997036,0.0168024,0.0283107,inf	0.314493,0.314493,0.314493,0.314493,0.314493,54.5636,158.211,116.557,121.11,144.214,414.502,707.933,746.587,366.556,366.556,366.556
0.00124648	-10660815.09	0,7.77278e-06,2.08657e-05,4.29201e-05,8.00698e-05,0.000142647,0.000248055,0.00042561,0.000724694,0.00122849,0.00207711,0.00350657,0.00591443,0.00997036,0.0168024,0.0283107,inf	0.314493,0.314493,0.314493,0.314493,0.314493,54.6695,159.637,118.142,122.811,142.971,412.247,709.779,756.371,349.166,349.166,349.166
0.00126624	-10660733.87	0,7.77278e-06,2.08657e-05,4.29201e-05,8.00698e-05,0.000142647,0.000248055,0.00042561,0.000724694,0.00122849,0.00207711,0.00350657,0.00591443,0.00997036,0.0168024,0.0283107,inf	0.314493,0.314493,0.314493,0.314493,0.314493,55.009,160.639,119.485,124.5,141.954,410.309,710.923,764.489,333.342,333.342,333.342
0.00128545	-10660660.10	0,7.77278e-06,2.08657e-05,4.29201e-05,8.00698e-05,0.000142647,0.000248055,0.00042561,0.000724694,0.00122849,0.00207711,0.00350657,0.00591443,0.00997036,0.0168024,0.0283107,inf	0.314493,0.314493,0.314493,0.314493,0.314493,55.5722,161.325,120.613,126.155,141.118,408.646,711.515,771.163,319.07,319.07,319.07
0.0013042	-10660592.20	0,7.77278e-06,2.08657e-05,4.29201e-05,8.00698e-05,0.000142647,0.000248055,0.00042561,0.000724694,0.00122849,0.00207711,0.00350657,0.00591443,0.00997036,0.0168024,0.0283107,inf	0.314493,0.314493,0.314493,0.314493,0.314493,56.3442,161.779,121.554,127.762,140.425,407.221,711.671,776.593,306.275,306.275,306.275
0.00132253	-10660529.03	0,7.77278e-06,2.08657e-05,4.29201e-05,8.00698e-05,0.000142647,0.000248055,0.00042561,0.000724694,0.00122849,0.00207711,0.00350657,0.00591443,0.00997036,0.0168024,0.0283107,inf	0.314493,0.314493,0.314493,0.314493,0.314493,57.3061,162.062,122.335,129.312,139.847,406.002,711.479,780.953,294.858,294.858,294.858
0.00134049	-10660469.79	0,7.77278e-06,2.08657e-05,4.29201e-05,8.00698e-05,0.000142647,0.000248055,0.00042561,0.000724694,0.00122849,0.00207711,0.00350657,0.00591443,0.00997036,0.0168024,0.0283107,inf	0.314493,0.314493,0.314493,0.314493,0.314493,58.4374,162.22,122.978,130.8,139.364,404.962,711.012,784.401,284.707,284.707,284.707
0.00135811	-10660413.90	0,7.77278e-06,2.08657e-05,4.29201e-05,8.00698e-05,0.000142647,0.000248055,0.00042561,0.000724694,0.00122849,0.00207711,0.00350657,0.00591443,0.00997036,0.0168024,0.0283107,inf	0.314493,0.314493,0.314493,0.314493,0.314493,59.7179,162.287,123.506,132.224,138.957,404.077,710.325,787.074,275.707,275.707,275.707
0.00137542	-10660360.91	0,7.77278e-06,2.08657e-05,4.29201e-05,8.00698e-05,0.000142647,0.000248055,0.00042561,0.000724694,0.00122849,0.00207711,0.00350657,0.00591443,0.00997036,0.0168024,0.0283107,inf	0.314493,0.314493,0.314493,0.314493,0.314493,61.1295,162.287,123.936,133.583,138.614,403.327,709.461,789.091,267.749,267.749,267.749
