0.000547867	-242123.82	0,6.80406e-05,0.000161141,0.000288533,0.000462844,0.000701357,0.00102772,0.00147428,0.00208532,0.00292142,0.00406546,0.00563087,0.00777285,0.0107037,0.0147141,0.0202016,inf	87.1439,87.1439,175.625,276.431,409.062,571.882,710.193,721.887,657.089,609.459,586.826,572.402,538.754,466.001,466.001,466.001
0.000636923	-241773.69	0,6.80406e-05,0.000161141,0.000288533,0.000462844,0.000701357,0.00102772,0.00147428,0.00208532,0.00292142,0.00406546,0.00563087,0.00777285,0.0107037,0.0147141,0.0202016,inf	20.7174,20.7174,79.4207,180.44,347.241,579.919,798.588,817.467,714.596,642.46,610.729,589.742,531.763,416.62,416.62,416.62
0.000722767	-241605.16	0,6.80406e-05,0.000161141,0.000288533,0.000462844,0.000701357,0.00102772,0.00147428,0.00208532,0.00292142,0.00406546,0.00563087,0.00777285,0.0107037,0.0147141,0.0202016,inf	6.07017,6.07017,42.6049,133.282,313.902,586.396,850.57,864.759,737.877,654.279,620.809,597.977,523.696,383.423,383.423,383.423
0.000805258	-241490.25	0,6.80406e-05,0.000161141,0.000288533,0.000462844,0.000701357,0.00102772,0.00147428,0.00208532,0.00292142,0.00406546,0.00563087,0.00777285,0.0107037,0.0147141,0.0202016,inf	2.05378,2.05378,25.6638,106.738,295.659,595.766,885.902,886.645,742.891,654.582,622.933,600.83,516.087,360.263,360.263,360.263
0.000884913	-241398.68	0,6.80406e-05,0.000161141,0.000288533,0.000462844,0.000701357,0.00102772,0.00147428,0.00208532,0.00292142,0.00406546,0.00563087,0.00777285,0.0107037,0.0147141,0.0202016,inf	0.769258,0.769258,16.8324,90.456,286.22,608.133,912.723,894.938,738.428,648.907,620.655,600.607,509.43,343.568,343.568,343.568
0.000962193	-241320.61	0,6.80406e-05,0.000161141,0.000288533,0.000462844,0.000701357,0.00102772,0.00147428,0.00208532,0.00292142,0.00406546,0.00563087,0.00777285,0.0107037,0.0147141,0.0202016,inf	0.541317,0.541317,11.7823,79.8592,282.25,622.785,934.543,895.708,729.182,640.305,616.041,598.674,503.795,331.21,331.21,331.21
0.00103743	-241251.99	0,6.80406e-05,0.000161141,0.000288533,0.000462844,0.000701357,0.00102772,0.00147428,0.00208532,0.00292142,0.00406546,0.00563087,0.00777285,0.0107037,0.0147141,0.0202016,inf	0.541317,0.541317,8.67929,72.6652,281.838,638.999,952.995,892.183,717.67,630.441,610.279,595.836,499.099,321.866,321.866,321.866
0.00111085	-241190.69	0,6.80406e-05,0.000161141,0.000288533,0.000462844,0.000701357,0.00102772,0.00147428,0.00208532,0.00292142,0.00406546,0.00563087,0.00777285,0.0107037,0.0147141,0.0202016,inf	0.541317,0.541317,6.66093,67.6376,283.823,656.204,968.912,886.155,705.253,620.219,604.052,592.569,495.215,314.676,314.676,314.676
0.00118261	-241135.42	0,6.80406e-05,0.000161141,0.000288533,0.000462844,0.000701357,0.00102772,0.00147428,0.00208532,0.00292142,0.00406546,0.00563087,0.00777285,0.0107037,0.0147141,0.0202016,inf	0.541317,0.541317,5.28617,64.0582,287.469,673.978,982.772,878.66,692.669,610.121,597.747,589.151,492.016,309.061,309.061,309.061
0.00125283	-241085.28	0,6.80406e-05,0.000161141,0.000288533,0.000462844,0.000701357,0.00102772,0.00147428,0.00208532,0.00292142,0.00406546,0.00563087,0.00777285,0.0107037,0.0147141,0.0202016,inf	0.541317,0.541317,4.31341,61.4857,292.288,692.017,994.88,870.319,680.314,600.394,591.578,585.747,489.388,304.62,304.62,304.62
0.00132158	-241039.58	0,6.80406e-05,0.000161141,0.000288533,0.000462844,0.000701357,0.00102772,0.00147428,0.00208532,0.00292142,0.00406546,0.00563087,0.00777285,0.0107037,0.0147141,0.0202016,inf	0.541317,0.541317,3.60293,59.6369,297.947,710.104,1005.46,861.517,668.394,591.153,585.66,582.448,487.233,301.066,301.066,301.066
0.00138893	-240997.79	0,6.80406e-05,0.000161141,0.000288533,0.000462844,0.000701357,0.00102772,0.00147428,0.00208532,0.00292142,0.00406546,0.00563087,0.00777285,0.0107037,0.0147141,0.0202016,inf	0.541317,0.541317,3.06971,58.3226,304.211,728.087,1014.68,852.498,657.007,582.443,580.046,579.304,485.469,298.19,298.19,298.19
0.00145492	-240959.44	0,6.80406e-05,0.000161141,0.000288533,0.000462844,0.000701357,0.00102772,0.00147428,0.00208532,0.00292142,0.00406546,0.00563087,0.00777285,0.0107037,0.0147141,0.0202016,inf	0.541317,0.541317,2.6602,57.4123,310.914,745.859,1022.69,843.42,646.189,574.265,574.756,576.34,484.029,295.837,295.837,295.837
0.00151961	-240924.16	0,6.80406e-05,0.000161141,0.000288533,0.000462844,0.000701357,0.00102772,0.00147428,0.00208532,0.00292142,0.00406546,0.00563087,0.00777285,0.0107037,0.0147141,0.0202016,inf	0.541317,0.541317,2.33941,56.8137,317.934,763.346,1029.62,834.387,635.943,566.601,569.792,573.564,482.857,293.891,293.891,293.891
0.00158302	-240891.61	0,6.80406e-05,0.000161141,0.000288533,0.000462844,0.000701357,0.00102772,0.00147428,0.00208532,0.00292142,0.00406546,0.00563087,0.00777285,0.0107037,0.0147141,0.0202016,inf	0.541317,0.541317,2.08369,56.4597,325.179,780.498,1035.57,825.468,626.252,559.422,565.142,570.974,481.908,292.264,292.264,292.264
0.00164519	-240861.53	0,6.80406e-05,0.000161141,0.000288533,0.000462844,0.000701357,0.00102772,0.00147428,0.00208532,0.00292142,0.00406546,0.00563087,0.00777285,0.0107037,0.0147141,0.0202016,inf	0.541317,0.541317,1.87672,56.3006,332.583,797.282,1040.65,816.707,617.088,552.692,560.788,568.566,481.145,290.887,290.887,290.887
0.00170614	-240833.65	0,6.80406e-05,0.000161141,0.000288533,0.000462844,0.000701357,0.00102772,0.00147428,0.00208532,0.00292142,0.00406546,0.00563087,0.00777285,0.0107037,0.0147141,0.0202016,inf	0.541317,0.541317,1.70696,56.2988,340.094,813.677,1044.95,808.132,608.421,546.378,556.712,566.329,480.536,289.706,289.706,289.706
0.00176592	-240807.77	0,6.80406e-05,0.000161141,0.000288533,0.000462844,0.000701357,0.00102772,0.00147428,0.00208532,0.00292142,0.00406546,0.00563087,0.00777285,0.0107037,0.0147141,0.0202016,inf	0.541317,0.541317,1.566,56.4254,347.671,829.67,1048.54,799.762,600.218,540.444,552.895,564.255,480.057,288.681,288.681,288.681
0.00182455	-240783.70	0,6.80406e-05,0.000161141,0.000288533,0.000462844,0.000701357,0.00102772,0.00147428,0.00208532,0.00292142,0.00406546,0.00563087,0.00777285,0.0107037,0.0147141,0.0202016,inf	0.541317,0.541317,1.44772,56.6579,355.285,845.256,1051.5,791.607,592.446,534.859,549.316,562.333,479.686,287.778,287.778,287.778
0.00188205	-240761.26	0,6.80406e-05,0.000161141,0.000288533,0.000462844,0.000701357,0.00102772,0.00147428,0.00208532,0.00292142,0.00406546,0.00563087,0.00777285,0.0107037,0.0147141,0.0202016,inf	0.541317,0.541317,1.34749,56.9782,362.911,860.435,1053.89,783.671,585.074,529.594,545.957,560.551,479.408,286.971,286.971,286.971
