0.000908536	-6003226.54	0,1.38148e-05,3.61952e-05,7.24522e-05,0.00013119,0.000226346,0.000380503,0.000630241,0.00103483,0.00169027,0.0027521,0.0044723,0.00725908,0.0117738,0.0190877,0.0309364,inf	5.77224,5.77224,13.9803,26.1031,45.3798,75.1921,118.194,169.781,225.617,326.5,450.223,408.059,371.294,356.562,356.562,356.562
0.000983368	-5991910.88	0,1.38148e-05,3.61952e-05,7.24522e-05,0.00013119,0.000226346,0.000380503,0.000630241,0.00103483,0.00169027,0.0027521,0.0044723,0.00725908,0.0117738,0.0190877,0.0309364,inf	0.299211,0.299211,1.05352,3.68903,11.1756,30.3761,71.4825,129.482,188.94,314.635,540.429,490.186,430.261,405.531,405.531,405.531
0.00104629	-5988493.93	0,1.38148e-05,3.61952e-05,7.24522e-05,0.00013119,0.000226346,0.000380503,0.000630241,0.00103483,0.00169027,0.0027521,0.0044723,0.00725908,0.0117738,0.0190877,0.0309364,inf	0.299211,0.299211,0.299211,0.688268,3.61292,15.9261,54.288,114.975,168.975,298.071,591.957,549.399,476.569,443.856,443.856,443.856
0.00109904	-5987176.51	0,1.38148e-05,3.61952e-05,7.24522e-05,0.00013119,0.000226346,0.000380503,0.000630241,0.00103483,0.00169027,0.0027521,0.0044723,0.00725908,0.0117738,0.0190877,0.0309364,inf	0.299211,0.299211,0.299211,0.299211,1.38137,9.77741,47.1063,111.251,157.469,283.564,621.686,592.139,512.608,471.089,471.089,471.089
0.00114442	-5986558.10	0,1.38148e-05,3.61952e-05,7.24522e-05,0.00013119,0.000226346,0.000380503,0.000630241,0.00103483,0.00169027,0.0027521,0.0044723,0.00725908,0.0117738,0.0190877,0.0309364,inf	0.299211,0.299211,0.299211,0.299211,0.584539,6.5907,44.0752,112.827,150.56,271.83,638.963,623.373,540.57,487.904,487.904,487.904
0.00118466	-5986209.26	0,1.38148e-05,3.61952e-05,7.24522e-05,0.00013119,0.000226346,0.000380503,0.000630241,0.00103483,0.00169027,0.0027521,0.0044723,0.00725908,0.0117738,0.0190877,0.0309364,inf	0.299211,0.299211,0.299211,0.299211,0.299211,4.68545,42.9071,117.122,146.186,262.319,649.016,646.571,562.235,495.924,495.924,495.924
0.00122134	-5985977.46	0,1.38148e-05,3.61952e-05,7.24522e-05,0.00013119,0.000226346,0.000380503,0.000630241,0.00103483,0.00169027,0.0027521,0.0044723,0.00725908,0.0117738,0.0190877,0.0309364,inf	0.299211,0.299211,0.299211,0.299211,0.299211,3.43297,42.5931,122.83,143.288,254.526,654.762,664.046,578.959,497.238,497.238,497.238
0.00125551	-5985803.74	0,1.38148e-05,3.61952e-05,7.24522e-05,0.00013119,0.000226346,0.000380503,0.000630241,0.00103483,0.00169027,0.0027521,0.0044723,0.00725908,0.0117738,0.0190877,0.0309364,inf	0.299211,0.299211,0.299211,0.299211,0.299211,2.55874,42.6357,129.204,141.275,248.045,657.897,677.36,591.779,493.924,493.924,493.924
0.00128787	-5985662.57	0,1.38148e-05,3.61952e-05,7.24522e-05,0.00013119,0.000226346,0.000380503,0.000630241,0.00103483,0.00169027,0.0027521,0.0044723,0.00725908,0.0117738,0.0190877,0.0309364,inf	0.299211,0.299211,0.299211,0.299211,0.299211,1.92676,42.7871,135.808,139.803,242.58,659.43,687.582,601.497,487.729,487.729,487.729
0.00131889	-5985541.99	0,1.38148e-05,3.61952e-05,7.24522e-05,0.00013119,0.000226346,0.000380503,0.000630241,0.00103483,0.00169027,0.0027521,0.0044723,0.00725908,0.0117738,0.0190877,0.0309364,inf	0.299211,0.299211,0.299211,0.299211,0.299211,1.46074,42.9276,142.381,138.673,237.917,659.976,695.458,608.738,479.959,479.959,479.959
0.00134888	-5985435.70	0,1.38148e-05,3.61952e-05,7.24522e-05,0.00013119,0.000226346,0.000380503,0.000630241,0.00103483,0.00169027,0.0027521,0.0044723,0.00725908,0.0117738,0.0190877,0.0309364,inf	0.299211,0.299211,0.299211,0.299211,0.299211,1.11321,43.0075,148.775,137.764,233.898,659.915,701.521,613.993,471.514,471.514,471.514
0.00137806	-5985340.05	0,1.38148e-05,3.61952e-05,7.24522e-05,0.00013119,0.000226346,0.000380503,0.000630241,0.00103483,0.00169027,0.0027521,0.0044723,0.00725908,0.0117738,0.0190877,0.0309364,inf	0.299211,0.299211,0.299211,0.299211,0.299211,0.852362,43.0143,154.911,137.004,230.405,659.487,706.156,617.657,462.976,462.976,462.976
0.00140657	-5985252.74	0,1.38148e-05,3.61952e-05,7.24522e-05,0.00013119,0.000226346,0.000380503,0.000630241,0.00103483,0.00169027,0.0027521,0.0044723,0.00725908,0.0117738,0.0190877,0.0309364,inf	0.299211,0.299211,0.299211,0.299211,0.299211,0.655679,42.9542,160.751,136.346,227.349,658.84,709.65,620.046,454.699,454.699,454.699
0.00143451	-5985172.19	0,1.38148e-05,3.61952e-05,7.24522e-05,0.00013119,0.000226346,0.000380503,0.000630241,0.00103483,0.00169027,0.0027521,0.0044723,0.00725908,0.0117738,0.0190877,0.0309364,inf	0.299211,0.299211,0.299211,0.299211,0.299211,0.505745,42.8419,166.283,135.762,224.659,658.071,712.222,621.415,446.883,446.883,446.883
0.00146195	-5985097.26	0,1.38148e-05,3.61952e-05,7.24522e-05,0.00013119,0.000226346,0.000380503,0.000630241,0.00103483,0.00169027,0.0027521,0.0044723,0.00725908,0.0117738,0.0190877,0.0309364,inf	0.299211,0.299211,0.299211,0.299211,0.299211,0.392187,42.6949,171.511,135.234,222.279,657.239,714.04,621.974,439.631,439.631,439.631
0.00148896	-5985027.14	0,1.38148e-05,3.61952e-05,7.24522e-05,0.00013119,0.000226346,0.000380503,0.000630241,0.00103483,0.00169027,0.0027521,0.0044723,0.00725908,0.0117738,0.0190877,0.0309364,inf	0.299211,0.299211,0.299211,0.299211,0.299211,0.30584,42.5295,176.448,134.747,220.164,656.382,715.234,621.892,432.984,432.984,432.984
0.00151557	-5984961.17	0,1.38148e-05,3.61952e-05,7.24522e-05,0.00013119,0.000226346,0.000380503,0.000630241,0.00103483,0.00169027,0.0027521,0.0044723,0.00725908,0.0117738,0.0190877,0.0309364,inf	0.299211,0.299211,0.299211,0.299211,0.299211,0.299211,42.3608,181.109,134.293,218.277,655.525,715.91,621.309,426.944,426.944,426.944
0.0015418	-5984898.93	0,1.38148e-05,3.61952e-05,7.24522e-05,0.00013119,0.000226346,0.000380503,0.000630241,0.00103483,0.00169027,0.0027521,0.0044723,0.00725908,0.0117738,0.0190877,0.0309364,inf	0.299211,0.299211,0.299211,0.299211,0.299211,0.299211,42.198,185.51,133.864,216.587,654.682,716.153,620.339,421.495,421.495,421.495
0.00156769	-5984839.91	0,1.38148e-05,3.61952e-05,7.24522e-05,0.00013119,0.000226346,0.000380503,0.000630241,0.00103483,0.00169027,0.0027521,0.0044723,0.00725908,0.0117738,0.0190877,0.0309364,inf	0.299211,0.299211,0.299211,0.299211,0.299211,0.299211,42.052,189.668,133.457,215.068,653.862,716.033,619.074,416.606,416.606,416.606
0.00159325	-5984783.79	0,1.38148e-05,3.61952e-05,7.24522e-05,0.00013119,0.000226346,0.000380503,0.000630241,0.00103483,0.00169027,0.0027521,0.0044723,0.00725908,0.0117738,0.0190877,0.0309364,inf	0.299211,0.299211,0.299211,0.299211,0.299211,0.299211,41.9318,193.603,133.067,213.7,653.069,715.606,617.59,412.24,412.24,412.24
