0.000806774	-16180976.22	0,4.88983e-06,1.33744e-05,2.80963e-05,5.3641e-05,9.79646e-05,0.000174873,0.000308319,0.000539868,0.000941638,0.00163877,0.00284839,0.00494725,0.00858908,0.0149082,0.0258727,inf	630.406,630.406,217.519,74.1135,94.3746,155.898,206.761,184.89,178.166,216.674,323.315,463.519,425.484,397.085,397.085,397.085
0.000864863	-16159405.50	0,4.88983e-06,1.33744e-05,2.80963e-05,5.3641e-05,9.79646e-05,0.000174873,0.000308319,0.000539868,0.000941638,0.00163877,0.00284839,0.00494725,0.00858908,0.0149082,0.0258727,inf	837.613,837.613,197.513,30.8652,41.4425,112.744,197.843,152.982,130.731,171.202,302.524,542.767,496.813,446.608,446.608,446.608
0.00091284	-16152619.33	0,4.88983e-06,1.33744e-05,2.80963e-05,5.3641e-05,9.79646e-05,0.000174873,0.000308319,0.000539868,0.000941638,0.00163877,0.00284839,0.00494725,0.00858908,0.0149082,0.0258727,inf	922.044,922.044,194.659,16.444,21.6413,95.2119,215.102,148.194,111.461,148.548,285.061,590.069,550.917,481.269,481.269,481.269
0.000952152	-16149982.15	0,4.88983e-06,1.33744e-05,2.80963e-05,5.3641e-05,9.79646e-05,0.000174873,0.000308319,0.000539868,0.000941638,0.00163877,0.00284839,0.00494725,0.00858908,0.0149082,0.0258727,inf	944.705,944.705,194.48,9.47916,12.1073,84.3892,237.901,151.816,102.718,135.909,271.932,618.575,592.203,501.959,501.959,501.959
0.000985041	-16148785.94	0,4.88983e-06,1.33744e-05,2.80963e-05,5.3641e-05,9.79646e-05,0.000174873,0.000308319,0.000539868,0.000941638,0.00163877,0.00284839,0.00494725,0.00858908,0.0149082,0.0258727,inf	944.625,944.625,193.557,5.60846,7.01184,75.8661,259.076,157.887,98.679,128.419,262.194,635.896,624.147,510.741,510.741,510.741
0.00101326	-16148168.22	0,4.88983e-06,1.33744e-05,2.80963e-05,5.3641e-05,9.79646e-05,0.000174873,0.000308319,0.000539868,0.000941638,0.00163877,0.00284839,0.00494725,0.00858908,0.0149082,0.0258727,inf	937.684,937.684,191.511,3.35362,4.16418,68.6094,276.196,164.077,96.9371,123.823,254.92,646.352,649.283,510.345,510.345,510.345
0.00103805	-16147809.15	0,4.88983e-06,1.33744e-05,2.80963e-05,5.3641e-05,9.79646e-05,0.000174873,0.000308319,0.000539868,0.000941638,0.00163877,0.00284839,0.00494725,0.00858908,0.0149082,0.0258727,inf	930.124,930.124,188.756,2.01926,2.53299,62.4529,289.134,169.556,96.4056,120.993,249.44,652.501,669.36,503.517,503.517,503.517
0.00106032	-16147576.04	0,4.88983e-06,1.33744e-05,2.80963e-05,5.3641e-05,9.79646e-05,0.000174873,0.000308319,0.000539868,0.000941638,0.00163877,0.00284839,0.00494725,0.00858908,0.0149082,0.0258727,inf	923.452,923.452,185.647,1.22449,1.57887,57.349,298.574,174.079,96.5311,119.294,245.275,655.884,685.61,492.622,492.622,492.622
0.00108066	-16147408.79	0,4.88983e-06,1.33744e-05,2.80963e-05,5.3641e-05,9.79646e-05,0.000174873,0.000308319,0.000539868,0.000941638,0.00163877,0.00284839,0.00494725,0.00858908,0.0149082,0.0258727,inf	918.07,918.07,182.419,0.747866,1.00845,53.2245,305.376,177.647,97.0102,118.349,242.09,657.462,698.916,479.464,479.464,479.464
0.00109951	-16147278.36	0,4.88983e-06,1.33744e-05,2.80963e-05,5.3641e-05,9.79646e-05,0.000174873,0.000308319,0.000539868,0.000941638,0.00163877,0.00284839,0.00494725,0.00858908,0.0149082,0.0258727,inf	913.596,913.596,179.176,0.403101,0.659532,49.9662,310.281,180.352,97.6729,117.925,239.665,657.818,709.855,465.283,465.283,465.283
0.00111721	-16147169.94	0,4.88983e-06,1.33744e-05,2.80963e-05,5.3641e-05,9.79646e-05,0.000174873,0.000308319,0.000539868,0.000941638,0.00163877,0.00284839,0.00494725,0.00858908,0.0149082,0.0258727,inf	910.19,910.19,176.047,0.334092,0.440095,47.465,313.924,182.316,98.4054,117.851,237.796,657.396,718.983,450.958,450.958,450.958
0.001134	-16147075.61	0,4.88983e-06,1.33744e-05,2.80963e-05,5.3641e-05,9.79646e-05,0.000174873,0.000308319,0.000539868,0.000941638,0.00163877,0.00284839,0.00494725,0.00858908,0.0149082,0.0258727,inf	907.169,907.169,172.9,0.334092,0.334092,45.6079,316.748,183.67,99.1484,118.021,236.357,656.456,726.657,437.002,437.002,437.002
0.00115004	-16146991.03	0,4.88983e-06,1.33744e-05,2.80963e-05,5.3641e-05,9.79646e-05,0.000174873,0.000308319,0.000539868,0.000941638,0.00163877,0.00284839,0.00494725,0.00858908,0.0149082,0.0258727,inf	904.75,904.75,169.781,0.334092,0.334092,44.2896,319.057,184.527,99.8661,118.363,235.256,655.174,733.151,423.713,423.713,423.713
0.00116546	-16146913.64	0,4.88983e-06,1.33744e-05,2.80963e-05,5.3641e-05,9.79646e-05,0.000174873,0.000308319,0.000539868,0.000941638,0.00163877,0.00284839,0.00494725,0.00858908,0.0149082,0.0258727,inf	902.628,902.628,166.712,0.334092,0.334092,43.4225,321.046,184.986,100.538,118.824,234.421,653.669,738.677,411.249,411.249,411.249
0.00118036	-16146841.87	0,4.88983e-06,1.33744e-05,2.80963e-05,5.3641e-05,9.79646e-05,0.000174873,0.000308319,0.000539868,0.000941638,0.00163877,0.00284839,0.00494725,0.00858908,0.0149082,0.0258727,inf	900.828,900.828,163.71,0.334092,0.334092,42.9344,322.845,185.13,101.153,119.367,233.799,652.021,743.402,399.678,399.678,399.678
0.00119481	-16146774.71	0,4.88983e-06,1.33744e-05,2.80963e-05,5.3641e-05,9.79646e-05,0.000174873,0.000308319,0.000539868,0.000941638,0.00163877,0.00284839,0.00494725,0.00858908,0.0149082,0.0258727,inf	899.345,899.345,160.767,0.334092,0.334092,42.7665,324.537,185.026,101.706,119.965,233.348,650.287,747.46,389.012,389.012,389.012
0.00120887	-16146711.48	0,4.88983e-06,1.33744e-05,2.80963e-05,5.3641e-05,9.79646e-05,0.000174873,0.000308319,0.000539868,0.000941638,0.00163877,0.00284839,0.00494725,0.00858908,0.0149082,0.0258727,inf	898.116,898.116,157.869,0.334092,0.334092,42.8703,326.167,184.73,102.197,120.599,233.035,648.505,750.955,379.232,379.232,379.232
0.00122258	-16146651.66	0,4.88983e-06,1.33744e-05,2.80963e-05,5.3641e-05,9.79646e-05,0.000174873,0.000308319,0.000539868,0.000941638,0.00163877,0.00284839,0.00494725,0.00858908,0.0149082,0.0258727,inf	897.016,897.016,155.003,0.334092,0.334092,43.2064,327.761,184.287,102.628,121.254,232.834,646.703,753.975,370.295,370.295,370.295
0.00123598	-16146594.89	0,4.88983e-06,1.33744e-05,2.80963e-05,5.3641e-05,9.79646e-05,0.000174873,0.000308319,0.000539868,0.000941638,0.00163877,0.00284839,0.00494725,0.00858908,0.0149082,0.0258727,inf	896.127,896.127,152.165,0.334092,0.334092,43.7397,329.332,183.736,103.002,121.92,232.726,644.9,756.588,362.152,362.152,362.152
0.0012491	-16146540.87	0,4.88983e-06,1.33744e-05,2.80963e-05,5.3641e-05,9.79646e-05,0.000174873,0.000308319,0.000539868,0.000941638,0.00163877,0.00284839,0.00494725,0.00858908,0.0149082,0.0258727,inf	895.33,895.33,149.359,0.334092,0.334092,44.443,330.884,183.104,103.323,122.589,232.693,643.107,758.851,354.748,354.748,354.748
