time_index	left_time_boundary	right_time_boundary	lambda
0	0	3.13587e-05	0.541317
1	3.13587e-05	6.80406e-05	0.541317
2	6.80406e-05	0.000110949	0.541317
3	0.000110949	0.000161141	0.541317
4	0.000161141	0.000219854	0.541317
5	0.000219854	0.000288533	2.66735
6	0.000288533	0.00036887	20.1938
7	0.00036887	0.000462844	87.767
8	0.000462844	0.000572771	242.649
9	0.000572771	0.000701357	476.604
10	0.000701357	0.000851771	731.55
11	0.000851771	0.00102772	931.805
12	0.00102772	0.00123353	1018.13
13	0.00123353	0.00147428	982.273
14	0.00147428	0.0017559	866.197
15	0.0017559	0.00208532	734.542
16	0.00208532	0.00247067	633.16
17	0.00247067	0.00292142	570.869
18	0.00292142	0.00344869	538.022
19	0.00344869	0.00406546	523.025
20	0.00406546	0.00478693	520.112
21	0.00478693	0.00563087	530.693
22	0.00563087	0.00661807	557.52
23	0.00661807	0.00777285	593.945
24	0.00777285	0.00912365	620.452
25	0.00912365	0.0107037	619.26
26	0.0107037	0.0125521	589.49
27	0.0125521	0.0147141	527.614
28	0.0147141	0.0172432	527.614
29	0.0172432	0.0202016	445.608
30	0.0202016	0.0236622	445.608
31	0.0236622	inf	445.608
