0.000619775	-267283.58	0,8.53712e-05,0.000202186,0.000362025,0.000580735,0.00088,0.00128949,0.0018498,0.00261648,0.00366554,0.00510098,0.00706512,0.00975267,0.0134301,0.018462,0.0253472,inf	252.569,252.569,310.311,362.848,391.071,391.667,395.325,403.404,415.72,430.441,444.601,451.189,429.409,343.895,343.895,343.895
0.000659407	-267231.13	0,8.53712e-05,0.000202186,0.000362025,0.000580735,0.00088,0.00128949,0.0018498,0.00261648,0.00366554,0.00510098,0.00706512,0.00975267,0.0134301,0.018462,0.0253472,inf	208.831,208.831,274.142,353.527,394.593,385.586,384.874,392.244,407.887,430.271,455.176,468.502,426.806,286.187,286.187,286.187
0.000695226	-267200.14	0,8.53712e-05,0.000202186,0.000362025,0.000580735,0.00088,0.00128949,0.0018498,0.00261648,0.00366554,0.00510098,0.00706512,0.00975267,0.0134301,0.018462,0.0253472,inf	194.877,194.877,257.24,356.079,405.886,385.891,380.552,385.778,402.157,429.247,463.035,483.377,423.745,244.324,244.324,244.324
0.000727171	-267176.21	0,8.53712e-05,0.000202186,0.000362025,0.000580735,0.00088,0.00128949,0.0018498,0.00261648,0.00366554,0.00510098,0.00706512,0.00975267,0.0134301,0.018462,0.0253472,inf	190.377,190.377,246.497,360.853,417.493,387.093,378.197,381.27,397.364,427.485,468.831,496.455,420.925,211.677,211.677,211.677
0.000755621	-267157.46	0,8.53712e-05,0.000202186,0.000362025,0.000580735,0.00088,0.00128949,0.0018498,0.00261648,0.00366554,0.00510098,0.00706512,0.00975267,0.0134301,0.018462,0.0253472,inf	189.482,189.482,238.391,365.582,427.827,388.039,376.726,377.905,393.208,425.252,473.127,508.333,419.021,184.561,184.561,184.561
0.000780987	-267142.83	0,8.53712e-05,0.000202186,0.000362025,0.000580735,0.00088,0.00128949,0.0018498,0.00261648,0.00366554,0.00510098,0.00706512,0.00975267,0.0134301,0.018462,0.0253472,inf	190.086,190.086,231.77,369.809,436.724,388.561,375.791,375.346,389.568,422.747,476.327,519.504,418.68,160.743,160.743,160.743
0.000803627	-267131.60	0,8.53712e-05,0.000202186,0.000362025,0.000580735,0.00088,0.00128949,0.0018498,0.00261648,0.00366554,0.00510098,0.00706512,0.00975267,0.0134301,0.018462,0.0253472,inf	191.34,191.34,226.17,373.524,444.339,388.704,375.236,373.398,386.362,420.093,478.71,530.384,420.62,138.806,138.806,138.806
0.000823845	-267123.32	0,8.53712e-05,0.000202186,0.000362025,0.000580735,0.00088,0.00128949,0.0018498,0.00261648,0.00366554,0.00510098,0.00706512,0.00975267,0.0134301,0.018462,0.0253472,inf	192.852,192.852,221.355,376.809,450.871,388.537,374.969,371.931,383.522,417.358,480.466,541.342,425.769,117.962,117.962,117.962
0.000841903	-267117.80	0,8.53712e-05,0.000202186,0.000362025,0.000580735,0.00088,0.00128949,0.0018498,0.00261648,0.00366554,0.00510098,0.00706512,0.00975267,0.0134301,0.018462,0.0253472,inf	194.43,194.43,217.17,379.751,456.498,388.125,374.925,370.847,380.991,414.578,481.718,552.717,435.428,98.3004,98.3004,98.3004
0.000858039	-267115.01	0,8.53712e-05,0.000202186,0.000362025,0.000580735,0.00088,0.00128949,0.0018498,0.00261648,0.00366554,0.00510098,0.00706512,0.00975267,0.0134301,0.018462,0.0253472,inf	195.975,195.975,213.509,382.42,461.364,387.515,375.06,370.075,378.72,411.764,482.523,564.748,451.249,81.4603,81.4603,81.4603
0.000872467	-267114.51	0,8.53712e-05,0.000202186,0.000362025,0.000580735,0.00088,0.00128949,0.0018498,0.00261648,0.00366554,0.00510098,0.00706512,0.00975267,0.0134301,0.018462,0.0253472,inf	197.439,197.439,210.284,384.867,465.583,386.745,375.338,369.56,376.665,408.9,482.835,577.265,474.235,70.2354,70.2354,70.2354
0.000885353	-267114.51	0,8.53712e-05,0.000202186,0.000362025,0.000580735,0.00088,0.00128949,0.0018498,0.00261648,0.00366554,0.00510098,0.00706512,0.00975267,0.0134301,0.018462,0.0253472,inf	198.803,198.803,207.422,387.119,469.237,385.837,375.731,369.264,374.792,405.95,482.482,589.257,502.082,65.4722,65.4722,65.4722
0.000896876	-267113.07	0,8.53712e-05,0.000202186,0.000362025,0.000580735,0.00088,0.00128949,0.0018498,0.00261648,0.00366554,0.00510098,0.00706512,0.00975267,0.0134301,0.018462,0.0253472,inf	200.041,200.041,204.861,389.205,472.406,384.818,376.227,369.171,373.099,402.92,481.337,599.457,529.052,64.6187,64.6187,64.6187
0.000907236	-267110.53	0,8.53712e-05,0.000202186,0.000362025,0.000580735,0.00088,0.00128949,0.0018498,0.00261648,0.00366554,0.00510098,0.00706512,0.00975267,0.0134301,0.018462,0.0253472,inf	201.165,201.165,202.561,391.157,475.173,383.721,376.825,369.284,371.62,399.899,479.53,607.573,551.169,64.9525,64.9525,64.9525
0.000916607	-267107.88	0,8.53712e-05,0.000202186,0.000362025,0.000580735,0.00088,0.00128949,0.0018498,0.00261648,0.00366554,0.00510098,0.00706512,0.00975267,0.0134301,0.018462,0.0253472,inf	202.185,202.185,200.49,393.004,477.596,382.559,377.511,369.595,370.382,396.992,477.312,614.088,567.969,65.4737,65.4737,65.4737
0.000925124	-267105.44	0,8.53712e-05,0.000202186,0.000362025,0.000580735,0.00088,0.00128949,0.0018498,0.00261648,0.00366554,0.00510098,0.00706512,0.00975267,0.0134301,0.018462,0.0253472,inf	203.115,203.115,198.62,394.763,479.718,381.333,378.256,370.075,369.382,394.257,474.882,619.54,580.273,65.9563,65.9563,65.9563
0.000932886	-267103.23	0,8.53712e-05,0.000202186,0.000362025,0.000580735,0.00088,0.00128949,0.0018498,0.00261648,0.00366554,0.00510098,0.00706512,0.00975267,0.0134301,0.018462,0.0253472,inf	203.975,203.975,196.93,396.451,481.573,380.041,379.028,370.685,368.597,391.715,472.362,624.33,589.027,66.3438,66.3438,66.3438
0.000939974	-267101.24	0,8.53712e-05,0.000202186,0.000362025,0.000580735,0.00088,0.00128949,0.0018498,0.00261648,0.00366554,0.00510098,0.00706512,0.00975267,0.0134301,0.018462,0.0253472,inf	204.76,204.76,195.398,398.085,483.197,378.684,379.802,371.39,367.998,389.364,469.823,628.732,595.056,66.628,66.628,66.628
0.000946455	-267099.46	0,8.53712e-05,0.000202186,0.000362025,0.000580735,0.00088,0.00128949,0.0018498,0.00261648,0.00366554,0.00510098,0.00706512,0.00975267,0.0134301,0.018462,0.0253472,inf	205.487,205.487,194.007,399.679,484.623,377.27,380.561,372.161,367.557,387.192,467.307,632.937,599.021,66.8187,66.8187,66.8187
0.000952385	-267097.86	0,8.53712e-05,0.000202186,0.000362025,0.000580735,0.00088,0.00128949,0.0018498,0.00261648,0.00366554,0.00510098,0.00706512,0.00975267,0.0134301,0.018462,0.0253472,inf	206.15,206.15,192.739,401.243,485.883,375.805,381.293,372.974,367.246,385.183,464.833,637.076,601.426,66.9319,66.9319,66.9319
