time_index	left_time_boundary	right_time_boundary	lambda
0	0	3.63347e-06	9430.81
1	3.63347e-06	9.93806e-06	9430.81
2	9.93806e-06	2.08774e-05	640.053
3	2.08774e-05	3.98588e-05	238.379
4	3.98588e-05	7.27943e-05	456.05
5	7.27943e-05	0.000129942	554.485
6	0.000129942	0.000229102	276.878
7	0.000229102	0.000401158	320.272
8	0.000401158	0.0006997	338.093
9	0.0006997	0.00121771	370.698
10	0.00121771	0.00211654	359.402
11	0.00211654	0.00367614	524.155
12	0.00367614	0.00638226	441.677
13	0.00638226	0.0110778	297.442
14	0.0110778	0.0192252	297.442
15	0.0192252	inf	297.442
