0.000694127	-45841751.26	0,4.53209e-06,1.03005e-05,1.76427e-05,2.69878e-05,3.88822e-05,5.40216e-05,7.3291e-05,9.78172e-05,0.000129034,0.000168767,0.00021934,0.000283709,0.000365638,0.000469918,0.000602646,0.000771583,0.000986606,0.00126029,0.00160863,0.00205201,0.00261634,0.00333462,0.00424885,0.00541249,0.00689357,0.0087787,0.0111781,0.0142321,0.0181192,0.0230667,0.029364,inf	370.248,370.248,387.045,363.507,352.507,351.775,345.38,339.434,335.843,332.273,328.566,326.738,327.55,330.985,337.142,346.267,358.467,373.521,391.009,409.385,425.123,434.895,437.775,435.023,429.26,423.539,419.855,416.637,416.637,408.59,408.59,408.59
0.000761657	-45825035.18	0,4.53209e-06,1.03005e-05,1.76427e-05,2.69878e-05,3.88822e-05,5.40216e-05,7.3291e-05,9.78172e-05,0.000129034,0.000168767,0.00021934,0.000283709,0.000365638,0.000469918,0.000602646,0.000771583,0.000986606,0.00126029,0.00160863,0.00205201,0.00261634,0.00333462,0.00424885,0.00541249,0.00689357,0.0087787,0.0111781,0.0142321,0.0181192,0.0230667,0.029364,inf	371.037,371.037,407.947,367.272,352.745,354.668,344.658,335.264,329.491,322.451,314.244,308.791,307.295,309.63,315.962,326.728,342.149,362.033,386.14,412.67,436.544,452.447,458.26,455.043,446.398,437.485,432.063,427.156,427.156,412.426,412.426,412.426
0.000824869	-45814201.52	0,4.53209e-06,1.03005e-05,1.76427e-05,2.69878e-05,3.88822e-05,5.40216e-05,7.3291e-05,9.78172e-05,0.000129034,0.000168767,0.00021934,0.000283709,0.000365638,0.000469918,0.000602646,0.000771583,0.000986606,0.00126029,0.00160863,0.00205201,0.00261634,0.00333462,0.00424885,0.00541249,0.00689357,0.0087787,0.0111781,0.0142321,0.0181192,0.0230667,0.029364,inf	364.217,364.217,419.49,366.099,352.983,360.103,349.28,339.343,333.773,325.014,313.69,305.535,302.019,302.874,308.302,318.888,334.925,356.278,382.988,413.326,441.501,461.149,469.351,466.58,456.604,446.007,440.032,434.389,434.389,414.084,414.084,414.084
0.000884193	-45806002.71	0,4.53209e-06,1.03005e-05,1.76427e-05,2.69878e-05,3.88822e-05,5.40216e-05,7.3291e-05,9.78172e-05,0.000129034,0.000168767,0.00021934,0.000283709,0.000365638,0.000469918,0.000602646,0.000771583,0.000986606,0.00126029,0.00160863,0.00205201,0.00261634,0.00333462,0.00424885,0.00541249,0.00689357,0.0087787,0.0111781,0.0142321,0.0181192,0.0230667,0.029364,inf	354.3,354.3,422.62,358.272,348.492,361.214,350.953,342.202,338.406,329.349,316.27,306.543,301.765,301.513,306.018,315.983,331.757,353.258,380.816,412.852,443.224,465.063,475.018,472.962,462.453,451.044,445.214,439.41,439.41,414.412,414.412,414.412
0.000940124	-45799381.51	0,4.53209e-06,1.03005e-05,1.76427e-05,2.69878e-05,3.88822e-05,5.40216e-05,7.3291e-05,9.78172e-05,0.000129034,0.000168767,0.00021934,0.000283709,0.000365638,0.000469918,0.000602646,0.000771583,0.000986606,0.00126029,0.00160863,0.00205201,0.00261634,0.00333462,0.00424885,0.00541249,0.00689357,0.0087787,0.0111781,0.0142321,0.0181192,0.0230667,0.029364,inf	346.04,346.04,422.777,347.761,341.627,359.167,349.685,342.772,341.449,332.917,319.056,308.638,303.262,302.349,306.142,315.454,330.667,351.765,379.344,411.979,443.346,466.373,477.532,476.19,465.55,453.833,448.547,442.928,442.928,413.939,413.939,413.939
0.000993073	-45793856.16	0,4.53209e-06,1.03005e-05,1.76427e-05,2.69878e-05,3.88822e-05,5.40216e-05,7.3291e-05,9.78172e-05,0.000129034,0.000168767,0.00021934,0.000283709,0.000365638,0.000469918,0.000602646,0.000771583,0.000986606,0.00126029,0.00160863,0.00205201,0.00261634,0.00333462,0.00424885,0.00541249,0.00689357,0.0087787,0.0111781,0.0142321,0.0181192,0.0230667,0.029364,inf	340.584,340.584,422.957,337.225,334.598,355.836,346.793,341.741,343.018,335.367,321.317,310.799,305.307,304.093,307.403,316.143,330.724,351.192,378.392,411.034,442.694,466.259,478.192,477.468,466.89,455.153,450.636,445.406,445.406,412.989,412.989,412.989
0.00104336	-45789156.00	0,4.53209e-06,1.03005e-05,1.76427e-05,2.69878e-05,3.88822e-05,5.40216e-05,7.3291e-05,9.78172e-05,0.000129034,0.000168767,0.00021934,0.000283709,0.000365638,0.000469918,0.000602646,0.000771583,0.000986606,0.00126029,0.00160863,0.00205201,0.00261634,0.00333462,0.00424885,0.00541249,0.00689357,0.0087787,0.0111781,0.0142321,0.0181192,0.0230667,0.029364,inf	337.367,337.367,424.028,327.735,328.518,352.432,343.331,339.896,343.601,336.903,322.983,312.727,307.434,306.178,309.194,317.467,331.428,351.19,377.823,410.149,441.685,465.368,477.757,477.529,467.098,455.505,451.874,447.151,447.151,411.771,411.771,411.771
0.00109126	-45785106.67	0,4.53209e-06,1.03005e-05,1.76427e-05,2.69878e-05,3.88822e-05,5.40216e-05,7.3291e-05,9.78172e-05,0.000129034,0.000168767,0.00021934,0.000283709,0.000365638,0.000469918,0.000602646,0.000771583,0.000986606,0.00126029,0.00160863,0.00205201,0.00261634,0.00333462,0.00424885,0.00541249,0.00689357,0.0087787,0.0111781,0.0142321,0.0181192,0.0230667,0.029364,inf	335.573,335.573,425.955,319.505,323.755,349.541,339.917,337.788,343.636,337.809,324.166,314.374,309.47,308.342,311.206,319.11,332.496,351.544,377.532,409.37,440.535,464.065,476.676,476.829,466.574,455.214,452.524,448.371,448.371,410.411,410.411,410.411
0.00113696	-45781585.54	0,4.53209e-06,1.03005e-05,1.76427e-05,2.69878e-05,3.88822e-05,5.40216e-05,7.3291e-05,9.78172e-05,0.000129034,0.000168767,0.00021934,0.000283709,0.000365638,0.000469918,0.000602646,0.000771583,0.000986606,0.00126029,0.00160863,0.00205201,0.00261634,0.00333462,0.00424885,0.00541249,0.00689357,0.0087787,0.0111781,0.0142321,0.0181192,0.0230667,0.029364,inf	334.5,334.5,428.421,312.399,320.31,347.364,336.851,335.74,343.428,338.321,325.001,315.772,311.36,310.467,313.278,320.893,333.756,352.118,377.441,408.704,439.354,462.558,475.223,475.654,465.576,454.497,452.762,449.21,449.21,408.992,408.992,408.992
0.00118065	-45778501.42	0,4.53209e-06,1.03005e-05,1.76427e-05,2.69878e-05,3.88822e-05,5.40216e-05,7.3291e-05,9.78172e-05,0.000129034,0.000168767,0.00021934,0.000283709,0.000365638,0.000469918,0.000602646,0.000771583,0.000986606,0.00126029,0.00160863,0.00205201,0.00261634,0.00333462,0.00424885,0.00541249,0.00689357,0.0087787,0.0111781,0.0142321,0.0181192,0.0230667,0.029364,inf	333.719,333.719,431.072,306.233,318.02,345.908,334.245,333.921,343.169,338.617,325.605,316.972,313.097,312.497,315.322,322.711,335.105,352.82,377.491,408.142,438.198,460.966,473.564,474.19,464.276,453.497,452.711,449.769,449.769,407.564,407.564,407.564
0.00122247	-45775783.79	0,4.53209e-06,1.03005e-05,1.76427e-05,2.69878e-05,3.88822e-05,5.40216e-05,7.3291e-05,9.78172e-05,0.000129034,0.000168767,0.00021934,0.000283709,0.000365638,0.000469918,0.000602646,0.000771583,0.000986606,0.00126029,0.00160863,0.00205201,0.00261634,0.00333462,0.00424885,0.00541249,0.00689357,0.0087787,0.0111781,0.0142321,0.0181192,0.0230667,0.029364,inf	333.011,333.011,433.636,300.756,316.669,345.085,332.1,332.395,342.968,338.808,326.07,318.024,314.693,314.413,317.295,324.506,336.479,353.594,377.639,407.672,437.095,459.36,471.804,472.556,462.788,452.314,452.455,450.119,450.119,406.157,406.157,406.157
0.00126256	-45773376.89	0,4.53209e-06,1.03005e-05,1.76427e-05,2.69878e-05,3.88822e-05,5.40216e-05,7.3291e-05,9.78172e-05,0.000129034,0.000168767,0.00021934,0.000283709,0.000365638,0.000469918,0.000602646,0.000771583,0.000986606,0.00126029,0.00160863,0.00205201,0.00261634,0.00333462,0.00424885,0.00541249,0.00689357,0.0087787,0.0111781,0.0142321,0.0181192,0.0230667,0.029364,inf	332.319,332.319,435.972,295.813,316.077,344.795,330.379,331.179,342.88,338.971,326.456,318.971,316.166,316.212,319.175,326.243,337.839,354.401,377.855,407.281,436.056,457.781,470.011,470.833,461.19,451.016,452.056,450.314,450.314,404.794,404.794,404.794
0.00130103	-45771235.68	0,4.53209e-06,1.03005e-05,1.76427e-05,2.69878e-05,3.88822e-05,5.40216e-05,7.3291e-05,9.78172e-05,0.000129034,0.000168767,0.00021934,0.000283709,0.000365638,0.000469918,0.000602646,0.000771583,0.000986606,0.00126029,0.00160863,0.00205201,0.00261634,0.00333462,0.00424885,0.00541249,0.00689357,0.0087787,0.0111781,0.0142321,0.0181192,0.0230667,0.029364,inf	331.667,331.667,438,291.241,316.083,344.91,329.023,330.259,342.93,339.147,326.808,319.844,317.536,317.896,320.953,327.905,339.16,355.213,378.116,406.954,435.085,456.25,468.224,469.071,459.533,449.65,451.556,450.391,450.391,403.484,403.484,403.484
0.00133798	-45769323.31	0,4.53209e-06,1.03005e-05,1.76427e-05,2.69878e-05,3.88822e-05,5.40216e-05,7.3291e-05,9.78172e-05,0.000129034,0.000168767,0.00021934,0.000283709,0.000365638,0.000469918,0.000602646,0.000771583,0.000986606,0.00126029,0.00160863,0.00205201,0.00261634,0.00333462,0.00424885,0.00541249,0.00689357,0.0087787,0.0111781,0.0142321,0.0181192,0.0230667,0.029364,inf	331.068,331.068,439.671,286.964,316.535,345.338,327.972,329.604,343.117,339.365,327.157,320.669,318.818,319.475,322.627,329.483,340.429,356.016,378.406,406.683,434.18,454.78,466.469,467.307,457.854,448.249,450.986,450.379,450.379,402.236,402.236,402.236
0.00137349	-45767609.28	0,4.53209e-06,1.03005e-05,1.76427e-05,2.69878e-05,3.88822e-05,5.40216e-05,7.3291e-05,9.78172e-05,0.000129034,0.000168767,0.00021934,0.000283709,0.000365638,0.000469918,0.000602646,0.000771583,0.000986606,0.00126029,0.00160863,0.00205201,0.00261634,0.00333462,0.00424885,0.00541249,0.00689357,0.0087787,0.0111781,0.0142321,0.0181192,0.0230667,0.029364,inf	330.519,330.519,441.005,282.92,317.344,346.005,327.169,329.182,343.44,339.636,327.516,321.462,320.027,320.957,324.201,330.973,341.638,356.799,378.714,406.456,433.339,453.376,464.762,465.563,456.178,446.837,450.371,450.3,450.3,401.048,401.048,401.048
0.00140766	-45766068.10	0,4.53209e-06,1.03005e-05,1.76427e-05,2.69878e-05,3.88822e-05,5.40216e-05,7.3291e-05,9.78172e-05,0.000129034,0.000168767,0.00021934,0.000283709,0.000365638,0.000469918,0.000602646,0.000771583,0.000986606,0.00126029,0.00160863,0.00205201,0.00261634,0.00333462,0.00424885,0.00541249,0.00689357,0.0087787,0.0111781,0.0142321,0.0181192,0.0230667,0.029364,inf	330.085,330.085,442.03,279.064,318.41,346.827,326.56,328.959,343.883,339.964,327.898,322.235,321.176,322.351,325.679,332.377,342.784,357.554,379.03,406.268,432.557,452.04,463.112,463.854,454.521,445.429,449.727,450.17,450.17,399.926,399.926,399.926
0.00144055	-45764678.29	0,4.53209e-06,1.03005e-05,1.76427e-05,2.69878e-05,3.88822e-05,5.40216e-05,7.3291e-05,9.78172e-05,0.000129034,0.000168767,0.00021934,0.000283709,0.000365638,0.000469918,0.000602646,0.000771583,0.000986606,0.00126029,0.00160863,0.00205201,0.00261634,0.00333462,0.00424885,0.00541249,0.00689357,0.0087787,0.0111781,0.0142321,0.0181192,0.0230667,0.029364,inf	329.794,329.794,442.745,275.363,319.685,347.766,326.112,328.903,344.436,340.348,328.309,322.996,322.272,323.665,327.067,333.695,343.867,358.278,379.348,406.111,431.83,450.772,461.525,462.189,452.895,444.038,449.066,450.002,450.002,398.867,398.867,398.867
0.00147224	-45763421.64	0,4.53209e-06,1.03005e-05,1.76427e-05,2.69878e-05,3.88822e-05,5.40216e-05,7.3291e-05,9.78172e-05,0.000129034,0.000168767,0.00021934,0.000283709,0.000365638,0.000469918,0.000602646,0.000771583,0.000986606,0.00126029,0.00160863,0.00205201,0.00261634,0.00333462,0.00424885,0.00541249,0.00689357,0.0087787,0.0111781,0.0142321,0.0181192,0.0230667,0.029364,inf	329.644,329.644,443.205,271.815,321.116,348.77,325.775,328.986,345.079,340.784,328.751,323.751,323.323,324.907,328.371,334.933,344.887,358.969,379.666,405.981,431.153,449.569,460,460.575,451.306,442.671,448.397,449.806,449.806,397.869,397.869,397.869
0.00150278	-45762282.60	0,4.53209e-06,1.03005e-05,1.76427e-05,2.69878e-05,3.88822e-05,5.40216e-05,7.3291e-05,9.78172e-05,0.000129034,0.000168767,0.00021934,0.000283709,0.000365638,0.000469918,0.000602646,0.000771583,0.000986606,0.00126029,0.00160863,0.00205201,0.00261634,0.00333462,0.00424885,0.00541249,0.00689357,0.0087787,0.0111781,0.0142321,0.0181192,0.0230667,0.029364,inf	329.58,329.58,443.462,268.384,322.666,349.808,325.532,329.184,345.798,341.269,329.224,324.505,324.335,326.083,329.597,336.095,345.846,359.626,379.978,405.872,430.523,448.429,458.54,459.015,449.761,441.333,447.728,449.589,449.589,396.931,396.931,396.931
0.00153225	-45761247.82	0,4.53209e-06,1.03005e-05,1.76427e-05,2.69878e-05,3.88822e-05,5.40216e-05,7.3291e-05,9.78172e-05,0.000129034,0.000168767,0.00021934,0.000283709,0.000365638,0.000469918,0.000602646,0.000771583,0.000986606,0.00126029,0.00160863,0.00205201,0.00261634,0.00333462,0.00424885,0.00541249,0.00689357,0.0087787,0.0111781,0.0142321,0.0181192,0.0230667,0.029364,inf	329.668,329.668,443.555,265.092,324.307,350.864,325.357,329.474,346.58,341.794,329.726,325.257,325.313,327.199,330.75,337.185,346.747,360.249,380.284,405.783,429.935,447.348,457.142,457.509,448.262,440.028,447.064,449.357,449.357,396.049,396.049,396.049
