LogLikelihood = -213398.28894164721714

y0 0.75946202931970197003
y0_prime 0
y1 1.0704080125868480344
y1_prime 0
y2 0.9466658289071472332
y2_prime 0
y3 2.4877472347442326495
y3_prime 0
rho 9.0362226002795010237e-05
theta 0.00050894021302868935018
