LogLikelihood = -213377.54822689387947

y0 0.74022099683394759762
y0_prime 0
y1 1.0916182401310488004
y1_prime 0
y2 0.88218177253203977628
y2_prime 0
y3 2.3959735482202515477
y3_prime 0
rho 0.00014530899445136229316
rho.alpha 0.55205587996910587822
r_ii 0.99990934720692958848
theta 0.00050894021302868935018
