LogLikelihood = -44125.235958150791703

y0 0.68815299595629575435
y0_prime 0
y1 1.0189909451466578894
y1_prime 0
y2 0.92565992857403167626
y2_prime 0
y3 3.2676750678505328551
y3_prime 0
rho 0.00011365368113303166804
theta 0.00052690385910308696216
