0.000222899	-5994562.02	0,6.45144e-07,1.49496e-06,2.61438e-06,4.08893e-06,6.03128e-06,8.58984e-06,1.19601e-05,1.63996e-05,2.22475e-05,2.99506e-05,4.00975e-05,5.34635e-05,7.10699e-05,9.42619e-05,0.000124811,0.000165053,0.000218061,0.000287886,0.000379862,0.000501018,0.00066061,0.000870833,0.00114775,0.00151252,0.001993,0.00262593,0.00345964,0.00455786,0.00600447,0.00791003,0.0104201,inf	6.23837,6.23837,15.7851,28.903,47.8767,90.4467,189.754,155.221,134.031,157.307,180.492,205.381,239.458,281.768,334.765,399.265,477.641,573.497,703.241,889.306,1143.74,1436.05,1627.05,1624.34,1534.78,1437.85,1358.81,1303.93,1303.93,1289.67,1289.67,1289.67
0.000221876	-5983685.19	0,6.45144e-07,1.49496e-06,2.61438e-06,4.08893e-06,6.03128e-06,8.58984e-06,1.19601e-05,1.63996e-05,2.22475e-05,2.99506e-05,4.00975e-05,5.34635e-05,7.10699e-05,9.42619e-05,0.000124811,0.000165053,0.000218061,0.000287886,0.000379862,0.000501018,0.00066061,0.000870833,0.00114775,0.00151252,0.001993,0.00262593,0.00345964,0.00455786,0.00600447,0.00791003,0.0104201,inf	1.09277,1.09277,1.09298,2.89415,8.01503,31.2485,176.739,104.435,57.8033,74.5599,91.1631,99.2609,115.359,139.883,177.495,230.85,300.092,389.261,523.932,745.346,1091.04,1574.08,1999.75,2073.42,1946.26,1762.56,1599.46,1496.7,1496.7,1499.72,1499.72,1499.72
0.000220369	-5980047.82	0,6.45144e-07,1.49496e-06,2.61438e-06,4.08893e-06,6.03128e-06,8.58984e-06,1.19601e-05,1.63996e-05,2.22475e-05,2.99506e-05,4.00975e-05,5.34635e-05,7.10699e-05,9.42619e-05,0.000124811,0.000165053,0.000218061,0.000287886,0.000379862,0.000501018,0.00066061,0.000870833,0.00114775,0.00151252,0.001993,0.00262593,0.00345964,0.00455786,0.00600447,0.00791003,0.0104201,inf	1.09277,1.09277,1.09277,1.09278,2.23422,16.496,228.183,104.399,41.6893,61.6784,83.0209,82.2209,89.3251,104.363,131.677,176.422,234.189,306.978,426.105,646.933,1023.92,1616.41,2249.12,2431.52,2308.76,2043.56,1789.63,1649.51,1649.51,1709.83,1709.83,1709.83
0.000217927	-5978539.53	0,6.45144e-07,1.49496e-06,2.61438e-06,4.08893e-06,6.03128e-06,8.58984e-06,1.19601e-05,1.63996e-05,2.22475e-05,2.99506e-05,4.00975e-05,5.34635e-05,7.10699e-05,9.42619e-05,0.000124811,0.000165053,0.000218061,0.000287886,0.000379862,0.000501018,0.00066061,0.000870833,0.00114775,0.00151252,0.001993,0.00262593,0.00345964,0.00455786,0.00600447,0.00791003,0.0104201,inf	1.09277,1.09277,1.09277,1.09277,1.09279,8.82213,277.184,104.539,33.2816,58.7632,90.176,82.6825,84.7526,95.2493,117.311,158.88,209.606,267.737,368.702,578.942,963.568,1618.2,2420.46,2717.7,2623.64,2269.44,1915.2,1749.72,1749.72,1907.7,1907.7,1907.7
0.000214745	-5977806.19	0,6.45144e-07,1.49496e-06,2.61438e-06,4.08893e-06,6.03128e-06,8.58984e-06,1.19601e-05,1.63996e-05,2.22475e-05,2.99506e-05,4.00975e-05,5.34635e-05,7.10699e-05,9.42619e-05,0.000124811,0.000165053,0.000218061,0.000287886,0.000379862,0.000501018,0.00066061,0.000870833,0.00114775,0.00151252,0.001993,0.00262593,0.00345964,0.00455786,0.00600447,0.00791003,0.0104201,inf	1.09277,1.09277,1.09277,1.09277,1.09279,4.53497,312.432,100.518,26.4847,56.4103,100.08,86.757,85.6447,94.0272,113.523,155.635,203.162,249.371,333.383,530.772,913.1,1603.1,2542.97,2950.97,2896.79,2434.58,1973.28,1795.21,1795.21,2079.72,2079.72,2079.72
0.000211055	-5977399.56	0,6.45144e-07,1.49496e-06,2.61438e-06,4.08893e-06,6.03128e-06,8.58984e-06,1.19601e-05,1.63996e-05,2.22475e-05,2.99506e-05,4.00975e-05,5.34635e-05,7.10699e-05,9.42619e-05,0.000124811,0.000165053,0.000218061,0.000287886,0.000379862,0.000501018,0.00066061,0.000870833,0.00114775,0.00151252,0.001993,0.00262593,0.00345964,0.00455786,0.00600447,0.00791003,0.0104201,inf	1.09277,1.09277,1.09277,1.09277,1.09279,2.27288,338.09,94.5,20.749,53.1233,109.241,90.631,87.3603,94.8961,113.149,158.17,205.426,242.075,310.98,495.787,871.554,1581.37,2634.06,3145.69,3134.22,2538.57,1972.16,1793.97,1793.97,2211.6,2211.6,2211.6
0.000207037	-5977147.50	0,6.45144e-07,1.49496e-06,2.61438e-06,4.08893e-06,6.03128e-06,8.58984e-06,1.19601e-05,1.63996e-05,2.22475e-05,2.99506e-05,4.00975e-05,5.34635e-05,7.10699e-05,9.42619e-05,0.000124811,0.000165053,0.000218061,0.000287886,0.000379862,0.000501018,0.00066061,0.000870833,0.00114775,0.00151252,0.001993,0.00262593,0.00345964,0.00455786,0.00600447,0.00791003,0.0104201,inf	1.09277,1.09277,1.09277,1.09277,1.09279,1.12661,359.082,88.3579,16.0888,49.1562,117.023,93.4555,88.5511,95.8471,113.33,162.646,211.889,241.002,296.546,469.842,837.325,1557.62,2704.2,3312.05,3341.07,2586.04,1927.3,1759.69,1759.69,2293.07,2293.07,2293.07
0.000202816	-5976975.77	0,6.45144e-07,1.49496e-06,2.61438e-06,4.08893e-06,6.03128e-06,8.58984e-06,1.19601e-05,1.63996e-05,2.22475e-05,2.99506e-05,4.00975e-05,5.34635e-05,7.10699e-05,9.42619e-05,0.000124811,0.000165053,0.000218061,0.000287886,0.000379862,0.000501018,0.00066061,0.000870833,0.00114775,0.00151252,0.001993,0.00262593,0.00345964,0.00455786,0.00600447,0.00791003,0.0104201,inf	1.09277,1.09277,1.09277,1.09277,1.09279,1.09278,378.125,82.854,12.4161,44.9496,123.723,95.3749,89.0622,96.3081,112.956,167.176,220.122,243.531,287.241,450.295,808.958,1533.95,2759.89,3457.27,3521.57,2585.62,1855.68,1706.42,1706.42,2323.23,2323.23,2323.23
0.000198483	-5976849.15	0,6.45144e-07,1.49496e-06,2.61438e-06,4.08893e-06,6.03128e-06,8.58984e-06,1.19601e-05,1.63996e-05,2.22475e-05,2.99506e-05,4.00975e-05,5.34635e-05,7.10699e-05,9.42619e-05,0.000124811,0.000165053,0.000218061,0.000287886,0.000379862,0.000501018,0.00066061,0.000870833,0.00114775,0.00151252,0.001993,0.00262593,0.00345964,0.00455786,0.00600447,0.00791003,0.0104201,inf	1.09277,1.09277,1.09277,1.09277,1.09279,1.09278,396.096,78.201,9.56191,40.7942,129.777,96.7504,89.1089,96.2936,111.721,170.864,228.725,248.143,281.35,435.404,785.283,1511.28,2805.3,3586.5,3679.09,2548.1,1771.63,1645.22,1645.22,2310.79,2310.79,2310.79
0.0001941	-5976749.62	0,6.45144e-07,1.49496e-06,2.61438e-06,4.08893e-06,6.03128e-06,8.58984e-06,1.19601e-05,1.63996e-05,2.22475e-05,2.99506e-05,4.00975e-05,5.34635e-05,7.10699e-05,9.42619e-05,0.000124811,0.000165053,0.000218061,0.000287886,0.000379862,0.000501018,0.00066061,0.000870833,0.00114775,0.00151252,0.001993,0.00262593,0.00345964,0.00455786,0.00600447,0.00791003,0.0104201,inf	1.09277,1.09277,1.09277,1.09277,1.09279,1.09278,413.242,74.3797,7.35415,36.8206,135.514,97.9218,88.9606,96.0067,109.698,173.371,236.879,253.913,277.794,423.992,765.391,1489.99,2843.2,3703.53,3816.34,2484.5,1685.22,1583.41,1583.41,2269.64,2269.64,2269.64
0.000189712	-5976667.30	0,6.45144e-07,1.49496e-06,2.61438e-06,4.08893e-06,6.03128e-06,8.58984e-06,1.19601e-05,1.63996e-05,2.22475e-05,2.99506e-05,4.00975e-05,5.34635e-05,7.10699e-05,9.42619e-05,0.000124811,0.000165053,0.000218061,0.000287886,0.000379862,0.000501018,0.00066061,0.000870833,0.00114775,0.00151252,0.001993,0.00262593,0.00345964,0.00455786,0.00600447,0.00791003,0.0104201,inf	1.09277,1.09277,1.09277,1.09277,1.09279,1.09278,429.722,71.2866,5.6483,33.0698,141.093,99.0795,88.8303,95.683,107.092,174.66,244.12,260.252,275.857,415.237,748.582,1470.16,2875.45,3811.13,3935.46,2404.63,1602.6,1525.13,1525.13,2213.26,2213.26,2213.26
0.00018535	-5976596.53	0,6.45144e-07,1.49496e-06,2.61438e-06,4.08893e-06,6.03128e-06,8.58984e-06,1.19601e-05,1.63996e-05,2.22475e-05,2.99506e-05,4.00975e-05,5.34635e-05,7.10699e-05,9.42619e-05,0.000124811,0.000165053,0.000218061,0.000287886,0.000379862,0.000501018,0.00066061,0.000870833,0.00114775,0.00151252,0.001993,0.00262593,0.00345964,0.00455786,0.00600447,0.00791003,0.0104201,inf	1.09277,1.09277,1.09277,1.09277,1.09279,1.09278,445.38,68.8865,4.3295,29.5586,146.544,100.317,88.8369,95.5092,104.144,174.866,250.222,266.778,275.055,408.549,734.312,1451.77,2903.37,3911.42,4038.14,2316.37,1526.95,1472.33,1472.33,2151.36,2151.36,2151.36
0.000181038	-5976533.90	0,6.45144e-07,1.49496e-06,2.61438e-06,4.08893e-06,6.03128e-06,8.58984e-06,1.19601e-05,1.63996e-05,2.22475e-05,2.99506e-05,4.00975e-05,5.34635e-05,7.10699e-05,9.42619e-05,0.000124811,0.000165053,0.000218061,0.000287886,0.000379862,0.000501018,0.00066061,0.000870833,0.00114775,0.00151252,0.001993,0.00262593,0.00345964,0.00455786,0.00600447,0.00791003,0.0104201,inf	1.09277,1.09277,1.09277,1.09277,1.09279,1.09278,460.195,67.0577,3.31032,26.2822,151.839,101.683,89.061,95.6208,101.057,174.198,255.105,273.243,275.047,403.496,722.156,1434.73,2927.88,4006.05,4125.69,2225.54,1459.54,1425.63,1425.63,2089.75,2089.75,2089.75
0.000176796	-5976477.31	0,6.45144e-07,1.49496e-06,2.61438e-06,4.08893e-06,6.03128e-06,8.58984e-06,1.19601e-05,1.63996e-05,2.22475e-05,2.99506e-05,4.00975e-05,5.34635e-05,7.10699e-05,9.42619e-05,0.000124811,0.000165053,0.000218061,0.000287886,0.000379862,0.000501018,0.00066061,0.000870833,0.00114775,0.00151252,0.001993,0.00262593,0.00345964,0.00455786,0.00600447,0.00791003,0.0104201,inf	1.09277,1.09277,1.09277,1.09277,1.09279,1.09278,474.203,65.846,2.52301,23.2372,156.921,103.171,89.509,96.0913,97.9934,172.88,258.795,279.483,275.584,399.754,711.776,1418.94,2949.66,4096.32,4199.14,2136.13,1400.46,1384.96,1384.96,2031.27,2031.27,2031.27
0.000172635	-5976425.43	0,6.45144e-07,1.49496e-06,2.61438e-06,4.08893e-06,6.03128e-06,8.58984e-06,1.19601e-05,1.63996e-05,2.22475e-05,2.99506e-05,4.00975e-05,5.34635e-05,7.10699e-05,9.42619e-05,0.000124811,0.000165053,0.000218061,0.000287886,0.000379862,0.000501018,0.00066061,0.000870833,0.00114775,0.00151252,0.001993,0.00262593,0.00345964,0.00455786,0.00600447,0.00791003,0.0104201,inf	1.09277,1.09277,1.09277,1.09277,1.09279,1.09278,487.501,65.1527,1.91624,20.4271,161.727,104.76,90.162,96.9629,95.0598,171.128,261.371,285.401,276.484,397.07,702.906,1404.26,2969.2,4183.29,4259.31,2050.67,1349.24,1349.87,1349.87,1977.93,1977.93,1977.93
0.000168567	-5976377.41	0,6.45144e-07,1.49496e-06,2.61438e-06,4.08893e-06,6.03128e-06,8.58984e-06,1.19601e-05,1.63996e-05,2.22475e-05,2.99506e-05,4.00975e-05,5.34635e-05,7.10699e-05,9.42619e-05,0.000124811,0.000165053,0.000218061,0.000287886,0.000379862,0.000501018,0.00066061,0.000870833,0.00114775,0.00151252,0.001993,0.00262593,0.00345964,0.00455786,0.00600447,0.00791003,0.0104201,inf	1.09277,1.09277,1.09277,1.09277,1.09279,1.09278,500.043,65.0168,1.45086,17.8566,166.217,106.411,90.9761,98.241,92.3301,169.127,262.952,290.936,277.609,395.251,695.327,1390.59,2986.87,4267.84,4306.9,1970.65,1305.12,1319.77,1319.77,1930.02,1930.02,1930.02
0.0001646	-5976332.69	0,6.45144e-07,1.49496e-06,2.61438e-06,4.08893e-06,6.03128e-06,8.58984e-06,1.19601e-05,1.63996e-05,2.22475e-05,2.99506e-05,4.00975e-05,5.34635e-05,7.10699e-05,9.42619e-05,0.000124811,0.000165053,0.000218061,0.000287886,0.000379862,0.000501018,0.00066061,0.000870833,0.00114775,0.00151252,0.001993,0.00262593,0.00345964,0.00455786,0.00600447,0.00791003,0.0104201,inf	1.09277,1.09277,1.09277,1.09277,1.09279,1.09278,511.993,65.4233,1.0957,15.5215,170.375,108.124,91.9463,99.9153,89.8396,167.026,263.672,296.061,278.853,394.14,688.861,1377.82,3002.95,4350.73,4342.57,1896.76,1267.25,1294.03,1294.03,1887.6,1887.6,1887.6
0.000160741	-5976290.92	0,6.45144e-07,1.49496e-06,2.61438e-06,4.08893e-06,6.03128e-06,8.58984e-06,1.19601e-05,1.63996e-05,2.22475e-05,2.99506e-05,4.00975e-05,5.34635e-05,7.10699e-05,9.42619e-05,0.000124811,0.000165053,0.000218061,0.000287886,0.000379862,0.000501018,0.00066061,0.000870833,0.00114775,0.00151252,0.001993,0.00262593,0.00345964,0.00455786,0.00600447,0.00791003,0.0104201,inf	1.09277,1.09277,1.09277,1.09277,1.09279,1.09278,523.183,66.3866,1.09278,13.4172,174.181,109.861,93.0049,101.963,87.6011,164.947,263.667,300.769,280.134,393.61,683.361,1365.85,3017.64,4432.62,4366.93,1829.2,1234.81,1272.08,1272.08,1850.48,1850.48,1850.48
0.000156993	-5976251.87	0,6.45144e-07,1.49496e-06,2.61438e-06,4.08893e-06,6.03128e-06,8.58984e-06,1.19601e-05,1.63996e-05,2.22475e-05,2.99506e-05,4.00975e-05,5.34635e-05,7.10699e-05,9.42619e-05,0.000124811,0.000165053,0.000218061,0.000287886,0.000379862,0.000501018,0.00066061,0.000870833,0.00114775,0.00151252,0.001993,0.00262593,0.00345964,0.00455786,0.00600447,0.00791003,0.0104201,inf	1.09277,1.09277,1.09277,1.09277,1.09279,1.09278,533.549,67.8669,1.09277,11.5422,177.625,111.596,94.107,104.35,85.611,162.975,263.066,305.071,281.391,393.557,678.708,1354.59,3031.1,4514.1,4380.61,1767.86,1207.04,1253.37,1253.37,1818.18,1818.18,1818.18
0.000153361	-5976215.38	0,6.45144e-07,1.49496e-06,2.61438e-06,4.08893e-06,6.03128e-06,8.58984e-06,1.19601e-05,1.63996e-05,2.22475e-05,2.99506e-05,4.00975e-05,5.34635e-05,7.10699e-05,9.42619e-05,0.000124811,0.000165053,0.000218061,0.000287886,0.000379862,0.000501018,0.00066061,0.000870833,0.00114775,0.00151252,0.001993,0.00262593,0.00345964,0.00455786,0.00600447,0.00791003,0.0104201,inf	1.09277,1.09277,1.09277,1.09277,1.09279,1.09278,543.095,70.0032,1.09277,9.87826,180.748,113.352,95.2273,107.041,83.8568,161.181,261.995,308.989,282.574,393.897,674.8,1343.98,3043.44,4595.7,4384.29,1712.4,1183.26,1237.43,1237.43,1790.41,1790.41,1790.41
