AIC = 824759.39597122580744

y0 1.0000393008178266132e-12
y0_prime 0
y1 22.545938291425379418
y1_prime 0
y2 58.519524529005757074
y2_prime 0
y3 123.38493243014275436
y3_prime 0
rho 3.7088107553357398816e-10
theta 0.0019159662879534864258
