0.000682555	-4615044.42	0,4.59727e-06,1.04487e-05,1.78964e-05,2.73759e-05,3.94415e-05,5.47986e-05,7.43451e-05,9.92241e-05,0.00013089,0.000171195,0.000222495,0.00028779,0.000370897,0.000476677,0.000611314,0.000782681,0.0010008,0.00127842,0.00163177,0.00208152,0.00265397,0.00338258,0.00430996,0.00549034,0.00699273,0.00890497,0.0113389,0.0144368,0.0183798,0.0233985,0.0297863,inf	171.543,171.543,318.048,362.444,364.243,354.373,343.996,337.983,334.108,328.848,324.957,324.213,327.124,335.182,345.785,356.197,366.3,377.625,390.21,403.261,415.631,423.945,424.904,421.373,415.247,407.291,394.189,364.859,364.859,248.38,248.38,248.38
0.000729264	-4614215.56	0,4.59727e-06,1.04487e-05,1.78964e-05,2.73759e-05,3.94415e-05,5.47986e-05,7.43451e-05,9.92241e-05,0.00013089,0.000171195,0.000222495,0.00028779,0.000370897,0.000476677,0.000611314,0.000782681,0.0010008,0.00127842,0.00163177,0.00208152,0.00265397,0.00338258,0.00430996,0.00549034,0.00699273,0.00890497,0.0113389,0.0144368,0.0183798,0.0233985,0.0297863,inf	87.4257,87.4257,296.281,379.664,382.248,363.226,344.3,334.05,326.962,316.029,306.972,302.764,304.565,315.195,329.679,343.031,355.362,369.814,386.832,405.676,425.214,439.657,442.173,437.143,427.198,413.456,389.227,336.522,336.522,117.022,117.022,117.022
0.000771992	-4613737.02	0,4.59727e-06,1.04487e-05,1.78964e-05,2.73759e-05,3.94415e-05,5.47986e-05,7.43451e-05,9.92241e-05,0.00013089,0.000171195,0.000222495,0.00028779,0.000370897,0.000476677,0.000611314,0.000782681,0.0010008,0.00127842,0.00163177,0.00208152,0.00265397,0.00338258,0.00430996,0.00549034,0.00699273,0.00890497,0.0113389,0.0144368,0.0183798,0.0233985,0.0297863,inf	45.4894,45.4894,277.634,396.414,400.541,374.745,350.344,338.802,330.704,315.608,302.477,295.182,295.721,308.011,324.709,338.798,350.832,365.546,383.809,405.201,429.082,448.027,452.118,446.616,434.207,416.068,382.238,309.722,309.722,8.01421,8.01421,8.01421
0.000810432	-4613894.62	0,4.59727e-06,1.04487e-05,1.78964e-05,2.73759e-05,3.94415e-05,5.47986e-05,7.43451e-05,9.92241e-05,0.00013089,0.000171195,0.000222495,0.00028779,0.000370897,0.000476677,0.000611314,0.000782681,0.0010008,0.00127842,0.00163177,0.00208152,0.00265397,0.00338258,0.00430996,0.00549034,0.00699273,0.00890497,0.0113389,0.0144368,0.0183798,0.0233985,0.0297863,inf	23.8348,23.8348,258.203,406.838,412.373,381.615,354.105,343.399,335.967,318.102,302.063,292.411,292.151,306.11,324.579,338.658,349.489,363.35,381.49,403.891,430.62,453.19,459.223,454.833,443.057,426.608,395.55,359.648,359.648,3.27973,3.27973,3.27973
0.000845538	-4613511.19	0,4.59727e-06,1.04487e-05,1.78964e-05,2.73759e-05,3.94415e-05,5.47986e-05,7.43451e-05,9.92241e-05,0.00013089,0.000171195,0.000222495,0.00028779,0.000370897,0.000476677,0.000611314,0.000782681,0.0010008,0.00127842,0.00163177,0.00208152,0.00265397,0.00338258,0.00430996,0.00549034,0.00699273,0.00890497,0.0113389,0.0144368,0.0183798,0.0233985,0.0297863,inf	12.6276,12.6276,239.693,412.649,418.637,383.85,354.619,345.942,340.159,320.515,302.476,291.098,290.529,306.333,326.483,340.313,349.647,362.221,379.586,402.113,430.591,455.756,463.219,459.802,448.679,434.04,406.523,441.463,441.463,3.53424,3.53424,3.53424
0.000878436	-4613085.81	0,4.59727e-06,1.04487e-05,1.78964e-05,2.73759e-05,3.94415e-05,5.47986e-05,7.43451e-05,9.92241e-05,0.00013089,0.000171195,0.000222495,0.00028779,0.000370897,0.000476677,0.000611314,0.000782681,0.0010008,0.00127842,0.00163177,0.00208152,0.00265397,0.00338258,0.00430996,0.00549034,0.00699273,0.00890497,0.0113389,0.0144368,0.0183798,0.0233985,0.0297863,inf	6.8009,6.8009,223.367,416.282,421.443,382.939,352.658,346.504,342.797,321.977,302.554,289.91,289.419,307.22,329.049,342.577,350.367,361.515,377.799,399.943,429.402,456.271,464.453,461.254,449.541,434.065,404.742,485.096,485.096,4.26862,4.26862,4.26862
0.000909398	-4612824.92	0,4.59727e-06,1.04487e-05,1.78964e-05,2.73759e-05,3.94415e-05,5.47986e-05,7.43451e-05,9.92241e-05,0.00013089,0.000171195,0.000222495,0.00028779,0.000370897,0.000476677,0.000611314,0.000782681,0.0010008,0.00127842,0.00163177,0.00208152,0.00265397,0.00338258,0.00430996,0.00549034,0.00699273,0.00890497,0.0113389,0.0144368,0.0183798,0.0233985,0.0297863,inf	3.73471,3.73471,209.828,419.807,422.94,380.69,349.604,346.067,344.524,322.828,302.376,288.742,288.581,308.472,331.988,345.237,351.55,361.301,376.431,397.991,428.053,456.162,464.759,461.537,448.872,431.729,399.088,508.393,508.393,5.2959,5.2959,5.2959
0.000938624	-4612625.49	0,4.59727e-06,1.04487e-05,1.78964e-05,2.73759e-05,3.94415e-05,5.47986e-05,7.43451e-05,9.92241e-05,0.00013089,0.000171195,0.000222495,0.00028779,0.000370897,0.000476677,0.000611314,0.000782681,0.0010008,0.00127842,0.00163177,0.00208152,0.00265397,0.00338258,0.00430996,0.00549034,0.00699273,0.00890497,0.0113389,0.0144368,0.0183798,0.0233985,0.0297863,inf	2.09127,2.09127,198.841,423.937,424.021,377.948,346.149,345.16,345.709,323.265,301.984,287.512,287.832,309.833,335.015,348.014,352.95,361.385,375.379,396.284,426.744,455.819,464.682,461.354,447.618,428.472,392.025,518.148,518.148,5.11282,5.11282,5.11282
0.000966209	-4612473.38	0,4.59727e-06,1.04487e-05,1.78964e-05,2.73759e-05,3.94415e-05,5.47986e-05,7.43451e-05,9.92241e-05,0.00013089,0.000171195,0.000222495,0.00028779,0.000370897,0.000476677,0.000611314,0.000782681,0.0010008,0.00127842,0.00163177,0.00208152,0.00265397,0.00338258,0.00430996,0.00549034,0.00699273,0.00890497,0.0113389,0.0144368,0.0183798,0.0233985,0.0297863,inf	1.18756,1.18756,189.94,428.853,425.111,375.189,342.735,344.171,346.683,323.527,301.513,286.275,287.148,311.228,338.027,350.791,354.448,361.665,374.577,394.819,425.569,455.454,464.537,461.141,446.413,425.348,385.411,528.485,528.485,5.20657,5.20657,5.20657
0.000992272	-4612339.09	0,4.59727e-06,1.04487e-05,1.78964e-05,2.73759e-05,3.94415e-05,5.47986e-05,7.43451e-05,9.92241e-05,0.00013089,0.000171195,0.000222495,0.00028779,0.000370897,0.000476677,0.000611314,0.000782681,0.0010008,0.00127842,0.00163177,0.00208152,0.00265397,0.00338258,0.00430996,0.00549034,0.00699273,0.00890497,0.0113389,0.0144368,0.0183798,0.0233985,0.0297863,inf	0.681373,0.681373,182.652,434.37,426.215,372.498,339.464,343.209,347.545,323.68,300.984,285.013,286.473,312.573,340.916,353.455,355.922,362.016,373.908,393.503,424.469,455.045,464.318,460.878,445.204,422.236,378.98,536.95,536.95,5.11256,5.11256,5.11256
0.00101692	-4612224.86	0,4.59727e-06,1.04487e-05,1.78964e-05,2.73759e-05,3.94415e-05,5.47986e-05,7.43451e-05,9.92241e-05,0.00013089,0.000171195,0.000222495,0.00028779,0.000370897,0.000476677,0.000611314,0.000782681,0.0010008,0.00127842,0.00163177,0.00208152,0.00265397,0.00338258,0.00430996,0.00549034,0.00699273,0.00890497,0.0113389,0.0144368,0.0183798,0.0233985,0.0297863,inf	0.396822,0.396822,176.602,440.297,427.327,369.938,336.386,342.367,348.4,323.815,300.459,283.766,285.821,313.862,343.671,355.981,357.34,362.4,373.336,392.308,423.444,454.625,464.075,460.627,444.069,419.254,372.907,545.519,545.519,5.13986,5.13986,5.13986
0.00104025	-4612124.05	0,4.59727e-06,1.04487e-05,1.78964e-05,2.73759e-05,3.94415e-05,5.47986e-05,7.43451e-05,9.92241e-05,0.00013089,0.000171195,0.000222495,0.00028779,0.000370897,0.000476677,0.000611314,0.000782681,0.0010008,0.00127842,0.00163177,0.00208152,0.00265397,0.00338258,0.00430996,0.00549034,0.00699273,0.00890497,0.0113389,0.0144368,0.0183798,0.0233985,0.0297863,inf	0.395608,0.395608,171.494,446.433,428.378,367.499,333.528,341.662,349.279,323.964,299.96,282.545,285.189,315.09,346.28,358.357,358.678,362.783,372.826,391.204,422.475,454.192,463.811,460.383,442.983,416.351,367.075,553.174,553.174,5.09563,5.09563,5.09563
0.00106235	-4612036.73	0,4.59727e-06,1.04487e-05,1.78964e-05,2.73759e-05,3.94415e-05,5.47986e-05,7.43451e-05,9.92241e-05,0.00013089,0.000171195,0.000222495,0.00028779,0.000370897,0.000476677,0.000611314,0.000782681,0.0010008,0.00127842,0.00163177,0.00208152,0.00265397,0.00338258,0.00430996,0.00549034,0.00699273,0.00890497,0.0113389,0.0144368,0.0183798,0.0233985,0.0297863,inf	0.395608,0.395608,167.125,452.664,429.333,365.161,330.884,341.101,350.206,324.154,299.511,281.37,284.59,316.265,348.753,360.587,359.935,363.159,372.366,390.181,421.563,453.762,463.547,460.17,441.974,413.563,361.525,560.636,560.636,5.09341,5.09341,5.09341
0.00108331	-4611959.68	0,4.59727e-06,1.04487e-05,1.78964e-05,2.73759e-05,3.94415e-05,5.47986e-05,7.43451e-05,9.92241e-05,0.00013089,0.000171195,0.000222495,0.00028779,0.000370897,0.000476677,0.000611314,0.000782681,0.0010008,0.00127842,0.00163177,0.00208152,0.00265397,0.00338258,0.00430996,0.00549034,0.00699273,0.00890497,0.0113389,0.0144368,0.0183798,0.0233985,0.0297863,inf	0.395608,0.395608,163.345,458.875,430.156,362.907,328.416,340.676,351.191,324.39,299.114,280.244,284.024,317.389,351.096,362.676,361.109,363.517,371.942,389.225,420.7,453.336,463.287,459.986,441.031,410.869,356.208,567.594,567.594,5.07065,5.07065,5.07065
0.0011032	-4611892.12	0,4.59727e-06,1.04487e-05,1.78964e-05,2.73759e-05,3.94415e-05,5.47986e-05,7.43451e-05,9.92241e-05,0.00013089,0.000171195,0.000222495,0.00028779,0.000370897,0.000476677,0.000611314,0.000782681,0.0010008,0.00127842,0.00163177,0.00208152,0.00265397,0.00338258,0.00430996,0.00549034,0.00699273,0.00890497,0.0113389,0.0144368,0.0183798,0.0233985,0.0297863,inf	0.395608,0.395608,160.062,464.996,430.822,360.732,326.118,340.366,352.219,324.676,298.773,279.171,283.491,318.47,353.316,364.634,362.204,363.856,371.549,388.329,419.883,452.919,463.038,459.839,440.159,408.276,351.122,574.268,574.268,5.05961,5.05961,5.05961
0.0011221	-4611832.39	0,4.59727e-06,1.04487e-05,1.78964e-05,2.73759e-05,3.94415e-05,5.47986e-05,7.43451e-05,9.92241e-05,0.00013089,0.000171195,0.000222495,0.00028779,0.000370897,0.000476677,0.000611314,0.000782681,0.0010008,0.00127842,0.00163177,0.00208152,0.00265397,0.00338258,0.00430996,0.00549034,0.00699273,0.00890497,0.0113389,0.0144368,0.0183798,0.0233985,0.0297863,inf	0.395608,0.395608,157.184,470.997,431.33,358.627,323.976,340.161,353.29,325.008,298.486,278.149,282.994,319.509,355.424,366.468,363.223,364.175,371.18,387.485,419.108,452.513,462.802,459.727,439.355,405.776,346.242,580.596,580.596,5.04458,5.04458,5.04458
0.00114005	-4611779.60	0,4.59727e-06,1.04487e-05,1.78964e-05,2.73759e-05,3.94415e-05,5.47986e-05,7.43451e-05,9.92241e-05,0.00013089,0.000171195,0.000222495,0.00028779,0.000370897,0.000476677,0.000611314,0.000782681,0.0010008,0.00127842,0.00163177,0.00208152,0.00265397,0.00338258,0.00430996,0.00549034,0.00699273,0.00890497,0.0113389,0.0144368,0.0183798,0.0233985,0.0297863,inf	0.395608,0.395608,154.654,476.843,431.691,356.573,321.96,340.042,354.391,325.381,298.248,277.178,282.53,320.511,357.426,368.189,364.172,364.473,370.833,386.688,418.372,452.119,462.583,459.651,438.617,403.366,341.558,586.644,586.644,5.03259,5.03259,5.03259
0.00115712	-4611732.77	0,4.59727e-06,1.04487e-05,1.78964e-05,2.73759e-05,3.94415e-05,5.47986e-05,7.43451e-05,9.92241e-05,0.00013089,0.000171195,0.000222495,0.00028779,0.000370897,0.000476677,0.000611314,0.000782681,0.0010008,0.00127842,0.00163177,0.00208152,0.00265397,0.00338258,0.00430996,0.00549034,0.00699273,0.00890497,0.0113389,0.0144368,0.0183798,0.0233985,0.0297863,inf	0.395608,0.395608,152.42,482.545,431.916,354.571,320.06,339.999,355.512,325.788,298.055,276.254,282.096,321.478,359.331,369.804,365.056,364.75,370.504,385.934,417.672,451.737,462.379,459.612,437.942,401.041,337.054,592.415,592.415,5.02055,5.02055,5.02055
0.00117337	-4611691.17	0,4.59727e-06,1.04487e-05,1.78964e-05,2.73759e-05,3.94415e-05,5.47986e-05,7.43451e-05,9.92241e-05,0.00013089,0.000171195,0.000222495,0.00028779,0.000370897,0.000476677,0.000611314,0.000782681,0.0010008,0.00127842,0.00163177,0.00208152,0.00265397,0.00338258,0.00430996,0.00549034,0.00699273,0.00890497,0.0113389,0.0144368,0.0183798,0.0233985,0.0297863,inf	0.395608,0.395608,150.449,488.085,432,352.62,318.266,340.007,356.644,326.225,297.901,275.375,281.691,322.414,361.144,371.322,365.879,365.009,370.191,385.218,417.005,451.367,462.192,459.607,437.326,398.797,332.718,597.934,597.934,5.00956,5.00956,5.00956
0.00118883	-4611654.14	0,4.59727e-06,1.04487e-05,1.78964e-05,2.73759e-05,3.94415e-05,5.47986e-05,7.43451e-05,9.92241e-05,0.00013089,0.000171195,0.000222495,0.00028779,0.000370897,0.000476677,0.000611314,0.000782681,0.0010008,0.00127842,0.00163177,0.00208152,0.00265397,0.00338258,0.00430996,0.00549034,0.00699273,0.00890497,0.0113389,0.0144368,0.0183798,0.0233985,0.0297863,inf	0.395608,0.395608,148.709,493.461,431.975,350.726,316.572,340.074,357.784,326.684,297.784,274.536,281.313,323.318,362.873,372.748,366.646,365.249,369.893,384.538,416.368,451.01,462.021,459.636,436.768,396.629,328.538,603.216,603.216,4.99922,4.99922,4.99922
