LogLikelihood = -134909.18574057004298

y0 3.7512597991862187497e-10
y0_prime 0
y1 0.95724865160814343046
y1_prime 0
y2 1.5415181213893924816
y2_prime 0
y3 2.8168246918520534194
y3_prime 0
rho 0.0077656452323002769442
theta 0.0018517179472023856564
