time_index	left_time_boundary	right_time_boundary	lambda
0	0	1.29802e-06	28.3751
1	1.29802e-06	3.07413e-06	28.3751
2	3.07413e-06	5.5044e-06	28.3751
3	5.5044e-06	8.82977e-06	14333.1
4	8.82977e-06	1.33799e-05	25968.1
5	1.33799e-05	1.9606e-05	17120.8
6	1.9606e-05	2.81252e-05	24278.8
7	2.81252e-05	3.97821e-05	27120.1
8	3.97821e-05	5.57325e-05	24664.5
9	5.57325e-05	7.75577e-05	23454.2
10	7.75577e-05	0.000107421	16341.6
11	0.000107421	0.000148284	13625
12	0.000148284	0.000204198	17642.1
13	0.000204198	0.000280705	27697.5
14	0.000280705	0.00038539	27697.5
15	0.00038539	inf	27697.5
