0.000221611	-135366.88	0,3.44936e-05,8.16917e-05,0.000146274,0.000234642,0.000355558,0.000521009,0.000747397,0.00105717,0.00148103,0.00206101,0.00285461,0.0039405,0.00542633,0.00745943,0.0102413,inf	377.124,377.124,455.985,520.015,676.594,887.889,1140.38,1413.63,1531.35,1454.9,1351.77,1340.72,1331.88,1292.51,1292.51,1292.51
0.000211965	-135174.35	0,3.44936e-05,8.16917e-05,0.000146274,0.000234642,0.000355558,0.000521009,0.000747397,0.00105717,0.00148103,0.00206101,0.00285461,0.0039405,0.00542633,0.00745943,0.0102413,inf	279.329,279.329,336.34,349.859,515.456,772.03,1112.25,1581.91,1881.55,1772.11,1576.52,1631.12,1680.95,1606.83,1606.83,1606.83
0.000201837	-135107.58	0,3.44936e-05,8.16917e-05,0.000146274,0.000234642,0.000355558,0.000521009,0.000747397,0.00105717,0.00148103,0.00206101,0.00285461,0.0039405,0.00542633,0.00745943,0.0102413,inf	270.68,270.68,320.424,280.225,436.339,699.564,1065.59,1653.66,2136.15,2008.75,1725.12,1945.79,2219.23,2157.69,2157.69,2157.69
0.000191302	-135077.07	0,3.44936e-05,8.16917e-05,0.000146274,0.000234642,0.000355558,0.000521009,0.000747397,0.00105717,0.00148103,0.00206101,0.00285461,0.0039405,0.00542633,0.00745943,0.0102413,inf	279.46,279.46,335.982,246.903,395.068,654.877,1022.32,1678.16,2325.43,2173.97,1801.25,2301.16,3336.23,3737.42,3737.42,3737.42
0.00018073	-135059.50	0,3.44936e-05,8.16917e-05,0.000146274,0.000234642,0.000355558,0.000521009,0.000747397,0.00105717,0.00148103,0.00206101,0.00285461,0.0039405,0.00542633,0.00745943,0.0102413,inf	289.857,289.857,360.955,228.681,373.261,627.88,986.801,1680.11,2472.19,2280.71,1818.64,2720.18,7995.76,20323.4,20323.4,20323.4
0.000170408	-135047.42	0,3.44936e-05,8.16917e-05,0.000146274,0.000234642,0.000355558,0.000521009,0.000747397,0.00105717,0.00148103,0.00206101,0.00285461,0.0039405,0.00542633,0.00745943,0.0102413,inf	299.294,299.294,386.952,217.37,362.065,612.259,958.869,1671.71,2591.5,2340.98,1794.23,3236.12,277122,64139,64139,64139
0.000160515	-135038.12	0,3.44936e-05,8.16917e-05,0.000146274,0.000234642,0.000355558,0.000521009,0.000747397,0.00105717,0.00148103,0.00206101,0.00285461,0.0039405,0.00542633,0.00745943,0.0102413,inf	308.405,308.405,410.862,209.513,356.773,603.944,937.354,1659,2693.14,2364.88,1744.2,3941.3,478504,500.049,500.049,500.049
0.000151158	-135030.43	0,3.44936e-05,8.16917e-05,0.000146274,0.000234642,0.000355558,0.000521009,0.000747397,0.00105717,0.00148103,0.00206101,0.00285461,0.0039405,0.00542633,0.00745943,0.0102413,inf	318.067,318.067,431.979,203.624,354.715,600.212,921.055,1644.92,2783.2,2360.13,1680.06,5082.88,485362,145.276,145.276,145.276
