0.000233243	-140060.44	0,1.63995e-05,3.55827e-05,5.80224e-05,8.42711e-05,0.000114976,0.000150892,0.000192906,0.000242051,0.000299538,0.000366784,0.000445445,0.000537459,0.000645092,0.000770996,0.000918272,0.00109055,0.00129207,0.0015278,0.00180354,0.00212609,0.00250339,0.00294474,0.00346101,0.00406492,0.00477134,0.00559767,0.00656427,0.00769496,0.00901758,0.0105647,0.0123745,inf	55.4783,55.4783,116.336,174.482,236.593,300.599,368.026,445.791,540.258,653.975,788.518,944.3,1115.23,1288.13,1439.68,1540.1,1575.12,1555.85,1507.48,1449.39,1393.42,1341.94,1293.83,1250.64,1214.88,1188.46,1172.83,1168.44,1168.44,1187.73,1187.73,1187.73
0.000231826	-139771.62	0,1.63995e-05,3.55827e-05,5.80224e-05,8.42711e-05,0.000114976,0.000150892,0.000192906,0.000242051,0.000299538,0.000366784,0.000445445,0.000537459,0.000645092,0.000770996,0.000918272,0.00109055,0.00129207,0.0015278,0.00180354,0.00212609,0.00250339,0.00294474,0.00346101,0.00406492,0.00477134,0.00559767,0.00656427,0.00769496,0.00901758,0.0105647,0.0123745,inf	5.19064,5.19064,22.7638,50.7829,91.545,141.704,196.869,263.284,353.803,476.393,636.582,839.27,1083.62,1361.05,1645.29,1879.72,2007.72,2019.31,1954.61,1856.23,1755.63,1658.77,1562.04,1471.77,1396.86,1343.6,1316.16,1317.86,1317.86,1382.46,1382.46,1382.46
0.000230818	-139672.88	0,1.63995e-05,3.55827e-05,5.80224e-05,8.42711e-05,0.000114976,0.000150892,0.000192906,0.000242051,0.000299538,0.000366784,0.000445445,0.000537459,0.000645092,0.000770996,0.000918272,0.00109055,0.00129207,0.0015278,0.00180354,0.00212609,0.00250339,0.00294474,0.00346101,0.00406492,0.00477134,0.00559767,0.00656427,0.00769496,0.00901758,0.0105647,0.0123745,inf	1.03509,1.03509,6.24788,20.5215,49.0052,91.2753,137.277,189.184,265.155,378.505,538.771,754.626,1030.23,1364.66,1740.69,2094.52,2331.77,2404.23,2351.48,2234.87,2108.86,1980.91,1839.81,1700,1582.64,1501.95,1466.82,1486.26,1486.26,1633.12,1633.12,1633.12
0.000229362	-139631.29	0,1.63995e-05,3.55827e-05,5.80224e-05,8.42711e-05,0.000114976,0.000150892,0.000192906,0.000242051,0.000299538,0.000366784,0.000445445,0.000537459,0.000645092,0.000770996,0.000918272,0.00109055,0.00129207,0.0015278,0.00180354,0.00212609,0.00250339,0.00294474,0.00346101,0.00406492,0.00477134,0.00559767,0.00656427,0.00769496,0.00901758,0.0105647,0.0123745,inf	1.03509,1.03509,2.12254,10.1947,32.3696,72.6434,115.385,156.565,219.249,320.917,474.345,691.28,979.642,1345.04,1782.01,2231.9,2575.02,2720.79,2698.21,2582.34,2452.78,2313.79,2136.06,1944.2,1779.49,1669.34,1630,1679.95,1679.95,1969.4,1969.4,1969.4
0.000227435	-139611.17	0,1.63995e-05,3.55827e-05,5.80224e-05,8.42711e-05,0.000114976,0.000150892,0.000192906,0.000242051,0.000299538,0.000366784,0.000445445,0.000537459,0.000645092,0.000770996,0.000918272,0.00109055,0.00129207,0.0015278,0.00180354,0.00212609,0.00250339,0.00294474,0.00346101,0.00406492,0.00477134,0.00559767,0.00656427,0.00769496,0.00901758,0.0105647,0.0123745,inf	1.03509,1.03509,1.03509,5.70959,24.2127,65.7903,109.255,142.491,194.381,285.486,430.731,644.277,936.815,1318.96,1796.47,2321.91,2761.47,2983.63,3001.78,2901.84,2792.1,2668.4,2465.77,2218.52,1998.77,1854.76,1813.79,1910.17,1910.17,2469.33,2469.33,2469.33
0.000225149	-139600.32	0,1.63995e-05,3.55827e-05,5.80224e-05,8.42711e-05,0.000114976,0.000150892,0.000192906,0.000242051,0.000299538,0.000366784,0.000445445,0.000537459,0.000645092,0.000770996,0.000918272,0.00109055,0.00129207,0.0015278,0.00180354,0.00212609,0.00250339,0.00294474,0.00346101,0.00406492,0.00477134,0.00559767,0.00656427,0.00769496,0.00901758,0.0105647,0.0123745,inf	1.03509,1.03509,1.03509,3.4001,19.3226,63.8672,110.713,137.561,180.671,262.957,400.453,609.127,901.707,1292.54,1797.22,2382.08,2907.84,3205.19,3269.97,3198.47,3134.21,3060.89,2851.22,2543.62,2256.44,2070.38,2030.02,2196.99,2196.99,3386.33,3386.33,3386.33
0.000222614	-139593.93	0,1.63995e-05,3.55827e-05,5.80224e-05,8.42711e-05,0.000114976,0.000150892,0.000192906,0.000242051,0.000299538,0.000366784,0.000445445,0.000537459,0.000645092,0.000770996,0.000918272,0.00109055,0.00129207,0.0015278,0.00180354,0.00212609,0.00250339,0.00294474,0.00346101,0.00406492,0.00477134,0.00559767,0.00656427,0.00769496,0.00901758,0.0105647,0.0123745,inf	1.03509,1.03509,1.03509,2.07497,15.8382,63.9312,116.023,137.361,173.191,248.289,378.986,582.546,873.171,1267.94,1790.89,2422.77,3025.29,3394.85,3509.58,3477.7,3488.53,3514.87,3327.3,2951.59,2576.2,2334.14,2296.92,2576.94,2576.94,6389.98,6389.98,6389.98
0.000219915	-139589.88	0,1.63995e-05,3.55827e-05,5.80224e-05,8.42711e-05,0.000114976,0.000150892,0.000192906,0.000242051,0.000299538,0.000366784,0.000445445,0.000537459,0.000645092,0.000770996,0.000918272,0.00109055,0.00129207,0.0015278,0.00180354,0.00212609,0.00250339,0.00294474,0.00346101,0.00406492,0.00477134,0.00559767,0.00656427,0.00769496,0.00901758,0.0105647,0.0123745,inf	1.03509,1.03509,1.03509,1.26989,13.0422,64.5068,123.166,139.597,169.298,238.595,363.515,562.239,849.993,1245.82,1780.95,2450.32,3121.32,3559.51,3726.21,3744.93,3867.17,4067.67,3955.19,3498.96,2997.55,2674.48,2644.69,3131.83,3131.83,57577.6,57577.6,57577.6
0.000217112	-139587.15	0,1.63995e-05,3.55827e-05,5.80224e-05,8.42711e-05,0.000114976,0.000150892,0.000192906,0.000242051,0.000299538,0.000366784,0.000445445,0.000537459,0.000645092,0.000770996,0.000918272,0.00109055,0.00129207,0.0015278,0.00180354,0.00212609,0.00250339,0.00294474,0.00346101,0.00406492,0.00477134,0.00559767,0.00656427,0.00769496,0.00901758,0.0105647,0.0123745,inf	1.03509,1.03509,1.03509,1.03509,10.662,64.8149,130.937,142.993,167.509,232.146,352.241,546.603,831.139,1226.24,1769.29,2468.75,3201.12,3704.27,3924.45,4005.55,4286.49,4784.86,4860.33,4302.69,3597.26,3144.17,3134.35,4090.46,4090.46,91882.5,91882.5,91882.5
0.000214248	-139585.21	0,1.63995e-05,3.55827e-05,5.80224e-05,8.42711e-05,0.000114976,0.000150892,0.000192906,0.000242051,0.000299538,0.000366784,0.000445445,0.000537459,0.000645092,0.000770996,0.000918272,0.00109055,0.00129207,0.0015278,0.00180354,0.00212609,0.00250339,0.00294474,0.00346101,0.00406492,0.00477134,0.00559767,0.00656427,0.00769496,0.00901758,0.0105647,0.0123745,inf	1.03509,1.03509,1.03509,1.03509,8.60456,64.4754,138.587,146.807,166.945,227.869,343.971,534.505,815.782,1209.05,1756.96,2480.7,3268.31,3832.91,4108.04,4265.17,4770.27,5798.95,6363.84,5669.83,4558.08,3859.28,3910.84,6624.37,6624.37,49524.9,49524.9,49524.9
0.000211356	-139583.78	0,1.63995e-05,3.55827e-05,5.80224e-05,8.42711e-05,0.000114976,0.000150892,0.000192906,0.000242051,0.000299538,0.000366784,0.000445445,0.000537459,0.000645092,0.000770996,0.000918272,0.00109055,0.00129207,0.0015278,0.00180354,0.00212609,0.00250339,0.00294474,0.00346101,0.00406492,0.00477134,0.00559767,0.00656427,0.00769496,0.00901758,0.0105647,0.0123745,inf	1.03509,1.03509,1.03509,1.03509,6.84149,63.3714,145.687,150.627,167.086,225.074,337.896,525.13,803.271,1194.01,1744.58,2487.94,3325.53,3948.31,4280.12,4529.93,5355.67,7437.87,9657.7,8800.34,6487.39,5150.36,5484.43,34891,34891,49524.9,49524.9,49524.9
0.000208456	-139582.69	0,1.63995e-05,3.55827e-05,5.80224e-05,8.42711e-05,0.000114976,0.000150892,0.000192906,0.000242051,0.000299538,0.000366784,0.000445445,0.000537459,0.000645092,0.000770996,0.000918272,0.00109055,0.00129207,0.0015278,0.00180354,0.00212609,0.00250339,0.00294474,0.00346101,0.00406492,0.00477134,0.00559767,0.00656427,0.00769496,0.00901758,0.0105647,0.0123745,inf	1.03509,1.03509,1.03509,1.03509,5.3594,61.5376,152.02,154.221,167.609,223.304,333.448,517.877,793.092,1180.87,1732.47,2491.72,3374.71,4052.64,4443.43,4807.01,6106.24,10844.5,23553.3,23654.1,13092.6,9173.07,11773.4,18806.4,18806.4,24392.4,24392.4,24392.4
0.000205566	-139581.82	0,1.63995e-05,3.55827e-05,5.80224e-05,8.42711e-05,0.000114976,0.000150892,0.000192906,0.000242051,0.000299538,0.000366784,0.000445445,0.000537459,0.000645092,0.000770996,0.000918272,0.00109055,0.00129207,0.0015278,0.00180354,0.00212609,0.00250339,0.00294474,0.00346101,0.00406492,0.00477134,0.00559767,0.00656427,0.00769496,0.00901758,0.0105647,0.0123745,inf	1.03509,1.03509,1.03509,1.03509,4.13959,59.0876,157.509,157.48,168.31,222.244,330.219,512.296,784.841,1169.42,1720.82,2492.92,3417.3,4147.62,4600.38,5105.25,7144.15,23559.9,888841,371122,3803.71,24935,462.91,146.621,146.621,190.171,190.171,190.171
