LogLikelihood = -215812.55984899771283

y0 0.8511002591632403913
y0_prime 0
y1 1.1219899559178709847
y1_prime 0
y2 0.82554199350167067895
y2_prime 0
y3 2.1195978916088056287
y3_prime 0
rho 0.001476936115024604949
rho.alpha 0.80894504382564924594
r_ii 0.99994237429300580899
theta 0.00050912277483813753523
