LogLikelihood = -43113.07112048091949

y0 0.79286848023596734336
y0_prime 0
y1 0.86724010334600665217
y1_prime 0
y2 1.2274511204354612293
y2_prime 0
y3 1.4751653874315695525
y3_prime 0
rho 0.00052607711601134192914
theta 0.00050882003064522918993
