time_index	left_time_boundary	right_time_boundary	lambda
0	0	4.56248e-05	984.63
1	4.56248e-05	0.000108054	984.63
2	0.000108054	0.000193477	840.047
3	0.000193477	0.000310362	557.562
4	0.000310362	0.000470298	671.666
5	0.000470298	0.00068914	762.835
6	0.00068914	0.000988585	772.942
7	0.000988585	0.00139832	813.814
8	0.00139832	0.00195897	864.098
9	0.00195897	0.00272611	863.816
10	0.00272611	0.0037758	844.668
11	0.0037758	0.00521211	690.219
12	0.00521211	0.00717743	1133.87
13	0.00717743	0.00986661	113511
14	0.00986661	0.0135463	113511
15	0.0135463	inf	113511
