time_index	left_time_boundary	right_time_boundary	lambda
0	0	9.27629e-05	446.744
1	9.27629e-05	0.000219692	446.744
2	0.000219692	0.00039337	387.672
3	0.00039337	0.000631018	388.95
4	0.000631018	0.000956194	380.832
5	0.000956194	0.00140114	334.132
6	0.00140114	0.00200996	403.292
7	0.00200996	0.00284302	415.924
8	0.00284302	0.00398291	412.484
9	0.00398291	0.00554264	468.797
10	0.00554264	0.00767684	495.358
11	0.00767684	0.0105971	331.589
12	0.0105971	0.0145929	216.135
13	0.0145929	0.0200605	55950.5
14	0.0200605	0.0275418	55950.5
15	0.0275418	inf	55950.5
