0.000650747	-4551257.38	0,4.56463e-06,1.03745e-05,1.77694e-05,2.71816e-05,3.91614e-05,5.44095e-05,7.38173e-05,9.85196e-05,0.000129961,0.000169979,0.000220915,0.000285746,0.000368264,0.000473293,0.000606974,0.000777124,0.000993691,0.00126934,0.00162019,0.00206674,0.00263513,0.00335857,0.00427936,0.00545136,0.00694308,0.00884174,0.0112584,0.0143343,0.0182493,0.0232324,0.0295748,inf	244.497,244.497,380.541,406.653,427.106,437.266,418.845,396.849,389.843,390.09,387.448,380.489,375.761,374.72,376.221,378.405,380.198,385.056,394.362,405.572,413.821,416.135,412.934,406.877,401.006,392.604,375.782,357.416,357.416,530.209,530.209,530.209
0.000671714	-4551052.47	0,4.56463e-06,1.03745e-05,1.77694e-05,2.71816e-05,3.91614e-05,5.44095e-05,7.38173e-05,9.85196e-05,0.000129961,0.000169979,0.000220915,0.000285746,0.000368264,0.000473293,0.000606974,0.000777124,0.000993691,0.00126934,0.00162019,0.00206674,0.00263513,0.00335857,0.00427936,0.00545136,0.00694308,0.00884174,0.0112584,0.0143343,0.0182493,0.0232324,0.0295748,inf	156.224,156.224,366.339,410.33,449.63,472.615,438.322,398.955,389.561,393.168,390.059,377.624,368.964,366.618,368.25,370.212,370.728,376.675,390.91,409.402,423.638,427.839,422.331,411.996,402.382,387.785,357.674,326.922,326.922,683.293,683.293,683.293
0.000690544	-4550932.65	0,4.56463e-06,1.03745e-05,1.77694e-05,2.71816e-05,3.91614e-05,5.44095e-05,7.38173e-05,9.85196e-05,0.000129961,0.000169979,0.000220915,0.000285746,0.000368264,0.000473293,0.000606974,0.000777124,0.000993691,0.00126934,0.00162019,0.00206674,0.00263513,0.00335857,0.00427936,0.00545136,0.00694308,0.00884174,0.0112584,0.0143343,0.0182493,0.0232324,0.0295748,inf	102.472,102.472,351.937,406.391,461.498,498.222,450.239,397.088,388.27,397.264,395.332,378.822,367.341,364.243,365.97,367.065,365.231,370.703,387.705,411.248,430,435.741,428.526,415.184,403.364,384.189,343.243,303.502,303.502,893.837,893.837,893.837
0.000707501	-4550858.50	0,4.56463e-06,1.03745e-05,1.77694e-05,2.71816e-05,3.91614e-05,5.44095e-05,7.38173e-05,9.85196e-05,0.000129961,0.000169979,0.000220915,0.000285746,0.000368264,0.000473293,0.000606974,0.000777124,0.000993691,0.00126934,0.00162019,0.00206674,0.00263513,0.00335857,0.00427936,0.00545136,0.00694308,0.00884174,0.0112584,0.0143343,0.0182493,0.0232324,0.0295748,inf	69.1727,69.1727,339.809,398.826,466.389,516.461,456.156,391.667,384.954,400.241,400.392,380.786,367.395,364.151,366.263,366.411,361.887,366.194,384.789,411.995,434.242,441.22,432.684,417.231,404.314,381.746,331.67,284.985,284.985,1257.88,1257.88,1257.88
0.000722815	-4550815.77	0,4.56463e-06,1.03745e-05,1.77694e-05,2.71816e-05,3.91614e-05,5.44095e-05,7.38173e-05,9.85196e-05,0.000129961,0.000169979,0.000220915,0.000285746,0.000368264,0.000473293,0.000606974,0.000777124,0.000993691,0.00126934,0.00162019,0.00206674,0.00263513,0.00335857,0.00427936,0.00545136,0.00694308,0.00884174,0.0112584,0.0143343,0.0182493,0.0232324,0.0295748,inf	48.0166,48.0166,331.095,390.553,467.777,530.426,458.517,384.227,380.252,402.026,404.604,382.501,367.85,364.946,367.775,367.089,359.833,362.683,382.192,412.152,437.157,445.113,435.499,418.566,405.355,380.265,322.249,269.915,269.915,2042.14,2042.14,2042.14
0.000736742	-4550804.80	0,4.56463e-06,1.03745e-05,1.77694e-05,2.71816e-05,3.91614e-05,5.44095e-05,7.38173e-05,9.85196e-05,0.000129961,0.000169979,0.000220915,0.000285746,0.000368264,0.000473293,0.000606974,0.000777124,0.000993691,0.00126934,0.00162019,0.00206674,0.00263513,0.00335857,0.00427936,0.00545136,0.00694308,0.00884174,0.0112584,0.0143343,0.0182493,0.0232324,0.0295748,inf	34.1432,34.1432,325.666,382.795,467.706,542.224,459.063,375.955,374.902,402.978,407.984,383.713,368.233,366.024,369.857,368.51,358.604,359.898,379.916,412.012,439.234,447.945,437.402,419.435,406.513,379.544,314.424,257.228,257.228,2656.1,2656.1,2656.1
0.000749741	-4550784.99	0,4.56463e-06,1.03745e-05,1.77694e-05,2.71816e-05,3.91614e-05,5.44095e-05,7.38173e-05,9.85196e-05,0.000129961,0.000169979,0.000220915,0.000285746,0.000368264,0.000473293,0.000606974,0.000777124,0.000993691,0.00126934,0.00162019,0.00206674,0.00263513,0.00335857,0.00427936,0.00545136,0.00694308,0.00884174,0.0112584,0.0143343,0.0182493,0.0232324,0.0295748,inf	24.7617,24.7617,322.936,375.867,467.17,553.089,458.855,367.603,369.448,403.494,410.756,384.463,368.428,367.15,372.216,370.385,357.961,357.692,377.975,411.779,440.814,450.098,438.719,420.042,407.864,379.549,307.959,245.953,245.953,3124.63,3124.63,3124.63
0.000762198	-4550754.09	0,4.56463e-06,1.03745e-05,1.77694e-05,2.71816e-05,3.91614e-05,5.44095e-05,7.38173e-05,9.85196e-05,0.000129961,0.000169979,0.000220915,0.000285746,0.000368264,0.000473293,0.000606974,0.000777124,0.000993691,0.00126934,0.00162019,0.00206674,0.00263513,0.00335857,0.00427936,0.00545136,0.00694308,0.00884174,0.0112584,0.0143343,0.0182493,0.0232324,0.0295748,inf	18.2282,18.2282,322.161,369.626,466.48,563.524,458.383,359.517,364.183,403.829,413.095,384.825,368.403,368.209,374.68,372.524,357.73,355.944,376.342,411.549,442.091,451.792,439.632,420.481,409.401,380.177,302.569,235.321,235.321,6750.48,6750.48,6750.48
0.000762198	-4550731.65	0,4.56463e-06,1.03745e-05,1.77694e-05,2.71816e-05,3.91614e-05,5.44095e-05,7.38173e-05,9.85196e-05,0.000129961,0.000169979,0.000220915,0.000285746,0.000368264,0.000473293,0.000606974,0.000777124,0.000993691,0.00126934,0.00162019,0.00206674,0.00263513,0.00335857,0.00427936,0.00545136,0.00694308,0.00884174,0.0112584,0.0143343,0.0182493,0.0232324,0.0295748,inf	13.501,13.501,321.13,362.007,463.343,570.786,455.482,350.023,357.382,402.018,412.936,382.858,366.249,367.229,375.182,372.871,356.005,352.851,373.222,409.473,441.22,451.34,438.7,419.502,409.923,380.105,297.158,225.305,225.305,63634.2,63634.2,63634.2
0.000762198	-4550742.87	0,4.56463e-06,1.03745e-05,1.77694e-05,2.71816e-05,3.91614e-05,5.44095e-05,7.38173e-05,9.85196e-05,0.000129961,0.000169979,0.000220915,0.000285746,0.000368264,0.000473293,0.000606974,0.000777124,0.000993691,0.00126934,0.00162019,0.00206674,0.00263513,0.00335857,0.00427936,0.00545136,0.00694308,0.00884174,0.0112584,0.0143343,0.0182493,0.0232324,0.0295748,inf	10.1155,10.1155,322.982,357.005,462.904,575.321,455.474,342.914,352.67,402.058,414.321,382.108,365.139,367.237,376.734,373.95,355.473,350.959,371.26,408.443,441.22,451.569,438.31,419.03,411.077,380.531,292.703,216.464,216.464,63640.6,63640.6,63640.6
0.000762198	-4550742.17	0,4.56463e-06,1.03745e-05,1.77694e-05,2.71816e-05,3.91614e-05,5.44095e-05,7.38173e-05,9.85196e-05,0.000129961,0.000169979,0.000220915,0.000285746,0.000368264,0.000473293,0.000606974,0.000777124,0.000993691,0.00126934,0.00162019,0.00206674,0.00263513,0.00335857,0.00427936,0.00545136,0.00694308,0.00884174,0.0112584,0.0143343,0.0182493,0.0232324,0.0295748,inf	7.61103,7.61103,325.923,353.016,463.523,577.412,455.474,336.878,348.778,402.656,416.038,381.535,364.139,367.333,378.454,374.184,355.356,349.559,369.801,407.858,441.571,452.056,438.134,418.828,411.769,380.531,289.255,208.675,208.675,63646.1,63646.1,63646.1
0.000762198	-4550742.10	0,4.56463e-06,1.03745e-05,1.77694e-05,2.71816e-05,3.91614e-05,5.44095e-05,7.38173e-05,9.85196e-05,0.000129961,0.000169979,0.000220915,0.000285746,0.000368264,0.000473293,0.000606974,0.000777124,0.000993691,0.00126934,0.00162019,0.00206674,0.00263513,0.00335857,0.00427936,0.00545136,0.00694308,0.00884174,0.0112584,0.0143343,0.0182493,0.0232324,0.0295748,inf	5.7387,5.7387,328.059,349.703,465.016,578.284,455.474,331.639,345.422,403.59,417.911,381.018,363.161,367.454,379.962,374.196,355.356,348.459,368.633,407.506,442.08,452.65,438.07,418.833,411.906,380.531,286.68,201.767,201.767,63650.9,63650.9,63650.9
0.000762198	-4550742.42	0,4.56463e-06,1.03745e-05,1.77694e-05,2.71816e-05,3.91614e-05,5.44095e-05,7.38173e-05,9.85196e-05,0.000129961,0.000169979,0.000220915,0.000285746,0.000368264,0.000473293,0.000606974,0.000777124,0.000993691,0.00126934,0.00162019,0.00206674,0.00263513,0.00335857,0.00427936,0.00545136,0.00694308,0.00884174,0.0112584,0.0143343,0.0182493,0.0232324,0.0295748,inf	4.33898,4.33898,330.032,346.911,467.161,578.284,455.503,327.041,342.482,404.741,419.865,380.519,362.187,367.576,381.161,374.196,355.356,347.558,367.646,407.278,442.651,453.164,438.067,418.835,411.906,380.531,284.859,195.599,195.599,63655.1,63655.1,63655.1
0.000762198	-4550742.93	0,4.56463e-06,1.03745e-05,1.77694e-05,2.71816e-05,3.91614e-05,5.44095e-05,7.38173e-05,9.85196e-05,0.000129961,0.000169979,0.000220915,0.000285746,0.000368264,0.000473293,0.000606974,0.000777124,0.000993691,0.00126934,0.00162019,0.00206674,0.00263513,0.00335857,0.00427936,0.00545136,0.00694308,0.00884174,0.0112584,0.0143343,0.0182493,0.0232324,0.0295748,inf	3.28328,3.28328,331.198,344.521,467.206,579.734,455.503,322.961,339.864,406.031,421.859,380.03,361.222,367.708,382.114,374.196,355.356,346.808,366.788,407.127,443.248,453.49,438.067,418.835,411.906,380.531,283.68,190.053,190.053,63658.8,63658.8,63658.8
0.000762198	-4550743.51	0,4.56463e-06,1.03745e-05,1.77694e-05,2.71816e-05,3.91614e-05,5.44095e-05,7.38173e-05,9.85196e-05,0.000129961,0.000169979,0.000220915,0.000285746,0.000368264,0.000473293,0.000606974,0.000777124,0.000993691,0.00126934,0.00162019,0.00206674,0.00263513,0.00335857,0.00427936,0.00545136,0.00694308,0.00884174,0.0112584,0.0143343,0.0182493,0.0232324,0.0295748,inf	2.48654,2.48654,332.181,342.554,468.751,579.735,455.503,319.266,337.478,407.406,423.854,379.53,360.26,367.846,382.157,374.792,355.356,346.181,366.031,407.028,443.265,454.128,438.08,418.835,411.906,380.531,283.045,185.032,185.032,63662,63662,63662
0.000762198	-4550744.04	0,4.56463e-06,1.03745e-05,1.77694e-05,2.71816e-05,3.91614e-05,5.44095e-05,7.38173e-05,9.85196e-05,0.000129961,0.000169979,0.000220915,0.000285746,0.000368264,0.000473293,0.000606974,0.000777124,0.000993691,0.00126934,0.00162019,0.00206674,0.00263513,0.00335857,0.00427936,0.00545136,0.00694308,0.00884174,0.0112584,0.0143343,0.0182493,0.0232324,0.0295748,inf	1.88492,1.88492,332.877,340.922,470.526,579.735,455.503,315.923,335.287,408.853,425.691,379.063,359.347,368.037,382.797,374.792,355.356,345.669,365.379,407.004,443.907,454.13,438.08,418.835,411.916,380.531,282.87,180.457,180.457,63664.9,63664.9,63664.9
0.000762198	-4550744.51	0,4.56463e-06,1.03745e-05,1.77694e-05,2.71816e-05,3.91614e-05,5.44095e-05,7.38173e-05,9.85196e-05,0.000129961,0.000169979,0.000220915,0.000285746,0.000368264,0.000473293,0.000606974,0.000777124,0.000993691,0.00126934,0.00162019,0.00206674,0.00263513,0.00335857,0.00427936,0.00545136,0.00694308,0.00884174,0.0112584,0.0143343,0.0182493,0.0232324,0.0295748,inf	1.4304,1.4304,333.577,339.538,471.613,579.735,455.503,312.863,333.246,410.331,427.273,378.583,358.44,368.236,383.432,374.792,355.356,345.234,364.788,407.008,444.479,454.13,438.08,418.835,411.916,380.531,282.87,176.266,176.266,63667.5,63667.5,63667.5
0.000762198	-4550744.99	0,4.56463e-06,1.03745e-05,1.77694e-05,2.71816e-05,3.91614e-05,5.44095e-05,7.38173e-05,9.85196e-05,0.000129961,0.000169979,0.000220915,0.000285746,0.000368264,0.000473293,0.000606974,0.000777124,0.000993691,0.00126934,0.00162019,0.00206674,0.00263513,0.00335857,0.00427936,0.00545136,0.00694308,0.00884174,0.0112584,0.0143343,0.0182493,0.0232324,0.0295748,inf	1.0884,1.0884,334.803,338.37,472.507,579.754,455.503,310.072,331.35,411.846,428.607,378.098,357.544,368.444,384.058,374.792,355.356,344.863,364.247,407.033,444.973,454.13,438.08,418.835,411.916,380.531,282.87,172.412,172.412,63669.9,63669.9,63669.9
0.000762198	-4550745.57	0,4.56463e-06,1.03745e-05,1.77694e-05,2.71816e-05,3.91614e-05,5.44095e-05,7.38173e-05,9.85196e-05,0.000129961,0.000169979,0.000220915,0.000285746,0.000368264,0.000473293,0.000606974,0.000777124,0.000993691,0.00126934,0.00162019,0.00206674,0.00263513,0.00335857,0.00427936,0.00545136,0.00694308,0.00884174,0.0112584,0.0143343,0.0182493,0.0232324,0.0295748,inf	1.0884,1.0884,334.915,337.365,473.297,579.754,455.503,307.518,329.585,413.404,429.711,377.616,356.655,368.656,384.674,374.792,355.356,344.545,363.745,407.073,444.981,454.464,438.08,418.835,411.916,380.531,282.87,168.861,168.861,63672,63672,63672
0.000762198	-4550746.22	0,4.56463e-06,1.03745e-05,1.77694e-05,2.71816e-05,3.91614e-05,5.44095e-05,7.38173e-05,9.85196e-05,0.000129961,0.000169979,0.000220915,0.000285746,0.000368264,0.000473293,0.000606974,0.000777124,0.000993691,0.00126934,0.00162019,0.00206674,0.00263513,0.00335857,0.00427936,0.00545136,0.00694308,0.00884174,0.0112584,0.0143343,0.0182493,0.0232324,0.0295748,inf	1.0884,1.0884,334.972,336.553,473.297,579.78,455.877,305.172,327.946,414.983,430.62,377.125,355.764,368.861,384.702,374.792,355.356,344.286,363.3,407.149,445.462,454.464,438.08,418.835,411.916,380.531,282.87,165.582,165.582,63674.1,63674.1,63674.1
