time_index	left_time_boundary	right_time_boundary	lambda
0	0	4.56463e-06	1.0884
1	4.56463e-06	1.03745e-05	1.0884
2	1.03745e-05	1.77694e-05	334.972
3	1.77694e-05	2.71816e-05	336.553
4	2.71816e-05	3.91614e-05	473.297
5	3.91614e-05	5.44095e-05	579.78
6	5.44095e-05	7.38173e-05	455.877
7	7.38173e-05	9.85196e-05	305.172
8	9.85196e-05	0.000129961	327.946
9	0.000129961	0.000169979	414.983
10	0.000169979	0.000220915	430.62
11	0.000220915	0.000285746	377.125
12	0.000285746	0.000368264	355.764
13	0.000368264	0.000473293	368.861
14	0.000473293	0.000606974	384.702
15	0.000606974	0.000777124	374.792
16	0.000777124	0.000993691	355.356
17	0.000993691	0.00126934	344.286
18	0.00126934	0.00162019	363.3
19	0.00162019	0.00206674	407.149
20	0.00206674	0.00263513	445.462
21	0.00263513	0.00335857	454.464
22	0.00335857	0.00427936	438.08
23	0.00427936	0.00545136	418.835
24	0.00545136	0.00694308	411.916
25	0.00694308	0.00884174	380.531
26	0.00884174	0.0112584	282.87
27	0.0112584	0.0143343	165.582
28	0.0143343	0.0182493	165.582
29	0.0182493	0.0232324	63674.1
30	0.0232324	0.0295748	63674.1
31	0.0295748	inf	63674.1
