time_index	left_time_boundary	right_time_boundary	lambda
0	0	4.27528e-05	28.8792
1	4.27528e-05	9.27629e-05	28.8792
2	9.27629e-05	0.000151262	698.378
3	0.000151262	0.000219692	566.712
4	0.000219692	0.000299737	305.953
5	0.000299737	0.00039337	370.928
6	0.00039337	0.000502898	407.258
7	0.000502898	0.000631018	393.564
8	0.000631018	0.000780886	385.607
9	0.000780886	0.000956194	368.479
10	0.000956194	0.00116126	341.722
11	0.00116126	0.00140114	338.891
12	0.00140114	0.00168173	369.739
13	0.00168173	0.00200996	413.827
14	0.00200996	0.0023939	431.097
15	0.0023939	0.00284302	424.45
16	0.00284302	0.00336838	421.951
17	0.00336838	0.00398291	439.87
18	0.00398291	0.00470176	455.621
19	0.00470176	0.00554264	457.599
20	0.00554264	0.00652625	454.225
21	0.00652625	0.00767684	439.492
22	0.00767684	0.00902273	405.865
23	0.00902273	0.0105971	315.856
24	0.0105971	0.0124387	255.87
25	0.0124387	0.0145929	309.135
26	0.0145929	0.0171128	571.92
27	0.0171128	0.0200605	600.501
28	0.0200605	0.0235085	600.501
29	0.0235085	0.0275418	82025.1
30	0.0275418	0.0322598	82025.1
31	0.0322598	inf	82025.1
