1.1058e-05	-8013.58	0,1.43564e-06,3.40004e-06,6.08796e-06,9.76589e-06,1.47984e-05,2.16846e-05,3.1107e-05,4.39998e-05,6.16412e-05,8.57802e-05,0.00011881,0.000164005,0.000225846,0.000310464,0.000426248,inf	3145.94,3145.94,8012.82,16232.9,27967.3,30226.7,26564.9,26679.8,27395.3,26789,30499.4,34224.3,36363.7,40997.7,40997.7,40997.7
1.23012e-05	-8009.36	0,1.43564e-06,3.40004e-06,6.08796e-06,9.76589e-06,1.47984e-05,2.16846e-05,3.1107e-05,4.39998e-05,6.16412e-05,8.57802e-05,0.00011881,0.000164005,0.000225846,0.000310464,0.000426248,inf	501.488,501.488,3203.41,12008.1,30990.8,33984.5,26539.3,26688.7,27881.3,26740.4,34607.8,45179.7,55640.9,86964.3,86964.3,86964.3
1.34059e-05	-8007.45	0,1.43564e-06,3.40004e-06,6.08796e-06,9.76589e-06,1.47984e-05,2.16846e-05,3.1107e-05,4.39998e-05,6.16412e-05,8.57802e-05,0.00011881,0.000164005,0.000225846,0.000310464,0.000426248,inf	88.1958,88.1958,1401.77,9339.15,33736.6,36729.1,26105.4,26380.2,27795.7,26113.8,38416.4,62123.4,110490,634292,634292,634292
1.34059e-05	-8006.40	0,1.43564e-06,3.40004e-06,6.08796e-06,9.76589e-06,1.47984e-05,2.16846e-05,3.1107e-05,4.39998e-05,6.16412e-05,8.57802e-05,0.00011881,0.000164005,0.000225846,0.000310464,0.000426248,inf	25.6552,25.6552,639.565,7362.87,35171.1,37608.2,25085.5,25550.5,26984.3,24956.8,41904.5,97799.1,625159,3.38896e+06,3.38896e+06,3.38896e+06
