0.000647887	-8498939.49	0,2.63262e-06,6.0494e-06,1.04839e-05,1.62393e-05,2.37091e-05,3.34039e-05,4.59863e-05,6.23167e-05,8.35113e-05,0.000111019,0.000146721,0.000193056,0.000253194,0.000331244,0.000432543,0.000564015,0.000734648,0.000956108,0.00124353,0.00161657,0.00210072,0.00272909,0.00354462,0.00460308,0.00597681,0.00775973,0.0100737,0.013077,0.0169748,0.0220336,0.0285993,inf	48.861,48.861,112.121,215.168,334.685,355.927,332.026,301.072,267.905,260.064,266.2,276.098,286.587,296.101,305.799,315.43,326.154,339.653,356.559,376.852,400.408,424.159,441.973,448.073,445.517,440.493,435.717,437.341,437.341,451.664,451.664,451.664
0.000677124	-8497066.32	0,2.63262e-06,6.0494e-06,1.04839e-05,1.62393e-05,2.37091e-05,3.34039e-05,4.59863e-05,6.23167e-05,8.35113e-05,0.000111019,0.000146721,0.000193056,0.000253194,0.000331244,0.000432543,0.000564015,0.000734648,0.000956108,0.00124353,0.00161657,0.00210072,0.00272909,0.00354462,0.00460308,0.00597681,0.00775973,0.0100737,0.013077,0.0169748,0.0220336,0.0285993,inf	8.05361,8.05361,41.8019,151.256,357.503,401.423,354.241,293.98,235.397,222.813,230.789,243.464,256.834,267.795,278.697,288.655,299.978,315.594,336.703,363.712,397.366,433.985,463.993,476.068,473.835,467.114,460.379,468.016,468.016,510.068,510.068,510.068
0.000704343	-8496308.35	0,2.63262e-06,6.0494e-06,1.04839e-05,1.62393e-05,2.37091e-05,3.34039e-05,4.59863e-05,6.23167e-05,8.35113e-05,0.000111019,0.000146721,0.000193056,0.000253194,0.000331244,0.000432543,0.000564015,0.000734648,0.000956108,0.00124353,0.00161657,0.00210072,0.00272909,0.00354462,0.00460308,0.00597681,0.00775973,0.0100737,0.013077,0.0169748,0.0220336,0.0285993,inf	1.38429,1.38429,16.0821,107.397,378.401,449.721,383.276,298.355,221.77,208.575,219.288,234.35,249.795,261.136,271.984,280.534,290.256,305.056,326.57,355.636,393.932,437.929,476.273,493.409,492.795,486.335,479.608,497.031,497.031,587.665,587.665,587.665
0.000729659	-8495879.77	0,2.63262e-06,6.0494e-06,1.04839e-05,1.62393e-05,2.37091e-05,3.34039e-05,4.59863e-05,6.23167e-05,8.35113e-05,0.000111019,0.000146721,0.000193056,0.000253194,0.000331244,0.000432543,0.000564015,0.000734648,0.000956108,0.00124353,0.00161657,0.00210072,0.00272909,0.00354462,0.00460308,0.00597681,0.00775973,0.0100737,0.013077,0.0169748,0.0220336,0.0285993,inf	0.404106,0.404106,6.1342,74.5789,385.903,484.858,404.156,300.351,212.019,200.654,214.666,232.125,249.604,261.354,272.227,279.277,287.084,300.32,320.95,350.188,390.548,438.859,482.86,503.958,505.368,500.202,494.789,525.307,525.307,702.492,702.492,702.492
0.000753411	-8495583.17	0,2.63262e-06,6.0494e-06,1.04839e-05,1.62393e-05,2.37091e-05,3.34039e-05,4.59863e-05,6.23167e-05,8.35113e-05,0.000111019,0.000146721,0.000193056,0.000253194,0.000331244,0.000432543,0.000564015,0.000734648,0.000956108,0.00124353,0.00161657,0.00210072,0.00272909,0.00354462,0.00460308,0.00597681,0.00775973,0.0100737,0.013077,0.0169748,0.0220336,0.0285993,inf	0.40409,0.40409,2.33275,51.1904,384.34,508.289,417.064,299.087,203.361,194.932,212.221,231.851,251.262,263.562,274.771,280.646,286.776,298.411,317.766,346.388,387.513,438.337,486.142,510.188,513.596,510.201,506.947,553.607,553.607,905.465,905.465,905.465
0.000775886	-8495352.17	0,2.63262e-06,6.0494e-06,1.04839e-05,1.62393e-05,2.37091e-05,3.34039e-05,4.59863e-05,6.23167e-05,8.35113e-05,0.000111019,0.000146721,0.000193056,0.000253194,0.000331244,0.000432543,0.000564015,0.000734648,0.000956108,0.00124353,0.00161657,0.00210072,0.00272909,0.00354462,0.00460308,0.00597681,0.00775973,0.0100737,0.013077,0.0169748,0.0220336,0.0285993,inf	0.40409,0.40409,0.889437,35.1122,378.668,524.138,424.721,295.842,195.499,190.363,210.594,232.002,253.114,266.02,277.835,282.923,287.746,297.978,316.023,343.72,384.935,437.179,487.5,513.645,518.837,517.369,516.82,582.591,582.591,1438.65,1438.65,1438.65
0.000797294	-8495160.02	0,2.63262e-06,6.0494e-06,1.04839e-05,1.62393e-05,2.37091e-05,3.34039e-05,4.59863e-05,6.23167e-05,8.35113e-05,0.000111019,0.000146721,0.000193056,0.000253194,0.000331244,0.000432543,0.000564015,0.000734648,0.000956108,0.00124353,0.00161657,0.00210072,0.00272909,0.00354462,0.00460308,0.00597681,0.00775973,0.0100737,0.013077,0.0169748,0.0220336,0.0285993,inf	0.40409,0.40409,0.404089,24.2236,371.776,535.472,429.265,291.686,188.491,186.667,209.42,232.164,254.676,268.153,280.747,285.379,289.259,298.343,315.176,341.861,382.814,435.802,487.735,515.298,521.996,522.435,524.939,612.884,612.884,5520.26,5520.26,5520.26
0.000797294	-8494994.05	0,2.63262e-06,6.0494e-06,1.04839e-05,1.62393e-05,2.37091e-05,3.34039e-05,4.59863e-05,6.23167e-05,8.35113e-05,0.000111019,0.000146721,0.000193056,0.000253194,0.000331244,0.000432543,0.000564015,0.000734648,0.000956108,0.00124353,0.00161657,0.00210072,0.00272909,0.00354462,0.00460308,0.00597681,0.00775973,0.0100737,0.013077,0.0169748,0.0220336,0.0285993,inf	0.40409,0.40409,0.404089,16.6948,361.763,539.096,428.048,284.65,180.733,182.113,206.768,230.248,253.664,267.523,280.893,285.337,288.617,296.806,312.532,338.127,378.451,431.51,484.308,513.054,521.424,524.038,530.175,643.802,643.802,61674.2,61674.2,61674.2
