AIC = 3111350.2532830312848

y0 1.0611491844603515577
y0_prime 0
y1 1.0863621716662037464
y1_prime 0
y2 0.84985851328126305049
y2_prime 0
y3 1.8863510244020147422
y3_prime 0
rho 0.004570836651591255774
rho.alpha 0.18296366096497596043
r_ii 0.99995069752127940799
theta 0.0051753302007029470047
