LogLikelihood = -176883.73613396665314

y0 0.82949552526910874661
y0_prime 0
y1 0.98961548036399760164
y1_prime 0
y2 1.0434088461793495917
y2_prime 0
y3 1.84538217029065299
y3_prime 0
rho 0.00064100729613942046461
theta 0.0026257325590837328477
