time_index	left_time_boundary	right_time_boundary	lambda
0	0	2.14185e-05	687.207
1	2.14185e-05	5.41872e-05	687.207
2	5.41872e-05	0.000104321	122.547
3	0.000104321	0.000181022	407.965
4	0.000181022	0.000298368	490.172
5	0.000298368	0.0004779	353.289
6	0.0004779	0.00075257	380.978
7	0.00075257	0.00117279	382.841
8	0.00117279	0.00181571	443.997
9	0.00181571	0.00279931	424.273
10	0.00279931	0.00430416	337.232
11	0.00430416	0.00660647	306.277
12	0.00660647	0.0101288	349.622
13	0.0101288	0.0155178	53173.6
14	0.0155178	0.0237624	53173.6
15	0.0237624	inf	53173.6
