0.000680906	-13579403.91	0,1.75452e-06,4.06567e-06,7.11002e-06,1.11202e-05,1.64026e-05,2.33608e-05,3.25265e-05,4.46e-05,6.05038e-05,8.14531e-05,0.000109048,0.000145398,0.00019328,0.000256353,0.000339435,0.000448875,0.000593034,0.000782928,0.00103307,0.00136256,0.00179658,0.0023683,0.0031214,0.00411341,0.00542014,0.00714142,0.00940878,0.0123955,0.0163297,0.021512,0.0283384,inf	373.347,373.347,594.618,623.763,664.766,630.727,550.825,474.339,432.702,416.484,406.008,398.949,397.115,395.753,390.592,385.111,384.564,386.824,390.446,396.082,401.889,405.622,405.656,402.819,401.567,402.41,401.147,399.199,399.199,437.534,437.534,437.534
0.000734585	-13576867.63	0,1.75452e-06,4.06567e-06,7.11002e-06,1.11202e-05,1.64026e-05,2.33608e-05,3.25265e-05,4.46e-05,6.05038e-05,8.14531e-05,0.000109048,0.000145398,0.00019328,0.000256353,0.000339435,0.000448875,0.000593034,0.000782928,0.00103307,0.00136256,0.00179658,0.0023683,0.0031214,0.00411341,0.00542014,0.00714142,0.00940878,0.0123955,0.0163297,0.021512,0.0283384,inf	266.366,266.366,634.801,699.008,812.85,763.116,618.606,492.67,435.022,417.823,405.847,397.956,398.421,398.191,389.465,379.667,378.468,381.573,386.605,395.043,403.858,409.244,408.323,402.786,400.723,402.58,400.393,396.692,396.692,474.437,474.437,474.437
0.000783503	-13574970.40	0,1.75452e-06,4.06567e-06,7.11002e-06,1.11202e-05,1.64026e-05,2.33608e-05,3.25265e-05,4.46e-05,6.05038e-05,8.14531e-05,0.000109048,0.000145398,0.00019328,0.000256353,0.000339435,0.000448875,0.000593034,0.000782928,0.00103307,0.00136256,0.00179658,0.0023683,0.0031214,0.00411341,0.00542014,0.00714142,0.00940878,0.0123955,0.0163297,0.021512,0.0283384,inf	188.304,188.304,620.024,696.694,885.731,834.121,642.63,487.055,425.839,413.248,402.852,396.389,400.709,402.641,391.184,377.914,376.25,379.696,385.248,395.261,405.863,412.054,409.919,402.024,399.517,402.49,399.612,394.301,394.301,513.294,513.294,513.294
0.000828145	-13573510.41	0,1.75452e-06,4.06567e-06,7.11002e-06,1.11202e-05,1.64026e-05,2.33608e-05,3.25265e-05,4.46e-05,6.05038e-05,8.14531e-05,0.000109048,0.000145398,0.00019328,0.000256353,0.000339435,0.000448875,0.000593034,0.000782928,0.00103307,0.00136256,0.00179658,0.0023683,0.0031214,0.00411341,0.00542014,0.00714142,0.00940878,0.0123955,0.0163297,0.021512,0.0283384,inf	141.949,141.949,598.993,666.882,923.093,875.286,647.403,473.095,413.501,407.019,398.844,394.399,403,407.428,393.68,377.555,375.627,379.201,384.856,395.818,407.581,414.173,410.78,400.851,398.151,402.276,398.857,392.042,392.042,555.002,555.002,555.002
0.000868978	-13572367.53	0,1.75452e-06,4.06567e-06,7.11002e-06,1.11202e-05,1.64026e-05,2.33608e-05,3.25265e-05,4.46e-05,6.05038e-05,8.14531e-05,0.000109048,0.000145398,0.00019328,0.000256353,0.000339435,0.000448875,0.000593034,0.000782928,0.00103307,0.00136256,0.00179658,0.0023683,0.0031214,0.00411341,0.00542014,0.00714142,0.00940878,0.0123955,0.0163297,0.021512,0.0283384,inf	115.215,115.215,584.644,630.391,945.103,902.828,644.344,457.223,401.331,400.968,394.753,392.263,405.105,412.058,396.27,377.753,375.733,379.34,384.882,396.44,409.013,415.794,411.171,399.475,396.745,402.018,398.157,389.916,389.916,600.701,600.701,600.701
0.000906413	-13571461.21	0,1.75452e-06,4.06567e-06,7.11002e-06,1.11202e-05,1.64026e-05,2.33608e-05,3.25265e-05,4.46e-05,6.05038e-05,8.14531e-05,0.000109048,0.000145398,0.00019328,0.000256353,0.000339435,0.000448875,0.000593034,0.000782928,0.00103307,0.00136256,0.00179658,0.0023683,0.0031214,0.00411341,0.00542014,0.00714142,0.00940878,0.0123955,0.0163297,0.021512,0.0283384,inf	99.6294,99.6294,577.84,594.225,960.466,923.86,638.214,441.804,390.439,395.742,390.964,390.142,407.019,416.389,398.712,378.167,376.194,379.785,385.098,397.041,410.212,417.065,411.265,398.015,395.362,401.757,397.518,387.913,387.913,651.966,651.966,651.966
0.000940807	-13570734.86	0,1.75452e-06,4.06567e-06,7.11002e-06,1.11202e-05,1.64026e-05,2.33608e-05,3.25265e-05,4.46e-05,6.05038e-05,8.14531e-05,0.000109048,0.000145398,0.00019328,0.000256353,0.000339435,0.000448875,0.000593034,0.000782928,0.00103307,0.00136256,0.00179658,0.0023683,0.0031214,0.00411341,0.00542014,0.00714142,0.00940878,0.0123955,0.0163297,0.021512,0.0283384,inf	90.6092,90.6092,576.607,560.4,972.614,941.373,630.96,427.594,381.081,391.513,387.61,388.123,408.766,420.398,400.929,378.645,376.828,380.381,385.399,397.593,411.23,418.091,411.173,396.54,394.034,401.514,396.938,386.019,386.019,711.145,711.145,711.145
0.000972468	-13570147.57	0,1.75452e-06,4.06567e-06,7.11002e-06,1.11202e-05,1.64026e-05,2.33608e-05,3.25265e-05,4.46e-05,6.05038e-05,8.14531e-05,0.000109048,0.000145398,0.00019328,0.000256353,0.000339435,0.000448875,0.000593034,0.000782928,0.00103307,0.00136256,0.00179658,0.0023683,0.0031214,0.00411341,0.00542014,0.00714142,0.00940878,0.0123955,0.0163297,0.021512,0.0283384,inf	85.5209,85.5209,578.92,529.092,982.925,956.629,623.331,414.741,373.182,388.241,384.7,386.236,410.378,424.099,402.906,379.121,377.543,381.045,385.731,398.091,412.109,418.941,410.966,395.089,392.772,401.298,396.408,384.22,384.22,782.071,782.071,782.071
0.00100166	-13569669.17	0,1.75452e-06,4.06567e-06,7.11002e-06,1.11202e-05,1.64026e-05,2.33608e-05,3.25265e-05,4.46e-05,6.05038e-05,8.14531e-05,0.000109048,0.000145398,0.00019328,0.000256353,0.000339435,0.000448875,0.000593034,0.000782928,0.00103307,0.00136256,0.00179658,0.0023683,0.0031214,0.00411341,0.00542014,0.00714142,0.00940878,0.0123955,0.0163297,0.021512,0.0283384,inf	83.0892,83.0892,583.077,500.29,992.07,970.28,615.684,403.171,366.58,385.833,382.204,384.489,411.881,427.522,404.654,379.564,378.289,381.731,386.065,398.535,412.878,419.663,410.686,393.681,391.582,401.11,395.92,382.502,382.502,871.716,871.716,871.716
0.00102863	-13569277.08	0,1.75452e-06,4.06567e-06,7.11002e-06,1.11202e-05,1.64026e-05,2.33608e-05,3.25265e-05,4.46e-05,6.05038e-05,8.14531e-05,0.000109048,0.000145398,0.00019328,0.000256353,0.000339435,0.000448875,0.000593034,0.000782928,0.00103307,0.00136256,0.00179658,0.0023683,0.0031214,0.00411341,0.00542014,0.00714142,0.00940878,0.0123955,0.0163297,0.021512,0.0283384,inf	82.4237,82.4237,588.102,473.798,1000.3,982.586,608.09,392.754,361.1,384.176,380.069,382.872,413.296,430.697,406.193,379.962,379.038,382.416,386.386,398.927,413.559,420.29,410.364,392.326,390.462,400.948,395.463,380.851,380.851,994.98,994.98,994.98
0.00105356	-13568954.19	0,1.75452e-06,4.06567e-06,7.11002e-06,1.11202e-05,1.64026e-05,2.33608e-05,3.25265e-05,4.46e-05,6.05038e-05,8.14531e-05,0.000109048,0.000145398,0.00019328,0.000256353,0.000339435,0.000448875,0.000593034,0.000782928,0.00103307,0.00136256,0.00179658,0.0023683,0.0031214,0.00411341,0.00542014,0.00714142,0.00940878,0.0123955,0.0163297,0.021512,0.0283384,inf	83.0803,83.0803,593.376,449.373,1007.77,993.795,600.623,383.317,356.574,383.157,378.25,381.375,414.636,433.65,407.544,380.309,379.776,383.084,386.686,399.271,414.17,420.845,410.019,391.028,389.407,400.809,395.022,379.25,379.25,1193.5,1193.5,1193.5
0.00107665	-13568687.61	0,1.75452e-06,4.06567e-06,7.11002e-06,1.11202e-05,1.64026e-05,2.33608e-05,3.25265e-05,4.46e-05,6.05038e-05,8.14531e-05,0.000109048,0.000145398,0.00019328,0.000256353,0.000339435,0.000448875,0.000593034,0.000782928,0.00103307,0.00136256,0.00179658,0.0023683,0.0031214,0.00411341,0.00542014,0.00714142,0.00940878,0.0123955,0.0163297,0.021512,0.0283384,inf	84.7007,84.7007,598.421,426.811,1014.68,1004.03,593.263,374.737,352.85,382.678,376.693,379.983,415.912,436.406,408.728,380.608,380.493,383.727,386.959,399.572,414.721,421.345,409.662,389.787,388.411,400.682,394.577,377.68,377.68,1669.4,1669.4,1669.4
0.00109803	-13568468.56	0,1.75452e-06,4.06567e-06,7.11002e-06,1.11202e-05,1.64026e-05,2.33608e-05,3.25265e-05,4.46e-05,6.05038e-05,8.14531e-05,0.000109048,0.000145398,0.00019328,0.000256353,0.000339435,0.000448875,0.000593034,0.000782928,0.00103307,0.00136256,0.00179658,0.0023683,0.0031214,0.00411341,0.00542014,0.00714142,0.00940878,0.0123955,0.0163297,0.021512,0.0283384,inf	87.1073,87.1073,602.953,405.962,1021.11,1013.4,586.04,366.899,349.807,382.648,375.353,378.679,417.13,438.987,409.762,380.858,381.184,384.341,387.203,399.832,415.223,421.801,409.301,388.597,387.461,400.544,394.082,376.101,376.101,5115.24,5115.24,5115.24
0.00109803	-13568292.68	0,1.75452e-06,4.06567e-06,7.11002e-06,1.11202e-05,1.64026e-05,2.33608e-05,3.25265e-05,4.46e-05,6.05038e-05,8.14531e-05,0.000109048,0.000145398,0.00019328,0.000256353,0.000339435,0.000448875,0.000593034,0.000782928,0.00103307,0.00136256,0.00179658,0.0023683,0.0031214,0.00411341,0.00542014,0.00714142,0.00940878,0.0123955,0.0163297,0.021512,0.0283384,inf	89.758,89.758,603.509,384.501,1021.39,1016.22,575.677,357.648,345.361,380.815,372.051,375.282,415.865,438.808,408.245,378.839,379.619,382.688,385.203,397.806,413.4,420.012,407.001,385.86,385.129,399.028,392.268,373.591,373.591,59935,59935,59935
0.00109803	-13568283.56	0,1.75452e-06,4.06567e-06,7.11002e-06,1.11202e-05,1.64026e-05,2.33608e-05,3.25265e-05,4.46e-05,6.05038e-05,8.14531e-05,0.000109048,0.000145398,0.00019328,0.000256353,0.000339435,0.000448875,0.000593034,0.000782928,0.00103307,0.00136256,0.00179658,0.0023683,0.0031214,0.00411341,0.00542014,0.00714142,0.00940878,0.0123955,0.0163297,0.021512,0.0283384,inf	90.545,90.545,603.511,367.189,1030.14,1019.55,570.262,351.392,343.373,381.255,370.617,373.496,416.189,440.237,408.219,378.223,379.47,382.453,384.595,397.164,412.949,419.541,405.882,384.099,383.571,398.123,390.947,371.42,371.42,59937.1,59937.1,59937.1
0.00109803	-13568276.51	0,1.75452e-06,4.06567e-06,7.11002e-06,1.11202e-05,1.64026e-05,2.33608e-05,3.25265e-05,4.46e-05,6.05038e-05,8.14531e-05,0.000109048,0.000145398,0.00019328,0.000256353,0.000339435,0.000448875,0.000593034,0.000782928,0.00103307,0.00136256,0.00179658,0.0023683,0.0031214,0.00411341,0.00542014,0.00714142,0.00940878,0.0123955,0.0163297,0.021512,0.0283384,inf	90.9128,90.9128,603.511,351.734,1030.14,1028.46,566.731,346.267,342.188,382.341,369.573,371.912,416.63,441.816,408.371,377.834,379.614,382.57,384.391,396.983,413.021,419.64,405.331,382.878,382.54,397.697,390.047,369.543,369.543,59938.6,59938.6,59938.6
0.00109803	-13568272.61	0,1.75452e-06,4.06567e-06,7.11002e-06,1.11202e-05,1.64026e-05,2.33608e-05,3.25265e-05,4.46e-05,6.05038e-05,8.14531e-05,0.000109048,0.000145398,0.00019328,0.000256353,0.000339435,0.000448875,0.000593034,0.000782928,0.00103307,0.00136256,0.00179658,0.0023683,0.0031214,0.00411341,0.00542014,0.00714142,0.00940878,0.0123955,0.0163297,0.021512,0.0283384,inf	90.9128,90.9128,603.98,337.772,1040.74,1028.46,564.162,341.733,341.409,383.72,368.662,370.34,416.993,443.281,408.433,377.402,379.752,382.581,384.253,396.91,413.267,419.64,405.084,381.984,381.832,397.579,389.43,367.874,367.874,59939.9,59939.9,59939.9
0.00109803	-13568270.08	0,1.75452e-06,4.06567e-06,7.11002e-06,1.11202e-05,1.64026e-05,2.33608e-05,3.25265e-05,4.46e-05,6.05038e-05,8.14531e-05,0.000109048,0.000145398,0.00019328,0.000256353,0.000339435,0.000448875,0.000593034,0.000782928,0.00103307,0.00136256,0.00179658,0.0023683,0.0031214,0.00411341,0.00542014,0.00714142,0.00940878,0.0123955,0.0163297,0.021512,0.0283384,inf	90.9646,90.9646,603.98,324.869,1050.54,1028.46,562.466,337.725,340.984,385.344,367.882,368.799,417.311,444.679,408.445,376.938,379.889,382.745,384.15,396.895,413.36,419.64,405.026,381.3,381.335,397.671,389.012,366.361,366.361,59940.9,59940.9,59940.9
0.00109803	-13568268.26	0,1.75452e-06,4.06567e-06,7.11002e-06,1.11202e-05,1.64026e-05,2.33608e-05,3.25265e-05,4.46e-05,6.05038e-05,8.14531e-05,0.000109048,0.000145398,0.00019328,0.000256353,0.000339435,0.000448875,0.000593034,0.000782928,0.00103307,0.00136256,0.00179658,0.0023683,0.0031214,0.00411341,0.00542014,0.00714142,0.00940878,0.0123955,0.0163297,0.021512,0.0283384,inf	90.9967,90.9967,603.981,312.811,1059.69,1028.46,561.384,334.086,340.795,387.15,367.173,367.271,417.581,445.967,408.405,376.437,379.997,382.903,384.052,396.908,413.36,419.697,405.026,380.756,380.98,397.906,388.737,364.966,364.966,59941.8,59941.8,59941.8
0.00109803	-13568266.86	0,1.75452e-06,4.06567e-06,7.11002e-06,1.11202e-05,1.64026e-05,2.33608e-05,3.25265e-05,4.46e-05,6.05038e-05,8.14531e-05,0.000109048,0.000145398,0.00019328,0.000256353,0.000339435,0.000448875,0.000593034,0.000782928,0.00103307,0.00136256,0.00179658,0.0023683,0.0031214,0.00411341,0.00542014,0.00714142,0.00940878,0.0123955,0.0163297,0.021512,0.0283384,inf	91.4366,91.4366,603.982,301.495,1068.28,1028.46,560.733,330.719,340.774,389.081,366.526,365.762,417.822,447.04,408.328,375.916,380.095,383.057,383.962,396.908,413.36,419.772,405.026,380.305,380.72,398.24,388.567,363.665,363.665,59942.6,59942.6,59942.6
0.00109803	-13568265.71	0,1.75452e-06,4.06567e-06,7.11002e-06,1.11202e-05,1.64026e-05,2.33608e-05,3.25265e-05,4.46e-05,6.05038e-05,8.14531e-05,0.000109048,0.000145398,0.00019328,0.000256353,0.000339435,0.000448875,0.000593034,0.000782928,0.00103307,0.00136256,0.00179658,0.0023683,0.0031214,0.00411341,0.00542014,0.00714142,0.00940878,0.0123955,0.0163297,0.021512,0.0283384,inf	91.6357,91.6357,603.984,290.848,1076.36,1028.46,560.405,327.544,340.862,390.987,365.933,364.285,418.062,447.968,408.239,375.394,380.193,383.215,383.878,396.958,413.418,419.772,405.026,379.92,380.526,398.24,388.492,362.439,362.439,59943.4,59943.4,59943.4
0.00109803	-13568264.64	0,1.75452e-06,4.06567e-06,7.11002e-06,1.11202e-05,1.64026e-05,2.33608e-05,3.25265e-05,4.46e-05,6.05038e-05,8.14531e-05,0.000109048,0.000145398,0.00019328,0.000256353,0.000339435,0.000448875,0.000593034,0.000782928,0.00103307,0.00136256,0.00179658,0.0023683,0.0031214,0.00411341,0.00542014,0.00714142,0.00940878,0.0123955,0.0163297,0.021512,0.0283384,inf	91.8299,91.8299,603.985,280.744,1084.03,1028.46,560.314,324.528,341.048,392.624,365.393,362.846,418.314,448.843,408.148,374.871,380.289,383.368,383.794,397.015,413.418,419.814,405.026,379.605,380.405,398.24,388.507,361.29,361.29,59944.1,59944.1,59944.1
0.00109803	-13568263.73	0,1.75452e-06,4.06567e-06,7.11002e-06,1.11202e-05,1.64026e-05,2.33608e-05,3.25265e-05,4.46e-05,6.05038e-05,8.14531e-05,0.000109048,0.000145398,0.00019328,0.000256353,0.000339435,0.000448875,0.000593034,0.000782928,0.00103307,0.00136256,0.00179658,0.0023683,0.0031214,0.00411341,0.00542014,0.00714142,0.00940878,0.0123955,0.0163297,0.021512,0.0283384,inf	91.9409,91.9409,603.986,271.141,1091.33,1028.46,560.314,321.652,341.327,394.069,364.911,361.449,418.582,449.655,408.059,374.352,380.386,383.521,383.71,397.078,413.467,419.814,405.026,379.341,380.341,398.44,388.507,360.209,360.209,59944.7,59944.7,59944.7
0.00109803	-13568262.96	0,1.75452e-06,4.06567e-06,7.11002e-06,1.11202e-05,1.64026e-05,2.33608e-05,3.25265e-05,4.46e-05,6.05038e-05,8.14531e-05,0.000109048,0.000145398,0.00019328,0.000256353,0.000339435,0.000448875,0.000593034,0.000782928,0.00103307,0.00136256,0.00179658,0.0023683,0.0031214,0.00411341,0.00542014,0.00714142,0.00940878,0.0123955,0.0163297,0.021512,0.0283384,inf	92.1215,92.1215,603.987,262.02,1098.25,1028.46,560.314,318.91,341.696,395.37,364.489,360.095,418.873,450.4,407.975,373.839,380.483,383.67,383.623,397.142,413.467,419.852,405.026,379.109,380.31,398.44,388.627,359.18,359.18,59945.3,59945.3,59945.3
0.00109803	-13568262.25	0,1.75452e-06,4.06567e-06,7.11002e-06,1.11202e-05,1.64026e-05,2.33608e-05,3.25265e-05,4.46e-05,6.05038e-05,8.14531e-05,0.000109048,0.000145398,0.00019328,0.000256353,0.000339435,0.000448875,0.000593034,0.000782928,0.00103307,0.00136256,0.00179658,0.0023683,0.0031214,0.00411341,0.00542014,0.00714142,0.00940878,0.0123955,0.0163297,0.021512,0.0283384,inf	92.2003,92.2003,603.987,253.352,1104.83,1028.46,560.314,316.287,342.143,396.542,364.12,358.784,419.182,451.081,407.899,373.333,380.583,383.819,383.534,397.207,413.512,419.852,405.026,378.909,380.313,398.553,388.627,358.205,358.205,59945.9,59945.9,59945.9
0.00109803	-13568261.58	0,1.75452e-06,4.06567e-06,7.11002e-06,1.11202e-05,1.64026e-05,2.33608e-05,3.25265e-05,4.46e-05,6.05038e-05,8.14531e-05,0.000109048,0.000145398,0.00019328,0.000256353,0.000339435,0.000448875,0.000593034,0.000782928,0.00103307,0.00136256,0.00179658,0.0023683,0.0031214,0.00411341,0.00542014,0.00714142,0.00940878,0.0123955,0.0163297,0.021512,0.0283384,inf	92.4091,92.4091,603.988,245.098,1111.1,1028.46,560.314,313.774,342.668,397.592,363.805,357.513,419.515,451.699,407.832,372.834,380.685,383.965,383.441,397.207,413.607,419.852,405.026,378.731,380.341,398.634,388.627,357.28,357.28,59946.4,59946.4,59946.4
0.00109803	-13568260.96	0,1.75452e-06,4.06567e-06,7.11002e-06,1.11202e-05,1.64026e-05,2.33608e-05,3.25265e-05,4.46e-05,6.05038e-05,8.14531e-05,0.000109048,0.000145398,0.00019328,0.000256353,0.000339435,0.000448875,0.000593034,0.000782928,0.00103307,0.00136256,0.00179658,0.0023683,0.0031214,0.00411341,0.00542014,0.00714142,0.00940878,0.0123955,0.0163297,0.021512,0.0283384,inf	92.7326,92.7326,603.988,237.194,1117.1,1028.46,560.314,311.364,343.264,397.592,363.532,356.279,419.866,452.574,407.78,372.349,380.794,384.112,383.347,397.268,413.647,419.852,405.026,378.572,380.392,398.687,388.627,356.401,356.401,59946.9,59946.9,59946.9
0.00109803	-13568260.39	0,1.75452e-06,4.06567e-06,7.11002e-06,1.11202e-05,1.64026e-05,2.33608e-05,3.25265e-05,4.46e-05,6.05038e-05,8.14531e-05,0.000109048,0.000145398,0.00019328,0.000256353,0.000339435,0.000448875,0.000593034,0.000782928,0.00103307,0.00136256,0.00179658,0.0023683,0.0031214,0.00411341,0.00542014,0.00714142,0.00940878,0.0123955,0.0163297,0.021512,0.0283384,inf	92.8995,92.8995,603.99,229.686,1122.8,1028.46,560.314,309.118,344.004,398.324,363.345,355.088,419.866,453.342,407.716,371.857,380.896,384.252,383.245,397.268,413.746,419.852,405.026,378.43,380.463,398.715,388.627,355.568,355.568,59947.4,59947.4,59947.4
0.00109803	-13568259.85	0,1.75452e-06,4.06567e-06,7.11002e-06,1.11202e-05,1.64026e-05,2.33608e-05,3.25265e-05,4.46e-05,6.05038e-05,8.14531e-05,0.000109048,0.000145398,0.00019328,0.000256353,0.000339435,0.000448875,0.000593034,0.000782928,0.00103307,0.00136256,0.00179658,0.0023683,0.0031214,0.00411341,0.00542014,0.00714142,0.00940878,0.0123955,0.0163297,0.021512,0.0283384,inf	93.3996,93.3996,603.991,222.487,1128.26,1028.46,560.314,306.959,344.814,398.953,363.219,353.946,420.257,453.76,407.664,371.374,381.004,384.392,383.141,397.322,413.8,419.852,405.026,378.301,380.552,398.715,388.633,354.777,354.777,59947.9,59947.9,59947.9
0.00109803	-13568259.35	0,1.75452e-06,4.06567e-06,7.11002e-06,1.11202e-05,1.64026e-05,2.33608e-05,3.25265e-05,4.46e-05,6.05038e-05,8.14531e-05,0.000109048,0.000145398,0.00019328,0.000256353,0.000339435,0.000448875,0.000593034,0.000782928,0.00103307,0.00136256,0.00179658,0.0023683,0.0031214,0.00411341,0.00542014,0.00714142,0.00940878,0.0123955,0.0163297,0.021512,0.0283384,inf	93.5116,93.5116,604.06,215.595,1133.49,1028.46,560.314,304.861,345.672,399.511,363.133,352.839,420.675,454.118,407.628,370.905,381.117,384.532,383.033,397.372,413.851,419.852,405.026,378.184,380.641,398.715,388.633,354.027,354.027,59948.3,59948.3,59948.3
0.00109803	-13568258.89	0,1.75452e-06,4.06567e-06,7.11002e-06,1.11202e-05,1.64026e-05,2.33608e-05,3.25265e-05,4.46e-05,6.05038e-05,8.14531e-05,0.000109048,0.000145398,0.00019328,0.000256353,0.000339435,0.000448875,0.000593034,0.000782928,0.00103307,0.00136256,0.00179658,0.0023683,0.0031214,0.00411341,0.00542014,0.00714142,0.00940878,0.0123955,0.0163297,0.021512,0.0283384,inf	93.5116,93.5116,604.271,208.99,1138.51,1028.46,560.314,302.823,346.575,400,363.082,351.765,421.118,454.423,407.607,370.448,381.236,384.671,382.922,397.417,413.899,419.852,405.026,378.078,380.722,398.715,388.633,353.315,353.315,59948.7,59948.7,59948.7
0.00109803	-13568258.46	0,1.75452e-06,4.06567e-06,7.11002e-06,1.11202e-05,1.64026e-05,2.33608e-05,3.25265e-05,4.46e-05,6.05038e-05,8.14531e-05,0.000109048,0.000145398,0.00019328,0.000256353,0.000339435,0.000448875,0.000593034,0.000782928,0.00103307,0.00136256,0.00179658,0.0023683,0.0031214,0.00411341,0.00542014,0.00714142,0.00940878,0.0123955,0.0163297,0.021512,0.0283384,inf	93.5265,93.5265,604.364,202.673,1143.3,1028.46,560.314,300.836,347.508,400,363.059,350.718,421.579,454.831,407.603,370.003,381.362,384.811,382.809,397.417,413.975,419.852,405.026,377.981,380.722,398.715,388.675,352.639,352.639,59949.1,59949.1,59949.1
0.00109803	-13568258.07	0,1.75452e-06,4.06567e-06,7.11002e-06,1.11202e-05,1.64026e-05,2.33608e-05,3.25265e-05,4.46e-05,6.05038e-05,8.14531e-05,0.000109048,0.000145398,0.00019328,0.000256353,0.000339435,0.000448875,0.000593034,0.000782928,0.00103307,0.00136256,0.00179658,0.0023683,0.0031214,0.00411341,0.00542014,0.00714142,0.00940878,0.0123955,0.0163297,0.021512,0.0283384,inf	93.5323,93.5323,604.427,196.599,1147.92,1028.46,560.314,298.928,348.515,400.335,363.059,349.697,422.052,455.06,407.601,369.562,381.488,384.95,382.693,397.458,414.019,419.852,405.026,377.899,380.784,398.715,388.675,351.998,351.998,59949.5,59949.5,59949.5
0.00109803	-13568257.70	0,1.75452e-06,4.06567e-06,7.11002e-06,1.11202e-05,1.64026e-05,2.33608e-05,3.25265e-05,4.46e-05,6.05038e-05,8.14531e-05,0.000109048,0.000145398,0.00019328,0.000256353,0.000339435,0.000448875,0.000593034,0.000782928,0.00103307,0.00136256,0.00179658,0.0023683,0.0031214,0.00411341,0.00542014,0.00714142,0.00940878,0.0123955,0.0163297,0.021512,0.0283384,inf	93.5323,93.5323,604.482,190.761,1152.35,1028.46,560.314,297.066,349.556,400.335,363.106,348.703,422.546,455.332,407.601,369.131,381.619,385.089,382.576,397.496,414.063,419.852,405.026,377.825,380.84,398.715,388.675,351.39,351.39,59949.8,59949.8,59949.8
0.00109803	-13568257.35	0,1.75452e-06,4.06567e-06,7.11002e-06,1.11202e-05,1.64026e-05,2.33608e-05,3.25265e-05,4.46e-05,6.05038e-05,8.14531e-05,0.000109048,0.000145398,0.00019328,0.000256353,0.000339435,0.000448875,0.000593034,0.000782928,0.00103307,0.00136256,0.00179658,0.0023683,0.0031214,0.00411341,0.00542014,0.00714142,0.00940878,0.0123955,0.0163297,0.021512,0.0283384,inf	93.5323,93.5323,604.482,185.181,1156.69,1028.46,560.314,295.26,350.64,400.553,363.106,347.73,423.052,455.508,407.601,368.707,381.752,385.226,382.455,397.531,414.109,419.852,405.026,377.759,380.84,398.753,388.675,350.813,350.813,59950.1,59950.1,59950.1
0.00109803	-13568257.03	0,1.75452e-06,4.06567e-06,7.11002e-06,1.11202e-05,1.64026e-05,2.33608e-05,3.25265e-05,4.46e-05,6.05038e-05,8.14531e-05,0.000109048,0.000145398,0.00019328,0.000256353,0.000339435,0.000448875,0.000593034,0.000782928,0.00103307,0.00136256,0.00179658,0.0023683,0.0031214,0.00411341,0.00542014,0.00714142,0.00940878,0.0123955,0.0163297,0.021512,0.0283384,inf	93.5323,93.5323,604.597,179.798,1160.77,1028.46,560.314,293.486,351.756,400.729,363.106,346.781,423.575,455.658,407.601,368.291,381.889,385.226,382.328,397.561,414.218,419.852,405.026,377.703,380.84,398.785,388.675,350.266,350.266,59950.5,59950.5,59950.5
0.00109803	-13568256.73	0,1.75452e-06,4.06567e-06,7.11002e-06,1.11202e-05,1.64026e-05,2.33608e-05,3.25265e-05,4.46e-05,6.05038e-05,8.14531e-05,0.000109048,0.000145398,0.00019328,0.000256353,0.000339435,0.000448875,0.000593034,0.000782928,0.00103307,0.00136256,0.00179658,0.0023683,0.0031214,0.00411341,0.00542014,0.00714142,0.00940878,0.0123955,0.0163297,0.021512,0.0283384,inf	93.5323,93.5323,604.597,174.623,1164.8,1028.46,560.314,291.747,352.892,400.868,363.106,345.858,424.124,455.773,407.601,367.897,382.044,385.335,382.207,397.591,414.265,419.852,405.026,377.654,380.877,398.785,388.675,349.746,349.746,59950.8,59950.8,59950.8
0.00109803	-13568256.45	0,1.75452e-06,4.06567e-06,7.11002e-06,1.11202e-05,1.64026e-05,2.33608e-05,3.25265e-05,4.46e-05,6.05038e-05,8.14531e-05,0.000109048,0.000145398,0.00019328,0.000256353,0.000339435,0.000448875,0.000593034,0.000782928,0.00103307,0.00136256,0.00179658,0.0023683,0.0031214,0.00411341,0.00542014,0.00714142,0.00940878,0.0123955,0.0163297,0.021512,0.0283384,inf	93.5323,93.5323,604.814,169.653,1168.57,1028.46,560.314,290.035,354.052,400.975,363.106,344.955,424.686,455.867,407.601,367.512,382.202,385.437,382.085,397.619,414.314,419.852,405.026,377.61,380.877,398.81,388.675,349.253,349.253,59951,59951,59951
0.00109803	-13568256.19	0,1.75452e-06,4.06567e-06,7.11002e-06,1.11202e-05,1.64026e-05,2.33608e-05,3.25265e-05,4.46e-05,6.05038e-05,8.14531e-05,0.000109048,0.000145398,0.00019328,0.000256353,0.000339435,0.000448875,0.000593034,0.000782928,0.00103307,0.00136256,0.00179658,0.0023683,0.0031214,0.00411341,0.00542014,0.00714142,0.00940878,0.0123955,0.0163297,0.021512,0.0283384,inf	93.5323,93.5323,604.814,164.855,1172.32,1028.46,560.314,288.353,355.231,400.975,363.162,344.068,425.265,455.939,407.601,367.135,382.366,385.53,381.962,397.645,414.366,419.852,405.026,377.574,380.877,398.831,388.675,348.785,348.785,59951.3,59951.3,59951.3
0.00109803	-13568255.94	0,1.75452e-06,4.06567e-06,7.11002e-06,1.11202e-05,1.64026e-05,2.33608e-05,3.25265e-05,4.46e-05,6.05038e-05,8.14531e-05,0.000109048,0.000145398,0.00019328,0.000256353,0.000339435,0.000448875,0.000593034,0.000782928,0.00103307,0.00136256,0.00179658,0.0023683,0.0031214,0.00411341,0.00542014,0.00714142,0.00940878,0.0123955,0.0163297,0.021512,0.0283384,inf	93.5323,93.5323,604.814,160.242,1175.91,1028.46,560.314,286.702,355.231,400.975,363.353,343.198,425.854,455.939,407.689,366.768,382.534,385.67,381.839,397.67,414.418,419.852,405.026,377.544,380.877,398.849,388.675,348.341,348.341,59951.6,59951.6,59951.6
