0.00064569	-4506198.44	0,4.49978e-06,1.02271e-05,1.75169e-05,2.67954e-05,3.86051e-05,5.36365e-05,7.27685e-05,9.71199e-05,0.000128114,0.000167564,0.000217777,0.000281687,0.000363032,0.000466569,0.00059835,0.000766083,0.000979574,0.00125131,0.00159717,0.00203738,0.00259769,0.00331085,0.00421856,0.00537391,0.00684443,0.00871613,0.0110984,0.0141306,0.01799,0.0229023,0.0291546,inf	269.222,269.222,474.734,486.769,452.884,428.495,440.334,454.9,434.851,401.249,381.557,373.392,370.562,368.636,368.736,372.445,379.187,388.863,400.418,409.869,414.899,417.469,416.992,412.228,405.301,399.2,389.128,376.686,376.686,425.287,425.287,425.287
0.000670765	-4505912.50	0,4.49978e-06,1.02271e-05,1.75169e-05,2.67954e-05,3.86051e-05,5.36365e-05,7.27685e-05,9.71199e-05,0.000128114,0.000167564,0.000217777,0.000281687,0.000363032,0.000466569,0.00059835,0.000766083,0.000979574,0.00125131,0.00159717,0.00203738,0.00259769,0.00331085,0.00421856,0.00537391,0.00684443,0.00871613,0.0110984,0.0141306,0.01799,0.0229023,0.0291546,inf	166.246,166.246,509.648,538.334,473.64,433.972,466.503,504.521,469.317,408.411,375.82,363.816,359.944,355.966,354.394,358.537,367.61,381.844,399.765,414.431,421.881,426.04,425.509,417.285,405.121,394.704,376.783,355.056,355.056,437.675,437.675,437.675
0.000693615	-4505722.35	0,4.49978e-06,1.02271e-05,1.75169e-05,2.67954e-05,3.86051e-05,5.36365e-05,7.27685e-05,9.71199e-05,0.000128114,0.000167564,0.000217777,0.000281687,0.000363032,0.000466569,0.00059835,0.000766083,0.000979574,0.00125131,0.00159717,0.00203738,0.00259769,0.00331085,0.00421856,0.00537391,0.00684443,0.00871613,0.0110984,0.0141306,0.01799,0.0229023,0.0291546,inf	99.8425,99.8425,523.435,566.679,472.446,422.298,477.632,543.355,496.799,413.73,372.993,360.203,356.908,351.466,347.987,351.541,361.269,377.895,399.772,417.553,426.127,431.434,431.226,420.518,404.37,390.954,366.798,337.841,337.841,444.262,444.262,444.262
0.000714455	-4505581.76	0,4.49978e-06,1.02271e-05,1.75169e-05,2.67954e-05,3.86051e-05,5.36365e-05,7.27685e-05,9.71199e-05,0.000128114,0.000167564,0.000217777,0.000281687,0.000363032,0.000466569,0.00059835,0.000766083,0.000979574,0.00125131,0.00159717,0.00203738,0.00259769,0.00331085,0.00421856,0.00537391,0.00684443,0.00871613,0.0110984,0.0141306,0.01799,0.0229023,0.0291546,inf	59.9662,59.9662,530.041,584.305,460.419,401.749,478.256,572.509,516.999,415.721,370.06,358.439,356.822,350.453,345.182,347.812,357.463,375.419,399.953,419.651,428.61,434.812,435.184,422.681,403.471,388.025,358.809,323.98,323.98,447.146,447.146,447.146
0.00073352	-4505472.77	0,4.49978e-06,1.02271e-05,1.75169e-05,2.67954e-05,3.86051e-05,5.36365e-05,7.27685e-05,9.71199e-05,0.000128114,0.000167564,0.000217777,0.000281687,0.000363032,0.000466569,0.00059835,0.000766083,0.000979574,0.00125131,0.00159717,0.00203738,0.00259769,0.00331085,0.00421856,0.00537391,0.00684443,0.00871613,0.0110984,0.0141306,0.01799,0.0229023,0.0291546,inf	36.3476,36.3476,535.93,598.73,444.624,378.183,473.014,594.89,531.652,415.022,366.533,357.264,357.997,351.083,344.196,345.817,355.054,373.779,400.211,421.091,429.985,436.912,438.018,424.21,402.618,385.867,352.454,312.677,312.677,447.724,447.724,447.724
0.000751011	-4505385.94	0,4.49978e-06,1.02271e-05,1.75169e-05,2.67954e-05,3.86051e-05,5.36365e-05,7.27685e-05,9.71199e-05,0.000128114,0.000167564,0.000217777,0.000281687,0.000363032,0.000466569,0.00059835,0.000766083,0.000979574,0.00125131,0.00159717,0.00203738,0.00259769,0.00331085,0.00421856,0.00537391,0.00684443,0.00871613,0.0110984,0.0141306,0.01799,0.0229023,0.0291546,inf	22.2546,22.2546,542.918,613.18,428.37,354.63,464.977,612.947,542.434,412.474,362.507,356.263,359.718,352.509,344.174,344.798,353.474,372.663,400.525,422.115,430.656,438.183,440.114,425.344,401.88,384.374,347.418,303.343,303.343,446.891,446.891,446.891
0.000767093	-4505315.53	0,4.49978e-06,1.02271e-05,1.75169e-05,2.67954e-05,3.86051e-05,5.36365e-05,7.27685e-05,9.71199e-05,0.000128114,0.000167564,0.000217777,0.000281687,0.000363032,0.000466569,0.00059835,0.000766083,0.000979574,0.00125131,0.00159717,0.00203738,0.00259769,0.00331085,0.00421856,0.00537391,0.00684443,0.00871613,0.0110984,0.0141306,0.01799,0.0229023,0.0291546,inf	13.7156,13.7156,550.758,628.605,412.969,332.397,455.868,628.347,550.572,408.738,358.162,355.301,361.658,354.306,344.665,344.347,352.41,371.894,400.888,422.872,430.875,438.907,441.703,426.216,401.267,383.43,343.433,295.537,295.537,445.211,445.211,445.211
0.000781907	-4505257.73	0,4.49978e-06,1.02271e-05,1.75169e-05,2.67954e-05,3.86051e-05,5.36365e-05,7.27685e-05,9.71199e-05,0.000128114,0.000167564,0.000217777,0.000281687,0.000363032,0.000466569,0.00059835,0.000766083,0.000979574,0.00125131,0.00159717,0.00203738,0.00259769,0.00331085,0.00421856,0.00537391,0.00684443,0.00871613,0.0110984,0.0141306,0.01799,0.0229023,0.0291546,inf	8.48378,8.48378,558.779,645.005,398.755,311.928,446.604,642.156,556.902,404.278,353.658,354.344,363.66,356.247,345.42,344.226,351.673,371.363,401.293,423.458,430.798,439.258,442.932,426.902,400.762,382.929,340.285,288.931,288.931,443.037,443.037,443.037
0.000795569	-4505209.84	0,4.49978e-06,1.02271e-05,1.75169e-05,2.67954e-05,3.86051e-05,5.36365e-05,7.27685e-05,9.71199e-05,0.000128114,0.000167564,0.000217777,0.000281687,0.000363032,0.000466569,0.00059835,0.000766083,0.000979574,0.00125131,0.00159717,0.00203738,0.00259769,0.00331085,0.00421856,0.00537391,0.00684443,0.00871613,0.0110984,0.0141306,0.01799,0.0229023,0.0291546,inf	5.26007,5.26007,566.258,662.101,385.719,293.268,437.637,655.029,561.979,399.405,349.114,353.393,365.648,358.211,346.293,344.294,351.147,371,401.736,423.931,430.528,439.352,443.895,427.444,400.342,382.777,337.805,283.28,283.28,440.594,440.594,440.594
0.000808183	-4505169.88	0,4.49978e-06,1.02271e-05,1.75169e-05,2.67954e-05,3.86051e-05,5.36365e-05,7.27685e-05,9.71199e-05,0.000128114,0.000167564,0.000217777,0.000281687,0.000363032,0.000466569,0.00059835,0.000766083,0.000979574,0.00125131,0.00159717,0.00203738,0.00259769,0.00331085,0.00421856,0.00537391,0.00684443,0.00871613,0.0110984,0.0141306,0.01799,0.0229023,0.0291546,inf	3.25664,3.25664,572.66,679.586,373.703,276.289,429.155,667.352,566.166,394.322,344.613,352.463,367.586,360.131,347.2,344.465,350.759,370.758,402.21,424.332,430.131,439.267,444.658,427.872,399.985,382.897,335.857,278.395,278.395,438.02,438.02,438.02
0.000819841	-4505136.33	0,4.49978e-06,1.02271e-05,1.75169e-05,2.67954e-05,3.86051e-05,5.36365e-05,7.27685e-05,9.71199e-05,0.000128114,0.000167564,0.000217777,0.000281687,0.000363032,0.000466569,0.00059835,0.000766083,0.000979574,0.00125131,0.00159717,0.00203738,0.00259769,0.00331085,0.00421856,0.00537391,0.00684443,0.00871613,0.0110984,0.0141306,0.01799,0.0229023,0.0291546,inf	2.0168,2.0168,577.737,697.187,362.576,260.823,421.204,679.347,569.699,389.158,340.207,351.564,369.464,361.976,348.093,344.683,350.46,370.603,402.711,424.684,429.654,439.057,445.267,428.204,399.669,383.23,334.337,274.132,274.132,435.406,435.406,435.406
0.000830622	-4505108.04	0,4.49978e-06,1.02271e-05,1.75169e-05,2.67954e-05,3.86051e-05,5.36365e-05,7.27685e-05,9.71199e-05,0.000128114,0.000167564,0.000217777,0.000281687,0.000363032,0.000466569,0.00059835,0.000766083,0.000979574,0.00125131,0.00159717,0.00203738,0.00259769,0.00331085,0.00421856,0.00537391,0.00684443,0.00871613,0.0110984,0.0141306,0.01799,0.0229023,0.0291546,inf	1.24898,1.24898,581.37,714.741,352.187,246.698,413.788,691.152,572.736,384.002,335.932,350.71,371.278,363.728,348.945,344.917,350.217,370.512,403.234,425.007,429.126,438.76,445.756,428.454,399.378,383.725,333.162,270.38,270.38,432.806,432.806,432.806
0.000840601	-4505084.08	0,4.49978e-06,1.02271e-05,1.75169e-05,2.67954e-05,3.86051e-05,5.36365e-05,7.27685e-05,9.71199e-05,0.000128114,0.000167564,0.000217777,0.000281687,0.000363032,0.000466569,0.00059835,0.000766083,0.000979574,0.00125131,0.00159717,0.00203738,0.00259769,0.00331085,0.00421856,0.00537391,0.00684443,0.00871613,0.0110984,0.0141306,0.01799,0.0229023,0.0291546,inf	0.771185,0.771185,583.583,732.101,342.431,233.739,406.846,702.824,575.378,378.905,331.807,349.911,373.03,365.381,349.739,345.146,350.009,370.468,403.775,425.31,428.569,438.403,446.151,428.634,399.101,384.344,332.265,267.052,267.052,430.256,430.256,430.256
0.000849841	-4505063.73	0,4.49978e-06,1.02271e-05,1.75169e-05,2.67954e-05,3.86051e-05,5.36365e-05,7.27685e-05,9.71199e-05,0.000128114,0.000167564,0.000217777,0.000281687,0.000363032,0.000466569,0.00059835,0.000766083,0.000979574,0.00125131,0.00159717,0.00203738,0.00259769,0.00331085,0.00421856,0.00537391,0.00684443,0.00871613,0.0110984,0.0141306,0.01799,0.0229023,0.0291546,inf	0.47452,0.47452,584.482,749.265,333.219,221.808,400.339,714.395,577.699,373.901,327.842,349.17,374.725,366.936,350.471,345.357,349.82,370.459,404.329,425.603,427.999,438.007,446.472,428.753,398.828,385.057,331.595,264.078,264.078,427.775,427.775,427.775
0.000858403	-4505046.38	0,4.49978e-06,1.02271e-05,1.75169e-05,2.67954e-05,3.86051e-05,5.36365e-05,7.27685e-05,9.71199e-05,0.000128114,0.000167564,0.000217777,0.000281687,0.000363032,0.000466569,0.00059835,0.000766083,0.000979574,0.00125131,0.00159717,0.00203738,0.00259769,0.00331085,0.00421856,0.00537391,0.00684443,0.00871613,0.0110984,0.0141306,0.01799,0.0229023,0.0291546,inf	0.404193,0.404193,584.152,766.17,324.489,210.785,394.208,725.873,579.745,369.009,324.041,348.494,376.369,368.396,351.137,345.542,349.64,370.474,404.895,425.889,427.425,437.587,446.734,428.819,398.551,385.84,331.109,261.404,261.404,425.378,425.378,425.378
0.000866341	-4505031.56	0,4.49978e-06,1.02271e-05,1.75169e-05,2.67954e-05,3.86051e-05,5.36365e-05,7.27685e-05,9.71199e-05,0.000128114,0.000167564,0.000217777,0.000281687,0.000363032,0.000466569,0.00059835,0.000766083,0.000979574,0.00125131,0.00159717,0.00203738,0.00259769,0.00331085,0.00421856,0.00537391,0.00684443,0.00871613,0.0110984,0.0141306,0.01799,0.0229023,0.0291546,inf	0.404185,0.404185,582.739,782.796,316.17,200.555,388.392,737.254,581.553,364.242,320.402,347.884,377.968,369.767,351.739,345.699,349.462,370.507,405.468,426.171,426.855,437.154,446.951,428.839,398.267,386.676,330.776,258.985,258.985,423.07,423.07,423.07
0.000873703	-4505018.86	0,4.49978e-06,1.02271e-05,1.75169e-05,2.67954e-05,3.86051e-05,5.36365e-05,7.27685e-05,9.71199e-05,0.000128114,0.000167564,0.000217777,0.000281687,0.000363032,0.000466569,0.00059835,0.000766083,0.000979574,0.00125131,0.00159717,0.00203738,0.00259769,0.00331085,0.00421856,0.00537391,0.00684443,0.00871613,0.0110984,0.0141306,0.01799,0.0229023,0.0291546,inf	0.404185,0.404185,580.386,799.144,308.22,191.034,382.854,748.536,583.149,359.603,316.923,347.34,379.525,371.053,352.277,345.825,349.283,370.551,406.046,426.452,426.294,436.716,447.132,428.82,397.973,387.549,330.567,256.784,256.784,420.855,420.855,420.855
0.000880535	-4505007.95	0,4.49978e-06,1.02271e-05,1.75169e-05,2.67954e-05,3.86051e-05,5.36365e-05,7.27685e-05,9.71199e-05,0.000128114,0.000167564,0.000217777,0.000281687,0.000363032,0.000466569,0.00059835,0.000766083,0.000979574,0.00125131,0.00159717,0.00203738,0.00259769,0.00331085,0.00421856,0.00537391,0.00684443,0.00871613,0.0110984,0.0141306,0.01799,0.0229023,0.0291546,inf	0.404185,0.404185,577.224,815.23,300.592,182.147,377.552,759.701,584.55,355.095,313.597,346.86,381.045,372.26,352.756,345.919,349.098,370.602,406.626,426.734,425.746,436.279,447.286,428.767,397.665,388.448,330.462,254.773,254.773,418.732,418.732,418.732
0.000886877	-4504998.57	0,4.49978e-06,1.02271e-05,1.75169e-05,2.67954e-05,3.86051e-05,5.36365e-05,7.27685e-05,9.71199e-05,0.000128114,0.000167564,0.000217777,0.000281687,0.000363032,0.000466569,0.00059835,0.000766083,0.000979574,0.00125131,0.00159717,0.00203738,0.00259769,0.00331085,0.00421856,0.00537391,0.00684443,0.00871613,0.0110984,0.0141306,0.01799,0.0229023,0.0291546,inf	0.404185,0.404185,573.393,831.06,293.274,173.827,372.449,770.741,585.783,350.717,310.418,346.444,382.532,373.398,353.18,345.983,348.905,370.658,407.208,427.015,425.211,435.848,447.419,428.684,397.344,389.364,330.441,252.925,252.925,416.7,416.7,416.7
0.000892746	-4504990.48	0,4.49978e-06,1.02271e-05,1.75169e-05,2.67954e-05,3.86051e-05,5.36365e-05,7.27685e-05,9.71199e-05,0.000128114,0.000167564,0.000217777,0.000281687,0.000363032,0.000466569,0.00059835,0.000766083,0.000979574,0.00125131,0.00159717,0.00203738,0.00259769,0.00331085,0.00421856,0.00537391,0.00684443,0.00871613,0.0110984,0.0141306,0.01799,0.0229023,0.0291546,inf	0.404185,0.404185,568.704,846.196,286.091,165.942,367.341,781.274,586.574,346.307,307.241,345.939,383.833,374.325,353.429,345.912,348.61,370.633,407.718,427.245,424.659,435.406,447.52,428.562,396.999,390.279,330.479,251.212,251.212,414.747,414.747,414.747
