0.000733994	-13930345.53	0,4.07411e-06,1.11433e-05,2.34093e-05,4.46926e-05,8.16222e-05,0.0001457,0.000256885,0.000449807,0.000784554,0.00136539,0.00237322,0.00412195,0.00715625,0.0124212,0.0215566,inf	326.361,326.361,300.173,294.532,271.424,249.478,241.134,247.751,276.73,342.6,476.924,530.331,486.463,532.815,532.815,532.815
0.000830566	-13917054.94	0,4.07411e-06,1.11433e-05,2.34093e-05,4.46926e-05,8.16222e-05,0.0001457,0.000256885,0.000449807,0.000784554,0.00136539,0.00237322,0.00412195,0.00715625,0.0124212,0.0215566,inf	347.655,347.655,313.303,312.663,270.987,228.876,206.947,204.583,232.51,310.551,495.335,598.472,538.179,703.152,703.152,703.152
0.000913018	-13912857.63	0,4.07411e-06,1.11433e-05,2.34093e-05,4.46926e-05,8.16222e-05,0.0001457,0.000256885,0.000449807,0.000784554,0.00136539,0.00237322,0.00412195,0.00715625,0.0124212,0.0215566,inf	351.352,351.352,323.533,340.307,289.08,233.325,201.603,190.764,214.123,293.3,496.389,632.932,568.405,990.37,990.37,990.37
0.000984722	-13911149.64	0,4.07411e-06,1.11433e-05,2.34093e-05,4.46926e-05,8.16222e-05,0.0001457,0.000256885,0.000449807,0.000784554,0.00136539,0.00237322,0.00412195,0.00715625,0.0124212,0.0215566,inf	336.264,336.264,316.701,355.807,303.742,241.525,204.522,187.393,206.506,284.015,492.553,649.003,585.925,1813.01,1813.01,1813.01
0.00104836	-13910527.75	0,4.07411e-06,1.11433e-05,2.34093e-05,4.46926e-05,8.16222e-05,0.0001457,0.000256885,0.000449807,0.000784554,0.00136539,0.00237322,0.00412195,0.00715625,0.0124212,0.0215566,inf	317.217,317.217,299.891,359.2,311.127,247.886,209.427,188.18,204.017,279.255,487.544,654.178,596.418,12919,12919,12919
0.00104836	-13910445.50	0,4.07411e-06,1.11433e-05,2.34093e-05,4.46926e-05,8.16222e-05,0.0001457,0.000256885,0.000449807,0.000784554,0.00136539,0.00237322,0.00412195,0.00715625,0.0124212,0.0215566,inf	300.573,300.573,279.163,353.395,310.712,249.879,212.907,189.554,203.109,275.316,474.626,642.603,599.406,50226.1,50226.1,50226.1
0.00104836	-13910433.42	0,4.07411e-06,1.11433e-05,2.34093e-05,4.46926e-05,8.16222e-05,0.0001457,0.000256885,0.000449807,0.000784554,0.00136539,0.00237322,0.00412195,0.00715625,0.0124212,0.0215566,inf	294.462,294.462,263.436,348.476,309,250.457,215.924,189.8,203.109,274.774,468.01,634.469,604.042,50226.6,50226.6,50226.6
0.00104836	-13910380.12	0,4.07411e-06,1.11433e-05,2.34093e-05,4.46926e-05,8.16222e-05,0.0001457,0.000256885,0.000449807,0.000784554,0.00136539,0.00237322,0.00412195,0.00715625,0.0124212,0.0215566,inf	294.385,294.385,251.635,345.195,307.085,250.271,215.924,191.344,203.109,274.774,464.617,628.451,608.637,50226.6,50226.6,50226.6
0.00104836	-13910368.56	0,4.07411e-06,1.11433e-05,2.34093e-05,4.46926e-05,8.16222e-05,0.0001457,0.000256885,0.000449807,0.000784554,0.00136539,0.00237322,0.00412195,0.00715625,0.0124212,0.0215566,inf	294.385,294.385,242.66,343.664,305.647,249.935,217.878,191.344,203.109,274.774,463.039,623.753,611.869,50226.6,50226.6,50226.6
0.00104836	-13910361.50	0,4.07411e-06,1.11433e-05,2.34093e-05,4.46926e-05,8.16222e-05,0.0001457,0.000256885,0.000449807,0.000784554,0.00136539,0.00237322,0.00412195,0.00715625,0.0124212,0.0215566,inf	294.387,294.387,235.5,343.12,304.276,249.273,219.609,191.344,203.109,274.774,462.582,619.947,614.213,50226.6,50226.6,50226.6
0.00104836	-13910355.53	0,4.07411e-06,1.11433e-05,2.34093e-05,4.46926e-05,8.16222e-05,0.0001457,0.000256885,0.000449807,0.000784554,0.00136539,0.00237322,0.00412195,0.00715625,0.0124212,0.0215566,inf	294.388,294.388,229.692,343.398,303.033,248.389,221.119,191.344,203.109,274.774,462.582,616.838,614.213,50226.9,50226.9,50226.9
0.00104836	-13910329.81	0,4.07411e-06,1.11433e-05,2.34093e-05,4.46926e-05,8.16222e-05,0.0001457,0.000256885,0.000449807,0.000784554,0.00136539,0.00237322,0.00412195,0.00715625,0.0124212,0.0215566,inf	294.389,294.389,224.873,344.319,301.926,247.352,222.44,191.344,203.109,274.774,462.582,614.284,615.686,50226.9,50226.9,50226.9
0.00104836	-13910326.28	0,4.07411e-06,1.11433e-05,2.34093e-05,4.46926e-05,8.16222e-05,0.0001457,0.000256885,0.000449807,0.000784554,0.00136539,0.00237322,0.00412195,0.00715625,0.0124212,0.0215566,inf	294.391,294.391,220.785,345.739,300.965,246.226,223.587,191.344,203.109,274.774,462.582,612.14,616.921,50226.9,50226.9,50226.9
0.00104836	-13910323.68	0,4.07411e-06,1.11433e-05,2.34093e-05,4.46926e-05,8.16222e-05,0.0001457,0.000256885,0.000449807,0.000784554,0.00136539,0.00237322,0.00412195,0.00715625,0.0124212,0.0215566,inf	294.392,294.392,217.212,345.739,300.128,245.047,224.832,191.344,203.145,274.774,462.582,610.34,617.959,50226.9,50226.9,50226.9
0.00104836	-13910321.67	0,4.07411e-06,1.11433e-05,2.34093e-05,4.46926e-05,8.16222e-05,0.0001457,0.000256885,0.000449807,0.000784554,0.00136539,0.00237322,0.00412195,0.00715625,0.0124212,0.0215566,inf	294.394,294.394,214.305,347.414,299.505,243.827,225.742,191.344,203.145,274.774,462.582,608.827,618.831,50226.9,50226.9,50226.9
0.00104836	-13910320.23	0,4.07411e-06,1.11433e-05,2.34093e-05,4.46926e-05,8.16222e-05,0.0001457,0.000256885,0.000449807,0.000784554,0.00136539,0.00237322,0.00412195,0.00715625,0.0124212,0.0215566,inf	294.394,294.394,211.661,348.938,299.003,242.607,226.612,191.344,203.145,274.774,462.582,607.576,618.831,50227.1,50227.1,50227.1
0.00104836	-13910310.97	0,4.07411e-06,1.11433e-05,2.34093e-05,4.46926e-05,8.16222e-05,0.0001457,0.000256885,0.000449807,0.000784554,0.00136539,0.00237322,0.00412195,0.00715625,0.0124212,0.0215566,inf	294.395,294.395,209.256,350.325,298.607,241.396,226.612,191.344,203.421,274.774,462.582,606.542,619.426,50227.1,50227.1,50227.1
0.00104836	-13910310.08	0,4.07411e-06,1.11433e-05,2.34093e-05,4.46926e-05,8.16222e-05,0.0001457,0.000256885,0.000449807,0.000784554,0.00136539,0.00237322,0.00412195,0.00715625,0.0124212,0.0215566,inf	294.396,294.396,207.112,351.561,298.509,240.356,227.244,191.344,203.421,274.774,462.582,605.67,619.929,50227.1,50227.1,50227.1
0.00104836	-13910309.47	0,4.07411e-06,1.11433e-05,2.34093e-05,4.46926e-05,8.16222e-05,0.0001457,0.000256885,0.000449807,0.000784554,0.00136539,0.00237322,0.00412195,0.00715625,0.0124212,0.0215566,inf	294.397,294.397,205.123,352.707,298.485,239.326,227.845,191.344,203.421,274.774,462.582,604.936,620.345,50227.1,50227.1,50227.1
0.00104836	-13910308.92	0,4.07411e-06,1.11433e-05,2.34093e-05,4.46926e-05,8.16222e-05,0.0001457,0.000256885,0.000449807,0.000784554,0.00136539,0.00237322,0.00412195,0.00715625,0.0124212,0.0215566,inf	294.397,294.397,203.265,353.777,298.485,238.312,227.845,191.681,203.421,274.774,462.582,604.318,620.701,50227.1,50227.1,50227.1
