time_index	left_time_boundary	right_time_boundary	lambda
0	0	1.03443e-05	146.322
1	1.03443e-05	2.71024e-05	146.322
2	2.71024e-05	5.4251e-05	338.362
3	5.4251e-05	9.82327e-05	272.916
4	9.82327e-05	0.000169484	248.083
5	0.000169484	0.000284914	244.615
6	0.000284914	0.000471914	217.052
7	0.000471914	0.000774861	232.943
8	0.000774861	0.00126564	291.636
9	0.00126564	0.00206073	414.317
10	0.00206073	0.00334879	616.258
11	0.00334879	0.00543548	553.995
12	0.00543548	0.008816	316.328
13	0.008816	0.0142925	297.258
14	0.0142925	0.0231647	297.258
15	0.0231647	inf	297.258
