LogLikelihood = -34826.844530620452133

y0 0.017640584703629648422
y0_prime 0
y1 1.3400543195262284435
y1_prime 0
y2 1.2378436017646432532
y2_prime 0
y3 1.2416243534251585334
y3_prime 0
rho 1.8655373541424602143e-05
rho.alpha 3.8754151355984154392
r_ii 0.99999890177903161259
theta 6.64435608866904327e-05
