LogLikelihood = -172000.90657263903995

y0 1.0463458767684989947
y0_prime 0
y1 1.0278241742910272372
y1_prime 0
y2 0.86803891659461729358
y2_prime 0
y3 1.9114289083400479718
y3_prime 0
rho 0.00069726753685471324924
theta 0.0025575721825140435191
