LogLikelihood = -1267469.0465083830059

y0 2.4600943192495777057e-05
y0_prime 0
y1 1.079503691713080693
y1_prime 0
y2 1.2621972981391089697
y2_prime 0
y3 2.9416175657084355777
y3_prime 0
rho 0.0017089810749348482988
theta 0.0039139771440663039329
