LogLikelihood = -585464.593007990974

y0 0.0029510324600666723929
y0_prime 0
y1 1.8754322306964856804
y1_prime 0
y2 1.6201061667484224493
y2_prime 0
y3 0.49474913277559162683
y3_prime 0
rho 0.0008904138024438756167
rho.alpha 0.050000000000000002776
r_ii 0.99999994949307569048
theta 0.0016578237665474369628
