AIC = 3011548.0032657310367

y0 0.85150337464729208836
y0_prime 0
y1 0.90417907477732739618
y1_prime 0
y2 1.0204885279115607499
y2_prime 0
y3 1.6809899702911950126
y3_prime 0
rho 0.0019627547325522815697
theta 0.0049247122019493404232
