LogLikelihood = -174250.97224122539046

y0 0.78031858138223231247
y0_prime 0
y1 0.96593285424554942153
y1_prime 0
y2 0.71964906207386414305
y2_prime 0
y3 1.5618440502084129928
y3_prime 0
rho 0.0037429048884430049515
rho.alpha 0.14500762275912704169
r_ii 0.99988257882460418458
theta 0.0025838170469122249441
