LogLikelihood = -288910.89193887950387

y0 0.84047510117749180125
y0_prime 0
y1 1.0061913650512854801
y1_prime 0
y2 0.79680104248415939416
y2_prime 0
y3 1.7642087411524554064
y3_prime 0
rho 0.0025004771452309532132
rho.alpha 32.743190889914416175
r_ii 0.99999550150108151847
theta 0.0047408976624918469644
