LogLikelihood = -181140.28247021260904

y0 5.4988834993435664418e-10
y0_prime 0
y1 0.69405884510651083552
y1_prime 0
y2 1.9155266380140201221
y2_prime 0
y3 2.5194502623881169789
y3_prime 0
rho 0.003434112386268230524
theta 0.00041216485354066855666
