0.000660192	-4599627.05	0,4.60022e-06,1.04554e-05,1.79079e-05,2.73935e-05,3.94668e-05,5.48337e-05,7.43928e-05,9.92878e-05,0.000130974,0.000171305,0.000222638,0.000287974,0.000371135,0.000476983,0.000611706,0.000783183,0.00100144,0.00127924,0.00163282,0.00208286,0.00265567,0.00338475,0.00431273,0.00549386,0.00699721,0.00891068,0.0113462,0.014446,0.0183916,0.0234135,0.0298054,inf	332.527,332.527,474.743,521.513,520.205,491.585,466.851,439.993,412.049,382.145,357.252,347.271,346.851,351.391,357.293,365.35,375.896,388.177,401.357,413.39,421.243,422.213,417.858,411.096,406.599,406.707,404.501,379.075,379.075,354.536,354.536,354.536
0.00068447	-4599278.70	0,4.60022e-06,1.04554e-05,1.79079e-05,2.73935e-05,3.94668e-05,5.48337e-05,7.43928e-05,9.92878e-05,0.000130974,0.000171305,0.000222638,0.000287974,0.000371135,0.000476983,0.000611706,0.000783183,0.00100144,0.00127924,0.00163282,0.00208286,0.00265567,0.00338475,0.00431273,0.00549386,0.00699721,0.00891068,0.0113462,0.014446,0.0183916,0.0234135,0.0298054,inf	246.081,246.081,486.725,585.092,595.687,552.804,518.756,478.565,434.286,383.981,342.273,326.715,326.127,332.698,340.172,350.663,365.125,382.725,402.729,422.13,435.594,437.605,430.338,418.803,411.794,413.826,410.815,363.821,363.821,324.591,324.591,324.591
0.00070588	-4599106.55	0,4.60022e-06,1.04554e-05,1.79079e-05,2.73935e-05,3.94668e-05,5.48337e-05,7.43928e-05,9.92878e-05,0.000130974,0.000171305,0.000222638,0.000287974,0.000371135,0.000476983,0.000611706,0.000783183,0.00100144,0.00127924,0.00163282,0.00208286,0.00265567,0.00338475,0.00431273,0.00549386,0.00699721,0.00891068,0.0113462,0.014446,0.0183916,0.0234135,0.0298054,inf	177.311,177.311,467.061,603.765,630.104,582.9,549.924,505.919,453.202,388.525,334.853,316.529,316.573,324.672,332.327,343.196,358.868,378.67,402.312,426.374,443.826,446.634,437.184,422.067,413.7,418.665,415.746,350.589,350.589,302.207,302.207,302.207
0.000725027	-4598998.45	0,4.60022e-06,1.04554e-05,1.79079e-05,2.73935e-05,3.94668e-05,5.48337e-05,7.43928e-05,9.92878e-05,0.000130974,0.000171305,0.000222638,0.000287974,0.000371135,0.000476983,0.000611706,0.000783183,0.00100144,0.00127924,0.00163282,0.00208286,0.00265567,0.00338475,0.00431273,0.00549386,0.00699721,0.00891068,0.0113462,0.014446,0.0183916,0.0234135,0.0298054,inf	130.611,130.611,441.249,600.802,640.505,593.074,566.19,523.846,467.648,392.514,330.015,310.72,312.069,321.686,329.061,339.502,355.184,375.688,401.289,428.427,448.784,452.127,440.878,422.908,413.855,422.298,420.069,339.497,339.497,285.123,285.123,285.123
0.000742337	-4598920.29	0,4.60022e-06,1.04554e-05,1.79079e-05,2.73935e-05,3.94668e-05,5.48337e-05,7.43928e-05,9.92878e-05,0.000130974,0.000171305,0.000222638,0.000287974,0.000371135,0.000476983,0.000611706,0.000783183,0.00100144,0.00127924,0.00163282,0.00208286,0.00265567,0.00338475,0.00431273,0.00549386,0.00699721,0.00891068,0.0113462,0.014446,0.0183916,0.0234135,0.0298054,inf	99.9686,99.9686,419.7,590.678,639.481,592.42,573.226,535.19,478.355,395.25,325.996,306.865,309.98,321.2,328.164,337.874,353.022,373.483,400.125,429.394,451.944,455.614,442.791,422.432,413.08,425.291,424.154,330.326,330.326,271.822,271.822,271.822
0.000758106	-4598859.72	0,4.60022e-06,1.04554e-05,1.79079e-05,2.73935e-05,3.94668e-05,5.48337e-05,7.43928e-05,9.92878e-05,0.000130974,0.000171305,0.000222638,0.000287974,0.000371135,0.000476983,0.000611706,0.000783183,0.00100144,0.00127924,0.00163282,0.00208286,0.00265567,0.00338475,0.00431273,0.00549386,0.00699721,0.00891068,0.0113462,0.014446,0.0183916,0.0234135,0.0298054,inf	79.5106,79.5106,404.835,580.042,634.053,586.548,574.987,542.275,486.324,396.791,322.176,303.91,309.068,321.966,328.508,337.401,351.778,371.824,398.993,429.813,454.087,457.939,443.682,421.243,411.814,427.929,428.162,322.765,322.765,261.273,261.273,261.273
0.000772544	-4598811.22	0,4.60022e-06,1.04554e-05,1.79079e-05,2.73935e-05,3.94668e-05,5.48337e-05,7.43928e-05,9.92878e-05,0.000130974,0.000171305,0.000222638,0.000287974,0.000371135,0.000476983,0.000611706,0.000783183,0.00100144,0.00127924,0.00163282,0.00208286,0.00265567,0.00338475,0.00431273,0.00549386,0.00699721,0.00891068,0.0113462,0.014446,0.0183916,0.0234135,0.0298054,inf	65.3269,65.3269,396.115,571.384,627.614,578.505,573.915,546.717,492.401,397.396,318.366,301.384,308.73,323.339,329.49,337.574,351.093,370.545,397.947,429.952,455.637,459.571,443.981,419.671,410.288,430.358,432.148,316.515,316.515,252.767,252.767,252.767
0.00078581	-4598771.72	0,4.60022e-06,1.04554e-05,1.79079e-05,2.73935e-05,3.94668e-05,5.48337e-05,7.43928e-05,9.92878e-05,0.000130974,0.000171305,0.000222638,0.000287974,0.000371135,0.000476983,0.000611706,0.000783183,0.00100144,0.00127924,0.00163282,0.00208286,0.00265567,0.00338475,0.00431273,0.00549386,0.00699721,0.00891068,0.0113462,0.014446,0.0183916,0.0234135,0.0298054,inf	55.0117,55.0117,392.217,565.187,621.538,569.823,571.421,549.56,497.218,397.328,314.543,299.084,308.667,324.984,330.779,338.102,350.751,369.531,396.996,429.948,456.827,460.781,443.931,417.904,408.628,432.646,436.116,311.316,311.316,245.806,245.806,245.806
0.000798029	-4598739.27	0,4.60022e-06,1.04554e-05,1.79079e-05,2.73935e-05,3.94668e-05,5.48337e-05,7.43928e-05,9.92878e-05,0.000130974,0.000171305,0.000222638,0.000287974,0.000371135,0.000476983,0.000611706,0.000783183,0.00100144,0.00127924,0.00163282,0.00208286,0.00265567,0.00338475,0.00431273,0.00549386,0.00699721,0.00891068,0.0113462,0.014446,0.0183916,0.0234135,0.0298054,inf	47.1476,47.1476,391.809,561.205,616.327,561.209,568.277,551.461,501.217,396.807,310.735,296.922,308.73,326.722,332.194,338.815,350.618,368.704,396.132,429.871,457.796,461.728,443.679,416.046,406.9,434.83,440.052,306.956,306.956,240.03,240.03,240.03
0.000809305	-4598712.45	0,4.60022e-06,1.04554e-05,1.79079e-05,2.73935e-05,3.94668e-05,5.48337e-05,7.43928e-05,9.92878e-05,0.000130974,0.000171305,0.000222638,0.000287974,0.000371135,0.000476983,0.000611706,0.000783183,0.00100144,0.00127924,0.00163282,0.00208286,0.00265567,0.00338475,0.00431273,0.00549386,0.00699721,0.00891068,0.0113462,0.014446,0.0183916,0.0234135,0.0298054,inf	40.8988,40.8988,393.754,558.935,612.006,552.954,564.915,552.826,504.69,395.996,306.981,294.866,308.849,328.462,333.634,339.617,350.613,368.01,395.343,429.76,458.621,462.509,443.312,414.158,405.142,436.926,443.935,303.267,303.267,235.18,235.18,235.18
0.000819725	-4598690.21	0,4.60022e-06,1.04554e-05,1.79079e-05,2.73935e-05,3.94668e-05,5.48337e-05,7.43928e-05,9.92878e-05,0.000130974,0.000171305,0.000222638,0.000287974,0.000371135,0.000476983,0.000611706,0.000783183,0.00100144,0.00127924,0.00163282,0.00208286,0.00265567,0.00338475,0.00431273,0.00549386,0.00699721,0.00891068,0.0113462,0.014446,0.0183916,0.0234135,0.0298054,inf	35.7538,35.7538,397.234,557.944,608.477,545.164,561.549,553.896,507.835,395.013,303.316,292.903,308.989,330.155,335.043,340.448,350.684,367.412,394.617,429.634,459.351,463.184,442.886,412.276,403.374,438.942,447.746,300.112,300.112,231.063,231.063,231.063
0.000829366	-4598671.70	0,4.60022e-06,1.04554e-05,1.79079e-05,2.73935e-05,3.94668e-05,5.48337e-05,7.43928e-05,9.92878e-05,0.000130974,0.000171305,0.000222638,0.000287974,0.000371135,0.000476983,0.000611706,0.000783183,0.00100144,0.00127924,0.00163282,0.00208286,0.00265567,0.00338475,0.00431273,0.00549386,0.00699721,0.00891068,0.0113462,0.014446,0.0183916,0.0234135,0.0298054,inf	31.4057,31.4057,401.624,557.838,605.596,537.836,558.292,554.809,510.779,393.937,299.765,291.034,309.136,331.779,336.394,341.276,350.799,366.886,393.944,429.503,460.017,463.792,442.432,410.422,401.609,440.886,451.468,297.388,297.388,227.532,227.532,227.532
0.000838293	-4598656.29	0,4.60022e-06,1.04554e-05,1.79079e-05,2.73935e-05,3.94668e-05,5.48337e-05,7.43928e-05,9.92878e-05,0.000130974,0.000171305,0.000222638,0.000287974,0.000371135,0.000476983,0.000611706,0.000783183,0.00100144,0.00127924,0.00163282,0.00208286,0.00265567,0.00338475,0.00431273,0.00549386,0.00699721,0.00891068,0.0113462,0.014446,0.0183916,0.0234135,0.0298054,inf	27.6635,27.6635,406.504,558.337,603.225,530.94,555.184,555.646,513.601,392.823,296.341,289.258,309.285,333.327,337.672,342.079,350.938,366.414,393.315,429.372,460.637,464.357,441.975,408.607,399.854,442.76,455.089,295.01,295.01,224.475,224.475,224.475
0.000846567	-4598643.43	0,4.60022e-06,1.04554e-05,1.79079e-05,2.73935e-05,3.94668e-05,5.48337e-05,7.43928e-05,9.92878e-05,0.000130974,0.000171305,0.000222638,0.000287974,0.000371135,0.000476983,0.000611706,0.000783183,0.00100144,0.00127924,0.00163282,0.00208286,0.00265567,0.00338475,0.00431273,0.00549386,0.00699721,0.00891068,0.0113462,0.014446,0.0183916,0.0234135,0.0298054,inf	24.3921,24.3921,411.557,559.254,601.254,524.433,552.243,556.458,516.353,391.702,293.054,287.574,309.435,334.795,338.871,342.85,351.088,365.982,392.723,429.243,461.223,464.895,441.527,406.839,398.114,444.57,458.601,292.915,292.915,221.808,221.808,221.808
0.00085424	-4598632.70	0,4.60022e-06,1.04554e-05,1.79079e-05,2.73935e-05,3.94668e-05,5.48337e-05,7.43928e-05,9.92878e-05,0.000130974,0.000171305,0.000222638,0.000287974,0.000371135,0.000476983,0.000611706,0.000783183,0.00100144,0.00127924,0.00163282,0.00208286,0.00265567,0.00338475,0.00431273,0.00549386,0.00699721,0.00891068,0.0113462,0.014446,0.0183916,0.0234135,0.0298054,inf	21.5154,21.5154,416.588,560.421,599.597,518.277,549.468,557.252,519.061,390.598,289.905,285.981,309.585,336.187,339.99,343.582,351.241,365.583,392.161,429.117,461.784,465.417,441.098,405.122,396.392,446.319,461.999,291.049,291.049,219.461,219.461,219.461
0.00086136	-4598623.74	0,4.60022e-06,1.04554e-05,1.79079e-05,2.73935e-05,3.94668e-05,5.48337e-05,7.43928e-05,9.92878e-05,0.000130974,0.000171305,0.000222638,0.000287974,0.000371135,0.000476983,0.000611706,0.000783183,0.00100144,0.00127924,0.00163282,0.00208286,0.00265567,0.00338475,0.00431273,0.00549386,0.00699721,0.00891068,0.0113462,0.014446,0.0183916,0.0234135,0.0298054,inf	18.9722,18.9722,421.456,561.73,598.204,512.434,546.848,558.054,521.749,389.525,286.894,284.476,309.737,337.505,341.033,344.274,351.392,365.209,391.624,428.993,462.323,465.931,440.694,403.457,394.689,448.013,465.28,289.372,289.372,217.382,217.382,217.382
0.000867972	-4598616.28	0,4.60022e-06,1.04554e-05,1.79079e-05,2.73935e-05,3.94668e-05,5.48337e-05,7.43928e-05,9.92878e-05,0.000130974,0.000171305,0.000222638,0.000287974,0.000371135,0.000476983,0.000611706,0.000783183,0.00100144,0.00127924,0.00163282,0.00208286,0.00265567,0.00338475,0.00431273,0.00549386,0.00699721,0.00891068,0.0113462,0.014446,0.0183916,0.0234135,0.0298054,inf	16.7175,16.7175,426.095,563.13,597.021,506.863,544.363,558.859,524.418,388.486,284.015,283.056,309.892,338.754,342.003,344.925,351.538,364.857,391.11,428.871,462.846,466.44,440.318,401.847,393.008,449.656,468.445,287.853,287.853,215.529,215.529,215.529
0.000874113	-4598610.06	0,4.60022e-06,1.04554e-05,1.79079e-05,2.73935e-05,3.94668e-05,5.48337e-05,7.43928e-05,9.92878e-05,0.000130974,0.000171305,0.000222638,0.000287974,0.000371135,0.000476983,0.000611706,0.000783183,0.00100144,0.00127924,0.00163282,0.00208286,0.00265567,0.00338475,0.00431273,0.00549386,0.00699721,0.00891068,0.0113462,0.014446,0.0183916,0.0234135,0.0298054,inf	14.7134,14.7134,430.456,564.577,596.011,501.555,542.013,559.667,527.075,387.487,281.264,281.717,310.05,339.938,342.902,345.538,351.679,364.523,390.615,428.75,463.353,466.949,439.972,400.289,391.348,451.252,471.493,286.463,286.463,213.866,213.866,213.866
0.000879803	-4598604.90	0,4.60022e-06,1.04554e-05,1.79079e-05,2.73935e-05,3.94668e-05,5.48337e-05,7.43928e-05,9.92878e-05,0.000130974,0.000171305,0.000222638,0.000287974,0.000371135,0.000476983,0.000611706,0.000783183,0.00100144,0.00127924,0.00163282,0.00208286,0.00265567,0.00338475,0.00431273,0.00549386,0.00699721,0.00891068,0.0113462,0.014446,0.0183916,0.0234135,0.0298054,inf	12.9304,12.9304,434.298,565.812,594.883,496.25,539.533,560.224,529.489,386.362,278.518,280.345,310.097,340.944,343.627,346.015,351.727,364.131,390.077,428.585,463.813,467.433,439.638,398.77,389.703,452.794,474.409,285.172,285.172,212.359,212.359,212.359
0.000885105	-4598600.66	0,4.60022e-06,1.04554e-05,1.79079e-05,2.73935e-05,3.94668e-05,5.48337e-05,7.43928e-05,9.92878e-05,0.000130974,0.000171305,0.000222638,0.000287974,0.000371135,0.000476983,0.000611706,0.000783183,0.00100144,0.00127924,0.00163282,0.00208286,0.00265567,0.00338475,0.00431273,0.00549386,0.00699721,0.00891068,0.0113462,0.014446,0.0183916,0.0234135,0.0298054,inf	11.3591,11.3591,438.05,567.312,594.18,491.388,537.4,561.003,532.104,385.424,275.985,279.138,310.24,341.985,344.374,346.529,351.829,363.803,389.595,428.453,464.287,467.939,439.349,397.312,388.087,454.304,477.223,283.98,283.98,210.995,210.995,210.995
