0.000654697	-8463093.60	0,6.08612e-06,1.63379e-05,3.36066e-05,6.2695e-05,0.000111693,0.000194228,0.000333255,0.000567439,0.000961911,0.00162638,0.00274566,0.00463102,0.00780683,0.0131564,0.0221674,inf	307.042,307.042,398.117,436.066,434.527,391.228,367.692,366.261,377.234,402.402,430.588,421.515,415.805,453.679,453.679,453.679
0.000679459	-8462678.75	0,6.08612e-06,1.63379e-05,3.36066e-05,6.2695e-05,0.000111693,0.000194228,0.000333255,0.000567439,0.000961911,0.00162638,0.00274566,0.00463102,0.00780683,0.0131564,0.0221674,inf	246.687,246.687,388.582,463.177,469.956,394.423,355.647,351.156,363.723,399.35,445.066,428.004,419.357,499.503,499.503,499.503
0.000699434	-8462593.09	0,6.08612e-06,1.63379e-05,3.36066e-05,6.2695e-05,0.000111693,0.000194228,0.000333255,0.000567439,0.000961911,0.00162638,0.00274566,0.00463102,0.00780683,0.0131564,0.0221674,inf	206.834,206.834,372.269,476.758,497.89,398.977,351.37,344.861,356.211,396.189,453.522,428.774,417.614,541.801,541.801,541.801
0.000716145	-8462595.40	0,6.08612e-06,1.63379e-05,3.36066e-05,6.2695e-05,0.000111693,0.000194228,0.000333255,0.000567439,0.000961911,0.00162638,0.00274566,0.00463102,0.00780683,0.0131564,0.0221674,inf	181.721,181.721,354.469,480.257,517.758,401.824,349.861,342.606,351.952,393.528,459.326,427.213,413.201,582.443,582.443,582.443
0.000730464	-8462632.40	0,6.08612e-06,1.63379e-05,3.36066e-05,6.2695e-05,0.000111693,0.000194228,0.000333255,0.000567439,0.000961911,0.00162638,0.00274566,0.00463102,0.00780683,0.0131564,0.0221674,inf	166.818,166.818,338.528,478.117,531.542,402.707,349.281,342.271,349.485,391.311,463.866,424.819,407.423,622.848,622.848,622.848
0.000742923	-8462690.32	0,6.08612e-06,1.63379e-05,3.36066e-05,6.2695e-05,0.000111693,0.000194228,0.000333255,0.000567439,0.000961911,0.00162638,0.00274566,0.00463102,0.00780683,0.0131564,0.0221674,inf	158.701,158.701,325.575,473.426,541.314,402.079,348.964,342.861,348.031,389.389,467.735,422.255,400.939,664.252,664.252,664.252
0.000753869	-8462765.09	0,6.08612e-06,1.63379e-05,3.36066e-05,6.2695e-05,0.000111693,0.000194228,0.000333255,0.000567439,0.000961911,0.00162638,0.00274566,0.00463102,0.00780683,0.0131564,0.0221674,inf	154.988,154.988,315.533,467.903,548.592,400.446,348.68,343.896,347.166,387.643,471.194,419.803,394.085,707.917,707.917,707.917
0.000763545	-8462855.64	0,6.08612e-06,1.63379e-05,3.36066e-05,6.2695e-05,0.000111693,0.000194228,0.000333255,0.000567439,0.000961911,0.00162638,0.00274566,0.00463102,0.00780683,0.0131564,0.0221674,inf	154.052,154.052,307.913,462.38,554.362,398.198,348.365,345.135,346.658,385.995,474.365,417.574,387.029,755.345,755.345,755.345
0.000772135	-8462962.42	0,6.08612e-06,1.63379e-05,3.36066e-05,6.2695e-05,0.000111693,0.000194228,0.000333255,0.000567439,0.000961911,0.00162638,0.00274566,0.00463102,0.00780683,0.0131564,0.0221674,inf	154.755,154.755,302.156,457.194,559.22,395.606,348.008,346.456,346.379,384.399,477.305,415.592,379.844,808.569,808.569,808.569
0.000779779	-8463087.15	0,6.08612e-06,1.63379e-05,3.36066e-05,6.2695e-05,0.000111693,0.000194228,0.000333255,0.000567439,0.000961911,0.00162638,0.00274566,0.00463102,0.00780683,0.0131564,0.0221674,inf	156.415,156.415,297.806,452.449,563.524,392.845,347.62,347.795,346.257,382.833,480.048,413.843,372.546,870.65,870.65,870.65
0.000786589	-8463233.18	0,6.08612e-06,1.63379e-05,3.36066e-05,6.2695e-05,0.000111693,0.000194228,0.000333255,0.000567439,0.000961911,0.00162638,0.00274566,0.00463102,0.00780683,0.0131564,0.0221674,inf	158.511,158.511,294.472,448.132,567.476,390.025,347.208,349.117,346.247,381.288,482.613,412.287,365.115,946.719,946.719,946.719
0.000792658	-8463406.32	0,6.08612e-06,1.63379e-05,3.36066e-05,6.2695e-05,0.000111693,0.000194228,0.000333255,0.000567439,0.000961911,0.00162638,0.00274566,0.00463102,0.00780683,0.0131564,0.0221674,inf	160.767,160.767,291.895,444.194,571.196,387.217,346.782,350.402,346.328,379.764,485.012,410.868,357.493,1046.41,1046.41,1046.41
0.000798059	-8463616.57	0,6.08612e-06,1.63379e-05,3.36066e-05,6.2695e-05,0.000111693,0.000194228,0.000333255,0.000567439,0.000961911,0.00162638,0.00274566,0.00463102,0.00780683,0.0131564,0.0221674,inf	163,163,289.887,440.576,574.754,384.46,346.349,351.64,346.484,378.264,487.254,409.506,349.58,1190.74,1190.74,1190.74
0.000802856	-8463881.70	0,6.08612e-06,1.63379e-05,3.36066e-05,6.2695e-05,0.000111693,0.000194228,0.000333255,0.000567439,0.000961911,0.00162638,0.00274566,0.00463102,0.00780683,0.0131564,0.0221674,inf	165.089,165.089,288.311,437.219,578.189,381.785,345.912,352.826,346.709,376.8,489.342,408.079,341.217,1436.03,1436.03,1436.03
0.000807102	-8464234.90	0,6.08612e-06,1.63379e-05,3.36066e-05,6.2695e-05,0.000111693,0.000194228,0.000333255,0.000567439,0.000961911,0.00162638,0.00274566,0.00463102,0.00780683,0.0131564,0.0221674,inf	167,167,287.077,434.07,581.521,379.205,345.476,353.961,347.006,375.388,491.263,406.371,332.137,1986.27,1986.27,1986.27
0.000810846	-8464731.87	0,6.08612e-06,1.63379e-05,3.36066e-05,6.2695e-05,0.000111693,0.000194228,0.000333255,0.000567439,0.000961911,0.00162638,0.00274566,0.00463102,0.00780683,0.0131564,0.0221674,inf	168.697,168.697,286.111,431.076,584.775,376.731,345.047,355.055,347.388,374.055,492.973,403.983,321.895,4298.94,4298.94,4298.94
0.000810846	-8465455.15	0,6.08612e-06,1.63379e-05,3.36066e-05,6.2695e-05,0.000111693,0.000194228,0.000333255,0.000567439,0.000961911,0.00162638,0.00274566,0.00463102,0.00780683,0.0131564,0.0221674,inf	170.039,170.039,285.108,427.826,587.388,374.034,344.322,355.801,347.583,372.477,493.147,399.152,309.984,50435.8,50435.8,50435.8
0.000810846	-8466057.48	0,6.08612e-06,1.63379e-05,3.36066e-05,6.2695e-05,0.000111693,0.000194228,0.000333255,0.000567439,0.000961911,0.00162638,0.00274566,0.00463102,0.00780683,0.0131564,0.0221674,inf	170.039,170.039,284.579,425.067,589.217,371.691,343.673,356.619,347.817,371.47,493.147,394.322,297.827,50439.1,50439.1,50439.1
0.000810846	-8465955.58	0,6.08612e-06,1.63379e-05,3.36066e-05,6.2695e-05,0.000111693,0.000194228,0.000333255,0.000567439,0.000961911,0.00162638,0.00274566,0.00463102,0.00780683,0.0131564,0.0221674,inf	170.044,170.044,284.546,422.789,590.581,369.595,342.993,357.28,348.102,371.014,493.418,391.808,287.111,50441.8,50441.8,50441.8
0.000810846	-8465873.81	0,6.08612e-06,1.63379e-05,3.36066e-05,6.2695e-05,0.000111693,0.000194228,0.000333255,0.000567439,0.000961911,0.00162638,0.00274566,0.00463102,0.00780683,0.0131564,0.0221674,inf	170.047,170.047,284.546,420.936,590.629,367.786,342.334,357.775,348.102,370.758,493.728,390.905,277.505,50444.1,50444.1,50444.1
