0.000657558	-13614098.28	0,4.07244e-06,1.11387e-05,2.33997e-05,4.46743e-05,8.15888e-05,0.000145641,0.00025678,0.000449623,0.000784232,0.00136483,0.00237225,0.00412026,0.00715332,0.0124161,0.0215478,inf	239.851,239.851,346.372,399.02,419.839,400.574,374.596,367.075,371.631,392.128,423.194,423.289,409.7,456.097,456.097,456.097
0.000684052	-13613520.48	0,4.07244e-06,1.11387e-05,2.33997e-05,4.46743e-05,8.15888e-05,0.000145641,0.00025678,0.000449623,0.000784232,0.00136483,0.00237225,0.00412026,0.00715332,0.0124161,0.0215478,inf	167.979,167.979,314.112,402.03,444.951,413.203,368.567,354.574,357.288,384.812,433.436,431.914,407.913,504.447,504.447,504.447
0.000705516	-13613459.14	0,4.07244e-06,1.11387e-05,2.33997e-05,4.46743e-05,8.15888e-05,0.000145641,0.00025678,0.000449623,0.000784232,0.00136483,0.00237225,0.00412026,0.00715332,0.0124161,0.0215478,inf	130.792,130.792,288.996,398.99,463.518,425.08,368.074,350.343,350.083,379.639,439.271,434.954,401.535,548.881,548.881,548.881
0.000723526	-13613543.97	0,4.07244e-06,1.11387e-05,2.33997e-05,4.46743e-05,8.15888e-05,0.000145641,0.00025678,0.000449623,0.000784232,0.00136483,0.00237225,0.00412026,0.00715332,0.0124161,0.0215478,inf	110.982,110.982,269.6,391.514,474.921,433.391,368.562,349.449,346.409,375.947,443.317,435.751,393.185,591.212,591.212,591.212
0.000738987	-13613690.05	0,4.07244e-06,1.11387e-05,2.33997e-05,4.46743e-05,8.15888e-05,0.000145641,0.00025678,0.000449623,0.000784232,0.00136483,0.00237225,0.00412026,0.00715332,0.0124161,0.0215478,inf	100.641,100.641,255.514,382.469,481.356,438.475,368.765,349.925,344.567,373.165,446.535,435.723,384.066,632.751,632.751,632.751
0.000752457	-13613872.54	0,4.07244e-06,1.11387e-05,2.33997e-05,4.46743e-05,8.15888e-05,0.000145641,0.00025678,0.000449623,0.000784232,0.00136483,0.00237225,0.00412026,0.00715332,0.0124161,0.0215478,inf	95.6761,95.6761,245.93,373.673,484.907,441.282,368.461,350.95,343.718,370.922,449.288,435.476,374.732,674.568,674.568,674.568
0.000764306	-13614082.33	0,4.07244e-06,1.11387e-05,2.33997e-05,4.46743e-05,8.15888e-05,0.000145641,0.00025678,0.000449623,0.000784232,0.00136483,0.00237225,0.00412026,0.00715332,0.0124161,0.0215478,inf	93.7014,93.7014,239.771,365.859,486.958,442.627,367.722,352.173,343.432,368.998,451.722,435.26,365.434,717.67,717.67,717.67
0.000774801	-13614315.80	0,4.07244e-06,1.11387e-05,2.33997e-05,4.46743e-05,8.15888e-05,0.000145641,0.00025678,0.000449623,0.000784232,0.00136483,0.00237225,0.00412026,0.00715332,0.0124161,0.0215478,inf	93.3889,93.3889,236.085,359.175,488.304,443.094,366.676,353.441,343.484,367.268,453.901,435.167,356.274,763.141,763.141,763.141
0.000784141	-13614572.10	0,4.07244e-06,1.11387e-05,2.33997e-05,4.46743e-05,8.15888e-05,0.000145641,0.00025678,0.000449623,0.000784232,0.00136483,0.00237225,0.00412026,0.00715332,0.0124161,0.0215478,inf	93.9457,93.9457,234.097,353.514,489.364,443.05,365.429,354.688,343.748,365.662,455.859,435.218,347.28,812.303,812.303,812.303
0.000792485	-13614852.44	0,4.07244e-06,1.11387e-05,2.33997e-05,4.46743e-05,8.15888e-05,0.000145641,0.00025678,0.000449623,0.000784232,0.00136483,0.00237225,0.00412026,0.00715332,0.0124161,0.0215478,inf	94.8683,94.8683,233.296,348.714,490.345,442.732,364.065,355.885,344.156,364.146,457.619,435.399,338.441,866.942,866.942,866.942
0.000799958	-13615160.09	0,4.07244e-06,1.11387e-05,2.33997e-05,4.46743e-05,8.15888e-05,0.000145641,0.00025678,0.000449623,0.000784232,0.00136483,0.00237225,0.00412026,0.00715332,0.0124161,0.0215478,inf	95.8727,95.8727,233.275,344.586,491.335,442.277,362.639,357.019,344.664,362.7,459.201,435.679,329.718,929.695,929.695,929.695
0.000806666	-13615500.94	0,4.07244e-06,1.11387e-05,2.33997e-05,4.46743e-05,8.15888e-05,0.000145641,0.00025678,0.000449623,0.000784232,0.00136483,0.00237225,0.00412026,0.00715332,0.0124161,0.0215478,inf	96.822,96.822,233.766,340.988,492.363,441.769,361.188,358.084,345.248,361.318,460.623,436.014,321.056,1004.8,1004.8,1004.8
0.000812696	-13615884.59	0,4.07244e-06,1.11387e-05,2.33997e-05,4.46743e-05,8.15888e-05,0.000145641,0.00025678,0.000449623,0.000784232,0.00136483,0.00237225,0.00412026,0.00715332,0.0124161,0.0215478,inf	97.6201,97.6201,234.605,337.789,493.43,441.258,359.738,359.078,345.891,359.998,461.904,436.349,312.382,1099.74,1099.74,1099.74
0.00081812	-13616326.48	0,4.07244e-06,1.11387e-05,2.33997e-05,4.46743e-05,8.15888e-05,0.000145641,0.00025678,0.000449623,0.000784232,0.00136483,0.00237225,0.00412026,0.00715332,0.0124161,0.0215478,inf	98.2322,98.2322,235.666,334.898,494.527,440.775,358.304,360,346.583,358.743,463.063,436.607,303.597,1229.2,1229.2,1229.2
0.000822996	-13616851.72	0,4.07244e-06,1.11387e-05,2.33997e-05,4.46743e-05,8.15888e-05,0.000145641,0.00025678,0.000449623,0.000784232,0.00136483,0.00237225,0.00412026,0.00715332,0.0124161,0.0215478,inf	98.6756,98.6756,236.838,332.242,495.644,440.341,356.901,360.854,347.318,357.56,464.118,436.677,294.565,1426.04,1426.04,1426.04
0.000827384	-13617500.50	0,4.07244e-06,1.11387e-05,2.33997e-05,4.46743e-05,8.15888e-05,0.000145641,0.00025678,0.000449623,0.000784232,0.00136483,0.00237225,0.00412026,0.00715332,0.0124161,0.0215478,inf	99.0133,99.0133,238.093,329.77,496.766,439.964,355.536,361.644,348.096,356.463,465.086,436.38,285.091,1773.49,1773.49,1773.49
0.00083137	-13618325.08	0,4.07244e-06,1.11387e-05,2.33997e-05,4.46743e-05,8.15888e-05,0.000145641,0.00025678,0.000449623,0.000784232,0.00136483,0.00237225,0.00412026,0.00715332,0.0124161,0.0215478,inf	99.1705,99.1705,239.379,327.445,497.883,439.66,354.223,362.38,348.927,355.476,465.992,435.452,274.929,2508.52,2508.52,2508.52
0.00083513	-13619332.09	0,4.07244e-06,1.11387e-05,2.33997e-05,4.46743e-05,8.15888e-05,0.000145641,0.00025678,0.000449623,0.000784232,0.00136483,0.00237225,0.00412026,0.00715332,0.0124161,0.0215478,inf	99.2622,99.2622,240.683,325.234,498.993,439.438,352.969,363.074,349.824,354.632,466.898,433.614,263.89,5500.3,5500.3,5500.3
0.00083513	-13620694.75	0,4.07244e-06,1.11387e-05,2.33997e-05,4.46743e-05,8.15888e-05,0.000145641,0.00025678,0.000449623,0.000784232,0.00136483,0.00237225,0.00412026,0.00715332,0.0124161,0.0215478,inf	99.1619,99.1619,241.809,322.816,499.594,438.87,351.379,363.353,350.443,353.487,466.548,429.034,251.724,50319.5,50319.5,50319.5
0.00083513	-13621758.03	0,4.07244e-06,1.11387e-05,2.33997e-05,4.46743e-05,8.15888e-05,0.000145641,0.00025678,0.000449623,0.000784232,0.00136483,0.00237225,0.00412026,0.00715332,0.0124161,0.0215478,inf	98.9819,98.9819,241.946,320.717,500.586,438.687,350.005,363.67,350.775,352.955,466.855,424.607,239.632,50322.6,50322.6,50322.6
