time_index	left_time_boundary	right_time_boundary	lambda
0	0	2.17837e-05	206.189
1	2.17837e-05	5.51112e-05	206.189
2	5.51112e-05	0.0001061	247.839
3	0.0001061	0.000184108	289.791
4	0.000184108	0.000303456	261.435
5	0.000303456	0.000486048	270.806
6	0.000486048	0.000765401	301.425
7	0.000765401	0.00119279	322.073
8	0.00119279	0.00184667	359.748
9	0.00184667	0.00284704	419.104
10	0.00284704	0.00437755	522.565
11	0.00437755	0.00671911	536.537
12	0.00671911	0.0103015	403.769
13	0.0103015	0.0157823	206.727
14	0.0157823	0.0241676	206.727
15	0.0241676	inf	206.727
