0.000631289	-2978990.91	0,4.11662e-05,8.93203e-05,0.000145649,0.000211539,0.000288614,0.000378772,0.000484235,0.0006076,0.000751906,0.000920708,0.00111816,0.00134914,0.00161932,0.00193537,0.00230506,0.00273751,0.00324337,0.0038351,0.00452727,0.00533694,0.00628406,0.00739194,0.00868789,0.0102038,0.0119771,0.0140514,0.0164777,0.019316,0.0226361,0.0265197,0.0310626,inf	320.439,320.439,280.537,275.951,277.97,286.589,298.976,312.566,325.766,339.842,356.066,373.799,391.658,408.525,423.698,436.534,446.14,451.682,453.028,450.941,446.344,439.774,431.916,424.285,418.542,415.25,414.097,415.4,415.4,422.041,422.041,422.041
0.000657735	-2978344.03	0,4.11662e-05,8.93203e-05,0.000145649,0.000211539,0.000288614,0.000378772,0.000484235,0.0006076,0.000751906,0.000920708,0.00111816,0.00134914,0.00161932,0.00193537,0.00230506,0.00273751,0.00324337,0.0038351,0.00452727,0.00533694,0.00628406,0.00739194,0.00868789,0.0102038,0.0119771,0.0140514,0.0164777,0.019316,0.0226361,0.0265197,0.0310626,inf	325.61,325.61,255.312,244.094,241.135,249.257,263.642,280.007,295.498,312.595,333.774,358.057,383.233,407.654,430.419,450.659,466.846,477.165,480.725,478.245,470.884,459.285,444.751,430.542,420.115,414.524,413.078,416.575,416.575,431.007,431.007,431.007
0.000682833	-2978080.81	0,4.11662e-05,8.93203e-05,0.000145649,0.000211539,0.000288614,0.000378772,0.000484235,0.0006076,0.000751906,0.000920708,0.00111816,0.00134914,0.00161932,0.00193537,0.00230506,0.00273751,0.00324337,0.0038351,0.00452727,0.00533694,0.00628406,0.00739194,0.00868789,0.0102038,0.0119771,0.0140514,0.0164777,0.019316,0.0226361,0.0265197,0.0310626,inf	340.572,340.572,251.744,237.039,229.5,236.408,251.151,267.964,282.97,300.003,322.684,349.735,378.295,406.417,433.248,457.98,478.783,493.085,499.14,497.239,488.336,472.855,452.635,432.794,418.592,411.466,410.289,416.449,416.449,439.168,439.168,439.168
0.000706414	-2977924.24	0,4.11662e-05,8.93203e-05,0.000145649,0.000211539,0.000288614,0.000378772,0.000484235,0.0006076,0.000751906,0.000920708,0.00111816,0.00134914,0.00161932,0.00193537,0.00230506,0.00273751,0.00324337,0.0038351,0.00452727,0.00533694,0.00628406,0.00739194,0.00868789,0.0102038,0.0119771,0.0140514,0.0164777,0.019316,0.0226361,0.0265197,0.0310626,inf	350.098,350.098,252.412,236.992,226.018,232.222,247.301,264.054,277.743,293.688,316.577,344.807,374.95,404.864,433.853,461.315,485.352,502.872,511.354,510.51,500.822,482.265,457.144,432.464,415.214,407.094,406.515,415.496,415.496,446.537,446.537,446.537
0.000728673	-2977809.99	0,4.11662e-05,8.93203e-05,0.000145649,0.000211539,0.000288614,0.000378772,0.000484235,0.0006076,0.000751906,0.000920708,0.00111816,0.00134914,0.00161932,0.00193537,0.00230506,0.00273751,0.00324337,0.0038351,0.00452727,0.00533694,0.00628406,0.00739194,0.00868789,0.0102038,0.0119771,0.0140514,0.0164777,0.019316,0.0226361,0.0265197,0.0310626,inf	353.707,353.707,253.093,238.727,225.284,231.372,247.083,263.762,275.929,290.476,313.074,341.768,372.6,403.287,433.333,462.416,488.703,508.778,519.473,519.883,509.869,488.81,459.413,430.549,410.821,402.084,402.27,414.041,414.041,453.14,453.14,453.14
0.000749818	-2977717.02	0,4.11662e-05,8.93203e-05,0.000145649,0.000211539,0.000288614,0.000378772,0.000484235,0.0006076,0.000751906,0.000920708,0.00111816,0.00134914,0.00161932,0.00193537,0.00230506,0.00273751,0.00324337,0.0038351,0.00452727,0.00533694,0.00628406,0.00739194,0.00868789,0.0102038,0.0119771,0.0140514,0.0164777,0.019316,0.0226361,0.0265197,0.0310626,inf	353.641,353.641,253.001,240.611,225.362,231.778,248.423,265.144,275.808,288.926,311.073,339.907,370.968,401.862,432.311,462.296,490.133,512.221,524.875,526.588,516.529,493.386,460.218,427.711,405.956,396.86,397.877,412.3,412.3,459.014,459.014,459.014
0.000770012	-2977637.03	0,4.11662e-05,8.93203e-05,0.000145649,0.000211539,0.000288614,0.000378772,0.000484235,0.0006076,0.000751906,0.000920708,0.00111816,0.00134914,0.00161932,0.00193537,0.00230506,0.00273751,0.00324337,0.0038351,0.00452727,0.00533694,0.00628406,0.00739194,0.00868789,0.0102038,0.0119771,0.0140514,0.0164777,0.019316,0.0226361,0.0265197,0.0310626,inf	351.802,351.802,252.233,242.196,225.55,232.581,250.389,267.279,276.537,288.307,309.985,338.824,369.879,400.662,431.114,461.528,490.413,514.082,528.448,531.444,521.515,496.602,460.08,424.383,400.958,391.681,393.534,410.412,410.412,464.204,464.204,464.204
0.000789378	-2977566.16	0,4.11662e-05,8.93203e-05,0.000145649,0.000211539,0.000288614,0.000378772,0.000484235,0.0006076,0.000751906,0.000920708,0.00111816,0.00134914,0.00161932,0.00193537,0.00230506,0.00273751,0.00324337,0.0038351,0.00452727,0.00533694,0.00628406,0.00739194,0.00868789,0.0102038,0.0119771,0.0140514,0.0164777,0.019316,0.0226361,0.0265197,0.0310626,inf	349.328,349.328,251.042,243.427,225.618,233.422,252.548,269.709,277.675,288.216,309.472,338.275,369.207,399.698,429.909,460.436,490.005,514.918,530.774,535,525.312,498.877,459.35,420.845,396.032,386.696,389.354,408.471,408.471,468.756,468.756,468.756
0.000808003	-2977502.37	0,4.11662e-05,8.93203e-05,0.000145649,0.000211539,0.000288614,0.000378772,0.000484235,0.0006076,0.000751906,0.000920708,0.00111816,0.00134914,0.00161932,0.00193537,0.00230506,0.00273751,0.00324337,0.0038351,0.00452727,0.00533694,0.00628406,0.00739194,0.00868789,0.0102038,0.0119771,0.0140514,0.0164777,0.019316,0.0226361,0.0265197,0.0310626,inf	346.788,346.788,249.643,244.376,225.516,234.168,254.699,272.201,278.984,288.422,309.326,338.094,368.854,398.955,428.773,459.2,489.189,515.079,532.235,537.627,528.253,500.494,458.261,417.27,391.302,381.989,385.402,406.536,406.536,472.721,472.721,472.721
0.000825955	-2977444.40	0,4.11662e-05,8.93203e-05,0.000145649,0.000211539,0.000288614,0.000378772,0.000484235,0.0006076,0.000751906,0.000920708,0.00111816,0.00134914,0.00161932,0.00193537,0.00230506,0.00273751,0.00324337,0.0038351,0.00452727,0.00533694,0.00628406,0.00739194,0.00868789,0.0102038,0.0119771,0.0140514,0.0164777,0.019316,0.0226361,0.0265197,0.0310626,inf	344.409,344.409,248.182,245.131,225.272,234.785,256.757,274.64,280.332,288.787,309.415,338.173,368.743,398.404,427.738,457.92,488.134,514.792,533.087,539.579,530.569,501.652,456.969,413.769,386.832,377.6,381.709,404.646,404.646,476.148,476.148,476.148
0.000843286	-2977391.41	0,4.11662e-05,8.93203e-05,0.000145649,0.000211539,0.000288614,0.000378772,0.000484235,0.0006076,0.000751906,0.000920708,0.00111816,0.00134914,0.00161932,0.00193537,0.00230506,0.00273751,0.00324337,0.0038351,0.00452727,0.00533694,0.00628406,0.00739194,0.00868789,0.0102038,0.0119771,0.0140514,0.0164777,0.019316,0.0226361,0.0265197,0.0310626,inf	342.271,342.271,246.75,245.773,224.924,235.276,258.692,276.968,281.651,289.228,309.653,338.434,368.819,398.018,426.812,456.651,486.946,514.207,533.504,541.035,532.424,502.486,455.578,410.405,382.655,373.542,378.285,402.823,402.823,479.085,479.085,479.085
0.000860037	-2977342.76	0,4.11662e-05,8.93203e-05,0.000145649,0.000211539,0.000288614,0.000378772,0.000484235,0.0006076,0.000751906,0.000920708,0.00111816,0.00134914,0.00161932,0.00193537,0.00230506,0.00273751,0.00324337,0.0038351,0.00452727,0.00533694,0.00628406,0.00739194,0.00868789,0.0102038,0.0119771,0.0140514,0.0164777,0.019316,0.0226361,0.0265197,0.0310626,inf	340.376,340.376,245.396,246.36,224.514,235.663,260.502,279.165,282.901,289.696,309.982,338.82,369.034,397.767,425.992,455.421,485.688,513.42,533.606,542.118,533.931,503.093,454.156,407.218,378.781,369.812,375.128,401.081,401.081,481.574,481.574,481.574
0.000876243	-2977297.95	0,4.11662e-05,8.93203e-05,0.000145649,0.000211539,0.000288614,0.000378772,0.000484235,0.0006076,0.000751906,0.000920708,0.00111816,0.00134914,0.00161932,0.00193537,0.00230506,0.00273751,0.00324337,0.0038351,0.00452727,0.00533694,0.00628406,0.00739194,0.00868789,0.0102038,0.0119771,0.0140514,0.0164777,0.019316,0.0226361,0.0265197,0.0310626,inf	338.673,338.673,244.142,246.933,224.075,235.969,262.193,281.226,284.066,290.16,310.366,339.294,369.355,397.628,425.271,454.244,484.402,512.5,533.478,542.918,535.175,503.539,452.748,404.222,375.207,366.399,372.228,399.428,399.428,483.658,483.658,483.658
0.000891932	-2977256.56	0,4.11662e-05,8.93203e-05,0.000145649,0.000211539,0.000288614,0.000378772,0.000484235,0.0006076,0.000751906,0.000920708,0.00111816,0.00134914,0.00161932,0.00193537,0.00230506,0.00273751,0.00324337,0.0038351,0.00452727,0.00533694,0.00628406,0.00739194,0.00868789,0.0102038,0.0119771,0.0140514,0.0164777,0.019316,0.0226361,0.0265197,0.0310626,inf	337.141,337.141,242.995,247.518,223.632,236.215,263.782,283.154,285.138,290.601,310.778,339.826,369.755,397.58,424.636,453.126,483.112,511.491,533.179,543.501,536.214,503.872,451.381,401.425,371.923,363.284,369.57,397.866,397.866,485.378,485.378,485.378
0.000907129	-2977218.25	0,4.11662e-05,8.93203e-05,0.000145649,0.000211539,0.000288614,0.000378772,0.000484235,0.0006076,0.000751906,0.000920708,0.00111816,0.00134914,0.00161932,0.00193537,0.00230506,0.00273751,0.00324337,0.0038351,0.00452727,0.00533694,0.00628406,0.00739194,0.00868789,0.0102038,0.0119771,0.0140514,0.0164777,0.019316,0.0226361,0.0265197,0.0310626,inf	335.749,335.749,241.955,248.131,223.202,236.422,265.281,284.958,286.119,291.011,311.2,340.396,370.214,397.607,424.08,452.066,481.835,510.425,532.752,543.914,537.094,504.126,450.073,398.825,368.912,360.447,367.141,396.392,396.392,486.763,486.763,486.763
0.000921857	-2977182.72	0,4.11662e-05,8.93203e-05,0.000145649,0.000211539,0.000288614,0.000378772,0.000484235,0.0006076,0.000751906,0.000920708,0.00111816,0.00134914,0.00161932,0.00193537,0.00230506,0.00273751,0.00324337,0.0038351,0.00452727,0.00533694,0.00628406,0.00739194,0.00868789,0.0102038,0.0119771,0.0140514,0.0164777,0.019316,0.0226361,0.0265197,0.0310626,inf	334.465,334.465,241.009,248.776,222.795,236.602,266.703,286.647,287.01,291.382,311.622,340.99,370.717,397.694,423.591,451.064,480.581,509.325,532.231,544.193,537.848,504.324,448.832,396.414,366.158,357.87,364.922,395.005,395.005,487.847,487.847,487.847
0.000936136	-2977149.70	0,4.11662e-05,8.93203e-05,0.000145649,0.000211539,0.000288614,0.000378772,0.000484235,0.0006076,0.000751906,0.000920708,0.00111816,0.00134914,0.00161932,0.00193537,0.00230506,0.00273751,0.00324337,0.0038351,0.00452727,0.00533694,0.00628406,0.00739194,0.00868789,0.0102038,0.0119771,0.0140514,0.0164777,0.019316,0.0226361,0.0265197,0.0310626,inf	333.272,333.272,240.151,249.46,222.42,236.767,268.061,288.232,287.817,291.715,312.035,341.596,371.252,397.831,423.163,450.117,479.354,508.204,531.638,544.365,538.499,504.482,447.663,394.185,363.64,355.529,362.898,393.701,393.701,488.66,488.66,488.66
0.000949983	-2977118.98	0,4.11662e-05,8.93203e-05,0.000145649,0.000211539,0.000288614,0.000378772,0.000484235,0.0006076,0.000751906,0.000920708,0.00111816,0.00134914,0.00161932,0.00193537,0.00230506,0.00273751,0.00324337,0.0038351,0.00452727,0.00533694,0.00628406,0.00739194,0.00868789,0.0102038,0.0119771,0.0140514,0.0164777,0.019316,0.0226361,0.0265197,0.0310626,inf	332.158,332.158,239.37,250.175,222.077,236.925,269.363,289.721,288.545,292.007,312.435,342.207,371.809,398.008,422.787,449.222,478.159,507.076,530.992,544.451,539.068,504.613,446.567,392.125,361.342,353.406,361.052,392.475,392.475,489.226,489.226,489.226
0.000963417	-2977090.36	0,4.11662e-05,8.93203e-05,0.000145649,0.000211539,0.000288614,0.000378772,0.000484235,0.0006076,0.000751906,0.000920708,0.00111816,0.00134914,0.00161932,0.00193537,0.00230506,0.00273751,0.00324337,0.0038351,0.00452727,0.00533694,0.00628406,0.00739194,0.00868789,0.0102038,0.0119771,0.0140514,0.0164777,0.019316,0.0226361,0.0265197,0.0310626,inf	331.105,331.105,238.655,250.922,221.77,237.082,270.619,291.126,289.201,292.26,312.819,342.816,372.381,398.218,422.458,448.375,476.996,505.948,530.305,544.466,539.567,504.725,445.543,390.223,359.245,351.482,359.369,391.321,391.321,489.568,489.568,489.568
0.000976452	-2977063.65	0,4.11662e-05,8.93203e-05,0.000145649,0.000211539,0.000288614,0.000378772,0.000484235,0.0006076,0.000751906,0.000920708,0.00111816,0.00134914,0.00161932,0.00193537,0.00230506,0.00273751,0.00324337,0.0038351,0.00452727,0.00533694,0.00628406,0.00739194,0.00868789,0.0102038,0.0119771,0.0140514,0.0164777,0.019316,0.0226361,0.0265197,0.0310626,inf	330.113,330.113,237.996,251.697,221.497,237.242,271.836,292.452,289.789,292.475,313.184,343.421,372.964,398.454,422.168,447.572,475.867,504.826,529.589,544.424,540.009,504.824,444.587,388.468,357.332,349.739,357.834,390.236,390.236,489.708,489.708,489.708
