0.000229105	-138466.66	0,1.62658e-05,3.52928e-05,5.75496e-05,8.35844e-05,0.000114039,0.000149663,0.000191334,0.000240078,0.000297098,0.000363796,0.000441816,0.00053308,0.000639836,0.000764714,0.00091079,0.00108166,0.00128154,0.00151535,0.00178884,0.00210877,0.00248299,0.00292075,0.00343281,0.0040318,0.00473246,0.00555206,0.00651079,0.00763226,0.0089441,0.0104786,0.0122736,inf	62.0126,62.0126,166.649,268.492,351.016,404.09,437.886,503.387,593.273,704.585,830.206,969.452,1121.35,1267.74,1380.99,1452.26,1486.99,1492.99,1481.16,1455.6,1417.87,1373.34,1327.79,1286.47,1252.16,1224.96,1204.2,1187.72,1187.72,1182.94,1182.94,1182.94
0.000223851	-138242.55	0,1.62658e-05,3.52928e-05,5.75496e-05,8.35844e-05,0.000114039,0.000149663,0.000191334,0.000240078,0.000297098,0.000363796,0.000441816,0.00053308,0.000639836,0.000764714,0.00091079,0.00108166,0.00128154,0.00151535,0.00178884,0.00210877,0.00248299,0.00292075,0.00343281,0.0040318,0.00473246,0.00555206,0.00651079,0.00763226,0.0089441,0.0104786,0.0122736,inf	5.6187,5.6187,50.2628,136.793,225.647,271.567,269.225,321.335,410.978,537.299,693.239,879.863,1102.62,1341.95,1552.39,1708.02,1807.58,1857.71,1876.69,1862.75,1808.01,1725.08,1631.91,1546.26,1477.45,1425.37,1387.41,1360.35,1360.35,1363.63,1363.63,1363.63
0.000218955	-138166.24	0,1.62658e-05,3.52928e-05,5.75496e-05,8.35844e-05,0.000114039,0.000149663,0.000191334,0.000240078,0.000297098,0.000363796,0.000441816,0.00053308,0.000639836,0.000764714,0.00091079,0.00108166,0.00128154,0.00151535,0.00178884,0.00210877,0.00248299,0.00292075,0.00343281,0.0040318,0.00473246,0.00555206,0.00651079,0.00763226,0.0089441,0.0104786,0.0122736,inf	1.0436,1.0436,20.9785,99.0872,204.729,250.335,207.832,241.829,319.512,441.737,602.85,805.674,1062.33,1356.78,1635.23,1860.05,2024.37,2133.64,2215.38,2252.64,2207.58,2095.58,1953.1,1820.89,1720.89,1651.69,1605.99,1580.81,1580.81,1617.2,1617.2,1617.2
0.000213849	-138133.95	0,1.62658e-05,3.52928e-05,5.75496e-05,8.35844e-05,0.000114039,0.000149663,0.000191334,0.000240078,0.000297098,0.000363796,0.000441816,0.00053308,0.000639836,0.000764714,0.00091079,0.00108166,0.00128154,0.00151535,0.00178884,0.00210877,0.00248299,0.00292075,0.00343281,0.0040318,0.00473246,0.00555206,0.00651079,0.00763226,0.0089441,0.0104786,0.0122736,inf	1.0436,1.0436,9.84536,81.9282,213.215,267.028,182.543,202.172,268.839,383.74,542.354,749.191,1022.59,1350.74,1675.32,1951.22,2169.83,2339.2,2503.99,2630.23,2624.48,2492.72,2296.11,2114.13,1991.09,1922.15,1890.03,1894.11,1894.11,2022.89,2022.89,2022.89
0.000208565	-138117.90	0,1.62658e-05,3.52928e-05,5.75496e-05,8.35844e-05,0.000114039,0.000149663,0.000191334,0.000240078,0.000297098,0.000363796,0.000441816,0.00053308,0.000639836,0.000764714,0.00091079,0.00108166,0.00128154,0.00151535,0.00178884,0.00210877,0.00248299,0.00292075,0.00343281,0.0040318,0.00473246,0.00555206,0.00651079,0.00763226,0.0089441,0.0104786,0.0122736,inf	1.0436,1.0436,4.67908,69.2447,228.836,299.227,171.051,180.225,238.727,347.096,501.133,706.868,988.635,1338.48,1694.68,2006.85,2267.78,2492.38,2753.3,3007.08,3076.2,2934.04,2673.07,2436.44,2307.41,2275.31,2307.51,2413.38,2413.38,2845.25,2845.25,2845.25
0.000203204	-138108.83	0,1.62658e-05,3.52928e-05,5.75496e-05,8.35844e-05,0.000114039,0.000149663,0.000191334,0.000240078,0.000297098,0.000363796,0.000441816,0.00053308,0.000639836,0.000764714,0.00091079,0.00108166,0.00128154,0.00151535,0.00178884,0.00210877,0.00248299,0.00292075,0.00343281,0.0040318,0.00473246,0.00555206,0.00651079,0.00763226,0.0089441,0.0104786,0.0122736,inf	1.0436,1.0436,2.16635,57.3917,242.49,337.53,165.172,166.979,219.9,323.373,472.648,675.049,960.884,1325.55,1703.94,2041.18,2333.66,2606.72,2973.17,3398.39,3591.58,3451.55,3107.98,2810.42,2710.73,2798.33,3039.22,3518.95,3518.95,5664.85,5664.85,5664.85
0.000197854	-138103.15	0,1.62658e-05,3.52928e-05,5.75496e-05,8.35844e-05,0.000114039,0.000149663,0.000191334,0.000240078,0.000297098,0.000363796,0.000441816,0.00053308,0.000639836,0.000764714,0.00091079,0.00108166,0.00128154,0.00151535,0.00178884,0.00210877,0.00248299,0.00292075,0.00343281,0.0040318,0.00473246,0.00555206,0.00651079,0.00763226,0.0089441,0.0104786,0.0122736,inf	1.0436,1.0436,1.0436,46.1663,250.593,377.405,161.599,158.354,207.701,307.868,452.803,650.88,938.516,1314.02,1708.39,2062.34,2377.35,2691.79,3171.62,3823.63,4219.64,4105.97,3648.98,3283.87,3293.88,3731.2,4769.44,7340.69,7340.69,51495.2,51495.2,51495.2
0.000192575	-138099.27	0,1.62658e-05,3.52928e-05,5.75496e-05,8.35844e-05,0.000114039,0.000149663,0.000191334,0.000240078,0.000297098,0.000363796,0.000441816,0.00053308,0.000639836,0.000764714,0.00091079,0.00108166,0.00128154,0.00151535,0.00178884,0.00210877,0.00248299,0.00292075,0.00343281,0.0040318,0.00473246,0.00555206,0.00651079,0.00763226,0.0089441,0.0104786,0.0122736,inf	1.0436,1.0436,1.0436,36.0869,252.441,416.676,158.917,152.326,199.597,297.8,438.95,632.264,920.491,1304.49,1710.74,2075.16,2405.24,2754.29,3355.12,4309.87,5053.39,5028.05,4402.81,3967.38,4308.48,6022.24,12217.3,68287.1,68287.1,51495.2,51495.2,51495.2
0.000187411	-138096.45	0,1.62658e-05,3.52928e-05,5.75496e-05,8.35844e-05,0.000114039,0.000149663,0.000191334,0.000240078,0.000297098,0.000363796,0.000441816,0.00053308,0.000639836,0.000764714,0.00091079,0.00108166,0.00128154,0.00151535,0.00178884,0.00210877,0.00248299,0.00292075,0.00343281,0.0040318,0.00473246,0.00555206,0.00651079,0.00763226,0.0089441,0.0104786,0.0122736,inf	1.0436,1.0436,1.0436,27.5285,248.695,454.397,156.504,147.803,194.106,291.423,429.321,617.666,905.855,1297.03,1712.46,2082.6,2421.6,2798.97,3529.12,4899.1,6300.6,6562.18,5653.37,5168.43,6704.44,16894.5,475867,36807,36807,10210.9,10210.9,10210.9
0.000182388	-138094.30	0,1.62658e-05,3.52928e-05,5.75496e-05,8.35844e-05,0.000114039,0.000149663,0.000191334,0.000240078,0.000297098,0.000363796,0.000441816,0.00053308,0.000639836,0.000764714,0.00091079,0.00108166,0.00128154,0.00151535,0.00178884,0.00210877,0.00248299,0.00292075,0.00343281,0.0040318,0.00473246,0.00555206,0.00651079,0.00763226,0.0089441,0.0104786,0.0122736,inf	1.0436,1.0436,1.0436,20.5931,240.549,490.318,154.102,144.165,190.317,287.603,422.703,605.966,893.81,1291.48,1714.29,2086.53,2429.3,2829.2,3698.54,5664.58,8549.96,9950.9,8413.83,8065.59,16901.3,654999,3710.02,3933.85,3933.85,5503.7,5503.7,5503.7
0.000177522	-138092.60	0,1.62658e-05,3.52928e-05,5.75496e-05,8.35844e-05,0.000114039,0.000149663,0.000191334,0.000240078,0.000297098,0.000363796,0.000441816,0.00053308,0.000639836,0.000764714,0.00091079,0.00108166,0.00128154,0.00151535,0.00178884,0.00210877,0.00248299,0.00292075,0.00343281,0.0040318,0.00473246,0.00555206,0.00651079,0.00763226,0.0089441,0.0104786,0.0122736,inf	1.0436,1.0436,1.0436,15.1651,229.232,524.467,151.613,141.039,187.648,285.575,418.242,596.338,883.71,1287.59,1716.66,2088.1,2430.3,2847.39,3868.45,6751.48,14229.1,22704.9,18552.5,20772.9,569299,129879,10084.9,10693.3,10693.3,14960.6,14960.6,14960.6
0.000172827	-138091.25	0,1.62658e-05,3.52928e-05,5.75496e-05,8.35844e-05,0.000114039,0.000149663,0.000191334,0.000240078,0.000297098,0.000363796,0.000441816,0.00053308,0.000639836,0.000764714,0.00091079,0.00108166,0.00128154,0.00151535,0.00178884,0.00210877,0.00248299,0.00292075,0.00343281,0.0040318,0.00473246,0.00555206,0.00651079,0.00763226,0.0089441,0.0104786,0.0122736,inf	1.0436,1.0436,1.0436,11.0254,215.806,557.001,149.015,138.207,185.714,284.813,415.335,588.174,875.051,1285.13,1719.75,2088.08,2425.9,2855.24,4044.76,8499.49,44166.9,384036,256940,95728.1,4438.45,5106.59,27413.5,10693.3,10693.3,8063.82,8063.82,8063.82
0.000168308	-138090.18	0,1.62658e-05,3.52928e-05,5.75496e-05,8.35844e-05,0.000114039,0.000149663,0.000191334,0.000240078,0.000297098,0.000363796,0.000441816,0.00053308,0.000639836,0.000764714,0.00091079,0.00108166,0.00128154,0.00151535,0.00178884,0.00210877,0.00248299,0.00292075,0.00343281,0.0040318,0.00473246,0.00555206,0.00651079,0.00763226,0.0089441,0.0104786,0.0122736,inf	1.0436,1.0436,1.0436,7.93046,201.105,588.036,146.304,135.522,184.248,284.938,413.537,581.011,867.418,1283.83,1723.61,2086.88,2416.98,2854.06,4235.48,11949.2,1.01502e+06,384036,397.21,746.328,474.372,2752.47,2929.9,5763.74,5763.74,4346.42,4346.42,4346.42
0.000163946	-138089.34	0,1.62658e-05,3.52928e-05,5.75496e-05,8.35844e-05,0.000114039,0.000149663,0.000191334,0.000240078,0.000297098,0.000363796,0.000441816,0.00053308,0.000639836,0.000764714,0.00091079,0.00108166,0.00128154,0.00151535,0.00178884,0.00210877,0.00248299,0.00292075,0.00343281,0.0040318,0.00473246,0.00555206,0.00651079,0.00763226,0.0089441,0.0104786,0.0122736,inf	1.0436,1.0436,1.0436,5.65183,185.814,617.822,143.53,132.92,183.1,285.711,412.548,574.522,860.489,1283.46,1728.14,2084.62,2403.87,2844.54,4451.86,22125.4,1.59059e+06,2994.08,7978.17,27811.3,1289.48,1483.59,7964.3,3106.67,3106.67,2342.74,2342.74,2342.74
0.000159769	-138088.83	0,1.62658e-05,3.52928e-05,5.75496e-05,8.35844e-05,0.000114039,0.000149663,0.000191334,0.000240078,0.000297098,0.000363796,0.000441816,0.00053308,0.000639836,0.000764714,0.00091079,0.00108166,0.00128154,0.00151535,0.00178884,0.00210877,0.00248299,0.00292075,0.00343281,0.0040318,0.00473246,0.00555206,0.00651079,0.00763226,0.0089441,0.0104786,0.0122736,inf	1.0436,1.0436,1.0436,3.99525,170.418,646.521,140.727,130.37,182.163,286.97,412.174,568.499,854.064,1283.83,1733.21,2081.03,2386.09,2826.05,4707.23,116202,1.79554e+06,23.3428,62.2004,216.826,695.032,2173.7,4292.78,3106.67,3106.67,464.537,464.537,464.537
