0.000375408	-14179159.33	0,1.62579e-05,4.11313e-05,7.91858e-05,0.000137406,0.000226479,0.000362754,0.000571245,0.00089022,0.00137823,0.00212484,0.00326711,0.0050147,0.00768837,0.0117789,0.0180371,inf	27.1883,27.1883,69.7312,145.806,319.056,555.714,571.882,542.526,335.326,360.582,626.3,721.868,694.569,676.879,676.879,676.879
0.000301058	-14152497.95	0,1.62579e-05,4.11313e-05,7.91858e-05,0.000137406,0.000226479,0.000362754,0.000571245,0.00089022,0.00137823,0.00212484,0.00326711,0.0050147,0.00768837,0.0117789,0.0180371,inf	1.26951,1.26951,8.45587,37.3419,178.8,558.43,570.78,591.956,210.205,251.802,663.535,914.93,886.209,871.266,871.266,871.266
0.000232905	-14133452.06	0,1.62579e-05,4.11313e-05,7.91858e-05,0.000137406,0.000226479,0.000362754,0.000571245,0.00089022,0.00137823,0.00212484,0.00326711,0.0050147,0.00768837,0.0117789,0.0180371,inf	0.543249,0.543249,0.884347,8.31417,88.7894,546.844,515.882,657.994,129.06,179.734,664.062,1134.85,1151.64,1235.87,1235.87,1235.87
0.000173204	-14118120.14	0,1.62579e-05,4.11313e-05,7.91858e-05,0.000137406,0.000226479,0.000362754,0.000571245,0.00089022,0.00137823,0.00212484,0.00326711,0.0050147,0.00768837,0.0117789,0.0180371,inf	0.543249,0.543249,0.543249,1.5174,36.5426,526.908,420.264,687.943,75.5409,127.003,642.926,1413.14,1585.85,2548.07,2548.07,2548.07
0.000124295	-14105455.74	0,1.62579e-05,4.11313e-05,7.91858e-05,0.000137406,0.000226479,0.000362754,0.000571245,0.00089022,0.00137823,0.00212484,0.00326711,0.0050147,0.00768837,0.0117789,0.0180371,inf	0.543249,0.543249,0.543249,0.543249,11.7387,499.009,312.118,633.188,41.622,85.8377,611.697,1813.55,2589.94,41934.3,41934.3,41934.3
