AIC = 787133.64280014636461

y0 0.013743034176193449913
y0_prime 0
y1 0.98278178092933010657
y1_prime 0
y2 1.6041806486998790859
y2_prime 0
y3 1.8164056198092293215
y3_prime 0
rho 0.012522591079013664986
rho.alpha 0.8758191172062813612
r_ii 0.99999999999999933387
theta 0.0065692959818466293426
