AIC = 787123.2211749976268

y0 4.3956880866221137916e-08
y0_prime 0
y1 1.0138591506071352732
y1_prime 0
y2 1.556708348387760843
y2_prime 0
y3 1.9239497618748688801
y3_prime 0
rho 0.0083850038155691627995
theta 0.0065692959818466293426
