LogLikelihood = -1270839.8355067493394

y0 5.9703581324449966796e-11
y0_prime 0
y1 0.45705942299098933912
y1_prime 0
y2 0.88802776482434775396
y2_prime 0
y3 3.6900566808731438684
y3_prime 0
rho 0.0012099829612943848768
rho.alpha 0.088511388516747321886
r_ii 0.99999860310985910772
theta 0.0039671202037421726336
