time_index	left_time_boundary	right_time_boundary	lambda
0	0	8.64795e-05	411.143
1	8.64795e-05	0.000204811	411.143
2	0.000204811	0.000366725	234.387
3	0.000366725	0.000588275	201.823
4	0.000588275	0.000891425	230.245
5	0.000891425	0.00130623	321.448
6	0.00130623	0.00187381	438.738
7	0.00187381	0.00265045	561.027
8	0.00265045	0.00371312	575.346
9	0.00371312	0.0051672	493.064
10	0.0051672	0.00715684	474.756
11	0.00715684	0.00987929	366.959
12	0.00987929	0.0136045	917.269
13	0.0136045	0.0187017	0.425898
14	0.0187017	0.0256762	0.425898
15	0.0256762	inf	0.425898
