time_index	left_time_boundary	right_time_boundary	lambda
0	0	1.60438e-06	9408.9
1	1.60438e-06	3.71776e-06	9408.9
2	3.71776e-06	6.50159e-06	19984.3
3	6.50159e-06	1.01686e-05	7738.59
4	1.01686e-05	1.4999e-05	2773.39
5	1.4999e-05	2.13617e-05	1259.45
6	2.13617e-05	2.97431e-05	810.815
7	2.97431e-05	4.07834e-05	619.585
8	4.07834e-05	5.53263e-05	469.892
9	5.53263e-05	7.44829e-05	361.993
10	7.44829e-05	9.97169e-05	312.603
11	9.97169e-05	0.000132956	283.722
12	0.000132956	0.000176741	258.394
13	0.000176741	0.000234416	244.746
14	0.000234416	0.000310389	237.193
15	0.000310389	0.000410463	231.7
16	0.000410463	0.000542287	225.312
17	0.000542287	0.000715931	224.216
18	0.000715931	0.000944663	244.293
19	0.000944663	0.00124596	296.565
20	0.00124596	0.00164284	381.872
21	0.00164284	0.00216564	493.807
22	0.00216564	0.00285429	595.883
23	0.00285429	0.00376141	608.014
24	0.00376141	0.00495632	546.931
25	0.00495632	0.00653031	481.318
26	0.00653031	0.00860365	409.253
27	0.00860365	0.0113347	343.692
28	0.0113347	0.0149323	343.692
29	0.0149323	0.0196711	269.706
30	0.0196711	0.0259134	269.706
31	0.0259134	inf	269.706
