0.000709799	-13774553.17	0,4.07756e-06,1.11527e-05,2.34291e-05,4.47305e-05,8.16914e-05,0.000145824,0.000257103,0.000450188,0.000785219,0.00136655,0.00237523,0.00412544,0.00716232,0.0124317,0.0215749,inf	149.084,149.084,215.085,311.377,338.897,344.078,343.717,339.304,343.977,368.301,409.085,426.857,434.87,430.56,430.56,430.56
0.000787481	-13769151.91	0,4.07756e-06,1.11527e-05,2.34291e-05,4.47305e-05,8.16914e-05,0.000145824,0.000257103,0.000450188,0.000785219,0.00136655,0.00237523,0.00412544,0.00716232,0.0124317,0.0215749,inf	93.7112,93.7112,149.254,294.259,334.649,340.388,337.661,325.311,326.149,356.612,412.966,435.683,453.518,449.35,449.35,449.35
0.000857912	-13765765.75	0,4.07756e-06,1.11527e-05,2.34291e-05,4.47305e-05,8.16914e-05,0.000145824,0.000257103,0.000450188,0.000785219,0.00136655,0.00237523,0.00412544,0.00716232,0.0124317,0.0215749,inf	75.393,75.393,112.9,289.668,337.148,344.223,341.795,323.248,319.809,351.676,414.806,436.844,463.206,460.348,460.348,460.348
0.000922495	-13763269.00	0,4.07756e-06,1.11527e-05,2.34291e-05,4.47305e-05,8.16914e-05,0.000145824,0.000257103,0.000450188,0.000785219,0.00136655,0.00237523,0.00412544,0.00716232,0.0124317,0.0215749,inf	68.2239,68.2239,89.5042,288.139,338.045,347.04,347.239,324.604,317.818,349.663,415.922,434.759,467.777,465.97,465.97,465.97
0.000982289	-13761295.64	0,4.07756e-06,1.11527e-05,2.34291e-05,4.47305e-05,8.16914e-05,0.000145824,0.000257103,0.000450188,0.000785219,0.00136655,0.00237523,0.00412544,0.00716232,0.0124317,0.0215749,inf	65.1879,65.1879,73.5926,288.498,336.993,347.85,352.001,326.859,317.696,349.097,416.836,431.405,469.403,467.883,467.883,467.883
0.00103805	-13759678.17	0,4.07756e-06,1.11527e-05,2.34291e-05,4.47305e-05,8.16914e-05,0.000145824,0.000257103,0.000450188,0.000785219,0.00136655,0.00237523,0.00412544,0.00716232,0.0124317,0.0215749,inf	63.8444,63.8444,62.4057,290.713,334.88,347.21,355.854,329.212,318.422,349.288,417.724,427.675,469.326,467.237,467.237,467.237
0.00109033	-13758322.77	0,4.07756e-06,1.11527e-05,2.34291e-05,4.47305e-05,8.16914e-05,0.000145824,0.000257103,0.000450188,0.000785219,0.00136655,0.00237523,0.00412544,0.00716232,0.0124317,0.0215749,inf	63.2888,63.2888,54.3104,294.661,332.411,345.773,358.977,331.416,319.529,349.87,418.631,423.975,468.278,464.833,464.833,464.833
0.00113956	-13757169.81	0,4.07756e-06,1.11527e-05,2.34291e-05,4.47305e-05,8.16914e-05,0.000145824,0.000257103,0.000450188,0.000785219,0.00136655,0.00237523,0.00412544,0.00716232,0.0124317,0.0215749,inf	63.0456,63.0456,48.2584,300.05,329.952,344.005,361.598,333.416,320.785,350.639,419.555,420.478,466.697,461.237,461.237,461.237
0.00118605	-13756178.19	0,4.07756e-06,1.11527e-05,2.34291e-05,4.47305e-05,8.16914e-05,0.000145824,0.000257103,0.000450188,0.000785219,0.00136655,0.00237523,0.00412544,0.00716232,0.0124317,0.0215749,inf	62.894,62.894,43.5915,306.522,327.656,342.187,363.894,335.217,322.076,351.479,420.481,417.25,464.851,456.851,456.851,456.851
0.00123008	-13755317.98	0,4.07756e-06,1.11527e-05,2.34291e-05,4.47305e-05,8.16914e-05,0.000145824,0.000257103,0.000450188,0.000785219,0.00136655,0.00237523,0.00412544,0.00716232,0.0124317,0.0215749,inf	62.763,62.763,39.8854,313.74,325.553,340.472,365.994,336.848,323.343,352.323,421.392,414.308,462.905,451.959,451.959,451.959
0.00127188	-13754566.58	0,4.07756e-06,1.11527e-05,2.34291e-05,4.47305e-05,8.16914e-05,0.000145824,0.000257103,0.000450188,0.000785219,0.00136655,0.00237523,0.00412544,0.00716232,0.0124317,0.0215749,inf	62.6205,62.6205,36.8662,321.414,323.629,338.937,367.977,338.334,324.558,353.135,422.277,411.642,460.962,446.768,446.768,446.768
0.00131162	-13753906.40	0,4.07756e-06,1.11527e-05,2.34291e-05,4.47305e-05,8.16914e-05,0.000145824,0.000257103,0.000450188,0.000785219,0.00136655,0.00237523,0.00412544,0.00716232,0.0124317,0.0215749,inf	62.4592,62.4592,34.3511,329.309,321.848,337.609,369.896,339.702,325.71,353.892,423.124,409.231,459.085,441.423,441.423,441.423
0.00134947	-13753323.49	0,4.07756e-06,1.11527e-05,2.34291e-05,4.47305e-05,8.16914e-05,0.000145824,0.000257103,0.000450188,0.000785219,0.00136655,0.00237523,0.00412544,0.00716232,0.0124317,0.0215749,inf	62.31,62.31,32.2157,337.248,320.17,336.493,371.782,340.97,326.795,354.588,423.929,407.052,457.312,436.03,436.03,436.03
0.00138557	-13752806.59	0,4.07756e-06,1.11527e-05,2.34291e-05,4.47305e-05,8.16914e-05,0.000145824,0.000257103,0.000450188,0.000785219,0.00136655,0.00237523,0.00412544,0.00716232,0.0124317,0.0215749,inf	62.1343,62.1343,30.3721,345.11,318.569,335.58,373.649,342.158,327.815,355.218,424.686,405.079,455.663,430.664,430.664,430.664
0.00142005	-13752346.49	0,4.07756e-06,1.11527e-05,2.34291e-05,4.47305e-05,8.16914e-05,0.000145824,0.000257103,0.000450188,0.000785219,0.00136655,0.00237523,0.00412544,0.00716232,0.0124317,0.0215749,inf	61.9776,61.9776,28.7648,352.789,317.023,334.854,375.507,343.276,328.774,355.783,425.394,403.291,454.149,425.376,425.376,425.376
0.00145302	-13751935.57	0,4.07756e-06,1.11527e-05,2.34291e-05,4.47305e-05,8.16914e-05,0.000145824,0.000257103,0.000450188,0.000785219,0.00136655,0.00237523,0.00412544,0.00716232,0.0124317,0.0215749,inf	61.8556,61.8556,27.3484,360.235,315.516,334.297,377.355,344.335,329.677,356.285,426.053,401.664,452.775,420.203,420.203,420.203
0.00148456	-13751567.47	0,4.07756e-06,1.11527e-05,2.34291e-05,4.47305e-05,8.16914e-05,0.000145824,0.000257103,0.000450188,0.000785219,0.00136655,0.00237523,0.00412544,0.00716232,0.0124317,0.0215749,inf	61.7552,61.7552,26.0956,367.418,314.04,333.891,379.193,345.341,330.529,356.731,426.662,400.181,451.538,415.169,415.169,415.169
0.00151478	-13751236.83	0,4.07756e-06,1.11527e-05,2.34291e-05,4.47305e-05,8.16914e-05,0.000145824,0.000257103,0.000450188,0.000785219,0.00136655,0.00237523,0.00412544,0.00716232,0.0124317,0.0215749,inf	61.6406,61.6406,24.9746,374.321,312.588,333.619,381.018,346.301,331.336,357.122,427.223,398.822,450.437,410.29,410.29,410.29
0.00154376	-13750939.11	0,4.07756e-06,1.11527e-05,2.34291e-05,4.47305e-05,8.16914e-05,0.000145824,0.000257103,0.000450188,0.000785219,0.00136655,0.00237523,0.00412544,0.00716232,0.0124317,0.0215749,inf	61.5831,61.5831,23.9706,380.929,311.16,333.465,382.824,347.219,332.102,357.466,427.737,397.574,449.465,405.574,405.574,405.574
0.00157155	-13750670.41	0,4.07756e-06,1.11527e-05,2.34291e-05,4.47305e-05,8.16914e-05,0.000145824,0.000257103,0.000450188,0.000785219,0.00136655,0.00237523,0.00412544,0.00716232,0.0124317,0.0215749,inf	61.5689,61.5689,23.0679,387.251,309.752,333.414,384.609,348.098,332.831,357.766,428.207,396.423,448.616,401.027,401.027,401.027
