0.000689403	-305156.30	0,4.51575e-05,9.85356e-05,0.000161631,0.000236212,0.000324369,0.000428575,0.000551751,0.00069735,0.000869454,0.00107289,0.00131336,0.0015976,0.00193358,0.00233073,0.00280018,0.00335508,0.004011,0.00478633,0.00570279,0.0067861,0.0080666,0.00958021,0.0113694,0.0134842,0.015984,0.018939,0.0224318,0.0265604,0.0314407,inf	421.389,421.389,421.389,421.389,421.389,421.389,421.389,421.389,421.389,421.389,421.389,421.389,421.389,421.389,421.389,421.389,421.389,421.389,421.389,421.389,421.389,421.389,421.389,421.389,421.389,421.389,421.389,421.389,421.389,421.389
0.00075345	-305071.11	0,4.51575e-05,9.85356e-05,0.000161631,0.000236212,0.000324369,0.000428575,0.000551751,0.00069735,0.000869454,0.00107289,0.00131336,0.0015976,0.00193358,0.00233073,0.00280018,0.00335508,0.004011,0.00478633,0.00570279,0.0067861,0.0080666,0.00958021,0.0113694,0.0134842,0.015984,0.018939,0.0224318,0.0265604,0.0314407,inf	428.911,428.911,428.911,428.911,428.911,428.911,428.911,428.911,428.911,428.911,428.911,428.911,428.911,428.911,428.911,428.911,428.911,428.911,428.911,428.911,428.911,428.911,428.911,428.911,428.911,428.911,428.911,428.911,428.911,428.911
0.000813473	-305005.97	0,4.51575e-05,9.85356e-05,0.000161631,0.000236212,0.000324369,0.000428575,0.000551751,0.00069735,0.000869454,0.00107289,0.00131336,0.0015976,0.00193358,0.00233073,0.00280018,0.00335508,0.004011,0.00478633,0.00570279,0.0067861,0.0080666,0.00958021,0.0113694,0.0134842,0.015984,0.018939,0.0224318,0.0265604,0.0314407,inf	431.6,431.6,431.6,431.6,431.6,431.6,431.6,431.6,431.6,431.6,431.6,431.6,431.6,431.6,431.6,431.6,431.6,431.6,431.6,431.6,431.6,431.6,431.6,431.6,431.6,431.6,431.6,431.6,431.6,431.6
0.000870276	-304951.91	0,4.51575e-05,9.85356e-05,0.000161631,0.000236212,0.000324369,0.000428575,0.000551751,0.00069735,0.000869454,0.00107289,0.00131336,0.0015976,0.00193358,0.00233073,0.00280018,0.00335508,0.004011,0.00478633,0.00570279,0.0067861,0.0080666,0.00958021,0.0113694,0.0134842,0.015984,0.018939,0.0224318,0.0265604,0.0314407,inf	432.15,432.15,432.15,432.15,432.15,432.15,432.15,432.15,432.15,432.15,432.15,432.15,432.15,432.15,432.15,432.15,432.15,432.15,432.15,432.15,432.15,432.15,432.15,432.15,432.15,432.15,432.15,432.15,432.15,432.15
0.000924351	-304905.79	0,4.51575e-05,9.85356e-05,0.000161631,0.000236212,0.000324369,0.000428575,0.000551751,0.00069735,0.000869454,0.00107289,0.00131336,0.0015976,0.00193358,0.00233073,0.00280018,0.00335508,0.004011,0.00478633,0.00570279,0.0067861,0.0080666,0.00958021,0.0113694,0.0134842,0.015984,0.018939,0.0224318,0.0265604,0.0314407,inf	431.764,431.764,431.764,431.764,431.764,431.764,431.764,431.764,431.764,431.764,431.764,431.764,431.764,431.764,431.764,431.764,431.764,431.764,431.764,431.764,431.764,431.764,431.764,431.764,431.764,431.764,431.764,431.764,431.764,431.764
0.000976013	-304865.97	0,4.51575e-05,9.85356e-05,0.000161631,0.000236212,0.000324369,0.000428575,0.000551751,0.00069735,0.000869454,0.00107289,0.00131336,0.0015976,0.00193358,0.00233073,0.00280018,0.00335508,0.004011,0.00478633,0.00570279,0.0067861,0.0080666,0.00958021,0.0113694,0.0134842,0.015984,0.018939,0.0224318,0.0265604,0.0314407,inf	430.982,430.982,430.982,430.982,430.982,430.982,430.982,430.982,430.982,430.982,430.982,430.982,430.982,430.982,430.982,430.982,430.982,430.982,430.982,430.982,430.982,430.982,430.982,430.982,430.982,430.982,430.982,430.982,430.982,430.982
0.00102548	-304831.31	0,4.51575e-05,9.85356e-05,0.000161631,0.000236212,0.000324369,0.000428575,0.000551751,0.00069735,0.000869454,0.00107289,0.00131336,0.0015976,0.00193358,0.00233073,0.00280018,0.00335508,0.004011,0.00478633,0.00570279,0.0067861,0.0080666,0.00958021,0.0113694,0.0134842,0.015984,0.018939,0.0224318,0.0265604,0.0314407,inf	430.049,430.049,430.049,430.049,430.049,430.049,430.049,430.049,430.049,430.049,430.049,430.049,430.049,430.049,430.049,430.049,430.049,430.049,430.049,430.049,430.049,430.049,430.049,430.049,430.049,430.049,430.049,430.049,430.049,430.049
0.00107291	-304800.94	0,4.51575e-05,9.85356e-05,0.000161631,0.000236212,0.000324369,0.000428575,0.000551751,0.00069735,0.000869454,0.00107289,0.00131336,0.0015976,0.00193358,0.00233073,0.00280018,0.00335508,0.004011,0.00478633,0.00570279,0.0067861,0.0080666,0.00958021,0.0113694,0.0134842,0.015984,0.018939,0.0224318,0.0265604,0.0314407,inf	429.075,429.075,429.075,429.075,429.075,429.075,429.075,429.075,429.075,429.075,429.075,429.075,429.075,429.075,429.075,429.075,429.075,429.075,429.075,429.075,429.075,429.075,429.075,429.075,429.075,429.075,429.075,429.075,429.075,429.075
0.00111843	-304774.19	0,4.51575e-05,9.85356e-05,0.000161631,0.000236212,0.000324369,0.000428575,0.000551751,0.00069735,0.000869454,0.00107289,0.00131336,0.0015976,0.00193358,0.00233073,0.00280018,0.00335508,0.004011,0.00478633,0.00570279,0.0067861,0.0080666,0.00958021,0.0113694,0.0134842,0.015984,0.018939,0.0224318,0.0265604,0.0314407,inf	428.111,428.111,428.111,428.111,428.111,428.111,428.111,428.111,428.111,428.111,428.111,428.111,428.111,428.111,428.111,428.111,428.111,428.111,428.111,428.111,428.111,428.111,428.111,428.111,428.111,428.111,428.111,428.111,428.111,428.111
0.00116218	-304750.50	0,4.51575e-05,9.85356e-05,0.000161631,0.000236212,0.000324369,0.000428575,0.000551751,0.00069735,0.000869454,0.00107289,0.00131336,0.0015976,0.00193358,0.00233073,0.00280018,0.00335508,0.004011,0.00478633,0.00570279,0.0067861,0.0080666,0.00958021,0.0113694,0.0134842,0.015984,0.018939,0.0224318,0.0265604,0.0314407,inf	427.178,427.178,427.178,427.178,427.178,427.178,427.178,427.178,427.178,427.178,427.178,427.178,427.178,427.178,427.178,427.178,427.178,427.178,427.178,427.178,427.178,427.178,427.178,427.178,427.178,427.178,427.178,427.178,427.178,427.178
0.00120423	-304729.44	0,4.51575e-05,9.85356e-05,0.000161631,0.000236212,0.000324369,0.000428575,0.000551751,0.00069735,0.000869454,0.00107289,0.00131336,0.0015976,0.00193358,0.00233073,0.00280018,0.00335508,0.004011,0.00478633,0.00570279,0.0067861,0.0080666,0.00958021,0.0113694,0.0134842,0.015984,0.018939,0.0224318,0.0265604,0.0314407,inf	426.286,426.286,426.286,426.286,426.286,426.286,426.286,426.286,426.286,426.286,426.286,426.286,426.286,426.286,426.286,426.286,426.286,426.286,426.286,426.286,426.286,426.286,426.286,426.286,426.286,426.286,426.286,426.286,426.286,426.286
0.00124469	-304710.63	0,4.51575e-05,9.85356e-05,0.000161631,0.000236212,0.000324369,0.000428575,0.000551751,0.00069735,0.000869454,0.00107289,0.00131336,0.0015976,0.00193358,0.00233073,0.00280018,0.00335508,0.004011,0.00478633,0.00570279,0.0067861,0.0080666,0.00958021,0.0113694,0.0134842,0.015984,0.018939,0.0224318,0.0265604,0.0314407,inf	425.436,425.436,425.436,425.436,425.436,425.436,425.436,425.436,425.436,425.436,425.436,425.436,425.436,425.436,425.436,425.436,425.436,425.436,425.436,425.436,425.436,425.436,425.436,425.436,425.436,425.436,425.436,425.436,425.436,425.436
0.00128365	-304693.77	0,4.51575e-05,9.85356e-05,0.000161631,0.000236212,0.000324369,0.000428575,0.000551751,0.00069735,0.000869454,0.00107289,0.00131336,0.0015976,0.00193358,0.00233073,0.00280018,0.00335508,0.004011,0.00478633,0.00570279,0.0067861,0.0080666,0.00958021,0.0113694,0.0134842,0.015984,0.018939,0.0224318,0.0265604,0.0314407,inf	424.629,424.629,424.629,424.629,424.629,424.629,424.629,424.629,424.629,424.629,424.629,424.629,424.629,424.629,424.629,424.629,424.629,424.629,424.629,424.629,424.629,424.629,424.629,424.629,424.629,424.629,424.629,424.629,424.629,424.629
0.00132117	-304678.60	0,4.51575e-05,9.85356e-05,0.000161631,0.000236212,0.000324369,0.000428575,0.000551751,0.00069735,0.000869454,0.00107289,0.00131336,0.0015976,0.00193358,0.00233073,0.00280018,0.00335508,0.004011,0.00478633,0.00570279,0.0067861,0.0080666,0.00958021,0.0113694,0.0134842,0.015984,0.018939,0.0224318,0.0265604,0.0314407,inf	423.863,423.863,423.863,423.863,423.863,423.863,423.863,423.863,423.863,423.863,423.863,423.863,423.863,423.863,423.863,423.863,423.863,423.863,423.863,423.863,423.863,423.863,423.863,423.863,423.863,423.863,423.863,423.863,423.863,423.863
0.00135734	-304664.92	0,4.51575e-05,9.85356e-05,0.000161631,0.000236212,0.000324369,0.000428575,0.000551751,0.00069735,0.000869454,0.00107289,0.00131336,0.0015976,0.00193358,0.00233073,0.00280018,0.00335508,0.004011,0.00478633,0.00570279,0.0067861,0.0080666,0.00958021,0.0113694,0.0134842,0.015984,0.018939,0.0224318,0.0265604,0.0314407,inf	423.137,423.137,423.137,423.137,423.137,423.137,423.137,423.137,423.137,423.137,423.137,423.137,423.137,423.137,423.137,423.137,423.137,423.137,423.137,423.137,423.137,423.137,423.137,423.137,423.137,423.137,423.137,423.137,423.137,423.137
0.00139221	-304652.54	0,4.51575e-05,9.85356e-05,0.000161631,0.000236212,0.000324369,0.000428575,0.000551751,0.00069735,0.000869454,0.00107289,0.00131336,0.0015976,0.00193358,0.00233073,0.00280018,0.00335508,0.004011,0.00478633,0.00570279,0.0067861,0.0080666,0.00958021,0.0113694,0.0134842,0.015984,0.018939,0.0224318,0.0265604,0.0314407,inf	422.446,422.446,422.446,422.446,422.446,422.446,422.446,422.446,422.446,422.446,422.446,422.446,422.446,422.446,422.446,422.446,422.446,422.446,422.446,422.446,422.446,422.446,422.446,422.446,422.446,422.446,422.446,422.446,422.446,422.446
0.00142586	-304641.31	0,4.51575e-05,9.85356e-05,0.000161631,0.000236212,0.000324369,0.000428575,0.000551751,0.00069735,0.000869454,0.00107289,0.00131336,0.0015976,0.00193358,0.00233073,0.00280018,0.00335508,0.004011,0.00478633,0.00570279,0.0067861,0.0080666,0.00958021,0.0113694,0.0134842,0.015984,0.018939,0.0224318,0.0265604,0.0314407,inf	421.79,421.79,421.79,421.79,421.79,421.79,421.79,421.79,421.79,421.79,421.79,421.79,421.79,421.79,421.79,421.79,421.79,421.79,421.79,421.79,421.79,421.79,421.79,421.79,421.79,421.79,421.79,421.79,421.79,421.79
0.00145834	-304631.09	0,4.51575e-05,9.85356e-05,0.000161631,0.000236212,0.000324369,0.000428575,0.000551751,0.00069735,0.000869454,0.00107289,0.00131336,0.0015976,0.00193358,0.00233073,0.00280018,0.00335508,0.004011,0.00478633,0.00570279,0.0067861,0.0080666,0.00958021,0.0113694,0.0134842,0.015984,0.018939,0.0224318,0.0265604,0.0314407,inf	421.166,421.166,421.166,421.166,421.166,421.166,421.166,421.166,421.166,421.166,421.166,421.166,421.166,421.166,421.166,421.166,421.166,421.166,421.166,421.166,421.166,421.166,421.166,421.166,421.166,421.166,421.166,421.166,421.166,421.166
0.00148971	-304621.78	0,4.51575e-05,9.85356e-05,0.000161631,0.000236212,0.000324369,0.000428575,0.000551751,0.00069735,0.000869454,0.00107289,0.00131336,0.0015976,0.00193358,0.00233073,0.00280018,0.00335508,0.004011,0.00478633,0.00570279,0.0067861,0.0080666,0.00958021,0.0113694,0.0134842,0.015984,0.018939,0.0224318,0.0265604,0.0314407,inf	420.572,420.572,420.572,420.572,420.572,420.572,420.572,420.572,420.572,420.572,420.572,420.572,420.572,420.572,420.572,420.572,420.572,420.572,420.572,420.572,420.572,420.572,420.572,420.572,420.572,420.572,420.572,420.572,420.572,420.572
0.00152002	-304613.27	0,4.51575e-05,9.85356e-05,0.000161631,0.000236212,0.000324369,0.000428575,0.000551751,0.00069735,0.000869454,0.00107289,0.00131336,0.0015976,0.00193358,0.00233073,0.00280018,0.00335508,0.004011,0.00478633,0.00570279,0.0067861,0.0080666,0.00958021,0.0113694,0.0134842,0.015984,0.018939,0.0224318,0.0265604,0.0314407,inf	420.006,420.006,420.006,420.006,420.006,420.006,420.006,420.006,420.006,420.006,420.006,420.006,420.006,420.006,420.006,420.006,420.006,420.006,420.006,420.006,420.006,420.006,420.006,420.006,420.006,420.006,420.006,420.006,420.006,420.006
