time_index	left_time_boundary	right_time_boundary	lambda
0	0	9.1365e-05	261.582
1	9.1365e-05	0.000216381	261.582
2	0.000216381	0.000387443	324.366
3	0.000387443	0.000621509	288.822
4	0.000621509	0.000941785	290.895
5	0.000941785	0.00138002	349.521
6	0.00138002	0.00197967	391.477
7	0.00197967	0.00280018	404.323
8	0.00280018	0.00392289	382.878
9	0.00392289	0.00545912	482.257
10	0.00545912	0.00756115	610.196
11	0.00756115	0.0104374	759.741
12	0.0104374	0.014373	1672.42
13	0.014373	0.0197582	56266.1
14	0.0197582	0.0271268	56266.1
15	0.0271268	inf	56266.1
