0.000692147	-13775274.30	0,1.75966e-06,4.07756e-06,7.13082e-06,1.11527e-05,1.64506e-05,2.34291e-05,3.26217e-05,4.47305e-05,6.06808e-05,8.16914e-05,0.000109368,0.000145824,0.000193846,0.000257103,0.000340428,0.000450188,0.00059477,0.000785219,0.00103609,0.00136655,0.00180184,0.00237523,0.00313053,0.00412544,0.005436,0.00716232,0.00943631,0.0124317,0.0163774,0.0215749,0.0284213,inf	148.655,148.655,148.536,151.868,181.22,234.316,284.878,317.532,331.717,335.52,338.267,340.788,341.06,340.248,338.257,336.735,339.125,347.023,359.433,375.891,395.662,414.404,426.731,431.774,431.416,428.44,424.525,418.762,418.762,400.383,400.383,400.383
0.000756748	-13770492.59	0,1.75966e-06,4.07756e-06,7.13082e-06,1.11527e-05,1.64506e-05,2.34291e-05,3.26217e-05,4.47305e-05,6.06808e-05,8.16914e-05,0.000109368,0.000145824,0.000193846,0.000257103,0.000340428,0.000450188,0.00059477,0.000785219,0.00103609,0.00136655,0.00180184,0.00237523,0.00313053,0.00412544,0.005436,0.00716232,0.00943631,0.0124317,0.0163774,0.0215749,0.0284213,inf	117.306,117.306,101.484,87.227,109.626,176.256,253.011,306.064,326.982,329.815,332.625,335.636,334.605,331.249,324.958,318.769,318.957,327.931,343.676,365.719,393.609,421.096,439.841,448.391,449.278,446.101,440.704,430.855,430.855,395.769,395.769,395.769
0.000817073	-13767335.14	0,1.75966e-06,4.07756e-06,7.13082e-06,1.11527e-05,1.64506e-05,2.34291e-05,3.26217e-05,4.47305e-05,6.06808e-05,8.16914e-05,0.000109368,0.000145824,0.000193846,0.000257103,0.000340428,0.000450188,0.00059477,0.000785219,0.00103609,0.00136655,0.00180184,0.00237523,0.00313053,0.00412544,0.005436,0.00716232,0.00943631,0.0124317,0.0163774,0.0215749,0.0284213,inf	118.407,118.407,91.0245,59.4775,73.5849,143.19,237.446,306.387,331.246,332.023,335.384,339.853,338.83,334.059,324.223,313.726,311.404,320.014,336.507,360.53,392.088,423.875,445.902,456.669,459.165,457.062,451.532,438.552,438.552,388.498,388.498,388.498
0.000873532	-13764930.80	0,1.75966e-06,4.07756e-06,7.13082e-06,1.11527e-05,1.64506e-05,2.34291e-05,3.26217e-05,4.47305e-05,6.06808e-05,8.16914e-05,0.000109368,0.000145824,0.000193846,0.000257103,0.000340428,0.000450188,0.00059477,0.000785219,0.00103609,0.00136655,0.00180184,0.00237523,0.00313053,0.00412544,0.005436,0.00716232,0.00943631,0.0124317,0.0163774,0.0215749,0.0284213,inf	126.658,126.658,91.0551,43.602,52.1611,120.7,227.103,308.311,334.714,332.709,337.091,343.881,344.158,339.247,326.968,313.073,308.739,316.778,333.153,357.713,390.91,424.746,448.27,460.263,464.22,463.674,458.707,443.118,443.118,379.794,379.794,379.794
0.00092661	-13762986.91	0,1.75966e-06,4.07756e-06,7.13082e-06,1.11527e-05,1.64506e-05,2.34291e-05,3.26217e-05,4.47305e-05,6.06808e-05,8.16914e-05,0.000109368,0.000145824,0.000193846,0.000257103,0.000340428,0.000450188,0.00059477,0.000785219,0.00103609,0.00136655,0.00180184,0.00237523,0.00313053,0.00412544,0.005436,0.00716232,0.00943631,0.0124317,0.0163774,0.0215749,0.0284213,inf	135.052,135.052,94.0242,32.9698,38.5169,104.693,220.083,310.736,336.54,331.062,336.566,346.044,348.433,344.289,330.468,314.016,308.241,315.81,331.775,356.241,390.066,424.738,448.717,461.226,466.339,467.449,463.371,445.455,445.455,370.464,370.464,370.464
0.000976714	-13761364.73	0,1.75966e-06,4.07756e-06,7.13082e-06,1.11527e-05,1.64506e-05,2.34291e-05,3.26217e-05,4.47305e-05,6.06808e-05,8.16914e-05,0.000109368,0.000145824,0.000193846,0.000257103,0.000340428,0.000450188,0.00059477,0.000785219,0.00103609,0.00136655,0.00180184,0.00237523,0.00313053,0.00412544,0.005436,0.00716232,0.00943631,0.0124317,0.0163774,0.0215749,0.0284213,inf	141.461,141.461,97.1817,25.3516,29.4618,93.1201,215.909,314.024,337.472,327.922,334.424,346.587,351.466,348.616,333.868,315.515,308.775,316.029,331.503,355.593,389.523,424.354,448.179,460.713,466.662,469.353,466.288,446.203,446.203,361.012,361.012,361.012
0.00102417	-13759984.56	0,1.75966e-06,4.07756e-06,7.13082e-06,1.11527e-05,1.64506e-05,2.34291e-05,3.26217e-05,4.47305e-05,6.06808e-05,8.16914e-05,0.000109368,0.000145824,0.000193846,0.000257103,0.000340428,0.000450188,0.00059477,0.000785219,0.00103609,0.00136655,0.00180184,0.00237523,0.00313053,0.00412544,0.005436,0.00716232,0.00943631,0.0124317,0.0163774,0.0215749,0.0284213,inf	145.694,145.694,99.5167,19.715,23.2336,84.6884,214.193,318.425,338.152,324.105,331.413,346.071,353.535,352.218,336.929,317.152,309.809,316.888,331.869,355.467,389.223,423.835,447.15,459.38,465.885,470.014,467.976,445.815,445.815,351.746,351.746,351.746
0.00106925	-13758794.71	0,1.75966e-06,4.07756e-06,7.13082e-06,1.11527e-05,1.64506e-05,2.34291e-05,3.26217e-05,4.47305e-05,6.06808e-05,8.16914e-05,0.000109368,0.000145824,0.000193846,0.000257103,0.000340428,0.000450188,0.00059477,0.000785219,0.00103609,0.00136655,0.00180184,0.00237523,0.00313053,0.00412544,0.005436,0.00716232,0.00943631,0.0124317,0.0163774,0.0215749,0.0284213,inf	148.126,148.126,100.95,15.5035,18.8152,78.4611,214.484,323.918,338.903,320.127,328.072,344.966,354.956,355.229,339.616,318.752,311.074,318.087,332.603,355.669,389.109,423.295,445.902,457.61,464.442,469.843,468.794,444.62,444.62,342.844,342.844,342.844
0.00111216	-13757758.92	0,1.75966e-06,4.07756e-06,7.13082e-06,1.11527e-05,1.64506e-05,2.34291e-05,3.26217e-05,4.47305e-05,6.06808e-05,8.16914e-05,0.000109368,0.000145824,0.000193846,0.000257103,0.000340428,0.000450188,0.00059477,0.000785219,0.00103609,0.00136655,0.00180184,0.00237523,0.00313053,0.00412544,0.005436,0.00716232,0.00943631,0.0124317,0.0163774,0.0215749,0.0284213,inf	149.312,149.312,101.525,12.3018,15.5747,73.783,216.32,330.319,339.826,316.259,324.729,343.606,355.984,357.797,341.965,320.25,312.426,319.453,333.541,356.076,389.13,422.783,444.579,455.629,462.604,469.118,468.992,442.855,442.855,334.403,334.403,334.403
0.00115308	-13756850.36	0,1.75966e-06,4.07756e-06,7.13082e-06,1.11527e-05,1.64506e-05,2.34291e-05,3.26217e-05,4.47305e-05,6.06808e-05,8.16914e-05,0.000109368,0.000145824,0.000193846,0.000257103,0.000340428,0.000450188,0.00059477,0.000785219,0.00103609,0.00136655,0.00180184,0.00237523,0.00313053,0.00412544,0.005436,0.00716232,0.00943631,0.0124317,0.0163774,0.0215749,0.0284213,inf	149.326,149.326,101.339,9.81748,13.133,70.2135,219.309,337.392,340.903,312.616,321.566,342.2,356.8,360.042,344.025,321.625,313.79,320.885,334.58,356.604,389.248,422.319,443.261,453.568,460.547,468.026,468.748,440.695,440.695,326.468,326.468,326.468
0.00119217	-13756048.39	0,1.75966e-06,4.07756e-06,7.13082e-06,1.11527e-05,1.64506e-05,2.34291e-05,3.26217e-05,4.47305e-05,6.06808e-05,8.16914e-05,0.000109368,0.000145824,0.000193846,0.000257103,0.000340428,0.000450188,0.00059477,0.000785219,0.00103609,0.00136655,0.00180184,0.00237523,0.00313053,0.00412544,0.005436,0.00716232,0.00943631,0.0124317,0.0163774,0.0215749,0.0284213,inf	149.543,149.543,100.663,7.92021,11.244,67.432,223.148,344.898,342.062,309.249,318.669,340.872,357.527,362.061,345.85,322.877,315.125,322.323,335.658,357.199,389.432,421.909,441.99,451.508,458.383,466.698,468.193,438.27,438.27,319.05,319.05,319.05
0.00122957	-13755336.73	0,1.75966e-06,4.07756e-06,7.13082e-06,1.11527e-05,1.64506e-05,2.34291e-05,3.26217e-05,4.47305e-05,6.06808e-05,8.16914e-05,0.000109368,0.000145824,0.000193846,0.000257103,0.000340428,0.000450188,0.00059477,0.000785219,0.00103609,0.00136655,0.00180184,0.00237523,0.00313053,0.00412544,0.005436,0.00716232,0.00943631,0.0124317,0.0163774,0.0215749,0.0284213,inf	149.5,149.5,99.5272,6.42681,9.74493,65.2042,227.562,352.618,343.233,306.147,316.071,339.693,358.24,363.916,347.481,324.014,316.41,323.732,336.735,357.824,389.658,421.55,440.787,449.495,456.185,465.224,467.418,435.676,435.676,312.141,312.141,312.141
0.00126539	-13754702.33	0,1.75966e-06,4.07756e-06,7.13082e-06,1.11527e-05,1.64506e-05,2.34291e-05,3.26217e-05,4.47305e-05,6.06808e-05,8.16914e-05,0.000109368,0.000145824,0.000193846,0.000257103,0.000340428,0.000450188,0.00059477,0.000785219,0.00103609,0.00136655,0.00180184,0.00237523,0.00313053,0.00412544,0.005436,0.00716232,0.00943631,0.0124317,0.0163774,0.0215749,0.0284213,inf	149.306,149.306,98.0316,5.23547,8.53464,63.4,232.351,360.395,344.339,303.29,313.769,338.695,358.988,365.659,348.952,325.05,317.636,325.092,337.787,358.456,389.908,421.24,439.662,447.555,454,463.667,466.495,432.985,432.985,305.724,305.724,305.724
0.00129973	-13754134.50	0,1.75966e-06,4.07756e-06,7.13082e-06,1.11527e-05,1.64506e-05,2.34291e-05,3.26217e-05,4.47305e-05,6.06808e-05,8.16914e-05,0.000109368,0.000145824,0.000193846,0.000257103,0.000340428,0.000450188,0.00059477,0.000785219,0.00103609,0.00136655,0.00180184,0.00237523,0.00313053,0.00412544,0.005436,0.00716232,0.00943631,0.0124317,0.0163774,0.0215749,0.0284213,inf	149.171,149.171,96.3404,4.30068,7.54174,61.9135,237.38,368.081,345.341,300.653,311.754,337.888,359.797,367.322,350.293,325.996,318.8,326.393,338.799,359.077,390.172,420.971,438.615,445.702,451.859,462.071,465.473,430.25,430.25,299.772,299.772,299.772
0.00133269	-13753624.42	0,1.75966e-06,4.07756e-06,7.13082e-06,1.11527e-05,1.64506e-05,2.34291e-05,3.26217e-05,4.47305e-05,6.06808e-05,8.16914e-05,0.000109368,0.000145824,0.000193846,0.000257103,0.000340428,0.000450188,0.00059477,0.000785219,0.00103609,0.00136655,0.00180184,0.00237523,0.00313053,0.00412544,0.005436,0.00716232,0.00943631,0.0124317,0.0163774,0.0215749,0.0284213,inf	149.029,149.029,94.4481,3.54635,6.71748,60.6662,242.545,375.581,346.198,298.212,310.002,337.274,360.681,368.927,351.525,326.863,319.903,327.63,339.763,359.678,390.44,420.74,437.645,443.942,449.779,460.468,464.391,427.511,427.511,294.254,294.254,294.254
0.00136436	-13753164.70	0,1.75966e-06,4.07756e-06,7.13082e-06,1.11527e-05,1.64506e-05,2.34291e-05,3.26217e-05,4.47305e-05,6.06808e-05,8.16914e-05,0.000109368,0.000145824,0.000193846,0.000257103,0.000340428,0.000450188,0.00059477,0.000785219,0.00103609,0.00136655,0.00180184,0.00237523,0.00313053,0.00412544,0.005436,0.00716232,0.00943631,0.0124317,0.0163774,0.0215749,0.0284213,inf	149.008,149.008,92.4913,2.94071,6.02606,59.6056,247.768,382.845,346.883,295.942,308.489,336.839,361.642,370.489,352.666,327.661,320.946,328.803,340.676,360.253,390.705,420.539,436.749,442.276,447.772,458.879,463.277,424.798,424.798,289.142,289.142,289.142
0.0013948	-13752749.15	0,1.75966e-06,4.07756e-06,7.13082e-06,1.11527e-05,1.64506e-05,2.34291e-05,3.26217e-05,4.47305e-05,6.06808e-05,8.16914e-05,0.000109368,0.000145824,0.000193846,0.000257103,0.000340428,0.000450188,0.00059477,0.000785219,0.00103609,0.00136655,0.00180184,0.00237523,0.00313053,0.00412544,0.005436,0.00716232,0.00943631,0.0124317,0.0163774,0.0215749,0.0284213,inf	149.212,149.212,90.4749,2.45174,5.44095,58.7014,252.996,389.819,347.392,293.823,307.19,336.572,362.679,372.017,353.728,328.401,321.936,329.912,341.537,360.798,390.962,420.365,435.922,440.704,445.844,457.319,462.152,422.13,422.13,284.404,284.404,284.404
0.00142408	-13752372.50	0,1.75966e-06,4.07756e-06,7.13082e-06,1.11527e-05,1.64506e-05,2.34291e-05,3.26217e-05,4.47305e-05,6.06808e-05,8.16914e-05,0.000109368,0.000145824,0.000193846,0.000257103,0.000340428,0.000450188,0.00059477,0.000785219,0.00103609,0.00136655,0.00180184,0.00237523,0.00313053,0.00412544,0.005436,0.00716232,0.00943631,0.0124317,0.0163774,0.0215749,0.0284213,inf	149.464,149.464,88.4196,2.05385,4.94488,57.9344,258.205,396.487,347.723,291.842,306.083,336.46,363.788,373.515,354.722,329.088,322.873,330.96,342.345,361.31,391.209,420.214,435.159,439.22,443.997,455.799,461.032,419.525,419.525,280.012,280.012,280.012
0.00145228	-13752030.24	0,1.75966e-06,4.07756e-06,7.13082e-06,1.11527e-05,1.64506e-05,2.34291e-05,3.26217e-05,4.47305e-05,6.06808e-05,8.16914e-05,0.000109368,0.000145824,0.000193846,0.000257103,0.000340428,0.000450188,0.00059477,0.000785219,0.00103609,0.00136655,0.00180184,0.00237523,0.00313053,0.00412544,0.005436,0.00716232,0.00943631,0.0124317,0.0163774,0.0215749,0.0284213,inf	149.906,149.906,86.3653,1.72822,4.51535,57.2737,263.377,402.834,347.877,289.977,305.147,336.483,364.961,374.987,355.656,329.729,323.763,331.95,343.103,361.79,391.444,420.082,434.454,437.822,442.232,454.325,459.927,416.992,416.992,275.938,275.938,275.938
0.00147944	-13751718.53	0,1.75966e-06,4.07756e-06,7.13082e-06,1.11527e-05,1.64506e-05,2.34291e-05,3.26217e-05,4.47305e-05,6.06808e-05,8.16914e-05,0.000109368,0.000145824,0.000193846,0.000257103,0.000340428,0.000450188,0.00059477,0.000785219,0.00103609,0.00136655,0.00180184,0.00237523,0.00313053,0.00412544,0.005436,0.00716232,0.00943631,0.0124317,0.0163774,0.0215749,0.0284213,inf	150.386,150.386,84.3061,1.45987,4.14455,56.7158,268.488,408.864,347.867,288.22,304.359,336.63,366.19,376.433,356.536,330.331,324.609,332.886,343.813,362.238,391.666,419.966,433.803,436.503,440.546,452.901,458.846,414.539,414.539,272.156,272.156,272.156
