6.59451e-05	-1897028.61	0,1.77836e-07,4.1209e-07,7.20661e-07,1.12713e-06,1.66254e-06,2.36782e-06,3.29684e-06,4.52059e-06,6.13258e-06,8.25597e-06,1.1053e-05,1.47374e-05,1.95906e-05,2.59836e-05,3.44047e-05,4.54973e-05,6.01091e-05,7.93565e-05,0.00010471,0.000138107,0.000182099,0.000240048,0.00031638,0.000416929,0.000549377,0.000723844,0.000953661,0.00125639,0.00165515,0.00218042,0.00287234,inf	491.923,491.923,1144.32,1991.68,3166.35,4452.87,5163.96,4892.73,4286.97,3782.27,3477.74,3368.77,3412.46,3524.45,3648.67,3781.88,3900.02,3993.04,4042.84,4013.93,3981.69,3988.79,3981.64,4007.68,4078.66,4052.9,4015.66,4102.3,4102.3,5234.21,5234.21,5234.21
6.84801e-05	-1896956.62	0,1.77836e-07,4.1209e-07,7.20661e-07,1.12713e-06,1.66254e-06,2.36782e-06,3.29684e-06,4.52059e-06,6.13258e-06,8.25597e-06,1.1053e-05,1.47374e-05,1.95906e-05,2.59836e-05,3.44047e-05,4.54973e-05,6.01091e-05,7.93565e-05,0.00010471,0.000138107,0.000182099,0.000240048,0.00031638,0.000416929,0.000549377,0.000723844,0.000953661,0.00125639,0.00165515,0.00218042,0.00287234,inf	58.3061,58.3061,313.237,938.603,2348,4607.02,6225.64,5755.59,4642.42,3766.54,3256.63,3074.12,3141.45,3314.02,3500.53,3705.94,3891,4039.35,4113.7,4043.9,3976.97,3988.05,3972.19,4018.18,4153.42,4105.26,4029.52,4193.54,4193.54,7369.53,7369.53,7369.53
7.0727e-05	-1896907.14	0,1.77836e-07,4.1209e-07,7.20661e-07,1.12713e-06,1.66254e-06,2.36782e-06,3.29684e-06,4.52059e-06,6.13258e-06,8.25597e-06,1.1053e-05,1.47374e-05,1.95906e-05,2.59836e-05,3.44047e-05,4.54973e-05,6.01091e-05,7.93565e-05,0.00010471,0.000138107,0.000182099,0.000240048,0.00031638,0.000416929,0.000549377,0.000723844,0.000953661,0.00125639,0.00165515,0.00218042,0.00287234,inf	4.2532,4.2532,80.9284,416.343,1626.88,4432.95,6999.29,6436.59,4930.51,3779.56,3125.63,2895.39,2984.56,3198.47,3420.61,3670.18,3898.24,4085.42,4174.63,4062.39,3964.07,3979.21,3954.14,4014.55,4206.21,4137.53,4021.85,4251.15,4251.15,12644.3,12644.3,12644.3
7.27335e-05	-1896870.39	0,1.77836e-07,4.1209e-07,7.20661e-07,1.12713e-06,1.66254e-06,2.36782e-06,3.29684e-06,4.52059e-06,6.13258e-06,8.25597e-06,1.1053e-05,1.47374e-05,1.95906e-05,2.59836e-05,3.44047e-05,4.54973e-05,6.01091e-05,7.93565e-05,0.00010471,0.000138107,0.000182099,0.000240048,0.00031638,0.000416929,0.000549377,0.000723844,0.000953661,0.00125639,0.00165515,0.00218042,0.00287234,inf	3.96444,3.96444,20.1265,177.652,1080.57,4071.69,7515.67,6949.3,5149.25,3791.75,3033.76,2772.81,2884.62,3130.35,3373.61,3651.57,3909.29,4126.91,4227.1,4074.25,3949.08,3969.17,3934.78,4005.15,4246.13,4158.29,4001.5,4284.06,4284.06,49638.2,49638.2,49638.2
7.27335e-05	-1896842.25	0,1.77836e-07,4.1209e-07,7.20661e-07,1.12713e-06,1.66254e-06,2.36782e-06,3.29684e-06,4.52059e-06,6.13258e-06,8.25597e-06,1.1053e-05,1.47374e-05,1.95906e-05,2.59836e-05,3.44047e-05,4.54973e-05,6.01091e-05,7.93565e-05,0.00010471,0.000138107,0.000182099,0.000240048,0.00031638,0.000416929,0.000549377,0.000723844,0.000953661,0.00125639,0.00165515,0.00218042,0.00287234,inf	3.96444,3.96444,4.88839,73.7459,695.661,3613.49,7788.06,7281.52,5275.13,3770.34,2941.16,2662.51,2796.54,3066,3318.92,3612.52,3888.82,4129.7,4238.28,4050.57,3905.99,3933.32,3892.52,3971.71,4256.53,4154.33,3959.03,4286.16,4286.16,588661,588661,588661
