LogLikelihood = -659261.00664924760349

y0 0.17463573776471355559
y0_prime 0
y1 0.27267248377096647838
y1_prime 0
y2 2.157093511306785949
y2_prime 0
y3 29.18443551080941134
y3_prime 0
rho 0.00027048802076677262241
theta 0.0018151994226338224493
